{
    "goal": {
        "global_pose": {
            "orientation": {
                "w": 0.5084816217422485,
                "x": -0.49083608388900757,
                "y": 0.5182115435600281,
                "z": -0.4816462993621826
            },
            "position": {
                "x": 0.5540239810943604,
                "y": 0.030875300988554955,
                "z": 0.16403168439865112
            }
        },
        "name": "move_to_storage_A"
    },
    "id": "LBKPIECE_move_to_storage_A_57",
    "joint_names": [
        "shoulder_pan_joint",
        "shoulder_lift_joint",
        "elbow_joint",
        "wrist_1_joint",
        "wrist_2_joint",
        "wrist_3_joint"
    ],
    "metrics": {
        "cart_traj_len": 0.3531972017747056,
        "distance_elbow_joint": 0.4495320489310062,
        "distance_shoulder_lift_joint": 0.2348638653058459,
        "distance_shoulder_pan_joint": 0.4636998212368397,
        "distance_wrist_1_joint": 0.2402647825094094,
        "distance_wrist_2_joint": 1.0912498703695144,
        "distance_wrist_3_joint": 0.0925581815404608,
        "smoothness": 8.881784232165597e-16,
        "time": 0.461354023,
        "traj_len": 1.6037981699369395,
        "weighted_distance": 2.0220780365388773
    },
    "planner": "LBKPIECE",
    "start": {
        "state": {
            "elbow_joint": 1.971548259319323,
            "shoulder_lift_joint": -1.1394851275133948,
            "shoulder_pan_joint": 0.1228115487234821,
            "wrist_1_joint": -0.7804723859257726,
            "wrist_2_joint": 0.12958671773740124,
            "wrist_3_joint": -3.192489227718131
        }
    },
    "waypoints": [
        {
            "positions": [
                0.1228115487234821,
                -1.1394851275133948,
                1.971548259319323,
                -0.7804723859257726,
                0.12958671773740124,
                -3.192489227718131
            ]
        },
        {
            "positions": [
                0.056568717118219286,
                -1.1730371082713729,
                2.035767123452324,
                -0.8147959262842597,
                0.2854795563616176,
                -3.179266630355208
            ]
        },
        {
            "positions": [
                -0.009674114487043528,
                -1.2065890890293507,
                2.099985987585325,
                -0.8491194666427467,
                0.4413723949858339,
                -3.166044032992285
            ]
        },
        {
            "positions": [
                -0.07591694609230634,
                -1.2401410697873287,
                2.1642048517183254,
                -0.8834430070012338,
                0.5972652336100502,
                -3.1528214356293622
            ]
        },
        {
            "positions": [
                -0.14215977769756916,
                -1.2736930505453068,
                2.2284237158513265,
                -0.9177665473597209,
                0.7531580722342666,
                -3.1395988382664393
            ]
        },
        {
            "positions": [
                -0.208402609302832,
                -1.3072450313032848,
                2.2926425799843275,
                -0.9520900877182079,
                0.909050910858483,
                -3.1263762409035163
            ]
        },
        {
            "positions": [
                -0.2746454409080948,
                -1.3407970120612627,
                2.356861444117328,
                -0.986413628076695,
                1.0649437494826992,
                -3.1131536435405933
            ]
        },
        {
            "positions": [
                -0.3408882725133576,
                -1.3743489928192407,
                2.421080308250329,
                -1.020737168435182,
                1.2208365881069156,
                -3.0999310461776703
            ]
        }
    ]
}{
    "goal": {
        "global_pose": {
            "orientation": {
                "w": 0.5084816217422485,
                "x": -0.49083608388900757,
                "y": 0.5182115435600281,
                "z": -0.4816462993621826
            },
            "position": {
                "x": 0.5540239810943604,
                "y": 0.030875300988554955,
                "z": 0.16403168439865112
            }
        },
        "name": "move_to_storage_A"
    },
    "id": "LBKPIECE_move_to_storage_A_57",
    "joint_names": [
        "shoulder_pan_joint",
        "shoulder_lift_joint",
        "elbow_joint",
        "wrist_1_joint",
        "wrist_2_joint",
        "wrist_3_joint"
    ],
    "metrics": {
        "cart_traj_len": 0.35377094895008243,
        "distance_elbow_joint": 0.451842268751498,
        "distance_shoulder_lift_joint": 0.2337232197422745,
        "distance_shoulder_pan_joint": 0.46489519725240197,
        "distance_wrist_1_joint": 0.25151438128920245,
        "distance_wrist_2_joint": 1.090094587431045,
        "distance_wrist_3_joint": 0.0938088519105631,
        "smoothness": 4.440892098500626e-16,
        "time": 0.11456803,
        "traj_len": 1.608066698360794,
        "weighted_distance": 2.028572202047134
    },
    "planner": "LBKPIECE",
    "start": {
        "state": {
            "elbow_joint": 1.97154746011099,
            "shoulder_lift_joint": -1.13948474672311,
            "shoulder_pan_joint": 0.12281154466712228,
            "wrist_1_joint": -0.7804688027058302,
            "wrist_2_joint": 0.12958655903071145,
            "wrist_3_joint": 3.0906928834467795
        }
    },
    "waypoints": [
        {
            "positions": [
                0.12281154466712228,
                -1.13948474672311,
                1.97154746011099,
                -0.7804688027058302,
                0.12958655903071145,
                3.0906928834467795
            ]
        },
        {
            "positions": [
                0.05639794505963629,
                -1.1728737781148635,
                2.0360963556469183,
                -0.8163994286042877,
                0.2853143572351464,
                3.1040941480054314
            ]
        },
        {
            "positions": [
                -0.010015654547849709,
                -1.206262809506617,
                2.1006452511828466,
                -0.8523300545027451,
                0.4410421554395815,
                3.1174954125640832
            ]
        },
        {
            "positions": [
                -0.0764292541553357,
                -1.2396518408983705,
                2.165194146718775,
                -0.8882606804012027,
                0.5967699536440164,
                3.130896677122735
            ]
        },
        {
            "positions": [
                -0.1428428537628217,
                -1.2730408722901239,
                2.229743042254703,
                -0.9241913062996602,
                0.7524977518484515,
                3.144297941681387
            ]
        },
        {
            "positions": [
                -0.20925645337030768,
                -1.3064299036818774,
                2.2942919377906312,
                -0.9601219321981176,
                0.9082255500528865,
                3.157699206240039
            ]
        },
        {
            "positions": [
                -0.2756700529777937,
                -1.339818935073631,
                2.3588408333265596,
                -0.9960525580965751,
                1.0639533482573214,
                3.1711004707986907
            ]
        },
        {
            "positions": [
                -0.3420836525852797,
                -1.3732079664653845,
                2.423389728862488,
                -1.0319831839950326,
                1.2196811464617565,
                3.1845017353573426
            ]
        }
    ]
}{
    "goal": {
        "global_pose": {
            "orientation": {
                "w": 0.5084816217422485,
                "x": -0.49083608388900757,
                "y": 0.5182115435600281,
                "z": -0.4816462993621826
            },
            "position": {
                "x": 0.5540239810943604,
                "y": 0.030875300988554955,
                "z": 0.16403168439865112
            }
        },
        "name": "move_to_storage_A"
    },
    "id": "LBKPIECE_move_to_storage_A_57",
    "joint_names": [
        "shoulder_pan_joint",
        "shoulder_lift_joint",
        "elbow_joint",
        "wrist_1_joint",
        "wrist_2_joint",
        "wrist_3_joint"
    ],
    "metrics": {
        "cart_traj_len": 0.3533441185004442,
        "distance_elbow_joint": 0.4493156395571076,
        "distance_shoulder_lift_joint": 0.23302230834396398,
        "distance_shoulder_pan_joint": 0.4634956436898416,
        "distance_wrist_1_joint": 0.23966564728808915,
        "distance_wrist_2_joint": 1.092553101746376,
        "distance_wrist_3_joint": 0.08906732254167071,
        "smoothness": 0.0,
        "time": 0.449872822,
        "traj_len": 1.602223349963122,
        "weighted_distance": 2.0192753792598115
    },
    "planner": "LBKPIECE",
    "start": {
        "state": {
            "elbow_joint": 1.9715472970024885,
            "shoulder_lift_joint": -1.1394870060712896,
            "shoulder_pan_joint": 0.12281152778156021,
            "wrist_1_joint": -0.780463741449964,
            "wrist_2_joint": 0.12958659822042276,
            "wrist_3_joint": 3.090690232415272
        }
    },
    "waypoints": [
        {
            "positions": [
                0.12281152778156021,
                -1.1394870060712896,
                1.9715472970024885,
                -0.780463741449964,
                0.12958659822042276,
                3.090690232415272
            ]
        },
        {
            "positions": [
                0.05659786439729714,
                -1.1727759072632844,
                2.0357352455106468,
                -0.8147016910625482,
                0.2856656127556193,
                3.1034141356355107
            ]
        },
        {
            "positions": [
                -0.009615798986965934,
                -1.2060648084552794,
                2.099923194018805,
                -0.8489396406751323,
                0.44174462729081587,
                3.116138038855749
            ]
        },
        {
            "positions": [
                -0.075829462371229,
                -1.2393537096472742,
                2.1641111425269632,
                -0.8831775902877165,
                0.5978236418260124,
                3.128861942075988
            ]
        },
        {
            "positions": [
                -0.14204312575549208,
                -1.272642610839269,
                2.2282990910351215,
                -0.9174155399003007,
                0.753902656361209,
                3.1415858452962264
            ]
        },
        {
            "positions": [
                -0.20825678913975518,
                -1.3059315120312638,
                2.2924870395432797,
                -0.9516534895128848,
                0.9099816708964057,
                3.1543097485164653
            ]
        },
        {
            "positions": [
                -0.27447045252401825,
                -1.3392204132232588,
                2.356674988051438,
                -0.985891439125469,
                1.0660606854316022,
                3.1670336517367037
            ]
        },
        {
            "positions": [
                -0.34068411590828135,
                -1.3725093144152536,
                2.420862936559596,
                -1.0201293887380531,
                1.2221396999667988,
                3.1797575549569426
            ]
        }
    ]
}