{
    "goal": {
        "global_pose": {
            "orientation": {
                "w": -0.4816463035849501,
                "x": 0.5182115481033762,
                "y": 0.4908360881923453,
                "z": -0.5084816262002911
            },
            "position": {
                "x": -0.8240239810943604,
                "y": 0.19912469901144506,
                "z": 0.16403168439865112
            }
        },
        "name": "move_to_storage_D"
    },
    "id": "LBKPIECE_move_to_storage_D_147",
    "joint_names": [
        "shoulder_pan_joint",
        "shoulder_lift_joint",
        "elbow_joint",
        "wrist_1_joint",
        "wrist_2_joint",
        "wrist_3_joint"
    ],
    "metrics": {
        "cart_traj_len": 3.8366602147178566,
        "distance_elbow_joint": 4.2072709161251565,
        "distance_shoulder_lift_joint": 1.2649849556403447,
        "distance_shoulder_pan_joint": 2.8130364204581273,
        "distance_wrist_1_joint": 2.2612676974491595,
        "distance_wrist_2_joint": 1.2415088977645592,
        "distance_wrist_3_joint": 3.222856815979967,
        "smoothness": 0.05074728333104358,
        "time": 0.09011150300000001,
        "traj_len": 3.8743935917014567,
        "weighted_distance": 4.995939944654156
    },
    "planner": "LBKPIECE",
    "start": {
        "state": {
            "elbow_joint": -2.384821988534728,
            "shoulder_lift_joint": -2.2788054721415256,
            "shoulder_pan_joint": -0.1854694642142757,
            "wrist_1_joint": 1.4845938289331202,
            "wrist_2_joint": 0.17898776772866878,
            "wrist_3_joint": 0.037105688729662994
        }
    },
    "waypoints": [
        {
            "positions": [
                -0.1854694642142757,
                -2.2788054721415256,
                -2.384821988534728,
                1.4845938289331202,
                0.17898776772866878,
                0.037105688729662994
            ]
        },
        {
            "positions": [
                -0.06267801639358514,
                -2.2246424362513157,
                -2.383038169173754,
                1.387983440976138,
                0.14195671711587182,
                0.045367682398888304
            ]
        },
        {
            "positions": [
                0.06011343142710543,
                -2.170479400361106,
                -2.3812543498127803,
                1.2913730530191558,
                0.10492566650307483,
                0.05362967606811362
            ]
        },
        {
            "positions": [
                0.18290487924779594,
                -2.1163163644708964,
                -2.3794705304518065,
                1.1947626650621737,
                0.06789461589027787,
                0.06189166973733893
            ]
        },
        {
            "positions": [
                0.3056963270684866,
                -2.0621533285806866,
                -2.3776867110908326,
                1.0981522771051915,
                0.03086356527748088,
                0.07015366340656425
            ]
        },
        {
            "positions": [
                0.4284877748891771,
                -2.0079902926904767,
                -2.375902891729859,
                1.0015418891482093,
                -0.006167485335316088,
                0.07841565707578955
            ]
        },
        {
            "positions": [
                0.516170572595819,
                -1.9687588516709706,
                -2.2762647011208013,
                0.931278076509135,
                0.008028306510507614,
                0.005936987457606388
            ]
        },
        {
            "positions": [
                0.603853370302461,
                -1.9295274106514646,
                -2.1766265105117437,
                0.8610142638700606,
                0.022224098356331316,
                -0.06654168216057678
            ]
        },
        {
            "positions": [
                0.6915361680091029,
                -1.8902959696319586,
                -2.076988319902686,
                0.7907504512309864,
                0.03641989020215502,
                -0.13902035177875993
            ]
        },
        {
            "positions": [
                0.7792189657157449,
                -1.8510645286124525,
                -1.9773501292936286,
                0.7204866385919121,
                0.05061568204797872,
                -0.2114990213969431
            ]
        },
        {
            "positions": [
                0.8669017634223868,
                -1.8118330875929463,
                -1.8777119386845713,
                0.6502228259528378,
                0.06481147389380243,
                -0.28397769101512627
            ]
        },
        {
            "positions": [
                0.9545845611290287,
                -1.7726016465734402,
                -1.7780737480755138,
                0.5799590133137635,
                0.07900726573962613,
                -0.35645636063330943
            ]
        },
        {
            "positions": [
                1.0422673588356708,
                -1.7333702055539342,
                -1.6784355574664562,
                0.5096952006746891,
                0.09320305758544983,
                -0.4289350302514926
            ]
        },
        {
            "positions": [
                1.1299501565423125,
                -1.6941387645344281,
                -1.5787973668573987,
                0.4394313880356149,
                0.10739884943127354,
                -0.5014136998696758
            ]
        },
        {
            "positions": [
                1.2176329542489546,
                -1.654907323514922,
                -1.4791591762483414,
                0.36916757539654066,
                0.12159464127709724,
                -0.5738923694878589
            ]
        },
        {
            "positions": [
                1.3053157519555965,
                -1.615675882495416,
                -1.3795209856392838,
                0.2989037627574662,
                0.13579043312292094,
                -0.6463710391060421
            ]
        },
        {
            "positions": [
                1.3929985496622384,
                -1.57644444147591,
                -1.2798827950302263,
                0.228639950118392,
                0.14998622496874464,
                -0.7188497087242253
            ]
        },
        {
            "positions": [
                1.4806813473688802,
                -1.537213000456404,
                -1.1802446044211687,
                0.15837613747931778,
                0.16418201681456834,
                -0.7913283783424084
            ]
        },
        {
            "positions": [
                1.5683641450755224,
                -1.497981559436898,
                -1.0806064138121112,
                0.08811232484024334,
                0.17837780866039205,
                -0.8638070479605916
            ]
        },
        {
            "positions": [
                1.6560469427821642,
                -1.4587501184173917,
                -0.9809682232030537,
                0.01784851220116901,
                0.19257360050621578,
                -0.9362857175787748
            ]
        },
        {
            "positions": [
                1.7437297404888061,
                -1.4195186773978858,
                -0.8813300325939963,
                -0.0524153004379051,
                0.20676939235203945,
                -1.008764387196958
            ]
        },
        {
            "positions": [
                1.831412538195448,
                -1.3802872363783796,
                -0.7816918419849386,
                -0.12267911307697954,
                0.22096518419786315,
                -1.0812430568151412
            ]
        },
        {
            "positions": [
                1.9190953359020901,
                -1.3410557953588733,
                -0.682053651375881,
                -0.19294292571605398,
                0.23516097604368688,
                -1.1537217264333244
            ]
        },
        {
            "positions": [
                2.006778133608732,
                -1.3018243543393675,
                -0.5824154607668237,
                -0.263206738355128,
                0.24935676788951056,
                -1.2262003960515075
            ]
        },
        {
            "positions": [
                2.094460931315374,
                -1.2625929133198612,
                -0.48277727015776617,
                -0.3334705509942024,
                0.26355255973533426,
                -1.2986790656696907
            ]
        },
        {
            "positions": [
                2.182143729022016,
                -1.2233614723003554,
                -0.3831390795487086,
                -0.40373436363327686,
                0.27774835158115796,
                -1.3711577352878739
            ]
        },
        {
            "positions": [
                2.2698265267286577,
                -1.1841300312808491,
                -0.2835008889396513,
                -0.47399817627235086,
                0.29194414342698166,
                -1.443636404906057
            ]
        },
        {
            "positions": [
                2.3575093244352994,
                -1.1448985902613433,
                -0.18386269833059377,
                -0.5442619889114253,
                0.30613993527280536,
                -1.5161150745242402
            ]
        },
        {
            "positions": [
                2.4451921221419415,
                -1.105667149241837,
                -0.08422450772153622,
                -0.6145258015504997,
                0.32033572711862907,
                -1.5885937441424234
            ]
        },
        {
            "positions": [
                2.5328749198485836,
                -1.0664357082223312,
                0.015413682887521318,
                -0.6847896141895737,
                0.33453151896445277,
                -1.6610724137606065
            ]
        },
        {
            "positions": [
                2.6205577175552253,
                -1.027204267202825,
                0.11505187349657874,
                -0.7550534268286482,
                0.34872731081027647,
                -1.7335510833787897
            ]
        },
        {
            "positions": [
                2.6212586414240877,
                -1.0258658921326607,
                0.2857915789059638,
                -0.7572154709973873,
                0.41887319566577463,
                -1.8705090940967157
            ]
        },
        {
            "positions": [
                2.6219595652929506,
                -1.0245275170624961,
                0.4565312843153489,
                -0.7593775151661264,
                0.48901908052127285,
                -2.007467104814642
            ]
        },
        {
            "positions": [
                2.622660489161813,
                -1.0231891419923318,
                0.6272709897247339,
                -0.7615395593348655,
                0.559164965376771,
                -2.144425115532568
            ]
        },
        {
            "positions": [
                2.623361413030676,
                -1.0218507669221673,
                0.798010695134119,
                -0.7637016035036046,
                0.6293108502322692,
                -2.281383126250494
            ]
        },
        {
            "positions": [
                2.6240623368995384,
                -1.020512391852003,
                0.968750400543504,
                -0.7658636476723437,
                0.6994567350877674,
                -2.41834113696842
            ]
        },
        {
            "positions": [
                2.624763260768401,
                -1.0191740167818386,
                1.139490105952889,
                -0.7680256918410829,
                0.7696026199432655,
                -2.555299147686346
            ]
        },
        {
            "positions": [
                2.6254641846372637,
                -1.017835641711674,
                1.310229811362274,
                -0.770187736009822,
                0.8397485047987636,
                -2.6922571584042725
            ]
        },
        {
            "positions": [
                2.626165108506126,
                -1.0164972666415097,
                1.4809695167716592,
                -0.7723497801785612,
                0.909894389654262,
                -2.8292151691221985
            ]
        },
        {
            "positions": [
                2.626866032374989,
                -1.0151588915713452,
                1.651709222181044,
                -0.7745118243473003,
                0.9800402745097601,
                -2.9661731798401245
            ]
        },
        {
            "positions": [
                2.6275669562438515,
                -1.0138205165011809,
                1.8224489275904292,
                -0.7766738685160394,
                1.0501861593652582,
                -3.1031311905580505
            ]
        }
    ]
}