{
    "goal": {
        "global_pose": {
            "orientation": {
                "w": 0.005598929693374612,
                "x": 0.007748599140229565,
                "y": 0.7110244013736278,
                "z": -0.7031023480610252
            },
            "position": {
                "x": 0.1141497679147869,
                "y": -0.7141253447532654,
                "z": 0.3711530566215515
            }
        },
        "name": "move_to_auspresseinheit_B"
    },
    "id": "LBKPIECE_move_to_auspresseinheit_B_130",
    "joint_names": [
        "shoulder_pan_joint",
        "shoulder_lift_joint",
        "elbow_joint",
        "wrist_1_joint",
        "wrist_2_joint",
        "wrist_3_joint"
    ],
    "metrics": {
        "cart_traj_len": 0.5650684489275996,
        "distance_elbow_joint": 0.06084360313095161,
        "distance_shoulder_lift_joint": 0.2938434655849378,
        "distance_shoulder_pan_joint": 0.5776364536848313,
        "distance_wrist_1_joint": 0.31595152276017335,
        "distance_wrist_2_joint": 0.9919922632704137,
        "distance_wrist_3_joint": 0.010267794527160312,
        "smoothness": 0.0,
        "time": 0.437640123,
        "traj_len": 1.500178357049077,
        "weighted_distance": 1.8918283426472329
    },
    "planner": "LBKPIECE",
    "start": {
        "state": {
            "elbow_joint": 2.0193083361928714,
            "shoulder_lift_joint": -1.1220246554650708,
            "shoulder_pan_joint": -1.0952077554168747,
            "wrist_1_joint": -0.8559753972642168,
            "wrist_2_joint": 0.4759566250798843,
            "wrist_3_joint": -3.1240929996934557
        }
    },
    "waypoints": [
        {
            "positions": [
                -1.0952077554168747,
                -1.1220246554650708,
                2.0193083361928714,
                -0.8559753972642168,
                0.4759566250798843,
                -3.1240929996934557
            ]
        },
        {
            "positions": [
                -1.1914804976976798,
                -1.1709985663958937,
                2.009167735671046,
                -0.8033168101375212,
                0.6412886689582866,
                -3.1223817006055956
            ]
        },
        {
            "positions": [
                -1.287753239978485,
                -1.2199724773267167,
                1.9990271351492208,
                -0.7506582230108256,
                0.8066207128366889,
                -3.1206704015177356
            ]
        },
        {
            "positions": [
                -1.3840259822592902,
                -1.2689463882575396,
                1.9888865346273956,
                -0.69799963588413,
                0.9719527567150912,
                -3.1189591024298755
            ]
        },
        {
            "positions": [
                -1.4802987245400954,
                -1.3179202991883627,
                1.9787459341055704,
                -0.6453410487574346,
                1.1372848005934935,
                -3.1172478033420155
            ]
        },
        {
            "positions": [
                -1.5765714668209008,
                -1.3668942101191857,
                1.968605333583745,
                -0.5926824616307389,
                1.3026168444718957,
                -3.1155365042541554
            ]
        },
        {
            "positions": [
                -1.672844209101706,
                -1.4158681210500086,
                1.9584647330619198,
                -0.5400238745040434,
                1.467948888350298,
                -3.1138252051662954
            ]
        }
    ]
}