{
    "goal": {
        "global_pose": {
            "orientation": {
                "w": 0.7031023480610252,
                "x": -0.7110244013736278,
                "y": 0.0077485991402295624,
                "z": 0.005598929693374583
            },
            "position": {
                "x": -0.8841497679147869,
                "y": 0.44412534475326537,
                "z": 0.3711530566215515
            }
        },
        "name": "move_to_auspresseinheit_D"
    },
    "id": "LBKPIECE_move_to_auspresseinheit_D_68",
    "joint_names": [
        "shoulder_pan_joint",
        "shoulder_lift_joint",
        "elbow_joint",
        "wrist_1_joint",
        "wrist_2_joint",
        "wrist_3_joint"
    ],
    "metrics": {
        "cart_traj_len": 0.34460380036421034,
        "distance_elbow_joint": 0.6672140116013399,
        "distance_shoulder_lift_joint": 0.1380570913119099,
        "distance_shoulder_pan_joint": 0.13406769862666373,
        "distance_wrist_1_joint": 0.6154848299963929,
        "distance_wrist_2_joint": 1.4432011896248154,
        "distance_wrist_3_joint": 0.07667691383937969,
        "smoothness": 2.0724163155515192e-15,
        "time": 0.268720741,
        "traj_len": 1.7534827444262182,
        "weighted_distance": 2.299291539213866
    },
    "planner": "LBKPIECE",
    "start": {
        "state": {
            "elbow_joint": -1.8275523626775212,
            "shoulder_lift_joint": -2.126789852344167,
            "shoulder_pan_joint": -0.03513704404078235,
            "wrist_1_joint": -2.347782403156801,
            "wrist_2_joint": -1.6058999987535132,
            "wrist_3_joint": -3.0880379163319196
        }
    },
    "waypoints": [
        {
            "positions": [
                -0.03513704404078235,
                -2.126789852344167,
                -1.8275523626775212,
                -2.347782403156801,
                -1.6058999987535132,
                -3.0880379163319196
            ]
        },
        {
            "positions": [
                -0.051895506369115316,
                -2.1440469887581557,
                -1.7441506112273537,
                -2.42471800690635,
                -1.4254998500504112,
                -3.0784533021019973
            ]
        },
        {
            "positions": [
                -0.06865396869744828,
                -2.161304125172144,
                -1.6607488597771862,
                -2.5016536106558993,
                -1.2450997013473093,
                -3.0688686878720746
            ]
        },
        {
            "positions": [
                -0.08541243102578125,
                -2.178561261586133,
                -1.5773471083270187,
                -2.578589214405448,
                -1.0646995526442073,
                -3.0592840736421523
            ]
        },
        {
            "positions": [
                -0.10217089335411422,
                -2.195818398000122,
                -1.4939453568768513,
                -2.6555248181549973,
                -0.8842994039411055,
                -3.0496994594122295
            ]
        },
        {
            "positions": [
                -0.1189293556824472,
                -2.2130755344141106,
                -1.4105436054266838,
                -2.7324604219045465,
                -0.7038992552380036,
                -3.0401148451823072
            ]
        },
        {
            "positions": [
                -0.13568781801078014,
                -2.2303326708280995,
                -1.3271418539765163,
                -2.8093960256540953,
                -0.5234991065349017,
                -3.030530230952385
            ]
        },
        {
            "positions": [
                -0.15244628033911312,
                -2.247589807242088,
                -1.2437401025263488,
                -2.8863316294036445,
                -0.3430989578317998,
                -3.020945616722462
            ]
        },
        {
            "positions": [
                -0.1692047426674461,
                -2.2648469436560767,
                -1.1603383510761813,
                -2.9632672331531937,
                -0.16269880912869775,
                -3.01136100249254
            ]
        }
    ]
}