{
    "goal": {
        "global_pose": {
            "orientation": {
                "w": 0.005598929693374612,
                "x": 0.007748599140229565,
                "y": 0.7110244013736278,
                "z": -0.7031023480610252
            },
            "position": {
                "x": -0.8858502320852131,
                "y": -0.7141253447532654,
                "z": 0.3711530566215515
            }
        },
        "name": "move_to_auspresseinheit_C"
    },
    "id": "LBKPIECE_move_to_auspresseinheit_C_137",
    "joint_names": [
        "shoulder_pan_joint",
        "shoulder_lift_joint",
        "elbow_joint",
        "wrist_1_joint",
        "wrist_2_joint",
        "wrist_3_joint"
    ],
    "metrics": {
        "cart_traj_len": 0.4924255754976734,
        "distance_elbow_joint": 0.9971633838605161,
        "distance_shoulder_lift_joint": 0.32388132115735,
        "distance_shoulder_pan_joint": 0.2553857907972481,
        "distance_wrist_1_joint": 0.6679890033052958,
        "distance_wrist_2_joint": 1.3187272693871526,
        "distance_wrist_3_joint": 0.041420827869712795,
        "smoothness": 1.2918958829899756e-15,
        "time": 0.405215376,
        "traj_len": 1.8985698818787988,
        "weighted_distance": 2.382042301221611
    },
    "planner": "LBKPIECE",
    "start": {
        "state": {
            "elbow_joint": 1.7527959577737207,
            "shoulder_lift_joint": -0.9740617694225068,
            "shoulder_pan_joint": -2.967991417825858,
            "wrist_1_joint": -0.759517768980727,
            "wrist_2_joint": 1.7443932448377408,
            "wrist_3_joint": -3.0840537646736568
        }
    },
    "waypoints": [
        {
            "positions": [
                -2.967991417825858,
                -0.9740617694225068,
                1.7527959577737207,
                -0.759517768980727,
                1.7443932448377408,
                -3.0840537646736568
            ]
        },
        {
            "positions": [
                -2.9424528387461333,
                -0.9416736373067718,
                1.6530796193876691,
                -0.6927188686501974,
                1.6125205178990256,
                -3.088195847460628
            ]
        },
        {
            "positions": [
                -2.916914259666408,
                -0.9092855051910368,
                1.5533632810016174,
                -0.6259199683196678,
                1.4806477909603104,
                -3.0923379302475995
            ]
        },
        {
            "positions": [
                -2.8913756805866835,
                -0.8768973730753018,
                1.4536469426155658,
                -0.5591210679891383,
                1.348775064021595,
                -3.0964800130345704
            ]
        },
        {
            "positions": [
                -2.865837101506959,
                -0.8445092409595667,
                1.3539306042295143,
                -0.49232216765860864,
                1.2169023370828798,
                -3.100622095821542
            ]
        },
        {
            "positions": [
                -2.8402985224272337,
                -0.8121211088438318,
                1.2542142658434625,
                -0.4255232673280791,
                1.0850296101441645,
                -3.104764178608513
            ]
        },
        {
            "positions": [
                -2.814759943347509,
                -0.7797329767280967,
                1.154497927457411,
                -0.35872436699754956,
                0.9531568832054493,
                -3.1089062613954845
            ]
        },
        {
            "positions": [
                -2.7892213642677843,
                -0.7473448446123618,
                1.0547815890713594,
                -0.29192546666701996,
                0.8212841562667341,
                -3.113048344182456
            ]
        },
        {
            "positions": [
                -2.7636827851880597,
                -0.7149567124966267,
                0.9550652506853078,
                -0.2251265663364903,
                0.6894114293280187,
                -3.117190426969427
            ]
        },
        {
            "positions": [
                -2.7381442061083345,
                -0.6825685803808917,
                0.8553489122992561,
                -0.15832766600596082,
                0.5575387023893035,
                -3.121332509756398
            ]
        },
        {
            "positions": [
                -2.71260562702861,
                -0.6501804482651568,
                0.7556325739132046,
                -0.0915287656754312,
                0.4256659754505882,
                -3.1254745925433696
            ]
        }
    ]
}