{
    "goal": {
        "global_pose": {
            "orientation": {
                "w": -0.00223480608172531,
                "x": 0.0024358444001904467,
                "y": 0.7094548369677653,
                "z": -0.704743149386269
            },
            "position": {
                "x": 0.6205249238014221,
                "y": -0.6371506643295288,
                "z": 0.19426114857196808
            }
        },
        "name": "move_to_magneteinheit_B"
    },
    "id": "LBKPIECE_move_to_magneteinheit_B_5",
    "joint_names": [
        "shoulder_pan_joint",
        "shoulder_lift_joint",
        "elbow_joint",
        "wrist_1_joint",
        "wrist_2_joint",
        "wrist_3_joint"
    ],
    "metrics": {
        "cart_traj_len": 3.6998119898264177,
        "distance_elbow_joint": 4.28357745863748,
        "distance_shoulder_lift_joint": 1.0892213814998155,
        "distance_shoulder_pan_joint": 2.8687689216064984,
        "distance_wrist_1_joint": 4.525784309544364,
        "distance_wrist_2_joint": 3.528953366672753,
        "distance_wrist_3_joint": 2.1932836127865665,
        "smoothness": 0.11901514422470577,
        "time": 0.755385461,
        "traj_len": 4.299952214937683,
        "weighted_distance": 5.561554994112503
    },
    "planner": "LBKPIECE",
    "start": {
        "state": {
            "elbow_joint": 2.6216224122426386,
            "shoulder_lift_joint": -1.4174107377796124,
            "shoulder_pan_joint": 0.7066234856936794,
            "wrist_1_joint": 1.9546482284002225,
            "wrist_2_joint": -0.7096286983471962,
            "wrist_3_joint": 0.005740856962016249
        }
    },
    "waypoints": [
        {
            "positions": [
                0.7066234856936794,
                -1.4174107377796124,
                2.6216224122426386,
                1.9546482284002225,
                -0.7096286983471962,
                0.005740856962016249
            ]
        },
        {
            "positions": [
                0.6167250649090474,
                -1.4132120862118362,
                2.5830971065138564,
                1.9240754806162168,
                -0.6181193972501084,
                -0.09185579416727609
            ]
        },
        {
            "positions": [
                0.5268266441244154,
                -1.4090134346440601,
                2.5445718007850746,
                1.893502732832211,
                -0.5266100961530207,
                -0.1894524452965684
            ]
        },
        {
            "positions": [
                0.43692822333978343,
                -1.404814783076284,
                2.5060464950562924,
                1.8629299850482053,
                -0.4351007950559328,
                -0.28704909642586074
            ]
        },
        {
            "positions": [
                0.4220380278486629,
                -1.4442043461100682,
                2.38535448020077,
                1.756617675544801,
                -0.4191913527471961,
                -0.354793847451625
            ]
        },
        {
            "positions": [
                0.40714783235754237,
                -1.4835939091438524,
                2.264662465345247,
                1.6503053660413969,
                -0.4032819104384594,
                -0.4225385984773893
            ]
        },
        {
            "positions": [
                0.3922576368664219,
                -1.5229834721776365,
                2.1439704504897246,
                1.5439930565379927,
                -0.3873724681297227,
                -0.49028334950315355
            ]
        },
        {
            "positions": [
                0.37736744137530137,
                -1.562373035211421,
                2.023278435634202,
                1.4376807470345885,
                -0.37146302582098606,
                -0.5580281005289178
            ]
        },
        {
            "positions": [
                0.36247724588418084,
                -1.601762598245205,
                1.9025864207786796,
                1.3313684375311843,
                -0.35555358351224936,
                -0.6257728515546821
            ]
        },
        {
            "positions": [
                0.3475870503930603,
                -1.6411521612789892,
                1.7818944059231572,
                1.22505612802778,
                -0.33964414120351266,
                -0.6935176025804464
            ]
        },
        {
            "positions": [
                0.3326968549019398,
                -1.6805417243127734,
                1.6612023910676346,
                1.1187438185243759,
                -0.32373469889477596,
                -0.7612623536062106
            ]
        },
        {
            "positions": [
                0.3178066594108193,
                -1.7199312873465575,
                1.540510376212112,
                1.0124315090209717,
                -0.3078252565860393,
                -0.8290071046319749
            ]
        },
        {
            "positions": [
                0.30291646391969873,
                -1.759320850380342,
                1.4198183613565893,
                0.9061191995175675,
                -0.2919158142773026,
                -0.8967518556577392
            ]
        },
        {
            "positions": [
                0.28802626842857826,
                -1.798710413414126,
                1.2991263465010667,
                0.7998068900141633,
                -0.2760063719685659,
                -0.9644966066835035
            ]
        },
        {
            "positions": [
                0.27313607293745773,
                -1.8380999764479102,
                1.1784343316455443,
                0.6934945805107591,
                -0.2600969296598292,
                -1.0322413577092677
            ]
        },
        {
            "positions": [
                0.2582458774463372,
                -1.8774895394816944,
                1.0577423167900217,
                0.5871822710073549,
                -0.24418748735109252,
                -1.099986108735032
            ]
        },
        {
            "positions": [
                0.3740690545458286,
                -1.8930289578113635,
                0.9480220695798073,
                0.5166285561274082,
                -0.30587507712484274,
                -1.0919622061910397
            ]
        },
        {
            "positions": [
                0.4898922316453201,
                -1.9085683761410328,
                0.8383018223695928,
                0.44607484124746144,
                -0.36756266689859296,
                -1.0839383036470471
            ]
        },
        {
            "positions": [
                0.6057154087448116,
                -1.924107794470702,
                0.7285815751593783,
                0.3755211263675148,
                -0.4292502566723432,
                -1.0759144011030548
            ]
        },
        {
            "positions": [
                0.721538585844303,
                -1.939647212800371,
                0.6188613279491638,
                0.30496741148756806,
                -0.4909378464460934,
                -1.0678904985590625
            ]
        },
        {
            "positions": [
                0.8373617629437944,
                -1.95518663113004,
                0.5091410807389494,
                0.23441369660762135,
                -0.5526254362198435,
                -1.05986659601507
            ]
        },
        {
            "positions": [
                0.9531849400432858,
                -1.9707260494597094,
                0.3994208335287349,
                0.16385998172767463,
                -0.6143130259935938,
                -1.0518426934710776
            ]
        },
        {
            "positions": [
                1.0690081171427772,
                -1.9862654677893785,
                0.28970058631852047,
                0.09330626684772797,
                -0.6760006157673439,
                -1.0438187909270853
            ]
        },
        {
            "positions": [
                1.1848312942422687,
                -2.001804886119048,
                0.1799803391083059,
                0.022752551967781254,
                -0.7376882055410943,
                -1.035794888383093
            ]
        },
        {
            "positions": [
                1.30065447134176,
                -2.017344304448717,
                0.07026009189809146,
                -0.04780116291216541,
                -0.7993757953148444,
                -1.0277709858391004
            ]
        },
        {
            "positions": [
                1.4164776484412516,
                -2.032883722778386,
                -0.03946015531212299,
                -0.11835487779211218,
                -0.8610633850885946,
                -1.019747083295108
            ]
        },
        {
            "positions": [
                1.532300825540743,
                -2.048423141108055,
                -0.14918040252233755,
                -0.18890859267205895,
                -0.9227509748623449,
                -1.0117231807511158
            ]
        },
        {
            "positions": [
                1.6481240026402344,
                -2.063962559437724,
                -0.2589006497325519,
                -0.2594623075520056,
                -0.984438564636095,
                -1.0036992782071232
            ]
        },
        {
            "positions": [
                1.763947179739726,
                -2.0795019777673933,
                -0.36862089694276645,
                -0.3300160224319524,
                -1.0461261544098455,
                -0.9956753756631309
            ]
        },
        {
            "positions": [
                1.8797703568392172,
                -2.0950413960970624,
                -0.4783411441529808,
                -0.40056973731189893,
                -1.1078137441835954,
                -0.9876514731191385
            ]
        },
        {
            "positions": [
                1.995593533938709,
                -2.110580814426732,
                -0.5880613913631956,
                -0.4711234521918457,
                -1.1695013339573457,
                -0.979627570575146
            ]
        },
        {
            "positions": [
                2.1114167110382,
                -2.126120232756401,
                -0.6977816385734099,
                -0.5416771670717924,
                -1.231188923731096,
                -0.9716036680311537
            ]
        },
        {
            "positions": [
                2.227239888137692,
                -2.14165965108607,
                -0.8075018857836245,
                -0.6122308819517392,
                -1.2928765135048461,
                -0.9635797654871613
            ]
        },
        {
            "positions": [
                2.3430630652371827,
                -2.1571990694157392,
                -0.9172221329938388,
                -0.6827845968316857,
                -1.3545641032785962,
                -0.955555862943169
            ]
        },
        {
            "positions": [
                2.458886242336675,
                -2.1727384877454083,
                -1.0269423802040534,
                -0.7533383117116326,
                -1.4162516930523465,
                -0.9475319603991765
            ]
        },
        {
            "positions": [
                2.543256742117045,
                -2.2043782233761107,
                -1.2075362043022317,
                -0.7677663631066443,
                -1.4078453966290718,
                -0.8917285455376127
            ]
        },
        {
            "positions": [
                2.6276272418974154,
                -2.236017959006813,
                -1.3881300284004099,
                -0.782194414501656,
                -1.399439100205797,
                -0.8359251306760489
            ]
        },
        {
            "positions": [
                2.6318026292728205,
                -2.2552204970976644,
                -1.413129711557385,
                -0.6474845753742422,
                -1.2576470154553483,
                -0.7723623524591022
            ]
        },
        {
            "positions": [
                2.6359780166482256,
                -2.274423035188516,
                -1.4381293947143603,
                -0.5127747362468285,
                -1.1158549307048993,
                -0.7087995742421556
            ]
        },
        {
            "positions": [
                2.6401534040236307,
                -2.2936255732793676,
                -1.4631290778713353,
                -0.37806489711941454,
                -0.9740628459544505,
                -0.6452367960252089
            ]
        },
        {
            "positions": [
                2.644328791399036,
                -2.3128281113702194,
                -1.4881287610283105,
                -0.24335505799200075,
                -0.8322707612040016,
                -0.5816740178082622
            ]
        },
        {
            "positions": [
                2.648504178774441,
                -2.3320306494610707,
                -1.5131284441852857,
                -0.10864521886458689,
                -0.6904786764535528,
                -0.5181112395913156
            ]
        },
        {
            "positions": [
                2.652679566149846,
                -2.351233187551922,
                -1.538128127342261,
                0.026064620262826965,
                -0.548686591703104,
                -0.4545484613743689
            ]
        },
        {
            "positions": [
                2.6568549535252513,
                -2.370435725642774,
                -1.5631278104992359,
                0.1607744593902407,
                -0.40689450695265506,
                -0.39098568315742227
            ]
        },
        {
            "positions": [
                2.6610303409006564,
                -2.3896382637336253,
                -1.588127493656211,
                0.29548429851765456,
                -0.26510242220220603,
                -0.32742290494047555
            ]
        },
        {
            "positions": [
                2.6652057282760615,
                -2.408840801824477,
                -1.6131271768131863,
                0.43019413764506853,
                -0.12331033745175723,
                -0.2638601267235289
            ]
        },
        {
            "positions": [
                2.6693811156514666,
                -2.4280433399153285,
                -1.6381268599701615,
                0.5649039767724823,
                0.01848174729869151,
                -0.20029734850658218
            ]
        },
        {
            "positions": [
                2.666295757266791,
                -2.4458422965678093,
                -1.6460695887783883,
                0.7121850685619319,
                0.17071991717347715,
                -0.13767471955289245
            ]
        },
        {
            "positions": [
                2.663210398882115,
                -2.4636412532202905,
                -1.6540123175866148,
                0.8594661603513816,
                0.3229580870482628,
                -0.07505209059920273
            ]
        },
        {
            "positions": [
                2.6601250404974395,
                -2.4814402098727713,
                -1.6619550463948416,
                1.0067472521408312,
                0.47519625692304845,
                -0.012429461645512997
            ]
        }
    ]
}