{
    "goal": {
        "global_pose": {
            "orientation": {
                "w": 0.7047431468963623,
                "x": -0.7094548344612122,
                "y": 0.0024358443915843964,
                "z": -0.0022348060738295317
            },
            "position": {
                "x": 0.6094750761985779,
                "y": 0.3671506643295288,
                "z": 0.19426114857196808
            }
        },
        "name": "move_to_magneteinheit_A"
    },
    "id": "LBKPIECE_move_to_magneteinheit_A_141",
    "joint_names": [
        "shoulder_pan_joint",
        "shoulder_lift_joint",
        "elbow_joint",
        "wrist_1_joint",
        "wrist_2_joint",
        "wrist_3_joint"
    ],
    "metrics": {
        "cart_traj_len": 3.3630933230572477,
        "distance_elbow_joint": 3.910284892657969,
        "distance_shoulder_lift_joint": 0.5136142995398656,
        "distance_shoulder_pan_joint": 2.6751173643175585,
        "distance_wrist_1_joint": 3.4603145158303277,
        "distance_wrist_2_joint": 2.3419309000794994,
        "distance_wrist_3_joint": 0.680746055410232,
        "smoothness": 0.2712712563476644,
        "time": 0.517996475,
        "traj_len": 3.685377596371293,
        "weighted_distance": 4.55474977957799
    },
    "planner": "LBKPIECE",
    "start": {
        "state": {
            "elbow_joint": -1.9196185241190666,
            "shoulder_lift_joint": -1.2443396400964142,
            "shoulder_pan_joint": 2.6996025414629847,
            "wrist_1_joint": -1.5485510000780065,
            "wrist_2_joint": -1.5709468930060704,
            "wrist_3_joint": 0.4420197071253992
        }
    },
    "waypoints": [
        {
            "positions": [
                2.6996025414629847,
                -1.2443396400964142,
                -1.9196185241190666,
                -1.5485510000780065,
                -1.5709468930060704,
                0.4420197071253992
            ]
        },
        {
            "positions": [
                2.6011765698524933,
                -1.2317922701658328,
                -1.816406306801365,
                -1.4621245382223746,
                -1.4965765417786643,
                0.42094917228330225
            ]
        },
        {
            "positions": [
                2.5027505982420024,
                -1.2192449002352517,
                -1.7131940894836633,
                -1.3756980763667428,
                -1.4222061905512584,
                0.3998786374412054
            ]
        },
        {
            "positions": [
                2.404324626631511,
                -1.2066975303046705,
                -1.6099818721659616,
                -1.2892716145111107,
                -1.3478358393238523,
                0.37880810259910846
            ]
        },
        {
            "positions": [
                2.3058986550210196,
                -1.1941501603740892,
                -1.5067696548482599,
                -1.2028451526554789,
                -1.2734654880964462,
                0.3577375677570116
            ]
        },
        {
            "positions": [
                2.2074726834105287,
                -1.1816027904435078,
                -1.4035574375305582,
                -1.116418690799847,
                -1.1990951368690403,
                0.3366670329149147
            ]
        },
        {
            "positions": [
                2.1090467118000373,
                -1.1690554205129267,
                -1.3003452202128565,
                -1.0299922289442152,
                -1.1247247856416343,
                0.31559649807281775
            ]
        },
        {
            "positions": [
                2.010620740189546,
                -1.1565080505823455,
                -1.1971330028951546,
                -0.9435657670885832,
                -1.0503544344142282,
                0.2945259632307209
            ]
        },
        {
            "positions": [
                1.912194768579055,
                -1.1439606806517642,
                -1.093920785577453,
                -0.8571393052329515,
                -0.9759840831868223,
                0.273455428388624
            ]
        },
        {
            "positions": [
                1.8137687969685636,
                -1.1314133107211828,
                -0.9907085682597512,
                -0.7707128433773195,
                -0.9016137319594163,
                0.2523848935465271
            ]
        },
        {
            "positions": [
                1.7153428253580723,
                -1.1188659407906016,
                -0.8874963509420495,
                -0.6842863815216875,
                -0.8272433807320102,
                0.23131435870443018
            ]
        },
        {
            "positions": [
                1.6169168537475813,
                -1.1063185708600205,
                -0.7842841336243478,
                -0.5978599196660558,
                -0.7528730295046043,
                0.2102438238623333
            ]
        },
        {
            "positions": [
                1.51849088213709,
                -1.0937712009294391,
                -0.6810719163066461,
                -0.5114334578104238,
                -0.6785026782771982,
                0.1891732890202364
            ]
        },
        {
            "positions": [
                1.4200649105265988,
                -1.0812238309988578,
                -0.5778596989889444,
                -0.42500699595479197,
                -0.6041323270497923,
                0.16810275417813952
            ]
        },
        {
            "positions": [
                1.3216389389161074,
                -1.0686764610682766,
                -0.4746474816712425,
                -0.3385805340991599,
                -0.5297619758223862,
                0.14703221933604255
            ]
        },
        {
            "positions": [
                1.2232129673056162,
                -1.0561290911376955,
                -0.371435264353541,
                -0.25215407224352826,
                -0.4553916245949803,
                0.12596168449394568
            ]
        },
        {
            "positions": [
                1.124786995695125,
                -1.0435817212071141,
                -0.2682230470358393,
                -0.1657276103878964,
                -0.3810212733675742,
                0.10489114965184881
            ]
        },
        {
            "positions": [
                1.0263610240846337,
                -1.0310343512765328,
                -0.1650108297181374,
                -0.07930114853226433,
                -0.3066509221401681,
                0.08382061480975189
            ]
        },
        {
            "positions": [
                0.9279350524741425,
                -1.0184869813459516,
                -0.061798612400435715,
                0.0071253133233675214,
                -0.23228057091276222,
                0.06275007996765503
            ]
        },
        {
            "positions": [
                0.8295090808636514,
                -1.0059396114153705,
                0.041413604917265756,
                0.09355177517899937,
                -0.15791021968535612,
                0.041679545125558104
            ]
        },
        {
            "positions": [
                0.73108310925316,
                -0.9933922414847891,
                0.14462582223496767,
                0.17997823703463145,
                -0.08353986845795003,
                0.020609010283461182
            ]
        },
        {
            "positions": [
                0.6326571376426688,
                -0.9808448715542079,
                0.24783803955266936,
                0.2664046988902633,
                -0.009169517230544155,
                -0.0004615245586356842
            ]
        },
        {
            "positions": [
                0.5342311660321779,
                -0.9682975016236266,
                0.35105025687037106,
                0.35283116074589493,
                0.06520083399686172,
                -0.02153205940073255
            ]
        },
        {
            "positions": [
                0.4358051944216861,
                -0.9557501316930453,
                0.45426247418807275,
                0.439257622601527,
                0.13957118522426804,
                -0.04260259424282953
            ]
        },
        {
            "positions": [
                0.33737922281119515,
                -0.9432027617624641,
                0.5574746915057746,
                0.5256840844571591,
                0.2139415364516739,
                -0.06367312908492644
            ]
        },
        {
            "positions": [
                0.2779489187966046,
                -0.9395192067581104,
                0.6885215322706721,
                0.6378153764849841,
                0.24106504799141015,
                -0.046896855555267986
            ]
        },
        {
            "positions": [
                0.21851861478201406,
                -0.9358356517537567,
                0.8195683730355696,
                0.7499466685128091,
                0.2681885595311464,
                -0.03012058202560953
            ]
        },
        {
            "positions": [
                0.15908831076742352,
                -0.9321520967494031,
                0.9506152138004672,
                0.862077960540634,
                0.2953120710708826,
                -0.013344308495951071
            ]
        },
        {
            "positions": [
                0.099658006752833,
                -0.9284685417450494,
                1.0816620545653648,
                0.974209252568459,
                0.32243558261061883,
                0.0034319650337073793
            ]
        },
        {
            "positions": [
                0.0931659478914841,
                -0.9066308089403262,
                1.210547778173573,
                1.0872224043607672,
                0.2621358972481425,
                0.017409930569557377
            ]
        },
        {
            "positions": [
                0.08667388903013519,
                -0.884793076135603,
                1.339433501781781,
                1.2002355561530755,
                0.20183621188566622,
                0.031387896105407376
            ]
        },
        {
            "positions": [
                0.08018183016878629,
                -0.8629553433308798,
                1.4683192253899895,
                1.3132487079453838,
                0.14153652652318993,
                0.045365861641257374
            ]
        },
        {
            "positions": [
                0.07368977130743738,
                -0.8411176105261565,
                1.5972049489981976,
                1.426261859737692,
                0.08123684116071363,
                0.05934382717710737
            ]
        },
        {
            "positions": [
                0.0880713922294881,
                -0.8637463554272589,
                1.7273547776594484,
                1.5886993901962558,
                0.06620772295804471,
                0.03444205103670046
            ]
        },
        {
            "positions": [
                0.09967904997614155,
                -0.8344918470710904,
                1.8151253079525995,
                1.6963874320482781,
                0.0021008680212990793,
                0.025397222104211865
            ]
        },
        {
            "positions": [
                0.111286707722795,
                -0.8052373387149218,
                1.9028958382457508,
                1.8040754739003007,
                -0.06200598691544655,
                0.016352393171723267
            ]
        },
        {
            "positions": [
                0.12289436546944846,
                -0.7759828303587533,
                1.9906663685389019,
                1.911763515752323,
                -0.1261128418521922,
                0.007307564239234667
            ]
        }
    ]
}