{
    "goal": {
        "global_pose": {
            "orientation": {
                "w": 0.7031023480610252,
                "x": -0.7110244013736278,
                "y": 0.0077485991402295624,
                "z": 0.005598929693374583
            },
            "position": {
                "x": -0.8841497679147869,
                "y": 0.44412534475326537,
                "z": 0.3711530566215515
            }
        },
        "name": "move_to_auspresseinheit_D"
    },
    "id": "LBKPIECE_move_to_auspresseinheit_D_138",
    "joint_names": [
        "shoulder_pan_joint",
        "shoulder_lift_joint",
        "elbow_joint",
        "wrist_1_joint",
        "wrist_2_joint",
        "wrist_3_joint"
    ],
    "metrics": {
        "cart_traj_len": 0.3421128670234695,
        "distance_elbow_joint": 0.6336479816407157,
        "distance_shoulder_lift_joint": 0.11873870201354642,
        "distance_shoulder_pan_joint": 0.13299394588038974,
        "distance_wrist_1_joint": 0.5236576091355372,
        "distance_wrist_2_joint": 1.4352293600030916,
        "distance_wrist_3_joint": 0.0002990530576134631,
        "smoothness": 9.868649106494575e-16,
        "time": 0.577691367,
        "traj_len": 1.6865843150376127,
        "weighted_distance": 2.191814710915307
    },
    "planner": "LBKPIECE",
    "start": {
        "state": {
            "elbow_joint": -1.8275523626775212,
            "shoulder_lift_joint": -2.126789852344167,
            "shoulder_pan_joint": -0.03513704404078235,
            "wrist_1_joint": -2.347782403156801,
            "wrist_2_joint": -1.6058999987535132,
            "wrist_3_joint": -3.0880379163319196
        }
    },
    "waypoints": [
        {
            "positions": [
                -0.03513704404078235,
                -2.126789852344167,
                -1.8275523626775212,
                -2.347782403156801,
                -1.6058999987535132,
                -3.0880379163319196
            ]
        },
        {
            "positions": [
                -0.05176128727583107,
                -2.1416321900958604,
                -1.7483463649724318,
                -2.413239604298743,
                -1.4264963287531267,
                -3.0880752979641213
            ]
        },
        {
            "positions": [
                -0.06838553051087978,
                -2.1564745278475534,
                -1.6691403672673424,
                -2.478696805440685,
                -1.2470926587527402,
                -3.088112679596323
            ]
        },
        {
            "positions": [
                -0.0850097737459285,
                -2.1713168655992465,
                -1.5899343695622528,
                -2.544154006582627,
                -1.0676889887523537,
                -3.0881500612285246
            ]
        },
        {
            "positions": [
                -0.10163401698097721,
                -2.18615920335094,
                -1.5107283718571634,
                -2.6096112077245692,
                -0.8882853187519674,
                -3.0881874428607263
            ]
        },
        {
            "positions": [
                -0.11825826021602592,
                -2.2010015411026336,
                -1.431522374152074,
                -2.6750684088665118,
                -0.7088816487515809,
                -3.088224824492928
            ]
        },
        {
            "positions": [
                -0.13488250345107466,
                -2.2158438788543267,
                -1.3523163764469843,
                -2.740525610008454,
                -0.5294779787511945,
                -3.0882622061251297
            ]
        },
        {
            "positions": [
                -0.15150674668612338,
                -2.2306862166060197,
                -1.273110378741895,
                -2.805982811150396,
                -0.350074308750808,
                -3.0882995877573314
            ]
        },
        {
            "positions": [
                -0.1681309899211721,
                -2.2455285543577133,
                -1.1939043810368055,
                -2.871440012292338,
                -0.17067063875042154,
                -3.088336969389533
            ]
        }
    ]
}