{
    "goal": {
        "global_pose": {
            "orientation": {
                "w": 0.005598929693374612,
                "x": 0.007748599140229565,
                "y": 0.7110244013736278,
                "z": -0.7031023480610252
            },
            "position": {
                "x": -0.8858502320852131,
                "y": -0.7141253447532654,
                "z": 0.3711530566215515
            }
        },
        "name": "move_to_auspresseinheit_C"
    },
    "id": "LBKPIECE_move_to_auspresseinheit_C_54",
    "joint_names": [
        "shoulder_pan_joint",
        "shoulder_lift_joint",
        "elbow_joint",
        "wrist_1_joint",
        "wrist_2_joint",
        "wrist_3_joint"
    ],
    "metrics": {
        "cart_traj_len": 0.4922487798237285,
        "distance_elbow_joint": 0.9926817778490145,
        "distance_shoulder_lift_joint": 0.3209943101618642,
        "distance_shoulder_pan_joint": 0.2562320546386987,
        "distance_wrist_1_joint": 0.670346988787978,
        "distance_wrist_2_joint": 1.30360788152701,
        "distance_wrist_3_joint": 0.045898389428497666,
        "smoothness": 1.6148698667872622e-16,
        "time": 0.387443718,
        "traj_len": 1.8946665676031398,
        "weighted_distance": 2.3781322611589637
    },
    "planner": "LBKPIECE",
    "start": {
        "state": {
            "elbow_joint": 1.7527959577737207,
            "shoulder_lift_joint": -0.9740617694225068,
            "shoulder_pan_joint": -2.967991417825858,
            "wrist_1_joint": -0.759517768980727,
            "wrist_2_joint": 1.7443932448377408,
            "wrist_3_joint": -3.0840537646736568
        }
    },
    "waypoints": [
        {
            "positions": [
                -2.967991417825858,
                -0.9740617694225068,
                1.7527959577737207,
                -0.759517768980727,
                1.7443932448377408,
                -3.0840537646736568
            ]
        },
        {
            "positions": [
                -2.942368212361988,
                -0.9419623384063204,
                1.6535277799888193,
                -0.6924830701019292,
                1.61403245668504,
                -3.0886436036165064
            ]
        },
        {
            "positions": [
                -2.916745006898118,
                -0.909862907390134,
                1.5542596022039177,
                -0.6254483712231313,
                1.4836716685323388,
                -3.0932334425593564
            ]
        },
        {
            "positions": [
                -2.8911218014342484,
                -0.8777634763739475,
                1.4549914244190163,
                -0.5584136723443336,
                1.3533108803796379,
                -3.097823281502206
            ]
        },
        {
            "positions": [
                -2.8654985959703785,
                -0.8456640453577611,
                1.355723246634115,
                -0.4913789734655358,
                1.2229500922269367,
                -3.102413120445056
            ]
        },
        {
            "positions": [
                -2.8398753905065086,
                -0.8135646143415747,
                1.2564550688492133,
                -0.42434427458673796,
                1.0925893040742358,
                -3.1070029593879056
            ]
        },
        {
            "positions": [
                -2.8142521850426387,
                -0.7814651833253883,
                1.157186891064312,
                -0.35730957570794014,
                0.9622285159215348,
                -3.111592798330755
            ]
        },
        {
            "positions": [
                -2.788628979578769,
                -0.7493657523092019,
                1.0579187132794106,
                -0.2902748768291424,
                0.8318677277688339,
                -3.1161826372736052
            ]
        },
        {
            "positions": [
                -2.763005774114899,
                -0.7172663212930155,
                0.9586505354945091,
                -0.22324017795034456,
                0.7015069396161329,
                -3.120772476216455
            ]
        },
        {
            "positions": [
                -2.737382568651029,
                -0.685166890276829,
                0.8593823577096076,
                -0.1562054790715467,
                0.5711461514634317,
                -3.125362315159305
            ]
        },
        {
            "positions": [
                -2.7117593631871593,
                -0.6530674592606426,
                0.7601141799247062,
                -0.08917078019274893,
                0.4407853633107309,
                -3.1299521541021544
            ]
        }
    ]
}