{
    "goal": {
        "global_pose": {
            "orientation": {
                "w": 0.7047431468963623,
                "x": -0.7094548344612122,
                "y": 0.0024358443915843964,
                "z": -0.0022348060738295317
            },
            "position": {
                "x": 0.6094750761985779,
                "y": 0.3671506643295288,
                "z": 0.19426114857196808
            }
        },
        "name": "move_to_magneteinheit_A"
    },
    "id": "LBKPIECE_move_to_magneteinheit_A_64",
    "joint_names": [
        "shoulder_pan_joint",
        "shoulder_lift_joint",
        "elbow_joint",
        "wrist_1_joint",
        "wrist_2_joint",
        "wrist_3_joint"
    ],
    "metrics": {
        "cart_traj_len": 3.3400364107419365,
        "distance_elbow_joint": 3.8768055593230724,
        "distance_shoulder_lift_joint": 0.3272046908334103,
        "distance_shoulder_pan_joint": 2.7121649551335527,
        "distance_wrist_1_joint": 1.0926153381397423,
        "distance_wrist_2_joint": 1.7383115510581193,
        "distance_wrist_3_joint": 2.5861865996719864,
        "smoothness": 0.14834963194490444,
        "time": 0.254343137,
        "traj_len": 3.5118782288342345,
        "weighted_distance": 4.509610712988619
    },
    "planner": "LBKPIECE",
    "start": {
        "state": {
            "elbow_joint": -1.9196185241190666,
            "shoulder_lift_joint": -1.2443396400964142,
            "shoulder_pan_joint": 2.6996025414629847,
            "wrist_1_joint": -1.5485510000780065,
            "wrist_2_joint": -1.5709468930060704,
            "wrist_3_joint": 0.4420197071253992
        }
    },
    "waypoints": [
        {
            "positions": [
                2.6996025414629847,
                -1.2443396400964142,
                -1.9196185241190666,
                -1.5485510000780065,
                -1.5709468930060704,
                0.4420197071253992
            ]
        },
        {
            "positions": [
                2.583100459013447,
                -1.2510195680810754,
                -1.8195161388174217,
                -1.488528206293677,
                -1.4946203240747742,
                0.4699201520272063
            ]
        },
        {
            "positions": [
                2.4665983765639097,
                -1.2576994960657364,
                -1.7194137535157767,
                -1.428505412509348,
                -1.4182937551434782,
                0.49782059692901337
            ]
        },
        {
            "positions": [
                2.350096294114372,
                -1.2643794240503974,
                -1.6193113682141318,
                -1.3684826187250185,
                -1.341967186212182,
                0.5257210418308205
            ]
        },
        {
            "positions": [
                2.2335942116648346,
                -1.2710593520350586,
                -1.5192089829124868,
                -1.3084598249406891,
                -1.265640617280886,
                0.5536214867326276
            ]
        },
        {
            "positions": [
                2.117092129215297,
                -1.2777392800197198,
                -1.419106597610842,
                -1.2484370311563597,
                -1.1893140483495899,
                0.5815219316344347
            ]
        },
        {
            "positions": [
                2.0005900467657596,
                -1.2844192080043808,
                -1.3190042123091967,
                -1.1884142373720306,
                -1.112987479418294,
                0.6094223765362419
            ]
        },
        {
            "positions": [
                1.884087964316222,
                -1.2910991359890418,
                -1.2189018270075518,
                -1.1283914435877012,
                -1.0366609104869977,
                0.6373228214380489
            ]
        },
        {
            "positions": [
                1.7675858818666845,
                -1.297779063973703,
                -1.1187994417059068,
                -1.068368649803372,
                -0.9603343415557016,
                0.6652232663398561
            ]
        },
        {
            "positions": [
                1.6510837994171468,
                -1.3044589919583642,
                -1.018697056404262,
                -1.0083458560190426,
                -0.8840077726244056,
                0.693123711241663
            ]
        },
        {
            "positions": [
                1.5345817169676093,
                -1.3111389199430252,
                -0.9185946711026169,
                -0.9483230622347132,
                -0.8076812036931095,
                0.7210241561434703
            ]
        },
        {
            "positions": [
                1.4180796345180717,
                -1.3178188479276862,
                -0.818492285800972,
                -0.8883002684503839,
                -0.7313546347618134,
                0.7489246010452772
            ]
        },
        {
            "positions": [
                1.3015775520685342,
                -1.3244987759123474,
                -0.7183899004993268,
                -0.8282774746660546,
                -0.6550280658305172,
                0.7768250459470845
            ]
        },
        {
            "positions": [
                1.1850754696189967,
                -1.3311787038970087,
                -0.6182875151976819,
                -0.7682546808817252,
                -0.5787014968992211,
                0.8047254908488916
            ]
        },
        {
            "positions": [
                1.0685733871694592,
                -1.3378586318816696,
                -0.5181851298960369,
                -0.7082318870973959,
                -0.502374927967925,
                0.8326259357506987
            ]
        },
        {
            "positions": [
                0.9520713047199216,
                -1.3445385598663306,
                -0.418082744594392,
                -0.6482090933130665,
                -0.4260483590366291,
                0.8605263806525058
            ]
        },
        {
            "positions": [
                0.8355692222703841,
                -1.3512184878509919,
                -0.3179803592927471,
                -0.5881862995287372,
                -0.34972179010533283,
                0.8884268255543128
            ]
        },
        {
            "positions": [
                0.7798634158303166,
                -1.338045183127178,
                -0.19067016741033885,
                -0.5951292842362456,
                -0.3141024467368987,
                1.0353265730903054
            ]
        },
        {
            "positions": [
                0.724157609390249,
                -1.3248718784033644,
                -0.0633599755279306,
                -0.6020722689437539,
                -0.2784831033684645,
                1.182226320626298
            ]
        },
        {
            "positions": [
                0.6684518029501815,
                -1.3116985736795506,
                0.06395021635447762,
                -0.6090152536512622,
                -0.24286376000003035,
                1.3291260681622907
            ]
        },
        {
            "positions": [
                0.6127459965101139,
                -1.298525268955737,
                0.1912604082368859,
                -0.6159582383587706,
                -0.20724441663159618,
                1.4760258156982833
            ]
        },
        {
            "positions": [
                0.5570401900700463,
                -1.285351964231923,
                0.3185706001192942,
                -0.6229012230662789,
                -0.171625073263162,
                1.622925563234276
            ]
        },
        {
            "positions": [
                0.5013343836299788,
                -1.2721786595081095,
                0.44588079200170233,
                -0.6298442077737872,
                -0.13600572989472784,
                1.7698253107702686
            ]
        },
        {
            "positions": [
                0.4456285771899112,
                -1.2590053547842956,
                0.5731909838841107,
                -0.6367871924812956,
                -0.10038638652629367,
                1.9167250583062612
            ]
        },
        {
            "positions": [
                0.3899227707498437,
                -1.2458320500604818,
                0.7005011757665189,
                -0.6437301771888039,
                -0.06476704315785953,
                2.0636248058422537
            ]
        },
        {
            "positions": [
                0.3342169643097761,
                -1.2326587453366682,
                0.8278113676489274,
                -0.6506731618963122,
                -0.02914769978942533,
                2.2105245533782467
            ]
        },
        {
            "positions": [
                0.2785111578697086,
                -1.2194854406128544,
                0.9551215595313356,
                -0.6576161466038206,
                0.006471643579008812,
                2.3574243009142393
            ]
        },
        {
            "positions": [
                0.22280535142964097,
                -1.2063121358890407,
                1.0824317514137436,
                -0.6645591313113288,
                0.04209098694744301,
                2.504324048450232
            ]
        },
        {
            "positions": [
                0.16709954498957347,
                -1.193138831165227,
                1.2097419432961518,
                -0.6715021160188372,
                0.07771033031587715,
                2.6512237959862244
            ]
        },
        {
            "positions": [
                0.11139373854950585,
                -1.1799655264414133,
                1.3370521351785603,
                -0.6784451007263456,
                0.11332967368431135,
                2.798123543522217
            ]
        },
        {
            "positions": [
                0.055687932109438384,
                -1.1667922217175994,
                1.4643623270609685,
                -0.6853880854338539,
                0.1489490170527455,
                2.9450232910582095
            ]
        },
        {
            "positions": [
                0.08981310499944117,
                -1.1488424332448792,
                1.710774681132487,
                -0.702912511276532,
                0.13974119655309392,
                2.9866147989277976
            ]
        },
        {
            "positions": [
                0.12393827788944398,
                -1.1308926447721592,
                1.957187035204006,
                -0.7204369371192102,
                0.13053337605344237,
                3.0282063067973857
            ]
        }
    ]
}