{
    "goal": {
        "global_pose": {
            "orientation": {
                "w": 0.7031023480610252,
                "x": -0.7110244013736278,
                "y": 0.0077485991402295624,
                "z": 0.005598929693374583
            },
            "position": {
                "x": -0.8841497679147869,
                "y": 0.44412534475326537,
                "z": 0.3711530566215515
            }
        },
        "name": "move_to_auspresseinheit_D"
    },
    "id": "LBKPIECE_move_to_auspresseinheit_D_96",
    "joint_names": [
        "shoulder_pan_joint",
        "shoulder_lift_joint",
        "elbow_joint",
        "wrist_1_joint",
        "wrist_2_joint",
        "wrist_3_joint"
    ],
    "metrics": {
        "cart_traj_len": 0.3452632103373755,
        "distance_elbow_joint": 0.6704411587386192,
        "distance_shoulder_lift_joint": 0.13860800498250203,
        "distance_shoulder_pan_joint": 0.13417450367190809,
        "distance_wrist_1_joint": 0.6334918829601901,
        "distance_wrist_2_joint": 1.4305658066434195,
        "distance_wrist_3_joint": 0.09379557846088282,
        "smoothness": 1.8750433314074363e-15,
        "time": 0.47428157,
        "traj_len": 1.7609874887282766,
        "weighted_distance": 2.313595855369493
    },
    "planner": "LBKPIECE",
    "start": {
        "state": {
            "elbow_joint": -1.8275523626775212,
            "shoulder_lift_joint": -2.126789852344167,
            "shoulder_pan_joint": -0.03513704404078235,
            "wrist_1_joint": -2.347782403156801,
            "wrist_2_joint": -1.6058999987535132,
            "wrist_3_joint": -3.0880379163319196
        }
    },
    "waypoints": [
        {
            "positions": [
                -0.03513704404078235,
                -2.126789852344167,
                -1.8275523626775212,
                -2.347782403156801,
                -1.6058999987535132,
                -3.0880379163319196
            ]
        },
        {
            "positions": [
                -0.05190885699977086,
                -2.1441158529669795,
                -1.7437472178351938,
                -2.4269688885268246,
                -1.4270792729230857,
                -3.076313469024309
            ]
        },
        {
            "positions": [
                -0.06868066995875938,
                -2.1614418535897926,
                -1.6599420729928664,
                -2.5061553738968483,
                -1.2482585470926584,
                -3.064589021716699
            ]
        },
        {
            "positions": [
                -0.08545248291774787,
                -2.178767854212605,
                -1.576136928150539,
                -2.585341859266872,
                -1.0694378212622309,
                -3.0528645744090888
            ]
        },
        {
            "positions": [
                -0.1022242958767364,
                -2.196093854835418,
                -1.4923317833082117,
                -2.6645283446368957,
                -0.8906170954318035,
                -3.041140127101478
            ]
        },
        {
            "positions": [
                -0.1189961088357249,
                -2.2134198554582305,
                -1.4085266384658843,
                -2.74371483000692,
                -0.711796369601376,
                -3.0294156797938676
            ]
        },
        {
            "positions": [
                -0.13576792179471342,
                -2.230745856081043,
                -1.3247214936235567,
                -2.8229013153769436,
                -0.5329756437709485,
                -3.0176912324862575
            ]
        },
        {
            "positions": [
                -0.15253973475370192,
                -2.2480718567038562,
                -1.2409163487812294,
                -2.9020878007469673,
                -0.35415491794052123,
                -3.0059667851786473
            ]
        },
        {
            "positions": [
                -0.16931154771269044,
                -2.265397857326669,
                -1.157111203938902,
                -2.981274286116991,
                -0.1753341921100938,
                -2.9942423378710368
            ]
        }
    ]
}