{
    "goal": {
        "global_pose": {
            "orientation": {
                "w": 0.7047431493862688,
                "x": -0.7094548369677653,
                "y": 0.0024358444001904,
                "z": -0.0022348060817251984
            },
            "position": {
                "x": -0.39052492380142206,
                "y": 0.3671506643295288,
                "z": 0.19426114857196808
            }
        },
        "name": "move_to_magneteinheit_D"
    },
    "id": "LBKPIECE_move_to_magneteinheit_D_88",
    "joint_names": [
        "shoulder_pan_joint",
        "shoulder_lift_joint",
        "elbow_joint",
        "wrist_1_joint",
        "wrist_2_joint",
        "wrist_3_joint"
    ],
    "metrics": {
        "cart_traj_len": 4.5743297862214956,
        "distance_elbow_joint": 3.1324740631802985,
        "distance_shoulder_lift_joint": 1.631835042423565,
        "distance_shoulder_pan_joint": 3.270251704094754,
        "distance_wrist_1_joint": 5.565761391645747,
        "distance_wrist_2_joint": 5.191689922499958,
        "distance_wrist_3_joint": 3.1617498283620917,
        "smoothness": 0.35324430905971044,
        "time": 0.39443060300000005,
        "traj_len": 4.6854841747898845,
        "weighted_distance": 6.247776638379153
    },
    "planner": "LBKPIECE",
    "start": {
        "state": {
            "elbow_joint": 0.749534889911806,
            "shoulder_lift_joint": -0.6476975780787326,
            "shoulder_pan_joint": -2.711696901376241,
            "wrist_1_joint": -0.07506478083263063,
            "wrist_2_joint": 0.43296659715538205,
            "wrist_3_joint": -3.14703540197715
        }
    },
    "waypoints": [
        {
            "positions": [
                -2.711696901376241,
                -0.6476975780787326,
                0.749534889911806,
                -0.07506478083263063,
                0.43296659715538205,
                -3.14703540197715
            ]
        },
        {
            "positions": [
                -2.7638998905711505,
                -0.7204607458441343,
                0.6759495951320007,
                -0.1166990104323054,
                0.34445386331566996,
                -3.083551313547446
            ]
        },
        {
            "positions": [
                -2.81610287976606,
                -0.793223913609536,
                0.6023643003521955,
                -0.15833324003198018,
                0.25594112947595793,
                -3.0200672251177423
            ]
        },
        {
            "positions": [
                -2.8683058689609693,
                -0.8659870813749377,
                0.5287790055723902,
                -0.19996746963165493,
                0.16742839563624584,
                -2.956583136688038
            ]
        },
        {
            "positions": [
                -2.9205088581558787,
                -0.9387502491403394,
                0.4551937107925849,
                -0.2416016992313297,
                0.0789156617965338,
                -2.893099048258334
            ]
        },
        {
            "positions": [
                -2.820278777924504,
                -0.9415690977676596,
                0.4002364468609211,
                -0.31200649730251967,
                -0.009262103267007687,
                -2.8286870744858614
            ]
        },
        {
            "positions": [
                -2.7200486976931293,
                -0.9443879463949798,
                0.3452791829292573,
                -0.3824112953737096,
                -0.09743986833054917,
                -2.764275100713389
            ]
        },
        {
            "positions": [
                -2.619818617461754,
                -0.9472067950223,
                0.2903219189975935,
                -0.45281609344489954,
                -0.18561763339409065,
                -2.6998631269409166
            ]
        },
        {
            "positions": [
                -2.5195885372303795,
                -0.9500256436496202,
                0.23536465506592968,
                -0.5232208915160895,
                -0.2737953984576321,
                -2.635451153168444
            ]
        },
        {
            "positions": [
                -2.4193584569990048,
                -0.9528444922769403,
                0.18040739113426585,
                -0.5936256895872795,
                -0.3619731635211736,
                -2.5710391793959717
            ]
        },
        {
            "positions": [
                -2.31912837676763,
                -0.9556633409042605,
                0.12545012720260207,
                -0.6640304876584694,
                -0.4501509285847151,
                -2.506627205623499
            ]
        },
        {
            "positions": [
                -2.2188982965362554,
                -0.9584821895315808,
                0.07049286327093829,
                -0.7344352857296593,
                -0.5383286936482565,
                -2.4422152318510264
            ]
        },
        {
            "positions": [
                -2.1186682163048802,
                -0.961301038158901,
                0.015535599339274453,
                -0.8048400838008493,
                -0.6265064587117981,
                -2.377803258078554
            ]
        },
        {
            "positions": [
                -2.0184381360735055,
                -0.9641198867862212,
                -0.03942166459238933,
                -0.8752448818720392,
                -0.7146842237753396,
                -2.3133912843060815
            ]
        },
        {
            "positions": [
                -1.9182080558421308,
                -0.9669387354135414,
                -0.09437892852405322,
                -0.9456496799432291,
                -0.802861988838881,
                -2.248979310533609
            ]
        },
        {
            "positions": [
                -1.8179779756107561,
                -0.9697575840408615,
                -0.1493361924557169,
                -1.0160544780144192,
                -0.8910397539024225,
                -2.1845673367611367
            ]
        },
        {
            "positions": [
                -1.7177478953793812,
                -0.9725764326681817,
                -0.20429345638738078,
                -1.086459276085609,
                -0.9792175189659641,
                -2.120155362988664
            ]
        },
        {
            "positions": [
                -1.6175178151480065,
                -0.9753952812955019,
                -0.25925072031904456,
                -1.156864074156799,
                -1.0673952840295053,
                -2.0557433892161914
            ]
        },
        {
            "positions": [
                -1.5172877349166318,
                -0.9782141299228221,
                -0.31420798425070834,
                -1.227268872227989,
                -1.1555730490930467,
                -1.9913314154437192
            ]
        },
        {
            "positions": [
                -1.4170576546852571,
                -0.9810329785501423,
                -0.3691652481823721,
                -1.2976736702991787,
                -1.2437508141565883,
                -1.9269194416712467
            ]
        },
        {
            "positions": [
                -1.316827574453882,
                -0.9838518271774624,
                -0.424122512114036,
                -1.3680784683703688,
                -1.3319285792201299,
                -1.862507467898774
            ]
        },
        {
            "positions": [
                -1.2165974942225073,
                -0.9866706758047826,
                -0.4790797760456998,
                -1.4384832664415588,
                -1.4201063442836712,
                -1.7980954941263017
            ]
        },
        {
            "positions": [
                -1.1163674139911326,
                -0.9894895244321028,
                -0.5340370399773635,
                -1.5088880645127487,
                -1.5082841093472128,
                -1.7336835203538292
            ]
        },
        {
            "positions": [
                -1.016137333759758,
                -0.992308373059423,
                -0.5889943039090273,
                -1.5792928625839384,
                -1.5964618744107542,
                -1.6692715465813566
            ]
        },
        {
            "positions": [
                -0.915907253528383,
                -0.9951272216867433,
                -0.6439515678406913,
                -1.6496976606551286,
                -1.6846396394742957,
                -1.6048595728088841
            ]
        },
        {
            "positions": [
                -0.8156771732970083,
                -0.9979460703140635,
                -0.6989088317723551,
                -1.7201024587263185,
                -1.772817404537837,
                -1.5404475990364115
            ]
        },
        {
            "positions": [
                -0.7154470930656336,
                -1.0007649189413836,
                -0.7538660957040186,
                -1.7905072567975084,
                -1.8609951696013787,
                -1.476035625263939
            ]
        },
        {
            "positions": [
                -0.6152170128342589,
                -1.0035837675687038,
                -0.8088233596356824,
                -1.8609120548686984,
                -1.94917293466492,
                -1.4116236514914666
            ]
        },
        {
            "positions": [
                -0.5149869326028838,
                -1.006402616196024,
                -0.8637806235673464,
                -1.9313168529398883,
                -2.037350699728462,
                -1.347211677718994
            ]
        },
        {
            "positions": [
                -0.41475685237150905,
                -1.0092214648233442,
                -0.9187378874990102,
                -2.0017216510110782,
                -2.125528464792003,
                -1.2827997039465215
            ]
        },
        {
            "positions": [
                -0.31452677214013436,
                -1.0120403134506644,
                -0.973695151430674,
                -2.072126449082268,
                -2.2137062298555445,
                -1.218387730174049
            ]
        },
        {
            "positions": [
                -0.3046001658620601,
                -1.0577911206516168,
                -1.0122165092714963,
                -1.9366289115202173,
                -2.1063548299943635,
                -1.1752292277292846
            ]
        },
        {
            "positions": [
                -0.2946735595839859,
                -1.1035419278525693,
                -1.0507378671123189,
                -1.8011313739581662,
                -1.999003430133182,
                -1.1320707252845201
            ]
        },
        {
            "positions": [
                -0.28474695330591165,
                -1.1492927350535218,
                -1.0892592249531412,
                -1.6656338363961152,
                -1.891652030272001,
                -1.0889122228397556
            ]
        },
        {
            "positions": [
                -0.2748203470278374,
                -1.1950435422544743,
                -1.1277805827939635,
                -1.5301362988340643,
                -1.7843006304108195,
                -1.0457537203949911
            ]
        },
        {
            "positions": [
                -0.2648937407497632,
                -1.2407943494554268,
                -1.1663019406347859,
                -1.3946387612720135,
                -1.6769492305496385,
                -1.0025952179502267
            ]
        },
        {
            "positions": [
                -0.25496713447168895,
                -1.2865451566563793,
                -1.2048232984756084,
                -1.2591412237099624,
                -1.5695978306884573,
                -0.9594367155054621
            ]
        },
        {
            "positions": [
                -0.2450405281936147,
                -1.332295963857332,
                -1.2433446563164308,
                -1.1236436861479113,
                -1.462246430827276,
                -0.9162782130606975
            ]
        },
        {
            "positions": [
                -0.23511392191554045,
                -1.3780467710582842,
                -1.281866014157253,
                -0.9881461485858605,
                -1.3548950309660948,
                -0.873119710615933
            ]
        },
        {
            "positions": [
                -0.2251873156374662,
                -1.423797578259237,
                -1.3203873719980757,
                -0.8526486110238094,
                -1.2475436311049135,
                -0.8299612081711685
            ]
        },
        {
            "positions": [
                -0.21526070935939198,
                -1.4695483854601892,
                -1.358908729838898,
                -0.7171510734617585,
                -1.1401922312437323,
                -0.786802705726404
            ]
        },
        {
            "positions": [
                -0.20533410308131772,
                -1.5152991926611419,
                -1.3974300876797203,
                -0.5816535358997075,
                -1.032840831382551,
                -0.7436442032816395
            ]
        },
        {
            "positions": [
                -0.19540749680324349,
                -1.5610499998620941,
                -1.4359514455205429,
                -0.4461559983376566,
                -0.92548943152137,
                -0.700485700836875
            ]
        },
        {
            "positions": [
                -0.18548089052516928,
                -1.6068008070630468,
                -1.4744728033613652,
                -0.31065846077560577,
                -0.8181380316601887,
                -0.6573271983921105
            ]
        },
        {
            "positions": [
                -0.17555428424709502,
                -1.6525516142639993,
                -1.5129941612021875,
                -0.17516092321355448,
                -0.7107866317990073,
                -0.6141686959473459
            ]
        },
        {
            "positions": [
                -0.16562767796902078,
                -1.6983024214649518,
                -1.55151551904301,
                -0.039663385651503624,
                -0.6034352319378262,
                -0.5710101935025814
            ]
        },
        {
            "positions": [
                -0.15570107169094655,
                -1.744053228665904,
                -1.5900368768838324,
                0.09583415191054723,
                -0.49608383207664497,
                -0.5278516910578169
            ]
        },
        {
            "positions": [
                -0.1457744654128723,
                -1.7898040358668568,
                -1.6285582347246548,
                0.23133168947259808,
                -0.38873243221546394,
                -0.48469318861305244
            ]
        },
        {
            "positions": [
                -0.13584785913479805,
                -1.8355548430678092,
                -1.6670795925654773,
                0.3668292270346494,
                -0.28138103235428247,
                -0.44153468616828795
            ]
        },
        {
            "positions": [
                -0.12592125285672381,
                -1.8813056502687617,
                -1.7056009504062997,
                0.5023267645967002,
                -0.17402963249310144,
                -0.39837618372352346
            ]
        },
        {
            "positions": [
                -0.11599464657864961,
                -1.9270564574697142,
                -1.744122308247122,
                0.6378243021587511,
                -0.06667823263191996,
                -0.35521768127875897
            ]
        },
        {
            "positions": [
                -0.10606804030057537,
                -1.9728072646706667,
                -1.7826436660879443,
                0.7733218397208019,
                0.040673167229261065,
                -0.3120591788339945
            ]
        },
        {
            "positions": [
                -0.09614143402250111,
                -2.0185580718716194,
                -1.821165023928767,
                0.9088193772828532,
                0.14802456709044254,
                -0.2689006763892299
            ]
        },
        {
            "positions": [
                -0.08621482774442688,
                -2.0643088790725717,
                -1.8596863817695892,
                1.044316914844904,
                0.25537596695162335,
                -0.22574217394446533
            ]
        },
        {
            "positions": [
                -0.06524519417205568,
                -2.1161039465530966,
                -1.9576559733353698,
                1.136902285728429,
                0.2564654270851136,
                -0.15937270986158059
            ]
        },
        {
            "positions": [
                -0.04427556059968449,
                -2.1678990140336216,
                -2.0556255649011503,
                1.229487656611954,
                0.2575548872186039,
                -0.09300324577869584
            ]
        },
        {
            "positions": [
                -0.023305927027313298,
                -2.2196940815141466,
                -2.153595156466931,
                1.3220730274954788,
                0.2586443473520942,
                -0.026633781695811067
            ]
        },
        {
            "positions": [
                -0.10542433512059099,
                -2.249613351008222,
                -2.268267164867712,
                1.4093231509046622,
                0.22231108821139595,
                -0.005959677655434863
            ]
        },
        {
            "positions": [
                -0.18754274321386868,
                -2.2795326205022977,
                -2.382939173268493,
                1.4965732743138453,
                0.1859778290706977,
                0.014714426384941342
            ]
        }
    ]
}