{
    "goal": {
        "global_pose": {
            "orientation": {
                "w": -0.00223480608172531,
                "x": 0.0024358444001904467,
                "y": 0.7094548369677653,
                "z": -0.704743149386269
            },
            "position": {
                "x": 0.6205249238014221,
                "y": -0.6371506643295288,
                "z": 0.19426114857196808
            }
        },
        "name": "move_to_magneteinheit_B"
    },
    "id": "LBKPIECE_move_to_magneteinheit_B_41",
    "joint_names": [
        "shoulder_pan_joint",
        "shoulder_lift_joint",
        "elbow_joint",
        "wrist_1_joint",
        "wrist_2_joint",
        "wrist_3_joint"
    ],
    "metrics": {
        "cart_traj_len": 3.9919317875278564,
        "distance_elbow_joint": 6.153734007510165,
        "distance_shoulder_lift_joint": 0.7683075226846956,
        "distance_shoulder_pan_joint": 3.4897090387651217,
        "distance_wrist_1_joint": 4.402926154539271,
        "distance_wrist_2_joint": 0.8407169882197563,
        "distance_wrist_3_joint": 3.1446781127622616,
        "smoothness": 0.4793955927489155,
        "time": 0.621606316,
        "traj_len": 4.335904960268533,
        "weighted_distance": 5.507546749031262
    },
    "planner": "LBKPIECE",
    "start": {
        "state": {
            "elbow_joint": 2.6216224122426386,
            "shoulder_lift_joint": -1.4174107377796124,
            "shoulder_pan_joint": 0.7066234856936794,
            "wrist_1_joint": 1.9546482284002225,
            "wrist_2_joint": -0.7096286983471962,
            "wrist_3_joint": 0.005740856962016249
        }
    },
    "waypoints": [
        {
            "positions": [
                0.7066234856936794,
                -1.4174107377796124,
                2.6216224122426386,
                1.9546482284002225,
                -0.7096286983471962,
                0.005740856962016249
            ]
        },
        {
            "positions": [
                0.6412891962810054,
                -1.4648637715934738,
                2.614205934445988,
                1.8546099080183702,
                -0.6388822454885404,
                -0.049515019363255
            ]
        },
        {
            "positions": [
                0.5759549068683314,
                -1.512316805407335,
                2.606789456649337,
                1.754571587636518,
                -0.5681357926298847,
                -0.10477089568852625
            ]
        },
        {
            "positions": [
                0.5106206174556575,
                -1.5597698392211963,
                2.5993729788526867,
                1.6545332672546655,
                -0.49738933977122896,
                -0.1600267720137975
            ]
        },
        {
            "positions": [
                0.4452863280429835,
                -1.6072228730350577,
                2.591956501056036,
                1.5544949468728133,
                -0.4266428869125732,
                -0.21528264833906874
            ]
        },
        {
            "positions": [
                0.5188398637344972,
                -1.6083724932993844,
                2.4518440686646925,
                1.4561638981509277,
                -0.4349402105582053,
                -0.2829778258918774
            ]
        },
        {
            "positions": [
                0.5923933994260109,
                -1.6095221135637112,
                2.311731636273349,
                1.3578328494290421,
                -0.44323753420383744,
                -0.3506730034446861
            ]
        },
        {
            "positions": [
                0.6659469351175246,
                -1.6106717338280379,
                2.1716192038820052,
                1.2595018007071566,
                -0.45153485784946956,
                -0.41836818099749473
            ]
        },
        {
            "positions": [
                0.7395004708090382,
                -1.6118213540923647,
                2.031506771490662,
                1.161170751985271,
                -0.45983218149510174,
                -0.48606335855030347
            ]
        },
        {
            "positions": [
                0.8130540065005519,
                -1.6129709743566913,
                1.8913943390993184,
                1.0628397032633854,
                -0.46812950514073387,
                -0.5537585361031121
            ]
        },
        {
            "positions": [
                0.8866075421920656,
                -1.6141205946210182,
                1.751281906707975,
                0.9645086545414998,
                -0.476426828786366,
                -0.6214537136559208
            ]
        },
        {
            "positions": [
                0.9601610778835793,
                -1.6152702148853448,
                1.6111694743166316,
                0.8661776058196142,
                -0.4847241524319981,
                -0.6891488912087295
            ]
        },
        {
            "positions": [
                1.033714613575093,
                -1.6164198351496715,
                1.471057041925288,
                0.7678465570977286,
                -0.49302147607763025,
                -0.7568440687615382
            ]
        },
        {
            "positions": [
                1.1072681492666065,
                -1.6175694554139983,
                1.3309446095339446,
                0.6695155083758432,
                -0.5013187997232624,
                -0.8245392463143468
            ]
        },
        {
            "positions": [
                1.1808216849581203,
                -1.618719075678325,
                1.190832177142601,
                0.5711844596539576,
                -0.5096161233688945,
                -0.8922344238671555
            ]
        },
        {
            "positions": [
                1.2543752206496341,
                -1.6198686959426518,
                1.0507197447512575,
                0.4728534109320719,
                -0.5179134470145267,
                -0.9599296014199642
            ]
        },
        {
            "positions": [
                1.3279287563411475,
                -1.6210183162069784,
                0.9106073123599141,
                0.3745223622101863,
                -0.5262107706601589,
                -1.0276247789727728
            ]
        },
        {
            "positions": [
                1.4014822920326613,
                -1.6221679364713053,
                0.7704948799685705,
                0.2761913134883007,
                -0.5345080943057909,
                -1.0953199565255816
            ]
        },
        {
            "positions": [
                1.475035827724175,
                -1.623317556735632,
                0.6303824475772271,
                0.17786026476641514,
                -0.5428054179514231,
                -1.1630151340783903
            ]
        },
        {
            "positions": [
                1.5485893634156886,
                -1.6244671769999586,
                0.4902700151858834,
                0.07952921604452956,
                -0.5511027415970552,
                -1.2307103116311988
            ]
        },
        {
            "positions": [
                1.6221428991072024,
                -1.6256167972642854,
                0.35015758279454,
                -0.018801832677356023,
                -0.5594000652426874,
                -1.2984054891840078
            ]
        },
        {
            "positions": [
                1.695696434798716,
                -1.626766417528612,
                0.2100451504031966,
                -0.11713288139924138,
                -0.5676973888883194,
                -1.3661006667368163
            ]
        },
        {
            "positions": [
                1.7692499704902298,
                -1.627916037792939,
                0.06993271801185319,
                -0.21546393012112697,
                -0.5759947125339516,
                -1.4337958442896248
            ]
        },
        {
            "positions": [
                1.8428035061817432,
                -1.6290656580572656,
                -0.07017971437949022,
                -0.31379497884301255,
                -0.5842920361795838,
                -1.5014910218424333
            ]
        },
        {
            "positions": [
                1.9163570418732572,
                -1.6302152783215924,
                -0.21029214677083408,
                -0.41212602756489813,
                -0.5925893598252159,
                -1.5691861993952423
            ]
        },
        {
            "positions": [
                1.9899105775647705,
                -1.631364898585919,
                -0.35040457916217704,
                -0.5104570762867835,
                -0.6008866834708481,
                -1.6368813769480508
            ]
        },
        {
            "positions": [
                2.0634641132562845,
                -1.632514518850246,
                -0.4905170115535209,
                -0.6087881250086695,
                -0.6091840071164802,
                -1.7045765545008598
            ]
        },
        {
            "positions": [
                2.137017648947798,
                -1.6336641391145725,
                -0.6306294439448639,
                -0.7071191737305547,
                -0.6174813307621123,
                -1.7722717320536683
            ]
        },
        {
            "positions": [
                2.2105711846393117,
                -1.6348137593788992,
                -0.7707418763362077,
                -0.8054502224524407,
                -0.6257786544077444,
                -1.8399669096064768
            ]
        },
        {
            "positions": [
                2.2841247203308255,
                -1.635963379643226,
                -0.9108543087275511,
                -0.9037812711743258,
                -0.6340759780533766,
                -1.9076620871592853
            ]
        },
        {
            "positions": [
                2.3576782560223393,
                -1.6371129999075527,
                -1.050966741118895,
                -1.0021123198962119,
                -0.6423733016990087,
                -1.9753572647120943
            ]
        },
        {
            "positions": [
                2.4312317917138526,
                -1.6382626201718795,
                -1.191079173510238,
                -1.100443368618097,
                -0.6506706253446408,
                -2.043052442264903
            ]
        },
        {
            "positions": [
                2.504785327405367,
                -1.6394122404362061,
                -1.3311916059015818,
                -1.198774417339983,
                -0.658967948990273,
                -2.1107476198177118
            ]
        },
        {
            "positions": [
                2.5783388630968798,
                -1.640561860700533,
                -1.4713040382929248,
                -1.2971054660618682,
                -0.6672652726359051,
                -2.1784427973705203
            ]
        },
        {
            "positions": [
                2.6518923987883936,
                -1.6417114809648596,
                -1.611416470684269,
                -1.3954365147837542,
                -0.6755625962815373,
                -2.2461379749233292
            ]
        },
        {
            "positions": [
                2.7254459344799074,
                -1.6428611012291863,
                -1.7515289030756116,
                -1.4937675635056393,
                -0.6838599199271693,
                -2.3138331524761377
            ]
        },
        {
            "positions": [
                2.798999470171421,
                -1.6440107214935131,
                -1.891641335466956,
                -1.5920986122275254,
                -0.6921572435728015,
                -2.3815283300289467
            ]
        },
        {
            "positions": [
                2.872553005862935,
                -1.6451603417578398,
                -2.0317537678582993,
                -1.6904296609494105,
                -0.7004545672184337,
                -2.449223507581755
            ]
        },
        {
            "positions": [
                2.9461065415544487,
                -1.6463099620221666,
                -2.1718662002496427,
                -1.788760709671296,
                -0.7087518908640658,
                -2.5169186851345637
            ]
        },
        {
            "positions": [
                3.0196600772459625,
                -1.6474595822864933,
                -2.311978632640986,
                -1.8870917583931817,
                -0.7170492145096979,
                -2.5846138626873723
            ]
        },
        {
            "positions": [
                3.0932136129374763,
                -1.64860920255082,
                -2.4520910650323295,
                -1.9854228071150672,
                -0.7253465381553301,
                -2.652309040240181
            ]
        },
        {
            "positions": [
                3.1667671486289892,
                -1.6497588228151467,
                -2.592203497423673,
                -2.083753855836953,
                -0.7336438618009622,
                -2.7200042177929897
            ]
        },
        {
            "positions": [
                3.1034057660629366,
                -1.716753752521292,
                -2.474714985193191,
                -2.1293193646247155,
                -0.7023025865638691,
                -2.772370847543897
            ]
        },
        {
            "positions": [
                3.040044383496884,
                -1.783748682227437,
                -2.3572264729627093,
                -2.174884873412478,
                -0.6709613113267762,
                -2.8247374772948035
            ]
        },
        {
            "positions": [
                2.976683000930832,
                -1.8507436119335823,
                -2.2397379607322274,
                -2.2204503822002404,
                -0.6396200360896831,
                -2.8771041070457106
            ]
        },
        {
            "positions": [
                2.913321618364779,
                -1.9177385416397272,
                -2.122249448501746,
                -2.266015890988003,
                -0.6082787608525901,
                -2.9294707367966177
            ]
        },
        {
            "positions": [
                2.8499602357987266,
                -1.9847334713458724,
                -2.004760936271264,
                -2.3115813997757653,
                -0.5769374856154971,
                -2.9818373665475244
            ]
        },
        {
            "positions": [
                2.7865988532326744,
                -2.0517284010520176,
                -1.8872724240407823,
                -2.3571469085635277,
                -0.545596210378404,
                -3.0342039962984315
            ]
        },
        {
            "positions": [
                2.723237470666622,
                -2.1187233307581628,
                -1.7697839118103005,
                -2.40271241735129,
                -0.514254935141311,
                -3.086570626049338
            ]
        },
        {
            "positions": [
                2.659876088100569,
                -2.185718260464308,
                -1.6522953995798186,
                -2.4482779261390526,
                -0.48291365990421803,
                -3.1389372558002453
            ]
        }
    ]
}