{
    "goal": {
        "global_pose": {
            "orientation": {
                "w": 0.005598929693374612,
                "x": 0.007748599140229565,
                "y": 0.7110244013736278,
                "z": -0.7031023480610252
            },
            "position": {
                "x": -0.8858502320852131,
                "y": -0.7141253447532654,
                "z": 0.3711530566215515
            }
        },
        "name": "move_to_auspresseinheit_C"
    },
    "id": "LBKPIECE_move_to_auspresseinheit_C_20",
    "joint_names": [
        "shoulder_pan_joint",
        "shoulder_lift_joint",
        "elbow_joint",
        "wrist_1_joint",
        "wrist_2_joint",
        "wrist_3_joint"
    ],
    "metrics": {
        "cart_traj_len": 0.49356077837885765,
        "distance_elbow_joint": 1.0075109899659584,
        "distance_shoulder_lift_joint": 0.32871286997863725,
        "distance_shoulder_pan_joint": 0.25681741783884604,
        "distance_wrist_1_joint": 0.6969038323241248,
        "distance_wrist_2_joint": 1.3025047468822626,
        "distance_wrist_3_joint": 0.07526459557241605,
        "smoothness": 3.2297397080004555e-16,
        "time": 0.294505485,
        "traj_len": 1.9151277901388841,
        "weighted_distance": 2.4119809748241106
    },
    "planner": "LBKPIECE",
    "start": {
        "state": {
            "elbow_joint": 1.7527959577737207,
            "shoulder_lift_joint": -0.9740617694225068,
            "shoulder_pan_joint": -2.967991417825858,
            "wrist_1_joint": -0.759517768980727,
            "wrist_2_joint": 1.7443932448377408,
            "wrist_3_joint": -3.0840537646736568
        }
    },
    "waypoints": [
        {
            "positions": [
                -2.967991417825858,
                -0.9740617694225068,
                1.7527959577737207,
                -0.759517768980727,
                1.7443932448377408,
                -3.0840537646736568
            ]
        },
        {
            "positions": [
                -2.9423096760419734,
                -0.9411904824246431,
                1.6520448587771248,
                -0.6898273857483145,
                1.6141427701495146,
                -3.0915802242308983
            ]
        },
        {
            "positions": [
                -2.9166279342580888,
                -0.9083191954267793,
                1.551293759780529,
                -0.620137002515902,
                1.4838922954612883,
                -3.09910668378814
            ]
        },
        {
            "positions": [
                -2.890946192474204,
                -0.8754479084289156,
                1.4505426607839331,
                -0.5504466192834896,
                1.353641820773062,
                -3.1066331433453818
            ]
        },
        {
            "positions": [
                -2.8652644506903195,
                -0.8425766214310518,
                1.3497915617873373,
                -0.48075623605107703,
                1.2233913460848358,
                -3.1141596029026233
            ]
        },
        {
            "positions": [
                -2.839582708906435,
                -0.8097053344331882,
                1.2490404627907414,
                -0.4110658528186646,
                1.0931408713966095,
                -3.121686062459865
            ]
        },
        {
            "positions": [
                -2.8139009671225503,
                -0.7768340474353245,
                1.1482893637941456,
                -0.34137546958625214,
                0.9628903967083833,
                -3.1292125220171063
            ]
        },
        {
            "positions": [
                -2.7882192253386657,
                -0.7439627604374607,
                1.0475382647975497,
                -0.27168508635383964,
                0.8326399220201571,
                -3.136738981574348
            ]
        },
        {
            "positions": [
                -2.762537483554781,
                -0.711091473439597,
                0.9467871658009539,
                -0.2019947031214271,
                0.7023894473319308,
                -3.14426544113159
            ]
        },
        {
            "positions": [
                -2.7368557417708965,
                -0.6782201864417332,
                0.8460360668043581,
                -0.1323043198890147,
                0.5721389726437045,
                -3.1517919006888313
            ]
        },
        {
            "positions": [
                -2.711173999987012,
                -0.6453488994438695,
                0.7452849678077621,
                -0.06261393665660216,
                0.4418884979554782,
                -3.159318360246073
            ]
        }
    ]
}