{
    "goal": {
        "global_pose": {
            "orientation": {
                "w": -0.4816463035849501,
                "x": 0.5182115481033762,
                "y": 0.4908360881923453,
                "z": -0.5084816262002911
            },
            "position": {
                "x": -0.8240239810943604,
                "y": 0.19912469901144506,
                "z": 0.16403168439865112
            }
        },
        "name": "move_to_storage_D"
    },
    "id": "LBKPIECE_move_to_storage_D_37",
    "joint_names": [
        "shoulder_pan_joint",
        "shoulder_lift_joint",
        "elbow_joint",
        "wrist_1_joint",
        "wrist_2_joint",
        "wrist_3_joint"
    ],
    "metrics": {
        "cart_traj_len": 3.9420023036339003,
        "distance_elbow_joint": 4.20713868981124,
        "distance_shoulder_lift_joint": 1.2663219793632483,
        "distance_shoulder_pan_joint": 2.812119671380827,
        "distance_wrist_1_joint": 2.2635411820791287,
        "distance_wrist_2_joint": 0.9082269511007793,
        "distance_wrist_3_joint": 3.229817677772781,
        "smoothness": 0.26466049700983774,
        "time": 0.25374753,
        "traj_len": 3.8323838731927675,
        "weighted_distance": 4.9313861783715
    },
    "planner": "LBKPIECE",
    "start": {
        "state": {
            "elbow_joint": -2.384821988534728,
            "shoulder_lift_joint": -2.2788054721415256,
            "shoulder_pan_joint": -0.1854694642142757,
            "wrist_1_joint": 1.4845938289331202,
            "wrist_2_joint": 0.17898776772866878,
            "wrist_3_joint": 0.037105688729662994
        }
    },
    "waypoints": [
        {
            "positions": [
                -0.1854694642142757,
                -2.2788054721415256,
                -2.384821988534728,
                1.4845938289331202,
                0.17898776772866878,
                0.037105688729662994
            ]
        },
        {
            "positions": [
                -0.13561008241889633,
                -2.2524862329226787,
                -2.3793599483898924,
                1.4755481041744156,
                0.15855165510924965,
                0.0844083678256798
            ]
        },
        {
            "positions": [
                -0.05677036193288107,
                -2.2137477253031284,
                -2.2761880797722975,
                1.405539558708076,
                0.17891386252103247,
                0.010562246743050008
            ]
        },
        {
            "positions": [
                0.02206935855313419,
                -2.175009217683578,
                -2.173016211154703,
                1.3355310132417362,
                0.19927606993281527,
                -0.06328387433957978
            ]
        },
        {
            "positions": [
                0.10090907903914945,
                -2.1362707100640272,
                -2.0698443425371083,
                1.2655224677753965,
                0.21963827734459807,
                -0.1371299954222096
            ]
        },
        {
            "positions": [
                0.1797487995251647,
                -2.097532202444477,
                -1.9666724739195138,
                1.195513922309057,
                0.2400004847563809,
                -0.21097611650483938
            ]
        },
        {
            "positions": [
                0.25858852001118,
                -2.0587936948249266,
                -1.863500605301919,
                1.1255053768427172,
                0.2603626921681637,
                -0.28482223758746916
            ]
        },
        {
            "positions": [
                0.3374282404971952,
                -2.0200551872053762,
                -1.7603287366843243,
                1.0554968313763775,
                0.2807248995799465,
                -0.358668358670099
            ]
        },
        {
            "positions": [
                0.41626796098321045,
                -1.9813166795858257,
                -1.6571568680667297,
                0.9854882859100378,
                0.30108710699172936,
                -0.4325144797527288
            ]
        },
        {
            "positions": [
                0.49510768146922574,
                -1.9425781719662754,
                -1.553984999449135,
                0.9154797404436982,
                0.3214493144035121,
                -0.5063606008353585
            ]
        },
        {
            "positions": [
                0.5739474019552411,
                -1.9038396643467248,
                -1.4508131308315404,
                0.8454711949773585,
                0.34181152181529495,
                -0.5802067219179883
            ]
        },
        {
            "positions": [
                0.6527871224412563,
                -1.8651011567271745,
                -1.3476412622139458,
                0.7754626495110188,
                0.36217372922707775,
                -0.6540528430006181
            ]
        },
        {
            "positions": [
                0.7316268429272714,
                -1.8263626491076241,
                -1.2444693935963511,
                0.7054541040446791,
                0.38253593663886054,
                -0.7278989640832478
            ]
        },
        {
            "positions": [
                0.8104665634132868,
                -1.7876241414880736,
                -1.1412975249787563,
                0.6354455585783394,
                0.4028981440506434,
                -0.8017450851658777
            ]
        },
        {
            "positions": [
                0.889306283899302,
                -1.748885633868523,
                -1.0381256563611616,
                0.5654370131119998,
                0.42326035146242613,
                -0.8755912062485075
            ]
        },
        {
            "positions": [
                0.9681460043853172,
                -1.7101471262489727,
                -0.934953787743567,
                0.49542846764566006,
                0.443622558874209,
                -0.9494373273311373
            ]
        },
        {
            "positions": [
                1.0469857248713326,
                -1.6714086186294224,
                -0.8317819191259723,
                0.42541992217932045,
                0.46398476628599183,
                -1.0232834484137672
            ]
        },
        {
            "positions": [
                1.1258254453573477,
                -1.632670111009872,
                -0.7286100505083777,
                0.35541137671298073,
                0.4843469736977746,
                -1.097129569496397
            ]
        },
        {
            "positions": [
                1.204665165843363,
                -1.5939316033903215,
                -0.625438181890783,
                0.285402831246641,
                0.5047091811095574,
                -1.1709756905790267
            ]
        },
        {
            "positions": [
                1.2835048863293783,
                -1.555193095770771,
                -0.5222663132731884,
                0.2153942857803013,
                0.5250713885213402,
                -1.2448218116616565
            ]
        },
        {
            "positions": [
                1.3623446068153935,
                -1.5164545881512206,
                -0.41909444465559376,
                0.1453857403139618,
                0.545433595933123,
                -1.3186679327442863
            ]
        },
        {
            "positions": [
                1.4411843273014089,
                -1.4777160805316703,
                -0.3159225760379991,
                0.07537719484762206,
                0.5657958033449059,
                -1.392514053826916
            ]
        },
        {
            "positions": [
                1.520024047787424,
                -1.43897757291212,
                -0.21275070742040425,
                0.005368649381282342,
                0.5861580107566886,
                -1.4663601749095458
            ]
        },
        {
            "positions": [
                1.5988637682734392,
                -1.4002390652925694,
                -0.10957883880280983,
                -0.06463989608505738,
                0.6065202181684715,
                -1.5402062959921756
            ]
        },
        {
            "positions": [
                1.6777034887594546,
                -1.3615005576730188,
                -0.006406970185214966,
                -0.1346484415513971,
                0.6268824255802543,
                -1.6140524170748054
            ]
        },
        {
            "positions": [
                1.7565432092454698,
                -1.3227620500534685,
                0.0967648984323799,
                -0.20465698701773682,
                0.647244632992037,
                -1.6878985381574354
            ]
        },
        {
            "positions": [
                1.835382929731485,
                -1.2840235424339181,
                0.19993676704997432,
                -0.2746655324840763,
                0.6676068404038199,
                -1.7617446592400652
            ]
        },
        {
            "positions": [
                1.9142226502175004,
                -1.2452850348143676,
                0.3031086356675692,
                -0.34467407795041605,
                0.6879690478156026,
                -1.835590780322695
            ]
        },
        {
            "positions": [
                1.9930623707035156,
                -1.2065465271948173,
                0.4062805042851636,
                -0.41468262341675577,
                0.7083312552273855,
                -1.9094369014053247
            ]
        },
        {
            "positions": [
                2.0719020911895307,
                -1.167808019575267,
                0.5094523729027585,
                -0.4846911688830955,
                0.7286934626391683,
                -1.9832830224879545
            ]
        },
        {
            "positions": [
                2.150741811675546,
                -1.1290695119557164,
                0.6126242415203529,
                -0.554699714349435,
                0.7490556700509511,
                -2.057129143570584
            ]
        },
        {
            "positions": [
                2.2295815321615615,
                -1.090331004336166,
                0.7157961101379477,
                -0.6247082598157747,
                0.7694178774627339,
                -2.130975264653214
            ]
        },
        {
            "positions": [
                2.3084212526475767,
                -1.0515924967166155,
                0.8189679787555422,
                -0.6947168052821144,
                0.7897800848745167,
                -2.2048213857358436
            ]
        },
        {
            "positions": [
                2.387260973133592,
                -1.0128539890970651,
                0.9221398473731373,
                -0.7647253507484542,
                0.8101422922862995,
                -2.2786675068184734
            ]
        },
        {
            "positions": [
                2.4271591788057516,
                -1.01291573848353,
                1.0721693230236995,
                -0.76709568448138,
                0.8495089925036846,
                -2.4152406941572417
            ]
        },
        {
            "positions": [
                2.467057384477912,
                -1.0129774878699944,
                1.2221987986742617,
                -0.7694660182143057,
                0.8888756927210696,
                -2.5518138814960105
            ]
        },
        {
            "positions": [
                2.5069555901500715,
                -1.013039237256459,
                1.372228274324824,
                -0.7718363519472315,
                0.9282423929384547,
                -2.6883870688347793
            ]
        },
        {
            "positions": [
                2.5468537958222313,
                -1.0131009866429237,
                1.5222577499753864,
                -0.7742066856801574,
                0.9676090931558397,
                -2.8249602561735476
            ]
        },
        {
            "positions": [
                2.5867520014943914,
                -1.0131627360293884,
                1.6722872256259487,
                -0.7765770194130831,
                1.0069757933732248,
                -2.961533443512316
            ]
        },
        {
            "positions": [
                2.626650207166551,
                -1.013224485415853,
                1.822316701276511,
                -0.7789473531460089,
                1.0463424935906098,
                -3.0981066308510847
            ]
        }
    ]
}