{
    "goal": {
        "global_pose": {
            "orientation": {
                "w": 0.005598929693374612,
                "x": 0.007748599140229565,
                "y": 0.7110244013736278,
                "z": -0.7031023480610252
            },
            "position": {
                "x": -0.8858502320852131,
                "y": -0.7141253447532654,
                "z": 0.3711530566215515
            }
        },
        "name": "move_to_auspresseinheit_C"
    },
    "id": "LBKPIECE_move_to_auspresseinheit_C_140",
    "joint_names": [
        "shoulder_pan_joint",
        "shoulder_lift_joint",
        "elbow_joint",
        "wrist_1_joint",
        "wrist_2_joint",
        "wrist_3_joint"
    ],
    "metrics": {
        "cart_traj_len": 0.4923843671219568,
        "distance_elbow_joint": 0.9890469716384446,
        "distance_shoulder_lift_joint": 0.31908426322365047,
        "distance_shoulder_pan_joint": 0.2559266728201588,
        "distance_wrist_1_joint": 0.6561270924728227,
        "distance_wrist_2_joint": 1.3119706811611018,
        "distance_wrist_3_joint": 0.03674087064032383,
        "smoothness": 1.291895885757589e-15,
        "time": 0.8790915939999999,
        "traj_len": 1.8891523368845886,
        "weighted_distance": 2.368644352128676
    },
    "planner": "LBKPIECE",
    "start": {
        "state": {
            "elbow_joint": 1.7527959577737207,
            "shoulder_lift_joint": -0.9740617694225068,
            "shoulder_pan_joint": -2.967991417825858,
            "wrist_1_joint": -0.759517768980727,
            "wrist_2_joint": 1.7443932448377408,
            "wrist_3_joint": -3.0840537646736568
        }
    },
    "waypoints": [
        {
            "positions": [
                -2.967991417825858,
                -0.9740617694225068,
                1.7527959577737207,
                -0.759517768980727,
                1.7443932448377408,
                -3.0840537646736568
            ]
        },
        {
            "positions": [
                -2.942398750543842,
                -0.9421533431001418,
                1.6538912606098761,
                -0.6939050597334447,
                1.6131961767216307,
                -3.0877278517376894
            ]
        },
        {
            "positions": [
                -2.916806083261826,
                -0.9102449167777766,
                1.5549865634460318,
                -0.6282923504861624,
                1.4819991086055204,
                -3.0914019388017215
            ]
        },
        {
            "positions": [
                -2.89121341597981,
                -0.8783364904554116,
                1.4560818662821873,
                -0.5626796412388801,
                1.3508020404894103,
                -3.0950760258657537
            ]
        },
        {
            "positions": [
                -2.8656207486977943,
                -0.8464280641330466,
                1.3571771691183427,
                -0.49706693199159785,
                1.2196049723733,
                -3.0987501129297863
            ]
        },
        {
            "positions": [
                -2.8400280814157783,
                -0.8145196378106816,
                1.2582724719544984,
                -0.4314542227443156,
                1.08840790425719,
                -3.102424199993819
            ]
        },
        {
            "positions": [
                -2.814435414133763,
                -0.7826112114883165,
                1.159367774790654,
                -0.36584151349703337,
                0.9572108361410797,
                -3.106098287057851
            ]
        },
        {
            "positions": [
                -2.788842746851747,
                -0.7507027851659515,
                1.0604630776268094,
                -0.30022880424975107,
                0.8260137680249696,
                -3.1097723741218832
            ]
        },
        {
            "positions": [
                -2.763250079569731,
                -0.7187943588435863,
                0.9615583804629649,
                -0.23461609500246872,
                0.6948166999088594,
                -3.113446461185916
            ]
        },
        {
            "positions": [
                -2.737657412287715,
                -0.6868859325212213,
                0.8626536832991205,
                -0.16900338575518647,
                0.5636196317927491,
                -3.1171205482499484
            ]
        },
        {
            "positions": [
                -2.712064745005699,
                -0.6549775061988563,
                0.7637489861352761,
                -0.10339067650790422,
                0.4324225636766389,
                -3.1207946353139806
            ]
        }
    ]
}