{
    "goal": {
        "global_pose": {
            "orientation": {
                "w": 0.5084816262002911,
                "x": -0.4908360881923452,
                "y": 0.5182115481033761,
                "z": -0.48164630358495003
            },
            "position": {
                "x": 0.5540239810943604,
                "y": -0.46912469901144505,
                "z": 0.16403168439865112
            }
        },
        "name": "move_to_storage_B"
    },
    "id": "LBKPIECE_move_to_storage_B_7",
    "joint_names": [
        "shoulder_pan_joint",
        "shoulder_lift_joint",
        "elbow_joint",
        "wrist_1_joint",
        "wrist_2_joint",
        "wrist_3_joint"
    ],
    "metrics": {
        "cart_traj_len": 0.6338450996916251,
        "distance_elbow_joint": 0.3486589101318649,
        "distance_shoulder_lift_joint": 0.45812217203734473,
        "distance_shoulder_pan_joint": 0.24388189081229072,
        "distance_wrist_1_joint": 2.9833512518189518,
        "distance_wrist_2_joint": 2.7056229278997295,
        "distance_wrist_3_joint": 3.152955382904814,
        "smoothness": 0.03468094915588619,
        "time": 0.344012537,
        "traj_len": 3.145249200875027,
        "weighted_distance": 4.678405442149419
    },
    "planner": "LBKPIECE",
    "start": {
        "state": {
            "elbow_joint": 1.664937868594044,
            "shoulder_lift_joint": -0.661644460510453,
            "shoulder_pan_joint": -0.9139846352900073,
            "wrist_1_joint": 2.146753192139373,
            "wrist_2_joint": -2.2341966793290973,
            "wrist_3_joint": 0.005466555786416001
        }
    },
    "waypoints": [
        {
            "positions": [
                -0.9139846352900073,
                -0.661644460510453,
                1.664937868594044,
                2.146753192139373,
                -2.2341966793290973,
                0.005466555786416001
            ]
        },
        {
            "positions": [
                -0.8823359212074131,
                -0.7282103666488737,
                1.72061935871539,
                2.1415223204468523,
                -2.2065059849431927,
                -0.04214631626488543
            ]
        },
        {
            "positions": [
                -0.8908252482766009,
                -0.7438726172848307,
                1.7323384555158108,
                2.022397505241795,
                -2.0993886956026397,
                -0.16636001669902592
            ]
        },
        {
            "positions": [
                -0.8993145753457888,
                -0.7595348679207876,
                1.7440575523162314,
                1.9032726900367378,
                -1.9922714062620868,
                -0.29057371713316643
            ]
        },
        {
            "positions": [
                -0.9078039024149767,
                -0.7751971185567446,
                1.7557766491166522,
                1.7841478748316806,
                -1.8851541169215338,
                -0.41478741756730686
            ]
        },
        {
            "positions": [
                -0.9162932294841646,
                -0.7908593691927016,
                1.767495745917073,
                1.6650230596266233,
                -1.7780368275809808,
                -0.5390011180014475
            ]
        },
        {
            "positions": [
                -0.9247825565533524,
                -0.8065216198286586,
                1.7792148427174936,
                1.545898244421566,
                -1.6709195382404278,
                -0.6632148184355879
            ]
        },
        {
            "positions": [
                -0.9332718836225403,
                -0.8221838704646155,
                1.7909339395179145,
                1.4267734292165088,
                -1.5638022488998748,
                -0.7874285188697283
            ]
        },
        {
            "positions": [
                -0.9417612106917281,
                -0.8378461211005724,
                1.8026530363183353,
                1.3076486140114516,
                -1.4566849595593219,
                -0.9116422193038689
            ]
        },
        {
            "positions": [
                -0.9502505377609161,
                -0.8535083717365294,
                1.814372133118756,
                1.1885237988063944,
                -1.3495676702187689,
                -1.0358559197380095
            ]
        },
        {
            "positions": [
                -0.9587398648301039,
                -0.8691706223724864,
                1.8260912299191767,
                1.0693989836013373,
                -1.242450380878216,
                -1.1600696201721497
            ]
        },
        {
            "positions": [
                -0.9672291918992917,
                -0.8848328730084434,
                1.8378103267195975,
                0.9502741683962799,
                -1.135333091537663,
                -1.2842833206062905
            ]
        },
        {
            "positions": [
                -0.9757185189684796,
                -0.9004951236444003,
                1.8495294235200181,
                0.8311493531912226,
                -1.02821580219711,
                -1.4084970210404308
            ]
        },
        {
            "positions": [
                -0.9842078460376674,
                -0.9161573742803573,
                1.861248520320439,
                0.7120245379861656,
                -0.921098512856557,
                -1.5327107214745712
            ]
        },
        {
            "positions": [
                -0.9926971731068553,
                -0.9318196249163142,
                1.8729676171208598,
                0.5928997227811081,
                -0.813981223516004,
                -1.6569244219087118
            ]
        },
        {
            "positions": [
                -1.0011865001760432,
                -0.9474818755522711,
                1.8846867139212806,
                0.4737749075760509,
                -0.7068639341754508,
                -1.7811381223428524
            ]
        },
        {
            "positions": [
                -1.009675827245231,
                -0.9631441261882281,
                1.8964058107217012,
                0.3546500923709939,
                -0.599746644834898,
                -1.9053518227769926
            ]
        },
        {
            "positions": [
                -1.0181651543144188,
                -0.978806376824185,
                1.908124907522122,
                0.2355252771659364,
                -0.49262935549434506,
                -2.0295655232111334
            ]
        },
        {
            "positions": [
                -1.0266544813836067,
                -0.9944686274601421,
                1.9198440043225429,
                0.11640046196087939,
                -0.38551206615379185,
                -2.153779223645274
            ]
        },
        {
            "positions": [
                -1.0351438084527946,
                -1.0101308780960991,
                1.9315631011229635,
                -0.0027243532441776352,
                -0.2783947768132391,
                -2.277992924079414
            ]
        },
        {
            "positions": [
                -1.0436331355219826,
                -1.0257931287320559,
                1.9432821979233843,
                -0.1218491684492351,
                -0.17127748747268612,
                -2.402206624513555
            ]
        },
        {
            "positions": [
                -1.0521224625911705,
                -1.041455379368013,
                1.9550012947238051,
                -0.24097398365429257,
                -0.06416019813213314,
                -2.5264203249476958
            ]
        },
        {
            "positions": [
                -1.0606117896603582,
                -1.05711763000397,
                1.9667203915242257,
                -0.3600987988593496,
                0.04295709120841984,
                -2.650634025381836
            ]
        },
        {
            "positions": [
                -1.069101116729546,
                -1.072779880639927,
                1.9784394883246466,
                -0.47922361406440706,
                0.15007438054897282,
                -2.7748477258159765
            ]
        },
        {
            "positions": [
                -1.077590443798734,
                -1.0884421312758839,
                1.9901585851250674,
                -0.5983484292694641,
                0.2571916698895258,
                -2.899061426250117
            ]
        },
        {
            "positions": [
                -1.0860797708679217,
                -1.1041043819118408,
                2.001877681925488,
                -0.7174732444745211,
                0.3643089592300788,
                -3.0232751266842572
            ]
        },
        {
            "positions": [
                -1.0945690979371097,
                -1.1197666325477977,
                2.013596778725909,
                -0.8365980596795785,
                0.471426248570632,
                -3.147488827118398
            ]
        }
    ]
}