{
    "goal": {
        "global_pose": {
            "orientation": {
                "w": 0.5084816217422485,
                "x": -0.49083608388900757,
                "y": 0.5182115435600281,
                "z": -0.4816462993621826
            },
            "position": {
                "x": 0.5540239810943604,
                "y": 0.030875300988554955,
                "z": 0.16403168439865112
            }
        },
        "name": "move_to_storage_A"
    },
    "id": "LBKPIECE_move_to_storage_A_80",
    "joint_names": [
        "shoulder_pan_joint",
        "shoulder_lift_joint",
        "elbow_joint",
        "wrist_1_joint",
        "wrist_2_joint",
        "wrist_3_joint"
    ],
    "metrics": {
        "cart_traj_len": 0.35355224347862346,
        "distance_elbow_joint": 0.45078397973450524,
        "distance_shoulder_lift_joint": 0.23648352187934485,
        "distance_shoulder_pan_joint": 0.4629082408682272,
        "distance_wrist_1_joint": 0.24284845695700208,
        "distance_wrist_2_joint": 1.0983002744434265,
        "distance_wrist_3_joint": 0.10288427718981819,
        "smoothness": 6.661338165333112e-16,
        "time": 0.665330852,
        "traj_len": 1.6106547584980229,
        "weighted_distance": 2.0349756845850493
    },
    "planner": "LBKPIECE",
    "start": {
        "state": {
            "elbow_joint": 1.971548259319323,
            "shoulder_lift_joint": -1.1394851275133948,
            "shoulder_pan_joint": 0.1228115487234821,
            "wrist_1_joint": -0.7804723859257726,
            "wrist_2_joint": 0.12958671773740124,
            "wrist_3_joint": -3.192489227718131
        }
    },
    "waypoints": [
        {
            "positions": [
                0.1228115487234821,
                -1.1394851275133948,
                1.971548259319323,
                -0.7804723859257726,
                0.12958671773740124,
                -3.192489227718131
            ]
        },
        {
            "positions": [
                0.056681800028021076,
                -1.1732684877818726,
                2.0359459707099665,
                -0.8151650226339158,
                0.28648675694360504,
                -3.1777914738338713
            ]
        },
        {
            "positions": [
                -0.009447948667439948,
                -1.2070518480503505,
                2.1003436821006103,
                -0.8498576593420589,
                0.4433867961498088,
                -3.163093719949612
            ]
        },
        {
            "positions": [
                -0.07557769736290096,
                -1.2408352083188283,
                2.1647413934912536,
                -0.8845502960502021,
                0.6002868353560126,
                -3.148395966065352
            ]
        },
        {
            "positions": [
                -0.141707446058362,
                -1.2746185685873062,
                2.2291391048818974,
                -0.9192429327583452,
                0.7571868745622163,
                -3.133698212181092
            ]
        },
        {
            "positions": [
                -0.20783719475382306,
                -1.308401928855784,
                2.293536816272541,
                -0.9539355694664884,
                0.9140869137684202,
                -3.1190004582968323
            ]
        },
        {
            "positions": [
                -0.273966943449284,
                -1.3421852891242618,
                2.3579345276631845,
                -0.9886282061746315,
                1.0709869529746239,
                -3.104302704412573
            ]
        },
        {
            "positions": [
                -0.3400966921447451,
                -1.3759686493927397,
                2.422332239053828,
                -1.0233208428827747,
                1.2278869921808278,
                -3.089604950528313
            ]
        }
    ]
}{
    "goal": {
        "global_pose": {
            "orientation": {
                "w": 0.5084816217422485,
                "x": -0.49083608388900757,
                "y": 0.5182115435600281,
                "z": -0.4816462993621826
            },
            "position": {
                "x": 0.5540239810943604,
                "y": 0.030875300988554955,
                "z": 0.16403168439865112
            }
        },
        "name": "move_to_storage_A"
    },
    "id": "LBKPIECE_move_to_storage_A_80",
    "joint_names": [
        "shoulder_pan_joint",
        "shoulder_lift_joint",
        "elbow_joint",
        "wrist_1_joint",
        "wrist_2_joint",
        "wrist_3_joint"
    ],
    "metrics": {
        "cart_traj_len": 0.35359483440237294,
        "distance_elbow_joint": 0.4545425441863693,
        "distance_shoulder_lift_joint": 0.23323620460610694,
        "distance_shoulder_pan_joint": 0.4629862879819355,
        "distance_wrist_1_joint": 0.26049321524274793,
        "distance_wrist_2_joint": 1.0973790677266337,
        "distance_wrist_3_joint": 0.09509468858505743,
        "smoothness": 8.881784197001252e-16,
        "time": 0.31468908300000004,
        "traj_len": 1.6136083813394284,
        "weighted_distance": 2.0375950697987926
    },
    "planner": "LBKPIECE",
    "start": {
        "state": {
            "elbow_joint": 1.97154746011099,
            "shoulder_lift_joint": -1.13948474672311,
            "shoulder_pan_joint": 0.12281154466712228,
            "wrist_1_joint": -0.7804688027058302,
            "wrist_2_joint": 0.12958655903071145,
            "wrist_3_joint": 3.0906928834467795
        }
    },
    "waypoints": [
        {
            "positions": [
                0.12281154466712228,
                -1.13948474672311,
                1.97154746011099,
                -0.7804688027058302,
                0.12958655903071145,
                3.0906928834467795
            ]
        },
        {
            "positions": [
                0.05667064638398865,
                -1.1728042045239824,
                2.0364821092804712,
                -0.8176821191690798,
                0.2863549972773734,
                3.1042778389589305
            ]
        },
        {
            "positions": [
                -0.00947025189914498,
                -1.2061236623248548,
                2.1014167584499526,
                -0.8548954356323296,
                0.4431234355240353,
                3.1178627944710815
            ]
        },
        {
            "positions": [
                -0.07561115018227861,
                -1.2394431201257272,
                2.166351407619434,
                -0.8921087520955793,
                0.5998918737706973,
                3.1314477499832325
            ]
        },
        {
            "positions": [
                -0.14175204846541223,
                -1.2727625779265996,
                2.2312860567889152,
                -0.929322068558829,
                0.7566603120173593,
                3.145032705495384
            ]
        },
        {
            "positions": [
                -0.20789294674854591,
                -1.306082035727472,
                2.2962207059583966,
                -0.9665353850220787,
                0.9134287502640213,
                3.158617661007535
            ]
        },
        {
            "positions": [
                -0.2740338450316795,
                -1.3394014935283445,
                2.361155355127878,
                -1.0037487014853284,
                1.0701971885106831,
                3.172202616519686
            ]
        },
        {
            "positions": [
                -0.3401747433148132,
                -1.372720951329217,
                2.426090004297359,
                -1.0409620179485781,
                1.2269656267573452,
                3.185787572031837
            ]
        }
    ]
}{
    "goal": {
        "global_pose": {
            "orientation": {
                "w": 0.5084816217422485,
                "x": -0.49083608388900757,
                "y": 0.5182115435600281,
                "z": -0.4816462993621826
            },
            "position": {
                "x": 0.5540239810943604,
                "y": 0.030875300988554955,
                "z": 0.16403168439865112
            }
        },
        "name": "move_to_storage_A"
    },
    "id": "LBKPIECE_move_to_storage_A_80",
    "joint_names": [
        "shoulder_pan_joint",
        "shoulder_lift_joint",
        "elbow_joint",
        "wrist_1_joint",
        "wrist_2_joint",
        "wrist_3_joint"
    ],
    "metrics": {
        "cart_traj_len": 0.35397363177856583,
        "distance_elbow_joint": 0.44914080695250425,
        "distance_shoulder_lift_joint": 0.2351503113796234,
        "distance_shoulder_pan_joint": 0.4636787567952611,
        "distance_wrist_1_joint": 0.23642005112743258,
        "distance_wrist_2_joint": 1.0974769728098541,
        "distance_wrist_3_joint": 0.08788581956653552,
        "smoothness": 6.661338165333112e-16,
        "time": 0.380894434,
        "traj_len": 1.6030448273929245,
        "weighted_distance": 2.0197577532222937
    },
    "planner": "LBKPIECE",
    "start": {
        "state": {
            "elbow_joint": 1.9715472970024885,
            "shoulder_lift_joint": -1.1394870060712896,
            "shoulder_pan_joint": 0.12281152778156021,
            "wrist_1_joint": -0.780463741449964,
            "wrist_2_joint": 0.12958659822042276,
            "wrist_3_joint": 3.090690232415272
        }
    },
    "waypoints": [
        {
            "positions": [
                0.12281152778156021,
                -1.1394870060712896,
                1.9715472970024885,
                -0.780463741449964,
                0.12958659822042276,
                3.090690232415272
            ]
        },
        {
            "positions": [
                0.0565717053822372,
                -1.17307990769695,
                2.035710269424275,
                -0.8142380344681687,
                0.28636902290754473,
                3.1032453494962056
            ]
        },
        {
            "positions": [
                -0.009668117017085809,
                -1.2066728093226107,
                2.099873241846061,
                -0.8480123274863733,
                0.44315144759466674,
                3.1158004665771393
            ]
        },
        {
            "positions": [
                -0.0759079394164088,
                -1.240265710948271,
                2.1640362142678473,
                -0.8817866205045779,
                0.5999338722817887,
                3.128355583658073
            ]
        },
        {
            "positions": [
                -0.14214776181573183,
                -1.2738586125739315,
                2.2281991866896336,
                -0.9155609135227826,
                0.7567162969689107,
                3.1409107007390062
            ]
        },
        {
            "positions": [
                -0.20838758421505485,
                -1.3074515141995922,
                2.2923621591114203,
                -0.9493352065409872,
                0.9134987216560329,
                3.15346581781994
            ]
        },
        {
            "positions": [
                -0.2746274066143778,
                -1.3410444158252526,
                2.3565251315332065,
                -0.9831094995591919,
                1.0702811463431547,
                3.1660209349008737
            ]
        },
        {
            "positions": [
                -0.34086722901370087,
                -1.374637317450913,
                2.420688103954993,
                -1.0168837925773966,
                1.2270635710302769,
                3.1785760519818074
            ]
        }
    ]
}