{
    "goal": {
        "global_pose": {
            "orientation": {
                "w": 0.7031023502349854,
                "x": -0.7110244035720825,
                "y": 0.007748599164187908,
                "z": 0.005598929710686207
            },
            "position": {
                "x": 0.11585023208521307,
                "y": 0.44412534475326537,
                "z": 0.3711530566215515
            }
        },
        "name": "move_to_auspresseinheit_A"
    },
    "id": "LBKPIECE_move_to_auspresseinheit_A_135",
    "joint_names": [
        "shoulder_pan_joint",
        "shoulder_lift_joint",
        "elbow_joint",
        "wrist_1_joint",
        "wrist_2_joint",
        "wrist_3_joint"
    ],
    "metrics": {
        "cart_traj_len": 2.2875295199692216,
        "distance_elbow_joint": 2.0282670668643057,
        "distance_shoulder_lift_joint": 1.697279278564125,
        "distance_shoulder_pan_joint": 1.299565622816416,
        "distance_wrist_1_joint": 2.045528077787932,
        "distance_wrist_2_joint": 1.9712613652263662,
        "distance_wrist_3_joint": 0.9487575555424468,
        "smoothness": 1.3848061453713314,
        "time": 0.299749887,
        "traj_len": 3.160800368071605,
        "weighted_distance": 3.9881027470340813
    },
    "planner": "LBKPIECE",
    "start": {
        "state": {
            "elbow_joint": 2.4225746658250005,
            "shoulder_lift_joint": -1.3736534386056498,
            "shoulder_pan_joint": -0.3378633547517467,
            "wrist_1_joint": -1.0288598680537169,
            "wrist_2_joint": 1.233022673432363,
            "wrist_3_joint": -3.0940220416140027
        }
    },
    "waypoints": [
        {
            "positions": [
                -0.3378633547517467,
                -1.3736534386056498,
                2.4225746658250005,
                -1.0288598680537169,
                1.233022673432363,
                -3.0940220416140027
            ]
        },
        {
            "positions": [
                -0.2745457110409226,
                -1.448158423153238,
                2.3611113497346206,
                -0.942373937228723,
                1.1496339981696821,
                -3.0699604687578037
            ]
        },
        {
            "positions": [
                -0.21122806733009852,
                -1.5226634077008265,
                2.29964803364424,
                -0.855888006403729,
                1.066245322907001,
                -3.0458988959016047
            ]
        },
        {
            "positions": [
                -0.1479104236192744,
                -1.597168392248415,
                2.2381847175538603,
                -0.769402075578735,
                0.9828566476443201,
                -3.0218373230454056
            ]
        },
        {
            "positions": [
                -0.08459277990845032,
                -1.6716733767960033,
                2.1767214014634804,
                -0.6829161447537411,
                0.8994679723816391,
                -2.997775750189207
            ]
        },
        {
            "positions": [
                -0.02127513619762622,
                -1.7461783613435915,
                2.1152580853731004,
                -0.5964302139287472,
                0.8160792971189581,
                -2.973714177333008
            ]
        },
        {
            "positions": [
                0.042042507513197935,
                -1.82068334589118,
                2.05379476928272,
                -0.5099442831037532,
                0.7326906218562771,
                -2.949652604476809
            ]
        },
        {
            "positions": [
                0.10536015122402204,
                -1.8951883304387684,
                1.9923314531923402,
                -0.4234583522787593,
                0.6493019465935961,
                -2.92559103162061
            ]
        },
        {
            "positions": [
                0.16867779493484608,
                -1.9696933149863567,
                1.93086813710196,
                -0.3369724214537654,
                0.5659132713309152,
                -2.901529458764411
            ]
        },
        {
            "positions": [
                0.23199543864567024,
                -2.044198299533945,
                1.86940482101158,
                -0.2504864906287715,
                0.48252459606823417,
                -2.877467885908212
            ]
        },
        {
            "positions": [
                0.2953130823564943,
                -2.1187032840815334,
                1.8079415049212,
                -0.16400055980377748,
                0.39913592080555316,
                -2.853406313052013
            ]
        },
        {
            "positions": [
                0.35863072606731833,
                -2.193208268629122,
                1.74647818883082,
                -0.07751462897878358,
                0.31574724554287226,
                -2.829344740195814
            ]
        },
        {
            "positions": [
                0.4219483697781426,
                -2.2677132531767104,
                1.6850148727404397,
                0.008971301846210533,
                0.23235857028019113,
                -2.8052831673396152
            ]
        },
        {
            "positions": [
                0.48526601348896664,
                -2.342218237724299,
                1.6235515566500598,
                0.09545723267120443,
                0.14896989501751023,
                -2.781221594483416
            ]
        },
        {
            "positions": [
                0.5485836571997909,
                -2.4167232222718873,
                1.5620882405596799,
                0.18194316349619832,
                0.06558121975482911,
                -2.757160021627217
            ]
        },
        {
            "positions": [
                0.6119013009106149,
                -2.4912282068194753,
                1.5006249244692997,
                0.2684290943211922,
                -0.017807455507851802,
                -2.733098448771018
            ]
        },
        {
            "positions": [
                0.6364183278309027,
                -2.441305890304767,
                1.6118283596285736,
                0.20235908476535458,
                0.048683420367233984,
                -2.7872244391266348
            ]
        },
        {
            "positions": [
                0.6609353547511905,
                -2.3913835737900593,
                1.7230317947878473,
                0.13628907520951697,
                0.11517429624231977,
                -2.8413504294822514
            ]
        },
        {
            "positions": [
                0.6854523816714784,
                -2.341461257275351,
                1.834235229947121,
                0.07021906565367936,
                0.18166517211740557,
                -2.895476419837868
            ]
        },
        {
            "positions": [
                0.7099694085917662,
                -2.291538940760643,
                1.9454386651063948,
                0.004149056097841719,
                0.24815604799249136,
                -2.9496024101934846
            ]
        },
        {
            "positions": [
                0.734486435512054,
                -2.241616624245935,
                2.0566421002656687,
                -0.06192095345799592,
                0.3146469238675772,
                -3.0037284005491016
            ]
        },
        {
            "positions": [
                0.7590034624323417,
                -2.1916943077312268,
                2.1678455354249424,
                -0.1279909630138335,
                0.38113779974266293,
                -3.0578543909047182
            ]
        },
        {
            "positions": [
                0.7835204893526295,
                -2.1417719912165185,
                2.279048970584216,
                -0.1940609725696712,
                0.4476286756177488,
                -3.111980381260335
            ]
        },
        {
            "positions": [
                0.8080375162729174,
                -2.0918496747018107,
                2.3902524057434897,
                -0.2601309821255088,
                0.5141195514928345,
                -3.1661063716159514
            ]
        },
        {
            "positions": [
                0.8325545431932052,
                -2.0419273581871025,
                2.501455840902764,
                -0.3262009916813464,
                0.5806104273679203,
                -3.220232361971568
            ]
        },
        {
            "positions": [
                0.767980680757473,
                -1.976725527328139,
                2.4487126363651934,
                -0.40300550638658855,
                0.6416171040731101,
                -3.169882337222112
            ]
        },
        {
            "positions": [
                0.7034068183217409,
                -1.9115236964691757,
                2.395969431827623,
                -0.4798100210918307,
                0.7026237807782999,
                -3.1195323124726557
            ]
        }
    ]
}