{
    "goal": {
        "global_pose": {
            "orientation": {
                "w": 0.5084816217422485,
                "x": -0.49083608388900757,
                "y": 0.5182115435600281,
                "z": -0.4816462993621826
            },
            "position": {
                "x": 0.5540239810943604,
                "y": 0.030875300988554955,
                "z": 0.16403168439865112
            }
        },
        "name": "move_to_storage_A"
    },
    "id": "LBKPIECE_move_to_storage_A_54",
    "joint_names": [
        "shoulder_pan_joint",
        "shoulder_lift_joint",
        "elbow_joint",
        "wrist_1_joint",
        "wrist_2_joint",
        "wrist_3_joint"
    ],
    "metrics": {
        "cart_traj_len": 0.3526275717465418,
        "distance_elbow_joint": 0.44707857155529784,
        "distance_shoulder_lift_joint": 0.23287677280244123,
        "distance_shoulder_pan_joint": 0.45938515976906746,
        "distance_wrist_1_joint": 0.2357218484679301,
        "distance_wrist_2_joint": 1.1041103477620684,
        "distance_wrist_3_joint": 0.10070577975865236,
        "smoothness": 2.220446049250313e-15,
        "time": 0.201943374,
        "traj_len": 1.6062000124876907,
        "weighted_distance": 2.0300547371592623
    },
    "planner": "LBKPIECE",
    "start": {
        "state": {
            "elbow_joint": 1.971548259319323,
            "shoulder_lift_joint": -1.1394851275133948,
            "shoulder_pan_joint": 0.1228115487234821,
            "wrist_1_joint": -0.7804723859257726,
            "wrist_2_joint": 0.12958671773740124,
            "wrist_3_joint": -3.192489227718131
        }
    },
    "waypoints": [
        {
            "positions": [
                0.1228115487234821,
                -1.1394851275133948,
                1.971548259319323,
                -0.7804723859257726,
                0.12958671773740124,
                -3.192489227718131
            ]
        },
        {
            "positions": [
                0.057185097327901044,
                -1.1727532379137435,
                2.0354166266843654,
                -0.8141469357069054,
                0.28731676741769674,
                -3.1781026877526095
            ]
        },
        {
            "positions": [
                -0.008441354067680013,
                -1.2060213483140922,
                2.099284994049408,
                -0.8478214854880384,
                0.4450468170979922,
                -3.1637161477870874
            ]
        },
        {
            "positions": [
                -0.07406780546326108,
                -1.239289458714441,
                2.1631533614144507,
                -0.8814960352691712,
                0.6027768667782877,
                -3.149329607821566
            ]
        },
        {
            "positions": [
                -0.13969425685884213,
                -1.27255756911479,
                2.2270217287794933,
                -0.9151705850503041,
                0.7605069164585831,
                -3.134943067856044
            ]
        },
        {
            "positions": [
                -0.20532070825442322,
                -1.3058256795151386,
                2.290890096144536,
                -0.948845134831437,
                0.9182369661388787,
                -3.1205565278905225
            ]
        },
        {
            "positions": [
                -0.27094715965000427,
                -1.3390937899154873,
                2.354758463509578,
                -0.9825196846125699,
                1.075967015819174,
                -3.1061699879250004
            ]
        },
        {
            "positions": [
                -0.33657361104558536,
                -1.372361900315836,
                2.418626830874621,
                -1.0161942343937027,
                1.2336970654994697,
                -3.091783447959479
            ]
        }
    ]
}{
    "goal": {
        "global_pose": {
            "orientation": {
                "w": 0.5084816217422485,
                "x": -0.49083608388900757,
                "y": 0.5182115435600281,
                "z": -0.4816462993621826
            },
            "position": {
                "x": 0.5540239810943604,
                "y": 0.030875300988554955,
                "z": 0.16403168439865112
            }
        },
        "name": "move_to_storage_A"
    },
    "id": "LBKPIECE_move_to_storage_A_54",
    "joint_names": [
        "shoulder_pan_joint",
        "shoulder_lift_joint",
        "elbow_joint",
        "wrist_1_joint",
        "wrist_2_joint",
        "wrist_3_joint"
    ],
    "metrics": {
        "cart_traj_len": 0.3523255755744035,
        "distance_elbow_joint": 0.4487145066341962,
        "distance_shoulder_lift_joint": 0.2349759761850485,
        "distance_shoulder_pan_joint": 0.46050491048106107,
        "distance_wrist_1_joint": 0.24100203613608318,
        "distance_wrist_2_joint": 1.0980395786486952,
        "distance_wrist_3_joint": 0.0943743880667487,
        "smoothness": 8.881784197001252e-16,
        "time": 0.283852132,
        "traj_len": 1.6054941283454862,
        "weighted_distance": 2.0261791103133278
    },
    "planner": "LBKPIECE",
    "start": {
        "state": {
            "elbow_joint": 1.97154746011099,
            "shoulder_lift_joint": -1.13948474672311,
            "shoulder_pan_joint": 0.12281154466712228,
            "wrist_1_joint": -0.7804688027058302,
            "wrist_2_joint": 0.12958655903071145,
            "wrist_3_joint": 3.0906928834467795
        }
    },
    "waypoints": [
        {
            "positions": [
                0.12281154466712228,
                -1.13948474672311,
                1.97154746011099,
                -0.7804688027058302,
                0.12958655903071145,
                3.0906928834467795
            ]
        },
        {
            "positions": [
                0.05702512888411357,
                -1.173052743320974,
                2.035649532487304,
                -0.8148976650109849,
                0.286449355980525,
                3.1041749388848863
            ]
        },
        {
            "positions": [
                -0.008761286898895146,
                -1.206620739918838,
                2.0997516048636173,
                -0.8493265273161397,
                0.44331215293033865,
                3.1176569943229935
            ]
        },
        {
            "positions": [
                -0.07454770268190387,
                -1.2401887365167021,
                2.1638536772399313,
                -0.8837553896212944,
                0.6001749498801522,
                3.1311390497611002
            ]
        },
        {
            "positions": [
                -0.14033411846491256,
                -1.2737567331145663,
                2.2279557496162448,
                -0.9181842519264491,
                0.7570377468299658,
                3.1446211051992075
            ]
        },
        {
            "positions": [
                -0.20612053424792132,
                -1.3073247297124304,
                2.2920578219925587,
                -0.9526131142316039,
                0.9139005437797795,
                3.1581031606373142
            ]
        },
        {
            "positions": [
                -0.27190695003093,
                -1.3408927263102943,
                2.356159894368872,
                -0.9870419765367586,
                1.070763340729593,
                3.1715852160754214
            ]
        },
        {
            "positions": [
                -0.3376933658139388,
                -1.3744607229081585,
                2.420261966745186,
                -1.0214708388419134,
                1.2276261376794066,
                3.185067271513528
            ]
        }
    ]
}{
    "goal": {
        "global_pose": {
            "orientation": {
                "w": 0.5084816217422485,
                "x": -0.49083608388900757,
                "y": 0.5182115435600281,
                "z": -0.4816462993621826
            },
            "position": {
                "x": 0.5540239810943604,
                "y": 0.030875300988554955,
                "z": 0.16403168439865112
            }
        },
        "name": "move_to_storage_A"
    },
    "id": "LBKPIECE_move_to_storage_A_54",
    "joint_names": [
        "shoulder_pan_joint",
        "shoulder_lift_joint",
        "elbow_joint",
        "wrist_1_joint",
        "wrist_2_joint",
        "wrist_3_joint"
    ],
    "metrics": {
        "cart_traj_len": 0.352516820379174,
        "distance_elbow_joint": 0.4503032549618573,
        "distance_shoulder_lift_joint": 0.23340825662044673,
        "distance_shoulder_pan_joint": 0.4620475490662448,
        "distance_wrist_1_joint": 0.2436046643491252,
        "distance_wrist_2_joint": 1.0928388690352588,
        "distance_wrist_3_joint": 0.09175281972466687,
        "smoothness": 4.440892098500626e-16,
        "time": 0.207732315,
        "traj_len": 1.60435513953663,
        "weighted_distance": 2.023339958235224
    },
    "planner": "LBKPIECE",
    "start": {
        "state": {
            "elbow_joint": 1.9715472970024885,
            "shoulder_lift_joint": -1.1394870060712896,
            "shoulder_pan_joint": 0.12281152778156021,
            "wrist_1_joint": -0.780463741449964,
            "wrist_2_joint": 0.12958659822042276,
            "wrist_3_joint": 3.090690232415272
        }
    },
    "waypoints": [
        {
            "positions": [
                0.12281152778156021,
                -1.1394870060712896,
                1.9715472970024885,
                -0.780463741449964,
                0.12958659822042276,
                3.090690232415272
            ]
        },
        {
            "positions": [
                0.05680473505781096,
                -1.1728310427313535,
                2.035876333425611,
                -0.8152644077855533,
                0.28570643665403117,
                3.1037977780902244
            ]
        },
        {
            "positions": [
                -0.00920205766593829,
                -1.2061750793914172,
                2.1002053698487333,
                -0.8500650741211426,
                0.4418262750876396,
                3.1169053237651765
            ]
        },
        {
            "positions": [
                -0.07520885038968755,
                -1.2395191160514811,
                2.164534406271856,
                -0.8848657404567319,
                0.5979461135212479,
                3.130012869440129
            ]
        },
        {
            "positions": [
                -0.1412156431134368,
                -1.2728631527115448,
                2.2288634426949785,
                -0.9196664067923213,
                0.7540659519548564,
                3.1431204151150816
            ]
        },
        {
            "positions": [
                -0.20722243583718605,
                -1.3062071893716087,
                2.293192479118101,
                -0.9544670731279106,
                0.9101857903884648,
                3.156227960790034
            ]
        },
        {
            "positions": [
                -0.27322922856093534,
                -1.3395512260316724,
                2.3575215155412232,
                -0.9892677394634999,
                1.0663056288220731,
                3.169335506464986
            ]
        },
        {
            "positions": [
                -0.33923602128468455,
                -1.3728952626917363,
                2.421850551964346,
                -1.0240684057990892,
                1.2224254672556816,
                3.1824430521399387
            ]
        }
    ]
}