{
    "goal": {
        "global_pose": {
            "orientation": {
                "w": 0.5084816262002911,
                "x": -0.4908360881923452,
                "y": 0.5182115481033761,
                "z": -0.48164630358495003
            },
            "position": {
                "x": 0.5540239810943604,
                "y": -0.46912469901144505,
                "z": 0.16403168439865112
            }
        },
        "name": "move_to_storage_B"
    },
    "id": "LBKPIECE_move_to_storage_B_13",
    "joint_names": [
        "shoulder_pan_joint",
        "shoulder_lift_joint",
        "elbow_joint",
        "wrist_1_joint",
        "wrist_2_joint",
        "wrist_3_joint"
    ],
    "metrics": {
        "cart_traj_len": 1.3009057072954426,
        "distance_elbow_joint": 1.592478515700789,
        "distance_shoulder_lift_joint": 0.4603493649213708,
        "distance_shoulder_pan_joint": 0.9555921824281272,
        "distance_wrist_1_joint": 3.132409327294098,
        "distance_wrist_2_joint": 2.7033151655919863,
        "distance_wrist_3_joint": 3.1417511455233207,
        "smoothness": 0.3793311098042291,
        "time": 0.419495929,
        "traj_len": 3.4620652364534803,
        "weighted_distance": 4.909696781410479
    },
    "planner": "LBKPIECE",
    "start": {
        "state": {
            "elbow_joint": 1.664937868594044,
            "shoulder_lift_joint": -0.661644460510453,
            "shoulder_pan_joint": -0.9139846352900073,
            "wrist_1_joint": 2.146753192139373,
            "wrist_2_joint": -2.2341966793290973,
            "wrist_3_joint": 0.005466555786416001
        }
    },
    "waypoints": [
        {
            "positions": [
                -0.9139846352900073,
                -0.661644460510453,
                1.664937868594044,
                2.146753192139373,
                -2.2341966793290973,
                0.005466555786416001
            ]
        },
        {
            "positions": [
                -0.8716153905215285,
                -0.7036721246446191,
                1.7008595658203753,
                2.1817240514004053,
                -2.2048096393613568,
                0.08903143208389525
            ]
        },
        {
            "positions": [
                -0.8292461457530498,
                -0.7456997887787853,
                1.7367812630467068,
                2.2166949106614373,
                -2.1754225993936167,
                0.1725963083813745
            ]
        },
        {
            "positions": [
                -0.8103867783947099,
                -0.7631884291132349,
                1.698005974194242,
                2.108210340858414,
                -2.0506318182211603,
                0.24097385181146386
            ]
        },
        {
            "positions": [
                -0.79152741103637,
                -0.7806770694476846,
                1.6592306853417769,
                1.9997257710553908,
                -1.9258410370487038,
                0.3093513952415532
            ]
        },
        {
            "positions": [
                -0.7726680436780301,
                -0.7981657097821342,
                1.6204553964893118,
                1.8912412012523676,
                -1.8010502558762473,
                0.3777289386716426
            ]
        },
        {
            "positions": [
                -0.7538086763196903,
                -0.8156543501165838,
                1.581680107636847,
                1.7827566314493444,
                -1.6762594747037909,
                0.44610648210173187
            ]
        },
        {
            "positions": [
                -0.7349493089613504,
                -0.8331429904510336,
                1.5429048187843821,
                1.6742720616463211,
                -1.5514686935313344,
                0.5144840255318213
            ]
        },
        {
            "positions": [
                -0.7160899416030104,
                -0.8506316307854832,
                1.504129529931917,
                1.5657874918432977,
                -1.426677912358878,
                0.5828615689619107
            ]
        },
        {
            "positions": [
                -0.6972305742446705,
                -0.8681202711199328,
                1.465354241079452,
                1.4573029220402745,
                -1.3018871311864215,
                0.6512391123919999
            ]
        },
        {
            "positions": [
                -0.6783712068863307,
                -0.8856089114543825,
                1.4265789522269872,
                1.3488183522372512,
                -1.177096350013965,
                0.7196166558220893
            ]
        },
        {
            "positions": [
                -0.6595118395279909,
                -0.9030975517888321,
                1.3878036633745223,
                1.240333782434228,
                -1.0523055688415088,
                0.7879941992521787
            ]
        },
        {
            "positions": [
                -0.6406524721696509,
                -0.9205861921232817,
                1.3490283745220573,
                1.1318492126312047,
                -0.9275147876690524,
                0.856371742682268
            ]
        },
        {
            "positions": [
                -0.621793104811311,
                -0.9380748324577315,
                1.3102530856695922,
                1.0233646428281815,
                -0.8027240064965959,
                0.9247492861123574
            ]
        },
        {
            "positions": [
                -0.6029337374529711,
                -0.9555634727921811,
                1.2714777968171274,
                0.9148800730251581,
                -0.6779332253241395,
                0.9931268295424468
            ]
        },
        {
            "positions": [
                -0.5840743700946313,
                -0.9730521131266308,
                1.2327025079646625,
                0.8063955032221348,
                -0.553142444151683,
                1.061504372972536
            ]
        },
        {
            "positions": [
                -0.5652150027362913,
                -0.9905407534610804,
                1.1939272191121975,
                0.6979109334191116,
                -0.42835166297922656,
                1.1298819164026255
            ]
        },
        {
            "positions": [
                -0.5463556353779515,
                -1.00802939379553,
                1.1551519302597324,
                0.5894263636160884,
                -0.3035608818067701,
                1.1982594598327148
            ]
        },
        {
            "positions": [
                -0.5274962680196116,
                -1.0255180341299797,
                1.1163766414072676,
                0.480941793813065,
                -0.17877010063431356,
                1.266637003262804
            ]
        },
        {
            "positions": [
                -0.5681465405308781,
                -1.0324091620801115,
                1.1806788199507452,
                0.3861764729613749,
                -0.13249234442737062,
                1.400964195980442
            ]
        },
        {
            "positions": [
                -0.6087968130421446,
                -1.039300290030243,
                1.2449809984942228,
                0.29141115210968477,
                -0.08621458822042766,
                1.5352913886980801
            ]
        },
        {
            "positions": [
                -0.6494470855534111,
                -1.0461914179803748,
                1.3092831770377005,
                0.19664583125799467,
                -0.03993683201348469,
                1.669618581415718
            ]
        },
        {
            "positions": [
                -0.6900973580646776,
                -1.0530825459305067,
                1.3735853555811781,
                0.10188051040630453,
                0.006340924193458247,
                1.8039457741333562
            ]
        },
        {
            "positions": [
                -0.7307476305759443,
                -1.0599736738806382,
                1.4378875341246558,
                0.007115189554614376,
                0.05261868040040124,
                1.9382729668509942
            ]
        },
        {
            "positions": [
                -0.7713979030872108,
                -1.06686480183077,
                1.5021897126681334,
                -0.08765013129707566,
                0.09889643660734418,
                2.072600159568632
            ]
        },
        {
            "positions": [
                -0.8120481755984773,
                -1.0737559297809018,
                1.566491891211611,
                -0.18241545214876587,
                0.14517419281428715,
                2.2069273522862702
            ]
        },
        {
            "positions": [
                -0.8526984481097438,
                -1.0806470577310334,
                1.6307940697550887,
                -0.27718077300045596,
                0.19145194902123006,
                2.341254545003908
            ]
        },
        {
            "positions": [
                -0.8933487206210105,
                -1.0875381856811652,
                1.6950962482985663,
                -0.37194609385214616,
                0.23772970522817308,
                2.475581737721546
            ]
        },
        {
            "positions": [
                -0.933998993132277,
                -1.0944293136312968,
                1.759398426842044,
                -0.46671141470383626,
                0.284007461435116,
                2.6099089304391843
            ]
        },
        {
            "positions": [
                -0.9746492656435435,
                -1.1013204415814286,
                1.8237006053855216,
                -0.5614767355555262,
                0.330285217642059,
                2.7442361231568224
            ]
        },
        {
            "positions": [
                -1.01529953815481,
                -1.1082115695315604,
                1.8880027839289992,
                -0.6562420564072163,
                0.37656297384900195,
                2.8785633158744606
            ]
        },
        {
            "positions": [
                -1.0559498106660765,
                -1.115102697481692,
                1.9523049624724769,
                -0.7510073772589066,
                0.4228407300559449,
                3.0128905085920987
            ]
        },
        {
            "positions": [
                -1.096600083177343,
                -1.1219938254318238,
                2.0166071410159545,
                -0.8457726981105966,
                0.4691184862628879,
                3.1472177013097364
            ]
        }
    ]
}