{
    "goal": {
        "global_pose": {
            "orientation": {
                "w": 0.5084816217422485,
                "x": -0.49083608388900757,
                "y": 0.5182115435600281,
                "z": -0.4816462993621826
            },
            "position": {
                "x": 0.5540239810943604,
                "y": 0.030875300988554955,
                "z": 0.16403168439865112
            }
        },
        "name": "move_to_storage_A"
    },
    "id": "LBKPIECE_move_to_storage_A_11",
    "joint_names": [
        "shoulder_pan_joint",
        "shoulder_lift_joint",
        "elbow_joint",
        "wrist_1_joint",
        "wrist_2_joint",
        "wrist_3_joint"
    ],
    "metrics": {
        "cart_traj_len": 0.3531885828486447,
        "distance_elbow_joint": 0.44771360106767966,
        "distance_shoulder_lift_joint": 0.23559541691909058,
        "distance_shoulder_pan_joint": 0.4617631467339414,
        "distance_wrist_1_joint": 0.2357839292278453,
        "distance_wrist_2_joint": 1.0993015089750517,
        "distance_wrist_3_joint": 0.08963348775133095,
        "smoothness": 2.2204460668324854e-16,
        "time": 0.19431821400000002,
        "traj_len": 1.6030567958356747,
        "weighted_distance": 2.0209263975663485
    },
    "planner": "LBKPIECE",
    "start": {
        "state": {
            "elbow_joint": 1.971548259319323,
            "shoulder_lift_joint": -1.1394851275133948,
            "shoulder_pan_joint": 0.1228115487234821,
            "wrist_1_joint": -0.7804723859257726,
            "wrist_2_joint": 0.12958671773740124,
            "wrist_3_joint": -3.192489227718131
        }
    },
    "waypoints": [
        {
            "positions": [
                0.1228115487234821,
                -1.1394851275133948,
                1.971548259319323,
                -0.7804723859257726,
                0.12958671773740124,
                -3.192489227718131
            ]
        },
        {
            "positions": [
                0.05684538490434761,
                -1.1731416156446934,
                2.0355073451861343,
                -0.8141558043868934,
                0.2866297904481229,
                -3.179684443753655
            ]
        },
        {
            "positions": [
                -0.009120778914786881,
                -1.206798103775992,
                2.099466431052946,
                -0.8478392228480142,
                0.4436728631588446,
                -3.1668796597891795
            ]
        },
        {
            "positions": [
                -0.07508694273392136,
                -1.2404545919072907,
                2.163425516919757,
                -0.8815226413091348,
                0.6007159358695663,
                -3.1540748758247035
            ]
        },
        {
            "positions": [
                -0.14105310655305586,
                -1.2741110800385895,
                2.2273846027865685,
                -0.9152060597702556,
                0.757759008580288,
                -3.141270091860228
            ]
        },
        {
            "positions": [
                -0.20701927037219037,
                -1.3077675681698882,
                2.29134368865338,
                -0.9488894782313764,
                0.9148020812910097,
                -3.128465307895752
            ]
        },
        {
            "positions": [
                -0.2729854341913248,
                -1.3414240563011868,
                2.355302774520191,
                -0.9825728966924971,
                1.0718451540017313,
                -3.1156605239312762
            ]
        },
        {
            "positions": [
                -0.3389515980104593,
                -1.3750805444324854,
                2.4192618603870026,
                -1.016256315153618,
                1.228888226712453,
                -3.1028557399668
            ]
        }
    ]
}{
    "goal": {
        "global_pose": {
            "orientation": {
                "w": 0.5084816217422485,
                "x": -0.49083608388900757,
                "y": 0.5182115435600281,
                "z": -0.4816462993621826
            },
            "position": {
                "x": 0.5540239810943604,
                "y": 0.030875300988554955,
                "z": 0.16403168439865112
            }
        },
        "name": "move_to_storage_A"
    },
    "id": "LBKPIECE_move_to_storage_A_11",
    "joint_names": [
        "shoulder_pan_joint",
        "shoulder_lift_joint",
        "elbow_joint",
        "wrist_1_joint",
        "wrist_2_joint",
        "wrist_3_joint"
    ],
    "metrics": {
        "cart_traj_len": 0.35321566705776547,
        "distance_elbow_joint": 0.4481703430052608,
        "distance_shoulder_lift_joint": 0.23437359097462096,
        "distance_shoulder_pan_joint": 0.4595376160069742,
        "distance_wrist_1_joint": 0.24026354344721956,
        "distance_wrist_2_joint": 1.1084982616082788,
        "distance_wrist_3_joint": 0.09781194151105899,
        "smoothness": 1.3322676295501878e-15,
        "time": 0.551020855,
        "traj_len": 1.6089298606693248,
        "weighted_distance": 2.0329881909718583
    },
    "planner": "LBKPIECE",
    "start": {
        "state": {
            "elbow_joint": 1.97154746011099,
            "shoulder_lift_joint": -1.13948474672311,
            "shoulder_pan_joint": 0.12281154466712228,
            "wrist_1_joint": -0.7804688027058302,
            "wrist_2_joint": 0.12958655903071145,
            "wrist_3_joint": 3.0906928834467795
        }
    },
    "waypoints": [
        {
            "positions": [
                0.12281154466712228,
                -1.13948474672311,
                1.97154746011099,
                -0.7804688027058302,
                0.12958655903071145,
                3.0906928834467795
            ]
        },
        {
            "positions": [
                0.057163313808983124,
                -1.1729666882909129,
                2.0355717948260272,
                -0.814792166055433,
                0.28794345354617984,
                3.104666017948359
            ]
        },
        {
            "positions": [
                -0.008484917049156035,
                -1.206448629858716,
                2.0995961295410646,
                -0.8491155294050358,
                0.4463003480616482,
                3.1186391524499393
            ]
        },
        {
            "positions": [
                -0.07413314790729521,
                -1.239930571426519,
                2.163620464256102,
                -0.8834388927546386,
                0.6046572425771166,
                3.132612286951519
            ]
        },
        {
            "positions": [
                -0.13978137876543434,
                -1.273412512994322,
                2.2276447989711388,
                -0.9177622561042413,
                0.763014137092585,
                3.146585421453099
            ]
        },
        {
            "positions": [
                -0.20542960962357354,
                -1.306894454562125,
                2.291669133686176,
                -0.9520856194538442,
                0.9213710316080534,
                3.1605585559546787
            ]
        },
        {
            "positions": [
                -0.2710778404817127,
                -1.340376396129928,
                2.3556934684012134,
                -0.9864089828034469,
                1.0797279261235218,
                3.174531690456259
            ]
        },
        {
            "positions": [
                -0.3367260713398519,
                -1.373858337697731,
                2.4197178031162507,
                -1.0207323461530498,
                1.2380848206389903,
                3.1885048249578385
            ]
        }
    ]
}{
    "goal": {
        "global_pose": {
            "orientation": {
                "w": 0.5084816217422485,
                "x": -0.49083608388900757,
                "y": 0.5182115435600281,
                "z": -0.4816462993621826
            },
            "position": {
                "x": 0.5540239810943604,
                "y": 0.030875300988554955,
                "z": 0.16403168439865112
            }
        },
        "name": "move_to_storage_A"
    },
    "id": "LBKPIECE_move_to_storage_A_11",
    "joint_names": [
        "shoulder_pan_joint",
        "shoulder_lift_joint",
        "elbow_joint",
        "wrist_1_joint",
        "wrist_2_joint",
        "wrist_3_joint"
    ],
    "metrics": {
        "cart_traj_len": 0.35284114310491843,
        "distance_elbow_joint": 0.44873149549263447,
        "distance_shoulder_lift_joint": 0.23525200075342956,
        "distance_shoulder_pan_joint": 0.4610658870913913,
        "distance_wrist_1_joint": 0.2389444672670049,
        "distance_wrist_2_joint": 1.0998074282498018,
        "distance_wrist_3_joint": 0.09239767380891939,
        "smoothness": 4.440892098500626e-16,
        "time": 0.8275630300000001,
        "traj_len": 1.605054189945991,
        "weighted_distance": 2.024782999681158
    },
    "planner": "LBKPIECE",
    "start": {
        "state": {
            "elbow_joint": 1.9715472970024885,
            "shoulder_lift_joint": -1.1394870060712896,
            "shoulder_pan_joint": 0.12281152778156021,
            "wrist_1_joint": -0.780463741449964,
            "wrist_2_joint": 0.12958659822042276,
            "wrist_3_joint": 3.090690232415272
        }
    },
    "waypoints": [
        {
            "positions": [
                0.12281152778156021,
                -1.1394870060712896,
                1.9715472970024885,
                -0.780463741449964,
                0.12958659822042276,
                3.090690232415272
            ]
        },
        {
            "positions": [
                0.05694497248279003,
                -1.173094434750351,
                2.035651796358579,
                -0.8145986653452504,
                0.2867019451132516,
                3.1038899001022604
            ]
        },
        {
            "positions": [
                -0.008921582815980156,
                -1.2067018634294124,
                2.09975629571467,
                -0.8487335892405368,
                0.44381729200608044,
                3.117089567789249
            ]
        },
        {
            "positions": [
                -0.07478813811475032,
                -1.2403092921084737,
                2.1638607950707605,
                -0.8828685131358233,
                0.6009326388989092,
                3.1302892354762375
            ]
        },
        {
            "positions": [
                -0.14065469341352052,
                -1.273916720787535,
                2.227965294426851,
                -0.9170034370311096,
                0.758047985791738,
                3.1434889031632256
            ]
        },
        {
            "positions": [
                -0.20652124871229074,
                -1.3075241494665963,
                2.2920697937829417,
                -0.9511383609263961,
                0.915163332684567,
                3.156688570850214
            ]
        },
        {
            "positions": [
                -0.2723878040110609,
                -1.3411315781456579,
                2.3561742931390324,
                -0.9852732848216825,
                1.0722786795773958,
                3.1698882385372027
            ]
        },
        {
            "positions": [
                -0.33825435930983105,
                -1.3747390068247192,
                2.420278792495123,
                -1.019408208716969,
                1.2293940264702246,
                3.1830879062241912
            ]
        }
    ]
}