{
    "goal": {
        "global_pose": {
            "orientation": {
                "w": 0.005598929693374612,
                "x": 0.007748599140229565,
                "y": 0.7110244013736278,
                "z": -0.7031023480610252
            },
            "position": {
                "x": 0.1141497679147869,
                "y": -0.7141253447532654,
                "z": 0.3711530566215515
            }
        },
        "name": "move_to_auspresseinheit_B"
    },
    "id": "LBKPIECE_move_to_auspresseinheit_B_88",
    "joint_names": [
        "shoulder_pan_joint",
        "shoulder_lift_joint",
        "elbow_joint",
        "wrist_1_joint",
        "wrist_2_joint",
        "wrist_3_joint"
    ],
    "metrics": {
        "cart_traj_len": 0.5645110424779025,
        "distance_elbow_joint": 0.06734491976045365,
        "distance_shoulder_lift_joint": 0.2926885085609632,
        "distance_shoulder_pan_joint": 0.5758690412794305,
        "distance_wrist_1_joint": 0.3395972979588231,
        "distance_wrist_2_joint": 0.99499405954473,
        "distance_wrist_3_joint": 0.0013148726115508325,
        "smoothness": 3.806478935924272e-16,
        "time": 0.610491521,
        "traj_len": 1.5072520358970993,
        "weighted_distance": 1.8997446676968477
    },
    "planner": "LBKPIECE",
    "start": {
        "state": {
            "elbow_joint": 2.0193083361928714,
            "shoulder_lift_joint": -1.1220246554650708,
            "shoulder_pan_joint": -1.0952077554168747,
            "wrist_1_joint": -0.8559753972642168,
            "wrist_2_joint": 0.4759566250798843,
            "wrist_3_joint": -3.1240929996934557
        }
    },
    "waypoints": [
        {
            "positions": [
                -1.0952077554168747,
                -1.1220246554650708,
                2.0193083361928714,
                -0.8559753972642168,
                0.4759566250798843,
                -3.1240929996934557
            ]
        },
        {
            "positions": [
                -1.1911859289634463,
                -1.1708060735585646,
                2.0080841828994624,
                -0.7993758476044129,
                0.6417889683373392,
                -3.124312145128714
            ]
        },
        {
            "positions": [
                -1.2871641025100182,
                -1.2195874916520586,
                1.9968600296060535,
                -0.7427762979446091,
                0.8076213115947943,
                -3.1245312905639726
            ]
        },
        {
            "positions": [
                -1.38314227605659,
                -1.2683689097455524,
                1.9856358763126445,
                -0.6861767482848052,
                0.9734536548522492,
                -3.124750435999231
            ]
        },
        {
            "positions": [
                -1.4791204496031616,
                -1.3171503278390462,
                1.9744117230192357,
                -0.6295771986250014,
                1.1392859981097043,
                -3.1249695814344896
            ]
        },
        {
            "positions": [
                -1.5750986231497335,
                -1.3659317459325402,
                1.9631875697258268,
                -0.5729776489651975,
                1.3051183413671592,
                -3.125188726869748
            ]
        },
        {
            "positions": [
                -1.6710767966963052,
                -1.414713164026034,
                1.9519634164324178,
                -0.5163780993053937,
                1.4709506846246143,
                -3.1254078723050065
            ]
        }
    ]
}