{
    "goal": {
        "global_pose": {
            "orientation": {
                "w": -0.4816463035849501,
                "x": 0.5182115481033762,
                "y": 0.4908360881923453,
                "z": -0.5084816262002911
            },
            "position": {
                "x": -0.8240239810943604,
                "y": -0.300875300988555,
                "z": 0.16403168439865112
            }
        },
        "name": "move_to_storage_C"
    },
    "id": "LBKPIECE_move_to_storage_C_139",
    "joint_names": [
        "shoulder_pan_joint",
        "shoulder_lift_joint",
        "elbow_joint",
        "wrist_1_joint",
        "wrist_2_joint",
        "wrist_3_joint"
    ],
    "metrics": {
        "cart_traj_len": 0.5770220719936758,
        "distance_elbow_joint": 0.2569607716410198,
        "distance_shoulder_lift_joint": 0.1891989637357282,
        "distance_shoulder_pan_joint": 0.49625237540675204,
        "distance_wrist_1_joint": 0.07423211104037875,
        "distance_wrist_2_joint": 1.058926312510608,
        "distance_wrist_3_joint": 0.06292029068047844,
        "smoothness": 0.0,
        "time": 0.211670021,
        "traj_len": 1.4623579674672564,
        "weighted_distance": 1.8432281003519095
    },
    "planner": "LBKPIECE",
    "start": {
        "state": {
            "elbow_joint": 2.010868314990456,
            "shoulder_lift_joint": -1.1634956873337592,
            "shoulder_pan_joint": -2.4736205022346125,
            "wrist_1_joint": -0.8367026794202681,
            "wrist_2_joint": 0.6746043897044499,
            "wrist_3_joint": -3.1496632123970403
        }
    },
    "waypoints": [
        {
            "positions": [
                -2.4736205022346125,
                -1.1634956873337592,
                2.010868314990456,
                -0.8367026794202681,
                0.6746043897044499,
                -3.1496632123970403
            ]
        },
        {
            "positions": [
                -2.5563292314690713,
                -1.1319625267111377,
                1.9680415197169525,
                -0.8243306609135383,
                0.851092108456218,
                -3.139176497283627
            ]
        },
        {
            "positions": [
                -2.6390379607035297,
                -1.1004293660885165,
                1.9252147244434492,
                -0.8119586424068085,
                1.027579827207986,
                -3.128689782170214
            ]
        },
        {
            "positions": [
                -2.7217466899379885,
                -1.068896205465895,
                1.882387929169946,
                -0.7995866239000787,
                1.204067545959754,
                -3.1182030670568013
            ]
        },
        {
            "positions": [
                -2.8044554191724473,
                -1.0373630448432738,
                1.8395611338964426,
                -0.787214605393349,
                1.3805552647115218,
                -3.107716351943388
            ]
        },
        {
            "positions": [
                -2.8871641484069057,
                -1.0058298842206523,
                1.7967343386229393,
                -0.7748425868866191,
                1.55704298346329,
                -3.097229636829975
            ]
        },
        {
            "positions": [
                -2.9698728776413645,
                -0.974296723598031,
                1.753907543349436,
                -0.7624705683798894,
                1.733530702215058,
                -3.086742921716562
            ]
        }
    ]
}