{
    "goal": {
        "global_pose": {
            "orientation": {
                "w": 0.7031023502349854,
                "x": -0.7110244035720825,
                "y": 0.007748599164187908,
                "z": 0.005598929710686207
            },
            "position": {
                "x": 0.11585023208521307,
                "y": 0.44412534475326537,
                "z": 0.3711530566215515
            }
        },
        "name": "move_to_auspresseinheit_A"
    },
    "id": "LBKPIECE_move_to_auspresseinheit_A_26",
    "joint_names": [
        "shoulder_pan_joint",
        "shoulder_lift_joint",
        "elbow_joint",
        "wrist_1_joint",
        "wrist_2_joint",
        "wrist_3_joint"
    ],
    "metrics": {
        "cart_traj_len": 2.281612952256186,
        "distance_elbow_joint": 0.37135567661171764,
        "distance_shoulder_lift_joint": 2.7557025309912877,
        "distance_shoulder_pan_joint": 5.40517047663149,
        "distance_wrist_1_joint": 2.472923445589687,
        "distance_wrist_2_joint": 2.2892672122786233,
        "distance_wrist_3_joint": 1.529974754320408,
        "smoothness": 0.8403871027412901,
        "time": 0.681744236,
        "traj_len": 3.8502459786906105,
        "weighted_distance": 4.758837490704252
    },
    "planner": "LBKPIECE",
    "start": {
        "state": {
            "elbow_joint": 2.4225746658250005,
            "shoulder_lift_joint": -1.3736534386056498,
            "shoulder_pan_joint": -0.3378633547517467,
            "wrist_1_joint": -1.0288598680537169,
            "wrist_2_joint": 1.233022673432363,
            "wrist_3_joint": -3.0940220416140027
        }
    },
    "waypoints": [
        {
            "positions": [
                -0.3378633547517467,
                -1.3736534386056498,
                2.4225746658250005,
                -1.0288598680537169,
                1.233022673432363,
                -3.0940220416140027
            ]
        },
        {
            "positions": [
                -0.18426451906836006,
                -1.4519809874442597,
                2.4307717850480404,
                -0.9569392652242034,
                1.275106183911293,
                -3.058579349071897
            ]
        },
        {
            "positions": [
                -0.030665683384973386,
                -1.5303085362828694,
                2.43896890427108,
                -0.8850186623946898,
                1.317189694390223,
                -3.0231366565297915
            ]
        },
        {
            "positions": [
                0.12293315229841328,
                -1.6086360851214794,
                2.4471660234941197,
                -0.8130980595651764,
                1.359273204869153,
                -2.987693963987686
            ]
        },
        {
            "positions": [
                0.27653198798179995,
                -1.6869636339600893,
                2.4553631427171596,
                -0.7411774567356628,
                1.4013567153480828,
                -2.95225127144558
            ]
        },
        {
            "positions": [
                0.43013082366518657,
                -1.765291182798699,
                2.463560261940199,
                -0.6692568539061494,
                1.443440225827013,
                -2.9168085789034746
            ]
        },
        {
            "positions": [
                0.5837296593485732,
                -1.843618731637309,
                2.471757381163239,
                -0.5973362510766359,
                1.4855237363059428,
                -2.881365886361369
            ]
        },
        {
            "positions": [
                0.7373284950319601,
                -1.9219462804759186,
                2.479954500386279,
                -0.5254156482471224,
                1.5276072467848727,
                -2.8459231938192633
            ]
        },
        {
            "positions": [
                0.8909273307153467,
                -2.0002738293145286,
                2.4881516196093183,
                -0.4534950454176089,
                1.5696907572638028,
                -2.8104805012771577
            ]
        },
        {
            "positions": [
                1.0445261663987333,
                -2.0786013781531385,
                2.496348738832358,
                -0.3815744425880955,
                1.6117742677427327,
                -2.7750378087350525
            ]
        },
        {
            "positions": [
                1.19812500208212,
                -2.1569289269917484,
                2.504545858055398,
                -0.30965383975858196,
                1.6538577782216628,
                -2.7395951161929464
            ]
        },
        {
            "positions": [
                1.351723837765507,
                -2.2352564758303584,
                2.5127429772784375,
                -0.23773323692906834,
                1.6959412887005927,
                -2.704152423650841
            ]
        },
        {
            "positions": [
                1.5053226734488934,
                -2.313584024668968,
                2.5209400965014774,
                -0.16581263409955493,
                1.7380247991795228,
                -2.6687097311087356
            ]
        },
        {
            "positions": [
                1.6589215091322802,
                -2.3919115735075778,
                2.5291372157245173,
                -0.09389203127004142,
                1.7801083096584527,
                -2.63326703856663
            ]
        },
        {
            "positions": [
                1.8125203448156668,
                -2.4702391223461877,
                2.537334334947557,
                -0.021971428440527907,
                1.8221918201373826,
                -2.5978243460245243
            ]
        },
        {
            "positions": [
                1.9661191804990534,
                -2.5485666711847976,
                2.5455314541705967,
                0.04994917438898572,
                1.8642753306163127,
                -2.5623816534824186
            ]
        },
        {
            "positions": [
                2.11971801618244,
                -2.6268942200234076,
                2.5537285733936366,
                0.12186977721849912,
                1.9063588410952426,
                -2.526938960940313
            ]
        },
        {
            "positions": [
                2.273316851865827,
                -2.7052217688620175,
                2.561925692616676,
                0.19379038004801252,
                1.9484423515741724,
                -2.4914962683982074
            ]
        },
        {
            "positions": [
                2.4269156875492133,
                -2.7835493177006274,
                2.570122811839716,
                0.2657109828775259,
                1.9905258620531026,
                -2.4560535758561017
            ]
        },
        {
            "positions": [
                2.5805145232326003,
                -2.8618768665392373,
                2.578319931062756,
                0.33763158570703955,
                2.0326093725320327,
                -2.420610883313996
            ]
        },
        {
            "positions": [
                2.7341133589159865,
                -2.940204415377847,
                2.5865170502857953,
                0.40955218853655295,
                2.0746928830109623,
                -2.3851681907718905
            ]
        },
        {
            "positions": [
                2.8877121945993736,
                -3.0185319642164568,
                2.594714169508835,
                0.4814727913660666,
                2.1167763934898924,
                -2.349725498229785
            ]
        },
        {
            "positions": [
                2.7595007282887636,
                -2.953189375664664,
                2.582995571101313,
                0.4248498039443075,
                2.034099129241593,
                -2.3959418635789724
            ]
        },
        {
            "positions": [
                2.6312892619781536,
                -2.887846787112871,
                2.57127697269379,
                0.36822681652254835,
                1.951421864993293,
                -2.44215822892816
            ]
        },
        {
            "positions": [
                2.5030777956675436,
                -2.8225041985610777,
                2.5595583742862678,
                0.3116038291007892,
                1.8687446007449935,
                -2.4883745942773476
            ]
        },
        {
            "positions": [
                2.3748663293569336,
                -2.757161610009285,
                2.547839775878745,
                0.2549808416790301,
                1.7860673364966937,
                -2.5345909596265352
            ]
        },
        {
            "positions": [
                2.2466548630463237,
                -2.691819021457492,
                2.5361211774712227,
                0.19835785425727104,
                1.7033900722483941,
                -2.5808073249757233
            ]
        },
        {
            "positions": [
                2.1184433967357137,
                -2.626476432905699,
                2.5244025790637,
                0.1417348668355119,
                1.6207128080000945,
                -2.627023690324911
            ]
        },
        {
            "positions": [
                1.9902319304251037,
                -2.561133844353906,
                2.5126839806561776,
                0.08511187941375287,
                1.5380355437517947,
                -2.6732400556740985
            ]
        },
        {
            "positions": [
                1.8620204641144937,
                -2.495791255802113,
                2.500965382248655,
                0.028488891991993726,
                1.455358279503495,
                -2.719456421023286
            ]
        },
        {
            "positions": [
                1.7338089978038838,
                -2.43044866725032,
                2.4892467838411325,
                -0.028134095429765416,
                1.3726810152551954,
                -2.7656727863724737
            ]
        },
        {
            "positions": [
                1.6055975314932738,
                -2.3651060786985267,
                2.4775281854336098,
                -0.0847570828515245,
                1.2900037510068958,
                -2.8118891517216613
            ]
        },
        {
            "positions": [
                1.4773860651826638,
                -2.299763490146734,
                2.4658095870260874,
                -0.1413800702732836,
                1.2073264867585962,
                -2.858105517070849
            ]
        },
        {
            "positions": [
                1.3491745988720538,
                -2.234420901594941,
                2.4540909886185647,
                -0.19800305769504278,
                1.1246492225102964,
                -2.904321882420037
            ]
        },
        {
            "positions": [
                1.220963132561444,
                -2.169078313043148,
                2.4423723902110424,
                -0.25462604511680176,
                1.0419719582619968,
                -2.9505382477692246
            ]
        },
        {
            "positions": [
                1.0927516662508339,
                -2.1037357244913553,
                2.4306537918035196,
                -0.31124903253856084,
                0.959294694013697,
                -2.996754613118412
            ]
        },
        {
            "positions": [
                0.9645401999402239,
                -2.038393135939562,
                2.4189351933959973,
                -0.36787201996031993,
                0.8766174297653975,
                -3.0429709784676
            ]
        },
        {
            "positions": [
                0.8363287336296139,
                -1.9730505473877693,
                2.4072165949884745,
                -0.4244950073820791,
                0.7939401655170977,
                -3.0891873438167874
            ]
        },
        {
            "positions": [
                0.708117267319004,
                -1.9077079588359762,
                2.395497996580952,
                -0.48111799480383827,
                0.7112629012687981,
                -3.135403709165975
            ]
        }
    ]
}