{
    "goal": {
        "global_pose": {
            "orientation": {
                "w": 0.7031023480610252,
                "x": -0.7110244013736278,
                "y": 0.0077485991402295624,
                "z": 0.005598929693374583
            },
            "position": {
                "x": -0.8841497679147869,
                "y": 0.44412534475326537,
                "z": 0.3711530566215515
            }
        },
        "name": "move_to_auspresseinheit_D"
    },
    "id": "LBKPIECE_move_to_auspresseinheit_D_61",
    "joint_names": [
        "shoulder_pan_joint",
        "shoulder_lift_joint",
        "elbow_joint",
        "wrist_1_joint",
        "wrist_2_joint",
        "wrist_3_joint"
    ],
    "metrics": {
        "cart_traj_len": 0.3433934563487443,
        "distance_elbow_joint": 0.6412641605252654,
        "distance_shoulder_lift_joint": 0.12253853074961496,
        "distance_shoulder_pan_joint": 0.13324395854940949,
        "distance_wrist_1_joint": 0.5314514456066628,
        "distance_wrist_2_joint": 1.4486069031320432,
        "distance_wrist_3_joint": 0.005072346070575051,
        "smoothness": 5.921189480296099e-16,
        "time": 0.29411356200000005,
        "traj_len": 1.6976976599599738,
        "weighted_distance": 2.20734691100276
    },
    "planner": "LBKPIECE",
    "start": {
        "state": {
            "elbow_joint": -1.8275523626775212,
            "shoulder_lift_joint": -2.126789852344167,
            "shoulder_pan_joint": -0.03513704404078235,
            "wrist_1_joint": -2.347782403156801,
            "wrist_2_joint": -1.6058999987535132,
            "wrist_3_joint": -3.0880379163319196
        }
    },
    "waypoints": [
        {
            "positions": [
                -0.03513704404078235,
                -2.126789852344167,
                -1.8275523626775212,
                -2.347782403156801,
                -1.6058999987535132,
                -3.0880379163319196
            ]
        },
        {
            "positions": [
                -0.05179253885945853,
                -2.1421071686878688,
                -1.747394342611863,
                -2.4142138338576338,
                -1.4248241358620077,
                -3.0874038730730975
            ]
        },
        {
            "positions": [
                -0.06844803367813472,
                -2.1574244850315707,
                -1.6672363225462048,
                -2.4806452645584667,
                -1.2437482729705023,
                -3.086769829814276
            ]
        },
        {
            "positions": [
                -0.08510352849681091,
                -2.1727418013752726,
                -1.5870783024805466,
                -2.5470766952592996,
                -1.062672410078997,
                -3.086135786555454
            ]
        },
        {
            "positions": [
                -0.10175902331548708,
                -2.188059117718974,
                -1.5069202824148884,
                -2.6135081259601325,
                -0.8815965471874916,
                -3.085501743296632
            ]
        },
        {
            "positions": [
                -0.11841451813416329,
                -2.203376434062676,
                -1.4267622623492304,
                -2.679939556660965,
                -0.7005206842959861,
                -3.08486770003781
            ]
        },
        {
            "positions": [
                -0.13507001295283946,
                -2.218693750406378,
                -1.3466042422835722,
                -2.746370987361798,
                -0.5194448214044809,
                -3.0842336567789883
            ]
        },
        {
            "positions": [
                -0.15172550777151564,
                -2.23401106675008,
                -1.266446222217914,
                -2.8128024180626308,
                -0.33836895851297544,
                -3.0835996135201666
            ]
        },
        {
            "positions": [
                -0.16838100259019184,
                -2.249328383093782,
                -1.1862882021522558,
                -2.8792338487634637,
                -0.1572930956214699,
                -3.0829655702613445
            ]
        }
    ]
}