{
    "goal": {
        "global_pose": {
            "orientation": {
                "w": -0.4816463035849501,
                "x": 0.5182115481033762,
                "y": 0.4908360881923453,
                "z": -0.5084816262002911
            },
            "position": {
                "x": -0.8240239810943604,
                "y": -0.300875300988555,
                "z": 0.16403168439865112
            }
        },
        "name": "move_to_storage_C"
    },
    "id": "LBKPIECE_move_to_storage_C_51",
    "joint_names": [
        "shoulder_pan_joint",
        "shoulder_lift_joint",
        "elbow_joint",
        "wrist_1_joint",
        "wrist_2_joint",
        "wrist_3_joint"
    ],
    "metrics": {
        "cart_traj_len": 0.5764346600757263,
        "distance_elbow_joint": 0.25637348834507967,
        "distance_shoulder_lift_joint": 0.18880175104888886,
        "distance_shoulder_pan_joint": 0.495621672239416,
        "distance_wrist_1_joint": 0.0738565536077801,
        "distance_wrist_2_joint": 1.0600271036190527,
        "distance_wrist_3_joint": 0.0644701410340982,
        "smoothness": 5.075305295617109e-16,
        "time": 0.417858718,
        "traj_len": 1.4625835736443629,
        "weighted_distance": 1.8444442656771565
    },
    "planner": "LBKPIECE",
    "start": {
        "state": {
            "elbow_joint": 2.010868314990456,
            "shoulder_lift_joint": -1.1634956873337592,
            "shoulder_pan_joint": -2.4736205022346125,
            "wrist_1_joint": -0.8367026794202681,
            "wrist_2_joint": 0.6746043897044499,
            "wrist_3_joint": -3.1496632123970403
        }
    },
    "waypoints": [
        {
            "positions": [
                -2.4736205022346125,
                -1.1634956873337592,
                2.010868314990456,
                -0.8367026794202681,
                0.6746043897044499,
                -3.1496632123970403
            ]
        },
        {
            "positions": [
                -2.556224114274515,
                -1.132028728825611,
                1.968139400266276,
                -0.8243932538189714,
                0.8512755736409587,
                -3.138918188891357
            ]
        },
        {
            "positions": [
                -2.638827726314418,
                -1.1005617703174628,
                1.925410485542096,
                -0.8120838282176748,
                1.0279467575774675,
                -3.1281731653856744
            ]
        },
        {
            "positions": [
                -2.7214313383543205,
                -1.0690948118093146,
                1.8826815708179159,
                -0.799774402616378,
                1.2046179415139764,
                -3.117428141879991
            ]
        },
        {
            "positions": [
                -2.804034950394223,
                -1.0376278533011667,
                1.839952656093736,
                -0.7874649770150813,
                1.3812891254504849,
                -3.106683118374308
            ]
        },
        {
            "positions": [
                -2.886638562434126,
                -1.0061608947930185,
                1.7972237413695562,
                -0.7751555514137847,
                1.5579603093869938,
                -3.0959380948686253
            ]
        },
        {
            "positions": [
                -2.9692421744740285,
                -0.9746939362848703,
                1.7544948266453761,
                -0.762846125812488,
                1.7346314933235027,
                -3.085193071362942
            ]
        }
    ]
}