{
    "goal": {
        "global_pose": {
            "orientation": {
                "w": 0.7047431493862688,
                "x": -0.7094548369677653,
                "y": 0.0024358444001904,
                "z": -0.0022348060817251984
            },
            "position": {
                "x": -0.39052492380142206,
                "y": 0.3671506643295288,
                "z": 0.19426114857196808
            }
        },
        "name": "move_to_magneteinheit_D"
    },
    "id": "LBKPIECE_move_to_magneteinheit_D_60",
    "joint_names": [
        "shoulder_pan_joint",
        "shoulder_lift_joint",
        "elbow_joint",
        "wrist_1_joint",
        "wrist_2_joint",
        "wrist_3_joint"
    ],
    "metrics": {
        "cart_traj_len": 4.786866027521897,
        "distance_elbow_joint": 4.240764620539558,
        "distance_shoulder_lift_joint": 2.169481648739075,
        "distance_shoulder_pan_joint": 3.269989157707794,
        "distance_wrist_1_joint": 1.9584305642459163,
        "distance_wrist_2_joint": 2.0332326557127343,
        "distance_wrist_3_joint": 3.156831873175566,
        "smoothness": 0.3364606320850256,
        "time": 0.906711806,
        "traj_len": 4.1022835738306345,
        "weighted_distance": 5.209036137946293
    },
    "planner": "LBKPIECE",
    "start": {
        "state": {
            "elbow_joint": 0.749534889911806,
            "shoulder_lift_joint": -0.6476975780787326,
            "shoulder_pan_joint": -2.711696901376241,
            "wrist_1_joint": -0.07506478083263063,
            "wrist_2_joint": 0.43296659715538205,
            "wrist_3_joint": -3.14703540197715
        }
    },
    "waypoints": [
        {
            "positions": [
                -2.711696901376241,
                -0.6476975780787326,
                0.749534889911806,
                -0.07506478083263063,
                0.43296659715538205,
                -3.14703540197715
            ]
        },
        {
            "positions": [
                -2.712972815866354,
                -0.7689459283034713,
                0.8101000697635923,
                -0.09810839558258595,
                0.48745066269293597,
                -3.05211595193047
            ]
        },
        {
            "positions": [
                -2.714248730356467,
                -0.8901942785282099,
                0.8706652496153785,
                -0.12115201033254128,
                0.5419347282304899,
                -2.9571965018837902
            ]
        },
        {
            "positions": [
                -2.71552464484658,
                -1.0114426287529485,
                0.9312304294671648,
                -0.14419562508249661,
                0.5964187937680439,
                -2.8622770518371103
            ]
        },
        {
            "positions": [
                -2.5629771676164377,
                -1.0870457196413703,
                0.9511559123263273,
                -0.14989793115873504,
                0.6269736206992979,
                -2.7544458326175256
            ]
        },
        {
            "positions": [
                -2.4104296903862954,
                -1.1626488105297923,
                0.9710813951854899,
                -0.1556002372349735,
                0.6575284476305518,
                -2.6466146133979405
            ]
        },
        {
            "positions": [
                -2.257882213156153,
                -1.2382519014182143,
                0.9910068780446524,
                -0.1613025433112119,
                0.6880832745618057,
                -2.5387833941783553
            ]
        },
        {
            "positions": [
                -2.105334735926011,
                -1.313854992306636,
                1.010932360903815,
                -0.16700484938745033,
                0.7186381014930597,
                -2.4309521749587706
            ]
        },
        {
            "positions": [
                -1.9527872586958686,
                -1.3894580831950578,
                1.0308578437629774,
                -0.17270715546368878,
                0.7491929284243137,
                -2.323120955739186
            ]
        },
        {
            "positions": [
                -1.8002397814657265,
                -1.4650611740834798,
                1.05078332662214,
                -0.1784094615399272,
                0.7797477553555677,
                -2.2152897365196007
            ]
        },
        {
            "positions": [
                -1.6476923042355842,
                -1.5406642649719018,
                1.0707088094813024,
                -0.18411176761616566,
                0.8103025822868217,
                -2.1074585173000155
            ]
        },
        {
            "positions": [
                -1.495144827005442,
                -1.6162673558603236,
                1.090634292340465,
                -0.18981407369240408,
                0.8408574092180756,
                -1.9996272980804308
            ]
        },
        {
            "positions": [
                -1.3425973497752997,
                -1.6918704467487453,
                1.1105597751996275,
                -0.1955163797686425,
                0.8714122361493297,
                -1.8917960788608459
            ]
        },
        {
            "positions": [
                -1.1900498725451574,
                -1.7674735376371673,
                1.13048525805879,
                -0.20121868584488095,
                0.9019670630805836,
                -1.783964859641261
            ]
        },
        {
            "positions": [
                -1.037502395315015,
                -1.8430766285255893,
                1.1504107409179527,
                -0.20692099192111937,
                0.9325218900118377,
                -1.6761336404216758
            ]
        },
        {
            "positions": [
                -0.884954918084873,
                -1.918679719414011,
                1.170336223777115,
                -0.2126232979973578,
                0.9630767169430916,
                -1.568302421202091
            ]
        },
        {
            "positions": [
                -0.7324074408547305,
                -1.994282810302433,
                1.1902617066362777,
                -0.21832560407359625,
                0.9936315438743456,
                -1.460471201982506
            ]
        },
        {
            "positions": [
                -0.5798599636245885,
                -2.0698859011908546,
                1.2101871894954401,
                -0.22402791014983467,
                1.0241863708055996,
                -1.3526399827629212
            ]
        },
        {
            "positions": [
                -0.4273124863944462,
                -2.145488992079277,
                1.2301126723546028,
                -0.2297302162260731,
                1.0547411977368535,
                -1.244808763543336
            ]
        },
        {
            "positions": [
                -0.2747650091643039,
                -2.2210920829676986,
                1.2500381552137652,
                -0.23543252230231154,
                1.0852960246681076,
                -1.1369775443237513
            ]
        },
        {
            "positions": [
                -0.12221753193416163,
                -2.2966951738561203,
                1.2699636380729278,
                -0.24113482837855,
                1.1158508515993615,
                -1.0291463251041661
            ]
        },
        {
            "positions": [
                0.030329945295980654,
                -2.3722982647445425,
                1.2898891209320902,
                -0.2468371344547884,
                1.1464056785306154,
                -0.9213151058845814
            ]
        },
        {
            "positions": [
                0.18287742252612293,
                -2.4479013556329643,
                1.3098146037912528,
                -0.25253944053102684,
                1.1769605054618695,
                -0.8134838866649963
            ]
        },
        {
            "positions": [
                0.17158166019018756,
                -2.4345132343626212,
                1.130240585575418,
                -0.1669762985809094,
                1.119552535558476,
                -0.7731382852003413
            ]
        },
        {
            "positions": [
                0.16028589785425218,
                -2.4211251130922786,
                0.9506665673595834,
                -0.08141315663079199,
                1.0621445656550823,
                -0.7327926837356864
            ]
        },
        {
            "positions": [
                0.14899013551831677,
                -2.4077369918219356,
                0.7710925491437488,
                0.004149985319325422,
                1.0047365957516887,
                -0.6924470822710314
            ]
        },
        {
            "positions": [
                0.1376943731823814,
                -2.3943488705515925,
                0.5915185309279141,
                0.08971312726944286,
                0.947328625848295,
                -0.6521014808063764
            ]
        },
        {
            "positions": [
                0.12639861084644602,
                -2.3809607492812495,
                0.41194451271207944,
                0.17527626921956024,
                0.8899206559449013,
                -0.6117558793417215
            ]
        },
        {
            "positions": [
                0.11510284851051063,
                -2.367572628010907,
                0.2323704944962448,
                0.2608394111696777,
                0.8325126860415077,
                -0.5714102778770664
            ]
        },
        {
            "positions": [
                0.10380708617457525,
                -2.354184506740564,
                0.052796476280410065,
                0.34640255311979506,
                0.7751047161381142,
                -0.5310646764124116
            ]
        },
        {
            "positions": [
                0.09251132383863986,
                -2.3407963854702207,
                -0.12677754193542468,
                0.43196569506991256,
                0.7176967462347206,
                -0.4907190749477566
            ]
        },
        {
            "positions": [
                0.08121556150270447,
                -2.327408264199878,
                -0.3063515601512592,
                0.5175288370200299,
                0.6602887763313269,
                -0.4503734734831016
            ]
        },
        {
            "positions": [
                0.06991979916676909,
                -2.314020142929535,
                -0.48592557836709394,
                0.6030919789701473,
                0.6028808064279333,
                -0.41002787201844665
            ]
        },
        {
            "positions": [
                0.0586240368308337,
                -2.300632021659192,
                -0.6654995965829287,
                0.6886551209202648,
                0.5454728365245396,
                -0.36968227055379166
            ]
        },
        {
            "positions": [
                0.04732827449489832,
                -2.2872439003888494,
                -0.8450736147987632,
                0.7742182628703822,
                0.4880648666211461,
                -0.3293366690891367
            ]
        },
        {
            "positions": [
                0.03603251215896294,
                -2.2738557791185063,
                -1.024647633014598,
                0.8597814048204997,
                0.4306568967177524,
                -0.2889910676244818
            ]
        },
        {
            "positions": [
                0.024736749823027565,
                -2.2604676578481633,
                -1.2042216512304327,
                0.945344546770617,
                0.37324892681435884,
                -0.24864546615982686
            ]
        },
        {
            "positions": [
                0.01344098748709216,
                -2.2470795365778207,
                -1.3837956694462674,
                1.0309076887207345,
                0.31584095691096525,
                -0.2082998646951718
            ]
        },
        {
            "positions": [
                0.002145225151156782,
                -2.2336914153074776,
                -1.5633696876621022,
                1.116470830670852,
                0.25843298700757156,
                -0.16795426323051688
            ]
        },
        {
            "positions": [
                -0.009150537184778595,
                -2.2203032940371346,
                -1.7429437058779365,
                1.2020339726209692,
                0.20102501710417797,
                -0.12760866176586194
            ]
        },
        {
            "positions": [
                -0.020446299520714,
                -2.2069151727667915,
                -1.9225177240937712,
                1.2875971145710867,
                0.14361704720078428,
                -0.0872630603012069
            ]
        },
        {
            "positions": [
                -0.03174206185664935,
                -2.193527051496449,
                -2.102091742309606,
                1.373160256521204,
                0.08620907729739069,
                -0.04691745883655207
            ]
        },
        {
            "positions": [
                -0.043037824192584756,
                -2.180138930226106,
                -2.2816657605254407,
                1.4587233984713215,
                0.028801107393997008,
                -0.0065718573718970275
            ]
        },
        {
            "positions": [
                -0.11395987426560782,
                -2.2308966531150984,
                -2.326168031697149,
                1.4935699312439075,
                0.09934078206318427,
                -0.014756021657054178
            ]
        },
        {
            "positions": [
                -0.18488192433863088,
                -2.2816543760040906,
                -2.370670302868857,
                1.5284164640164934,
                0.16988045673237154,
                -0.022940185942211328
            ]
        }
    ]
}