{
    "goal": {
        "global_pose": {
            "orientation": {
                "w": -0.00223480608172531,
                "x": 0.0024358444001904467,
                "y": 0.7094548369677653,
                "z": -0.704743149386269
            },
            "position": {
                "x": -0.37947507619857795,
                "y": -0.6371506643295288,
                "z": 0.19426114857196808
            }
        },
        "name": "move_to_magneteinheit_C"
    },
    "id": "LBKPIECE_move_to_magneteinheit_C_38",
    "joint_names": [
        "shoulder_pan_joint",
        "shoulder_lift_joint",
        "elbow_joint",
        "wrist_1_joint",
        "wrist_2_joint",
        "wrist_3_joint"
    ],
    "metrics": {
        "cart_traj_len": 1.1566224506501146,
        "distance_elbow_joint": 0.9481734639172403,
        "distance_shoulder_lift_joint": 0.9710711491706698,
        "distance_shoulder_pan_joint": 1.7252471442797954,
        "distance_wrist_1_joint": 3.3891253015962706,
        "distance_wrist_2_joint": 3.0363506980912875,
        "distance_wrist_3_joint": 8.227338787930842,
        "smoothness": 0.8311531076650581,
        "time": 0.42509500699999997,
        "traj_len": 4.277535101549268,
        "weighted_distance": 6.416966582469895
    },
    "planner": "LBKPIECE",
    "start": {
        "state": {
            "elbow_joint": 1.9565354010623817,
            "shoulder_lift_joint": -1.4165861575791021,
            "shoulder_pan_joint": -1.6717766225146293,
            "wrist_1_joint": -0.5286633292919765,
            "wrist_2_joint": 1.472756589071564,
            "wrist_3_joint": -3.1238370188695823
        }
    },
    "waypoints": [
        {
            "positions": [
                -1.6717766225146293,
                -1.4165861575791021,
                1.9565354010623817,
                -0.5286633292919765,
                1.472756589071564,
                -3.1238370188695823
            ]
        },
        {
            "positions": [
                -1.704262069561542,
                -1.476502138032179,
                1.955203197784077,
                -0.4085668774925812,
                1.3348742158919038,
                -3.1339614021502276
            ]
        },
        {
            "positions": [
                -1.7367475166084547,
                -1.536418118485256,
                1.9538709945057722,
                -0.28847042569318593,
                1.1969918427122437,
                -3.1440857854308724
            ]
        },
        {
            "positions": [
                -1.7692329636553676,
                -1.5963340989383328,
                1.9525387912274674,
                -0.1683739738937906,
                1.0591094695325836,
                -3.1542101687115176
            ]
        },
        {
            "positions": [
                -1.8017184107022803,
                -1.6562500793914097,
                1.9512065879491627,
                -0.04827752209439534,
                0.9212270963529234,
                -3.164334551992163
            ]
        },
        {
            "positions": [
                -1.834203857749193,
                -1.7161660598444866,
                1.949874384670858,
                0.07181892970500003,
                0.7833447231732632,
                -3.1744589352728076
            ]
        },
        {
            "positions": [
                -1.8666893047961057,
                -1.7760820402975634,
                1.9485421813925532,
                0.19191538150439524,
                0.6454623499936031,
                -3.184583318553453
            ]
        },
        {
            "positions": [
                -1.9152289094768038,
                -1.774882706664215,
                1.9713243971558732,
                0.10804117475381501,
                0.5961008912132937,
                -2.9983102890905577
            ]
        },
        {
            "positions": [
                -1.9637685141575016,
                -1.7736833730308665,
                1.9941066129191933,
                0.024166968003234784,
                0.5467394324329842,
                -2.8120372596276626
            ]
        },
        {
            "positions": [
                -2.0123081188381997,
                -1.772484039397518,
                2.0168888286825135,
                -0.059707238747345404,
                0.4973779736526748,
                -2.625764230164768
            ]
        },
        {
            "positions": [
                -2.0608477235188976,
                -1.7712847057641696,
                2.0396710444458335,
                -0.14358144549792567,
                0.4480165148723654,
                -2.4394912007018728
            ]
        },
        {
            "positions": [
                -2.1093873281995954,
                -1.7700853721308212,
                2.0624532602091534,
                -0.2274556522485059,
                0.398655056092056,
                -2.2532181712389776
            ]
        },
        {
            "positions": [
                -2.1579269328802937,
                -1.768886038497473,
                2.0852354759724734,
                -0.31132985899908605,
                0.34929359731174653,
                -2.066945141776083
            ]
        },
        {
            "positions": [
                -2.2064665375609915,
                -1.7676867048641245,
                2.1080176917357933,
                -0.3952040657496664,
                0.2999321385314371,
                -1.8806721123131875
            ]
        },
        {
            "positions": [
                -2.2550061422416894,
                -1.766487371230776,
                2.1307999074991133,
                -0.4790782725002466,
                0.2505706797511276,
                -1.6943990828502924
            ]
        },
        {
            "positions": [
                -2.3035457469223877,
                -1.7652880375974276,
                2.1535821232624337,
                -0.5629524792508268,
                0.20120922097081823,
                -1.5081260533873972
            ]
        },
        {
            "positions": [
                -2.3520853516030855,
                -1.7640887039640791,
                2.1763643390257537,
                -0.646826686001407,
                0.15184776219050883,
                -1.3218530239245023
            ]
        },
        {
            "positions": [
                -2.4006249562837834,
                -1.7628893703307307,
                2.1991465547890736,
                -0.7307008927519872,
                0.10248630341019938,
                -1.1355799944616072
            ]
        },
        {
            "positions": [
                -2.449164560964481,
                -1.7616900366973822,
                2.2219287705523936,
                -0.8145750995025673,
                0.05312484462988998,
                -0.9493069649987125
            ]
        },
        {
            "positions": [
                -2.497704165645179,
                -1.7604907030640338,
                2.2447109863157135,
                -0.8984493062531478,
                0.0037633858495804695,
                -0.7630339355358169
            ]
        },
        {
            "positions": [
                -2.5462437703258773,
                -1.7592913694306853,
                2.2674932020790335,
                -0.982323513003728,
                -0.04559807293072893,
                -0.5767609060729222
            ]
        },
        {
            "positions": [
                -2.594783375006575,
                -1.7580920357973369,
                2.290275417842354,
                -1.066197719754308,
                -0.09495953171103833,
                -0.39048787661002704
            ]
        },
        {
            "positions": [
                -2.643322979687273,
                -1.7568927021639884,
                2.313057633605674,
                -1.1500719265048884,
                -0.14432099049134783,
                -0.2042148471471319
            ]
        },
        {
            "positions": [
                -2.6918625843679713,
                -1.7556933685306402,
                2.335839849368994,
                -1.2339461332554686,
                -0.19368244927165712,
                -0.01794181768423675
            ]
        },
        {
            "positions": [
                -2.740402189048669,
                -1.7544940348972917,
                2.3586220651323138,
                -1.3178203400060489,
                -0.24304390805196663,
                0.1683312117786584
            ]
        },
        {
            "positions": [
                -2.788941793729367,
                -1.7532947012639433,
                2.3814042808956337,
                -1.401694546756629,
                -0.292405366832276,
                0.35460424124155354
            ]
        },
        {
            "positions": [
                -2.8374813984100653,
                -1.7520953676305948,
                2.404186496658954,
                -1.4855687535072093,
                -0.3417668256125854,
                0.5408772707044482
            ]
        },
        {
            "positions": [
                -2.886021003090763,
                -1.7508960339972464,
                2.426968712422274,
                -1.5694429602577895,
                -0.39112828439289504,
                0.7271503001673438
            ]
        },
        {
            "positions": [
                -2.934560607771461,
                -1.749696700363898,
                2.449750928185594,
                -1.6533171670083697,
                -0.4404897431732042,
                0.913423329630239
            ]
        },
        {
            "positions": [
                -2.9102204415070947,
                -1.7188972305471324,
                2.42664716516168,
                -1.6099848489932573,
                -0.38137898707601914,
                0.6992872327848031
            ]
        },
        {
            "positions": [
                -2.885880275242728,
                -1.688097760730367,
                2.4035434021377653,
                -1.5666525309781447,
                -0.322268230978834,
                0.48515113593936726
            ]
        },
        {
            "positions": [
                -2.8615401089783616,
                -1.6572982909136016,
                2.380439639113851,
                -1.5233202129630323,
                -0.2631574748816489,
                0.2710150390939313
            ]
        },
        {
            "positions": [
                -2.837199942713995,
                -1.6264988210968363,
                2.357335876089937,
                -1.4799878949479197,
                -0.20404671878446382,
                0.056878942248495545
            ]
        },
        {
            "positions": [
                -2.8128597764496286,
                -1.5956993512800708,
                2.334232113066023,
                -1.4366555769328073,
                -0.1449359626872787,
                -0.15725715459694034
            ]
        },
        {
            "positions": [
                -2.788519610185262,
                -1.5648998814633055,
                2.3111283500421083,
                -1.393323258917695,
                -0.08582520659009363,
                -0.37139325144237634
            ]
        },
        {
            "positions": [
                -2.7641794439208955,
                -1.53410041164654,
                2.288024587018194,
                -1.3499909409025823,
                -0.026714450492908492,
                -0.5855293482878121
            ]
        },
        {
            "positions": [
                -2.739839277656529,
                -1.5033009418297745,
                2.26492082399428,
                -1.30665862288747,
                0.03239630560427659,
                -0.7996654451332479
            ]
        },
        {
            "positions": [
                -2.7154991113921625,
                -1.4725014720130092,
                2.241817060970366,
                -1.2633263048723573,
                0.09150706170146172,
                -1.0138015419786839
            ]
        },
        {
            "positions": [
                -2.6911589451277957,
                -1.4417020021962437,
                2.2187132979464512,
                -1.219993986857245,
                0.1506178177986468,
                -1.2279376388241197
            ]
        },
        {
            "positions": [
                -2.6668187788634294,
                -1.4109025323794784,
                2.195609534922537,
                -1.1766616688421323,
                0.209728573895832,
                -1.4420737356695557
            ]
        },
        {
            "positions": [
                -2.6424786125990627,
                -1.3801030625627129,
                2.172505771898623,
                -1.13332935082702,
                0.26883932999301696,
                -1.6562098325149917
            ]
        },
        {
            "positions": [
                -2.6181384463346964,
                -1.3493035927459474,
                2.1494020088747083,
                -1.0899970328119073,
                0.32795008609020215,
                -1.8703459293604277
            ]
        },
        {
            "positions": [
                -2.5937982800703296,
                -1.318504122929182,
                2.126298245850794,
                -1.046664714796795,
                0.38706084218738723,
                -2.084482026205863
            ]
        },
        {
            "positions": [
                -2.5694581138059633,
                -1.2877046531124166,
                2.10319448282688,
                -1.0033323967816825,
                0.4461715982845723,
                -2.298618123051299
            ]
        },
        {
            "positions": [
                -2.5451179475415966,
                -1.2569051832956513,
                2.080090719802966,
                -0.96000007876657,
                0.5052823543817574,
                -2.5127542198967348
            ]
        },
        {
            "positions": [
                -2.5207777812772303,
                -1.2261057134788858,
                2.0569869567790517,
                -0.9166677607514575,
                0.5643931104789426,
                -2.726890316742171
            ]
        },
        {
            "positions": [
                -2.496437615012864,
                -1.1953062436621202,
                2.033883193755137,
                -0.873335442736345,
                0.6235038665761277,
                -2.9410264135876067
            ]
        },
        {
            "positions": [
                -2.4720974487484972,
                -1.164506773845355,
                2.010779430731223,
                -0.8300031247212325,
                0.6826146226733127,
                -3.1551625104330427
            ]
        }
    ]
}