{
    "goal": {
        "global_pose": {
            "orientation": {
                "w": 0.7047431468963623,
                "x": -0.7094548344612122,
                "y": 0.0024358443915843964,
                "z": -0.0022348060738295317
            },
            "position": {
                "x": 0.6094750761985779,
                "y": 0.3671506643295288,
                "z": 0.19426114857196808
            }
        },
        "name": "move_to_magneteinheit_A"
    },
    "id": "LBKPIECE_move_to_magneteinheit_A_138",
    "joint_names": [
        "shoulder_pan_joint",
        "shoulder_lift_joint",
        "elbow_joint",
        "wrist_1_joint",
        "wrist_2_joint",
        "wrist_3_joint"
    ],
    "metrics": {
        "cart_traj_len": 3.3103426367465363,
        "distance_elbow_joint": 3.9080025283006323,
        "distance_shoulder_lift_joint": 0.690607492221045,
        "distance_shoulder_pan_joint": 3.0156345422612474,
        "distance_wrist_1_joint": 3.457418626715592,
        "distance_wrist_2_joint": 1.4469880549515608,
        "distance_wrist_3_joint": 0.5373829041042942,
        "smoothness": 0.220386592558984,
        "time": 0.21942843899999998,
        "traj_len": 3.6133134583861346,
        "weighted_distance": 4.362935552862329
    },
    "planner": "LBKPIECE",
    "start": {
        "state": {
            "elbow_joint": -1.9196185241190666,
            "shoulder_lift_joint": -1.2443396400964142,
            "shoulder_pan_joint": 2.6996025414629847,
            "wrist_1_joint": -1.5485510000780065,
            "wrist_2_joint": -1.5709468930060704,
            "wrist_3_joint": 0.4420197071253992
        }
    },
    "waypoints": [
        {
            "positions": [
                2.6996025414629847,
                -1.2443396400964142,
                -1.9196185241190666,
                -1.5485510000780065,
                -1.5709468930060704,
                0.4420197071253992
            ]
        },
        {
            "positions": [
                2.567441536946145,
                -1.2468967437035905,
                -1.839140277374241,
                -1.4613184169201172,
                -1.4963504310512483,
                0.4425846532636996
            ]
        },
        {
            "positions": [
                2.4352805324293048,
                -1.2494538473107668,
                -1.7586620306294152,
                -1.3740858337622277,
                -1.421753969096426,
                0.443149599402
            ]
        },
        {
            "positions": [
                2.303119527912465,
                -1.2520109509179431,
                -1.6781837838845894,
                -1.2868532506043384,
                -1.347157507141604,
                0.44371454554030043
            ]
        },
        {
            "positions": [
                2.1709585233956252,
                -1.2545680545251194,
                -1.5977055371397637,
                -1.1996206674464491,
                -1.272561045186782,
                0.4442794916786008
            ]
        },
        {
            "positions": [
                2.038797518878785,
                -1.257125158132296,
                -1.517227290394938,
                -1.1123880842885598,
                -1.1979645832319599,
                0.44484443781690125
            ]
        },
        {
            "positions": [
                1.9066365143619453,
                -1.2596822617394723,
                -1.4367490436501122,
                -1.0251555011306706,
                -1.1233681212771378,
                0.4454093839552017
            ]
        },
        {
            "positions": [
                1.7744755098451055,
                -1.2622393653466486,
                -1.3562707969052865,
                -0.9379229179727812,
                -1.0487716593223158,
                0.44597433009350207
            ]
        },
        {
            "positions": [
                1.6423145053282655,
                -1.264796468953825,
                -1.2757925501604608,
                -0.8506903348148918,
                -0.9741751973674935,
                0.4465392762318025
            ]
        },
        {
            "positions": [
                1.5101535008114257,
                -1.2673535725610012,
                -1.195314303415635,
                -0.7634577516570025,
                -0.8995787354126714,
                0.4471042223701029
            ]
        },
        {
            "positions": [
                1.3779924962945858,
                -1.2699106761681775,
                -1.1148360566708093,
                -0.6762251684991131,
                -0.8249822734578492,
                0.4476691685084033
            ]
        },
        {
            "positions": [
                1.2458314917777458,
                -1.2724677797753539,
                -1.0343578099259834,
                -0.5889925853412237,
                -0.7503858115030271,
                0.4482341146467037
            ]
        },
        {
            "positions": [
                1.1136704872609058,
                -1.2750248833825302,
                -0.9538795631811576,
                -0.5017600021833344,
                -0.675789349548205,
                0.44879906078500414
            ]
        },
        {
            "positions": [
                0.9815094827440662,
                -1.2775819869897067,
                -0.8734013164363321,
                -0.4145274190254451,
                -0.601192887593383,
                0.4493640069233046
            ]
        },
        {
            "positions": [
                0.8493484782272263,
                -1.280139090596883,
                -0.7929230696915062,
                -0.3272948358675558,
                -0.5265964256385609,
                0.44992895306160496
            ]
        },
        {
            "positions": [
                0.7171874737103863,
                -1.2826961942040593,
                -0.7124448229466804,
                -0.24006225270966652,
                -0.45199996368373885,
                0.4504938991999054
            ]
        },
        {
            "positions": [
                0.5850264691935463,
                -1.2852532978112357,
                -0.6319665762018547,
                -0.15282966955177701,
                -0.37740350172891657,
                0.4510588453382058
            ]
        },
        {
            "positions": [
                0.4528654646767065,
                -1.287810401418412,
                -0.551488329457029,
                -0.06559708639388775,
                -0.3028070397740944,
                0.4516237914765062
            ]
        },
        {
            "positions": [
                0.41625204201774774,
                -1.2491606465288432,
                -0.4038020725108704,
                0.058709978734883164,
                -0.2969522826928243,
                0.4197329305117941
            ]
        },
        {
            "positions": [
                0.3796386193587889,
                -1.2105108916392746,
                -0.2561158155647119,
                0.18301704386365408,
                -0.2910975256115542,
                0.387842069547082
            ]
        },
        {
            "positions": [
                0.3430251966998301,
                -1.1718611367497058,
                -0.1084295586185533,
                0.307324108992425,
                -0.2852427685302842,
                0.35595120858236984
            ]
        },
        {
            "positions": [
                0.3064117740408713,
                -1.133211381860137,
                0.039256698327605144,
                0.4316311741211959,
                -0.2793880114490141,
                0.32406034761765773
            ]
        },
        {
            "positions": [
                0.26979835138191255,
                -1.0945616269705685,
                0.1869429552737637,
                0.5559382392499668,
                -0.273533254367744,
                0.2921694866529456
            ]
        },
        {
            "positions": [
                0.2331849287229537,
                -1.0559118720809997,
                0.33462921221992237,
                0.6802453043787378,
                -0.2676784972864739,
                0.26027862568823346
            ]
        },
        {
            "positions": [
                0.19657150606399493,
                -1.017262117191431,
                0.4823154691660809,
                0.8045523695075086,
                -0.2618237402052038,
                0.22838776472352135
            ]
        },
        {
            "positions": [
                0.1599580834050361,
                -0.9786123623018623,
                0.6300017261122393,
                0.9288594346362796,
                -0.2559689831239338,
                0.19649690375880924
            ]
        },
        {
            "positions": [
                0.1233446607460773,
                -0.9399626074122935,
                0.7776879830583978,
                1.0531664997650505,
                -0.2501142260426637,
                0.16460604279409713
            ]
        },
        {
            "positions": [
                0.08673123808711852,
                -0.9013128525227249,
                0.9253742400045564,
                1.1774735648938213,
                -0.2442594689613936,
                0.13271518182938502
            ]
        },
        {
            "positions": [
                0.05011781542815974,
                -0.8626630976331562,
                1.073060496950715,
                1.3017806300225923,
                -0.23840471188012352,
                0.10082432086467291
            ]
        },
        {
            "positions": [
                0.013504392769200901,
                -0.8240133427435874,
                1.2207467538968737,
                1.4260876951513632,
                -0.23254995479885343,
                0.06893345989996069
            ]
        },
        {
            "positions": [
                -0.023109029889757937,
                -0.7853635878540187,
                1.368433010843032,
                1.5503947602801342,
                -0.22669519771758337,
                0.03704259893524858
            ]
        },
        {
            "positions": [
                -0.059722452548716665,
                -0.7467138329644499,
                1.5161192677891908,
                1.674701825408905,
                -0.2208404406363133,
                0.005151737970536474
            ]
        },
        {
            "positions": [
                -0.09633587520767554,
                -0.7080640780748813,
                1.663805524735349,
                1.799008890537676,
                -0.21498568355504322,
                -0.026739122994175635
            ]
        },
        {
            "positions": [
                -0.0231038333441468,
                -0.7305275472600534,
                1.771998351217421,
                1.8356284692376463,
                -0.18464340172153207,
                -0.010267154566673868
            ]
        },
        {
            "positions": [
                0.05012820851938195,
                -0.7529910164452256,
                1.880191177699493,
                1.8722480479376165,
                -0.15430111988802092,
                0.0062048138608278985
            ]
        },
        {
            "positions": [
                0.12336025038291074,
                -0.7754544856303978,
                1.9883840041815652,
                1.9088676266375868,
                -0.12395883805450976,
                0.022676782288329665
            ]
        }
    ]
}