{
    "goal": {
        "global_pose": {
            "orientation": {
                "w": -0.4816463035849501,
                "x": 0.5182115481033762,
                "y": 0.4908360881923453,
                "z": -0.5084816262002911
            },
            "position": {
                "x": -0.8240239810943604,
                "y": 0.19912469901144506,
                "z": 0.16403168439865112
            }
        },
        "name": "move_to_storage_D"
    },
    "id": "LBKPIECE_move_to_storage_D_32",
    "joint_names": [
        "shoulder_pan_joint",
        "shoulder_lift_joint",
        "elbow_joint",
        "wrist_1_joint",
        "wrist_2_joint",
        "wrist_3_joint"
    ],
    "metrics": {
        "cart_traj_len": 3.735341173484289,
        "distance_elbow_joint": 4.209792894149755,
        "distance_shoulder_lift_joint": 1.2639368460758862,
        "distance_shoulder_pan_joint": 2.813191682742024,
        "distance_wrist_1_joint": 2.2669642954971407,
        "distance_wrist_2_joint": 0.8690314995779348,
        "distance_wrist_3_joint": 3.1461330889206525,
        "smoothness": 3.8715469793068086e-16,
        "time": 0.707577801,
        "traj_len": 3.816942533882766,
        "weighted_distance": 4.898705163599844
    },
    "planner": "LBKPIECE",
    "start": {
        "state": {
            "elbow_joint": -2.384821988534728,
            "shoulder_lift_joint": -2.2788054721415256,
            "shoulder_pan_joint": -0.1854694642142757,
            "wrist_1_joint": 1.4845938289331202,
            "wrist_2_joint": 0.17898776772866878,
            "wrist_3_joint": 0.037105688729662994
        }
    },
    "waypoints": [
        {
            "positions": [
                -0.1854694642142757,
                -2.2788054721415256,
                -2.384821988534728,
                1.4845938289331202,
                0.17898776772866878,
                0.037105688729662994
            ]
        },
        {
            "positions": [
                -0.09983437106227937,
                -2.253254220429321,
                -2.258869576794128,
                1.426023875674335,
                0.2065525218137479,
                -0.03141903163285817
            ]
        },
        {
            "positions": [
                -0.014199277910283026,
                -2.227702968717116,
                -2.1329171650535277,
                1.3674539224155497,
                0.23411727589882697,
                -0.09994375199537933
            ]
        },
        {
            "positions": [
                0.07143581524171336,
                -2.202151717004911,
                -2.0069647533129276,
                1.3088839691567644,
                0.2616820299839061,
                -0.1684684723579005
            ]
        },
        {
            "positions": [
                0.15707090839370966,
                -2.1766004652927067,
                -1.8810123415723274,
                1.2503140158979793,
                0.2892467840689852,
                -0.23699319272042166
            ]
        },
        {
            "positions": [
                0.242706001545706,
                -2.151049213580502,
                -1.7550599298317275,
                1.1917440626391942,
                0.31681153815406426,
                -0.30551791308294274
            ]
        },
        {
            "positions": [
                0.32834109469770245,
                -2.125497961868297,
                -1.6291075180911272,
                1.1331741093804089,
                0.34437629223914334,
                -0.37404263344546396
            ]
        },
        {
            "positions": [
                0.4139761878496988,
                -2.0999467101560922,
                -1.5031551063505273,
                1.0746041561216237,
                0.3719410463242225,
                -0.4425673538079852
            ]
        },
        {
            "positions": [
                0.49961128100169505,
                -2.0743954584438877,
                -1.3772026946099272,
                1.0160342028628384,
                0.39950580040930156,
                -0.5110920741705063
            ]
        },
        {
            "positions": [
                0.5852463741536914,
                -2.048844206731683,
                -1.251250282869327,
                0.9574642496040533,
                0.4270705544943807,
                -0.5796167945330274
            ]
        },
        {
            "positions": [
                0.6708814673056878,
                -2.0232929550194783,
                -1.1252978711287271,
                0.8988942963452681,
                0.4546353085794598,
                -0.6481415148955485
            ]
        },
        {
            "positions": [
                0.7565165604576841,
                -1.9977417033072735,
                -0.999345459388127,
                0.8403243430864829,
                0.48220006266453885,
                -0.7166662352580697
            ]
        },
        {
            "positions": [
                0.8421516536096806,
                -1.9721904515950688,
                -0.8733930476475267,
                0.7817543898276975,
                0.5097648167496179,
                -0.7851909556205909
            ]
        },
        {
            "positions": [
                0.9277867467616768,
                -1.946639199882864,
                -0.7474406359069266,
                0.7231844365689124,
                0.5373295708346971,
                -0.853715675983112
            ]
        },
        {
            "positions": [
                1.0134218399136732,
                -1.9210879481706593,
                -0.6214882241663267,
                0.6646144833101272,
                0.5648943249197762,
                -0.9222403963456333
            ]
        },
        {
            "positions": [
                1.0990569330656694,
                -1.8955366964584546,
                -0.49553581242572653,
                0.606044530051342,
                0.5924590790048553,
                -0.9907651167081544
            ]
        },
        {
            "positions": [
                1.1846920262176657,
                -1.8699854447462498,
                -0.3695834006851264,
                0.5474745767925567,
                0.6200238330899344,
                -1.0592898370706756
            ]
        },
        {
            "positions": [
                1.2703271193696621,
                -1.844434193034045,
                -0.24363098894452628,
                0.4889046235337715,
                0.6475885871750134,
                -1.1278145574331966
            ]
        },
        {
            "positions": [
                1.3559622125216584,
                -1.8188829413218404,
                -0.11767857720392616,
                0.4303346702749864,
                0.6751533412600925,
                -1.1963392777957178
            ]
        },
        {
            "positions": [
                1.4415973056736548,
                -1.7933316896096356,
                0.008273834536673519,
                0.37176471701620106,
                0.7027180953451716,
                -1.264863998158239
            ]
        },
        {
            "positions": [
                1.527232398825651,
                -1.767780437897431,
                0.13422624627727364,
                0.31319476375741595,
                0.7302828494302507,
                -1.33338871852076
            ]
        },
        {
            "positions": [
                1.6128674919776473,
                -1.7422291861852262,
                0.26017865801787377,
                0.25462481049863084,
                0.7578476035153298,
                -1.4019134388832812
            ]
        },
        {
            "positions": [
                1.6985025851296438,
                -1.7166779344730214,
                0.3861310697584739,
                0.1960548572398455,
                0.7854123576004088,
                -1.4704381592458025
            ]
        },
        {
            "positions": [
                1.7841376782816403,
                -1.6911266827608167,
                0.5120834814990745,
                0.13748490398106017,
                0.812977111685488,
                -1.5389628796083237
            ]
        },
        {
            "positions": [
                1.8697727714336367,
                -1.665575431048612,
                0.6380358932396746,
                0.07891495072227483,
                0.8405418657705671,
                -1.607487599970845
            ]
        },
        {
            "positions": [
                1.955407864585633,
                -1.6400241793364072,
                0.7639883049802747,
                0.020344997463489722,
                0.8681066198556462,
                -1.6760123203333661
            ]
        },
        {
            "positions": [
                2.0410429577376292,
                -1.6144729276242025,
                0.8899407167208748,
                -0.03822495579529539,
                0.8956713739407254,
                -1.744537040695887
            ]
        },
        {
            "positions": [
                2.1266780508896255,
                -1.5889216759119977,
                1.0158931284614745,
                -0.09679490905408072,
                0.9232361280258045,
                -1.8130617610584083
            ]
        },
        {
            "positions": [
                2.212313144041622,
                -1.563370424199793,
                1.1418455402020746,
                -0.15536486231286584,
                0.9508008821108835,
                -1.8815864814209295
            ]
        },
        {
            "positions": [
                2.2979482371936184,
                -1.5378191724875883,
                1.2677979519426748,
                -0.21393481557165117,
                0.9783656361959626,
                -1.9501112017834505
            ]
        },
        {
            "positions": [
                2.3835833303456146,
                -1.5122679207753835,
                1.3937503636832749,
                -0.2725047688304364,
                1.0059303902810417,
                -2.0186359221459718
            ]
        },
        {
            "positions": [
                2.4141006913683816,
                -1.4500930089366655,
                1.4476529314247442,
                -0.33623798104713437,
                1.0111914999092368,
                -2.154934856901599
            ]
        },
        {
            "positions": [
                2.444618052391148,
                -1.3879180970979474,
                1.5015554991662132,
                -0.39997119326383235,
                1.0164526095374322,
                -2.291233791657226
            ]
        },
        {
            "positions": [
                2.4751354134139145,
                -1.3257431852592294,
                1.5554580669076825,
                -0.4637044054805304,
                1.0217137191656274,
                -2.4275327264128532
            ]
        },
        {
            "positions": [
                2.5056527744366814,
                -1.2635682734205114,
                1.6093606346491516,
                -0.5274376176972284,
                1.0269748287938225,
                -2.5638316611684804
            ]
        },
        {
            "positions": [
                2.5361701354594484,
                -1.2013933615817933,
                1.6632632023906209,
                -0.5911708299139263,
                1.0322359384220179,
                -2.700130595924108
            ]
        },
        {
            "positions": [
                2.566687496482215,
                -1.1392184497430755,
                1.7171657701320902,
                -0.6549040421306244,
                1.037497048050213,
                -2.836429530679735
            ]
        },
        {
            "positions": [
                2.5972048575049813,
                -1.0770435379043575,
                1.7710683378735594,
                -0.7186372543473223,
                1.0427581576784084,
                -2.9727284654353623
            ]
        },
        {
            "positions": [
                2.6277222185277482,
                -1.0148686260656394,
                1.8249709056150285,
                -0.7823704665640203,
                1.0480192673066036,
                -3.1090274001909894
            ]
        }
    ]
}