{
    "goal": {
        "global_pose": {
            "orientation": {
                "w": 0.7031023480610252,
                "x": -0.7110244013736278,
                "y": 0.0077485991402295624,
                "z": 0.005598929693374583
            },
            "position": {
                "x": -0.8841497679147869,
                "y": 0.44412534475326537,
                "z": 0.3711530566215515
            }
        },
        "name": "move_to_auspresseinheit_D"
    },
    "id": "LBKPIECE_move_to_auspresseinheit_D_29",
    "joint_names": [
        "shoulder_pan_joint",
        "shoulder_lift_joint",
        "elbow_joint",
        "wrist_1_joint",
        "wrist_2_joint",
        "wrist_3_joint"
    ],
    "metrics": {
        "cart_traj_len": 0.34320161152465944,
        "distance_elbow_joint": 0.6347844254457176,
        "distance_shoulder_lift_joint": 0.11936074546733755,
        "distance_shoulder_pan_joint": 0.13404915858251895,
        "distance_wrist_1_joint": 0.5148071370489435,
        "distance_wrist_2_joint": 1.437829779187506,
        "distance_wrist_3_joint": 0.025425608347959372,
        "smoothness": 0.0,
        "time": 0.6575413029999999,
        "traj_len": 1.6930023195731254,
        "weighted_distance": 2.206749869607417
    },
    "planner": "LBKPIECE",
    "start": {
        "state": {
            "elbow_joint": -1.8275523626775212,
            "shoulder_lift_joint": -2.126789852344167,
            "shoulder_pan_joint": -0.03513704404078235,
            "wrist_1_joint": -2.347782403156801,
            "wrist_2_joint": -1.6058999987535132,
            "wrist_3_joint": -3.0880379163319196
        }
    },
    "waypoints": [
        {
            "positions": [
                -0.03513704404078235,
                -2.126789852344167,
                -1.8275523626775212,
                -2.347782403156801,
                -1.6058999987535132,
                -3.0880379163319196
            ]
        },
        {
            "positions": [
                -0.051893188863597214,
                -2.141709945527584,
                -1.7482043094968065,
                -2.412133295287919,
                -1.426171276355075,
                -3.0912161173754145
            ]
        },
        {
            "positions": [
                -0.06864933368641209,
                -2.1566300387110013,
                -1.6688562563160918,
                -2.476484187419037,
                -1.2464425539566366,
                -3.0943943184189093
            ]
        },
        {
            "positions": [
                -0.08540547850922695,
                -2.1715501318944184,
                -1.589508203135377,
                -2.540835079550155,
                -1.0667138315581983,
                -3.097572519462404
            ]
        },
        {
            "positions": [
                -0.10216162333204182,
                -2.1864702250778354,
                -1.5101601499546624,
                -2.605185971681273,
                -0.8869851091597601,
                -3.100750720505899
            ]
        },
        {
            "positions": [
                -0.11891776815485669,
                -2.201390318261253,
                -1.4308120967739477,
                -2.6695368638123904,
                -0.7072563867613219,
                -3.1039289215493944
            ]
        },
        {
            "positions": [
                -0.13567391297767156,
                -2.21631041144467,
                -1.351464043593233,
                -2.7338877559435084,
                -0.5275276643628837,
                -3.1071071225928892
            ]
        },
        {
            "positions": [
                -0.15243005780048643,
                -2.2312305046280874,
                -1.2721159904125183,
                -2.7982386480746264,
                -0.3477989419644454,
                -3.110285323636384
            ]
        },
        {
            "positions": [
                -0.1691862026233013,
                -2.2461505978115044,
                -1.1927679372318036,
                -2.8625895402057444,
                -0.16807021956600704,
                -3.113463524679879
            ]
        }
    ]
}