{
    "goal": {
        "global_pose": {
            "orientation": {
                "w": -0.00223480608172531,
                "x": 0.0024358444001904467,
                "y": 0.7094548369677653,
                "z": -0.704743149386269
            },
            "position": {
                "x": 0.6205249238014221,
                "y": -0.6371506643295288,
                "z": 0.19426114857196808
            }
        },
        "name": "move_to_magneteinheit_B"
    },
    "id": "LBKPIECE_move_to_magneteinheit_B_58",
    "joint_names": [
        "shoulder_pan_joint",
        "shoulder_lift_joint",
        "elbow_joint",
        "wrist_1_joint",
        "wrist_2_joint",
        "wrist_3_joint"
    ],
    "metrics": {
        "cart_traj_len": 3.5694814030165016,
        "distance_elbow_joint": 2.7725811514295833,
        "distance_shoulder_lift_joint": 1.0152364458214889,
        "distance_shoulder_pan_joint": 3.70405769809212,
        "distance_wrist_1_joint": 1.1374853722607923,
        "distance_wrist_2_joint": 2.8856401202678774,
        "distance_wrist_3_joint": 0.3375687446345028,
        "smoothness": 0.3876049200080239,
        "time": 0.35553893000000003,
        "traj_len": 3.442756095413436,
        "weighted_distance": 4.068271440588009
    },
    "planner": "LBKPIECE",
    "start": {
        "state": {
            "elbow_joint": 2.6216224122426386,
            "shoulder_lift_joint": -1.4174107377796124,
            "shoulder_pan_joint": 0.7066234856936794,
            "wrist_1_joint": 1.9546482284002225,
            "wrist_2_joint": -0.7096286983471962,
            "wrist_3_joint": 0.005740856962016249
        }
    },
    "waypoints": [
        {
            "positions": [
                0.7066234856936794,
                -1.4174107377796124,
                2.6216224122426386,
                1.9546482284002225,
                -0.7096286983471962,
                0.005740856962016249
            ]
        },
        {
            "positions": [
                0.8464697683744873,
                -1.4396182752389295,
                2.6055065041273044,
                1.9616814842624148,
                -0.5825260366181223,
                0.04038661677222336
            ]
        },
        {
            "positions": [
                0.9863160510552951,
                -1.4618258126982464,
                2.58939059601197,
                1.968714740124607,
                -0.4554233748890484,
                0.07503237658243048
            ]
        },
        {
            "positions": [
                1.1261623337361029,
                -1.4840333501575635,
                2.5732746878966357,
                1.9757479959867994,
                -0.32832071315997446,
                0.10967813639263757
            ]
        },
        {
            "positions": [
                1.2660086164169109,
                -1.5062408876168805,
                2.557158779781301,
                1.9827812518489916,
                -0.20121805143090055,
                0.14432389620284472
            ]
        },
        {
            "positions": [
                1.4058548990977187,
                -1.5284484250761976,
                2.541042871665967,
                1.989814507711184,
                -0.07411538970182663,
                0.17896965601305181
            ]
        },
        {
            "positions": [
                1.498145678582428,
                -1.537488344503552,
                2.4090959709840787,
                1.956546101037766,
                -0.05349495515428128,
                0.17344087089016727
            ]
        },
        {
            "positions": [
                1.5904364580671375,
                -1.5465282639309064,
                2.2771490703021904,
                1.9232776943643484,
                -0.03287452060673594,
                0.16791208576728273
            ]
        },
        {
            "positions": [
                1.6220424415872956,
                -1.5337838603478116,
                2.0512063154403797,
                1.8562071653429084,
                -0.07620356083182628,
                0.15501486158855063
            ]
        },
        {
            "positions": [
                1.6536484251074537,
                -1.5210394567647165,
                1.825263560578569,
                1.7891366363214685,
                -0.11953260105691663,
                0.14211763740981853
            ]
        },
        {
            "positions": [
                1.685254408627612,
                -1.5082950531816217,
                1.5993208057167583,
                1.7220661073000285,
                -0.16286164128200697,
                0.12922041323108643
            ]
        },
        {
            "positions": [
                1.71686039214777,
                -1.4955506495985267,
                1.3733780508549476,
                1.6549955782785886,
                -0.20619068150709732,
                0.11632318905235434
            ]
        },
        {
            "positions": [
                1.7484663756679282,
                -1.4828062460154319,
                1.1474352959931369,
                1.5879250492571486,
                -0.24951972173218767,
                0.10342596487362224
            ]
        },
        {
            "positions": [
                1.6120928767611447,
                -1.4350295254570749,
                1.0915795814956941,
                1.5778989249132431,
                -0.3488774595213274,
                0.10314577489148816
            ]
        },
        {
            "positions": [
                1.4757193778543614,
                -1.3872528048987176,
                1.0357238669982514,
                1.5678728005693376,
                -0.4482351973104672,
                0.10286558490935407
            ]
        },
        {
            "positions": [
                1.3393458789475778,
                -1.3394760843403606,
                0.9798681525008086,
                1.5578466762254322,
                -0.5475929350996069,
                0.10258539492721999
            ]
        },
        {
            "positions": [
                1.2029723800407943,
                -1.2916993637820036,
                0.9240124380033659,
                1.5478205518815267,
                -0.6469506728887466,
                0.1023052049450859
            ]
        },
        {
            "positions": [
                1.066598881134011,
                -1.2439226432236463,
                0.8681567235059231,
                1.5377944275376212,
                -0.7463084106778866,
                0.10202501496295181
            ]
        },
        {
            "positions": [
                0.9302253822272275,
                -1.1961459226652893,
                0.8123010090084803,
                1.5277683031937157,
                -0.8456661484670263,
                0.10174482498081773
            ]
        },
        {
            "positions": [
                0.793851883320444,
                -1.1483692021069323,
                0.7564452945110376,
                1.5177421788498102,
                -0.945023886256166,
                0.10146463499868365
            ]
        },
        {
            "positions": [
                0.6624980128765681,
                -1.1108338284264538,
                0.8262456047954977,
                1.566222699164307,
                -1.0447728537083187,
                0.09478502541644528
            ]
        },
        {
            "positions": [
                0.5311441424326921,
                -1.0732984547459752,
                0.8960459150799579,
                1.6147032194788036,
                -1.1445218211604715,
                0.08810541583420689
            ]
        },
        {
            "positions": [
                0.3997902719888162,
                -1.0357630810654967,
                0.965846225364418,
                1.6631837397933003,
                -1.2442707886126243,
                0.08142580625196852
            ]
        },
        {
            "positions": [
                0.2684364015449403,
                -0.9982277073850182,
                1.0356465356488782,
                1.711664260107797,
                -1.3440197560647773,
                0.07474619666973015
            ]
        },
        {
            "positions": [
                0.1370825311010644,
                -0.9606923337045397,
                1.1054468459333382,
                1.7601447804222938,
                -1.44376872351693,
                0.06806658708749178
            ]
        },
        {
            "positions": [
                0.005728660657188467,
                -0.9231569600240611,
                1.1752471562177984,
                1.8086253007367903,
                -1.5435176909690829,
                0.06138697750525339
            ]
        },
        {
            "positions": [
                -0.12562520978668745,
                -0.8856215863435826,
                1.2450474665022586,
                1.8571058210512872,
                -1.6432666584212356,
                0.05470736792301502
            ]
        },
        {
            "positions": [
                -0.2569790802305634,
                -0.8480862126631041,
                1.3148477767867188,
                1.9055863413657839,
                -1.7430156258733884,
                0.04802775834077664
            ]
        },
        {
            "positions": [
                -0.3883329506744393,
                -0.8105508389826256,
                1.3846480870711788,
                1.9540668616802805,
                -1.8427645933255414,
                0.04134814875853827
            ]
        },
        {
            "positions": [
                -0.5196868211183152,
                -0.773015465302147,
                1.454448397355639,
                2.002547381994777,
                -1.9425135607776942,
                0.03466853917629989
            ]
        },
        {
            "positions": [
                -0.6510406915621911,
                -0.7354800916216686,
                1.524248707640099,
                2.051027902309274,
                -2.042262528229847,
                0.027988929594061518
            ]
        },
        {
            "positions": [
                -0.782394562006067,
                -0.69794471794119,
                1.5940490179245592,
                2.099508422623771,
                -2.1420114956819996,
                0.021309320011823132
            ]
        },
        {
            "positions": [
                -0.9137484324499429,
                -0.6604093442607115,
                1.6638493282090194,
                2.1479889429382673,
                -2.2417604631341526,
                0.014629710429584754
            ]
        }
    ]
}