{
    "goal": {
        "global_pose": {
            "orientation": {
                "w": 0.005598929693374612,
                "x": 0.007748599140229565,
                "y": 0.7110244013736278,
                "z": -0.7031023480610252
            },
            "position": {
                "x": -0.8858502320852131,
                "y": -0.7141253447532654,
                "z": 0.3711530566215515
            }
        },
        "name": "move_to_auspresseinheit_C"
    },
    "id": "LBKPIECE_move_to_auspresseinheit_C_119",
    "joint_names": [
        "shoulder_pan_joint",
        "shoulder_lift_joint",
        "elbow_joint",
        "wrist_1_joint",
        "wrist_2_joint",
        "wrist_3_joint"
    ],
    "metrics": {
        "cart_traj_len": 0.49448187862199844,
        "distance_elbow_joint": 1.0210103304811624,
        "distance_shoulder_lift_joint": 0.3356277852602083,
        "distance_shoulder_pan_joint": 0.2561125392873018,
        "distance_wrist_1_joint": 0.713786459548331,
        "distance_wrist_2_joint": 1.3200342374395362,
        "distance_wrist_3_joint": 0.09006206514328108,
        "smoothness": 6.45947944157498e-16,
        "time": 0.747244102,
        "traj_len": 1.9330373553451625,
        "weighted_distance": 2.4393807092035162
    },
    "planner": "LBKPIECE",
    "start": {
        "state": {
            "elbow_joint": 1.7527959577737207,
            "shoulder_lift_joint": -0.9740617694225068,
            "shoulder_pan_joint": -2.967991417825858,
            "wrist_1_joint": -0.759517768980727,
            "wrist_2_joint": 1.7443932448377408,
            "wrist_3_joint": -3.0840537646736568
        }
    },
    "waypoints": [
        {
            "positions": [
                -2.967991417825858,
                -0.9740617694225068,
                1.7527959577737207,
                -0.759517768980727,
                1.7443932448377408,
                -3.0840537646736568
            ]
        },
        {
            "positions": [
                -2.942380163897128,
                -0.9404989908964859,
                1.6506949247256044,
                -0.6881391230258939,
                1.6123898210937873,
                -3.093059971187985
            ]
        },
        {
            "positions": [
                -2.9167689099683978,
                -0.9069362123704651,
                1.5485938916774882,
                -0.6167604770710607,
                1.4803863973498337,
                -3.102066177702313
            ]
        },
        {
            "positions": [
                -2.8911576560396672,
                -0.8733734338444443,
                1.446492858629372,
                -0.5453818311162277,
                1.3483829736058799,
                -3.1110723842166412
            ]
        },
        {
            "positions": [
                -2.865546402110937,
                -0.8398106553184235,
                1.3443918255812557,
                -0.47400318516139456,
                1.2163795498619263,
                -3.1200785907309694
            ]
        },
        {
            "positions": [
                -2.839935148182207,
                -0.8062478767924026,
                1.2422907925331395,
                -0.4026245392065615,
                1.0843761261179727,
                -3.129084797245297
            ]
        },
        {
            "positions": [
                -2.814323894253477,
                -0.7726850982663818,
                1.1401897594850232,
                -0.33124589325172843,
                0.9523727023740192,
                -3.1380910037596252
            ]
        },
        {
            "positions": [
                -2.788712640324747,
                -0.7391223197403609,
                1.038088726436907,
                -0.2598672472968953,
                0.8203692786300656,
                -3.1470972102739534
            ]
        },
        {
            "positions": [
                -2.7631013863960163,
                -0.7055595412143401,
                0.9359876933887907,
                -0.18848860134206213,
                0.6883658548861118,
                -3.1561034167882815
            ]
        },
        {
            "positions": [
                -2.7374901324672862,
                -0.6719967626883192,
                0.8338866603406745,
                -0.11710995538722913,
                0.5563624311421582,
                -3.1651096233026097
            ]
        },
        {
            "positions": [
                -2.711878878538556,
                -0.6384339841622985,
                0.7317856272925581,
                -0.045731309432396,
                0.4243590073982047,
                -3.174115829816938
            ]
        }
    ]
}