{
    "goal": {
        "global_pose": {
            "orientation": {
                "w": 0.7031023480610252,
                "x": -0.7110244013736278,
                "y": 0.0077485991402295624,
                "z": 0.005598929693374583
            },
            "position": {
                "x": -0.8841497679147869,
                "y": 0.44412534475326537,
                "z": 0.3711530566215515
            }
        },
        "name": "move_to_auspresseinheit_D"
    },
    "id": "LBKPIECE_move_to_auspresseinheit_D_93",
    "joint_names": [
        "shoulder_pan_joint",
        "shoulder_lift_joint",
        "elbow_joint",
        "wrist_1_joint",
        "wrist_2_joint",
        "wrist_3_joint"
    ],
    "metrics": {
        "cart_traj_len": 0.3428878162104997,
        "distance_elbow_joint": 0.6376248529570416,
        "distance_shoulder_lift_joint": 0.12109112478303885,
        "distance_shoulder_pan_joint": 0.1334692860392629,
        "distance_wrist_1_joint": 0.5242882785913356,
        "distance_wrist_2_joint": 1.4467644030591482,
        "distance_wrist_3_joint": 0.014087772023857692,
        "smoothness": 2.171102805274277e-15,
        "time": 0.199885083,
        "traj_len": 1.6962681738020333,
        "weighted_distance": 2.2082920873724756
    },
    "planner": "LBKPIECE",
    "start": {
        "state": {
            "elbow_joint": -1.8275523626775212,
            "shoulder_lift_joint": -2.126789852344167,
            "shoulder_pan_joint": -0.03513704404078235,
            "wrist_1_joint": -2.347782403156801,
            "wrist_2_joint": -1.6058999987535132,
            "wrist_3_joint": -3.0880379163319196
        }
    },
    "waypoints": [
        {
            "positions": [
                -0.03513704404078235,
                -2.126789852344167,
                -1.8275523626775212,
                -2.347782403156801,
                -1.6058999987535132,
                -3.0880379163319196
            ]
        },
        {
            "positions": [
                -0.05182070479569021,
                -2.1419262429420467,
                -1.7478492560578909,
                -2.4133184379807178,
                -1.4250544483711196,
                -3.0897988878349016
            ]
        },
        {
            "positions": [
                -0.06850436555059808,
                -2.1570626335399266,
                -1.6681461494382608,
                -2.4788544728046347,
                -1.244208897988726,
                -3.091559859337884
            ]
        },
        {
            "positions": [
                -0.08518802630550593,
                -2.1721990241378064,
                -1.5884430428186307,
                -2.5443905076285516,
                -1.0633633476063327,
                -3.093320830840866
            ]
        },
        {
            "positions": [
                -0.1018716870604138,
                -2.1873354147356863,
                -1.5087399361990004,
                -2.6099265424524685,
                -0.8825177972239391,
                -3.0950818023438487
            ]
        },
        {
            "positions": [
                -0.11855534781532165,
                -2.202471805333566,
                -1.42903682957937,
                -2.675462577276386,
                -0.7016722468415455,
                -3.0968427738468307
            ]
        },
        {
            "positions": [
                -0.13523900857022952,
                -2.217608195931446,
                -1.34933372295974,
                -2.7409986121003027,
                -0.5208266964591521,
                -3.0986037453498128
            ]
        },
        {
            "positions": [
                -0.15192266932513737,
                -2.232744586529326,
                -1.2696306163401099,
                -2.8065346469242196,
                -0.33998114607675856,
                -3.1003647168527952
            ]
        },
        {
            "positions": [
                -0.16860633008004525,
                -2.2478809771272057,
                -1.1899275097204796,
                -2.8720706817481365,
                -0.15913559569436506,
                -3.1021256883557773
            ]
        }
    ]
}