{
    "goal": {
        "global_pose": {
            "orientation": {
                "w": -0.00223480608172531,
                "x": 0.0024358444001904467,
                "y": 0.7094548369677653,
                "z": -0.704743149386269
            },
            "position": {
                "x": -0.37947507619857795,
                "y": -0.6371506643295288,
                "z": 0.19426114857196808
            }
        },
        "name": "move_to_magneteinheit_C"
    },
    "id": "LBKPIECE_move_to_magneteinheit_C_62",
    "joint_names": [
        "shoulder_pan_joint",
        "shoulder_lift_joint",
        "elbow_joint",
        "wrist_1_joint",
        "wrist_2_joint",
        "wrist_3_joint"
    ],
    "metrics": {
        "cart_traj_len": 2.484085352043668,
        "distance_elbow_joint": 0.8880061366407288,
        "distance_shoulder_lift_joint": 0.7999967538199646,
        "distance_shoulder_pan_joint": 2.755341681977083,
        "distance_wrist_1_joint": 1.5831995674765336,
        "distance_wrist_2_joint": 0.8289000030444732,
        "distance_wrist_3_joint": 1.6313200196231907,
        "smoothness": 0.9992625341540042,
        "time": 0.384626127,
        "traj_len": 2.9132051356850885,
        "weighted_distance": 3.7631773506372728
    },
    "planner": "LBKPIECE",
    "start": {
        "state": {
            "elbow_joint": 1.9565354010623817,
            "shoulder_lift_joint": -1.4165861575791021,
            "shoulder_pan_joint": -1.6717766225146293,
            "wrist_1_joint": -0.5286633292919765,
            "wrist_2_joint": 1.472756589071564,
            "wrist_3_joint": -3.1238370188695823
        }
    },
    "waypoints": [
        {
            "positions": [
                -1.6717766225146293,
                -1.4165861575791021,
                1.9565354010623817,
                -0.5286633292919765,
                1.472756589071564,
                -3.1238370188695823
            ]
        },
        {
            "positions": [
                -1.649354043288093,
                -1.4227060588682932,
                1.9494663324367711,
                -0.5112429573494166,
                1.4692480569983208,
                -3.123619401669073
            ]
        },
        {
            "positions": [
                -1.5441070409883888,
                -1.4560345276784057,
                1.9008795647764167,
                -0.4477444136456545,
                1.4247790734244892,
                -3.053282091625492
            ]
        },
        {
            "positions": [
                -1.4388600386886847,
                -1.4893629964885182,
                1.8522927971160623,
                -0.38424586994189236,
                1.3803100898506575,
                -2.982944781581911
            ]
        },
        {
            "positions": [
                -1.3336130363889804,
                -1.5226914652986308,
                1.803706029455708,
                -0.3207473262381303,
                1.3358411062768258,
                -2.9126074715383297
            ]
        },
        {
            "positions": [
                -1.2283660340892761,
                -1.5560199341087433,
                1.7551192617953535,
                -0.25724878253436817,
                1.291372122702994,
                -2.8422701614947488
            ]
        },
        {
            "positions": [
                -1.1231190317895718,
                -1.5893484029188558,
                1.706532494134999,
                -0.19375023883060605,
                1.2469031391291623,
                -2.771932851451168
            ]
        },
        {
            "positions": [
                -1.0178720294898675,
                -1.6226768717289684,
                1.6579457264746447,
                -0.13025169512684398,
                1.2024341555553306,
                -2.7015955414075865
            ]
        },
        {
            "positions": [
                -0.9126250271901635,
                -1.6560053405390809,
                1.6093589588142903,
                -0.06675315142308186,
                1.157965171981499,
                -2.6312582313640056
            ]
        },
        {
            "positions": [
                -0.8073780248904592,
                -1.6893338093491934,
                1.5607721911539358,
                -0.0032546077193197076,
                1.1134961884076673,
                -2.5609209213204247
            ]
        },
        {
            "positions": [
                -1.018820431283994,
                -1.6876666472621398,
                1.5574360409096961,
                -0.0646844212258938,
                1.0741981345737128,
                -2.526826750148667
            ]
        },
        {
            "positions": [
                -1.2302628376775286,
                -1.6859994851750861,
                1.5540998906654566,
                -0.12611423473246788,
                1.0349000807397584,
                -2.4927325789769093
            ]
        },
        {
            "positions": [
                -1.4417052440710636,
                -1.6843323230880325,
                1.550763740421217,
                -0.18754404823904197,
                0.9956020269058039,
                -2.4586384078051515
            ]
        },
        {
            "positions": [
                -1.6531476504645983,
                -1.6826651610009786,
                1.5474275901769772,
                -0.24897386174561606,
                0.9563039730718494,
                -2.4245442366333942
            ]
        },
        {
            "positions": [
                -1.864590056858133,
                -1.680997998913925,
                1.5440914399327375,
                -0.31040367525219015,
                0.917005919237895,
                -2.3904500654616365
            ]
        },
        {
            "positions": [
                -2.076032463251668,
                -1.6793308368268713,
                1.540755289688498,
                -0.3718334887587642,
                0.8777078654039405,
                -2.356355894289879
            ]
        },
        {
            "positions": [
                -2.2874748696452025,
                -1.6776636747398177,
                1.5374191394442582,
                -0.4332633022653384,
                0.8384098115699861,
                -2.322261723118121
            ]
        },
        {
            "positions": [
                -2.4159626045225426,
                -1.6334572911704868,
                1.6365032946341151,
                -0.41287450295652045,
                0.8132909670224737,
                -2.3734014552757094
            ]
        },
        {
            "positions": [
                -2.544450339399883,
                -1.589250907601156,
                1.7355874498239718,
                -0.3924857036477025,
                0.7881721224749614,
                -2.424541187433298
            ]
        },
        {
            "positions": [
                -2.5654657012235695,
                -1.5360211271805873,
                1.8198352189376719,
                -0.3531378200494574,
                0.7446147653849471,
                -2.476464161828182
            ]
        },
        {
            "positions": [
                -2.586481063047256,
                -1.4827913467600184,
                1.904082988051372,
                -0.3137899364512122,
                0.7010574082949328,
                -2.5283871362230657
            ]
        },
        {
            "positions": [
                -2.559702543187936,
                -1.4032077556293492,
                1.970781202664607,
                -0.33128959813822023,
                0.6555242082338948,
                -2.627452835094984
            ]
        },
        {
            "positions": [
                -2.538437161603737,
                -1.342926993546842,
                1.9796631556151711,
                -0.45399187910240135,
                0.6584411137855958,
                -2.7585912380687008
            ]
        },
        {
            "positions": [
                -2.517171780019538,
                -1.2826462314643345,
                1.9885451085657353,
                -0.5766941600665825,
                0.6613580193372968,
                -2.8897296410424174
            ]
        },
        {
            "positions": [
                -2.4959063984353387,
                -1.2223654693818273,
                1.9974270615162995,
                -0.6993964410307636,
                0.6642749248889979,
                -3.020868044016134
            ]
        },
        {
            "positions": [
                -2.4746410168511397,
                -1.1620847072993201,
                2.0063090144668636,
                -0.8220987219949447,
                0.6671918304406989,
                -3.1520064469898506
            ]
        }
    ]
}