{
    "goal": {
        "global_pose": {
            "orientation": {
                "w": -0.4816463035849501,
                "x": 0.5182115481033762,
                "y": 0.4908360881923453,
                "z": -0.5084816262002911
            },
            "position": {
                "x": -0.8240239810943604,
                "y": 0.19912469901144506,
                "z": 0.16403168439865112
            }
        },
        "name": "move_to_storage_D"
    },
    "id": "LBKPIECE_move_to_storage_D_14",
    "joint_names": [
        "shoulder_pan_joint",
        "shoulder_lift_joint",
        "elbow_joint",
        "wrist_1_joint",
        "wrist_2_joint",
        "wrist_3_joint"
    ],
    "metrics": {
        "cart_traj_len": 1.013302744425651,
        "distance_elbow_joint": 1.0602139274959284,
        "distance_shoulder_lift_joint": 0.5340407848667263,
        "distance_shoulder_pan_joint": 1.5060209072491908,
        "distance_wrist_1_joint": 3.823525465119196,
        "distance_wrist_2_joint": 2.9794400107204115,
        "distance_wrist_3_joint": 3.2149998576907777,
        "smoothness": 0.7772167365257598,
        "time": 0.569154458,
        "traj_len": 3.6219112293293767,
        "weighted_distance": 5.133342589810599
    },
    "planner": "LBKPIECE",
    "start": {
        "state": {
            "elbow_joint": -2.384821988534728,
            "shoulder_lift_joint": -2.2788054721415256,
            "shoulder_pan_joint": -0.1854694642142757,
            "wrist_1_joint": 1.4845938289331202,
            "wrist_2_joint": 0.17898776772866878,
            "wrist_3_joint": 0.037105688729662994
        }
    },
    "waypoints": [
        {
            "positions": [
                -0.1854694642142757,
                -2.2788054721415256,
                -2.384821988534728,
                1.4845938289331202,
                0.17898776772866878,
                0.037105688729662994
            ]
        },
        {
            "positions": [
                -0.3475406795080652,
                -2.289419491480115,
                -2.419731848348075,
                1.4691629978246692,
                0.24494270694199566,
                0.02139345890812376
            ]
        },
        {
            "positions": [
                -0.5096118948018546,
                -2.3000335108187047,
                -2.4546417081614225,
                1.4537321667162182,
                0.31089764615532256,
                0.005681229086584527
            ]
        },
        {
            "positions": [
                -0.3714682053153936,
                -2.242889815125467,
                -2.4850713817411205,
                1.3710075862888522,
                0.3887502873147007,
                0.015091112600905288
            ]
        },
        {
            "positions": [
                -0.23332451582893254,
                -2.18574611943223,
                -2.5155010553208186,
                1.288283005861486,
                0.4666029284740788,
                0.024500996115226048
            ]
        },
        {
            "positions": [
                -0.09518082634247149,
                -2.1286024237389922,
                -2.545930728900517,
                1.2055584254341198,
                0.544455569633457,
                0.03391087962954681
            ]
        },
        {
            "positions": [
                0.04296286314398956,
                -2.071458728045755,
                -2.576360402480215,
                1.1228338450067539,
                0.622308210792835,
                0.04332076314386757
            ]
        },
        {
            "positions": [
                0.1811065526304506,
                -2.0143150323525174,
                -2.606790076059913,
                1.040109264579388,
                0.7001608519522131,
                0.05273064665818833
            ]
        },
        {
            "positions": [
                0.31925024211691166,
                -1.95717133665928,
                -2.6372197496396113,
                0.9573846841520217,
                0.7780134931115913,
                0.06214053017250909
            ]
        },
        {
            "positions": [
                0.3056726905883406,
                -1.963707897121977,
                -2.6061498970861097,
                0.830603287215941,
                0.6864590975216879,
                0.18241422620950043
            ]
        },
        {
            "positions": [
                0.2920951390597696,
                -1.970244457584674,
                -2.5750800445326076,
                0.7038218902798603,
                0.5949047019317844,
                0.30268792224649177
            ]
        },
        {
            "positions": [
                0.27851758753119854,
                -1.976781018047371,
                -2.544010191979106,
                0.5770404933437796,
                0.5033503063418809,
                0.4229616182834831
            ]
        },
        {
            "positions": [
                0.2649400360026275,
                -1.983317578510068,
                -2.5129403394256045,
                0.450259096407699,
                0.41179591075197747,
                0.5432353143204744
            ]
        },
        {
            "positions": [
                0.2513624844740564,
                -1.989854138972765,
                -2.4818704868721024,
                0.3234776994716183,
                0.320241515162074,
                0.6635090103574658
            ]
        },
        {
            "positions": [
                0.23778493294548536,
                -1.996390699435462,
                -2.450800634318601,
                0.1966963025355376,
                0.22868711957217058,
                0.7837827063944571
            ]
        },
        {
            "positions": [
                0.22420738141691432,
                -2.002927259898159,
                -2.4197307817650993,
                0.06991490559945712,
                0.13713272398226717,
                0.9040564024314484
            ]
        },
        {
            "positions": [
                0.21062982988834328,
                -2.0094638203608564,
                -2.3886609292115972,
                -0.05686649133662369,
                0.04557832839236364,
                1.0243300984684398
            ]
        },
        {
            "positions": [
                0.19705227835977224,
                -2.016000380823553,
                -2.3575910766580956,
                -0.18364788827270417,
                -0.04597606719753977,
                1.144603794505431
            ]
        },
        {
            "positions": [
                0.18347472683120117,
                -2.0225369412862504,
                -2.326521224104594,
                -0.3104292852087851,
                -0.1375304627874433,
                1.2648774905424225
            ]
        },
        {
            "positions": [
                0.16989717530263015,
                -2.029073501748947,
                -2.295451371551092,
                -0.4372106821448656,
                -0.2290848583773467,
                1.3851511865794137
            ]
        },
        {
            "positions": [
                0.15631962377405909,
                -2.0356100622116444,
                -2.2643815189975904,
                -0.5639920790809465,
                -0.3206392539672501,
                1.5054248826164052
            ]
        },
        {
            "positions": [
                0.14274207224548804,
                -2.042146622674341,
                -2.233311666444089,
                -0.690773476017027,
                -0.41219364955715354,
                1.6256985786533964
            ]
        },
        {
            "positions": [
                0.129164520716917,
                -2.0486831831370385,
                -2.202241813890587,
                -0.8175548729531075,
                -0.503748045147057,
                1.7459722746903876
            ]
        },
        {
            "positions": [
                0.11558696918834596,
                -2.0552197435997352,
                -2.1711719613370852,
                -0.9443362698891882,
                -0.5953024407369604,
                1.8662459707273789
            ]
        },
        {
            "positions": [
                0.10200941765977489,
                -2.0617563040624325,
                -2.1401021087835836,
                -1.071117666825269,
                -0.686856836326864,
                1.9865196667643705
            ]
        },
        {
            "positions": [
                0.08843186613120385,
                -2.0682928645251293,
                -2.1090322562300816,
                -1.1978990637613498,
                -0.7784112319167674,
                2.106793362801362
            ]
        },
        {
            "positions": [
                0.07485431460263281,
                -2.0748294249878265,
                -2.07796240367658,
                -1.32468046069743,
                -0.8699656275066708,
                2.2270670588383528
            ]
        },
        {
            "positions": [
                0.06127676307406177,
                -2.0813659854505233,
                -2.0468925511230784,
                -1.4514618576335108,
                -0.961520023096574,
                2.3473407548753444
            ]
        },
        {
            "positions": [
                0.04769921154549067,
                -2.0879025459132206,
                -2.0158226985695764,
                -1.578243254569592,
                -1.053074418686478,
                2.467614450912336
            ]
        },
        {
            "positions": [
                0.03412166001691963,
                -2.0944391063759173,
                -1.9847528460160748,
                -1.7050246515056726,
                -1.144628814276381,
                2.587888146949327
            ]
        },
        {
            "positions": [
                0.020544108488348645,
                -2.1009756668386146,
                -1.9536829934625732,
                -1.8318060484417529,
                -1.2361832098662848,
                2.7081618429863186
            ]
        },
        {
            "positions": [
                0.006966556959777603,
                -2.1075122273013114,
                -1.9226131409090714,
                -1.9585874453778336,
                -1.3277376054561882,
                2.8284355390233094
            ]
        },
        {
            "positions": [
                -0.0066109945687934935,
                -2.1140487877640086,
                -1.8915432883555696,
                -2.0853688423139145,
                -1.4192920010460917,
                2.948709235060301
            ]
        },
        {
            "positions": [
                -0.020188546097364535,
                -2.1205853482267054,
                -1.860473435802068,
                -2.212150239249995,
                -1.510846396635995,
                3.0689829310972927
            ]
        },
        {
            "positions": [
                -0.033766097625935555,
                -2.1271219086894027,
                -1.8294035832485662,
                -2.3389316361860755,
                -1.6024007922258983,
                3.1892566271342835
            ]
        }
    ]
}