{
    "goal": {
        "global_pose": {
            "orientation": {
                "w": 0.7047431468963623,
                "x": -0.7094548344612122,
                "y": 0.0024358443915843964,
                "z": -0.0022348060738295317
            },
            "position": {
                "x": 0.6094750761985779,
                "y": 0.3671506643295288,
                "z": 0.19426114857196808
            }
        },
        "name": "move_to_magneteinheit_A"
    },
    "id": "LBKPIECE_move_to_magneteinheit_A_34",
    "joint_names": [
        "shoulder_pan_joint",
        "shoulder_lift_joint",
        "elbow_joint",
        "wrist_1_joint",
        "wrist_2_joint",
        "wrist_3_joint"
    ],
    "metrics": {
        "cart_traj_len": 4.098916028631346,
        "distance_elbow_joint": 3.894034193226446,
        "distance_shoulder_lift_joint": 0.8043184195920208,
        "distance_shoulder_pan_joint": 5.077377254857401,
        "distance_wrist_1_joint": 0.7615435224156368,
        "distance_wrist_2_joint": 1.7094148252474697,
        "distance_wrist_3_joint": 2.6513940681596773,
        "smoothness": 0.24175924241553687,
        "time": 0.374615989,
        "traj_len": 3.859803399591572,
        "weighted_distance": 4.761494383854833
    },
    "planner": "LBKPIECE",
    "start": {
        "state": {
            "elbow_joint": -1.9196185241190666,
            "shoulder_lift_joint": -1.2443396400964142,
            "shoulder_pan_joint": 2.6996025414629847,
            "wrist_1_joint": -1.5485510000780065,
            "wrist_2_joint": -1.5709468930060704,
            "wrist_3_joint": 0.4420197071253992
        }
    },
    "waypoints": [
        {
            "positions": [
                2.6996025414629847,
                -1.2443396400964142,
                -1.9196185241190666,
                -1.5485510000780065,
                -1.5709468930060704,
                0.4420197071253992
            ]
        },
        {
            "positions": [
                2.5523960041479947,
                -1.2578242066324061,
                -1.8128926231479745,
                -1.548480315093753,
                -1.5083429390549608,
                0.4946417536539121
            ]
        },
        {
            "positions": [
                2.405189466833005,
                -1.2713087731683979,
                -1.7061667221768821,
                -1.5484096301094994,
                -1.4457389851038513,
                0.547263800182425
            ]
        },
        {
            "positions": [
                2.257982929518015,
                -1.2847933397043898,
                -1.59944082120579,
                -1.5483389451252458,
                -1.3831350311527417,
                0.5998858467109379
            ]
        },
        {
            "positions": [
                2.1107763922030256,
                -1.2982779062403818,
                -1.4927149202346979,
                -1.5482682601409923,
                -1.3205310772016323,
                0.6525078932394509
            ]
        },
        {
            "positions": [
                1.9635698548880356,
                -1.3117624727763735,
                -1.3859890192636057,
                -1.5481975751567387,
                -1.2579271232505227,
                0.7051299397679638
            ]
        },
        {
            "positions": [
                1.816363317573046,
                -1.3252470393123654,
                -1.2792631182925134,
                -1.5481268901724852,
                -1.1953231692994133,
                0.7577519862964768
            ]
        },
        {
            "positions": [
                1.6691567802580562,
                -1.3387316058483574,
                -1.1725372173214212,
                -1.5480562051882316,
                -1.1327192153483037,
                0.8103740328249895
            ]
        },
        {
            "positions": [
                1.5219502429430662,
                -1.352216172384349,
                -1.065811316350329,
                -1.547985520203978,
                -1.070115261397194,
                0.8629960793535025
            ]
        },
        {
            "positions": [
                1.3747437056280765,
                -1.365700738920341,
                -0.9590854153792369,
                -1.5479148352197245,
                -1.0075113074460846,
                0.9156181258820155
            ]
        },
        {
            "positions": [
                1.2275371683130867,
                -1.379185305456333,
                -0.8523595144081446,
                -1.547844150235471,
                -0.9449073534949751,
                0.9682401724105284
            ]
        },
        {
            "positions": [
                1.080330630998097,
                -1.3926698719923247,
                -0.7456336134370525,
                -1.5477734652512174,
                -0.8823033995438656,
                1.0208622189390413
            ]
        },
        {
            "positions": [
                0.9331240936831071,
                -1.4061544385283167,
                -0.6389077124659601,
                -1.5477027802669638,
                -0.8196994455927561,
                1.0734842654675543
            ]
        },
        {
            "positions": [
                0.7859175563681173,
                -1.4196390050643086,
                -0.532181811494868,
                -1.5476320952827103,
                -0.7570954916416466,
                1.1261063119960673
            ]
        },
        {
            "positions": [
                0.6387110190531278,
                -1.4331235716003003,
                -0.42545591052377585,
                -1.5475614102984565,
                -0.6944915376905371,
                1.17872835852458
            ]
        },
        {
            "positions": [
                0.49150448173813777,
                -1.4466081381362923,
                -0.3187300095526837,
                -1.547490725314203,
                -0.6318875837394277,
                1.2313504050530928
            ]
        },
        {
            "positions": [
                0.34429794442314776,
                -1.460092704672284,
                -0.21200410858159136,
                -1.5474200403299494,
                -0.5692836297883179,
                1.283972451581606
            ]
        },
        {
            "positions": [
                0.1970914071081582,
                -1.473577271208276,
                -0.10527820761049922,
                -1.5473493553456958,
                -0.5066796758372085,
                1.3365944981101188
            ]
        },
        {
            "positions": [
                0.049884869793168196,
                -1.487061837744268,
                0.0014476933605929165,
                -1.5472786703614423,
                -0.4440757218860989,
                1.3892165446386318
            ]
        },
        {
            "positions": [
                -0.09732166752182136,
                -1.5005464042802596,
                0.10817359433168505,
                -1.5472079853771887,
                -0.3814717679349895,
                1.4418385911671447
            ]
        },
        {
            "positions": [
                -0.24452820483681137,
                -1.5140309708162516,
                0.2148994953027774,
                -1.5471373003929352,
                -0.31886781398387987,
                1.4944606376956577
            ]
        },
        {
            "positions": [
                -0.39173474215180093,
                -1.5275155373522435,
                0.32162539627386977,
                -1.5470666154086816,
                -0.25626386003277046,
                1.5470826842241707
            ]
        },
        {
            "positions": [
                -0.5389412794667909,
                -1.5410001038882353,
                0.4283512972449617,
                -1.546995930424428,
                -0.19365990608166084,
                1.5997047307526833
            ]
        },
        {
            "positions": [
                -0.6861478167817805,
                -1.5544846704242272,
                0.535077198216054,
                -1.5469252454401745,
                -0.13105595213055143,
                1.6523267772811963
            ]
        },
        {
            "positions": [
                -0.8333543540967705,
                -1.5679692369602192,
                0.6418030991871464,
                -1.546854560455921,
                -0.06845199817944181,
                1.7049488238097092
            ]
        },
        {
            "positions": [
                -0.9805608914117605,
                -1.5814538034962111,
                0.7485290001582388,
                -1.5467838754716674,
                -0.005848044228332183,
                1.7575708703382222
            ]
        },
        {
            "positions": [
                -1.12776742872675,
                -1.5949383700322028,
                0.8552549011293308,
                -1.5467131904874138,
                0.05675590972277722,
                1.8101929168667352
            ]
        },
        {
            "positions": [
                -1.0316130222138524,
                -1.560036855443262,
                0.9413441909737962,
                -1.488274289500872,
                0.06304144991651739,
                1.9089022136681462
            ]
        },
        {
            "positions": [
                -0.935458615700955,
                -1.525135340854321,
                1.0274334808182615,
                -1.4298353885143302,
                0.06932699011025757,
                2.007611510469557
            ]
        },
        {
            "positions": [
                -0.8393042091880574,
                -1.49023382626538,
                1.1135227706627269,
                -1.3713964875277882,
                0.07561253030399774,
                2.106320807270968
            ]
        },
        {
            "positions": [
                -0.7431498026751598,
                -1.4553323116764392,
                1.1996120605071923,
                -1.3129575865412464,
                0.08189807049773791,
                2.2050301040723785
            ]
        },
        {
            "positions": [
                -0.6469953961622623,
                -1.420430797087498,
                1.2857013503516577,
                -1.2545186855547046,
                0.08818361069147809,
                2.3037394008737895
            ]
        },
        {
            "positions": [
                -0.5508409896493647,
                -1.3855292824985572,
                1.371790640196123,
                -1.1960797845681626,
                0.09446915088521826,
                2.4024486976752004
            ]
        },
        {
            "positions": [
                -0.45468658313646726,
                -1.3506277679096164,
                1.4578799300405885,
                -1.137640883581621,
                0.10075469107895843,
                2.5011579944766114
            ]
        },
        {
            "positions": [
                -0.3585321766235696,
                -1.3157262533206753,
                1.5439692198850539,
                -1.079201982595079,
                0.1070402312726986,
                2.5998672912780223
            ]
        },
        {
            "positions": [
                -0.2623777701106721,
                -1.2808247387317344,
                1.630058509729519,
                -1.0207630816085371,
                0.11332577146643877,
                2.6985765880794332
            ]
        },
        {
            "positions": [
                -0.16622336359777445,
                -1.2459232241427936,
                1.7161477995739847,
                -0.9623241806219952,
                0.11961131166017895,
                2.7972858848808437
            ]
        },
        {
            "positions": [
                -0.07006895708487693,
                -1.2110217095538527,
                1.8022370894184498,
                -0.9038852796354534,
                0.12589685185391913,
                2.895995181682255
            ]
        },
        {
            "positions": [
                0.026085449428020713,
                -1.1761201949649116,
                1.8883263792629155,
                -0.8454463786489115,
                0.1321823920476593,
                2.9947044784836656
            ]
        },
        {
            "positions": [
                0.12223985594091816,
                -1.1412186803759707,
                1.9744156691073806,
                -0.7870074776623697,
                0.13846793224139947,
                3.0934137752850766
            ]
        }
    ]
}