{
    "goal": {
        "global_pose": {
            "orientation": {
                "w": 0.7047431493862688,
                "x": -0.7094548369677653,
                "y": 0.0024358444001904,
                "z": -0.0022348060817251984
            },
            "position": {
                "x": -0.39052492380142206,
                "y": 0.3671506643295288,
                "z": 0.19426114857196808
            }
        },
        "name": "move_to_magneteinheit_D"
    },
    "id": "LBKPIECE_move_to_magneteinheit_D_94",
    "joint_names": [
        "shoulder_pan_joint",
        "shoulder_lift_joint",
        "elbow_joint",
        "wrist_1_joint",
        "wrist_2_joint",
        "wrist_3_joint"
    ],
    "metrics": {
        "cart_traj_len": 4.903142896854536,
        "distance_elbow_joint": 3.286957456718193,
        "distance_shoulder_lift_joint": 1.4695775697975675,
        "distance_shoulder_pan_joint": 4.726375204218171,
        "distance_wrist_1_joint": 5.386802897212208,
        "distance_wrist_2_joint": 0.615791947999904,
        "distance_wrist_3_joint": 6.300291920619401,
        "smoothness": 0.4788332261990949,
        "time": 0.39267421999999996,
        "traj_len": 4.667525789598321,
        "weighted_distance": 6.355232150206345
    },
    "planner": "LBKPIECE",
    "start": {
        "state": {
            "elbow_joint": 0.749534889911806,
            "shoulder_lift_joint": -0.6476975780787326,
            "shoulder_pan_joint": -2.711696901376241,
            "wrist_1_joint": -0.07506478083263063,
            "wrist_2_joint": 0.43296659715538205,
            "wrist_3_joint": -3.14703540197715
        }
    },
    "waypoints": [
        {
            "positions": [
                -2.711696901376241,
                -0.6476975780787326,
                0.749534889911806,
                -0.07506478083263063,
                0.43296659715538205,
                -3.14703540197715
            ]
        },
        {
            "positions": [
                -2.7237710364268697,
                -0.66752859543812,
                0.7121119120522931,
                0.01693663910097555,
                0.4189520454795571,
                -3.0255922713473935
            ]
        },
        {
            "positions": [
                -2.7358451714774983,
                -0.6873596127975073,
                0.6746889341927801,
                0.10893805903458173,
                0.4049374938037322,
                -2.9041491407176365
            ]
        },
        {
            "positions": [
                -2.747919306528127,
                -0.7071906301568948,
                0.6372659563332672,
                0.20093947896818792,
                0.39092294212790724,
                -2.78270601008788
            ]
        },
        {
            "positions": [
                -2.7428053399454484,
                -0.7358193176422495,
                0.5958341518415522,
                0.31106560761133034,
                0.37899786285299925,
                -2.6227159203136625
            ]
        },
        {
            "positions": [
                -2.73769137336277,
                -0.7644480051276041,
                0.5544023473498371,
                0.4211917362544728,
                0.3670727835780912,
                -2.4627258305394446
            ]
        },
        {
            "positions": [
                -2.7325774067800914,
                -0.7930766926129589,
                0.512970542858122,
                0.5313178648976152,
                0.3551477043031832,
                -2.302735740765227
            ]
        },
        {
            "positions": [
                -2.6445093340448906,
                -0.8208573545818482,
                0.44073281078484455,
                0.43974308262525774,
                0.3499231568005796,
                -2.1959890992132514
            ]
        },
        {
            "positions": [
                -2.5564412613096903,
                -0.8486380165507376,
                0.36849507871156706,
                0.34816830035290025,
                0.344698609297976,
                -2.089242457661275
            ]
        },
        {
            "positions": [
                -2.46837318857449,
                -0.8764186785196268,
                0.2962573466382896,
                0.2565935180805428,
                0.3394740617953725,
                -1.9824958161092994
            ]
        },
        {
            "positions": [
                -2.380305115839289,
                -0.9041993404885161,
                0.22401961456501213,
                0.16501873580818527,
                0.3342495142927689,
                -1.8757491745573236
            ]
        },
        {
            "positions": [
                -2.292237043104089,
                -0.9319800024574054,
                0.1517818824917347,
                0.07344395353582783,
                0.3290249667901653,
                -1.7690025330053478
            ]
        },
        {
            "positions": [
                -2.204168970368888,
                -0.9597606644262948,
                0.07954415041845725,
                -0.018130828736529603,
                0.3238004192875617,
                -1.6622558914533718
            ]
        },
        {
            "positions": [
                -2.1161008976336877,
                -0.9875413263951841,
                0.007306418345179755,
                -0.1097056110088872,
                0.3185758717849581,
                -1.5555092499013958
            ]
        },
        {
            "positions": [
                -2.028032824898487,
                -1.0153219883640734,
                -0.0649313137280978,
                -0.2012803932812447,
                0.31335132428235457,
                -1.44876260834942
            ]
        },
        {
            "positions": [
                -1.9399647521632863,
                -1.0431026503329628,
                -0.13716904580137523,
                -0.2928551755536021,
                0.308126776779751,
                -1.342015966797444
            ]
        },
        {
            "positions": [
                -1.8518966794280858,
                -1.070883312301852,
                -0.20940677787465267,
                -0.38442995782595957,
                0.3029022292771474,
                -1.2352693252454683
            ]
        },
        {
            "positions": [
                -1.7638286066928852,
                -1.0986639742707414,
                -0.2816445099479302,
                -0.47600474009831706,
                0.2976776817745438,
                -1.1285226836934923
            ]
        },
        {
            "positions": [
                -1.6757605339576849,
                -1.1264446362396305,
                -0.35388224202120755,
                -0.5675795223706744,
                0.2924531342719402,
                -1.0217760421415165
            ]
        },
        {
            "positions": [
                -1.587692461222484,
                -1.15422529820852,
                -0.4261199740944851,
                -0.659154304643032,
                0.2872285867693366,
                -0.9150294005895405
            ]
        },
        {
            "positions": [
                -1.4996243884872835,
                -1.1820059601774093,
                -0.49835770616776254,
                -0.7507290869153896,
                0.28200403926673306,
                -0.8082827590375645
            ]
        },
        {
            "positions": [
                -1.411556315752083,
                -1.2097866221462987,
                -0.57059543824104,
                -0.842303869187747,
                0.27677949176412947,
                -0.7015361174855888
            ]
        },
        {
            "positions": [
                -1.3234882430168824,
                -1.237567284115188,
                -0.6428331703143176,
                -0.9338786514601046,
                0.2715549442615259,
                -0.5947894759336128
            ]
        },
        {
            "positions": [
                -1.235420170281682,
                -1.2653479460840773,
                -0.7150709023875949,
                -1.0254534337324621,
                0.26633039675892234,
                -0.488042834381637
            ]
        },
        {
            "positions": [
                -1.1473520975464813,
                -1.2931286080529665,
                -0.7873086344608725,
                -1.1170282160048193,
                0.26110584925631874,
                -0.381296192829661
            ]
        },
        {
            "positions": [
                -1.0592840248112807,
                -1.3209092700218559,
                -0.85954636653415,
                -1.2086029982771769,
                0.25588130175371515,
                -0.2745495512776852
            ]
        },
        {
            "positions": [
                -0.9712159520760804,
                -1.3486899319907453,
                -0.9317840986074274,
                -1.3001777805495345,
                0.25065675425111156,
                -0.16780290972570944
            ]
        },
        {
            "positions": [
                -0.8831478793408796,
                -1.3764705939596347,
                -1.004021830680705,
                -1.391752562821892,
                0.24543220674850796,
                -0.06105626817373322
            ]
        },
        {
            "positions": [
                -0.795079806605679,
                -1.4042512559285238,
                -1.0762595627539824,
                -1.4833273450942492,
                0.24020765924590437,
                0.045690373378242555
            ]
        },
        {
            "positions": [
                -0.7070117338704782,
                -1.4320319178974132,
                -1.1484972948272598,
                -1.5749021273666068,
                0.23498311174330078,
                0.15243701493021877
            ]
        },
        {
            "positions": [
                -0.6189436611352783,
                -1.4598125798663024,
                -1.2207350269005373,
                -1.666476909638964,
                0.22975856424069724,
                0.2591836564821941
            ]
        },
        {
            "positions": [
                -0.5308755884000775,
                -1.4875932418351918,
                -1.2929727589738147,
                -1.7580516919113216,
                0.22453401673809364,
                0.3659302980341703
            ]
        },
        {
            "positions": [
                -0.44280751566487675,
                -1.5153739038040812,
                -1.3652104910470921,
                -1.8496264741836792,
                0.21930946923549005,
                0.4726769395861461
            ]
        },
        {
            "positions": [
                -0.3547394429296764,
                -1.5431545657729706,
                -1.4374482231203696,
                -1.9412012564560368,
                0.21408492173288646,
                0.5794235811381223
            ]
        },
        {
            "positions": [
                -0.2666713701944756,
                -1.5709352277418598,
                -1.509685955193647,
                -2.0327760387283944,
                0.2088603742302829,
                0.6861702226900981
            ]
        },
        {
            "positions": [
                -0.17860329745927528,
                -1.598715889710749,
                -1.5819236872669244,
                -2.1243508210007516,
                0.20363582672767933,
                0.7929168642420734
            ]
        },
        {
            "positions": [
                -0.09053522472407449,
                -1.6264965516796384,
                -1.6541614193402019,
                -2.215925603273109,
                0.19841127922507573,
                0.8996635057940496
            ]
        },
        {
            "positions": [
                -0.00246715198887415,
                -1.6542772136485278,
                -1.7263991514134793,
                -2.3075003855454668,
                0.19318673172247214,
                1.0064101473460254
            ]
        },
        {
            "positions": [
                0.08560092074632664,
                -1.6820578756174172,
                -1.7986368834867572,
                -2.3990751678178244,
                0.18796218421986854,
                1.1131567888980016
            ]
        },
        {
            "positions": [
                0.17366899348152698,
                -1.7098385375863063,
                -1.8708746155600346,
                -2.490649950090182,
                0.18273763671726498,
                1.2199034304499774
            ]
        },
        {
            "positions": [
                0.2617370662167273,
                -1.7376191995551955,
                -1.9431123476333116,
                -2.582224732362539,
                0.1775130892146614,
                1.3266500720019532
            ]
        },
        {
            "positions": [
                0.3498051389519281,
                -1.765399861524085,
                -2.015350079706589,
                -2.6737995146348963,
                0.17228854171205782,
                1.433396713553929
            ]
        },
        {
            "positions": [
                0.4378732116871289,
                -1.7931805234929743,
                -2.087587811779867,
                -2.765374296907254,
                0.16706399420945423,
                1.5401433551059052
            ]
        },
        {
            "positions": [
                0.5259412844223292,
                -1.8209611854618637,
                -2.1598255438531444,
                -2.8569490791796115,
                0.16183944670685063,
                1.646889996657881
            ]
        },
        {
            "positions": [
                0.61400935715753,
                -1.8487418474307529,
                -2.232063275926422,
                -2.948523861451969,
                0.15661489920424704,
                1.7536366382098567
            ]
        },
        {
            "positions": [
                0.7020774298927304,
                -1.8765225093996423,
                -2.3043010079996993,
                -3.0400986437243263,
                0.1513903517016435,
                1.860383279761833
            ]
        },
        {
            "positions": [
                0.7901455026279307,
                -1.9043031713685314,
                -2.3765387400729767,
                -3.131673425996684,
                0.1461658041990399,
                1.9671299213138083
            ]
        },
        {
            "positions": [
                0.8782135753631315,
                -1.9320838333374208,
                -2.448776472146254,
                -3.2232482082690415,
                0.1409412566964363,
                2.073876562865784
            ]
        },
        {
            "positions": [
                0.7718115836456289,
                -1.913564701883533,
                -2.439911862680241,
                -3.1206627904375104,
                0.1085645959423405,
                2.1818145584434308
            ]
        },
        {
            "positions": [
                0.6654095919281263,
                -1.895045570429645,
                -2.4310472532142273,
                -3.0180773726059793,
                0.07618793518824467,
                2.289752554021077
            ]
        },
        {
            "positions": [
                0.5590076002106237,
                -1.876526438975757,
                -2.422182643748214,
                -2.9154919547744482,
                0.04381127443414885,
                2.3976905495987237
            ]
        },
        {
            "positions": [
                0.4526056084931211,
                -1.858007307521869,
                -2.413318034282201,
                -2.812906536942917,
                0.011434613680053024,
                2.5056285451763705
            ]
        },
        {
            "positions": [
                0.3462036167756185,
                -1.8394881760679813,
                -2.4044534248161877,
                -2.710321119111386,
                -0.02094204707404279,
                2.613566540754017
            ]
        },
        {
            "positions": [
                0.23980162505811597,
                -1.8209690446140934,
                -2.395588815350174,
                -2.607735701279855,
                -0.053318707828138606,
                2.7215045363316634
            ]
        },
        {
            "positions": [
                0.13339963334061333,
                -1.8024499131602054,
                -2.386724205884161,
                -2.505150283448324,
                -0.08569536858223442,
                2.82944253190931
            ]
        },
        {
            "positions": [
                0.02699764162311069,
                -1.7839307817063175,
                -2.3778595964181477,
                -2.402564865616793,
                -0.11807202933633026,
                2.937380527486957
            ]
        },
        {
            "positions": [
                -0.07940435009439195,
                -1.7654116502524295,
                -2.368994986952134,
                -2.2999794477852618,
                -0.1504486900904261,
                3.045318523064603
            ]
        },
        {
            "positions": [
                -0.18580634181189448,
                -1.7468925187985416,
                -2.360130377486121,
                -2.1973940299537307,
                -0.18282535084452187,
                3.15325651864225
            ]
        }
    ]
}