{
    "goal": {
        "global_pose": {
            "orientation": {
                "w": 0.7047431468963623,
                "x": -0.7094548344612122,
                "y": 0.0024358443915843964,
                "z": -0.0022348060738295317
            },
            "position": {
                "x": 0.6094750761985779,
                "y": 0.3671506643295288,
                "z": 0.19426114857196808
            }
        },
        "name": "move_to_magneteinheit_A"
    },
    "id": "LBKPIECE_move_to_magneteinheit_A_124",
    "joint_names": [
        "shoulder_pan_joint",
        "shoulder_lift_joint",
        "elbow_joint",
        "wrist_1_joint",
        "wrist_2_joint",
        "wrist_3_joint"
    ],
    "metrics": {
        "cart_traj_len": 3.5173592797562625,
        "distance_elbow_joint": 3.873083504281209,
        "distance_shoulder_lift_joint": 0.662564763299885,
        "distance_shoulder_pan_joint": 2.627984941298726,
        "distance_wrist_1_joint": 1.6188428032934907,
        "distance_wrist_2_joint": 1.992819768676181,
        "distance_wrist_3_joint": 2.669489425781442,
        "smoothness": 0.6314023953480423,
        "time": 0.5184963380000001,
        "traj_len": 3.6667131339431136,
        "weighted_distance": 4.732380651444206
    },
    "planner": "LBKPIECE",
    "start": {
        "state": {
            "elbow_joint": -1.9196185241190666,
            "shoulder_lift_joint": -1.2443396400964142,
            "shoulder_pan_joint": 2.6996025414629847,
            "wrist_1_joint": -1.5485510000780065,
            "wrist_2_joint": -1.5709468930060704,
            "wrist_3_joint": 0.4420197071253992
        }
    },
    "waypoints": [
        {
            "positions": [
                2.6996025414629847,
                -1.2443396400964142,
                -1.9196185241190666,
                -1.5485510000780065,
                -1.5709468930060704,
                0.4420197071253992
            ]
        },
        {
            "positions": [
                2.592174798047168,
                -1.2296722865135976,
                -1.8091248173296373,
                -1.4840087221879217,
                -1.4897093320131665,
                0.44290283525130186
            ]
        },
        {
            "positions": [
                2.4847470546313515,
                -1.215004932930781,
                -1.6986311105402079,
                -1.4194664442978366,
                -1.4084717710202626,
                0.4437859633772046
            ]
        },
        {
            "positions": [
                2.3773193112155346,
                -1.2003375793479645,
                -1.5881374037507783,
                -1.3549241664077516,
                -1.3272342100273586,
                0.4446690915031073
            ]
        },
        {
            "positions": [
                2.2698915677997182,
                -1.1856702257651481,
                -1.4776436969613491,
                -1.2903818885176668,
                -1.245996649034455,
                0.44555221962901004
            ]
        },
        {
            "positions": [
                2.1624638243839014,
                -1.1710028721823316,
                -1.3671499901719195,
                -1.225839610627582,
                -1.164759088041551,
                0.4464353477549127
            ]
        },
        {
            "positions": [
                2.055036080968085,
                -1.156335518599515,
                -1.2566562833824901,
                -1.161297332737497,
                -1.0835215270486471,
                0.44731847588081547
            ]
        },
        {
            "positions": [
                1.9476083375522681,
                -1.1416681650166984,
                -1.1461625765930608,
                -1.0967550548474119,
                -1.0022839660557432,
                0.44820160400671816
            ]
        },
        {
            "positions": [
                1.8401805941364517,
                -1.1270008114338819,
                -1.0356688698036314,
                -1.032212776957327,
                -0.9210464050628393,
                0.4490847321326209
            ]
        },
        {
            "positions": [
                1.732752850720635,
                -1.1123334578510653,
                -0.925175163014202,
                -0.9676704990672421,
                -0.8398088440699355,
                0.4499678602585236
            ]
        },
        {
            "positions": [
                1.6253251073048185,
                -1.0976661042682487,
                -0.8146814562247726,
                -0.9031282211771572,
                -0.7585712830770316,
                0.45085098838442633
            ]
        },
        {
            "positions": [
                1.5178973638890019,
                -1.0829987506854324,
                -0.7041877494353432,
                -0.8385859432870723,
                -0.6773337220841278,
                0.451734116510329
            ]
        },
        {
            "positions": [
                1.410469620473185,
                -1.0683313971026158,
                -0.5936940426459136,
                -0.7740436653969872,
                -0.5960961610912238,
                0.45261724463623176
            ]
        },
        {
            "positions": [
                1.3030418770573684,
                -1.0536640435197993,
                -0.48320033585648425,
                -0.7095013875069023,
                -0.51485860009832,
                0.45350037276213445
            ]
        },
        {
            "positions": [
                1.1956141336415518,
                -1.0389966899369827,
                -0.3727066290670549,
                -0.6449591096168173,
                -0.43362103910541605,
                0.4543835008880372
            ]
        },
        {
            "positions": [
                1.0881863902257352,
                -1.0243293363541661,
                -0.26221292227762555,
                -0.5804168317267324,
                -0.3523834781125121,
                0.4552666290139399
            ]
        },
        {
            "positions": [
                0.9932164282281324,
                -1.0061719799612399,
                -0.1388045141875907,
                -0.5680634067946817,
                -0.3070439065767829,
                0.5561521782834093
            ]
        },
        {
            "positions": [
                0.8982464662305297,
                -0.9880146235683134,
                -0.015396106097555873,
                -0.555709981862631,
                -0.2617043350410536,
                0.6570377275528787
            ]
        },
        {
            "positions": [
                0.803276504232927,
                -0.969857267175387,
                0.10801230199247897,
                -0.5433565569305803,
                -0.2163647635053244,
                0.7579232768223482
            ]
        },
        {
            "positions": [
                0.7083065422353243,
                -0.9516999107824606,
                0.2314207100825138,
                -0.5310031319985296,
                -0.1710251919695952,
                0.8588088260918176
            ]
        },
        {
            "positions": [
                0.6133365802377215,
                -0.9335425543895343,
                0.35482911817254864,
                -0.5186497070664788,
                -0.125685620433866,
                0.959694375361287
            ]
        },
        {
            "positions": [
                0.5183666182401188,
                -0.9153851979966079,
                0.4782375262625835,
                -0.5062962821344281,
                -0.08034604889813673,
                1.0605799246307566
            ]
        },
        {
            "positions": [
                0.4233966562425161,
                -0.8972278416036815,
                0.6016459343526184,
                -0.4939428572023774,
                -0.03500647736240753,
                1.161465473900226
            ]
        },
        {
            "positions": [
                0.32842669424491333,
                -0.8790704852107551,
                0.7250543424426531,
                -0.4815894322703267,
                0.010333094173321693,
                1.2623510231696953
            ]
        },
        {
            "positions": [
                0.30643902286922614,
                -0.9034802642023311,
                0.823506608527404,
                -0.5178432117448931,
                0.035869678749011806,
                1.4247826631101936
            ]
        },
        {
            "positions": [
                0.28445135149353895,
                -0.927890043193907,
                0.921958874612155,
                -0.5540969912194595,
                0.06140626332470192,
                1.587214303050692
            ]
        },
        {
            "positions": [
                0.2624636801178518,
                -0.952299822185483,
                1.0204111406969059,
                -0.5903507706940259,
                0.08694284790039203,
                1.7496459429911906
            ]
        },
        {
            "positions": [
                0.2404760087421646,
                -0.976709601177059,
                1.1188634067816567,
                -0.6266045501685923,
                0.11247943247608215,
                1.912077582931689
            ]
        },
        {
            "positions": [
                0.21848833736647744,
                -1.0011193801686349,
                1.2173156728664076,
                -0.6628583296431587,
                0.13801601705177227,
                2.0745092228721873
            ]
        },
        {
            "positions": [
                0.19650066599079025,
                -1.025529159160211,
                1.3157679389511587,
                -0.6991121091177251,
                0.16355260162746238,
                2.236940862812686
            ]
        },
        {
            "positions": [
                0.17451299461510306,
                -1.0499389381517867,
                1.4142202050359094,
                -0.7353658885922916,
                0.1890891862031525,
                2.399372502753184
            ]
        },
        {
            "positions": [
                0.15252532323941587,
                -1.0743487171433628,
                1.5126724711206605,
                -0.7716196680668579,
                0.21462577077884262,
                2.5618041426936826
            ]
        },
        {
            "positions": [
                0.1305376518637287,
                -1.0987584961349386,
                1.6111247372054114,
                -0.8078734475414244,
                0.24016235535453273,
                2.7242357826341808
            ]
        },
        {
            "positions": [
                0.10854998048804151,
                -1.1231682751265146,
                1.7095770032901623,
                -0.8441272270159907,
                0.2656989399302228,
                2.8866674225746793
            ]
        },
        {
            "positions": [
                0.1213502577386651,
                -1.1113381126258002,
                1.772293511410059,
                -0.7609533291765068,
                0.19133128222299745,
                2.86176102906945
            ]
        },
        {
            "positions": [
                0.1341505349892887,
                -1.0995079501250857,
                1.835010019529956,
                -0.6777794313370229,
                0.11696362451577207,
                2.8368546355642206
            ]
        },
        {
            "positions": [
                0.12281870916675422,
                -1.1290454436221233,
                1.9534649801621422,
                -0.7007750763982016,
                0.12440224484120968,
                3.011883558885924
            ]
        }
    ]
}