{
    "goal": {
        "global_pose": {
            "orientation": {
                "w": 0.7031023480610252,
                "x": -0.7110244013736278,
                "y": 0.0077485991402295624,
                "z": 0.005598929693374583
            },
            "position": {
                "x": -0.8841497679147869,
                "y": 0.44412534475326537,
                "z": 0.3711530566215515
            }
        },
        "name": "move_to_auspresseinheit_D"
    },
    "id": "LBKPIECE_move_to_auspresseinheit_D_94",
    "joint_names": [
        "shoulder_pan_joint",
        "shoulder_lift_joint",
        "elbow_joint",
        "wrist_1_joint",
        "wrist_2_joint",
        "wrist_3_joint"
    ],
    "metrics": {
        "cart_traj_len": 0.34291291115412037,
        "distance_elbow_joint": 0.6448925001131647,
        "distance_shoulder_lift_joint": 0.12516244151906042,
        "distance_shoulder_pan_joint": 0.1337786636282968,
        "distance_wrist_1_joint": 0.5625384596618632,
        "distance_wrist_2_joint": 1.4337864299489826,
        "distance_wrist_3_joint": 0.026287763760129312,
        "smoothness": 1.9737298371844314e-16,
        "time": 0.35667662,
        "traj_len": 1.710685902973277,
        "weighted_distance": 2.2305485145503114
    },
    "planner": "LBKPIECE",
    "start": {
        "state": {
            "elbow_joint": -1.8275523626775212,
            "shoulder_lift_joint": -2.126789852344167,
            "shoulder_pan_joint": -0.03513704404078235,
            "wrist_1_joint": -2.347782403156801,
            "wrist_2_joint": -1.6058999987535132,
            "wrist_3_joint": -3.0880379163319196
        }
    },
    "waypoints": [
        {
            "positions": [
                -0.03513704404078235,
                -2.126789852344167,
                -1.8275523626775212,
                -2.347782403156801,
                -1.6058999987535132,
                -3.0880379163319196
            ]
        },
        {
            "positions": [
                -0.051859376994319445,
                -2.1424351575340492,
                -1.7469408001633755,
                -2.4180997106145337,
                -1.4266766950098904,
                -3.0847519458619033
            ]
        },
        {
            "positions": [
                -0.06858170994785655,
                -2.158080462723932,
                -1.66632923764923,
                -2.4884170180722665,
                -1.2474533912662675,
                -3.0814659753918874
            ]
        },
        {
            "positions": [
                -0.08530404290139365,
                -2.1737257679138144,
                -1.5857176751350845,
                -2.5587343255299997,
                -1.0682300875226447,
                -3.078180004921871
            ]
        },
        {
            "positions": [
                -0.10202637585493074,
                -2.189371073103697,
                -1.5051061126209389,
                -2.6290516329877325,
                -0.8890067837790219,
                -3.074894034451855
            ]
        },
        {
            "positions": [
                -0.11874870880846786,
                -2.2050163782935797,
                -1.4244945501067932,
                -2.6993689404454653,
                -0.709783480035399,
                -3.071608063981839
            ]
        },
        {
            "positions": [
                -0.13547104176200495,
                -2.220661683483462,
                -1.3438829875926477,
                -2.7696862479031985,
                -0.5305601762917762,
                -3.0683220935118225
            ]
        },
        {
            "positions": [
                -0.15219337471554203,
                -2.236306988673345,
                -1.2632714250785022,
                -2.8400035553609313,
                -0.3513368725481534,
                -3.0650361230418066
            ]
        },
        {
            "positions": [
                -0.16891570766907915,
                -2.2519522938632273,
                -1.1826598625643565,
                -2.910320862818664,
                -0.1721135688045306,
                -3.0617501525717903
            ]
        }
    ]
}