{
    "goal": {
        "global_pose": {
            "orientation": {
                "w": -0.00223480608172531,
                "x": 0.0024358444001904467,
                "y": 0.7094548369677653,
                "z": -0.704743149386269
            },
            "position": {
                "x": 0.6205249238014221,
                "y": -0.6371506643295288,
                "z": 0.19426114857196808
            }
        },
        "name": "move_to_magneteinheit_B"
    },
    "id": "LBKPIECE_move_to_magneteinheit_B_59",
    "joint_names": [
        "shoulder_pan_joint",
        "shoulder_lift_joint",
        "elbow_joint",
        "wrist_1_joint",
        "wrist_2_joint",
        "wrist_3_joint"
    ],
    "metrics": {
        "cart_traj_len": 1.5189292271755948,
        "distance_elbow_joint": 0.9566622152526747,
        "distance_shoulder_lift_joint": 0.7567431370263374,
        "distance_shoulder_pan_joint": 1.6221880084993567,
        "distance_wrist_1_joint": 0.4169491270876242,
        "distance_wrist_2_joint": 1.84907470818396,
        "distance_wrist_3_joint": 0.4302084500915735,
        "smoothness": 0.6231280068377043,
        "time": 0.846000015,
        "traj_len": 2.4559775337208456,
        "weighted_distance": 3.0262627747101303
    },
    "planner": "LBKPIECE",
    "start": {
        "state": {
            "elbow_joint": 2.6216224122426386,
            "shoulder_lift_joint": -1.4174107377796124,
            "shoulder_pan_joint": 0.7066234856936794,
            "wrist_1_joint": 1.9546482284002225,
            "wrist_2_joint": -0.7096286983471962,
            "wrist_3_joint": 0.005740856962016249
        }
    },
    "waypoints": [
        {
            "positions": [
                0.7066234856936794,
                -1.4174107377796124,
                2.6216224122426386,
                1.9546482284002225,
                -0.7096286983471962,
                0.005740856962016249
            ]
        },
        {
            "positions": [
                0.6146559385054433,
                -1.4162375400645026,
                2.5736214177112537,
                1.8973548986745072,
                -0.6262000853066539,
                -0.10446437725267274
            ]
        },
        {
            "positions": [
                0.5226883913172073,
                -1.415064342349393,
                2.525620423179869,
                1.840061568948792,
                -0.5427714722661117,
                -0.21466961146736172
            ]
        },
        {
            "positions": [
                0.41995604030842987,
                -1.3611788608068132,
                2.4641446927377326,
                1.861658888065663,
                -0.6629298638448885,
                -0.19968404134863346
            ]
        },
        {
            "positions": [
                0.3172236892996524,
                -1.3072933792642332,
                2.402668962295597,
                1.883256207182534,
                -0.7830882554236653,
                -0.1846984712299052
            ]
        },
        {
            "positions": [
                0.21449133829087497,
                -1.2534078977216534,
                2.3411932318534605,
                1.904853526299405,
                -0.9032466470024421,
                -0.16971290111117696
            ]
        },
        {
            "positions": [
                0.11175898728209749,
                -1.1995224161790734,
                2.2797175014113247,
                1.9264508454162759,
                -1.023405038581219,
                -0.15472733099244868
            ]
        },
        {
            "positions": [
                0.00902663627332001,
                -1.1456369346364936,
                2.2182417709691884,
                1.9480481645331469,
                -1.1435634301599957,
                -0.13974176087372042
            ]
        },
        {
            "positions": [
                -0.09370571473545741,
                -1.0917514530939139,
                2.1567660405270526,
                1.969645483650018,
                -1.2637218217387725,
                -0.12475619075499218
            ]
        },
        {
            "positions": [
                -0.19643806574423495,
                -1.0378659715513339,
                2.0952903100849163,
                1.991242802766889,
                -1.3838802133175494,
                -0.10977062063626392
            ]
        },
        {
            "positions": [
                -0.29917041675301237,
                -0.9839804900087541,
                2.0338145796427805,
                2.0128401218837597,
                -1.5040386048963261,
                -0.09478505051753566
            ]
        },
        {
            "positions": [
                -0.4019027677617899,
                -0.9300950084661741,
                1.9723388492006442,
                2.0344374410006307,
                -1.624196996475103,
                -0.07979948039880738
            ]
        },
        {
            "positions": [
                -0.5046351187705673,
                -0.8762095269235943,
                1.9108631187585081,
                2.0560347601175017,
                -1.7443553880538798,
                -0.06481391028007913
            ]
        },
        {
            "positions": [
                -0.6073674697793447,
                -0.8223240453810144,
                1.849387388316372,
                2.0776320792343728,
                -1.8645137796326567,
                -0.049828340161350904
            ]
        },
        {
            "positions": [
                -0.7100998207881222,
                -0.7684385638384347,
                1.7879116578742362,
                2.099229398351244,
                -1.9846721712114335,
                -0.03484277004262265
            ]
        },
        {
            "positions": [
                -0.8128321717968998,
                -0.7145530822958548,
                1.7264359274321,
                2.120826717468115,
                -2.1048305627902106,
                -0.01985719992389437
            ]
        },
        {
            "positions": [
                -0.9155645228056772,
                -0.6606676007532749,
                1.664960196989964,
                2.142424036584986,
                -2.224988954368987,
                -0.004871629805166105
            ]
        }
    ]
}