{
    "goal": {
        "global_pose": {
            "orientation": {
                "w": 0.7031023502349854,
                "x": -0.7110244035720825,
                "y": 0.007748599164187908,
                "z": 0.005598929710686207
            },
            "position": {
                "x": 0.11585023208521307,
                "y": 0.44412534475326537,
                "z": 0.3711530566215515
            }
        },
        "name": "move_to_auspresseinheit_A"
    },
    "id": "LBKPIECE_move_to_auspresseinheit_A_136",
    "joint_names": [
        "shoulder_pan_joint",
        "shoulder_lift_joint",
        "elbow_joint",
        "wrist_1_joint",
        "wrist_2_joint",
        "wrist_3_joint"
    ],
    "metrics": {
        "cart_traj_len": 2.138424548669866,
        "distance_elbow_joint": 3.370845521215753,
        "distance_shoulder_lift_joint": 1.0579374521474914,
        "distance_shoulder_pan_joint": 2.147349867918377,
        "distance_wrist_1_joint": 1.3926620633071858,
        "distance_wrist_2_joint": 2.0066686272222087,
        "distance_wrist_3_joint": 3.3955645333226854,
        "smoothness": 1.4158356786656396,
        "time": 0.710789394,
        "traj_len": 3.6566416375047885,
        "weighted_distance": 4.854017699010631
    },
    "planner": "LBKPIECE",
    "start": {
        "state": {
            "elbow_joint": 2.4225746658250005,
            "shoulder_lift_joint": -1.3736534386056498,
            "shoulder_pan_joint": -0.3378633547517467,
            "wrist_1_joint": -1.0288598680537169,
            "wrist_2_joint": 1.233022673432363,
            "wrist_3_joint": -3.0940220416140027
        }
    },
    "waypoints": [
        {
            "positions": [
                -0.3378633547517467,
                -1.3736534386056498,
                2.4225746658250005,
                -1.0288598680537169,
                1.233022673432363,
                -3.0940220416140027
            ]
        },
        {
            "positions": [
                -0.3178940149052168,
                -1.3552449990127275,
                2.33417117293532,
                -0.9671228317728927,
                1.1973786620185358,
                -3.0355807619514947
            ]
        },
        {
            "positions": [
                -0.29792467505868686,
                -1.336836559419805,
                2.2457676800456396,
                -0.9053857954920687,
                1.1617346506047084,
                -2.977139482288987
            ]
        },
        {
            "positions": [
                -0.27795533521215693,
                -1.3184281198268828,
                2.157364187155959,
                -0.8436487592112445,
                1.1260906391908811,
                -2.918698202626479
            ]
        },
        {
            "positions": [
                -0.216862747195399,
                -1.3074965041266964,
                2.058507046931468,
                -0.7999187009135496,
                1.0513627481617558,
                -2.8205126770241873
            ]
        },
        {
            "positions": [
                -0.1557701591786411,
                -1.29656488842651,
                1.959649906706977,
                -0.7561886426158547,
                0.9766348571326307,
                -2.722327151421895
            ]
        },
        {
            "positions": [
                -0.09467757116188316,
                -1.2856332727263236,
                1.860792766482486,
                -0.7124585843181598,
                0.9019069661035053,
                -2.624141625819603
            ]
        },
        {
            "positions": [
                -0.03358498314512526,
                -1.2747016570261371,
                1.761935626257995,
                -0.668728526020465,
                0.82717907507438,
                -2.5259561002173108
            ]
        },
        {
            "positions": [
                0.027507604871632674,
                -1.2637700413259507,
                1.6630784860335042,
                -0.62499846772277,
                0.7524511840452548,
                -2.427770574615019
            ]
        },
        {
            "positions": [
                0.0886001928883906,
                -1.252838425625764,
                1.564221345809013,
                -0.5812684094250751,
                0.6777232930161294,
                -2.3295850490127266
            ]
        },
        {
            "positions": [
                0.14969278090514854,
                -1.2419068099255777,
                1.465364205584522,
                -0.5375383511273801,
                0.6029954019870042,
                -2.2313995234104347
            ]
        },
        {
            "positions": [
                0.2107853689219064,
                -1.2309751942253913,
                1.366507065360031,
                -0.4938082928296853,
                0.5282675109578789,
                -2.1332139978081424
            ]
        },
        {
            "positions": [
                0.2718779569386644,
                -1.2200435785252048,
                1.2676499251355402,
                -0.45007823453199036,
                0.4535396199287537,
                -2.0350284722058505
            ]
        },
        {
            "positions": [
                0.3329705449554223,
                -1.2091119628250184,
                1.168792784911049,
                -0.4063481762342954,
                0.37881172889962833,
                -1.9368429466035582
            ]
        },
        {
            "positions": [
                0.39406313297218015,
                -1.198180347124832,
                1.0699356446865582,
                -0.3626181179366006,
                0.3040838378705032,
                -1.8386574210012663
            ]
        },
        {
            "positions": [
                0.45515572098893814,
                -1.1872487314246456,
                0.9710785044620672,
                -0.3188880596389056,
                0.2293559468413778,
                -1.7404718953989742
            ]
        },
        {
            "positions": [
                0.49749468589989576,
                -1.2475717762334217,
                1.0213514308859009,
                -0.31059061759563833,
                0.1765596253167266,
                -1.7194847805250508
            ]
        },
        {
            "positions": [
                0.5398336508108534,
                -1.307894821042198,
                1.0716243573097346,
                -0.302293175552371,
                0.12376330379207534,
                -1.6984976656511273
            ]
        },
        {
            "positions": [
                0.5402000441004824,
                -1.3705424514196105,
                1.2066793673191007,
                -0.3074314941645532,
                0.1814992540134558,
                -1.810824940434812
            ]
        },
        {
            "positions": [
                0.5405664373901113,
                -1.4331900817970231,
                1.341734377328467,
                -0.31256981277673535,
                0.2392352042348362,
                -1.9231522152184966
            ]
        },
        {
            "positions": [
                0.5409328306797404,
                -1.4958377121744355,
                1.476789387337833,
                -0.31770813138891757,
                0.29697115445621663,
                -2.035479490002181
            ]
        },
        {
            "positions": [
                0.5412992239693694,
                -1.5584853425518481,
                1.6118443973471992,
                -0.32284645000109974,
                0.3547071046775971,
                -2.147806764785866
            ]
        },
        {
            "positions": [
                0.5416656172589983,
                -1.6211329729292607,
                1.7468994073565653,
                -0.3279847686132819,
                0.41244305489897753,
                -2.2601340395695506
            ]
        },
        {
            "positions": [
                0.5420320105486274,
                -1.6837806033066731,
                1.8819544173659315,
                -0.33312308722546413,
                0.47017900512035793,
                -2.3724613143532354
            ]
        },
        {
            "positions": [
                0.5423984038382563,
                -1.7464282336840857,
                2.0170094273752976,
                -0.3382614058376463,
                0.5279149553417384,
                -2.4847885891369197
            ]
        },
        {
            "positions": [
                0.5427647971278853,
                -1.8090758640614983,
                2.152064437384664,
                -0.34339972444982847,
                0.5856509055631188,
                -2.5971158639206045
            ]
        },
        {
            "positions": [
                0.4323033150866715,
                -1.84378678581577,
                2.249639661766058,
                -0.2919424720918252,
                0.553529647359322,
                -2.5408044158767953
            ]
        },
        {
            "positions": [
                0.32184183304545777,
                -1.8784977075700413,
                2.347214886147453,
                -0.24048521973382198,
                0.521408389155525,
                -2.484492967832986
            ]
        },
        {
            "positions": [
                0.21138035100424407,
                -1.913208629324313,
                2.444790110528847,
                -0.18902796737581873,
                0.48928713095172816,
                -2.4281815197891774
            ]
        },
        {
            "positions": [
                0.10091886896303032,
                -1.9479195510785843,
                2.542365334910242,
                -0.13757071501781548,
                0.4571658727479313,
                -2.3718700717453682
            ]
        },
        {
            "positions": [
                -0.009542613078183396,
                -1.9826304728328559,
                2.6399405592916363,
                -0.08611346265981223,
                0.4250446145441344,
                -2.315558623701559
            ]
        },
        {
            "positions": [
                0.09251657346934171,
                -1.9717517580388164,
                2.6041566585740292,
                -0.13864239981957877,
                0.4643182380858335,
                -2.432682154968886
            ]
        },
        {
            "positions": [
                0.19457576001686683,
                -1.9608730432447767,
                2.5683727578564217,
                -0.1911713369793453,
                0.5035918616275326,
                -2.5498056862362124
            ]
        },
        {
            "positions": [
                0.29663494656439193,
                -1.9499943284507373,
                2.5325888571388147,
                -0.24370027413911183,
                0.5428654851692317,
                -2.6669292175035393
            ]
        },
        {
            "positions": [
                0.39869413311191704,
                -1.9391156136566976,
                2.4968049564212076,
                -0.29622921129887836,
                0.5821391087109309,
                -2.784052748770866
            ]
        },
        {
            "positions": [
                0.5007533196594421,
                -1.9282368988626581,
                2.4610210557036005,
                -0.3487581484586449,
                0.6214127322526299,
                -2.901176280038193
            ]
        },
        {
            "positions": [
                0.6028125062069672,
                -1.9173581840686185,
                2.425237154985993,
                -0.4012870856184114,
                0.660686355794329,
                -3.0182998113055195
            ]
        },
        {
            "positions": [
                0.7048716927544924,
                -1.906479469274579,
                2.389453254268386,
                -0.45381602277817795,
                0.6999599793360282,
                -3.1354233425728464
            ]
        }
    ]
}