{
    "goal": {
        "global_pose": {
            "orientation": {
                "w": 0.7047431468963623,
                "x": -0.7094548344612122,
                "y": 0.0024358443915843964,
                "z": -0.0022348060738295317
            },
            "position": {
                "x": 0.6094750761985779,
                "y": 0.3671506643295288,
                "z": 0.19426114857196808
            }
        },
        "name": "move_to_magneteinheit_A"
    },
    "id": "LBKPIECE_move_to_magneteinheit_A_139",
    "joint_names": [
        "shoulder_pan_joint",
        "shoulder_lift_joint",
        "elbow_joint",
        "wrist_1_joint",
        "wrist_2_joint",
        "wrist_3_joint"
    ],
    "metrics": {
        "cart_traj_len": 3.6591530029387846,
        "distance_elbow_joint": 5.12511206044632,
        "distance_shoulder_lift_joint": 1.0552171160786534,
        "distance_shoulder_pan_joint": 4.732953081673625,
        "distance_wrist_1_joint": 2.333845666341366,
        "distance_wrist_2_joint": 1.695543883800917,
        "distance_wrist_3_joint": 3.5727130517569083,
        "smoothness": 0.3912620845512426,
        "time": 0.5968687420000001,
        "traj_len": 4.302950715508811,
        "weighted_distance": 5.44887148992834
    },
    "planner": "LBKPIECE",
    "start": {
        "state": {
            "elbow_joint": -1.9196185241190666,
            "shoulder_lift_joint": -1.2443396400964142,
            "shoulder_pan_joint": 2.6996025414629847,
            "wrist_1_joint": -1.5485510000780065,
            "wrist_2_joint": -1.5709468930060704,
            "wrist_3_joint": 0.4420197071253992
        }
    },
    "waypoints": [
        {
            "positions": [
                2.6996025414629847,
                -1.2443396400964142,
                -1.9196185241190666,
                -1.5485510000780065,
                -1.5709468930060704,
                0.4420197071253992
            ]
        },
        {
            "positions": [
                2.598063070257659,
                -1.2576326391497819,
                -1.7941861500385983,
                -1.5064233760228836,
                -1.525676833901721,
                0.37465903181338917
            ]
        },
        {
            "positions": [
                2.496523599052333,
                -1.2709256382031497,
                -1.66875377595813,
                -1.4642957519677606,
                -1.480406774797372,
                0.30729835650137916
            ]
        },
        {
            "positions": [
                2.3949841278470068,
                -1.2842186372565174,
                -1.5433214018776615,
                -1.4221681279126377,
                -1.4351367156930226,
                0.2399376811893691
            ]
        },
        {
            "positions": [
                2.293444656641681,
                -1.2975116363098853,
                -1.417889027797193,
                -1.3800405038575145,
                -1.3898666565886733,
                0.17257700587735908
            ]
        },
        {
            "positions": [
                2.1919051854363554,
                -1.310804635363253,
                -1.2924566537167246,
                -1.3379128798023916,
                -1.344596597484324,
                0.10521633056534901
            ]
        },
        {
            "positions": [
                2.0903657142310292,
                -1.3240976344166209,
                -1.1670242796362562,
                -1.2957852557472687,
                -1.2993265383799748,
                0.037855655253339004
            ]
        },
        {
            "positions": [
                1.9888262430257033,
                -1.3373906334699885,
                -1.0415919055557876,
                -1.2536576316921457,
                -1.2540564792756255,
                -0.029505020058671005
            ]
        },
        {
            "positions": [
                1.8872867718203774,
                -1.3506836325233564,
                -0.9161595314753193,
                -1.2115300076370228,
                -1.2087864201712764,
                -0.09686569537068102
            ]
        },
        {
            "positions": [
                1.7857473006150515,
                -1.363976631576724,
                -0.7907271573948509,
                -1.1694023835818999,
                -1.163516361066927,
                -0.16422637068269108
            ]
        },
        {
            "positions": [
                1.6842078294097256,
                -1.3772696306300918,
                -0.6652947833143825,
                -1.127274759526777,
                -1.1182463019625777,
                -0.23158704599470115
            ]
        },
        {
            "positions": [
                1.5826683582043997,
                -1.3905626296834597,
                -0.5398624092339139,
                -1.0851471354716538,
                -1.0729762428582283,
                -0.2989477213067112
            ]
        },
        {
            "positions": [
                1.4811288869990737,
                -1.4038556287368273,
                -0.4144300351534458,
                -1.043019511416531,
                -1.0277061837538792,
                -0.36630839661872117
            ]
        },
        {
            "positions": [
                1.3795894157937478,
                -1.4171486277901952,
                -0.2889976610729772,
                -1.0008918873614079,
                -0.9824361246495299,
                -0.43366907193073123
            ]
        },
        {
            "positions": [
                1.278049944588422,
                -1.430441626843563,
                -0.16356528699250883,
                -0.958764263306285,
                -0.9371660655451806,
                -0.5010297472427412
            ]
        },
        {
            "positions": [
                1.176510473383096,
                -1.4437346258969308,
                -0.03813291291204024,
                -0.916636639251162,
                -0.8918960064408313,
                -0.5683904225547513
            ]
        },
        {
            "positions": [
                1.07497100217777,
                -1.4570276249502985,
                0.08729946116842813,
                -0.8745090151960391,
                -0.8466259473364821,
                -0.6357510978667612
            ]
        },
        {
            "positions": [
                0.9734315309724442,
                -1.4703206240036661,
                0.2127318352488965,
                -0.832381391140916,
                -0.8013558882321329,
                -0.7031117731787714
            ]
        },
        {
            "positions": [
                0.8718920597671183,
                -1.483613623057034,
                0.33816420932936486,
                -0.7902537670857931,
                -0.7560858291277835,
                -0.7704724484907813
            ]
        },
        {
            "positions": [
                0.7703525885617923,
                -1.496906622110402,
                0.46359658340983323,
                -0.7481261430306702,
                -0.7108157700234342,
                -0.8378331238027913
            ]
        },
        {
            "positions": [
                0.6688131173564664,
                -1.5101996211637696,
                0.5890289574903016,
                -0.7059985189755471,
                -0.665545710919085,
                -0.9051937991148015
            ]
        },
        {
            "positions": [
                0.5672736461511403,
                -1.5234926202171373,
                0.7144613315707704,
                -0.6638708949204242,
                -0.6202756518147357,
                -0.9725544744268114
            ]
        },
        {
            "positions": [
                0.4657341749458146,
                -1.5367856192705052,
                0.8398937056512388,
                -0.6217432708653011,
                -0.5750055927103864,
                -1.0399151497388215
            ]
        },
        {
            "positions": [
                0.3641947037404889,
                -1.5500786183238728,
                0.9653260797317067,
                -0.5796156468101783,
                -0.5297355336060372,
                -1.1072758250508312
            ]
        },
        {
            "positions": [
                0.26265523253516276,
                -1.5633716173772405,
                1.090758453812175,
                -0.5374880227550554,
                -0.4844654745016881,
                -1.1746365003628414
            ]
        },
        {
            "positions": [
                0.16111576132983707,
                -1.5766646164306084,
                1.2161908278926439,
                -0.4953603986999324,
                -0.43919541539733875,
                -1.2419971756748516
            ]
        },
        {
            "positions": [
                0.05957629012451093,
                -1.5899576154839763,
                1.3416232019731122,
                -0.45323277464480927,
                -0.3939253562929894,
                -1.3093578509868617
            ]
        },
        {
            "positions": [
                -0.04196318108081476,
                -1.603250614537344,
                1.4670555760535806,
                -0.41110515058968633,
                -0.3486552971886401,
                -1.3767185262988715
            ]
        },
        {
            "positions": [
                -0.1435026522861409,
                -1.6165436135907116,
                1.592487950134049,
                -0.3689775265345634,
                -0.30338523808429074,
                -1.4440792016108817
            ]
        },
        {
            "positions": [
                -0.24504212349146703,
                -1.6298366126440795,
                1.7179203242145173,
                -0.32684990247944046,
                -0.25811517897994163,
                -1.5114398769228918
            ]
        },
        {
            "positions": [
                -0.3465815946967927,
                -1.6431296116974474,
                1.8433526982949862,
                -0.2847222784243175,
                -0.2128451198755923,
                -1.5788005522349016
            ]
        },
        {
            "positions": [
                -0.44812106590211886,
                -1.656422610750815,
                1.9687850723754545,
                -0.24259465436919436,
                -0.16757506077124296,
                -1.6461612275469117
            ]
        },
        {
            "positions": [
                -0.5496605371074446,
                -1.6697156098041828,
                2.094217446455923,
                -0.20046703031407165,
                -0.12230500166689384,
                -1.7135219028589215
            ]
        },
        {
            "positions": [
                -0.6512000083127703,
                -1.6830086088575507,
                2.219649820536391,
                -0.1583394062589487,
                -0.0770349425625445,
                -1.7808825781709317
            ]
        },
        {
            "positions": [
                -0.7527394795180964,
                -1.6963016079109183,
                2.3450821946168596,
                -0.11621178220382555,
                -0.03176488345819539,
                -1.8482432534829418
            ]
        },
        {
            "positions": [
                -0.8542789507234221,
                -1.709594606964286,
                2.4705145686973276,
                -0.07408415814870262,
                0.013505175646153944,
                -1.9156039287949516
            ]
        },
        {
            "positions": [
                -0.955818421928748,
                -1.722887606017654,
                2.595946942777796,
                -0.03195653409357968,
                0.05877523475050328,
                -1.9829646041069617
            ]
        },
        {
            "positions": [
                -0.857860956630394,
                -1.6704631378215253,
                2.5405336160914818,
                -0.10625209776239229,
                0.06475903075453449,
                -2.087303580518284
            ]
        },
        {
            "positions": [
                -0.75990349133204,
                -1.6180386696253968,
                2.485120289405167,
                -0.1805476614312049,
                0.0707428267585657,
                -2.1916425569296067
            ]
        },
        {
            "positions": [
                -0.661946026033686,
                -1.5656142014292684,
                2.429706962718853,
                -0.25484322510001745,
                0.07672662276259691,
                -2.295981533340929
            ]
        },
        {
            "positions": [
                -0.5639885607353321,
                -1.5131897332331399,
                2.3742936360325384,
                -0.3291387887688301,
                0.08271041876662813,
                -2.4003205097522518
            ]
        },
        {
            "positions": [
                -0.4660310954369781,
                -1.4607652650370113,
                2.3188803093462242,
                -0.4034343524376427,
                0.08869421477065934,
                -2.504659486163574
            ]
        },
        {
            "positions": [
                -0.36807363013862415,
                -1.4083407968408828,
                2.26346698265991,
                -0.47772991610645527,
                0.09467801077469054,
                -2.6089984625748963
            ]
        },
        {
            "positions": [
                -0.2701161648402701,
                -1.3559163286447542,
                2.2080536559735955,
                -0.552025479775268,
                0.10066180677872176,
                -2.713337438986219
            ]
        },
        {
            "positions": [
                -0.1721586995419161,
                -1.3034918604486259,
                2.1526403292872813,
                -0.6263210434440806,
                0.10664560278275298,
                -2.8176764153975418
            ]
        },
        {
            "positions": [
                -0.07420123424356218,
                -1.251067392252497,
                2.0972270026009667,
                -0.7006166071128932,
                0.11262939878678419,
                -2.922015391808864
            ]
        },
        {
            "positions": [
                0.023756231054791743,
                -1.1986429240563687,
                2.0418136759146526,
                -0.7749121707817057,
                0.11861319479081539,
                -3.0263543682201863
            ]
        },
        {
            "positions": [
                0.1217136963531457,
                -1.1462184558602402,
                1.9864003492283382,
                -0.8492077344505183,
                0.12459699079484661,
                -3.130693344631509
            ]
        }
    ]
}