{
    "goal": {
        "global_pose": {
            "orientation": {
                "w": 0.005598929693374612,
                "x": 0.007748599140229565,
                "y": 0.7110244013736278,
                "z": -0.7031023480610252
            },
            "position": {
                "x": -0.8858502320852131,
                "y": -0.7141253447532654,
                "z": 0.3711530566215515
            }
        },
        "name": "move_to_auspresseinheit_C"
    },
    "id": "LBKPIECE_move_to_auspresseinheit_C_102",
    "joint_names": [
        "shoulder_pan_joint",
        "shoulder_lift_joint",
        "elbow_joint",
        "wrist_1_joint",
        "wrist_2_joint",
        "wrist_3_joint"
    ],
    "metrics": {
        "cart_traj_len": 0.49361305518278753,
        "distance_elbow_joint": 1.0122732941908514,
        "distance_shoulder_lift_joint": 0.331323086806369,
        "distance_shoulder_pan_joint": 0.2556014936329931,
        "distance_wrist_1_joint": 0.695984361601423,
        "distance_wrist_2_joint": 1.3189678161955531,
        "distance_wrist_3_joint": 0.06410812126167675,
        "smoothness": 3.2297397335745243e-16,
        "time": 0.755548935,
        "traj_len": 1.9178785607250701,
        "weighted_distance": 2.4127632693675514
    },
    "planner": "LBKPIECE",
    "start": {
        "state": {
            "elbow_joint": 1.7527959577737207,
            "shoulder_lift_joint": -0.9740617694225068,
            "shoulder_pan_joint": -2.967991417825858,
            "wrist_1_joint": -0.759517768980727,
            "wrist_2_joint": 1.7443932448377408,
            "wrist_3_joint": -3.0840537646736568
        }
    },
    "waypoints": [
        {
            "positions": [
                -2.967991417825858,
                -0.9740617694225068,
                1.7527959577737207,
                -0.759517768980727,
                1.7443932448377408,
                -3.0840537646736568
            ]
        },
        {
            "positions": [
                -2.942431268462559,
                -0.9409294607418699,
                1.6515686283546356,
                -0.6899193328205847,
                1.6124964632181855,
                -3.0904645767998247
            ]
        },
        {
            "positions": [
                -2.9168711190992593,
                -0.907797152061233,
                1.5503412989355503,
                -0.6203208966604423,
                1.4805996815986302,
                -3.096875388925992
            ]
        },
        {
            "positions": [
                -2.89131096973596,
                -0.874664843380596,
                1.4491139695164652,
                -0.5507224605003,
                1.3487028999790749,
                -3.1032862010521596
            ]
        },
        {
            "positions": [
                -2.8657508203726607,
                -0.8415325346999591,
                1.3478866400973801,
                -0.4811240243401578,
                1.2168061183595196,
                -3.1096970131783275
            ]
        },
        {
            "positions": [
                -2.8401906710093616,
                -0.8084002260193223,
                1.2466593106782948,
                -0.4115255881800155,
                1.0849093367399643,
                -3.1161078253044954
            ]
        },
        {
            "positions": [
                -2.814630521646062,
                -0.7752679173386854,
                1.1454319812592098,
                -0.3419271520198732,
                0.9530125551204089,
                -3.122518637430663
            ]
        },
        {
            "positions": [
                -2.7890703722827626,
                -0.7421356086580485,
                1.0442046518401247,
                -0.27232871585973095,
                0.8211157735008537,
                -3.1289294495568303
            ]
        },
        {
            "positions": [
                -2.7635102229194635,
                -0.7090032999774116,
                0.9429773224210395,
                -0.20273027969958857,
                0.6892189918812983,
                -3.135340261682998
            ]
        },
        {
            "positions": [
                -2.7379500735561644,
                -0.6758709912967746,
                0.8417499930019543,
                -0.1331318435394463,
                0.557322210261743,
                -3.141751073809166
            ]
        },
        {
            "positions": [
                -2.712389924192865,
                -0.6427386826161378,
                0.7405226635828692,
                -0.06353340737930405,
                0.4254254286421877,
                -3.1481618859353335
            ]
        }
    ]
}