{
    "goal": {
        "global_pose": {
            "orientation": {
                "w": 0.7047431468963623,
                "x": -0.7094548344612122,
                "y": 0.0024358443915843964,
                "z": -0.0022348060738295317
            },
            "position": {
                "x": 0.6094750761985779,
                "y": 0.3671506643295288,
                "z": 0.19426114857196808
            }
        },
        "name": "move_to_magneteinheit_A"
    },
    "id": "LBKPIECE_move_to_magneteinheit_A_101",
    "joint_names": [
        "shoulder_pan_joint",
        "shoulder_lift_joint",
        "elbow_joint",
        "wrist_1_joint",
        "wrist_2_joint",
        "wrist_3_joint"
    ],
    "metrics": {
        "cart_traj_len": 3.3414884918738146,
        "distance_elbow_joint": 3.8765865324396653,
        "distance_shoulder_lift_joint": 0.6467766431658917,
        "distance_shoulder_pan_joint": 3.1069325200922,
        "distance_wrist_1_joint": 0.8406862954369911,
        "distance_wrist_2_joint": 1.7073652075625445,
        "distance_wrist_3_joint": 3.69801757482657,
        "smoothness": 0.17115758918312135,
        "time": 0.342824516,
        "traj_len": 3.7250992971361,
        "weighted_distance": 4.8806199837906385
    },
    "planner": "LBKPIECE",
    "start": {
        "state": {
            "elbow_joint": -1.9196185241190666,
            "shoulder_lift_joint": -1.2443396400964142,
            "shoulder_pan_joint": 2.6996025414629847,
            "wrist_1_joint": -1.5485510000780065,
            "wrist_2_joint": -1.5709468930060704,
            "wrist_3_joint": 0.4420197071253992
        }
    },
    "waypoints": [
        {
            "positions": [
                2.6996025414629847,
                -1.2443396400964142,
                -1.9196185241190666,
                -1.5485510000780065,
                -1.5709468930060704,
                0.4420197071253992
            ]
        },
        {
            "positions": [
                2.610798830387802,
                -1.252685218212101,
                -1.8077645123373707,
                -1.526227618538234,
                -1.5255437858288143,
                0.3345916736473884
            ]
        },
        {
            "positions": [
                2.5219951193126198,
                -1.2610307963277878,
                -1.6959105005556747,
                -1.5039042369984614,
                -1.480140678651558,
                0.22716364016937762
            ]
        },
        {
            "positions": [
                2.433191408237437,
                -1.2693763744434747,
                -1.584056488773979,
                -1.481580855458689,
                -1.434737571474302,
                0.11973560669136685
            ]
        },
        {
            "positions": [
                2.3443876971622544,
                -1.2777219525591614,
                -1.472202476992283,
                -1.4592574739189166,
                -1.389334464297046,
                0.012307573213356071
            ]
        },
        {
            "positions": [
                2.255583986087072,
                -1.2860675306748484,
                -1.360348465210587,
                -1.436934092379144,
                -1.34393135711979,
                -0.0951204602646547
            ]
        },
        {
            "positions": [
                2.1667802750118894,
                -1.2944131087905353,
                -1.248494453428891,
                -1.4146107108393715,
                -1.298528249942534,
                -0.20254849374266548
            ]
        },
        {
            "positions": [
                2.0779765639367067,
                -1.302758686906222,
                -1.1366404416471951,
                -1.392287329299599,
                -1.2531251427652776,
                -0.30997652722067626
            ]
        },
        {
            "positions": [
                1.9891728528615242,
                -1.311104265021909,
                -1.0247864298654994,
                -1.3699639477598264,
                -1.2077220355880216,
                -0.41740456069868703
            ]
        },
        {
            "positions": [
                1.9003691417863418,
                -1.3194498431375958,
                -0.9129324180838034,
                -1.3476405662200541,
                -1.1623189284107656,
                -0.5248325941766978
            ]
        },
        {
            "positions": [
                1.811565430711159,
                -1.3277954212532825,
                -0.8010784063021075,
                -1.3253171846802816,
                -1.1169158212335093,
                -0.6322606276547086
            ]
        },
        {
            "positions": [
                1.7227617196359766,
                -1.3361409993689695,
                -0.6892243945204115,
                -1.302993803140509,
                -1.0715127140562533,
                -0.7396886611327195
            ]
        },
        {
            "positions": [
                1.633958008560794,
                -1.3444865774846564,
                -0.5773703827387155,
                -1.2806704216007365,
                -1.0261096068789972,
                -0.8471166946107301
            ]
        },
        {
            "positions": [
                1.5451542974856114,
                -1.352832155600343,
                -0.4655163709570196,
                -1.258347040060964,
                -0.9807064997017412,
                -0.9545447280887408
            ]
        },
        {
            "positions": [
                1.456350586410429,
                -1.36117773371603,
                -0.35366235917532385,
                -1.2360236585211917,
                -0.935303392524485,
                -1.0619727615667518
            ]
        },
        {
            "positions": [
                1.3675468753352462,
                -1.3695233118317167,
                -0.2418083473936279,
                -1.213700276981419,
                -0.8899002853472289,
                -1.1694007950447625
            ]
        },
        {
            "positions": [
                1.2787431642600637,
                -1.3778688899474036,
                -0.12995433561193193,
                -1.1913768954416466,
                -0.8444971781699728,
                -1.2768288285227731
            ]
        },
        {
            "positions": [
                1.1899394531848813,
                -1.3862144680630906,
                -0.018100323830235965,
                -1.169053513901874,
                -0.7990940709927168,
                -1.3842568620007838
            ]
        },
        {
            "positions": [
                1.1011357421096986,
                -1.3945600461787773,
                0.09375368795145977,
                -1.1467301323621015,
                -0.7536909638154606,
                -1.491684895478795
            ]
        },
        {
            "positions": [
                1.012332031034516,
                -1.4029056242944642,
                0.20560769973315596,
                -1.124406750822329,
                -0.7082878566382045,
                -1.5991129289568056
            ]
        },
        {
            "positions": [
                0.9235283199593334,
                -1.411251202410151,
                0.3174617115148517,
                -1.1020833692825565,
                -0.6628847494609484,
                -1.7065409624348162
            ]
        },
        {
            "positions": [
                0.8347246088841509,
                -1.4195967805258378,
                0.4293157232965479,
                -1.0797599877427841,
                -0.6174816422836924,
                -1.813968995912827
            ]
        },
        {
            "positions": [
                0.7459208978089684,
                -1.4279423586415247,
                0.5411697350782436,
                -1.0574366062030116,
                -0.5720785351064362,
                -1.921397029390838
            ]
        },
        {
            "positions": [
                0.6571171867337857,
                -1.4362879367572114,
                0.6530237468599394,
                -1.035113224663239,
                -0.5266754279291801,
                -2.0288250628688487
            ]
        },
        {
            "positions": [
                0.5683134756586035,
                -1.4446335148728984,
                0.7648777586416355,
                -1.0127898431234665,
                -0.48127232075192405,
                -2.1362530963468593
            ]
        },
        {
            "positions": [
                0.47950976458342076,
                -1.4529790929885853,
                0.8767317704233313,
                -0.9904664615836941,
                -0.435869213574668,
                -2.24368112982487
            ]
        },
        {
            "positions": [
                0.39070605350823806,
                -1.461324671104272,
                0.9885857822050275,
                -0.9681430800439216,
                -0.39046610639741197,
                -2.3511091633028807
            ]
        },
        {
            "positions": [
                0.30190234243305536,
                -1.469670249219959,
                1.1004397939867232,
                -0.945819698504149,
                -0.3450629992201557,
                -2.4585371967808918
            ]
        },
        {
            "positions": [
                0.2130986313578731,
                -1.4780158273356458,
                1.212293805768419,
                -0.9234963169643766,
                -0.29965989204289967,
                -2.5659652302589024
            ]
        },
        {
            "positions": [
                0.1242949202826904,
                -1.4863614054513326,
                1.3241478175501151,
                -0.9011729354246041,
                -0.2542567848656436,
                -2.673393263736913
            ]
        },
        {
            "positions": [
                0.0354912092075077,
                -1.4947069835670195,
                1.4360018293318109,
                -0.8788495538848315,
                -0.20885367768838736,
                -2.780821297214924
            ]
        },
        {
            "positions": [
                -0.053312501867674555,
                -1.5030525616827064,
                1.547855841113507,
                -0.8565261723450591,
                -0.16345057051113132,
                -2.888249330692935
            ]
        },
        {
            "positions": [
                -0.14211621294285712,
                -1.511398139798393,
                1.6597098528952028,
                -0.8342027908052866,
                -0.1180474633338752,
                -2.9956773641709455
            ]
        },
        {
            "positions": [
                -0.07581277152126767,
                -1.4164686039324148,
                1.7340243917515517,
                -0.8026182692642188,
                -0.05443101886128779,
                -3.060757490053502
            ]
        },
        {
            "positions": [
                -0.00950933009967822,
                -1.3215390680664367,
                1.8083389306079005,
                -0.771033747723151,
                0.009185425611299619,
                -3.1258376159360584
            ]
        },
        {
            "positions": [
                0.05679411132191123,
                -1.2266095322004587,
                1.8826534694642496,
                -0.7394492261820832,
                0.07280187008388703,
                -3.1909177418186143
            ]
        },
        {
            "positions": [
                0.12309755274350066,
                -1.1316799963344804,
                1.9569680083205985,
                -0.7078647046410154,
                0.13641831455647446,
                -3.2559978677011707
            ]
        }
    ]
}