{
    "goal": {
        "global_pose": {
            "orientation": {
                "w": -0.00223480608172531,
                "x": 0.0024358444001904467,
                "y": 0.7094548369677653,
                "z": -0.704743149386269
            },
            "position": {
                "x": 0.6205249238014221,
                "y": -0.6371506643295288,
                "z": 0.19426114857196808
            }
        },
        "name": "move_to_magneteinheit_B"
    },
    "id": "LBKPIECE_move_to_magneteinheit_B_116",
    "joint_names": [
        "shoulder_pan_joint",
        "shoulder_lift_joint",
        "elbow_joint",
        "wrist_1_joint",
        "wrist_2_joint",
        "wrist_3_joint"
    ],
    "metrics": {
        "cart_traj_len": 3.731330062715334,
        "distance_elbow_joint": 4.320485545431759,
        "distance_shoulder_lift_joint": 1.0576854483969007,
        "distance_shoulder_pan_joint": 3.4765978041109,
        "distance_wrist_1_joint": 4.982535659776333,
        "distance_wrist_2_joint": 1.4784392732046054,
        "distance_wrist_3_joint": 3.1915127856942416,
        "smoothness": 0.6837264635437426,
        "time": 0.467149927,
        "traj_len": 4.30200610373983,
        "weighted_distance": 5.599219322457746
    },
    "planner": "LBKPIECE",
    "start": {
        "state": {
            "elbow_joint": 2.6216224122426386,
            "shoulder_lift_joint": -1.4174107377796124,
            "shoulder_pan_joint": 0.7066234856936794,
            "wrist_1_joint": 1.9546482284002225,
            "wrist_2_joint": -0.7096286983471962,
            "wrist_3_joint": 0.005740856962016249
        }
    },
    "waypoints": [
        {
            "positions": [
                0.7066234856936794,
                -1.4174107377796124,
                2.6216224122426386,
                1.9546482284002225,
                -0.7096286983471962,
                0.005740856962016249
            ]
        },
        {
            "positions": [
                0.6190330248030098,
                -1.4240141708933562,
                2.628270020389389,
                1.9786877312255393,
                -0.6801510809970208,
                0.08056002298347946
            ]
        },
        {
            "positions": [
                0.5314425639123402,
                -1.4306176040071001,
                2.6349176285361393,
                2.002727234050856,
                -0.6506734636468455,
                0.15537918900494269
            ]
        },
        {
            "positions": [
                0.5132455669114868,
                -1.4540362779369929,
                2.4929179082636126,
                1.8614264858582061,
                -0.6263998447973855,
                0.1659947217569357
            ]
        },
        {
            "positions": [
                0.4950485699106334,
                -1.4774549518668854,
                2.3509181879910854,
                1.720125737665556,
                -0.6021262259479255,
                0.17661025450892867
            ]
        },
        {
            "positions": [
                0.4768515729097799,
                -1.500873625796778,
                2.2089184677185587,
                1.5788249894729058,
                -0.5778526070984655,
                0.18722578726092168
            ]
        },
        {
            "positions": [
                0.4586545759089265,
                -1.5242922997266706,
                2.0669187474460315,
                1.4375242412802558,
                -0.5535789882490055,
                0.19784132001291466
            ]
        },
        {
            "positions": [
                0.4404575789080731,
                -1.5477109736565633,
                1.9249190271735048,
                1.2962234930876058,
                -0.5293053693995455,
                0.20845685276490766
            ]
        },
        {
            "positions": [
                0.4765109848038922,
                -1.560995742327252,
                1.7873163419584035,
                1.1604425336347415,
                -0.5541922011207265,
                0.19428173124708242
            ]
        },
        {
            "positions": [
                0.5125643906997113,
                -1.574280510997941,
                1.6497136567433024,
                1.0246615741818772,
                -0.5790790328419076,
                0.1801066097292572
            ]
        },
        {
            "positions": [
                0.5486177965955304,
                -1.5875652796686297,
                1.512110971528201,
                0.8888806147290127,
                -0.6039658645630887,
                0.16593148821143197
            ]
        },
        {
            "positions": [
                0.5846712024913495,
                -1.6008500483393184,
                1.3745082863131,
                0.7530996552761484,
                -0.6288526962842697,
                0.15175636669360676
            ]
        },
        {
            "positions": [
                0.6207246083871687,
                -1.6141348170100074,
                1.2369056010979986,
                0.6173186958232839,
                -0.6537395280054508,
                0.13758124517578152
            ]
        },
        {
            "positions": [
                0.6567780142829878,
                -1.6274195856806961,
                1.0993029158828973,
                0.48153773637041963,
                -0.6786263597266318,
                0.12340612365795628
            ]
        },
        {
            "positions": [
                0.7529084437978997,
                -1.646068423939636,
                0.9955954446120077,
                0.5566615741634878,
                -0.6387983853730669,
                0.17730552441771666
            ]
        },
        {
            "positions": [
                0.8490388733128117,
                -1.6647172621985755,
                0.8918879733411179,
                0.631785411956556,
                -0.5989704110195021,
                0.23120492517747704
            ]
        },
        {
            "positions": [
                0.9451693028277236,
                -1.6833661004575153,
                0.7881805020702282,
                0.7069092497496241,
                -0.5591424366659372,
                0.28510432593723745
            ]
        },
        {
            "positions": [
                1.0412997323426356,
                -1.702014938716455,
                0.6844730307993385,
                0.7820330875426923,
                -0.5193144623123724,
                0.33900372669699785
            ]
        },
        {
            "positions": [
                1.1374301618575475,
                -1.7206637769753947,
                0.5807655595284488,
                0.8571569253357605,
                -0.47948648795880755,
                0.3929031274567582
            ]
        },
        {
            "positions": [
                1.2335605913724594,
                -1.7393126152343346,
                0.47705808825755913,
                0.9322807631288287,
                -0.4396585136052428,
                0.4468025282165186
            ]
        },
        {
            "positions": [
                1.3296910208873713,
                -1.7579614534932742,
                0.3733506169866695,
                1.0074046009218969,
                -0.39983053925167794,
                0.5007019289762789
            ]
        },
        {
            "positions": [
                1.4258214504022835,
                -1.776610291752214,
                0.26964314571577974,
                1.082528438714965,
                -0.36000256489811305,
                0.5546013297360394
            ]
        },
        {
            "positions": [
                1.5219518799171952,
                -1.7952591300111536,
                0.1659356744448901,
                1.157652276508033,
                -0.3201745905445482,
                0.6085007304957997
            ]
        },
        {
            "positions": [
                1.6180823094321073,
                -1.8139079682700934,
                0.06222820317400024,
                1.2327761143011013,
                -0.2803466161909834,
                0.6624001312555601
            ]
        },
        {
            "positions": [
                1.7142127389470192,
                -1.8325568065290332,
                -0.04147926809688918,
                1.3078999520941694,
                -0.24051864183741856,
                0.7162995320153205
            ]
        },
        {
            "positions": [
                1.810343168461931,
                -1.851205644787973,
                -0.14518673936777904,
                1.3830237898872377,
                -0.20069066748385372,
                0.7701989327750809
            ]
        },
        {
            "positions": [
                1.906473597976843,
                -1.8698544830469126,
                -0.24889421063866868,
                1.4581476276803058,
                -0.1608626931302889,
                0.8240983335348413
            ]
        },
        {
            "positions": [
                2.002604027491755,
                -1.8885033213058522,
                -0.3526016819095583,
                1.533271465473374,
                -0.12103471877672412,
                0.8779977342946015
            ]
        },
        {
            "positions": [
                2.0987344570066666,
                -1.907152159564792,
                -0.45630915318044796,
                1.608395303266442,
                -0.08120674442315923,
                0.9318971350543619
            ]
        },
        {
            "positions": [
                2.1948648865215787,
                -1.9258009978237318,
                -0.5600166244513378,
                1.6835191410595103,
                -0.04137877006959434,
                0.9857965358141225
            ]
        },
        {
            "positions": [
                2.290995316036491,
                -1.9444498360826716,
                -0.6637240957222275,
                1.7586429788525786,
                -0.0015507957160295627,
                1.0396959365738827
            ]
        },
        {
            "positions": [
                2.387125745551403,
                -1.9630986743416112,
                -0.7674315669931171,
                1.8337668166456467,
                0.038277178637535325,
                1.0935953373336431
            ]
        },
        {
            "positions": [
                2.4832561750663142,
                -1.9817475126005508,
                -0.8711390382640067,
                1.9088906544387148,
                0.0781051529911001,
                1.1474947380934035
            ]
        },
        {
            "positions": [
                2.579386604581227,
                -2.0003963508594906,
                -0.9748465095348968,
                1.984014492231783,
                0.11793312734466499,
                1.201394138853164
            ]
        },
        {
            "positions": [
                2.6755170340961385,
                -2.0190451891184305,
                -1.0785539808057862,
                2.059138330024851,
                0.15776110169822977,
                1.2552935396129243
            ]
        },
        {
            "positions": [
                2.7716474636110506,
                -2.0376940273773703,
                -1.1822614520766757,
                2.134262167817919,
                0.19758907605179465,
                1.3091929403726845
            ]
        },
        {
            "positions": [
                2.8677778931259623,
                -2.05634286563631,
                -1.2859689233475655,
                2.2093860056109875,
                0.23741705040535943,
                1.363092341132445
            ]
        },
        {
            "positions": [
                2.9639083226408744,
                -2.0749917038952495,
                -1.3896763946184554,
                2.284509843404056,
                0.2772450247589243,
                1.4169917418922056
            ]
        },
        {
            "positions": [
                3.0600387521557866,
                -2.0936405421541893,
                -1.4933838658893452,
                2.359633681197124,
                0.3170729991124892,
                1.4708911426519657
            ]
        },
        {
            "positions": [
                3.1561691816706983,
                -2.112289380413129,
                -1.5970913371602349,
                2.434757518990192,
                0.356900973466054,
                1.5247905434117262
            ]
        },
        {
            "positions": [
                3.1111946094377285,
                -2.1452718173007095,
                -1.6039260065640426,
                2.3020259395515112,
                0.3671980298967071,
                1.3882122124089415
            ]
        },
        {
            "positions": [
                3.0662200372047583,
                -2.17825425418829,
                -1.6107606759678506,
                2.1692943601128305,
                0.3774950863273602,
                1.251633881406157
            ]
        },
        {
            "positions": [
                3.0212454649717886,
                -2.2112366910758703,
                -1.6175953453716583,
                2.0365627806741498,
                0.38779214275801327,
                1.1150555504033726
            ]
        },
        {
            "positions": [
                2.976270892738819,
                -2.2442191279634507,
                -1.6244300147754662,
                1.903831201235469,
                0.39808919918866637,
                0.978477219400588
            ]
        },
        {
            "positions": [
                2.931296320505849,
                -2.277201564851031,
                -1.631264684179274,
                1.7710996217967883,
                0.40838625561931946,
                0.8418988883978035
            ]
        },
        {
            "positions": [
                2.886321748272879,
                -2.310184001738611,
                -1.638099353583082,
                1.6383680423581075,
                0.41868331204997256,
                0.705320557395019
            ]
        },
        {
            "positions": [
                2.841347176039909,
                -2.3431664386261915,
                -1.6449340229868896,
                1.5056364629194268,
                0.4289803684806257,
                0.5687422263922344
            ]
        },
        {
            "positions": [
                2.7963726038069394,
                -2.376148875513772,
                -1.6517686923906976,
                1.372904883480746,
                0.4392774249112788,
                0.43216389538944977
            ]
        },
        {
            "positions": [
                2.7513980315739692,
                -2.4091313124013523,
                -1.6586033617945053,
                1.2401733040420653,
                0.4495744813419319,
                0.29558556438666517
            ]
        },
        {
            "positions": [
                2.7064234593409995,
                -2.4421137492889327,
                -1.6654380311983132,
                1.1074417246033845,
                0.459871537772585,
                0.15900723338388079
            ]
        },
        {
            "positions": [
                2.6614488871080297,
                -2.475096186176513,
                -1.672272700602121,
                0.9747101451647037,
                0.4701685942032381,
                0.022428902381096186
            ]
        }
    ]
}