{
    "goal": {
        "global_pose": {
            "orientation": {
                "w": 0.7031023480610252,
                "x": -0.7110244013736278,
                "y": 0.0077485991402295624,
                "z": 0.005598929693374583
            },
            "position": {
                "x": -0.8841497679147869,
                "y": 0.44412534475326537,
                "z": 0.3711530566215515
            }
        },
        "name": "move_to_auspresseinheit_D"
    },
    "id": "LBKPIECE_move_to_auspresseinheit_D_56",
    "joint_names": [
        "shoulder_pan_joint",
        "shoulder_lift_joint",
        "elbow_joint",
        "wrist_1_joint",
        "wrist_2_joint",
        "wrist_3_joint"
    ],
    "metrics": {
        "cart_traj_len": 0.3448518409688165,
        "distance_elbow_joint": 0.6638787771092882,
        "distance_shoulder_lift_joint": 0.1358012397750623,
        "distance_shoulder_pan_joint": 0.13439635599402627,
        "distance_wrist_1_joint": 0.6042221991687344,
        "distance_wrist_2_joint": 1.4441284836331945,
        "distance_wrist_3_joint": 0.06467587121316454,
        "smoothness": 3.947459674368863e-16,
        "time": 0.309317817,
        "traj_len": 1.7455952929855965,
        "weighted_distance": 2.285783312591491
    },
    "planner": "LBKPIECE",
    "start": {
        "state": {
            "elbow_joint": -1.8275523626775212,
            "shoulder_lift_joint": -2.126789852344167,
            "shoulder_pan_joint": -0.03513704404078235,
            "wrist_1_joint": -2.347782403156801,
            "wrist_2_joint": -1.6058999987535132,
            "wrist_3_joint": -3.0880379163319196
        }
    },
    "waypoints": [
        {
            "positions": [
                -0.03513704404078235,
                -2.126789852344167,
                -1.8275523626775212,
                -2.347782403156801,
                -1.6058999987535132,
                -3.0880379163319196
            ]
        },
        {
            "positions": [
                -0.05193658854003563,
                -2.1437650073160497,
                -1.7445675155388602,
                -2.4233101780528927,
                -1.4253839382993638,
                -3.079953432430274
            ]
        },
        {
            "positions": [
                -0.06873613303928891,
                -2.1607401622879325,
                -1.661582668400199,
                -2.4988379529489846,
                -1.2448678778452145,
                -3.0718689485286284
            ]
        },
        {
            "positions": [
                -0.0855356775385422,
                -2.1777153172598154,
                -1.5785978212615381,
                -2.5743657278450764,
                -1.0643518173910653,
                -3.0637844646269827
            ]
        },
        {
            "positions": [
                -0.10233522203779549,
                -2.1946904722316978,
                -1.495612974122877,
                -2.6498935027411683,
                -0.883835756936916,
                -3.055699980725337
            ]
        },
        {
            "positions": [
                -0.11913476653704877,
                -2.2116656272035806,
                -1.412628126984216,
                -2.7254212776372597,
                -0.7033196964827666,
                -3.047615496823692
            ]
        },
        {
            "positions": [
                -0.13593431103630205,
                -2.2286407821754635,
                -1.329643279845555,
                -2.8009490525333516,
                -0.5228036360286175,
                -3.0395310129220463
            ]
        },
        {
            "positions": [
                -0.15273385553555535,
                -2.2456159371473463,
                -1.246658432706894,
                -2.8764768274294434,
                -0.3422875755744681,
                -3.0314465290204007
            ]
        },
        {
            "positions": [
                -0.16953340003480863,
                -2.262591092119229,
                -1.163673585568233,
                -2.9520046023255353,
                -0.16177151512031862,
                -3.023362045118755
            ]
        }
    ]
}