{
    "goal": {
        "global_pose": {
            "orientation": {
                "w": 0.5084816262002911,
                "x": -0.4908360881923452,
                "y": 0.5182115481033761,
                "z": -0.48164630358495003
            },
            "position": {
                "x": 0.5540239810943604,
                "y": -0.46912469901144505,
                "z": 0.16403168439865112
            }
        },
        "name": "move_to_storage_B"
    },
    "id": "LBKPIECE_move_to_storage_B_31",
    "joint_names": [
        "shoulder_pan_joint",
        "shoulder_lift_joint",
        "elbow_joint",
        "wrist_1_joint",
        "wrist_2_joint",
        "wrist_3_joint"
    ],
    "metrics": {
        "cart_traj_len": 0.7867640106139817,
        "distance_elbow_joint": 0.6167989964832166,
        "distance_shoulder_lift_joint": 0.4598391850681425,
        "distance_shoulder_pan_joint": 0.4605209150161603,
        "distance_wrist_1_joint": 3.0159017107567605,
        "distance_wrist_2_joint": 2.7251933242885062,
        "distance_wrist_3_joint": 3.2873329166278817,
        "smoothness": 0.5913582450392987,
        "time": 0.47144185699999996,
        "traj_len": 3.2504748958022534,
        "weighted_distance": 4.783445193220227
    },
    "planner": "LBKPIECE",
    "start": {
        "state": {
            "elbow_joint": 1.664937868594044,
            "shoulder_lift_joint": -0.661644460510453,
            "shoulder_pan_joint": -0.9139846352900073,
            "wrist_1_joint": 2.146753192139373,
            "wrist_2_joint": -2.2341966793290973,
            "wrist_3_joint": 0.005466555786416001
        }
    },
    "waypoints": [
        {
            "positions": [
                -0.9139846352900073,
                -0.661644460510453,
                1.664937868594044,
                2.146753192139373,
                -2.2341966793290973,
                0.005466555786416001
            ]
        },
        {
            "positions": [
                -0.8874296994097312,
                -0.6722499450563517,
                1.656346875739124,
                2.162012644526274,
                -2.2379234060491373,
                -0.015410568183420133
            ]
        },
        {
            "positions": [
                -0.8308657205094976,
                -0.7221459881665111,
                1.5946249184304702,
                2.1092026201983134,
                -2.1688497916090554,
                0.022446907261482137
            ]
        },
        {
            "positions": [
                -0.774301741609264,
                -0.7720420312766706,
                1.5329029611218163,
                2.056392595870353,
                -2.099776177168973,
                0.06030438270638441
            ]
        },
        {
            "positions": [
                -0.7871352624626807,
                -0.7860196958487475,
                1.552293524682256,
                1.9405917074817953,
                -1.996443402421441,
                -0.06732525096434522
            ]
        },
        {
            "positions": [
                -0.7999687833160973,
                -0.7999973604208246,
                1.5716840882426955,
                1.8247908190932378,
                -1.893110627673909,
                -0.19495488463507485
            ]
        },
        {
            "positions": [
                -0.812802304169514,
                -0.8139750249929015,
                1.5910746518031351,
                1.7089899307046803,
                -1.789777852926377,
                -0.3225845183058045
            ]
        },
        {
            "positions": [
                -0.8256358250229308,
                -0.8279526895649786,
                1.6104652153635746,
                1.5931890423161226,
                -1.6864450781788447,
                -0.45021415197653414
            ]
        },
        {
            "positions": [
                -0.8384693458763475,
                -0.8419303541370555,
                1.6298557789240142,
                1.477388153927565,
                -1.5831123034313128,
                -0.5778437856472638
            ]
        },
        {
            "positions": [
                -0.8513028667297641,
                -0.8559080187091326,
                1.6492463424844537,
                1.3615872655390076,
                -1.4797795286837807,
                -0.7054734193179933
            ]
        },
        {
            "positions": [
                -0.8641363875831808,
                -0.8698856832812096,
                1.6686369060448933,
                1.2457863771504498,
                -1.3764467539362486,
                -0.8331030529887231
            ]
        },
        {
            "positions": [
                -0.8769699084365975,
                -0.8838633478532866,
                1.6880274696053328,
                1.1299854887618923,
                -1.2731139791887165,
                -0.9607326866594527
            ]
        },
        {
            "positions": [
                -0.8898034292900141,
                -0.8978410124253635,
                1.7074180331657725,
                1.014184600373335,
                -1.1697812044411844,
                -1.0883623203301822
            ]
        },
        {
            "positions": [
                -0.9026369501434308,
                -0.9118186769974406,
                1.726808596726212,
                0.8983837119847773,
                -1.0664484296936523,
                -1.2159919540009119
            ]
        },
        {
            "positions": [
                -0.9154704709968475,
                -0.9257963415695175,
                1.7461991602866516,
                0.7825828235962198,
                -0.9631156549461202,
                -1.3436215876716415
            ]
        },
        {
            "positions": [
                -0.9283039918502642,
                -0.9397740061415946,
                1.765589723847091,
                0.6667819352076623,
                -0.8597828801985883,
                -1.471251221342371
            ]
        },
        {
            "positions": [
                -0.941137512703681,
                -0.9537516707136715,
                1.7849802874075307,
                0.5509810468191048,
                -0.756450105451056,
                -1.5988808550131008
            ]
        },
        {
            "positions": [
                -0.9539710335570976,
                -0.9677293352857486,
                1.8043708509679703,
                0.435180158430547,
                -0.6531173307035238,
                -1.7265104886838305
            ]
        },
        {
            "positions": [
                -0.9668045544105143,
                -0.9817069998578255,
                1.8237614145284098,
                0.31937927004198974,
                -0.549784555955992,
                -1.85414012235456
            ]
        },
        {
            "positions": [
                -0.9796380752639309,
                -0.9956846644299026,
                1.8431519780888492,
                0.203578381653432,
                -0.44645178120845985,
                -1.9817697560252896
            ]
        },
        {
            "positions": [
                -0.9924715961173476,
                -1.0096623290019795,
                1.862542541649289,
                0.0877774932648745,
                -0.3431190064609275,
                -2.1093993896960197
            ]
        },
        {
            "positions": [
                -1.0053051169707643,
                -1.0236399935740566,
                1.8819331052097283,
                -0.028023395123682793,
                -0.23978623171339564,
                -2.237029023366749
            ]
        },
        {
            "positions": [
                -1.018138637824181,
                -1.0376176581461336,
                1.901323668770168,
                -0.14382428351224075,
                -0.13645345696586353,
                -2.3646586570374786
            ]
        },
        {
            "positions": [
                -1.0309721586775977,
                -1.0515953227182104,
                1.9207142323306075,
                -0.25962517190079826,
                -0.03312068221833142,
                -2.4922882907082085
            ]
        },
        {
            "positions": [
                -1.0438056795310144,
                -1.0655729872902875,
                1.9401047958910471,
                -0.3754260602893553,
                0.07021209252920046,
                -2.619917924378938
            ]
        },
        {
            "positions": [
                -1.056639200384431,
                -1.0795506518623645,
                1.9594953594514868,
                -0.4912269486779133,
                0.1735448672767328,
                -2.7475475580496678
            ]
        },
        {
            "positions": [
                -1.0694727212378476,
                -1.0935283164344414,
                1.9788859230119262,
                -0.6070278370664708,
                0.2768776420242647,
                -2.875177191720397
            ]
        },
        {
            "positions": [
                -1.0823062420912644,
                -1.1075059810065184,
                1.9982764865723657,
                -0.7228287254550283,
                0.38021041677179657,
                -3.0028068253911266
            ]
        },
        {
            "positions": [
                -1.095139762944681,
                -1.1214836455785955,
                2.0176670501328053,
                -0.8386296138435856,
                0.4835431915193288,
                -3.1304364590618565
            ]
        }
    ]
}