{
    "goal": {
        "global_pose": {
            "orientation": {
                "w": 0.7047431493862688,
                "x": -0.7094548369677653,
                "y": 0.0024358444001904,
                "z": -0.0022348060817251984
            },
            "position": {
                "x": -0.39052492380142206,
                "y": 0.3671506643295288,
                "z": 0.19426114857196808
            }
        },
        "name": "move_to_magneteinheit_D"
    },
    "id": "LBKPIECE_move_to_magneteinheit_D_17",
    "joint_names": [
        "shoulder_pan_joint",
        "shoulder_lift_joint",
        "elbow_joint",
        "wrist_1_joint",
        "wrist_2_joint",
        "wrist_3_joint"
    ],
    "metrics": {
        "cart_traj_len": 4.325239650026224,
        "distance_elbow_joint": 3.1945448664057037,
        "distance_shoulder_lift_joint": 1.1585206328995103,
        "distance_shoulder_pan_joint": 2.8710058912226333,
        "distance_wrist_1_joint": 2.115791136467203,
        "distance_wrist_2_joint": 1.1071651703757341,
        "distance_wrist_3_joint": 1.5224839108212436,
        "smoothness": 0.4193834597539651,
        "time": 0.554381884,
        "traj_len": 3.4596981961136475,
        "weighted_distance": 4.270531083680044
    },
    "planner": "LBKPIECE",
    "start": {
        "state": {
            "elbow_joint": 0.749534889911806,
            "shoulder_lift_joint": -0.6476975780787326,
            "shoulder_pan_joint": -2.711696901376241,
            "wrist_1_joint": -0.07506478083263063,
            "wrist_2_joint": 0.43296659715538205,
            "wrist_3_joint": -3.14703540197715
        }
    },
    "waypoints": [
        {
            "positions": [
                -2.711696901376241,
                -0.6476975780787326,
                0.749534889911806,
                -0.07506478083263063,
                0.43296659715538205,
                -3.14703540197715
            ]
        },
        {
            "positions": [
                -2.7061465459188256,
                -0.6681728529842983,
                0.7081096002156271,
                -0.07902635913037176,
                0.4508238401477237,
                -3.1226435685037166
            ]
        },
        {
            "positions": [
                -2.684081566263761,
                -0.7376892279006593,
                0.5681778987161005,
                -0.09446446190125712,
                0.5084540481132882,
                -3.039248280261443
            ]
        },
        {
            "positions": [
                -2.5766916773857615,
                -0.7757747908503149,
                0.4634234001064026,
                -0.1585511155610363,
                0.4742704616070654,
                -3.00943468090294
            ]
        },
        {
            "positions": [
                -2.469301788507762,
                -0.8138603537999705,
                0.3586689014967047,
                -0.22263776922081546,
                0.4400868751008425,
                -2.979621081544437
            ]
        },
        {
            "positions": [
                -2.361911899629763,
                -0.8519459167496259,
                0.2539144028870069,
                -0.28672442288059463,
                0.40590328859461966,
                -2.9498074821859337
            ]
        },
        {
            "positions": [
                -2.254522010751763,
                -0.8900314796992815,
                0.14915990427730902,
                -0.3508110765403738,
                0.3717197020883968,
                -2.9199938828274306
            ]
        },
        {
            "positions": [
                -2.1471321218737636,
                -0.9281170426489371,
                0.0444054056676112,
                -0.41489773020015297,
                0.337536115582174,
                -2.8901802834689274
            ]
        },
        {
            "positions": [
                -2.0397422329957644,
                -0.9662026055985926,
                -0.06034909294208668,
                -0.4789843838599321,
                0.3033525290759511,
                -2.8603666841104243
            ]
        },
        {
            "positions": [
                -1.9323523441177646,
                -1.004288168548248,
                -0.16510359155178456,
                -0.5430710375197113,
                0.26916894256972823,
                -2.8305530847519207
            ]
        },
        {
            "positions": [
                -1.8249624552397652,
                -1.0423737314979038,
                -0.26985809016148243,
                -0.6071576911794905,
                0.2349853560635054,
                -2.8007394853934175
            ]
        },
        {
            "positions": [
                -1.7175725663617656,
                -1.0804592944475593,
                -0.3746125887711804,
                -0.6712443448392696,
                0.20080176955728252,
                -2.7709258860349144
            ]
        },
        {
            "positions": [
                -1.6101826774837662,
                -1.118544857397215,
                -0.4793670873808781,
                -0.7353309984990488,
                0.16661818305105974,
                -2.7411122866764113
            ]
        },
        {
            "positions": [
                -1.5027927886057666,
                -1.1566304203468705,
                -0.5841215859905761,
                -0.799417652158828,
                0.13243459654483686,
                -2.711298687317908
            ]
        },
        {
            "positions": [
                -1.3954028997277672,
                -1.194715983296526,
                -0.6888760846002738,
                -0.863504305818607,
                0.09825101003861403,
                -2.681485087959405
            ]
        },
        {
            "positions": [
                -1.2880130108497676,
                -1.2328015462461817,
                -0.7936305832099718,
                -0.9275909594783863,
                0.06406742353239114,
                -2.651671488600902
            ]
        },
        {
            "positions": [
                -1.180623121971768,
                -1.2708871091958371,
                -0.8983850818196696,
                -0.9916776131381655,
                0.029883837026168314,
                -2.6218578892423987
            ]
        },
        {
            "positions": [
                -1.0732332330937686,
                -1.3089726721454928,
                -1.0031395804293672,
                -1.0557642667979446,
                -0.0042997494800545155,
                -2.5920442898838956
            ]
        },
        {
            "positions": [
                -0.965843344215769,
                -1.3470582350951483,
                -1.1078940790390654,
                -1.1198509204577238,
                -0.0384833359862774,
                -2.562230690525392
            ]
        },
        {
            "positions": [
                -0.8584534553377696,
                -1.3851437980448038,
                -1.2126485776487632,
                -1.1839375741175029,
                -0.07266692249250017,
                -2.532417091166889
            ]
        },
        {
            "positions": [
                -0.75106356645977,
                -1.4232293609944593,
                -1.3174030762584614,
                -1.2480242277772822,
                -0.10685050899872317,
                -2.5026034918083857
            ]
        },
        {
            "positions": [
                -0.6436736775817704,
                -1.461314923944115,
                -1.4221575748681592,
                -1.3121108814370614,
                -0.14103409550494594,
                -2.4727898924498826
            ]
        },
        {
            "positions": [
                -0.5362837887037712,
                -1.4994004868937705,
                -1.5269120734778565,
                -1.3761975350968405,
                -0.17521768201116872,
                -2.4429762930913794
            ]
        },
        {
            "positions": [
                -0.42889389982577164,
                -1.5374860498434262,
                -1.6316665720875547,
                -1.4402841887566198,
                -0.20940126851739171,
                -2.4131626937328763
            ]
        },
        {
            "positions": [
                -0.32150401094777203,
                -1.5755716127930817,
                -1.7364210706972527,
                -1.5043708424163988,
                -0.24358485502361452,
                -2.383349094374373
            ]
        },
        {
            "positions": [
                -0.2542594130396682,
                -1.57288408972317,
                -1.813578388910817,
                -1.569804221694005,
                -0.2709008464442542,
                -2.439998023612385
            ]
        },
        {
            "positions": [
                -0.1939063869565085,
                -1.5660548178446478,
                -1.912691337149038,
                -1.6624001195747646,
                -0.29078807358429665,
                -2.529074382183029
            ]
        },
        {
            "positions": [
                -0.1335533608733488,
                -1.5592255459661257,
                -2.011804285387259,
                -1.7549960174555241,
                -0.310675300724339,
                -2.618150740753673
            ]
        },
        {
            "positions": [
                -0.07320033479018906,
                -1.5523962740876034,
                -2.1109172336254796,
                -1.8475919153362836,
                -0.33056252786438145,
                -2.7072270993243173
            ]
        },
        {
            "positions": [
                -0.012847308707029353,
                -1.5455670022090813,
                -2.2100301818637007,
                -1.9401878132170434,
                -0.3504497550044239,
                -2.796303457894961
            ]
        },
        {
            "positions": [
                -0.016468580016996043,
                -1.560888971176319,
                -2.2633151413733144,
                -2.007475627411817,
                -0.3352050081256641,
                -2.86406920982208
            ]
        },
        {
            "positions": [
                -0.020089851326962734,
                -1.5762109401435567,
                -2.316600100882928,
                -2.074763441606591,
                -0.31996026124690435,
                -2.9318349617491988
            ]
        },
        {
            "positions": [
                -0.06868186249058966,
                -1.5983239111390355,
                -2.35969975573717,
                -2.1163931080902136,
                -0.2844046881927321,
                -3.0312236868830746
            ]
        },
        {
            "positions": [
                -0.11727387365421661,
                -1.620436882134514,
                -2.4027994105914123,
                -2.1580227745738365,
                -0.24884911513855987,
                -3.1306124120169505
            ]
        },
        {
            "positions": [
                -0.18500360726045012,
                -1.7462089898102422,
                -2.3605888446889276,
                -2.190855917299834,
                -0.17767583870430773,
                -3.119078126441061
            ]
        }
    ]
}