{
    "goal": {
        "global_pose": {
            "orientation": {
                "w": 0.7047431468963623,
                "x": -0.7094548344612122,
                "y": 0.0024358443915843964,
                "z": -0.0022348060738295317
            },
            "position": {
                "x": 0.6094750761985779,
                "y": 0.3671506643295288,
                "z": 0.19426114857196808
            }
        },
        "name": "move_to_magneteinheit_A"
    },
    "id": "LBKPIECE_move_to_magneteinheit_A_110",
    "joint_names": [
        "shoulder_pan_joint",
        "shoulder_lift_joint",
        "elbow_joint",
        "wrist_1_joint",
        "wrist_2_joint",
        "wrist_3_joint"
    ],
    "metrics": {
        "cart_traj_len": 3.658199208058539,
        "distance_elbow_joint": 3.8767880932197447,
        "distance_shoulder_lift_joint": 0.5392901401650629,
        "distance_shoulder_pan_joint": 2.9938271960895833,
        "distance_wrist_1_joint": 1.411926681630531,
        "distance_wrist_2_joint": 2.0993509996639586,
        "distance_wrist_3_joint": 2.591077684046963,
        "smoothness": 0.3997032174121882,
        "time": 0.27521033500000003,
        "traj_len": 3.675902718355838,
        "weighted_distance": 4.712291782583529
    },
    "planner": "LBKPIECE",
    "start": {
        "state": {
            "elbow_joint": -1.9196185241190666,
            "shoulder_lift_joint": -1.2443396400964142,
            "shoulder_pan_joint": 2.6996025414629847,
            "wrist_1_joint": -1.5485510000780065,
            "wrist_2_joint": -1.5709468930060704,
            "wrist_3_joint": 0.4420197071253992
        }
    },
    "waypoints": [
        {
            "positions": [
                2.6996025414629847,
                -1.2443396400964142,
                -1.9196185241190666,
                -1.5485510000780065,
                -1.5709468930060704,
                0.4420197071253992
            ]
        },
        {
            "positions": [
                2.6021517979446362,
                -1.2450003122299274,
                -1.8004890145666295,
                -1.5096849616587404,
                -1.5012858436947558,
                0.5031670623725139
            ]
        },
        {
            "positions": [
                2.504701054426288,
                -1.2456609843634403,
                -1.6813595050141925,
                -1.4708189232394742,
                -1.431624794383441,
                0.5643144176196284
            ]
        },
        {
            "positions": [
                2.4072503109079397,
                -1.2463216564969535,
                -1.5622299954617553,
                -1.431952884820208,
                -1.3619637450721265,
                0.6254617728667431
            ]
        },
        {
            "positions": [
                2.3097995673895917,
                -1.2469823286304664,
                -1.4431004859093182,
                -1.3930868464009418,
                -1.292302695760812,
                0.6866091281138578
            ]
        },
        {
            "positions": [
                2.212348823871243,
                -1.2476430007639796,
                -1.3239709763568812,
                -1.3542208079816758,
                -1.2226416464494974,
                0.7477564833609723
            ]
        },
        {
            "positions": [
                2.114898080352895,
                -1.2483036728974926,
                -1.204841466804444,
                -1.3153547695624095,
                -1.1529805971381828,
                0.8089038386080869
            ]
        },
        {
            "positions": [
                2.0174473368345467,
                -1.2489643450310057,
                -1.0857119572520069,
                -1.2764887311431434,
                -1.083319547826868,
                0.8700511938552016
            ]
        },
        {
            "positions": [
                1.9199965933161982,
                -1.2496250171645187,
                -0.9665824476995698,
                -1.2376226927238774,
                -1.0136584985155535,
                0.9311985491023163
            ]
        },
        {
            "positions": [
                1.8225458497978502,
                -1.2502856892980319,
                -0.8474529381471327,
                -1.198756654304611,
                -0.9439974492042389,
                0.9923459043494308
            ]
        },
        {
            "positions": [
                1.7250951062795017,
                -1.2509463614315448,
                -0.7283234285946956,
                -1.1598906158853448,
                -0.8743363998929242,
                1.0534932595965456
            ]
        },
        {
            "positions": [
                1.6276443627611534,
                -1.251607033565058,
                -0.6091939190422584,
                -1.1210245774660788,
                -0.8046753505816097,
                1.11464061484366
            ]
        },
        {
            "positions": [
                1.5301936192428052,
                -1.252267705698571,
                -0.49006440948982144,
                -1.0821585390468127,
                -0.7350143012702951,
                1.1757879700907747
            ]
        },
        {
            "positions": [
                1.4327428757244567,
                -1.252928377832084,
                -0.37093489993738427,
                -1.0432925006275464,
                -0.6653532519589803,
                1.2369353253378894
            ]
        },
        {
            "positions": [
                1.3352921322061084,
                -1.253589049965597,
                -0.2518053903849471,
                -1.0044264622082801,
                -0.5956922026476656,
                1.298082680585004
            ]
        },
        {
            "positions": [
                1.2378413886877602,
                -1.2542497220991102,
                -0.13267588083251014,
                -0.9655604237890142,
                -0.5260311533363513,
                1.3592300358321188
            ]
        },
        {
            "positions": [
                1.140390645169412,
                -1.2549103942326232,
                -0.013546371280072966,
                -0.926694385369748,
                -0.4563701040250365,
                1.4203773910792332
            ]
        },
        {
            "positions": [
                1.0429399016510634,
                -1.2555710663661364,
                0.10558313827236443,
                -0.8878283469504819,
                -0.38670905471372197,
                1.4815247463263481
            ]
        },
        {
            "positions": [
                0.9454891581327154,
                -1.2562317384996493,
                0.22471264782480116,
                -0.8489623085312157,
                -0.3170480054024074,
                1.5426721015734626
            ]
        },
        {
            "positions": [
                0.8480384146143669,
                -1.2568924106331625,
                0.34384215737723833,
                -0.8100962701119495,
                -0.24738695609109262,
                1.603819456820577
            ]
        },
        {
            "positions": [
                0.7505876710960186,
                -1.2575530827666754,
                0.4629716669296755,
                -0.7712302316926833,
                -0.17772590677977806,
                1.664966812067692
            ]
        },
        {
            "positions": [
                0.6531369275776706,
                -1.2582137549001886,
                0.5821011764821122,
                -0.7323641932734173,
                -0.1080648574684635,
                1.7261141673148064
            ]
        },
        {
            "positions": [
                0.5556861840593221,
                -1.2588744270337016,
                0.7012306860345499,
                -0.6934981548541511,
                -0.038403808157148944,
                1.7872615225619213
            ]
        },
        {
            "positions": [
                0.45823544054097365,
                -1.2595350991672147,
                0.820360195586987,
                -0.6546321164348848,
                0.03125724115416584,
                1.8484088778090357
            ]
        },
        {
            "positions": [
                0.3607846970226256,
                -1.2601957713007277,
                0.9394897051394238,
                -0.6157660780156188,
                0.10091829046548018,
                1.9095562330561502
            ]
        },
        {
            "positions": [
                0.2633339535042769,
                -1.2608564434342409,
                1.058619214691861,
                -0.5769000395963526,
                0.17057933977679487,
                1.970703588303265
            ]
        },
        {
            "positions": [
                0.2197149688584637,
                -1.2201627214051642,
                1.1615543675886064,
                -0.5582110582857558,
                0.1453842611582744,
                2.086963734555545
            ]
        },
        {
            "positions": [
                0.1760959842126505,
                -1.1794689993760876,
                1.264489520485352,
                -0.539522076975159,
                0.12018918253975394,
                2.2032238808078253
            ]
        },
        {
            "positions": [
                0.13247699956683728,
                -1.138775277347011,
                1.3674246733820972,
                -0.5208330956645622,
                0.09499410392123347,
                2.319484027060105
            ]
        },
        {
            "positions": [
                0.08885801492102408,
                -1.0980815553179344,
                1.4703598262788427,
                -0.5021441143539653,
                0.06979902530271301,
                2.435744173312385
            ]
        },
        {
            "positions": [
                0.04523903027521087,
                -1.0573878332888575,
                1.5732949791755881,
                -0.4834551330433685,
                0.04460394668419254,
                2.552004319564665
            ]
        },
        {
            "positions": [
                0.0016200456293976595,
                -1.016694111259781,
                1.6762301320723334,
                -0.4647661517327717,
                0.019408868065672075,
                2.6682644658169448
            ]
        },
        {
            "positions": [
                -0.04199893901641555,
                -0.9760003892307043,
                1.7791652849690789,
                -0.4460771704221749,
                -0.005786210552848392,
                2.784524612069225
            ]
        },
        {
            "positions": [
                -0.08561792366222876,
                -0.9353066672016277,
                1.8821004378658244,
                -0.42738818911157805,
                -0.03098128917136886,
                2.900784758321505
            ]
        },
        {
            "positions": [
                -0.01608234667410567,
                -1.001047854066502,
                1.9071234816107756,
                -0.5243094793329456,
                0.021106756806274343,
                2.9448889692717906
            ]
        },
        {
            "positions": [
                0.053453230314017414,
                -1.0667890409313765,
                1.932146525355727,
                -0.621230769554313,
                0.07319480278391755,
                2.9889931802220766
            ]
        },
        {
            "positions": [
                0.12298880730214051,
                -1.1325302277962508,
                1.9571695691006783,
                -0.7181520597756805,
                0.12528284876156076,
                3.033097391172362
            ]
        }
    ]
}