{
    "goal": {
        "global_pose": {
            "orientation": {
                "w": -0.4816463035849501,
                "x": 0.5182115481033762,
                "y": 0.4908360881923453,
                "z": -0.5084816262002911
            },
            "position": {
                "x": -0.8240239810943604,
                "y": -0.300875300988555,
                "z": 0.16403168439865112
            }
        },
        "name": "move_to_storage_C"
    },
    "id": "LBKPIECE_move_to_storage_C_56",
    "joint_names": [
        "shoulder_pan_joint",
        "shoulder_lift_joint",
        "elbow_joint",
        "wrist_1_joint",
        "wrist_2_joint",
        "wrist_3_joint"
    ],
    "metrics": {
        "cart_traj_len": 0.5763924060646651,
        "distance_elbow_joint": 0.2534064560457032,
        "distance_shoulder_lift_joint": 0.18789789477346408,
        "distance_shoulder_pan_joint": 0.4955489067100074,
        "distance_wrist_1_joint": 0.06574289094879249,
        "distance_wrist_2_joint": 1.0647589579095547,
        "distance_wrist_3_joint": 0.07322374959083788,
        "smoothness": 0.0,
        "time": 0.21480195600000002,
        "traj_len": 1.4630717193556713,
        "weighted_distance": 1.84865578299974
    },
    "planner": "LBKPIECE",
    "start": {
        "state": {
            "elbow_joint": 2.010868314990456,
            "shoulder_lift_joint": -1.1634956873337592,
            "shoulder_pan_joint": -2.4736205022346125,
            "wrist_1_joint": -0.8367026794202681,
            "wrist_2_joint": 0.6746043897044499,
            "wrist_3_joint": -3.1496632123970403
        }
    },
    "waypoints": [
        {
            "positions": [
                -2.4736205022346125,
                -1.1634956873337592,
                2.010868314990456,
                -0.8367026794202681,
                0.6746043897044499,
                -3.1496632123970403
            ]
        },
        {
            "positions": [
                -2.5562119866862805,
                -1.1321793715381818,
                1.9686339056495052,
                -0.8257455309288027,
                0.852064216022709,
                -3.1374592541319006
            ]
        },
        {
            "positions": [
                -2.6388034711379484,
                -1.1008630557426045,
                1.9263994963085547,
                -0.8147883824373373,
                1.0295240423409682,
                -3.125255295866761
            ]
        },
        {
            "positions": [
                -2.7213949555896164,
                -1.069546739947027,
                1.884165086967604,
                -0.8038312339458719,
                1.2069838686592274,
                -3.1130513376016213
            ]
        },
        {
            "positions": [
                -2.803986440041284,
                -1.0382304241514497,
                1.8419306776266537,
                -0.7928740854544064,
                1.3844436949774863,
                -3.1008473793364817
            ]
        },
        {
            "positions": [
                -2.886577924492952,
                -1.0069141083558724,
                1.7996962682857032,
                -0.7819169369629411,
                1.5619035212957455,
                -3.088643421071342
            ]
        },
        {
            "positions": [
                -2.96916940894462,
                -0.9755977925602951,
                1.7574618589447526,
                -0.7709597884714756,
                1.7393633476140045,
                -3.0764394628062024
            ]
        }
    ]
}