{
    "goal": {
        "global_pose": {
            "orientation": {
                "w": 0.5084816217422485,
                "x": -0.49083608388900757,
                "y": 0.5182115435600281,
                "z": -0.4816462993621826
            },
            "position": {
                "x": 0.5540239810943604,
                "y": 0.030875300988554955,
                "z": 0.16403168439865112
            }
        },
        "name": "move_to_storage_A"
    },
    "id": "LBKPIECE_move_to_storage_A_47",
    "joint_names": [
        "shoulder_pan_joint",
        "shoulder_lift_joint",
        "elbow_joint",
        "wrist_1_joint",
        "wrist_2_joint",
        "wrist_3_joint"
    ],
    "metrics": {
        "cart_traj_len": 0.35285446913140234,
        "distance_elbow_joint": 0.45124653168192563,
        "distance_shoulder_lift_joint": 0.2350322908678557,
        "distance_shoulder_pan_joint": 0.4632273839781354,
        "distance_wrist_1_joint": 0.24339445506132928,
        "distance_wrist_2_joint": 1.0913560455602398,
        "distance_wrist_3_joint": 0.09902924842492089,
        "smoothness": 4.440892133664971e-16,
        "time": 0.21812356,
        "traj_len": 1.6072603882303598,
        "weighted_distance": 2.028816145698229
    },
    "planner": "LBKPIECE",
    "start": {
        "state": {
            "elbow_joint": 1.971548259319323,
            "shoulder_lift_joint": -1.1394851275133948,
            "shoulder_pan_joint": 0.1228115487234821,
            "wrist_1_joint": -0.7804723859257726,
            "wrist_2_joint": 0.12958671773740124,
            "wrist_3_joint": -3.192489227718131
        }
    },
    "waypoints": [
        {
            "positions": [
                0.1228115487234821,
                -1.1394851275133948,
                1.971548259319323,
                -0.7804723859257726,
                0.12958671773740124,
                -3.192489227718131
            ]
        },
        {
            "positions": [
                0.056636208155177045,
                -1.1730611690659456,
                2.036012049559598,
                -0.8152430223631054,
                0.2854947242460069,
                -3.1783421922288566
            ]
        },
        {
            "positions": [
                -0.00953913241312801,
                -1.2066372106184964,
                2.100475839799873,
                -0.8500136588004381,
                0.44140273075461256,
                -3.1641951567395825
            ]
        },
        {
            "positions": [
                -0.07571447298143305,
                -1.2402132521710472,
                2.1649396300401484,
                -0.8847842952377709,
                0.5973107372632183,
                -3.150048121250308
            ]
        },
        {
            "positions": [
                -0.14188981354973812,
                -1.2737892937235982,
                2.2294034202804234,
                -0.9195549316751036,
                0.753218743771824,
                -3.1359010857610334
            ]
        },
        {
            "positions": [
                -0.20806515411804322,
                -1.307365335276149,
                2.2938672105206983,
                -0.9543255681124364,
                0.9091267502804297,
                -3.121754050271759
            ]
        },
        {
            "positions": [
                -0.2742404946863482,
                -1.3409413768286997,
                2.3583310007609737,
                -0.9890962045497691,
                1.0650347567890353,
                -3.107607014782485
            ]
        },
        {
            "positions": [
                -0.3404158352546533,
                -1.3745174183812505,
                2.4227947910012486,
                -1.023866840987102,
                1.220942763297641,
                -3.0934599792932103
            ]
        }
    ]
}{
    "goal": {
        "global_pose": {
            "orientation": {
                "w": 0.5084816217422485,
                "x": -0.49083608388900757,
                "y": 0.5182115435600281,
                "z": -0.4816462993621826
            },
            "position": {
                "x": 0.5540239810943604,
                "y": 0.030875300988554955,
                "z": 0.16403168439865112
            }
        },
        "name": "move_to_storage_A"
    },
    "id": "LBKPIECE_move_to_storage_A_47",
    "joint_names": [
        "shoulder_pan_joint",
        "shoulder_lift_joint",
        "elbow_joint",
        "wrist_1_joint",
        "wrist_2_joint",
        "wrist_3_joint"
    ],
    "metrics": {
        "cart_traj_len": 0.35238703917258224,
        "distance_elbow_joint": 0.44920269460136586,
        "distance_shoulder_lift_joint": 0.2337625617175738,
        "distance_shoulder_pan_joint": 0.46128305312456264,
        "distance_wrist_1_joint": 0.24382991529597087,
        "distance_wrist_2_joint": 1.0946919718360335,
        "distance_wrist_3_joint": 0.10534239558821668,
        "smoothness": 1.3322676295501878e-15,
        "time": 0.328009589,
        "traj_len": 1.6087611979917105,
        "weighted_distance": 2.034040134921669
    },
    "planner": "LBKPIECE",
    "start": {
        "state": {
            "elbow_joint": 1.97154746011099,
            "shoulder_lift_joint": -1.13948474672311,
            "shoulder_pan_joint": 0.12281154466712228,
            "wrist_1_joint": -0.7804688027058302,
            "wrist_2_joint": 0.12958655903071145,
            "wrist_3_joint": 3.0906928834467795
        }
    },
    "waypoints": [
        {
            "positions": [
                0.12281154466712228,
                -1.13948474672311,
                1.97154746011099,
                -0.7804688027058302,
                0.12958655903071145,
                3.0906928834467795
            ]
        },
        {
            "positions": [
                0.05691396564932763,
                -1.1728793983970491,
                2.0357192736254706,
                -0.8153016477481118,
                0.2859711264358591,
                3.105741797102239
            ]
        },
        {
            "positions": [
                -0.008983613368467022,
                -1.206274050070988,
                2.0998910871399517,
                -0.8501344927903933,
                0.4423556938410067,
                3.1207907107576984
            ]
        },
        {
            "positions": [
                -0.07488119238626169,
                -1.2396687017449273,
                2.1640629006544323,
                -0.8849673378326748,
                0.5987402612461543,
                3.135839624413158
            ]
        },
        {
            "positions": [
                -0.1407787714040563,
                -1.2730633534188665,
                2.2282347141689134,
                -0.9198001828749564,
                0.755124828651302,
                3.150888538068618
            ]
        },
        {
            "positions": [
                -0.206676350421851,
                -1.3064580050928056,
                2.292406527683394,
                -0.9546330279172379,
                0.9115093960564498,
                3.1659374517240773
            ]
        },
        {
            "positions": [
                -0.27257392943964565,
                -1.3398526567667446,
                2.356578341197875,
                -0.9894658729595195,
                1.0678939634615972,
                3.1809863653795367
            ]
        },
        {
            "positions": [
                -0.33847150845744034,
                -1.3732473084406838,
                2.4207501547123558,
                -1.024298718001801,
                1.224278530866745,
                3.196035279034996
            ]
        }
    ]
}{
    "goal": {
        "global_pose": {
            "orientation": {
                "w": 0.5084816217422485,
                "x": -0.49083608388900757,
                "y": 0.5182115435600281,
                "z": -0.4816462993621826
            },
            "position": {
                "x": 0.5540239810943604,
                "y": 0.030875300988554955,
                "z": 0.16403168439865112
            }
        },
        "name": "move_to_storage_A"
    },
    "id": "LBKPIECE_move_to_storage_A_47",
    "joint_names": [
        "shoulder_pan_joint",
        "shoulder_lift_joint",
        "elbow_joint",
        "wrist_1_joint",
        "wrist_2_joint",
        "wrist_3_joint"
    ],
    "metrics": {
        "cart_traj_len": 0.35341431663887973,
        "distance_elbow_joint": 0.44887087426467165,
        "distance_shoulder_lift_joint": 0.23517542080046705,
        "distance_shoulder_pan_joint": 0.4645257271476173,
        "distance_wrist_1_joint": 0.23505661948686307,
        "distance_wrist_2_joint": 1.0895991136733827,
        "distance_wrist_3_joint": 0.09414080837810967,
        "smoothness": 4.440892098500626e-16,
        "time": 0.32683439999999997,
        "traj_len": 1.6023010215783773,
        "weighted_distance": 2.0199767111696056
    },
    "planner": "LBKPIECE",
    "start": {
        "state": {
            "elbow_joint": 1.9715472970024885,
            "shoulder_lift_joint": -1.1394870060712896,
            "shoulder_pan_joint": 0.12281152778156021,
            "wrist_1_joint": -0.780463741449964,
            "wrist_2_joint": 0.12958659822042276,
            "wrist_3_joint": 3.090690232415272
        }
    },
    "waypoints": [
        {
            "positions": [
                0.12281152778156021,
                -1.1394870060712896,
                1.9715472970024885,
                -0.780463741449964,
                0.12958659822042276,
                3.090690232415272
            ]
        },
        {
            "positions": [
                0.05645070961761488,
                -1.1730834947570705,
                2.035671707611727,
                -0.8140432585195159,
                0.28524361445947743,
                3.1041389193264304
            ]
        },
        {
            "positions": [
                -0.009910108546330454,
                -1.2066799834428517,
                2.0997961182209663,
                -0.8476227755890677,
                0.44090063069853214,
                3.117587606237589
            ]
        },
        {
            "positions": [
                -0.07627092671027577,
                -1.2402764721286326,
                2.163920528830205,
                -0.8812022926586196,
                0.5965576469375867,
                3.1310362931487474
            ]
        },
        {
            "positions": [
                -0.14263174487422112,
                -1.2738729608144137,
                2.2280449394394437,
                -0.9147818097281715,
                0.7522146631766414,
                3.144484980059906
            ]
        },
        {
            "positions": [
                -0.20899256303816646,
                -1.3074694495001946,
                2.292169350048683,
                -0.9483613267977233,
                0.9078716794156961,
                3.1579336669710645
            ]
        },
        {
            "positions": [
                -0.2753533812021117,
                -1.3410659381859755,
                2.3562937606579215,
                -0.9819408438672752,
                1.0635286956547507,
                3.171382353882223
            ]
        },
        {
            "positions": [
                -0.34171419936605707,
                -1.3746624268717567,
                2.42041817126716,
                -1.015520360936827,
                1.2191857118938054,
                3.1848310407933815
            ]
        }
    ]
}