{
    "goal": {
        "global_pose": {
            "orientation": {
                "w": -0.4816463035849501,
                "x": 0.5182115481033762,
                "y": 0.4908360881923453,
                "z": -0.5084816262002911
            },
            "position": {
                "x": -0.8240239810943604,
                "y": 0.19912469901144506,
                "z": 0.16403168439865112
            }
        },
        "name": "move_to_storage_D"
    },
    "id": "LBKPIECE_move_to_storage_D_138",
    "joint_names": [
        "shoulder_pan_joint",
        "shoulder_lift_joint",
        "elbow_joint",
        "wrist_1_joint",
        "wrist_2_joint",
        "wrist_3_joint"
    ],
    "metrics": {
        "cart_traj_len": 5.998687308220342,
        "distance_elbow_joint": 9.55356046878028,
        "distance_shoulder_lift_joint": 3.3745633036876574,
        "distance_shoulder_pan_joint": 3.1193654908496384,
        "distance_wrist_1_joint": 6.283311384071874,
        "distance_wrist_2_joint": 1.9259646171683726,
        "distance_wrist_3_joint": 3.132338431629669,
        "smoothness": 0.4943001028503662,
        "time": 0.465533258,
        "traj_len": 5.233460011902974,
        "weighted_distance": 6.470166656330198
    },
    "planner": "LBKPIECE",
    "start": {
        "state": {
            "elbow_joint": -2.384821988534728,
            "shoulder_lift_joint": -2.2788054721415256,
            "shoulder_pan_joint": -0.1854694642142757,
            "wrist_1_joint": 1.4845938289331202,
            "wrist_2_joint": 0.17898776772866878,
            "wrist_3_joint": 0.037105688729662994
        }
    },
    "waypoints": [
        {
            "positions": [
                -0.1854694642142757,
                -2.2788054721415256,
                -2.384821988534728,
                1.4845938289331202,
                0.17898776772866878,
                0.037105688729662994
            ]
        },
        {
            "positions": [
                -0.09315682844774344,
                -2.235379800740279,
                -2.2619972937954542,
                1.4012307596963978,
                0.18590366899255295,
                0.002587928876716064
            ]
        },
        {
            "positions": [
                -0.0008441926812111644,
                -2.1919541293390323,
                -2.139172599056181,
                1.3178676904596751,
                0.19281957025643714,
                -0.031929830976230866
            ]
        },
        {
            "positions": [
                0.09146844308532112,
                -2.1485284579377857,
                -2.0163479043169072,
                1.2345046212229525,
                0.1997354715203213,
                -0.06644759082917781
            ]
        },
        {
            "positions": [
                0.18378107885185338,
                -2.1051027865365386,
                -1.8935232095776335,
                1.15114155198623,
                0.20665137278420548,
                -0.10096535068212473
            ]
        },
        {
            "positions": [
                0.2760937146183857,
                -2.061677115135292,
                -1.7706985148383598,
                1.0677784827495076,
                0.21356727404808967,
                -0.1354831105350717
            ]
        },
        {
            "positions": [
                0.368406350384918,
                -2.0182514437340453,
                -1.6478738200990863,
                0.9844154135127849,
                0.22048317531197384,
                -0.17000087038801862
            ]
        },
        {
            "positions": [
                0.46071898615145035,
                -1.9748257723327987,
                -1.5250491253598129,
                0.9010523442760624,
                0.22739907657585803,
                -0.20451863024096556
            ]
        },
        {
            "positions": [
                0.5530316219179825,
                -1.931400100931552,
                -1.4022244306205391,
                0.8176892750393399,
                0.2343149778397422,
                -0.23903639009391245
            ]
        },
        {
            "positions": [
                0.6453442576845149,
                -1.8879744295303054,
                -1.2793997358812654,
                0.7343262058026173,
                0.2412308791036264,
                -0.27355414994685945
            ]
        },
        {
            "positions": [
                0.7376568934510471,
                -1.8445487581290587,
                -1.156575041141992,
                0.6509631365658948,
                0.24814678036751056,
                -0.30807190979980636
            ]
        },
        {
            "positions": [
                0.8299695292175794,
                -1.8011230867278119,
                -1.0337503464027185,
                0.5676000673291722,
                0.2550626816313947,
                -0.3425896696527533
            ]
        },
        {
            "positions": [
                0.9222821649841116,
                -1.7576974153265652,
                -0.9109256516634447,
                0.4842369980924497,
                0.2619785828952789,
                -0.3771074295057002
            ]
        },
        {
            "positions": [
                1.0145948007506438,
                -1.7142717439253186,
                -0.7881009569241713,
                0.40087392885572726,
                0.26889448415916306,
                -0.4116251893586471
            ]
        },
        {
            "positions": [
                1.1069074365171763,
                -1.6708460725240717,
                -0.6652762621848975,
                0.3175108596190046,
                0.27581038542304726,
                -0.44614294921159414
            ]
        },
        {
            "positions": [
                1.1992200722837083,
                -1.627420401122825,
                -0.5424515674456241,
                0.23414779038228195,
                0.28272628668693145,
                -0.48066070906454095
            ]
        },
        {
            "positions": [
                1.2915327080502406,
                -1.5839947297215784,
                -0.41962687270635035,
                0.15078472114555952,
                0.28964218795081564,
                -0.5151784689174879
            ]
        },
        {
            "positions": [
                1.383845343816773,
                -1.5405690583203318,
                -0.29680217796707664,
                0.06742165190883687,
                0.2965580892146998,
                -0.5496962287704349
            ]
        },
        {
            "positions": [
                1.4761579795833053,
                -1.497143386919085,
                -0.17397748322780293,
                -0.015941417327885565,
                0.303473990478584,
                -0.5842139886233818
            ]
        },
        {
            "positions": [
                1.5684706153498373,
                -1.4537177155178385,
                -0.051152788488529666,
                -0.099304486564608,
                0.3103898917424681,
                -0.6187317484763287
            ]
        },
        {
            "positions": [
                1.6607832511163698,
                -1.4102920441165916,
                0.07167190625074404,
                -0.18266755580133065,
                0.3173057930063523,
                -0.6532495083292758
            ]
        },
        {
            "positions": [
                1.753095886882902,
                -1.366866372715345,
                0.19449660099001775,
                -0.2660306250380531,
                0.3242216942702365,
                -0.6877672681822227
            ]
        },
        {
            "positions": [
                1.8454085226494343,
                -1.323440701314098,
                0.317321295729291,
                -0.34939369427477573,
                0.3311375955341207,
                -0.7222850280351695
            ]
        },
        {
            "positions": [
                1.9377211584159668,
                -1.2800150299128514,
                0.44014599046856473,
                -0.4327567635114984,
                0.3380534967980049,
                -0.7568027878881165
            ]
        },
        {
            "positions": [
                2.030033794182499,
                -1.2365893585116048,
                0.5629706852078383,
                -0.5161198327482208,
                0.34496939806188903,
                -0.7913205477410634
            ]
        },
        {
            "positions": [
                2.061332883331611,
                -1.1833676479889448,
                0.4517096362210714,
                -0.6112813559945901,
                0.3965875512969029,
                -0.8422223302686458
            ]
        },
        {
            "positions": [
                2.0926319724807234,
                -1.1301459374662846,
                0.34044858723430454,
                -0.7064428792409593,
                0.44820570453191666,
                -0.8931241127962283
            ]
        },
        {
            "positions": [
                2.123931061629836,
                -1.0769242269436246,
                0.22918753824753763,
                -0.8016044024873286,
                0.4998238577669305,
                -0.9440258953238106
            ]
        },
        {
            "positions": [
                2.1552301507789484,
                -1.0237025164209643,
                0.11792648926077076,
                -0.8967659257336977,
                0.5514420110019443,
                -0.994927677851393
            ]
        },
        {
            "positions": [
                2.1865292399280607,
                -0.9704808058983043,
                0.006665440274003842,
                -0.9919274489800671,
                0.6030601642369582,
                -1.0458294603789755
            ]
        },
        {
            "positions": [
                2.2178283290771734,
                -0.9172590953756442,
                -0.10459560871276308,
                -1.0870889722264363,
                0.6546783174719719,
                -1.0967312429065579
            ]
        },
        {
            "positions": [
                2.2491274182262857,
                -0.8640373848529841,
                -0.21585665769953,
                -1.1822504954728057,
                0.7062964707069859,
                -1.1476330254341403
            ]
        },
        {
            "positions": [
                2.280426507375398,
                -0.8108156743303241,
                -0.3271177066862968,
                -1.2774120187191746,
                0.7579146239419996,
                -1.1985348079617226
            ]
        },
        {
            "positions": [
                2.3117255965245103,
                -0.7575939638076639,
                -0.4383787556730637,
                -1.372573541965544,
                0.8095327771770134,
                -1.2494365904893052
            ]
        },
        {
            "positions": [
                2.3430246856736225,
                -0.7043722532850037,
                -0.5496398046598306,
                -1.4677350652119134,
                0.8611509304120273,
                -1.3003383730168876
            ]
        },
        {
            "positions": [
                2.3743237748227353,
                -0.6511505427623437,
                -0.6609008536465976,
                -1.5628965884582824,
                0.912769083647041,
                -1.35124015554447
            ]
        },
        {
            "positions": [
                2.4056228639718475,
                -0.5979288322396836,
                -0.7721619026333645,
                -1.6580581117046518,
                0.964387236882055,
                -1.4021419380720523
            ]
        },
        {
            "positions": [
                2.43692195312096,
                -0.5447071217170236,
                -0.8834229516201312,
                -1.753219634951021,
                1.0160053901170687,
                -1.4530437205996347
            ]
        },
        {
            "positions": [
                2.4682210422700726,
                -0.4914854111943634,
                -0.9946840006068983,
                -1.8483811581973904,
                1.0676235433520826,
                -1.503945503127217
            ]
        },
        {
            "positions": [
                2.499520131419185,
                -0.4382637006717034,
                -1.1059450495936654,
                -1.9435426814437595,
                1.1192416965870964,
                -1.5548472856547995
            ]
        },
        {
            "positions": [
                2.530819220568297,
                -0.3850419901490433,
                -1.2172060985804318,
                -2.038704204690129,
                1.17085984982211,
                -1.6057490681823818
            ]
        },
        {
            "positions": [
                2.5621183097174094,
                -0.33182027962638305,
                -1.3284671475671992,
                -2.133865727936498,
                1.222478003057124,
                -1.6566508507099644
            ]
        },
        {
            "positions": [
                2.5934173988665217,
                -0.27859856910372305,
                -1.4397281965539657,
                -2.2290272511828673,
                1.2740961562921378,
                -1.7075526332375468
            ]
        },
        {
            "positions": [
                2.6247164880156344,
                -0.22537685858106293,
                -1.5509892455407326,
                -2.3241887744292367,
                1.3257143095271515,
                -1.7584544157651292
            ]
        },
        {
            "positions": [
                2.6560155771647467,
                -0.1721551480584027,
                -1.6622502945274995,
                -2.4193502976756056,
                1.3773324627621657,
                -1.8093561982927118
            ]
        },
        {
            "positions": [
                2.687314666313859,
                -0.1189334375357427,
                -1.7735113435142664,
                -2.514511820921975,
                1.4289506159971794,
                -1.8602579808202941
            ]
        },
        {
            "positions": [
                2.7186137554629717,
                -0.0657117270130827,
                -1.8847723925010333,
                -2.609673344168344,
                1.4805687692321932,
                -1.9111597633478763
            ]
        },
        {
            "positions": [
                2.749912844612084,
                -0.012490016490422473,
                -1.9960334414878003,
                -2.704834867414714,
                1.5321869224672071,
                -1.962061545875459
            ]
        },
        {
            "positions": [
                2.7812119337611962,
                0.04073169403223753,
                -2.107294490474567,
                -2.7999963906610827,
                1.5838050757022208,
                -2.0129633284030413
            ]
        },
        {
            "positions": [
                2.7745734949405803,
                -0.005139007598801516,
                -1.9361856809373803,
                -2.7130954704664014,
                1.5611464970415765,
                -2.060018520337692
            ]
        },
        {
            "positions": [
                2.7679350561199643,
                -0.051009709229840564,
                -1.7650768714001932,
                -2.6261945502717206,
                1.5384879183809321,
                -2.1070737122723426
            ]
        },
        {
            "positions": [
                2.7612966172993483,
                -0.09688041086087962,
                -1.593968061863006,
                -2.5392936300770392,
                1.5158293397202878,
                -2.1541289042069933
            ]
        },
        {
            "positions": [
                2.7546581784787327,
                -0.14275111249191866,
                -1.4228592523258192,
                -2.4523927098823584,
                1.4931707610596434,
                -2.201184096141644
            ]
        },
        {
            "positions": [
                2.7480197396581167,
                -0.1886218141229577,
                -1.2517504427886323,
                -2.365491789687677,
                1.470512182398999,
                -2.2482392880762947
            ]
        },
        {
            "positions": [
                2.7413813008375008,
                -0.23449251575399677,
                -1.0806416332514452,
                -2.278590869492996,
                1.4478536037383547,
                -2.2952944800109454
            ]
        },
        {
            "positions": [
                2.7347428620168848,
                -0.28036321738503583,
                -0.9095328237142581,
                -2.191689949298315,
                1.4251950250777101,
                -2.342349671945596
            ]
        },
        {
            "positions": [
                2.728104423196269,
                -0.32623391901607485,
                -0.7384240141770713,
                -2.1047890291036335,
                1.4025364464170658,
                -2.3894048638802468
            ]
        },
        {
            "positions": [
                2.721465984375653,
                -0.3721046206471139,
                -0.5673152046398842,
                -2.0178881089089526,
                1.3798778677564214,
                -2.4364600558148974
            ]
        },
        {
            "positions": [
                2.714827545555037,
                -0.4179753222781529,
                -0.3962063951026973,
                -1.9309871887142713,
                1.357219289095777,
                -2.4835152477495477
            ]
        },
        {
            "positions": [
                2.708189106734421,
                -0.46384602390919194,
                -0.22509758556551018,
                -1.8440862685195902,
                1.3345607104351327,
                -2.5305704396841984
            ]
        },
        {
            "positions": [
                2.7015506679138053,
                -0.5097167255402311,
                -0.053988776028323304,
                -1.7571853483249091,
                1.3119021317744883,
                -2.577625631618849
            ]
        },
        {
            "positions": [
                2.6949122290931893,
                -0.5555874271712701,
                0.11712003350886357,
                -1.670284428130228,
                1.289243553113844,
                -2.6246808235534997
            ]
        },
        {
            "positions": [
                2.6882737902725733,
                -0.6014581288023092,
                0.2882288430460509,
                -1.5833835079355467,
                1.2665849744531996,
                -2.6717360154881504
            ]
        },
        {
            "positions": [
                2.6816353514519573,
                -0.6473288304333482,
                0.4593376525832378,
                -1.4964825877408656,
                1.2439263957925553,
                -2.718791207422801
            ]
        },
        {
            "positions": [
                2.6749969126313413,
                -0.6931995320643872,
                0.6304464621204247,
                -1.4095816675461845,
                1.221267817131911,
                -2.765846399357452
            ]
        },
        {
            "positions": [
                2.6683584738107253,
                -0.7390702336954262,
                0.8015552716576115,
                -1.3226807473515034,
                1.1986092384712665,
                -2.8129015912921025
            ]
        },
        {
            "positions": [
                2.6617200349901093,
                -0.7849409353264654,
                0.9726640811947989,
                -1.2357798271568223,
                1.175950659810622,
                -2.859956783226753
            ]
        },
        {
            "positions": [
                2.6550815961694934,
                -0.8308116369575044,
                1.1437728907319857,
                -1.1488789069621412,
                1.1532920811499776,
                -2.907011975161404
            ]
        },
        {
            "positions": [
                2.648443157348878,
                -0.8766823385885434,
                1.3148817002691726,
                -1.0619779867674601,
                1.1306335024893333,
                -2.9540671670960545
            ]
        },
        {
            "positions": [
                2.641804718528262,
                -0.9225530402195824,
                1.4859905098063595,
                -0.975077066572779,
                1.107974923828689,
                -3.0011223590307052
            ]
        },
        {
            "positions": [
                2.635166279707646,
                -0.9684237418506214,
                1.6570993193435468,
                -0.8881761463780977,
                1.0853163451680445,
                -3.048177550965356
            ]
        },
        {
            "positions": [
                2.62852784088703,
                -1.0142944434816605,
                1.8282081288807337,
                -0.8012752261834166,
                1.0626577665074002,
                -3.0952327429000066
            ]
        }
    ]
}