{
    "goal": {
        "global_pose": {
            "orientation": {
                "w": 0.7047431468963623,
                "x": -0.7094548344612122,
                "y": 0.0024358443915843964,
                "z": -0.0022348060738295317
            },
            "position": {
                "x": 0.6094750761985779,
                "y": 0.3671506643295288,
                "z": 0.19426114857196808
            }
        },
        "name": "move_to_magneteinheit_A"
    },
    "id": "LBKPIECE_move_to_magneteinheit_A_93",
    "joint_names": [
        "shoulder_pan_joint",
        "shoulder_lift_joint",
        "elbow_joint",
        "wrist_1_joint",
        "wrist_2_joint",
        "wrist_3_joint"
    ],
    "metrics": {
        "cart_traj_len": 3.134043760107294,
        "distance_elbow_joint": 3.90924430539979,
        "distance_shoulder_lift_joint": 0.46806755933279565,
        "distance_shoulder_pan_joint": 2.718433072955191,
        "distance_wrist_1_joint": 3.453339409906093,
        "distance_wrist_2_joint": 1.4458567687662127,
        "distance_wrist_3_joint": 0.4198020872596191,
        "smoothness": 0.005493367402230105,
        "time": 0.355957783,
        "traj_len": 3.5234561446993626,
        "weighted_distance": 4.260697543455911
    },
    "planner": "LBKPIECE",
    "start": {
        "state": {
            "elbow_joint": -1.9196185241190666,
            "shoulder_lift_joint": -1.2443396400964142,
            "shoulder_pan_joint": 2.6996025414629847,
            "wrist_1_joint": -1.5485510000780065,
            "wrist_2_joint": -1.5709468930060704,
            "wrist_3_joint": 0.4420197071253992
        }
    },
    "waypoints": [
        {
            "positions": [
                2.6996025414629847,
                -1.2443396400964142,
                -1.9196185241190666,
                -1.5485510000780065,
                -1.5709468930060704,
                0.4420197071253992
            ]
        },
        {
            "positions": [
                2.5965881542749054,
                -1.2394113777228275,
                -1.8054195457018987,
                -1.4451362947145006,
                -1.5158628246625647,
                0.4358112486582838
            ]
        },
        {
            "positions": [
                2.493573767086826,
                -1.2344831153492408,
                -1.691220567284731,
                -1.3417215893509944,
                -1.4607787563190593,
                0.42960279019116837
            ]
        },
        {
            "positions": [
                2.3905593798987463,
                -1.2295548529756544,
                -1.577021588867563,
                -1.2383068839874884,
                -1.4056946879755536,
                0.423394331724053
            ]
        },
        {
            "positions": [
                2.287544992710667,
                -1.2246265906020677,
                -1.4628226104503952,
                -1.1348921786239825,
                -1.350610619632048,
                0.41718587325693757
            ]
        },
        {
            "positions": [
                2.1845306055225877,
                -1.219698328228481,
                -1.3486236320332272,
                -1.0314774732604763,
                -1.2955265512885423,
                0.4109774147898222
            ]
        },
        {
            "positions": [
                2.0815162183345084,
                -1.2147700658548943,
                -1.2344246536160595,
                -0.9280627678969704,
                -1.240442482945037,
                0.40476895632270676
            ]
        },
        {
            "positions": [
                1.9785018311464289,
                -1.2098418034813077,
                -1.1202256751988915,
                -0.8246480625334642,
                -1.1853584146015312,
                0.3985604978555914
            ]
        },
        {
            "positions": [
                1.8754874439583493,
                -1.2049135411077212,
                -1.0060266967817237,
                -0.7212333571699583,
                -1.1302743462580256,
                0.39235203938847596
            ]
        },
        {
            "positions": [
                1.77247305677027,
                -1.1999852787341345,
                -0.8918277183645558,
                -0.6178186518064523,
                -1.07519027791452,
                0.3861435809213606
            ]
        },
        {
            "positions": [
                1.6694586695821907,
                -1.1950570163605478,
                -0.7776287399473878,
                -0.5144039464429462,
                -1.0201062095710145,
                0.3799351224542452
            ]
        },
        {
            "positions": [
                1.5664442823941114,
                -1.1901287539869612,
                -0.66342976153022,
                -0.41098924107944024,
                -0.9650221412275088,
                0.3737266639871298
            ]
        },
        {
            "positions": [
                1.4634298952060318,
                -1.1852004916133745,
                -0.5492307831130523,
                -0.3075745357159343,
                -0.9099380728840033,
                0.3675182055200144
            ]
        },
        {
            "positions": [
                1.3604155080179525,
                -1.180272229239788,
                -0.4350318046958841,
                -0.20415983035242813,
                -0.8548540045404976,
                0.361309747052899
            ]
        },
        {
            "positions": [
                1.257401120829873,
                -1.1753439668662014,
                -0.3208328262787161,
                -0.10074512498892196,
                -0.799769936196992,
                0.3551012885857836
            ]
        },
        {
            "positions": [
                1.1543867336417937,
                -1.1704157044926147,
                -0.2066338478615486,
                0.0026695803745837576,
                -0.7446858678534866,
                0.34889283011866823
            ]
        },
        {
            "positions": [
                1.0513723464537141,
                -1.165487442119028,
                -0.09243486944438062,
                0.10608428573808992,
                -0.6896017995099809,
                0.3426843716515528
            ]
        },
        {
            "positions": [
                0.9483579592656348,
                -1.1605591797454413,
                0.021764108972787355,
                0.2094989911015961,
                -0.6345177311664753,
                0.33647591318443737
            ]
        },
        {
            "positions": [
                0.8453435720775555,
                -1.1556309173718549,
                0.1359630873899551,
                0.3129136964651018,
                -0.5794336628229697,
                0.330267454717322
            ]
        },
        {
            "positions": [
                0.742329184889476,
                -1.1507026549982682,
                0.25016206580712286,
                0.416328401828608,
                -0.524349594479464,
                0.3240589962502066
            ]
        },
        {
            "positions": [
                0.6393147977013967,
                -1.1457743926246815,
                0.36436104422429105,
                0.5197431071921141,
                -0.4692655261359584,
                0.3178505377830912
            ]
        },
        {
            "positions": [
                0.5363004105133173,
                -1.1408461302510948,
                0.4785600226414588,
                0.6231578125556199,
                -0.41418145779245297,
                0.3116420793159758
            ]
        },
        {
            "positions": [
                0.433286023325238,
                -1.1359178678775081,
                0.5927590010586266,
                0.726572517919126,
                -0.3590973894489473,
                0.3054336208488604
            ]
        },
        {
            "positions": [
                0.33027163613715826,
                -1.1309896055039217,
                0.7069579794757948,
                0.8299872232826322,
                -0.30401332110544166,
                0.299225162381745
            ]
        },
        {
            "positions": [
                0.22725724894907895,
                -1.126061343130335,
                0.8211569578929621,
                0.9334019286461379,
                -0.24892925276193623,
                0.29301670391462964
            ]
        },
        {
            "positions": [
                0.1242428617609998,
                -1.1211330807567483,
                0.9353559363101303,
                1.0368166340096439,
                -0.19384518441843046,
                0.2868082454475142
            ]
        },
        {
            "positions": [
                0.08899038649460699,
                -1.0857774360454326,
                1.0515670441872245,
                1.1525895453833932,
                -0.19464325864559665,
                0.2554366451290088
            ]
        },
        {
            "positions": [
                0.05373791122821417,
                -1.050421791334117,
                1.1677781520643187,
                1.2683624567571425,
                -0.19544133287276283,
                0.22406504481050343
            ]
        },
        {
            "positions": [
                0.053308043384153715,
                -1.0049532820167246,
                1.307846992935964,
                1.3861758741524641,
                -0.18763096494251177,
                0.18535526871319635
            ]
        },
        {
            "positions": [
                0.05287817554009327,
                -0.9594847726993324,
                1.4479158338076092,
                1.5039892915477857,
                -0.17982059701226072,
                0.14664549261588924
            ]
        },
        {
            "positions": [
                0.052448307696032814,
                -0.9140162633819401,
                1.5879846746792547,
                1.6218027089431073,
                -0.17201022908200964,
                0.10793571651858216
            ]
        },
        {
            "positions": [
                0.05201843985197237,
                -0.8685477540645479,
                1.7280535155509,
                1.7396161263384289,
                -0.16419986115175858,
                0.06922594042127506
            ]
        },
        {
            "positions": [
                0.05158857200791191,
                -0.8230792447471555,
                1.8681223564225453,
                1.8574295437337505,
                -0.15638949322150753,
                0.030516164323967976
            ]
        },
        {
            "positions": [
                0.12200767550802921,
                -0.7762720807636185,
                1.9896257812807228,
                1.9047884098280847,
                -0.12828242114852237,
                0.022217619865780063
            ]
        }
    ]
}