{
    "goal": {
        "global_pose": {
            "orientation": {
                "w": 0.7047431468963623,
                "x": -0.7094548344612122,
                "y": 0.0024358443915843964,
                "z": -0.0022348060738295317
            },
            "position": {
                "x": 0.6094750761985779,
                "y": 0.3671506643295288,
                "z": 0.19426114857196808
            }
        },
        "name": "move_to_magneteinheit_A"
    },
    "id": "LBKPIECE_move_to_magneteinheit_A_47",
    "joint_names": [
        "shoulder_pan_joint",
        "shoulder_lift_joint",
        "elbow_joint",
        "wrist_1_joint",
        "wrist_2_joint",
        "wrist_3_joint"
    ],
    "metrics": {
        "cart_traj_len": 3.408270938224784,
        "distance_elbow_joint": 3.891820831157466,
        "distance_shoulder_lift_joint": 0.4183330930893181,
        "distance_shoulder_pan_joint": 3.009798139427704,
        "distance_wrist_1_joint": 1.1233704459263414,
        "distance_wrist_2_joint": 1.7841106222864949,
        "distance_wrist_3_joint": 3.6336781667399114,
        "smoothness": 0.2097386433524894,
        "time": 0.459483388,
        "traj_len": 3.7230513424645695,
        "weighted_distance": 4.902647111542896
    },
    "planner": "LBKPIECE",
    "start": {
        "state": {
            "elbow_joint": -1.9196185241190666,
            "shoulder_lift_joint": -1.2443396400964142,
            "shoulder_pan_joint": 2.6996025414629847,
            "wrist_1_joint": -1.5485510000780065,
            "wrist_2_joint": -1.5709468930060704,
            "wrist_3_joint": 0.4420197071253992
        }
    },
    "waypoints": [
        {
            "positions": [
                2.6996025414629847,
                -1.2443396400964142,
                -1.9196185241190666,
                -1.5485510000780065,
                -1.5709468930060704,
                0.4420197071253992
            ]
        },
        {
            "positions": [
                2.6046532389947776,
                -1.2503637833042827,
                -1.8068350494294765,
                -1.5186647315535837,
                -1.5164361980768177,
                0.35600160657998736
            ]
        },
        {
            "positions": [
                2.50970393652657,
                -1.2563879265121511,
                -1.6940515747398863,
                -1.488778463029161,
                -1.461925503147565,
                0.26998350603457555
            ]
        },
        {
            "positions": [
                2.414754634058363,
                -1.2624120697200194,
                -1.5812681000502962,
                -1.4588921945047382,
                -1.4074148082183127,
                0.18396540548916374
            ]
        },
        {
            "positions": [
                2.319805331590156,
                -1.2684362129278879,
                -1.468484625360706,
                -1.4290059259803154,
                -1.35290411328906,
                0.09794730494375192
            ]
        },
        {
            "positions": [
                2.224856029121949,
                -1.2744603561357564,
                -1.3557011506711159,
                -1.3991196574558926,
                -1.2983934183598074,
                0.01192920439834011
            ]
        },
        {
            "positions": [
                2.1299067266537417,
                -1.2804844993436248,
                -1.2429176759815257,
                -1.36923338893147,
                -1.2438827234305547,
                -0.0740888961470717
            ]
        },
        {
            "positions": [
                2.034957424185534,
                -1.286508642551493,
                -1.1301342012919355,
                -1.3393471204070473,
                -1.1893720285013023,
                -0.1601069966924834
            ]
        },
        {
            "positions": [
                1.940008121717327,
                -1.2925327857593616,
                -1.0173507266023454,
                -1.3094608518826245,
                -1.1348613335720497,
                -0.24612509723789533
            ]
        },
        {
            "positions": [
                1.84505881924912,
                -1.29855692896723,
                -0.9045672519127552,
                -1.2795745833582017,
                -1.080350638642797,
                -0.33214319778330703
            ]
        },
        {
            "positions": [
                1.7501095167809126,
                -1.3045810721750986,
                -0.7917837772231651,
                -1.249688314833779,
                -1.0258399437135444,
                -0.41816129832871896
            ]
        },
        {
            "positions": [
                1.6551602143127055,
                -1.3106052153829668,
                -0.6790003025335749,
                -1.2198020463093562,
                -0.9713292487842918,
                -0.5041793988741307
            ]
        },
        {
            "positions": [
                1.5602109118444982,
                -1.3166293585908353,
                -0.5662168278439847,
                -1.1899157777849334,
                -0.9168185538550392,
                -0.5901974994195426
            ]
        },
        {
            "positions": [
                1.4652616093762911,
                -1.3226535017987038,
                -0.4534333531543946,
                -1.1600295092605106,
                -0.8623078589257867,
                -0.6762155999649543
            ]
        },
        {
            "positions": [
                1.370312306908084,
                -1.3286776450065723,
                -0.34064987846480443,
                -1.1301432407360879,
                -0.8077971639965341,
                -0.762233700510366
            ]
        },
        {
            "positions": [
                1.275363004439877,
                -1.3347017882144407,
                -0.2278664037752145,
                -1.1002569722116653,
                -0.7532864690672816,
                -0.8482518010557777
            ]
        },
        {
            "positions": [
                1.1804137019716694,
                -1.340725931422309,
                -0.11508292908562412,
                -1.0703707036872423,
                -0.6987757741380288,
                -0.9342699016011898
            ]
        },
        {
            "positions": [
                1.0854643995034623,
                -1.3467500746301775,
                -0.002299454396033962,
                -1.0404844351628197,
                -0.6442650792087763,
                -1.0202880021466014
            ]
        },
        {
            "positions": [
                0.9905150970352552,
                -1.352774217838046,
                0.1104840202935562,
                -1.010598166638397,
                -0.5897543842795238,
                -1.1063061026920131
            ]
        },
        {
            "positions": [
                0.8955657945670481,
                -1.3587983610459144,
                0.22326749498314635,
                -0.9807118981139742,
                -0.5352436893502712,
                -1.1923242032374248
            ]
        },
        {
            "positions": [
                0.8006164920988406,
                -1.3648225042537827,
                0.3360509696727365,
                -0.9508256295895514,
                -0.48073299442101836,
                -1.278342303782837
            ]
        },
        {
            "positions": [
                0.7056671896306335,
                -1.3708466474616512,
                0.44883444436232667,
                -0.9209393610651286,
                -0.42622229949176593,
                -1.3643604043282487
            ]
        },
        {
            "positions": [
                0.6107178871624264,
                -1.3768707906695197,
                0.5616179190519168,
                -0.8910530925407059,
                -0.3717116045625133,
                -1.4503785048736604
            ]
        },
        {
            "positions": [
                0.5157685846942193,
                -1.3828949338773882,
                0.674401393741507,
                -0.8611668240162832,
                -0.31720090963326086,
                -1.536396605419072
            ]
        },
        {
            "positions": [
                0.4208192822260117,
                -1.3889190770852564,
                0.7871848684310971,
                -0.8312805554918603,
                -0.262690214704008,
                -1.6224147059644842
            ]
        },
        {
            "positions": [
                0.32586997975780463,
                -1.394943220293125,
                0.8999683431206873,
                -0.8013942869674376,
                -0.20817951977475557,
                -1.708432806509896
            ]
        },
        {
            "positions": [
                0.2309206772895975,
                -1.4009673635009934,
                1.0127518178102772,
                -0.7715080184430149,
                -0.15366882484550304,
                -1.7944509070553076
            ]
        },
        {
            "positions": [
                0.19026966749677898,
                -1.3766580841970657,
                1.1021855759736874,
                -0.7504848631191585,
                -0.11339543196405821,
                -1.967802850655081
            ]
        },
        {
            "positions": [
                0.14961865770396046,
                -1.3523488048931382,
                1.1916193341370978,
                -0.7294617077953021,
                -0.07312203908261339,
                -2.1411547942548546
            ]
        },
        {
            "positions": [
                0.10896764791114194,
                -1.3280395255892108,
                1.281053092300508,
                -0.7084385524714457,
                -0.03284864620116856,
                -2.314506737854628
            ]
        },
        {
            "positions": [
                0.06831663811832342,
                -1.3037302462852831,
                1.370486850463918,
                -0.6874153971475894,
                0.007424746680276262,
                -2.4878586814544015
            ]
        },
        {
            "positions": [
                0.0276656283255049,
                -1.2794209669813554,
                1.4599206086273284,
                -0.666392241823733,
                0.04769813956172109,
                -2.661210625054175
            ]
        },
        {
            "positions": [
                -0.012985381467313623,
                -1.255111687677428,
                1.5493543667907386,
                -0.6453690864998767,
                0.08797153244316591,
                -2.8345625686539484
            ]
        },
        {
            "positions": [
                -0.053636391260132116,
                -1.2308024083735005,
                1.6387881249541487,
                -0.6243459311760202,
                0.12824492532461074,
                -3.0079145122537216
            ]
        },
        {
            "positions": [
                -0.09428740105295065,
                -1.2064931290695728,
                1.728221883117559,
                -0.6033227758521639,
                0.16851831820605553,
                -3.1812664558534953
            ]
        },
        {
            "positions": [
                0.013666697402933706,
                -1.1728775614429137,
                1.8502120950779792,
                -0.6923938867024133,
                0.1461956126688706,
                -3.1864624577340033
            ]
        },
        {
            "positions": [
                0.12162079585881808,
                -1.1392619938162545,
                1.9722023070383994,
                -0.7814649975526626,
                0.12387290713168565,
                -3.1916584596145117
            ]
        }
    ]
}