{
    "goal": {
        "global_pose": {
            "orientation": {
                "w": 0.7031023480610252,
                "x": -0.7110244013736278,
                "y": 0.0077485991402295624,
                "z": 0.005598929693374583
            },
            "position": {
                "x": -0.8841497679147869,
                "y": 0.44412534475326537,
                "z": 0.3711530566215515
            }
        },
        "name": "move_to_auspresseinheit_D"
    },
    "id": "LBKPIECE_move_to_auspresseinheit_D_76",
    "joint_names": [
        "shoulder_pan_joint",
        "shoulder_lift_joint",
        "elbow_joint",
        "wrist_1_joint",
        "wrist_2_joint",
        "wrist_3_joint"
    ],
    "metrics": {
        "cart_traj_len": 0.34395226476724733,
        "distance_elbow_joint": 0.642884951086125,
        "distance_shoulder_lift_joint": 0.12339612174197345,
        "distance_shoulder_pan_joint": 0.13496652178292473,
        "distance_wrist_1_joint": 0.5535437088712372,
        "distance_wrist_2_joint": 1.4296701766036306,
        "distance_wrist_3_joint": 0.017978011146040807,
        "smoothness": 3.947459674368863e-16,
        "time": 0.329407449,
        "traj_len": 1.7036547453142998,
        "weighted_distance": 2.218470058170468
    },
    "planner": "LBKPIECE",
    "start": {
        "state": {
            "elbow_joint": -1.8275523626775212,
            "shoulder_lift_joint": -2.126789852344167,
            "shoulder_pan_joint": -0.03513704404078235,
            "wrist_1_joint": -2.347782403156801,
            "wrist_2_joint": -1.6058999987535132,
            "wrist_3_joint": -3.0880379163319196
        }
    },
    "waypoints": [
        {
            "positions": [
                -0.03513704404078235,
                -2.126789852344167,
                -1.8275523626775212,
                -2.347782403156801,
                -1.6058999987535132,
                -3.0880379163319196
            ]
        },
        {
            "positions": [
                -0.05200785926364794,
                -2.1422143675619134,
                -1.7471917437917557,
                -2.4169753667657057,
                -1.4271912266780593,
                -3.0857906649386644
            ]
        },
        {
            "positions": [
                -0.06887867448651352,
                -2.1576388827796604,
                -1.66683112490599,
                -2.48616833037461,
                -1.2484824546026054,
                -3.083543413545409
            ]
        },
        {
            "positions": [
                -0.08574948970937912,
                -2.173063397997407,
                -1.5864705060202242,
                -2.555361293983515,
                -1.0697736825271518,
                -3.0812961621521544
            ]
        },
        {
            "positions": [
                -0.10262030493224472,
                -2.1884879132151536,
                -1.5061098871344587,
                -2.6245542575924192,
                -0.8910649104516979,
                -3.079048910758899
            ]
        },
        {
            "positions": [
                -0.11949112015511032,
                -2.2039124284329,
                -1.4257492682486932,
                -2.693747221201324,
                -0.712356138376244,
                -3.076801659365644
            ]
        },
        {
            "positions": [
                -0.1363619353779759,
                -2.2193369436506467,
                -1.3453886493629275,
                -2.762940184810229,
                -0.5336473663007903,
                -3.074554407972389
            ]
        },
        {
            "positions": [
                -0.1532327506008415,
                -2.2347614588683937,
                -1.2650280304771617,
                -2.832133148419133,
                -0.35493859422533647,
                -3.072307156579134
            ]
        },
        {
            "positions": [
                -0.1701035658237071,
                -2.2501859740861403,
                -1.1846674115913962,
                -2.901326112028038,
                -0.1762298221498826,
                -3.070059905185879
            ]
        }
    ]
}