{
    "goal": {
        "global_pose": {
            "orientation": {
                "w": 0.005598929693374612,
                "x": 0.007748599140229565,
                "y": 0.7110244013736278,
                "z": -0.7031023480610252
            },
            "position": {
                "x": 0.1141497679147869,
                "y": -0.7141253447532654,
                "z": 0.3711530566215515
            }
        },
        "name": "move_to_auspresseinheit_B"
    },
    "id": "LBKPIECE_move_to_auspresseinheit_B_74",
    "joint_names": [
        "shoulder_pan_joint",
        "shoulder_lift_joint",
        "elbow_joint",
        "wrist_1_joint",
        "wrist_2_joint",
        "wrist_3_joint"
    ],
    "metrics": {
        "cart_traj_len": 0.5653908301848443,
        "distance_elbow_joint": 0.06480152662610883,
        "distance_shoulder_lift_joint": 0.2952022477346876,
        "distance_shoulder_pan_joint": 0.5792174245841215,
        "distance_wrist_1_joint": 0.3376173468675884,
        "distance_wrist_2_joint": 0.9876001283479909,
        "distance_wrist_3_joint": 0.002772601647409001,
        "smoothness": 5.075305255429287e-16,
        "time": 0.196136874,
        "traj_len": 1.5057261622911073,
        "weighted_distance": 1.8968326110435532
    },
    "planner": "LBKPIECE",
    "start": {
        "state": {
            "elbow_joint": 2.0193083361928714,
            "shoulder_lift_joint": -1.1220246554650708,
            "shoulder_pan_joint": -1.0952077554168747,
            "wrist_1_joint": -0.8559753972642168,
            "wrist_2_joint": 0.4759566250798843,
            "wrist_3_joint": -3.1240929996934557
        }
    },
    "waypoints": [
        {
            "positions": [
                -1.0952077554168747,
                -1.1220246554650708,
                2.0193083361928714,
                -0.8559753972642168,
                0.4759566250798843,
                -3.1240929996934557
            ]
        },
        {
            "positions": [
                -1.1917439928475615,
                -1.1712250300875187,
                2.0085080817551866,
                -0.799705839452952,
                0.6405566464712161,
                -3.124555099968024
            ]
        },
        {
            "positions": [
                -1.2882802302782486,
                -1.2204254047099667,
                1.9977078273175017,
                -0.7434362816416873,
                0.8051566678625479,
                -3.125017200242592
            ]
        },
        {
            "positions": [
                -1.3848164677089354,
                -1.2696257793324146,
                1.986907572879817,
                -0.6871667238304227,
                0.9697566892538798,
                -3.12547930051716
            ]
        },
        {
            "positions": [
                -1.4813527051396223,
                -1.3188261539548625,
                1.9761073184421323,
                -0.6308971660191579,
                1.1343567106452115,
                -3.1259414007917283
            ]
        },
        {
            "positions": [
                -1.5778889425703093,
                -1.3680265285773106,
                1.9653070640044474,
                -0.5746276082078932,
                1.2989567320365434,
                -3.1264035010662967
            ]
        },
        {
            "positions": [
                -1.6744251800009962,
                -1.4172269031997584,
                1.9545068095667626,
                -0.5183580503966284,
                1.4635567534278753,
                -3.1268656013408647
            ]
        }
    ]
}