{
    "goal": {
        "global_pose": {
            "orientation": {
                "w": 0.7031023480610252,
                "x": -0.7110244013736278,
                "y": 0.0077485991402295624,
                "z": 0.005598929693374583
            },
            "position": {
                "x": -0.8841497679147869,
                "y": 0.44412534475326537,
                "z": 0.3711530566215515
            }
        },
        "name": "move_to_auspresseinheit_D"
    },
    "id": "LBKPIECE_move_to_auspresseinheit_D_135",
    "joint_names": [
        "shoulder_pan_joint",
        "shoulder_lift_joint",
        "elbow_joint",
        "wrist_1_joint",
        "wrist_2_joint",
        "wrist_3_joint"
    ],
    "metrics": {
        "cart_traj_len": 0.34465985947866934,
        "distance_elbow_joint": 0.6554587036490767,
        "distance_shoulder_lift_joint": 0.13067860968142142,
        "distance_shoulder_pan_joint": 0.13457348930617688,
        "distance_wrist_1_joint": 0.5793109745098106,
        "distance_wrist_2_joint": 1.440481337344388,
        "distance_wrist_3_joint": 0.04366362610947583,
        "smoothness": 0.0,
        "time": 0.223361443,
        "traj_len": 1.7274740925988874,
        "weighted_distance": 2.2563878887889603
    },
    "planner": "LBKPIECE",
    "start": {
        "state": {
            "elbow_joint": -1.8275523626775212,
            "shoulder_lift_joint": -2.126789852344167,
            "shoulder_pan_joint": -0.03513704404078235,
            "wrist_1_joint": -2.347782403156801,
            "wrist_2_joint": -1.6058999987535132,
            "wrist_3_joint": -3.0880379163319196
        }
    },
    "waypoints": [
        {
            "positions": [
                -0.03513704404078235,
                -2.126789852344167,
                -1.8275523626775212,
                -2.347782403156801,
                -1.6058999987535132,
                -3.0880379163319196
            ]
        },
        {
            "positions": [
                -0.05195873020405446,
                -2.1431246785543445,
                -1.7456200247213867,
                -2.420196274970527,
                -1.4258398315854648,
                -3.082579963068235
            ]
        },
        {
            "positions": [
                -0.06878041636732657,
                -2.159459504764522,
                -1.6636876867652521,
                -2.4926101467842536,
                -1.2457796644174162,
                -3.0771220098045506
            ]
        },
        {
            "positions": [
                -0.08560210253059869,
                -2.1757943309747,
                -1.5817553488091174,
                -2.56502401859798,
                -1.0657194972493675,
                -3.0716640565408664
            ]
        },
        {
            "positions": [
                -0.10242378869387078,
                -2.1921291571848776,
                -1.4998230108529829,
                -2.6374378904117064,
                -0.8856593300813191,
                -3.0662061032771817
            ]
        },
        {
            "positions": [
                -0.1192454748571429,
                -2.2084639833950552,
                -1.4178906728968483,
                -2.7098517622254326,
                -0.7055991629132706,
                -3.060748150013497
            ]
        },
        {
            "positions": [
                -0.13606716102041502,
                -2.224798809605233,
                -1.3359583349407136,
                -2.7822656340391587,
                -0.5255389957452221,
                -3.0552901967498127
            ]
        },
        {
            "positions": [
                -0.15288884718368712,
                -2.2411336358154106,
                -1.254025996984579,
                -2.854679505852885,
                -0.3454788285771735,
                -3.0498322434861285
            ]
        },
        {
            "positions": [
                -0.16971053334695924,
                -2.2574684620255883,
                -1.1720936590284445,
                -2.9270933776666115,
                -0.1654186614091251,
                -3.0443742902224438
            ]
        }
    ]
}