{
    "goal": {
        "global_pose": {
            "orientation": {
                "w": 0.7047431468963623,
                "x": -0.7094548344612122,
                "y": 0.0024358443915843964,
                "z": -0.0022348060738295317
            },
            "position": {
                "x": 0.6094750761985779,
                "y": 0.3671506643295288,
                "z": 0.19426114857196808
            }
        },
        "name": "move_to_magneteinheit_A"
    },
    "id": "LBKPIECE_move_to_magneteinheit_A_44",
    "joint_names": [
        "shoulder_pan_joint",
        "shoulder_lift_joint",
        "elbow_joint",
        "wrist_1_joint",
        "wrist_2_joint",
        "wrist_3_joint"
    ],
    "metrics": {
        "cart_traj_len": 3.7291920437705506,
        "distance_elbow_joint": 3.898702456351721,
        "distance_shoulder_lift_joint": 0.3597629392363868,
        "distance_shoulder_pan_joint": 2.8431738705057255,
        "distance_wrist_1_joint": 0.7443418711501922,
        "distance_wrist_2_joint": 1.7131718693196225,
        "distance_wrist_3_joint": 2.66298162896039,
        "smoothness": 0.175061165391056,
        "time": 0.226091129,
        "traj_len": 3.4960169672820576,
        "weighted_distance": 4.4727633107414295
    },
    "planner": "LBKPIECE",
    "start": {
        "state": {
            "elbow_joint": -1.9196185241190666,
            "shoulder_lift_joint": -1.2443396400964142,
            "shoulder_pan_joint": 2.6996025414629847,
            "wrist_1_joint": -1.5485510000780065,
            "wrist_2_joint": -1.5709468930060704,
            "wrist_3_joint": 0.4420197071253992
        }
    },
    "waypoints": [
        {
            "positions": [
                2.6996025414629847,
                -1.2443396400964142,
                -1.9196185241190666,
                -1.5485510000780065,
                -1.5709468930060704,
                0.4420197071253992
            ]
        },
        {
            "positions": [
                2.5953622200920474,
                -1.235685228596761,
                -1.7985087707760685,
                -1.5283717255698743,
                -1.5116745032247143,
                0.5233231515610937
            ]
        },
        {
            "positions": [
                2.49112189872111,
                -1.227030817097108,
                -1.6773990174330704,
                -1.5081924510617422,
                -1.452402113443358,
                0.6046265959967881
            ]
        },
        {
            "positions": [
                2.3868815773501733,
                -1.2183764055974549,
                -1.5562892640900725,
                -1.48801317655361,
                -1.393129723662002,
                0.6859300404324826
            ]
        },
        {
            "positions": [
                2.282641255979236,
                -1.2097219940978017,
                -1.4351795107470744,
                -1.4678339020454778,
                -1.3338573338806456,
                0.7672334848681771
            ]
        },
        {
            "positions": [
                2.1784009346082986,
                -1.2010675825981487,
                -1.3140697574040763,
                -1.4476546275373456,
                -1.2745849440992896,
                0.8485369293038716
            ]
        },
        {
            "positions": [
                2.0741606132373613,
                -1.1924131710984955,
                -1.1929600040610782,
                -1.4274753530292135,
                -1.2153125543179333,
                0.9298403737395661
            ]
        },
        {
            "positions": [
                1.9699202918664245,
                -1.1837587595988424,
                -1.0718502507180803,
                -1.4072960785210815,
                -1.1560401645365772,
                1.0111438181752606
            ]
        },
        {
            "positions": [
                1.8656799704954872,
                -1.1751043480991894,
                -0.950740497375082,
                -1.3871168040129493,
                -1.0967677747552211,
                1.0924472626109551
            ]
        },
        {
            "positions": [
                1.7614396491245499,
                -1.1664499365995362,
                -0.829630744032084,
                -1.3669375295048172,
                -1.037495384973865,
                1.1737507070466493
            ]
        },
        {
            "positions": [
                1.6571993277536126,
                -1.157795525099883,
                -0.7085209906890859,
                -1.346758254996685,
                -0.9782229951925088,
                1.255054151482344
            ]
        },
        {
            "positions": [
                1.5529590063826755,
                -1.14914111360023,
                -0.587411237346088,
                -1.3265789804885528,
                -0.9189506054111527,
                1.3363575959180385
            ]
        },
        {
            "positions": [
                1.4487186850117382,
                -1.140486702100577,
                -0.4663014840030897,
                -1.3063997059804207,
                -0.8596782156297964,
                1.417661040353733
            ]
        },
        {
            "positions": [
                1.344478363640801,
                -1.131832290600924,
                -0.3451917306600918,
                -1.2862204314722885,
                -0.8004058258484403,
                1.4989644847894272
            ]
        },
        {
            "positions": [
                1.240238042269864,
                -1.1231778791012708,
                -0.2240819773170939,
                -1.2660411569641563,
                -0.7411334360670843,
                1.5802679292251218
            ]
        },
        {
            "positions": [
                1.135997720898927,
                -1.1145234676016176,
                -0.10297222397409578,
                -1.2458618824560241,
                -0.6818610462857281,
                1.661571373660816
            ]
        },
        {
            "positions": [
                1.0317573995279894,
                -1.1058690561019646,
                0.01813752936890256,
                -1.225682607947892,
                -0.6225886565043718,
                1.742874818096511
            ]
        },
        {
            "positions": [
                0.9275170781570523,
                -1.0972146446023114,
                0.13924728271190068,
                -1.2055033334397598,
                -0.5633162667230156,
                1.8241782625322052
            ]
        },
        {
            "positions": [
                0.8232767567861152,
                -1.0885602331026583,
                0.26035703605489857,
                -1.1853240589316276,
                -0.5040438769416595,
                1.9054817069678998
            ]
        },
        {
            "positions": [
                0.7190364354151779,
                -1.0799058216030053,
                0.38146678939789647,
                -1.1651447844234957,
                -0.44477148716030346,
                1.986785151403594
            ]
        },
        {
            "positions": [
                0.6147961140442404,
                -1.0712514101033521,
                0.5025765427408948,
                -1.1449655099153633,
                -0.38549909737894716,
                2.068088595839289
            ]
        },
        {
            "positions": [
                0.5105557926733035,
                -1.062596998603699,
                0.6236862960838927,
                -1.1247862354072313,
                -0.3262267075975911,
                2.149392040274983
            ]
        },
        {
            "positions": [
                0.4063154713023662,
                -1.053942587104046,
                0.7447960494268906,
                -1.1046069608990992,
                -0.266954317816235,
                2.2306954847106777
            ]
        },
        {
            "positions": [
                0.30207514993142937,
                -1.0452881756043928,
                0.8659058027698889,
                -1.084427686390967,
                -0.20768192803487873,
                2.311998929146372
            ]
        },
        {
            "positions": [
                0.19783482856049162,
                -1.0366337641047396,
                0.9870155561128873,
                -1.0642484118828348,
                -0.14840953825352243,
                2.393302373582067
            ]
        },
        {
            "positions": [
                0.09359450718955475,
                -1.0279793526050867,
                1.1081253094558852,
                -1.0440691373747026,
                -0.08913714847216636,
                2.474605818017761
            ]
        },
        {
            "positions": [
                -0.01064581418138269,
                -1.0193249411054335,
                1.2292350627988828,
                -1.0238898628665705,
                -0.029864758690810317,
                2.5559092624534556
            ]
        },
        {
            "positions": [
                0.01466535558847087,
                -1.0452399687001195,
                1.376359622334874,
                -0.9812290700450176,
                0.00422322370220516,
                2.663836717176096
            ]
        },
        {
            "positions": [
                0.03997652535832443,
                -1.0711549962948055,
                1.523484181870865,
                -0.9385682772234647,
                0.03831120609522064,
                2.7717641718987367
            ]
        },
        {
            "positions": [
                0.06528769512817799,
                -1.0970700238894913,
                1.6706087414068562,
                -0.8959074844019117,
                0.07239918848823611,
                2.8796916266213772
            ]
        },
        {
            "positions": [
                0.09059886489803155,
                -1.1229850514841773,
                1.8177333009428474,
                -0.8532466915803588,
                0.10648717088125159,
                2.9876190813440178
            ]
        },
        {
            "positions": [
                0.1159100346678851,
                -1.1489000790788633,
                1.9648578604788385,
                -0.8105858987588059,
                0.14057515327426706,
                3.0955465360666583
            ]
        },
        {
            "positions": [
                0.12227970067997519,
                -1.143726976806887,
                1.9790839322326543,
                -0.8042091289278143,
                0.13892533023498235,
                3.105001336085789
            ]
        }
    ]
}