{
    "goal": {
        "global_pose": {
            "orientation": {
                "w": 0.7031023480610252,
                "x": -0.7110244013736278,
                "y": 0.0077485991402295624,
                "z": 0.005598929693374583
            },
            "position": {
                "x": -0.8841497679147869,
                "y": 0.44412534475326537,
                "z": 0.3711530566215515
            }
        },
        "name": "move_to_auspresseinheit_D"
    },
    "id": "LBKPIECE_move_to_auspresseinheit_D_134",
    "joint_names": [
        "shoulder_pan_joint",
        "shoulder_lift_joint",
        "elbow_joint",
        "wrist_1_joint",
        "wrist_2_joint",
        "wrist_3_joint"
    ],
    "metrics": {
        "cart_traj_len": 0.34359999944914577,
        "distance_elbow_joint": 0.6402464561067989,
        "distance_shoulder_lift_joint": 0.12201226537022869,
        "distance_shoulder_pan_joint": 0.1337283885495907,
        "distance_wrist_1_joint": 0.5285464580443935,
        "distance_wrist_2_joint": 1.4487022349880878,
        "distance_wrist_3_joint": 0.0020579033269383373,
        "smoothness": 0.0,
        "time": 0.318943266,
        "traj_len": 1.6956691028576414,
        "weighted_distance": 2.2037827039144298
    },
    "planner": "LBKPIECE",
    "start": {
        "state": {
            "elbow_joint": -1.8275523626775212,
            "shoulder_lift_joint": -2.126789852344167,
            "shoulder_pan_joint": -0.03513704404078235,
            "wrist_1_joint": -2.347782403156801,
            "wrist_2_joint": -1.6058999987535132,
            "wrist_3_joint": -3.0880379163319196
        }
    },
    "waypoints": [
        {
            "positions": [
                -0.03513704404078235,
                -2.126789852344167,
                -1.8275523626775212,
                -2.347782403156801,
                -1.6058999987535132,
                -3.0880379163319196
            ]
        },
        {
            "positions": [
                -0.05185309260948119,
                -2.142041385515445,
                -1.7475215556641714,
                -2.41385071041235,
                -1.4248122193800021,
                -3.087780678416052
            ]
        },
        {
            "positions": [
                -0.06856914117818003,
                -2.157292918686724,
                -1.6674907486508215,
                -2.4799190176678994,
                -1.2437244400064913,
                -3.087523440500185
            ]
        },
        {
            "positions": [
                -0.08528518974687888,
                -2.172544451858003,
                -1.5874599416374715,
                -2.5459873249234484,
                -1.0626366606329802,
                -3.087266202584318
            ]
        },
        {
            "positions": [
                -0.1020012383155777,
                -2.187795985029281,
                -1.5074291346241218,
                -2.612055632178998,
                -0.8815488812594693,
                -3.0870089646684504
            ]
        },
        {
            "positions": [
                -0.11871728688427655,
                -2.2030475182005596,
                -1.427398327610772,
                -2.678123939434547,
                -0.7004611018859583,
                -3.086751726752583
            ]
        },
        {
            "positions": [
                -0.1354333354529754,
                -2.2182990513718384,
                -1.347367520597422,
                -2.744192246690096,
                -0.5193733225124473,
                -3.086494488836716
            ]
        },
        {
            "positions": [
                -0.15214938402167422,
                -2.233550584543117,
                -1.267336713584072,
                -2.8102605539456453,
                -0.33828554313893644,
                -3.0862372509208487
            ]
        },
        {
            "positions": [
                -0.16886543259037307,
                -2.2488021177143955,
                -1.1873059065707223,
                -2.8763288612011944,
                -0.15719776376542538,
                -3.0859800130049813
            ]
        }
    ]
}