{
    "goal": {
        "global_pose": {
            "orientation": {
                "w": 0.005598929693374612,
                "x": 0.007748599140229565,
                "y": 0.7110244013736278,
                "z": -0.7031023480610252
            },
            "position": {
                "x": 0.1141497679147869,
                "y": -0.7141253447532654,
                "z": 0.3711530566215515
            }
        },
        "name": "move_to_auspresseinheit_B"
    },
    "id": "LBKPIECE_move_to_auspresseinheit_B_150",
    "joint_names": [
        "shoulder_pan_joint",
        "shoulder_lift_joint",
        "elbow_joint",
        "wrist_1_joint",
        "wrist_2_joint",
        "wrist_3_joint"
    ],
    "metrics": {
        "cart_traj_len": 0.5643638667812945,
        "distance_elbow_joint": 0.06355403951970429,
        "distance_shoulder_lift_joint": 0.2947142078926277,
        "distance_shoulder_pan_joint": 0.5764064135006133,
        "distance_wrist_1_joint": 0.3274168402339094,
        "distance_wrist_2_joint": 0.9914908182854916,
        "distance_wrist_3_joint": 0.0002181431728955907,
        "smoothness": 2.5376526478085547e-16,
        "time": 0.298099604,
        "traj_len": 1.5012662863746864,
        "weighted_distance": 1.8902762780795916
    },
    "planner": "LBKPIECE",
    "start": {
        "state": {
            "elbow_joint": 2.0193083361928714,
            "shoulder_lift_joint": -1.1220246554650708,
            "shoulder_pan_joint": -1.0952077554168747,
            "wrist_1_joint": -0.8559753972642168,
            "wrist_2_joint": 0.4759566250798843,
            "wrist_3_joint": -3.1240929996934557
        }
    },
    "waypoints": [
        {
            "positions": [
                -1.0952077554168747,
                -1.1220246554650708,
                2.0193083361928714,
                -0.8559753972642168,
                0.4759566250798843,
                -3.1240929996934557
            ]
        },
        {
            "positions": [
                -1.1912754910003103,
                -1.1711436901138421,
                2.0087159962729206,
                -0.8014059238918986,
                0.6412050947941329,
                -3.124056642497973
            ]
        },
        {
            "positions": [
                -1.2873432265837457,
                -1.2202627247626134,
                1.99812365635297,
                -0.7468364505195804,
                0.8064535645083815,
                -3.1240202853024903
            ]
        },
        {
            "positions": [
                -1.3834109621671813,
                -1.2693817594113845,
                1.9875313164330193,
                -0.692266977147262,
                0.9717020342226301,
                -3.123983928107008
            ]
        },
        {
            "positions": [
                -1.4794786977506167,
                -1.3185007940601559,
                1.9769389765130685,
                -0.6376975037749439,
                1.1369505039368786,
                -3.1239475709115254
            ]
        },
        {
            "positions": [
                -1.5755464333340523,
                -1.3676198287089272,
                1.966346636593118,
                -0.5831280304026256,
                1.3021989736511272,
                -3.1239112137160427
            ]
        },
        {
            "positions": [
                -1.671614168917488,
                -1.4167388633576985,
                1.9557542966731671,
                -0.5285585570303074,
                1.467447443365376,
                -3.12387485652056
            ]
        }
    ]
}