{
    "goal": {
        "global_pose": {
            "orientation": {
                "w": 0.005598929693374612,
                "x": 0.007748599140229565,
                "y": 0.7110244013736278,
                "z": -0.7031023480610252
            },
            "position": {
                "x": 0.1141497679147869,
                "y": -0.7141253447532654,
                "z": 0.3711530566215515
            }
        },
        "name": "move_to_auspresseinheit_B"
    },
    "id": "LBKPIECE_move_to_auspresseinheit_B_71",
    "joint_names": [
        "shoulder_pan_joint",
        "shoulder_lift_joint",
        "elbow_joint",
        "wrist_1_joint",
        "wrist_2_joint",
        "wrist_3_joint"
    ],
    "metrics": {
        "cart_traj_len": 0.5650930890990826,
        "distance_elbow_joint": 0.0659428281016976,
        "distance_shoulder_lift_joint": 0.29312626274203235,
        "distance_shoulder_pan_joint": 0.5777479387785298,
        "distance_wrist_1_joint": 0.3355837416262346,
        "distance_wrist_2_joint": 0.990296359906303,
        "distance_wrist_3_joint": 0.004472134381162007,
        "smoothness": 0.0,
        "time": 0.543500949,
        "traj_len": 1.5057122120564606,
        "weighted_distance": 1.8978918925562702
    },
    "planner": "LBKPIECE",
    "start": {
        "state": {
            "elbow_joint": 2.0193083361928714,
            "shoulder_lift_joint": -1.1220246554650708,
            "shoulder_pan_joint": -1.0952077554168747,
            "wrist_1_joint": -0.8559753972642168,
            "wrist_2_joint": 0.4759566250798843,
            "wrist_3_joint": -3.1240929996934557
        }
    },
    "waypoints": [
        {
            "positions": [
                -1.0952077554168747,
                -1.1220246554650708,
                2.0193083361928714,
                -0.8559753972642168,
                0.4759566250798843,
                -3.1240929996934557
            ]
        },
        {
            "positions": [
                -1.1914990785466295,
                -1.1708790325887428,
                2.0083178648425886,
                -0.8000447736598444,
                0.6410060183976014,
                -3.123347643963262
            ]
        },
        {
            "positions": [
                -1.2877904016763846,
                -1.2197334097124148,
                1.9973273934923055,
                -0.7441141500554719,
                0.8060554117153187,
                -3.122602288233068
            ]
        },
        {
            "positions": [
                -1.3840817248061397,
                -1.268587786836087,
                1.9863369221420226,
                -0.6881835264510995,
                0.9711048050330358,
                -3.1218569325028747
            ]
        },
        {
            "positions": [
                -1.4803730479358945,
                -1.317442163959759,
                1.9753464507917398,
                -0.6322529028467271,
                1.136154198350753,
                -3.121111576772681
            ]
        },
        {
            "positions": [
                -1.5766643710656494,
                -1.3662965410834311,
                1.9643559794414567,
                -0.5763222792423546,
                1.30120359166847,
                -3.120366221042487
            ]
        },
        {
            "positions": [
                -1.6729556941954045,
                -1.4151509182071031,
                1.9533655080911738,
                -0.5203916556379822,
                1.4662529849861874,
                -3.1196208653122937
            ]
        }
    ]
}