{
    "goal": {
        "global_pose": {
            "orientation": {
                "w": -0.4816463035849501,
                "x": 0.5182115481033762,
                "y": 0.4908360881923453,
                "z": -0.5084816262002911
            },
            "position": {
                "x": -0.8240239810943604,
                "y": -0.300875300988555,
                "z": 0.16403168439865112
            }
        },
        "name": "move_to_storage_C"
    },
    "id": "LBKPIECE_move_to_storage_C_128",
    "joint_names": [
        "shoulder_pan_joint",
        "shoulder_lift_joint",
        "elbow_joint",
        "wrist_1_joint",
        "wrist_2_joint",
        "wrist_3_joint"
    ],
    "metrics": {
        "cart_traj_len": 0.5760483604883918,
        "distance_elbow_joint": 0.2588762363023136,
        "distance_shoulder_lift_joint": 0.1889153437998371,
        "distance_shoulder_pan_joint": 0.4940228833023861,
        "distance_wrist_1_joint": 0.08496622217252259,
        "distance_wrist_2_joint": 1.0700319332474182,
        "distance_wrist_3_joint": 0.06412825100871489,
        "smoothness": 2.5376526478085547e-16,
        "time": 0.407833561,
        "traj_len": 1.4700139012380775,
        "weighted_distance": 1.8558543927987894
    },
    "planner": "LBKPIECE",
    "start": {
        "state": {
            "elbow_joint": 2.010868314990456,
            "shoulder_lift_joint": -1.1634956873337592,
            "shoulder_pan_joint": -2.4736205022346125,
            "wrist_1_joint": -0.8367026794202681,
            "wrist_2_joint": 0.6746043897044499,
            "wrist_3_joint": -3.1496632123970403
        }
    },
    "waypoints": [
        {
            "positions": [
                -2.4736205022346125,
                -1.1634956873337592,
                2.010868314990456,
                -0.8367026794202681,
                0.6746043897044499,
                -3.1496632123970403
            ]
        },
        {
            "positions": [
                -2.5559576494516767,
                -1.132009796700453,
                1.967722275606737,
                -0.8225416423915144,
                0.8529430452456863,
                -3.1389751705622544
            ]
        },
        {
            "positions": [
                -2.6382947966687413,
                -1.1005239060671468,
                1.9245762362230179,
                -0.8083806053627606,
                1.0312817007869226,
                -3.1282871287274685
            ]
        },
        {
            "positions": [
                -2.7206319438858055,
                -1.0690380154338406,
                1.881430196839299,
                -0.7942195683340068,
                1.2096203563281591,
                -3.1175990868926826
            ]
        },
        {
            "positions": [
                -2.8029690911028697,
                -1.0375521248005344,
                1.8382841574555802,
                -0.780058531305253,
                1.3879590118693952,
                -3.106911045057897
            ]
        },
        {
            "positions": [
                -2.8853062383199344,
                -1.0060662341672282,
                1.795138118071861,
                -0.7658974942764993,
                1.5662976674106317,
                -3.0962230032231113
            ]
        },
        {
            "positions": [
                -2.9676433855369986,
                -0.9745803435339221,
                1.7519920786881422,
                -0.7517364572477455,
                1.744636322951868,
                -3.0855349613883254
            ]
        }
    ]
}