{
    "goal": {
        "global_pose": {
            "orientation": {
                "w": 0.7047431493862688,
                "x": -0.7094548369677653,
                "y": 0.0024358444001904,
                "z": -0.0022348060817251984
            },
            "position": {
                "x": -0.39052492380142206,
                "y": 0.3671506643295288,
                "z": 0.19426114857196808
            }
        },
        "name": "move_to_magneteinheit_D"
    },
    "id": "LBKPIECE_move_to_magneteinheit_D_100",
    "joint_names": [
        "shoulder_pan_joint",
        "shoulder_lift_joint",
        "elbow_joint",
        "wrist_1_joint",
        "wrist_2_joint",
        "wrist_3_joint"
    ],
    "metrics": {
        "cart_traj_len": 3.9326121866611983,
        "distance_elbow_joint": 3.1419366880908903,
        "distance_shoulder_lift_joint": 1.6286827424861585,
        "distance_shoulder_pan_joint": 4.03341971411796,
        "distance_wrist_1_joint": 3.063336855004154,
        "distance_wrist_2_joint": 0.6696100122320019,
        "distance_wrist_3_joint": 3.2243995669486165,
        "smoothness": 0.5052118396110832,
        "time": 0.583766166,
        "traj_len": 3.9700611555591663,
        "weighted_distance": 5.093440053638911
    },
    "planner": "LBKPIECE",
    "start": {
        "state": {
            "elbow_joint": 0.749534889911806,
            "shoulder_lift_joint": -0.6476975780787326,
            "shoulder_pan_joint": -2.711696901376241,
            "wrist_1_joint": -0.07506478083263063,
            "wrist_2_joint": 0.43296659715538205,
            "wrist_3_joint": -3.14703540197715
        }
    },
    "waypoints": [
        {
            "positions": [
                -2.711696901376241,
                -0.6476975780787326,
                0.749534889911806,
                -0.07506478083263063,
                0.43296659715538205,
                -3.14703540197715
            ]
        },
        {
            "positions": [
                -2.77710952657438,
                -0.7096677855369065,
                0.6571213331183112,
                -0.008784761186774057,
                0.5033554268517145,
                -3.1155522893952226
            ]
        },
        {
            "positions": [
                -2.8425221517725183,
                -0.7716379929950802,
                0.5647077763248165,
                0.057495258459082516,
                0.573744256548047,
                -3.0840691768132955
            ]
        },
        {
            "positions": [
                -2.907934776970657,
                -0.833608200453254,
                0.47229421953132167,
                0.1237752781049391,
                0.6441330862443794,
                -3.052586064231368
            ]
        },
        {
            "positions": [
                -2.7986228273540203,
                -0.8492591860676859,
                0.38201020352391757,
                0.19356219499911567,
                0.6410336895920219,
                -2.948666344299476
            ]
        },
        {
            "positions": [
                -2.6893108777373835,
                -0.8649101716821178,
                0.29172618751651347,
                0.26334911189329224,
                0.6379342929396644,
                -2.8447466243675836
            ]
        },
        {
            "positions": [
                -2.5799989281207463,
                -0.8805611572965497,
                0.20144217150910942,
                0.33313602878746884,
                0.6348348962873069,
                -2.740826904435691
            ]
        },
        {
            "positions": [
                -2.4706869785041095,
                -0.8962121429109817,
                0.11115815550170532,
                0.4029229456816454,
                0.6317354996349496,
                -2.636907184503799
            ]
        },
        {
            "positions": [
                -2.3613750288874726,
                -0.9118631285254136,
                0.02087413949430128,
                0.472709862575822,
                0.6286361029825921,
                -2.5329874645719066
            ]
        },
        {
            "positions": [
                -2.252063079270836,
                -0.9275141141398455,
                -0.06940987651310282,
                0.5424967794699986,
                0.6255367063302346,
                -2.4290677446400144
            ]
        },
        {
            "positions": [
                -2.142751129654199,
                -0.9431650997542774,
                -0.15969389252050692,
                0.6122836963641751,
                0.6224373096778771,
                -2.325148024708122
            ]
        },
        {
            "positions": [
                -2.033439180037562,
                -0.9588160853687093,
                -0.24997790852791102,
                0.6820706132583516,
                0.6193379130255197,
                -2.22122830477623
            ]
        },
        {
            "positions": [
                -1.9241272304209254,
                -0.9744670709831413,
                -0.3402619245353151,
                0.7518575301525283,
                0.6162385163731622,
                -2.117308584844338
            ]
        },
        {
            "positions": [
                -1.8148152808042886,
                -0.9901180565975731,
                -0.4305459405427191,
                0.8216444470467048,
                0.6131391197208047,
                -2.0133888649124456
            ]
        },
        {
            "positions": [
                -1.7055033311876515,
                -1.0057690422120051,
                -0.5208299565501232,
                0.8914313639408813,
                0.6100397230684473,
                -1.9094691449805532
            ]
        },
        {
            "positions": [
                -1.5961913815710145,
                -1.0214200278264371,
                -0.6111139725575273,
                0.961218280835058,
                0.6069403264160899,
                -1.8055494250486608
            ]
        },
        {
            "positions": [
                -1.4868794319543777,
                -1.037071013440869,
                -0.7013979885649314,
                1.0310051977292347,
                0.6038409297637324,
                -1.7016297051167686
            ]
        },
        {
            "positions": [
                -1.3775674823377408,
                -1.052721999055301,
                -0.7916820045723355,
                1.1007921146234112,
                0.6007415331113749,
                -1.5977099851848764
            ]
        },
        {
            "positions": [
                -1.268255532721104,
                -1.0683729846697327,
                -0.8819660205797396,
                1.1705790315175877,
                0.5976421364590174,
                -1.4937902652529842
            ]
        },
        {
            "positions": [
                -1.1589435831044672,
                -1.0840239702841648,
                -0.9722500365871437,
                1.2403659484117642,
                0.59454273980666,
                -1.389870545321092
            ]
        },
        {
            "positions": [
                -1.0496316334878304,
                -1.0996749558985965,
                -1.0625340525945477,
                1.3101528653059409,
                0.5914433431543025,
                -1.2859508253891998
            ]
        },
        {
            "positions": [
                -0.9403196838711936,
                -1.1153259415130286,
                -1.152818068601952,
                1.3799397822001174,
                0.588343946501945,
                -1.1820311054573076
            ]
        },
        {
            "positions": [
                -0.8310077342545568,
                -1.1309769271274606,
                -1.243102084609356,
                1.4497266990942939,
                0.5852445498495876,
                -1.0781113855254152
            ]
        },
        {
            "positions": [
                -0.72169578463792,
                -1.1466279127418924,
                -1.3333861006167598,
                1.5195136159884706,
                0.5821451531972301,
                -0.9741916655935232
            ]
        },
        {
            "positions": [
                -0.6123838350212831,
                -1.1622788983563244,
                -1.423670116624164,
                1.589300532882647,
                0.5790457565448727,
                -0.870271945661631
            ]
        },
        {
            "positions": [
                -0.5030718854046459,
                -1.1779298839707562,
                -1.513954132631568,
                1.6590874497768235,
                0.5759463598925152,
                -0.7663522257297384
            ]
        },
        {
            "positions": [
                -0.39375993578800905,
                -1.1935808695851882,
                -1.6042381486389723,
                1.7288743666710005,
                0.5728469632401577,
                -0.6624325057978462
            ]
        },
        {
            "positions": [
                -0.2844479861713718,
                -1.20923185519962,
                -1.6945221646463762,
                1.798661283565177,
                0.5697475665878002,
                -0.5585127858659535
            ]
        },
        {
            "positions": [
                -0.17513603655473498,
                -1.224882840814052,
                -1.7848061806537805,
                1.8684482004593534,
                0.5666481699354428,
                -0.45459306593406135
            ]
        },
        {
            "positions": [
                -0.06582408693809816,
                -1.240533826428484,
                -1.8750901966611844,
                1.9382351173535302,
                0.5635487732830853,
                -0.35067334600216915
            ]
        },
        {
            "positions": [
                0.04348786267853866,
                -1.2561848120429158,
                -1.9653742126685887,
                2.008022034247707,
                0.5604493766307279,
                -0.24675362607027695
            ]
        },
        {
            "positions": [
                0.15279981229517547,
                -1.2718357976573478,
                -2.0556582286759926,
                2.077808951141883,
                0.5573499799783704,
                -0.14283390613838476
            ]
        },
        {
            "positions": [
                0.2621117619118123,
                -1.2874867832717798,
                -2.145942244683397,
                2.14759586803606,
                0.554250583326013,
                -0.03891418620649256
            ]
        },
        {
            "positions": [
                0.3714237115284492,
                -1.3031377688862116,
                -2.2362262606908008,
                2.2173827849302366,
                0.5511511866736555,
                0.06500553372539974
            ]
        },
        {
            "positions": [
                0.2950018121261534,
                -1.4397347396079176,
                -2.2555672349285474,
                2.1087064927734143,
                0.5010249446565508,
                0.06333259215909025
            ]
        },
        {
            "positions": [
                0.21857991272385754,
                -1.5763317103296237,
                -2.274908209166294,
                2.000030200616592,
                0.450898702639446,
                0.061659650592780745
            ]
        },
        {
            "positions": [
                0.14215801332156172,
                -1.7129286810513298,
                -2.2942491834040406,
                1.89135390845977,
                0.4007724606223413,
                0.05998670902647124
            ]
        },
        {
            "positions": [
                0.06573611391926587,
                -1.8495256517730359,
                -2.3135901576417877,
                1.7826776163029476,
                0.35064621860523654,
                0.058313767460161745
            ]
        },
        {
            "positions": [
                -0.010685785483030008,
                -1.986122622494742,
                -2.3329311318795343,
                1.6740013241461256,
                0.3005199765881318,
                0.05664082589385224
            ]
        },
        {
            "positions": [
                -0.08710768488532578,
                -2.122719593216448,
                -2.352272106117281,
                1.5653250319893033,
                0.25039373457102704,
                0.054967884327542745
            ]
        },
        {
            "positions": [
                -0.16352958428762163,
                -2.259316563938154,
                -2.3716130803550275,
                1.456648739832481,
                0.2002674925539223,
                0.05329494276123324
            ]
        },
        {
            "positions": [
                -0.1863996384959875,
                -2.276380320564891,
                -2.3924017981790846,
                1.4668039839760123,
                0.18568956310137463,
                0.053942983043133434
            ]
        }
    ]
}