{
    "goal": {
        "global_pose": {
            "orientation": {
                "w": -0.00223480608172531,
                "x": 0.0024358444001904467,
                "y": 0.7094548369677653,
                "z": -0.704743149386269
            },
            "position": {
                "x": -0.37947507619857795,
                "y": -0.6371506643295288,
                "z": 0.19426114857196808
            }
        },
        "name": "move_to_magneteinheit_C"
    },
    "id": "LBKPIECE_move_to_magneteinheit_C_141",
    "joint_names": [
        "shoulder_pan_joint",
        "shoulder_lift_joint",
        "elbow_joint",
        "wrist_1_joint",
        "wrist_2_joint",
        "wrist_3_joint"
    ],
    "metrics": {
        "cart_traj_len": 0.6457919126116689,
        "distance_elbow_joint": 0.1318387857015888,
        "distance_shoulder_lift_joint": 0.2684047874603297,
        "distance_shoulder_pan_joint": 0.81937866235494,
        "distance_wrist_1_joint": 1.993625941732037,
        "distance_wrist_2_joint": 0.9461678236200863,
        "distance_wrist_3_joint": 0.947342006298888,
        "smoothness": 1.1256413143024522,
        "time": 0.242019435,
        "traj_len": 2.2598137107221627,
        "weighted_distance": 3.152972531614852
    },
    "planner": "LBKPIECE",
    "start": {
        "state": {
            "elbow_joint": 1.9565354010623817,
            "shoulder_lift_joint": -1.4165861575791021,
            "shoulder_pan_joint": -1.6717766225146293,
            "wrist_1_joint": -0.5286633292919765,
            "wrist_2_joint": 1.472756589071564,
            "wrist_3_joint": -3.1238370188695823
        }
    },
    "waypoints": [
        {
            "positions": [
                -1.6717766225146293,
                -1.4165861575791021,
                1.9565354010623817,
                -0.5286633292919765,
                1.472756589071564,
                -3.1238370188695823
            ]
        },
        {
            "positions": [
                -1.7633555010992978,
                -1.417624580169891,
                1.9506633166703777,
                -0.40694785430183256,
                1.3703062933907677,
                -3.0581916852064546
            ]
        },
        {
            "positions": [
                -1.8549343796839661,
                -1.41866300276068,
                1.9447912322783738,
                -0.28523237931168866,
                1.2678559977099715,
                -2.9925463515433273
            ]
        },
        {
            "positions": [
                -1.9465132582686346,
                -1.4197014253514688,
                1.9389191478863699,
                -0.16351690432154475,
                1.1654057020291755,
                -2.9269010178801995
            ]
        },
        {
            "positions": [
                -2.038092136853303,
                -1.420739847942258,
                1.9330470634943657,
                -0.04180142933140085,
                1.0629554063483793,
                -2.8612556842170718
            ]
        },
        {
            "positions": [
                -2.1296710154379714,
                -1.4217782705330468,
                1.9271749791023618,
                0.07991404565874305,
                0.9605051106675829,
                -2.795610350553944
            ]
        },
        {
            "positions": [
                -2.22124989402264,
                -1.4228166931238357,
                1.9213028947103579,
                0.20162952064888695,
                0.8580548149867868,
                -2.7299650168908167
            ]
        },
        {
            "positions": [
                -2.3128287726073085,
                -1.4238551157146246,
                1.915430810318354,
                0.32334499563903085,
                0.7556045193059906,
                -2.664319683227689
            ]
        },
        {
            "positions": [
                -2.3862241215604225,
                -1.4215218284369455,
                1.9308116324002604,
                0.2922832571979976,
                0.7925175444386833,
                -2.777916492268777
            ]
        },
        {
            "positions": [
                -2.4596194705135366,
                -1.4191885411592664,
                1.946192454482167,
                0.2612215187569643,
                0.829430569571376,
                -2.891513301309865
            ]
        },
        {
            "positions": [
                -2.46733151624325,
                -1.382599781287235,
                1.9560457464769518,
                0.10456623218679043,
                0.8098260251046397,
                -2.9373277978326615
            ]
        },
        {
            "positions": [
                -2.475043561972963,
                -1.3460110214152035,
                1.9658990384717367,
                -0.05208905438338346,
                0.7902214806379037,
                -2.9831422943554586
            ]
        },
        {
            "positions": [
                -2.4827556077026767,
                -1.309422261543172,
                1.9757523304665217,
                -0.20874434095355737,
                0.7706169361711674,
                -3.0289567908782553
            ]
        },
        {
            "positions": [
                -2.4799557153137126,
                -1.2605212698253871,
                1.9858898887363194,
                -0.41192043435637127,
                0.7384915794415278,
                -3.0700193118803982
            ]
        },
        {
            "positions": [
                -2.477155822924748,
                -1.2116202781076024,
                1.9960274470061172,
                -0.6150965277591851,
                0.706366222711888,
                -3.1110818328825407
            ]
        },
        {
            "positions": [
                -2.474355930535784,
                -1.1627192863898175,
                2.006165005275915,
                -0.818272621161999,
                0.6742408659822483,
                -3.1521443538846836
            ]
        }
    ]
}