{
    "goal": {
        "global_pose": {
            "orientation": {
                "w": 0.7031023502349854,
                "x": -0.7110244035720825,
                "y": 0.007748599164187908,
                "z": 0.005598929710686207
            },
            "position": {
                "x": 0.11585023208521307,
                "y": 0.44412534475326537,
                "z": 0.3711530566215515
            }
        },
        "name": "move_to_auspresseinheit_A"
    },
    "id": "LBKPIECE_move_to_auspresseinheit_A_112",
    "joint_names": [
        "shoulder_pan_joint",
        "shoulder_lift_joint",
        "elbow_joint",
        "wrist_1_joint",
        "wrist_2_joint",
        "wrist_3_joint"
    ],
    "metrics": {
        "cart_traj_len": 0.695604032948905,
        "distance_elbow_joint": 0.13539607441451862,
        "distance_shoulder_lift_joint": 0.5332297438514473,
        "distance_shoulder_pan_joint": 1.0406598271557659,
        "distance_wrist_1_joint": 1.541457013792122,
        "distance_wrist_2_joint": 1.1247699474409312,
        "distance_wrist_3_joint": 1.973297627546886,
        "smoothness": 1.2288807885067277,
        "time": 0.354758295,
        "traj_len": 2.519684550534386,
        "weighted_distance": 3.6002267221007758
    },
    "planner": "LBKPIECE",
    "start": {
        "state": {
            "elbow_joint": 2.4225746658250005,
            "shoulder_lift_joint": -1.3736534386056498,
            "shoulder_pan_joint": -0.3378633547517467,
            "wrist_1_joint": -1.0288598680537169,
            "wrist_2_joint": 1.233022673432363,
            "wrist_3_joint": -3.0940220416140027
        }
    },
    "waypoints": [
        {
            "positions": [
                -0.3378633547517467,
                -1.3736534386056498,
                2.4225746658250005,
                -1.0288598680537169,
                1.233022673432363,
                -3.0940220416140027
            ]
        },
        {
            "positions": [
                -0.2630747342334778,
                -1.4203620438594562,
                2.4150284457258238,
                -0.9328432972897134,
                1.1576319380843103,
                -3.0068025057464953
            ]
        },
        {
            "positions": [
                -0.1882861137152089,
                -1.4670706491132628,
                2.4074822256266466,
                -0.8368267265257099,
                1.0822412027362578,
                -2.919582969878988
            ]
        },
        {
            "positions": [
                -0.11349749319694002,
                -1.5137792543670692,
                2.39993600552747,
                -0.7408101557617064,
                1.006850467388205,
                -2.8323634340114805
            ]
        },
        {
            "positions": [
                -0.03870887267867107,
                -1.5604878596208756,
                2.392389785428293,
                -0.6447935849977028,
                0.9314597320401523,
                -2.745143898143973
            ]
        },
        {
            "positions": [
                0.036079747839597776,
                -1.607196464874682,
                2.384843565329116,
                -0.5487770142336993,
                0.8560689966920997,
                -2.6579243622764657
            ]
        },
        {
            "positions": [
                0.11086836835786668,
                -1.6539050701284883,
                2.3772973452299393,
                -0.4527604434696958,
                0.780678261344047,
                -2.5707048264089583
            ]
        },
        {
            "positions": [
                0.18565698887613563,
                -1.700613675382295,
                2.369751125130762,
                -0.3567438727056923,
                0.7052875259959943,
                -2.4834852905414504
            ]
        },
        {
            "positions": [
                0.2604456093944046,
                -1.7473222806361013,
                2.3622049050315854,
                -0.2607273019416887,
                0.6298967906479416,
                -2.396265754673943
            ]
        },
        {
            "positions": [
                0.33523422991267343,
                -1.794030885889908,
                2.3546586849324087,
                -0.1647107311776852,
                0.554506055299889,
                -2.3090462188064356
            ]
        },
        {
            "positions": [
                0.4100228504309423,
                -1.8407394911437143,
                2.3471124648332315,
                -0.0686941604136817,
                0.4791153199518363,
                -2.221826682938928
            ]
        },
        {
            "positions": [
                0.4848114709492112,
                -1.8874480963975206,
                2.339566244734055,
                0.027322410350321777,
                0.4037245846037835,
                -2.1346071470714207
            ]
        },
        {
            "positions": [
                0.5211423045250125,
                -1.8906872774074501,
                2.348297520287984,
                -0.05355671221435883,
                0.4529698943725088,
                -2.3035876025721382
            ]
        },
        {
            "positions": [
                0.5574731381008139,
                -1.8939264584173794,
                2.3570287958419125,
                -0.13443583477903942,
                0.5022152041412341,
                -2.4725680580728553
            ]
        },
        {
            "positions": [
                0.5938039716766152,
                -1.8971656394273089,
                2.365760071395841,
                -0.21531495734372003,
                0.5514605139099593,
                -2.641548513573573
            ]
        },
        {
            "positions": [
                0.6301348052524165,
                -1.9004048204372384,
                2.37449134694977,
                -0.29619407990840063,
                0.6007058236786846,
                -2.81052896907429
            ]
        },
        {
            "positions": [
                0.6664656388282179,
                -1.9036440014471676,
                2.383222622503699,
                -0.37707320247308124,
                0.64995113344741,
                -2.9795094245750073
            ]
        },
        {
            "positions": [
                0.7027964724040192,
                -1.906883182457097,
                2.391953898057628,
                -0.45795232503776184,
                0.6991964432161352,
                -3.148489880075725
            ]
        }
    ]
}