{
    "goal": {
        "global_pose": {
            "orientation": {
                "w": 0.005598929693374612,
                "x": 0.007748599140229565,
                "y": 0.7110244013736278,
                "z": -0.7031023480610252
            },
            "position": {
                "x": 0.1141497679147869,
                "y": -0.7141253447532654,
                "z": 0.3711530566215515
            }
        },
        "name": "move_to_auspresseinheit_B"
    },
    "id": "LBKPIECE_move_to_auspresseinheit_B_119",
    "joint_names": [
        "shoulder_pan_joint",
        "shoulder_lift_joint",
        "elbow_joint",
        "wrist_1_joint",
        "wrist_2_joint",
        "wrist_3_joint"
    ],
    "metrics": {
        "cart_traj_len": 0.5653390912482897,
        "distance_elbow_joint": 0.06487868874232472,
        "distance_shoulder_lift_joint": 0.29499071003594435,
        "distance_shoulder_pan_joint": 0.5783147203788954,
        "distance_wrist_1_joint": 0.3345683630900338,
        "distance_wrist_2_joint": 0.9895762841171005,
        "distance_wrist_3_joint": 0.0020050276406706757,
        "smoothness": 0.0,
        "time": 0.277180184,
        "traj_len": 1.5047703459348771,
        "weighted_distance": 1.8953861074972151
    },
    "planner": "LBKPIECE",
    "start": {
        "state": {
            "elbow_joint": 2.0193083361928714,
            "shoulder_lift_joint": -1.1220246554650708,
            "shoulder_pan_joint": -1.0952077554168747,
            "wrist_1_joint": -0.8559753972642168,
            "wrist_2_joint": 0.4759566250798843,
            "wrist_3_joint": -3.1240929996934557
        }
    },
    "waypoints": [
        {
            "positions": [
                -1.0952077554168747,
                -1.1220246554650708,
                2.0193083361928714,
                -0.8559753972642168,
                0.4759566250798843,
                -3.1240929996934557
            ]
        },
        {
            "positions": [
                -1.1915935421466906,
                -1.1711897738043948,
                2.008495221402484,
                -0.8002140034158778,
                0.6408860057660677,
                -3.1237588284200104
            ]
        },
        {
            "positions": [
                -1.2879793288765065,
                -1.2203548921437188,
                1.9976821066120964,
                -0.7444526095675389,
                0.805815386452251,
                -3.1234246571465656
            ]
        },
        {
            "positions": [
                -1.3843651156063224,
                -1.2695200104830429,
                1.986868991821709,
                -0.6886912157191999,
                0.9707447671384346,
                -3.1230904858731203
            ]
        },
        {
            "positions": [
                -1.4807509023361383,
                -1.318685128822367,
                1.9760558770313217,
                -0.632929821870861,
                1.135674147824618,
                -3.122756314599675
            ]
        },
        {
            "positions": [
                -1.5771366890659542,
                -1.3678502471616911,
                1.965242762240934,
                -0.577168428022522,
                1.3006035285108015,
                -3.1224221433262302
            ]
        },
        {
            "positions": [
                -1.67352247579577,
                -1.4170153655010151,
                1.9544296474505467,
                -0.521407034174183,
                1.4655329091969849,
                -3.122087972052785
            ]
        }
    ]
}