{
    "goal": {
        "global_pose": {
            "orientation": {
                "w": 0.005598929693374612,
                "x": 0.007748599140229565,
                "y": 0.7110244013736278,
                "z": -0.7031023480610252
            },
            "position": {
                "x": -0.8858502320852131,
                "y": -0.7141253447532654,
                "z": 0.3711530566215515
            }
        },
        "name": "move_to_auspresseinheit_C"
    },
    "id": "LBKPIECE_move_to_auspresseinheit_C_3",
    "joint_names": [
        "shoulder_pan_joint",
        "shoulder_lift_joint",
        "elbow_joint",
        "wrist_1_joint",
        "wrist_2_joint",
        "wrist_3_joint"
    ],
    "metrics": {
        "cart_traj_len": 0.49241423233000486,
        "distance_elbow_joint": 0.9890334912008665,
        "distance_shoulder_lift_joint": 0.31938814784489145,
        "distance_shoulder_pan_joint": 0.2567287433963821,
        "distance_wrist_1_joint": 0.6618859838915356,
        "distance_wrist_2_joint": 1.3045428595566788,
        "distance_wrist_3_joint": 0.04617702988053862,
        "smoothness": 8.074349282788172e-16,
        "time": 0.271896165,
        "traj_len": 1.891495772073227,
        "weighted_distance": 2.374139667117372
    },
    "planner": "LBKPIECE",
    "start": {
        "state": {
            "elbow_joint": 1.7527959577737207,
            "shoulder_lift_joint": -0.9740617694225068,
            "shoulder_pan_joint": -2.967991417825858,
            "wrist_1_joint": -0.759517768980727,
            "wrist_2_joint": 1.7443932448377408,
            "wrist_3_joint": -3.0840537646736568
        }
    },
    "waypoints": [
        {
            "positions": [
                -2.967991417825858,
                -0.9740617694225068,
                1.7527959577737207,
                -0.759517768980727,
                1.7443932448377408,
                -3.0840537646736568
            ]
        },
        {
            "positions": [
                -2.94231854348622,
                -0.9421229546380177,
                1.653892608653634,
                -0.6933291705915734,
                1.613938958882073,
                -3.088671467661711
            ]
        },
        {
            "positions": [
                -2.9166456691465816,
                -0.9101841398535285,
                1.5549892595335473,
                -0.6271405722024198,
                1.483484672926405,
                -3.0932891706497645
            ]
        },
        {
            "positions": [
                -2.8909727948069435,
                -0.8782453250690393,
                1.4560859104134607,
                -0.5609519738132663,
                1.3530303869707372,
                -3.097906873637818
            ]
        },
        {
            "positions": [
                -2.8652999204673053,
                -0.8463065102845502,
                1.3571825612933741,
                -0.4947633754241127,
                1.2225761010150693,
                -3.102524576625872
            ]
        },
        {
            "positions": [
                -2.839627046127667,
                -0.814367695500061,
                1.2582792121732873,
                -0.42857477703495916,
                1.0921218150594014,
                -3.1071422796139263
            ]
        },
        {
            "positions": [
                -2.8139541717880285,
                -0.7824288807155719,
                1.1593758630532007,
                -0.36238617864580563,
                0.9616675291037335,
                -3.11175998260198
            ]
        },
        {
            "positions": [
                -2.7882812974483904,
                -0.7504900659310828,
                1.0604725139331141,
                -0.29619758025665205,
                0.8312132431480658,
                -3.1163776855900336
            ]
        },
        {
            "positions": [
                -2.762608423108752,
                -0.7185512511465937,
                0.9615691648130275,
                -0.2300089818674984,
                0.7007589571923978,
                -3.1209953885780877
            ]
        },
        {
            "positions": [
                -2.736935548769114,
                -0.6866124363621045,
                0.8626658156929408,
                -0.16382038347834493,
                0.5703046712367299,
                -3.1256130915661418
            ]
        },
        {
            "positions": [
                -2.711262674429476,
                -0.6546736215776153,
                0.7637624665728542,
                -0.0976317850891913,
                0.4398503852810619,
                -3.1302307945541954
            ]
        }
    ]
}