{
    "goal": {
        "global_pose": {
            "orientation": {
                "w": 0.005598929693374612,
                "x": 0.007748599140229565,
                "y": 0.7110244013736278,
                "z": -0.7031023480610252
            },
            "position": {
                "x": -0.8858502320852131,
                "y": -0.7141253447532654,
                "z": 0.3711530566215515
            }
        },
        "name": "move_to_auspresseinheit_C"
    },
    "id": "LBKPIECE_move_to_auspresseinheit_C_100",
    "joint_names": [
        "shoulder_pan_joint",
        "shoulder_lift_joint",
        "elbow_joint",
        "wrist_1_joint",
        "wrist_2_joint",
        "wrist_3_joint"
    ],
    "metrics": {
        "cart_traj_len": 1.936605285884664,
        "distance_elbow_joint": 2.7121710704794344,
        "distance_shoulder_lift_joint": 0.31700916079846797,
        "distance_shoulder_pan_joint": 0.4080783913155339,
        "distance_wrist_1_joint": 0.6510689125754714,
        "distance_wrist_2_joint": 2.3472367508700147,
        "distance_wrist_3_joint": 0.18261729573011376,
        "smoothness": 1.2917751756977789,
        "time": 0.281037867,
        "traj_len": 2.57258266762587,
        "weighted_distance": 3.1593863069708257
    },
    "planner": "LBKPIECE",
    "start": {
        "state": {
            "elbow_joint": 1.7527959577737207,
            "shoulder_lift_joint": -0.9740617694225068,
            "shoulder_pan_joint": -2.967991417825858,
            "wrist_1_joint": -0.759517768980727,
            "wrist_2_joint": 1.7443932448377408,
            "wrist_3_joint": -3.0840537646736568
        }
    },
    "waypoints": [
        {
            "positions": [
                -2.967991417825858,
                -0.9740617694225068,
                1.7527959577737207,
                -0.759517768980727,
                1.7443932448377408,
                -3.0840537646736568
            ]
        },
        {
            "positions": [
                -2.9743349828097294,
                -0.9681057604086681,
                1.5987980311008063,
                -0.7160985121561412,
                1.5922817047313325,
                -3.0932296287757675
            ]
        },
        {
            "positions": [
                -2.9806785477936004,
                -0.9621497513948294,
                1.444800104427892,
                -0.6726792553315555,
                1.440170164624924,
                -3.1024054928778777
            ]
        },
        {
            "positions": [
                -2.9870221127774714,
                -0.9561937423809908,
                1.2908021777549776,
                -0.6292599985069698,
                1.2880586245185155,
                -3.1115813569799884
            ]
        },
        {
            "positions": [
                -2.993365677761343,
                -0.9502377333671521,
                1.1368042510820633,
                -0.585840741682384,
                1.1359470844121071,
                -3.120757221082099
            ]
        },
        {
            "positions": [
                -2.9997092427452143,
                -0.9442817243533135,
                0.982806324409149,
                -0.5424214848577982,
                0.9838355443056986,
                -3.1299330851842093
            ]
        },
        {
            "positions": [
                -3.0060528077290853,
                -0.9383257153394748,
                0.8288083977362346,
                -0.4990022280332125,
                0.8317240041992903,
                -3.13910894928632
            ]
        },
        {
            "positions": [
                -3.0123963727129563,
                -0.9323697063256361,
                0.6748104710633203,
                -0.45558297120862673,
                0.6796124640928818,
                -3.1482848133884307
            ]
        },
        {
            "positions": [
                -3.018739937696828,
                -0.9264136973117975,
                0.5208125443904059,
                -0.412163714384041,
                0.5275009239864734,
                -3.157460677490541
            ]
        },
        {
            "positions": [
                -3.0250835026806993,
                -0.9204576882979588,
                0.3668146177174916,
                -0.36874445755945523,
                0.37538938388006504,
                -3.1666365415926516
            ]
        },
        {
            "positions": [
                -3.0314270676645703,
                -0.9145016792841201,
                0.21281669104457723,
                -0.3253252007348695,
                0.22327784377365645,
                -3.1758124056947623
            ]
        },
        {
            "positions": [
                -3.0377706326484413,
                -0.9085456702702814,
                0.05881876437166289,
                -0.28190594391028373,
                0.0711663036672483,
                -3.1849882697968726
            ]
        },
        {
            "positions": [
                -3.0441141976323127,
                -0.9025896612564428,
                -0.09517916230125142,
                -0.23848668708569798,
                -0.0809452364391603,
                -3.1941641338989832
            ]
        },
        {
            "positions": [
                -2.9887882623807993,
                -0.8616668191510422,
                0.048853496099492216,
                -0.21681371530562427,
                0.006037808493025376,
                -3.1820796461481855
            ]
        },
        {
            "positions": [
                -2.9334623271292863,
                -0.8207439770456415,
                0.19288615450023586,
                -0.19514074352555055,
                0.09302085342521105,
                -3.1699951583973873
            ]
        },
        {
            "positions": [
                -2.8781363918777734,
                -0.7798211349402409,
                0.3369188129009796,
                -0.1734677717454768,
                0.18000389835739672,
                -3.1579106706465896
            ]
        },
        {
            "positions": [
                -2.82281045662626,
                -0.7388982928348402,
                0.4809514713017231,
                -0.1517947999654031,
                0.2669869432895824,
                -3.145826182895792
            ]
        },
        {
            "positions": [
                -2.7674845213747465,
                -0.6979754507294395,
                0.6249841297024669,
                -0.13012182818532936,
                0.35396998822176806,
                -3.1337416951449937
            ]
        },
        {
            "positions": [
                -2.7121585861232336,
                -0.6570526086240388,
                0.7690167881032105,
                -0.10844885640525564,
                0.44095303315395373,
                -3.121657207394196
            ]
        }
    ]
}