{
    "goal": {
        "global_pose": {
            "orientation": {
                "w": -0.4816463035849501,
                "x": 0.5182115481033762,
                "y": 0.4908360881923453,
                "z": -0.5084816262002911
            },
            "position": {
                "x": -0.8240239810943604,
                "y": -0.300875300988555,
                "z": 0.16403168439865112
            }
        },
        "name": "move_to_storage_C"
    },
    "id": "LBKPIECE_move_to_storage_C_116",
    "joint_names": [
        "shoulder_pan_joint",
        "shoulder_lift_joint",
        "elbow_joint",
        "wrist_1_joint",
        "wrist_2_joint",
        "wrist_3_joint"
    ],
    "metrics": {
        "cart_traj_len": 0.5759160681553519,
        "distance_elbow_joint": 0.2577324452761669,
        "distance_shoulder_lift_joint": 0.18798262563475454,
        "distance_shoulder_pan_joint": 0.49581379121347124,
        "distance_wrist_1_joint": 0.08658324210635548,
        "distance_wrist_2_joint": 1.0590331365857306,
        "distance_wrist_3_joint": 0.07027205926867319,
        "smoothness": 2.5376526478085547e-16,
        "time": 0.370176628,
        "traj_len": 1.4688149305086573,
        "weighted_distance": 1.8556879579591459
    },
    "planner": "LBKPIECE",
    "start": {
        "state": {
            "elbow_joint": 2.010868314990456,
            "shoulder_lift_joint": -1.1634956873337592,
            "shoulder_pan_joint": -2.4736205022346125,
            "wrist_1_joint": -0.8367026794202681,
            "wrist_2_joint": 0.6746043897044499,
            "wrist_3_joint": -3.1496632123970403
        }
    },
    "waypoints": [
        {
            "positions": [
                -2.4736205022346125,
                -1.1634956873337592,
                2.010868314990456,
                -0.8367026794202681,
                0.6746043897044499,
                -3.1496632123970403
            ]
        },
        {
            "positions": [
                -2.556256134103524,
                -1.1321652497279668,
                1.967912907444428,
                -0.8222721390692088,
                0.8511099124687383,
                -3.137951202518928
            ]
        },
        {
            "positions": [
                -2.6388917659724362,
                -1.1008348121221743,
                1.9249574998984003,
                -0.8078415987181496,
                1.027615435233027,
                -3.1262391926408157
            ]
        },
        {
            "positions": [
                -2.7215273978413483,
                -1.069504374516382,
                1.8820020923523724,
                -0.7934110583670904,
                1.2041209579973153,
                -3.1145271827627035
            ]
        },
        {
            "positions": [
                -2.80416302971026,
                -1.0381739369105896,
                1.8390466848063445,
                -0.7789805180160311,
                1.3806264807616038,
                -3.1028151728845916
            ]
        },
        {
            "positions": [
                -2.8867986615791716,
                -1.006843499304797,
                1.7960912772603168,
                -0.7645499776649719,
                1.5571320035258922,
                -3.0911031630064794
            ]
        },
        {
            "positions": [
                -2.9694342934480837,
                -0.9755130616990046,
                1.753135869714289,
                -0.7501194373139126,
                1.7336375262901804,
                -3.079391153128367
            ]
        }
    ]
}