{
    "goal": {
        "global_pose": {
            "orientation": {
                "w": 0.5084816262002911,
                "x": -0.4908360881923452,
                "y": 0.5182115481033761,
                "z": -0.48164630358495003
            },
            "position": {
                "x": 0.5540239810943604,
                "y": -0.46912469901144505,
                "z": 0.16403168439865112
            }
        },
        "name": "move_to_storage_B"
    },
    "id": "LBKPIECE_move_to_storage_B_123",
    "joint_names": [
        "shoulder_pan_joint",
        "shoulder_lift_joint",
        "elbow_joint",
        "wrist_1_joint",
        "wrist_2_joint",
        "wrist_3_joint"
    ],
    "metrics": {
        "cart_traj_len": 0.660799176460012,
        "distance_elbow_joint": 0.38101826173754993,
        "distance_shoulder_lift_joint": 0.4615793203714842,
        "distance_shoulder_pan_joint": 0.2992130517827313,
        "distance_wrist_1_joint": 3.0265160444745898,
        "distance_wrist_2_joint": 2.714363811761785,
        "distance_wrist_3_joint": 3.1082392537635064,
        "smoothness": 0.06419745280496744,
        "time": 0.312297828,
        "traj_len": 3.1608432014087073,
        "weighted_distance": 4.684900010422318
    },
    "planner": "LBKPIECE",
    "start": {
        "state": {
            "elbow_joint": 1.664937868594044,
            "shoulder_lift_joint": -0.661644460510453,
            "shoulder_pan_joint": -0.9139846352900073,
            "wrist_1_joint": 2.146753192139373,
            "wrist_2_joint": -2.2341966793290973,
            "wrist_3_joint": 0.005466555786416001
        }
    },
    "waypoints": [
        {
            "positions": [
                -0.9139846352900073,
                -0.661644460510453,
                1.664937868594044,
                2.146753192139373,
                -2.2341966793290973,
                0.005466555786416001
            ]
        },
        {
            "positions": [
                -0.8844570731750114,
                -0.6990492166790718,
                1.6599001889303384,
                2.069554788940235,
                -2.192167043859355,
                -0.00448985845588849
            ]
        },
        {
            "positions": [
                -0.8549295110600157,
                -0.7364539728476907,
                1.6548625092666327,
                1.9923563857410973,
                -2.150137408389612,
                -0.014446272698192982
            ]
        },
        {
            "positions": [
                -0.8645358281621253,
                -0.7519247651690605,
                1.6697002253630382,
                1.8774716162180447,
                -2.0449252267567197,
                -0.1379793297093489
            ]
        },
        {
            "positions": [
                -0.8741421452642348,
                -0.7673955574904304,
                1.6845379414594437,
                1.762586846694992,
                -1.9397130451238278,
                -0.2615123867205048
            ]
        },
        {
            "positions": [
                -0.8837484623663444,
                -0.7828663498118003,
                1.6993756575558494,
                1.6477020771719397,
                -1.8345008634909359,
                -0.3850454437316607
            ]
        },
        {
            "positions": [
                -0.893354779468454,
                -0.7983371421331701,
                1.714213373652255,
                1.5328173076488871,
                -1.729288681858044,
                -0.5085785007428166
            ]
        },
        {
            "positions": [
                -0.9029610965705637,
                -0.8138079344545399,
                1.7290510897486604,
                1.4179325381258345,
                -1.624076500225152,
                -0.6321115577539725
            ]
        },
        {
            "positions": [
                -0.9125674136726732,
                -0.8292787267759099,
                1.743888805845066,
                1.3030477686027822,
                -1.51886431859226,
                -0.7556446147651285
            ]
        },
        {
            "positions": [
                -0.9221737307747828,
                -0.8447495190972797,
                1.7587265219414716,
                1.1881629990797293,
                -1.4136521369593678,
                -0.8791776717762845
            ]
        },
        {
            "positions": [
                -0.9317800478768924,
                -0.8602203114186495,
                1.773564238037877,
                1.073278229556677,
                -1.308439955326476,
                -1.0027107287874402
            ]
        },
        {
            "positions": [
                -0.941386364979002,
                -0.8756911037400195,
                1.7884019541342826,
                0.9583934600336244,
                -1.203227773693584,
                -1.126243785798596
            ]
        },
        {
            "positions": [
                -0.9509926820811115,
                -0.8911618960613893,
                1.803239670230688,
                0.8435086905105718,
                -1.098015592060692,
                -1.249776842809752
            ]
        },
        {
            "positions": [
                -0.9605989991832211,
                -0.9066326883827591,
                1.8180773863270938,
                0.7286239209875192,
                -0.9928034104278001,
                -1.373309899820908
            ]
        },
        {
            "positions": [
                -0.9702053162853307,
                -0.922103480704129,
                1.8329151024234993,
                0.6137391514644668,
                -0.8875912287949081,
                -1.4968429568320638
            ]
        },
        {
            "positions": [
                -0.9798116333874404,
                -0.9375742730254989,
                1.8477528185199048,
                0.49885438194141396,
                -0.782379047162016,
                -1.6203760138432197
            ]
        },
        {
            "positions": [
                -0.98941795048955,
                -0.9530450653468687,
                1.8625905346163103,
                0.38396961241836136,
                -0.6771668655291239,
                -1.7439090708543759
            ]
        },
        {
            "positions": [
                -0.9990242675916595,
                -0.9685158576682386,
                1.877428250712716,
                0.269084842895309,
                -0.5719546838962322,
                -1.8674421278655315
            ]
        },
        {
            "positions": [
                -1.008630584693769,
                -0.9839866499896084,
                1.8922659668091215,
                0.15420007337225639,
                -0.46674250226334,
                -1.9909751848766875
            ]
        },
        {
            "positions": [
                -1.0182369017958788,
                -0.9994574423109783,
                1.907103682905527,
                0.039315303849203787,
                -0.3615303206304481,
                -2.1145082418878434
            ]
        },
        {
            "positions": [
                -1.0278432188979882,
                -1.014928234632348,
                1.9219413990019325,
                -0.07556946567384859,
                -0.2563181389975562,
                -2.2380412988989993
            ]
        },
        {
            "positions": [
                -1.037449536000098,
                -1.030399026953718,
                1.936779115098338,
                -0.1904542351969014,
                -0.15110595736466426,
                -2.361574355910155
            ]
        },
        {
            "positions": [
                -1.0470558531022074,
                -1.045869819275088,
                1.9516168311947437,
                -0.3053390047199538,
                -0.04589377573177211,
                -2.485107412921311
            ]
        },
        {
            "positions": [
                -1.056662170204317,
                -1.0613406115964579,
                1.9664545472911492,
                -0.42022377424300617,
                0.059318405901119586,
                -2.608640469932467
            ]
        },
        {
            "positions": [
                -1.0662684873064265,
                -1.0768114039178276,
                1.9812922633875547,
                -0.535108543766059,
                0.16453058753401173,
                -2.732173526943623
            ]
        },
        {
            "positions": [
                -1.0758748044085362,
                -1.0922821962391975,
                1.9961299794839604,
                -0.6499933132891114,
                0.2697427691669039,
                -2.855706583954779
            ]
        },
        {
            "positions": [
                -1.0854811215106457,
                -1.1077529885605673,
                2.0109676955803657,
                -0.7648780828121637,
                0.37495495079979557,
                -2.9792396409659347
            ]
        },
        {
            "positions": [
                -1.0950874386127554,
                -1.1232237808819372,
                2.0258054116767714,
                -0.8797628523352167,
                0.48016713243268755,
                -3.1027726979770907
            ]
        }
    ]
}