{
    "goal": {
        "global_pose": {
            "orientation": {
                "w": 0.5084816262002911,
                "x": -0.4908360881923452,
                "y": 0.5182115481033761,
                "z": -0.48164630358495003
            },
            "position": {
                "x": 0.5540239810943604,
                "y": -0.46912469901144505,
                "z": 0.16403168439865112
            }
        },
        "name": "move_to_storage_B"
    },
    "id": "LBKPIECE_move_to_storage_B_142",
    "joint_names": [
        "shoulder_pan_joint",
        "shoulder_lift_joint",
        "elbow_joint",
        "wrist_1_joint",
        "wrist_2_joint",
        "wrist_3_joint"
    ],
    "metrics": {
        "cart_traj_len": 0.6690657279860005,
        "distance_elbow_joint": 0.35169265479185796,
        "distance_shoulder_lift_joint": 0.4584692418426324,
        "distance_shoulder_pan_joint": 0.25107245101779097,
        "distance_wrist_1_joint": 2.995330968491347,
        "distance_wrist_2_joint": 2.7005012140764717,
        "distance_wrist_3_joint": 3.38884082537379,
        "smoothness": 0.2547318560720998,
        "time": 0.354207331,
        "traj_len": 3.1852640951095235,
        "weighted_distance": 4.755987929853196
    },
    "planner": "LBKPIECE",
    "start": {
        "state": {
            "elbow_joint": 1.664937868594044,
            "shoulder_lift_joint": -0.661644460510453,
            "shoulder_pan_joint": -0.9139846352900073,
            "wrist_1_joint": 2.146753192139373,
            "wrist_2_joint": -2.2341966793290973,
            "wrist_3_joint": 0.005466555786416001
        }
    },
    "waypoints": [
        {
            "positions": [
                -0.9139846352900073,
                -0.661644460510453,
                1.664937868594044,
                2.146753192139373,
                -2.2341966793290973,
                0.005466555786416001
            ]
        },
        {
            "positions": [
                -0.8969160494461018,
                -0.7194702182827972,
                1.6845196110017526,
                2.081552189771191,
                -2.1470206792253164,
                0.07030776448501644
            ]
        },
        {
            "positions": [
                -0.8798474636021963,
                -0.7772959760551416,
                1.7041013534094613,
                2.016351187403009,
                -2.0598446791215355,
                0.13514897318361688
            ]
        },
        {
            "positions": [
                -0.8885248747753955,
                -0.7910086851070594,
                1.716602520208519,
                1.9017540288528096,
                -1.958798710566779,
                0.004782636864553325
            ]
        },
        {
            "positions": [
                -0.8972022859485947,
                -0.804721394158977,
                1.7291036870075767,
                1.7871568703026102,
                -1.8577527420120226,
                -0.12558369945451023
            ]
        },
        {
            "positions": [
                -0.905879697121794,
                -0.8184341032108948,
                1.7416048538066342,
                1.672559711752411,
                -1.7567067734572663,
                -0.2559500357735738
            ]
        },
        {
            "positions": [
                -0.9145571082949931,
                -0.8321468122628126,
                1.7541060206056918,
                1.5579625532022117,
                -1.6556608049025099,
                -0.38631637209263736
            ]
        },
        {
            "positions": [
                -0.9232345194681923,
                -0.8458595213147303,
                1.7666071874047495,
                1.4433653946520124,
                -1.5546148363477534,
                -0.5166827084117009
            ]
        },
        {
            "positions": [
                -0.9319119306413916,
                -0.8595722303666481,
                1.779108354203807,
                1.328768236101813,
                -1.4535688677929972,
                -0.6470490447307644
            ]
        },
        {
            "positions": [
                -0.9405893418145908,
                -0.8732849394185658,
                1.7916095210028646,
                1.2141710775516135,
                -1.3525228992382408,
                -0.7774153810498281
            ]
        },
        {
            "positions": [
                -0.94926675298779,
                -0.8869976484704836,
                1.8041106878019224,
                1.0995739190014144,
                -1.2514769306834843,
                -0.9077817173688916
            ]
        },
        {
            "positions": [
                -0.9579441641609892,
                -0.9007103575224014,
                1.81661185460098,
                0.9849767604512152,
                -1.1504309621287279,
                -1.038148053687955
            ]
        },
        {
            "positions": [
                -0.9666215753341884,
                -0.9144230665743192,
                1.8291130214000375,
                0.8703796019010157,
                -1.0493849935739714,
                -1.1685143900070187
            ]
        },
        {
            "positions": [
                -0.9752989865073876,
                -0.9281357756262368,
                1.8416141881990953,
                0.7557824433508165,
                -0.9483390250192152,
                -1.2988807263260822
            ]
        },
        {
            "positions": [
                -0.9839763976805868,
                -0.9418484846781546,
                1.8541153549981528,
                0.6411852848006172,
                -0.8472930564644587,
                -1.4292470626451457
            ]
        },
        {
            "positions": [
                -0.992653808853786,
                -0.9555611937300723,
                1.8666165217972104,
                0.5265881262504177,
                -0.7462470879097023,
                -1.5596133989642094
            ]
        },
        {
            "positions": [
                -1.0013312200269853,
                -0.9692739027819901,
                1.879117688596268,
                0.41199096770021826,
                -0.6452011193549458,
                -1.689979735283273
            ]
        },
        {
            "positions": [
                -1.0100086312001844,
                -0.9829866118339079,
                1.8916188553953257,
                0.29739380915001923,
                -0.5441551508001896,
                -1.8203460716023363
            ]
        },
        {
            "positions": [
                -1.0186860423733837,
                -0.9966993208858256,
                1.9041200221943833,
                0.18279665059981975,
                -0.44310918224543316,
                -1.9507124079214
            ]
        },
        {
            "positions": [
                -1.0273634535465828,
                -1.0104120299377435,
                1.916621188993441,
                0.0681994920496205,
                -0.3420632136906767,
                -2.0810787442404637
            ]
        },
        {
            "positions": [
                -1.0360408647197819,
                -1.024124738989661,
                1.9291223557924986,
                -0.04639766650057853,
                -0.2410172451359205,
                -2.211445080559527
            ]
        },
        {
            "positions": [
                -1.0447182758929812,
                -1.0378374480415788,
                1.9416235225915561,
                -0.160994825050778,
                -0.13997127658116382,
                -2.3418114168785906
            ]
        },
        {
            "positions": [
                -1.0533956870661805,
                -1.0515501570934966,
                1.9541246893906137,
                -0.2755919836009775,
                -0.03892530802640737,
                -2.4721777531976543
            ]
        },
        {
            "positions": [
                -1.0620730982393796,
                -1.0652628661454144,
                1.9666258561896715,
                -0.3901891421511765,
                0.06212066052834864,
                -2.6025440895167176
            ]
        },
        {
            "positions": [
                -1.0707505094125787,
                -1.0789755751973322,
                1.979127022988729,
                -0.504786300701376,
                0.16316662908310509,
                -2.7329104258357813
            ]
        },
        {
            "positions": [
                -1.079427920585778,
                -1.0926882842492498,
                1.9916281897877868,
                -0.6193834592515755,
                0.26421259763786153,
                -2.863276762154845
            ]
        },
        {
            "positions": [
                -1.0881053317589773,
                -1.1064009933011676,
                2.0041293565868443,
                -0.7339806178017745,
                0.365258566192618,
                -2.993643098473908
            ]
        },
        {
            "positions": [
                -1.0967827429321764,
                -1.1201137023530854,
                2.016630523385902,
                -0.8485777763519741,
                0.4663045347473746,
                -3.124009434792972
            ]
        }
    ]
}