{
    "goal": {
        "global_pose": {
            "orientation": {
                "w": 0.7031023480610252,
                "x": -0.7110244013736278,
                "y": 0.0077485991402295624,
                "z": 0.005598929693374583
            },
            "position": {
                "x": -0.8841497679147869,
                "y": 0.44412534475326537,
                "z": 0.3711530566215515
            }
        },
        "name": "move_to_auspresseinheit_D"
    },
    "id": "LBKPIECE_move_to_auspresseinheit_D_60",
    "joint_names": [
        "shoulder_pan_joint",
        "shoulder_lift_joint",
        "elbow_joint",
        "wrist_1_joint",
        "wrist_2_joint",
        "wrist_3_joint"
    ],
    "metrics": {
        "cart_traj_len": 0.34400280395320315,
        "distance_elbow_joint": 0.6654692172794308,
        "distance_shoulder_lift_joint": 0.1373606983817255,
        "distance_shoulder_pan_joint": 0.1334904174226488,
        "distance_wrist_1_joint": 0.61077201351396,
        "distance_wrist_2_joint": 1.4464019624374385,
        "distance_wrist_3_joint": 0.06227207636738097,
        "smoothness": 1.9737298371844314e-16,
        "time": 0.30525278899999997,
        "traj_len": 1.7480750514215873,
        "weighted_distance": 2.2885551149336005
    },
    "planner": "LBKPIECE",
    "start": {
        "state": {
            "elbow_joint": -1.8275523626775212,
            "shoulder_lift_joint": -2.126789852344167,
            "shoulder_pan_joint": -0.03513704404078235,
            "wrist_1_joint": -2.347782403156801,
            "wrist_2_joint": -1.6058999987535132,
            "wrist_3_joint": -3.0880379163319196
        }
    },
    "waypoints": [
        {
            "positions": [
                -0.03513704404078235,
                -2.126789852344167,
                -1.8275523626775212,
                -2.347782403156801,
                -1.6058999987535132,
                -3.0880379163319196
            ]
        },
        {
            "positions": [
                -0.05182334621861345,
                -2.1439599396418827,
                -1.7443687105175925,
                -2.4241289048460457,
                -1.4250997534488334,
                -3.080253906785997
            ]
        },
        {
            "positions": [
                -0.06850964839644455,
                -2.161130026939598,
                -1.6611850583576635,
                -2.500475406535291,
                -1.2442995081441537,
                -3.072469897240074
            ]
        },
        {
            "positions": [
                -0.08519595057427565,
                -2.178300114237314,
                -1.5780014061977345,
                -2.576821908224536,
                -1.0634992628394737,
                -3.064685887694152
            ]
        },
        {
            "positions": [
                -0.10188225275210674,
                -2.19547020153503,
                -1.4948177540378058,
                -2.653168409913781,
                -0.882699017534794,
                -3.056901878148229
            ]
        },
        {
            "positions": [
                -0.11856855492993784,
                -2.212640288832745,
                -1.411634101877877,
                -2.729514911603026,
                -0.7018987722301142,
                -3.0491178686023064
            ]
        },
        {
            "positions": [
                -0.13525485710776897,
                -2.229810376130461,
                -1.3284504497179481,
                -2.805861413292271,
                -0.5210985269254342,
                -3.041333859056384
            ]
        },
        {
            "positions": [
                -0.15194115928560006,
                -2.2469804634281765,
                -1.2452667975580192,
                -2.8822079149815156,
                -0.3402982816207545,
                -3.0335498495104614
            ]
        },
        {
            "positions": [
                -0.16862746146343116,
                -2.2641505507258923,
                -1.1620831453980904,
                -2.958554416670761,
                -0.15949803631607468,
                -3.0257658399645386
            ]
        }
    ]
}