{
    "goal": {
        "global_pose": {
            "orientation": {
                "w": 0.5084816217422485,
                "x": -0.49083608388900757,
                "y": 0.5182115435600281,
                "z": -0.4816462993621826
            },
            "position": {
                "x": 0.5540239810943604,
                "y": 0.030875300988554955,
                "z": 0.16403168439865112
            }
        },
        "name": "move_to_storage_A"
    },
    "id": "LBKPIECE_move_to_storage_A_15",
    "joint_names": [
        "shoulder_pan_joint",
        "shoulder_lift_joint",
        "elbow_joint",
        "wrist_1_joint",
        "wrist_2_joint",
        "wrist_3_joint"
    ],
    "metrics": {
        "cart_traj_len": 0.35355920013035086,
        "distance_elbow_joint": 0.4526257093978636,
        "distance_shoulder_lift_joint": 0.23550971596091674,
        "distance_shoulder_pan_joint": 0.4629302294710491,
        "distance_wrist_1_joint": 0.25037758713273395,
        "distance_wrist_2_joint": 1.0981411770178382,
        "distance_wrist_3_joint": 0.10838872586277315,
        "smoothness": 0.0,
        "time": 0.599479349,
        "traj_len": 1.614922024384823,
        "weighted_distance": 2.0428581352407447
    },
    "planner": "LBKPIECE",
    "start": {
        "state": {
            "elbow_joint": 1.971548259319323,
            "shoulder_lift_joint": -1.1394851275133948,
            "shoulder_pan_joint": 0.1228115487234821,
            "wrist_1_joint": -0.7804723859257726,
            "wrist_2_joint": 0.12958671773740124,
            "wrist_3_joint": -3.192489227718131
        }
    },
    "waypoints": [
        {
            "positions": [
                0.1228115487234821,
                -1.1394851275133948,
                1.971548259319323,
                -0.7804723859257726,
                0.12958671773740124,
                -3.192489227718131
            ]
        },
        {
            "positions": [
                0.056678658799046516,
                -1.1731293726506686,
                2.0362090749475894,
                -0.8162406126590204,
                0.2864640287399496,
                -3.177005124023449
            ]
        },
        {
            "positions": [
                -0.009454231125389068,
                -1.2067736177879425,
                2.1008698905758556,
                -0.852008839392268,
                0.4433413397424979,
                -3.1615210203287676
            ]
        },
        {
            "positions": [
                -0.07558712104982465,
                -1.2404178629252163,
                2.165530706204122,
                -0.8877770661255158,
                0.6002186507450462,
                -3.1460369166340856
            ]
        },
        {
            "positions": [
                -0.14172001097426024,
                -1.27406210806249,
                2.230191521832388,
                -0.9235452928587634,
                0.7570959617475945,
                -3.1305528129394036
            ]
        },
        {
            "positions": [
                -0.20785290089869585,
                -1.307706353199764,
                2.294852337460654,
                -0.9593135195920112,
                0.9139732727501428,
                -3.1150687092447216
            ]
        },
        {
            "positions": [
                -0.2739857908231314,
                -1.3413505983370377,
                2.3595131530889204,
                -0.9950817463252588,
                1.0708505837526912,
                -3.09958460555004
            ]
        },
        {
            "positions": [
                -0.340118680747567,
                -1.3749948434743116,
                2.4241739687171866,
                -1.0308499730585066,
                1.2277278947552395,
                -3.084100501855358
            ]
        }
    ]
}{
    "goal": {
        "global_pose": {
            "orientation": {
                "w": 0.5084816217422485,
                "x": -0.49083608388900757,
                "y": 0.5182115435600281,
                "z": -0.4816462993621826
            },
            "position": {
                "x": 0.5540239810943604,
                "y": 0.030875300988554955,
                "z": 0.16403168439865112
            }
        },
        "name": "move_to_storage_A"
    },
    "id": "LBKPIECE_move_to_storage_A_15",
    "joint_names": [
        "shoulder_pan_joint",
        "shoulder_lift_joint",
        "elbow_joint",
        "wrist_1_joint",
        "wrist_2_joint",
        "wrist_3_joint"
    ],
    "metrics": {
        "cart_traj_len": 0.35272351249757816,
        "distance_elbow_joint": 0.44866510764538825,
        "distance_shoulder_lift_joint": 0.23382787751468825,
        "distance_shoulder_pan_joint": 0.46131693882690866,
        "distance_wrist_1_joint": 0.23840566428156218,
        "distance_wrist_2_joint": 1.0973676405973083,
        "distance_wrist_3_joint": 0.09419571515737024,
        "smoothness": 0.0,
        "time": 0.798051673,
        "traj_len": 1.6043001415019653,
        "weighted_distance": 2.0243378372240235
    },
    "planner": "LBKPIECE",
    "start": {
        "state": {
            "elbow_joint": 1.97154746011099,
            "shoulder_lift_joint": -1.13948474672311,
            "shoulder_pan_joint": 0.12281154466712228,
            "wrist_1_joint": -0.7804688027058302,
            "wrist_2_joint": 0.12958655903071145,
            "wrist_3_joint": 3.0906928834467795
        }
    },
    "waypoints": [
        {
            "positions": [
                0.12281154466712228,
                -1.13948474672311,
                1.97154746011099,
                -0.7804688027058302,
                0.12958655903071145,
                3.0906928834467795
            ]
        },
        {
            "positions": [
                0.05690912483470677,
                -1.1728887292252084,
                2.0356424754889026,
                -0.8145267547460534,
                0.2863533648303269,
                3.1041494141835466
            ]
        },
        {
            "positions": [
                -0.008993294997708748,
                -1.2062927117273066,
                2.099737490866815,
                -0.8485847067862765,
                0.44312017062994236,
                3.1176059449203137
            ]
        },
        {
            "positions": [
                -0.07489571483012426,
                -1.239696694229405,
                2.1638325062447277,
                -0.8826426588264997,
                0.5998869764295578,
                3.131062475657081
            ]
        },
        {
            "positions": [
                -0.14079813466253976,
                -1.2731006767315032,
                2.2279275216226404,
                -0.9167006108667228,
                0.7566537822291733,
                3.1445190063938484
            ]
        },
        {
            "positions": [
                -0.20670055449495534,
                -1.3065046592336016,
                2.292022537000553,
                -0.950758562906946,
                0.9134205880287889,
                3.1579755371306155
            ]
        },
        {
            "positions": [
                -0.2726029743273708,
                -1.3399086417356998,
                2.3561175523784654,
                -0.9848165149471692,
                1.070187393828404,
                3.1714320678673826
            ]
        },
        {
            "positions": [
                -0.33850539415978637,
                -1.3733126242377982,
                2.420212567756378,
                -1.0188744669873924,
                1.2269541996280198,
                3.1848885986041497
            ]
        }
    ]
}{
    "goal": {
        "global_pose": {
            "orientation": {
                "w": 0.5084816217422485,
                "x": -0.49083608388900757,
                "y": 0.5182115435600281,
                "z": -0.4816462993621826
            },
            "position": {
                "x": 0.5540239810943604,
                "y": 0.030875300988554955,
                "z": 0.16403168439865112
            }
        },
        "name": "move_to_storage_A"
    },
    "id": "LBKPIECE_move_to_storage_A_15",
    "joint_names": [
        "shoulder_pan_joint",
        "shoulder_lift_joint",
        "elbow_joint",
        "wrist_1_joint",
        "wrist_2_joint",
        "wrist_3_joint"
    ],
    "metrics": {
        "cart_traj_len": 0.3531519846534814,
        "distance_elbow_joint": 0.44824841830348516,
        "distance_shoulder_lift_joint": 0.2363936718909614,
        "distance_shoulder_pan_joint": 0.46196190373603313,
        "distance_wrist_1_joint": 0.23409057690071378,
        "distance_wrist_2_joint": 1.0988943215783635,
        "distance_wrist_3_joint": 0.09387682094351923,
        "smoothness": 8.881784197001252e-16,
        "time": 0.717215752,
        "traj_len": 1.6042025163155293,
        "weighted_distance": 2.0234140094699335
    },
    "planner": "LBKPIECE",
    "start": {
        "state": {
            "elbow_joint": 1.9715472970024885,
            "shoulder_lift_joint": -1.1394870060712896,
            "shoulder_pan_joint": 0.12281152778156021,
            "wrist_1_joint": -0.780463741449964,
            "wrist_2_joint": 0.12958659822042276,
            "wrist_3_joint": 3.090690232415272
        }
    },
    "waypoints": [
        {
            "positions": [
                0.12281152778156021,
                -1.1394870060712896,
                1.9715472970024885,
                -0.780463741449964,
                0.12958659822042276,
                3.090690232415272
            ]
        },
        {
            "positions": [
                0.05681697010498406,
                -1.1732575306271413,
                2.035582785331558,
                -0.8139052524357803,
                0.2865715013030461,
                3.1041012068357747
            ]
        },
        {
            "positions": [
                -0.009177587571592094,
                -1.2070280551829928,
                2.099618273660627,
                -0.8473467634215965,
                0.44355640438566946,
                3.117512181256277
            ]
        },
        {
            "positions": [
                -0.07517214524816823,
                -1.2407985797388446,
                2.1636537619896963,
                -0.8807882744074127,
                0.6005413074682928,
                3.13092315567678
            ]
        },
        {
            "positions": [
                -0.1411667029247444,
                -1.274569104294696,
                2.2276892503187655,
                -0.914229785393229,
                0.7575262105509162,
                3.144334130097283
            ]
        },
        {
            "positions": [
                -0.2071612606013206,
                -1.3083396288505478,
                2.291724738647835,
                -0.9476712963790452,
                0.9145111136335395,
                3.157745104517786
            ]
        },
        {
            "positions": [
                -0.2731558182778967,
                -1.3421101534063993,
                2.3557602269769045,
                -0.9811128073648615,
                1.071496016716163,
                3.171156078938288
            ]
        },
        {
            "positions": [
                -0.3391503759544729,
                -1.375880677962251,
                2.4197957153059737,
                -1.0145543183506778,
                1.2284809197987863,
                3.184567053358791
            ]
        }
    ]
}