{
    "goal": {
        "global_pose": {
            "orientation": {
                "w": -0.4816463035849501,
                "x": 0.5182115481033762,
                "y": 0.4908360881923453,
                "z": -0.5084816262002911
            },
            "position": {
                "x": -0.8240239810943604,
                "y": -0.300875300988555,
                "z": 0.16403168439865112
            }
        },
        "name": "move_to_storage_C"
    },
    "id": "LBKPIECE_move_to_storage_C_107",
    "joint_names": [
        "shoulder_pan_joint",
        "shoulder_lift_joint",
        "elbow_joint",
        "wrist_1_joint",
        "wrist_2_joint",
        "wrist_3_joint"
    ],
    "metrics": {
        "cart_traj_len": 0.5767762937286787,
        "distance_elbow_joint": 0.26010752910906665,
        "distance_shoulder_lift_joint": 0.19082326662203553,
        "distance_shoulder_pan_joint": 0.494140721904627,
        "distance_wrist_1_joint": 0.08209717196472632,
        "distance_wrist_2_joint": 1.0690144977173732,
        "distance_wrist_3_joint": 0.07215215547403764,
        "smoothness": 0.0,
        "time": 0.233234776,
        "traj_len": 1.4725268563906961,
        "weighted_distance": 1.8611156125888688
    },
    "planner": "LBKPIECE",
    "start": {
        "state": {
            "elbow_joint": 2.010868314990456,
            "shoulder_lift_joint": -1.1634956873337592,
            "shoulder_pan_joint": -2.4736205022346125,
            "wrist_1_joint": -0.8367026794202681,
            "wrist_2_joint": 0.6746043897044499,
            "wrist_3_joint": -3.1496632123970403
        }
    },
    "waypoints": [
        {
            "positions": [
                -2.4736205022346125,
                -1.1634956873337592,
                2.010868314990456,
                -0.8367026794202681,
                0.6746043897044499,
                -3.1496632123970403
            ]
        },
        {
            "positions": [
                -2.555977289218717,
                -1.1316918095634199,
                1.9675170601389447,
                -0.823019817426147,
                0.8527734726573455,
                -3.137637853151367
            ]
        },
        {
            "positions": [
                -2.6383340762028213,
                -1.0998879317930808,
                1.9241658052874335,
                -0.809336955432026,
                1.030942555610241,
                -3.1256124939056944
            ]
        },
        {
            "positions": [
                -2.7206908631869258,
                -1.0680840540227414,
                1.8808145504359226,
                -0.7956540934379049,
                1.2091116385631366,
                -3.1135871346600217
            ]
        },
        {
            "positions": [
                -2.8030476501710306,
                -1.036280176252402,
                1.8374632955844115,
                -0.7819712314437839,
                1.3872807215160319,
                -3.1015617754143485
            ]
        },
        {
            "positions": [
                -2.885404437155135,
                -1.004476298482063,
                1.7941120407329003,
                -0.7682883694496628,
                1.5654498044689276,
                -3.0895364161686754
            ]
        },
        {
            "positions": [
                -2.9677612241392395,
                -0.9726724207117237,
                1.7507607858813892,
                -0.7546055074555418,
                1.743618887421823,
                -3.0775110569230026
            ]
        }
    ]
}