{
    "goal": {
        "global_pose": {
            "orientation": {
                "w": 0.005598929693374612,
                "x": 0.007748599140229565,
                "y": 0.7110244013736278,
                "z": -0.7031023480610252
            },
            "position": {
                "x": -0.8858502320852131,
                "y": -0.7141253447532654,
                "z": 0.3711530566215515
            }
        },
        "name": "move_to_auspresseinheit_C"
    },
    "id": "LBKPIECE_move_to_auspresseinheit_C_6",
    "joint_names": [
        "shoulder_pan_joint",
        "shoulder_lift_joint",
        "elbow_joint",
        "wrist_1_joint",
        "wrist_2_joint",
        "wrist_3_joint"
    ],
    "metrics": {
        "cart_traj_len": 0.49395583292932477,
        "distance_elbow_joint": 1.0070539630051387,
        "distance_shoulder_lift_joint": 0.327814381051419,
        "distance_shoulder_pan_joint": 0.25679804153933894,
        "distance_wrist_1_joint": 0.6940423310537237,
        "distance_wrist_2_joint": 1.3042821551050099,
        "distance_wrist_3_joint": 0.06212138435614589,
        "smoothness": 4.844609574787718e-16,
        "time": 0.509203786,
        "traj_len": 1.9110500401901507,
        "weighted_distance": 2.403056285437734
    },
    "planner": "LBKPIECE",
    "start": {
        "state": {
            "elbow_joint": 1.7527959577737207,
            "shoulder_lift_joint": -0.9740617694225068,
            "shoulder_pan_joint": -2.967991417825858,
            "wrist_1_joint": -0.759517768980727,
            "wrist_2_joint": 1.7443932448377408,
            "wrist_3_joint": -3.0840537646736568
        }
    },
    "waypoints": [
        {
            "positions": [
                -2.967991417825858,
                -0.9740617694225068,
                1.7527959577737207,
                -0.759517768980727,
                1.7443932448377408,
                -3.0840537646736568
            ]
        },
        {
            "positions": [
                -2.942311613671924,
                -0.9412803313173649,
                1.6520905614732069,
                -0.6901135358753546,
                1.6139650293272398,
                -3.0902659031092714
            ]
        },
        {
            "positions": [
                -2.91663180951799,
                -0.908498893212223,
                1.5513851651726929,
                -0.6207093027699823,
                1.4835368138167389,
                -3.096478041544886
            ]
        },
        {
            "positions": [
                -2.8909520053640563,
                -0.8757174551070811,
                1.450679768872179,
                -0.5513050696646099,
                1.3531085983062379,
                -3.1026901799805007
            ]
        },
        {
            "positions": [
                -2.8652722012101224,
                -0.8429360170019391,
                1.349974372571665,
                -0.4819008365592375,
                1.2226803827957369,
                -3.1089023184161153
            ]
        },
        {
            "positions": [
                -2.8395923970561885,
                -0.8101545788967972,
                1.2492689762711513,
                -0.41249660345386513,
                1.0922521672852359,
                -3.11511445685173
            ]
        },
        {
            "positions": [
                -2.8139125929022546,
                -0.7773731407916553,
                1.1485635799706375,
                -0.34309237034849277,
                0.9618239517747349,
                -3.121326595287344
            ]
        },
        {
            "positions": [
                -2.7882327887483207,
                -0.7445917026865134,
                1.0478581836701237,
                -0.2736881372431204,
                0.831395736264234,
                -3.1275387337229588
            ]
        },
        {
            "positions": [
                -2.762552984594387,
                -0.7118102645813715,
                0.9471527873696096,
                -0.204283904137748,
                0.7009675207537329,
                -3.1337508721585734
            ]
        },
        {
            "positions": [
                -2.736873180440453,
                -0.6790288264762296,
                0.8464473910690958,
                -0.13487967103237564,
                0.5705393052432319,
                -3.139963010594188
            ]
        },
        {
            "positions": [
                -2.711193376286519,
                -0.6462473883710877,
                0.7457419947685818,
                -0.06547543792700332,
                0.44011108973273083,
                -3.1461751490298027
            ]
        }
    ]
}