{
    "goal": {
        "global_pose": {
            "orientation": {
                "w": 0.7031023480610252,
                "x": -0.7110244013736278,
                "y": 0.0077485991402295624,
                "z": 0.005598929693374583
            },
            "position": {
                "x": -0.8841497679147869,
                "y": 0.44412534475326537,
                "z": 0.3711530566215515
            }
        },
        "name": "move_to_auspresseinheit_D"
    },
    "id": "LBKPIECE_move_to_auspresseinheit_D_142",
    "joint_names": [
        "shoulder_pan_joint",
        "shoulder_lift_joint",
        "elbow_joint",
        "wrist_1_joint",
        "wrist_2_joint",
        "wrist_3_joint"
    ],
    "metrics": {
        "cart_traj_len": 0.34331701781527535,
        "distance_elbow_joint": 0.6491964840915636,
        "distance_shoulder_lift_joint": 0.12777463256096278,
        "distance_shoulder_pan_joint": 0.1342321481578287,
        "distance_wrist_1_joint": 0.5739391915226117,
        "distance_wrist_2_joint": 1.4290246157132183,
        "distance_wrist_3_joint": 0.04546495789909244,
        "smoothness": 1.3816108766519434e-15,
        "time": 0.275001242,
        "traj_len": 1.7203581109598307,
        "weighted_distance": 2.2480048382908993
    },
    "planner": "LBKPIECE",
    "start": {
        "state": {
            "elbow_joint": -1.8275523626775212,
            "shoulder_lift_joint": -2.126789852344167,
            "shoulder_pan_joint": -0.03513704404078235,
            "wrist_1_joint": -2.347782403156801,
            "wrist_2_joint": -1.6058999987535132,
            "wrist_3_joint": -3.0880379163319196
        }
    },
    "waypoints": [
        {
            "positions": [
                -0.03513704404078235,
                -2.126789852344167,
                -1.8275523626775212,
                -2.347782403156801,
                -1.6058999987535132,
                -3.0880379163319196
            ]
        },
        {
            "positions": [
                -0.051916062560510935,
                -2.1427616814142874,
                -1.7464028021660758,
                -2.4195248020971274,
                -1.427271921789361,
                -3.082354796594533
            ]
        },
        {
            "positions": [
                -0.06869508108023953,
                -2.1587335104844074,
                -1.6652532416546304,
                -2.491267201037454,
                -1.2486438448252086,
                -3.0766716768571465
            ]
        },
        {
            "positions": [
                -0.0854740995999681,
                -2.174705339554528,
                -1.5841036811431848,
                -2.5630095999777804,
                -1.0700157678610562,
                -3.07098855711976
            ]
        },
        {
            "positions": [
                -0.1022531181196967,
                -2.1906771686246485,
                -1.5029541206317394,
                -2.634751998918107,
                -0.8913876908969041,
                -3.0653054373823734
            ]
        },
        {
            "positions": [
                -0.11903213663942527,
                -2.2066489976947685,
                -1.421804560120294,
                -2.706494397858433,
                -0.7127596139327518,
                -3.059622317644987
            ]
        },
        {
            "positions": [
                -0.13581115515915387,
                -2.222620826764889,
                -1.3406549996088484,
                -2.7782367967987596,
                -0.5341315369685995,
                -3.0539391979076003
            ]
        },
        {
            "positions": [
                -0.15259017367888245,
                -2.238592655835009,
                -1.259505439097403,
                -2.849979195739086,
                -0.3555034600044471,
                -3.0482560781702137
            ]
        },
        {
            "positions": [
                -0.16936919219861105,
                -2.2545644849051296,
                -1.1783558785859576,
                -2.9217215946794126,
                -0.176875383040295,
                -3.042572958432827
            ]
        }
    ]
}