{
    "goal": {
        "global_pose": {
            "orientation": {
                "w": 0.7031023502349854,
                "x": -0.7110244035720825,
                "y": 0.007748599164187908,
                "z": 0.005598929710686207
            },
            "position": {
                "x": 0.11585023208521307,
                "y": 0.44412534475326537,
                "z": 0.3711530566215515
            }
        },
        "name": "move_to_auspresseinheit_A"
    },
    "id": "LBKPIECE_move_to_auspresseinheit_A_105",
    "joint_names": [
        "shoulder_pan_joint",
        "shoulder_lift_joint",
        "elbow_joint",
        "wrist_1_joint",
        "wrist_2_joint",
        "wrist_3_joint"
    ],
    "metrics": {
        "cart_traj_len": 0.7990932927757503,
        "distance_elbow_joint": 0.42198999824174077,
        "distance_shoulder_lift_joint": 0.5335479358491784,
        "distance_shoulder_pan_joint": 1.0453154427477074,
        "distance_wrist_1_joint": 0.576867946922948,
        "distance_wrist_2_joint": 0.5175655472270814,
        "distance_wrist_3_joint": 0.7894867147423779,
        "smoothness": 0.7831779606647898,
        "time": 0.602242906,
        "traj_len": 1.9709828983862425,
        "weighted_distance": 2.5608944744689923
    },
    "planner": "LBKPIECE",
    "start": {
        "state": {
            "elbow_joint": 2.4225746658250005,
            "shoulder_lift_joint": -1.3736534386056498,
            "shoulder_pan_joint": -0.3378633547517467,
            "wrist_1_joint": -1.0288598680537169,
            "wrist_2_joint": 1.233022673432363,
            "wrist_3_joint": -3.0940220416140027
        }
    },
    "waypoints": [
        {
            "positions": [
                -0.3378633547517467,
                -1.3736534386056498,
                2.4225746658250005,
                -1.0288598680537169,
                1.233022673432363,
                -3.0940220416140027
            ]
        },
        {
            "positions": [
                -0.27223819232925295,
                -1.428318431712869,
                2.384642174415094,
                -0.9557083321462889,
                1.1840318826162866,
                -3.0330413556804734
            ]
        },
        {
            "positions": [
                -0.20661302990675914,
                -1.482983424820088,
                2.3467096830051872,
                -0.882556796238861,
                1.13504109180021,
                -2.9720606697469445
            ]
        },
        {
            "positions": [
                -0.14098786748426534,
                -1.5376484179273069,
                2.308777191595281,
                -0.809405260331433,
                1.0860503009841336,
                -2.911079983813415
            ]
        },
        {
            "positions": [
                -0.07536270506177156,
                -1.592313411034526,
                2.2708447001853744,
                -0.7362537244240052,
                1.037059510168057,
                -2.850099297879886
            ]
        },
        {
            "positions": [
                -0.00973754263927773,
                -1.6469784041417452,
                2.232912208775468,
                -0.6631021885165771,
                0.9880687193519807,
                -2.789118611946357
            ]
        },
        {
            "positions": [
                0.05588761978321604,
                -1.7016433972489642,
                2.194979717365561,
                -0.5899506526091493,
                0.9390779285359042,
                -2.7281379260128276
            ]
        },
        {
            "positions": [
                0.18620051342576496,
                -1.742754992690137,
                2.2338587273220214,
                -0.5623589063134732,
                0.8943537680697797,
                -2.812858445841068
            ]
        },
        {
            "positions": [
                0.3165134070683139,
                -1.7838665881313098,
                2.2727377372784816,
                -0.5347671600177971,
                0.8496296076036551,
                -2.8975789656693087
            ]
        },
        {
            "positions": [
                0.4468263007108627,
                -1.8249781835724825,
                2.3116167472349423,
                -0.507175413722121,
                0.8049054471375308,
                -2.982299485497549
            ]
        },
        {
            "positions": [
                0.5771391943534117,
                -1.8660897790136555,
                2.3504957571914025,
                -0.479583667426445,
                0.7601812866714062,
                -3.06702000532579
            ]
        },
        {
            "positions": [
                0.7074520879959605,
                -1.9072013744548282,
                2.3893747671478627,
                -0.4519919211307689,
                0.7154571262052817,
                -3.1517405251540302
            ]
        }
    ]
}