{
    "goal": {
        "global_pose": {
            "orientation": {
                "w": 0.5084816217422485,
                "x": -0.49083608388900757,
                "y": 0.5182115435600281,
                "z": -0.4816462993621826
            },
            "position": {
                "x": 0.5540239810943604,
                "y": 0.030875300988554955,
                "z": 0.16403168439865112
            }
        },
        "name": "move_to_storage_A"
    },
    "id": "LBKPIECE_move_to_storage_A_33",
    "joint_names": [
        "shoulder_pan_joint",
        "shoulder_lift_joint",
        "elbow_joint",
        "wrist_1_joint",
        "wrist_2_joint",
        "wrist_3_joint"
    ],
    "metrics": {
        "cart_traj_len": 0.3525834773412112,
        "distance_elbow_joint": 0.45278652069891234,
        "distance_shoulder_lift_joint": 0.2328801739568247,
        "distance_shoulder_pan_joint": 0.46136142783222894,
        "distance_wrist_1_joint": 0.2573620048482125,
        "distance_wrist_2_joint": 1.0960534707904506,
        "distance_wrist_3_joint": 0.1080841565802646,
        "smoothness": 1.9984014508486487e-15,
        "time": 0.355254533,
        "traj_len": 1.6150937293875218,
        "weighted_distance": 2.0440429407197116
    },
    "planner": "LBKPIECE",
    "start": {
        "state": {
            "elbow_joint": 1.971548259319323,
            "shoulder_lift_joint": -1.1394851275133948,
            "shoulder_pan_joint": 0.1228115487234821,
            "wrist_1_joint": -0.7804723859257726,
            "wrist_2_joint": 0.12958671773740124,
            "wrist_3_joint": -3.192489227718131
        }
    },
    "waypoints": [
        {
            "positions": [
                0.1228115487234821,
                -1.1394851275133948,
                1.971548259319323,
                -0.7804723859257726,
                0.12958671773740124,
                -3.192489227718131
            ]
        },
        {
            "positions": [
                0.05690277331887797,
                -1.1727537237929413,
                2.036232047990596,
                -0.8172383866183744,
                0.2861657849931799,
                -3.1770486339209505
            ]
        },
        {
            "positions": [
                -0.009006002085726161,
                -1.2060223200724876,
                2.100915836661869,
                -0.8540043873109762,
                0.44274485224895854,
                -3.16160804012377
            ]
        },
        {
            "positions": [
                -0.07491477749033029,
                -1.239290916352034,
                2.1655996253331424,
                -0.890770388003578,
                0.5993239195047372,
                -3.146167446326589
            ]
        },
        {
            "positions": [
                -0.14082355289493442,
                -1.2725595126315803,
                2.2302834140044157,
                -0.9275363886961797,
                0.7559029867605158,
                -3.1307268525294085
            ]
        },
        {
            "positions": [
                -0.20673232829953858,
                -1.3058281089111268,
                2.294967202675689,
                -0.9643023893887815,
                0.9124820540162946,
                -3.115286258732228
            ]
        },
        {
            "positions": [
                -0.2726411037041427,
                -1.339096705190673,
                2.359650991346962,
                -1.0010683900813833,
                1.069061121272073,
                -3.099845664935047
            ]
        },
        {
            "positions": [
                -0.33854987910874684,
                -1.3723653014702195,
                2.4243347800182353,
                -1.037834390773985,
                1.2256401885278518,
                -3.0844050711378665
            ]
        }
    ]
}{
    "goal": {
        "global_pose": {
            "orientation": {
                "w": 0.5084816217422485,
                "x": -0.49083608388900757,
                "y": 0.5182115435600281,
                "z": -0.4816462993621826
            },
            "position": {
                "x": 0.5540239810943604,
                "y": 0.030875300988554955,
                "z": 0.16403168439865112
            }
        },
        "name": "move_to_storage_A"
    },
    "id": "LBKPIECE_move_to_storage_A_33",
    "joint_names": [
        "shoulder_pan_joint",
        "shoulder_lift_joint",
        "elbow_joint",
        "wrist_1_joint",
        "wrist_2_joint",
        "wrist_3_joint"
    ],
    "metrics": {
        "cart_traj_len": 0.35282297731119494,
        "distance_elbow_joint": 0.44777902235523603,
        "distance_shoulder_lift_joint": 0.23452716550319375,
        "distance_shoulder_pan_joint": 0.461870078927663,
        "distance_wrist_1_joint": 0.234581556801297,
        "distance_wrist_2_joint": 1.0958825900156197,
        "distance_wrist_3_joint": 0.09722975566970504,
        "smoothness": 2.2204460668324854e-16,
        "time": 0.198285975,
        "traj_len": 1.6037051378831193,
        "weighted_distance": 2.0240538104084687
    },
    "planner": "LBKPIECE",
    "start": {
        "state": {
            "elbow_joint": 1.97154746011099,
            "shoulder_lift_joint": -1.13948474672311,
            "shoulder_pan_joint": 0.12281154466712228,
            "wrist_1_joint": -0.7804688027058302,
            "wrist_2_joint": 0.12958655903071145,
            "wrist_3_joint": 3.0906928834467795
        }
    },
    "waypoints": [
        {
            "positions": [
                0.12281154466712228,
                -1.13948474672311,
                1.97154746011099,
                -0.7804688027058302,
                0.12958655903071145,
                3.0906928834467795
            ]
        },
        {
            "positions": [
                0.05683010482031328,
                -1.1729886275092805,
                2.0355158918760234,
                -0.8139804536774441,
                0.28614121474722853,
                3.1045828485424516
            ]
        },
        {
            "positions": [
                -0.009151335026495719,
                -1.206492508295451,
                2.0994843236410574,
                -0.8474921046490579,
                0.4426958704637456,
                3.1184728136381237
            ]
        },
        {
            "positions": [
                -0.0751327748733047,
                -1.2399963890816215,
                2.163452755406091,
                -0.8810037556206718,
                0.5992505261802628,
                3.1323627787337958
            ]
        },
        {
            "positions": [
                -0.1411142147201137,
                -1.273500269867792,
                2.227421187171125,
                -0.9145154065922856,
                0.7558051818967798,
                3.1462527438294683
            ]
        },
        {
            "positions": [
                -0.20709565456692275,
                -1.3070041506539627,
                2.2913896189361584,
                -0.9480270575638995,
                0.912359837613297,
                3.1601427089251404
            ]
        },
        {
            "positions": [
                -0.2730770944137317,
                -1.3405080314401332,
                2.3553580507011924,
                -0.9815387085355133,
                1.068914493329814,
                3.1740326740208125
            ]
        },
        {
            "positions": [
                -0.3390585342605407,
                -1.3740119122263037,
                2.419326482466226,
                -1.0150503595071272,
                1.2254691490463312,
                3.1879226391164845
            ]
        }
    ]
}{
    "goal": {
        "global_pose": {
            "orientation": {
                "w": 0.5084816217422485,
                "x": -0.49083608388900757,
                "y": 0.5182115435600281,
                "z": -0.4816462993621826
            },
            "position": {
                "x": 0.5540239810943604,
                "y": 0.030875300988554955,
                "z": 0.16403168439865112
            }
        },
        "name": "move_to_storage_A"
    },
    "id": "LBKPIECE_move_to_storage_A_33",
    "joint_names": [
        "shoulder_pan_joint",
        "shoulder_lift_joint",
        "elbow_joint",
        "wrist_1_joint",
        "wrist_2_joint",
        "wrist_3_joint"
    ],
    "metrics": {
        "cart_traj_len": 0.35232571695614084,
        "distance_elbow_joint": 0.44969263187233777,
        "distance_shoulder_lift_joint": 0.233205577147795,
        "distance_shoulder_pan_joint": 0.4595546398911332,
        "distance_wrist_1_joint": 0.24861587001116048,
        "distance_wrist_2_joint": 1.1012986384023686,
        "distance_wrist_3_joint": 0.0966803142698196,
        "smoothness": 0.0,
        "time": 0.488359551,
        "traj_len": 1.6090517927010972,
        "weighted_distance": 2.0328115526402795
    },
    "planner": "LBKPIECE",
    "start": {
        "state": {
            "elbow_joint": 1.9715472970024885,
            "shoulder_lift_joint": -1.1394870060712896,
            "shoulder_pan_joint": 0.12281152778156021,
            "wrist_1_joint": -0.780463741449964,
            "wrist_2_joint": 0.12958659822042276,
            "wrist_3_joint": 3.090690232415272
        }
    },
    "waypoints": [
        {
            "positions": [
                0.12281152778156021,
                -1.1394870060712896,
                1.9715472970024885,
                -0.780463741449964,
                0.12958659822042276,
                3.090690232415272
            ]
        },
        {
            "positions": [
                0.05716086493996976,
                -1.1728020885209747,
                2.0357891015556797,
                -0.8159802943087012,
                0.2869149751350468,
                3.104501705882389
            ]
        },
        {
            "positions": [
                -0.008489797901620688,
                -1.2061171709706595,
                2.100030906108871,
                -0.8514968471674385,
                0.4442433520496709,
                3.118313179349506
            ]
        },
        {
            "positions": [
                -0.07414046074321115,
                -1.2394322534203446,
                2.164272710662062,
                -0.8870134000261756,
                0.601571728964295,
                3.132124652816623
            ]
        },
        {
            "positions": [
                -0.13979112358480159,
                -1.2727473358700296,
                2.228514515215253,
                -0.9225299528849128,
                0.7589001058789191,
                3.14593612628374
            ]
        },
        {
            "positions": [
                -0.20544178642639208,
                -1.3060624183197147,
                2.292756319768444,
                -0.95804650574365,
                0.9162284827935432,
                3.1597475997508573
            ]
        },
        {
            "positions": [
                -0.2710924492679825,
                -1.3393775007693995,
                2.356998124321635,
                -0.9935630586023873,
                1.0735568597081673,
                3.1735590732179744
            ]
        },
        {
            "positions": [
                -0.336743112109573,
                -1.3726925832190846,
                2.4212399288748263,
                -1.0290796114611245,
                1.2308852366227914,
                3.1873705466850915
            ]
        }
    ]
}