{
    "goal": {
        "global_pose": {
            "orientation": {
                "w": 0.7031023480610252,
                "x": -0.7110244013736278,
                "y": 0.0077485991402295624,
                "z": 0.005598929693374583
            },
            "position": {
                "x": -0.8841497679147869,
                "y": 0.44412534475326537,
                "z": 0.3711530566215515
            }
        },
        "name": "move_to_auspresseinheit_D"
    },
    "id": "LBKPIECE_move_to_auspresseinheit_D_104",
    "joint_names": [
        "shoulder_pan_joint",
        "shoulder_lift_joint",
        "elbow_joint",
        "wrist_1_joint",
        "wrist_2_joint",
        "wrist_3_joint"
    ],
    "metrics": {
        "cart_traj_len": 0.34361485849817963,
        "distance_elbow_joint": 0.6314520182317018,
        "distance_shoulder_lift_joint": 0.11678685236232766,
        "distance_shoulder_pan_joint": 0.1343360516039001,
        "distance_wrist_1_joint": 0.5051726636375369,
        "distance_wrist_2_joint": 1.4362863881367824,
        "distance_wrist_3_joint": 0.017383470131383305,
        "smoothness": 1.9737298371844314e-16,
        "time": 0.290591088,
        "traj_len": 1.685650451340263,
        "weighted_distance": 2.194913081682443
    },
    "planner": "LBKPIECE",
    "start": {
        "state": {
            "elbow_joint": -1.8275523626775212,
            "shoulder_lift_joint": -2.126789852344167,
            "shoulder_pan_joint": -0.03513704404078235,
            "wrist_1_joint": -2.347782403156801,
            "wrist_2_joint": -1.6058999987535132,
            "wrist_3_joint": -3.0880379163319196
        }
    },
    "waypoints": [
        {
            "positions": [
                -0.03513704404078235,
                -2.126789852344167,
                -1.8275523626775212,
                -2.347782403156801,
                -1.6058999987535132,
                -3.0880379163319196
            ]
        },
        {
            "positions": [
                -0.05192905049126986,
                -2.141388208889458,
                -1.7486208603985585,
                -2.410928986111493,
                -1.4263642002364154,
                -3.0902108500983427
            ]
        },
        {
            "positions": [
                -0.06872105694175737,
                -2.1559865654347488,
                -1.6696893581195957,
                -2.4740755690661853,
                -1.2468284017193176,
                -3.0923837838647654
            ]
        },
        {
            "positions": [
                -0.08551306339224489,
                -2.1705849219800397,
                -1.590757855840633,
                -2.537222152020877,
                -1.0672926032022199,
                -3.094556717631188
            ]
        },
        {
            "positions": [
                -0.10230506984273241,
                -2.1851832785253307,
                -1.5118263535616703,
                -2.6003687349755693,
                -0.887756804685122,
                -3.0967296513976112
            ]
        },
        {
            "positions": [
                -0.11909707629321992,
                -2.1997816350706216,
                -1.4328948512827075,
                -2.6635153179302615,
                -0.7082210061680242,
                -3.0989025851640344
            ]
        },
        {
            "positions": [
                -0.13588908274370742,
                -2.2143799916159126,
                -1.3539633490037448,
                -2.7266619008849533,
                -0.5286852076509263,
                -3.101075518930457
            ]
        },
        {
            "positions": [
                -0.15268108919419496,
                -2.2289783481612035,
                -1.275031846724782,
                -2.7898084838396455,
                -0.3491494091338285,
                -3.1032484526968798
            ]
        },
        {
            "positions": [
                -0.16947309564468246,
                -2.2435767047064945,
                -1.1961003444458194,
                -2.8529550667943377,
                -0.16961361061673078,
                -3.105421386463303
            ]
        }
    ]
}