{
    "goal": {
        "global_pose": {
            "orientation": {
                "w": -0.4816463035849501,
                "x": 0.5182115481033762,
                "y": 0.4908360881923453,
                "z": -0.5084816262002911
            },
            "position": {
                "x": -0.8240239810943604,
                "y": 0.19912469901144506,
                "z": 0.16403168439865112
            }
        },
        "name": "move_to_storage_D"
    },
    "id": "LBKPIECE_move_to_storage_D_57",
    "joint_names": [
        "shoulder_pan_joint",
        "shoulder_lift_joint",
        "elbow_joint",
        "wrist_1_joint",
        "wrist_2_joint",
        "wrist_3_joint"
    ],
    "metrics": {
        "cart_traj_len": 4.189399719017077,
        "distance_elbow_joint": 4.21591029750728,
        "distance_shoulder_lift_joint": 1.263042567735338,
        "distance_shoulder_pan_joint": 3.6850404743141363,
        "distance_wrist_1_joint": 5.319753281376935,
        "distance_wrist_2_joint": 2.616650401227341,
        "distance_wrist_3_joint": 3.1805058538374755,
        "smoothness": 0.3528533271143723,
        "time": 0.634059955,
        "traj_len": 4.5034323438904345,
        "weighted_distance": 5.880333176468637
    },
    "planner": "LBKPIECE",
    "start": {
        "state": {
            "elbow_joint": -2.384821988534728,
            "shoulder_lift_joint": -2.2788054721415256,
            "shoulder_pan_joint": -0.1854694642142757,
            "wrist_1_joint": 1.4845938289331202,
            "wrist_2_joint": 0.17898776772866878,
            "wrist_3_joint": 0.037105688729662994
        }
    },
    "waypoints": [
        {
            "positions": [
                -0.1854694642142757,
                -2.2788054721415256,
                -2.384821988534728,
                1.4845938289331202,
                0.17898776772866878,
                0.037105688729662994
            ]
        },
        {
            "positions": [
                -0.13854666219029763,
                -2.2314585706563363,
                -2.3668470832052106,
                1.5076799818635485,
                0.1650343566414249,
                0.022039465745991707
            ]
        },
        {
            "positions": [
                -0.0520058090656577,
                -2.2204919362646045,
                -2.2695032629457828,
                1.4048655965015868,
                0.14195289855943963,
                0.09042624030267339
            ]
        },
        {
            "positions": [
                0.03453504405898222,
                -2.2095253018728727,
                -2.172159442686355,
                1.302051211139625,
                0.11887144047745438,
                0.15881301485935506
            ]
        },
        {
            "positions": [
                0.12107589718362213,
                -2.198558667481141,
                -2.0748156224269265,
                1.1992368257776633,
                0.0957899823954691,
                0.22719978941603675
            ]
        },
        {
            "positions": [
                0.20761675030826207,
                -2.187592033089409,
                -1.9774718021674986,
                1.0964224404157015,
                0.07270852431348383,
                0.29558656397271843
            ]
        },
        {
            "positions": [
                0.294157603432902,
                -2.176625398697677,
                -1.8801279819080707,
                0.9936080550537398,
                0.04962706623149857,
                0.3639733385294001
            ]
        },
        {
            "positions": [
                0.38069845655754186,
                -2.165658764305945,
                -1.7827841616486428,
                0.8907936696917781,
                0.02654560814951329,
                0.4323601130860818
            ]
        },
        {
            "positions": [
                0.46723930968218175,
                -2.154692129914213,
                -1.6854403413892147,
                0.7879792843298163,
                0.003464150067528038,
                0.5007468876427635
            ]
        },
        {
            "positions": [
                0.5537801628068217,
                -2.143725495522481,
                -1.5880965211297868,
                0.6851648989678546,
                -0.01961730801445724,
                0.5691336621994452
            ]
        },
        {
            "positions": [
                0.6403210159314616,
                -2.1327588611307493,
                -1.4907527008703587,
                0.5823505136058928,
                -0.04269876609644249,
                0.6375204367561268
            ]
        },
        {
            "positions": [
                0.7268618690561015,
                -2.1217922267390175,
                -1.3934088806109308,
                0.4795361282439312,
                -0.06578022417842777,
                0.7059072113128085
            ]
        },
        {
            "positions": [
                0.8134027221807414,
                -2.1108255923472856,
                -1.296065060351503,
                0.37672174288196936,
                -0.08886168226041302,
                0.7742939858694902
            ]
        },
        {
            "positions": [
                0.8999435753053814,
                -2.0998589579555538,
                -1.1987212400920748,
                0.2739073575200077,
                -0.11194314034239833,
                0.8426807604261719
            ]
        },
        {
            "positions": [
                0.9864844284300213,
                -2.088892323563822,
                -1.101377419832647,
                0.17109297215804586,
                -0.13502459842438358,
                0.9110675349828535
            ]
        },
        {
            "positions": [
                1.0730252815546613,
                -2.07792568917209,
                -1.0040335995732188,
                0.06827858679608423,
                -0.15810605650636883,
                0.9794543095395353
            ]
        },
        {
            "positions": [
                1.1595661346793011,
                -2.0669590547803582,
                -0.9066897793137909,
                -0.03453579856587741,
                -0.18118751458835408,
                1.047841084096217
            ]
        },
        {
            "positions": [
                1.2461069878039412,
                -2.055992420388626,
                -0.809345959054363,
                -0.13735018392783926,
                -0.2042689726703394,
                1.1162278586528986
            ]
        },
        {
            "positions": [
                1.3326478409285811,
                -2.045025785996894,
                -0.7120021387949349,
                -0.2401645692898009,
                -0.22735043075232464,
                1.1846146332095804
            ]
        },
        {
            "positions": [
                1.419188694053221,
                -2.0340591516051623,
                -0.614658318535507,
                -0.34297895465176276,
                -0.2504318888343099,
                1.253001407766262
            ]
        },
        {
            "positions": [
                1.5057295471778607,
                -2.0230925172134304,
                -0.5173144982760791,
                -0.44579334001372417,
                -0.27351334691629514,
                1.3213881823229436
            ]
        },
        {
            "positions": [
                1.5922704003025008,
                -2.0121258828216986,
                -0.419970678016651,
                -0.548607725375686,
                -0.29659480499828045,
                1.3897749568796254
            ]
        },
        {
            "positions": [
                1.6788112534271404,
                -2.0011592484299667,
                -0.3226268577572231,
                -0.6514221107376479,
                -0.31967626308026564,
                1.458161731436307
            ]
        },
        {
            "positions": [
                1.7653521065517805,
                -1.9901926140382349,
                -0.2252830374977952,
                -0.7542364960996097,
                -0.34275772116225095,
                1.5265485059929886
            ]
        },
        {
            "positions": [
                1.8518929596764204,
                -1.979225979646503,
                -0.12793921723836732,
                -0.8570508814615712,
                -0.3658391792442362,
                1.5949352805496704
            ]
        },
        {
            "positions": [
                1.9384338128010605,
                -1.9682593452547712,
                -0.030595396978938982,
                -0.959865266823533,
                -0.38892063732622156,
                1.6633220551063521
            ]
        },
        {
            "positions": [
                2.0249746659257,
                -1.9572927108630391,
                0.06674842328048891,
                -1.0626796521854944,
                -0.4120020954082067,
                1.7317088296630336
            ]
        },
        {
            "positions": [
                2.1115155190503403,
                -1.9463260764713073,
                0.1640922435399168,
                -1.1654940375474567,
                -0.43508355349019207,
                1.8000956042197154
            ]
        },
        {
            "positions": [
                2.19805637217498,
                -1.9353594420795754,
                0.2614360637993447,
                -1.2683084229094181,
                -0.4581650115721773,
                1.8684823787763971
            ]
        },
        {
            "positions": [
                2.28459722529962,
                -1.9243928076878436,
                0.35877988405877304,
                -1.37112280827138,
                -0.48124646965416257,
                1.9368691533330789
            ]
        },
        {
            "positions": [
                2.3711380784242597,
                -1.9134261732961115,
                0.4561237043182005,
                -1.4739371936333414,
                -0.5043279277361479,
                2.0052559278897606
            ]
        },
        {
            "positions": [
                2.4576789315489,
                -1.9024595389043797,
                0.5534675245776288,
                -1.5767515789953033,
                -0.527409385818133,
                2.0736427024464423
            ]
        },
        {
            "positions": [
                2.54421978467354,
                -1.8914929045126478,
                0.6508113448370567,
                -1.6795659643572651,
                -0.5504908439001184,
                2.142029477003124
            ]
        },
        {
            "positions": [
                2.63076063779818,
                -1.880526270120916,
                0.7481551650964846,
                -1.782380349719227,
                -0.5735723019821037,
                2.210416251559806
            ]
        },
        {
            "positions": [
                2.7173014909228197,
                -1.8695596357291842,
                0.8454989853559125,
                -1.8851947350811884,
                -0.5966537600640889,
                2.2788030261164876
            ]
        },
        {
            "positions": [
                2.80384234404746,
                -1.8585930013374523,
                0.9428428056153408,
                -1.9880091204431503,
                -0.6197352181460742,
                2.3471898006731693
            ]
        },
        {
            "positions": [
                2.8903831971720995,
                -1.8476263669457205,
                1.0401866258747687,
                -2.090823505805112,
                -0.6428166762280594,
                2.4155765752298506
            ]
        },
        {
            "positions": [
                2.9769240502967396,
                -1.8366597325539884,
                1.1375304461341966,
                -2.193637891167074,
                -0.6658981343100447,
                2.4839633497865323
            ]
        },
        {
            "positions": [
                3.0634649034213792,
                -1.8256930981622566,
                1.2348742663936245,
                -2.296452276529035,
                -0.68897959239203,
                2.552350124343214
            ]
        },
        {
            "positions": [
                3.034391162976147,
                -1.771697751911852,
                1.2746218692322195,
                -2.1969499518587736,
                -0.5724007229849205,
                2.5946920558269864
            ]
        },
        {
            "positions": [
                3.005317422530915,
                -1.7177024056614474,
                1.3143694720708146,
                -2.0974476271885125,
                -0.45582185357781096,
                2.637033987310758
            ]
        },
        {
            "positions": [
                2.976243682085683,
                -1.6637070594110428,
                1.3541170749094096,
                -1.997945302518251,
                -0.3392429841707014,
                2.6793759187945305
            ]
        },
        {
            "positions": [
                2.947169941640451,
                -1.6097117131606382,
                1.3938646777480046,
                -1.8984429778479897,
                -0.22266411476359194,
                2.7217178502783024
            ]
        },
        {
            "positions": [
                2.918096201195219,
                -1.5557163669102336,
                1.4336122805865994,
                -1.7989406531777283,
                -0.10608524535648245,
                2.7640597817620747
            ]
        },
        {
            "positions": [
                2.889022460749987,
                -1.5017210206598288,
                1.4733598834251944,
                -1.6994383285074668,
                0.010493624050627148,
                2.806401713245847
            ]
        },
        {
            "positions": [
                2.8599487203047547,
                -1.4477256744094245,
                1.5131074862637894,
                -1.5999360038372052,
                0.12707249345773663,
                2.848743644729619
            ]
        },
        {
            "positions": [
                2.8308749798595225,
                -1.3937303281590196,
                1.5528550891023845,
                -1.5004336791669441,
                0.24365136286484612,
                2.891085576213391
            ]
        },
        {
            "positions": [
                2.8018012394142904,
                -1.3397349819086153,
                1.5926026919409795,
                -1.4009313544966826,
                0.3602302322719556,
                2.933427507697163
            ]
        },
        {
            "positions": [
                2.7727274989690582,
                -1.2857396356582105,
                1.6323502947795743,
                -1.3014290298264213,
                0.4768091016790651,
                2.9757694391809353
            ]
        },
        {
            "positions": [
                2.743653758523826,
                -1.2317442894078061,
                1.6720978976181695,
                -1.20192670515616,
                0.5933879710861746,
                3.018111370664707
            ]
        },
        {
            "positions": [
                2.7145800180785944,
                -1.1777489431574013,
                1.7118455004567643,
                -1.1024243804858984,
                0.7099668404932843,
                3.0604533021484794
            ]
        },
        {
            "positions": [
                2.6855062776333622,
                -1.1237535969069967,
                1.7515931032953596,
                -1.0029220558156369,
                0.8265457099003938,
                3.1027952336322517
            ]
        },
        {
            "positions": [
                2.65643253718813,
                -1.0697582506565921,
                1.7913407061339544,
                -0.9034197311453755,
                0.9431245793075033,
                3.145137165116024
            ]
        },
        {
            "positions": [
                2.627358796742898,
                -1.0157629044061876,
                1.8310883089725494,
                -0.8039174064751143,
                1.0597034487146129,
                3.187479096599796
            ]
        }
    ]
}