{
    "goal": {
        "global_pose": {
            "orientation": {
                "w": -0.00223480608172531,
                "x": 0.0024358444001904467,
                "y": 0.7094548369677653,
                "z": -0.704743149386269
            },
            "position": {
                "x": 0.6205249238014221,
                "y": -0.6371506643295288,
                "z": 0.19426114857196808
            }
        },
        "name": "move_to_magneteinheit_B"
    },
    "id": "LBKPIECE_move_to_magneteinheit_B_120",
    "joint_names": [
        "shoulder_pan_joint",
        "shoulder_lift_joint",
        "elbow_joint",
        "wrist_1_joint",
        "wrist_2_joint",
        "wrist_3_joint"
    ],
    "metrics": {
        "cart_traj_len": 5.121732011358125,
        "distance_elbow_joint": 4.551667067901373,
        "distance_shoulder_lift_joint": 1.161203426707766,
        "distance_shoulder_pan_joint": 5.482489980748136,
        "distance_wrist_1_joint": 5.429995151276426,
        "distance_wrist_2_joint": 4.330582618737915,
        "distance_wrist_3_joint": 3.145325270956851,
        "smoothness": 0.3995878010994549,
        "time": 0.713600696,
        "traj_len": 4.909303771038055,
        "weighted_distance": 6.336599389913843
    },
    "planner": "LBKPIECE",
    "start": {
        "state": {
            "elbow_joint": 2.6216224122426386,
            "shoulder_lift_joint": -1.4174107377796124,
            "shoulder_pan_joint": 0.7066234856936794,
            "wrist_1_joint": 1.9546482284002225,
            "wrist_2_joint": -0.7096286983471962,
            "wrist_3_joint": 0.005740856962016249
        }
    },
    "waypoints": [
        {
            "positions": [
                0.7066234856936794,
                -1.4174107377796124,
                2.6216224122426386,
                1.9546482284002225,
                -0.7096286983471962,
                0.005740856962016249
            ]
        },
        {
            "positions": [
                0.5748718996911469,
                -1.3682431168531737,
                2.6070911299181203,
                1.9111801453328887,
                -0.763455161502135,
                0.06332473186623501
            ]
        },
        {
            "positions": [
                0.44312031368861443,
                -1.319075495926735,
                2.5925598475936016,
                1.8677120622655548,
                -0.8172816246570739,
                0.12090860677045377
            ]
        },
        {
            "positions": [
                0.3113687276860819,
                -1.2699078750002961,
                2.578028565269083,
                1.8242439791982208,
                -0.8711080878120128,
                0.17849248167467255
            ]
        },
        {
            "positions": [
                0.17961714168354945,
                -1.2207402540738574,
                2.5634972829445646,
                1.780775896130887,
                -0.9249345509669515,
                0.2360763565788913
            ]
        },
        {
            "positions": [
                0.12930824844934763,
                -1.232510243377568,
                2.4420738557066306,
                1.7225911622377015,
                -0.8299196313410042,
                0.29311533108721566
            ]
        },
        {
            "positions": [
                0.07899935521514581,
                -1.2442802326812785,
                2.3206504284686966,
                1.664406428344516,
                -0.734904711715057,
                0.35015430559554
            ]
        },
        {
            "positions": [
                0.028690461980943993,
                -1.2560502219849892,
                2.199227001230763,
                1.6062216944513303,
                -0.6398897920891097,
                0.40719328010386435
            ]
        },
        {
            "positions": [
                -0.021618431253257825,
                -1.2678202112886998,
                2.077803573992829,
                1.5480369605581445,
                -0.5448748724631625,
                0.46423225461218875
            ]
        },
        {
            "positions": [
                -0.07192732448745967,
                -1.2795902005924102,
                1.9563801467548951,
                1.489852226664959,
                -0.4498599528372151,
                0.521271229120513
            ]
        },
        {
            "positions": [
                -0.12223621772166146,
                -1.291360189896121,
                1.8349567195169614,
                1.4316674927717734,
                -0.3548450332112678,
                0.5783102036288374
            ]
        },
        {
            "positions": [
                -0.1725451109558633,
                -1.3031301791998315,
                1.7135332922790276,
                1.3734827588785878,
                -0.2598301135853205,
                0.6353491781371619
            ]
        },
        {
            "positions": [
                -0.2228540041900651,
                -1.314900168503542,
                1.5921098650410936,
                1.3152980249854023,
                -0.16481519395937327,
                0.6923881526454861
            ]
        },
        {
            "positions": [
                -0.2731628974242669,
                -1.3266701578072526,
                1.4706864378031597,
                1.2571132910922165,
                -0.06980027433342595,
                0.7494271271538104
            ]
        },
        {
            "positions": [
                -0.32347179065846876,
                -1.3384401471109633,
                1.349263010565226,
                1.198928557199031,
                0.025214645292521376,
                0.8064661016621348
            ]
        },
        {
            "positions": [
                -0.3737806838926705,
                -1.3502101364146737,
                1.2278395833272922,
                1.1407438233058453,
                0.12022956491846859,
                0.8635050761704592
            ]
        },
        {
            "positions": [
                -0.42408957712687234,
                -1.3619801257183843,
                1.1064161560893582,
                1.0825590894126598,
                0.21524448454441591,
                0.9205440506787836
            ]
        },
        {
            "positions": [
                -0.4743984703610741,
                -1.373750115022095,
                0.9849927288514244,
                1.0243743555194742,
                0.310259404170363,
                0.9775830251871078
            ]
        },
        {
            "positions": [
                -0.524707363595276,
                -1.3855201043258054,
                0.8635693016134904,
                0.9661896216262885,
                0.40527432379631056,
                1.0346219996954324
            ]
        },
        {
            "positions": [
                -0.5750162568294778,
                -1.397290093629516,
                0.7421458743755567,
                0.908004887733103,
                0.5002892434222579,
                1.0916609742037566
            ]
        },
        {
            "positions": [
                -0.6253251500636796,
                -1.4090600829332267,
                0.6207224471376227,
                0.8498201538399174,
                0.595304163048205,
                1.148699948712081
            ]
        },
        {
            "positions": [
                -0.6756340432978815,
                -1.4208300722369371,
                0.4992990198996887,
                0.7916354199467317,
                0.6903190826741525,
                1.2057389232204054
            ]
        },
        {
            "positions": [
                -0.7259429365320833,
                -1.4326000615406478,
                0.37787559266175474,
                0.7334506860535461,
                0.7853340023000996,
                1.2627778977287296
            ]
        },
        {
            "positions": [
                -0.776251829766285,
                -1.4443700508443584,
                0.2564521654238212,
                0.6752659521603606,
                0.8803489219260467,
                1.319816872237054
            ]
        },
        {
            "positions": [
                -0.826560723000487,
                -1.4561400401480689,
                0.13502873818588723,
                0.6170812182671748,
                0.9753638415519943,
                1.3768558467453784
            ]
        },
        {
            "positions": [
                -0.8768696162346887,
                -1.4679100294517795,
                0.013605310947953253,
                0.5588964843739892,
                1.0703787611779414,
                1.4338948212537028
            ]
        },
        {
            "positions": [
                -0.9271785094688905,
                -1.4796800187554902,
                -0.10781811628998028,
                0.5007117504808039,
                1.1653936808038887,
                1.490933795762027
            ]
        },
        {
            "positions": [
                -0.9774874027030924,
                -1.4914500080592008,
                -0.22924154352791426,
                0.44252701658761806,
                1.260408600429836,
                1.5479727702703514
            ]
        },
        {
            "positions": [
                -1.0277962959372942,
                -1.5032199973629112,
                -0.35066497076584824,
                0.3843422826944325,
                1.3554235200557834,
                1.6050117447786758
            ]
        },
        {
            "positions": [
                -0.8821220333309494,
                -1.5122392410062924,
                -0.3953679187389176,
                0.2435289581161309,
                1.3081247452752955,
                1.604773556440767
            ]
        },
        {
            "positions": [
                -0.7364477707246045,
                -1.5212584846496735,
                -0.4400708667119869,
                0.10271563353782931,
                1.2608259704948077,
                1.6045353681028582
            ]
        },
        {
            "positions": [
                -0.5907735081182597,
                -1.5302777282930546,
                -0.4847738146850562,
                -0.03809769104047234,
                1.2135271957143199,
                1.6042971797649497
            ]
        },
        {
            "positions": [
                -0.44509924551191493,
                -1.5392969719364358,
                -0.5294767626581256,
                -0.17891101561877387,
                1.1662284209338323,
                1.604058991427041
            ]
        },
        {
            "positions": [
                -0.2994249829055702,
                -1.548316215579817,
                -0.5741797106311949,
                -0.3197243401970755,
                1.1189296461533444,
                1.603820803089132
            ]
        },
        {
            "positions": [
                -0.15375072029922532,
                -1.5573354592231983,
                -0.6188826586042642,
                -0.46053766477537716,
                1.0716308713728566,
                1.6035826147512233
            ]
        },
        {
            "positions": [
                -0.008076457692880457,
                -1.5663547028665794,
                -0.6635856065773336,
                -0.6013509893536788,
                1.0243320965923688,
                1.6033444264133148
            ]
        },
        {
            "positions": [
                0.1375978049134643,
                -1.5753739465099605,
                -0.7082885545504028,
                -0.7421643139319802,
                0.9770333218118811,
                1.603106238075406
            ]
        },
        {
            "positions": [
                0.28327206751980927,
                -1.5843931901533417,
                -0.7529915025234721,
                -0.8829776385102821,
                0.9297345470313932,
                1.6028680497374972
            ]
        },
        {
            "positions": [
                0.4289463301261538,
                -1.5934124337967228,
                -0.7976944504965415,
                -1.0237909630885835,
                0.8824357722509055,
                1.6026298613995884
            ]
        },
        {
            "positions": [
                0.5746205927324988,
                -1.602431677440104,
                -0.8423973984696109,
                -1.1646042876668852,
                0.8351369974704177,
                1.6023916730616796
            ]
        },
        {
            "positions": [
                0.7202948553388435,
                -1.611450921083485,
                -0.8871003464426802,
                -1.3054176122451868,
                0.7878382226899299,
                1.602153484723771
            ]
        },
        {
            "positions": [
                0.8659691179451883,
                -1.6204701647268662,
                -0.9318032944157495,
                -1.4462309368234882,
                0.7405394479094422,
                1.6019152963858623
            ]
        },
        {
            "positions": [
                1.0116433805515332,
                -1.6294894083702474,
                -0.9765062423888189,
                -1.5870442614017901,
                0.6932406731289542,
                1.6016771080479535
            ]
        },
        {
            "positions": [
                1.157317643157878,
                -1.6385086520136285,
                -1.0212091903618883,
                -1.7278575859800918,
                0.6459418983484665,
                1.6014389197100447
            ]
        },
        {
            "positions": [
                1.3029919057642227,
                -1.6475278956570096,
                -1.0659121383349575,
                -1.868670910558393,
                0.5986431235679788,
                1.601200731372136
            ]
        },
        {
            "positions": [
                1.4486661683705675,
                -1.6565471393003908,
                -1.1106150863080266,
                -2.0094842351366946,
                0.551344348787491,
                1.6009625430342274
            ]
        },
        {
            "positions": [
                1.5943404309769127,
                -1.6655663829437721,
                -1.155318034281096,
                -2.1502975597149967,
                0.5040455740070031,
                1.6007243546963186
            ]
        },
        {
            "positions": [
                1.7400146935832574,
                -1.6745856265871533,
                -1.2000209822541654,
                -2.291110884293298,
                0.4567467992265154,
                1.6004861663584098
            ]
        },
        {
            "positions": [
                1.8856889561896018,
                -1.6836048702305344,
                -1.2447239302272348,
                -2.4319242088715995,
                0.40944802444602757,
                1.600247978020501
            ]
        },
        {
            "positions": [
                2.0313632187959465,
                -1.6926241138739155,
                -1.2894268782003042,
                -2.572737533449901,
                0.36214924966553985,
                1.6000097896825924
            ]
        },
        {
            "positions": [
                2.1770374814022917,
                -1.7016433575172967,
                -1.3341298261733736,
                -2.713550858028203,
                0.314850474885052,
                1.5997716013446837
            ]
        },
        {
            "positions": [
                2.3227117440086364,
                -1.7106626011606778,
                -1.3788327741464428,
                -2.8543641826065045,
                0.2675517001045642,
                1.5995334130067749
            ]
        },
        {
            "positions": [
                2.3751689213474156,
                -1.7445390086226154,
                -1.4379865786675643,
                -2.780224305571936,
                0.16264753137889043,
                1.666393168814823
            ]
        },
        {
            "positions": [
                2.427626098686195,
                -1.778415416084553,
                -1.4971403831886856,
                -2.7060844285373666,
                0.05774336265321667,
                1.7332529246228712
            ]
        },
        {
            "positions": [
                2.480083276024974,
                -1.8122918235464904,
                -1.556294187709807,
                -2.631944551502798,
                -0.047160806072457095,
                1.800112680430919
            ]
        },
        {
            "positions": [
                2.532540453363753,
                -1.846168231008428,
                -1.6154479922309284,
                -2.5578046744682292,
                -0.15206497479813086,
                1.8669724362389672
            ]
        },
        {
            "positions": [
                2.5849976307025324,
                -1.8800446384703657,
                -1.67460179675205,
                -2.4836647974336605,
                -0.2569691435238046,
                1.9338321920470154
            ]
        },
        {
            "positions": [
                2.6374548080413116,
                -1.9139210459323033,
                -1.7337556012731712,
                -2.4095249203990914,
                -0.3618733122494784,
                2.0006919478550635
            ]
        },
        {
            "positions": [
                2.689911985380091,
                -1.9477974533942408,
                -1.7929094057942927,
                -2.3353850433645227,
                -0.46677748097515215,
                2.0675517036631117
            ]
        },
        {
            "positions": [
                2.6838396018201345,
                -1.9952926021305664,
                -1.7654823558214046,
                -2.355785763570066,
                -0.4693210197880498,
                2.2820632558055025
            ]
        },
        {
            "positions": [
                2.6777672182601786,
                -2.042787750866892,
                -1.7380553058485164,
                -2.376186483775609,
                -0.47186455860094745,
                2.496574807947893
            ]
        },
        {
            "positions": [
                2.6716948347002223,
                -2.0902828996032174,
                -1.710628255875628,
                -2.3965872039811527,
                -0.4744080974138451,
                2.7110863600902837
            ]
        },
        {
            "positions": [
                2.6656224511402664,
                -2.137778048339543,
                -1.68320120590274,
                -2.416987924186696,
                -0.47695163622674275,
                2.925597912232674
            ]
        },
        {
            "positions": [
                2.65955006758031,
                -2.1852731970758685,
                -1.6557741559298518,
                -2.437388644392239,
                -0.4794951750396404,
                3.140109464375065
            ]
        }
    ]
}