{
    "goal": {
        "global_pose": {
            "orientation": {
                "w": -0.4816463035849501,
                "x": 0.5182115481033762,
                "y": 0.4908360881923453,
                "z": -0.5084816262002911
            },
            "position": {
                "x": -0.8240239810943604,
                "y": 0.19912469901144506,
                "z": 0.16403168439865112
            }
        },
        "name": "move_to_storage_D"
    },
    "id": "LBKPIECE_move_to_storage_D_73",
    "joint_names": [
        "shoulder_pan_joint",
        "shoulder_lift_joint",
        "elbow_joint",
        "wrist_1_joint",
        "wrist_2_joint",
        "wrist_3_joint"
    ],
    "metrics": {
        "cart_traj_len": 3.342320151840702,
        "distance_elbow_joint": 4.209709805945757,
        "distance_shoulder_lift_joint": 1.2654454004141555,
        "distance_shoulder_pan_joint": 2.811913339328656,
        "distance_wrist_1_joint": 2.830993351755085,
        "distance_wrist_2_joint": 1.3208224036959346,
        "distance_wrist_3_joint": 3.1404424978120677,
        "smoothness": 0.18668262299317734,
        "time": 0.776078909,
        "traj_len": 3.947065593444281,
        "weighted_distance": 5.1001987755406955
    },
    "planner": "LBKPIECE",
    "start": {
        "state": {
            "elbow_joint": -2.384821988534728,
            "shoulder_lift_joint": -2.2788054721415256,
            "shoulder_pan_joint": -0.1854694642142757,
            "wrist_1_joint": 1.4845938289331202,
            "wrist_2_joint": 0.17898776772866878,
            "wrist_3_joint": 0.037105688729662994
        }
    },
    "waypoints": [
        {
            "positions": [
                -0.1854694642142757,
                -2.2788054721415256,
                -2.384821988534728,
                1.4845938289331202,
                0.17898776772866878,
                0.037105688729662994
            ]
        },
        {
            "positions": [
                -0.08692531577067278,
                -2.203277764947096,
                -2.354665786640059,
                1.554714621881152,
                0.12233155986957993,
                0.07756703317930458
            ]
        },
        {
            "positions": [
                0.011618832672930152,
                -2.1277500577526665,
                -2.3245095847453907,
                1.6248354148291837,
                0.06567535201049107,
                0.11802837762894618
            ]
        },
        {
            "positions": [
                0.11016298111653308,
                -2.0522223505582367,
                -2.294353382850722,
                1.6949562077772153,
                0.00901914415140223,
                0.15848972207858777
            ]
        },
        {
            "positions": [
                0.20870712956013604,
                -1.9766946433638068,
                -2.264197180956053,
                1.7650770007252472,
                -0.04763706370768664,
                0.19895106652822936
            ]
        },
        {
            "positions": [
                0.27910981577893434,
                -1.958862281864183,
                -2.1332766937848167,
                1.7012310519341758,
                -0.022241254168182956,
                0.27842885364654246
            ]
        },
        {
            "positions": [
                0.3495125019977326,
                -1.941029920364559,
                -2.0023562066135807,
                1.6373851031431041,
                0.0031545553713207275,
                0.35790664076485557
            ]
        },
        {
            "positions": [
                0.41991518821653084,
                -1.923197558864935,
                -1.8714357194423443,
                1.5735391543520327,
                0.028550364910824425,
                0.43738442788316867
            ]
        },
        {
            "positions": [
                0.49031787443532915,
                -1.905365197365311,
                -1.740515232271108,
                1.5096932055609613,
                0.053946174450328094,
                0.5168622150014818
            ]
        },
        {
            "positions": [
                0.5607205606541275,
                -1.887532835865687,
                -1.609594745099872,
                1.44584725676989,
                0.07934198398983178,
                0.5963400021197949
            ]
        },
        {
            "positions": [
                0.6311232468729258,
                -1.8697004743660632,
                -1.4786742579286356,
                1.3820013079788183,
                0.10473779352933549,
                0.6758177892381081
            ]
        },
        {
            "positions": [
                0.701525933091724,
                -1.8518681128664392,
                -1.3477537707573992,
                1.3181553591877468,
                0.13013360306883917,
                0.7552955763564212
            ]
        },
        {
            "positions": [
                0.7719286193105223,
                -1.8340357513668153,
                -1.216833283586163,
                1.2543094103966754,
                0.15552941260834283,
                0.8347733634747342
            ]
        },
        {
            "positions": [
                0.8423313055293205,
                -1.8162033898671912,
                -1.0859127964149269,
                1.1904634616056038,
                0.1809252221478465,
                0.9142511505930473
            ]
        },
        {
            "positions": [
                0.9127339917481188,
                -1.7983710283675673,
                -0.9549923092436907,
                1.1266175128145324,
                0.2063210316873502,
                0.9937289377113604
            ]
        },
        {
            "positions": [
                0.9831366779669171,
                -1.7805386668679435,
                -0.8240718220724546,
                1.062771564023461,
                0.2317168412268539,
                1.0732067248296735
            ]
        },
        {
            "positions": [
                1.0535393641857154,
                -1.7627063053683194,
                -0.6931513349012182,
                0.9989256152323893,
                0.2571126507663576,
                1.1526845119479867
            ]
        },
        {
            "positions": [
                1.1239420504045137,
                -1.7448739438686955,
                -0.5622308477299818,
                0.9350796664413179,
                0.2825084603058613,
                1.2321622990663
            ]
        },
        {
            "positions": [
                1.1943447366233118,
                -1.7270415823690715,
                -0.4313103605587456,
                0.8712337176502464,
                0.307904269845365,
                1.311640086184613
            ]
        },
        {
            "positions": [
                1.26474742284211,
                -1.7092092208694476,
                -0.30038987338750944,
                0.807387768859175,
                0.3333000793848686,
                1.391117873302926
            ]
        },
        {
            "positions": [
                1.3351501090609084,
                -1.6913768593698237,
                -0.16946938621627305,
                0.7435418200681034,
                0.3586958889243723,
                1.470595660421239
            ]
        },
        {
            "positions": [
                1.4055527952797067,
                -1.6735444978701997,
                -0.03854889904503711,
                0.679695871277032,
                0.38409169846387603,
                1.5500734475395523
            ]
        },
        {
            "positions": [
                1.475955481498505,
                -1.6557121363705758,
                0.09237158812619928,
                0.6158499224859606,
                0.40948750800337963,
                1.6295512346578653
            ]
        },
        {
            "positions": [
                1.5463581677173033,
                -1.6378797748709517,
                0.22329207529743522,
                0.5520039736948892,
                0.43488331754288334,
                1.7090290217761783
            ]
        },
        {
            "positions": [
                1.6167608539361016,
                -1.6200474133713278,
                0.3542125624686716,
                0.48815802490381754,
                0.46027912708238705,
                1.7885068088944913
            ]
        },
        {
            "positions": [
                1.6871635401548999,
                -1.602215051871704,
                0.485133049639908,
                0.42431207611274613,
                0.48567493662189076,
                1.8679845960128048
            ]
        },
        {
            "positions": [
                1.7575662263736982,
                -1.58438269037208,
                0.6160535368111439,
                0.3604661273216747,
                0.5110707461613945,
                1.9474623831311177
            ]
        },
        {
            "positions": [
                1.8279689125924965,
                -1.566550328872456,
                0.7469740239823808,
                0.2966201785306031,
                0.5364665557008982,
                2.026940170249431
            ]
        },
        {
            "positions": [
                1.8983715988112948,
                -1.548717967372832,
                0.8778945111536167,
                0.23277422973953144,
                0.5618623652404019,
                2.106417957367744
            ]
        },
        {
            "positions": [
                1.968774285030093,
                -1.530885605873208,
                1.008814998324853,
                0.16892828094846002,
                0.5872581747799055,
                2.185895744486057
            ]
        },
        {
            "positions": [
                2.0391769712488914,
                -1.5130532443735842,
                1.1397354854960895,
                0.1050823321573886,
                0.6126539843194092,
                2.26537353160437
            ]
        },
        {
            "positions": [
                2.1095796574676897,
                -1.4952208828739602,
                1.2706559726673254,
                0.041236383366317186,
                0.6380497938589129,
                2.344851318722683
            ]
        },
        {
            "positions": [
                2.1799823436864876,
                -1.4773885213743363,
                1.4015764598385618,
                -0.022609565424754452,
                0.6634456033984166,
                2.4243291058409966
            ]
        },
        {
            "positions": [
                2.250385029905286,
                -1.4595561598747122,
                1.5324969470097978,
                -0.08645551421582587,
                0.6888414129379202,
                2.5038068929593096
            ]
        },
        {
            "positions": [
                2.320787716124084,
                -1.4417237983750884,
                1.663417434181034,
                -0.15030146300689737,
                0.7142372224774239,
                2.5832846800776226
            ]
        },
        {
            "positions": [
                2.3644528816941266,
                -1.380528980282557,
                1.6864846317853193,
                -0.241034565325585,
                0.7617119776309195,
                2.6681794667153524
            ]
        },
        {
            "positions": [
                2.4081180472641686,
                -1.319334162190026,
                1.7095518293896048,
                -0.3317676676442727,
                0.809186732784415,
                2.753074253353082
            ]
        },
        {
            "positions": [
                2.451783212834211,
                -1.2581393440974948,
                1.7326190269938901,
                -0.42250076996296027,
                0.8566614879379104,
                2.8379690399908117
            ]
        },
        {
            "positions": [
                2.4954483784042534,
                -1.1969445260049636,
                1.7556862245981755,
                -0.513233872281648,
                0.9041362430914059,
                2.9228638266285416
            ]
        },
        {
            "positions": [
                2.539113543974296,
                -1.1357497079124323,
                1.7787534222024608,
                -0.6039669746003357,
                0.9516109982449015,
                3.0077586132662715
            ]
        },
        {
            "positions": [
                2.5827787095443377,
                -1.0745548898199013,
                1.8018206198067463,
                -0.6947000769190232,
                0.999085753398397,
                3.092653399904001
            ]
        },
        {
            "positions": [
                2.62644387511438,
                -1.01336007172737,
                1.8248878174110317,
                -0.7854331792377109,
                1.0465605085518925,
                3.1775481865417308
            ]
        }
    ]
}