{
    "goal": {
        "global_pose": {
            "orientation": {
                "w": 0.7047431468963623,
                "x": -0.7094548344612122,
                "y": 0.0024358443915843964,
                "z": -0.0022348060738295317
            },
            "position": {
                "x": 0.6094750761985779,
                "y": 0.3671506643295288,
                "z": 0.19426114857196808
            }
        },
        "name": "move_to_magneteinheit_A"
    },
    "id": "LBKPIECE_move_to_magneteinheit_A_61",
    "joint_names": [
        "shoulder_pan_joint",
        "shoulder_lift_joint",
        "elbow_joint",
        "wrist_1_joint",
        "wrist_2_joint",
        "wrist_3_joint"
    ],
    "metrics": {
        "cart_traj_len": 4.534055988743924,
        "distance_elbow_joint": 3.8815584545680313,
        "distance_shoulder_lift_joint": 2.382726289592517,
        "distance_shoulder_pan_joint": 7.228129118662986,
        "distance_wrist_1_joint": 6.073383274505715,
        "distance_wrist_2_joint": 1.8622762906917414,
        "distance_wrist_3_joint": 3.6715214983636515,
        "smoothness": 0.3040002908843711,
        "time": 0.486987394,
        "traj_len": 5.009949593197983,
        "weighted_distance": 6.354391984156266
    },
    "planner": "LBKPIECE",
    "start": {
        "state": {
            "elbow_joint": -1.9196185241190666,
            "shoulder_lift_joint": -1.2443396400964142,
            "shoulder_pan_joint": 2.6996025414629847,
            "wrist_1_joint": -1.5485510000780065,
            "wrist_2_joint": -1.5709468930060704,
            "wrist_3_joint": 0.4420197071253992
        }
    },
    "waypoints": [
        {
            "positions": [
                2.6996025414629847,
                -1.2443396400964142,
                -1.9196185241190666,
                -1.5485510000780065,
                -1.5709468930060704,
                0.4420197071253992
            ]
        },
        {
            "positions": [
                2.582883332340877,
                -1.271404715862933,
                -1.8572532383658773,
                -1.4665963027400775,
                -1.5284879619761824,
                0.38072892379128687
            ]
        },
        {
            "positions": [
                2.466164123218769,
                -1.2984697916294514,
                -1.794887952612688,
                -1.3846416054021482,
                -1.4860290309462947,
                0.3194381404571746
            ]
        },
        {
            "positions": [
                2.349444914096661,
                -1.3255348673959702,
                -1.7325226668594986,
                -1.302686908064219,
                -1.443570099916407,
                0.25814735712306236
            ]
        },
        {
            "positions": [
                2.2327257049745532,
                -1.3525999431624889,
                -1.6701573811063093,
                -1.22073221072629,
                -1.401111168886519,
                0.19685657378895005
            ]
        },
        {
            "positions": [
                2.116006495852445,
                -1.3796650189290074,
                -1.60779209535312,
                -1.1387775133883609,
                -1.358652237856631,
                0.13556579045483774
            ]
        },
        {
            "positions": [
                1.9992872867303373,
                -1.4067300946955261,
                -1.5454268095999306,
                -1.0568228160504316,
                -1.3161933068267433,
                0.07427500712072549
            ]
        },
        {
            "positions": [
                1.8825680776082294,
                -1.4337951704620449,
                -1.4830615238467413,
                -0.9748681187125025,
                -1.2737343757968556,
                0.01298422378661318
            ]
        },
        {
            "positions": [
                1.7658488684861213,
                -1.4608602462285634,
                -1.420696238093552,
                -0.8929134213745733,
                -1.2312754447669676,
                -0.04830655954749907
            ]
        },
        {
            "positions": [
                1.6491296593640137,
                -1.487925321995082,
                -1.3583309523403626,
                -0.8109587240366442,
                -1.1888165137370796,
                -0.10959734288161138
            ]
        },
        {
            "positions": [
                1.5324104502419056,
                -1.5149903977616006,
                -1.2959656665871733,
                -0.729004026698715,
                -1.146357582707192,
                -0.1708881262157237
            ]
        },
        {
            "positions": [
                1.4156912411197977,
                -1.5420554735281193,
                -1.233600380833984,
                -0.6470493293607857,
                -1.1038986516773042,
                -0.232178909549836
            ]
        },
        {
            "positions": [
                1.2989720319976898,
                -1.569120549294638,
                -1.1712350950807946,
                -0.5650946320228567,
                -1.0614397206474162,
                -0.2934696928839482
            ]
        },
        {
            "positions": [
                1.1822528228755818,
                -1.5961856250611568,
                -1.1088698093276053,
                -0.48313993468492744,
                -1.0189807896175282,
                -0.3547604762180606
            ]
        },
        {
            "positions": [
                1.065533613753474,
                -1.6232507008276753,
                -1.046504523574416,
                -0.4011852373469984,
                -0.9765218585876405,
                -0.4160512595521728
            ]
        },
        {
            "positions": [
                0.948814404631366,
                -1.650315776594194,
                -0.9841392378212266,
                -0.31923054000906914,
                -0.9340629275577527,
                -0.4773420428862851
            ]
        },
        {
            "positions": [
                0.8320951955092581,
                -1.6773808523607125,
                -0.9217739520680373,
                -0.2372758426711401,
                -0.8916039965278648,
                -0.5386328262203973
            ]
        },
        {
            "positions": [
                0.7153759863871503,
                -1.7044459281272313,
                -0.8594086663148479,
                -0.15532114533321084,
                -0.849145065497977,
                -0.5999236095545096
            ]
        },
        {
            "positions": [
                0.5986567772650426,
                -1.73151100389375,
                -0.7970433805616586,
                -0.0733664479952818,
                -0.8066861344680891,
                -0.6612143928886219
            ]
        },
        {
            "positions": [
                0.4819375681429343,
                -1.7585760796602687,
                -0.7346780948084692,
                0.008588249342647458,
                -0.7642272034382013,
                -0.7225051762227342
            ]
        },
        {
            "positions": [
                0.36521835902082644,
                -1.7856411554267873,
                -0.6723128090552799,
                0.0905429466805765,
                -0.7217682724083134,
                -0.7837959595568466
            ]
        },
        {
            "positions": [
                0.24849914989871857,
                -1.812706231193306,
                -0.6099475233020906,
                0.17249764401850576,
                -0.6793093413784256,
                -0.8450867428909589
            ]
        },
        {
            "positions": [
                0.1317799407766107,
                -1.8397713069598247,
                -0.5475822375489012,
                0.254452341356435,
                -0.6368504103485377,
                -0.9063775262250712
            ]
        },
        {
            "positions": [
                0.01506073165450239,
                -1.8668363827263432,
                -0.48521695179571167,
                0.3364070386943643,
                -0.5943914793186498,
                -0.9676683095591835
            ]
        },
        {
            "positions": [
                -0.10165847746760504,
                -1.893901458492862,
                -0.42285166604252256,
                0.4183617360322931,
                -0.551932548288762,
                -1.0289590928932957
            ]
        },
        {
            "positions": [
                -0.2183776865897129,
                -1.9209665342593807,
                -0.3604863802893332,
                0.5003164333702224,
                -0.5094736172588743,
                -1.090249876227408
            ]
        },
        {
            "positions": [
                -0.3350968957118212,
                -1.9480316100258994,
                -0.2981210945361439,
                0.5822711307081516,
                -0.46701468622898634,
                -1.1515406595615203
            ]
        },
        {
            "positions": [
                -0.4518161048339291,
                -1.975096685792418,
                -0.23575580878295432,
                0.6642258280460809,
                -0.4245557551990984,
                -1.2128314428956326
            ]
        },
        {
            "positions": [
                -0.5685353139560365,
                -2.0021617615589364,
                -0.1733905230297652,
                0.7461805253840097,
                -0.38209682416921065,
                -1.274122226229745
            ]
        },
        {
            "positions": [
                -0.6852545230781448,
                -2.029226837325455,
                -0.11102523727657587,
                0.828135222721939,
                -0.3396378931393229,
                -1.3354130095638572
            ]
        },
        {
            "positions": [
                -0.8019737322002527,
                -2.056291913091974,
                -0.048659951523386535,
                0.9100899200598682,
                -0.29717896210943495,
                -1.3967037928979695
            ]
        },
        {
            "positions": [
                -0.9186929413223606,
                -2.0833569888584926,
                0.013705334229802801,
                0.9920446173977975,
                -0.254720031079547,
                -1.4579945762320818
            ]
        },
        {
            "positions": [
                -1.0354121504444684,
                -2.110422064625011,
                0.07607061998299214,
                1.0739993147357263,
                -0.21226110004965926,
                -1.5192853595661937
            ]
        },
        {
            "positions": [
                -1.1521313595665763,
                -2.1374871403915296,
                0.13843590573618147,
                1.1559540120736556,
                -0.16980216901977152,
                -1.580576142900306
            ]
        },
        {
            "positions": [
                -1.2688505686886842,
                -2.1645522161580484,
                0.2008011914893708,
                1.2379087094115848,
                -0.12734323798988356,
                -1.6418669262344183
            ]
        },
        {
            "positions": [
                -1.3855697778107925,
                -2.191617291924567,
                0.26316647724256015,
                1.319863406749514,
                -0.0848843069599956,
                -1.703157709568531
            ]
        },
        {
            "positions": [
                -1.5022889869328995,
                -2.218682367691086,
                0.3255317629957495,
                1.401818104087443,
                -0.04242537593010787,
                -1.764448492902643
            ]
        },
        {
            "positions": [
                -1.6190081960550082,
                -2.2457474434576046,
                0.3878970487489388,
                1.4837728014253722,
                3.355509977986948e-05,
                -1.8257392762367552
            ]
        },
        {
            "positions": [
                -1.735727405177116,
                -2.2728125192241233,
                0.45026233450212816,
                1.5657274987633014,
                0.04249248612966783,
                -1.8870300595708676
            ]
        },
        {
            "positions": [
                -1.852446614299224,
                -2.299877594990642,
                0.5126276202553175,
                1.6476821961012307,
                0.08495141715955579,
                -1.9483208429049799
            ]
        },
        {
            "positions": [
                -1.9691658234213318,
                -2.3269426707571603,
                0.5749929060085068,
                1.7296368934391595,
                0.12741034818944352,
                -2.009611626239092
            ]
        },
        {
            "positions": [
                -2.0858850325434397,
                -2.354007746523679,
                0.6373581917616962,
                1.8115915907770888,
                0.16986927921933126,
                -2.0709024095732045
            ]
        },
        {
            "positions": [
                -2.202604241665547,
                -2.381072822290198,
                0.6997234775148855,
                1.8935462881150182,
                0.21232821024921922,
                -2.132193192907317
            ]
        },
        {
            "positions": [
                -2.0968804991412537,
                -2.324436771953892,
                0.7570969526482527,
                1.7739423796462594,
                0.20873724718392603,
                -2.182070856467814
            ]
        },
        {
            "positions": [
                -1.9911567566169606,
                -2.2678007216175855,
                0.8144704277816199,
                1.6543384711775007,
                0.20514628411863284,
                -2.231948520028311
            ]
        },
        {
            "positions": [
                -1.8854330140926674,
                -2.2111646712812796,
                0.871843902914987,
                1.5347345627087419,
                0.20155532105333965,
                -2.281826183588808
            ]
        },
        {
            "positions": [
                -1.779709271568374,
                -2.154528620944973,
                0.9292173780483542,
                1.415130654239983,
                0.19796435798804643,
                -2.331703847149305
            ]
        },
        {
            "positions": [
                -1.6739855290440808,
                -2.0978925706086673,
                0.9865908531817215,
                1.295526745771224,
                0.19437339492275324,
                -2.381581510709802
            ]
        },
        {
            "positions": [
                -1.5682617865197876,
                -2.0412565202723614,
                1.0439643283150886,
                1.1759228373024655,
                0.19078243185746005,
                -2.4314591742702993
            ]
        },
        {
            "positions": [
                -1.4625380439954943,
                -1.984620469936055,
                1.1013378034484558,
                1.0563189288337065,
                0.18719146879216686,
                -2.481336837830796
            ]
        },
        {
            "positions": [
                -1.3568143014712009,
                -1.927984419599749,
                1.158711278581823,
                0.9367150203649477,
                0.18360050572687367,
                -2.5312145013912932
            ]
        },
        {
            "positions": [
                -1.2510905589469075,
                -1.871348369263443,
                1.2160847537151902,
                0.8171111118961889,
                0.18000954266158048,
                -2.5810921649517904
            ]
        },
        {
            "positions": [
                -1.1453668164226145,
                -1.8147123189271368,
                1.2734582288485574,
                0.6975072034274301,
                0.1764185795962873,
                -2.6309698285122876
            ]
        },
        {
            "positions": [
                -1.0396430738983211,
                -1.7580762685908309,
                1.3308317039819246,
                0.5779032949586713,
                0.1728276165309941,
                -2.6808474920727843
            ]
        },
        {
            "positions": [
                -0.9339193313740279,
                -1.7014402182545247,
                1.3882051791152916,
                0.45829938648991253,
                0.16923665346570088,
                -2.7307251556332814
            ]
        },
        {
            "positions": [
                -0.8281955888497345,
                -1.6448041679182186,
                1.445578654248659,
                0.3386954780211535,
                0.1656456904004077,
                -2.7806028191937786
            ]
        },
        {
            "positions": [
                -0.7224718463254414,
                -1.5881681175819125,
                1.502952129382026,
                0.21909156955239495,
                0.1620547273351145,
                -2.8304804827542758
            ]
        },
        {
            "positions": [
                -0.6167481038011482,
                -1.5315320672456063,
                1.5603256045153935,
                0.09948766108363616,
                0.1584637642698213,
                -2.880358146314773
            ]
        },
        {
            "positions": [
                -0.5110243612768548,
                -1.4748960169093004,
                1.6176990796487605,
                -0.020116247385122854,
                0.15487280120452812,
                -2.9302358098752697
            ]
        },
        {
            "positions": [
                -0.4053006187525614,
                -1.4182599665729942,
                1.675072554782128,
                -0.13972015585388142,
                0.15128183813923493,
                -2.980113473435767
            ]
        },
        {
            "positions": [
                -0.299576876228268,
                -1.361623916236688,
                1.7324460299154951,
                -0.25932406432264044,
                0.14769087507394174,
                -3.029991136996264
            ]
        },
        {
            "positions": [
                -0.19385313370397483,
                -1.304987865900382,
                1.7898195050488621,
                -0.378927972791399,
                0.14409991200864852,
                -3.079868800556761
            ]
        },
        {
            "positions": [
                -0.08812939117968188,
                -1.248351815564076,
                1.8471929801822293,
                -0.498531881260158,
                0.14050894894335536,
                -3.1297464641172583
            ]
        },
        {
            "positions": [
                0.017594351344611514,
                -1.19171576522777,
                1.9045664553155965,
                -0.618135789728917,
                0.13691798587806214,
                -3.179624127677755
            ]
        },
        {
            "positions": [
                0.12331809386890501,
                -1.1350797148914638,
                1.9619399304489638,
                -0.7377396981976758,
                0.13332702281276895,
                -3.229501791238252
            ]
        }
    ]
}