{
    "goal": {
        "global_pose": {
            "orientation": {
                "w": -0.00223480608172531,
                "x": 0.0024358444001904467,
                "y": 0.7094548369677653,
                "z": -0.704743149386269
            },
            "position": {
                "x": 0.6205249238014221,
                "y": -0.6371506643295288,
                "z": 0.19426114857196808
            }
        },
        "name": "move_to_magneteinheit_B"
    },
    "id": "LBKPIECE_move_to_magneteinheit_B_34",
    "joint_names": [
        "shoulder_pan_joint",
        "shoulder_lift_joint",
        "elbow_joint",
        "wrist_1_joint",
        "wrist_2_joint",
        "wrist_3_joint"
    ],
    "metrics": {
        "cart_traj_len": 1.745274962604762,
        "distance_elbow_joint": 1.3896278148321393,
        "distance_shoulder_lift_joint": 1.0315469979202483,
        "distance_shoulder_pan_joint": 1.6215704995852467,
        "distance_wrist_1_joint": 0.9372982038902142,
        "distance_wrist_2_joint": 1.8832448608907357,
        "distance_wrist_3_joint": 0.45954023412954725,
        "smoothness": 0.7098558517428935,
        "time": 0.22948251600000003,
        "traj_len": 2.706072543604131,
        "weighted_distance": 3.3260264797935957
    },
    "planner": "LBKPIECE",
    "start": {
        "state": {
            "elbow_joint": 2.6216224122426386,
            "shoulder_lift_joint": -1.4174107377796124,
            "shoulder_pan_joint": 0.7066234856936794,
            "wrist_1_joint": 1.9546482284002225,
            "wrist_2_joint": -0.7096286983471962,
            "wrist_3_joint": 0.005740856962016249
        }
    },
    "waypoints": [
        {
            "positions": [
                0.7066234856936794,
                -1.4174107377796124,
                2.6216224122426386,
                1.9546482284002225,
                -0.7096286983471962,
                0.005740856962016249
            ]
        },
        {
            "positions": [
                0.6610679654061803,
                -1.4517892789773803,
                2.593776057269484,
                1.8608585195004306,
                -0.6638978202356989,
                0.06327381500907149
            ]
        },
        {
            "positions": [
                0.6155124451186811,
                -1.4861678201751483,
                2.565929702296329,
                1.7670688106006387,
                -0.6181669421242016,
                0.12080677305612672
            ]
        },
        {
            "positions": [
                0.569956924831182,
                -1.5205463613729162,
                2.538083347323175,
                1.6732791017008466,
                -0.5724360640127044,
                0.17833973110318196
            ]
        },
        {
            "positions": [
                0.5244014045436829,
                -1.5549249025706842,
                2.5102369923500203,
                1.5794893928010547,
                -0.5267051859012071,
                0.2358726891502372
            ]
        },
        {
            "positions": [
                0.44228546040798355,
                -1.493314918877918,
                2.421784076089136,
                1.6018916019823335,
                -0.6320776697251306,
                0.2248651731866194
            ]
        },
        {
            "positions": [
                0.36016951627228416,
                -1.4317049351851519,
                2.3333311598282522,
                1.6242938111636125,
                -0.737450153549054,
                0.21385765722300157
            ]
        },
        {
            "positions": [
                0.27805357213658477,
                -1.3700949514923857,
                2.244878243567368,
                1.6466960203448913,
                -0.8428226373729775,
                0.20285014125938378
            ]
        },
        {
            "positions": [
                0.19593762800088543,
                -1.3084849677996198,
                2.156425327306484,
                1.6690982295261703,
                -0.9481951211969009,
                0.19184262529576596
            ]
        },
        {
            "positions": [
                0.11382168386518599,
                -1.2468749841068536,
                2.0679724110456,
                1.691500438707449,
                -1.0535676050208245,
                0.18083510933214814
            ]
        },
        {
            "positions": [
                0.03170573972948665,
                -1.1852650004140874,
                1.9795194947847161,
                1.713902647888728,
                -1.1589400888447479,
                0.16982759336853032
            ]
        },
        {
            "positions": [
                -0.0504102044062128,
                -1.1236550167213213,
                1.8910665785238319,
                1.7363048570700068,
                -1.2643125726686715,
                0.1588200774049125
            ]
        },
        {
            "positions": [
                -0.13252614854191203,
                -1.0620450330285554,
                1.802613662262948,
                1.7587070662512856,
                -1.3696850564925946,
                0.14781256144129468
            ]
        },
        {
            "positions": [
                -0.21464209267761147,
                -1.0004350493357892,
                1.7141607460020638,
                1.7811092754325646,
                -1.4750575403165183,
                0.13680504547767686
            ]
        },
        {
            "positions": [
                -0.2967580368133109,
                -0.9388250656430229,
                1.6257078297411798,
                1.8035114846138434,
                -1.5804300241404419,
                0.12579752951405904
            ]
        },
        {
            "positions": [
                -0.37887398094901015,
                -0.8772150819502569,
                1.5372549134802957,
                1.8259136937951221,
                -1.685802507964365,
                0.11479001355044124
            ]
        },
        {
            "positions": [
                -0.4609899250847096,
                -0.8156050982574907,
                1.4488019972194117,
                1.8483159029764011,
                -1.7911749917882887,
                0.10378249758682342
            ]
        },
        {
            "positions": [
                -0.5517813428460812,
                -0.7846624924942941,
                1.4921634771811942,
                1.906978474599541,
                -1.8783453002998216,
                0.08431885551124092
            ]
        },
        {
            "positions": [
                -0.6425727606074526,
                -0.7537198867310975,
                1.5355249571429768,
                1.9656410462226812,
                -1.9655156088113546,
                0.06485521343565842
            ]
        },
        {
            "positions": [
                -0.7333641783688241,
                -0.7227772809679008,
                1.578886437104759,
                2.0243036178458214,
                -2.0526859173228877,
                0.04539157136007594
            ]
        },
        {
            "positions": [
                -0.8241555961301956,
                -0.6918346752047042,
                1.6222479170665416,
                2.0829661894689613,
                -2.1398562258344205,
                0.02592792928449343
            ]
        },
        {
            "positions": [
                -0.9149470138915671,
                -0.6608920694415076,
                1.6656093970283241,
                2.141628761092101,
                -2.2270265343459537,
                0.006464287208910946
            ]
        }
    ]
}