{
    "goal": {
        "global_pose": {
            "orientation": {
                "w": -0.4816463035849501,
                "x": 0.5182115481033762,
                "y": 0.4908360881923453,
                "z": -0.5084816262002911
            },
            "position": {
                "x": -0.8240239810943604,
                "y": 0.19912469901144506,
                "z": 0.16403168439865112
            }
        },
        "name": "move_to_storage_D"
    },
    "id": "LBKPIECE_move_to_storage_D_148",
    "joint_names": [
        "shoulder_pan_joint",
        "shoulder_lift_joint",
        "elbow_joint",
        "wrist_1_joint",
        "wrist_2_joint",
        "wrist_3_joint"
    ],
    "metrics": {
        "cart_traj_len": 0.5920480600389633,
        "distance_elbow_joint": 0.5571764650445663,
        "distance_shoulder_lift_joint": 0.17042167814551057,
        "distance_shoulder_pan_joint": 0.21845676192951788,
        "distance_wrist_1_joint": 3.825612587088511,
        "distance_wrist_2_joint": 1.8259323867408876,
        "distance_wrist_3_joint": 3.1500849833066185,
        "smoothness": 0.04685471088074126,
        "time": 0.5588237970000001,
        "traj_len": 3.1221282584569794,
        "weighted_distance": 4.658261457099445
    },
    "planner": "LBKPIECE",
    "start": {
        "state": {
            "elbow_joint": -2.384821988534728,
            "shoulder_lift_joint": -2.2788054721415256,
            "shoulder_pan_joint": -0.1854694642142757,
            "wrist_1_joint": 1.4845938289331202,
            "wrist_2_joint": 0.17898776772866878,
            "wrist_3_joint": 0.037105688729662994
        }
    },
    "waypoints": [
        {
            "positions": [
                -0.1854694642142757,
                -2.2788054721415256,
                -2.384821988534728,
                1.4845938289331202,
                0.17898776772866878,
                0.037105688729662994
            ]
        },
        {
            "positions": [
                -0.1344769554039658,
                -2.2500755418004132,
                -2.3761718479495095,
                1.4102666221456053,
                0.18876862235523761,
                0.04967118964608875
            ]
        },
        {
            "positions": [
                -0.0682500425492239,
                -2.184200624909378,
                -2.308783113582467,
                1.288819870601447,
                0.19213466122288514,
                0.04387542758715456
            ]
        },
        {
            "positions": [
                -0.002023129694482012,
                -2.1183257080183435,
                -2.241394379215424,
                1.1673731190572887,
                0.19550070009053264,
                0.038079665528220376
            ]
        },
        {
            "positions": [
                -0.0035453221905569817,
                -2.118757965149749,
                -2.223405298531717,
                1.0148343417871721,
                0.11683028903057507,
                -0.09783024570101112
            ]
        },
        {
            "positions": [
                -0.005067514686631951,
                -2.1191902222811545,
                -2.20541621784801,
                0.8622955645170558,
                0.03815987797061751,
                -0.2337401569302426
            ]
        },
        {
            "positions": [
                -0.006589707182706921,
                -2.1196224794125604,
                -2.187427137164303,
                0.7097567872469392,
                -0.04051053308934002,
                -0.3696500681594741
            ]
        },
        {
            "positions": [
                -0.00811189967878189,
                -2.120054736543966,
                -2.1694380564805957,
                0.5572180099768228,
                -0.11918094414929761,
                -0.5055599793887056
            ]
        },
        {
            "positions": [
                -0.009634092174856859,
                -2.1204869936753714,
                -2.151448975796889,
                0.40467923270670636,
                -0.19785135520925515,
                -0.6414698906179371
            ]
        },
        {
            "positions": [
                -0.01115628467093183,
                -2.120919250806777,
                -2.1334598951131816,
                0.2521404554365898,
                -0.27652176626921265,
                -0.7773798018471686
            ]
        },
        {
            "positions": [
                -0.0126784771670068,
                -2.121351507938183,
                -2.1154708144294747,
                0.09960167816647325,
                -0.3551921773291703,
                -0.9132897130764002
            ]
        },
        {
            "positions": [
                -0.014200669663081767,
                -2.1217837650695883,
                -2.0974817337457674,
                -0.05293709910364308,
                -0.43386258838912783,
                -1.0491996243056316
            ]
        },
        {
            "positions": [
                -0.01572286215915674,
                -2.122216022200994,
                -2.0794926530620605,
                -0.20547587637375964,
                -0.5125329994490854,
                -1.1851095355348633
            ]
        },
        {
            "positions": [
                -0.017245054655231705,
                -2.1226482793323993,
                -2.0615035723783532,
                -0.35801465364387597,
                -0.5912034105090429,
                -1.3210194467640948
            ]
        },
        {
            "positions": [
                -0.018767247151306676,
                -2.123080536463805,
                -2.0435144916946464,
                -0.5105534309139925,
                -0.6698738215690005,
                -1.4569293579933262
            ]
        },
        {
            "positions": [
                -0.020289439647381648,
                -2.1235127935952107,
                -2.0255254110109395,
                -0.6630922081841091,
                -0.748544232628958,
                -1.5928392692225577
            ]
        },
        {
            "positions": [
                -0.021811632143456616,
                -2.123945050726616,
                -2.007536330327232,
                -0.8156309854542254,
                -0.8272146436889156,
                -1.7287491804517892
            ]
        },
        {
            "positions": [
                -0.023333824639531587,
                -2.1243773078580217,
                -1.9895472496435251,
                -0.9681697627243422,
                -0.9058850547488733,
                -1.8646590916810208
            ]
        },
        {
            "positions": [
                -0.024856017135606555,
                -2.124809564989427,
                -1.971558168959818,
                -1.1207085399944583,
                -0.9845554658088307,
                -2.000569002910252
            ]
        },
        {
            "positions": [
                -0.026378209631681523,
                -2.1252418221208327,
                -1.9535690882761112,
                -1.2732473172645749,
                -1.0632258768687883,
                -2.1364789141394835
            ]
        },
        {
            "positions": [
                -0.027900402127756494,
                -2.1256740792522386,
                -1.935580007592404,
                -1.4257860945346914,
                -1.1418962879287458,
                -2.272388825368715
            ]
        },
        {
            "positions": [
                -0.029422594623831465,
                -2.126106336383644,
                -1.917590926908697,
                -1.578324871804808,
                -1.2205666989887034,
                -2.408298736597947
            ]
        },
        {
            "positions": [
                -0.030944787119906433,
                -2.1265385935150496,
                -1.89960184622499,
                -1.7308636490749245,
                -1.299237110048661,
                -2.5442086478271784
            ]
        },
        {
            "positions": [
                -0.0324669796159814,
                -2.126970850646455,
                -1.8816127655412829,
                -1.8834024263450406,
                -1.3779075211086185,
                -2.68011855905641
            ]
        },
        {
            "positions": [
                -0.03398917211205637,
                -2.127403107777861,
                -1.8636236848575758,
                -2.035941203615157,
                -1.456577932168576,
                -2.816028470285641
            ]
        },
        {
            "positions": [
                -0.03551136460813134,
                -2.1278353649092665,
                -1.8456346041738687,
                -2.1884799808852735,
                -1.5352483432285338,
                -2.9519383815148728
            ]
        },
        {
            "positions": [
                -0.03703355710420631,
                -2.128267622040672,
                -1.8276455234901616,
                -2.3410187581553905,
                -1.6139187542884912,
                -3.087848292744104
            ]
        }
    ]
}