{
    "goal": {
        "global_pose": {
            "orientation": {
                "w": 0.5084816217422485,
                "x": -0.49083608388900757,
                "y": 0.5182115435600281,
                "z": -0.4816462993621826
            },
            "position": {
                "x": 0.5540239810943604,
                "y": 0.030875300988554955,
                "z": 0.16403168439865112
            }
        },
        "name": "move_to_storage_A"
    },
    "id": "LBKPIECE_move_to_storage_A_136",
    "joint_names": [
        "shoulder_pan_joint",
        "shoulder_lift_joint",
        "elbow_joint",
        "wrist_1_joint",
        "wrist_2_joint",
        "wrist_3_joint"
    ],
    "metrics": {
        "cart_traj_len": 0.3525832350179642,
        "distance_elbow_joint": 0.4486016440733718,
        "distance_shoulder_lift_joint": 0.2345972221031314,
        "distance_shoulder_pan_joint": 0.46034561628773724,
        "distance_wrist_1_joint": 0.23862218825392956,
        "distance_wrist_2_joint": 1.1007214135244041,
        "distance_wrist_3_joint": 0.0966901724338638,
        "smoothness": 1.2212453191034883e-15,
        "time": 0.358633422,
        "traj_len": 1.6061065520931164,
        "weighted_distance": 2.0278812103578696
    },
    "planner": "LBKPIECE",
    "start": {
        "state": {
            "elbow_joint": 1.971548259319323,
            "shoulder_lift_joint": -1.1394851275133948,
            "shoulder_pan_joint": 0.1228115487234821,
            "wrist_1_joint": -0.7804723859257726,
            "wrist_2_joint": 0.12958671773740124,
            "wrist_3_joint": -3.192489227718131
        }
    },
    "waypoints": [
        {
            "positions": [
                0.1228115487234821,
                -1.1394851275133948,
                1.971548259319323,
                -0.7804723859257726,
                0.12958671773740124,
                -3.192489227718131
            ]
        },
        {
            "positions": [
                0.057047889253805356,
                -1.1729990163852708,
                2.0356342084726617,
                -0.8145612699620483,
                0.2868326339551732,
                -3.1786763459418648
            ]
        },
        {
            "positions": [
                -0.008715770215871388,
                -1.2065129052571466,
                2.0997201576260007,
                -0.8486501539983239,
                0.4440785501729453,
                -3.164863464165599
            ]
        },
        {
            "positions": [
                -0.07447942968554813,
                -1.2400267941290226,
                2.1638061067793393,
                -0.8827390380345995,
                0.6013244663907172,
                -3.1510505823893324
            ]
        },
        {
            "positions": [
                -0.14024308915522488,
                -1.2735406830008984,
                2.2278920559326783,
                -0.9168279220708753,
                0.7585703826084893,
                -3.137237700613066
            ]
        },
        {
            "positions": [
                -0.20600674862490165,
                -1.3070545718727744,
                2.2919780050860172,
                -0.9509168061071509,
                0.9158162988262614,
                -3.1234248188367997
            ]
        },
        {
            "positions": [
                -0.27177040809457836,
                -1.3405684607446502,
                2.3560639542393558,
                -0.9850056901434265,
                1.0730622150440332,
                -3.1096119370605337
            ]
        },
        {
            "positions": [
                -0.33753406756425514,
                -1.3740823496165262,
                2.4201499033926948,
                -1.0190945741797022,
                1.2303081312618054,
                -3.0957990552842674
            ]
        }
    ]
}{
    "goal": {
        "global_pose": {
            "orientation": {
                "w": 0.5084816217422485,
                "x": -0.49083608388900757,
                "y": 0.5182115435600281,
                "z": -0.4816462993621826
            },
            "position": {
                "x": 0.5540239810943604,
                "y": 0.030875300988554955,
                "z": 0.16403168439865112
            }
        },
        "name": "move_to_storage_A"
    },
    "id": "LBKPIECE_move_to_storage_A_136",
    "joint_names": [
        "shoulder_pan_joint",
        "shoulder_lift_joint",
        "elbow_joint",
        "wrist_1_joint",
        "wrist_2_joint",
        "wrist_3_joint"
    ],
    "metrics": {
        "cart_traj_len": 0.3532247515477545,
        "distance_elbow_joint": 0.45206280697907486,
        "distance_shoulder_lift_joint": 0.23160094814523102,
        "distance_shoulder_pan_joint": 0.4606705296411297,
        "distance_wrist_1_joint": 0.25829705556539295,
        "distance_wrist_2_joint": 1.102952397905058,
        "distance_wrist_3_joint": 0.09920020668287943,
        "smoothness": 0.0,
        "time": 0.351772564,
        "traj_len": 1.6139343062587046,
        "weighted_distance": 2.0406944435056844
    },
    "planner": "LBKPIECE",
    "start": {
        "state": {
            "elbow_joint": 1.97154746011099,
            "shoulder_lift_joint": -1.13948474672311,
            "shoulder_pan_joint": 0.12281154466712228,
            "wrist_1_joint": -0.7804688027058302,
            "wrist_2_joint": 0.12958655903071145,
            "wrist_3_joint": 3.0906928834467795
        }
    },
    "waypoints": [
        {
            "positions": [
                0.12281154466712228,
                -1.13948474672311,
                1.97154746011099,
                -0.7804688027058302,
                0.12958655903071145,
                3.0906928834467795
            ]
        },
        {
            "positions": [
                0.05700146900410376,
                -1.172570596458143,
                2.0361278611080005,
                -0.8173683820723149,
                0.2871511873028626,
                3.1048643415443338
            ]
        },
        {
            "positions": [
                -0.008808606658914767,
                -1.205656446193176,
                2.1007082621050115,
                -0.8542679614387996,
                0.4447158155750137,
                3.119035799641888
            ]
        },
        {
            "positions": [
                -0.07461868232193329,
                -1.238742295928209,
                2.165288663102022,
                -0.8911675408052843,
                0.6022804438471648,
                3.1332072577394423
            ]
        },
        {
            "positions": [
                -0.1404287579849518,
                -1.2718281456632419,
                2.2298690640990326,
                -0.928067120171769,
                0.759845072119316,
                3.147378715836996
            ]
        },
        {
            "positions": [
                -0.20623883364797035,
                -1.304913995398275,
                2.2944494650960436,
                -0.9649666995382538,
                0.9174097003914672,
                3.1615501739345504
            ]
        },
        {
            "positions": [
                -0.27204890931098885,
                -1.337999845133308,
                2.359029866093054,
                -1.0018662789047383,
                1.0749743286636182,
                3.1757216320321047
            ]
        },
        {
            "positions": [
                -0.3378589849740074,
                -1.371085694868341,
                2.4236102670900648,
                -1.0387658582712231,
                1.2325389569357694,
                3.189893090129659
            ]
        }
    ]
}{
    "goal": {
        "global_pose": {
            "orientation": {
                "w": 0.5084816217422485,
                "x": -0.49083608388900757,
                "y": 0.5182115435600281,
                "z": -0.4816462993621826
            },
            "position": {
                "x": 0.5540239810943604,
                "y": 0.030875300988554955,
                "z": 0.16403168439865112
            }
        },
        "name": "move_to_storage_A"
    },
    "id": "LBKPIECE_move_to_storage_A_136",
    "joint_names": [
        "shoulder_pan_joint",
        "shoulder_lift_joint",
        "elbow_joint",
        "wrist_1_joint",
        "wrist_2_joint",
        "wrist_3_joint"
    ],
    "metrics": {
        "cart_traj_len": 0.3531505998408234,
        "distance_elbow_joint": 0.44883155177578926,
        "distance_shoulder_lift_joint": 0.23594788130461386,
        "distance_shoulder_pan_joint": 0.4636899192873443,
        "distance_wrist_1_joint": 0.2381620468754564,
        "distance_wrist_2_joint": 1.0911478504999683,
        "distance_wrist_3_joint": 0.09401029825656204,
        "smoothness": 8.881784232165597e-16,
        "time": 0.323252269,
        "traj_len": 1.6036800017459014,
        "weighted_distance": 2.0221572742712874
    },
    "planner": "LBKPIECE",
    "start": {
        "state": {
            "elbow_joint": 1.9715472970024885,
            "shoulder_lift_joint": -1.1394870060712896,
            "shoulder_pan_joint": 0.12281152778156021,
            "wrist_1_joint": -0.780463741449964,
            "wrist_2_joint": 0.12958659822042276,
            "wrist_3_joint": 3.090690232415272
        }
    },
    "waypoints": [
        {
            "positions": [
                0.12281152778156021,
                -1.1394870060712896,
                1.9715472970024885,
                -0.780463741449964,
                0.12958659822042276,
                3.090690232415272
            ]
        },
        {
            "positions": [
                0.056570110740511034,
                -1.173193846257663,
                2.0356660901133155,
                -0.8144868910036006,
                0.2854648625775611,
                3.104120275023352
            ]
        },
        {
            "positions": [
                -0.00967130630053814,
                -1.2069006864440364,
                2.099784883224143,
                -0.8485100405572372,
                0.44134312693469946,
                3.1175503176314323
            ]
        },
        {
            "positions": [
                -0.07591272334158733,
                -1.2406075266304097,
                2.1639036763349697,
                -0.8825331901108738,
                0.5972213912918377,
                3.1309803602395125
            ]
        },
        {
            "positions": [
                -0.1421541403826365,
                -1.2743143668167831,
                2.2280224694457966,
                -0.9165563396645104,
                0.7530996556489761,
                3.144410402847593
            ]
        },
        {
            "positions": [
                -0.20839555742368568,
                -1.3080212070031567,
                2.2921412625566235,
                -0.9505794892181472,
                0.9089779200061144,
                3.1578404454556734
            ]
        },
        {
            "positions": [
                -0.2746369744647349,
                -1.34172804718953,
                2.356260055667451,
                -0.9846026387717838,
                1.0648561843632527,
                3.1712704880637537
            ]
        },
        {
            "positions": [
                -0.3408783915057841,
                -1.3754348873759035,
                2.420378848778278,
                -1.0186257883254204,
                1.220734448720391,
                3.184700530671834
            ]
        }
    ]
}