{
    "goal": {
        "global_pose": {
            "orientation": {
                "w": 0.7031023480610252,
                "x": -0.7110244013736278,
                "y": 0.0077485991402295624,
                "z": 0.005598929693374583
            },
            "position": {
                "x": -0.8841497679147869,
                "y": 0.44412534475326537,
                "z": 0.3711530566215515
            }
        },
        "name": "move_to_auspresseinheit_D"
    },
    "id": "LBKPIECE_move_to_auspresseinheit_D_116",
    "joint_names": [
        "shoulder_pan_joint",
        "shoulder_lift_joint",
        "elbow_joint",
        "wrist_1_joint",
        "wrist_2_joint",
        "wrist_3_joint"
    ],
    "metrics": {
        "cart_traj_len": 0.3436620234542387,
        "distance_elbow_joint": 0.653062447955906,
        "distance_shoulder_lift_joint": 0.12973809944719017,
        "distance_shoulder_pan_joint": 0.1344996024659053,
        "distance_wrist_1_joint": 0.5904838280125024,
        "distance_wrist_2_joint": 1.4287696900770377,
        "distance_wrist_3_joint": 0.0427044556728311,
        "smoothness": 0.0,
        "time": 0.388369381,
        "traj_len": 1.7260527580671954,
        "weighted_distance": 2.2547550982460547
    },
    "planner": "LBKPIECE",
    "start": {
        "state": {
            "elbow_joint": -1.8275523626775212,
            "shoulder_lift_joint": -2.126789852344167,
            "shoulder_pan_joint": -0.03513704404078235,
            "wrist_1_joint": -2.347782403156801,
            "wrist_2_joint": -1.6058999987535132,
            "wrist_3_joint": -3.0880379163319196
        }
    },
    "waypoints": [
        {
            "positions": [
                -0.03513704404078235,
                -2.126789852344167,
                -1.8275523626775212,
                -2.347782403156801,
                -1.6058999987535132,
                -3.0880379163319196
            ]
        },
        {
            "positions": [
                -0.05194949434902051,
                -2.143007114775066,
                -1.745919556683033,
                -2.4215928816583636,
                -1.4273037874938834,
                -3.082699859372816
            ]
        },
        {
            "positions": [
                -0.06876194465725868,
                -2.1592243772059643,
                -1.6642867506885448,
                -2.4954033601599264,
                -1.2487075762342537,
                -3.0773618024137117
            ]
        },
        {
            "positions": [
                -0.08557439496549685,
                -2.175441639636863,
                -1.5826539446940564,
                -2.569213838661489,
                -1.0701113649746241,
                -3.072023745454608
            ]
        },
        {
            "positions": [
                -0.10238684527373501,
                -2.191658902067762,
                -1.5010211386995682,
                -2.643024317163052,
                -0.8915151537149943,
                -3.066685688495504
            ]
        },
        {
            "positions": [
                -0.11919929558197317,
                -2.2078761644986606,
                -1.41938833270508,
                -2.716834795664615,
                -0.7129189424553646,
                -3.0613476315364
            ]
        },
        {
            "positions": [
                -0.13601174589021134,
                -2.2240934269295596,
                -1.3377555267105916,
                -2.790645274166178,
                -0.534322731195735,
                -3.0560095745772964
            ]
        },
        {
            "positions": [
                -0.1528241961984495,
                -2.240310689360458,
                -1.2561227207161034,
                -2.8644557526677406,
                -0.35572651993610527,
                -3.050671517618192
            ]
        },
        {
            "positions": [
                -0.16963664650668767,
                -2.256527951791357,
                -1.1744899147216152,
                -2.9382662311693033,
                -0.17713030867647553,
                -3.0453334606590885
            ]
        }
    ]
}