{
    "goal": {
        "global_pose": {
            "orientation": {
                "w": 0.7031023502349854,
                "x": -0.7110244035720825,
                "y": 0.007748599164187908,
                "z": 0.005598929710686207
            },
            "position": {
                "x": 0.11585023208521307,
                "y": 0.44412534475326537,
                "z": 0.3711530566215515
            }
        },
        "name": "move_to_auspresseinheit_A"
    },
    "id": "LBKPIECE_move_to_auspresseinheit_A_75",
    "joint_names": [
        "shoulder_pan_joint",
        "shoulder_lift_joint",
        "elbow_joint",
        "wrist_1_joint",
        "wrist_2_joint",
        "wrist_3_joint"
    ],
    "metrics": {
        "cart_traj_len": 4.659264951880378,
        "distance_elbow_joint": 2.0628611411748756,
        "distance_shoulder_lift_joint": 3.021792178445353,
        "distance_shoulder_pan_joint": 2.9323585050466643,
        "distance_wrist_1_joint": 2.1556690633412066,
        "distance_wrist_2_joint": 1.5510328409252279,
        "distance_wrist_3_joint": 4.313100320243617,
        "smoothness": 0.8511573470470931,
        "time": 0.558731625,
        "traj_len": 4.004599112168026,
        "weighted_distance": 5.326322990012023
    },
    "planner": "LBKPIECE",
    "start": {
        "state": {
            "elbow_joint": 2.4225746658250005,
            "shoulder_lift_joint": -1.3736534386056498,
            "shoulder_pan_joint": -0.3378633547517467,
            "wrist_1_joint": -1.0288598680537169,
            "wrist_2_joint": 1.233022673432363,
            "wrist_3_joint": -3.0940220416140027
        }
    },
    "waypoints": [
        {
            "positions": [
                -0.3378633547517467,
                -1.3736534386056498,
                2.4225746658250005,
                -1.0288598680537169,
                1.233022673432363,
                -3.0940220416140027
            ]
        },
        {
            "positions": [
                -0.2551304670951683,
                -1.458420072075009,
                2.37287409045628,
                -1.067177354225734,
                1.2576425182510524,
                -2.991879312435099
            ]
        },
        {
            "positions": [
                -0.1723975794385899,
                -1.5431867055443682,
                2.32317351508756,
                -1.105494840397751,
                1.2822623630697416,
                -2.889736583256195
            ]
        },
        {
            "positions": [
                -0.08966469178201147,
                -1.6279533390137273,
                2.2734729397188396,
                -1.143812326569768,
                1.306882207888431,
                -2.7875938540772913
            ]
        },
        {
            "positions": [
                -0.006931804125433094,
                -1.7127199724830866,
                2.2237723643501193,
                -1.182129812741785,
                1.3315020527071202,
                -2.685451124898387
            ]
        },
        {
            "positions": [
                0.07580108353114534,
                -1.7974866059524457,
                2.174071788981399,
                -1.2204472989138018,
                1.3561218975258096,
                -2.5833083957194836
            ]
        },
        {
            "positions": [
                0.15853397118772378,
                -1.882253239421805,
                2.1243712136126787,
                -1.2587647850858188,
                1.3807417423444988,
                -2.48116566654058
            ]
        },
        {
            "positions": [
                0.24126685884430216,
                -1.967019872891164,
                2.0746706382439584,
                -1.2970822712578358,
                1.4053615871631882,
                -2.3790229373616762
            ]
        },
        {
            "positions": [
                0.32399974650088054,
                -2.051786506360523,
                2.024970062875238,
                -1.3353997574298528,
                1.4299814319818775,
                -2.276880208182772
            ]
        },
        {
            "positions": [
                0.406732634157459,
                -2.1365531398298825,
                1.9752694875065178,
                -1.3737172436018699,
                1.4546012768005667,
                -2.1747374790038685
            ]
        },
        {
            "positions": [
                0.4894655218140374,
                -2.221319773299242,
                1.9255689121377975,
                -1.4120347297738869,
                1.4792211216192561,
                -2.0725947498249644
            ]
        },
        {
            "positions": [
                0.5721984094706158,
                -2.306086406768601,
                1.8758683367690772,
                -1.450352215945904,
                1.5038409664379453,
                -1.9704520206460605
            ]
        },
        {
            "positions": [
                0.6549312971271943,
                -2.39085304023796,
                1.8261677614003569,
                -1.488669702117921,
                1.5284608112566347,
                -1.8683092914671569
            ]
        },
        {
            "positions": [
                0.7376641847837728,
                -2.4756196737073193,
                1.7764671860316366,
                -1.526987188289938,
                1.5530806560753239,
                -1.766166562288253
            ]
        },
        {
            "positions": [
                0.8203970724403511,
                -2.560386307176678,
                1.7267666106629163,
                -1.565304674461955,
                1.5777005008940133,
                -1.6640238331093493
            ]
        },
        {
            "positions": [
                0.9031299600969296,
                -2.645152940646038,
                1.6770660352941957,
                -1.603622160633972,
                1.6023203457127027,
                -1.5618811039304452
            ]
        },
        {
            "positions": [
                0.9858628477535079,
                -2.7299195741153968,
                1.6273654599254757,
                -1.641939646805989,
                1.6269401905313918,
                -1.4597383747515416
            ]
        },
        {
            "positions": [
                1.0685957354100863,
                -2.814686207584756,
                1.5776648845567551,
                -1.680257132978006,
                1.6515600353500812,
                -1.3575956455726377
            ]
        },
        {
            "positions": [
                1.1513286230666648,
                -2.8994528410541154,
                1.527964309188035,
                -1.7185746191500229,
                1.6761798801687704,
                -1.255452916393734
            ]
        },
        {
            "positions": [
                1.2340615107232433,
                -2.9842194745234742,
                1.4782637338193145,
                -1.7568921053220399,
                1.7007997249874598,
                -1.15331018721483
            ]
        },
        {
            "positions": [
                1.3167943983798216,
                -3.0689861079928336,
                1.4285631584505945,
                -1.795209591494057,
                1.725419569806149,
                -1.0511674580359265
            ]
        },
        {
            "positions": [
                1.3995272860364,
                -3.153752741462193,
                1.378862583081874,
                -1.833527077666074,
                1.7500394146248384,
                -0.9490247288570224
            ]
        },
        {
            "positions": [
                1.3498873834496021,
                -3.088853783537974,
                1.4277533568953973,
                -1.772153774263993,
                1.6977718290655501,
                -1.0525725324498396
            ]
        },
        {
            "positions": [
                1.3002474808628042,
                -3.023954825613755,
                1.4766441307089206,
                -1.7107804708619119,
                1.6455042435062617,
                -1.156120336042657
            ]
        },
        {
            "positions": [
                1.2506075782760062,
                -2.9590558676895355,
                1.5255349045224438,
                -1.649407167459831,
                1.5932366579469734,
                -1.2596681396354743
            ]
        },
        {
            "positions": [
                1.2009676756892085,
                -2.8941569097653166,
                1.5744256783359671,
                -1.58803386405775,
                1.5409690723876852,
                -1.3632159432282918
            ]
        },
        {
            "positions": [
                1.1513277731024105,
                -2.8292579518410976,
                1.6233164521494905,
                -1.526660560655669,
                1.488701486828397,
                -1.466763746821109
            ]
        },
        {
            "positions": [
                1.1016878705156126,
                -2.7643589939168782,
                1.6722072259630139,
                -1.465287257253588,
                1.4364339012691085,
                -1.5703115504139262
            ]
        },
        {
            "positions": [
                1.0520479679288146,
                -2.6994600359926593,
                1.721097999776537,
                -1.4039139538515069,
                1.3841663157098203,
                -1.6738593540067437
            ]
        },
        {
            "positions": [
                1.0024080653420167,
                -2.6345610780684403,
                1.7699887735900603,
                -1.342540650449426,
                1.3318987301505318,
                -1.7774071575995611
            ]
        },
        {
            "positions": [
                0.9527681627552187,
                -2.5696621201442214,
                1.8188795474035837,
                -1.281167347047345,
                1.2796311445912436,
                -1.8809549611923784
            ]
        },
        {
            "positions": [
                0.9031282601684208,
                -2.5047631622200024,
                1.867770321217107,
                -1.2197940436452641,
                1.2273635590319554,
                -1.9845027647851956
            ]
        },
        {
            "positions": [
                0.8534883575816229,
                -2.439864204295783,
                1.9166610950306304,
                -1.158420740243183,
                1.1750959734726671,
                -2.088050568378013
            ]
        },
        {
            "positions": [
                0.8038484549948249,
                -2.374965246371564,
                1.9655518688441536,
                -1.097047436841102,
                1.122828387913379,
                -2.19159837197083
            ]
        },
        {
            "positions": [
                0.754208552408027,
                -2.310066288447345,
                2.014442642657677,
                -1.035674133439021,
                1.0705608023540905,
                -2.295146175563648
            ]
        },
        {
            "positions": [
                0.7045686498212291,
                -2.2451673305231257,
                2.0633334164712003,
                -0.97430083003694,
                1.0182932167948022,
                -2.398693979156465
            ]
        },
        {
            "positions": [
                0.6549287472344312,
                -2.1802683725989067,
                2.1122241902847234,
                -0.912927526634859,
                0.9660256312355138,
                -2.5022417827492824
            ]
        },
        {
            "positions": [
                0.6052888446476333,
                -2.1153694146746878,
                2.161114964098247,
                -0.8515542232327781,
                0.9137580456762255,
                -2.6057895863421
            ]
        },
        {
            "positions": [
                0.5556489420608353,
                -2.0504704567504684,
                2.21000573791177,
                -0.790180919830697,
                0.8614904601169372,
                -2.709337389934917
            ]
        },
        {
            "positions": [
                0.5060090394740374,
                -1.9855714988262496,
                2.2588965117252933,
                -0.7288076164286161,
                0.809222874557649,
                -2.8128851935277344
            ]
        },
        {
            "positions": [
                0.45636913688723946,
                -1.9206725409020304,
                2.307787285538817,
                -0.667434313026535,
                0.7569552889983606,
                -2.916432997120552
            ]
        },
        {
            "positions": [
                0.5566701127826774,
                -1.9174115187880558,
                2.345513449526057,
                -0.5900960207450514,
                0.7427866834157035,
                -3.0066305762636194
            ]
        },
        {
            "positions": [
                0.6569710886781154,
                -1.9141504966740812,
                2.3832396135132967,
                -0.5127577284635678,
                0.7286180778330464,
                -3.096828155406687
            ]
        },
        {
            "positions": [
                0.7081788519965961,
                -1.9120598658733832,
                2.398011641513623,
                -0.48252522393722447,
                0.7160233148920858,
                -3.1171277363436602
            ]
        }
    ]
}