{
    "goal": {
        "global_pose": {
            "orientation": {
                "w": 0.005598929693374612,
                "x": 0.007748599140229565,
                "y": 0.7110244013736278,
                "z": -0.7031023480610252
            },
            "position": {
                "x": -0.8858502320852131,
                "y": -0.7141253447532654,
                "z": 0.3711530566215515
            }
        },
        "name": "move_to_auspresseinheit_C"
    },
    "id": "LBKPIECE_move_to_auspresseinheit_C_41",
    "joint_names": [
        "shoulder_pan_joint",
        "shoulder_lift_joint",
        "elbow_joint",
        "wrist_1_joint",
        "wrist_2_joint",
        "wrist_3_joint"
    ],
    "metrics": {
        "cart_traj_len": 0.49438315695454377,
        "distance_elbow_joint": 1.020672460710743,
        "distance_shoulder_lift_joint": 0.33459523675861047,
        "distance_shoulder_pan_joint": 0.25582283988796695,
        "distance_wrist_1_joint": 0.7161808431281703,
        "distance_wrist_2_joint": 1.3141290424839749,
        "distance_wrist_3_joint": 0.08941381817638394,
        "smoothness": 1.049665406193578e-15,
        "time": 0.79875717,
        "traj_len": 1.9315315791220835,
        "weighted_distance": 2.4372016254530036
    },
    "planner": "LBKPIECE",
    "start": {
        "state": {
            "elbow_joint": 1.7527959577737207,
            "shoulder_lift_joint": -0.9740617694225068,
            "shoulder_pan_joint": -2.967991417825858,
            "wrist_1_joint": -0.759517768980727,
            "wrist_2_joint": 1.7443932448377408,
            "wrist_3_joint": -3.0840537646736568
        }
    },
    "waypoints": [
        {
            "positions": [
                -2.967991417825858,
                -0.9740617694225068,
                1.7527959577737207,
                -0.759517768980727,
                1.7443932448377408,
                -3.0840537646736568
            ]
        },
        {
            "positions": [
                -2.942409133837061,
                -0.9406022457466457,
                1.6507287117026463,
                -0.68789968466791,
                1.6129803405893433,
                -3.0929951464912953
            ]
        },
        {
            "positions": [
                -2.9168268498482646,
                -0.9071427220707847,
                1.548661465631572,
                -0.6162816003550929,
                1.481567436340946,
                -3.1019365283089337
            ]
        },
        {
            "positions": [
                -2.891244565859468,
                -0.8736831983949236,
                1.4465942195604977,
                -0.5446635160422759,
                1.3501545320925483,
                -3.1108779101265718
            ]
        },
        {
            "positions": [
                -2.865662281870671,
                -0.8402236747190626,
                1.3445269734894234,
                -0.47304543172945884,
                1.218741627844151,
                -3.1198192919442103
            ]
        },
        {
            "positions": [
                -2.8400799978818743,
                -0.8067641510432015,
                1.2424597274183493,
                -0.4014273474166418,
                1.0873287235957534,
                -3.1287606737618487
            ]
        },
        {
            "positions": [
                -2.814497713893078,
                -0.7733046273673405,
                1.1403924813472748,
                -0.3298092631038248,
                0.9559158193473559,
                -3.1377020555794872
            ]
        },
        {
            "positions": [
                -2.7889154299042813,
                -0.7398451036914795,
                1.0383252352762007,
                -0.25819117879100784,
                0.8245029150989585,
                -3.1466434373971257
            ]
        },
        {
            "positions": [
                -2.7633331459154844,
                -0.7063855800156185,
                0.9362579892051263,
                -0.1865730944781907,
                0.6930900108505609,
                -3.1555848192147637
            ]
        },
        {
            "positions": [
                -2.7377508619266875,
                -0.6729260563397573,
                0.8341907431340521,
                -0.11495501016537368,
                0.5616771066021633,
                -3.1645262010324022
            ]
        },
        {
            "positions": [
                -2.712168577937891,
                -0.6394665326638963,
                0.7321234970629777,
                -0.04333692585255664,
                0.4302642023537659,
                -3.1734675828500407
            ]
        }
    ]
}