{
    "goal": {
        "global_pose": {
            "orientation": {
                "w": -0.00223480608172531,
                "x": 0.0024358444001904467,
                "y": 0.7094548369677653,
                "z": -0.704743149386269
            },
            "position": {
                "x": -0.37947507619857795,
                "y": -0.6371506643295288,
                "z": 0.19426114857196808
            }
        },
        "name": "move_to_magneteinheit_C"
    },
    "id": "LBKPIECE_move_to_magneteinheit_C_5",
    "joint_names": [
        "shoulder_pan_joint",
        "shoulder_lift_joint",
        "elbow_joint",
        "wrist_1_joint",
        "wrist_2_joint",
        "wrist_3_joint"
    ],
    "metrics": {
        "cart_traj_len": 1.4424304259042853,
        "distance_elbow_joint": 1.4549340739086576,
        "distance_shoulder_lift_joint": 0.41659422039633176,
        "distance_shoulder_pan_joint": 1.3507001967620729,
        "distance_wrist_1_joint": 3.2530915194546006,
        "distance_wrist_2_joint": 1.5076554611779702,
        "distance_wrist_3_joint": 4.146821481331365,
        "smoothness": 0.5178035585336892,
        "time": 0.345886833,
        "traj_len": 3.4827858034956725,
        "weighted_distance": 5.018384889217476
    },
    "planner": "LBKPIECE",
    "start": {
        "state": {
            "elbow_joint": 1.9565354010623817,
            "shoulder_lift_joint": -1.4165861575791021,
            "shoulder_pan_joint": -1.6717766225146293,
            "wrist_1_joint": -0.5286633292919765,
            "wrist_2_joint": 1.472756589071564,
            "wrist_3_joint": -3.1238370188695823
        }
    },
    "waypoints": [
        {
            "positions": [
                -1.6717766225146293,
                -1.4165861575791021,
                1.9565354010623817,
                -0.5286633292919765,
                1.472756589071564,
                -3.1238370188695823
            ]
        },
        {
            "positions": [
                -1.6491391657831338,
                -1.4278010605389868,
                1.9467300083656958,
                -0.49947559236592587,
                1.4340109623953587,
                -3.0857726574643154
            ]
        },
        {
            "positions": [
                -1.6216896763089867,
                -1.4418794201232448,
                1.9006392226009503,
                -0.4256945977207286,
                1.3573050876844435,
                -2.962446825943939
            ]
        },
        {
            "positions": [
                -1.5942401868348397,
                -1.4559577797075025,
                1.8545484368362048,
                -0.3519136030755313,
                1.2805992129735282,
                -2.8391209944235625
            ]
        },
        {
            "positions": [
                -1.5667906973606924,
                -1.4700361392917605,
                1.8084576510714596,
                -0.27813260843033405,
                1.203893338262613,
                -2.7157951629031865
            ]
        },
        {
            "positions": [
                -1.5393412078865454,
                -1.4841144988760182,
                1.7623668653067142,
                -0.20435161378513672,
                1.1271874635516976,
                -2.59246933138281
            ]
        },
        {
            "positions": [
                -1.5118917184123983,
                -1.4981928584602762,
                1.7162760795419687,
                -0.13057061913993945,
                1.0504815888407824,
                -2.4691434998624335
            ]
        },
        {
            "positions": [
                -1.5575031791053506,
                -1.4937839698404116,
                1.669107957166967,
                -0.05202822873360112,
                1.0014103285556855,
                -2.33726879034644
            ]
        },
        {
            "positions": [
                -1.6031146397983027,
                -1.4893750812205473,
                1.6219398347919651,
                0.026514161672737208,
                0.9523390682705888,
                -2.2053940808304473
            ]
        },
        {
            "positions": [
                -1.648726100491255,
                -1.484966192600683,
                1.5747717124169633,
                0.10505655207907555,
                0.9032678079854919,
                -2.073519371314454
            ]
        },
        {
            "positions": [
                -1.694337561184207,
                -1.4805573039808184,
                1.5276035900419616,
                0.18359894248541386,
                0.8541965477003951,
                -1.9416446617984608
            ]
        },
        {
            "positions": [
                -1.7399490218771594,
                -1.4761484153609539,
                1.4804354676669598,
                0.2621413328917522,
                0.8051252874152983,
                -1.8097699522824677
            ]
        },
        {
            "positions": [
                -1.7855604825701117,
                -1.4717395267410895,
                1.433267345291958,
                0.34068372329809055,
                0.7560540271302014,
                -1.6778952427664744
            ]
        },
        {
            "positions": [
                -1.831171943263064,
                -1.4673306381212252,
                1.3860992229169562,
                0.4192261137044288,
                0.7069827668451046,
                -1.5460205332504813
            ]
        },
        {
            "positions": [
                -1.876783403956016,
                -1.4629217495013607,
                1.3389311005419544,
                0.4977685041107672,
                0.6579115065600079,
                -1.4141458237344882
            ]
        },
        {
            "positions": [
                -1.9240757340663257,
                -1.4586438801615966,
                1.2967320725225224,
                0.5735341140087308,
                0.6111112787861088,
                -1.290849867320966
            ]
        },
        {
            "positions": [
                -1.9713680641766356,
                -1.4543660108218326,
                1.2545330445030904,
                0.6492997239066944,
                0.5643110510122098,
                -1.167553910907444
            ]
        },
        {
            "positions": [
                -2.116304588929812,
                -1.4242527606680349,
                1.3101403736059014,
                0.7244912647754856,
                0.50304447334629,
                -1.1415257366197835
            ]
        },
        {
            "positions": [
                -2.261241113682989,
                -1.3941395105142371,
                1.3657477027087126,
                0.7996828056442769,
                0.44177789568037007,
                -1.115497562332123
            ]
        },
        {
            "positions": [
                -2.4061776384361657,
                -1.3640262603604392,
                1.4213550318115238,
                0.8748743465130681,
                0.3805113180144502,
                -1.0894693880444626
            ]
        },
        {
            "positions": [
                -2.551114163189342,
                -1.3339130102066414,
                1.4769623609143347,
                0.9500658873818593,
                0.31924474034853034,
                -1.0634412137568021
            ]
        },
        {
            "positions": [
                -2.5633899189249485,
                -1.3164889669820246,
                1.5281879416346147,
                0.857881330353646,
                0.3405424839129458,
                -1.1937797694565238
            ]
        },
        {
            "positions": [
                -2.5756656746605544,
                -1.299064923757408,
                1.5794135223548946,
                0.7656967733254328,
                0.36184022747736116,
                -1.3241183251562454
            ]
        },
        {
            "positions": [
                -2.5879414303961608,
                -1.281640880532791,
                1.6306391030751746,
                0.6735122162972196,
                0.3831379710417766,
                -1.4544568808559672
            ]
        },
        {
            "positions": [
                -2.5856397178796815,
                -1.267745200657412,
                1.6699767625298874,
                0.5642155715217905,
                0.40828050629131235,
                -1.5884843144004446
            ]
        },
        {
            "positions": [
                -2.5833380053632027,
                -1.2538495207820328,
                1.7093144219846,
                0.45491892674636136,
                0.4334230415408481,
                -1.7225117479449221
            ]
        },
        {
            "positions": [
                -2.581036292846724,
                -1.2399538409066537,
                1.7486520814393125,
                0.3456222819709323,
                0.45856557679038384,
                -1.8565391814893997
            ]
        },
        {
            "positions": [
                -2.5787345803302446,
                -1.2260581610312746,
                1.7879897408940253,
                0.2363256371955032,
                0.4837081120399196,
                -1.990566615033877
            ]
        },
        {
            "positions": [
                -2.5655397390039743,
                -1.218201558270505,
                1.8154241185138291,
                0.10374788062120208,
                0.507418142135363,
                -2.135479149401566
            ]
        },
        {
            "positions": [
                -2.552344897677704,
                -1.2103449555097356,
                1.8428584961336332,
                -0.02882987595309905,
                0.5311281722308064,
                -2.2803916837692544
            ]
        },
        {
            "positions": [
                -2.5391500563514335,
                -1.202488352748966,
                1.8702928737534372,
                -0.16140763252740015,
                0.5548382023262498,
                -2.425304218136943
            ]
        },
        {
            "positions": [
                -2.5259552150251627,
                -1.1946317499881967,
                1.897727251373241,
                -0.2939853891017013,
                0.5785482324216933,
                -2.5702167525046318
            ]
        },
        {
            "positions": [
                -2.5127603736988924,
                -1.186775147227427,
                1.9251616289930449,
                -0.42656314567600245,
                0.6022582625171367,
                -2.7151292868723207
            ]
        },
        {
            "positions": [
                -2.499565532372622,
                -1.1789185444666574,
                1.952596006612849,
                -0.5591409022503036,
                0.62596829261258,
                -2.860041821240009
            ]
        },
        {
            "positions": [
                -2.4863706910463517,
                -1.171061941705888,
                1.980030384232653,
                -0.6917186588246047,
                0.6496783227080234,
                -3.0049543556076976
            ]
        },
        {
            "positions": [
                -2.4731758497200813,
                -1.1632053389451185,
                2.007464761852457,
                -0.8242964153989059,
                0.6733883528034669,
                -3.1498668899753866
            ]
        }
    ]
}