{
    "goal": {
        "global_pose": {
            "orientation": {
                "w": -0.4816463035849501,
                "x": 0.5182115481033762,
                "y": 0.4908360881923453,
                "z": -0.5084816262002911
            },
            "position": {
                "x": -0.8240239810943604,
                "y": -0.300875300988555,
                "z": 0.16403168439865112
            }
        },
        "name": "move_to_storage_C"
    },
    "id": "LBKPIECE_move_to_storage_C_99",
    "joint_names": [
        "shoulder_pan_joint",
        "shoulder_lift_joint",
        "elbow_joint",
        "wrist_1_joint",
        "wrist_2_joint",
        "wrist_3_joint"
    ],
    "metrics": {
        "cart_traj_len": 0.5768013968966188,
        "distance_elbow_joint": 0.2587844340063743,
        "distance_shoulder_lift_joint": 0.18842321154685582,
        "distance_shoulder_pan_joint": 0.49562114935847346,
        "distance_wrist_1_joint": 0.08671722985187369,
        "distance_wrist_2_joint": 1.0664523250278322,
        "distance_wrist_3_joint": 0.07284993171782483,
        "smoothness": 2.5376526478085547e-16,
        "time": 0.401398727,
        "traj_len": 1.4727010156543092,
        "weighted_distance": 1.8621808987916801
    },
    "planner": "LBKPIECE",
    "start": {
        "state": {
            "elbow_joint": 2.010868314990456,
            "shoulder_lift_joint": -1.1634956873337592,
            "shoulder_pan_joint": -2.4736205022346125,
            "wrist_1_joint": -0.8367026794202681,
            "wrist_2_joint": 0.6746043897044499,
            "wrist_3_joint": -3.1496632123970403
        }
    },
    "waypoints": [
        {
            "positions": [
                -2.4736205022346125,
                -1.1634956873337592,
                2.010868314990456,
                -0.8367026794202681,
                0.6746043897044499,
                -3.1496632123970403
            ]
        },
        {
            "positions": [
                -2.5562240271276915,
                -1.1320918187426166,
                1.9677375759893934,
                -0.8222498077782892,
                0.8523464438757553,
                -3.137521557110736
            ]
        },
        {
            "positions": [
                -2.6388275520207705,
                -1.100687950151474,
                1.9246068369883311,
                -0.8077969361363102,
                1.0300884980470606,
                -3.125379901824432
            ]
        },
        {
            "positions": [
                -2.7214310769138494,
                -1.0692840815603313,
                1.8814760979872687,
                -0.7933440644943313,
                1.207830552218366,
                -3.1132382465381276
            ]
        },
        {
            "positions": [
                -2.804034601806928,
                -1.0378802129691886,
                1.8383453589862062,
                -0.7788911928523523,
                1.3855726063896712,
                -3.1010965912518236
            ]
        },
        {
            "positions": [
                -2.886638126700007,
                -1.006476344378046,
                1.795214619985144,
                -0.7644383212103734,
                1.5633146605609767,
                -3.0889549359655195
            ]
        },
        {
            "positions": [
                -2.969241651593086,
                -0.9750724757869034,
                1.7520838809840815,
                -0.7499854495683944,
                1.741056714732282,
                -3.0768132806792154
            ]
        }
    ]
}