{
    "goal": {
        "global_pose": {
            "orientation": {
                "w": -0.4816463035849501,
                "x": 0.5182115481033762,
                "y": 0.4908360881923453,
                "z": -0.5084816262002911
            },
            "position": {
                "x": -0.8240239810943604,
                "y": 0.19912469901144506,
                "z": 0.16403168439865112
            }
        },
        "name": "move_to_storage_D"
    },
    "id": "LBKPIECE_move_to_storage_D_102",
    "joint_names": [
        "shoulder_pan_joint",
        "shoulder_lift_joint",
        "elbow_joint",
        "wrist_1_joint",
        "wrist_2_joint",
        "wrist_3_joint"
    ],
    "metrics": {
        "cart_traj_len": 1.2967810187499071,
        "distance_elbow_joint": 0.5561769034191422,
        "distance_shoulder_lift_joint": 1.4594004340498468,
        "distance_shoulder_pan_joint": 1.4240435991256728,
        "distance_wrist_1_joint": 4.7479322594109465,
        "distance_wrist_2_joint": 2.3378135347681996,
        "distance_wrist_3_joint": 4.183791015558354,
        "smoothness": 0.470449031876206,
        "time": 0.551374783,
        "traj_len": 3.835251979509582,
        "weighted_distance": 5.492038380385558
    },
    "planner": "LBKPIECE",
    "start": {
        "state": {
            "elbow_joint": -2.384821988534728,
            "shoulder_lift_joint": -2.2788054721415256,
            "shoulder_pan_joint": -0.1854694642142757,
            "wrist_1_joint": 1.4845938289331202,
            "wrist_2_joint": 0.17898776772866878,
            "wrist_3_joint": 0.037105688729662994
        }
    },
    "waypoints": [
        {
            "positions": [
                -0.1854694642142757,
                -2.2788054721415256,
                -2.384821988534728,
                1.4845938289331202,
                0.17898776772866878,
                0.037105688729662994
            ]
        },
        {
            "positions": [
                -0.08699356424125904,
                -2.178047290299724,
                -2.3553821439305693,
                1.5419929224869477,
                0.2136887913783827,
                0.10357401797666943
            ]
        },
        {
            "positions": [
                0.011482335731757637,
                -2.077289108457923,
                -2.3259422993264103,
                1.5993920160407753,
                0.2483898150280966,
                0.17004234722367587
            ]
        },
        {
            "positions": [
                0.10995823570477434,
                -1.9765309266161215,
                -2.2965024547222517,
                1.6567911095946029,
                0.2830908386778105,
                0.2365106764706823
            ]
        },
        {
            "positions": [
                0.20843413567779098,
                -1.8757727447743204,
                -2.267062610118093,
                1.7141902031484304,
                0.31779186232752443,
                0.30297900571768877
            ]
        },
        {
            "positions": [
                0.30691003565080766,
                -1.775014562932519,
                -2.2376227655139345,
                1.771589296702258,
                0.35249288597723827,
                0.3694473349646952
            ]
        },
        {
            "positions": [
                0.4053859356238244,
                -1.6742563810907176,
                -2.208182920909776,
                1.8289883902560855,
                0.3871939096269522,
                0.4359156642117016
            ]
        },
        {
            "positions": [
                0.5038618355968411,
                -1.5734981992489163,
                -2.178743076305617,
                1.886387483809913,
                0.42189493327666616,
                0.5023839934587081
            ]
        },
        {
            "positions": [
                0.6023377355698577,
                -1.472740017407115,
                -2.149303231701458,
                1.9437865773637406,
                0.45659595692638,
                0.5688523227057145
            ]
        },
        {
            "positions": [
                0.5811298555918064,
                -1.4945178500509628,
                -2.1386146268152624,
                1.8008285936643964,
                0.3879224454073637,
                0.4471175099863044
            ]
        },
        {
            "positions": [
                0.559921975613755,
                -1.5162956826948109,
                -2.1279260219290665,
                1.6578706099650522,
                0.3192489338883474,
                0.3253826972668943
            ]
        },
        {
            "positions": [
                0.5387140956357037,
                -1.5380735153386587,
                -2.117237417042871,
                1.514912626265708,
                0.25057542236933106,
                0.20364788454748411
            ]
        },
        {
            "positions": [
                0.5175062156576523,
                -1.5598513479825065,
                -2.1065488121566753,
                1.3719546425663638,
                0.18190191085031476,
                0.08191307182807406
            ]
        },
        {
            "positions": [
                0.496298335679601,
                -1.5816291806263543,
                -2.0958602072704795,
                1.2289966588670196,
                0.11322839933129847,
                -0.039821740891336055
            ]
        },
        {
            "positions": [
                0.4750904557015496,
                -1.6034070132702023,
                -2.0851716023842837,
                1.0860386751676754,
                0.04455488781228212,
                -0.16155655361074628
            ]
        },
        {
            "positions": [
                0.4538825757234983,
                -1.62518484591405,
                -2.074482997498088,
                0.9430806914683312,
                -0.024118623706734177,
                -0.2832913663301564
            ]
        },
        {
            "positions": [
                0.4326746957454469,
                -1.646962678557898,
                -2.063794392611892,
                0.800122707768987,
                -0.09279213522575047,
                -0.4050261790495664
            ]
        },
        {
            "positions": [
                0.41146681576739563,
                -1.668740511201746,
                -2.0531057877256966,
                0.6571647240696428,
                -0.16146564674476682,
                -0.5267609917689766
            ]
        },
        {
            "positions": [
                0.3902589357893443,
                -1.6905183438455937,
                -2.042417182839501,
                0.5142067403702986,
                -0.23013915826378306,
                -0.6484958044883866
            ]
        },
        {
            "positions": [
                0.36905105581129294,
                -1.7122961764894415,
                -2.031728577953305,
                0.3712487566709546,
                -0.2988126697827994,
                -0.7702306172077966
            ]
        },
        {
            "positions": [
                0.3478431758332416,
                -1.7340740091332896,
                -2.021039973067109,
                0.22829077297161016,
                -0.36748618130181576,
                -0.8919654299272071
            ]
        },
        {
            "positions": [
                0.32663529585519024,
                -1.7558518417771374,
                -2.0103513681809133,
                0.08533278927226595,
                -0.4361596928208321,
                -1.013700242646617
            ]
        },
        {
            "positions": [
                0.3054274158771389,
                -1.7776296744209852,
                -1.9996627632947177,
                -0.05762519442707825,
                -0.5048332043398484,
                -1.1354350553660273
            ]
        },
        {
            "positions": [
                0.28421953589908755,
                -1.7994075070648332,
                -1.988974158408522,
                -0.20058317812642246,
                -0.5735067158588647,
                -1.2571698680854373
            ]
        },
        {
            "positions": [
                0.2630116559210362,
                -1.821185339708681,
                -1.9782855535223263,
                -0.34354116182576666,
                -0.6421802273778809,
                -1.3789046808048473
            ]
        },
        {
            "positions": [
                0.24180377594298486,
                -1.8429631723525288,
                -1.9675969486361304,
                -0.48649914552511087,
                -0.7108537388968974,
                -1.5006394935242573
            ]
        },
        {
            "positions": [
                0.2205958959649335,
                -1.8647410049963766,
                -1.9569083437499348,
                -0.6294571292244551,
                -0.7795272504159136,
                -1.6223743062436677
            ]
        },
        {
            "positions": [
                0.19938801598688222,
                -1.8865188376402244,
                -1.946219738863739,
                -0.7724151129237993,
                -0.8482007619349299,
                -1.7441091189630777
            ]
        },
        {
            "positions": [
                0.17818013600883087,
                -1.9082966702840725,
                -1.9355311339775432,
                -0.9153730966231435,
                -0.9168742734539461,
                -1.8658439316824877
            ]
        },
        {
            "positions": [
                0.15697225603077952,
                -1.9300745029279203,
                -1.9248425290913476,
                -1.0583310803224877,
                -0.9855477849729626,
                -1.9875787444018977
            ]
        },
        {
            "positions": [
                0.13576437605272818,
                -1.9518523355717683,
                -1.9141539242051517,
                -1.2012890640218314,
                -1.0542212964919788,
                -2.1093135571213075
            ]
        },
        {
            "positions": [
                0.11455649607467677,
                -1.973630168215616,
                -1.903465319318956,
                -1.3442470477211765,
                -1.1228948080109953,
                -2.2310483698407184
            ]
        },
        {
            "positions": [
                0.09334861609662548,
                -1.995408000859464,
                -1.8927767144327603,
                -1.4872050314205203,
                -1.1915683195300115,
                -2.3527831825601284
            ]
        },
        {
            "positions": [
                0.07214073611857408,
                -2.0171858335033117,
                -1.8820881095465645,
                -1.6301630151198645,
                -1.260241831049028,
                -2.4745179952795384
            ]
        },
        {
            "positions": [
                0.050932856140522786,
                -2.0389636661471595,
                -1.8713995046603689,
                -1.7731209988192087,
                -1.3289153425680442,
                -2.5962528079989484
            ]
        },
        {
            "positions": [
                0.029724976162471384,
                -2.0607414987910078,
                -1.860710899774173,
                -1.916078982518553,
                -1.3975888540870605,
                -2.7179876207183584
            ]
        },
        {
            "positions": [
                0.008517096184420092,
                -2.0825193314348556,
                -1.8500222948879772,
                -2.059036966217897,
                -1.4662623656060767,
                -2.8397224334377693
            ]
        },
        {
            "positions": [
                -0.01269078379363131,
                -2.1042971640787034,
                -1.8393336900017814,
                -2.2019949499172413,
                -1.5349358771250932,
                -2.9614572461571793
            ]
        },
        {
            "positions": [
                -0.033898663771682554,
                -2.126074996722551,
                -1.8286450851155858,
                -2.344952933616586,
                -1.6036093886441092,
                -3.083192058876589
            ]
        }
    ]
}