{
    "goal": {
        "global_pose": {
            "orientation": {
                "w": 0.5084816262002911,
                "x": -0.4908360881923452,
                "y": 0.5182115481033761,
                "z": -0.48164630358495003
            },
            "position": {
                "x": 0.5540239810943604,
                "y": -0.46912469901144505,
                "z": 0.16403168439865112
            }
        },
        "name": "move_to_storage_B"
    },
    "id": "LBKPIECE_move_to_storage_B_22",
    "joint_names": [
        "shoulder_pan_joint",
        "shoulder_lift_joint",
        "elbow_joint",
        "wrist_1_joint",
        "wrist_2_joint",
        "wrist_3_joint"
    ],
    "metrics": {
        "cart_traj_len": 2.1771733879539537,
        "distance_elbow_joint": 1.2728190597858946,
        "distance_shoulder_lift_joint": 0.5581225674170891,
        "distance_shoulder_pan_joint": 1.9627486929076206,
        "distance_wrist_1_joint": 2.9922203837139882,
        "distance_wrist_2_joint": 2.702930013884649,
        "distance_wrist_3_joint": 3.141836852172346,
        "smoothness": 0.2135641863197408,
        "time": 0.404730748,
        "traj_len": 3.553966455930836,
        "weighted_distance": 4.960796475549558
    },
    "planner": "LBKPIECE",
    "start": {
        "state": {
            "elbow_joint": 1.664937868594044,
            "shoulder_lift_joint": -0.661644460510453,
            "shoulder_pan_joint": -0.9139846352900073,
            "wrist_1_joint": 2.146753192139373,
            "wrist_2_joint": -2.2341966793290973,
            "wrist_3_joint": 0.005466555786416001
        }
    },
    "waypoints": [
        {
            "positions": [
                -0.9139846352900073,
                -0.661644460510453,
                1.664937868594044,
                2.146753192139373,
                -2.2341966793290973,
                0.005466555786416001
            ]
        },
        {
            "positions": [
                -0.8249124505387307,
                -0.7124157254648306,
                1.6188029943371274,
                2.098826199869987,
                -2.1173083435317857,
                0.045341447798282065
            ]
        },
        {
            "positions": [
                -0.7358402657874542,
                -0.763186990419208,
                1.5726681200802108,
                2.0508992076006014,
                -2.0004200077344736,
                0.08521633981014813
            ]
        },
        {
            "positions": [
                -0.6467680810361778,
                -0.8139582553735856,
                1.5265332458232943,
                2.0029722153312157,
                -1.883531671937162,
                0.1250912318220142
            ]
        },
        {
            "positions": [
                -0.5576958962849012,
                -0.864729520327963,
                1.4803983715663778,
                1.9550452230618296,
                -1.7666433361398504,
                0.16496612383388026
            ]
        },
        {
            "positions": [
                -0.4686237115336247,
                -0.9155007852823406,
                1.4342634973094612,
                1.9071182307924437,
                -1.6497550003425385,
                0.20484101584574632
            ]
        },
        {
            "positions": [
                -0.37955152678234816,
                -0.9662720502367181,
                1.3881286230525447,
                1.8591912385230578,
                -1.5328666645452267,
                0.24471590785761238
            ]
        },
        {
            "positions": [
                -0.29047934203107173,
                -1.0170433151910956,
                1.3419937487956282,
                1.8112642462536719,
                -1.415978328747915,
                0.28459079986947844
            ]
        },
        {
            "positions": [
                -0.20140715727979508,
                -1.0678145801454733,
                1.2958588745387116,
                1.763337253984286,
                -1.2990899929506032,
                0.32446569188134455
            ]
        },
        {
            "positions": [
                -0.11233497252851865,
                -1.1185858450998507,
                1.249724000281795,
                1.7154102617149,
                -1.1822016571532914,
                0.3643405838932106
            ]
        },
        {
            "positions": [
                -0.023262787777242156,
                -1.1693571100542282,
                1.2035891260248786,
                1.6674832694455142,
                -1.0653133213559798,
                0.40421547590507667
            ]
        },
        {
            "positions": [
                -0.06987265062049677,
                -1.167165374494519,
                1.2388704441647362,
                1.558224553748987,
                -0.9986156406641741,
                0.523480168603063
            ]
        },
        {
            "positions": [
                -0.1164825134637514,
                -1.1649736389348095,
                1.2741517623045941,
                1.4489658380524595,
                -0.9319179599723684,
                0.6427448613010494
            ]
        },
        {
            "positions": [
                -0.16309237630700602,
                -1.1627819033751003,
                1.3094330804444518,
                1.3397071223559323,
                -0.8652202792805626,
                0.7620095539990357
            ]
        },
        {
            "positions": [
                -0.20970223915026065,
                -1.160590167815391,
                1.3447143985843097,
                1.2304484066594048,
                -0.7985225985887568,
                0.881274246697022
            ]
        },
        {
            "positions": [
                -0.25631210199351523,
                -1.1583984322556817,
                1.3799957167241674,
                1.1211896909628773,
                -0.7318249178969511,
                1.0005389393950084
            ]
        },
        {
            "positions": [
                -0.30292196483676986,
                -1.1562066966959723,
                1.4152770348640253,
                1.0119309752663501,
                -0.6651272372051453,
                1.1198036320929947
            ]
        },
        {
            "positions": [
                -0.34953182768002455,
                -1.1540149611362631,
                1.450558353003883,
                0.9026722595698228,
                -0.5984295565133395,
                1.239068324790981
            ]
        },
        {
            "positions": [
                -0.39614169052327913,
                -1.1518232255765537,
                1.485839671143741,
                0.7934135438732955,
                -0.5317318758215339,
                1.3583330174889674
            ]
        },
        {
            "positions": [
                -0.44275155336653377,
                -1.1496314900168445,
                1.5211209892835986,
                0.6841548281767681,
                -0.4650341951297281,
                1.4775977101869537
            ]
        },
        {
            "positions": [
                -0.48936141620978835,
                -1.147439754457135,
                1.5564023074234565,
                0.5748961124802408,
                -0.3983365144379224,
                1.59686240288494
            ]
        },
        {
            "positions": [
                -0.535971279053043,
                -1.145248018897426,
                1.5916836255633142,
                0.4656373967837135,
                -0.3316388337461166,
                1.7161270955829264
            ]
        },
        {
            "positions": [
                -0.5825811418962975,
                -1.1430562833377165,
                1.6269649437031721,
                0.35637868108718607,
                -0.264941153054311,
                1.8353917882809128
            ]
        },
        {
            "positions": [
                -0.6291910047395521,
                -1.1408645477780073,
                1.6622462618430298,
                0.24711996539065884,
                -0.19824347236250528,
                1.9546564809788989
            ]
        },
        {
            "positions": [
                -0.6758008675828069,
                -1.1386728122182979,
                1.6975275799828877,
                0.13786124969413138,
                -0.13154579167069935,
                2.0739211736768857
            ]
        },
        {
            "positions": [
                -0.7224107304260614,
                -1.1364810766585887,
                1.7328088981227454,
                0.02860253399760415,
                -0.06484811097889365,
                2.193185866374872
            ]
        },
        {
            "positions": [
                -0.769020593269316,
                -1.1342893410988792,
                1.7680902162626033,
                -0.08065618169892308,
                0.001849569712911947,
                2.3124505590728583
            ]
        },
        {
            "positions": [
                -0.8156304561125706,
                -1.13209760553917,
                1.803371534402461,
                -0.18991489739545053,
                0.06854725040471776,
                2.4317152517708447
            ]
        },
        {
            "positions": [
                -0.8622403189558253,
                -1.1299058699794606,
                1.8386528525423187,
                -0.299173613091978,
                0.13524493109652358,
                2.550979944468831
            ]
        },
        {
            "positions": [
                -0.90885018179908,
                -1.1277141344197514,
                1.8739341706821766,
                -0.4084323287885052,
                0.20194261178832917,
                2.6702446371668174
            ]
        },
        {
            "positions": [
                -0.9554600446423345,
                -1.125522398860042,
                1.9092154888220345,
                -0.5176910444850327,
                0.268640292480135,
                2.7895093298648037
            ]
        },
        {
            "positions": [
                -1.0020699074855892,
                -1.1233306633003328,
                1.9444968069618922,
                -0.6269497601815597,
                0.3353379731719406,
                2.90877402256279
            ]
        },
        {
            "positions": [
                -1.048679770328844,
                -1.1211389277406234,
                1.9797781251017499,
                -0.7362084758780871,
                0.4020356538637466,
                3.0280387152607764
            ]
        },
        {
            "positions": [
                -1.0952896331720985,
                -1.1189471921809142,
                2.015059443241608,
                -0.8454671915746148,
                0.4687333345555522,
                3.1473034079587623
            ]
        }
    ]
}