{
    "goal": {
        "global_pose": {
            "orientation": {
                "w": 0.5084816217422485,
                "x": -0.49083608388900757,
                "y": 0.5182115435600281,
                "z": -0.4816462993621826
            },
            "position": {
                "x": 0.5540239810943604,
                "y": 0.030875300988554955,
                "z": 0.16403168439865112
            }
        },
        "name": "move_to_storage_A"
    },
    "id": "LBKPIECE_move_to_storage_A_56",
    "joint_names": [
        "shoulder_pan_joint",
        "shoulder_lift_joint",
        "elbow_joint",
        "wrist_1_joint",
        "wrist_2_joint",
        "wrist_3_joint"
    ],
    "metrics": {
        "cart_traj_len": 0.3520492842670014,
        "distance_elbow_joint": 0.45025997108688,
        "distance_shoulder_lift_joint": 0.2343196087246313,
        "distance_shoulder_pan_joint": 0.4610386685929467,
        "distance_wrist_1_joint": 0.24360191467659387,
        "distance_wrist_2_joint": 1.0939704450578183,
        "distance_wrist_3_joint": 0.10315635282378244,
        "smoothness": 2.2204460668324854e-16,
        "time": 0.6956256300000001,
        "traj_len": 1.6082123494621758,
        "weighted_distance": 2.0322972288384955
    },
    "planner": "LBKPIECE",
    "start": {
        "state": {
            "elbow_joint": 1.971548259319323,
            "shoulder_lift_joint": -1.1394851275133948,
            "shoulder_pan_joint": 0.1228115487234821,
            "wrist_1_joint": -0.7804723859257726,
            "wrist_2_joint": 0.12958671773740124,
            "wrist_3_joint": -3.192489227718131
        }
    },
    "waypoints": [
        {
            "positions": [
                0.1228115487234821,
                -1.1394851275133948,
                1.971548259319323,
                -0.7804723859257726,
                0.12958671773740124,
                -3.192489227718131
            ]
        },
        {
            "positions": [
                0.056948881781632585,
                -1.1729593573311994,
                2.0358711123317343,
                -0.8152726594510004,
                0.28586820988851813,
                -3.177752605886162
            ]
        },
        {
            "positions": [
                -0.00891378516021693,
                -1.2064335871490037,
                2.100193965344146,
                -0.850072932976228,
                0.442149702039635,
                -3.1630159840541934
            ]
        },
        {
            "positions": [
                -0.07477645210206646,
                -1.2399078169668083,
                2.164516818356557,
                -0.8848732065014557,
                0.5984311941907519,
                -3.1482793622222243
            ]
        },
        {
            "positions": [
                -0.14063911904391596,
                -1.2733820467846126,
                2.2288396713689687,
                -0.9196734800266834,
                0.7547126863418688,
                -3.1335427403902556
            ]
        },
        {
            "positions": [
                -0.20650178598576552,
                -1.3068562766024172,
                2.2931625243813802,
                -0.9544737535519111,
                0.9109941784929858,
                -3.1188061185582865
            ]
        },
        {
            "positions": [
                -0.272364452927615,
                -1.3403305064202216,
                2.3574853773937914,
                -0.9892740270771387,
                1.0672756706441024,
                -3.104069496726318
            ]
        },
        {
            "positions": [
                -0.3382271198694646,
                -1.3738047362380261,
                2.421808230406203,
                -1.0240743006023665,
                1.2235571627952195,
                -3.0893328748943487
            ]
        }
    ]
}{
    "goal": {
        "global_pose": {
            "orientation": {
                "w": 0.5084816217422485,
                "x": -0.49083608388900757,
                "y": 0.5182115435600281,
                "z": -0.4816462993621826
            },
            "position": {
                "x": 0.5540239810943604,
                "y": 0.030875300988554955,
                "z": 0.16403168439865112
            }
        },
        "name": "move_to_storage_A"
    },
    "id": "LBKPIECE_move_to_storage_A_56",
    "joint_names": [
        "shoulder_pan_joint",
        "shoulder_lift_joint",
        "elbow_joint",
        "wrist_1_joint",
        "wrist_2_joint",
        "wrist_3_joint"
    ],
    "metrics": {
        "cart_traj_len": 0.35276316151424203,
        "distance_elbow_joint": 0.44841502879211514,
        "distance_shoulder_lift_joint": 0.2370132367286557,
        "distance_shoulder_pan_joint": 0.4630435568822789,
        "distance_wrist_1_joint": 0.2342387730464579,
        "distance_wrist_2_joint": 1.0915606028654279,
        "distance_wrist_3_joint": 0.09780225240000728,
        "smoothness": 8.881784197001252e-16,
        "time": 0.198264089,
        "traj_len": 1.6037685153147703,
        "weighted_distance": 2.0232343738249514
    },
    "planner": "LBKPIECE",
    "start": {
        "state": {
            "elbow_joint": 1.97154746011099,
            "shoulder_lift_joint": -1.13948474672311,
            "shoulder_pan_joint": 0.12281154466712228,
            "wrist_1_joint": -0.7804688027058302,
            "wrist_2_joint": 0.12958655903071145,
            "wrist_3_joint": 3.0906928834467795
        }
    },
    "waypoints": [
        {
            "positions": [
                0.12281154466712228,
                -1.13948474672311,
                1.97154746011099,
                -0.7804688027058302,
                0.12958655903071145,
                3.0906928834467795
            ]
        },
        {
            "positions": [
                0.056662465112511023,
                -1.1733437805414892,
                2.035606749938435,
                -0.8139314845696098,
                0.28552378801148687,
                3.1046646337896378
            ]
        },
        {
            "positions": [
                -0.009486614442100236,
                -1.2072028143598688,
                2.09966603976588,
                -0.8473941664333896,
                0.44146101699226226,
                3.118636384132496
            ]
        },
        {
            "positions": [
                -0.07563569399671151,
                -1.241061848178248,
                2.163725329593325,
                -0.8808568482971693,
                0.5973982459730377,
                3.1326081344753542
            ]
        },
        {
            "positions": [
                -0.14178477355132274,
                -1.2749208819966276,
                2.22778461942077,
                -0.914319530160949,
                0.7533354749538131,
                3.146579884818212
            ]
        },
        {
            "positions": [
                -0.20793385310593404,
                -1.3087799158150069,
                2.291843909248215,
                -0.9477822120247287,
                0.9092727039345886,
                3.1605516351610703
            ]
        },
        {
            "positions": [
                -0.2740829326605453,
                -1.3426389496333861,
                2.35590319907566,
                -0.9812448938885083,
                1.065209932915364,
                3.1745233855039285
            ]
        },
        {
            "positions": [
                -0.3402320122151566,
                -1.3764979834517657,
                2.419962488903105,
                -1.014707575752288,
                1.2211471618961394,
                3.188495135846787
            ]
        }
    ]
}{
    "goal": {
        "global_pose": {
            "orientation": {
                "w": 0.5084816217422485,
                "x": -0.49083608388900757,
                "y": 0.5182115435600281,
                "z": -0.4816462993621826
            },
            "position": {
                "x": 0.5540239810943604,
                "y": 0.030875300988554955,
                "z": 0.16403168439865112
            }
        },
        "name": "move_to_storage_A"
    },
    "id": "LBKPIECE_move_to_storage_A_56",
    "joint_names": [
        "shoulder_pan_joint",
        "shoulder_lift_joint",
        "elbow_joint",
        "wrist_1_joint",
        "wrist_2_joint",
        "wrist_3_joint"
    ],
    "metrics": {
        "cart_traj_len": 0.35368699052698593,
        "distance_elbow_joint": 0.447924571096026,
        "distance_shoulder_lift_joint": 0.23617325708562986,
        "distance_shoulder_pan_joint": 0.45932939592545896,
        "distance_wrist_1_joint": 0.23425758425375998,
        "distance_wrist_2_joint": 1.114011012499171,
        "distance_wrist_3_joint": 0.08608716805165839,
        "smoothness": 2.2204460668324854e-16,
        "time": 0.460928877,
        "traj_len": 1.605547566692343,
        "weighted_distance": 2.02440754833802
    },
    "planner": "LBKPIECE",
    "start": {
        "state": {
            "elbow_joint": 1.9715472970024885,
            "shoulder_lift_joint": -1.1394870060712896,
            "shoulder_pan_joint": 0.12281152778156021,
            "wrist_1_joint": -0.780463741449964,
            "wrist_2_joint": 0.12958659822042276,
            "wrist_3_joint": 3.090690232415272
        }
    },
    "waypoints": [
        {
            "positions": [
                0.12281152778156021,
                -1.1394870060712896,
                1.9715472970024885,
                -0.780463741449964,
                0.12958659822042276,
                3.090690232415272
            ]
        },
        {
            "positions": [
                0.057193042649351794,
                -1.173226042797808,
                2.035536521444778,
                -0.8139291106290726,
                0.28873102857744715,
                3.1029883992797944
            ]
        },
        {
            "positions": [
                -0.008425442482856621,
                -1.2069650795243267,
                2.0995257458870675,
                -0.8473944798081812,
                0.44787545893447156,
                3.115286566144317
            ]
        },
        {
            "positions": [
                -0.07404392761506504,
                -1.2407041162508452,
                2.163514970329357,
                -0.8808598489872896,
                0.607019889291496,
                3.1275847330088395
            ]
        },
        {
            "positions": [
                -0.13966241274727345,
                -1.2744431529773639,
                2.227504194771646,
                -0.9143252181663982,
                0.7661643196485204,
                3.1398828998733626
            ]
        },
        {
            "positions": [
                -0.20528089787948192,
                -1.3081821897038823,
                2.2914934192139356,
                -0.9477905873455068,
                0.9253087500055448,
                3.152181066737885
            ]
        },
        {
            "positions": [
                -0.27089938301169025,
                -1.3419212264304008,
                2.355482643656225,
                -0.9812559565246154,
                1.0844531803625692,
                3.1644792336024077
            ]
        },
        {
            "positions": [
                -0.3365178681438987,
                -1.3756602631569195,
                2.4194718680985146,
                -1.014721325703724,
                1.2435976107195936,
                3.1767774004669302
            ]
        }
    ]
}