{
    "goal": {
        "global_pose": {
            "orientation": {
                "w": 0.7047431493862688,
                "x": -0.7094548369677653,
                "y": 0.0024358444001904,
                "z": -0.0022348060817251984
            },
            "position": {
                "x": -0.39052492380142206,
                "y": 0.3671506643295288,
                "z": 0.19426114857196808
            }
        },
        "name": "move_to_magneteinheit_D"
    },
    "id": "LBKPIECE_move_to_magneteinheit_D_10",
    "joint_names": [
        "shoulder_pan_joint",
        "shoulder_lift_joint",
        "elbow_joint",
        "wrist_1_joint",
        "wrist_2_joint",
        "wrist_3_joint"
    ],
    "metrics": {
        "cart_traj_len": 4.170490411341915,
        "distance_elbow_joint": 3.106899808719866,
        "distance_shoulder_lift_joint": 1.098780634773811,
        "distance_shoulder_pan_joint": 3.06153874563197,
        "distance_wrist_1_joint": 2.531597578002187,
        "distance_wrist_2_joint": 0.8005035008519175,
        "distance_wrist_3_joint": 2.2632748749243934,
        "smoothness": 0.4752297385337123,
        "time": 1.035520876,
        "traj_len": 3.5864460323423444,
        "weighted_distance": 4.552059530762646
    },
    "planner": "LBKPIECE",
    "start": {
        "state": {
            "elbow_joint": 0.749534889911806,
            "shoulder_lift_joint": -0.6476975780787326,
            "shoulder_pan_joint": -2.711696901376241,
            "wrist_1_joint": -0.07506478083263063,
            "wrist_2_joint": 0.43296659715538205,
            "wrist_3_joint": -3.14703540197715
        }
    },
    "waypoints": [
        {
            "positions": [
                -2.711696901376241,
                -0.6476975780787326,
                0.749534889911806,
                -0.07506478083263063,
                0.43296659715538205,
                -3.14703540197715
            ]
        },
        {
            "positions": [
                -2.7447354686022716,
                -0.7045339244507705,
                0.6388604702403018,
                -0.009316724772555296,
                0.39240010448196033,
                -3.1821710422353506
            ]
        },
        {
            "positions": [
                -2.777774035828302,
                -0.7613702708228083,
                0.5281860505687977,
                0.05643133128752004,
                0.35183361180853867,
                -3.2173066824935517
            ]
        },
        {
            "positions": [
                -2.8108126030543326,
                -0.8182066171948461,
                0.41751163089729365,
                0.12217938734759537,
                0.31126711913511695,
                -3.2524423227517523
            ]
        },
        {
            "positions": [
                -2.699027504547817,
                -0.8409481171070212,
                0.3156596346358893,
                0.045882800692818,
                0.28774657064026665,
                -3.206250387832331
            ]
        },
        {
            "positions": [
                -2.5872424060413017,
                -0.8636896170191963,
                0.2138076383744849,
                -0.030413785961959372,
                0.26422602214541635,
                -3.16005845291291
            ]
        },
        {
            "positions": [
                -2.475457307534786,
                -0.8864311169313714,
                0.11195564211308057,
                -0.10671037261673674,
                0.2407054736505661,
                -3.113866517993489
            ]
        },
        {
            "positions": [
                -2.3636722090282705,
                -0.9091726168435467,
                0.010103645851676168,
                -0.1830069592715141,
                0.2171849251557158,
                -3.0676745830740675
            ]
        },
        {
            "positions": [
                -2.251887110521755,
                -0.9319141167557218,
                -0.09174835040972823,
                -0.2593035459262915,
                0.1936643766608655,
                -3.0214826481546466
            ]
        },
        {
            "positions": [
                -2.140102012015239,
                -0.9546556166678969,
                -0.19360034667113252,
                -0.33560013258106886,
                0.17014382816601523,
                -2.9752907132352253
            ]
        },
        {
            "positions": [
                -2.028316913508724,
                -0.977397116580072,
                -0.2954523429325369,
                -0.41189671923584625,
                0.14662327967116492,
                -2.929098778315804
            ]
        },
        {
            "positions": [
                -1.9165318150022084,
                -1.0001386164922472,
                -0.3973043391939413,
                -0.4881933058906236,
                0.12310273117631465,
                -2.882906843396383
            ]
        },
        {
            "positions": [
                -1.8047467164956927,
                -1.0228801164044223,
                -0.4991563354553456,
                -0.5644898925454009,
                0.09958218268146438,
                -2.836714908476962
            ]
        },
        {
            "positions": [
                -1.6929616179891773,
                -1.0456216163165974,
                -0.60100833171675,
                -0.6407864792001784,
                0.07606163418661405,
                -2.7905229735575405
            ]
        },
        {
            "positions": [
                -1.5811765194826617,
                -1.0683631162287726,
                -0.7028603279781542,
                -0.7170830658549557,
                0.0525410856917638,
                -2.7443310386381192
            ]
        },
        {
            "positions": [
                -1.4693914209761463,
                -1.0911046161409477,
                -0.8047123242395586,
                -0.7933796525097331,
                0.0290205371969135,
                -2.6981391037186984
            ]
        },
        {
            "positions": [
                -1.3576063224696306,
                -1.1138461160531228,
                -0.906564320500963,
                -0.8696762391645104,
                0.0054999887020631966,
                -2.651947168799277
            ]
        },
        {
            "positions": [
                -1.245821223963115,
                -1.136587615965298,
                -1.0084163167623674,
                -0.9459728258192879,
                -0.018020559792787105,
                -2.6057552338798557
            ]
        },
        {
            "positions": [
                -1.1340361254565996,
                -1.159329115877473,
                -1.1102683130237716,
                -1.0222694124740652,
                -0.04154110828763735,
                -2.559563298960435
            ]
        },
        {
            "positions": [
                -1.0222510269500842,
                -1.1820706157896481,
                -1.2121203092851762,
                -1.0985659991288426,
                -0.06506165678248765,
                -2.5133713640410136
            ]
        },
        {
            "positions": [
                -0.9104659284435686,
                -1.2048121157018232,
                -1.3139723055465806,
                -1.17486258578362,
                -0.08858220527733796,
                -2.4671794291215923
            ]
        },
        {
            "positions": [
                -0.7986808299370529,
                -1.2275536156139983,
                -1.4158243018079848,
                -1.2511591724383972,
                -0.1121027537721882,
                -2.4209874942021714
            ]
        },
        {
            "positions": [
                -0.6868957314305377,
                -1.2502951155261735,
                -1.5176762980693892,
                -1.3274557590931746,
                -0.13562330226703856,
                -2.37479555928275
            ]
        },
        {
            "positions": [
                -0.5751106329240221,
                -1.2730366154383488,
                -1.6195282943307938,
                -1.4037523457479522,
                -0.15914385076188886,
                -2.328603624363329
            ]
        },
        {
            "positions": [
                -0.46332553441750646,
                -1.2957781153505237,
                -1.7213802905921978,
                -1.4800489324027293,
                -0.1826643992567391,
                -2.282411689443908
            ]
        },
        {
            "positions": [
                -0.3515404359109908,
                -1.318519615262699,
                -1.8232322868536022,
                -1.5563455190575068,
                -0.20618494775158935,
                -2.2362197545244866
            ]
        },
        {
            "positions": [
                -0.2397553374044752,
                -1.3412611151748741,
                -1.9250842831150066,
                -1.6326421057122842,
                -0.22970549624643966,
                -2.1900278196050653
            ]
        },
        {
            "positions": [
                -0.12797023889796,
                -1.3640026150870492,
                -2.026936279376411,
                -1.7089386923670615,
                -0.25322604474128996,
                -2.1438358846856445
            ]
        },
        {
            "positions": [
                -0.016185140391444364,
                -1.3867441149992243,
                -2.1287882756378154,
                -1.7852352790218389,
                -0.2767465932361403,
                -2.097643949766223
            ]
        },
        {
            "positions": [
                -0.01670809545418784,
                -1.440284790441427,
                -2.167156933736006,
                -1.8476417311370226,
                -0.27252454768081824,
                -2.248834475128717
            ]
        },
        {
            "positions": [
                -0.017231050516931315,
                -1.49382546588363,
                -2.2055255918341965,
                -1.9100481832522065,
                -0.2683025021254961,
                -2.400025000491211
            ]
        },
        {
            "positions": [
                -0.01775400557967479,
                -1.5473661413258328,
                -2.2438942499323873,
                -1.9724546353673902,
                -0.26408045657017404,
                -2.5512155258537046
            ]
        },
        {
            "positions": [
                -0.018276960642418266,
                -1.6009068167680356,
                -2.282262908030578,
                -2.034861087482574,
                -0.25985841101485196,
                -2.7024060512161983
            ]
        },
        {
            "positions": [
                -0.04871792469747209,
                -1.6419960829934932,
                -2.3099382013956147,
                -2.090233456349714,
                -0.23172934229256328,
                -2.8154122863945803
            ]
        },
        {
            "positions": [
                -0.07915888875252591,
                -1.6830853492189508,
                -2.3376134947606517,
                -2.1456058252168537,
                -0.2036002735702746,
                -2.928418521572962
            ]
        },
        {
            "positions": [
                -0.13156980521747985,
                -1.714781781035747,
                -2.3474892067843562,
                -2.1788899238456096,
                -0.19477827817301013,
                -3.0145660262517238
            ]
        },
        {
            "positions": [
                -0.18398072168243376,
                -1.7464782128525436,
                -2.3573649188080603,
                -2.212174022474366,
                -0.18595628277574566,
                -3.100713530930485
            ]
        }
    ]
}