{
    "goal": {
        "global_pose": {
            "orientation": {
                "w": 0.005598929693374612,
                "x": 0.007748599140229565,
                "y": 0.7110244013736278,
                "z": -0.7031023480610252
            },
            "position": {
                "x": 0.1141497679147869,
                "y": -0.7141253447532654,
                "z": 0.3711530566215515
            }
        },
        "name": "move_to_auspresseinheit_B"
    },
    "id": "LBKPIECE_move_to_auspresseinheit_B_2",
    "joint_names": [
        "shoulder_pan_joint",
        "shoulder_lift_joint",
        "elbow_joint",
        "wrist_1_joint",
        "wrist_2_joint",
        "wrist_3_joint"
    ],
    "metrics": {
        "cart_traj_len": 0.5642823652836733,
        "distance_elbow_joint": 0.0651631869358178,
        "distance_shoulder_lift_joint": 0.2932686552225634,
        "distance_shoulder_pan_joint": 0.577524516227786,
        "distance_wrist_1_joint": 0.33420043001701294,
        "distance_wrist_2_joint": 0.9863507944411927,
        "distance_wrist_3_joint": 0.00797100486891944,
        "smoothness": 0.0,
        "time": 0.664951292,
        "traj_len": 1.5048184567293466,
        "weighted_distance": 1.8976226763794053
    },
    "planner": "LBKPIECE",
    "start": {
        "state": {
            "elbow_joint": 2.0193083361928714,
            "shoulder_lift_joint": -1.1220246554650708,
            "shoulder_pan_joint": -1.0952077554168747,
            "wrist_1_joint": -0.8559753972642168,
            "wrist_2_joint": 0.4759566250798843,
            "wrist_3_joint": -3.1240929996934557
        }
    },
    "waypoints": [
        {
            "positions": [
                -1.0952077554168747,
                -1.1220246554650708,
                2.0193083361928714,
                -0.8559753972642168,
                0.4759566250798843,
                -3.1240929996934557
            ]
        },
        {
            "positions": [
                -1.191461841454839,
                -1.1709027646688313,
                2.008447805036902,
                -0.8002753255947146,
                0.6403484241534164,
                -3.122764498881969
            ]
        },
        {
            "positions": [
                -1.2877159274928034,
                -1.219780873872592,
                1.9975872738809322,
                -0.7445752539252125,
                0.8047402232269485,
                -3.1214359980704827
            ]
        },
        {
            "positions": [
                -1.3839700135307678,
                -1.2686589830763526,
                1.9867267427249624,
                -0.6888751822557103,
                0.9691320223004807,
                -3.1201074972589957
            ]
        },
        {
            "positions": [
                -1.480224099568732,
                -1.317537092280113,
                1.975866211568993,
                -0.6331751105862082,
                1.1335238213740126,
                -3.1187789964475092
            ]
        },
        {
            "positions": [
                -1.5764781856066963,
                -1.3664152014838735,
                1.9650056804130234,
                -0.577475038916706,
                1.2979156204475448,
                -3.1174504956360227
            ]
        },
        {
            "positions": [
                -1.6727322716446607,
                -1.4152933106876342,
                1.9541451492570536,
                -0.5217749672472038,
                1.462307419521077,
                -3.1161219948245362
            ]
        }
    ]
}