{
    "goal": {
        "global_pose": {
            "orientation": {
                "w": 0.5084816262002911,
                "x": -0.4908360881923452,
                "y": 0.5182115481033761,
                "z": -0.48164630358495003
            },
            "position": {
                "x": 0.5540239810943604,
                "y": -0.46912469901144505,
                "z": 0.16403168439865112
            }
        },
        "name": "move_to_storage_B"
    },
    "id": "LBKPIECE_move_to_storage_B_23",
    "joint_names": [
        "shoulder_pan_joint",
        "shoulder_lift_joint",
        "elbow_joint",
        "wrist_1_joint",
        "wrist_2_joint",
        "wrist_3_joint"
    ],
    "metrics": {
        "cart_traj_len": 1.485297208122886,
        "distance_elbow_joint": 0.622980726615546,
        "distance_shoulder_lift_joint": 0.46025596627128107,
        "distance_shoulder_pan_joint": 1.499681149451296,
        "distance_wrist_1_joint": 3.0041503687652944,
        "distance_wrist_2_joint": 2.7043208242044257,
        "distance_wrist_3_joint": 3.9822169336714763,
        "smoothness": 0.277654284156538,
        "time": 0.26646609,
        "traj_len": 3.503370658234626,
        "weighted_distance": 5.093771788104763
    },
    "planner": "LBKPIECE",
    "start": {
        "state": {
            "elbow_joint": 1.664937868594044,
            "shoulder_lift_joint": -0.661644460510453,
            "shoulder_pan_joint": -0.9139846352900073,
            "wrist_1_joint": 2.146753192139373,
            "wrist_2_joint": -2.2341966793290973,
            "wrist_3_joint": 0.005466555786416001
        }
    },
    "waypoints": [
        {
            "positions": [
                -0.9139846352900073,
                -0.661644460510453,
                1.664937868594044,
                2.146753192139373,
                -2.2341966793290973,
                0.005466555786416001
            ]
        },
        {
            "positions": [
                -0.8315666609056973,
                -0.7166071154092055,
                1.6481617234125652,
                2.0387657336916347,
                -2.1711784482982743,
                -0.046858188912581235
            ]
        },
        {
            "positions": [
                -0.7491486865213872,
                -0.771569770307958,
                1.6313855782310864,
                1.9307782752438962,
                -2.1081602172674514,
                -0.09918293361157847
            ]
        },
        {
            "positions": [
                -0.6667307121370772,
                -0.8265324252067104,
                1.6146094330496077,
                1.822790816796158,
                -2.0451419862366285,
                -0.1515076783105757
            ]
        },
        {
            "positions": [
                -0.5843127377527673,
                -0.881495080105463,
                1.597833287868129,
                1.7148033583484195,
                -1.9821237552058053,
                -0.20383242300957294
            ]
        },
        {
            "positions": [
                -0.5018947633684572,
                -0.9364577350042155,
                1.5810571426866502,
                1.606815899900681,
                -1.9191055241749824,
                -0.25615716770857017
            ]
        },
        {
            "positions": [
                -0.4194767889841472,
                -0.9914203899029679,
                1.5642809975051715,
                1.4988284414529427,
                -1.8560872931441592,
                -0.3084819124075674
            ]
        },
        {
            "positions": [
                -0.3370588145998371,
                -1.0463830448017204,
                1.5475048523236927,
                1.3908409830052042,
                -1.7930690621133363,
                -0.3608066571065646
            ]
        },
        {
            "positions": [
                -0.25464084021552713,
                -1.101345699700473,
                1.530728707142214,
                1.2828535245574657,
                -1.7300508310825133,
                -0.41313140180556185
            ]
        },
        {
            "positions": [
                -0.28965489664789446,
                -1.102202146662192,
                1.5510941890240355,
                1.193676412008158,
                -1.6383768737509365,
                -0.2646472778022494
            ]
        },
        {
            "positions": [
                -0.3246689530802618,
                -1.1030585936239112,
                1.571459670905857,
                1.1044992994588503,
                -1.54670291641936,
                -0.11616315379893694
            ]
        },
        {
            "positions": [
                -0.3596830095126291,
                -1.1039150405856306,
                1.5918251527876786,
                1.0153221869095423,
                -1.4550289590877832,
                0.03232097020437552
            ]
        },
        {
            "positions": [
                -0.39469706594499643,
                -1.1047714875473498,
                1.6121906346695,
                0.9261450743602346,
                -1.3633550017562066,
                0.18080509420768798
            ]
        },
        {
            "positions": [
                -0.4297111223773638,
                -1.105627934509069,
                1.6325561165513216,
                0.8369679618109269,
                -1.2716810444246298,
                0.32928921821100043
            ]
        },
        {
            "positions": [
                -0.46472517880973113,
                -1.1064843814707883,
                1.6529215984331431,
                0.7477908492616191,
                -1.180007087093053,
                0.4777733422143129
            ]
        },
        {
            "positions": [
                -0.4997392352420985,
                -1.1073408284325075,
                1.6732870803149646,
                0.6586137367123113,
                -1.0883331297614762,
                0.6262574662176255
            ]
        },
        {
            "positions": [
                -0.5347532916744657,
                -1.1081972753942266,
                1.693652562196786,
                0.5694366241630036,
                -0.9966591724298997,
                0.7747415902209378
            ]
        },
        {
            "positions": [
                -0.5697673481068332,
                -1.1090537223559458,
                1.7140180440786075,
                0.48025951161369584,
                -0.9049852150983229,
                0.9232257142242501
            ]
        },
        {
            "positions": [
                -0.6047814045392005,
                -1.109910169317665,
                1.734383525960429,
                0.391082399064388,
                -0.8133112577667461,
                1.0717098382275627
            ]
        },
        {
            "positions": [
                -0.6397954609715678,
                -1.1107666162793843,
                1.7547490078422505,
                0.3019052865150803,
                -0.7216373004351695,
                1.220193962230875
            ]
        },
        {
            "positions": [
                -0.6748095174039351,
                -1.1116230632411035,
                1.775114489724072,
                0.21272817396577248,
                -0.6299633431035927,
                1.3686780862341876
            ]
        },
        {
            "positions": [
                -0.7098235738363025,
                -1.1124795102028227,
                1.7954799716058936,
                0.12355106141646477,
                -0.5382893857720161,
                1.5171622102375
            ]
        },
        {
            "positions": [
                -0.7448376302686699,
                -1.113335957164542,
                1.815845453487715,
                0.034373948867156834,
                -0.4466154284404391,
                1.6656463342408128
            ]
        },
        {
            "positions": [
                -0.7798516867010371,
                -1.1141924041262612,
                1.8362109353695366,
                -0.05480316368215088,
                -0.35494147110886254,
                1.814130458244125
            ]
        },
        {
            "positions": [
                -0.8148657431334044,
                -1.1150488510879804,
                1.856576417251358,
                -0.1439802762314586,
                -0.26326751377728597,
                1.9626145822474375
            ]
        },
        {
            "positions": [
                -0.8498797995657719,
                -1.1159052980496995,
                1.8769418991331797,
                -0.23315738878076653,
                -0.17159355644570895,
                2.1110987062507505
            ]
        },
        {
            "positions": [
                -0.8848938559981392,
                -1.1167617450114187,
                1.897307381015001,
                -0.322334501330074,
                -0.07991959911413238,
                2.259582830254062
            ]
        },
        {
            "positions": [
                -0.9199079124305064,
                -1.117618191973138,
                1.9176728628968225,
                -0.41151161387938173,
                0.011754358217444194,
                2.4080669542573743
            ]
        },
        {
            "positions": [
                -0.9549219688628738,
                -1.1184746389348572,
                1.938038344778644,
                -0.5006887264286897,
                0.10342831554902121,
                2.5565510782606875
            ]
        },
        {
            "positions": [
                -0.9899360252952412,
                -1.1193310858965764,
                1.9584038266604655,
                -0.5898658389779974,
                0.19510227288059778,
                2.705035202264
            ]
        },
        {
            "positions": [
                -1.0249500817276085,
                -1.1201875328582958,
                1.978769308542287,
                -0.6790429515273051,
                0.28677623021217435,
                2.853519326267312
            ]
        },
        {
            "positions": [
                -1.0599641381599758,
                -1.121043979820015,
                1.9991347904241086,
                -0.7682200640766133,
                0.37845018754375115,
                3.0020034502706245
            ]
        },
        {
            "positions": [
                -1.0949781945923431,
                -1.121900426781734,
                2.01950027230593,
                -0.8573971766259209,
                0.4701241448753279,
                3.150487574273937
            ]
        }
    ]
}