{
    "goal": {
        "global_pose": {
            "orientation": {
                "w": 0.7047431468963623,
                "x": -0.7094548344612122,
                "y": 0.0024358443915843964,
                "z": -0.0022348060738295317
            },
            "position": {
                "x": 0.6094750761985779,
                "y": 0.3671506643295288,
                "z": 0.19426114857196808
            }
        },
        "name": "move_to_magneteinheit_A"
    },
    "id": "LBKPIECE_move_to_magneteinheit_A_3",
    "joint_names": [
        "shoulder_pan_joint",
        "shoulder_lift_joint",
        "elbow_joint",
        "wrist_1_joint",
        "wrist_2_joint",
        "wrist_3_joint"
    ],
    "metrics": {
        "cart_traj_len": 3.288412441957375,
        "distance_elbow_joint": 3.9087337423319317,
        "distance_shoulder_lift_joint": 0.7694677397691196,
        "distance_shoulder_pan_joint": 2.8189356837086055,
        "distance_wrist_1_joint": 3.454264335253454,
        "distance_wrist_2_joint": 1.6220859226872282,
        "distance_wrist_3_joint": 3.304699926890988,
        "smoothness": 0.14501249401906333,
        "time": 0.232594051,
        "traj_len": 3.9847443268848908,
        "weighted_distance": 5.250136899392623
    },
    "planner": "LBKPIECE",
    "start": {
        "state": {
            "elbow_joint": -1.9196185241190666,
            "shoulder_lift_joint": -1.2443396400964142,
            "shoulder_pan_joint": 2.6996025414629847,
            "wrist_1_joint": -1.5485510000780065,
            "wrist_2_joint": -1.5709468930060704,
            "wrist_3_joint": 0.4420197071253992
        }
    },
    "waypoints": [
        {
            "positions": [
                2.6996025414629847,
                -1.2443396400964142,
                -1.9196185241190666,
                -1.5485510000780065,
                -1.5709468930060704,
                0.4420197071253992
            ]
        },
        {
            "positions": [
                2.594626151649925,
                -1.2506140201210023,
                -1.8129840885389918,
                -1.5155978165414936,
                -1.5115038775521947,
                0.3643315191668214
            ]
        },
        {
            "positions": [
                2.489649761836865,
                -1.2568884001455902,
                -1.7063496529589168,
                -1.4826446330049805,
                -1.4520608620983189,
                0.2866433312082436
            ]
        },
        {
            "positions": [
                2.3846733720238054,
                -1.2631627801701781,
                -1.599715217378842,
                -1.4496914494684676,
                -1.3926178466444432,
                0.20895514324966574
            ]
        },
        {
            "positions": [
                2.2796969822107456,
                -1.2694371601947663,
                -1.493080781798767,
                -1.4167382659319547,
                -1.3331748311905676,
                0.13126695529108795
            ]
        },
        {
            "positions": [
                2.174720592397686,
                -1.2757115402193544,
                -1.3864463462186922,
                -1.3837850823954416,
                -1.273731815736692,
                0.0535787673325101
            ]
        },
        {
            "positions": [
                2.069744202584626,
                -1.2819859202439423,
                -1.2798119106386174,
                -1.3508318988589287,
                -1.2142888002828163,
                -0.02410942062606769
            ]
        },
        {
            "positions": [
                1.9647678127715662,
                -1.2882603002685302,
                -1.1731774750585424,
                -1.3178787153224159,
                -1.1548457848289404,
                -0.10179760858464548
            ]
        },
        {
            "positions": [
                1.8597914229585064,
                -1.2945346802931184,
                -1.0665430394784676,
                -1.2849255317859027,
                -1.0954027693750648,
                -0.17948579654322327
            ]
        },
        {
            "positions": [
                1.7548150331454466,
                -1.3008090603177065,
                -0.9599086038983926,
                -1.2519723482493899,
                -1.035959753921189,
                -0.2571739845018012
            ]
        },
        {
            "positions": [
                1.6498386433323868,
                -1.3070834403422944,
                -0.8532741683183178,
                -1.219019164712877,
                -0.9765167384673133,
                -0.33486217246037897
            ]
        },
        {
            "positions": [
                1.544862253519327,
                -1.3133578203668823,
                -0.746639732738243,
                -1.186065981176364,
                -0.9170737230134377,
                -0.41255036041895676
            ]
        },
        {
            "positions": [
                1.4398858637062673,
                -1.3196322003914704,
                -0.640005297158168,
                -1.153112797639851,
                -0.8576307075595619,
                -0.49023854837753456
            ]
        },
        {
            "positions": [
                1.3349094738932075,
                -1.3259065804160586,
                -0.5333708615780932,
                -1.120159614103338,
                -0.7981876921056863,
                -0.5679267363361123
            ]
        },
        {
            "positions": [
                1.2299330840801477,
                -1.3321809604406465,
                -0.4267364259980182,
                -1.087206430566825,
                -0.7387446766518105,
                -0.6456149242946901
            ]
        },
        {
            "positions": [
                1.1249566942670879,
                -1.3384553404652344,
                -0.3201019904179434,
                -1.054253247030312,
                -0.6793016611979348,
                -0.7233031122532679
            ]
        },
        {
            "positions": [
                1.019980304454028,
                -1.3447297204898225,
                -0.2134675548378686,
                -1.0213000634937992,
                -0.6198586457440591,
                -0.8009913002118457
            ]
        },
        {
            "positions": [
                0.9150039146409683,
                -1.3510041005144107,
                -0.10683311925779337,
                -0.9883468799572862,
                -0.5604156302901835,
                -0.8786794881704237
            ]
        },
        {
            "positions": [
                0.8100275248279085,
                -1.3572784805389986,
                -0.00019868367771858075,
                -0.9553936964207733,
                -0.5009726148363078,
                -0.9563676761290015
            ]
        },
        {
            "positions": [
                0.7050511350148487,
                -1.3635528605635865,
                0.10643575190235621,
                -0.9224405128842603,
                -0.44152959938243197,
                -1.0340558640875792
            ]
        },
        {
            "positions": [
                0.6000747452017889,
                -1.3698272405881746,
                0.213070187482431,
                -0.8894873293477473,
                -0.3820865839285563,
                -1.111744052046157
            ]
        },
        {
            "positions": [
                0.49509835538872915,
                -1.3761016206127628,
                0.3197046230625058,
                -0.8565341458112344,
                -0.3226435684746807,
                -1.1894322400047348
            ]
        },
        {
            "positions": [
                0.39012196557566936,
                -1.3823760006373507,
                0.4263390586425806,
                -0.8235809622747216,
                -0.26320055302080503,
                -1.2671204279633126
            ]
        },
        {
            "positions": [
                0.28514557576260957,
                -1.3886503806619386,
                0.5329734942226558,
                -0.7906277787382084,
                -0.20375753756692916,
                -1.3448086159218904
            ]
        },
        {
            "positions": [
                0.18016918594954978,
                -1.3949247606865267,
                0.6396079298027306,
                -0.7576745952016956,
                -0.1443145221130535,
                -1.4224968038804682
            ]
        },
        {
            "positions": [
                0.15784595930037143,
                -1.3691748167681732,
                0.7305221367764236,
                -0.6096395722962076,
                -0.13006141338477187,
                -1.3654070732006138
            ]
        },
        {
            "positions": [
                0.13552273265119308,
                -1.3434248728498195,
                0.8214363437501168,
                -0.46160454939071965,
                -0.11580830465649025,
                -1.3083173425207595
            ]
        },
        {
            "positions": [
                0.11319950600201471,
                -1.317674928931466,
                0.9123505507238098,
                -0.3135695264852317,
                -0.10155519592820861,
                -1.2512276118409054
            ]
        },
        {
            "positions": [
                0.09087627935283635,
                -1.2919249850131123,
                1.003264757697503,
                -0.16553450357974375,
                -0.08730208719992698,
                -1.194137881161051
            ]
        },
        {
            "positions": [
                0.068553052703658,
                -1.2661750410947588,
                1.094178964671196,
                -0.01749948067425583,
                -0.07304897847164535,
                -1.1370481504811967
            ]
        },
        {
            "positions": [
                0.05065086564508553,
                -1.2388129269056467,
                1.1814413320010315,
                0.13122488681186525,
                -0.06191533949214743,
                -1.0769459204331273
            ]
        },
        {
            "positions": [
                0.032748678586513064,
                -1.2114508127165347,
                1.2687036993308671,
                0.27994925429798634,
                -0.050781700512649505,
                -1.0168436903850577
            ]
        },
        {
            "positions": [
                0.027505349879142008,
                -1.174939928298812,
                1.3552027252936454,
                0.4509116856881319,
                -0.048780465315178406,
                -0.9384459432030727
            ]
        },
        {
            "positions": [
                0.02226202117177095,
                -1.1384290438810896,
                1.4417017512564236,
                0.6218741170782776,
                -0.0467792301177073,
                -0.8600481960210877
            ]
        },
        {
            "positions": [
                0.017018692464399892,
                -1.101918159463367,
                1.5282007772192019,
                0.7928365484684231,
                -0.044777994920236194,
                -0.7816504488391027
            ]
        },
        {
            "positions": [
                0.011775363757028836,
                -1.0654072750456445,
                1.6146998031819804,
                0.9637989798585687,
                -0.042776759722765095,
                -0.7032527016571177
            ]
        },
        {
            "positions": [
                0.006532035049657776,
                -1.0288963906279218,
                1.7011988291447586,
                1.1347614112487143,
                -0.040775524525293996,
                -0.6248549544751326
            ]
        },
        {
            "positions": [
                0.0012887063422867204,
                -0.9923855062101993,
                1.7876978551075369,
                1.30572384263886,
                -0.03877428932782289,
                -0.5464572072931476
            ]
        },
        {
            "positions": [
                0.025413076059868266,
                -0.9491168332696633,
                1.8279813277286026,
                1.4257217411461776,
                -0.05675695312961905,
                -0.43362844343358775
            ]
        },
        {
            "positions": [
                0.04953744577744981,
                -0.9058481603291274,
                1.8682648003496682,
                1.545719639653495,
                -0.07473961693141522,
                -0.3207996795740279
            ]
        },
        {
            "positions": [
                0.07366181549503134,
                -0.8625794873885915,
                1.908548272970734,
                1.6657175381608125,
                -0.09272228073321137,
                -0.20797091571446807
            ]
        },
        {
            "positions": [
                0.0977861852126129,
                -0.8193108144480555,
                1.9488317455917996,
                1.7857154366681298,
                -0.11070494453500754,
                -0.09514215185490821
            ]
        },
        {
            "positions": [
                0.12191055493019444,
                -0.7760421415075196,
                1.9891152182128653,
                1.9057133351754474,
                -0.1286876083368037,
                0.01768661200465158
            ]
        }
    ]
}