{
    "goal": {
        "global_pose": {
            "orientation": {
                "w": 0.5084816217422485,
                "x": -0.49083608388900757,
                "y": 0.5182115435600281,
                "z": -0.4816462993621826
            },
            "position": {
                "x": 0.5540239810943604,
                "y": 0.030875300988554955,
                "z": 0.16403168439865112
            }
        },
        "name": "move_to_storage_A"
    },
    "id": "LBKPIECE_move_to_storage_A_83",
    "joint_names": [
        "shoulder_pan_joint",
        "shoulder_lift_joint",
        "elbow_joint",
        "wrist_1_joint",
        "wrist_2_joint",
        "wrist_3_joint"
    ],
    "metrics": {
        "cart_traj_len": 0.3535390368258835,
        "distance_elbow_joint": 0.44866534267383007,
        "distance_shoulder_lift_joint": 0.23403324221234323,
        "distance_shoulder_pan_joint": 0.4620511813747596,
        "distance_wrist_1_joint": 0.23971089440837134,
        "distance_wrist_2_joint": 1.100270823124594,
        "distance_wrist_3_joint": 0.09748629636390671,
        "smoothness": 4.440892133664971e-16,
        "time": 0.36060604100000004,
        "traj_len": 1.606928056932794,
        "weighted_distance": 2.029081587915721
    },
    "planner": "LBKPIECE",
    "start": {
        "state": {
            "elbow_joint": 1.971548259319323,
            "shoulder_lift_joint": -1.1394851275133948,
            "shoulder_pan_joint": 0.1228115487234821,
            "wrist_1_joint": -0.7804723859257726,
            "wrist_2_joint": 0.12958671773740124,
            "wrist_3_joint": -3.192489227718131
        }
    },
    "waypoints": [
        {
            "positions": [
                0.1228115487234821,
                -1.1394851275133948,
                1.971548259319323,
                -0.7804723859257726,
                0.12958671773740124,
                -3.192489227718131
            ]
        },
        {
            "positions": [
                0.05680423709851645,
                -1.1729184478294439,
                2.035643308272727,
                -0.8147167994126828,
                0.28676826389805754,
                -3.1785626139518586
            ]
        },
        {
            "positions": [
                -0.009203074526449195,
                -1.206351768145493,
                2.0997383572261317,
                -0.848961212899593,
                0.4439498100587138,
                -3.1646360001855864
            ]
        },
        {
            "positions": [
                -0.07521038615141484,
                -1.239785088461542,
                2.1638334061795357,
                -0.8832056263865031,
                0.6011313562193701,
                -3.150709386419314
            ]
        },
        {
            "positions": [
                -0.1412176977763805,
                -1.2732184087775908,
                2.22792845513294,
                -0.9174500398734133,
                0.7583129023800264,
                -3.1367827726530417
            ]
        },
        {
            "positions": [
                -0.2072250094013462,
                -1.30665172909364,
                2.2920235040863446,
                -0.9516944533603235,
                0.9154944485406826,
                -3.122856158886769
            ]
        },
        {
            "positions": [
                -0.2732323210263118,
                -1.340085049409689,
                2.3561185530397486,
                -0.9859388668472338,
                1.072675994701339,
                -3.108929545120497
            ]
        },
        {
            "positions": [
                -0.3392396326512775,
                -1.373518369725738,
                2.420213601993153,
                -1.020183280334144,
                1.2298575408619952,
                -3.0950029313542244
            ]
        }
    ]
}{
    "goal": {
        "global_pose": {
            "orientation": {
                "w": 0.5084816217422485,
                "x": -0.49083608388900757,
                "y": 0.5182115435600281,
                "z": -0.4816462993621826
            },
            "position": {
                "x": 0.5540239810943604,
                "y": 0.030875300988554955,
                "z": 0.16403168439865112
            }
        },
        "name": "move_to_storage_A"
    },
    "id": "LBKPIECE_move_to_storage_A_83",
    "joint_names": [
        "shoulder_pan_joint",
        "shoulder_lift_joint",
        "elbow_joint",
        "wrist_1_joint",
        "wrist_2_joint",
        "wrist_3_joint"
    ],
    "metrics": {
        "cart_traj_len": 0.3522755496137187,
        "distance_elbow_joint": 0.4488220154138758,
        "distance_shoulder_lift_joint": 0.23388031057484637,
        "distance_shoulder_pan_joint": 0.460461376653542,
        "distance_wrist_1_joint": 0.24060047948556007,
        "distance_wrist_2_joint": 1.097574736480839,
        "distance_wrist_3_joint": 0.09225723172960532,
        "smoothness": 1.3322676295501878e-15,
        "time": 0.30678757300000004,
        "traj_len": 1.6042431705755424,
        "weighted_distance": 2.0239283163600135
    },
    "planner": "LBKPIECE",
    "start": {
        "state": {
            "elbow_joint": 1.97154746011099,
            "shoulder_lift_joint": -1.13948474672311,
            "shoulder_pan_joint": 0.12281154466712228,
            "wrist_1_joint": -0.7804688027058302,
            "wrist_2_joint": 0.12958655903071145,
            "wrist_3_joint": 3.0906928834467795
        }
    },
    "waypoints": [
        {
            "positions": [
                0.12281154466712228,
                -1.13948474672311,
                1.97154746011099,
                -0.7804688027058302,
                0.12958655903071145,
                3.0906928834467795
            ]
        },
        {
            "positions": [
                0.057031348002330576,
                -1.1728962196623738,
                2.0356648908844006,
                -0.8148402997751959,
                0.28638294995654556,
                3.1038724879795803
            ]
        },
        {
            "positions": [
                -0.008748848662461131,
                -1.2063076926016374,
                2.0997823216578118,
                -0.8492117968445616,
                0.44317934088237976,
                3.117052092512381
            ]
        },
        {
            "positions": [
                -0.07452904532725284,
                -1.2397191655409012,
                2.1638997524312225,
                -0.8835832939139273,
                0.5999757318082138,
                3.130231697045182
            ]
        },
        {
            "positions": [
                -0.14030924199204453,
                -1.273130638480165,
                2.228017183204633,
                -0.917954790983293,
                0.756772122734048,
                3.1434113015779825
            ]
        },
        {
            "positions": [
                -0.20608943865683627,
                -1.3065421114194289,
                2.2921346139780443,
                -0.9523262880526588,
                0.9135685136598822,
                3.1565909061107833
            ]
        },
        {
            "positions": [
                -0.27186963532162794,
                -1.3399535843586925,
                2.356252044751455,
                -0.9866977851220246,
                1.0703649045857162,
                3.169770510643584
            ]
        },
        {
            "positions": [
                -0.3376498319864197,
                -1.3733650572979563,
                2.4203694755248657,
                -1.0210692821913903,
                1.2271612955115505,
                3.182950115176385
            ]
        }
    ]
}{
    "goal": {
        "global_pose": {
            "orientation": {
                "w": 0.5084816217422485,
                "x": -0.49083608388900757,
                "y": 0.5182115435600281,
                "z": -0.4816462993621826
            },
            "position": {
                "x": 0.5540239810943604,
                "y": 0.030875300988554955,
                "z": 0.16403168439865112
            }
        },
        "name": "move_to_storage_A"
    },
    "id": "LBKPIECE_move_to_storage_A_83",
    "joint_names": [
        "shoulder_pan_joint",
        "shoulder_lift_joint",
        "elbow_joint",
        "wrist_1_joint",
        "wrist_2_joint",
        "wrist_3_joint"
    ],
    "metrics": {
        "cart_traj_len": 0.3534775207874929,
        "distance_elbow_joint": 0.4490951017226683,
        "distance_shoulder_lift_joint": 0.23559912511681325,
        "distance_shoulder_pan_joint": 0.46286407880538816,
        "distance_wrist_1_joint": 0.23568757152472952,
        "distance_wrist_2_joint": 1.0974651581078319,
        "distance_wrist_3_joint": 0.08921194247904474,
        "smoothness": 0.0,
        "time": 0.43790503799999997,
        "traj_len": 1.603097931430415,
        "weighted_distance": 2.020272157989395
    },
    "planner": "LBKPIECE",
    "start": {
        "state": {
            "elbow_joint": 1.9715472970024885,
            "shoulder_lift_joint": -1.1394870060712896,
            "shoulder_pan_joint": 0.12281152778156021,
            "wrist_1_joint": -0.780463741449964,
            "wrist_2_joint": 0.12958659822042276,
            "wrist_3_joint": 3.090690232415272
        }
    },
    "waypoints": [
        {
            "positions": [
                0.12281152778156021,
                -1.1394870060712896,
                1.9715472970024885,
                -0.780463741449964,
                0.12958659822042276,
                3.090690232415272
            ]
        },
        {
            "positions": [
                0.05668808795221905,
                -1.17314402394512,
                2.0357037401057267,
                -0.8141333945249254,
                0.2863673350929702,
                3.1034347956265638
            ]
        },
        {
            "positions": [
                -0.009435351877122106,
                -1.2068010418189505,
                2.0998601832089654,
                -0.8478030475998867,
                0.44314807196551753,
                3.116179358837856
            ]
        },
        {
            "positions": [
                -0.07555879170646326,
                -1.240458059692781,
                2.1640166263122036,
                -0.8814727006748481,
                0.599928808838065,
                3.128923922049148
            ]
        },
        {
            "positions": [
                -0.14168223153580442,
                -1.2741150775666115,
                2.228173069415442,
                -0.9151423537498095,
                0.7567095457106123,
                3.1416684852604404
            ]
        },
        {
            "positions": [
                -0.20780567136514563,
                -1.307772095440442,
                2.2923295125186804,
                -0.9488120068247707,
                0.9134902825831598,
                3.1544130484717323
            ]
        },
        {
            "positions": [
                -0.2739291111944867,
                -1.3414291133142724,
                2.3564859556219186,
                -0.9824816598997321,
                1.0702710194557072,
                3.1671576116830247
            ]
        },
        {
            "positions": [
                -0.3400525510238279,
                -1.3750861311881029,
                2.420642398725157,
                -1.0161513129746935,
                1.2270517563282546,
                3.1799021748943166
            ]
        }
    ]
}