{
    "goal": {
        "global_pose": {
            "orientation": {
                "w": 0.5084816262002911,
                "x": -0.4908360881923452,
                "y": 0.5182115481033761,
                "z": -0.48164630358495003
            },
            "position": {
                "x": 0.5540239810943604,
                "y": -0.46912469901144505,
                "z": 0.16403168439865112
            }
        },
        "name": "move_to_storage_B"
    },
    "id": "LBKPIECE_move_to_storage_B_110",
    "joint_names": [
        "shoulder_pan_joint",
        "shoulder_lift_joint",
        "elbow_joint",
        "wrist_1_joint",
        "wrist_2_joint",
        "wrist_3_joint"
    ],
    "metrics": {
        "cart_traj_len": 0.9859950961726396,
        "distance_elbow_joint": 1.2392825938837633,
        "distance_shoulder_lift_joint": 0.458430660338244,
        "distance_shoulder_pan_joint": 0.6250851682125514,
        "distance_wrist_1_joint": 2.983438515598896,
        "distance_wrist_2_joint": 2.6992649315407986,
        "distance_wrist_3_joint": 3.166655880992505,
        "smoothness": 0.36169966280224486,
        "time": 0.386891848,
        "traj_len": 3.3424777860992227,
        "weighted_distance": 4.815409947210253
    },
    "planner": "LBKPIECE",
    "start": {
        "state": {
            "elbow_joint": 1.664937868594044,
            "shoulder_lift_joint": -0.661644460510453,
            "shoulder_pan_joint": -0.9139846352900073,
            "wrist_1_joint": 2.146753192139373,
            "wrist_2_joint": -2.2341966793290973,
            "wrist_3_joint": 0.005466555786416001
        }
    },
    "waypoints": [
        {
            "positions": [
                -0.9139846352900073,
                -0.661644460510453,
                1.664937868594044,
                2.146753192139373,
                -2.2341966793290973,
                0.005466555786416001
            ]
        },
        {
            "positions": [
                -0.8676693731307491,
                -0.7124590266301172,
                1.7057902428826388,
                2.1316191116796475,
                -2.1925779961653853,
                -0.0030597530206053296
            ]
        },
        {
            "positions": [
                -0.8426413919708932,
                -0.7362005178700536,
                1.642168382953645,
                2.009559754640854,
                -2.101347161391159,
                0.011850286639701125
            ]
        },
        {
            "positions": [
                -0.8176134108110373,
                -0.7599420091099901,
                1.5785465230246514,
                1.8875003976020606,
                -2.010116326616933,
                0.026760326300007582
            ]
        },
        {
            "positions": [
                -0.7925854296511814,
                -0.7836835003499265,
                1.5149246630956574,
                1.765441040563267,
                -1.9188854918427072,
                0.04167036596031404
            ]
        },
        {
            "positions": [
                -0.7675574484913256,
                -0.8074249915898629,
                1.4513028031666637,
                1.6433816835244737,
                -1.827654657068481,
                0.05658040562062049
            ]
        },
        {
            "positions": [
                -0.7425294673314696,
                -0.8311664828297993,
                1.3876809432376698,
                1.52132232648568,
                -1.7364238222942552,
                0.07149044528092695
            ]
        },
        {
            "positions": [
                -0.7175014861716138,
                -0.8549079740697358,
                1.324059083308676,
                1.3992629694468868,
                -1.645192987520029,
                0.0864004849412334
            ]
        },
        {
            "positions": [
                -0.6924735050117579,
                -0.8786494653096723,
                1.2604372233796823,
                1.2772036124080932,
                -1.553962152745803,
                0.10131052460153986
            ]
        },
        {
            "positions": [
                -0.710817779463317,
                -0.8896233587432643,
                1.2946680052020556,
                1.181117751686838,
                -1.4621880434295529,
                0.2401177652635098
            ]
        },
        {
            "positions": [
                -0.7291620539148762,
                -0.9005972521768563,
                1.3288987870244289,
                1.0850318909655827,
                -1.3704139341133026,
                0.37892500592547973
            ]
        },
        {
            "positions": [
                -0.7475063283664354,
                -0.9115711456104484,
                1.3631295688468021,
                0.9889460302443276,
                -1.2786398247970525,
                0.5177322465874497
            ]
        },
        {
            "positions": [
                -0.7658506028179946,
                -0.9225450390440404,
                1.3973603506691754,
                0.8928601695230722,
                -1.1868657154808022,
                0.6565394872494197
            ]
        },
        {
            "positions": [
                -0.7841948772695537,
                -0.9335189324776324,
                1.4315911324915487,
                0.7967743088018171,
                -1.0950916061645521,
                0.7953467279113895
            ]
        },
        {
            "positions": [
                -0.8025391517211129,
                -0.9444928259112244,
                1.465821914313922,
                0.7006884480805619,
                -1.003317496848302,
                0.9341539685733594
            ]
        },
        {
            "positions": [
                -0.8208834261726721,
                -0.9554667193448165,
                1.5000526961362952,
                0.6046025873593066,
                -0.9115433875320519,
                1.0729612092353293
            ]
        },
        {
            "positions": [
                -0.8392277006242314,
                -0.9664406127784085,
                1.5342834779586685,
                0.5085167266380514,
                -0.8197692782158017,
                1.2117684498972994
            ]
        },
        {
            "positions": [
                -0.8575719750757905,
                -0.9774145062120005,
                1.5685142597810418,
                0.412430865916796,
                -0.7279951688995515,
                1.3505756905592692
            ]
        },
        {
            "positions": [
                -0.8759162495273497,
                -0.9883883996455926,
                1.602745041603415,
                0.3163450051955409,
                -0.6362210595833014,
                1.489382931221239
            ]
        },
        {
            "positions": [
                -0.8942605239789089,
                -0.9993622930791846,
                1.6369758234257883,
                0.22025914447428563,
                -0.5444469502670513,
                1.628190171883209
            ]
        },
        {
            "positions": [
                -0.912604798430468,
                -1.0103361865127767,
                1.6712066052481616,
                0.1241732837530305,
                -0.4526728409508012,
                1.7669974125451788
            ]
        },
        {
            "positions": [
                -0.9309490728820272,
                -1.0213100799463688,
                1.7054373870705348,
                0.02808742303177514,
                -0.3608987316345509,
                1.905804653207149
            ]
        },
        {
            "positions": [
                -0.9492933473335864,
                -1.0322839733799607,
                1.739668168892908,
                -0.06799843768948,
                -0.2691246223183008,
                2.044611893869119
            ]
        },
        {
            "positions": [
                -0.9676376217851456,
                -1.0432578668135528,
                1.7738989507152814,
                -0.16408429841073513,
                -0.17735051300205074,
                2.1834191345310887
            ]
        },
        {
            "positions": [
                -0.9859818962367048,
                -1.0542317602471447,
                1.8081297325376546,
                -0.2601701591319905,
                -0.08557640368580044,
                2.322226375193059
            ]
        },
        {
            "positions": [
                -1.004326170688264,
                -1.0652056536807368,
                1.842360514360028,
                -0.35625601985324584,
                0.006197705630449635,
                2.4610336158550283
            ]
        },
        {
            "positions": [
                -1.0226704451398232,
                -1.076179547114329,
                1.8765912961824012,
                -0.4523418805745012,
                0.09797181494669993,
                2.5998408565169986
            ]
        },
        {
            "positions": [
                -1.0410147195913824,
                -1.0871534405479208,
                1.9108220780047744,
                -0.5484277412957563,
                0.18974592426295,
                2.7386480971789684
            ]
        },
        {
            "positions": [
                -1.0593589940429415,
                -1.098127333981513,
                1.9450528598271477,
                -0.6445136020170115,
                0.2815200335792001,
                2.877455337840938
            ]
        },
        {
            "positions": [
                -1.0777032684945007,
                -1.1091012274151049,
                1.979283641649521,
                -0.7405994627382668,
                0.3732941428954504,
                3.0162625785029085
            ]
        },
        {
            "positions": [
                -1.0960475429460599,
                -1.120075120848697,
                2.0135144234718942,
                -0.836685323459522,
                0.4650682522117006,
                3.1550698191648783
            ]
        }
    ]
}