{
    "goal": {
        "global_pose": {
            "orientation": {
                "w": 0.7031023502349854,
                "x": -0.7110244035720825,
                "y": 0.007748599164187908,
                "z": 0.005598929710686207
            },
            "position": {
                "x": 0.11585023208521307,
                "y": 0.44412534475326537,
                "z": 0.3711530566215515
            }
        },
        "name": "move_to_auspresseinheit_A"
    },
    "id": "LBKPIECE_move_to_auspresseinheit_A_48",
    "joint_names": [
        "shoulder_pan_joint",
        "shoulder_lift_joint",
        "elbow_joint",
        "wrist_1_joint",
        "wrist_2_joint",
        "wrist_3_joint"
    ],
    "metrics": {
        "cart_traj_len": 0.6916623133068589,
        "distance_elbow_joint": 0.18754144142244344,
        "distance_shoulder_lift_joint": 0.5369361157110382,
        "distance_shoulder_pan_joint": 1.0396519563190194,
        "distance_wrist_1_joint": 0.7816048917149256,
        "distance_wrist_2_joint": 0.7725737899532781,
        "distance_wrist_3_joint": 1.100252297758805,
        "smoothness": 0.9840559180572817,
        "time": 0.341572552,
        "traj_len": 2.1020372244276526,
        "weighted_distance": 2.858888555027167
    },
    "planner": "LBKPIECE",
    "start": {
        "state": {
            "elbow_joint": 2.4225746658250005,
            "shoulder_lift_joint": -1.3736534386056498,
            "shoulder_pan_joint": -0.3378633547517467,
            "wrist_1_joint": -1.0288598680537169,
            "wrist_2_joint": 1.233022673432363,
            "wrist_3_joint": -3.0940220416140027
        }
    },
    "waypoints": [
        {
            "positions": [
                -0.3378633547517467,
                -1.3736534386056498,
                2.4225746658250005,
                -1.0288598680537169,
                1.233022673432363,
                -3.0940220416140027
            ]
        },
        {
            "positions": [
                -0.2747743691995009,
                -1.423363422572609,
                2.409217543175092,
                -0.9457516358491581,
                1.1511742476008031,
                -3.0267982346053715
            ]
        },
        {
            "positions": [
                -0.21168538364725503,
                -1.4730734065395683,
                2.395860420525184,
                -0.8626434036445993,
                1.069325821769243,
                -2.9595744275967397
            ]
        },
        {
            "positions": [
                -0.14859639809500919,
                -1.5227833905065276,
                2.3825032978752754,
                -0.7795351714400406,
                0.987477395937683,
                -2.8923506205881084
            ]
        },
        {
            "positions": [
                -0.08550741254276334,
                -1.5724933744734866,
                2.3691461752253673,
                -0.6964269392354818,
                0.9056289701061231,
                -2.8251268135794767
            ]
        },
        {
            "positions": [
                -0.022418426990517493,
                -1.6222033584404458,
                2.355789052575459,
                -0.6133187070309231,
                0.8237805442745632,
                -2.7579030065708454
            ]
        },
        {
            "positions": [
                0.040670558561728354,
                -1.671913342407405,
                2.3424319299255503,
                -0.5302104748263643,
                0.7419321184430031,
                -2.690679199562214
            ]
        },
        {
            "positions": [
                0.1037595441139742,
                -1.7216233263743643,
                2.329074807275642,
                -0.44710224262180553,
                0.6600836926114431,
                -2.6234553925535824
            ]
        },
        {
            "positions": [
                0.16684852966622007,
                -1.7713333103413236,
                2.3157176846257337,
                -0.36399401041724677,
                0.5782352667798831,
                -2.556231585544951
            ]
        },
        {
            "positions": [
                0.3005835476414832,
                -1.8061473713351646,
                2.335888799681528,
                -0.39317876893686066,
                0.6076818626050826,
                -2.6968470459673894
            ]
        },
        {
            "positions": [
                0.4343185656167464,
                -1.8409614323290058,
                2.356059914737322,
                -0.4223635274564746,
                0.6371284584302822,
                -2.8374625063898278
            ]
        },
        {
            "positions": [
                0.5680535835920095,
                -1.875775493322847,
                2.376231029793116,
                -0.45154828597608854,
                0.6665750542554818,
                -2.978077966812266
            ]
        },
        {
            "positions": [
                0.7017886015672727,
                -1.910589554316688,
                2.3964021448489103,
                -0.4807330444957024,
                0.6960216500806813,
                -3.1186934272347044
            ]
        }
    ]
}