{
    "goal": {
        "global_pose": {
            "orientation": {
                "w": -0.00223480608172531,
                "x": 0.0024358444001904467,
                "y": 0.7094548369677653,
                "z": -0.704743149386269
            },
            "position": {
                "x": 0.6205249238014221,
                "y": -0.6371506643295288,
                "z": 0.19426114857196808
            }
        },
        "name": "move_to_magneteinheit_B"
    },
    "id": "LBKPIECE_move_to_magneteinheit_B_101",
    "joint_names": [
        "shoulder_pan_joint",
        "shoulder_lift_joint",
        "elbow_joint",
        "wrist_1_joint",
        "wrist_2_joint",
        "wrist_3_joint"
    ],
    "metrics": {
        "cart_traj_len": 4.869868102526518,
        "distance_elbow_joint": 4.522072457345761,
        "distance_shoulder_lift_joint": 2.6503036304867025,
        "distance_shoulder_pan_joint": 3.600815806713034,
        "distance_wrist_1_joint": 4.392156706157822,
        "distance_wrist_2_joint": 4.615218852622368,
        "distance_wrist_3_joint": 3.2551970065551665,
        "smoothness": 0.4552393759082954,
        "time": 0.486649984,
        "traj_len": 4.799558777625384,
        "weighted_distance": 6.209149219641239
    },
    "planner": "LBKPIECE",
    "start": {
        "state": {
            "elbow_joint": 2.6216224122426386,
            "shoulder_lift_joint": -1.4174107377796124,
            "shoulder_pan_joint": 0.7066234856936794,
            "wrist_1_joint": 1.9546482284002225,
            "wrist_2_joint": -0.7096286983471962,
            "wrist_3_joint": 0.005740856962016249
        }
    },
    "waypoints": [
        {
            "positions": [
                0.7066234856936794,
                -1.4174107377796124,
                2.6216224122426386,
                1.9546482284002225,
                -0.7096286983471962,
                0.005740856962016249
            ]
        },
        {
            "positions": [
                0.6347547002271766,
                -1.4071688022158506,
                2.569779987933554,
                1.9240160129258217,
                -0.7326264937806457,
                -0.02549220367718282
            ]
        },
        {
            "positions": [
                0.5628859147606738,
                -1.3969268666520889,
                2.5179375636244696,
                1.8933837974514207,
                -0.7556242892140951,
                -0.05672526431638189
            ]
        },
        {
            "positions": [
                0.5305243161433705,
                -1.4403554211876146,
                2.350794168673087,
                1.8921956818836663,
                -0.6644549905075638,
                -0.009325103177676625
            ]
        },
        {
            "positions": [
                0.49816271752606717,
                -1.4837839757231404,
                2.1836507737217046,
                1.8910075663159118,
                -0.5732856918010327,
                0.03807505796102864
            ]
        },
        {
            "positions": [
                0.4658011189087638,
                -1.5272125302586663,
                2.0165073787703216,
                1.8898194507481572,
                -0.48211639309450144,
                0.0854752190997339
            ]
        },
        {
            "positions": [
                0.4334395202914605,
                -1.570641084794192,
                1.849363983818939,
                1.8886313351804027,
                -0.39094709438797026,
                0.13287538023843917
            ]
        },
        {
            "positions": [
                0.4010779216741571,
                -1.6140696393297178,
                1.6822205888675565,
                1.8874432196126483,
                -0.29977779568143903,
                0.18027554137714444
            ]
        },
        {
            "positions": [
                0.36871632305685376,
                -1.6574981938652436,
                1.5150771939161738,
                1.8862551040448938,
                -0.2086084969749078,
                0.2276757025158497
            ]
        },
        {
            "positions": [
                0.3363547244395504,
                -1.7009267484007693,
                1.3479337989647913,
                1.8850669884771392,
                -0.11743919826837657,
                0.27507586365455494
            ]
        },
        {
            "positions": [
                0.3039931258222471,
                -1.7443553029362953,
                1.1807904040134087,
                1.8838788729093847,
                -0.026269899561845445,
                0.3224760247932602
            ]
        },
        {
            "positions": [
                0.2716315272049437,
                -1.787783857471821,
                1.013647009062026,
                1.8826907573416303,
                0.06489939914468579,
                0.3698761859319655
            ]
        },
        {
            "positions": [
                0.23926992858764035,
                -1.8312124120073467,
                0.8465036141106435,
                1.8815026417738758,
                0.15606869785121702,
                0.41727634707067074
            ]
        },
        {
            "positions": [
                0.20690832997033698,
                -1.8746409665428727,
                0.6793602191592605,
                1.8803145262061212,
                0.24723799655774836,
                0.464676508209376
            ]
        },
        {
            "positions": [
                0.17454673135303367,
                -1.9180695210783982,
                0.512216824207878,
                1.8791264106383667,
                0.3384072952642795,
                0.5120766693480813
            ]
        },
        {
            "positions": [
                0.14218513273573025,
                -1.9614980756139242,
                0.3450734292564954,
                1.8779382950706123,
                0.4295765939708108,
                0.5594768304867865
            ]
        },
        {
            "positions": [
                0.10982353411842694,
                -2.00492663014945,
                0.1779300343051129,
                1.8767501795028578,
                0.520745892677342,
                0.6068769916254918
            ]
        },
        {
            "positions": [
                0.07746193550112357,
                -2.0483551846849757,
                0.010786639353729921,
                1.8755620639351032,
                0.6119151913838733,
                0.6542771527641971
            ]
        },
        {
            "positions": [
                0.04510033688382031,
                -2.0917837392205016,
                -0.15635675559765216,
                1.8743739483673487,
                0.7030844900904042,
                0.7016773139029023
            ]
        },
        {
            "positions": [
                0.012738738266516836,
                -2.1352122937560276,
                -0.32350015054903514,
                1.8731858327995943,
                0.7942537887969355,
                0.7490774750416076
            ]
        },
        {
            "positions": [
                -0.01962286035078642,
                -2.178640848291553,
                -0.49064354550041767,
                1.8719977172318398,
                0.8854230875034667,
                0.7964776361803129
            ]
        },
        {
            "positions": [
                -0.051984458968089786,
                -2.222069402827079,
                -0.6577869404518006,
                1.8708096016640852,
                0.976592386209998,
                0.8438777973190181
            ]
        },
        {
            "positions": [
                -0.08434605758539315,
                -2.2654979573626046,
                -0.8249303354031827,
                1.8696214860963307,
                1.0677616849165292,
                0.8912779584577234
            ]
        },
        {
            "positions": [
                -0.11670765620269652,
                -2.3089265118981306,
                -0.9920737303545655,
                1.8684333705285763,
                1.1589309836230606,
                0.9386781195964287
            ]
        },
        {
            "positions": [
                -0.034699544255417505,
                -2.276039433617967,
                -1.014719121765121,
                1.7420832073746746,
                1.082470254397614,
                0.9887452164023499
            ]
        },
        {
            "positions": [
                0.04730856769186151,
                -2.2431523553378034,
                -1.0373645131756766,
                1.6157330442207727,
                1.0060095251721672,
                1.0388123132082712
            ]
        },
        {
            "positions": [
                0.12931667963914054,
                -2.2102652770576396,
                -1.0600099045862321,
                1.489382881066871,
                0.9295487959467206,
                1.0888794100141923
            ]
        },
        {
            "positions": [
                0.21132479158641954,
                -2.1773781987774763,
                -1.082655295996788,
                1.363032717912969,
                0.8530880667212739,
                1.1389465068201134
            ]
        },
        {
            "positions": [
                0.29333290353369856,
                -2.1444911204973125,
                -1.1053006874073434,
                1.2366825547590674,
                0.7766273374958272,
                1.1890136036260348
            ]
        },
        {
            "positions": [
                0.3753410154809776,
                -2.111604042217149,
                -1.127946078817899,
                1.1103323916051657,
                0.7001666082703807,
                1.239080700431956
            ]
        },
        {
            "positions": [
                0.4573491274282566,
                -2.0787169639369854,
                -1.1505914702284545,
                0.9839822284512638,
                0.623705879044934,
                1.2891477972378773
            ]
        },
        {
            "positions": [
                0.5393572393755356,
                -2.045829885656822,
                -1.17323686163901,
                0.8576320652973621,
                0.5472451498194874,
                1.3392148940437985
            ]
        },
        {
            "positions": [
                0.6213653513228147,
                -2.012942807376658,
                -1.1958822530495659,
                0.7312819021434602,
                0.4707844205940407,
                1.3892819908497196
            ]
        },
        {
            "positions": [
                0.7033734632700936,
                -1.9800557290964944,
                -1.2185276444601214,
                0.6049317389895585,
                0.394323691368594,
                1.439349087655641
            ]
        },
        {
            "positions": [
                0.7853815752173727,
                -1.947168650816331,
                -1.241173035870677,
                0.47858157583565664,
                0.31786296214314746,
                1.489416184461562
            ]
        },
        {
            "positions": [
                0.8673896871646517,
                -1.9142815725361673,
                -1.2638184272812325,
                0.35223141268175495,
                0.2414022329177008,
                1.5394832812674832
            ]
        },
        {
            "positions": [
                0.9493977991119307,
                -1.8813944942560037,
                -1.286463818691788,
                0.22588124952785305,
                0.16494150369225413,
                1.5895503780734046
            ]
        },
        {
            "positions": [
                1.0314059110592098,
                -1.8485074159758401,
                -1.3091092101023438,
                0.09953108637395136,
                0.08848077446680747,
                1.6396174748793257
            ]
        },
        {
            "positions": [
                1.1134140230064888,
                -1.8156203376956765,
                -1.3317546015128994,
                -0.026819076779950324,
                0.0120200452413608,
                1.6896845716852469
            ]
        },
        {
            "positions": [
                1.1954221349537677,
                -1.782733259415513,
                -1.354399992923455,
                -0.153169239933852,
                -0.06444068398408587,
                1.7397516684911682
            ]
        },
        {
            "positions": [
                1.2774302469010468,
                -1.7498461811353494,
                -1.3770453843340105,
                -0.2795194030877539,
                -0.1409014132095323,
                1.7898187652970894
            ]
        },
        {
            "positions": [
                1.3594383588483259,
                -1.7169591028551856,
                -1.399690775744566,
                -0.4058695662416558,
                -0.2173621424349792,
                1.8398858621030105
            ]
        },
        {
            "positions": [
                1.441446470795605,
                -1.684072024575022,
                -1.4223361671551218,
                -0.5322197293955577,
                -0.29382287166042587,
                1.889952958908932
            ]
        },
        {
            "positions": [
                1.5234545827428838,
                -1.6511849462948585,
                -1.4449815585656771,
                -0.6585698925494592,
                -0.37028360088587253,
                1.940020055714853
            ]
        },
        {
            "positions": [
                1.605462694690163,
                -1.6182978680146949,
                -1.4676269499762329,
                -0.7849200557033611,
                -0.446744330111319,
                1.9900871525207742
            ]
        },
        {
            "positions": [
                1.687470806637442,
                -1.5854107897345313,
                -1.4902723413867884,
                -0.911270218857263,
                -0.5232050593367656,
                2.0401542493266955
            ]
        },
        {
            "positions": [
                1.7694789185847208,
                -1.5525237114543677,
                -1.512917732797344,
                -1.0376203820111645,
                -0.5996657885622123,
                2.0902213461326165
            ]
        },
        {
            "positions": [
                1.851487030532,
                -1.5196366331742042,
                -1.5355631242078995,
                -1.1639705451650664,
                -0.676126517787659,
                2.140288442938538
            ]
        },
        {
            "positions": [
                1.9334951424792792,
                -1.4867495548940404,
                -1.558208515618455,
                -1.2903207083189683,
                -0.7525872470131059,
                2.190355539744459
            ]
        },
        {
            "positions": [
                2.015503254426558,
                -1.4538624766138768,
                -1.5808539070290109,
                -1.4166708714728702,
                -0.8290479762385523,
                2.24042263655038
            ]
        },
        {
            "positions": [
                2.097511366373837,
                -1.4209753983337132,
                -1.6034992984395664,
                -1.5430210346267716,
                -0.905508705463999,
                2.290489733356302
            ]
        },
        {
            "positions": [
                2.179519478321116,
                -1.3880883200535497,
                -1.626144689850122,
                -1.6693711977806736,
                -0.9819694346894456,
                2.340556830162223
            ]
        },
        {
            "positions": [
                2.257494014322431,
                -1.4407724347396103,
                -1.651435534118273,
                -1.7579513305526824,
                -0.9510824801737551,
                2.4212375330724036
            ]
        },
        {
            "positions": [
                2.3354685503237467,
                -1.4934565494256706,
                -1.676726378386424,
                -1.8465314633246912,
                -0.9201955256580644,
                2.5019182359825844
            ]
        },
        {
            "positions": [
                2.4134430863250618,
                -1.5461406641117312,
                -1.702017222654575,
                -1.9351115960967,
                -0.8893085711423738,
                2.5825989388927653
            ]
        },
        {
            "positions": [
                2.491417622326377,
                -1.5988247787977918,
                -1.727308066922726,
                -2.023691728868709,
                -0.8584216166266833,
                2.663279641802946
            ]
        },
        {
            "positions": [
                2.5693921583276924,
                -1.6515088934838524,
                -1.752598911190877,
                -2.1122718616407177,
                -0.8275346621109926,
                2.743960344713127
            ]
        },
        {
            "positions": [
                2.6473666943290075,
                -1.7041930081699128,
                -1.777889755459028,
                -2.2008519944127265,
                -0.796647707595302,
                2.8246410476233077
            ]
        },
        {
            "positions": [
                2.650719272900246,
                -1.8244123167079613,
                -1.7472496830480035,
                -2.260016115248945,
                -0.714536246717385,
                2.9024821909575778
            ]
        },
        {
            "positions": [
                2.6540718514714845,
                -1.9446316252460096,
                -1.7166096106369788,
                -2.3191802360851628,
                -0.632424785839468,
                2.9803233342918474
            ]
        },
        {
            "positions": [
                2.6574244300427226,
                -2.064850933784058,
                -1.685969538225954,
                -2.3783443569213807,
                -0.5503133249615512,
                3.058164477626117
            ]
        },
        {
            "positions": [
                2.660777008613961,
                -2.1850702423221064,
                -1.6553294658149296,
                -2.437508477757599,
                -0.4682018640836342,
                3.136005620960387
            ]
        }
    ]
}