{
    "goal": {
        "global_pose": {
            "orientation": {
                "w": 0.7031023480610252,
                "x": -0.7110244013736278,
                "y": 0.0077485991402295624,
                "z": 0.005598929693374583
            },
            "position": {
                "x": -0.8841497679147869,
                "y": 0.44412534475326537,
                "z": 0.3711530566215515
            }
        },
        "name": "move_to_auspresseinheit_D"
    },
    "id": "LBKPIECE_move_to_auspresseinheit_D_126",
    "joint_names": [
        "shoulder_pan_joint",
        "shoulder_lift_joint",
        "elbow_joint",
        "wrist_1_joint",
        "wrist_2_joint",
        "wrist_3_joint"
    ],
    "metrics": {
        "cart_traj_len": 0.34348882456386093,
        "distance_elbow_joint": 0.6322144417167797,
        "distance_shoulder_lift_joint": 0.117578295518864,
        "distance_shoulder_pan_joint": 0.13425607184884267,
        "distance_wrist_1_joint": 0.504472108129467,
        "distance_wrist_2_joint": 1.4425077318094623,
        "distance_wrist_3_joint": 0.029611810149007045,
        "smoothness": 3.9474596431116675e-16,
        "time": 0.297836289,
        "traj_len": 1.691342797652925,
        "weighted_distance": 2.206092454864339
    },
    "planner": "LBKPIECE",
    "start": {
        "state": {
            "elbow_joint": -1.8275523626775212,
            "shoulder_lift_joint": -2.126789852344167,
            "shoulder_pan_joint": -0.03513704404078235,
            "wrist_1_joint": -2.347782403156801,
            "wrist_2_joint": -1.6058999987535132,
            "wrist_3_joint": -3.0880379163319196
        }
    },
    "waypoints": [
        {
            "positions": [
                -0.03513704404078235,
                -2.126789852344167,
                -1.8275523626775212,
                -2.347782403156801,
                -1.6058999987535132,
                -3.0880379163319196
            ]
        },
        {
            "positions": [
                -0.05191905302188768,
                -2.141487139284025,
                -1.7485255574629237,
                -2.410841416672984,
                -1.4255865322773305,
                -3.0917393926005454
            ]
        },
        {
            "positions": [
                -0.06870106200299302,
                -2.156184426223883,
                -1.6694987522483262,
                -2.4739004301891674,
                -1.2452730658011477,
                -3.0954408688691712
            ]
        },
        {
            "positions": [
                -0.08548307098409835,
                -2.170881713163741,
                -1.5904719470337287,
                -2.536959443705351,
                -1.0649595993249648,
                -3.099142345137797
            ]
        },
        {
            "positions": [
                -0.10226507996520368,
                -2.1855790001035986,
                -1.5114451418191313,
                -2.6000184572215344,
                -0.884646132848782,
                -3.102843821406423
            ]
        },
        {
            "positions": [
                -0.11904708894630903,
                -2.2002762870434567,
                -1.4324183366045338,
                -2.6630774707377176,
                -0.7043326663725993,
                -3.106545297675049
            ]
        },
        {
            "positions": [
                -0.13582909792741435,
                -2.2149735739833147,
                -1.3533915313899365,
                -2.7261364842539013,
                -0.5240191998964163,
                -3.110246773943675
            ]
        },
        {
            "positions": [
                -0.15261110690851967,
                -2.229670860923173,
                -1.274364726175339,
                -2.7891954977700846,
                -0.3437057334202336,
                -3.113948250212301
            ]
        },
        {
            "positions": [
                -0.16939311588962502,
                -2.244368147863031,
                -1.1953379209607415,
                -2.852254511286268,
                -0.16339226694405087,
                -3.1176497264809266
            ]
        }
    ]
}