{
    "goal": {
        "global_pose": {
            "orientation": {
                "w": -0.00223480608172531,
                "x": 0.0024358444001904467,
                "y": 0.7094548369677653,
                "z": -0.704743149386269
            },
            "position": {
                "x": 0.6205249238014221,
                "y": -0.6371506643295288,
                "z": 0.19426114857196808
            }
        },
        "name": "move_to_magneteinheit_B"
    },
    "id": "LBKPIECE_move_to_magneteinheit_B_65",
    "joint_names": [
        "shoulder_pan_joint",
        "shoulder_lift_joint",
        "elbow_joint",
        "wrist_1_joint",
        "wrist_2_joint",
        "wrist_3_joint"
    ],
    "metrics": {
        "cart_traj_len": 4.774097213297646,
        "distance_elbow_joint": 4.66985964886652,
        "distance_shoulder_lift_joint": 1.1645381659837537,
        "distance_shoulder_pan_joint": 3.4892816999156744,
        "distance_wrist_1_joint": 4.488649435019802,
        "distance_wrist_2_joint": 0.6302853178330583,
        "distance_wrist_3_joint": 5.656694675727417,
        "smoothness": 0.3396243572350613,
        "time": 0.289605842,
        "traj_len": 4.483225283581701,
        "weighted_distance": 6.0441403894725925
    },
    "planner": "LBKPIECE",
    "start": {
        "state": {
            "elbow_joint": 2.6216224122426386,
            "shoulder_lift_joint": -1.4174107377796124,
            "shoulder_pan_joint": 0.7066234856936794,
            "wrist_1_joint": 1.9546482284002225,
            "wrist_2_joint": -0.7096286983471962,
            "wrist_3_joint": 0.005740856962016249
        }
    },
    "waypoints": [
        {
            "positions": [
                0.7066234856936794,
                -1.4174107377796124,
                2.6216224122426386,
                1.9546482284002225,
                -0.7096286983471962,
                0.005740856962016249
            ]
        },
        {
            "positions": [
                0.6889451488862549,
                -1.4009218070057368,
                2.5969483112560514,
                1.772519372210013,
                -0.7087047504500542,
                -0.06968600947385392
            ]
        },
        {
            "positions": [
                0.6712668120788303,
                -1.384432876231861,
                2.5722742102694642,
                1.5903905160198037,
                -0.7077808025529122,
                -0.14511287590972408
            ]
        },
        {
            "positions": [
                0.6535884752714058,
                -1.3679439454579851,
                2.547600109282877,
                1.4082616598295945,
                -0.7068568546557702,
                -0.22053974234559426
            ]
        },
        {
            "positions": [
                0.6359101384639814,
                -1.3514550146841096,
                2.52292600829629,
                1.226132803639385,
                -0.7059329067586282,
                -0.2959666087814644
            ]
        },
        {
            "positions": [
                0.6042938008756911,
                -1.344868276290369,
                2.4711063621820237,
                1.0712366508673503,
                -0.6917875416736963,
                -0.3876751711162918
            ]
        },
        {
            "positions": [
                0.5726774632874009,
                -1.3382815378966282,
                2.419286716067757,
                0.9163404980953157,
                -0.6776421765887642,
                -0.4793837334511192
            ]
        },
        {
            "positions": [
                0.5410611256991106,
                -1.3316947995028876,
                2.367467069953491,
                0.761444345323281,
                -0.6634968115038323,
                -0.5710922957859466
            ]
        },
        {
            "positions": [
                0.45304612153137336,
                -1.3168640934813733,
                2.264699545644287,
                0.6822049438919198,
                -0.6590837873776375,
                -0.6279470834846906
            ]
        },
        {
            "positions": [
                0.36503111736363614,
                -1.3020333874598589,
                2.1619320213350823,
                0.6029655424605587,
                -0.6546707632514426,
                -0.6848018711834348
            ]
        },
        {
            "positions": [
                0.2770161131958989,
                -1.2872026814383446,
                2.0591644970258782,
                0.5237261410291973,
                -0.6502577391252478,
                -0.7416566588821789
            ]
        },
        {
            "positions": [
                0.1890011090281617,
                -1.2723719754168303,
                1.9563969727166741,
                0.44448673959783624,
                -0.6458447149990529,
                -0.798511446580923
            ]
        },
        {
            "positions": [
                0.10098610486042447,
                -1.2575412693953159,
                1.85362944840747,
                0.365247338166475,
                -0.641431690872858,
                -0.8553662342796672
            ]
        },
        {
            "positions": [
                0.012971100692687226,
                -1.2427105633738016,
                1.7508619240982657,
                0.2860079367351138,
                -0.6370186667466632,
                -0.9122210219784113
            ]
        },
        {
            "positions": [
                0.021265733914765002,
                -1.2389586054665582,
                1.5989133077612272,
                0.17046380658563332,
                -0.6204570702747606,
                -0.9690994943907317
            ]
        },
        {
            "positions": [
                0.02956036713684278,
                -1.2352066475593149,
                1.4469646914241887,
                0.05491967643615278,
                -0.603895473802858,
                -1.0259779668030522
            ]
        },
        {
            "positions": [
                0.03785500035892056,
                -1.2314546896520715,
                1.2950160750871502,
                -0.06062445371332775,
                -0.5873338773309553,
                -1.0828564392153726
            ]
        },
        {
            "positions": [
                0.046149633580998335,
                -1.2277027317448281,
                1.143067458750112,
                -0.17616858386280826,
                -0.5707722808590527,
                -1.139734911627693
            ]
        },
        {
            "positions": [
                0.05444426680307612,
                -1.2239507738375848,
                0.9911188424130734,
                -0.2917127140122888,
                -0.5542106843871502,
                -1.1966133840400135
            ]
        },
        {
            "positions": [
                0.0627389000251539,
                -1.2201988159303414,
                0.8391702260760349,
                -0.4072568441617693,
                -0.5376490879152476,
                -1.2534918564523339
            ]
        },
        {
            "positions": [
                0.15278693297879833,
                -1.2378731263400133,
                0.755220360844974,
                -0.4737127692890463,
                -0.5416270139816142,
                -1.1294441361418481
            ]
        },
        {
            "positions": [
                0.24283496593244278,
                -1.255547436749685,
                0.6712704956139132,
                -0.5401686944163233,
                -0.5456049400479809,
                -1.0053964158313624
            ]
        },
        {
            "positions": [
                0.3328829988860872,
                -1.273221747159357,
                0.5873206303828523,
                -0.6066246195436004,
                -0.5495828661143475,
                -0.8813486955208767
            ]
        },
        {
            "positions": [
                0.4229310318397317,
                -1.2908960575690287,
                0.5033707651517915,
                -0.6730805446708774,
                -0.5535607921807141,
                -0.7573009752103911
            ]
        },
        {
            "positions": [
                0.5129790647933761,
                -1.3085703679787006,
                0.41942089992073056,
                -0.7395364697981544,
                -0.5575387182470807,
                -0.6332532548999054
            ]
        },
        {
            "positions": [
                0.6030270977470206,
                -1.3262446783883726,
                0.33547103468966977,
                -0.8059923949254314,
                -0.5615166443134474,
                -0.5092055345894196
            ]
        },
        {
            "positions": [
                0.6930751307006651,
                -1.3439189887980443,
                0.2515211694586088,
                -0.8724483200527084,
                -0.565494570379814,
                -0.3851578142789339
            ]
        },
        {
            "positions": [
                0.7831231636543095,
                -1.3615932992077162,
                0.16757130422754807,
                -0.9389042451799854,
                -0.5694724964461806,
                -0.2611100939684483
            ]
        },
        {
            "positions": [
                0.873171196607954,
                -1.3792676096173881,
                0.08362143899648711,
                -1.0053601703072625,
                -0.5734504225125472,
                -0.1370623736579626
            ]
        },
        {
            "positions": [
                0.9632192295615983,
                -1.3969419200270599,
                -0.0003284262345737421,
                -1.0718160954345395,
                -0.5774283485789139,
                -0.013014653347476868
            ]
        },
        {
            "positions": [
                1.0532672625152426,
                -1.4146162304367318,
                -0.08427829146563448,
                -1.1382720205618164,
                -0.5814062746452805,
                0.11103306696300885
            ]
        },
        {
            "positions": [
                1.1433152954688872,
                -1.4322905408464035,
                -0.16822815669669533,
                -1.2047279456890934,
                -0.5853842007116471,
                0.23508078727349457
            ]
        },
        {
            "positions": [
                1.2333633284225316,
                -1.4499648512560754,
                -0.2521780219277564,
                -1.2711838708163705,
                -0.5893621267780138,
                0.3591285075839803
            ]
        },
        {
            "positions": [
                1.3234113613761762,
                -1.4676391616657474,
                -0.33612788715881725,
                -1.3376397959436477,
                -0.5933400528443804,
                0.483176227894466
            ]
        },
        {
            "positions": [
                1.4134593943298206,
                -1.4853134720754193,
                -0.4200777523898781,
                -1.4040957210709246,
                -0.597317978910747,
                0.6072239482049517
            ]
        },
        {
            "positions": [
                1.503507427283465,
                -1.502987782485091,
                -0.5040276176209387,
                -1.4705516461982016,
                -0.6012959049771136,
                0.7312716685154372
            ]
        },
        {
            "positions": [
                1.5935554602371094,
                -1.5206620928947627,
                -0.5879774828519996,
                -1.5370075713254785,
                -0.6052738310434803,
                0.8553193888259227
            ]
        },
        {
            "positions": [
                1.683603493190754,
                -1.5383364033044347,
                -0.6719273480830606,
                -1.6034634964527554,
                -0.6092517571098469,
                0.9793671091364087
            ]
        },
        {
            "positions": [
                1.7736515261443981,
                -1.5560107137141066,
                -0.7558772133141213,
                -1.6699194215800324,
                -0.6132296831762135,
                1.1034148294468942
            ]
        },
        {
            "positions": [
                1.8636995590980427,
                -1.5736850241237783,
                -0.8398270785451823,
                -1.7363753467073098,
                -0.6172076092425802,
                1.2274625497573801
            ]
        },
        {
            "positions": [
                1.9537475920516871,
                -1.5913593345334502,
                -0.9237769437762432,
                -1.8028312718345867,
                -0.6211855353089468,
                1.3515102700678656
            ]
        },
        {
            "positions": [
                2.0437956250053313,
                -1.6090336449431222,
                -1.0077268090073037,
                -1.8692871969618636,
                -0.6251634613753134,
                1.4755579903783516
            ]
        },
        {
            "positions": [
                2.133843657958976,
                -1.6267079553527939,
                -1.0916766742383648,
                -1.9357431220891406,
                -0.62914138744168,
                1.5996057106888375
            ]
        },
        {
            "positions": [
                2.2238916909126205,
                -1.6443822657624658,
                -1.1756265394694254,
                -2.0021990472164175,
                -0.6331193135080467,
                1.723653430999323
            ]
        },
        {
            "positions": [
                2.3139397238662647,
                -1.6620565761721378,
                -1.2595764047004865,
                -2.0686549723436944,
                -0.6370972395744133,
                1.8477011513098085
            ]
        },
        {
            "positions": [
                2.4039877568199093,
                -1.6797308865818095,
                -1.3435262699315476,
                -2.135110897470972,
                -0.6410751656407799,
                1.9717488716202944
            ]
        },
        {
            "positions": [
                2.494035789773554,
                -1.6974051969914814,
                -1.4274761351626082,
                -2.2015668225982488,
                -0.6450530917071465,
                2.09579659193078
            ]
        },
        {
            "positions": [
                2.5840838227271985,
                -1.7150795074011533,
                -1.5114260003936693,
                -2.2680227477255257,
                -0.6490310177735132,
                2.219844312241266
            ]
        },
        {
            "positions": [
                2.6741318556808427,
                -1.732753817810825,
                -1.59537586562473,
                -2.3344786728528026,
                -0.6530089438398798,
                2.3438920325517514
            ]
        },
        {
            "positions": [
                2.6861916161006048,
                -1.7932073482681963,
                -1.6460732222592582,
                -2.366023604352145,
                -0.6008406451641326,
                2.458461544726769
            ]
        },
        {
            "positions": [
                2.698251376520367,
                -1.8536608787255675,
                -1.6967705788937864,
                -2.3975685358514873,
                -0.5486723464883854,
                2.5730310569017862
            ]
        },
        {
            "positions": [
                2.7103111369401285,
                -1.9141144091829387,
                -1.7474679355283147,
                -2.42911346735083,
                -0.4965040478126381,
                2.687600569076804
            ]
        },
        {
            "positions": [
                2.7223708973598906,
                -1.97456793964031,
                -1.7981652921628428,
                -2.4606583988501725,
                -0.44433574913689083,
                2.8021700812518215
            ]
        },
        {
            "positions": [
                2.7344306577796527,
                -2.035021470097681,
                -1.848862648797371,
                -2.492203330349515,
                -0.3921674504611436,
                2.916739593426839
            ]
        },
        {
            "positions": [
                2.6973457788657944,
                -2.1112732650812527,
                -1.7491753548841156,
                -2.471304392214482,
                -0.4332196295100142,
                3.0303548496437847
            ]
        },
        {
            "positions": [
                2.660260899951936,
                -2.187525060064824,
                -1.6494880609708602,
                -2.450405454079449,
                -0.4742718085588848,
                3.14397010586073
            ]
        }
    ]
}