{
    "goal": {
        "global_pose": {
            "orientation": {
                "w": -0.00223480608172531,
                "x": 0.0024358444001904467,
                "y": 0.7094548369677653,
                "z": -0.704743149386269
            },
            "position": {
                "x": 0.6205249238014221,
                "y": -0.6371506643295288,
                "z": 0.19426114857196808
            }
        },
        "name": "move_to_magneteinheit_B"
    },
    "id": "LBKPIECE_move_to_magneteinheit_B_125",
    "joint_names": [
        "shoulder_pan_joint",
        "shoulder_lift_joint",
        "elbow_joint",
        "wrist_1_joint",
        "wrist_2_joint",
        "wrist_3_joint"
    ],
    "metrics": {
        "cart_traj_len": 1.5233046411649278,
        "distance_elbow_joint": 0.9607931005529811,
        "distance_shoulder_lift_joint": 0.7923907311564116,
        "distance_shoulder_pan_joint": 1.6196953536202892,
        "distance_wrist_1_joint": 1.2989743214225622,
        "distance_wrist_2_joint": 1.970318349435152,
        "distance_wrist_3_joint": 0.02705731864427386,
        "smoothness": 0.6842377828117013,
        "time": 0.46379730799999996,
        "traj_len": 2.582485077368632,
        "weighted_distance": 3.1611131714916394
    },
    "planner": "LBKPIECE",
    "start": {
        "state": {
            "elbow_joint": 2.6216224122426386,
            "shoulder_lift_joint": -1.4174107377796124,
            "shoulder_pan_joint": 0.7066234856936794,
            "wrist_1_joint": 1.9546482284002225,
            "wrist_2_joint": -0.7096286983471962,
            "wrist_3_joint": 0.005740856962016249
        }
    },
    "waypoints": [
        {
            "positions": [
                0.7066234856936794,
                -1.4174107377796124,
                2.6216224122426386,
                1.9546482284002225,
                -0.7096286983471962,
                0.005740856962016249
            ]
        },
        {
            "positions": [
                0.6527269191969302,
                -1.4232935170647998,
                2.6048604712474694,
                1.7696058829278172,
                -0.6364455725159358,
                0.009497198683673455
            ]
        },
        {
            "positions": [
                0.5988303527001808,
                -1.429176296349987,
                2.5880985302523,
                1.584563537455412,
                -0.5632624466846755,
                0.013253540405330663
            ]
        },
        {
            "positions": [
                0.5449337862034316,
                -1.4350590756351744,
                2.5713365892571307,
                1.3995211919830064,
                -0.4900793208534151,
                0.01700988212698787
            ]
        },
        {
            "positions": [
                0.44789215919566494,
                -1.383616774750203,
                2.5107099135866333,
                1.4485522117674683,
                -0.606356136769747,
                0.015993469296635622
            ]
        },
        {
            "positions": [
                0.35085053218789825,
                -1.332174473865232,
                2.450083237916136,
                1.4975832315519302,
                -0.7226329526860789,
                0.014977056466283377
            ]
        },
        {
            "positions": [
                0.2538089051801316,
                -1.2807321729802605,
                2.389456562245639,
                1.546614251336392,
                -0.8389097686024108,
                0.01396064363593113
            ]
        },
        {
            "positions": [
                0.1567672781723649,
                -1.2292898720952892,
                2.3288298865751416,
                1.595645271120854,
                -0.9551865845187427,
                0.012944230805578886
            ]
        },
        {
            "positions": [
                0.05972565116459827,
                -1.177847571210318,
                2.268203210904644,
                1.6446762909053159,
                -1.0714634004350745,
                0.01192781797522664
            ]
        },
        {
            "positions": [
                -0.03731597584316837,
                -1.1264052703253467,
                2.2075765352341468,
                1.6937073106897778,
                -1.1877402163514066,
                0.010911405144874393
            ]
        },
        {
            "positions": [
                -0.134357602850935,
                -1.0749629694403753,
                2.1469498595636494,
                1.7427383304742396,
                -1.3040170322677385,
                0.009894992314522146
            ]
        },
        {
            "positions": [
                -0.23139922985870176,
                -1.0235206685554041,
                2.0863231838931524,
                1.7917693502587015,
                -1.4202938481840703,
                0.008878579484169901
            ]
        },
        {
            "positions": [
                -0.3284408568664684,
                -0.9720783676704328,
                2.025696508222655,
                1.8408003700431634,
                -1.5365706641004022,
                0.007862166653817655
            ]
        },
        {
            "positions": [
                -0.42548248387423504,
                -0.9206360667854615,
                1.9650698325521576,
                1.8898313898276253,
                -1.652847480016734,
                0.00684575382346541
            ]
        },
        {
            "positions": [
                -0.5225241108820016,
                -0.8691937659004902,
                1.9044431568816602,
                1.9388624096120872,
                -1.769124295933066,
                0.0058293409931131634
            ]
        },
        {
            "positions": [
                -0.6195657378897683,
                -0.8177514650155189,
                1.8438164812111628,
                1.9878934293965491,
                -1.885401111849398,
                0.004812928162760917
            ]
        },
        {
            "positions": [
                -0.7166073648975351,
                -0.7663091641305475,
                1.7831898055406656,
                2.036924449181011,
                -2.00167792776573,
                0.0037965153324086703
            ]
        },
        {
            "positions": [
                -0.8136489919053016,
                -0.7148668632455762,
                1.7225631298701685,
                2.085955468965473,
                -2.117954743682062,
                0.0027801025020564255
            ]
        },
        {
            "positions": [
                -0.9106906189130684,
                -0.663424562360605,
                1.661936454199671,
                2.134986488749935,
                -2.2342315595983937,
                0.0017636896717041794
            ]
        },
        {
            "positions": [
                -0.9130718679266095,
                -0.660316682334325,
                1.6630435967096846,
                2.1433684769883525,
                -2.240848292794786,
                0.002305790695722726
            ]
        }
    ]
}