{
    "goal": {
        "global_pose": {
            "orientation": {
                "w": -0.00223480608172531,
                "x": 0.0024358444001904467,
                "y": 0.7094548369677653,
                "z": -0.704743149386269
            },
            "position": {
                "x": -0.37947507619857795,
                "y": -0.6371506643295288,
                "z": 0.19426114857196808
            }
        },
        "name": "move_to_magneteinheit_C"
    },
    "id": "LBKPIECE_move_to_magneteinheit_C_100",
    "joint_names": [
        "shoulder_pan_joint",
        "shoulder_lift_joint",
        "elbow_joint",
        "wrist_1_joint",
        "wrist_2_joint",
        "wrist_3_joint"
    ],
    "metrics": {
        "cart_traj_len": 0.9378860909893793,
        "distance_elbow_joint": 0.42240747790177036,
        "distance_shoulder_lift_joint": 0.45069235919955597,
        "distance_shoulder_pan_joint": 1.1339704685710272,
        "distance_wrist_1_joint": 1.214144817216296,
        "distance_wrist_2_joint": 1.9770549183868726,
        "distance_wrist_3_joint": 4.495212374236857,
        "smoothness": 0.8511617431699527,
        "time": 0.494596225,
        "traj_len": 3.113435789527766,
        "weighted_distance": 4.677083161500259
    },
    "planner": "LBKPIECE",
    "start": {
        "state": {
            "elbow_joint": 1.9565354010623817,
            "shoulder_lift_joint": -1.4165861575791021,
            "shoulder_pan_joint": -1.6717766225146293,
            "wrist_1_joint": -0.5286633292919765,
            "wrist_2_joint": 1.472756589071564,
            "wrist_3_joint": -3.1238370188695823
        }
    },
    "waypoints": [
        {
            "positions": [
                -1.6717766225146293,
                -1.4165861575791021,
                1.9565354010623817,
                -0.5286633292919765,
                1.472756589071564,
                -3.1238370188695823
            ]
        },
        {
            "positions": [
                -1.6567746209782321,
                -1.417783110818833,
                1.9302432875885291,
                -0.4653526525300853,
                1.3807378541268875,
                -2.935201299735441
            ]
        },
        {
            "positions": [
                -1.6417726194418347,
                -1.418980064058564,
                1.9039511741146764,
                -0.40204197576819417,
                1.288719119182211,
                -2.7465655806013003
            ]
        },
        {
            "positions": [
                -1.6267706179054375,
                -1.4201770172982948,
                1.8776590606408239,
                -0.33873129900630305,
                1.1967003842375346,
                -2.557929861467159
            ]
        },
        {
            "positions": [
                -1.6117686163690401,
                -1.4213739705380255,
                1.8513669471669714,
                -0.2754206222444119,
                1.1046816492928582,
                -2.369294142333018
            ]
        },
        {
            "positions": [
                -1.596766614832643,
                -1.4225709237777564,
                1.8250748336931188,
                -0.2121099454825207,
                1.0126629143481816,
                -2.180658423198877
            ]
        },
        {
            "positions": [
                -1.5817646132962455,
                -1.4237678770174873,
                1.798782720219266,
                -0.1487992687206296,
                0.9206441794035052,
                -1.9920227040647358
            ]
        },
        {
            "positions": [
                -1.5667626117598483,
                -1.4249648302572182,
                1.7724906067454136,
                -0.08548859195873844,
                0.8286254444588287,
                -1.8033869849305946
            ]
        },
        {
            "positions": [
                -1.6877072746419735,
                -1.389430474203772,
                1.7993972931846611,
                -0.08394560251276487,
                0.7358798045380524,
                -1.689384258246896
            ]
        },
        {
            "positions": [
                -1.8086519375240986,
                -1.3538961181503257,
                1.8263039796239084,
                -0.0824026130667913,
                0.6431341646172761,
                -1.5753815315631976
            ]
        },
        {
            "positions": [
                -1.9295966004062237,
                -1.3183617620968795,
                1.853210666063156,
                -0.08085962362081772,
                0.5503885246964999,
                -1.461378804879499
            ]
        },
        {
            "positions": [
                -2.050541263288349,
                -1.2828274060434333,
                1.8801173525024035,
                -0.07931663417484414,
                0.45764288477572357,
                -1.3473760781958006
            ]
        },
        {
            "positions": [
                -2.171485926170474,
                -1.247293049989987,
                1.9070240389416508,
                -0.07777364472887056,
                0.3648972448549473,
                -1.233373351512102
            ]
        },
        {
            "positions": [
                -2.292430589052599,
                -1.2117586939365408,
                1.9339307253808984,
                -0.07623065528289699,
                0.272151604934171,
                -1.1193706248284034
            ]
        },
        {
            "positions": [
                -2.413375251934724,
                -1.1762243378830946,
                1.9608374118201457,
                -0.07468766583692342,
                0.17940596501339467,
                -1.005367898144705
            ]
        },
        {
            "positions": [
                -2.5343199148168494,
                -1.1406899818296483,
                1.9877440982593932,
                -0.07314467639094985,
                0.08666032509261844,
                -0.8913651714610065
            ]
        },
        {
            "positions": [
                -2.531814488087987,
                -1.1558617872216115,
                1.99145168955279,
                -0.14221597675870126,
                0.14733970142758224,
                -1.1013827894763806
            ]
        },
        {
            "positions": [
                -2.5293090613591254,
                -1.1710335926135744,
                1.995159280846187,
                -0.21128727712645268,
                0.20801907776254602,
                -1.3114004074917545
            ]
        },
        {
            "positions": [
                -2.526803634630263,
                -1.1862053980055376,
                1.998866872139584,
                -0.2803585774942041,
                0.26869845409750986,
                -1.5214180255071286
            ]
        },
        {
            "positions": [
                -2.524298207901401,
                -1.2013772033975008,
                2.002574463432981,
                -0.3494298778619555,
                0.32937783043247365,
                -1.7314356435225027
            ]
        },
        {
            "positions": [
                -2.521792781172539,
                -1.2165490087894637,
                2.0062820547263778,
                -0.418501178229707,
                0.3900572067674375,
                -1.9414532615378768
            ]
        },
        {
            "positions": [
                -2.519287354443677,
                -1.2317208141814269,
                2.0099896460197746,
                -0.4875724785974584,
                0.4507365831024013,
                -2.151470879553251
            ]
        },
        {
            "positions": [
                -2.510014035566462,
                -1.2183192130330085,
                2.0101623748818627,
                -0.5564121510192105,
                0.49611306238203023,
                -2.3519978433004582
            ]
        },
        {
            "positions": [
                -2.500740716689248,
                -1.2049176118845903,
                2.010335103743951,
                -0.6252518234409626,
                0.5414895416616592,
                -2.5525248070476656
            ]
        },
        {
            "positions": [
                -2.491467397812033,
                -1.191516010736172,
                2.0105078326060393,
                -0.6940914958627147,
                0.5868660209412881,
                -2.7530517707948725
            ]
        },
        {
            "positions": [
                -2.482194078934819,
                -1.1781144095877538,
                2.010680561468128,
                -0.7629311682844668,
                0.6322425002209172,
                -2.95357873454208
            ]
        },
        {
            "positions": [
                -2.472920760057604,
                -1.1647128084393354,
                2.010853290330216,
                -0.831770840706219,
                0.6776189795005462,
                -3.154105698289287
            ]
        }
    ]
}