{
    "goal": {
        "global_pose": {
            "orientation": {
                "w": 0.7031023480610252,
                "x": -0.7110244013736278,
                "y": 0.0077485991402295624,
                "z": 0.005598929693374583
            },
            "position": {
                "x": -0.8841497679147869,
                "y": 0.44412534475326537,
                "z": 0.3711530566215515
            }
        },
        "name": "move_to_auspresseinheit_D"
    },
    "id": "LBKPIECE_move_to_auspresseinheit_D_34",
    "joint_names": [
        "shoulder_pan_joint",
        "shoulder_lift_joint",
        "elbow_joint",
        "wrist_1_joint",
        "wrist_2_joint",
        "wrist_3_joint"
    ],
    "metrics": {
        "cart_traj_len": 0.34387040751420134,
        "distance_elbow_joint": 0.6490173253310403,
        "distance_shoulder_lift_joint": 0.12674700872917244,
        "distance_shoulder_pan_joint": 0.13427370812442518,
        "distance_wrist_1_joint": 0.574070233655315,
        "distance_wrist_2_joint": 1.4337295185602437,
        "distance_wrist_3_joint": 0.04436979530433005,
        "smoothness": 1.1842378991849393e-15,
        "time": 0.099649768,
        "traj_len": 1.721106501557799,
        "weighted_distance": 2.249165830375507
    },
    "planner": "LBKPIECE",
    "start": {
        "state": {
            "elbow_joint": -1.8275523626775212,
            "shoulder_lift_joint": -2.126789852344167,
            "shoulder_pan_joint": -0.03513704404078235,
            "wrist_1_joint": -2.347782403156801,
            "wrist_2_joint": -1.6058999987535132,
            "wrist_3_joint": -3.0880379163319196
        }
    },
    "waypoints": [
        {
            "positions": [
                -0.03513704404078235,
                -2.126789852344167,
                -1.8275523626775212,
                -2.347782403156801,
                -1.6058999987535132,
                -3.0880379163319196
            ]
        },
        {
            "positions": [
                -0.0519212575563355,
                -2.1426332284353133,
                -1.746425197011141,
                -2.4195411823637154,
                -1.4266838089334828,
                -3.0824916919188783
            ]
        },
        {
            "positions": [
                -0.06870547107188865,
                -2.15847660452646,
                -1.6652980313447612,
                -2.4912999615706295,
                -1.2474676191134524,
                -3.076945467505837
            ]
        },
        {
            "positions": [
                -0.0854896845874418,
                -2.1743199806176063,
                -1.584170865678381,
                -2.563058740777544,
                -1.0682514292934218,
                -3.0713992430927957
            ]
        },
        {
            "positions": [
                -0.10227389810299495,
                -2.1901633567087533,
                -1.5030437000120012,
                -2.634817519984458,
                -0.8890352394733914,
                -3.0658530186797543
            ]
        },
        {
            "positions": [
                -0.1190581116185481,
                -2.2060067327999,
                -1.421916534345621,
                -2.7065762991913727,
                -0.709819049653361,
                -3.0603067942667135
            ]
        },
        {
            "positions": [
                -0.13584232513410124,
                -2.2218501088910463,
                -1.340789368679241,
                -2.778335078398287,
                -0.5306028598333303,
                -3.054760569853672
            ]
        },
        {
            "positions": [
                -0.1526265386496544,
                -2.237693484982193,
                -1.2596622030128608,
                -2.8500938576052013,
                -0.35138667001329993,
                -3.049214345440631
            ]
        },
        {
            "positions": [
                -0.16941075216520754,
                -2.2535368610733393,
                -1.178535037346481,
                -2.921852636812116,
                -0.17217048019326947,
                -3.0436681210275895
            ]
        }
    ]
}