{
    "goal": {
        "global_pose": {
            "orientation": {
                "w": 0.5084816217422485,
                "x": -0.49083608388900757,
                "y": 0.5182115435600281,
                "z": -0.4816462993621826
            },
            "position": {
                "x": 0.5540239810943604,
                "y": 0.030875300988554955,
                "z": 0.16403168439865112
            }
        },
        "name": "move_to_storage_A"
    },
    "id": "LBKPIECE_move_to_storage_A_6",
    "joint_names": [
        "shoulder_pan_joint",
        "shoulder_lift_joint",
        "elbow_joint",
        "wrist_1_joint",
        "wrist_2_joint",
        "wrist_3_joint"
    ],
    "metrics": {
        "cart_traj_len": 0.3529716456459206,
        "distance_elbow_joint": 0.4486433256147724,
        "distance_shoulder_lift_joint": 0.23624569087739933,
        "distance_shoulder_pan_joint": 0.46099340262299904,
        "distance_wrist_1_joint": 0.2345350157410221,
        "distance_wrist_2_joint": 1.1018346297043013,
        "distance_wrist_3_joint": 0.09860618910280383,
        "smoothness": 8.881784197001252e-16,
        "time": 0.12615015999999998,
        "traj_len": 1.606504980902113,
        "weighted_distance": 2.0284083112909563
    },
    "planner": "LBKPIECE",
    "start": {
        "state": {
            "elbow_joint": 1.971548259319323,
            "shoulder_lift_joint": -1.1394851275133948,
            "shoulder_pan_joint": 0.1228115487234821,
            "wrist_1_joint": -0.7804723859257726,
            "wrist_2_joint": 0.12958671773740124,
            "wrist_3_joint": -3.192489227718131
        }
    },
    "waypoints": [
        {
            "positions": [
                0.1228115487234821,
                -1.1394851275133948,
                1.971548259319323,
                -0.7804723859257726,
                0.12958671773740124,
                -3.192489227718131
            ]
        },
        {
            "positions": [
                0.05695534834876796,
                -1.1732345119244518,
                2.0356401629785763,
                -0.8139773881744901,
                0.28699166483801575,
                -3.1784026292748733
            ]
        },
        {
            "positions": [
                -0.008900852025946177,
                -1.2069838963355088,
                2.0997320666378294,
                -0.8474823904232075,
                0.4443966119386302,
                -3.164316030831616
            ]
        },
        {
            "positions": [
                -0.07475705240066033,
                -1.2407332807465659,
                2.1638239702970825,
                -0.8809873926719249,
                0.6018015590392447,
                -3.150229432388358
            ]
        },
        {
            "positions": [
                -0.14061325277537445,
                -1.274482665157623,
                2.2279158739563356,
                -0.9144923949206424,
                0.7592065061398592,
                -3.1361428339451005
            ]
        },
        {
            "positions": [
                -0.20646945315008863,
                -1.3082320495686801,
                2.292007777615589,
                -0.9479973971693598,
                0.9166114532404737,
                -3.1220562355018426
            ]
        },
        {
            "positions": [
                -0.27232565352480276,
                -1.3419814339797371,
                2.3560996812748423,
                -0.9815023994180773,
                1.0740164003410881,
                -3.107969637058585
            ]
        },
        {
            "positions": [
                -0.33818185389951694,
                -1.3757308183907941,
                2.4201915849340954,
                -1.0150074016667947,
                1.2314213474417026,
                -3.0938830386153273
            ]
        }
    ]
}{
    "goal": {
        "global_pose": {
            "orientation": {
                "w": 0.5084816217422485,
                "x": -0.49083608388900757,
                "y": 0.5182115435600281,
                "z": -0.4816462993621826
            },
            "position": {
                "x": 0.5540239810943604,
                "y": 0.030875300988554955,
                "z": 0.16403168439865112
            }
        },
        "name": "move_to_storage_A"
    },
    "id": "LBKPIECE_move_to_storage_A_6",
    "joint_names": [
        "shoulder_pan_joint",
        "shoulder_lift_joint",
        "elbow_joint",
        "wrist_1_joint",
        "wrist_2_joint",
        "wrist_3_joint"
    ],
    "metrics": {
        "cart_traj_len": 0.353737289528175,
        "distance_elbow_joint": 0.45236121671196194,
        "distance_shoulder_lift_joint": 0.23308977475927506,
        "distance_shoulder_pan_joint": 0.4643138794058618,
        "distance_wrist_1_joint": 0.2574071343773294,
        "distance_wrist_2_joint": 1.0918121935444294,
        "distance_wrist_3_joint": 0.10962759352645479,
        "smoothness": 2.2204460668324854e-16,
        "time": 0.576704875,
        "traj_len": 1.6151197455066024,
        "weighted_distance": 2.0437921389661864
    },
    "planner": "LBKPIECE",
    "start": {
        "state": {
            "elbow_joint": 1.97154746011099,
            "shoulder_lift_joint": -1.13948474672311,
            "shoulder_pan_joint": 0.12281154466712228,
            "wrist_1_joint": -0.7804688027058302,
            "wrist_2_joint": 0.12958655903071145,
            "wrist_3_joint": 3.0906928834467795
        }
    },
    "waypoints": [
        {
            "positions": [
                0.12281154466712228,
                -1.13948474672311,
                1.97154746011099,
                -0.7804688027058302,
                0.12958655903071145,
                3.0906928834467795
            ]
        },
        {
            "positions": [
                0.056480990466284894,
                -1.172783285974435,
                2.0361704910698415,
                -0.8172412504740201,
                0.2855597295370585,
                3.106353968236273
            ]
        },
        {
            "positions": [
                -0.009849563734552494,
                -1.20608182522576,
                2.1007935220286935,
                -0.85401369824221,
                0.4415329000434055,
                3.1220150530257667
            ]
        },
        {
            "positions": [
                -0.07618011793538988,
                -1.2393803644770849,
                2.165416552987545,
                -0.8907861460104,
                0.5975060705497526,
                3.13767613781526
            ]
        },
        {
            "positions": [
                -0.14251067213622726,
                -1.2726789037284099,
                2.2300395839463967,
                -0.9275585937785898,
                0.7534792410560996,
                3.153337222604754
            ]
        },
        {
            "positions": [
                -0.2088412263370647,
                -1.305977442979735,
                2.2946626149052483,
                -0.9643310415467798,
                0.9094524115624467,
                3.168998307394247
            ]
        },
        {
            "positions": [
                -0.27517178053790203,
                -1.33927598223106,
                2.3592856458641003,
                -1.0011034893149697,
                1.0654255820687937,
                3.184659392183741
            ]
        },
        {
            "positions": [
                -0.3415023347387395,
                -1.372574521482385,
                2.423908676822952,
                -1.0378759370831596,
                1.2213987525751409,
                3.2003204769732343
            ]
        }
    ]
}{
    "goal": {
        "global_pose": {
            "orientation": {
                "w": 0.5084816217422485,
                "x": -0.49083608388900757,
                "y": 0.5182115435600281,
                "z": -0.4816462993621826
            },
            "position": {
                "x": 0.5540239810943604,
                "y": 0.030875300988554955,
                "z": 0.16403168439865112
            }
        },
        "name": "move_to_storage_A"
    },
    "id": "LBKPIECE_move_to_storage_A_6",
    "joint_names": [
        "shoulder_pan_joint",
        "shoulder_lift_joint",
        "elbow_joint",
        "wrist_1_joint",
        "wrist_2_joint",
        "wrist_3_joint"
    ],
    "metrics": {
        "cart_traj_len": 0.35274526857357263,
        "distance_elbow_joint": 0.45046570356713245,
        "distance_shoulder_lift_joint": 0.23479144065601454,
        "distance_shoulder_pan_joint": 0.4626305503005782,
        "distance_wrist_1_joint": 0.2456292139279488,
        "distance_wrist_2_joint": 1.0923972575346517,
        "distance_wrist_3_joint": 0.08861901524792914,
        "smoothness": 6.661338146305771e-16,
        "time": 0.358440661,
        "traj_len": 1.6045351916471806,
        "weighted_distance": 2.022324821385703
    },
    "planner": "LBKPIECE",
    "start": {
        "state": {
            "elbow_joint": 1.9715472970024885,
            "shoulder_lift_joint": -1.1394870060712896,
            "shoulder_pan_joint": 0.12281152778156021,
            "wrist_1_joint": -0.780463741449964,
            "wrist_2_joint": 0.12958659822042276,
            "wrist_3_joint": 3.090690232415272
        }
    },
    "waypoints": [
        {
            "positions": [
                0.12281152778156021,
                -1.1394870060712896,
                1.9715472970024885,
                -0.780463741449964,
                0.12958659822042276,
                3.090690232415272
            ]
        },
        {
            "positions": [
                0.05672144916719189,
                -1.1730286404507202,
                2.035899540369222,
                -0.8155536291539567,
                0.2856433492968016,
                3.1033500917364045
            ]
        },
        {
            "positions": [
                -0.009368629447176424,
                -1.206570274830151,
                2.100251783735955,
                -0.8506435168579494,
                0.4417001003731804,
                3.116009951057537
            ]
        },
        {
            "positions": [
                -0.07545870806154473,
                -1.2401119092095816,
                2.1646040271026883,
                -0.885733404561942,
                0.5977568514495591,
                3.12866981037867
            ]
        },
        {
            "positions": [
                -0.14154878667591306,
                -1.2736535435890122,
                2.2289562704694212,
                -0.9208232922659347,
                0.753813602525938,
                3.141329669699803
            ]
        },
        {
            "positions": [
                -0.2076388652902814,
                -1.3071951779684428,
                2.2933085138361546,
                -0.9559131799699274,
                0.9098703536023168,
                3.1539895290209357
            ]
        },
        {
            "positions": [
                -0.27372894390464964,
                -1.3407368123478736,
                2.3576607572028876,
                -0.9910030676739201,
                1.0659271046786956,
                3.1666493883420683
            ]
        },
        {
            "positions": [
                -0.33981902251901797,
                -1.3742784467273041,
                2.422013000569621,
                -1.0260929553779128,
                1.2219838557550744,
                3.179309247663201
            ]
        }
    ]
}