{
    "goal": {
        "global_pose": {
            "orientation": {
                "w": 0.5084816262002911,
                "x": -0.4908360881923452,
                "y": 0.5182115481033761,
                "z": -0.48164630358495003
            },
            "position": {
                "x": 0.5540239810943604,
                "y": -0.46912469901144505,
                "z": 0.16403168439865112
            }
        },
        "name": "move_to_storage_B"
    },
    "id": "LBKPIECE_move_to_storage_B_83",
    "joint_names": [
        "shoulder_pan_joint",
        "shoulder_lift_joint",
        "elbow_joint",
        "wrist_1_joint",
        "wrist_2_joint",
        "wrist_3_joint"
    ],
    "metrics": {
        "cart_traj_len": 1.9836561607609688,
        "distance_elbow_joint": 0.7964653603128111,
        "distance_shoulder_lift_joint": 1.1060990727165767,
        "distance_shoulder_pan_joint": 1.4087303551194397,
        "distance_wrist_1_joint": 2.9791139906578783,
        "distance_wrist_2_joint": 2.721135681572654,
        "distance_wrist_3_joint": 3.1273767299899844,
        "smoothness": 0.3016908718145208,
        "time": 0.316917759,
        "traj_len": 3.4840954622928084,
        "weighted_distance": 4.908556236061663
    },
    "planner": "LBKPIECE",
    "start": {
        "state": {
            "elbow_joint": 1.664937868594044,
            "shoulder_lift_joint": -0.661644460510453,
            "shoulder_pan_joint": -0.9139846352900073,
            "wrist_1_joint": 2.146753192139373,
            "wrist_2_joint": -2.2341966793290973,
            "wrist_3_joint": 0.005466555786416001
        }
    },
    "waypoints": [
        {
            "positions": [
                -0.9139846352900073,
                -0.661644460510453,
                1.664937868594044,
                2.146753192139373,
                -2.2341966793290973,
                0.005466555786416001
            ]
        },
        {
            "positions": [
                -0.9081755945729386,
                -0.6700929122390616,
                1.671006188267008,
                2.14520416130305,
                -2.225978902812356,
                0.00822947834653337
            ]
        },
        {
            "positions": [
                -0.8574670029816476,
                -0.7346520619432989,
                1.6524912122953794,
                2.0849419041730064,
                -2.105302364763105,
                0.08192830967046723
            ]
        },
        {
            "positions": [
                -0.8067584113903565,
                -0.7992112116475363,
                1.6339762363237509,
                2.024679647042962,
                -1.9846258267138546,
                0.1556271409944011
            ]
        },
        {
            "positions": [
                -0.7560498197990655,
                -0.8637703613517735,
                1.6154612603521223,
                1.9644173899129185,
                -1.8639492886646036,
                0.22932597231833496
            ]
        },
        {
            "positions": [
                -0.7053412282077746,
                -0.9283295110560108,
                1.5969462843804938,
                1.9041551327828747,
                -1.7432727506153531,
                0.3030248036422688
            ]
        },
        {
            "positions": [
                -0.6546326366164834,
                -0.9928886607602481,
                1.5784313084088653,
                1.843892875652831,
                -1.6225962125661022,
                0.3767236349662027
            ]
        },
        {
            "positions": [
                -0.6039240450251925,
                -1.0574478104644853,
                1.5599163324372367,
                1.783630618522787,
                -1.5019196745168515,
                0.45042246629013655
            ]
        },
        {
            "positions": [
                -0.5532154534339014,
                -1.1220069601687226,
                1.5414013564656082,
                1.723368361392743,
                -1.3812431364676008,
                0.5241212976140703
            ]
        },
        {
            "positions": [
                -0.5025068618426105,
                -1.18656610987296,
                1.5228863804939798,
                1.6631061042626993,
                -1.26056659841835,
                0.5978201289380043
            ]
        },
        {
            "positions": [
                -0.4517982702513194,
                -1.2511252595771971,
                1.5043714045223513,
                1.6028438471326556,
                -1.1398900603690993,
                0.671518960261938
            ]
        },
        {
            "positions": [
                -0.4010896786600283,
                -1.3156844092814346,
                1.4858564285507228,
                1.5425815900026116,
                -1.0192135223198484,
                0.745217791585872
            ]
        },
        {
            "positions": [
                -0.3503810870687374,
                -1.3802435589856716,
                1.4673414525790942,
                1.4823193328725677,
                -0.8985369842705977,
                0.8189166229098059
            ]
        },
        {
            "positions": [
                -0.2996724954774463,
                -1.4448027086899091,
                1.4488264766074657,
                1.422057075742524,
                -0.7778604462213469,
                0.8926154542337398
            ]
        },
        {
            "positions": [
                -0.3414839804935978,
                -1.4278058231879553,
                1.4787326518169555,
                1.303403503412996,
                -0.7112920541968784,
                1.0105221822096693
            ]
        },
        {
            "positions": [
                -0.3832954655097493,
                -1.4108089376860018,
                1.508638827026445,
                1.1847499310834684,
                -0.6447236621724097,
                1.1284289101855989
            ]
        },
        {
            "positions": [
                -0.4251069505259008,
                -1.393812052184048,
                1.5385450022359348,
                1.0660963587539405,
                -0.5781552701479412,
                1.2463356381615283
            ]
        },
        {
            "positions": [
                -0.4669184355420523,
                -1.3768151666820942,
                1.5684511774454246,
                0.9474427864244128,
                -0.5115868781234727,
                1.3642423661374576
            ]
        },
        {
            "positions": [
                -0.5087299205582039,
                -1.3598182811801405,
                1.5983573526549142,
                0.828789214094885,
                -0.4450184860990042,
                1.4821490941133872
            ]
        },
        {
            "positions": [
                -0.5505414055743554,
                -1.342821395678187,
                1.628263527864404,
                0.7101356417653572,
                -0.3784500940745356,
                1.6000558220893168
            ]
        },
        {
            "positions": [
                -0.5923528905905069,
                -1.3258245101762332,
                1.6581697030738938,
                0.5914820694358294,
                -0.3118817020500671,
                1.7179625500652462
            ]
        },
        {
            "positions": [
                -0.6341643756066584,
                -1.3088276246742794,
                1.6880758782833833,
                0.4728284971063016,
                -0.24531331002559853,
                1.8358692780411756
            ]
        },
        {
            "positions": [
                -0.6759758606228099,
                -1.2918307391723256,
                1.7179820534928731,
                0.3541749247767738,
                -0.17874491800113002,
                1.953776006017105
            ]
        },
        {
            "positions": [
                -0.7177873456389614,
                -1.274833853670372,
                1.747888228702363,
                0.23552135244724615,
                -0.1121765259766615,
                2.071682733993035
            ]
        },
        {
            "positions": [
                -0.7595988306551129,
                -1.2578369681684183,
                1.7777944039118525,
                0.11686778011771803,
                -0.045608133952192875,
                2.189589461968964
            ]
        },
        {
            "positions": [
                -0.8014103156712644,
                -1.2408400826664645,
                1.8077005791213423,
                -0.0017857922118096337,
                0.02096025807227564,
                2.3074961899448936
            ]
        },
        {
            "positions": [
                -0.8432218006874159,
                -1.2238431971645107,
                1.837606754330832,
                -0.12043936454133752,
                0.08752865009674426,
                2.4254029179208234
            ]
        },
        {
            "positions": [
                -0.8850332857035674,
                -1.2068463116625572,
                1.8675129295403217,
                -0.2390929368708652,
                0.15409704212121267,
                2.543309645896753
            ]
        },
        {
            "positions": [
                -0.9268447707197189,
                -1.1898494261606034,
                1.8974191047498115,
                -0.3577465092003931,
                0.2206654341456813,
                2.661216373872682
            ]
        },
        {
            "positions": [
                -0.9686562557358704,
                -1.1728525406586496,
                1.9273252799593013,
                -0.47640008152992075,
                0.2872338261701498,
                2.7791231018486116
            ]
        },
        {
            "positions": [
                -1.010467740752022,
                -1.1558556551566959,
                1.9572314551687908,
                -0.5950536538594484,
                0.35380221819461843,
                2.8970298298245414
            ]
        },
        {
            "positions": [
                -1.0522792257681735,
                -1.1388587696547423,
                1.9871376303782806,
                -0.7137072261889763,
                0.42037061021908684,
                3.0149365578004703
            ]
        },
        {
            "positions": [
                -1.094090710784325,
                -1.1218618841527885,
                2.0170438055877704,
                -0.8323607985185044,
                0.4869390022435555,
                3.1328432857764
            ]
        }
    ]
}