{
    "goal": {
        "global_pose": {
            "orientation": {
                "w": 0.7047431493862688,
                "x": -0.7094548369677653,
                "y": 0.0024358444001904,
                "z": -0.0022348060817251984
            },
            "position": {
                "x": -0.39052492380142206,
                "y": 0.3671506643295288,
                "z": 0.19426114857196808
            }
        },
        "name": "move_to_magneteinheit_D"
    },
    "id": "LBKPIECE_move_to_magneteinheit_D_134",
    "joint_names": [
        "shoulder_pan_joint",
        "shoulder_lift_joint",
        "elbow_joint",
        "wrist_1_joint",
        "wrist_2_joint",
        "wrist_3_joint"
    ],
    "metrics": {
        "cart_traj_len": 4.606031124609059,
        "distance_elbow_joint": 3.1468758349927763,
        "distance_shoulder_lift_joint": 1.6250093393883385,
        "distance_shoulder_pan_joint": 4.296136837405201,
        "distance_wrist_1_joint": 1.5081426839352279,
        "distance_wrist_2_joint": 0.4022668612385665,
        "distance_wrist_3_joint": 4.346114601055162,
        "smoothness": 0.48794283675483674,
        "time": 0.39865219199999996,
        "traj_len": 3.9146578596366854,
        "weighted_distance": 5.09187439999254
    },
    "planner": "LBKPIECE",
    "start": {
        "state": {
            "elbow_joint": 0.749534889911806,
            "shoulder_lift_joint": -0.6476975780787326,
            "shoulder_pan_joint": -2.711696901376241,
            "wrist_1_joint": -0.07506478083263063,
            "wrist_2_joint": 0.43296659715538205,
            "wrist_3_joint": -3.14703540197715
        }
    },
    "waypoints": [
        {
            "positions": [
                -2.711696901376241,
                -0.6476975780787326,
                0.749534889911806,
                -0.07506478083263063,
                0.43296659715538205,
                -3.14703540197715
            ]
        },
        {
            "positions": [
                -2.759695129620658,
                -0.7045913865236428,
                0.6797626131485365,
                -0.05331551727379638,
                0.382324563901905,
                -3.2176226292190604
            ]
        },
        {
            "positions": [
                -2.8076933578650745,
                -0.761485194968553,
                0.609990336385267,
                -0.031566253714962134,
                0.33168253064842795,
                -3.2882098564609707
            ]
        },
        {
            "positions": [
                -2.855691586109491,
                -0.8183790034134634,
                0.5402180596219975,
                -0.009816990156127886,
                0.2810404973949509,
                -3.3587970837028815
            ]
        },
        {
            "positions": [
                -2.903689814353908,
                -0.8752728118583736,
                0.47044578285872807,
                0.011932273402706361,
                0.23039846414147386,
                -3.429384310944792
            ]
        },
        {
            "positions": [
                -2.7773339295649078,
                -0.8964193839480709,
                0.40413606761093246,
                0.03504087230429469,
                0.22563862815332977,
                -3.2890403579637004
            ]
        },
        {
            "positions": [
                -2.6509780447759077,
                -0.917565956037768,
                0.33782635236313685,
                0.05814947120588301,
                0.2208787921651857,
                -3.148696404982609
            ]
        },
        {
            "positions": [
                -2.5246221599869076,
                -0.9387125281274653,
                0.27151663711534124,
                0.08125807010747134,
                0.2161189561770416,
                -3.0083524520015175
            ]
        },
        {
            "positions": [
                -2.3982662751979076,
                -0.9598591002171625,
                0.20520692186754563,
                0.10436666900905966,
                0.21135912018889752,
                -2.8680084990204255
            ]
        },
        {
            "positions": [
                -2.271910390408907,
                -0.9810056723068598,
                0.13889720661975002,
                0.127475267910648,
                0.20659928420075346,
                -2.727664546039334
            ]
        },
        {
            "positions": [
                -2.1455545056199075,
                -1.002152244396557,
                0.07258749137195442,
                0.15058386681223632,
                0.20183944821260938,
                -2.5873205930582426
            ]
        },
        {
            "positions": [
                -2.019198620830907,
                -1.0232988164862542,
                0.0062777761241587515,
                0.17369246571382466,
                0.1970796122244653,
                -2.446976640077151
            ]
        },
        {
            "positions": [
                -1.892842736041907,
                -1.0444453885759515,
                -0.0600319391236368,
                0.19680106461541297,
                0.1923197762363212,
                -2.3066326870960596
            ]
        },
        {
            "positions": [
                -1.7664868512529068,
                -1.0655919606656488,
                -0.1263416543714324,
                0.2199096635170013,
                0.18755994024817713,
                -2.166288734114968
            ]
        },
        {
            "positions": [
                -1.6401309664639068,
                -1.0867385327553458,
                -0.19265136961922802,
                0.24301826241858962,
                0.18280010426003304,
                -2.0259447811338767
            ]
        },
        {
            "positions": [
                -1.5137750816749067,
                -1.107885104845043,
                -0.2589610848670236,
                0.26612686132017793,
                0.17804026827188896,
                -1.885600828152785
            ]
        },
        {
            "positions": [
                -1.3874191968859066,
                -1.1290316769347404,
                -0.32527080011481924,
                0.28923546022176627,
                0.1732804322837449,
                -1.7452568751716935
            ]
        },
        {
            "positions": [
                -1.2610633120969066,
                -1.1501782490244377,
                -0.39158051536261496,
                0.3123440591233546,
                0.1685205962956008,
                -1.604912922190602
            ]
        },
        {
            "positions": [
                -1.1347074273079063,
                -1.1713248211141347,
                -0.45789023061041056,
                0.33545265802494295,
                0.16376076030745673,
                -1.4645689692095103
            ]
        },
        {
            "positions": [
                -1.008351542518906,
                -1.192471393203832,
                -0.5241999458582063,
                0.3585612569265313,
                0.15900092431931262,
                -1.3242250162284188
            ]
        },
        {
            "positions": [
                -0.881995657729906,
                -1.2136179652935293,
                -0.5905096611060017,
                0.3816698558281196,
                0.15424108833116856,
                -1.1838810632473273
            ]
        },
        {
            "positions": [
                -0.7556397729409059,
                -1.2347645373832266,
                -0.6568193763537975,
                0.4047784547297079,
                0.14948125234302448,
                -1.0435371102662354
            ]
        },
        {
            "positions": [
                -0.6292838881519058,
                -1.2559111094729238,
                -0.7231290916015929,
                0.42788705363129625,
                0.1447214163548804,
                -0.9031931572851444
            ]
        },
        {
            "positions": [
                -0.5029280033629058,
                -1.2770576815626211,
                -0.7894388068493887,
                0.4509956525328846,
                0.1399615803667363,
                -0.7628492043040525
            ]
        },
        {
            "positions": [
                -0.3765721185739057,
                -1.2982042536523182,
                -0.8557485220971841,
                0.4741042514344729,
                0.13520174437859223,
                -0.622505251322961
            ]
        },
        {
            "positions": [
                -0.25021623378490565,
                -1.3193508257420155,
                -0.9220582373449799,
                0.4972128503360612,
                0.13044190839044817,
                -0.4821612983418695
            ]
        },
        {
            "positions": [
                -0.12386034899590559,
                -1.3404973978317127,
                -0.9883679525927753,
                0.5203214492376496,
                0.12568207240230406,
                -0.341817345360778
            ]
        },
        {
            "positions": [
                0.0024955357930949162,
                -1.36164396992141,
                -1.0546776678405712,
                0.5434300481392378,
                0.12092223641415999,
                -0.20147339237968653
            ]
        },
        {
            "positions": [
                0.12885142058209453,
                -1.382790542011107,
                -1.1209873830883665,
                0.5665386470408262,
                0.11616240042601592,
                -0.061129439398595053
            ]
        },
        {
            "positions": [
                0.25520730537109504,
                -1.4039371141008044,
                -1.1872970983361624,
                0.5896472459424145,
                0.11140256443787183,
                0.07921451358249687
            ]
        },
        {
            "positions": [
                0.38156319016009466,
                -1.4250836861905016,
                -1.253606813583958,
                0.6127558448440029,
                0.10664272844972775,
                0.2195584665635879
            ]
        },
        {
            "positions": [
                0.5079190749490949,
                -1.446230258280199,
                -1.3199165288317536,
                0.6358644437455913,
                0.10188289246158368,
                0.35990241954467994
            ]
        },
        {
            "positions": [
                0.4366777710757195,
                -1.5321252783018822,
                -1.4375105906498613,
                0.7243693988829922,
                0.10612650041986971,
                0.3330383680941883
            ]
        },
        {
            "positions": [
                0.3654364672023441,
                -1.6180202983235654,
                -1.555104652467969,
                0.8128743540203931,
                0.11037010837815574,
                0.3061743166436967
            ]
        },
        {
            "positions": [
                0.29419516332896867,
                -1.7039153183452487,
                -1.6726987142860765,
                0.901379309157794,
                0.11461371633644177,
                0.27931026519320507
            ]
        },
        {
            "positions": [
                0.2229538594555932,
                -1.7898103383669322,
                -1.7902927761041845,
                0.9898842642951949,
                0.1188573242947278,
                0.2524462137427135
            ]
        },
        {
            "positions": [
                0.15171255558221775,
                -1.8757053583886154,
                -1.907886837922292,
                1.078389219432596,
                0.12310093225301383,
                0.2255821622922218
            ]
        },
        {
            "positions": [
                0.08047125170884234,
                -1.9616003784102987,
                -2.0254808997403995,
                1.1668941745699968,
                0.12734454021129987,
                0.1987181108417302
            ]
        },
        {
            "positions": [
                0.009229947835466878,
                -2.047495398431982,
                -2.1430749615585074,
                1.2553991297073979,
                0.1315881481695859,
                0.17185405939123857
            ]
        },
        {
            "positions": [
                -0.06201135603790853,
                -2.1333904184536654,
                -2.2606690233766153,
                1.3439040848447985,
                0.1358317561278719,
                0.14499000794074696
            ]
        },
        {
            "positions": [
                -0.13325265991128396,
                -2.2192854384753486,
                -2.378263085194723,
                1.4324090399821996,
                0.14007536408615795,
                0.11812595649025531
            ]
        },
        {
            "positions": [
                -0.1846159601754367,
                -2.272706917467071,
                -2.3973409450809706,
                1.4330779031025969,
                0.17306604900635172,
                0.08542345794663252
            ]
        }
    ]
}