{
    "goal": {
        "global_pose": {
            "orientation": {
                "w": 0.5084816217422485,
                "x": -0.49083608388900757,
                "y": 0.5182115435600281,
                "z": -0.4816462993621826
            },
            "position": {
                "x": 0.5540239810943604,
                "y": 0.030875300988554955,
                "z": 0.16403168439865112
            }
        },
        "name": "move_to_storage_A"
    },
    "id": "LBKPIECE_move_to_storage_A_27",
    "joint_names": [
        "shoulder_pan_joint",
        "shoulder_lift_joint",
        "elbow_joint",
        "wrist_1_joint",
        "wrist_2_joint",
        "wrist_3_joint"
    ],
    "metrics": {
        "cart_traj_len": 0.35321652704646667,
        "distance_elbow_joint": 0.4526346588569934,
        "distance_shoulder_lift_joint": 0.23168627108089557,
        "distance_shoulder_pan_joint": 0.46238144936580655,
        "distance_wrist_1_joint": 0.2573467911175146,
        "distance_wrist_2_joint": 1.095916245456029,
        "distance_wrist_3_joint": 0.10876517557734822,
        "smoothness": 0.0,
        "time": 0.45989291,
        "traj_len": 1.6151565222772024,
        "weighted_distance": 2.044388412015395
    },
    "planner": "LBKPIECE",
    "start": {
        "state": {
            "elbow_joint": 1.971548259319323,
            "shoulder_lift_joint": -1.1394851275133948,
            "shoulder_pan_joint": 0.1228115487234821,
            "wrist_1_joint": -0.7804723859257726,
            "wrist_2_joint": 0.12958671773740124,
            "wrist_3_joint": -3.192489227718131
        }
    },
    "waypoints": [
        {
            "positions": [
                0.1228115487234821,
                -1.1394851275133948,
                1.971548259319323,
                -0.7804723859257726,
                0.12958671773740124,
                -3.192489227718131
            ]
        },
        {
            "positions": [
                0.05675705595693831,
                -1.172583166239237,
                2.0362103534417506,
                -0.8172362132282747,
                0.2861461813739768,
                -3.1769513454927956
            ]
        },
        {
            "positions": [
                -0.009297436809605486,
                -1.2056812049650794,
                2.1008724475641785,
                -0.8540000405307768,
                0.4427056450105523,
                -3.1614134632674604
            ]
        },
        {
            "positions": [
                -0.07535192957614928,
                -1.2387792436909215,
                2.165534541686606,
                -0.8907638678332789,
                0.5992651086471279,
                -3.145875581042125
            ]
        },
        {
            "positions": [
                -0.14140642234269307,
                -1.2718772824167637,
                2.2301966358090333,
                -0.9275276951357809,
                0.7558245722837035,
                -3.1303376988167892
            ]
        },
        {
            "positions": [
                -0.20746091510923687,
                -1.304975321142606,
                2.294858729931461,
                -0.9642915224382831,
                0.9123840359202791,
                -3.1147998165914537
            ]
        },
        {
            "positions": [
                -0.27351540787578066,
                -1.3380733598684482,
                2.359520824053889,
                -1.001055349740785,
                1.0689434995568545,
                -3.0992619343661185
            ]
        },
        {
            "positions": [
                -0.33956990064232445,
                -1.3711713985942904,
                2.4241829181763164,
                -1.0378191770432872,
                1.2255029631934302,
                -3.083724052140783
            ]
        }
    ]
}{
    "goal": {
        "global_pose": {
            "orientation": {
                "w": 0.5084816217422485,
                "x": -0.49083608388900757,
                "y": 0.5182115435600281,
                "z": -0.4816462993621826
            },
            "position": {
                "x": 0.5540239810943604,
                "y": 0.030875300988554955,
                "z": 0.16403168439865112
            }
        },
        "name": "move_to_storage_A"
    },
    "id": "LBKPIECE_move_to_storage_A_27",
    "joint_names": [
        "shoulder_pan_joint",
        "shoulder_lift_joint",
        "elbow_joint",
        "wrist_1_joint",
        "wrist_2_joint",
        "wrist_3_joint"
    ],
    "metrics": {
        "cart_traj_len": 0.3534353837558694,
        "distance_elbow_joint": 0.448242730836927,
        "distance_shoulder_lift_joint": 0.23281116391537982,
        "distance_shoulder_pan_joint": 0.45982197945177816,
        "distance_wrist_1_joint": 0.23625432864344398,
        "distance_wrist_2_joint": 1.108818766427429,
        "distance_wrist_3_joint": 0.09470166159275228,
        "smoothness": 4.440892098500626e-16,
        "time": 0.42095856600000003,
        "traj_len": 1.6064403601963286,
        "weighted_distance": 2.028577592581582
    },
    "planner": "LBKPIECE",
    "start": {
        "state": {
            "elbow_joint": 1.97154746011099,
            "shoulder_lift_joint": -1.13948474672311,
            "shoulder_pan_joint": 0.12281154466712228,
            "wrist_1_joint": -0.7804688027058302,
            "wrist_2_joint": 0.12958655903071145,
            "wrist_3_joint": 3.0906928834467795
        }
    },
    "waypoints": [
        {
            "positions": [
                0.12281154466712228,
                -1.13948474672311,
                1.97154746011099,
                -0.7804688027058302,
                0.12958655903071145,
                3.0906928834467795
            ]
        },
        {
            "positions": [
                0.0571226904597254,
                -1.172743484425307,
                2.0355821359448365,
                -0.814219421083465,
                0.28798923994891557,
                3.104221692245744
            ]
        },
        {
            "positions": [
                -0.008566163747671482,
                -1.2060022221275042,
                2.0996168117786835,
                -0.8479700394610998,
                0.44639192086711965,
                3.117750501044709
            ]
        },
        {
            "positions": [
                -0.07425501795506835,
                -1.2392609598297013,
                2.16365148761253,
                -0.8817206578387348,
                0.6047946017853238,
                3.1312793098436735
            ]
        },
        {
            "positions": [
                -0.13994387216246523,
                -1.2725196975318984,
                2.2276861634463767,
                -0.9154712762163696,
                0.7631972827035279,
                3.1448081186426378
            ]
        },
        {
            "positions": [
                -0.20563272636986213,
                -1.3057784352340955,
                2.2917208392802237,
                -0.9492218945940045,
                0.9215999636217321,
                3.1583369274416024
            ]
        },
        {
            "positions": [
                -0.27132158057725897,
                -1.3390371729362927,
                2.3557555151140703,
                -0.9829725129716393,
                1.0800026445399362,
                3.171865736240567
            ]
        },
        {
            "positions": [
                -0.33701043478465587,
                -1.3722959106384898,
                2.419790190947917,
                -1.0167231313492742,
                1.2384053254581404,
                3.185394545039532
            ]
        }
    ]
}{
    "goal": {
        "global_pose": {
            "orientation": {
                "w": 0.5084816217422485,
                "x": -0.49083608388900757,
                "y": 0.5182115435600281,
                "z": -0.4816462993621826
            },
            "position": {
                "x": 0.5540239810943604,
                "y": 0.030875300988554955,
                "z": 0.16403168439865112
            }
        },
        "name": "move_to_storage_A"
    },
    "id": "LBKPIECE_move_to_storage_A_27",
    "joint_names": [
        "shoulder_pan_joint",
        "shoulder_lift_joint",
        "elbow_joint",
        "wrist_1_joint",
        "wrist_2_joint",
        "wrist_3_joint"
    ],
    "metrics": {
        "cart_traj_len": 0.3527437059720442,
        "distance_elbow_joint": 0.4478291013217932,
        "distance_shoulder_lift_joint": 0.23415510153080032,
        "distance_shoulder_pan_joint": 0.46154424008371775,
        "distance_wrist_1_joint": 0.2399554776320434,
        "distance_wrist_2_joint": 1.0960468558373655,
        "distance_wrist_3_joint": 0.09235158684266098,
        "smoothness": 0.0,
        "time": 0.639611277,
        "traj_len": 1.603708939692107,
        "weighted_distance": 2.023014550220317
    },
    "planner": "LBKPIECE",
    "start": {
        "state": {
            "elbow_joint": 1.9715472970024885,
            "shoulder_lift_joint": -1.1394870060712896,
            "shoulder_pan_joint": 0.12281152778156021,
            "wrist_1_joint": -0.780463741449964,
            "wrist_2_joint": 0.12958659822042276,
            "wrist_3_joint": 3.090690232415272
        }
    },
    "waypoints": [
        {
            "positions": [
                0.12281152778156021,
                -1.1394870060712896,
                1.9715472970024885,
                -0.780463741449964,
                0.12958659822042276,
                3.090690232415272
            ]
        },
        {
            "positions": [
                0.0568766363410291,
                -1.1729377348614038,
                2.035522882905602,
                -0.8147430953973988,
                0.28616472048290353,
                3.1038833162499375
            ]
        },
        {
            "positions": [
                -0.009058255099502005,
                -1.2063884636515183,
                2.099498468808715,
                -0.8490224493448335,
                0.44274284274538434,
                3.1170764000846036
            ]
        },
        {
            "positions": [
                -0.07499314654003311,
                -1.2398391924416325,
                2.1634740547118283,
                -0.8833018032922683,
                0.5993209650078651,
                3.1302694839192693
            ]
        },
        {
            "positions": [
                -0.14092803798056422,
                -1.273289921231747,
                2.2274496406149416,
                -0.917581157239703,
                0.7558990872703458,
                3.1434625677539354
            ]
        },
        {
            "positions": [
                -0.20686292942109533,
                -1.3067406500218612,
                2.2914252265180552,
                -0.9518605111871379,
                0.9124772095328266,
                3.156655651588601
            ]
        },
        {
            "positions": [
                -0.2727978208616264,
                -1.3401913788119755,
                2.3554008124211685,
                -0.9861398651345726,
                1.0690553317953075,
                3.169848735423267
            ]
        },
        {
            "positions": [
                -0.3387327123021575,
                -1.37364210760209,
                2.4193763983242818,
                -1.0204192190820074,
                1.2256334540577882,
                3.183041819257933
            ]
        }
    ]
}