{
    "goal": {
        "global_pose": {
            "orientation": {
                "w": 0.5084816262002911,
                "x": -0.4908360881923452,
                "y": 0.5182115481033761,
                "z": -0.48164630358495003
            },
            "position": {
                "x": 0.5540239810943604,
                "y": -0.46912469901144505,
                "z": 0.16403168439865112
            }
        },
        "name": "move_to_storage_B"
    },
    "id": "LBKPIECE_move_to_storage_B_128",
    "joint_names": [
        "shoulder_pan_joint",
        "shoulder_lift_joint",
        "elbow_joint",
        "wrist_1_joint",
        "wrist_2_joint",
        "wrist_3_joint"
    ],
    "metrics": {
        "cart_traj_len": 1.1544578466913002,
        "distance_elbow_joint": 0.6693674049673612,
        "distance_shoulder_lift_joint": 0.4612505894544834,
        "distance_shoulder_pan_joint": 1.0861237013159708,
        "distance_wrist_1_joint": 3.006328846922745,
        "distance_wrist_2_joint": 2.7161802915794477,
        "distance_wrist_3_joint": 3.1587555612753655,
        "smoothness": 0.1411355548961266,
        "time": 0.293294018,
        "traj_len": 3.3313670460511213,
        "weighted_distance": 4.81020027198123
    },
    "planner": "LBKPIECE",
    "start": {
        "state": {
            "elbow_joint": 1.664937868594044,
            "shoulder_lift_joint": -0.661644460510453,
            "shoulder_pan_joint": -0.9139846352900073,
            "wrist_1_joint": 2.146753192139373,
            "wrist_2_joint": -2.2341966793290973,
            "wrist_3_joint": 0.005466555786416001
        }
    },
    "waypoints": [
        {
            "positions": [
                -0.9139846352900073,
                -0.661644460510453,
                1.664937868594044,
                2.146753192139373,
                -2.2341966793290973,
                0.005466555786416001
            ]
        },
        {
            "positions": [
                -0.8574435963583966,
                -0.689969297456057,
                1.6453235308289806,
                2.0351480755453215,
                -2.100393048589184,
                0.045120855364267624
            ]
        },
        {
            "positions": [
                -0.800902557426786,
                -0.7182941344016609,
                1.6257091930639176,
                1.9235429589512694,
                -1.966589417849271,
                0.08477515494211925
            ]
        },
        {
            "positions": [
                -0.7443615184951753,
                -0.7466189713472647,
                1.6060948552988543,
                1.8119378423572177,
                -1.8327857871093578,
                0.12442945451997087
            ]
        },
        {
            "positions": [
                -0.6878204795635645,
                -0.7749438082928687,
                1.5864805175337913,
                1.7003327257631657,
                -1.6989821563694447,
                0.1640837540978225
            ]
        },
        {
            "positions": [
                -0.631279440631954,
                -0.8032686452384726,
                1.566866179768728,
                1.5887276091691138,
                -1.5651785256295316,
                0.20373805367567413
            ]
        },
        {
            "positions": [
                -0.5747384017003432,
                -0.8315934821840765,
                1.5472518420036647,
                1.4771224925750621,
                -1.4313748948896183,
                0.24339235325352573
            ]
        },
        {
            "positions": [
                -0.5181973627687325,
                -0.8599183191296804,
                1.5276375042386017,
                1.3655173759810102,
                -1.2975712641497053,
                0.2830466528313774
            ]
        },
        {
            "positions": [
                -0.46165632383712185,
                -0.8882431560752844,
                1.5080231664735384,
                1.2539122593869583,
                -1.1637676334097922,
                0.322700952409229
            ]
        },
        {
            "positions": [
                -0.49183705668774497,
                -0.8994170557843154,
                1.5324256761329125,
                1.1532699777597997,
                -1.0853985264735948,
                0.45801148405935055
            ]
        },
        {
            "positions": [
                -0.5220177895383681,
                -0.9105909554933465,
                1.5568281857922865,
                1.0526276961326413,
                -1.0070294195373974,
                0.5933220157094721
            ]
        },
        {
            "positions": [
                -0.5521985223889911,
                -0.9217648552023775,
                1.5812306954516606,
                0.9519854145054828,
                -0.9286603126012002,
                0.7286325473595936
            ]
        },
        {
            "positions": [
                -0.5823792552396143,
                -0.9329387549114085,
                1.6056332051110347,
                0.8513431328783243,
                -0.8502912056650029,
                0.8639430790097152
            ]
        },
        {
            "positions": [
                -0.6125599880902374,
                -0.9441126546204396,
                1.6300357147704088,
                0.7507008512511658,
                -0.7719220987288056,
                0.9992536106598368
            ]
        },
        {
            "positions": [
                -0.6427407209408604,
                -0.9552865543294706,
                1.6544382244297828,
                0.6500585696240073,
                -0.6935529917926082,
                1.1345641423099582
            ]
        },
        {
            "positions": [
                -0.6729214537914836,
                -0.9664604540385017,
                1.678840734089157,
                0.5494162879968488,
                -0.615183884856411,
                1.26987467396008
            ]
        },
        {
            "positions": [
                -0.7031021866421067,
                -0.9776343537475327,
                1.703243243748531,
                0.44877400636969034,
                -0.5368147779202136,
                1.4051852056102014
            ]
        },
        {
            "positions": [
                -0.7332829194927297,
                -0.9888082534565638,
                1.727645753407905,
                0.34813172474253185,
                -0.45844567098401634,
                1.540495737260323
            ]
        },
        {
            "positions": [
                -0.7634636523433529,
                -0.9999821531655948,
                1.7520482630672791,
                0.24748944311537335,
                -0.380076564047819,
                1.6758062689104445
            ]
        },
        {
            "positions": [
                -0.7936443851939761,
                -1.011156052874626,
                1.7764507727266534,
                0.14684716148821475,
                -0.3017074571116216,
                1.8111168005605662
            ]
        },
        {
            "positions": [
                -0.8238251180445991,
                -1.0223299525836569,
                1.8008532823860275,
                0.04620487986105637,
                -0.22333835017542436,
                1.9464273322106875
            ]
        },
        {
            "positions": [
                -0.8540058508952222,
                -1.033503852292688,
                1.8252557920454016,
                -0.054437401766102234,
                -0.14496924323922689,
                2.081737863860809
            ]
        },
        {
            "positions": [
                -0.8841865837458454,
                -1.044677752001719,
                1.8496583017047756,
                -0.15507968339326061,
                -0.06660013630302974,
                2.217048395510931
            ]
        },
        {
            "positions": [
                -0.9143673165964685,
                -1.0558516517107501,
                1.8740608113641497,
                -0.2557219650204192,
                0.01176897063316762,
                2.3523589271610525
            ]
        },
        {
            "positions": [
                -0.9445480494470915,
                -1.067025551419781,
                1.8984633210235238,
                -0.3563642466475776,
                0.09013807756936498,
                2.487669458811174
            ]
        },
        {
            "positions": [
                -0.9747287822977146,
                -1.0781994511288122,
                1.9228658306828978,
                -0.4570065282747362,
                0.16850718450556235,
                2.6229799904612956
            ]
        },
        {
            "positions": [
                -1.0049095151483378,
                -1.0893733508378431,
                1.947268340342272,
                -0.5576488099018946,
                0.2468762914417595,
                2.758290522111417
            ]
        },
        {
            "positions": [
                -1.0350902479989608,
                -1.1005472505468743,
                1.971670850001646,
                -0.6582910915290532,
                0.32524539837795685,
                2.8936010537615386
            ]
        },
        {
            "positions": [
                -1.065270980849584,
                -1.1117211502559052,
                1.99607335966102,
                -0.7589333731562116,
                0.4036145053141542,
                3.02891158541166
            ]
        },
        {
            "positions": [
                -1.095451713700207,
                -1.1228950499649364,
                2.020475869320394,
                -0.8595756547833703,
                0.48198361225035163,
                3.1642221170617817
            ]
        }
    ]
}