{
    "goal": {
        "global_pose": {
            "orientation": {
                "w": 0.7047431493862688,
                "x": -0.7094548369677653,
                "y": 0.0024358444001904,
                "z": -0.0022348060817251984
            },
            "position": {
                "x": -0.39052492380142206,
                "y": 0.3671506643295288,
                "z": 0.19426114857196808
            }
        },
        "name": "move_to_magneteinheit_D"
    },
    "id": "LBKPIECE_move_to_magneteinheit_D_137",
    "joint_names": [
        "shoulder_pan_joint",
        "shoulder_lift_joint",
        "elbow_joint",
        "wrist_1_joint",
        "wrist_2_joint",
        "wrist_3_joint"
    ],
    "metrics": {
        "cart_traj_len": 4.291060825131429,
        "distance_elbow_joint": 3.33731551907174,
        "distance_shoulder_lift_joint": 1.632593549512958,
        "distance_shoulder_pan_joint": 2.804211083486176,
        "distance_wrist_1_joint": 1.5643023389154063,
        "distance_wrist_2_joint": 1.1941842512185517,
        "distance_wrist_3_joint": 3.2258913999316783,
        "smoothness": 0.23165885416161366,
        "time": 0.438787508,
        "traj_len": 3.7092449558011817,
        "weighted_distance": 4.792574207264174
    },
    "planner": "LBKPIECE",
    "start": {
        "state": {
            "elbow_joint": 0.749534889911806,
            "shoulder_lift_joint": -0.6476975780787326,
            "shoulder_pan_joint": -2.711696901376241,
            "wrist_1_joint": -0.07506478083263063,
            "wrist_2_joint": 0.43296659715538205,
            "wrist_3_joint": -3.14703540197715
        }
    },
    "waypoints": [
        {
            "positions": [
                -2.711696901376241,
                -0.6476975780787326,
                0.749534889911806,
                -0.07506478083263063,
                0.43296659715538205,
                -3.14703540197715
            ]
        },
        {
            "positions": [
                -2.71395398099319,
                -0.7003859209648439,
                0.8009196999669798,
                -0.00036728353525627977,
                0.3934976872440557,
                -3.01382607878095
            ]
        },
        {
            "positions": [
                -2.7162110606101386,
                -0.7530742638509551,
                0.8523045100221536,
                0.07433021376211807,
                0.35402877733272936,
                -2.88061675558475
            ]
        },
        {
            "positions": [
                -2.6140435300666196,
                -0.7997746805705918,
                0.7700506696869385,
                0.10069370922459225,
                0.3290061585708758,
                -2.770646737819623
            ]
        },
        {
            "positions": [
                -2.5118759995231,
                -0.8464750972902284,
                0.6877968293517234,
                0.12705720468706644,
                0.30398353980902215,
                -2.6606767200544956
            ]
        },
        {
            "positions": [
                -2.409708468979581,
                -0.893175514009865,
                0.6055429890165083,
                0.1534207001495406,
                0.2789609210471686,
                -2.5507067022893684
            ]
        },
        {
            "positions": [
                -2.3075409384360617,
                -0.9398759307295016,
                0.5232891486812932,
                0.17978419561201478,
                0.253938302285315,
                -2.440736684524241
            ]
        },
        {
            "positions": [
                -2.2053734078925427,
                -0.9865763474491382,
                0.4410353083460781,
                0.20614769107448896,
                0.2289156835234614,
                -2.3307666667591134
            ]
        },
        {
            "positions": [
                -2.1032058773490236,
                -1.0332767641687748,
                0.358781468010863,
                0.23251118653696312,
                0.20389306476160782,
                -2.220796648993986
            ]
        },
        {
            "positions": [
                -2.001038346805504,
                -1.0799771808884113,
                0.276527627675648,
                0.2588746819994373,
                0.17887044599975424,
                -2.110826631228859
            ]
        },
        {
            "positions": [
                -1.898870816261985,
                -1.126677597608048,
                0.19427378734043288,
                0.2852381774619115,
                0.15384782723790064,
                -2.0008566134637316
            ]
        },
        {
            "positions": [
                -1.7967032857184657,
                -1.1733780143276848,
                0.11201994700521789,
                0.3116016729243857,
                0.12882520847604706,
                -1.8908865956986043
            ]
        },
        {
            "positions": [
                -1.6945357551749465,
                -1.2200784310473214,
                0.02976610667000268,
                0.33796516838685986,
                0.10380258971419343,
                -1.7809165779334768
            ]
        },
        {
            "positions": [
                -1.5923682246314275,
                -1.266778847766958,
                -0.05248773366521231,
                0.364328663849334,
                0.0787799709523399,
                -1.6709465601683497
            ]
        },
        {
            "positions": [
                -1.4902006940879082,
                -1.3134792644865947,
                -0.13474157400042752,
                0.3906921593118082,
                0.053757352190486274,
                -1.5609765424032223
            ]
        },
        {
            "positions": [
                -1.388033163544389,
                -1.3601796812062312,
                -0.2169954143356425,
                0.41705565477428236,
                0.028734733428632697,
                -1.451006524638095
            ]
        },
        {
            "positions": [
                -1.2858656330008698,
                -1.4068800979258678,
                -0.2992492546708576,
                0.44341915023675654,
                0.0037121146667791205,
                -1.3410365068729677
            ]
        },
        {
            "positions": [
                -1.1836981024573507,
                -1.4535805146455045,
                -0.3815030950060725,
                0.46978264569923067,
                -0.021310504095074456,
                -1.2310664891078404
            ]
        },
        {
            "positions": [
                -1.0815305719138313,
                -1.500280931365141,
                -0.4637569353412878,
                0.4961461411617049,
                -0.04633312285692809,
                -1.121096471342713
            ]
        },
        {
            "positions": [
                -0.9793630413703123,
                -1.5469813480847776,
                -0.5460107756765029,
                0.522509636624179,
                -0.07135574161878167,
                -1.0111264535775857
            ]
        },
        {
            "positions": [
                -0.877195510826793,
                -1.5936817648044144,
                -0.6282646160117178,
                0.5488731320866532,
                -0.09637836038063524,
                -0.9011564358124584
            ]
        },
        {
            "positions": [
                -0.7750279802832738,
                -1.640382181524051,
                -0.7105184563469329,
                0.5752366275491274,
                -0.12140097914248882,
                -0.7911864180473311
            ]
        },
        {
            "positions": [
                -0.6728604497397543,
                -1.6870825982436877,
                -0.7927722966821482,
                0.6016001230116017,
                -0.1464235979043425,
                -0.6812164002822034
            ]
        },
        {
            "positions": [
                -0.5706929191962353,
                -1.7337830149633242,
                -0.8750261370173633,
                0.6279636184740758,
                -0.17144621666619603,
                -0.5712463825170762
            ]
        },
        {
            "positions": [
                -0.4685253886527163,
                -1.7804834316829607,
                -0.9572799773525782,
                0.6543271139365499,
                -0.19646883542804955,
                -0.46127636475194933
            ]
        },
        {
            "positions": [
                -0.36635785810919685,
                -1.8271838484025975,
                -1.0395338176877933,
                0.6806906093990241,
                -0.22149145418990318,
                -0.35130634698682206
            ]
        },
        {
            "positions": [
                -0.26419032756567784,
                -1.8738842651222343,
                -1.1217876580230086,
                0.7070541048614982,
                -0.2465140729517568,
                -0.24133632922169435
            ]
        },
        {
            "positions": [
                -0.16202279702215838,
                -1.9205846818418708,
                -1.2040414983582237,
                0.7334176003239725,
                -0.27153669171361045,
                -0.13136631145656708
            ]
        },
        {
            "positions": [
                -0.05985526647863949,
                -1.9672850985615074,
                -1.2862953386934384,
                0.7597810957864466,
                -0.296559310475464,
                -0.021396293691439694
            ]
        },
        {
            "positions": [
                -0.05798174101882986,
                -2.0094972955289503,
                -1.4140185318392233,
                0.8558516463976992,
                -0.25643630024177944,
                -0.008206948067450025
            ]
        },
        {
            "positions": [
                -0.05610821555902022,
                -2.051709492496393,
                -1.5417417249850085,
                0.9519221970089518,
                -0.21631329000809485,
                0.004982397556539644
            ]
        },
        {
            "positions": [
                -0.05423469009921059,
                -2.0939216894638357,
                -1.6694649181307935,
                1.0479927476202044,
                -0.17619027977441032,
                0.01817174318052931
            ]
        },
        {
            "positions": [
                -0.05236116463940096,
                -2.136133886431278,
                -1.7971881112765784,
                1.144063298231457,
                -0.1360672695407257,
                0.03136108880451898
            ]
        },
        {
            "positions": [
                -0.05048763917959132,
                -2.178346083398721,
                -1.9249113044223636,
                1.2401338488427096,
                -0.09594425930704116,
                0.044550434428508645
            ]
        },
        {
            "positions": [
                -0.08016004891476206,
                -2.2104877975064756,
                -2.103065492003401,
                1.3348427743469853,
                -0.05140326335538175,
                0.03103100616453089
            ]
        },
        {
            "positions": [
                -0.1098324586499328,
                -2.2426295116142305,
                -2.2812196795844386,
                1.429551699851261,
                -0.0068622674037223386,
                0.017511577900553132
            ]
        },
        {
            "positions": [
                -0.14714680032562763,
                -2.2614603196029606,
                -2.3317305342618386,
                1.4593946289670183,
                0.08061838285425964,
                0.02114493139958569
            ]
        },
        {
            "positions": [
                -0.18446114200132246,
                -2.2802911275916906,
                -2.382241388939238,
                1.4892375580827757,
                0.1680990331122416,
                0.024778284898618247
            ]
        }
    ]
}