{
    "goal": {
        "global_pose": {
            "orientation": {
                "w": 0.5084816262002911,
                "x": -0.4908360881923452,
                "y": 0.5182115481033761,
                "z": -0.48164630358495003
            },
            "position": {
                "x": 0.5540239810943604,
                "y": -0.46912469901144505,
                "z": 0.16403168439865112
            }
        },
        "name": "move_to_storage_B"
    },
    "id": "LBKPIECE_move_to_storage_B_73",
    "joint_names": [
        "shoulder_pan_joint",
        "shoulder_lift_joint",
        "elbow_joint",
        "wrist_1_joint",
        "wrist_2_joint",
        "wrist_3_joint"
    ],
    "metrics": {
        "cart_traj_len": 0.6887377793064087,
        "distance_elbow_joint": 0.35688566008480116,
        "distance_shoulder_lift_joint": 0.46013843325624904,
        "distance_shoulder_pan_joint": 0.4783168619607504,
        "distance_wrist_1_joint": 2.990627477924817,
        "distance_wrist_2_joint": 2.7005228296323143,
        "distance_wrist_3_joint": 3.1377684493358595,
        "smoothness": 0.046303280148811465,
        "time": 0.694938334,
        "traj_len": 3.1818641882070944,
        "weighted_distance": 4.700100734922991
    },
    "planner": "LBKPIECE",
    "start": {
        "state": {
            "elbow_joint": 1.664937868594044,
            "shoulder_lift_joint": -0.661644460510453,
            "shoulder_pan_joint": -0.9139846352900073,
            "wrist_1_joint": 2.146753192139373,
            "wrist_2_joint": -2.2341966793290973,
            "wrist_3_joint": 0.005466555786416001
        }
    },
    "waypoints": [
        {
            "positions": [
                -0.9139846352900073,
                -0.661644460510453,
                1.664937868594044,
                2.146753192139373,
                -2.2341966793290973,
                0.005466555786416001
            ]
        },
        {
            "positions": [
                -0.9102748107094798,
                -0.6645080462920798,
                1.6646007882218725,
                2.140803586121908,
                -2.227132284883313,
                0.0024383974655324994
            ]
        },
        {
            "positions": [
                -0.8622802304804109,
                -0.6800353887411509,
                1.6638252789715868,
                2.0298181900281422,
                -2.1416280955370803,
                -0.05950408439955446
            ]
        },
        {
            "positions": [
                -0.8142856502513421,
                -0.695562731190222,
                1.6630497697213011,
                1.9188327939343768,
                -2.056123906190847,
                -0.12144656626464141
            ]
        },
        {
            "positions": [
                -0.7662910700222733,
                -0.7110900736392931,
                1.6622742604710155,
                1.8078473978406113,
                -1.9706197168446145,
                -0.18338904812972837
            ]
        },
        {
            "positions": [
                -0.7800670407178156,
                -0.7282022744779352,
                1.6770335126360894,
                1.6973589943561924,
                -1.8690803057134548,
                -0.30626041668888315
            ]
        },
        {
            "positions": [
                -0.793843011413358,
                -0.7453144753165772,
                1.6917927648011633,
                1.5868705908717733,
                -1.7675408945822952,
                -0.42913178524803797
            ]
        },
        {
            "positions": [
                -0.8076189821089003,
                -0.7624266761552192,
                1.7065520169662372,
                1.4763821873873544,
                -1.6660014834511356,
                -0.5520031538071928
            ]
        },
        {
            "positions": [
                -0.8213949528044426,
                -0.7795388769938613,
                1.7213112691313108,
                1.3658937839029355,
                -1.564462072319976,
                -0.6748745223663476
            ]
        },
        {
            "positions": [
                -0.835170923499985,
                -0.7966510778325033,
                1.7360705212963847,
                1.2554053804185163,
                -1.4629226611888164,
                -0.7977458909255024
            ]
        },
        {
            "positions": [
                -0.8489468941955274,
                -0.8137632786711453,
                1.7508297734614586,
                1.1449169769340974,
                -1.3613832500576568,
                -0.9206172594846572
            ]
        },
        {
            "positions": [
                -0.8627228648910698,
                -0.8308754795097874,
                1.7655890256265325,
                1.0344285734496785,
                -1.259843838926497,
                -1.043488628043812
            ]
        },
        {
            "positions": [
                -0.876498835586612,
                -0.8479876803484294,
                1.7803482777916064,
                0.9239401699652595,
                -1.1583044277953376,
                -1.166359996602967
            ]
        },
        {
            "positions": [
                -0.8902748062821544,
                -0.8650998811870715,
                1.79510752995668,
                0.8134517664808405,
                -1.0567650166641778,
                -1.2892313651621217
            ]
        },
        {
            "positions": [
                -0.9040507769776968,
                -0.8822120820257136,
                1.809866782121754,
                0.7029633629964214,
                -0.9552256055330182,
                -1.4121027337212766
            ]
        },
        {
            "positions": [
                -0.9178267476732391,
                -0.8993242828643555,
                1.824626034286828,
                0.5924749595120027,
                -0.8536861944018586,
                -1.5349741022804313
            ]
        },
        {
            "positions": [
                -0.9316027183687814,
                -0.9164364837029976,
                1.8393852864519018,
                0.48198655602758356,
                -0.752146783270699,
                -1.6578454708395862
            ]
        },
        {
            "positions": [
                -0.9453786890643238,
                -0.9335486845416396,
                1.8541445386169757,
                0.37149815254316465,
                -0.6506073721395393,
                -1.780716839398741
            ]
        },
        {
            "positions": [
                -0.9591546597598661,
                -0.9506608853802817,
                1.8689037907820496,
                0.2610097490587455,
                -0.5490679610083795,
                -1.9035882079578959
            ]
        },
        {
            "positions": [
                -0.9729306304554085,
                -0.9677730862189237,
                1.8836630429471235,
                0.15052134557432661,
                -0.4475285498772201,
                -2.0264595765170506
            ]
        },
        {
            "positions": [
                -0.9867066011509509,
                -0.9848852870575657,
                1.8984222951121972,
                0.04003294208990771,
                -0.3459891387460605,
                -2.1493309450762053
            ]
        },
        {
            "positions": [
                -1.0004825718464931,
                -1.0019974878962077,
                1.913181547277271,
                -0.07045546139451142,
                -0.2444497276149007,
                -2.27220231363536
            ]
        },
        {
            "positions": [
                -1.0142585425420356,
                -1.0191096887348499,
                1.927940799442345,
                -0.18094386487893033,
                -0.14291031648374108,
                -2.3950736821945147
            ]
        },
        {
            "positions": [
                -1.0280345132375779,
                -1.0362218895734918,
                1.9427000516074189,
                -0.29143226836334923,
                -0.0413709053525817,
                -2.51794505075367
            ]
        },
        {
            "positions": [
                -1.0418104839331201,
                -1.0533340904121338,
                1.9574593037724928,
                -0.4019206718477686,
                0.06016850577857813,
                -2.6408164193128245
            ]
        },
        {
            "positions": [
                -1.0555864546286626,
                -1.070446291250776,
                1.9722185559375665,
                -0.512409075332187,
                0.16170791690973774,
                -2.763687787871979
            ]
        },
        {
            "positions": [
                -1.069362425324205,
                -1.087558492089418,
                1.9869778081026404,
                -0.622897478816606,
                0.26324732804089734,
                -2.886559156431134
            ]
        },
        {
            "positions": [
                -1.0831383960197474,
                -1.10467069292806,
                2.0017370602677143,
                -0.7333858823010253,
                0.36478673917205695,
                -3.009430524990289
            ]
        },
        {
            "positions": [
                -1.0969143667152896,
                -1.121782893766702,
                2.016496312432788,
                -0.8438742857854442,
                0.46632615030321656,
                -3.1323018935494438
            ]
        }
    ]
}