{
    "goal": {
        "global_pose": {
            "orientation": {
                "w": 0.7031023502349854,
                "x": -0.7110244035720825,
                "y": 0.007748599164187908,
                "z": 0.005598929710686207
            },
            "position": {
                "x": 0.11585023208521307,
                "y": 0.44412534475326537,
                "z": 0.3711530566215515
            }
        },
        "name": "move_to_auspresseinheit_A"
    },
    "id": "LBKPIECE_move_to_auspresseinheit_A_139",
    "joint_names": [
        "shoulder_pan_joint",
        "shoulder_lift_joint",
        "elbow_joint",
        "wrist_1_joint",
        "wrist_2_joint",
        "wrist_3_joint"
    ],
    "metrics": {
        "cart_traj_len": 0.7480269323314999,
        "distance_elbow_joint": 0.4345049280083737,
        "distance_shoulder_lift_joint": 0.5344376453307287,
        "distance_shoulder_pan_joint": 1.041027512978665,
        "distance_wrist_1_joint": 1.5241298170441424,
        "distance_wrist_2_joint": 0.922113174315853,
        "distance_wrist_3_joint": 1.080267010725286,
        "smoothness": 1.0345808012226756,
        "time": 0.35910424100000005,
        "traj_len": 2.3529726068110204,
        "weighted_distance": 3.184848049941098
    },
    "planner": "LBKPIECE",
    "start": {
        "state": {
            "elbow_joint": 2.4225746658250005,
            "shoulder_lift_joint": -1.3736534386056498,
            "shoulder_pan_joint": -0.3378633547517467,
            "wrist_1_joint": -1.0288598680537169,
            "wrist_2_joint": 1.233022673432363,
            "wrist_3_joint": -3.0940220416140027
        }
    },
    "waypoints": [
        {
            "positions": [
                -0.3378633547517467,
                -1.3736534386056498,
                2.4225746658250005,
                -1.0288598680537169,
                1.233022673432363,
                -3.0940220416140027
            ]
        },
        {
            "positions": [
                -0.27987106391331945,
                -1.421821887354904,
                2.39925364618581,
                -0.9238494433536832,
                1.160388481823884,
                -3.0421258671783415
            ]
        },
        {
            "positions": [
                -0.22187877307489215,
                -1.4699903361041582,
                2.3759326265466196,
                -0.8188390186536495,
                1.0877542902154052,
                -2.9902296927426804
            ]
        },
        {
            "positions": [
                -0.16388648223646488,
                -1.5181587848534126,
                2.352611606907429,
                -0.7138285939536159,
                1.0151200986069262,
                -2.9383335183070196
            ]
        },
        {
            "positions": [
                -0.10589419139803757,
                -1.5663272336026668,
                2.329290587268239,
                -0.6088181692535821,
                0.9424859069984473,
                -2.8864373438713584
            ]
        },
        {
            "positions": [
                -0.0479019005596103,
                -1.614495682351921,
                2.3059695676290484,
                -0.5038077445535485,
                0.8698517153899684,
                -2.8345411694356972
            ]
        },
        {
            "positions": [
                0.010090390278816974,
                -1.6626641311011752,
                2.282648547989858,
                -0.39879731985351485,
                0.7972175237814896,
                -2.782644995000036
            ]
        },
        {
            "positions": [
                0.06808268111724425,
                -1.7108325798504294,
                2.2593275283506675,
                -0.2937868951534812,
                0.7245833321730106,
                -2.730748820564375
            ]
        },
        {
            "positions": [
                0.12607497195567158,
                -1.7590010285996838,
                2.236006508711477,
                -0.18877647045344736,
                0.6519491405645316,
                -2.678852646128714
            ]
        },
        {
            "positions": [
                0.18406726279409885,
                -1.807169477348938,
                2.2126854890722867,
                -0.08376604575341373,
                0.5793149489560527,
                -2.626956471693053
            ]
        },
        {
            "positions": [
                0.24205955363252613,
                -1.8553379260981921,
                2.1893644694330963,
                0.02124437894662,
                0.5066807573475738,
                -2.5750602972573917
            ]
        },
        {
            "positions": [
                0.28604343489685125,
                -1.8770953374728154,
                2.2398033733216756,
                -0.04449523217618126,
                0.5196760719958823,
                -2.6530074958842755
            ]
        },
        {
            "positions": [
                0.3694675795628647,
                -1.8832944867655281,
                2.2699745388672534,
                -0.1261524239603822,
                0.5562312607124333,
                -2.7496791094326336
            ]
        },
        {
            "positions": [
                0.45289172422887813,
                -1.8894936360582406,
                2.3001457044128317,
                -0.20780961574458315,
                0.5927864494289844,
                -2.846350722980992
            ]
        },
        {
            "positions": [
                0.5363158688948916,
                -1.8956927853509533,
                2.3303168699584096,
                -0.28946680752878406,
                0.6293416381455355,
                -2.94302233652935
            ]
        },
        {
            "positions": [
                0.619740013560905,
                -1.9018919346436658,
                2.360488035503988,
                -0.371123999312985,
                0.6658968268620865,
                -3.0396939500777087
            ]
        },
        {
            "positions": [
                0.7031641582269185,
                -1.9080910839363785,
                2.3906592010495658,
                -0.45278119109718595,
                0.7024520155786376,
                -3.1363655636260668
            ]
        }
    ]
}