{
    "goal": {
        "global_pose": {
            "orientation": {
                "w": 0.005598929693374612,
                "x": 0.007748599140229565,
                "y": 0.7110244013736278,
                "z": -0.7031023480610252
            },
            "position": {
                "x": 0.1141497679147869,
                "y": -0.7141253447532654,
                "z": 0.3711530566215515
            }
        },
        "name": "move_to_auspresseinheit_B"
    },
    "id": "LBKPIECE_move_to_auspresseinheit_B_28",
    "joint_names": [
        "shoulder_pan_joint",
        "shoulder_lift_joint",
        "elbow_joint",
        "wrist_1_joint",
        "wrist_2_joint",
        "wrist_3_joint"
    ],
    "metrics": {
        "cart_traj_len": 0.5653066667701718,
        "distance_elbow_joint": 0.06669368315135848,
        "distance_shoulder_lift_joint": 0.2931004105373294,
        "distance_shoulder_pan_joint": 0.5779499784996918,
        "distance_wrist_1_joint": 0.33790081246766657,
        "distance_wrist_2_joint": 0.9900990104810552,
        "distance_wrist_3_joint": 0.002200387538812798,
        "smoothness": 3.806478935924272e-16,
        "time": 0.41427063599999997,
        "traj_len": 1.505969549053338,
        "weighted_distance": 1.8974574779694702
    },
    "planner": "LBKPIECE",
    "start": {
        "state": {
            "elbow_joint": 2.0193083361928714,
            "shoulder_lift_joint": -1.1220246554650708,
            "shoulder_pan_joint": -1.0952077554168747,
            "wrist_1_joint": -0.8559753972642168,
            "wrist_2_joint": 0.4759566250798843,
            "wrist_3_joint": -3.1240929996934557
        }
    },
    "waypoints": [
        {
            "positions": [
                -1.0952077554168747,
                -1.1220246554650708,
                2.0193083361928714,
                -0.8559753972642168,
                0.4759566250798843,
                -3.1240929996934557
            ]
        },
        {
            "positions": [
                -1.19153275183349,
                -1.170874723887959,
                2.0081927223343117,
                -0.7996585951862724,
                0.6409731268267268,
                -3.1244597309499245
            ]
        },
        {
            "positions": [
                -1.2878577482501052,
                -1.2197247923108472,
                1.997077108475752,
                -0.7433417931083279,
                0.8059896285735693,
                -3.1248264622063933
            ]
        },
        {
            "positions": [
                -1.3841827446667205,
                -1.2685748607337355,
                1.9859614946171922,
                -0.6870249910303835,
                0.9710061303204118,
                -3.125193193462862
            ]
        },
        {
            "positions": [
                -1.4805077410833358,
                -1.3174249291566238,
                1.9748458807586324,
                -0.6307081889524391,
                1.1360226320672544,
                -3.125559924719331
            ]
        },
        {
            "positions": [
                -1.5768327374999511,
                -1.3662749975795119,
                1.9637302669000727,
                -0.5743913868744946,
                1.301039133814097,
                -3.1259266559757997
            ]
        },
        {
            "positions": [
                -1.6731577339165664,
                -1.4151250660024002,
                1.952614653041513,
                -0.5180745847965502,
                1.4660556355609395,
                -3.1262933872322685
            ]
        }
    ]
}