{
    "goal": {
        "global_pose": {
            "orientation": {
                "w": -0.00223480608172531,
                "x": 0.0024358444001904467,
                "y": 0.7094548369677653,
                "z": -0.704743149386269
            },
            "position": {
                "x": -0.37947507619857795,
                "y": -0.6371506643295288,
                "z": 0.19426114857196808
            }
        },
        "name": "move_to_magneteinheit_C"
    },
    "id": "LBKPIECE_move_to_magneteinheit_C_150",
    "joint_names": [
        "shoulder_pan_joint",
        "shoulder_lift_joint",
        "elbow_joint",
        "wrist_1_joint",
        "wrist_2_joint",
        "wrist_3_joint"
    ],
    "metrics": {
        "cart_traj_len": 1.1051675081941679,
        "distance_elbow_joint": 0.41283976571880165,
        "distance_shoulder_lift_joint": 0.8661655498675815,
        "distance_shoulder_pan_joint": 1.2749463328667374,
        "distance_wrist_1_joint": 1.0028478764077742,
        "distance_wrist_2_joint": 0.7920741204678797,
        "distance_wrist_3_joint": 4.167405408069531,
        "smoothness": 1.3283045002556395,
        "time": 0.1776579,
        "traj_len": 2.9182664466080377,
        "weighted_distance": 4.318102808689601
    },
    "planner": "LBKPIECE",
    "start": {
        "state": {
            "elbow_joint": 1.9565354010623817,
            "shoulder_lift_joint": -1.4165861575791021,
            "shoulder_pan_joint": -1.6717766225146293,
            "wrist_1_joint": -0.5286633292919765,
            "wrist_2_joint": 1.472756589071564,
            "wrist_3_joint": -3.1238370188695823
        }
    },
    "waypoints": [
        {
            "positions": [
                -1.6717766225146293,
                -1.4165861575791021,
                1.9565354010623817,
                -0.5286633292919765,
                1.472756589071564,
                -3.1238370188695823
            ]
        },
        {
            "positions": [
                -1.6248854790807694,
                -1.4298663220951056,
                1.9611530662343972,
                -0.4441034687659836,
                1.364313430447973,
                -3.0331199461123557
            ]
        },
        {
            "positions": [
                -1.5779943356469093,
                -1.4431464866111092,
                1.9657707314064128,
                -0.3595436082399908,
                1.255870271824382,
                -2.942402873355129
            ]
        },
        {
            "positions": [
                -1.5311031922130494,
                -1.4564266511271127,
                1.9703883965784286,
                -0.27498374771399803,
                1.1474271132007912,
                -2.851685800597902
            ]
        },
        {
            "positions": [
                -1.4842120487791894,
                -1.4697068156431161,
                1.9750060617504441,
                -0.19042388718800518,
                1.0389839545772002,
                -2.7609687278406754
            ]
        },
        {
            "positions": [
                -1.5928972606980358,
                -1.4979141620326126,
                1.9952598085373199,
                -0.2316716972690056,
                1.0369087633323744,
                -2.5702805655669785
            ]
        },
        {
            "positions": [
                -1.701582472616882,
                -1.526121508422109,
                2.0155135553241954,
                -0.27291950735000603,
                1.0348335720875486,
                -2.3795924032932816
            ]
        },
        {
            "positions": [
                -1.8102676845357282,
                -1.5543288548116054,
                2.035767302111071,
                -0.31416731743100645,
                1.0327583808427228,
                -2.1889042410195847
            ]
        },
        {
            "positions": [
                -1.9189528964545746,
                -1.582536201201102,
                2.056021048897947,
                -0.3554151275120069,
                1.030683189597897,
                -1.9982160787458876
            ]
        },
        {
            "positions": [
                -2.027638108373421,
                -1.6107435475905982,
                2.0762747956848226,
                -0.3966629375930073,
                1.028607998353071,
                -1.8075279164721905
            ]
        },
        {
            "positions": [
                -2.1363233202922673,
                -1.6389508939800947,
                2.0965285424716984,
                -0.4379107476740077,
                1.0265328071082451,
                -1.6168397541984936
            ]
        },
        {
            "positions": [
                -2.2450085322111137,
                -1.6671582403695913,
                2.116782289258574,
                -0.47915855775500815,
                1.0244576158634193,
                -1.4261515919247967
            ]
        },
        {
            "positions": [
                -2.3536937441299597,
                -1.6953655867590876,
                2.13703603604545,
                -0.5204063678360086,
                1.0223824246185935,
                -1.2354634296510998
            ]
        },
        {
            "positions": [
                -2.462378956048806,
                -1.723572933148584,
                2.1572897828323256,
                -0.561654177917009,
                1.0203072333737677,
                -1.0447752673774027
            ]
        },
        {
            "positions": [
                -2.482509363377982,
                -1.6805037827266935,
                2.169116011293291,
                -0.591329416250666,
                1.0046206685364176,
                -1.2207483079382166
            ]
        },
        {
            "positions": [
                -2.502639770707157,
                -1.6374346323048028,
                2.180942239754257,
                -0.621004654584323,
                0.9889341036990674,
                -1.3967213484990306
            ]
        },
        {
            "positions": [
                -2.5227701780363327,
                -1.5943654818829123,
                2.192768468215222,
                -0.65067989291798,
                0.9732475388617172,
                -1.5726943890598446
            ]
        },
        {
            "positions": [
                -2.5157953737685963,
                -1.532941007163994,
                2.167538939848656,
                -0.6798730969999555,
                0.9314525288248554,
                -1.7956121797591171
            ]
        },
        {
            "positions": [
                -2.5088205695008603,
                -1.4715165324450759,
                2.1423094114820906,
                -0.7090663010819309,
                0.8896575187879935,
                -2.0185299704583897
            ]
        },
        {
            "positions": [
                -2.501845765233124,
                -1.4100920577261575,
                2.1170798831155246,
                -0.7382595051639063,
                0.8478625087511317,
                -2.241447761157662
            ]
        },
        {
            "positions": [
                -2.4948709609653874,
                -1.3486675830072392,
                2.0918503547489586,
                -0.7674527092458817,
                0.8060674987142697,
                -2.4643655518569347
            ]
        },
        {
            "positions": [
                -2.487896156697651,
                -1.2872431082883211,
                2.0666208263823926,
                -0.7966459133278572,
                0.7642724886774079,
                -2.6872833425562073
            ]
        },
        {
            "positions": [
                -2.480921352429915,
                -1.2258186335694028,
                2.041391298015827,
                -0.8258391174098326,
                0.7224774786405461,
                -2.91020113325548
            ]
        },
        {
            "positions": [
                -2.4739465481621785,
                -1.1643941588504845,
                2.016161769649261,
                -0.8550323214918081,
                0.6806824686036842,
                -3.1331189239547523
            ]
        }
    ]
}