{
    "goal": {
        "global_pose": {
            "orientation": {
                "w": -0.4816463035849501,
                "x": 0.5182115481033762,
                "y": 0.4908360881923453,
                "z": -0.5084816262002911
            },
            "position": {
                "x": -0.8240239810943604,
                "y": -0.300875300988555,
                "z": 0.16403168439865112
            }
        },
        "name": "move_to_storage_C"
    },
    "id": "LBKPIECE_move_to_storage_C_145",
    "joint_names": [
        "shoulder_pan_joint",
        "shoulder_lift_joint",
        "elbow_joint",
        "wrist_1_joint",
        "wrist_2_joint",
        "wrist_3_joint"
    ],
    "metrics": {
        "cart_traj_len": 0.5770137654061783,
        "distance_elbow_joint": 0.26145533818469513,
        "distance_shoulder_lift_joint": 0.19069989380269237,
        "distance_shoulder_pan_joint": 0.49389479171342643,
        "distance_wrist_1_joint": 0.08666224610163431,
        "distance_wrist_2_joint": 1.0728033692758854,
        "distance_wrist_3_joint": 0.07285905186537356,
        "smoothness": 0.0,
        "time": 0.617937847,
        "traj_len": 1.4759318042998149,
        "weighted_distance": 1.8664293209366312
    },
    "planner": "LBKPIECE",
    "start": {
        "state": {
            "elbow_joint": 2.010868314990456,
            "shoulder_lift_joint": -1.1634956873337592,
            "shoulder_pan_joint": -2.4736205022346125,
            "wrist_1_joint": -0.8367026794202681,
            "wrist_2_joint": 0.6746043897044499,
            "wrist_3_joint": -3.1496632123970403
        }
    },
    "waypoints": [
        {
            "positions": [
                -2.4736205022346125,
                -1.1634956873337592,
                2.010868314990456,
                -0.8367026794202681,
                0.6746043897044499,
                -3.1496632123970403
            ]
        },
        {
            "positions": [
                -2.5559363008535168,
                -1.131712371699977,
                1.9672924252930066,
                -0.8222589717366624,
                0.8534049512504308,
                -3.1375200370861447
            ]
        },
        {
            "positions": [
                -2.6382520994724215,
                -1.0999290560661952,
                1.9237165355955574,
                -0.8078152640530567,
                1.0322055127964118,
                -3.125376861775249
            ]
        },
        {
            "positions": [
                -2.7205678980913257,
                -1.068145740432413,
                1.8801406458981083,
                -0.793371556369451,
                1.2110060743423925,
                -3.1132336864643535
            ]
        },
        {
            "positions": [
                -2.80288369671023,
                -1.036362424798631,
                1.836564756200659,
                -0.7789278486858452,
                1.3898066358883736,
                -3.101090511153458
            ]
        },
        {
            "positions": [
                -2.8851994953291347,
                -1.0045791091648488,
                1.7929888665032099,
                -0.7644841410022395,
                1.5686071974343543,
                -3.0889473358425623
            ]
        },
        {
            "positions": [
                -2.967515293948039,
                -0.9727957935310668,
                1.7494129768057607,
                -0.7500404333186338,
                1.7474077589803352,
                -3.0768041605316667
            ]
        }
    ]
}