{
    "goal": {
        "global_pose": {
            "orientation": {
                "w": 0.5084816262002911,
                "x": -0.4908360881923452,
                "y": 0.5182115481033761,
                "z": -0.48164630358495003
            },
            "position": {
                "x": 0.5540239810943604,
                "y": -0.46912469901144505,
                "z": 0.16403168439865112
            }
        },
        "name": "move_to_storage_B"
    },
    "id": "LBKPIECE_move_to_storage_B_32",
    "joint_names": [
        "shoulder_pan_joint",
        "shoulder_lift_joint",
        "elbow_joint",
        "wrist_1_joint",
        "wrist_2_joint",
        "wrist_3_joint"
    ],
    "metrics": {
        "cart_traj_len": 0.7894445556410519,
        "distance_elbow_joint": 0.3479924095756157,
        "distance_shoulder_lift_joint": 0.4586677157725738,
        "distance_shoulder_pan_joint": 0.3653396404201198,
        "distance_wrist_1_joint": 2.9802106116236455,
        "distance_wrist_2_joint": 2.6981303555438005,
        "distance_wrist_3_joint": 3.130005385981398,
        "smoothness": 0.013854678075483958,
        "time": 0.384177865,
        "traj_len": 3.1591685803257086,
        "weighted_distance": 4.681740900353991
    },
    "planner": "LBKPIECE",
    "start": {
        "state": {
            "elbow_joint": 1.664937868594044,
            "shoulder_lift_joint": -0.661644460510453,
            "shoulder_pan_joint": -0.9139846352900073,
            "wrist_1_joint": 2.146753192139373,
            "wrist_2_joint": -2.2341966793290973,
            "wrist_3_joint": 0.005466555786416001
        }
    },
    "waypoints": [
        {
            "positions": [
                -0.9139846352900073,
                -0.661644460510453,
                1.664937868594044,
                2.146753192139373,
                -2.2341966793290973,
                0.005466555786416001
            ]
        },
        {
            "positions": [
                -0.9463537085615286,
                -0.7009677275538772,
                1.693621901717717,
                2.119014082549913,
                -2.122206774801275,
                0.017503012981975492
            ]
        },
        {
            "positions": [
                -0.9947341168185789,
                -0.762718331272712,
                1.7362131014409763,
                2.0726371303418727,
                -1.9470365996083445,
                0.03545450618962198
            ]
        },
        {
            "positions": [
                -1.0431145250756293,
                -0.824468934991547,
                1.7788043011642354,
                2.026260178133832,
                -1.7718664244154143,
                0.053405999397268464
            ]
        },
        {
            "positions": [
                -1.0914949333326796,
                -0.886219538710382,
                1.8213955008874947,
                1.9798832259257915,
                -1.596696249222484,
                0.07135749260491495
            ]
        },
        {
            "positions": [
                -1.13987534158973,
                -0.9479701424292168,
                1.863986700610754,
                1.933506273717751,
                -1.4215260740295537,
                0.08930898581256144
            ]
        },
        {
            "positions": [
                -1.1882557498467803,
                -1.0097207461480517,
                1.906577900334013,
                1.8871293215097105,
                -1.2463558988366232,
                0.10726047902020791
            ]
        },
        {
            "positions": [
                -1.183702323553613,
                -1.0152503176548004,
                1.9118955192257954,
                1.7510999844600112,
                -1.1608414200840569,
                0.25867105215758823
            ]
        },
        {
            "positions": [
                -1.1791488972604456,
                -1.0207798891615492,
                1.9172131381175777,
                1.6150706474103123,
                -1.0753269413314905,
                0.4100816252949685
            ]
        },
        {
            "positions": [
                -1.1745954709672783,
                -1.026309460668298,
                1.9225307570093602,
                1.479041310360613,
                -0.9898124625789243,
                0.5614921984323488
            ]
        },
        {
            "positions": [
                -1.1700420446741109,
                -1.0318390321750468,
                1.9278483759011424,
                1.3430119733109138,
                -0.904297983826358,
                0.7129027715697291
            ]
        },
        {
            "positions": [
                -1.1654886183809436,
                -1.0373686036817955,
                1.9331659947929247,
                1.2069826362612148,
                -0.8187835050737917,
                0.8643133447071094
            ]
        },
        {
            "positions": [
                -1.1609351920877762,
                -1.0428981751885442,
                1.938483613684707,
                1.0709532992115158,
                -0.7332690263212254,
                1.0157239178444897
            ]
        },
        {
            "positions": [
                -1.156381765794609,
                -1.048427746695293,
                1.9438012325764893,
                0.9349239621618166,
                -0.647754547568659,
                1.1671344909818697
            ]
        },
        {
            "positions": [
                -1.1518283395014415,
                -1.0539573182020419,
                1.9491188514682718,
                0.7988946251121174,
                -0.5622400688160927,
                1.3185450641192502
            ]
        },
        {
            "positions": [
                -1.1472749132082742,
                -1.0594868897087906,
                1.954436470360054,
                0.6628652880624182,
                -0.47672559006352644,
                1.4699556372566305
            ]
        },
        {
            "positions": [
                -1.1427214869151068,
                -1.0650164612155393,
                1.9597540892518364,
                0.5268359510127192,
                -0.3912111113109601,
                1.6213662103940107
            ]
        },
        {
            "positions": [
                -1.1381680606219395,
                -1.070546032722288,
                1.9650717081436186,
                0.39080661396301997,
                -0.30569663255839374,
                1.7727767835313912
            ]
        },
        {
            "positions": [
                -1.1336146343287723,
                -1.0760756042290367,
                1.970389327035401,
                0.25477727691332097,
                -0.2201821538058275,
                1.9241873566687713
            ]
        },
        {
            "positions": [
                -1.1290612080356048,
                -1.0816051757357856,
                1.9757069459271834,
                0.11874793986362175,
                -0.13466767505326116,
                2.0755979298061518
            ]
        },
        {
            "positions": [
                -1.1245077817424376,
                -1.0871347472425343,
                1.9810245648189657,
                -0.01728139718607724,
                -0.04915319630069481,
                2.227008502943532
            ]
        },
        {
            "positions": [
                -1.1199543554492701,
                -1.092664318749283,
                1.986342183710748,
                -0.15331073423577624,
                0.036361282451871535,
                2.3784190760809123
            ]
        },
        {
            "positions": [
                -1.115400929156103,
                -1.0981938902560318,
                1.9916598026025303,
                -0.2893400712854757,
                0.12187576120443788,
                2.529829649218293
            ]
        },
        {
            "positions": [
                -1.1108475028629354,
                -1.1037234617627805,
                1.9969774214943126,
                -0.42536940833517467,
                0.207390239957004,
                2.681240222355673
            ]
        },
        {
            "positions": [
                -1.1062940765697682,
                -1.1092530332695294,
                2.002295040386095,
                -0.5613987453848741,
                0.29290471870957036,
                2.8326507954930533
            ]
        },
        {
            "positions": [
                -1.1017406502766007,
                -1.114782604776278,
                2.007612659277877,
                -0.6974280824345727,
                0.3784191974621367,
                2.9840613686304334
            ]
        },
        {
            "positions": [
                -1.0971872239834335,
                -1.1203121762830268,
                2.0129302781696596,
                -0.8334574194842721,
                0.4639336762147031,
                3.135471941767814
            ]
        }
    ]
}