{
    "goal": {
        "global_pose": {
            "orientation": {
                "w": 0.005598929693374612,
                "x": 0.007748599140229565,
                "y": 0.7110244013736278,
                "z": -0.7031023480610252
            },
            "position": {
                "x": 0.1141497679147869,
                "y": -0.7141253447532654,
                "z": 0.3711530566215515
            }
        },
        "name": "move_to_auspresseinheit_B"
    },
    "id": "LBKPIECE_move_to_auspresseinheit_B_109",
    "joint_names": [
        "shoulder_pan_joint",
        "shoulder_lift_joint",
        "elbow_joint",
        "wrist_1_joint",
        "wrist_2_joint",
        "wrist_3_joint"
    ],
    "metrics": {
        "cart_traj_len": 0.5653459936820957,
        "distance_elbow_joint": 0.0651872917989107,
        "distance_shoulder_lift_joint": 0.29370125925296753,
        "distance_shoulder_pan_joint": 0.5775650285321454,
        "distance_wrist_1_joint": 0.33465659553297633,
        "distance_wrist_2_joint": 0.9948063058161034,
        "distance_wrist_3_joint": 0.0013065839249022382,
        "smoothness": 0.0,
        "time": 0.8215122930000001,
        "traj_len": 1.5057300770250974,
        "weighted_distance": 1.8971818927179571
    },
    "planner": "LBKPIECE",
    "start": {
        "state": {
            "elbow_joint": 2.0193083361928714,
            "shoulder_lift_joint": -1.1220246554650708,
            "shoulder_pan_joint": -1.0952077554168747,
            "wrist_1_joint": -0.8559753972642168,
            "wrist_2_joint": 0.4759566250798843,
            "wrist_3_joint": -3.1240929996934557
        }
    },
    "waypoints": [
        {
            "positions": [
                -1.0952077554168747,
                -1.1220246554650708,
                2.0193083361928714,
                -0.8559753972642168,
                0.4759566250798843,
                -3.1240929996934557
            ]
        },
        {
            "positions": [
                -1.1914685935055656,
                -1.1709748653405654,
                2.0084437875597194,
                -0.8001992980087207,
                0.6417576760492348,
                -3.123875235705972
            ]
        },
        {
            "positions": [
                -1.2877294315942565,
                -1.21992507521606,
                1.9975792389265679,
                -0.7444231987532247,
                0.8075587270185853,
                -3.1236574717184884
            ]
        },
        {
            "positions": [
                -1.3839902696829474,
                -1.2688752850915546,
                1.986714690293416,
                -0.6886470994977286,
                0.9733597779879359,
                -3.1234397077310048
            ]
        },
        {
            "positions": [
                -1.4802511077716383,
                -1.3178254949670491,
                1.9758501416602643,
                -0.6328710002422326,
                1.1391608289572865,
                -3.1232219437435207
            ]
        },
        {
            "positions": [
                -1.5765119458603292,
                -1.3667757048425437,
                1.9649855930271125,
                -0.5770949009867365,
                1.3049618799266371,
                -3.123004179756037
            ]
        },
        {
            "positions": [
                -1.67277278394902,
                -1.4157259147180383,
                1.9541210443939607,
                -0.5213188017312405,
                1.4707629308959878,
                -3.1227864157685534
            ]
        }
    ]
}