{
    "goal": {
        "global_pose": {
            "orientation": {
                "w": -0.00223480608172531,
                "x": 0.0024358444001904467,
                "y": 0.7094548369677653,
                "z": -0.704743149386269
            },
            "position": {
                "x": 0.6205249238014221,
                "y": -0.6371506643295288,
                "z": 0.19426114857196808
            }
        },
        "name": "move_to_magneteinheit_B"
    },
    "id": "LBKPIECE_move_to_magneteinheit_B_87",
    "joint_names": [
        "shoulder_pan_joint",
        "shoulder_lift_joint",
        "elbow_joint",
        "wrist_1_joint",
        "wrist_2_joint",
        "wrist_3_joint"
    ],
    "metrics": {
        "cart_traj_len": 3.9002232750703496,
        "distance_elbow_joint": 4.944693575707465,
        "distance_shoulder_lift_joint": 0.9899953837106117,
        "distance_shoulder_pan_joint": 2.505102736768817,
        "distance_wrist_1_joint": 4.426440250541126,
        "distance_wrist_2_joint": 0.4278544308059342,
        "distance_wrist_3_joint": 3.6480219541944767,
        "smoothness": 0.3569057096646632,
        "time": 0.500769125,
        "traj_len": 4.11607924264444,
        "weighted_distance": 5.393741458529918
    },
    "planner": "LBKPIECE",
    "start": {
        "state": {
            "elbow_joint": 2.6216224122426386,
            "shoulder_lift_joint": -1.4174107377796124,
            "shoulder_pan_joint": 0.7066234856936794,
            "wrist_1_joint": 1.9546482284002225,
            "wrist_2_joint": -0.7096286983471962,
            "wrist_3_joint": 0.005740856962016249
        }
    },
    "waypoints": [
        {
            "positions": [
                0.7066234856936794,
                -1.4174107377796124,
                2.6216224122426386,
                1.9546482284002225,
                -0.7096286983471962,
                0.005740856962016249
            ]
        },
        {
            "positions": [
                0.6360339462115641,
                -1.4494178932843427,
                2.627173430042801,
                1.9632292998876524,
                -0.7424379563078325,
                -0.09370134298034918
            ]
        },
        {
            "positions": [
                0.5654444067294486,
                -1.481425048789073,
                2.6327244478429632,
                1.9718103713750823,
                -0.7752472142684687,
                -0.1931435429227146
            ]
        },
        {
            "positions": [
                0.5386061065895168,
                -1.4592779065476593,
                2.4647451503211633,
                1.8622322833701568,
                -0.7342835208797543,
                -0.20560781361673275
            ]
        },
        {
            "positions": [
                0.511767806449585,
                -1.4371307643062456,
                2.2967658527993633,
                1.7526541953652313,
                -0.69331982749104,
                -0.21807208431075092
            ]
        },
        {
            "positions": [
                0.4849295063096532,
                -1.414983622064832,
                2.1287865552775638,
                1.6430761073603057,
                -0.6523561341023258,
                -0.23053635500476907
            ]
        },
        {
            "positions": [
                0.45809120616972143,
                -1.3928364798234183,
                1.9608072577557638,
                1.5334980193553802,
                -0.6113924407136115,
                -0.24300062569878725
            ]
        },
        {
            "positions": [
                0.4312529060297896,
                -1.3706893375820046,
                1.792827960233964,
                1.4239199313504547,
                -0.5704287473248972,
                -0.2554648963928054
            ]
        },
        {
            "positions": [
                0.4959458327429233,
                -1.3773033237472656,
                1.6777742703309735,
                1.3095151721469236,
                -0.5714716687985145,
                -0.17140435516896163
            ]
        },
        {
            "positions": [
                0.560638759456057,
                -1.3839173099125266,
                1.562720580427983,
                1.1951104129433925,
                -0.5725145902721318,
                -0.08734381394511789
            ]
        },
        {
            "positions": [
                0.6253316861691907,
                -1.3905312960777876,
                1.4476668905249923,
                1.0807056537398616,
                -0.5735575117457491,
                -0.0032832727212741553
            ]
        },
        {
            "positions": [
                0.6900246128823244,
                -1.3971452822430483,
                1.3326132006220017,
                0.9663008945363305,
                -0.5746004332193664,
                0.08077726850256961
            ]
        },
        {
            "positions": [
                0.7547175395954582,
                -1.4037592684083093,
                1.2175595107190111,
                0.8518961353327995,
                -0.5756433546929837,
                0.16483780972641338
            ]
        },
        {
            "positions": [
                0.8194104663085918,
                -1.4103732545735703,
                1.1025058208160206,
                0.7374913761292684,
                -0.576686276166601,
                0.24889835095025709
            ]
        },
        {
            "positions": [
                0.8841033930217255,
                -1.4169872407388313,
                0.98745213091303,
                0.6230866169257374,
                -0.5777291976402182,
                0.33295889217410085
            ]
        },
        {
            "positions": [
                0.9487963197348592,
                -1.4236012269040923,
                0.8723984410100394,
                0.5086818577222063,
                -0.5787721191138354,
                0.4170194333979446
            ]
        },
        {
            "positions": [
                1.013489246447993,
                -1.4302152130693533,
                0.7573447511070486,
                0.3942770985186752,
                -0.5798150405874527,
                0.5010799746217884
            ]
        },
        {
            "positions": [
                1.0781821731611267,
                -1.436829199234614,
                0.6422910612040582,
                0.2798723393151443,
                -0.58085796206107,
                0.5851405158456322
            ]
        },
        {
            "positions": [
                1.1428750998742605,
                -1.443443185399875,
                0.5272373713010674,
                0.16546758011161322,
                -0.5819008835346873,
                0.669201057069476
            ]
        },
        {
            "positions": [
                1.207568026587394,
                -1.450057171565136,
                0.41218368139807704,
                0.05106282090808212,
                -0.5829438050083046,
                0.7532615982933195
            ]
        },
        {
            "positions": [
                1.2722609533005278,
                -1.456671157730397,
                0.29712999149508623,
                -0.06334193829544899,
                -0.5839867264819218,
                0.8373221395171635
            ]
        },
        {
            "positions": [
                1.3369538800136613,
                -1.463285143895658,
                0.18207630159209587,
                -0.17774669749897987,
                -0.5850296479555391,
                0.921382680741007
            ]
        },
        {
            "positions": [
                1.401646806726795,
                -1.469899130060919,
                0.06702261168910506,
                -0.29215145670251097,
                -0.5860725694291564,
                1.005443221964851
            ]
        },
        {
            "positions": [
                1.4663397334399288,
                -1.4765131162261798,
                -0.0480310782138853,
                -0.4065562159060421,
                -0.5871154909027737,
                1.0895037631886946
            ]
        },
        {
            "positions": [
                1.5310326601530624,
                -1.4831271023914407,
                -0.1630847681168759,
                -0.520960975109573,
                -0.588158412376391,
                1.1735643044125383
            ]
        },
        {
            "positions": [
                1.5957255868661964,
                -1.4897410885567017,
                -0.2781384580198669,
                -0.6353657343131043,
                -0.5892013338500083,
                1.2576248456363823
            ]
        },
        {
            "positions": [
                1.66041851357933,
                -1.4963550747219627,
                -0.3931921479228573,
                -0.7497704935166354,
                -0.5902442553236256,
                1.341685386860226
            ]
        },
        {
            "positions": [
                1.7251114402924637,
                -1.5029690608872237,
                -0.5082458378258476,
                -0.864175252720166,
                -0.5912871767972429,
                1.4257459280840696
            ]
        },
        {
            "positions": [
                1.7898043670055972,
                -1.5095830470524847,
                -0.623299527728838,
                -0.9785800119236971,
                -0.5923300982708601,
                1.5098064693079134
            ]
        },
        {
            "positions": [
                1.8544972937187312,
                -1.5161970332177455,
                -0.7383532176318293,
                -1.0929847711272282,
                -0.5933730197444774,
                1.5938670105317574
            ]
        },
        {
            "positions": [
                1.9191902204318647,
                -1.5228110193830064,
                -0.8534069075348196,
                -1.2073895303307594,
                -0.5944159412180947,
                1.677927551755601
            ]
        },
        {
            "positions": [
                1.9838831471449985,
                -1.5294250055482674,
                -0.96846059743781,
                -1.3217942895342905,
                -0.5954588626917119,
                1.7619880929794445
            ]
        },
        {
            "positions": [
                2.048576073858132,
                -1.5360389917135284,
                -1.0835142873408008,
                -1.4361990487378211,
                -0.5965017841653292,
                1.8460486342032885
            ]
        },
        {
            "positions": [
                2.113269000571266,
                -1.5426529778787894,
                -1.1985679772437916,
                -1.5506038079413527,
                -0.5975447056389465,
                1.9301091754271325
            ]
        },
        {
            "positions": [
                2.1779619272843993,
                -1.5492669640440504,
                -1.313621667146782,
                -1.6650085671448838,
                -0.5985876271125637,
                2.014169716650976
            ]
        },
        {
            "positions": [
                2.242654853997533,
                -1.5558809502093114,
                -1.4286753570497723,
                -1.7794133263484144,
                -0.599630548586181,
                2.0982302578748198
            ]
        },
        {
            "positions": [
                2.307347780710667,
                -1.5624949363745722,
                -1.5437290469527631,
                -1.8938180855519455,
                -0.6006734700597983,
                2.1822907990986637
            ]
        },
        {
            "positions": [
                2.3720407074238006,
                -1.5691089225398331,
                -1.658782736855754,
                -2.0082228447554766,
                -0.6017163915334156,
                2.2663513403225077
            ]
        },
        {
            "positions": [
                2.4367336341369343,
                -1.5757229087050941,
                -1.773836426758744,
                -2.1226276039590077,
                -0.6027593130070329,
                2.3504118815463513
            ]
        },
        {
            "positions": [
                2.474610291217809,
                -1.7127812867857015,
                -1.824819887844058,
                -2.154947446506605,
                -0.6008489596317581,
                2.486259543422841
            ]
        },
        {
            "positions": [
                2.512486948298684,
                -1.849839664866309,
                -1.875803348929372,
                -2.187267289054202,
                -0.5989386062564834,
                2.622107205299331
            ]
        },
        {
            "positions": [
                2.550363605379559,
                -1.9868980429469163,
                -1.926786810014686,
                -2.2195871316018,
                -0.5970282528812086,
                2.7579548671758207
            ]
        },
        {
            "positions": [
                2.5882402624604337,
                -2.1239564210275237,
                -1.9777702711,
                -2.251906974149397,
                -0.5951178995059339,
                2.8938025290523104
            ]
        },
        {
            "positions": [
                2.6124885293518614,
                -2.1446158470437116,
                -1.8700713307119419,
                -2.3137605614966597,
                -0.555969409919982,
                2.9729854541838234
            ]
        },
        {
            "positions": [
                2.636736796243289,
                -2.1652752730598994,
                -1.7623723903238835,
                -2.3756141488439226,
                -0.51682092033403,
                3.0521683793153365
            ]
        },
        {
            "positions": [
                2.6609850631347167,
                -2.1859346990760873,
                -1.6546734499358253,
                -2.437467736191185,
                -0.4776724307480782,
                3.1313513044468495
            ]
        }
    ]
}