{
    "goal": {
        "global_pose": {
            "orientation": {
                "w": -0.00223480608172531,
                "x": 0.0024358444001904467,
                "y": 0.7094548369677653,
                "z": -0.704743149386269
            },
            "position": {
                "x": 0.6205249238014221,
                "y": -0.6371506643295288,
                "z": 0.19426114857196808
            }
        },
        "name": "move_to_magneteinheit_B"
    },
    "id": "LBKPIECE_move_to_magneteinheit_B_68",
    "joint_names": [
        "shoulder_pan_joint",
        "shoulder_lift_joint",
        "elbow_joint",
        "wrist_1_joint",
        "wrist_2_joint",
        "wrist_3_joint"
    ],
    "metrics": {
        "cart_traj_len": 4.119168174544563,
        "distance_elbow_joint": 5.863751103253985,
        "distance_shoulder_lift_joint": 2.3094283318890696,
        "distance_shoulder_pan_joint": 2.357579027575152,
        "distance_wrist_1_joint": 4.64811758822902,
        "distance_wrist_2_joint": 7.475853756488509,
        "distance_wrist_3_joint": 8.054892980330838,
        "smoothness": 0.38142269342686475,
        "time": 0.373645279,
        "traj_len": 5.541626366669496,
        "weighted_distance": 7.6774592211971955
    },
    "planner": "LBKPIECE",
    "start": {
        "state": {
            "elbow_joint": 2.6216224122426386,
            "shoulder_lift_joint": -1.4174107377796124,
            "shoulder_pan_joint": 0.7066234856936794,
            "wrist_1_joint": 1.9546482284002225,
            "wrist_2_joint": -0.7096286983471962,
            "wrist_3_joint": 0.005740856962016249
        }
    },
    "waypoints": [
        {
            "positions": [
                0.7066234856936794,
                -1.4174107377796124,
                2.6216224122426386,
                1.9546482284002225,
                -0.7096286983471962,
                0.005740856962016249
            ]
        },
        {
            "positions": [
                0.6776722061181555,
                -1.4355985675077063,
                2.6308149310810705,
                1.9972728914046758,
                -0.7913800582366972,
                0.12673650286287572
            ]
        },
        {
            "positions": [
                0.6487209265426316,
                -1.4537863972358003,
                2.6400074499195023,
                2.039897554409129,
                -0.8731314181261982,
                0.24773214876373517
            ]
        },
        {
            "positions": [
                0.6197696469671077,
                -1.4719742269638942,
                2.649199968757934,
                2.0825222174135822,
                -0.9548827780156993,
                0.36872779466459465
            ]
        },
        {
            "positions": [
                0.589017693330398,
                -1.4966026939231518,
                2.5437482532698907,
                2.0115634034405647,
                -0.9532146832780306,
                0.3843580953921728
            ]
        },
        {
            "positions": [
                0.5582657396936883,
                -1.5212311608824094,
                2.4382965377818473,
                1.9406045894675472,
                -0.951546588540362,
                0.3999883961197509
            ]
        },
        {
            "positions": [
                0.5568288670222149,
                -1.5004136098607261,
                2.3069890687260637,
                1.8517524390305635,
                -0.8583683584906432,
                0.4556122767851347
            ]
        },
        {
            "positions": [
                0.5553919943507415,
                -1.4795960588390429,
                2.1756815996702805,
                1.7629002885935798,
                -0.7651901284409244,
                0.5112361574505186
            ]
        },
        {
            "positions": [
                0.5539551216792682,
                -1.4587785078173596,
                2.0443741306144974,
                1.6740481381565961,
                -0.6720118983912056,
                0.5668600381159025
            ]
        },
        {
            "positions": [
                0.5525182490077948,
                -1.4379609567956764,
                1.9130666615587137,
                1.5851959877196125,
                -0.5788336683414868,
                0.6224839187812863
            ]
        },
        {
            "positions": [
                0.5510813763363214,
                -1.4171434057739931,
                1.7817591925029304,
                1.4963438372826288,
                -0.48565543829176794,
                0.6781077994466702
            ]
        },
        {
            "positions": [
                0.549644503664848,
                -1.3963258547523099,
                1.650451723447147,
                1.407491686845645,
                -0.3924772082420491,
                0.7337316801120539
            ]
        },
        {
            "positions": [
                0.5482076309933746,
                -1.3755083037306266,
                1.5191442543913636,
                1.3186395364086614,
                -0.2992989781923303,
                0.7893555607774378
            ]
        },
        {
            "positions": [
                0.5467707583219013,
                -1.3546907527089433,
                1.3878367853355802,
                1.2297873859716777,
                -0.2061207481426115,
                0.8449794414428217
            ]
        },
        {
            "positions": [
                0.5453338856504278,
                -1.33387320168726,
                1.2565293162797968,
                1.140935235534694,
                -0.11294251809289269,
                0.9006033221082055
            ]
        },
        {
            "positions": [
                0.5438970129789544,
                -1.3130556506655768,
                1.1252218472240134,
                1.0520830850977103,
                -0.019764288043173872,
                0.9562272027735894
            ]
        },
        {
            "positions": [
                0.542460140307481,
                -1.2922380996438936,
                0.99391437816823,
                0.9632309346607266,
                0.07341394200654494,
                1.0118510834389731
            ]
        },
        {
            "positions": [
                0.5410232676360076,
                -1.2714205486222103,
                0.8626069091124466,
                0.8743787842237429,
                0.16659217205626375,
                1.067474964104357
            ]
        },
        {
            "positions": [
                0.5395863949645342,
                -1.250602997600527,
                0.7312994400566633,
                0.7855266337867592,
                0.25977040210598257,
                1.123098844769741
            ]
        },
        {
            "positions": [
                0.5381495222930609,
                -1.2297854465788438,
                0.5999919710008799,
                0.6966744833497756,
                0.3529486321557014,
                1.178722725435125
            ]
        },
        {
            "positions": [
                0.5367126496215875,
                -1.2089678955571606,
                0.4686845019450965,
                0.6078223329127919,
                0.4461268622054202,
                1.2343466061005086
            ]
        },
        {
            "positions": [
                0.5352757769501141,
                -1.1881503445354773,
                0.3373770328893131,
                0.5189701824758082,
                0.539305092255139,
                1.2899704867658923
            ]
        },
        {
            "positions": [
                0.5338389042786407,
                -1.167332793513794,
                0.20606956383352948,
                0.4301180320388245,
                0.6324833223048578,
                1.3455943674312763
            ]
        },
        {
            "positions": [
                0.5324020316071673,
                -1.1465152424921108,
                0.07476209477774631,
                0.3412658816018408,
                0.7256615523545766,
                1.4012182480966602
            ]
        },
        {
            "positions": [
                0.530965158935694,
                -1.1256976914704278,
                -0.05654537427803685,
                0.2524137311648573,
                0.8188397824042954,
                1.456842128762044
            ]
        },
        {
            "positions": [
                0.5295282862642205,
                -1.1048801404487443,
                -0.18785284333382046,
                0.1635615807278734,
                0.9120180124540143,
                1.512466009427428
            ]
        },
        {
            "positions": [
                0.5280914135927471,
                -1.0840625894270612,
                -0.31916031238960363,
                0.07470943029088994,
                1.005196242503733,
                1.5680898900928115
            ]
        },
        {
            "positions": [
                0.5266545409212737,
                -1.0632450384053778,
                -0.45046778144538724,
                -0.014142720146093968,
                1.0983744725534519,
                1.6237137707581955
            ]
        },
        {
            "positions": [
                0.5252176682498003,
                -1.0424274873836947,
                -0.5817752505011704,
                -0.10299487058307744,
                1.1915527026031707,
                1.6793376514235794
            ]
        },
        {
            "positions": [
                0.5237807955783269,
                -1.0216099363620113,
                -0.713082719556954,
                -0.19184702102006135,
                1.2847309326528895,
                1.7349615320889633
            ]
        },
        {
            "positions": [
                0.5223439229068536,
                -1.0007923853403282,
                -0.8443901886127372,
                -0.2806991714570448,
                1.3779091627026083,
                1.7905854127543468
            ]
        },
        {
            "positions": [
                0.5209070502353802,
                -0.9799748343186448,
                -0.9756976576685208,
                -0.36955132189402873,
                1.4710873927523271,
                1.8462092934197312
            ]
        },
        {
            "positions": [
                0.5194701775639068,
                -0.9591572832969617,
                -1.107005126724304,
                -0.4584034723310122,
                1.564265622802046,
                1.9018331740851147
            ]
        },
        {
            "positions": [
                0.5180333048924334,
                -0.9383397322752783,
                -1.2383125957800876,
                -0.5472556227679961,
                1.6574438528517648,
                1.9574570547504986
            ]
        },
        {
            "positions": [
                0.51659643222096,
                -0.9175221812535952,
                -1.3696200648358707,
                -0.6361077732049796,
                1.7506220829014836,
                2.0130809354158825
            ]
        },
        {
            "positions": [
                0.5151595595494867,
                -0.8967046302319118,
                -1.5009275338916543,
                -0.7249599236419635,
                1.8438003129512024,
                2.0687048160812664
            ]
        },
        {
            "positions": [
                0.5137226868780133,
                -0.8758870792102287,
                -1.632235002947437,
                -0.813812074078947,
                1.9369785430009212,
                2.12432869674665
            ]
        },
        {
            "positions": [
                0.5122858142065398,
                -0.8550695281885453,
                -1.7635424720032211,
                -0.9026642245159309,
                2.0301567730506402,
                2.179952577412034
            ]
        },
        {
            "positions": [
                0.5108489415350664,
                -0.8342519771668622,
                -1.8948499410590043,
                -0.9915163749529143,
                2.123335003100359,
                2.235576458077418
            ]
        },
        {
            "positions": [
                0.509412068863593,
                -0.8134344261451788,
                -2.0261574101147883,
                -1.0803685253898982,
                2.216513233150078,
                2.2912003387428017
            ]
        },
        {
            "positions": [
                0.5079751961921197,
                -0.7926168751234957,
                -2.1574648791705706,
                -1.1692206758268817,
                2.3096914631997967,
                2.3468242194081856
            ]
        },
        {
            "positions": [
                0.5065383235206463,
                -0.7717993241018124,
                -2.2887723482263547,
                -1.2580728262638656,
                2.4028696932495155,
                2.402448100073569
            ]
        },
        {
            "positions": [
                0.5051014508491729,
                -0.7509817730801291,
                -2.4200798172821383,
                -1.346924976700849,
                2.496047923299234,
                2.458071980738953
            ]
        },
        {
            "positions": [
                0.5708179550129587,
                -0.7901910794801857,
                -2.406552534468603,
                -1.3607140238922533,
                2.390589119131553,
                2.3058461700157316
            ]
        },
        {
            "positions": [
                0.6365344591767446,
                -0.8294003858802423,
                -2.3930252516550676,
                -1.3745030710836574,
                2.2851303149638724,
                2.1536203592925096
            ]
        },
        {
            "positions": [
                0.7022509633405305,
                -0.8686096922802989,
                -2.3794979688415325,
                -1.3882921182750616,
                2.1796715107961915,
                2.001394548569288
            ]
        },
        {
            "positions": [
                0.7679674675043163,
                -0.9078189986803555,
                -2.3659706860279974,
                -1.4020811654664658,
                2.0742127066285105,
                1.8491687378460666
            ]
        },
        {
            "positions": [
                0.8336839716681022,
                -0.9470283050804121,
                -2.352443403214462,
                -1.41587021265787,
                1.9687539024608296,
                1.6969429271228451
            ]
        },
        {
            "positions": [
                0.8994004758318881,
                -0.9862376114804687,
                -2.338916120400927,
                -1.4296592598492741,
                1.8632950982931489,
                1.5447171163996234
            ]
        },
        {
            "positions": [
                0.9651169799956739,
                -1.0254469178805254,
                -2.3253888375873917,
                -1.4434483070406783,
                1.7578362941254682,
                1.3924913056764017
            ]
        },
        {
            "positions": [
                1.0308334841594597,
                -1.064656224280582,
                -2.3118615547738566,
                -1.4572373542320824,
                1.6523774899577872,
                1.2402654949531802
            ]
        },
        {
            "positions": [
                1.0965499883232455,
                -1.1038655306806384,
                -2.298334271960321,
                -1.4710264014234864,
                1.5469186857901063,
                1.0880396842299587
            ]
        },
        {
            "positions": [
                1.1622664924870314,
                -1.1430748370806951,
                -2.284806989146786,
                -1.4848154486148906,
                1.4414598816224256,
                0.935813873506737
            ]
        },
        {
            "positions": [
                1.2279829966508173,
                -1.1822841434807518,
                -2.271279706333251,
                -1.4986044958062947,
                1.3360010774547448,
                0.7835880627835152
            ]
        },
        {
            "positions": [
                1.2936995008146033,
                -1.2214934498808083,
                -2.2577524235197153,
                -1.512393542997699,
                1.230542273287064,
                0.6313622520602937
            ]
        },
        {
            "positions": [
                1.359416004978389,
                -1.2607027562808648,
                -2.24422514070618,
                -1.526182590189103,
                1.125083469119383,
                0.4791364413370722
            ]
        },
        {
            "positions": [
                1.425132509142175,
                -1.2999120626809215,
                -2.230697857892645,
                -1.5399716373805072,
                1.0196246649517022,
                0.3269106306138503
            ]
        },
        {
            "positions": [
                1.4908490133059606,
                -1.3391213690809782,
                -2.2171705750791095,
                -1.5537606845719114,
                0.9141658607840215,
                0.17468481989062878
            ]
        },
        {
            "positions": [
                1.5565655174697466,
                -1.3783306754810347,
                -2.2036432922655744,
                -1.5675497317633156,
                0.8087070566163406,
                0.022459009167407284
            ]
        },
        {
            "positions": [
                1.6222820216335325,
                -1.4175399818810912,
                -2.1901160094520393,
                -1.5813387789547197,
                0.7032482524486596,
                -0.12976680155581422
            ]
        },
        {
            "positions": [
                1.6879985257973182,
                -1.456749288281148,
                -2.176588726638504,
                -1.595127826146124,
                0.5977894482809789,
                -0.2819926122790357
            ]
        },
        {
            "positions": [
                1.7537150299611042,
                -1.4959585946812046,
                -2.1630614438249687,
                -1.608916873337528,
                0.4923306441132982,
                -0.43421842300225766
            ]
        },
        {
            "positions": [
                1.81943153412489,
                -1.535167901081261,
                -2.1495341610114336,
                -1.6227059205289323,
                0.38687183994561725,
                -0.5864442337254792
            ]
        },
        {
            "positions": [
                1.8851480382886758,
                -1.5743772074813176,
                -2.1360068781978985,
                -1.6364949677203364,
                0.2814130357779363,
                -0.7386700444487007
            ]
        },
        {
            "positions": [
                1.9508645424524618,
                -1.6135865138813743,
                -2.122479595384363,
                -1.6502840149117404,
                0.1759542316102558,
                -0.8908958551719226
            ]
        },
        {
            "positions": [
                2.0165810466162473,
                -1.652795820281431,
                -2.108952312570828,
                -1.6640730621031445,
                0.07049542744257487,
                -1.043121665895144
            ]
        },
        {
            "positions": [
                2.0822975507800336,
                -1.6920051266814875,
                -2.0954250297572923,
                -1.6778621092945487,
                -0.03496337672510608,
                -1.1953474766183656
            ]
        },
        {
            "positions": [
                2.148014054943819,
                -1.731214433081544,
                -2.081897746943757,
                -1.6916511564859529,
                -0.14042218089278702,
                -1.347573287341587
            ]
        },
        {
            "positions": [
                2.213730559107605,
                -1.7704237394816007,
                -2.068370464130222,
                -1.705440203677357,
                -0.24588098506046796,
                -1.4997990980648086
            ]
        },
        {
            "positions": [
                2.279447063271391,
                -1.8096330458816574,
                -2.054843181316687,
                -1.7192292508687612,
                -0.35133978922814846,
                -1.65202490878803
            ]
        },
        {
            "positions": [
                2.345163567435177,
                -1.848842352281714,
                -2.0413158985031514,
                -1.7330182980601654,
                -0.4567985933958294,
                -1.8042507195112525
            ]
        },
        {
            "positions": [
                2.410880071598963,
                -1.8880516586817704,
                -2.0277886156896163,
                -1.7468073452515696,
                -0.5622573975635103,
                -1.956476530234474
            ]
        },
        {
            "positions": [
                2.4765965757627484,
                -1.927260965081827,
                -2.0142613328760812,
                -1.7605963924429737,
                -0.6677162017311908,
                -2.1087023409576955
            ]
        },
        {
            "positions": [
                2.5423130799265343,
                -1.9664702714818838,
                -2.0007340500625457,
                -1.774385439634378,
                -0.7731750058988718,
                -2.260928151680917
            ]
        },
        {
            "positions": [
                2.6080295840903203,
                -2.0056795778819403,
                -1.9872067672490106,
                -1.788174486825782,
                -0.8786338100665528,
                -2.413153962404138
            ]
        },
        {
            "positions": [
                2.6168843940052366,
                -2.035789697245637,
                -1.9315366488047625,
                -1.8964323026551648,
                -0.8111359363766705,
                -2.53504328130594
            ]
        },
        {
            "positions": [
                2.625739203920153,
                -2.065899816609334,
                -1.8758665303605144,
                -2.0046901184845476,
                -0.7436380626867882,
                -2.6569326002077416
            ]
        },
        {
            "positions": [
                2.6345940138350694,
                -2.096009935973031,
                -1.8201964119162661,
                -2.1129479343139304,
                -0.6761401889969059,
                -2.778821919109543
            ]
        },
        {
            "positions": [
                2.643448823749986,
                -2.126120055336728,
                -1.764526293472018,
                -2.221205750143313,
                -0.6086423153070235,
                -2.9007112380113447
            ]
        },
        {
            "positions": [
                2.652303633664902,
                -2.1562301747004247,
                -1.70885617502777,
                -2.329463565972696,
                -0.5411444416171411,
                -3.0226005569131464
            ]
        },
        {
            "positions": [
                2.6611584435798186,
                -2.1863402940641214,
                -1.653186056583522,
                -2.4377213818020786,
                -0.47364656792725884,
                -3.144489875814948
            ]
        }
    ]
}