{
    "goal": {
        "global_pose": {
            "orientation": {
                "w": 0.7031023502349854,
                "x": -0.7110244035720825,
                "y": 0.007748599164187908,
                "z": 0.005598929710686207
            },
            "position": {
                "x": 0.11585023208521307,
                "y": 0.44412534475326537,
                "z": 0.3711530566215515
            }
        },
        "name": "move_to_auspresseinheit_A"
    },
    "id": "LBKPIECE_move_to_auspresseinheit_A_47",
    "joint_names": [
        "shoulder_pan_joint",
        "shoulder_lift_joint",
        "elbow_joint",
        "wrist_1_joint",
        "wrist_2_joint",
        "wrist_3_joint"
    ],
    "metrics": {
        "cart_traj_len": 2.314103887316254,
        "distance_elbow_joint": 0.6693059301885222,
        "distance_shoulder_lift_joint": 0.6978883771724425,
        "distance_shoulder_pan_joint": 6.400015752282629,
        "distance_wrist_1_joint": 0.5464474088495079,
        "distance_wrist_2_joint": 2.030875589577344,
        "distance_wrist_3_joint": 1.8420003157051434,
        "smoothness": 0.9253064661861871,
        "time": 0.8976403199999999,
        "traj_len": 3.4909215651136574,
        "weighted_distance": 4.295096856138721
    },
    "planner": "LBKPIECE",
    "start": {
        "state": {
            "elbow_joint": 2.4225746658250005,
            "shoulder_lift_joint": -1.3736534386056498,
            "shoulder_pan_joint": -0.3378633547517467,
            "wrist_1_joint": -1.0288598680537169,
            "wrist_2_joint": 1.233022673432363,
            "wrist_3_joint": -3.0940220416140027
        }
    },
    "waypoints": [
        {
            "positions": [
                -0.3378633547517467,
                -1.3736534386056498,
                2.4225746658250005,
                -1.0288598680537169,
                1.233022673432363,
                -3.0940220416140027
            ]
        },
        {
            "positions": [
                -0.516409758274183,
                -1.4148504675371987,
                2.4440719383476424,
                -1.0222315559714357,
                1.1481019484978523,
                -3.0337761296799792
            ]
        },
        {
            "positions": [
                -0.6949561617966192,
                -1.4560474964687473,
                2.465569210870284,
                -1.0156032438891545,
                1.0631812235633415,
                -2.9735302177459557
            ]
        },
        {
            "positions": [
                -0.8735025653190556,
                -1.4972445254002962,
                2.4870664833929257,
                -1.0089749318068733,
                0.9782604986288308,
                -2.913284305811932
            ]
        },
        {
            "positions": [
                -1.0520489688414918,
                -1.5384415543318448,
                2.5085637559155676,
                -1.0023466197245918,
                0.89333977369432,
                -2.853038393877909
            ]
        },
        {
            "positions": [
                -1.230595372363928,
                -1.5796385832633937,
                2.5300610284382095,
                -0.9957183076423107,
                0.8084190487598093,
                -2.7927924819438856
            ]
        },
        {
            "positions": [
                -1.4091417758863642,
                -1.6208356121949425,
                2.551558300960851,
                -0.9890899955600294,
                0.7234983238252986,
                -2.732546570009862
            ]
        },
        {
            "positions": [
                -1.5876881794088005,
                -1.6620326411264912,
                2.573055573483493,
                -0.9824616834777482,
                0.6385775988907878,
                -2.6723006580758386
            ]
        },
        {
            "positions": [
                -1.7662345829312367,
                -1.70322967005804,
                2.5945528460061347,
                -0.975833371395467,
                0.553656873956277,
                -2.612054746141815
            ]
        },
        {
            "positions": [
                -1.944780986453673,
                -1.7444266989895887,
                2.6160501185287766,
                -0.9692050593131858,
                0.4687361490217663,
                -2.5518088342077916
            ]
        },
        {
            "positions": [
                -2.1233273899761094,
                -1.7856237279211375,
                2.637547391051418,
                -0.9625767472309045,
                0.38381542408725555,
                -2.4915629222737685
            ]
        },
        {
            "positions": [
                -2.3018737934985456,
                -1.8268207568526864,
                2.65904466357406,
                -0.9559484351486233,
                0.2988946991527449,
                -2.431317010339745
            ]
        },
        {
            "positions": [
                -2.480420197020982,
                -1.868017785784235,
                2.6805419360967018,
                -0.9493201230663421,
                0.21397397421823405,
                -2.3710710984057215
            ]
        },
        {
            "positions": [
                -2.658966600543418,
                -1.909214814715784,
                2.702039208619343,
                -0.9426918109840607,
                0.1290532492837233,
                -2.310825186471698
            ]
        },
        {
            "positions": [
                -2.8375130040658543,
                -1.9504118436473328,
                2.723536481141985,
                -0.9360634989017795,
                0.044132524349212554,
                -2.2505792745376745
            ]
        },
        {
            "positions": [
                -3.0160594075882905,
                -1.9916088725788814,
                2.745033753664627,
                -0.9294351868194983,
                -0.040788200585298195,
                -2.190333362603651
            ]
        },
        {
            "positions": [
                -2.78344567637291,
                -1.9866130636289308,
                2.723355826017821,
                -0.9014962663435427,
                0.0065283441371819725,
                -2.2489778398970754
            ]
        },
        {
            "positions": [
                -2.55083194515753,
                -1.98161725467898,
                2.701677898371015,
                -0.8735573458675872,
                0.05384488885966214,
                -2.3076223171905
            ]
        },
        {
            "positions": [
                -2.3182182139421497,
                -1.9766214457290294,
                2.679999970724209,
                -0.8456184253916316,
                0.1011614335821423,
                -2.3662667944839244
            ]
        },
        {
            "positions": [
                -2.0856044827267697,
                -1.9716256367790788,
                2.658322043077403,
                -0.817679504915676,
                0.14847797830462248,
                -2.424911271777349
            ]
        },
        {
            "positions": [
                -1.8529907515113893,
                -1.966629827829128,
                2.636644115430597,
                -0.7897405844397204,
                0.19579452302710265,
                -2.4835557490707734
            ]
        },
        {
            "positions": [
                -1.6203770202960088,
                -1.9616340188791774,
                2.614966187783791,
                -0.7618016639637648,
                0.2431110677495828,
                -2.542200226364198
            ]
        },
        {
            "positions": [
                -1.3877632890806286,
                -1.9566382099292268,
                2.593288260136985,
                -0.7338627434878092,
                0.290427612472063,
                -2.6008447036576223
            ]
        },
        {
            "positions": [
                -1.1551495578652484,
                -1.951642400979276,
                2.571610332490179,
                -0.7059238230118536,
                0.33774415719454315,
                -2.659489180951047
            ]
        },
        {
            "positions": [
                -0.922535826649868,
                -1.9466465920293252,
                2.549932404843373,
                -0.6779849025358982,
                0.3850607019170233,
                -2.7181336582444713
            ]
        },
        {
            "positions": [
                -0.689922095434488,
                -1.9416507830793746,
                2.528254477196567,
                -0.6500459820599425,
                0.4323772466395035,
                -2.7767781355378958
            ]
        },
        {
            "positions": [
                -0.4573083642191076,
                -1.936654974129424,
                2.506576549549761,
                -0.622107061583987,
                0.47969379136198365,
                -2.8354226128313202
            ]
        },
        {
            "positions": [
                -0.22469463300372716,
                -1.9316591651794732,
                2.484898621902955,
                -0.5941681411080313,
                0.5270103360844638,
                -2.8940670901247447
            ]
        },
        {
            "positions": [
                0.00791909821165282,
                -1.9266633562295226,
                2.463220694256149,
                -0.5662292206320758,
                0.5743268808069439,
                -2.952711567418169
            ]
        },
        {
            "positions": [
                0.24053282942703325,
                -1.921667547279572,
                2.441542766609343,
                -0.5382903001561201,
                0.6216434255294242,
                -3.0113560447115937
            ]
        },
        {
            "positions": [
                0.4731465606424132,
                -1.9166717383296212,
                2.4198648389625372,
                -0.5103513796801646,
                0.6689599702519043,
                -3.070000522005018
            ]
        },
        {
            "positions": [
                0.7057602918577934,
                -1.9116759293796706,
                2.3981869113157313,
                -0.482412459204209,
                0.7162765149743845,
                -3.1286449992984426
            ]
        }
    ]
}