{
    "goal": {
        "global_pose": {
            "orientation": {
                "w": 0.7031023502349854,
                "x": -0.7110244035720825,
                "y": 0.007748599164187908,
                "z": 0.005598929710686207
            },
            "position": {
                "x": 0.11585023208521307,
                "y": 0.44412534475326537,
                "z": 0.3711530566215515
            }
        },
        "name": "move_to_auspresseinheit_A"
    },
    "id": "LBKPIECE_move_to_auspresseinheit_A_29",
    "joint_names": [
        "shoulder_pan_joint",
        "shoulder_lift_joint",
        "elbow_joint",
        "wrist_1_joint",
        "wrist_2_joint",
        "wrist_3_joint"
    ],
    "metrics": {
        "cart_traj_len": 1.0051136275980335,
        "distance_elbow_joint": 1.0530907906159293,
        "distance_shoulder_lift_joint": 0.5641015814511139,
        "distance_shoulder_pan_joint": 1.0421458948942575,
        "distance_wrist_1_joint": 0.9678206838604946,
        "distance_wrist_2_joint": 2.9415787974330243,
        "distance_wrist_3_joint": 4.297664740789241,
        "smoothness": 0.6551823161397181,
        "time": 0.10417442099999999,
        "traj_len": 3.296422680580277,
        "weighted_distance": 4.834369809180517
    },
    "planner": "LBKPIECE",
    "start": {
        "state": {
            "elbow_joint": 2.4225746658250005,
            "shoulder_lift_joint": -1.3736534386056498,
            "shoulder_pan_joint": -0.3378633547517467,
            "wrist_1_joint": -1.0288598680537169,
            "wrist_2_joint": 1.233022673432363,
            "wrist_3_joint": -3.0940220416140027
        }
    },
    "waypoints": [
        {
            "positions": [
                -0.3378633547517467,
                -1.3736534386056498,
                2.4225746658250005,
                -1.0288598680537169,
                1.233022673432363,
                -3.0940220416140027
            ]
        },
        {
            "positions": [
                -0.30965450612712486,
                -1.3943755360739107,
                2.3842428126790156,
                -1.0437743081219095,
                1.109001850580259,
                -2.9415987273732362
            ]
        },
        {
            "positions": [
                -0.28144565750250305,
                -1.4150976335421714,
                2.3459109595330303,
                -1.058688748190102,
                0.9849810277281549,
                -2.78917541313247
            ]
        },
        {
            "positions": [
                -0.2532368088778812,
                -1.4358197310104324,
                2.3075791063870454,
                -1.0736031882582946,
                0.8609602048760508,
                -2.636752098891704
            ]
        },
        {
            "positions": [
                -0.22502796025325933,
                -1.4565418284786933,
                2.26924725324106,
                -1.0885176283264872,
                0.7369393820239467,
                -2.4843287846509376
            ]
        },
        {
            "positions": [
                -0.19681911162863747,
                -1.477263925946954,
                2.2309154000950753,
                -1.1034320683946797,
                0.6129185591718427,
                -2.331905470410171
            ]
        },
        {
            "positions": [
                -0.16861026300401563,
                -1.497986023415215,
                2.19258354694909,
                -1.1183465084628723,
                0.48889773631973865,
                -2.179482156169405
            ]
        },
        {
            "positions": [
                -0.14040141437939377,
                -1.5187081208834758,
                2.154251693803105,
                -1.1332609485310647,
                0.3648769134676345,
                -2.027058841928639
            ]
        },
        {
            "positions": [
                -0.11219256575477193,
                -1.5394302183517365,
                2.11591984065712,
                -1.1481753885992574,
                0.24085609061553048,
                -1.8746355276878726
            ]
        },
        {
            "positions": [
                -0.08398371713015007,
                -1.5601523158199975,
                2.077587987511135,
                -1.16308982866745,
                0.11683526776342634,
                -1.7222122134471063
            ]
        },
        {
            "positions": [
                -0.05577486850552821,
                -1.5808744132882584,
                2.0392561343651496,
                -1.1780042687356427,
                -0.0071855550886776864,
                -1.56978889920634
            ]
        },
        {
            "positions": [
                -0.027566019880906345,
                -1.601596510756519,
                2.0009242812191648,
                -1.192918708803835,
                -0.13120637794078172,
                -1.4173655849655737
            ]
        },
        {
            "positions": [
                0.0006428287437154623,
                -1.62231860822478,
                1.9625924280731797,
                -1.2078331488720278,
                -0.25522720079288574,
                -1.2649422707248075
            ]
        },
        {
            "positions": [
                0.028851677368337325,
                -1.643040705693041,
                1.9242605749271946,
                -1.2227475889402202,
                -0.37924802364499,
                -1.1125189564840412
            ]
        },
        {
            "positions": [
                0.05706052599295918,
                -1.6637628031613017,
                1.8859287217812095,
                -1.2376620290084128,
                -0.503268846497094,
                -0.9600956422432748
            ]
        },
        {
            "positions": [
                0.10243201612911829,
                -1.7037125378753806,
                1.9621918206320983,
                -1.2210108499636454,
                -0.4467697901839763,
                -1.0448344920580976
            ]
        },
        {
            "positions": [
                0.14780350626527738,
                -1.7436622725894595,
                2.038454919482987,
                -1.204359670918878,
                -0.39027073387085853,
                -1.1295733418729204
            ]
        },
        {
            "positions": [
                0.1931749964014365,
                -1.7836120073035384,
                2.1147180183338756,
                -1.1877084918741103,
                -0.3337716775577408,
                -1.214312191687743
            ]
        },
        {
            "positions": [
                0.2385464865375956,
                -1.8235617420176173,
                2.1909811171847644,
                -1.1710573128293429,
                -0.27727262124462304,
                -1.2990510415025658
            ]
        },
        {
            "positions": [
                0.2784023354543819,
                -1.840216411912378,
                2.225697637293237,
                -1.1265583565558552,
                -0.20657504113215708,
                -1.4232103914881138
            ]
        },
        {
            "positions": [
                0.3182581843711682,
                -1.8568710818071386,
                2.26041415740171,
                -1.0820594002823674,
                -0.13587746101969114,
                -1.5473697414736618
            ]
        },
        {
            "positions": [
                0.3581140332879545,
                -1.8735257517018993,
                2.2951306775101825,
                -1.0375604440088795,
                -0.06517988090722518,
                -1.6715290914592098
            ]
        },
        {
            "positions": [
                0.39796988220474083,
                -1.89018042159666,
                2.3298471976186548,
                -0.9930614877353918,
                0.005517699205240756,
                -1.7956884414447578
            ]
        },
        {
            "positions": [
                0.4378257311215271,
                -1.9068350914914205,
                2.3645637177271275,
                -0.9485625314619041,
                0.07621527931770672,
                -1.9198477914303058
            ]
        },
        {
            "positions": [
                0.4776815800383134,
                -1.9234897613861812,
                2.3992802378356,
                -0.9040635751884163,
                0.14691285943017268,
                -2.044007141415854
            ]
        },
        {
            "positions": [
                0.5154484067223463,
                -1.9211122182744176,
                2.398764682749309,
                -0.8331602303407826,
                0.23943045469288932,
                -2.2239782817901763
            ]
        },
        {
            "positions": [
                0.5532152334063792,
                -1.9187346751626537,
                2.398249127663018,
                -0.7622568854931489,
                0.33194804995560595,
                -2.403949422164499
            ]
        },
        {
            "positions": [
                0.5909820600904121,
                -1.9163571320508899,
                2.397733572576726,
                -0.6913535406455152,
                0.4244656452183226,
                -2.5839205625388217
            ]
        },
        {
            "positions": [
                0.628748886774445,
                -1.9139795889391262,
                2.397218017490435,
                -0.6204501957978815,
                0.5169832404810393,
                -2.763891702913144
            ]
        },
        {
            "positions": [
                0.6665157134584779,
                -1.9116020458273626,
                2.3967024624041438,
                -0.5495468509502478,
                0.6095008357437559,
                -2.9438628432874667
            ]
        },
        {
            "positions": [
                0.7042825401425108,
                -1.9092245027155987,
                2.3961869073178526,
                -0.47864350610261414,
                0.7020184310064725,
                -3.123833983661789
            ]
        }
    ]
}