{
    "goal": {
        "global_pose": {
            "orientation": {
                "w": 0.005598929693374612,
                "x": 0.007748599140229565,
                "y": 0.7110244013736278,
                "z": -0.7031023480610252
            },
            "position": {
                "x": -0.8858502320852131,
                "y": -0.7141253447532654,
                "z": 0.3711530566215515
            }
        },
        "name": "move_to_auspresseinheit_C"
    },
    "id": "LBKPIECE_move_to_auspresseinheit_C_90",
    "joint_names": [
        "shoulder_pan_joint",
        "shoulder_lift_joint",
        "elbow_joint",
        "wrist_1_joint",
        "wrist_2_joint",
        "wrist_3_joint"
    ],
    "metrics": {
        "cart_traj_len": 0.4930603501153294,
        "distance_elbow_joint": 1.013622880909657,
        "distance_shoulder_lift_joint": 0.3313743531260772,
        "distance_shoulder_pan_joint": 0.25580825917109973,
        "distance_wrist_1_joint": 0.713325322474068,
        "distance_wrist_2_joint": 1.309379226733724,
        "distance_wrist_3_joint": 0.08540235177071098,
        "smoothness": 3.2297397335745243e-16,
        "time": 0.480984859,
        "traj_len": 1.9258536793290753,
        "weighted_distance": 2.4294899972904913
    },
    "planner": "LBKPIECE",
    "start": {
        "state": {
            "elbow_joint": 1.7527959577737207,
            "shoulder_lift_joint": -0.9740617694225068,
            "shoulder_pan_joint": -2.967991417825858,
            "wrist_1_joint": -0.759517768980727,
            "wrist_2_joint": 1.7443932448377408,
            "wrist_3_joint": -3.0840537646736568
        }
    },
    "waypoints": [
        {
            "positions": [
                -2.967991417825858,
                -0.9740617694225068,
                1.7527959577737207,
                -0.759517768980727,
                1.7443932448377408,
                -3.0840537646736568
            ]
        },
        {
            "positions": [
                -2.942410591908748,
                -0.9409243341098991,
                1.651433669682755,
                -0.6881852367333202,
                1.6134553221643684,
                -3.092593999850728
            ]
        },
        {
            "positions": [
                -2.916829765991638,
                -0.9077868987972914,
                1.5500713815917893,
                -0.6168527044859133,
                1.482517399490996,
                -3.101134235027799
            ]
        },
        {
            "positions": [
                -2.891248940074528,
                -0.8746494634846836,
                1.4487090935008236,
                -0.5455201722385066,
                1.3515794768176237,
                -3.10967447020487
            ]
        },
        {
            "positions": [
                -2.865668114157418,
                -0.8415120281720758,
                1.3473468054098579,
                -0.47418763999109975,
                1.220641554144251,
                -3.1182147053819413
            ]
        },
        {
            "positions": [
                -2.840087288240308,
                -0.8083745928594681,
                1.2459845173188921,
                -0.402855107743693,
                1.0897036314708788,
                -3.126754940559012
            ]
        },
        {
            "positions": [
                -2.814506462323198,
                -0.7752371575468604,
                1.1446222292279264,
                -0.3315225754962862,
                0.9587657087975064,
                -3.135295175736083
            ]
        },
        {
            "positions": [
                -2.788925636406088,
                -0.7420997222342527,
                1.0432599411369607,
                -0.2601900432488794,
                0.827827786124134,
                -3.1438354109131543
            ]
        },
        {
            "positions": [
                -2.763344810488978,
                -0.708962286921645,
                0.941897653045995,
                -0.18885751100147252,
                0.6968898634507614,
                -3.1523756460902255
            ]
        },
        {
            "positions": [
                -2.737763984571868,
                -0.6758248516090373,
                0.8405353649550293,
                -0.11752497875406576,
                0.5659519407773892,
                -3.1609158812672966
            ]
        },
        {
            "positions": [
                -2.7121831586547582,
                -0.6426874162964296,
                0.7391730768640637,
                -0.04619244650665898,
                0.43501401810401674,
                -3.1694561164443678
            ]
        }
    ]
}