{
    "goal": {
        "global_pose": {
            "orientation": {
                "w": 0.7031023502349854,
                "x": -0.7110244035720825,
                "y": 0.007748599164187908,
                "z": 0.005598929710686207
            },
            "position": {
                "x": 0.11585023208521307,
                "y": 0.44412534475326537,
                "z": 0.3711530566215515
            }
        },
        "name": "move_to_auspresseinheit_A"
    },
    "id": "LBKPIECE_move_to_auspresseinheit_A_44",
    "joint_names": [
        "shoulder_pan_joint",
        "shoulder_lift_joint",
        "elbow_joint",
        "wrist_1_joint",
        "wrist_2_joint",
        "wrist_3_joint"
    ],
    "metrics": {
        "cart_traj_len": 1.024992689670224,
        "distance_elbow_joint": 0.971979044580074,
        "distance_shoulder_lift_joint": 0.5383020966310332,
        "distance_shoulder_pan_joint": 1.04579064752813,
        "distance_wrist_1_joint": 1.5265533189936051,
        "distance_wrist_2_joint": 1.5031899202731491,
        "distance_wrist_3_joint": 0.08680813031285561,
        "smoothness": 1.1284987674851625,
        "time": 0.296362175,
        "traj_len": 2.3817269277393756,
        "weighted_distance": 2.9792587430787734
    },
    "planner": "LBKPIECE",
    "start": {
        "state": {
            "elbow_joint": 2.4225746658250005,
            "shoulder_lift_joint": -1.3736534386056498,
            "shoulder_pan_joint": -0.3378633547517467,
            "wrist_1_joint": -1.0288598680537169,
            "wrist_2_joint": 1.233022673432363,
            "wrist_3_joint": -3.0940220416140027
        }
    },
    "waypoints": [
        {
            "positions": [
                -0.3378633547517467,
                -1.3736534386056498,
                2.4225746658250005,
                -1.0288598680537169,
                1.233022673432363,
                -3.0940220416140027
            ]
        },
        {
            "positions": [
                -0.30437825859706313,
                -1.4253282095823006,
                2.3511489994582533,
                -0.8798568812107339,
                1.303697962837265,
                -3.090022033112304
            ]
        },
        {
            "positions": [
                -0.27089316244237954,
                -1.4770029805589513,
                2.279723333091506,
                -0.730853894367751,
                1.3743732522421668,
                -3.086022024610605
            ]
        },
        {
            "positions": [
                -0.23740806628769595,
                -1.528677751535602,
                2.208297666724759,
                -0.5818509075247681,
                1.4450485416470686,
                -3.082022016108906
            ]
        },
        {
            "positions": [
                -0.20392297013301233,
                -1.580352522512253,
                2.1368720003580117,
                -0.4328479206817851,
                1.5157238310519707,
                -3.078022007607207
            ]
        },
        {
            "positions": [
                -0.1704378739783287,
                -1.6320272934889037,
                2.065446333991264,
                -0.28384493383880216,
                1.5863991204568726,
                -3.074021999105508
            ]
        },
        {
            "positions": [
                -0.13695277782364515,
                -1.6837020644655545,
                1.994020667624517,
                -0.1348419469958193,
                1.6570744098617745,
                -3.0700219906038093
            ]
        },
        {
            "positions": [
                -0.10346768166896153,
                -1.7353768354422052,
                1.9225950012577697,
                0.014161039847163659,
                1.7277496992666763,
                -3.0660219821021104
            ]
        },
        {
            "positions": [
                -0.00204330986329343,
                -1.757449172916515,
                1.981594923759375,
                -0.046280511539426805,
                1.6016918374618219,
                -3.073372990952231
            ]
        },
        {
            "positions": [
                0.09938106194237467,
                -1.7795215103908246,
                2.0405948462609804,
                -0.10672206292601727,
                1.4756339756569674,
                -3.080723999802351
            ]
        },
        {
            "positions": [
                0.20080543374804277,
                -1.8015938478651343,
                2.0995947687625858,
                -0.16716361431260773,
                1.3495761138521127,
                -3.0880750086524715
            ]
        },
        {
            "positions": [
                0.3022298055537109,
                -1.823666185339444,
                2.1585946912641916,
                -0.2276051656991982,
                1.2235182520472583,
                -3.095426017502592
            ]
        },
        {
            "positions": [
                0.403654177359379,
                -1.845738522813754,
                2.217594613765797,
                -0.28804671708578866,
                1.0974603902424038,
                -3.1027770263527126
            ]
        },
        {
            "positions": [
                0.5050785491650471,
                -1.8678108602880636,
                2.2765945362674023,
                -0.3484882684723791,
                0.9714025284375493,
                -3.110128035202833
            ]
        },
        {
            "positions": [
                0.6065029209707151,
                -1.8898831977623733,
                2.3355944587690076,
                -0.4089298198589696,
                0.8453446666326947,
                -3.117479044052953
            ]
        },
        {
            "positions": [
                0.7079272927763832,
                -1.911955535236683,
                2.394594381270613,
                -0.46937137124556005,
                0.7192868048278401,
                -3.1248300529030737
            ]
        }
    ]
}