{
    "goal": {
        "global_pose": {
            "orientation": {
                "w": 0.7031023502349854,
                "x": -0.7110244035720825,
                "y": 0.007748599164187908,
                "z": 0.005598929710686207
            },
            "position": {
                "x": 0.11585023208521307,
                "y": 0.44412534475326537,
                "z": 0.3711530566215515
            }
        },
        "name": "move_to_auspresseinheit_A"
    },
    "id": "LBKPIECE_move_to_auspresseinheit_A_74",
    "joint_names": [
        "shoulder_pan_joint",
        "shoulder_lift_joint",
        "elbow_joint",
        "wrist_1_joint",
        "wrist_2_joint",
        "wrist_3_joint"
    ],
    "metrics": {
        "cart_traj_len": 3.247379783445188,
        "distance_elbow_joint": 0.08665826448834535,
        "distance_shoulder_lift_joint": 0.5344967235881657,
        "distance_shoulder_pan_joint": 6.6973524330888585,
        "distance_wrist_1_joint": 6.620826366992577,
        "distance_wrist_2_joint": 4.451295044477037,
        "distance_wrist_3_joint": 5.754180479235223,
        "smoothness": 0.5395841423814246,
        "time": 0.515498499,
        "traj_len": 4.913736797170787,
        "weighted_distance": 6.835590075612365
    },
    "planner": "LBKPIECE",
    "start": {
        "state": {
            "elbow_joint": 2.4225746658250005,
            "shoulder_lift_joint": -1.3736534386056498,
            "shoulder_pan_joint": -0.3378633547517467,
            "wrist_1_joint": -1.0288598680537169,
            "wrist_2_joint": 1.233022673432363,
            "wrist_3_joint": -3.0940220416140027
        }
    },
    "waypoints": [
        {
            "positions": [
                -0.3378633547517467,
                -1.3736534386056498,
                2.4225746658250005,
                -1.0288598680537169,
                1.233022673432363,
                -3.0940220416140027
            ]
        },
        {
            "positions": [
                -0.42898993451191064,
                -1.3824749504359457,
                2.420689114312392,
                -0.9129255094483921,
                1.1529710788631051,
                -3.001795838403158
            ]
        },
        {
            "positions": [
                -0.5201165142720745,
                -1.3912964622662414,
                2.418803562799783,
                -0.7969911508430675,
                1.0729194842938474,
                -2.9095696351923133
            ]
        },
        {
            "positions": [
                -0.6112430940322384,
                -1.4001179740965373,
                2.416918011287174,
                -0.6810567922377427,
                0.9928678897245895,
                -2.8173434319814685
            ]
        },
        {
            "positions": [
                -0.7023696737924023,
                -1.4089394859268332,
                2.415032459774565,
                -0.5651224336324181,
                0.9128162951553316,
                -2.725117228770624
            ]
        },
        {
            "positions": [
                -0.7934962535525663,
                -1.4177609977571288,
                2.4131469082619565,
                -0.44918807502709335,
                0.8327647005860737,
                -2.6328910255597786
            ]
        },
        {
            "positions": [
                -0.8846228333127302,
                -1.4265825095874247,
                2.411261356749348,
                -0.3332537164217686,
                0.7527131060168158,
                -2.540664822348934
            ]
        },
        {
            "positions": [
                -0.9757494130728941,
                -1.4354040214177206,
                2.409375805236739,
                -0.21731935781644396,
                0.672661511447558,
                -2.448438619138089
            ]
        },
        {
            "positions": [
                -1.066875992833058,
                -1.4442255332480163,
                2.4074902537241303,
                -0.10138499921111921,
                0.5926099168783001,
                -2.3562124159272444
            ]
        },
        {
            "positions": [
                -1.1580025725932221,
                -1.4530470450783122,
                2.4056047022115217,
                0.014549359394205652,
                0.5125583223090422,
                -2.2639862127163997
            ]
        },
        {
            "positions": [
                -1.2491291523533858,
                -1.4618685569086078,
                2.4037191506989126,
                0.13048371799953018,
                0.4325067277397844,
                -2.171760009505555
            ]
        },
        {
            "positions": [
                -1.3402557321135498,
                -1.4706900687389037,
                2.401833599186304,
                0.24641807660485493,
                0.35245513317052646,
                -2.0795338062947097
            ]
        },
        {
            "positions": [
                -1.4313823118737137,
                -1.4795115805691996,
                2.399948047673695,
                0.3623524352101797,
                0.27240353860126865,
                -1.9873076030838652
            ]
        },
        {
            "positions": [
                -1.5225088916338776,
                -1.4883330923994953,
                2.3980624961610864,
                0.47828679381550443,
                0.19235194403201072,
                -1.8950813998730203
            ]
        },
        {
            "positions": [
                -1.6136354713940415,
                -1.4971546042297912,
                2.3961769446484777,
                0.594221152420829,
                0.11230034946275302,
                -1.8028551966621758
            ]
        },
        {
            "positions": [
                -1.7047620511542054,
                -1.505976116060087,
                2.3942913931358687,
                0.7101555110261537,
                0.0322487548934951,
                -1.7106289934513308
            ]
        },
        {
            "positions": [
                -1.7958886309143693,
                -1.5147976278903827,
                2.39240584162326,
                0.8260898696314785,
                -0.04780283967576282,
                -1.618402790240486
            ]
        },
        {
            "positions": [
                -1.887015210674533,
                -1.5236191397206786,
                2.390520290110651,
                0.942024228236803,
                -0.12785443424502052,
                -1.5261765870296413
            ]
        },
        {
            "positions": [
                -1.9781417904346974,
                -1.5324406515509745,
                2.3886347385980424,
                1.0579585868421282,
                -0.20790602881427866,
                -1.4339503838187964
            ]
        },
        {
            "positions": [
                -2.069268370194861,
                -1.5412621633812702,
                2.386749187085434,
                1.1738929454474525,
                -0.28795762338353637,
                -1.3417241806079516
            ]
        },
        {
            "positions": [
                -2.160394949955025,
                -1.550083675211566,
                2.3848636355728248,
                1.2898273040527772,
                -0.3680092179527943,
                -1.2494979773971069
            ]
        },
        {
            "positions": [
                -2.251521529715189,
                -1.5589051870418618,
                2.382978084060216,
                1.405761662658102,
                -0.448060812522052,
                -1.1572717741862621
            ]
        },
        {
            "positions": [
                -2.342648109475353,
                -1.5677266988721577,
                2.381092532547607,
                1.5216960212634267,
                -0.5281124070913101,
                -1.0650455709754172
            ]
        },
        {
            "positions": [
                -2.4337746892355168,
                -1.5765482107024535,
                2.3792069810349985,
                1.6376303798687515,
                -0.6081640016605678,
                -0.9728193677645725
            ]
        },
        {
            "positions": [
                -2.5249012689956807,
                -1.5853697225327492,
                2.37732142952239,
                1.7535647384740762,
                -0.6882155962298258,
                -0.8805931645537277
            ]
        },
        {
            "positions": [
                -2.6160278487558446,
                -1.594191234363045,
                2.375435878009781,
                1.8694990970794005,
                -0.7682671907990832,
                -0.788366961342883
            ]
        },
        {
            "positions": [
                -2.7071544285160085,
                -1.603012746193341,
                2.3735503264971722,
                1.9854334556847257,
                -0.8483187853683416,
                -0.6961407581320378
            ]
        },
        {
            "positions": [
                -2.7982810082761724,
                -1.6118342580236367,
                2.3716647749845636,
                2.1013678142900503,
                -0.9283703799375995,
                -0.6039145549211931
            ]
        },
        {
            "positions": [
                -2.8894075880363363,
                -1.6206557698539326,
                2.3697792234719546,
                2.2173021728953746,
                -1.008421974506857,
                -0.5116883517103488
            ]
        },
        {
            "positions": [
                -2.9805341677965003,
                -1.6294772816842285,
                2.367893671959346,
                2.3332365315006998,
                -1.088473569076115,
                -0.41946214849950403
            ]
        },
        {
            "positions": [
                -3.071660747556664,
                -1.6382987935145241,
                2.366008120446737,
                2.449170890106024,
                -1.1685251636453728,
                -0.32723594528865885
            ]
        },
        {
            "positions": [
                -3.162787327316828,
                -1.64712030534482,
                2.3641225689341283,
                2.565105248711349,
                -1.2485767582146305,
                -0.2350097420778141
            ]
        },
        {
            "positions": [
                -3.037870280203158,
                -1.6555406233076908,
                2.3650324453082403,
                2.4674645632201386,
                -1.1850381900588227,
                -0.3284022640035895
            ]
        },
        {
            "positions": [
                -2.9129532330894876,
                -1.6639609412705616,
                2.3659423216823523,
                2.3698238777289284,
                -1.1214996219030149,
                -0.421794785929365
            ]
        },
        {
            "positions": [
                -2.7880361859758174,
                -1.6723812592334324,
                2.3668521980564643,
                2.2721831922377187,
                -1.0579610537472073,
                -0.5151873078551404
            ]
        },
        {
            "positions": [
                -2.6631191388621476,
                -1.6808015771963034,
                2.3677620744305763,
                2.1745425067465085,
                -0.9944224855913995,
                -0.6085798297809158
            ]
        },
        {
            "positions": [
                -2.5382020917484773,
                -1.6892218951591742,
                2.3686719508046883,
                2.0769018212552983,
                -0.9308839174355916,
                -0.7019723517066914
            ]
        },
        {
            "positions": [
                -2.413285044634807,
                -1.697642213122045,
                2.3695818271788007,
                1.9792611357640884,
                -0.8673453492797839,
                -0.7953648736324668
            ]
        },
        {
            "positions": [
                -2.288367997521137,
                -1.7060625310849158,
                2.3704917035529127,
                1.8816204502728782,
                -0.8038067811239762,
                -0.8887573955582422
            ]
        },
        {
            "positions": [
                -2.1634509504074666,
                -1.7144828490477866,
                2.3714015799270247,
                1.7839797647816682,
                -0.7402682129681684,
                -0.9821499174840176
            ]
        },
        {
            "positions": [
                -2.0385339032937964,
                -1.7229031670106574,
                2.3723114563011367,
                1.686339079290458,
                -0.6767296448123605,
                -1.075542439409793
            ]
        },
        {
            "positions": [
                -1.9136168561801263,
                -1.7313234849735282,
                2.3732213326752487,
                1.5886983937992478,
                -0.6131910766565528,
                -1.1689349613355686
            ]
        },
        {
            "positions": [
                -1.788699809066456,
                -1.739743802936399,
                2.3741312090493607,
                1.4910577083080379,
                -0.549652508500745,
                -1.262327483261344
            ]
        },
        {
            "positions": [
                -1.6637827619527858,
                -1.74816412089927,
                2.3750410854234727,
                1.3934170228168279,
                -0.48611394034493727,
                -1.3557200051871194
            ]
        },
        {
            "positions": [
                -1.5388657148391156,
                -1.7565844388621408,
                2.3759509617975847,
                1.2957763373256177,
                -0.42257537218912944,
                -1.4491125271128948
            ]
        },
        {
            "positions": [
                -1.4139486677254456,
                -1.7650047568250116,
                2.3768608381716967,
                1.1981356518344075,
                -0.3590368040333217,
                -1.5425050490386703
            ]
        },
        {
            "positions": [
                -1.2890316206117753,
                -1.7734250747878824,
                2.3777707145458087,
                1.1004949663431975,
                -0.2954982358775139,
                -1.6358975709644459
            ]
        },
        {
            "positions": [
                -1.164114573498105,
                -1.7818453927507532,
                2.378680590919921,
                1.0028542808519874,
                -0.23195966772170618,
                -1.729290092890221
            ]
        },
        {
            "positions": [
                -1.0391975263844353,
                -1.790265710713624,
                2.379590467294033,
                0.9052135953607774,
                -0.16842109956589835,
                -1.8226826148159965
            ]
        },
        {
            "positions": [
                -0.9142804792707646,
                -1.7986860286764947,
                2.380500343668145,
                0.8075729098695672,
                -0.10488253141009052,
                -1.916075136741772
            ]
        },
        {
            "positions": [
                -0.7893634321570944,
                -1.8071063466393658,
                2.381410220042257,
                0.709932224378357,
                -0.04134396325428269,
                -2.0094676586675475
            ]
        },
        {
            "positions": [
                -0.6644463850434246,
                -1.8155266646022366,
                2.382320096416369,
                0.612291538887147,
                0.022194604901524917,
                -2.102860180593323
            ]
        },
        {
            "positions": [
                -0.5395293379297543,
                -1.8239469825651073,
                2.383229972790481,
                0.5146508533959371,
                0.08573317305733275,
                -2.1962527025190983
            ]
        },
        {
            "positions": [
                -0.4146122908160841,
                -1.8323673005279781,
                2.384139849164593,
                0.4170101679047269,
                0.14927174121314057,
                -2.289645224444874
            ]
        },
        {
            "positions": [
                -0.28969524370241384,
                -1.840787618490849,
                2.385049725538705,
                0.3193694824135167,
                0.2128103093689484,
                -2.383037746370649
            ]
        },
        {
            "positions": [
                -0.1647781965887436,
                -1.8492079364537197,
                2.385959601912817,
                0.22172879692230696,
                0.276348877524756,
                -2.4764302682964248
            ]
        },
        {
            "positions": [
                -0.0398611494750738,
                -1.8576282544165905,
                2.386869478286929,
                0.12408811143109677,
                0.33988744568056384,
                -2.5698227902222
            ]
        },
        {
            "positions": [
                0.08505589763859689,
                -1.8660485723794613,
                2.3877793546610415,
                0.026447425939886582,
                0.40342601383637167,
                -2.6632153121479756
            ]
        },
        {
            "positions": [
                0.20997294475226713,
                -1.874468890342332,
                2.3886892310351535,
                -0.0711932595513236,
                0.4669645819921795,
                -2.756607834073751
            ]
        },
        {
            "positions": [
                0.33488999186593693,
                -1.8828892083052031,
                2.3895991074092655,
                -0.1688339450425338,
                0.5305031501479871,
                -2.8500003559995264
            ]
        },
        {
            "positions": [
                0.4598070389796072,
                -1.891309526268074,
                2.3905089837833775,
                -0.26647463053374354,
                0.5940417183037949,
                -2.9433928779253016
            ]
        },
        {
            "positions": [
                0.5847240860932774,
                -1.8997298442309447,
                2.3914188601574895,
                -0.36411531602495373,
                0.6575802864596028,
                -3.0367853998510776
            ]
        },
        {
            "positions": [
                0.7096411332069479,
                -1.9081501621938155,
                2.3923287365316015,
                -0.4617560015161638,
                0.7211188546154106,
                -3.130177921776853
            ]
        }
    ]
}