{
    "goal": {
        "global_pose": {
            "orientation": {
                "w": -0.4816463035849501,
                "x": 0.5182115481033762,
                "y": 0.4908360881923453,
                "z": -0.5084816262002911
            },
            "position": {
                "x": -0.8240239810943604,
                "y": 0.19912469901144506,
                "z": 0.16403168439865112
            }
        },
        "name": "move_to_storage_D"
    },
    "id": "LBKPIECE_move_to_storage_D_13",
    "joint_names": [
        "shoulder_pan_joint",
        "shoulder_lift_joint",
        "elbow_joint",
        "wrist_1_joint",
        "wrist_2_joint",
        "wrist_3_joint"
    ],
    "metrics": {
        "cart_traj_len": 3.6245936346719962,
        "distance_elbow_joint": 4.208511157681895,
        "distance_shoulder_lift_joint": 1.2656039488746507,
        "distance_shoulder_pan_joint": 2.8132553431315594,
        "distance_wrist_1_joint": 2.2643314127677456,
        "distance_wrist_2_joint": 1.2475940127419518,
        "distance_wrist_3_joint": 3.143641794765084,
        "smoothness": 0.02749014326835458,
        "time": 0.224259131,
        "traj_len": 3.8656096116864784,
        "weighted_distance": 4.9741478350570505
    },
    "planner": "LBKPIECE",
    "start": {
        "state": {
            "elbow_joint": -2.384821988534728,
            "shoulder_lift_joint": -2.2788054721415256,
            "shoulder_pan_joint": -0.1854694642142757,
            "wrist_1_joint": 1.4845938289331202,
            "wrist_2_joint": 0.17898776772866878,
            "wrist_3_joint": 0.037105688729662994
        }
    },
    "waypoints": [
        {
            "positions": [
                -0.1854694642142757,
                -2.2788054721415256,
                -2.384821988534728,
                1.4845938289331202,
                0.17898776772866878,
                0.037105688729662994
            ]
        },
        {
            "positions": [
                -0.08154032154272395,
                -2.2279954930704693,
                -2.2645292849193663,
                1.4545143351480805,
                0.22333026919501447,
                0.08115965880392971
            ]
        },
        {
            "positions": [
                0.022388821128827813,
                -2.1771855139994125,
                -2.1442365813040043,
                1.4244348413630408,
                0.26767277066136014,
                0.12521362887819643
            ]
        },
        {
            "positions": [
                0.1263179638003796,
                -2.126375534928356,
                -2.0239438776886427,
                1.394355347578001,
                0.31201527212770586,
                0.16926759895246316
            ]
        },
        {
            "positions": [
                0.23024710647193133,
                -2.0755655558573,
                -1.903651174073281,
                1.3642758537929613,
                0.3563577735940515,
                0.21332156902672986
            ]
        },
        {
            "positions": [
                0.3341762491434832,
                -2.024755576786243,
                -1.7833584704579195,
                1.3341963600079216,
                0.4007002750603972,
                0.25737553910099664
            ]
        },
        {
            "positions": [
                0.43810539181503494,
                -1.9739455977151867,
                -1.6630657668425577,
                1.304116866222882,
                0.44504277652674284,
                0.30142950917526334
            ]
        },
        {
            "positions": [
                0.5420345344865868,
                -1.9231356186441302,
                -1.5427730632271959,
                1.2740373724378422,
                0.4893852779930886,
                0.34548347924953005
            ]
        },
        {
            "positions": [
                0.6459636771581384,
                -1.8723256395730736,
                -1.4224803596118343,
                1.2439578786528025,
                0.5337277794594342,
                0.38953744932379675
            ]
        },
        {
            "positions": [
                0.7498928198296902,
                -1.8215156605020173,
                -1.3021876559964727,
                1.2138783848677628,
                0.57807028092578,
                0.43359141939806345
            ]
        },
        {
            "positions": [
                0.8538219625012421,
                -1.7707056814309607,
                -1.1818949523811109,
                1.183798891082723,
                0.6224127823921256,
                0.47764538947233026
            ]
        },
        {
            "positions": [
                0.9577511051727937,
                -1.7198957023599042,
                -1.0616022487657493,
                1.1537193972976834,
                0.6667552838584713,
                0.5216993595465969
            ]
        },
        {
            "positions": [
                1.0616802478443454,
                -1.6690857232888479,
                -0.9413095451503875,
                1.1236399035126436,
                0.7110977853248169,
                0.5657533296208637
            ]
        },
        {
            "positions": [
                1.165609390515897,
                -1.6182757442177913,
                -0.8210168415350259,
                1.093560409727604,
                0.7554402867911626,
                0.6098072996951304
            ]
        },
        {
            "positions": [
                1.2695385331874491,
                -1.5674657651467347,
                -0.700724137919664,
                1.0634809159425642,
                0.7997827882575084,
                0.6538612697693972
            ]
        },
        {
            "positions": [
                1.3734676758590008,
                -1.5166557860756784,
                -0.5804314343043022,
                1.0334014221575245,
                0.8441252897238539,
                0.6979152398436639
            ]
        },
        {
            "positions": [
                1.4773968185305524,
                -1.4658458070046219,
                -0.4601387306889406,
                1.0033219283724848,
                0.8884677911901996,
                0.7419692099179305
            ]
        },
        {
            "positions": [
                1.5813259612021044,
                -1.4150358279335653,
                -0.339846027073579,
                0.973242434587445,
                0.9328102926565454,
                0.7860231799921973
            ]
        },
        {
            "positions": [
                1.685255103873656,
                -1.3642258488625087,
                -0.21955332345821743,
                0.9431629408024053,
                0.977152794122891,
                0.830077150066464
            ]
        },
        {
            "positions": [
                1.7891842465452077,
                -1.3134158697914522,
                -0.09926061984285539,
                0.9130834470173655,
                1.0214952955892367,
                0.8741311201407307
            ]
        },
        {
            "positions": [
                1.8931133892167598,
                -1.2626058907203959,
                0.021032083772506205,
                0.8830039532323258,
                1.0658377970555826,
                0.9181850902149975
            ]
        },
        {
            "positions": [
                1.9970425318883112,
                -1.2117959116493393,
                0.1413247873878678,
                0.8529244594472861,
                1.1101802985219282,
                0.9622390602892641
            ]
        },
        {
            "positions": [
                2.100971674559863,
                -1.160985932578283,
                0.2616174910032294,
                0.8228449656622464,
                1.1545227999882737,
                1.0062930303635307
            ]
        },
        {
            "positions": [
                2.204900817231415,
                -1.1101759535072264,
                0.38191019461859144,
                0.7927654718772067,
                1.1988653014546196,
                1.0503470004377977
            ]
        },
        {
            "positions": [
                2.3088299599029667,
                -1.0593659744361699,
                0.502202898233953,
                0.762685978092167,
                1.2432078029209652,
                1.0944009705120643
            ]
        },
        {
            "positions": [
                2.3316125255468463,
                -1.0560685136383632,
                0.596594774727754,
                0.6525128665259675,
                1.2301096616674183,
                1.2434257214393987
            ]
        },
        {
            "positions": [
                2.3543950911907263,
                -1.0527710528405563,
                0.690986651221555,
                0.5423397549597682,
                1.2170115204138716,
                1.3924504723667332
            ]
        },
        {
            "positions": [
                2.377177656834606,
                -1.0494735920427496,
                0.785378527715356,
                0.4321666433935687,
                1.2039133791603247,
                1.5414752232940678
            ]
        },
        {
            "positions": [
                2.399960222478486,
                -1.0461761312449427,
                0.8797704042091569,
                0.3219935318273693,
                1.190815237906778,
                1.6904999742214022
            ]
        },
        {
            "positions": [
                2.4227427881223655,
                -1.042878670447136,
                0.974162280702958,
                0.21182042026116976,
                1.177717096653231,
                1.8395247251487368
            ]
        },
        {
            "positions": [
                2.4455253537662456,
                -1.039581209649329,
                1.068554157196759,
                0.1016473086949704,
                1.1646189553996844,
                1.9885494760760711
            ]
        },
        {
            "positions": [
                2.468307919410125,
                -1.0362837488515224,
                1.16294603369056,
                -0.00852580287122906,
                1.1515208141461375,
                2.1375742270034057
            ]
        },
        {
            "positions": [
                2.4910904850540048,
                -1.0329862880537157,
                1.2573379101843607,
                -0.11869891443742842,
                1.1384226728925906,
                2.28659897793074
            ]
        },
        {
            "positions": [
                2.513873050697885,
                -1.0296888272559088,
                1.351729786678162,
                -0.228872026003628,
                1.125324531639044,
                2.435623728858075
            ]
        },
        {
            "positions": [
                2.5366556163417644,
                -1.0263913664581021,
                1.446121663171963,
                -0.33904513756982746,
                1.112226390385497,
                2.5846484797854092
            ]
        },
        {
            "positions": [
                2.5594381819856444,
                -1.0230939056602952,
                1.5405135396657637,
                -0.4492182491360267,
                1.0991282491319503,
                2.7336732307127436
            ]
        },
        {
            "positions": [
                2.582220747629524,
                -1.0197964448624885,
                1.6349054161595646,
                -0.5593913607022262,
                1.0860301078784034,
                2.882697981640078
            ]
        },
        {
            "positions": [
                2.605003313273404,
                -1.0164989840646816,
                1.7292972926533656,
                -0.6695644722684256,
                1.0729319666248567,
                3.0317227325674128
            ]
        },
        {
            "positions": [
                2.6277858789172837,
                -1.013201523266875,
                1.8236891691471666,
                -0.7797375838346252,
                1.0598338253713098,
                3.180747483494747
            ]
        }
    ]
}