{
    "goal": {
        "global_pose": {
            "orientation": {
                "w": -0.00223480608172531,
                "x": 0.0024358444001904467,
                "y": 0.7094548369677653,
                "z": -0.704743149386269
            },
            "position": {
                "x": 0.6205249238014221,
                "y": -0.6371506643295288,
                "z": 0.19426114857196808
            }
        },
        "name": "move_to_magneteinheit_B"
    },
    "id": "LBKPIECE_move_to_magneteinheit_B_30",
    "joint_names": [
        "shoulder_pan_joint",
        "shoulder_lift_joint",
        "elbow_joint",
        "wrist_1_joint",
        "wrist_2_joint",
        "wrist_3_joint"
    ],
    "metrics": {
        "cart_traj_len": 3.35633796184149,
        "distance_elbow_joint": 5.140105312154784,
        "distance_shoulder_lift_joint": 1.0641218887147836,
        "distance_shoulder_pan_joint": 2.786703003207061,
        "distance_wrist_1_joint": 1.8177731532389112,
        "distance_wrist_2_joint": 3.1628402511409894,
        "distance_wrist_3_joint": 3.7135613795729823,
        "smoothness": 0.5375623389367205,
        "time": 0.889923249,
        "traj_len": 4.205366213307648,
        "weighted_distance": 5.4856942269466105
    },
    "planner": "LBKPIECE",
    "start": {
        "state": {
            "elbow_joint": 2.6216224122426386,
            "shoulder_lift_joint": -1.4174107377796124,
            "shoulder_pan_joint": 0.7066234856936794,
            "wrist_1_joint": 1.9546482284002225,
            "wrist_2_joint": -0.7096286983471962,
            "wrist_3_joint": 0.005740856962016249
        }
    },
    "waypoints": [
        {
            "positions": [
                0.7066234856936794,
                -1.4174107377796124,
                2.6216224122426386,
                1.9546482284002225,
                -0.7096286983471962,
                0.005740856962016249
            ]
        },
        {
            "positions": [
                0.646262389665622,
                -1.4404753264563155,
                2.5933155923632576,
                1.9646182546338335,
                -0.5766056067185164,
                0.08017341932146876
            ]
        },
        {
            "positions": [
                0.5859012936375647,
                -1.4635399151330186,
                2.5650087724838766,
                1.9745882808674446,
                -0.4435825150898365,
                0.1546059816809213
            ]
        },
        {
            "positions": [
                0.5255401976095073,
                -1.486604503809722,
                2.536701952604496,
                1.984558307101056,
                -0.3105594234611566,
                0.2290385440403738
            ]
        },
        {
            "positions": [
                0.46517910158145,
                -1.5096690924864251,
                2.508395132725115,
                1.994528333334667,
                -0.17753633183247675,
                0.30347110639982633
            ]
        },
        {
            "positions": [
                0.40481800555339265,
                -1.5327336811631282,
                2.480088312845734,
                2.004498359568278,
                -0.04451324020379689,
                0.37790366875927883
            ]
        },
        {
            "positions": [
                0.3665474504856588,
                -1.5431866467964874,
                2.2948665836431372,
                2.0170620304911653,
                -0.01875408882503829,
                0.35732841016532685
            ]
        },
        {
            "positions": [
                0.328276895417925,
                -1.5536396124298466,
                2.1096448544405404,
                2.029625701414053,
                0.007005062553720312,
                0.33675315157137486
            ]
        },
        {
            "positions": [
                0.2900063403501911,
                -1.5640925780632058,
                1.9244231252379433,
                2.04218937233694,
                0.032764213932478914,
                0.3161778929774229
            ]
        },
        {
            "positions": [
                0.3623582992359857,
                -1.5744788411341903,
                1.7796893928851643,
                1.9932169020441592,
                -0.008385863915652658,
                0.24130023398729397
            ]
        },
        {
            "positions": [
                0.4347102581217803,
                -1.584865104205175,
                1.6349556605323852,
                1.9442444317513785,
                -0.04953594176378423,
                0.16642257499716506
            ]
        },
        {
            "positions": [
                0.5070622170075749,
                -1.5952513672761595,
                1.490221928179606,
                1.895271961458598,
                -0.0906860196119158,
                0.09154491600703613
            ]
        },
        {
            "positions": [
                0.5794141758933695,
                -1.605637630347144,
                1.345488195826827,
                1.8462994911658173,
                -0.13183609746004737,
                0.016667257016907244
            ]
        },
        {
            "positions": [
                0.6517661347791642,
                -1.6160238934181286,
                1.200754463474048,
                1.7973270208730365,
                -0.17298617530817895,
                -0.05821040197322175
            ]
        },
        {
            "positions": [
                0.7241180936649588,
                -1.6264101564891131,
                1.0560207311212688,
                1.748354550580256,
                -0.21413625315631052,
                -0.13308806096335063
            ]
        },
        {
            "positions": [
                0.7964700525507534,
                -1.6367964195600975,
                0.9112869987684897,
                1.6993820802874753,
                -0.2552863310044421,
                -0.20796571995347962
            ]
        },
        {
            "positions": [
                0.868822011436548,
                -1.647182682631082,
                0.7665532664157106,
                1.6504096099946945,
                -0.29643640885257366,
                -0.2828433789436084
            ]
        },
        {
            "positions": [
                0.9411739703223427,
                -1.6575689457020666,
                0.6218195340629316,
                1.6014371397019138,
                -0.33758648670070524,
                -0.3577210379337374
            ]
        },
        {
            "positions": [
                1.0135259292081373,
                -1.6679552087730511,
                0.47708580171015247,
                1.552464669409133,
                -0.3787365645488368,
                -0.4325986969238664
            ]
        },
        {
            "positions": [
                1.085877888093932,
                -1.6783414718440357,
                0.3323520693573734,
                1.5034921991163526,
                -0.4198866423969684,
                -0.5074763559139952
            ]
        },
        {
            "positions": [
                1.1582298469797265,
                -1.6887277349150203,
                0.1876183370045943,
                1.4545197288235718,
                -0.46103672024509995,
                -0.5823540149041242
            ]
        },
        {
            "positions": [
                1.2305818058655211,
                -1.6991139979860048,
                0.04288460465181543,
                1.4055472585307913,
                -0.5021867980932315,
                -0.657231673894253
            ]
        },
        {
            "positions": [
                1.3029337647513157,
                -1.7095002610569894,
                -0.10184912770096388,
                1.3565747882380106,
                -0.543336875941363,
                -0.7321093328843822
            ]
        },
        {
            "positions": [
                1.3752857236371103,
                -1.719886524127974,
                -0.2465828600537432,
                1.3076023179452299,
                -0.5844869537894948,
                -0.806986991874511
            ]
        },
        {
            "positions": [
                1.447637682522905,
                -1.7302727871989585,
                -0.39131659240652206,
                1.2586298476524491,
                -0.6256370316376263,
                -0.8818646508646397
            ]
        },
        {
            "positions": [
                1.5199896414086997,
                -1.740659050269943,
                -0.5360503247593014,
                1.2096573773596684,
                -0.6667871094857578,
                -0.9567423098547689
            ]
        },
        {
            "positions": [
                1.5923416002944943,
                -1.7510453133409274,
                -0.6807840571120802,
                1.1606849070668877,
                -0.7079371873338893,
                -1.0316199688448977
            ]
        },
        {
            "positions": [
                1.6646935591802887,
                -1.761431576411912,
                -0.8255177894648591,
                1.1117124367741071,
                -0.7490872651820208,
                -1.1064976278350265
            ]
        },
        {
            "positions": [
                1.7370455180660835,
                -1.7718178394828965,
                -0.9702515218176384,
                1.0627399664813264,
                -0.7902373430301526,
                -1.1813752868251557
            ]
        },
        {
            "positions": [
                1.8093974769518781,
                -1.782204102553881,
                -1.1149852541704173,
                1.0137674961885457,
                -0.8313874208782841,
                -1.2562529458152845
            ]
        },
        {
            "positions": [
                1.8817494358376727,
                -1.7925903656248656,
                -1.2597189865231966,
                0.9647950258957652,
                -0.8725374987264156,
                -1.3311306048054132
            ]
        },
        {
            "positions": [
                1.9541013947234673,
                -1.8029766286958502,
                -1.404452718875976,
                0.9158225556029844,
                -0.9136875765745474,
                -1.4060082637955424
            ]
        },
        {
            "positions": [
                2.026453353609262,
                -1.8133628917668347,
                -1.549186451228755,
                0.8668500853102036,
                -0.9548376544226789,
                -1.4808859227856712
            ]
        },
        {
            "positions": [
                2.070808213717462,
                -1.8426592576979752,
                -1.5984366290420138,
                0.8474741132432658,
                -0.8268599827376505,
                -1.3623119785255333
            ]
        },
        {
            "positions": [
                2.1151630738256615,
                -1.8719556236291157,
                -1.6476868068552724,
                0.8280981411763282,
                -0.6988823110526221,
                -1.2437380342653954
            ]
        },
        {
            "positions": [
                2.1595179339338615,
                -1.9012519895602562,
                -1.6969369846685312,
                0.8087221691093904,
                -0.5709046393675936,
                -1.1251640900052575
            ]
        },
        {
            "positions": [
                2.2038727940420615,
                -1.9305483554913967,
                -1.74618716248179,
                0.7893461970424527,
                -0.44292696768256523,
                -1.0065901457451196
            ]
        },
        {
            "positions": [
                2.2482276541502615,
                -1.9598447214225372,
                -1.7954373402950488,
                0.7699702249755149,
                -0.31494929599753685,
                -0.8880162014849817
            ]
        },
        {
            "positions": [
                2.292582514258461,
                -1.9891410873536777,
                -1.8446875181083073,
                0.7505942529085773,
                -0.18697162431250847,
                -0.7694422572248438
            ]
        },
        {
            "positions": [
                2.336937374366661,
                -2.018437453284818,
                -1.8939376959215661,
                0.7312182808416395,
                -0.05899395262747997,
                -0.6508683129647059
            ]
        },
        {
            "positions": [
                2.381292234474861,
                -2.0477338192159587,
                -1.943187873734825,
                0.7118423087747018,
                0.06898371905754841,
                -0.532294368704568
            ]
        },
        {
            "positions": [
                2.425647094583061,
                -2.077030185147099,
                -1.9924380515480837,
                0.692466336707764,
                0.1969613907425769,
                -0.41372042444443013
            ]
        },
        {
            "positions": [
                2.4700019546912606,
                -2.1063265510782396,
                -2.0416882293613425,
                0.6730903646408264,
                0.3249390624276052,
                -0.29514648018429224
            ]
        },
        {
            "positions": [
                2.5143568147994606,
                -2.13562291700938,
                -2.090938407174601,
                0.6537143925738886,
                0.45291673411263367,
                -0.17657253592415428
            ]
        },
        {
            "positions": [
                2.5507906606530364,
                -2.222100344380634,
                -1.9840522839902155,
                0.7391536499586742,
                0.4591895046053447,
                -0.13199863858184147
            ]
        },
        {
            "positions": [
                2.587224506506612,
                -2.308577771751888,
                -1.8771661608058299,
                0.8245929073434597,
                0.4654622750980557,
                -0.08742474123952866
            ]
        },
        {
            "positions": [
                2.623658352360188,
                -2.395055199123142,
                -1.770280037621444,
                0.9100321647282452,
                0.4717350455907668,
                -0.04285084389721586
            ]
        },
        {
            "positions": [
                2.6600921982137637,
                -2.481532626494396,
                -1.6633939144370584,
                0.9954714221130307,
                0.4780078160834778,
                0.001723053445096954
            ]
        }
    ]
}