{
    "goal": {
        "global_pose": {
            "orientation": {
                "w": 0.7031023502349854,
                "x": -0.7110244035720825,
                "y": 0.007748599164187908,
                "z": 0.005598929710686207
            },
            "position": {
                "x": 0.11585023208521307,
                "y": 0.44412534475326537,
                "z": 0.3711530566215515
            }
        },
        "name": "move_to_auspresseinheit_A"
    },
    "id": "LBKPIECE_move_to_auspresseinheit_A_84",
    "joint_names": [
        "shoulder_pan_joint",
        "shoulder_lift_joint",
        "elbow_joint",
        "wrist_1_joint",
        "wrist_2_joint",
        "wrist_3_joint"
    ],
    "metrics": {
        "cart_traj_len": 1.834022186564002,
        "distance_elbow_joint": 2.0671976133257313,
        "distance_shoulder_lift_joint": 0.9847711614717858,
        "distance_shoulder_pan_joint": 1.5090286858081987,
        "distance_wrist_1_joint": 2.4744226177249655,
        "distance_wrist_2_joint": 2.622589251909881,
        "distance_wrist_3_joint": 2.286425104811368,
        "smoothness": 1.328058909426992,
        "time": 0.397733517,
        "traj_len": 3.456072110800342,
        "weighted_distance": 4.649117821082782
    },
    "planner": "LBKPIECE",
    "start": {
        "state": {
            "elbow_joint": 2.4225746658250005,
            "shoulder_lift_joint": -1.3736534386056498,
            "shoulder_pan_joint": -0.3378633547517467,
            "wrist_1_joint": -1.0288598680537169,
            "wrist_2_joint": 1.233022673432363,
            "wrist_3_joint": -3.0940220416140027
        }
    },
    "waypoints": [
        {
            "positions": [
                -0.3378633547517467,
                -1.3736534386056498,
                2.4225746658250005,
                -1.0288598680537169,
                1.233022673432363,
                -3.0940220416140027
            ]
        },
        {
            "positions": [
                -0.2788189591884292,
                -1.4167186756021082,
                2.356305765124773,
                -0.9775378632195774,
                1.1507929270223285,
                -3.007758210842225
            ]
        },
        {
            "positions": [
                -0.21977456362511166,
                -1.4597839125985665,
                2.2900368644245463,
                -0.9262158583854379,
                1.068563180612294,
                -2.9214943800704476
            ]
        },
        {
            "positions": [
                -0.16073016806179416,
                -1.502849149595025,
                2.223767963724319,
                -0.8748938535512983,
                0.9863334342022594,
                -2.83523054929867
            ]
        },
        {
            "positions": [
                -0.10168577249847663,
                -1.5459143865914833,
                2.157499063024092,
                -0.8235718487171588,
                0.9041036877922248,
                -2.7489667185268924
            ]
        },
        {
            "positions": [
                -0.04264137693515907,
                -1.5889796235879416,
                2.091230162323865,
                -0.7722498438830194,
                0.8218739413821903,
                -2.6627028877551147
            ]
        },
        {
            "positions": [
                0.016403018628158406,
                -1.6320448605844,
                2.0249612616236377,
                -0.7209278390488798,
                0.7396441949721557,
                -2.5764390569833373
            ]
        },
        {
            "positions": [
                0.07544741419147594,
                -1.6751100975808584,
                1.9586923609234106,
                -0.6696058342147404,
                0.6574144485621213,
                -2.4901752262115595
            ]
        },
        {
            "positions": [
                0.13449180975479347,
                -1.7181753345773167,
                1.8924234602231835,
                -0.6182838293806008,
                0.5751847021520867,
                -2.403911395439782
            ]
        },
        {
            "positions": [
                0.19353620531811094,
                -1.7612405715737751,
                1.8261545595229562,
                -0.5669618245464614,
                0.4929549557420523,
                -2.3176475646680044
            ]
        },
        {
            "positions": [
                0.2525806008814286,
                -1.8043058085702335,
                1.7598856588227292,
                -0.5156398197123219,
                0.4107252093320176,
                -2.2313837338962266
            ]
        },
        {
            "positions": [
                0.311624996444746,
                -1.8473710455666918,
                1.6936167581225021,
                -0.46431781487818236,
                0.3284954629219832,
                -2.1451199031244492
            ]
        },
        {
            "positions": [
                0.37066939200806354,
                -1.8904362825631502,
                1.6273478574222748,
                -0.41299581004404284,
                0.2462657165119485,
                -2.058856072352672
            ]
        },
        {
            "positions": [
                0.42971378757138107,
                -1.9335015195596086,
                1.5610789567220478,
                -0.36167380520990333,
                0.164035970101914,
                -1.972592241580894
            ]
        },
        {
            "positions": [
                0.46902221338125494,
                -1.9034017145962336,
                1.5512708045712311,
                -0.19052605407196227,
                0.1016446759939473,
                -1.999791693448673
            ]
        },
        {
            "positions": [
                0.5083306391911289,
                -1.8733019096328587,
                1.5414626524204145,
                -0.019378302934021208,
                0.039253381885980584,
                -2.026991145316452
            ]
        },
        {
            "positions": [
                0.5476390650010027,
                -1.843202104669484,
                1.5316545002695978,
                0.1517694482039198,
                -0.023137912221986107,
                -2.0541905971842307
            ]
        },
        {
            "positions": [
                0.5869474908108765,
                -1.813102299706109,
                1.5218463481187812,
                0.3229171993418609,
                -0.08552920632995284,
                -2.08139004905201
            ]
        },
        {
            "positions": [
                0.6262559166207504,
                -1.783002494742734,
                1.5120381959679645,
                0.4940649504798019,
                -0.14792050043791952,
                -2.1085895009197886
            ]
        },
        {
            "positions": [
                0.6647323632229122,
                -1.8069463138316184,
                1.6225854513619935,
                0.4272505754989535,
                -0.04748666035555903,
                -2.1506961194007226
            ]
        },
        {
            "positions": [
                0.7032088098250739,
                -1.8308901329205027,
                1.7331327067560225,
                0.36043620051810504,
                0.05294717972680146,
                -2.1928027378816566
            ]
        },
        {
            "positions": [
                0.7416852564272357,
                -1.8548339520093868,
                1.8436799621500515,
                0.2936218255372566,
                0.15338101980916194,
                -2.2349093563625906
            ]
        },
        {
            "positions": [
                0.7801617030293975,
                -1.8787777710982712,
                1.9542272175440805,
                0.22680745055640816,
                0.2538148598915224,
                -2.2770159748435246
            ]
        },
        {
            "positions": [
                0.8186381496315593,
                -1.9027215901871555,
                2.0647744729381095,
                0.15999307557555975,
                0.354248699973883,
                -2.3191225933244586
            ]
        },
        {
            "positions": [
                0.8571145962337211,
                -1.9266654092760396,
                2.1753217283321384,
                0.09317870059471128,
                0.4546825400562434,
                -2.3612292118053926
            ]
        },
        {
            "positions": [
                0.8955910428358829,
                -1.950609228364924,
                2.2858689837261674,
                0.026364325613862816,
                0.555116380138604,
                -2.4033358302863266
            ]
        },
        {
            "positions": [
                0.9340674894380446,
                -1.9745530474538082,
                2.3964162391201964,
                -0.040450049366985596,
                0.6555502202209644,
                -2.4454424487672606
            ]
        },
        {
            "positions": [
                0.875456208287867,
                -1.9558136933246821,
                2.361875465471122,
                -0.06193801220464418,
                0.6057995285415274,
                -2.56497282734779
            ]
        },
        {
            "positions": [
                0.8168449271376893,
                -1.9370743391955563,
                2.3273346918220477,
                -0.08342597504230276,
                0.5560488368620904,
                -2.684503205928319
            ]
        },
        {
            "positions": [
                0.7582336459875116,
                -1.9183349850664304,
                2.2927939181729733,
                -0.10491393787996134,
                0.5062981451826533,
                -2.804033584508848
            ]
        },
        {
            "positions": [
                0.699622364837334,
                -1.8995956309373043,
                2.258253144523899,
                -0.12640190071761992,
                0.45654745350321624,
                -2.9235639630893773
            ]
        },
        {
            "positions": [
                0.7005066038432329,
                -1.9022343264284292,
                2.3029598130972877,
                -0.23674555004896142,
                0.5362716503908715,
                -2.994905157512636
            ]
        },
        {
            "positions": [
                0.7013908428491318,
                -1.904873021919554,
                2.347666481670676,
                -0.3470891993803029,
                0.615995847278527,
                -3.0662463519358947
            ]
        },
        {
            "positions": [
                0.7022750818550307,
                -1.9075117174106788,
                2.392373150244065,
                -0.4574328487116444,
                0.6957200441661823,
                -3.1375875463591534
            ]
        }
    ]
}