{
    "goal": {
        "global_pose": {
            "orientation": {
                "w": 0.7047431493862688,
                "x": -0.7094548369677653,
                "y": 0.0024358444001904,
                "z": -0.0022348060817251984
            },
            "position": {
                "x": -0.39052492380142206,
                "y": 0.3671506643295288,
                "z": 0.19426114857196808
            }
        },
        "name": "move_to_magneteinheit_D"
    },
    "id": "LBKPIECE_move_to_magneteinheit_D_91",
    "joint_names": [
        "shoulder_pan_joint",
        "shoulder_lift_joint",
        "elbow_joint",
        "wrist_1_joint",
        "wrist_2_joint",
        "wrist_3_joint"
    ],
    "metrics": {
        "cart_traj_len": 4.487601384358886,
        "distance_elbow_joint": 3.129624444679954,
        "distance_shoulder_lift_joint": 1.7275001886940407,
        "distance_shoulder_pan_joint": 4.136109513522996,
        "distance_wrist_1_joint": 2.8249078256763904,
        "distance_wrist_2_joint": 1.5400479137150136,
        "distance_wrist_3_joint": 3.5858478909808538,
        "smoothness": 0.39793757226444254,
        "time": 0.3168771,
        "traj_len": 4.116313615028531,
        "weighted_distance": 5.336730206654853
    },
    "planner": "LBKPIECE",
    "start": {
        "state": {
            "elbow_joint": 0.749534889911806,
            "shoulder_lift_joint": -0.6476975780787326,
            "shoulder_pan_joint": -2.711696901376241,
            "wrist_1_joint": -0.07506478083263063,
            "wrist_2_joint": 0.43296659715538205,
            "wrist_3_joint": -3.14703540197715
        }
    },
    "waypoints": [
        {
            "positions": [
                -2.711696901376241,
                -0.6476975780787326,
                0.749534889911806,
                -0.07506478083263063,
                0.43296659715538205,
                -3.14703540197715
            ]
        },
        {
            "positions": [
                -2.7512781473202463,
                -0.7011983320426142,
                0.6537094116131775,
                -0.14501317571137912,
                0.34314538901143443,
                -3.151112849816273
            ]
        },
        {
            "positions": [
                -2.7908593932642516,
                -0.7546990860064958,
                0.5578839333145492,
                -0.21496157059012763,
                0.2533241808674868,
                -3.1551902976553956
            ]
        },
        {
            "positions": [
                -2.830440639208257,
                -0.8081998399703774,
                0.4620584550159208,
                -0.28490996546887615,
                0.1635029727235392,
                -3.159267745494518
            ]
        },
        {
            "positions": [
                -2.870021885152262,
                -0.8617005939342589,
                0.36623297671729244,
                -0.35485836034762464,
                0.07368176457959158,
                -3.1633451933336407
            ]
        },
        {
            "positions": [
                -2.909603131096267,
                -0.9152013478981406,
                0.270407498418664,
                -0.42480675522637323,
                -0.016139443564356093,
                -3.1674226411727635
            ]
        },
        {
            "positions": [
                -2.949184377040272,
                -0.9687021018620221,
                0.17458202012003565,
                -0.49475515010512167,
                -0.10596065170830365,
                -3.1715000890118863
            ]
        },
        {
            "positions": [
                -2.9887656229842774,
                -1.0222028558259038,
                0.07875654182140723,
                -0.5647035449838702,
                -0.19578185985225133,
                -3.1755775368510086
            ]
        },
        {
            "positions": [
                -3.0283468689282826,
                -1.0757036097897852,
                -0.017068936477221075,
                -0.6346519398626187,
                -0.2856030679961989,
                -3.1796549846901314
            ]
        },
        {
            "positions": [
                -3.067928114872288,
                -1.1292043637536668,
                -0.11289441477584944,
                -0.7046003347413672,
                -0.37542427614014656,
                -3.183732432529254
            ]
        },
        {
            "positions": [
                -2.9251860648656116,
                -1.1500873434124197,
                -0.1640535574256742,
                -0.6669836226170922,
                -0.3498985972649211,
                -3.0700476750595502
            ]
        },
        {
            "positions": [
                -2.782444014858935,
                -1.1709703230711728,
                -0.21521270007549897,
                -0.6293669104928172,
                -0.3243729183896957,
                -2.9563629175898463
            ]
        },
        {
            "positions": [
                -2.6397019648522586,
                -1.1918533027299256,
                -0.26637184272532377,
                -0.5917501983685423,
                -0.29884723951447023,
                -2.8426781601201423
            ]
        },
        {
            "positions": [
                -2.496959914845582,
                -1.2127362823886785,
                -0.3175309853751485,
                -0.5541334862442673,
                -0.27332156063924484,
                -2.7289934026504383
            ]
        },
        {
            "positions": [
                -2.3542178648389056,
                -1.2336192620474313,
                -0.36869012802497325,
                -0.5165167741199923,
                -0.24779588176401937,
                -2.6153086451807344
            ]
        },
        {
            "positions": [
                -2.2114758148322293,
                -1.2545022417061844,
                -0.41984927067479805,
                -0.4789000619957174,
                -0.22227020288879396,
                -2.5016238877110304
            ]
        },
        {
            "positions": [
                -2.0687337648255526,
                -1.2753852213649373,
                -0.47100841332462284,
                -0.4412833498714424,
                -0.19674452401356848,
                -2.3879391302413264
            ]
        },
        {
            "positions": [
                -1.9259917148188763,
                -1.2962682010236901,
                -0.5221675559744476,
                -0.4036666377471675,
                -0.17121884513834307,
                -2.2742543727716225
            ]
        },
        {
            "positions": [
                -1.7832496648121998,
                -1.317151180682443,
                -0.5733266986242724,
                -0.36604992562289246,
                -0.14569316626311762,
                -2.1605696153019185
            ]
        },
        {
            "positions": [
                -1.6405076148055233,
                -1.338034160341196,
                -0.624485841274097,
                -0.32843321349861754,
                -0.12016748738789218,
                -2.0468848578322145
            ]
        },
        {
            "positions": [
                -1.4977655647988468,
                -1.358917139999949,
                -0.6756449839239218,
                -0.29081650137434256,
                -0.09464180851266674,
                -1.9332001003625106
            ]
        },
        {
            "positions": [
                -1.3550235147921705,
                -1.3798001196587018,
                -0.7268041265737466,
                -0.2531997892500676,
                -0.06911612963744135,
                -1.8195153428928066
            ]
        },
        {
            "positions": [
                -1.212281464785494,
                -1.4006830993174546,
                -0.7779632692235714,
                -0.21558307712579267,
                -0.043590450762215904,
                -1.7058305854231028
            ]
        },
        {
            "positions": [
                -1.0695394147788173,
                -1.4215660789762077,
                -0.8291224118733962,
                -0.17796636500151763,
                -0.018064771886990405,
                -1.5921458279533987
            ]
        },
        {
            "positions": [
                -0.926797364772141,
                -1.4424490586349605,
                -0.880281554523221,
                -0.14034965287724266,
                0.007460906988234983,
                -1.4784610704836947
            ]
        },
        {
            "positions": [
                -0.7840553147654648,
                -1.4633320382937134,
                -0.9314406971730458,
                -0.1027329407529678,
                0.03298658586346043,
                -1.3647763130139907
            ]
        },
        {
            "positions": [
                -0.6413132647587885,
                -1.4842150179524662,
                -0.9825998398228704,
                -0.06511622862869282,
                0.058512264738685815,
                -1.251091555544287
            ]
        },
        {
            "positions": [
                -0.49857121475211175,
                -1.5050979976112193,
                -1.0337589824726954,
                -0.02749951650441773,
                0.08403794361391131,
                -1.1374067980745828
            ]
        },
        {
            "positions": [
                -0.35582916474543547,
                -1.5259809772699722,
                -1.08491812512252,
                0.010117195619857133,
                0.10956362248913676,
                -1.0237220406048788
            ]
        },
        {
            "positions": [
                -0.21308711473875874,
                -1.546863956928725,
                -1.1360772677723447,
                0.04773390774413211,
                0.1350893013643622,
                -0.9100372831351748
            ]
        },
        {
            "positions": [
                -0.07034506473208246,
                -1.5677469365874779,
                -1.1872364104221695,
                0.08535061986840708,
                0.1606149802395876,
                -0.7963525256654709
            ]
        },
        {
            "positions": [
                0.07239698527459426,
                -1.588629916246231,
                -1.2383955530719943,
                0.12296733199268206,
                0.1861406591148131,
                -0.6826677681957669
            ]
        },
        {
            "positions": [
                0.21513903528127062,
                -1.6095128959049838,
                -1.2895546957218191,
                0.16058404411695698,
                0.21166633799003848,
                -0.5689830107260628
            ]
        },
        {
            "positions": [
                0.2232094398388521,
                -1.6016619284719948,
                -1.4549388442010456,
                0.29394571148788595,
                0.20730827271811536,
                -0.5977094821652995
            ]
        },
        {
            "positions": [
                0.23127984439643362,
                -1.5938109610390059,
                -1.620322992680272,
                0.42730737885881487,
                0.20295020744619227,
                -0.6264359536045363
            ]
        },
        {
            "positions": [
                0.23935024895401513,
                -1.585959993606017,
                -1.7857071411594987,
                0.5606690462297439,
                0.19859214217426915,
                -0.6551624250437731
            ]
        },
        {
            "positions": [
                0.24742065351159662,
                -1.5781090261730282,
                -1.9510912896387251,
                0.6940307136006727,
                0.19423407690234604,
                -0.6838888964830098
            ]
        },
        {
            "positions": [
                0.2554910580691781,
                -1.5702580587400392,
                -2.116475438117952,
                0.8273923809716017,
                0.18987601163042295,
                -0.7126153679222464
            ]
        },
        {
            "positions": [
                0.2635614626267596,
                -1.5624070913070502,
                -2.2818595865971782,
                0.9607540483425308,
                0.18551794635849983,
                -0.7413418393614832
            ]
        },
        {
            "positions": [
                0.1999881907821936,
                -1.6705777988988397,
                -2.2949973175365495,
                1.0346891393694544,
                0.17440023278019307,
                -0.6153007667370682
            ]
        },
        {
            "positions": [
                0.13641491893762758,
                -1.7787485064906292,
                -2.3081350484759207,
                1.1086242303963778,
                0.1632825192018863,
                -0.48925969411265335
            ]
        },
        {
            "positions": [
                0.07284164709306157,
                -1.8869192140824187,
                -2.321272779415292,
                1.1825593214233012,
                0.15216480562357954,
                -0.36321862148823836
            ]
        },
        {
            "positions": [
                0.009268375248495553,
                -1.9950899216742082,
                -2.3344105103546626,
                1.2564944124502249,
                0.14104709204527277,
                -0.23717754886382347
            ]
        },
        {
            "positions": [
                -0.05430489659607046,
                -2.1032606292659977,
                -2.347548241294034,
                1.3304295034771485,
                0.12992937846696598,
                -0.11113647623940837
            ]
        },
        {
            "positions": [
                -0.1178781684406365,
                -2.211431336857787,
                -2.360685972233405,
                1.404364594504072,
                0.11881166488865921,
                0.014904596385006507
            ]
        },
        {
            "positions": [
                -0.18482725990114182,
                -2.280986157576906,
                -2.3800895547681478,
                1.4907719370262869,
                0.17052341807658128,
                0.020700770628655094
            ]
        }
    ]
}