{
    "goal": {
        "global_pose": {
            "orientation": {
                "w": -0.4816463035849501,
                "x": 0.5182115481033762,
                "y": 0.4908360881923453,
                "z": -0.5084816262002911
            },
            "position": {
                "x": -0.8240239810943604,
                "y": -0.300875300988555,
                "z": 0.16403168439865112
            }
        },
        "name": "move_to_storage_C"
    },
    "id": "LBKPIECE_move_to_storage_C_102",
    "joint_names": [
        "shoulder_pan_joint",
        "shoulder_lift_joint",
        "elbow_joint",
        "wrist_1_joint",
        "wrist_2_joint",
        "wrist_3_joint"
    ],
    "metrics": {
        "cart_traj_len": 0.5770719068632926,
        "distance_elbow_joint": 0.25930443729903985,
        "distance_shoulder_lift_joint": 0.18990067222993579,
        "distance_shoulder_pan_joint": 0.4944202008269647,
        "distance_wrist_1_joint": 0.08252726871945859,
        "distance_wrist_2_joint": 1.0737035801117738,
        "distance_wrist_3_joint": 0.07511044241111486,
        "smoothness": 7.612957943425664e-16,
        "time": 0.830973206,
        "traj_len": 1.4747767972131536,
        "weighted_distance": 1.8658559256415672
    },
    "planner": "LBKPIECE",
    "start": {
        "state": {
            "elbow_joint": 2.010868314990456,
            "shoulder_lift_joint": -1.1634956873337592,
            "shoulder_pan_joint": -2.4736205022346125,
            "wrist_1_joint": -0.8367026794202681,
            "wrist_2_joint": 0.6746043897044499,
            "wrist_3_joint": -3.1496632123970403
        }
    },
    "waypoints": [
        {
            "positions": [
                -2.4736205022346125,
                -1.1634956873337592,
                2.010868314990456,
                -0.8367026794202681,
                0.6746043897044499,
                -3.1496632123970403
            ]
        },
        {
            "positions": [
                -2.5560238690391066,
                -1.1318455752954366,
                1.967650908773949,
                -0.8229481346336917,
                0.8535549863897456,
                -3.1371448053285214
            ]
        },
        {
            "positions": [
                -2.6384272358436007,
                -1.1001954632571138,
                1.9244335025574426,
                -0.8091935898471152,
                1.0325055830750411,
                -3.124626398260002
            ]
        },
        {
            "positions": [
                -2.720830602648095,
                -1.0685453512187912,
                1.881216096340936,
                -0.7954390450605389,
                1.211456179760337,
                -3.1121079911914826
            ]
        },
        {
            "positions": [
                -2.803233969452589,
                -1.0368952391804687,
                1.8379986901244292,
                -0.7816845002739624,
                1.3904067764456323,
                -3.0995895841229637
            ]
        },
        {
            "positions": [
                -2.885637336257083,
                -1.005245127142146,
                1.7947812839079227,
                -0.767929955487386,
                1.569357373130928,
                -3.087071177054445
            ]
        },
        {
            "positions": [
                -2.968040703061577,
                -0.9735950151038234,
                1.751563877691416,
                -0.7541754107008095,
                1.7483079698162236,
                -3.0745527699859254
            ]
        }
    ]
}