{
    "goal": {
        "global_pose": {
            "orientation": {
                "w": 0.5084816217422485,
                "x": -0.49083608388900757,
                "y": 0.5182115435600281,
                "z": -0.4816462993621826
            },
            "position": {
                "x": 0.5540239810943604,
                "y": 0.030875300988554955,
                "z": 0.16403168439865112
            }
        },
        "name": "move_to_storage_A"
    },
    "id": "LBKPIECE_move_to_storage_A_137",
    "joint_names": [
        "shoulder_pan_joint",
        "shoulder_lift_joint",
        "elbow_joint",
        "wrist_1_joint",
        "wrist_2_joint",
        "wrist_3_joint"
    ],
    "metrics": {
        "cart_traj_len": 0.35286822218373004,
        "distance_elbow_joint": 0.44724403171819627,
        "distance_shoulder_lift_joint": 0.23599773134406576,
        "distance_shoulder_pan_joint": 0.46287797654909585,
        "distance_wrist_1_joint": 0.23329136691279262,
        "distance_wrist_2_joint": 1.0921991125628476,
        "distance_wrist_3_joint": 0.10469749838511566,
        "smoothness": 4.440892133664971e-16,
        "time": 0.579126021,
        "traj_len": 1.6050880715624654,
        "weighted_distance": 2.0276077514445405
    },
    "planner": "LBKPIECE",
    "start": {
        "state": {
            "elbow_joint": 1.971548259319323,
            "shoulder_lift_joint": -1.1394851275133948,
            "shoulder_pan_joint": 0.1228115487234821,
            "wrist_1_joint": -0.7804723859257726,
            "wrist_2_joint": 0.12958671773740124,
            "wrist_3_joint": -3.192489227718131
        }
    },
    "waypoints": [
        {
            "positions": [
                0.1228115487234821,
                -1.1394851275133948,
                1.971548259319323,
                -0.7804723859257726,
                0.12958671773740124,
                -3.192489227718131
            ]
        },
        {
            "positions": [
                0.0566861235021827,
                -1.1731990891339756,
                2.035440263850494,
                -0.8137997240561715,
                0.2856151623892366,
                -3.177532442234543
            ]
        },
        {
            "positions": [
                -0.009439301719116694,
                -1.2069130507545565,
                2.099332268381665,
                -0.8471270621865705,
                0.441643607041072,
                -3.1625756567509553
            ]
        },
        {
            "positions": [
                -0.0755647269404161,
                -1.2406270123751373,
                2.1632242729128355,
                -0.8804544003169694,
                0.5976720516929074,
                -3.147618871267367
            ]
        },
        {
            "positions": [
                -0.1416901521617155,
                -1.274340973995718,
                2.2271162774440065,
                -0.9137817384473684,
                0.7537004963447428,
                -3.1326620857837795
            ]
        },
        {
            "positions": [
                -0.20781557738301493,
                -1.308054935616299,
                2.2910082819751776,
                -0.9471090765777673,
                0.9097289409965782,
                -3.1177053003001913
            ]
        },
        {
            "positions": [
                -0.2739410026043143,
                -1.3417688972368798,
                2.354900286506348,
                -0.9804364147081663,
                1.0657573856484135,
                -3.1027485148166036
            ]
        },
        {
            "positions": [
                -0.34006642782561375,
                -1.3754828588574606,
                2.4187922910375192,
                -1.0137637528385652,
                1.221785830300249,
                -3.0877917293330155
            ]
        }
    ]
}{
    "goal": {
        "global_pose": {
            "orientation": {
                "w": 0.5084816217422485,
                "x": -0.49083608388900757,
                "y": 0.5182115435600281,
                "z": -0.4816462993621826
            },
            "position": {
                "x": 0.5540239810943604,
                "y": 0.030875300988554955,
                "z": 0.16403168439865112
            }
        },
        "name": "move_to_storage_A"
    },
    "id": "LBKPIECE_move_to_storage_A_137",
    "joint_names": [
        "shoulder_pan_joint",
        "shoulder_lift_joint",
        "elbow_joint",
        "wrist_1_joint",
        "wrist_2_joint",
        "wrist_3_joint"
    ],
    "metrics": {
        "cart_traj_len": 0.35386309870634713,
        "distance_elbow_joint": 0.4514058235131815,
        "distance_shoulder_lift_joint": 0.23506434646810925,
        "distance_shoulder_pan_joint": 0.46550937308852813,
        "distance_wrist_1_joint": 0.24554676302040712,
        "distance_wrist_2_joint": 1.0889698991241383,
        "distance_wrist_3_joint": 0.09921763410870277,
        "smoothness": 2.2204460668324854e-16,
        "time": 0.42929571099999997,
        "traj_len": 1.6080154972272709,
        "weighted_distance": 2.0294496223570118
    },
    "planner": "LBKPIECE",
    "start": {
        "state": {
            "elbow_joint": 1.97154746011099,
            "shoulder_lift_joint": -1.13948474672311,
            "shoulder_pan_joint": 0.12281154466712228,
            "wrist_1_joint": -0.7804688027058302,
            "wrist_2_joint": 0.12958655903071145,
            "wrist_3_joint": 3.0906928834467795
        }
    },
    "waypoints": [
        {
            "positions": [
                0.12281154466712228,
                -1.13948474672311,
                1.97154746011099,
                -0.7804688027058302,
                0.12958655903071145,
                3.0906928834467795
            ]
        },
        {
            "positions": [
                0.056310205654475406,
                -1.1730653676471257,
                2.0360340063271587,
                -0.8155469117087455,
                0.2851536874770169,
                3.104866831176594
            ]
        },
        {
            "positions": [
                -0.01019113335817147,
                -1.2066459885711411,
                2.1005205525433275,
                -0.8506250207116608,
                0.44072081592332235,
                3.1190407789064087
            ]
        },
        {
            "positions": [
                -0.07669247237081835,
                -1.2402266094951568,
                2.1650070987594963,
                -0.8857031297145761,
                0.5962879443696278,
                3.1332147266362234
            ]
        },
        {
            "positions": [
                -0.1431938113834652,
                -1.2738072304191723,
                2.229493644975665,
                -0.9207812387174914,
                0.7518550728159333,
                3.1473886743660384
            ]
        },
        {
            "positions": [
                -0.20969515039611208,
                -1.307387851343188,
                2.293980191191834,
                -0.9558593477204067,
                0.9074222012622388,
                3.161562622095853
            ]
        },
        {
            "positions": [
                -0.27619648940875896,
                -1.3409684722672035,
                2.3584667374080026,
                -0.990937456723322,
                1.0629893297085442,
                3.1757365698256677
            ]
        },
        {
            "positions": [
                -0.34269782842140584,
                -1.3745490931912192,
                2.4229532836241714,
                -1.0260155657262373,
                1.2185564581548498,
                3.1899105175554823
            ]
        }
    ]
}{
    "goal": {
        "global_pose": {
            "orientation": {
                "w": 0.5084816217422485,
                "x": -0.49083608388900757,
                "y": 0.5182115435600281,
                "z": -0.4816462993621826
            },
            "position": {
                "x": 0.5540239810943604,
                "y": 0.030875300988554955,
                "z": 0.16403168439865112
            }
        },
        "name": "move_to_storage_A"
    },
    "id": "LBKPIECE_move_to_storage_A_137",
    "joint_names": [
        "shoulder_pan_joint",
        "shoulder_lift_joint",
        "elbow_joint",
        "wrist_1_joint",
        "wrist_2_joint",
        "wrist_3_joint"
    ],
    "metrics": {
        "cart_traj_len": 0.35341284048134036,
        "distance_elbow_joint": 0.448385835870329,
        "distance_shoulder_lift_joint": 0.2366062258750412,
        "distance_shoulder_pan_joint": 0.46127106101649656,
        "distance_wrist_1_joint": 0.23368911098947498,
        "distance_wrist_2_joint": 1.104025499254225,
        "distance_wrist_3_joint": 0.08847314260342998,
        "smoothness": 0.0,
        "time": 0.838893313,
        "traj_len": 1.6038861791314858,
        "weighted_distance": 2.0216606468592984
    },
    "planner": "LBKPIECE",
    "start": {
        "state": {
            "elbow_joint": 1.9715472970024885,
            "shoulder_lift_joint": -1.1394870060712896,
            "shoulder_pan_joint": 0.12281152778156021,
            "wrist_1_joint": -0.780463741449964,
            "wrist_2_joint": 0.12958659822042276,
            "wrist_3_joint": 3.090690232415272
        }
    },
    "waypoints": [
        {
            "positions": [
                0.12281152778156021,
                -1.1394870060712896,
                1.9715472970024885,
                -0.780463741449964,
                0.12958659822042276,
                3.090690232415272
            ]
        },
        {
            "positions": [
                0.05691566192206071,
                -1.1732878954820098,
                2.0356024164125355,
                -0.8138479001627461,
                0.28730452668531203,
                3.1033292527871903
            ]
        },
        {
            "positions": [
                -0.008980203937438785,
                -1.2070887848927299,
                2.0996575358225824,
                -0.8472320588755282,
                0.44502245515020133,
                3.115968273159109
            ]
        },
        {
            "positions": [
                -0.07487606979693828,
                -1.24088967430345,
                2.1637126552326293,
                -0.8806162175883104,
                0.6027403836150906,
                3.1286072935310276
            ]
        },
        {
            "positions": [
                -0.14077193565643778,
                -1.2746905637141703,
                2.2277677746426763,
                -0.9140003763010925,
                0.7604583120799799,
                3.141246313902946
            ]
        },
        {
            "positions": [
                -0.2066678015159373,
                -1.3084914531248906,
                2.2918228940527237,
                -0.9473845350138748,
                0.9181762405448692,
                3.1538853342748645
            ]
        },
        {
            "positions": [
                -0.2725636673754368,
                -1.3422923425356106,
                2.3558780134627706,
                -0.9807686937266569,
                1.0758941690097585,
                3.1665243546467834
            ]
        },
        {
            "positions": [
                -0.3384595332349363,
                -1.3760932319463308,
                2.4199331328728175,
                -1.014152852439439,
                1.2336120974746478,
                3.179163375018702
            ]
        }
    ]
}