{
    "goal": {
        "global_pose": {
            "orientation": {
                "w": 0.005598929693374612,
                "x": 0.007748599140229565,
                "y": 0.7110244013736278,
                "z": -0.7031023480610252
            },
            "position": {
                "x": -0.8858502320852131,
                "y": -0.7141253447532654,
                "z": 0.3711530566215515
            }
        },
        "name": "move_to_auspresseinheit_C"
    },
    "id": "LBKPIECE_move_to_auspresseinheit_C_50",
    "joint_names": [
        "shoulder_pan_joint",
        "shoulder_lift_joint",
        "elbow_joint",
        "wrist_1_joint",
        "wrist_2_joint",
        "wrist_3_joint"
    ],
    "metrics": {
        "cart_traj_len": 0.493900040688031,
        "distance_elbow_joint": 1.0145181011647018,
        "distance_shoulder_lift_joint": 0.33203397311582905,
        "distance_shoulder_pan_joint": 0.25651771983656513,
        "distance_wrist_1_joint": 0.7099713079344497,
        "distance_wrist_2_joint": 1.3097168004581272,
        "distance_wrist_3_joint": 0.07458704412647377,
        "smoothness": 8.074349308362242e-16,
        "time": 0.497182239,
        "traj_len": 1.9228481340543113,
        "weighted_distance": 2.422025421683611
    },
    "planner": "LBKPIECE",
    "start": {
        "state": {
            "elbow_joint": 1.7527959577737207,
            "shoulder_lift_joint": -0.9740617694225068,
            "shoulder_pan_joint": -2.967991417825858,
            "wrist_1_joint": -0.759517768980727,
            "wrist_2_joint": 1.7443932448377408,
            "wrist_3_joint": -3.0840537646736568
        }
    },
    "waypoints": [
        {
            "positions": [
                -2.967991417825858,
                -0.9740617694225068,
                1.7527959577737207,
                -0.759517768980727,
                1.7443932448377408,
                -3.0840537646736568
            ]
        },
        {
            "positions": [
                -2.9423396458422015,
                -0.9408583721109238,
                1.6513441476572506,
                -0.688520638187282,
                1.613421564791928,
                -3.0915124690863043
            ]
        },
        {
            "positions": [
                -2.916687873858545,
                -0.907654974799341,
                1.5498923375407803,
                -0.617523507393837,
                1.4824498847461154,
                -3.0989711734989513
            ]
        },
        {
            "positions": [
                -2.8910361018748882,
                -0.874451577487758,
                1.4484405274243102,
                -0.546526376600392,
                1.3514782047003027,
                -3.106429877911599
            ]
        },
        {
            "positions": [
                -2.865384329891232,
                -0.8412481801761751,
                1.3469887173078399,
                -0.47552924580694705,
                1.22050652465449,
                -3.1138885823242464
            ]
        },
        {
            "positions": [
                -2.8397325579075754,
                -0.8080447828645922,
                1.2455369071913698,
                -0.4045321150135021,
                1.0895348446086772,
                -3.121347286736894
            ]
        },
        {
            "positions": [
                -2.814080785923919,
                -0.7748413855530094,
                1.1440850970748997,
                -0.3335349842200572,
                0.9585631645628645,
                -3.128805991149541
            ]
        },
        {
            "positions": [
                -2.7884290139402625,
                -0.7416379882414265,
                1.0426332869584294,
                -0.2625378534266122,
                0.8275914845170519,
                -3.1362646955621885
            ]
        },
        {
            "positions": [
                -2.7627772419566057,
                -0.7084345909298435,
                0.9411814768419592,
                -0.19154072263316713,
                0.6966198044712391,
                -3.143723399974836
            ]
        },
        {
            "positions": [
                -2.7371254699729493,
                -0.6752311936182607,
                0.8397296667254891,
                -0.12054359183972219,
                0.5656481244254263,
                -3.151182104387483
            ]
        },
        {
            "positions": [
                -2.711473697989293,
                -0.6420277963066777,
                0.7382778566090189,
                -0.049546461046277274,
                0.4346764443796135,
                -3.1586408088001305
            ]
        }
    ]
}