{
    "goal": {
        "global_pose": {
            "orientation": {
                "w": 0.5084816262002911,
                "x": -0.4908360881923452,
                "y": 0.5182115481033761,
                "z": -0.48164630358495003
            },
            "position": {
                "x": 0.5540239810943604,
                "y": -0.46912469901144505,
                "z": 0.16403168439865112
            }
        },
        "name": "move_to_storage_B"
    },
    "id": "LBKPIECE_move_to_storage_B_11",
    "joint_names": [
        "shoulder_pan_joint",
        "shoulder_lift_joint",
        "elbow_joint",
        "wrist_1_joint",
        "wrist_2_joint",
        "wrist_3_joint"
    ],
    "metrics": {
        "cart_traj_len": 0.6356064538236063,
        "distance_elbow_joint": 0.3480510176495142,
        "distance_shoulder_lift_joint": 0.4580600439295406,
        "distance_shoulder_pan_joint": 0.3184567326300959,
        "distance_wrist_1_joint": 2.9772620986986578,
        "distance_wrist_2_joint": 2.8807696245964682,
        "distance_wrist_3_joint": 3.151750463921366,
        "smoothness": 0.19383689038036836,
        "time": 0.882578824,
        "traj_len": 3.1834493841469573,
        "weighted_distance": 4.7218516106039905
    },
    "planner": "LBKPIECE",
    "start": {
        "state": {
            "elbow_joint": 1.664937868594044,
            "shoulder_lift_joint": -0.661644460510453,
            "shoulder_pan_joint": -0.9139846352900073,
            "wrist_1_joint": 2.146753192139373,
            "wrist_2_joint": -2.2341966793290973,
            "wrist_3_joint": 0.005466555786416001
        }
    },
    "waypoints": [
        {
            "positions": [
                -0.9139846352900073,
                -0.661644460510453,
                1.664937868594044,
                2.146753192139373,
                -2.2341966793290973,
                0.005466555786416001
            ]
        },
        {
            "positions": [
                -0.8796583725914897,
                -0.6917053547784877,
                1.6673419147559945,
                2.0535103766328358,
                -2.277014240222425,
                -0.06803626185437535
            ]
        },
        {
            "positions": [
                -0.8453321098929722,
                -0.7217662490465224,
                1.6697459609179448,
                1.9602675611262985,
                -2.3198318011157526,
                -0.1415390794951667
            ]
        },
        {
            "positions": [
                -0.8553242781822947,
                -0.7376837792622613,
                1.6834756779309694,
                1.8486365024188751,
                -2.20802642100336,
                -0.261728872640758
            ]
        },
        {
            "positions": [
                -0.8653164464716171,
                -0.7536013094780001,
                1.6972053949439938,
                1.737005443711452,
                -2.0962210408909674,
                -0.38191866578634937
            ]
        },
        {
            "positions": [
                -0.8753086147609396,
                -0.7695188396937389,
                1.7109351119570184,
                1.6253743850040285,
                -1.984415660778575,
                -0.5021084589319407
            ]
        },
        {
            "positions": [
                -0.8853007830502619,
                -0.7854363699094778,
                1.724664828970043,
                1.5137433262966051,
                -1.8726102806661826,
                -0.622298252077532
            ]
        },
        {
            "positions": [
                -0.8952929513395844,
                -0.8013539001252167,
                1.7383945459830674,
                1.402112267589182,
                -1.76080490055379,
                -0.7424880452231233
            ]
        },
        {
            "positions": [
                -0.9052851196289069,
                -0.8172714303409555,
                1.752124262996092,
                1.2904812088817588,
                -1.6489995204413974,
                -0.8626778383687146
            ]
        },
        {
            "positions": [
                -0.9152772879182293,
                -0.8331889605566943,
                1.7658539800091164,
                1.1788501501743354,
                -1.5371941403290048,
                -0.9828676315143061
            ]
        },
        {
            "positions": [
                -0.9252694562075517,
                -0.8491064907724332,
                1.779583697022141,
                1.067219091466912,
                -1.4253887602166124,
                -1.1030574246598972
            ]
        },
        {
            "positions": [
                -0.9352616244968741,
                -0.8650240209881721,
                1.7933134140351656,
                0.9555880327594888,
                -1.31358338010422,
                -1.2232472178054887
            ]
        },
        {
            "positions": [
                -0.9452537927861966,
                -0.8809415512039109,
                1.80704313104819,
                0.8439569740520654,
                -1.2017779999918274,
                -1.34343701095108
            ]
        },
        {
            "positions": [
                -0.9552459610755191,
                -0.8968590814196498,
                1.8207728480612146,
                0.732325915344642,
                -1.0899726198794348,
                -1.4636268040966713
            ]
        },
        {
            "positions": [
                -0.9652381293648414,
                -0.9127766116353886,
                1.8345025650742393,
                0.6206948566372188,
                -0.9781672397670425,
                -1.5838165972422626
            ]
        },
        {
            "positions": [
                -0.9752302976541639,
                -0.9286941418511274,
                1.8482322820872636,
                0.5090637979297954,
                -0.8663618596546498,
                -1.704006390387854
            ]
        },
        {
            "positions": [
                -0.9852224659434863,
                -0.9446116720668662,
                1.8619619991002883,
                0.397432739222372,
                -0.7545564795422572,
                -1.8241961835334455
            ]
        },
        {
            "positions": [
                -0.9952146342328088,
                -0.9605292022826051,
                1.8756917161133129,
                0.2858016805149488,
                -0.6427510994298649,
                -1.9443859766790366
            ]
        },
        {
            "positions": [
                -1.0052068025221312,
                -0.9764467324983439,
                1.8894214331263373,
                0.1741706218075254,
                -0.5309457193174723,
                -2.0645757698246276
            ]
        },
        {
            "positions": [
                -1.0151989708114537,
                -0.9923642627140828,
                1.9031511501393619,
                0.062539563100102,
                -0.41914033920507965,
                -2.1847655629702194
            ]
        },
        {
            "positions": [
                -1.025191139100776,
                -1.0082817929298216,
                1.9168808671523863,
                -0.049091495607320956,
                -0.3073349590926875,
                -2.3049553561158107
            ]
        },
        {
            "positions": [
                -1.0351833073900985,
                -1.0241993231455604,
                1.9306105841654109,
                -0.16072255431474436,
                -0.19552957898029488,
                -2.425145149261402
            ]
        },
        {
            "positions": [
                -1.045175475679421,
                -1.0401168533612994,
                1.9443403011784355,
                -0.27235361302216776,
                -0.08372419886790228,
                -2.5453349424069933
            ]
        },
        {
            "positions": [
                -1.0551676439687434,
                -1.056034383577038,
                1.95807001819146,
                -0.38398467172959116,
                0.028081181244490327,
                -2.6655247355525846
            ]
        },
        {
            "positions": [
                -1.0651598122580659,
                -1.071951913792777,
                1.9717997352044845,
                -0.49561573043701457,
                0.13988656135688293,
                -2.785714528698176
            ]
        },
        {
            "positions": [
                -1.0751519805473881,
                -1.087869444008516,
                1.985529452217509,
                -0.607246789144438,
                0.25169194146927554,
                -2.9059043218437672
            ]
        },
        {
            "positions": [
                -1.0851441488367106,
                -1.1037869742242548,
                1.9992591692305335,
                -0.7188778478518609,
                0.3634973215816677,
                -3.0260941149893585
            ]
        },
        {
            "positions": [
                -1.095136317126033,
                -1.1197045044399936,
                2.012988886243558,
                -0.8305089065592841,
                0.47530270169406014,
                -3.14628390813495
            ]
        }
    ]
}