{
    "goal": {
        "global_pose": {
            "orientation": {
                "w": 0.5084816262002911,
                "x": -0.4908360881923452,
                "y": 0.5182115481033761,
                "z": -0.48164630358495003
            },
            "position": {
                "x": 0.5540239810943604,
                "y": -0.46912469901144505,
                "z": 0.16403168439865112
            }
        },
        "name": "move_to_storage_B"
    },
    "id": "LBKPIECE_move_to_storage_B_137",
    "joint_names": [
        "shoulder_pan_joint",
        "shoulder_lift_joint",
        "elbow_joint",
        "wrist_1_joint",
        "wrist_2_joint",
        "wrist_3_joint"
    ],
    "metrics": {
        "cart_traj_len": 1.2672512465871923,
        "distance_elbow_joint": 1.2377349586114317,
        "distance_shoulder_lift_joint": 0.45918278185953243,
        "distance_shoulder_pan_joint": 0.5946453141902411,
        "distance_wrist_1_joint": 2.9918643297198773,
        "distance_wrist_2_joint": 2.7022666039544694,
        "distance_wrist_3_joint": 3.1541098007547093,
        "smoothness": 0.11557695504294488,
        "time": 0.329994621,
        "traj_len": 3.337634460076517,
        "weighted_distance": 4.810629306470623
    },
    "planner": "LBKPIECE",
    "start": {
        "state": {
            "elbow_joint": 1.664937868594044,
            "shoulder_lift_joint": -0.661644460510453,
            "shoulder_pan_joint": -0.9139846352900073,
            "wrist_1_joint": 2.146753192139373,
            "wrist_2_joint": -2.2341966793290973,
            "wrist_3_joint": 0.005466555786416001
        }
    },
    "waypoints": [
        {
            "positions": [
                -0.9139846352900073,
                -0.661644460510453,
                1.664937868594044,
                2.146753192139373,
                -2.2341966793290973,
                0.005466555786416001
            ]
        },
        {
            "positions": [
                -0.8243151068820396,
                -0.68660972685876,
                1.6438039039312509,
                2.101008056571019,
                -2.154182156667642,
                0.062215758809893884
            ]
        },
        {
            "positions": [
                -0.734645578474072,
                -0.711574993207067,
                1.6226699392684576,
                2.0552629210026656,
                -2.074167634006187,
                0.11896496183337177
            ]
        },
        {
            "positions": [
                -0.7292732116604608,
                -0.7662754492875117,
                1.5424833788570738,
                1.9620903534166347,
                -1.9211390209565882,
                0.1237845523951869
            ]
        },
        {
            "positions": [
                -0.7239008448468496,
                -0.8209759053679564,
                1.4622968184456897,
                1.8689177858306039,
                -1.7681104079069894,
                0.12860414295700204
            ]
        },
        {
            "positions": [
                -0.7185284780332385,
                -0.8756763614484011,
                1.3821102580343059,
                1.7757452182445728,
                -1.6150817948573903,
                0.13342373351881714
            ]
        },
        {
            "positions": [
                -0.7131561112196273,
                -0.9303768175288459,
                1.3019236976229218,
                1.682572650658542,
                -1.4620531818077915,
                0.13824332408063228
            ]
        },
        {
            "positions": [
                -0.7077837444060161,
                -0.9850772736092906,
                1.221737137211538,
                1.589400083072511,
                -1.3090245687581925,
                0.14306291464244741
            ]
        },
        {
            "positions": [
                -0.7254403091017547,
                -0.9912477267347768,
                1.2578523293583073,
                1.4787404821337375,
                -1.2282475463316669,
                0.28017716200147824
            ]
        },
        {
            "positions": [
                -0.7430968737974933,
                -0.9974181798602629,
                1.2939675215050768,
                1.3680808811949643,
                -1.1474705239051413,
                0.41729140936050907
            ]
        },
        {
            "positions": [
                -0.760753438493232,
                -1.003588632985749,
                1.330082713651846,
                1.2574212802561908,
                -1.0666935014786156,
                0.5544056567195399
            ]
        },
        {
            "positions": [
                -0.7784100031889707,
                -1.009759086111235,
                1.3661979057986153,
                1.1467616793174176,
                -0.9859164790520899,
                0.6915199040785707
            ]
        },
        {
            "positions": [
                -0.7960665678847093,
                -1.0159295392367214,
                1.4023130979453848,
                1.036102078378644,
                -0.9051394566255643,
                0.8286341514376014
            ]
        },
        {
            "positions": [
                -0.8137231325804479,
                -1.0220999923622074,
                1.4384282900921541,
                0.9254424774398707,
                -0.8243624341990385,
                0.9657483987966322
            ]
        },
        {
            "positions": [
                -0.8313796972761865,
                -1.0282704454876936,
                1.4745434822389234,
                0.8147828765010973,
                -0.7435854117725129,
                1.102862646155663
            ]
        },
        {
            "positions": [
                -0.8490362619719252,
                -1.0344408986131797,
                1.510658674385693,
                0.7041232755623239,
                -0.6628083893459873,
                1.239976893514694
            ]
        },
        {
            "positions": [
                -0.8666928266676638,
                -1.0406113517386657,
                1.5467738665324622,
                0.5934636746235504,
                -0.5820313669194616,
                1.3770911408737248
            ]
        },
        {
            "positions": [
                -0.8843493913634024,
                -1.046781804864152,
                1.5828890586792315,
                0.4828040736847772,
                -0.501254344492936,
                1.5142053882327555
            ]
        },
        {
            "positions": [
                -0.9020059560591411,
                -1.052952257989638,
                1.6190042508260007,
                0.3721444727460037,
                -0.4204773220664103,
                1.6513196355917863
            ]
        },
        {
            "positions": [
                -0.9196625207548796,
                -1.0591227111151242,
                1.6551194429727702,
                0.26148487180723046,
                -0.3397002996398847,
                1.788433882950817
            ]
        },
        {
            "positions": [
                -0.9373190854506184,
                -1.0652931642406103,
                1.6912346351195395,
                0.15082527086845676,
                -0.25892327721335895,
                1.925548130309848
            ]
        },
        {
            "positions": [
                -0.954975650146357,
                -1.0714636173660965,
                1.727349827266309,
                0.04016566992968351,
                -0.17814625478683332,
                2.062662377668879
            ]
        },
        {
            "positions": [
                -0.9726322148420956,
                -1.0776340704915826,
                1.7634650194130783,
                -0.07049393100908974,
                -0.0973692323603077,
                2.19977662502791
            ]
        },
        {
            "positions": [
                -0.9902887795378343,
                -1.0838045236170686,
                1.7995802115598476,
                -0.1811535319478632,
                -0.016592209933782076,
                2.336890872386941
            ]
        },
        {
            "positions": [
                -1.0079453442335728,
                -1.0899749767425548,
                1.8356954037066169,
                -0.2918131328866367,
                0.06418481249274355,
                2.4740051197459714
            ]
        },
        {
            "positions": [
                -1.0256019089293116,
                -1.0961454298680409,
                1.8718105958533864,
                -0.40247273382541016,
                0.1449618349192694,
                2.6111193671050024
            ]
        },
        {
            "positions": [
                -1.04325847362505,
                -1.1023158829935271,
                1.9079257880001557,
                -0.5131323347641836,
                0.22573885734579502,
                2.748233614464033
            ]
        },
        {
            "positions": [
                -1.0609150383207888,
                -1.1084863361190131,
                1.9440409801469252,
                -0.6237919357029567,
                0.3065158797723204,
                2.885347861823064
            ]
        },
        {
            "positions": [
                -1.0785716030165275,
                -1.1146567892444994,
                1.9801561722936944,
                -0.7344515366417301,
                0.38729290219884627,
                3.022462109182095
            ]
        },
        {
            "positions": [
                -1.096228167712266,
                -1.1208272423699854,
                2.0162713644404637,
                -0.8451111375805035,
                0.46806992462537184,
                3.1595763565411255
            ]
        }
    ]
}