{
    "goal": {
        "global_pose": {
            "orientation": {
                "w": -0.00223480608172531,
                "x": 0.0024358444001904467,
                "y": 0.7094548369677653,
                "z": -0.704743149386269
            },
            "position": {
                "x": -0.37947507619857795,
                "y": -0.6371506643295288,
                "z": 0.19426114857196808
            }
        },
        "name": "move_to_magneteinheit_C"
    },
    "id": "LBKPIECE_move_to_magneteinheit_C_134",
    "joint_names": [
        "shoulder_pan_joint",
        "shoulder_lift_joint",
        "elbow_joint",
        "wrist_1_joint",
        "wrist_2_joint",
        "wrist_3_joint"
    ],
    "metrics": {
        "cart_traj_len": 0.8418107931350562,
        "distance_elbow_joint": 0.7105803209117743,
        "distance_shoulder_lift_joint": 0.2662610406572694,
        "distance_shoulder_pan_joint": 1.008895393142738,
        "distance_wrist_1_joint": 3.0406929838410424,
        "distance_wrist_2_joint": 1.3094613622132756,
        "distance_wrist_3_joint": 2.2428620901037704,
        "smoothness": 1.0244747249331152,
        "time": 0.48928885,
        "traj_len": 2.9289508686336596,
        "weighted_distance": 4.173084197225324
    },
    "planner": "LBKPIECE",
    "start": {
        "state": {
            "elbow_joint": 1.9565354010623817,
            "shoulder_lift_joint": -1.4165861575791021,
            "shoulder_pan_joint": -1.6717766225146293,
            "wrist_1_joint": -0.5286633292919765,
            "wrist_2_joint": 1.472756589071564,
            "wrist_3_joint": -3.1238370188695823
        }
    },
    "waypoints": [
        {
            "positions": [
                -1.6717766225146293,
                -1.4165861575791021,
                1.9565354010623817,
                -0.5286633292919765,
                1.472756589071564,
                -3.1238370188695823
            ]
        },
        {
            "positions": [
                -1.6472805686133485,
                -1.4231441583791713,
                1.9418926393449096,
                -0.5225433413937389,
                1.4580712008169727,
                -3.1115714301181963
            ]
        },
        {
            "positions": [
                -1.703671084682037,
                -1.415930632266103,
                1.915654841478781,
                -0.4088106660355302,
                1.3755457310098662,
                -3.020096383871208
            ]
        },
        {
            "positions": [
                -1.7600616007507257,
                -1.4087171061530344,
                1.8894170436126525,
                -0.29507799067732143,
                1.2930202612027595,
                -2.9286213376242194
            ]
        },
        {
            "positions": [
                -1.8164521168194143,
                -1.401503580039966,
                1.863179245746524,
                -0.1813453153191127,
                1.210494791395653,
                -2.837146291377231
            ]
        },
        {
            "positions": [
                -1.872842632888103,
                -1.3942900539268976,
                1.8369414478803954,
                -0.06761263996090394,
                1.1279693215885462,
                -2.7456712451302425
            ]
        },
        {
            "positions": [
                -1.9292331489567918,
                -1.387076527813829,
                1.8107036500142668,
                0.046120035397304804,
                1.0454438517814397,
                -2.654196198883254
            ]
        },
        {
            "positions": [
                -1.9856236650254804,
                -1.3798630017007607,
                1.7844658521481382,
                0.15985271075551355,
                0.9629183819743332,
                -2.5627211526362657
            ]
        },
        {
            "positions": [
                -2.042014181094169,
                -1.3726494755876923,
                1.7582280542820097,
                0.2735853861137223,
                0.8803929121672265,
                -2.471246106389277
            ]
        },
        {
            "positions": [
                -2.0984046971628576,
                -1.3654359494746238,
                1.7319902564158811,
                0.38731806147193104,
                0.79786744236012,
                -2.379771060142289
            ]
        },
        {
            "positions": [
                -2.154795213231546,
                -1.3582224233615554,
                1.7057524585497525,
                0.5010507368301397,
                0.7153419725530133,
                -2.2882960138953004
            ]
        },
        {
            "positions": [
                -2.211185729300235,
                -1.351008897248487,
                1.679514660683624,
                0.6147834121883485,
                0.6328165027459067,
                -2.196820967648312
            ]
        },
        {
            "positions": [
                -2.2675762453689234,
                -1.3437953711354185,
                1.6532768628174954,
                0.7285160875465572,
                0.5502910329388002,
                -2.1053459214013235
            ]
        },
        {
            "positions": [
                -2.323966761437612,
                -1.3365818450223501,
                1.6270390649513669,
                0.8422487629047659,
                0.4677655631316936,
                -2.013870875154335
            ]
        },
        {
            "positions": [
                -2.4388806024932896,
                -1.3168581409606634,
                1.681867581250409,
                0.8191286820469854,
                0.44039855145031065,
                -2.105259682627043
            ]
        },
        {
            "positions": [
                -2.5537944435489672,
                -1.2971344368989768,
                1.736696097549451,
                0.7960086011892049,
                0.4130315397689277,
                -2.1966484900997507
            ]
        },
        {
            "positions": [
                -2.5451405030705407,
                -1.2822796237459761,
                1.7668546477941927,
                0.6156151867526783,
                0.44078001898122093,
                -2.3022171935934295
            ]
        },
        {
            "positions": [
                -2.5364865625921142,
                -1.2674248105929755,
                1.7970131980389343,
                0.4352217723161517,
                0.4685284981935142,
                -2.4077858970871078
            ]
        },
        {
            "positions": [
                -2.5278326221136878,
                -1.2525699974399749,
                1.827171748283676,
                0.2548283578796251,
                0.49627697740580745,
                -2.5133546005807865
            ]
        },
        {
            "positions": [
                -2.5191786816352613,
                -1.2377151842869742,
                1.8573302985284177,
                0.07443494344309853,
                0.5240254566181007,
                -2.6189233040744653
            ]
        },
        {
            "positions": [
                -2.5105247411568348,
                -1.2228603711339736,
                1.8874888487731596,
                -0.10595847099342814,
                0.5517739358303939,
                -2.724492007568144
            ]
        },
        {
            "positions": [
                -2.5018708006784083,
                -1.208005557980973,
                1.9176473990179013,
                -0.2863518854299547,
                0.5795224150426872,
                -2.8300607110618223
            ]
        },
        {
            "positions": [
                -2.493216860199982,
                -1.1931507448279723,
                1.947805949262643,
                -0.4667452998664814,
                0.6072708942549805,
                -2.935629414555501
            ]
        },
        {
            "positions": [
                -2.4845629197215553,
                -1.1782959316749717,
                1.9779644995073846,
                -0.6471387143030078,
                0.6350193734672737,
                -3.0411981180491794
            ]
        },
        {
            "positions": [
                -2.475908979243129,
                -1.163441118521971,
                2.0081230497521263,
                -0.8275321287395345,
                0.662767852679567,
                -3.146766821542858
            ]
        }
    ]
}