{
    "goal": {
        "global_pose": {
            "orientation": {
                "w": 0.7047431468963623,
                "x": -0.7094548344612122,
                "y": 0.0024358443915843964,
                "z": -0.0022348060738295317
            },
            "position": {
                "x": 0.6094750761985779,
                "y": 0.3671506643295288,
                "z": 0.19426114857196808
            }
        },
        "name": "move_to_magneteinheit_A"
    },
    "id": "LBKPIECE_move_to_magneteinheit_A_33",
    "joint_names": [
        "shoulder_pan_joint",
        "shoulder_lift_joint",
        "elbow_joint",
        "wrist_1_joint",
        "wrist_2_joint",
        "wrist_3_joint"
    ],
    "metrics": {
        "cart_traj_len": 3.4616201979322048,
        "distance_elbow_joint": 3.873106807865926,
        "distance_shoulder_lift_joint": 0.14880107369676132,
        "distance_shoulder_pan_joint": 2.583387910167534,
        "distance_wrist_1_joint": 0.8426018206692405,
        "distance_wrist_2_joint": 1.7563869659279059,
        "distance_wrist_3_joint": 2.582635114873489,
        "smoothness": 0.07390620625947623,
        "time": 0.572055805,
        "traj_len": 3.4332083672857463,
        "weighted_distance": 4.421671483675034
    },
    "planner": "LBKPIECE",
    "start": {
        "state": {
            "elbow_joint": -1.9196185241190666,
            "shoulder_lift_joint": -1.2443396400964142,
            "shoulder_pan_joint": 2.6996025414629847,
            "wrist_1_joint": -1.5485510000780065,
            "wrist_2_joint": -1.5709468930060704,
            "wrist_3_joint": 0.4420197071253992
        }
    },
    "waypoints": [
        {
            "positions": [
                2.6996025414629847,
                -1.2443396400964142,
                -1.9196185241190666,
                -1.5485510000780065,
                -1.5709468930060704,
                0.4420197071253992
            ]
        },
        {
            "positions": [
                2.5978261666892912,
                -1.2414167057538765,
                -1.7969019090459513,
                -1.518849709774095,
                -1.5034615472206998,
                0.5099217562191658
            ]
        },
        {
            "positions": [
                2.4960497919155973,
                -1.238493771411339,
                -1.6741852939728359,
                -1.4891484194701836,
                -1.4359762014353294,
                0.5778238053129325
            ]
        },
        {
            "positions": [
                2.394273417141904,
                -1.2355708370688014,
                -1.5514686788997203,
                -1.459447129166272,
                -1.3684908556499589,
                0.6457258544066993
            ]
        },
        {
            "positions": [
                2.2924970423682103,
                -1.2326479027262638,
                -1.428752063826605,
                -1.4297458388623605,
                -1.3010055098645883,
                0.7136279035004659
            ]
        },
        {
            "positions": [
                2.1907206675945163,
                -1.2297249683837264,
                -1.3060354487534895,
                -1.400044548558449,
                -1.233520164079218,
                0.7815299525942325
            ]
        },
        {
            "positions": [
                2.088944292820823,
                -1.2268020340411887,
                -1.1833188336803742,
                -1.3703432582545376,
                -1.1660348182938474,
                0.8494320016879993
            ]
        },
        {
            "positions": [
                1.9871679180471293,
                -1.223879099698651,
                -1.0606022186072586,
                -1.340641967950626,
                -1.0985494725084768,
                0.917334050781766
            ]
        },
        {
            "positions": [
                1.8853915432734356,
                -1.2209561653561134,
                -0.9378856035341433,
                -1.3109406776467145,
                -1.0310641267231064,
                0.9852360998755326
            ]
        },
        {
            "positions": [
                1.7836151684997419,
                -1.218033231013576,
                -0.8151689884610278,
                -1.281239387342803,
                -0.9635787809377359,
                1.0531381489692992
            ]
        },
        {
            "positions": [
                1.6818387937260484,
                -1.2151102966710383,
                -0.6924523733879124,
                -1.2515380970388916,
                -0.8960934351523654,
                1.121040198063066
            ]
        },
        {
            "positions": [
                1.5800624189523547,
                -1.2121873623285007,
                -0.5697357583147968,
                -1.22183680673498,
                -0.8286080893669948,
                1.1889422471568327
            ]
        },
        {
            "positions": [
                1.4782860441786612,
                -1.2092644279859632,
                -0.4470191432416817,
                -1.1921355164310685,
                -0.7611227435816245,
                1.2568442962505995
            ]
        },
        {
            "positions": [
                1.3765096694049677,
                -1.2063414936434256,
                -0.3243025281685663,
                -1.1624342261271572,
                -0.693637397796254,
                1.3247463453443662
            ]
        },
        {
            "positions": [
                1.2747332946312737,
                -1.203418559300888,
                -0.2015859130954505,
                -1.1327329358232454,
                -0.6261520520108833,
                1.3926483944381327
            ]
        },
        {
            "positions": [
                1.1729569198575802,
                -1.2004956249583505,
                -0.07886929802233533,
                -1.103031645519334,
                -0.5586667062255128,
                1.4605504435318997
            ]
        },
        {
            "positions": [
                1.0711805450838865,
                -1.1975726906158128,
                0.043847317050780044,
                -1.0733303552154225,
                -0.4911813604401425,
                1.5284524926256662
            ]
        },
        {
            "positions": [
                0.969404170310193,
                -1.1946497562732752,
                0.16656393212389542,
                -1.043629064911511,
                -0.4236960146547719,
                1.5963545417194327
            ]
        },
        {
            "positions": [
                0.8676277955364993,
                -1.1917268219307375,
                0.289280547197011,
                -1.0139277746075996,
                -0.35621066886940134,
                1.6642565908131997
            ]
        },
        {
            "positions": [
                0.7658514207628055,
                -1.1888038875882,
                0.4119971622701266,
                -0.9842264843036881,
                -0.288725323084031,
                1.7321586399069662
            ]
        },
        {
            "positions": [
                0.664075045989112,
                -1.1858809532456625,
                0.5347137773432418,
                -0.9545251939997766,
                -0.2212399772986604,
                1.8000606890007327
            ]
        },
        {
            "positions": [
                0.5622986712154185,
                -1.1829580189031248,
                0.6574303924163569,
                -0.9248239036958651,
                -0.15375463151329005,
                1.8679627380944996
            ]
        },
        {
            "positions": [
                0.4605222964417246,
                -1.1800350845605874,
                0.780147007489473,
                -0.8951226133919535,
                -0.08626928572791925,
                1.9358647871882662
            ]
        },
        {
            "positions": [
                0.3587459216680311,
                -1.1771121502180497,
                0.9028636225625881,
                -0.8654213230880421,
                -0.018783939942548844,
                2.003766836282033
            ]
        },
        {
            "positions": [
                0.29944289978253413,
                -1.167397687977617,
                1.0271798723552332,
                -0.8463555177976723,
                0.025876407970380003,
                2.1044494357021173
            ]
        },
        {
            "positions": [
                0.2401398778970371,
                -1.157683225737184,
                1.1514961221478786,
                -0.8272897125073025,
                0.07053675588330885,
                2.205132035122202
            ]
        },
        {
            "positions": [
                0.18083685601154012,
                -1.1479687634967513,
                1.2758123719405237,
                -0.8082239072169327,
                0.11519710379623772,
                2.305814634542286
            ]
        },
        {
            "positions": [
                0.16539621736329863,
                -1.1389282631726683,
                1.4222596911039291,
                -0.7880230791288699,
                0.12453927368045004,
                2.465714623988047
            ]
        },
        {
            "positions": [
                0.1499555787150571,
                -1.1298877628485853,
                1.5687070102673344,
                -0.7678222510408073,
                0.13388144356466233,
                2.6256146134338083
            ]
        },
        {
            "positions": [
                0.1345149400668156,
                -1.1208472625245023,
                1.7151543294307399,
                -0.7476214229527445,
                0.14322361344887466,
                2.78551460287957
            ]
        },
        {
            "positions": [
                0.11907430141857411,
                -1.1118067622004193,
                1.8616016485941453,
                -0.7274205948646817,
                0.15256578333308696,
                2.945414592325331
            ]
        },
        {
            "positions": [
                0.12193397154169845,
                -1.1280749580011857,
                1.9534882837468592,
                -0.705949179408766,
                0.1196914937443381,
                3.0246548219988885
            ]
        }
    ]
}