{
    "goal": {
        "global_pose": {
            "orientation": {
                "w": 0.5084816217422485,
                "x": -0.49083608388900757,
                "y": 0.5182115435600281,
                "z": -0.4816462993621826
            },
            "position": {
                "x": 0.5540239810943604,
                "y": 0.030875300988554955,
                "z": 0.16403168439865112
            }
        },
        "name": "move_to_storage_A"
    },
    "id": "LBKPIECE_move_to_storage_A_7",
    "joint_names": [
        "shoulder_pan_joint",
        "shoulder_lift_joint",
        "elbow_joint",
        "wrist_1_joint",
        "wrist_2_joint",
        "wrist_3_joint"
    ],
    "metrics": {
        "cart_traj_len": 0.35273826341890957,
        "distance_elbow_joint": 0.449241151481621,
        "distance_shoulder_lift_joint": 0.2341972397263805,
        "distance_shoulder_pan_joint": 0.4620413587836328,
        "distance_wrist_1_joint": 0.23938208057367694,
        "distance_wrist_2_joint": 1.0946756815080303,
        "distance_wrist_3_joint": 0.10559883231010403,
        "smoothness": 2.77555755658564e-15,
        "time": 0.595704805,
        "traj_len": 1.6078359196085419,
        "weighted_distance": 2.032336529978576
    },
    "planner": "LBKPIECE",
    "start": {
        "state": {
            "elbow_joint": 1.971548259319323,
            "shoulder_lift_joint": -1.1394851275133948,
            "shoulder_pan_joint": 0.1228115487234821,
            "wrist_1_joint": -0.7804723859257726,
            "wrist_2_joint": 0.12958671773740124,
            "wrist_3_joint": -3.192489227718131
        }
    },
    "waypoints": [
        {
            "positions": [
                0.1228115487234821,
                -1.1394851275133948,
                1.971548259319323,
                -0.7804723859257726,
                0.12958671773740124,
                -3.192489227718131
            ]
        },
        {
            "positions": [
                0.05680564032582028,
                -1.1729418760457349,
                2.03572556667384,
                -0.8146698260077264,
                0.28596895795283417,
                -3.177403680245259
            ]
        },
        {
            "positions": [
                -0.009200268071841544,
                -1.206398624578075,
                2.0999028740283574,
                -0.8488672660896803,
                0.44235119816826707,
                -3.1623181327723873
            ]
        },
        {
            "positions": [
                -0.07520617646950337,
                -1.239855373110415,
                2.1640801813828747,
                -0.8830647061716341,
                0.5987334383837,
                -3.1472325852995153
            ]
        },
        {
            "positions": [
                -0.1412120848671652,
                -1.2733121216427552,
                2.228257488737392,
                -0.917262146253588,
                0.7551156785991329,
                -3.132147037826643
            ]
        },
        {
            "positions": [
                -0.20721799326482704,
                -1.3067688701750952,
                2.2924347960919094,
                -0.9514595863355418,
                0.9114979188145658,
                -3.117061490353771
            ]
        },
        {
            "positions": [
                -0.27322390166248883,
                -1.3402256187074353,
                2.3566121034464267,
                -0.9856570264174958,
                1.0678801590299987,
                -3.101975942880899
            ]
        },
        {
            "positions": [
                -0.3392298100601507,
                -1.3736823672397753,
                2.420789410800944,
                -1.0198544664994496,
                1.2242623992454316,
                -3.086890395408027
            ]
        }
    ]
}{
    "goal": {
        "global_pose": {
            "orientation": {
                "w": 0.5084816217422485,
                "x": -0.49083608388900757,
                "y": 0.5182115435600281,
                "z": -0.4816462993621826
            },
            "position": {
                "x": 0.5540239810943604,
                "y": 0.030875300988554955,
                "z": 0.16403168439865112
            }
        },
        "name": "move_to_storage_A"
    },
    "id": "LBKPIECE_move_to_storage_A_7",
    "joint_names": [
        "shoulder_pan_joint",
        "shoulder_lift_joint",
        "elbow_joint",
        "wrist_1_joint",
        "wrist_2_joint",
        "wrist_3_joint"
    ],
    "metrics": {
        "cart_traj_len": 0.352111565689195,
        "distance_elbow_joint": 0.4492755495408183,
        "distance_shoulder_lift_joint": 0.23343944620917445,
        "distance_shoulder_pan_joint": 0.46006248539706757,
        "distance_wrist_1_joint": 0.2419596427602364,
        "distance_wrist_2_joint": 1.0980129844536937,
        "distance_wrist_3_joint": 0.08802119944005149,
        "smoothness": 2.4424906382069766e-15,
        "time": 0.156131395,
        "traj_len": 1.6033625004349585,
        "weighted_distance": 2.021580157672476
    },
    "planner": "LBKPIECE",
    "start": {
        "state": {
            "elbow_joint": 1.97154746011099,
            "shoulder_lift_joint": -1.13948474672311,
            "shoulder_pan_joint": 0.12281154466712228,
            "wrist_1_joint": -0.7804688027058302,
            "wrist_2_joint": 0.12958655903071145,
            "wrist_3_joint": 3.0906928834467795
        }
    },
    "waypoints": [
        {
            "positions": [
                0.12281154466712228,
                -1.13948474672311,
                1.97154746011099,
                -0.7804688027058302,
                0.12958655903071145,
                3.0906928834467795
            ]
        },
        {
            "positions": [
                0.057088332467541206,
                -1.1728332390387064,
                2.035729681473964,
                -0.8150344659572926,
                0.28644555680981054,
                3.103267340509644
            ]
        },
        {
            "positions": [
                -0.008634879732039871,
                -1.2061817313543026,
                2.099911902836938,
                -0.8496001292087548,
                0.4433045545889096,
                3.1158417975725086
            ]
        },
        {
            "positions": [
                -0.07435809193162095,
                -1.239530223669899,
                2.164094124199912,
                -0.8841657924602172,
                0.6001635523680087,
                3.128416254635373
            ]
        },
        {
            "positions": [
                -0.140081304131202,
                -1.2728787159854953,
                2.228276345562886,
                -0.9187314557116796,
                0.7570225501471078,
                3.1409907116982376
            ]
        },
        {
            "positions": [
                -0.20580451633078312,
                -1.3062272083010917,
                2.29245856692586,
                -0.9532971189631418,
                0.913881547926207,
                3.153565168761102
            ]
        },
        {
            "positions": [
                -0.27152772853036417,
                -1.339575700616688,
                2.3566407882888343,
                -0.9878627822146042,
                1.0707405457053059,
                3.1661396258239667
            ]
        },
        {
            "positions": [
                -0.33725094072994527,
                -1.3729241929322844,
                2.420823009651808,
                -1.0224284454660666,
                1.2275995434844051,
                3.178714082886831
            ]
        }
    ]
}{
    "goal": {
        "global_pose": {
            "orientation": {
                "w": 0.5084816217422485,
                "x": -0.49083608388900757,
                "y": 0.5182115435600281,
                "z": -0.4816462993621826
            },
            "position": {
                "x": 0.5540239810943604,
                "y": 0.030875300988554955,
                "z": 0.16403168439865112
            }
        },
        "name": "move_to_storage_A"
    },
    "id": "LBKPIECE_move_to_storage_A_7",
    "joint_names": [
        "shoulder_pan_joint",
        "shoulder_lift_joint",
        "elbow_joint",
        "wrist_1_joint",
        "wrist_2_joint",
        "wrist_3_joint"
    ],
    "metrics": {
        "cart_traj_len": 0.35264361904171587,
        "distance_elbow_joint": 0.44886980822556133,
        "distance_shoulder_lift_joint": 0.2357478794425929,
        "distance_shoulder_pan_joint": 0.45925878209571086,
        "distance_wrist_1_joint": 0.2355068092335595,
        "distance_wrist_2_joint": 1.1067078898331364,
        "distance_wrist_3_joint": 0.08818349897845801,
        "smoothness": 6.661338165333112e-16,
        "time": 0.597837022,
        "traj_len": 1.6044546325181708,
        "weighted_distance": 2.023080909116744
    },
    "planner": "LBKPIECE",
    "start": {
        "state": {
            "elbow_joint": 1.9715472970024885,
            "shoulder_lift_joint": -1.1394870060712896,
            "shoulder_pan_joint": 0.12281152778156021,
            "wrist_1_joint": -0.780463741449964,
            "wrist_2_joint": 0.12958659822042276,
            "wrist_3_joint": 3.090690232415272
        }
    },
    "waypoints": [
        {
            "positions": [
                0.12281152778156021,
                -1.1394870060712896,
                1.9715472970024885,
                -0.780463741449964,
                0.12958659822042276,
                3.090690232415272
            ]
        },
        {
            "positions": [
                0.057203130339315816,
                -1.1731652745630885,
                2.035671555320426,
                -0.8141075713404725,
                0.2876877253394422,
                3.10328787512648
            ]
        },
        {
            "positions": [
                -0.008405267102928576,
                -1.2068435430548876,
                2.099795813638363,
                -0.847751401230981,
                0.44578885245846167,
                3.1158855178376883
            ]
        },
        {
            "positions": [
                -0.07401366454517297,
                -1.2405218115466865,
                2.1639200719563005,
                -0.8813952311214894,
                0.6038899795774811,
                3.1284831605488965
            ]
        },
        {
            "positions": [
                -0.13962206198741736,
                -1.2742000800384856,
                2.228044330274238,
                -0.915039061011998,
                0.7619911066965006,
                3.141080803260105
            ]
        },
        {
            "positions": [
                -0.2052304594296618,
                -1.3078783485302845,
                2.292168588592175,
                -0.9486828909025065,
                0.9200922338155202,
                3.1536784459713134
            ]
        },
        {
            "positions": [
                -0.2708388568719061,
                -1.3415566170220834,
                2.3562928469101125,
                -0.982326720793015,
                1.0781933609345395,
                3.1662760886825216
            ]
        },
        {
            "positions": [
                -0.3364472543141506,
                -1.3752348855138825,
                2.42041710522805,
                -1.0159705506835235,
                1.2362944880535591,
                3.17887373139373
            ]
        }
    ]
}