{
    "goal": {
        "global_pose": {
            "orientation": {
                "w": 0.7031023480610252,
                "x": -0.7110244013736278,
                "y": 0.0077485991402295624,
                "z": 0.005598929693374583
            },
            "position": {
                "x": -0.8841497679147869,
                "y": 0.44412534475326537,
                "z": 0.3711530566215515
            }
        },
        "name": "move_to_auspresseinheit_D"
    },
    "id": "LBKPIECE_move_to_auspresseinheit_D_98",
    "joint_names": [
        "shoulder_pan_joint",
        "shoulder_lift_joint",
        "elbow_joint",
        "wrist_1_joint",
        "wrist_2_joint",
        "wrist_3_joint"
    ],
    "metrics": {
        "cart_traj_len": 0.34230795808915354,
        "distance_elbow_joint": 0.6268129247460967,
        "distance_shoulder_lift_joint": 0.1146558378910516,
        "distance_shoulder_pan_joint": 0.13348258804583868,
        "distance_wrist_1_joint": 0.5009694836215721,
        "distance_wrist_2_joint": 1.4336102507515476,
        "distance_wrist_3_joint": 0.03010986484337641,
        "smoothness": 0.0,
        "time": 0.156736975,
        "traj_len": 1.685123422749646,
        "weighted_distance": 2.1987360946596923
    },
    "planner": "LBKPIECE",
    "start": {
        "state": {
            "elbow_joint": -1.8275523626775212,
            "shoulder_lift_joint": -2.126789852344167,
            "shoulder_pan_joint": -0.03513704404078235,
            "wrist_1_joint": -2.347782403156801,
            "wrist_2_joint": -1.6058999987535132,
            "wrist_3_joint": -3.0880379163319196
        }
    },
    "waypoints": [
        {
            "positions": [
                -0.03513704404078235,
                -2.126789852344167,
                -1.8275523626775212,
                -2.347782403156801,
                -1.6058999987535132,
                -3.0880379163319196
            ]
        },
        {
            "positions": [
                -0.051822367546512184,
                -2.1411218320805485,
                -1.749200747084259,
                -2.410403588609497,
                -1.4266987174095698,
                -3.0918016494373415
            ]
        },
        {
            "positions": [
                -0.06850769105224203,
                -2.1554538118169297,
                -1.670849131490997,
                -2.473024774062194,
                -1.2474974360656264,
                -3.095565382542764
            ]
        },
        {
            "positions": [
                -0.08519301455797185,
                -2.169785791553311,
                -1.592497515897735,
                -2.5356459595148904,
                -1.0682961547216827,
                -3.0993291156481857
            ]
        },
        {
            "positions": [
                -0.1018783380637017,
                -2.1841177712896926,
                -1.5141459003044728,
                -2.598267144967587,
                -0.8890948733777394,
                -3.103092848753608
            ]
        },
        {
            "positions": [
                -0.11856366156943152,
                -2.1984497510260743,
                -1.4357942847112106,
                -2.6608883304202835,
                -0.709893592033796,
                -3.10685658185903
            ]
        },
        {
            "positions": [
                -0.13524898507516137,
                -2.2127817307624555,
                -1.3574426691179486,
                -2.72350951587298,
                -0.5306923106898525,
                -3.110620314964452
            ]
        },
        {
            "positions": [
                -0.1519343085808912,
                -2.2271137104988368,
                -1.2790910535246867,
                -2.7861307013256766,
                -0.35149102934590903,
                -3.114384048069874
            ]
        },
        {
            "positions": [
                -0.16861963208662104,
                -2.2414456902352184,
                -1.2007394379314245,
                -2.848751886778373,
                -0.17228974800196567,
                -3.118147781175296
            ]
        }
    ]
}