{
    "goal": {
        "global_pose": {
            "orientation": {
                "w": 0.005598929693374612,
                "x": 0.007748599140229565,
                "y": 0.7110244013736278,
                "z": -0.7031023480610252
            },
            "position": {
                "x": -0.8858502320852131,
                "y": -0.7141253447532654,
                "z": 0.3711530566215515
            }
        },
        "name": "move_to_auspresseinheit_C"
    },
    "id": "LBKPIECE_move_to_auspresseinheit_C_105",
    "joint_names": [
        "shoulder_pan_joint",
        "shoulder_lift_joint",
        "elbow_joint",
        "wrist_1_joint",
        "wrist_2_joint",
        "wrist_3_joint"
    ],
    "metrics": {
        "cart_traj_len": 0.4936227965714536,
        "distance_elbow_joint": 1.0064165725033094,
        "distance_shoulder_lift_joint": 0.32798108412260985,
        "distance_shoulder_pan_joint": 0.2569055620699676,
        "distance_wrist_1_joint": 0.6955872154190479,
        "distance_wrist_2_joint": 1.3095864754796211,
        "distance_wrist_3_joint": 0.06365642121238224,
        "smoothness": 6.459479467149049e-16,
        "time": 0.37253267100000004,
        "traj_len": 1.9131474932181622,
        "weighted_distance": 2.40678621072383
    },
    "planner": "LBKPIECE",
    "start": {
        "state": {
            "elbow_joint": 1.7527959577737207,
            "shoulder_lift_joint": -0.9740617694225068,
            "shoulder_pan_joint": -2.967991417825858,
            "wrist_1_joint": -0.759517768980727,
            "wrist_2_joint": 1.7443932448377408,
            "wrist_3_joint": -3.0840537646736568
        }
    },
    "waypoints": [
        {
            "positions": [
                -2.967991417825858,
                -0.9740617694225068,
                1.7527959577737207,
                -0.759517768980727,
                1.7443932448377408,
                -3.0840537646736568
            ]
        },
        {
            "positions": [
                -2.942300861618861,
                -0.9412636610102458,
                1.6521543005233896,
                -0.6899590474388222,
                1.6134345972897788,
                -3.090419406794895
            ]
        },
        {
            "positions": [
                -2.9166103054118646,
                -0.9084655525979848,
                1.5515126432730588,
                -0.6204003258969174,
                1.4824759497418165,
                -3.096785048916133
            ]
        },
        {
            "positions": [
                -2.8909197492048677,
                -0.8756674441857238,
                1.4508709860227278,
                -0.5508416043550126,
                1.3515173021938545,
                -3.1031506910373716
            ]
        },
        {
            "positions": [
                -2.865229192997871,
                -0.8428693357734628,
                1.350229328772397,
                -0.4812828828131078,
                1.2205586546458922,
                -3.1095163331586098
            ]
        },
        {
            "positions": [
                -2.8395386367908744,
                -0.8100712273612019,
                1.249587671522066,
                -0.41172416127120304,
                1.0896000070979301,
                -3.115881975279848
            ]
        },
        {
            "positions": [
                -2.8138480805838775,
                -0.7772731189489409,
                1.148946014271735,
                -0.34216543972929825,
                0.9586413595499682,
                -3.122247617401086
            ]
        },
        {
            "positions": [
                -2.7881575243768806,
                -0.7444750105366799,
                1.0483043570214041,
                -0.2726067181873935,
                0.827682712002006,
                -3.128613259522324
            ]
        },
        {
            "positions": [
                -2.7624669681698837,
                -0.7116769021244189,
                0.9476626997710731,
                -0.20304799664548867,
                0.6967240644540438,
                -3.1349789016435627
            ]
        },
        {
            "positions": [
                -2.7367764119628872,
                -0.6788787937121579,
                0.8470210425207422,
                -0.13348927510358388,
                0.5657654169060817,
                -3.141344543764801
            ]
        },
        {
            "positions": [
                -2.7110858557558903,
                -0.6460806852998969,
                0.7463793852704111,
                -0.06393055356167915,
                0.4348067693581196,
                -3.147710185886039
            ]
        }
    ]
}