{
    "goal": {
        "global_pose": {
            "orientation": {
                "w": -0.4816463035849501,
                "x": 0.5182115481033762,
                "y": 0.4908360881923453,
                "z": -0.5084816262002911
            },
            "position": {
                "x": -0.8240239810943604,
                "y": -0.300875300988555,
                "z": 0.16403168439865112
            }
        },
        "name": "move_to_storage_C"
    },
    "id": "LBKPIECE_move_to_storage_C_126",
    "joint_names": [
        "shoulder_pan_joint",
        "shoulder_lift_joint",
        "elbow_joint",
        "wrist_1_joint",
        "wrist_2_joint",
        "wrist_3_joint"
    ],
    "metrics": {
        "cart_traj_len": 0.5767982670998796,
        "distance_elbow_joint": 0.2589111081057791,
        "distance_shoulder_lift_joint": 0.18986694460804288,
        "distance_shoulder_pan_joint": 0.49579255828899127,
        "distance_wrist_1_joint": 0.08216374915796176,
        "distance_wrist_2_joint": 1.059770202177071,
        "distance_wrist_3_joint": 0.0718217689505356,
        "smoothness": 0.0,
        "time": 0.167123198,
        "traj_len": 1.4691243416703643,
        "weighted_distance": 1.8557758001775122
    },
    "planner": "LBKPIECE",
    "start": {
        "state": {
            "elbow_joint": 2.010868314990456,
            "shoulder_lift_joint": -1.1634956873337592,
            "shoulder_pan_joint": -2.4736205022346125,
            "wrist_1_joint": -0.8367026794202681,
            "wrist_2_joint": 0.6746043897044499,
            "wrist_3_joint": -3.1496632123970403
        }
    },
    "waypoints": [
        {
            "positions": [
                -2.4736205022346125,
                -1.1634956873337592,
                2.010868314990456,
                -0.8367026794202681,
                0.6746043897044499,
                -3.1496632123970403
            ]
        },
        {
            "positions": [
                -2.5562525952827775,
                -1.131851196565752,
                1.9677164636394926,
                -0.8230087212272745,
                0.8512327567339617,
                -3.1376929175719512
            ]
        },
        {
            "positions": [
                -2.638884688330943,
                -1.100206705797745,
                1.9245646122885294,
                -0.8093147630342808,
                1.0278611237634736,
                -3.1257226227468617
            ]
        },
        {
            "positions": [
                -2.7215167813791084,
                -1.0685622150297378,
                1.8814127609375664,
                -0.7956208048412872,
                1.2044894907929855,
                -3.1137523279217723
            ]
        },
        {
            "positions": [
                -2.8041488744272733,
                -1.0369177242617307,
                1.8382609095866032,
                -0.7819268466482936,
                1.3811178578224972,
                -3.101782033096683
            ]
        },
        {
            "positions": [
                -2.8867809674754383,
                -1.0052732334937233,
                1.79510905823564,
                -0.7682328884553,
                1.557746224852009,
                -3.089811738271594
            ]
        },
        {
            "positions": [
                -2.9694130605236038,
                -0.9736287427257163,
                1.7519572068846767,
                -0.7545389302623063,
                1.7343745918815208,
                -3.0778414434465047
            ]
        }
    ]
}