{
    "goal": {
        "global_pose": {
            "orientation": {
                "w": 0.7047431468963623,
                "x": -0.7094548344612122,
                "y": 0.0024358443915843964,
                "z": -0.0022348060738295317
            },
            "position": {
                "x": 0.6094750761985779,
                "y": 0.3671506643295288,
                "z": 0.19426114857196808
            }
        },
        "name": "move_to_magneteinheit_A"
    },
    "id": "LBTRRT_move_to_magneteinheit_A_34",
    "joint_names": [
        "shoulder_pan_joint",
        "shoulder_lift_joint",
        "elbow_joint",
        "wrist_1_joint",
        "wrist_2_joint",
        "wrist_3_joint"
    ],
    "metrics": {
        "cart_traj_len": 3.5011842025441857,
        "distance_elbow_joint": 3.895563383930626,
        "distance_shoulder_lift_joint": 1.156042703295834,
        "distance_shoulder_pan_joint": 2.7054233176643576,
        "distance_wrist_1_joint": 1.2608719302946594,
        "distance_wrist_2_joint": 1.69104182738557,
        "distance_wrist_3_joint": 3.6553283436284647,
        "smoothness": 0.3180748446761054,
        "time": 5.053555015,
        "traj_len": 3.7900226260801544,
        "weighted_distance": 4.9625438991646895
    },
    "planner": "LBTRRT",
    "start": {
        "state": {
            "elbow_joint": -1.9196185241190666,
            "shoulder_lift_joint": -1.2443396400964142,
            "shoulder_pan_joint": 2.6996025414629847,
            "wrist_1_joint": -1.5485510000780065,
            "wrist_2_joint": -1.5709468930060704,
            "wrist_3_joint": 0.4420197071253992
        }
    },
    "waypoints": [
        {
            "positions": [
                2.6996025414629847,
                -1.2443396400964142,
                -1.9196185241190666,
                -1.5485510000780065,
                -1.5709468930060704,
                0.4420197071253992
            ]
        },
        {
            "positions": [
                2.582825866067723,
                -1.2128835336093335,
                -1.8545588037756202,
                -1.5595510562719368,
                -1.523403789833376,
                0.32641454726881464
            ]
        },
        {
            "positions": [
                2.4660491906724613,
                -1.181427427122253,
                -1.7894990834321738,
                -1.570551112465867,
                -1.475860686660682,
                0.2108093874122301
            ]
        },
        {
            "positions": [
                2.3492725152772,
                -1.149971320635172,
                -1.7244393630887274,
                -1.5815511686597974,
                -1.428317583487988,
                0.09520422755564562
            ]
        },
        {
            "positions": [
                2.2324958398819383,
                -1.1185152141480914,
                -1.659379642745281,
                -1.5925512248537277,
                -1.3807744803152937,
                -0.02040093230093898
            ]
        },
        {
            "positions": [
                2.1157191644866766,
                -1.0870591076610108,
                -1.5943199224018345,
                -1.603551281047658,
                -1.3332313771425994,
                -0.13600609215752346
            ]
        },
        {
            "positions": [
                1.998942489091415,
                -1.05560300117393,
                -1.5292602020583883,
                -1.6145513372415883,
                -1.2856882739699054,
                -0.25161125201410794
            ]
        },
        {
            "positions": [
                1.8821658136961534,
                -1.0241468946868493,
                -1.4642004817149419,
                -1.6255513934355186,
                -1.2381451707972113,
                -0.3672164118706924
            ]
        },
        {
            "positions": [
                1.7653891383008917,
                -0.9926907881997686,
                -1.3991407613714952,
                -1.6365514496294489,
                -1.190602067624517,
                -0.48282157172727713
            ]
        },
        {
            "positions": [
                1.64861246290563,
                -0.961234681712688,
                -1.334081041028049,
                -1.6475515058233792,
                -1.1430589644518228,
                -0.5984267315838615
            ]
        },
        {
            "positions": [
                1.5318357875103685,
                -0.9297785752256073,
                -1.2690213206846026,
                -1.6585515620173095,
                -1.0955158612791287,
                -0.7140318914404461
            ]
        },
        {
            "positions": [
                1.4150591121151068,
                -0.8983224687385265,
                -1.2039616003411562,
                -1.6695516182112398,
                -1.0479727581064346,
                -0.8296370512970307
            ]
        },
        {
            "positions": [
                1.2982824367198453,
                -0.8668663622514459,
                -1.13890187999771,
                -1.68055167440517,
                -1.0004296549337404,
                -0.9452422111536151
            ]
        },
        {
            "positions": [
                1.1815057613245836,
                -0.8354102557643652,
                -1.0738421596542633,
                -1.6915517305991004,
                -0.9528865517610462,
                -1.0608473710101998
            ]
        },
        {
            "positions": [
                1.0647290859293221,
                -0.8039541492772846,
                -1.0087824393108171,
                -1.7025517867930307,
                -0.905343448588352,
                -1.1764525308667841
            ]
        },
        {
            "positions": [
                0.9479524105340604,
                -0.7724980427902037,
                -0.9437227189673706,
                -1.713551842986961,
                -0.8578003454156579,
                -1.2920576907233685
            ]
        },
        {
            "positions": [
                0.8311757351387987,
                -0.7410419363031231,
                -0.878662998623924,
                -1.7245518991808912,
                -0.8102572422429637,
                -1.4076628505799533
            ]
        },
        {
            "positions": [
                0.7143990597435372,
                -0.7095858298160425,
                -0.8136032782804778,
                -1.7355519553748215,
                -0.7627141390702695,
                -1.5232680104365377
            ]
        },
        {
            "positions": [
                0.5976223843482753,
                -0.6781297233289617,
                -0.7485435579370314,
                -1.7465520115687518,
                -0.7151710358975754,
                -1.638873170293122
            ]
        },
        {
            "positions": [
                0.48084570895301404,
                -0.6466736168418811,
                -0.683483837593585,
                -1.7575520677626821,
                -0.6676279327248812,
                -1.7544783301497064
            ]
        },
        {
            "positions": [
                0.3640690335577525,
                -0.6152175103548003,
                -0.6184241172501386,
                -1.7685521239566124,
                -0.620084829552187,
                -1.8700834900062913
            ]
        },
        {
            "positions": [
                0.3449554315204252,
                -0.6451629224176461,
                -0.46856160103242483,
                -1.7060510695527198,
                -0.5763141921666416,
                -1.9472518703381705
            ]
        },
        {
            "positions": [
                0.3258418294830979,
                -0.6751083344804917,
                -0.31869908481471115,
                -1.643550015148827,
                -0.5325435547810962,
                -2.0244202506700497
            ]
        },
        {
            "positions": [
                0.3067282274457706,
                -0.7050537465433373,
                -0.16883656859699747,
                -1.5810489607449343,
                -0.4887729173955508,
                -2.101588631001929
            ]
        },
        {
            "positions": [
                0.2876146254084433,
                -0.734999158606183,
                -0.018974052379283735,
                -1.5185479063410416,
                -0.44500228001000536,
                -2.1787570113338077
            ]
        },
        {
            "positions": [
                0.26850102337111603,
                -0.7649445706690288,
                0.13088846383843,
                -1.456046851937149,
                -0.4012316426244599,
                -2.255925391665687
            ]
        },
        {
            "positions": [
                0.24938742133378872,
                -0.7948899827318744,
                0.28075098005614363,
                -1.3935457975332561,
                -0.35746100523891455,
                -2.333093771997566
            ]
        },
        {
            "positions": [
                0.23027381929646143,
                -0.82483539479472,
                0.4306134962738575,
                -1.3310447431293635,
                -0.3136903678533691,
                -2.4102621523294454
            ]
        },
        {
            "positions": [
                0.21116021725913414,
                -0.8547808068575657,
                0.5804760124915711,
                -1.2685436887254706,
                -0.2699197304678237,
                -2.4874305326613246
            ]
        },
        {
            "positions": [
                0.19204661522180685,
                -0.8847262189204115,
                0.7303385287092847,
                -1.206042634321578,
                -0.22614909308227826,
                -2.564598912993204
            ]
        },
        {
            "positions": [
                0.17293301318447957,
                -0.9146716309832571,
                0.8802010449269986,
                -1.1435415799176853,
                -0.18237845569673283,
                -2.641767293325083
            ]
        },
        {
            "positions": [
                0.15381941114715225,
                -0.9446170430461027,
                1.0300635611447122,
                -1.0810405255137927,
                -0.13860781831118746,
                -2.7189356736569623
            ]
        },
        {
            "positions": [
                0.13470580910982496,
                -0.9745624551089485,
                1.1799260773624258,
                -1.0185394711098998,
                -0.09483718092564208,
                -2.7961040539888415
            ]
        },
        {
            "positions": [
                0.11559220707249768,
                -1.0045078671717942,
                1.3297885935801397,
                -0.9560384167060072,
                -0.051066543540096654,
                -2.8732724343207208
            ]
        },
        {
            "positions": [
                0.09647860503517036,
                -1.03445327923464,
                1.4796511097978535,
                -0.8935373623021144,
                -0.007295906154551224,
                -2.9504408146525996
            ]
        },
        {
            "positions": [
                0.0773650029978431,
                -1.0643986912974854,
                1.6295136260155672,
                -0.8310363078982218,
                0.036474731230994206,
                -3.027609194984479
            ]
        },
        {
            "positions": [
                0.0582514009605158,
                -1.0943441033603312,
                1.7793761422332808,
                -0.768535253494329,
                0.08024536861653968,
                -3.104777575316358
            ]
        },
        {
            "positions": [
                0.09744459423390919,
                -1.102046937053412,
                1.8795126514418563,
                -0.8026199250076745,
                0.0985005387732672,
                -3.18688319596446
            ]
        },
        {
            "positions": [
                0.12232357812240137,
                -1.1421380839090205,
                1.9759448598115599,
                -0.8093891894480996,
                0.12009493437949907,
                -3.160457755425855
            ]
        }
    ]
}