{
    "goal": {
        "global_pose": {
            "orientation": {
                "w": 0.005598929693374612,
                "x": 0.007748599140229565,
                "y": 0.7110244013736278,
                "z": -0.7031023480610252
            },
            "position": {
                "x": -0.8858502320852131,
                "y": -0.7141253447532654,
                "z": 0.3711530566215515
            }
        },
        "name": "move_to_auspresseinheit_C"
    },
    "id": "LBTRRT_move_to_auspresseinheit_C_66",
    "joint_names": [
        "shoulder_pan_joint",
        "shoulder_lift_joint",
        "elbow_joint",
        "wrist_1_joint",
        "wrist_2_joint",
        "wrist_3_joint"
    ],
    "metrics": {
        "cart_traj_len": 0.4940451050992023,
        "distance_elbow_joint": 0.9994171445804984,
        "distance_shoulder_lift_joint": 0.3247772388428525,
        "distance_shoulder_pan_joint": 0.2566422320558237,
        "distance_wrist_1_joint": 0.6657751087297304,
        "distance_wrist_2_joint": 1.3164506106807696,
        "distance_wrist_3_joint": 0.057811748657157214,
        "smoothness": 4.844609574787718e-16,
        "time": 5.001809669,
        "traj_len": 1.902859449236026,
        "weighted_distance": 2.391385226238476
    },
    "planner": "LBTRRT",
    "start": {
        "state": {
            "elbow_joint": 1.7527959577737207,
            "shoulder_lift_joint": -0.9740617694225068,
            "shoulder_pan_joint": -2.967991417825858,
            "wrist_1_joint": -0.759517768980727,
            "wrist_2_joint": 1.7443932448377408,
            "wrist_3_joint": -3.0840537646736568
        }
    },
    "waypoints": [
        {
            "positions": [
                -2.967991417825858,
                -0.9740617694225068,
                1.7527959577737207,
                -0.759517768980727,
                1.7443932448377408,
                -3.0840537646736568
            ]
        },
        {
            "positions": [
                -2.9423271946202756,
                -0.9415840455382215,
                1.6528542433156708,
                -0.692940258107754,
                1.6127481837696638,
                -3.0898349395393723
            ]
        },
        {
            "positions": [
                -2.916662971414693,
                -0.9091063216539362,
                1.5529125288576209,
                -0.6263627472347809,
                1.481103122701587,
                -3.095616114405088
            ]
        },
        {
            "positions": [
                -2.890998748209111,
                -0.8766285977696511,
                1.4529708143995712,
                -0.5597852363618079,
                1.34945806163351,
                -3.101397289270804
            ]
        },
        {
            "positions": [
                -2.8653345250035285,
                -0.8441508738853658,
                1.3530290999415213,
                -0.4932077254888348,
                1.217813000565433,
                -3.1071784641365197
            ]
        },
        {
            "positions": [
                -2.839670301797946,
                -0.8116731500010805,
                1.2530873854834714,
                -0.42663021461586176,
                1.086167939497356,
                -3.112959639002235
            ]
        },
        {
            "positions": [
                -2.8140060785923637,
                -0.7791954261167953,
                1.1531456710254218,
                -0.3600527037428887,
                0.9545228784292791,
                -3.118740813867951
            ]
        },
        {
            "positions": [
                -2.7883418553867814,
                -0.74671770223251,
                1.0532039565673719,
                -0.2934751928699157,
                0.8228778173612021,
                -3.124521988733667
            ]
        },
        {
            "positions": [
                -2.762677632181199,
                -0.7142399783482247,
                0.953262242109322,
                -0.2268976819969426,
                0.6912327562931251,
                -3.1303031635993825
            ]
        },
        {
            "positions": [
                -2.7370134089756166,
                -0.6817622544639395,
                0.8533205276512721,
                -0.16032017112396957,
                0.559587695225048,
                -3.136084338465098
            ]
        },
        {
            "positions": [
                -2.7113491857700343,
                -0.6492845305796543,
                0.7533788131932223,
                -0.09374266025099649,
                0.4279426341569711,
                -3.141865513330814
            ]
        }
    ]
}