{
    "goal": {
        "global_pose": {
            "orientation": {
                "w": 0.7047431493862688,
                "x": -0.7094548369677653,
                "y": 0.0024358444001904,
                "z": -0.0022348060817251984
            },
            "position": {
                "x": -0.39052492380142206,
                "y": 0.3671506643295288,
                "z": 0.19426114857196808
            }
        },
        "name": "move_to_magneteinheit_D"
    },
    "id": "LBTRRT_move_to_magneteinheit_D_66",
    "joint_names": [
        "shoulder_pan_joint",
        "shoulder_lift_joint",
        "elbow_joint",
        "wrist_1_joint",
        "wrist_2_joint",
        "wrist_3_joint"
    ],
    "metrics": {
        "cart_traj_len": 5.89621572884387,
        "distance_elbow_joint": 7.780262433230364,
        "distance_shoulder_lift_joint": 1.6266848051422766,
        "distance_shoulder_pan_joint": 8.689093174493628,
        "distance_wrist_1_joint": 2.7331780415364806,
        "distance_wrist_2_joint": 3.9479719421430066,
        "distance_wrist_3_joint": 3.2356381213737477,
        "smoothness": 0.6269874429753787,
        "time": 5.062870069000001,
        "traj_len": 5.292714664321089,
        "weighted_distance": 6.4160154881629206
    },
    "planner": "LBTRRT",
    "start": {
        "state": {
            "elbow_joint": 0.749534889911806,
            "shoulder_lift_joint": -0.6476975780787326,
            "shoulder_pan_joint": -2.711696901376241,
            "wrist_1_joint": -0.07506478083263063,
            "wrist_2_joint": 0.43296659715538205,
            "wrist_3_joint": -3.14703540197715
        }
    },
    "waypoints": [
        {
            "positions": [
                -2.711696901376241,
                -0.6476975780787326,
                0.749534889911806,
                -0.07506478083263063,
                0.43296659715538205,
                -3.14703540197715
            ]
        },
        {
            "positions": [
                -2.7272920594474166,
                -0.7044116897176076,
                0.8057245568127083,
                -0.032045883206209345,
                0.3952227515808375,
                -3.081919195973919
            ]
        },
        {
            "positions": [
                -2.742887217518592,
                -0.7611258013564826,
                0.8619142237136106,
                0.010973014420211938,
                0.35747890600629284,
                -3.016802989970688
            ]
        },
        {
            "positions": [
                -2.7584823755897676,
                -0.8178399129953575,
                0.9181038906145129,
                0.05399191204663323,
                0.31973506043174826,
                -2.9516867839674568
            ]
        },
        {
            "positions": [
                -2.673457565487682,
                -0.8894091825365508,
                0.8437045749807162,
                0.10998507614847441,
                0.40035550028647154,
                -2.9447525317829952
            ]
        },
        {
            "positions": [
                -2.5884327553855964,
                -0.960978452077744,
                0.7693052593469194,
                0.1659782402503156,
                0.4809759401411948,
                -2.9378182795985337
            ]
        },
        {
            "positions": [
                -2.5034079452835107,
                -1.0325477216189374,
                0.6949059437131228,
                0.2219714043521568,
                0.561596379995918,
                -2.930884027414072
            ]
        },
        {
            "positions": [
                -2.418383135181425,
                -1.1041169911601305,
                0.620506628079326,
                0.277964568453998,
                0.6422168198506413,
                -2.9239497752296106
            ]
        },
        {
            "positions": [
                -2.333358325079339,
                -1.1756862607013239,
                0.5461073124455293,
                0.33395773255583916,
                0.7228372597053646,
                -2.917015523045149
            ]
        },
        {
            "positions": [
                -2.2483335149772534,
                -1.247255530242517,
                0.47170799681173253,
                0.38995089665768035,
                0.803457699560088,
                -2.9100812708606876
            ]
        },
        {
            "positions": [
                -2.163308704875168,
                -1.3188247997837104,
                0.39730868117793583,
                0.44594406075952153,
                0.8840781394148112,
                -2.903147018676226
            ]
        },
        {
            "positions": [
                -2.078283894773082,
                -1.3903940693249035,
                0.32290936554413907,
                0.5019372248613627,
                0.9646985792695344,
                -2.896212766491765
            ]
        },
        {
            "positions": [
                -1.9932590846709966,
                -1.4619633388660969,
                0.24851004991034242,
                0.5579303889632039,
                1.0453190191242576,
                -2.8892785143073034
            ]
        },
        {
            "positions": [
                -1.908234274568911,
                -1.53353260840729,
                0.17411073427654566,
                0.6139235530650451,
                1.1259394589789808,
                -2.882344262122842
            ]
        },
        {
            "positions": [
                -1.8232094644668253,
                -1.6051018779484831,
                0.0997114186427489,
                0.6699167171668863,
                1.2065598988337043,
                -2.8754100099383804
            ]
        },
        {
            "positions": [
                -1.7381846543647395,
                -1.6766711474896767,
                0.025312103008952147,
                0.7259098812687275,
                1.2871803386884275,
                -2.868475757753919
            ]
        },
        {
            "positions": [
                -1.6531598442626538,
                -1.7482404170308699,
                -0.04908721262484461,
                0.7819030453705687,
                1.3678007785431507,
                -2.8615415055694573
            ]
        },
        {
            "positions": [
                -1.5681350341605682,
                -1.8198096865720632,
                -0.12348652825864126,
                0.8378962094724098,
                1.4484212183978742,
                -2.8546072533849958
            ]
        },
        {
            "positions": [
                -1.4831102240584826,
                -1.8913789561132563,
                -0.19788584389243802,
                0.893889373574251,
                1.5290416582525972,
                -2.8476730012005342
            ]
        },
        {
            "positions": [
                -1.328376580354872,
                -1.9045728021276658,
                -0.12108358900471246,
                0.9352470407182873,
                1.4579434405922498,
                -2.815724090348858
            ]
        },
        {
            "positions": [
                -1.173642936651261,
                -1.9177666481420752,
                -0.0442813341169869,
                0.9766047078623238,
                1.3868452229319024,
                -2.7837751794971823
            ]
        },
        {
            "positions": [
                -1.0189092929476504,
                -1.9309604941564846,
                0.032520920770738676,
                1.0179623750063602,
                1.315747005271555,
                -2.751826268645506
            ]
        },
        {
            "positions": [
                -0.8641756492440398,
                -1.944154340170894,
                0.10932317565846422,
                1.0593200421503965,
                1.2446487876112076,
                -2.7198773577938304
            ]
        },
        {
            "positions": [
                -0.709442005540429,
                -1.9573481861853033,
                0.1861254305461898,
                1.1006777092944329,
                1.17355056995086,
                -2.6879284469421543
            ]
        },
        {
            "positions": [
                -0.5547083618368184,
                -1.9705420321997127,
                0.26292768543391537,
                1.1420353764384692,
                1.1024523522905127,
                -2.655979536090478
            ]
        },
        {
            "positions": [
                -0.3999747181332076,
                -1.9837358782141221,
                0.33972994032164094,
                1.1833930435825057,
                1.0313541346301651,
                -2.6240306252388024
            ]
        },
        {
            "positions": [
                -0.24524107442959697,
                -1.9969297242285315,
                0.41653219520936646,
                1.224750710726542,
                0.9602559169698178,
                -2.592081714387126
            ]
        },
        {
            "positions": [
                -0.0905074307259861,
                -2.010123570242941,
                0.4933344500970921,
                1.2661083778705784,
                0.8891576993094703,
                -2.5601328035354505
            ]
        },
        {
            "positions": [
                0.06422621297762454,
                -2.0233174162573504,
                0.5701367049848176,
                1.307466045014615,
                0.8180594816491229,
                -2.5281838926837743
            ]
        },
        {
            "positions": [
                0.2189598566812352,
                -2.03651126227176,
                0.6469389598725432,
                1.3488237121586513,
                0.7469612639887756,
                -2.4962349818320986
            ]
        },
        {
            "positions": [
                0.37369350038484583,
                -2.0497051082861693,
                0.7237412147602688,
                1.3901813793026876,
                0.6758630463284282,
                -2.4642860709804224
            ]
        },
        {
            "positions": [
                0.5284271440884567,
                -2.0628989543005787,
                0.8005434696479944,
                1.4315390464467241,
                0.6047648286680807,
                -2.4323371601287462
            ]
        },
        {
            "positions": [
                0.6831607877920673,
                -2.076092800314988,
                0.8773457245357199,
                1.4728967135907602,
                0.5336666110077333,
                -2.4003882492770705
            ]
        },
        {
            "positions": [
                0.837894431495678,
                -2.0892866463293975,
                0.9541479794234455,
                1.5142543807347968,
                0.46256839334738586,
                -2.3684393384253943
            ]
        },
        {
            "positions": [
                0.9926280751992886,
                -2.102480492343807,
                1.030950234311171,
                1.5556120478788331,
                0.39147017568703846,
                -2.3364904275737186
            ]
        },
        {
            "positions": [
                1.1473617189028993,
                -2.1156743383582164,
                1.1077524891988966,
                1.5969697150228694,
                0.32037195802669105,
                -2.3045415167220424
            ]
        },
        {
            "positions": [
                1.3020953626065104,
                -2.128868184372626,
                1.1845547440866222,
                1.638327382166906,
                0.24927374036634342,
                -2.2725926058703663
            ]
        },
        {
            "positions": [
                1.456829006310121,
                -2.1420620303870352,
                1.2613569989743478,
                1.6796850493109423,
                0.17817552270599601,
                -2.2406436950186905
            ]
        },
        {
            "positions": [
                1.6115626500137317,
                -2.1552558764014442,
                1.3381592538620732,
                1.7210427164549786,
                0.10707730504564861,
                -2.2086947841670144
            ]
        },
        {
            "positions": [
                1.7662962937173423,
                -2.1684497224158537,
                1.4149615087497989,
                1.762400383599015,
                0.03597908738530142,
                -2.1767458733153386
            ]
        },
        {
            "positions": [
                1.921029937420953,
                -2.181643568430263,
                1.4917637636375245,
                1.8037580507430513,
                -0.035119130275045984,
                -2.1447969624636625
            ]
        },
        {
            "positions": [
                2.075763581124564,
                -2.1948374144446725,
                1.56856601852525,
                1.8451157178870878,
                -0.10621734793539339,
                -2.1128480516119863
            ]
        },
        {
            "positions": [
                2.2304972248281745,
                -2.208031260459082,
                1.6453682734129755,
                1.8864733850311242,
                -0.1773155655957408,
                -2.0808991407603106
            ]
        },
        {
            "positions": [
                2.385230868531785,
                -2.2212251064734914,
                1.7221705283007012,
                1.9278310521751605,
                -0.24841378325608843,
                -2.0489502299086344
            ]
        },
        {
            "positions": [
                2.5399645122353958,
                -2.234418952487901,
                1.7989727831884268,
                1.969188719319197,
                -0.31951200091643583,
                -2.0170013190569582
            ]
        },
        {
            "positions": [
                2.6946981559390064,
                -2.24761279850231,
                1.8757750380761524,
                2.0105463864632336,
                -0.39061021857678324,
                -1.9850524082052825
            ]
        },
        {
            "positions": [
                2.849431799642617,
                -2.2608066445167196,
                1.9525772929638778,
                2.0519040536072697,
                -0.46170843623713065,
                -1.9531034973536066
            ]
        },
        {
            "positions": [
                2.7370468542704796,
                -2.2613094496539157,
                1.7916424573651968,
                2.029451860751841,
                -0.4382016320479162,
                -1.8774847485850805
            ]
        },
        {
            "positions": [
                2.6246619088983416,
                -2.2618122547911113,
                1.6307076217665157,
                2.0069996678964115,
                -0.4146948278587017,
                -1.8018659998165543
            ]
        },
        {
            "positions": [
                2.512276963526204,
                -2.2623150599283073,
                1.4697727861678345,
                1.9845474750409826,
                -0.39118802366948724,
                -1.7262472510480282
            ]
        },
        {
            "positions": [
                2.399892018154066,
                -2.2628178650655033,
                1.3088379505691534,
                1.9620952821855537,
                -0.3676812194802728,
                -1.6506285022795022
            ]
        },
        {
            "positions": [
                2.2875070727819287,
                -2.2633206702026993,
                1.1479031149704721,
                1.9396430893301246,
                -0.34417441529105836,
                -1.575009753510976
            ]
        },
        {
            "positions": [
                2.1751221274097907,
                -2.263823475339895,
                0.9869682793717912,
                1.9171908964746955,
                -0.3206676111018439,
                -1.49939100474245
            ]
        },
        {
            "positions": [
                2.062737182037653,
                -2.264326280477091,
                0.82603344377311,
                1.8947387036192667,
                -0.2971608069126294,
                -1.4237722559739239
            ]
        },
        {
            "positions": [
                1.9503522366655153,
                -2.264829085614287,
                0.665098608174429,
                1.8722865107638376,
                -0.273654002723415,
                -1.3481535072053976
            ]
        },
        {
            "positions": [
                1.8379672912933778,
                -2.265331890751483,
                0.504163772575748,
                1.8498343179084085,
                -0.25014719853420053,
                -1.2725347584368716
            ]
        },
        {
            "positions": [
                1.72558234592124,
                -2.2658346958886786,
                0.3432289369770667,
                1.8273821250529796,
                -0.22664039434498603,
                -1.1969160096683455
            ]
        },
        {
            "positions": [
                1.6131974005491023,
                -2.2663375010258746,
                0.18229410137838564,
                1.8049299321975505,
                -0.2031335901557716,
                -1.1212972608998193
            ]
        },
        {
            "positions": [
                1.5008124551769646,
                -2.2668403061630706,
                0.021359265779704595,
                1.7824777393421214,
                -0.17962678596655712,
                -1.0456785121312933
            ]
        },
        {
            "positions": [
                1.3884275098048269,
                -2.2673431113002667,
                -0.13957556981897667,
                1.7600255464866925,
                -0.15611998177734265,
                -0.9700597633627672
            ]
        },
        {
            "positions": [
                1.2760425644326892,
                -2.2678459164374623,
                -0.3005104054176577,
                1.7375733536312634,
                -0.13261317758812818,
                -0.8944410145942412
            ]
        },
        {
            "positions": [
                1.1636576190605512,
                -2.2683487215746583,
                -0.46144524101633877,
                1.7151211607758343,
                -0.10910637339891371,
                -0.8188222658257149
            ]
        },
        {
            "positions": [
                1.0512726736884137,
                -2.2688515267118543,
                -0.6223800766150198,
                1.6926689679204054,
                -0.0855995692096993,
                -0.7432035170571889
            ]
        },
        {
            "positions": [
                0.9388877283162758,
                -2.2693543318490503,
                -0.7833149122137013,
                1.6702167750649763,
                -0.062092765020484775,
                -0.6675847682886626
            ]
        },
        {
            "positions": [
                0.8265027829441385,
                -2.269857136986246,
                -0.9442497478123819,
                1.6477645822095475,
                -0.03858596083127036,
                -0.5919660195201366
            ]
        },
        {
            "positions": [
                0.7141178375720005,
                -2.270359942123442,
                -1.1051845834110634,
                1.6253123893541184,
                -0.015079156642055891,
                -0.5163472707516106
            ]
        },
        {
            "positions": [
                0.601732892199863,
                -2.270862747260638,
                -1.2661194190097445,
                1.6028601964986895,
                0.008427647547158579,
                -0.44072852198308454
            ]
        },
        {
            "positions": [
                0.4893479468277251,
                -2.271365552397834,
                -1.4270542546084255,
                1.5804080036432604,
                0.03193445173637305,
                -0.3651097732145583
            ]
        },
        {
            "positions": [
                0.3769630014555876,
                -2.2718683575350296,
                -1.5879890902071065,
                1.5579558107878313,
                0.05544125592558746,
                -0.28949102444603225
            ]
        },
        {
            "positions": [
                0.26457805608344964,
                -2.2723711626722256,
                -1.7489239258057876,
                1.5355036179324024,
                0.07894806011480193,
                -0.213872275677506
            ]
        },
        {
            "positions": [
                0.15219311071131214,
                -2.2728739678094216,
                -1.9098587614044686,
                1.5130514250769733,
                0.1024548643040164,
                -0.13825352690897996
            ]
        },
        {
            "positions": [
                0.039808165339174195,
                -2.2733767729466177,
                -2.07079359700315,
                1.4905992322215442,
                0.12596166849323087,
                -0.06263477814045393
            ]
        },
        {
            "positions": [
                -0.0725767800329633,
                -2.2738795780838132,
                -2.231728432601831,
                1.4681470393661153,
                0.14946847268244534,
                0.012983970628072106
            ]
        },
        {
            "positions": [
                -0.1849617254051014,
                -2.2743823832210093,
                -2.392663268200512,
                1.4456948465106862,
                0.1729752768716598,
                0.08860271939659822
            ]
        }
    ]
}