{
    "goal": {
        "global_pose": {
            "orientation": {
                "w": 0.7031023480610252,
                "x": -0.7110244013736278,
                "y": 0.0077485991402295624,
                "z": 0.005598929693374583
            },
            "position": {
                "x": -0.8841497679147869,
                "y": 0.44412534475326537,
                "z": 0.3711530566215515
            }
        },
        "name": "move_to_auspresseinheit_D"
    },
    "id": "LBTRRT_move_to_auspresseinheit_D_130",
    "joint_names": [
        "shoulder_pan_joint",
        "shoulder_lift_joint",
        "elbow_joint",
        "wrist_1_joint",
        "wrist_2_joint",
        "wrist_3_joint"
    ],
    "metrics": {
        "cart_traj_len": 0.3434576154604635,
        "distance_elbow_joint": 0.6450875235059426,
        "distance_shoulder_lift_joint": 0.1248325376614825,
        "distance_shoulder_pan_joint": 0.1337229485800935,
        "distance_wrist_1_joint": 0.5537249266722659,
        "distance_wrist_2_joint": 1.443381923811023,
        "distance_wrist_3_joint": 0.020796286907863948,
        "smoothness": 0.0,
        "time": 5.00730213,
        "traj_len": 1.709253096278802,
        "weighted_distance": 2.2271608768649127
    },
    "planner": "LBTRRT",
    "start": {
        "state": {
            "elbow_joint": -1.8275523626775212,
            "shoulder_lift_joint": -2.126789852344167,
            "shoulder_pan_joint": -0.03513704404078235,
            "wrist_1_joint": -2.347782403156801,
            "wrist_2_joint": -1.6058999987535132,
            "wrist_3_joint": -3.0880379163319196
        }
    },
    "waypoints": [
        {
            "positions": [
                -0.03513704404078235,
                -2.126789852344167,
                -1.8275523626775212,
                -2.347782403156801,
                -1.6058999987535132,
                -3.0880379163319196
            ]
        },
        {
            "positions": [
                -0.05185241261329404,
                -2.142393919551852,
                -1.7469164222392783,
                -2.416998018990834,
                -1.4254772582771353,
                -3.0854383804684367
            ]
        },
        {
            "positions": [
                -0.06856778118580573,
                -2.1579979867595376,
                -1.6662804818010355,
                -2.4862136348248676,
                -1.2450545178007575,
                -3.0828388446049537
            ]
        },
        {
            "positions": [
                -0.08528314975831741,
                -2.173602053967223,
                -1.5856445413627926,
                -2.5554292506589005,
                -1.0646317773243794,
                -3.080239308741471
            ]
        },
        {
            "positions": [
                -0.1019985183308291,
                -2.189206121174908,
                -1.5050086009245498,
                -2.624644866492934,
                -0.8842090368480017,
                -3.077639772877988
            ]
        },
        {
            "positions": [
                -0.11871388690334078,
                -2.2048101883825932,
                -1.424372660486307,
                -2.693860482326967,
                -0.7037862963716238,
                -3.0750402370145045
            ]
        },
        {
            "positions": [
                -0.1354292554758525,
                -2.2204142555902786,
                -1.3437367200480643,
                -2.763076098161,
                -0.5233635558952459,
                -3.0724407011510215
            ]
        },
        {
            "positions": [
                -0.15214462404836418,
                -2.236018322797964,
                -1.2631007796098215,
                -2.8322917139950334,
                -0.342940815418868,
                -3.0698411652875386
            ]
        },
        {
            "positions": [
                -0.16885999262087587,
                -2.2516223900056493,
                -1.1824648391715786,
                -2.901507329829067,
                -0.16251807494249007,
                -3.0672416294240556
            ]
        }
    ]
}