{
    "goal": {
        "global_pose": {
            "orientation": {
                "w": 0.7047431493862688,
                "x": -0.7094548369677653,
                "y": 0.0024358444001904,
                "z": -0.0022348060817251984
            },
            "position": {
                "x": -0.39052492380142206,
                "y": 0.3671506643295288,
                "z": 0.19426114857196808
            }
        },
        "name": "move_to_magneteinheit_D"
    },
    "id": "LBTRRT_move_to_magneteinheit_D_72",
    "joint_names": [
        "shoulder_pan_joint",
        "shoulder_lift_joint",
        "elbow_joint",
        "wrist_1_joint",
        "wrist_2_joint",
        "wrist_3_joint"
    ],
    "metrics": {
        "cart_traj_len": 4.487875136164962,
        "distance_elbow_joint": 3.2011536578531103,
        "distance_shoulder_lift_joint": 1.104508279292365,
        "distance_shoulder_pan_joint": 3.13493567872229,
        "distance_wrist_1_joint": 2.1740810334198937,
        "distance_wrist_2_joint": 0.660256503983872,
        "distance_wrist_3_joint": 6.434343762828707,
        "smoothness": 0.14845889643343274,
        "time": 5.0447372569999995,
        "traj_len": 4.087698486446895,
        "weighted_distance": 5.6931804801149095
    },
    "planner": "LBTRRT",
    "start": {
        "state": {
            "elbow_joint": 0.749534889911806,
            "shoulder_lift_joint": -0.6476975780787326,
            "shoulder_pan_joint": -2.711696901376241,
            "wrist_1_joint": -0.07506478083263063,
            "wrist_2_joint": 0.43296659715538205,
            "wrist_3_joint": -3.14703540197715
        }
    },
    "waypoints": [
        {
            "positions": [
                -2.711696901376241,
                -0.6476975780787326,
                0.749534889911806,
                -0.07506478083263063,
                0.43296659715538205,
                -3.14703540197715
            ]
        },
        {
            "positions": [
                -2.7256752531794812,
                -0.7340454954628868,
                0.7574049137403531,
                -0.0879486784875455,
                0.41507484231776,
                -3.0139879682033484
            ]
        },
        {
            "positions": [
                -2.739653604982722,
                -0.8203934128470409,
                0.7652749375689003,
                -0.10083257614246037,
                0.397183087480138,
                -2.8809405344295462
            ]
        },
        {
            "positions": [
                -2.753631956785962,
                -0.9067413302311951,
                0.7731449613974475,
                -0.11371647379737525,
                0.3792913326425159,
                -2.7478931006557445
            ]
        },
        {
            "positions": [
                -2.672784578062811,
                -0.9275210028967823,
                0.6942088889752709,
                -0.149452899588785,
                0.3798477476209588,
                -2.579014063772875
            ]
        },
        {
            "positions": [
                -2.59193719933966,
                -0.9483006755623694,
                0.6152728165530942,
                -0.18518932538019478,
                0.3804041625994017,
                -2.4101350268900052
            ]
        },
        {
            "positions": [
                -2.511089820616509,
                -0.9690803482279566,
                0.5363367441309175,
                -0.2209257511716045,
                0.3809605775778446,
                -2.2412559900071356
            ]
        },
        {
            "positions": [
                -2.430242441893358,
                -0.9898600208935437,
                0.4574006717087409,
                -0.2566621769630143,
                0.38151699255628746,
                -2.072376953124266
            ]
        },
        {
            "positions": [
                -2.349395063170207,
                -1.010639693559131,
                0.37846459928656423,
                -0.29239860275442403,
                0.38207340753473035,
                -1.9034979162413963
            ]
        },
        {
            "positions": [
                -2.268547684447056,
                -1.0314193662247182,
                0.2995285268643876,
                -0.3281350285458338,
                0.38262982251317323,
                -1.7346188793585267
            ]
        },
        {
            "positions": [
                -2.187700305723905,
                -1.0521990388903053,
                0.22059245444221087,
                -0.3638714543372436,
                0.3831862374916161,
                -1.565739842475657
            ]
        },
        {
            "positions": [
                -2.106852927000754,
                -1.0729787115558924,
                0.14165638202003428,
                -0.39960788012865334,
                0.383742652470059,
                -1.3968608055927874
            ]
        },
        {
            "positions": [
                -2.026005548277603,
                -1.0937583842214798,
                0.06272030959785768,
                -0.43534430592006307,
                0.3842990674485019,
                -1.227981768709918
            ]
        },
        {
            "positions": [
                -1.945158169554452,
                -1.1145380568870669,
                -0.016215762824319024,
                -0.4710807317114728,
                0.3848554824269448,
                -1.059102731827048
            ]
        },
        {
            "positions": [
                -1.864310790831301,
                -1.135317729552654,
                -0.09515183524649562,
                -0.5068171575028826,
                0.38541189740538767,
                -0.8902236949441784
            ]
        },
        {
            "positions": [
                -1.7834634121081498,
                -1.1560974022182413,
                -0.17408790766867233,
                -0.5425535832942924,
                0.38596831238383056,
                -0.7213446580613088
            ]
        },
        {
            "positions": [
                -1.702616033384999,
                -1.1768770748838284,
                -0.25302398009084914,
                -0.5782900090857022,
                0.38652472736227345,
                -0.5524656211784391
            ]
        },
        {
            "positions": [
                -1.621768654661848,
                -1.1976567475494155,
                -0.33196005251302574,
                -0.614026434877112,
                0.38708114234071633,
                -0.38358658429556947
            ]
        },
        {
            "positions": [
                -1.540921275938697,
                -1.2184364202150029,
                -0.41089612493520233,
                -0.6497628606685216,
                0.3876375573191592,
                -0.21470754741269982
            ]
        },
        {
            "positions": [
                -1.460073897215546,
                -1.23921609288059,
                -0.48983219735737893,
                -0.6854992864599314,
                0.3881939722976021,
                -0.04582851052983017
            ]
        },
        {
            "positions": [
                -1.3792265184923949,
                -1.259995765546177,
                -0.5687682697795555,
                -0.7212357122513412,
                0.388750387276045,
                0.12305052635303948
            ]
        },
        {
            "positions": [
                -1.2983791397692441,
                -1.2807754382117644,
                -0.6477043422017321,
                -0.7569721380427509,
                0.3893068022544879,
                0.2919295632359087
            ]
        },
        {
            "positions": [
                -1.217531761046093,
                -1.3015551108773515,
                -0.7266404146239087,
                -0.7927085638341607,
                0.3898632172329308,
                0.46080860011877833
            ]
        },
        {
            "positions": [
                -1.136684382322942,
                -1.3223347835429387,
                -0.8055764870460855,
                -0.8284449896255703,
                0.3904196322113737,
                0.6296876370016484
            ]
        },
        {
            "positions": [
                -1.0558370035997908,
                -1.343114456208526,
                -0.8845125594682621,
                -0.8641814154169801,
                0.3909760471898166,
                0.7985666738845181
            ]
        },
        {
            "positions": [
                -0.9749896248766399,
                -1.363894128874113,
                -0.9634486318904387,
                -0.8999178412083899,
                0.3915324621682595,
                0.9674457107673877
            ]
        },
        {
            "positions": [
                -0.8941422461534889,
                -1.3846738015397002,
                -1.0423847043126155,
                -0.9356542669997997,
                0.3920888771467024,
                1.1363247476502574
            ]
        },
        {
            "positions": [
                -0.8132948674303377,
                -1.4054534742052875,
                -1.1213207767347921,
                -0.9713906927912095,
                0.39264529212514526,
                1.305203784533127
            ]
        },
        {
            "positions": [
                -0.7324474887071868,
                -1.4262331468708747,
                -1.200256849156969,
                -1.0071271185826192,
                0.39320170710358815,
                1.4740828214159967
            ]
        },
        {
            "positions": [
                -0.6516001099840358,
                -1.4470128195364618,
                -1.2791929215791458,
                -1.042863544374029,
                0.39375812208203104,
                1.6429618582988663
            ]
        },
        {
            "positions": [
                -0.5707527312608849,
                -1.467792492202049,
                -1.3581289940013221,
                -1.0785999701654387,
                0.3943145370604739,
                1.811840895181736
            ]
        },
        {
            "positions": [
                -0.48990535253773393,
                -1.4885721648676362,
                -1.437065066423499,
                -1.1143363959568486,
                0.3948709520389168,
                1.9807199320646056
            ]
        },
        {
            "positions": [
                -0.40905797381458253,
                -1.5093518375332233,
                -1.5160011388456758,
                -1.1500728217482583,
                0.3954273670173597,
                2.1495989689474753
            ]
        },
        {
            "positions": [
                -0.328210595091432,
                -1.5301315101988107,
                -1.5949372112678522,
                -1.185809247539668,
                0.3959837819958026,
                2.318478005830345
            ]
        },
        {
            "positions": [
                -0.24736321636828107,
                -1.5509111828643976,
                -1.6738732836900285,
                -1.2215456733310777,
                0.3965401969742455,
                2.4873570427132146
            ]
        },
        {
            "positions": [
                -0.16651583764513012,
                -1.5716908555299849,
                -1.7528093561122053,
                -1.2572820991224876,
                0.39709661195268836,
                2.656236079596084
            ]
        },
        {
            "positions": [
                -0.08566845892197872,
                -1.5924705281955722,
                -1.8317454285343822,
                -1.2930185249138972,
                0.39765302693113125,
                2.825115116478954
            ]
        },
        {
            "positions": [
                -0.004821080198827765,
                -1.6132502008611591,
                -1.9106815009565585,
                -1.3287549507053071,
                0.39820944190957414,
                2.9939941533618235
            ]
        },
        {
            "positions": [
                0.07602629852432302,
                -1.6340298735267464,
                -1.9896175733787351,
                -1.3644913764967168,
                0.398765856888017,
                3.162873190244693
            ]
        },
        {
            "positions": [
                0.059876167832876824,
                -1.656230729472515,
                -2.067135065772379,
                -1.5047966508666857,
                0.31163166647101,
                3.1802444133176015
            ]
        },
        {
            "positions": [
                0.043726037141430626,
                -1.6784315854182834,
                -2.1446525581660234,
                -1.6451019252366545,
                0.22449747605400297,
                3.19761563639051
            ]
        },
        {
            "positions": [
                0.027575906449984436,
                -1.7006324413640521,
                -2.2221700505596673,
                -1.7854071996066234,
                0.13736328563699596,
                3.214986859463418
            ]
        },
        {
            "positions": [
                0.011425775758538231,
                -1.7228332973098206,
                -2.2996875429533117,
                -1.9257124739765923,
                0.05022909521998892,
                3.2323580825363263
            ]
        },
        {
            "positions": [
                -0.004724354932907959,
                -1.745034153255589,
                -2.3772050353469556,
                -2.066017748346561,
                -0.03690509519701807,
                3.2497293056092347
            ]
        },
        {
            "positions": [
                -0.09602021220543455,
                -1.7486200053133434,
                -2.363608240535423,
                -2.157581781299543,
                -0.11262297676725291,
                3.2309397779880733
            ]
        },
        {
            "positions": [
                -0.18731606947796114,
                -1.7522058573710977,
                -2.3500114457238896,
                -2.2491458142525245,
                -0.18834085833748776,
                3.2121502503669124
            ]
        }
    ]
}