{
    "goal": {
        "global_pose": {
            "orientation": {
                "w": 0.7031023502349854,
                "x": -0.7110244035720825,
                "y": 0.007748599164187908,
                "z": 0.005598929710686207
            },
            "position": {
                "x": 0.11585023208521307,
                "y": 0.44412534475326537,
                "z": 0.3711530566215515
            }
        },
        "name": "move_to_auspresseinheit_A"
    },
    "id": "LBTRRT_move_to_auspresseinheit_A_101",
    "joint_names": [
        "shoulder_pan_joint",
        "shoulder_lift_joint",
        "elbow_joint",
        "wrist_1_joint",
        "wrist_2_joint",
        "wrist_3_joint"
    ],
    "metrics": {
        "cart_traj_len": 2.3847934578445416,
        "distance_elbow_joint": 0.0865575826809395,
        "distance_shoulder_lift_joint": 2.6732775987539705,
        "distance_shoulder_pan_joint": 2.8204913297369227,
        "distance_wrist_1_joint": 4.5610715498755185,
        "distance_wrist_2_joint": 2.5946343571414454,
        "distance_wrist_3_joint": 2.9370122742459177,
        "smoothness": 0.8230728213832835,
        "time": 5.060189048,
        "traj_len": 3.958919637026587,
        "weighted_distance": 5.357497097334121
    },
    "planner": "LBTRRT",
    "start": {
        "state": {
            "elbow_joint": 2.4225746658250005,
            "shoulder_lift_joint": -1.3736534386056498,
            "shoulder_pan_joint": -0.3378633547517467,
            "wrist_1_joint": -1.0288598680537169,
            "wrist_2_joint": 1.233022673432363,
            "wrist_3_joint": -3.0940220416140027
        }
    },
    "waypoints": [
        {
            "positions": [
                -0.3378633547517467,
                -1.3736534386056498,
                2.4225746658250005,
                -1.0288598680537169,
                1.233022673432363,
                -3.0940220416140027
            ]
        },
        {
            "positions": [
                -0.25739049425182403,
                -1.4404843647035697,
                2.4238174963084123,
                -0.9223520055719918,
                1.1679441734442726,
                -3.033693547489736
            ]
        },
        {
            "positions": [
                -0.1769176337519013,
                -1.5073152908014897,
                2.425060326791824,
                -0.8158441430902669,
                1.1028656734561821,
                -2.9733650533654696
            ]
        },
        {
            "positions": [
                -0.09644477325197859,
                -1.5741462168994096,
                2.426303157275236,
                -0.7093362806085418,
                1.0377871734680915,
                -2.9130365592412035
            ]
        },
        {
            "positions": [
                -0.015971912752055895,
                -1.6409771429973294,
                2.4275459877586476,
                -0.6028284181268169,
                0.972708673480001,
                -2.852708065116937
            ]
        },
        {
            "positions": [
                0.06450094774786685,
                -1.7078080690952495,
                2.4287888182420594,
                -0.4963205556450917,
                0.9076301734919106,
                -2.7923795709926704
            ]
        },
        {
            "positions": [
                0.14497380824778955,
                -1.7746389951931694,
                2.430031648725471,
                -0.38981269316336675,
                0.8425516735038201,
                -2.732051076868404
            ]
        },
        {
            "positions": [
                0.2254466687477123,
                -1.8414699212910892,
                2.4312744792088825,
                -0.2833048306816417,
                0.7774731735157295,
                -2.6717225827441373
            ]
        },
        {
            "positions": [
                0.30591952924763494,
                -1.908300847389009,
                2.4325173096922943,
                -0.17679696819991675,
                0.7123946735276391,
                -2.6113940886198708
            ]
        },
        {
            "positions": [
                0.3863923897475577,
                -1.975131773486929,
                2.433760140175706,
                -0.07028910571819169,
                0.6473161735395485,
                -2.551065594495604
            ]
        },
        {
            "positions": [
                0.46686525024748043,
                -2.041962699584849,
                2.435002970659118,
                0.03621875676353348,
                0.5822376735514581,
                -2.490737100371338
            ]
        },
        {
            "positions": [
                0.5473381107474031,
                -2.108793625682769,
                2.4362458011425296,
                0.1427266192452583,
                0.5171591735633676,
                -2.4304086062470716
            ]
        },
        {
            "positions": [
                0.6278109712473259,
                -2.1756245517806887,
                2.4374886316259414,
                0.24923448172698337,
                0.45208067357527704,
                -2.370080112122805
            ]
        },
        {
            "positions": [
                0.7082838317472486,
                -2.2424554778786088,
                2.438731462109353,
                0.3557423442087082,
                0.3870021735871866,
                -2.3097516179985385
            ]
        },
        {
            "positions": [
                0.7887566922471714,
                -2.309286403976529,
                2.439974292592765,
                0.4622502066904335,
                0.321923673599096,
                -2.249423123874272
            ]
        },
        {
            "positions": [
                0.8692295527470941,
                -2.3761173300744485,
                2.4412171230761768,
                0.5687580691721583,
                0.25684517361100556,
                -2.189094629750006
            ]
        },
        {
            "positions": [
                0.9497024132470167,
                -2.442948256172368,
                2.4424599535595886,
                0.6752659316538834,
                0.1917666736229151,
                -2.1287661356257392
            ]
        },
        {
            "positions": [
                1.0301752737469394,
                -2.5097791822702886,
                2.4437027840430003,
                0.7817737941356087,
                0.12668817363482443,
                -2.0684376415014727
            ]
        },
        {
            "positions": [
                1.1106481342468622,
                -2.5766101083682083,
                2.4449456145264117,
                0.8882816566173335,
                0.061609673646733976,
                -2.008109147377206
            ]
        },
        {
            "positions": [
                1.191120994746785,
                -2.643441034466128,
                2.4461884450098235,
                0.9947895190990586,
                -0.003468826341356479,
                -1.9477806532529398
            ]
        },
        {
            "positions": [
                1.2715938552467076,
                -2.7102719605640484,
                2.4474312754932352,
                1.1012973815807838,
                -0.06854732632944693,
                -1.887452159128673
            ]
        },
        {
            "positions": [
                1.3520667157466302,
                -2.777102886661968,
                2.448674105976647,
                1.2078052440625087,
                -0.1336258263175374,
                -1.8271236650044067
            ]
        },
        {
            "positions": [
                1.432539576246553,
                -2.8439338127598877,
                2.449916936460059,
                1.3143131065442335,
                -0.19870432630562784,
                -1.7667951708801404
            ]
        },
        {
            "positions": [
                1.5130124367464757,
                -2.910764738857808,
                2.4511597669434706,
                1.4208209690259588,
                -0.2637828262937185,
                -1.7064666767558736
            ]
        },
        {
            "positions": [
                1.5934852972463984,
                -2.977595664955728,
                2.4524025974268824,
                1.5273288315076834,
                -0.328861326281809,
                -1.6461381826316073
            ]
        },
        {
            "positions": [
                1.541182786791176,
                -2.9146935842260873,
                2.449065559128114,
                1.4093945461950883,
                -0.2681113052566752,
                -1.7337339717647557
            ]
        },
        {
            "positions": [
                1.4888802763359537,
                -2.8517915034964463,
                2.445728520829346,
                1.291460260882493,
                -0.20736128423154143,
                -1.821329760897904
            ]
        },
        {
            "positions": [
                1.4365777658807313,
                -2.7888894227668057,
                2.442391482530578,
                1.173525975569898,
                -0.14661126320640763,
                -1.9089255500310525
            ]
        },
        {
            "positions": [
                1.3842752554255089,
                -2.7259873420371648,
                2.43905444423181,
                1.0555916902573026,
                -0.08586124218127386,
                -1.9965213391642007
            ]
        },
        {
            "positions": [
                1.3319727449702865,
                -2.663085261307524,
                2.4357174059330418,
                0.9376574049447075,
                -0.025111221156140062,
                -2.084117128297349
            ]
        },
        {
            "positions": [
                1.2796702345150641,
                -2.6001831805778832,
                2.432380367634274,
                0.8197231196321123,
                0.03563879986899371,
                -2.1717129174304977
            ]
        },
        {
            "positions": [
                1.2273677240598417,
                -2.5372810998482427,
                2.4290433293355056,
                0.7017888343195172,
                0.09638882089412748,
                -2.2593087065636457
            ]
        },
        {
            "positions": [
                1.1750652136046194,
                -2.4743790191186017,
                2.4257062910367377,
                0.583854549006922,
                0.15713884191926125,
                -2.346904495696794
            ]
        },
        {
            "positions": [
                1.122762703149397,
                -2.411476938388961,
                2.4223692527379694,
                0.4659202636943267,
                0.21788886294439502,
                -2.4345002848299426
            ]
        },
        {
            "positions": [
                1.0704601926941746,
                -2.3485748576593206,
                2.4190322144392016,
                0.3479859783817316,
                0.27863888396952885,
                -2.522096073963091
            ]
        },
        {
            "positions": [
                1.0181576822389522,
                -2.2856727769296796,
                2.4156951761404333,
                0.2300516930691363,
                0.3393889049946627,
                -2.6096918630962396
            ]
        },
        {
            "positions": [
                0.9658551717837298,
                -2.2227706962000386,
                2.4123581378416654,
                0.11211740775654122,
                0.4001389260197964,
                -2.697287652229388
            ]
        },
        {
            "positions": [
                0.9135526613285074,
                -2.1598686154703985,
                2.409021099542897,
                -0.005816877556053868,
                0.4608889470449301,
                -2.784883441362536
            ]
        },
        {
            "positions": [
                0.861250150873285,
                -2.0969665347407576,
                2.4056840612441293,
                -0.12375116286864896,
                0.5216389680700639,
                -2.872479230495684
            ]
        },
        {
            "positions": [
                0.8089476404180627,
                -2.0340644540111166,
                2.402347022945361,
                -0.24168544818124427,
                0.5823889890951978,
                -2.9600750196288326
            ]
        },
        {
            "positions": [
                0.7566451299628403,
                -1.971162373281476,
                2.399009984646593,
                -0.35961973349383936,
                0.6431390101203315,
                -3.047670808761981
            ]
        },
        {
            "positions": [
                0.7043426195076179,
                -1.9082602925518353,
                2.395672946347825,
                -0.4775540188064348,
                0.7038890311454653,
                -3.1352665978951295
            ]
        }
    ]
}