{
    "goal": {
        "global_pose": {
            "orientation": {
                "w": -0.4816463035849501,
                "x": 0.5182115481033762,
                "y": 0.4908360881923453,
                "z": -0.5084816262002911
            },
            "position": {
                "x": -0.8240239810943604,
                "y": -0.300875300988555,
                "z": 0.16403168439865112
            }
        },
        "name": "move_to_storage_C"
    },
    "id": "LBTRRT_move_to_storage_C_128",
    "joint_names": [
        "shoulder_pan_joint",
        "shoulder_lift_joint",
        "elbow_joint",
        "wrist_1_joint",
        "wrist_2_joint",
        "wrist_3_joint"
    ],
    "metrics": {
        "cart_traj_len": 0.5776396565172239,
        "distance_elbow_joint": 0.2624830044722932,
        "distance_shoulder_lift_joint": 0.19109358200201443,
        "distance_shoulder_pan_joint": 0.49404430340899586,
        "distance_wrist_1_joint": 0.088026285179157,
        "distance_wrist_2_joint": 1.0755877198982327,
        "distance_wrist_3_joint": 0.06061798883400371,
        "smoothness": 2.5376526478085547e-16,
        "time": 5.003260900000001,
        "traj_len": 1.4737207618116455,
        "weighted_distance": 1.8592210375692542
    },
    "planner": "LBTRRT",
    "start": {
        "state": {
            "elbow_joint": 2.010868314990456,
            "shoulder_lift_joint": -1.1634956873337592,
            "shoulder_pan_joint": -2.4736205022346125,
            "wrist_1_joint": -0.8367026794202681,
            "wrist_2_joint": 0.6746043897044499,
            "wrist_3_joint": -3.1496632123970403
        }
    },
    "waypoints": [
        {
            "positions": [
                -2.4736205022346125,
                -1.1634956873337592,
                2.010868314990456,
                -0.8367026794202681,
                0.6746043897044499,
                -3.1496632123970403
            ]
        },
        {
            "positions": [
                -2.555961219469445,
                -1.13164675700009,
                1.967121147578407,
                -0.8220316318904086,
                0.8538690096874887,
                -3.1395602142580397
            ]
        },
        {
            "positions": [
                -2.638301936704278,
                -1.099797826666421,
                1.923373980166358,
                -0.8073605843605491,
                1.0331336296705276,
                -3.129457216119039
            ]
        },
        {
            "positions": [
                -2.7206426539391106,
                -1.067948896332752,
                1.8796268127543092,
                -0.7926895368306897,
                1.2123982496535661,
                -3.1193542179800384
            ]
        },
        {
            "positions": [
                -2.802983371173943,
                -1.0360999659990828,
                1.8358796453422603,
                -0.7780184893008301,
                1.3916628696366051,
                -3.109251219841038
            ]
        },
        {
            "positions": [
                -2.8853240884087756,
                -1.0042510356654137,
                1.7921324779302115,
                -0.7633474417709706,
                1.5709274896196437,
                -3.099148221702037
            ]
        },
        {
            "positions": [
                -2.9676648056436084,
                -0.9724021053317448,
                1.7483853105181626,
                -0.7486763942411111,
                1.7501921096026825,
                -3.0890452235630366
            ]
        }
    ]
}