{
    "goal": {
        "global_pose": {
            "orientation": {
                "w": 0.005598929693374612,
                "x": 0.007748599140229565,
                "y": 0.7110244013736278,
                "z": -0.7031023480610252
            },
            "position": {
                "x": -0.8858502320852131,
                "y": -0.7141253447532654,
                "z": 0.3711530566215515
            }
        },
        "name": "move_to_auspresseinheit_C"
    },
    "id": "LBTRRT_move_to_auspresseinheit_C_100",
    "joint_names": [
        "shoulder_pan_joint",
        "shoulder_lift_joint",
        "elbow_joint",
        "wrist_1_joint",
        "wrist_2_joint",
        "wrist_3_joint"
    ],
    "metrics": {
        "cart_traj_len": 0.4934725576192297,
        "distance_elbow_joint": 1.0021897834898037,
        "distance_shoulder_lift_joint": 0.3252936500275756,
        "distance_shoulder_pan_joint": 0.25708978668114657,
        "distance_wrist_1_joint": 0.691218426508815,
        "distance_wrist_2_joint": 1.305096258806054,
        "distance_wrist_3_joint": 0.07832653580275517,
        "smoothness": 3.2297397080004555e-16,
        "time": 5.0015649060000005,
        "traj_len": 1.9129073269022077,
        "weighted_distance": 2.4108467803318674
    },
    "planner": "LBTRRT",
    "start": {
        "state": {
            "elbow_joint": 1.7527959577737207,
            "shoulder_lift_joint": -0.9740617694225068,
            "shoulder_pan_joint": -2.967991417825858,
            "wrist_1_joint": -0.759517768980727,
            "wrist_2_joint": 1.7443932448377408,
            "wrist_3_joint": -3.0840537646736568
        }
    },
    "waypoints": [
        {
            "positions": [
                -2.967991417825858,
                -0.9740617694225068,
                1.7527959577737207,
                -0.759517768980727,
                1.7443932448377408,
                -3.0840537646736568
            ]
        },
        {
            "positions": [
                -2.942282439157743,
                -0.9415324044197492,
                1.6525769794247402,
                -0.6903959263298455,
                1.6138836189571355,
                -3.0918864182539325
            ]
        },
        {
            "positions": [
                -2.9165734604896287,
                -0.9090030394169917,
                1.5523580010757598,
                -0.621274083678964,
                1.48337399307653,
                -3.099719071834208
            ]
        },
        {
            "positions": [
                -2.890864481821514,
                -0.8764736744142341,
                1.4521390227267796,
                -0.5521522410280825,
                1.3528643671959246,
                -3.107551725414483
            ]
        },
        {
            "positions": [
                -2.8651555031533995,
                -0.8439443094114765,
                1.3519200443777992,
                -0.48303039837720096,
                1.222354741315319,
                -3.115384378994759
            ]
        },
        {
            "positions": [
                -2.8394465244852847,
                -0.811414944408719,
                1.2517010660288188,
                -0.41390855572631946,
                1.091845115434714,
                -3.1232170325750346
            ]
        },
        {
            "positions": [
                -2.81373754581717,
                -0.7788855794059615,
                1.1514820876798386,
                -0.34478671307543796,
                0.9613354895541085,
                -3.13104968615531
            ]
        },
        {
            "positions": [
                -2.7880285671490554,
                -0.7463562144032039,
                1.0512631093308582,
                -0.2756648704245565,
                0.8308258636735031,
                -3.138882339735585
            ]
        },
        {
            "positions": [
                -2.7623195884809406,
                -0.7138268494004463,
                0.9510441309818777,
                -0.20654302777367495,
                0.7003162377928975,
                -3.146714993315861
            ]
        },
        {
            "positions": [
                -2.7366106098128262,
                -0.6812974843976887,
                0.8508251526328973,
                -0.13742118512279344,
                0.5698066119122922,
                -3.1545476468961366
            ]
        },
        {
            "positions": [
                -2.7109016311447114,
                -0.6487681193949312,
                0.7506061742839168,
                -0.06829934247191195,
                0.4392969860316869,
                -3.162380300476412
            ]
        }
    ]
}