{
    "goal": {
        "global_pose": {
            "orientation": {
                "w": 0.005598929693374612,
                "x": 0.007748599140229565,
                "y": 0.7110244013736278,
                "z": -0.7031023480610252
            },
            "position": {
                "x": -0.8858502320852131,
                "y": -0.7141253447532654,
                "z": 0.3711530566215515
            }
        },
        "name": "move_to_auspresseinheit_C"
    },
    "id": "LBTRRT_move_to_auspresseinheit_C_14",
    "joint_names": [
        "shoulder_pan_joint",
        "shoulder_lift_joint",
        "elbow_joint",
        "wrist_1_joint",
        "wrist_2_joint",
        "wrist_3_joint"
    ],
    "metrics": {
        "cart_traj_len": 0.49401594701375917,
        "distance_elbow_joint": 1.012120541069355,
        "distance_shoulder_lift_joint": 0.33051017829492024,
        "distance_shoulder_pan_joint": 0.2568110197342177,
        "distance_wrist_1_joint": 0.706181675388152,
        "distance_wrist_2_joint": 1.302081481617536,
        "distance_wrist_3_joint": 0.07346434158758841,
        "smoothness": 3.2297397335745243e-16,
        "time": 5.001878323000001,
        "traj_len": 1.9186373387620101,
        "weighted_distance": 2.415856179053843
    },
    "planner": "LBTRRT",
    "start": {
        "state": {
            "elbow_joint": 1.7527959577737207,
            "shoulder_lift_joint": -0.9740617694225068,
            "shoulder_pan_joint": -2.967991417825858,
            "wrist_1_joint": -0.759517768980727,
            "wrist_2_joint": 1.7443932448377408,
            "wrist_3_joint": -3.0840537646736568
        }
    },
    "waypoints": [
        {
            "positions": [
                -2.967991417825858,
                -0.9740617694225068,
                1.7527959577737207,
                -0.759517768980727,
                1.7443932448377408,
                -3.0840537646736568
            ]
        },
        {
            "positions": [
                -2.942310315852436,
                -0.9410107515930147,
                1.6515839036667852,
                -0.6888996014419118,
                1.6141850966759872,
                -3.0914001988324156
            ]
        },
        {
            "positions": [
                -2.9166292138790144,
                -0.9079597337635227,
                1.5503718495598497,
                -0.6182814339030965,
                1.4839769485142336,
                -3.0987466329911744
            ]
        },
        {
            "positions": [
                -2.8909481119055926,
                -0.8749087159340307,
                1.449159795452914,
                -0.5476632663642814,
                1.3537688003524802,
                -3.106093067149933
            ]
        },
        {
            "positions": [
                -2.865267009932171,
                -0.8418576981045387,
                1.3479477413459786,
                -0.47704509882546614,
                1.2235606521907263,
                -3.113439501308692
            ]
        },
        {
            "positions": [
                -2.839585907958749,
                -0.8088066802750467,
                1.2467356872390432,
                -0.40642693128665097,
                1.0933525040289729,
                -3.1207859354674508
            ]
        },
        {
            "positions": [
                -2.8139048059853273,
                -0.7757556624455546,
                1.1455236331321077,
                -0.3358087637478358,
                0.9631443558672194,
                -3.12813236962621
            ]
        },
        {
            "positions": [
                -2.7882237040119056,
                -0.7427046446160626,
                1.0443115790251722,
                -0.2651905962090206,
                0.8329362077054657,
                -3.135478803784969
            ]
        },
        {
            "positions": [
                -2.762542602038484,
                -0.7096536267865705,
                0.9430995249182366,
                -0.1945724286702053,
                0.702728059543712,
                -3.1428252379437276
            ]
        },
        {
            "positions": [
                -2.736861500065062,
                -0.6766026089570785,
                0.8418874708113011,
                -0.12395426113139019,
                0.5725199113819586,
                -3.1501716721024864
            ]
        },
        {
            "positions": [
                -2.7111803980916402,
                -0.6435515911275865,
                0.7406754167043658,
                -0.05333609359257495,
                0.4423117632202048,
                -3.157518106261245
            ]
        }
    ]
}