{
    "goal": {
        "global_pose": {
            "orientation": {
                "w": 0.5084816217422485,
                "x": -0.49083608388900757,
                "y": 0.5182115435600281,
                "z": -0.4816462993621826
            },
            "position": {
                "x": 0.5540239810943604,
                "y": 0.030875300988554955,
                "z": 0.16403168439865112
            }
        },
        "name": "move_to_storage_A"
    },
    "id": "LBTRRT_move_to_storage_A_113",
    "joint_names": [
        "shoulder_pan_joint",
        "shoulder_lift_joint",
        "elbow_joint",
        "wrist_1_joint",
        "wrist_2_joint",
        "wrist_3_joint"
    ],
    "metrics": {
        "cart_traj_len": 0.35378067069317615,
        "distance_elbow_joint": 0.4527064692586664,
        "distance_shoulder_lift_joint": 0.23272603065696407,
        "distance_shoulder_pan_joint": 0.460441031606543,
        "distance_wrist_1_joint": 0.25681609266215955,
        "distance_wrist_2_joint": 1.1089925600436499,
        "distance_wrist_3_joint": 0.10677250703740215,
        "smoothness": 8.881784232165597e-16,
        "time": 5.002568149,
        "traj_len": 1.6181639877544503,
        "weighted_distance": 2.048855377533026
    },
    "planner": "LBTRRT",
    "start": {
        "state": {
            "elbow_joint": 1.971548259319323,
            "shoulder_lift_joint": -1.1394851275133948,
            "shoulder_pan_joint": 0.1228115487234821,
            "wrist_1_joint": -0.7804723859257726,
            "wrist_2_joint": 0.12958671773740124,
            "wrist_3_joint": -3.192489227718131
        }
    },
    "waypoints": [
        {
            "positions": [
                0.1228115487234821,
                -1.1394851275133948,
                1.971548259319323,
                -0.7804723859257726,
                0.12958671773740124,
                -3.192489227718131
            ]
        },
        {
            "positions": [
                0.05703425849397596,
                -1.1727317033215325,
                2.036220612070561,
                -0.817160399163224,
                0.2880142263150655,
                -3.1772360124270738
            ]
        },
        {
            "positions": [
                -0.008743031735530177,
                -1.2059782791296703,
                2.1008929648217993,
                -0.8538484124006753,
                0.44644173489272976,
                -3.1619827971360164
            ]
        },
        {
            "positions": [
                -0.0745203219650363,
                -1.239224854937808,
                2.165565317573037,
                -0.8905364256381267,
                0.6048692434703941,
                -3.146729581844959
            ]
        },
        {
            "positions": [
                -0.14029761219454245,
                -1.2724714307459457,
                2.230237670324275,
                -0.927224438875578,
                0.7632967520480584,
                -3.131476366553901
            ]
        },
        {
            "positions": [
                -0.20607490242404863,
                -1.3057180065540834,
                2.2949100230755133,
                -0.9639124521130294,
                0.9217242606257227,
                -3.1162231512628438
            ]
        },
        {
            "positions": [
                -0.2718521926535547,
                -1.3389645823622212,
                2.3595823758267516,
                -1.0006004653504808,
                1.0801517692033868,
                -3.1009699359717864
            ]
        },
        {
            "positions": [
                -0.3376294828830609,
                -1.3722111581703589,
                2.4242547285779894,
                -1.0372884785879322,
                1.2385792777810511,
                -3.085716720680729
            ]
        }
    ]
}{
    "goal": {
        "global_pose": {
            "orientation": {
                "w": 0.5084816217422485,
                "x": -0.49083608388900757,
                "y": 0.5182115435600281,
                "z": -0.4816462993621826
            },
            "position": {
                "x": 0.5540239810943604,
                "y": 0.030875300988554955,
                "z": 0.16403168439865112
            }
        },
        "name": "move_to_storage_A"
    },
    "id": "LBTRRT_move_to_storage_A_113",
    "joint_names": [
        "shoulder_pan_joint",
        "shoulder_lift_joint",
        "elbow_joint",
        "wrist_1_joint",
        "wrist_2_joint",
        "wrist_3_joint"
    ],
    "metrics": {
        "cart_traj_len": 0.3525593725253513,
        "distance_elbow_joint": 0.4527561977879473,
        "distance_shoulder_lift_joint": 0.23434047354478182,
        "distance_shoulder_pan_joint": 0.4593247129345102,
        "distance_wrist_1_joint": 0.25174098405258793,
        "distance_wrist_2_joint": 1.105705932488811,
        "distance_wrist_3_joint": 0.09551463401391347,
        "smoothness": 4.440892098500626e-16,
        "time": 5.0020862720000006,
        "traj_len": 1.6122601945165524,
        "weighted_distance": 2.0366293524821293
    },
    "planner": "LBTRRT",
    "start": {
        "state": {
            "elbow_joint": 1.97154746011099,
            "shoulder_lift_joint": -1.13948474672311,
            "shoulder_pan_joint": 0.12281154466712228,
            "wrist_1_joint": -0.7804688027058302,
            "wrist_2_joint": 0.12958655903071145,
            "wrist_3_joint": 3.0906928834467795
        }
    },
    "waypoints": [
        {
            "positions": [
                0.12281154466712228,
                -1.13948474672311,
                1.97154746011099,
                -0.7804688027058302,
                0.12958655903071145,
                3.0906928834467795
            ]
        },
        {
            "positions": [
                0.05719372853362083,
                -1.1729619572295074,
                2.0362269169378395,
                -0.8164318004276284,
                0.28754454938625584,
                3.1043378311630527
            ]
        },
        {
            "positions": [
                -0.008424087599880628,
                -1.2064391677359048,
                2.100906373764689,
                -0.8523947981494268,
                0.4455025397418003,
                3.1179827788793264
            ]
        },
        {
            "positions": [
                -0.07404190373338208,
                -1.2399163782423022,
                2.1655858305915388,
                -0.888357795871225,
                0.6034605300973447,
                3.1316277265955996
            ]
        },
        {
            "positions": [
                -0.13965971986688352,
                -1.2733935887486996,
                2.2302652874183884,
                -0.9243207935930233,
                0.7614185204528892,
                3.145272674311873
            ]
        },
        {
            "positions": [
                -0.205277536000385,
                -1.306870799255097,
                2.294944744245238,
                -0.9602837913148216,
                0.9193765108084336,
                3.158917622028146
            ]
        },
        {
            "positions": [
                -0.27089535213388644,
                -1.3403480097614944,
                2.3596242010720876,
                -0.9962467890366198,
                1.0773345011639779,
                3.1725625697444197
            ]
        },
        {
            "positions": [
                -0.3365131682673879,
                -1.3738252202678918,
                2.424303657898937,
                -1.0322097867584181,
                1.2352924915195225,
                3.186207517460693
            ]
        }
    ]
}{
    "goal": {
        "global_pose": {
            "orientation": {
                "w": 0.5084816217422485,
                "x": -0.49083608388900757,
                "y": 0.5182115435600281,
                "z": -0.4816462993621826
            },
            "position": {
                "x": 0.5540239810943604,
                "y": 0.030875300988554955,
                "z": 0.16403168439865112
            }
        },
        "name": "move_to_storage_A"
    },
    "id": "LBTRRT_move_to_storage_A_113",
    "joint_names": [
        "shoulder_pan_joint",
        "shoulder_lift_joint",
        "elbow_joint",
        "wrist_1_joint",
        "wrist_2_joint",
        "wrist_3_joint"
    ],
    "metrics": {
        "cart_traj_len": 0.3534795754013891,
        "distance_elbow_joint": 0.4504679360816004,
        "distance_shoulder_lift_joint": 0.23676256398591833,
        "distance_shoulder_pan_joint": 0.4599298766662787,
        "distance_wrist_1_joint": 0.2414439254199523,
        "distance_wrist_2_joint": 1.1106704187076712,
        "distance_wrist_3_joint": 0.10354723732967308,
        "smoothness": 4.440892098500626e-16,
        "time": 5.00354952,
        "traj_len": 1.6133263644381115,
        "weighted_distance": 2.0401055798605285
    },
    "planner": "LBTRRT",
    "start": {
        "state": {
            "elbow_joint": 1.9715472970024885,
            "shoulder_lift_joint": -1.1394870060712896,
            "shoulder_pan_joint": 0.12281152778156021,
            "wrist_1_joint": -0.780463741449964,
            "wrist_2_joint": 0.12958659822042276,
            "wrist_3_joint": 3.090690232415272
        }
    },
    "waypoints": [
        {
            "positions": [
                0.12281152778156021,
                -1.1394870060712896,
                1.9715472970024885,
                -0.780463741449964,
                0.12958659822042276,
                3.090690232415272
            ]
        },
        {
            "positions": [
                0.057107259686377546,
                -1.1733102294978495,
                2.03589985929986,
                -0.8149557307956715,
                0.2882538008929472,
                3.1054826948909393
            ]
        },
        {
            "positions": [
                -0.008597008408805118,
                -1.207133452924409,
                2.1002524215972316,
                -0.8494477201413789,
                0.4469210035654717,
                3.120275157366607
            ]
        },
        {
            "positions": [
                -0.0743012765039878,
                -1.240956676350969,
                2.164604983894603,
                -0.8839397094870864,
                0.6055882062379961,
                3.1350676198422747
            ]
        },
        {
            "positions": [
                -0.14000554459917045,
                -1.2747798997775286,
                2.2289575461919746,
                -0.9184316988327939,
                0.7642554089105206,
                3.149860082317942
            ]
        },
        {
            "positions": [
                -0.20570981269435315,
                -1.3086031232040884,
                2.293310108489346,
                -0.9529236881785014,
                0.9229226115830451,
                3.1646525447936096
            ]
        },
        {
            "positions": [
                -0.27141408078953577,
                -1.342426346630648,
                2.357662670786717,
                -0.9874156775242088,
                1.0815898142555695,
                3.1794450072692775
            ]
        },
        {
            "positions": [
                -0.3371183488847185,
                -1.376249570057208,
                2.422015233084089,
                -1.0219076668699163,
                1.240257016928094,
                3.194237469744945
            ]
        }
    ]
}