{
    "goal": {
        "global_pose": {
            "orientation": {
                "w": 0.5084816217422485,
                "x": -0.49083608388900757,
                "y": 0.5182115435600281,
                "z": -0.4816462993621826
            },
            "position": {
                "x": 0.5540239810943604,
                "y": 0.030875300988554955,
                "z": 0.16403168439865112
            }
        },
        "name": "move_to_storage_A"
    },
    "id": "LBTRRT_move_to_storage_A_125",
    "joint_names": [
        "shoulder_pan_joint",
        "shoulder_lift_joint",
        "elbow_joint",
        "wrist_1_joint",
        "wrist_2_joint",
        "wrist_3_joint"
    ],
    "metrics": {
        "cart_traj_len": 0.3535887420419722,
        "distance_elbow_joint": 0.45297159352342775,
        "distance_shoulder_lift_joint": 0.2359993783974652,
        "distance_shoulder_pan_joint": 0.46136583595423364,
        "distance_wrist_1_joint": 0.2512481641980647,
        "distance_wrist_2_joint": 1.1053713412305286,
        "distance_wrist_3_joint": 0.10891867183678983,
        "smoothness": 4.440892133664971e-16,
        "time": 5.001977406999999,
        "traj_len": 1.617366682339076,
        "weighted_distance": 2.0470300032590347
    },
    "planner": "LBTRRT",
    "start": {
        "state": {
            "elbow_joint": 1.971548259319323,
            "shoulder_lift_joint": -1.1394851275133948,
            "shoulder_pan_joint": 0.1228115487234821,
            "wrist_1_joint": -0.7804723859257726,
            "wrist_2_joint": 0.12958671773740124,
            "wrist_3_joint": -3.192489227718131
        }
    },
    "waypoints": [
        {
            "positions": [
                0.1228115487234821,
                -1.1394851275133948,
                1.971548259319323,
                -0.7804723859257726,
                0.12958671773740124,
                -3.192489227718131
            ]
        },
        {
            "positions": [
                0.056902143587163015,
                -1.1731993244273184,
                2.036258486965527,
                -0.8163649808112105,
                0.2874969093417625,
                -3.1769294174557325
            ]
        },
        {
            "positions": [
                -0.00900726154915607,
                -1.206913521341242,
                2.100968714611731,
                -0.8522575756966483,
                0.4454071009461237,
                -3.161369607193334
            ]
        },
        {
            "positions": [
                -0.07491666668547517,
                -1.2406277182551657,
                2.165678942257935,
                -0.888150170582086,
                0.6033172925504849,
                -3.1458097969309353
            ]
        },
        {
            "positions": [
                -0.14082607182179424,
                -1.2743419151690891,
                2.230389169904139,
                -0.9240427654675238,
                0.7612274841548462,
                -3.130249986668537
            ]
        },
        {
            "positions": [
                -0.20673547695811334,
                -1.3080561120830128,
                2.295099397550343,
                -0.9599353603529617,
                0.9191376757592075,
                -3.1146901764061385
            ]
        },
        {
            "positions": [
                -0.27264488209443244,
                -1.3417703089969364,
                2.359809625196547,
                -0.9958279552383995,
                1.0770478673635686,
                -3.09913036614374
            ]
        },
        {
            "positions": [
                -0.33855428723075154,
                -1.37548450591086,
                2.4245198528427507,
                -1.0317205501238373,
                1.2349580589679299,
                -3.0835705558813413
            ]
        }
    ]
}{
    "goal": {
        "global_pose": {
            "orientation": {
                "w": 0.5084816217422485,
                "x": -0.49083608388900757,
                "y": 0.5182115435600281,
                "z": -0.4816462993621826
            },
            "position": {
                "x": 0.5540239810943604,
                "y": 0.030875300988554955,
                "z": 0.16403168439865112
            }
        },
        "name": "move_to_storage_A"
    },
    "id": "LBTRRT_move_to_storage_A_125",
    "joint_names": [
        "shoulder_pan_joint",
        "shoulder_lift_joint",
        "elbow_joint",
        "wrist_1_joint",
        "wrist_2_joint",
        "wrist_3_joint"
    ],
    "metrics": {
        "cart_traj_len": 0.352752295594374,
        "distance_elbow_joint": 0.450581080555573,
        "distance_shoulder_lift_joint": 0.23401913818846887,
        "distance_shoulder_pan_joint": 0.4607856953237777,
        "distance_wrist_1_joint": 0.24450752126502007,
        "distance_wrist_2_joint": 1.1003370737691558,
        "distance_wrist_3_joint": 0.10191880946670118,
        "smoothness": 1.7763568394002505e-15,
        "time": 5.0032751619999996,
        "traj_len": 1.6100153162528288,
        "weighted_distance": 2.034903322651048
    },
    "planner": "LBTRRT",
    "start": {
        "state": {
            "elbow_joint": 1.97154746011099,
            "shoulder_lift_joint": -1.13948474672311,
            "shoulder_pan_joint": 0.12281154466712228,
            "wrist_1_joint": -0.7804688027058302,
            "wrist_2_joint": 0.12958655903071145,
            "wrist_3_joint": 3.0906928834467795
        }
    },
    "waypoints": [
        {
            "positions": [
                0.12281154466712228,
                -1.13948474672311,
                1.97154746011099,
                -0.7804688027058302,
                0.12958655903071145,
                3.0906928834467795
            ]
        },
        {
            "positions": [
                0.05698501676372547,
                -1.1729160521786055,
                2.035916185904643,
                -0.8153984486008331,
                0.2867775695691623,
                3.105252713370594
            ]
        },
        {
            "positions": [
                -0.00884151113967134,
                -1.206347357634101,
                2.1002849116982967,
                -0.8503280944958359,
                0.4439685801076131,
                3.1198125432944086
            ]
        },
        {
            "positions": [
                -0.07466803904306817,
                -1.2397786630895966,
                2.16465363749195,
                -0.8852577403908388,
                0.601159590646064,
                3.134372373218223
            ]
        },
        {
            "positions": [
                -0.14049456694646495,
                -1.2732099685450922,
                2.229022363285603,
                -0.9201873862858416,
                0.7583506011845148,
                3.1489322031420373
            ]
        },
        {
            "positions": [
                -0.20632109484986177,
                -1.3066412740005877,
                2.2933910890792566,
                -0.9551170321808445,
                0.9155416117229657,
                3.1634920330658516
            ]
        },
        {
            "positions": [
                -0.2721476227532586,
                -1.3400725794560833,
                2.3577598148729098,
                -0.9900466780758473,
                1.0727326222614164,
                3.1780518629896664
            ]
        },
        {
            "positions": [
                -0.3379741506566554,
                -1.3735038849115788,
                2.422128540666563,
                -1.0249763239708503,
                1.2299236327998673,
                3.1926116929134807
            ]
        }
    ]
}{
    "goal": {
        "global_pose": {
            "orientation": {
                "w": 0.5084816217422485,
                "x": -0.49083608388900757,
                "y": 0.5182115435600281,
                "z": -0.4816462993621826
            },
            "position": {
                "x": 0.5540239810943604,
                "y": 0.030875300988554955,
                "z": 0.16403168439865112
            }
        },
        "name": "move_to_storage_A"
    },
    "id": "LBTRRT_move_to_storage_A_125",
    "joint_names": [
        "shoulder_pan_joint",
        "shoulder_lift_joint",
        "elbow_joint",
        "wrist_1_joint",
        "wrist_2_joint",
        "wrist_3_joint"
    ],
    "metrics": {
        "cart_traj_len": 0.35255181668894414,
        "distance_elbow_joint": 0.4493107648658783,
        "distance_shoulder_lift_joint": 0.23423315524867827,
        "distance_shoulder_pan_joint": 0.45829472285742673,
        "distance_wrist_1_joint": 0.2451655340185701,
        "distance_wrist_2_joint": 1.1089387328850984,
        "distance_wrist_3_joint": 0.1056379996451291,
        "smoothness": 4.440892098500626e-16,
        "time": 5.003479512,
        "traj_len": 1.6129416943959198,
        "weighted_distance": 2.041313590733846
    },
    "planner": "LBTRRT",
    "start": {
        "state": {
            "elbow_joint": 1.9715472970024885,
            "shoulder_lift_joint": -1.1394870060712896,
            "shoulder_pan_joint": 0.12281152778156021,
            "wrist_1_joint": -0.780463741449964,
            "wrist_2_joint": 0.12958659822042276,
            "wrist_3_joint": 3.090690232415272
        }
    },
    "waypoints": [
        {
            "positions": [
                0.12281152778156021,
                -1.1394870060712896,
                1.9715472970024885,
                -0.780463741449964,
                0.12958659822042276,
                3.090690232415272
            ]
        },
        {
            "positions": [
                0.05734085308764211,
                -1.1729488853925294,
                2.0357345491261856,
                -0.8154873891669026,
                0.2880064172040082,
                3.105781375221719
            ]
        },
        {
            "positions": [
                -0.008129821606275983,
                -1.2064107647137692,
                2.099921801249882,
                -0.8505110368838411,
                0.4464262361875937,
                3.120872518028166
            ]
        },
        {
            "positions": [
                -0.07360049630019408,
                -1.239872644035009,
                2.164109053373579,
                -0.8855346846007798,
                0.6048460551711792,
                3.135963660834613
            ]
        },
        {
            "positions": [
                -0.13907117099411218,
                -1.2733345233562485,
                2.228296305497276,
                -0.9205583323177183,
                0.7632658741547647,
                3.1510548036410597
            ]
        },
        {
            "positions": [
                -0.20454184568803027,
                -1.3067964026774883,
                2.2924835576209732,
                -0.955581980034657,
                0.9216856931383501,
                3.166145946447507
            ]
        },
        {
            "positions": [
                -0.27001252038194834,
                -1.340258281998728,
                2.35667080974467,
                -0.9906056277515956,
                1.0801055121219356,
                3.181237089253954
            ]
        },
        {
            "positions": [
                -0.3354831950758665,
                -1.3737201613199679,
                2.420858061868367,
                -1.025629275468534,
                1.238525331105521,
                3.196328232060401
            ]
        }
    ]
}