{
    "goal": {
        "global_pose": {
            "orientation": {
                "w": -0.00223480608172531,
                "x": 0.0024358444001904467,
                "y": 0.7094548369677653,
                "z": -0.704743149386269
            },
            "position": {
                "x": 0.6205249238014221,
                "y": -0.6371506643295288,
                "z": 0.19426114857196808
            }
        },
        "name": "move_to_magneteinheit_B"
    },
    "id": "LBTRRT_move_to_magneteinheit_B_112",
    "joint_names": [
        "shoulder_pan_joint",
        "shoulder_lift_joint",
        "elbow_joint",
        "wrist_1_joint",
        "wrist_2_joint",
        "wrist_3_joint"
    ],
    "metrics": {
        "cart_traj_len": 1.6941444398808863,
        "distance_elbow_joint": 0.955380449575641,
        "distance_shoulder_lift_joint": 1.5809546000353745,
        "distance_shoulder_pan_joint": 1.6209470567900528,
        "distance_wrist_1_joint": 1.8098966604127646,
        "distance_wrist_2_joint": 1.526800475191383,
        "distance_wrist_3_joint": 0.30728640038752925,
        "smoothness": 0.7778776851014965,
        "time": 5.032571257,
        "traj_len": 2.7930745858986197,
        "weighted_distance": 3.4281971324257228
    },
    "planner": "LBTRRT",
    "start": {
        "state": {
            "elbow_joint": 2.6216224122426386,
            "shoulder_lift_joint": -1.4174107377796124,
            "shoulder_pan_joint": 0.7066234856936794,
            "wrist_1_joint": 1.9546482284002225,
            "wrist_2_joint": -0.7096286983471962,
            "wrist_3_joint": 0.005740856962016249
        }
    },
    "waypoints": [
        {
            "positions": [
                0.7066234856936794,
                -1.4174107377796124,
                2.6216224122426386,
                1.9546482284002225,
                -0.7096286983471962,
                0.005740856962016249
            ]
        },
        {
            "positions": [
                0.6380967721818724,
                -1.3898110757554487,
                2.5835840977427114,
                1.90753352521604,
                -0.7394116092225771,
                -0.004809087473291349
            ]
        },
        {
            "positions": [
                0.5695700586700656,
                -1.362211413731285,
                2.545545783242784,
                1.8604188220318574,
                -0.7691945200979581,
                -0.015359031908598947
            ]
        },
        {
            "positions": [
                0.491084659782563,
                -1.4212891699732904,
                2.48343220031798,
                1.7589098057367836,
                -0.834059904164694,
                -0.0333910629537623
            ]
        },
        {
            "positions": [
                0.4125992608950604,
                -1.4803669262152956,
                2.421318617393176,
                1.6574007894417098,
                -0.89892528823143,
                -0.051423093998925654
            ]
        },
        {
            "positions": [
                0.3341138620075578,
                -1.539444682457301,
                2.359205034468372,
                1.5558917731466357,
                -0.963790672298166,
                -0.069455125044089
            ]
        },
        {
            "positions": [
                0.2556284631200552,
                -1.598522438699306,
                2.2970914515435674,
                1.454382756851562,
                -1.0286560563649019,
                -0.08748715608925235
            ]
        },
        {
            "positions": [
                0.1771430642325526,
                -1.6576001949413113,
                2.2349778686187634,
                1.352873740556488,
                -1.0935214404316378,
                -0.10551918713441572
            ]
        },
        {
            "positions": [
                0.09865766534505005,
                -1.7166779511833166,
                2.1728642856939593,
                1.251364724261414,
                -1.158386824498374,
                -0.12355121817957905
            ]
        },
        {
            "positions": [
                0.020172266457547494,
                -1.7757557074253218,
                2.110750702769155,
                1.1498557079663403,
                -1.2232522085651099,
                -0.1415832492247424
            ]
        },
        {
            "positions": [
                -0.05770238667194594,
                -1.6830714589009044,
                2.073708307760642,
                1.2336143862979139,
                -1.307683622312899,
                -0.12825305804134488
            ]
        },
        {
            "positions": [
                -0.13557703980143937,
                -1.590387210376487,
                2.036665912752129,
                1.3173730646294874,
                -1.3921150360606882,
                -0.11492286685794732
            ]
        },
        {
            "positions": [
                -0.2134516929309328,
                -1.4977029618520694,
                1.9996235177436157,
                1.401131742961061,
                -1.4765464498084773,
                -0.10159267567454977
            ]
        },
        {
            "positions": [
                -0.29132634606042623,
                -1.4050187133276517,
                1.9625811227351027,
                1.4848904212926344,
                -1.5609778635562663,
                -0.08826248449115223
            ]
        },
        {
            "positions": [
                -0.36920099918991967,
                -1.3123344648032342,
                1.9255387277265896,
                1.568649099624208,
                -1.6454092773040554,
                -0.07493229330775467
            ]
        },
        {
            "positions": [
                -0.4470756523194131,
                -1.2196502162788168,
                1.8884963327180764,
                1.6524077779557815,
                -1.7298406910518445,
                -0.06160210212435713
            ]
        },
        {
            "positions": [
                -0.5249503054489066,
                -1.126965967754399,
                1.8514539377095631,
                1.736166456287355,
                -1.8142721047996337,
                -0.048271910940959575
            ]
        },
        {
            "positions": [
                -0.6028249585784,
                -1.0342817192299818,
                1.81441154270105,
                1.8199251346189285,
                -1.8987035185474228,
                -0.03494171975756204
            ]
        },
        {
            "positions": [
                -0.6806996117078934,
                -0.9415974707055642,
                1.777369147692537,
                1.903683812950502,
                -1.9831349322952119,
                -0.021611528574164485
            ]
        },
        {
            "positions": [
                -0.7585742648373868,
                -0.8489132221811466,
                1.7403267526840238,
                1.9874424912820756,
                -2.067566346043001,
                -0.008281337390766919
            ]
        },
        {
            "positions": [
                -0.8364489179668801,
                -0.7562289736567291,
                1.7032843576755106,
                2.071201169613649,
                -2.15199775979079,
                0.005048853792630592
            ]
        },
        {
            "positions": [
                -0.9143235710963736,
                -0.6635447251323116,
                1.6662419626669975,
                2.1549598479452228,
                -2.2364291735385793,
                0.018379044976028165
            ]
        }
    ]
}