{
    "goal": {
        "global_pose": {
            "orientation": {
                "w": 0.005598929693374612,
                "x": 0.007748599140229565,
                "y": 0.7110244013736278,
                "z": -0.7031023480610252
            },
            "position": {
                "x": 0.1141497679147869,
                "y": -0.7141253447532654,
                "z": 0.3711530566215515
            }
        },
        "name": "move_to_auspresseinheit_B"
    },
    "id": "LBTRRT_move_to_auspresseinheit_B_24",
    "joint_names": [
        "shoulder_pan_joint",
        "shoulder_lift_joint",
        "elbow_joint",
        "wrist_1_joint",
        "wrist_2_joint",
        "wrist_3_joint"
    ],
    "metrics": {
        "cart_traj_len": 0.5649444926527282,
        "distance_elbow_joint": 0.0610189754970174,
        "distance_shoulder_lift_joint": 0.29422122161989717,
        "distance_shoulder_pan_joint": 0.5759286471411185,
        "distance_wrist_1_joint": 0.32251158233873134,
        "distance_wrist_2_joint": 1.005639122150891,
        "distance_wrist_3_joint": 0.004088170760700116,
        "smoothness": 1.0150610551046396e-15,
        "time": 5.006685307,
        "traj_len": 1.5044626015652085,
        "weighted_distance": 1.8972966993908407
    },
    "planner": "LBTRRT",
    "start": {
        "state": {
            "elbow_joint": 2.0193083361928714,
            "shoulder_lift_joint": -1.1220246554650708,
            "shoulder_pan_joint": -1.0952077554168747,
            "wrist_1_joint": -0.8559753972642168,
            "wrist_2_joint": 0.4759566250798843,
            "wrist_3_joint": -3.1240929996934557
        }
    },
    "waypoints": [
        {
            "positions": [
                -1.0952077554168747,
                -1.1220246554650708,
                2.0193083361928714,
                -0.8559753972642168,
                0.4759566250798843,
                -3.1240929996934557
            ]
        },
        {
            "positions": [
                -1.1911958632737276,
                -1.1710615257350536,
                2.0091385069433687,
                -0.8022234668744282,
                0.6435631454383661,
                -3.1247743614869057
            ]
        },
        {
            "positions": [
                -1.2871839711305808,
                -1.2200983960050364,
                1.9989686776938655,
                -0.7484715364846397,
                0.8111696657968479,
                -3.1254557232803557
            ]
        },
        {
            "positions": [
                -1.383172078987434,
                -1.2691352662750193,
                1.9887988484443628,
                -0.6947196060948511,
                0.9787761861553297,
                -3.1261370850738057
            ]
        },
        {
            "positions": [
                -1.479160186844287,
                -1.3181721365450023,
                1.97862901919486,
                -0.6409676757050626,
                1.1463827065138115,
                -3.1268184468672557
            ]
        },
        {
            "positions": [
                -1.57514829470114,
                -1.3672090068149851,
                1.968459189945357,
                -0.587215745315274,
                1.3139892268722935,
                -3.1274998086607058
            ]
        },
        {
            "positions": [
                -1.6711364025579931,
                -1.416245877084968,
                1.958289360695854,
                -0.5334638149254854,
                1.4815957472307753,
                -3.128181170454156
            ]
        }
    ]
}