{
    "goal": {
        "global_pose": {
            "orientation": {
                "w": 0.5084816217422485,
                "x": -0.49083608388900757,
                "y": 0.5182115435600281,
                "z": -0.4816462993621826
            },
            "position": {
                "x": 0.5540239810943604,
                "y": 0.030875300988554955,
                "z": 0.16403168439865112
            }
        },
        "name": "move_to_storage_A"
    },
    "id": "LBTRRT_move_to_storage_A_4",
    "joint_names": [
        "shoulder_pan_joint",
        "shoulder_lift_joint",
        "elbow_joint",
        "wrist_1_joint",
        "wrist_2_joint",
        "wrist_3_joint"
    ],
    "metrics": {
        "cart_traj_len": 0.3536209099610217,
        "distance_elbow_joint": 0.4520885385639495,
        "distance_shoulder_lift_joint": 0.23451426700485367,
        "distance_shoulder_pan_joint": 0.46421269536433335,
        "distance_wrist_1_joint": 0.24927467192226793,
        "distance_wrist_2_joint": 1.0925508048930055,
        "distance_wrist_3_joint": 0.10326379049389667,
        "smoothness": 2.2204460668324854e-16,
        "time": 5.003863545,
        "traj_len": 1.6111811717626006,
        "weighted_distance": 2.0357450297238535
    },
    "planner": "LBTRRT",
    "start": {
        "state": {
            "elbow_joint": 1.971548259319323,
            "shoulder_lift_joint": -1.1394851275133948,
            "shoulder_pan_joint": 0.1228115487234821,
            "wrist_1_joint": -0.7804723859257726,
            "wrist_2_joint": 0.12958671773740124,
            "wrist_3_joint": -3.192489227718131
        }
    },
    "waypoints": [
        {
            "positions": [
                0.1228115487234821,
                -1.1394851275133948,
                1.971548259319323,
                -0.7804723859257726,
                0.12958671773740124,
                -3.192489227718131
            ]
        },
        {
            "positions": [
                0.056495449385720195,
                -1.1729871656569453,
                2.03613233625703,
                -0.8160830533432395,
                0.28566540415068775,
                -3.1777372576475744
            ]
        },
        {
            "positions": [
                -0.00982064995204171,
                -1.206489203800496,
                2.1007164131947373,
                -0.8516937207607063,
                0.44174409056397423,
                -3.1629852875770177
            ]
        },
        {
            "positions": [
                -0.0761367492898036,
                -1.2399912419440464,
                2.165300490132444,
                -0.8873043881781731,
                0.5978227769772607,
                -3.148233317506461
            ]
        },
        {
            "positions": [
                -0.14245284862756552,
                -1.2734932800875969,
                2.229884567070151,
                -0.92291505559564,
                0.7539014633905472,
                -3.1334813474359047
            ]
        },
        {
            "positions": [
                -0.20876894796532747,
                -1.3069953182311473,
                2.2944686440078583,
                -0.9585257230131068,
                0.9099801498038338,
                -3.118729377365348
            ]
        },
        {
            "positions": [
                -0.2750850473030893,
                -1.340497356374698,
                2.3590527209455656,
                -0.9941363904305737,
                1.0660588362171202,
                -3.103977407294791
            ]
        },
        {
            "positions": [
                -0.34140114664085125,
                -1.3739993945182485,
                2.4236367978832725,
                -1.0297470578480405,
                1.2221375226304068,
                -3.0892254372242345
            ]
        }
    ]
}{
    "goal": {
        "global_pose": {
            "orientation": {
                "w": 0.5084816217422485,
                "x": -0.49083608388900757,
                "y": 0.5182115435600281,
                "z": -0.4816462993621826
            },
            "position": {
                "x": 0.5540239810943604,
                "y": 0.030875300988554955,
                "z": 0.16403168439865112
            }
        },
        "name": "move_to_storage_A"
    },
    "id": "LBTRRT_move_to_storage_A_4",
    "joint_names": [
        "shoulder_pan_joint",
        "shoulder_lift_joint",
        "elbow_joint",
        "wrist_1_joint",
        "wrist_2_joint",
        "wrist_3_joint"
    ],
    "metrics": {
        "cart_traj_len": 0.35344884189382475,
        "distance_elbow_joint": 0.45247206608294865,
        "distance_shoulder_lift_joint": 0.23550951521559926,
        "distance_shoulder_pan_joint": 0.46189089630090213,
        "distance_wrist_1_joint": 0.24993405176427697,
        "distance_wrist_2_joint": 1.1017609438793867,
        "distance_wrist_3_joint": 0.10357315997422978,
        "smoothness": 1.3322676295501878e-15,
        "time": 5.0032658,
        "traj_len": 1.6140448052075083,
        "weighted_distance": 2.0405837274685563
    },
    "planner": "LBTRRT",
    "start": {
        "state": {
            "elbow_joint": 1.97154746011099,
            "shoulder_lift_joint": -1.13948474672311,
            "shoulder_pan_joint": 0.12281154466712228,
            "wrist_1_joint": -0.7804688027058302,
            "wrist_2_joint": 0.12958655903071145,
            "wrist_3_joint": 3.0906928834467795
        }
    },
    "waypoints": [
        {
            "positions": [
                0.12281154466712228,
                -1.13948474672311,
                1.97154746011099,
                -0.7804688027058302,
                0.12958655903071145,
                3.0906928834467795
            ]
        },
        {
            "positions": [
                0.05682713090985056,
                -1.1731289631824813,
                2.0361863266942684,
                -0.8161736672435841,
                0.28698097958490953,
                3.105489049157384
            ]
        },
        {
            "positions": [
                -0.009157282847421164,
                -1.2067731796418526,
                2.100825193277547,
                -0.8518785317813379,
                0.4443754001391076,
                3.120285214867988
            ]
        },
        {
            "positions": [
                -0.0751416966046929,
                -1.240417396101224,
                2.1654640598608252,
                -0.8875833963190918,
                0.6017698206933058,
                3.135081380578592
            ]
        },
        {
            "positions": [
                -0.1411261103619646,
                -1.2740616125605952,
                2.2301029264441032,
                -0.9232882608568456,
                0.7591642412475038,
                3.1498775462891966
            ]
        },
        {
            "positions": [
                -0.20711052411923636,
                -1.3077058290199666,
                2.2947417930273817,
                -0.9589931253945995,
                0.916558661801702,
                3.164673711999801
            ]
        },
        {
            "positions": [
                -0.27309493787650807,
                -1.341350045479338,
                2.35938065961066,
                -0.9946979899323533,
                1.0739530823559,
                3.179469877710405
            ]
        },
        {
            "positions": [
                -0.33907935163377984,
                -1.3749942619387092,
                2.4240195261939386,
                -1.0304028544701072,
                1.2313475029100982,
                3.1942660434210093
            ]
        }
    ]
}{
    "goal": {
        "global_pose": {
            "orientation": {
                "w": 0.5084816217422485,
                "x": -0.49083608388900757,
                "y": 0.5182115435600281,
                "z": -0.4816462993621826
            },
            "position": {
                "x": 0.5540239810943604,
                "y": 0.030875300988554955,
                "z": 0.16403168439865112
            }
        },
        "name": "move_to_storage_A"
    },
    "id": "LBTRRT_move_to_storage_A_4",
    "joint_names": [
        "shoulder_pan_joint",
        "shoulder_lift_joint",
        "elbow_joint",
        "wrist_1_joint",
        "wrist_2_joint",
        "wrist_3_joint"
    ],
    "metrics": {
        "cart_traj_len": 0.3530284032130406,
        "distance_elbow_joint": 0.4496578713813566,
        "distance_shoulder_lift_joint": 0.23647312767544126,
        "distance_shoulder_pan_joint": 0.4605882418928787,
        "distance_wrist_1_joint": 0.2345477803059024,
        "distance_wrist_2_joint": 1.1046108781300408,
        "distance_wrist_3_joint": 0.09067399144572308,
        "smoothness": 0.0,
        "time": 5.002463535,
        "traj_len": 1.605164132053586,
        "weighted_distance": 2.0241191990983958
    },
    "planner": "LBTRRT",
    "start": {
        "state": {
            "elbow_joint": 1.9715472970024885,
            "shoulder_lift_joint": -1.1394870060712896,
            "shoulder_pan_joint": 0.12281152778156021,
            "wrist_1_joint": -0.780463741449964,
            "wrist_2_joint": 0.12958659822042276,
            "wrist_3_joint": 3.090690232415272
        }
    },
    "waypoints": [
        {
            "positions": [
                0.12281152778156021,
                -1.1394870060712896,
                1.9715472970024885,
                -0.780463741449964,
                0.12958659822042276,
                3.090690232415272
            ]
        },
        {
            "positions": [
                0.05701320751114897,
                -1.1732688814534955,
                2.035784135771254,
                -0.81397056720795,
                0.287388152239,
                3.103643659764661
            ]
        },
        {
            "positions": [
                -0.008785112759262276,
                -1.2070507568357014,
                2.100020974540019,
                -0.847477392965936,
                0.44518970625757726,
                3.11659708711405
            ]
        },
        {
            "positions": [
                -0.07458343302967352,
                -1.2408326322179073,
                2.1642578133087844,
                -0.8809842187239222,
                0.6029912602761545,
                3.129550514463439
            ]
        },
        {
            "positions": [
                -0.14038175330008476,
                -1.2746145076001132,
                2.2284946520775493,
                -0.9144910444819082,
                0.7607928142947317,
                3.1425039418128278
            ]
        },
        {
            "positions": [
                -0.20618007357049603,
                -1.308396382982319,
                2.2927314908463146,
                -0.9479978702398943,
                0.918594368313309,
                3.155457369162217
            ]
        },
        {
            "positions": [
                -0.2719783938409073,
                -1.342178258364525,
                2.35696832961508,
                -0.9815046959978804,
                1.0763959223318862,
                3.1684107965116057
            ]
        },
        {
            "positions": [
                -0.3377767141113185,
                -1.3759601337467309,
                2.421205168383845,
                -1.0150115217558664,
                1.2341974763504635,
                3.181364223860995
            ]
        }
    ]
}