{
    "goal": {
        "global_pose": {
            "orientation": {
                "w": 0.7031023502349854,
                "x": -0.7110244035720825,
                "y": 0.007748599164187908,
                "z": 0.005598929710686207
            },
            "position": {
                "x": 0.11585023208521307,
                "y": 0.44412534475326537,
                "z": 0.3711530566215515
            }
        },
        "name": "move_to_auspresseinheit_A"
    },
    "id": "LBTRRT_move_to_auspresseinheit_A_146",
    "joint_names": [
        "shoulder_pan_joint",
        "shoulder_lift_joint",
        "elbow_joint",
        "wrist_1_joint",
        "wrist_2_joint",
        "wrist_3_joint"
    ],
    "metrics": {
        "cart_traj_len": 0.6667530138678905,
        "distance_elbow_joint": 0.0495497657858226,
        "distance_shoulder_lift_joint": 0.5318944569054069,
        "distance_shoulder_pan_joint": 1.043533501115224,
        "distance_wrist_1_joint": 1.0625130725937775,
        "distance_wrist_2_joint": 0.5341342027085764,
        "distance_wrist_3_joint": 0.05484839723343704,
        "smoothness": 0.8409502452235138,
        "time": 5.016295609,
        "traj_len": 1.8101031452219083,
        "weighted_distance": 2.2322225395581583
    },
    "planner": "LBTRRT",
    "start": {
        "state": {
            "elbow_joint": 2.4225746658250005,
            "shoulder_lift_joint": -1.3736534386056498,
            "shoulder_pan_joint": -0.3378633547517467,
            "wrist_1_joint": -1.0288598680537169,
            "wrist_2_joint": 1.233022673432363,
            "wrist_3_joint": -3.0940220416140027
        }
    },
    "waypoints": [
        {
            "positions": [
                -0.3378633547517467,
                -1.3736534386056498,
                2.4225746658250005,
                -1.0288598680537169,
                1.233022673432363,
                -3.0940220416140027
            ]
        },
        {
            "positions": [
                -0.25890937485031323,
                -1.443052288123763,
                2.4167590386875593,
                -0.9126803626929982,
                1.1672165236885,
                -3.1016435976634136
            ]
        },
        {
            "positions": [
                -0.17995539494887972,
                -1.512451137641876,
                2.410943411550118,
                -0.7965008573322796,
                1.101410373944637,
                -3.109265153712825
            ]
        },
        {
            "positions": [
                -0.10100141504744622,
                -1.5818499871599894,
                2.405127784412677,
                -0.680321351971561,
                1.035604224200774,
                -3.1168867097622357
            ]
        },
        {
            "positions": [
                -0.022047435146012706,
                -1.6512488366781024,
                2.3993121572752356,
                -0.5641418466108423,
                0.9697980744569109,
                -3.1245082658116465
            ]
        },
        {
            "positions": [
                0.05690654475542084,
                -1.7206476861962157,
                2.3934965301377944,
                -0.4479623412501237,
                0.9039919247130479,
                -3.1321298218610574
            ]
        },
        {
            "positions": [
                0.13586052465685428,
                -1.7900465357143287,
                2.387680903000353,
                -0.33178283588940505,
                0.8381857749691848,
                -3.1397513779104687
            ]
        },
        {
            "positions": [
                0.21481450455828782,
                -1.859445385232442,
                2.381865275862912,
                -0.2156033305286864,
                0.7723796252253218,
                -3.1473729339598795
            ]
        },
        {
            "positions": [
                0.3784330518266843,
                -1.8748128886586468,
                2.3848120678041567,
                -0.29868884221826875,
                0.74788257372481,
                -3.146873765664026
            ]
        },
        {
            "positions": [
                0.5420515990950808,
                -1.890180392084852,
                2.3877588597454014,
                -0.3817743539078511,
                0.7233855222242984,
                -3.1463745973681725
            ]
        },
        {
            "positions": [
                0.7056701463634774,
                -1.9055478955110567,
                2.390705651686646,
                -0.4648598655974334,
                0.6988884707237867,
                -3.145875429072319
            ]
        }
    ]
}