{
    "goal": {
        "global_pose": {
            "orientation": {
                "w": -0.4816463035849501,
                "x": 0.5182115481033762,
                "y": 0.4908360881923453,
                "z": -0.5084816262002911
            },
            "position": {
                "x": -0.8240239810943604,
                "y": 0.19912469901144506,
                "z": 0.16403168439865112
            }
        },
        "name": "move_to_storage_D"
    },
    "id": "LBTRRT_move_to_storage_D_85",
    "joint_names": [
        "shoulder_pan_joint",
        "shoulder_lift_joint",
        "elbow_joint",
        "wrist_1_joint",
        "wrist_2_joint",
        "wrist_3_joint"
    ],
    "metrics": {
        "cart_traj_len": 3.627943951553379,
        "distance_elbow_joint": 4.208458255097625,
        "distance_shoulder_lift_joint": 1.264351483024938,
        "distance_shoulder_pan_joint": 2.8131493806558954,
        "distance_wrist_1_joint": 2.2624941167618924,
        "distance_wrist_2_joint": 0.880230535411575,
        "distance_wrist_3_joint": 3.1459316832556623,
        "smoothness": 4.099285033612797e-16,
        "time": 5.054374827,
        "traj_len": 3.817671470177546,
        "weighted_distance": 4.899918721049603
    },
    "planner": "LBTRRT",
    "start": {
        "state": {
            "elbow_joint": -2.384821988534728,
            "shoulder_lift_joint": -2.2788054721415256,
            "shoulder_pan_joint": -0.1854694642142757,
            "wrist_1_joint": 1.4845938289331202,
            "wrist_2_joint": 0.17898776772866878,
            "wrist_3_joint": 0.037105688729662994
        }
    },
    "waypoints": [
        {
            "positions": [
                -0.1854694642142757,
                -2.2788054721415256,
                -2.384821988534728,
                1.4845938289331202,
                0.17898776772866878,
                0.037105688729662994
            ]
        },
        {
            "positions": [
                -0.0910738273114668,
                -2.2478522364011004,
                -2.2418294914825987,
                1.4230883215916614,
                0.19708192780071895,
                -0.0003315335686389295
            ]
        },
        {
            "positions": [
                0.0033218095913420953,
                -2.2168990006606757,
                -2.0988369944304694,
                1.3615828142502029,
                0.2151760878727691,
                -0.037768755866940854
            ]
        },
        {
            "positions": [
                0.09771744649415096,
                -2.1859457649202505,
                -1.9558444973783402,
                1.3000773069087441,
                0.23327024794481926,
                -0.07520597816524278
            ]
        },
        {
            "positions": [
                0.1921130833969599,
                -2.1549925291798258,
                -1.812852000326211,
                1.2385717995672856,
                0.25136440801686943,
                -0.1126432004635447
            ]
        },
        {
            "positions": [
                0.2865087202997688,
                -2.1240392934394006,
                -1.6698595032740815,
                1.1770662922258268,
                0.2694585680889196,
                -0.15008042276184666
            ]
        },
        {
            "positions": [
                0.38090435720257765,
                -2.0930860576989754,
                -1.5268670062219523,
                1.1155607848843683,
                0.2875527281609698,
                -0.18751764506014856
            ]
        },
        {
            "positions": [
                0.4752999941053867,
                -2.0621328219585506,
                -1.3838745091698228,
                1.0540552775429095,
                0.30564688823301994,
                -0.22495486735845052
            ]
        },
        {
            "positions": [
                0.5696956310081955,
                -2.0311795862181254,
                -1.2408820121176938,
                0.9925497702014509,
                0.3237410483050701,
                -0.2623920896567524
            ]
        },
        {
            "positions": [
                0.6640912679110044,
                -2.0002263504777007,
                -1.0978895150655645,
                0.9310442628599922,
                0.3418352083771202,
                -0.29982931195505436
            ]
        },
        {
            "positions": [
                0.7584869048138133,
                -1.9692731147372755,
                -0.9548970180134351,
                0.8695387555185334,
                0.35992936844917045,
                -0.3372665342533563
            ]
        },
        {
            "positions": [
                0.8528825417166223,
                -1.9383198789968505,
                -0.8119045209613058,
                0.8080332481770749,
                0.37802352852122056,
                -0.3747037565516582
            ]
        },
        {
            "positions": [
                0.947278178619431,
                -1.9073666432564256,
                -0.6689120239091766,
                0.7465277408356162,
                0.39611768859327073,
                -0.41214097884996015
            ]
        },
        {
            "positions": [
                1.04167381552224,
                -1.8764134075160004,
                -0.5259195268570473,
                0.6850222334941575,
                0.4142118486653209,
                -0.4495782011482621
            ]
        },
        {
            "positions": [
                1.136069452425049,
                -1.8454601717755754,
                -0.38292702980491766,
                0.6235167261526988,
                0.43230600873737113,
                -0.487015423446564
            ]
        },
        {
            "positions": [
                1.2304650893278577,
                -1.8145069360351505,
                -0.23993453275278886,
                0.5620112188112403,
                0.45040016880942124,
                -0.5244526457448658
            ]
        },
        {
            "positions": [
                1.3248607262306666,
                -1.7835537002947255,
                -0.09694203570065962,
                0.5005057114697815,
                0.46849432888147136,
                -0.5618898680431678
            ]
        },
        {
            "positions": [
                1.4192563631334756,
                -1.7526004645543005,
                0.04605046135147006,
                0.43900020412832275,
                0.4865884889535216,
                -0.5993270903414698
            ]
        },
        {
            "positions": [
                1.5136520000362843,
                -1.7216472288138753,
                0.18904295840359886,
                0.3774946967868642,
                0.5046826490255717,
                -0.6367643126397716
            ]
        },
        {
            "positions": [
                1.6080476369390933,
                -1.6906939930734504,
                0.33203545545572855,
                0.31598918944540544,
                0.5227768090976219,
                -0.6742015349380736
            ]
        },
        {
            "positions": [
                1.7024432738419022,
                -1.6597407573330254,
                0.4750279525078578,
                0.2544836821039467,
                0.540870969169672,
                -0.7116387572363756
            ]
        },
        {
            "positions": [
                1.796838910744711,
                -1.6287875215926004,
                0.6180204495599866,
                0.19297817476248813,
                0.5589651292417221,
                -0.7490759795346774
            ]
        },
        {
            "positions": [
                1.89123454764752,
                -1.5978342858521755,
                0.7610129466121163,
                0.1314726674210296,
                0.5770592893137724,
                -0.7865132018329793
            ]
        },
        {
            "positions": [
                1.9856301845503288,
                -1.5668810501117503,
                0.9040054436642455,
                0.06996716007957082,
                0.5951534493858226,
                -0.8239504241312813
            ]
        },
        {
            "positions": [
                2.0800258214531375,
                -1.5359278143713255,
                1.0469979407163748,
                0.00846165273811228,
                0.6132476094578727,
                -0.8613876464295832
            ]
        },
        {
            "positions": [
                2.1744214583559467,
                -1.5049745786309003,
                1.189990437768504,
                -0.05304385460334654,
                0.6313417695299228,
                -0.8988248687278851
            ]
        },
        {
            "positions": [
                2.209287493593306,
                -1.4672422255913378,
                1.2387324245988418,
                -0.10880204177453315,
                0.6642553490384091,
                -1.06882495532774
            ]
        },
        {
            "positions": [
                2.2441535288306658,
                -1.4295098725517752,
                1.2874744114291796,
                -0.16456022894571976,
                0.6971689285468953,
                -1.238825041927595
            ]
        },
        {
            "positions": [
                2.279019564068025,
                -1.3917775195122128,
                1.3362163982595174,
                -0.2203184161169064,
                0.7300825080553816,
                -1.40882512852745
            ]
        },
        {
            "positions": [
                2.313885599305385,
                -1.3540451664726503,
                1.384958385089855,
                -0.276076603288093,
                0.7629960875638677,
                -1.578825215127305
            ]
        },
        {
            "positions": [
                2.348751634542744,
                -1.3163128134330877,
                1.4337003719201928,
                -0.3318347904592796,
                0.795909667072354,
                -1.7488253017271598
            ]
        },
        {
            "positions": [
                2.3836176697801035,
                -1.2785804603935251,
                1.4824423587505307,
                -0.38759297763046624,
                0.8288232465808402,
                -1.918825388327015
            ]
        },
        {
            "positions": [
                2.4184837050174632,
                -1.2408481073539628,
                1.5311843455808685,
                -0.44335116480165276,
                0.8617368260893264,
                -2.0888254749268698
            ]
        },
        {
            "positions": [
                2.4533497402548226,
                -1.2031157543144002,
                1.5799263324112063,
                -0.49910935197283945,
                0.8946504055978126,
                -2.2588255615267245
            ]
        },
        {
            "positions": [
                2.488215775492182,
                -1.1653834012748376,
                1.628668319241544,
                -0.5548675391440261,
                0.9275639851062989,
                -2.4288256481265798
            ]
        },
        {
            "positions": [
                2.5230818107295416,
                -1.127651048235275,
                1.6774103060718817,
                -0.6106257263152126,
                0.9604775646147852,
                -2.5988257347264345
            ]
        },
        {
            "positions": [
                2.557947845966901,
                -1.0899186951957125,
                1.7261522929022197,
                -0.6663839134863991,
                0.9933911441232713,
                -2.7688258213262893
            ]
        },
        {
            "positions": [
                2.5928138812042607,
                -1.0521863421561501,
                1.7748942797325573,
                -0.7221421006575859,
                1.0263047236317575,
                -2.9388259079261445
            ]
        },
        {
            "positions": [
                2.62767991644162,
                -1.0144539891165876,
                1.8236362665628951,
                -0.7779002878287725,
                1.0592183031402438,
                -3.1088259945259993
            ]
        }
    ]
}