{
    "goal": {
        "global_pose": {
            "orientation": {
                "w": -0.4816463035849501,
                "x": 0.5182115481033762,
                "y": 0.4908360881923453,
                "z": -0.5084816262002911
            },
            "position": {
                "x": -0.8240239810943604,
                "y": -0.300875300988555,
                "z": 0.16403168439865112
            }
        },
        "name": "move_to_storage_C"
    },
    "id": "LBTRRT_move_to_storage_C_34",
    "joint_names": [
        "shoulder_pan_joint",
        "shoulder_lift_joint",
        "elbow_joint",
        "wrist_1_joint",
        "wrist_2_joint",
        "wrist_3_joint"
    ],
    "metrics": {
        "cart_traj_len": 0.5764176808092508,
        "distance_elbow_joint": 0.25941657684415786,
        "distance_shoulder_lift_joint": 0.18814412908610267,
        "distance_shoulder_pan_joint": 0.49529951904561154,
        "distance_wrist_1_joint": 0.08602573947880521,
        "distance_wrist_2_joint": 1.0621091027131873,
        "distance_wrist_3_joint": 0.06525711893463448,
        "smoothness": 2.5376526478085547e-16,
        "time": 5.003811065000001,
        "traj_len": 1.4684182599322644,
        "weighted_distance": 1.8533486628704703
    },
    "planner": "LBTRRT",
    "start": {
        "state": {
            "elbow_joint": 2.010868314990456,
            "shoulder_lift_joint": -1.1634956873337592,
            "shoulder_pan_joint": -2.4736205022346125,
            "wrist_1_joint": -0.8367026794202681,
            "wrist_2_joint": 0.6746043897044499,
            "wrist_3_joint": -3.1496632123970403
        }
    },
    "waypoints": [
        {
            "positions": [
                -2.4736205022346125,
                -1.1634956873337592,
                2.010868314990456,
                -0.8367026794202681,
                0.6746043897044499,
                -3.1496632123970403
            ]
        },
        {
            "positions": [
                -2.5561704220755477,
                -1.1321383324860754,
                1.9676322188497628,
                -0.8223650561738005,
                0.8516225734899812,
                -3.1387870259079347
            ]
        },
        {
            "positions": [
                -2.638720341916483,
                -1.1007809776383917,
                1.9243961227090698,
                -0.808027432927333,
                1.0286407572755123,
                -3.1279108394188286
            ]
        },
        {
            "positions": [
                -2.721270261757418,
                -1.069423622790708,
                1.8811600265683768,
                -0.7936898096808656,
                1.2056589410610434,
                -3.117034652929723
            ]
        },
        {
            "positions": [
                -2.8038201815983537,
                -1.0380662679430241,
                1.837923930427684,
                -0.779352186434398,
                1.3826771248465746,
                -3.1061584664406174
            ]
        },
        {
            "positions": [
                -2.886370101439289,
                -1.0067089130953404,
                1.794687834286991,
                -0.7650145631879304,
                1.5596953086321061,
                -3.0952822799515114
            ]
        },
        {
            "positions": [
                -2.968920021280224,
                -0.9753515582476565,
                1.751451738146298,
                -0.7506769399414629,
                1.736713492417637,
                -3.084406093462406
            ]
        }
    ]
}