{
    "goal": {
        "global_pose": {
            "orientation": {
                "w": -0.00223480608172531,
                "x": 0.0024358444001904467,
                "y": 0.7094548369677653,
                "z": -0.704743149386269
            },
            "position": {
                "x": -0.37947507619857795,
                "y": -0.6371506643295288,
                "z": 0.19426114857196808
            }
        },
        "name": "move_to_magneteinheit_C"
    },
    "id": "LBTRRT_move_to_magneteinheit_C_11",
    "joint_names": [
        "shoulder_pan_joint",
        "shoulder_lift_joint",
        "elbow_joint",
        "wrist_1_joint",
        "wrist_2_joint",
        "wrist_3_joint"
    ],
    "metrics": {
        "cart_traj_len": 1.2094631406144267,
        "distance_elbow_joint": 0.7125276102908198,
        "distance_shoulder_lift_joint": 0.6514387748577423,
        "distance_shoulder_pan_joint": 1.2140970219601603,
        "distance_wrist_1_joint": 2.7535016424568726,
        "distance_wrist_2_joint": 2.2692369462944058,
        "distance_wrist_3_joint": 3.100742736120215,
        "smoothness": 0.5336825462858038,
        "time": 5.05839208,
        "traj_len": 3.271321557410738,
        "weighted_distance": 4.682496000315636
    },
    "planner": "LBTRRT",
    "start": {
        "state": {
            "elbow_joint": 1.9565354010623817,
            "shoulder_lift_joint": -1.4165861575791021,
            "shoulder_pan_joint": -1.6717766225146293,
            "wrist_1_joint": -0.5286633292919765,
            "wrist_2_joint": 1.472756589071564,
            "wrist_3_joint": -3.1238370188695823
        }
    },
    "waypoints": [
        {
            "positions": [
                -1.6717766225146293,
                -1.4165861575791021,
                1.9565354010623817,
                -0.5286633292919765,
                1.472756589071564,
                -3.1238370188695823
            ]
        },
        {
            "positions": [
                -1.659033391827168,
                -1.4212782258080856,
                1.9511672125259536,
                -0.5443735748727101,
                1.3788305425680956,
                -3.0404385820159563
            ]
        },
        {
            "positions": [
                -1.646290161139707,
                -1.4259702940370689,
                1.9457990239895258,
                -0.5600838204534436,
                1.2849044960646272,
                -2.9570401451623303
            ]
        },
        {
            "positions": [
                -1.664127938339512,
                -1.4271047892217121,
                1.9271098978126704,
                -0.5299989861814447,
                1.1501570578920681,
                -2.8267122000454115
            ]
        },
        {
            "positions": [
                -1.6819657155393173,
                -1.4282392844063552,
                1.9084207716358148,
                -0.4999141519094458,
                1.0154096197195093,
                -2.696384254928493
            ]
        },
        {
            "positions": [
                -1.6998034927391223,
                -1.4293737795909984,
                1.8897316454589594,
                -0.46982931763744695,
                0.8806621815469502,
                -2.5660563098115743
            ]
        },
        {
            "positions": [
                -1.750050036115509,
                -1.413006207240016,
                1.8756152223437483,
                -0.361945526529982,
                0.7975331365488589,
                -2.4543404819444166
            ]
        },
        {
            "positions": [
                -1.8002965794918953,
                -1.3966386348890336,
                1.8614987992285372,
                -0.25406173542251703,
                0.7144040915507676,
                -2.3426246540772593
            ]
        },
        {
            "positions": [
                -1.8505431228682818,
                -1.3802710625380512,
                1.8473823761133261,
                -0.14617794431505204,
                0.6312750465526763,
                -2.2309088262101016
            ]
        },
        {
            "positions": [
                -1.9007896662446682,
                -1.363903490187069,
                1.833265952998115,
                -0.03829415320758711,
                0.5481460015545849,
                -2.1191929983429443
            ]
        },
        {
            "positions": [
                -1.9510362096210547,
                -1.3475359178360866,
                1.819149529882904,
                0.06958963789987793,
                0.4650169565564936,
                -2.0074771704757866
            ]
        },
        {
            "positions": [
                -2.001282752997441,
                -1.3311683454851042,
                1.8050331067676928,
                0.17747342900734286,
                0.38188791155840235,
                -1.8957613426086293
            ]
        },
        {
            "positions": [
                -2.0515292963738276,
                -1.3148007731341218,
                1.7909166836524817,
                0.2853572201148078,
                0.29875886656031103,
                -1.7840455147414715
            ]
        },
        {
            "positions": [
                -2.101775839750214,
                -1.2984332007831394,
                1.7768002605372706,
                0.39324101122227273,
                0.21562982156221977,
                -1.6723296868743143
            ]
        },
        {
            "positions": [
                -2.1520223831266008,
                -1.2820656284321572,
                1.7626838374220595,
                0.5011248023297378,
                0.1325007765641284,
                -1.5606138590071565
            ]
        },
        {
            "positions": [
                -2.2022689265029873,
                -1.2656980560811748,
                1.7485674143068484,
                0.6090085934372028,
                0.049371731566037025,
                -1.448898031139999
            ]
        },
        {
            "positions": [
                -2.2525154698793735,
                -1.2493304837301924,
                1.7344509911916373,
                0.7168923845446679,
                -0.03375731343205435,
                -1.3371822032728413
            ]
        },
        {
            "positions": [
                -2.30276201325576,
                -1.23296291137921,
                1.7203345680764262,
                0.8247761756521327,
                -0.1168863584301455,
                -1.225466375405684
            ]
        },
        {
            "positions": [
                -2.3530085566321466,
                -1.2165953390282276,
                1.706218144961215,
                0.9326599667595977,
                -0.20001540342823687,
                -1.1137505475385265
            ]
        },
        {
            "positions": [
                -2.403255100008533,
                -1.2002277666772452,
                1.692101721846004,
                1.0405437578670624,
                -0.28314444842632813,
                -1.0020347196713688
            ]
        },
        {
            "positions": [
                -2.4535016433849197,
                -1.1838601943262628,
                1.6779852987307928,
                1.1484275489745275,
                -0.3662734934244196,
                -0.8903188918042113
            ]
        },
        {
            "positions": [
                -2.503748186761306,
                -1.1674926219752806,
                1.6638688756155817,
                1.2563113400819925,
                -0.44940253842251066,
                -0.778603063937054
            ]
        },
        {
            "positions": [
                -2.5539947301376924,
                -1.1511250496242982,
                1.6497524525003706,
                1.3641951311894576,
                -0.5325315834206021,
                -0.6668872360698963
            ]
        },
        {
            "positions": [
                -2.604241273514079,
                -1.1347574772733158,
                1.6356360293851595,
                1.4720789222969224,
                -0.6156606284186934,
                -0.555171408202739
            ]
        },
        {
            "positions": [
                -2.6131119096465794,
                -1.11950088269908,
                1.6502334281121445,
                1.5166814292200486,
                -0.605108309302489,
                -0.5373170855901239
            ]
        },
        {
            "positions": [
                -2.6215002537034433,
                -1.066097907509733,
                1.7241755389737483,
                1.621941608264108,
                -0.5940923995295799,
                -0.4496312318898741
            ]
        },
        {
            "positions": [
                -2.6298885977603073,
                -1.012694932320386,
                1.7981176498353522,
                1.7272017873081675,
                -0.5830764897566708,
                -0.36194537818962425
            ]
        },
        {
            "positions": [
                -2.6382769418171717,
                -0.959291957131039,
                1.8720597606969558,
                1.832461966352227,
                -0.5720605799837617,
                -0.27425952448937446
            ]
        },
        {
            "positions": [
                -2.6466652858740356,
                -0.9058889819416919,
                1.9460018715585596,
                1.9377221453962865,
                -0.5610446702108526,
                -0.18657367078912462
            ]
        },
        {
            "positions": [
                -2.6550536299308996,
                -0.8524860067523449,
                2.0199439824201635,
                2.042982324440346,
                -0.5500287604379435,
                -0.09888781708887485
            ]
        },
        {
            "positions": [
                -2.5651300840338767,
                -0.8216043167487487,
                2.0236041252094603,
                1.983474821239538,
                -0.6076226908496428,
                -0.06099104991912048
            ]
        },
        {
            "positions": [
                -2.475206538136854,
                -0.7907226267451525,
                2.027264267998757,
                1.9239673180387302,
                -0.6652166212613422,
                -0.0230942827493661
            ]
        }
    ]
}