{
    "goal": {
        "global_pose": {
            "orientation": {
                "w": 0.7031023502349854,
                "x": -0.7110244035720825,
                "y": 0.007748599164187908,
                "z": 0.005598929710686207
            },
            "position": {
                "x": 0.11585023208521307,
                "y": 0.44412534475326537,
                "z": 0.3711530566215515
            }
        },
        "name": "move_to_auspresseinheit_A"
    },
    "id": "LBTRRT_move_to_auspresseinheit_A_7",
    "joint_names": [
        "shoulder_pan_joint",
        "shoulder_lift_joint",
        "elbow_joint",
        "wrist_1_joint",
        "wrist_2_joint",
        "wrist_3_joint"
    ],
    "metrics": {
        "cart_traj_len": 0.6856358757386072,
        "distance_elbow_joint": 0.13086886787848995,
        "distance_shoulder_lift_joint": 0.5305275592819727,
        "distance_shoulder_pan_joint": 1.0469413361395317,
        "distance_wrist_1_joint": 0.5761129338287545,
        "distance_wrist_2_joint": 0.5166526410909414,
        "distance_wrist_3_joint": 0.1156140912171768,
        "smoothness": 0.1437438443680609,
        "time": 5.023808101,
        "traj_len": 1.707839989412611,
        "weighted_distance": 2.0592987123753845
    },
    "planner": "LBTRRT",
    "start": {
        "state": {
            "elbow_joint": 2.4225746658250005,
            "shoulder_lift_joint": -1.3736534386056498,
            "shoulder_pan_joint": -0.3378633547517467,
            "wrist_1_joint": -1.0288598680537169,
            "wrist_2_joint": 1.233022673432363,
            "wrist_3_joint": -3.0940220416140027
        }
    },
    "waypoints": [
        {
            "positions": [
                -0.3378633547517467,
                -1.3736534386056498,
                2.4225746658250005,
                -1.0288598680537169,
                1.233022673432363,
                -3.0940220416140027
            ]
        },
        {
            "positions": [
                -0.16384550284969795,
                -1.4511503777912504,
                2.4322655035733205,
                -0.9544577163464921,
                1.185592882289804,
                -3.088422935962676
            ]
        },
        {
            "positions": [
                0.010172349052350815,
                -1.5286473169768509,
                2.4419563413216405,
                -0.8800555646392674,
                1.138163091147245,
                -3.0828238303113493
            ]
        },
        {
            "positions": [
                0.18419020095439959,
                -1.6061442561624515,
                2.45164717906996,
                -0.8056534129320425,
                1.090733300004686,
                -3.0772247246600224
            ]
        },
        {
            "positions": [
                0.35820805285644836,
                -1.6836411953480521,
                2.46133801681828,
                -0.7312512612248178,
                1.0433035088621267,
                -3.071625619008696
            ]
        },
        {
            "positions": [
                0.5322259047584972,
                -1.7611381345336525,
                2.4710288545666,
                -0.656849109517593,
                0.9958737177195678,
                -3.066026513357369
            ]
        },
        {
            "positions": [
                0.6019375162427423,
                -1.8211450785885677,
                2.4406582276783197,
                -0.5831076381381342,
                0.8814789970163691,
                -3.091005397231527
            ]
        },
        {
            "positions": [
                0.6716491277269874,
                -1.881152022643483,
                2.4102876007900393,
                -0.5093661667586754,
                0.7670842763131704,
                -3.115984281105684
            ]
        },
        {
            "positions": [
                0.7090779813877851,
                -1.9041809978876225,
                2.38861417542971,
                -0.45274693422496237,
                0.7163700323414216,
                -3.153645076317912
            ]
        }
    ]
}