{
    "goal": {
        "global_pose": {
            "orientation": {
                "w": 0.7047431493862688,
                "x": -0.7094548369677653,
                "y": 0.0024358444001904,
                "z": -0.0022348060817251984
            },
            "position": {
                "x": -0.39052492380142206,
                "y": 0.3671506643295288,
                "z": 0.19426114857196808
            }
        },
        "name": "move_to_magneteinheit_D"
    },
    "id": "LBTRRT_move_to_magneteinheit_D_109",
    "joint_names": [
        "shoulder_pan_joint",
        "shoulder_lift_joint",
        "elbow_joint",
        "wrist_1_joint",
        "wrist_2_joint",
        "wrist_3_joint"
    ],
    "metrics": {
        "cart_traj_len": 5.404994446313555,
        "distance_elbow_joint": 3.5674771189457317,
        "distance_shoulder_lift_joint": 1.839522100401857,
        "distance_shoulder_pan_joint": 4.17935893422901,
        "distance_wrist_1_joint": 2.4484380082698665,
        "distance_wrist_2_joint": 1.3410183022268225,
        "distance_wrist_3_joint": 3.678832770329081,
        "smoothness": 0.8725785692869611,
        "time": 5.068555657999999,
        "traj_len": 4.1297272590816885,
        "weighted_distance": 5.310533785370094
    },
    "planner": "LBTRRT",
    "start": {
        "state": {
            "elbow_joint": 0.749534889911806,
            "shoulder_lift_joint": -0.6476975780787326,
            "shoulder_pan_joint": -2.711696901376241,
            "wrist_1_joint": -0.07506478083263063,
            "wrist_2_joint": 0.43296659715538205,
            "wrist_3_joint": -3.14703540197715
        }
    },
    "waypoints": [
        {
            "positions": [
                -2.711696901376241,
                -0.6476975780787326,
                0.749534889911806,
                -0.07506478083263063,
                0.43296659715538205,
                -3.14703540197715
            ]
        },
        {
            "positions": [
                -2.764385328611169,
                -0.6518236301380802,
                0.7926656269465338,
                -0.15945996273076246,
                0.5417531136937718,
                -3.1947444802211087
            ]
        },
        {
            "positions": [
                -2.8170737558460965,
                -0.6559496821974277,
                0.8357963639812616,
                -0.24385514462889427,
                0.6505396302321615,
                -3.2424535584650673
            ]
        },
        {
            "positions": [
                -2.8697621830810247,
                -0.6600757342567752,
                0.8789271010159894,
                -0.32825032652702607,
                0.7593261467705512,
                -3.2901626367090264
            ]
        },
        {
            "positions": [
                -2.9224506103159524,
                -0.6642017863161227,
                0.9220578380507172,
                -0.4126455084251579,
                0.8681126633089409,
                -3.337871714952985
            ]
        },
        {
            "positions": [
                -2.97513903755088,
                -0.6683278383754703,
                0.965188575085445,
                -0.4970406903232897,
                0.9768991798473305,
                -3.3855807931969437
            ]
        },
        {
            "positions": [
                -2.9259112628724955,
                -0.6953726187519412,
                0.8744770379228418,
                -0.414345510164811,
                0.9371373701972483,
                -3.2986116888157238
            ]
        },
        {
            "positions": [
                -2.876683488194111,
                -0.7224173991284121,
                0.7837655007602387,
                -0.33165033000633237,
                0.897375560547166,
                -3.2116425844345033
            ]
        },
        {
            "positions": [
                -2.8274557135157257,
                -0.749462179504883,
                0.6930539635976356,
                -0.2489551498478537,
                0.8576137508970839,
                -3.1246734800532834
            ]
        },
        {
            "positions": [
                -2.778227938837341,
                -0.7765069598813539,
                0.6023424264350323,
                -0.166259969689375,
                0.8178519412470017,
                -3.037704375672063
            ]
        },
        {
            "positions": [
                -2.7290001641589563,
                -0.8035517402578248,
                0.5116308892724293,
                -0.08356478953089636,
                0.7780901315969194,
                -2.950735271290843
            ]
        },
        {
            "positions": [
                -2.6797723894805716,
                -0.8305965206342958,
                0.4209193521098261,
                -0.0008696093724177012,
                0.7383283219468372,
                -2.863766166909623
            ]
        },
        {
            "positions": [
                -2.630544614802187,
                -0.8576413010107666,
                0.33020781494722307,
                0.0818255707860609,
                0.698566512296755,
                -2.7767970625284026
            ]
        },
        {
            "positions": [
                -2.581316840123802,
                -0.8846860813872376,
                0.2394962777846198,
                0.16452075094453966,
                0.6588047026466728,
                -2.6898279581471827
            ]
        },
        {
            "positions": [
                -2.532089065445417,
                -0.9117308617637085,
                0.14878474062201674,
                0.24721593110301832,
                0.6190428929965905,
                -2.6028588537659623
            ]
        },
        {
            "positions": [
                -2.4828612907670324,
                -0.9387756421401794,
                0.05807320345941361,
                0.32991111126149697,
                0.5792810833465083,
                -2.5158897493847423
            ]
        },
        {
            "positions": [
                -2.3684758928033642,
                -0.9965279100978037,
                -0.013224356255989694,
                0.3767684684296176,
                0.5671971041025984,
                -2.4243695967862045
            ]
        },
        {
            "positions": [
                -2.254090494839696,
                -1.054280178055428,
                -0.084521915971393,
                0.4236258255977382,
                0.5551131248586885,
                -2.332849444187667
            ]
        },
        {
            "positions": [
                -2.139705096876028,
                -1.1120324460130524,
                -0.1558194756867963,
                0.4704831827658589,
                0.5430291456147786,
                -2.241329291589129
            ]
        },
        {
            "positions": [
                -2.0253196989123596,
                -1.169784713970677,
                -0.2271170354021996,
                0.5173405399339794,
                0.5309451663708686,
                -2.149809138990592
            ]
        },
        {
            "positions": [
                -1.910934300948691,
                -1.2275369819283013,
                -0.29841459511760293,
                0.5641978971021001,
                0.5188611871269586,
                -2.058288986392054
            ]
        },
        {
            "positions": [
                -1.7965489029850228,
                -1.2852892498859256,
                -0.36971215483300623,
                0.6110552542702208,
                0.5067772078830487,
                -1.9667688337935165
            ]
        },
        {
            "positions": [
                -1.6821635050213546,
                -1.34304151784355,
                -0.44100971454840954,
                0.6579126114383415,
                0.4946932286391388,
                -1.8752486811949787
            ]
        },
        {
            "positions": [
                -1.5677781070576864,
                -1.4007937858011743,
                -0.5123072742638128,
                0.704769968606462,
                0.48260924939522887,
                -1.7837285285964413
            ]
        },
        {
            "positions": [
                -1.4533927090940182,
                -1.4585460537587989,
                -0.5836048339792161,
                0.7516273257745827,
                0.47052527015131895,
                -1.6922083759979036
            ]
        },
        {
            "positions": [
                -1.3390073111303498,
                -1.5162983217164232,
                -0.6549023936946194,
                0.7984846829427032,
                0.45844129090740904,
                -1.600688223399366
            ]
        },
        {
            "positions": [
                -1.2246219131666816,
                -1.5740505896740475,
                -0.7261999534100227,
                0.8453420401108239,
                0.4463573116634991,
                -1.5091680708008284
            ]
        },
        {
            "positions": [
                -1.1102365152030134,
                -1.6318028576316719,
                -0.797497513125426,
                0.8921993972789445,
                0.43427333241958915,
                -1.4176479182022907
            ]
        },
        {
            "positions": [
                -0.9958511172393452,
                -1.6895551255892962,
                -0.8687950728408294,
                0.9390567544470653,
                0.42218935317567924,
                -1.326127765603753
            ]
        },
        {
            "positions": [
                -0.8814657192756767,
                -1.7473073935469206,
                -0.9400926325562328,
                0.9859141116151859,
                0.41010537393176927,
                -1.2346076130052153
            ]
        },
        {
            "positions": [
                -0.7670803213120088,
                -1.8050596615045449,
                -1.011390192271636,
                1.0327714687833063,
                0.39802139468785935,
                -1.1430874604066779
            ]
        },
        {
            "positions": [
                -0.6526949233483403,
                -1.8628119294621692,
                -1.0826877519870393,
                1.079628825951427,
                0.38593741544394944,
                -1.05156730780814
            ]
        },
        {
            "positions": [
                -0.5383095253846719,
                -1.9205641974197938,
                -1.1539853117024426,
                1.1264861831195478,
                0.3738534362000395,
                -0.9600471552096024
            ]
        },
        {
            "positions": [
                -0.42392412742100394,
                -1.9783164653774181,
                -1.2252828714178459,
                1.1733435402876684,
                0.3617694569561296,
                -0.868527002611065
            ]
        },
        {
            "positions": [
                -0.30953872945733574,
                -2.0360687333350427,
                -1.2965804311332492,
                1.220200897455789,
                0.3496854777122197,
                -0.7770068500125271
            ]
        },
        {
            "positions": [
                -0.1951533314936671,
                -2.0938210012926666,
                -1.3678779908486525,
                1.2670582546239095,
                0.3376014984683097,
                -0.6854866974139895
            ]
        },
        {
            "positions": [
                -0.08076793352999934,
                -2.1515732692502914,
                -1.4391755505640558,
                1.31391561179203,
                0.3255175192243998,
                -0.5939665448154519
            ]
        },
        {
            "positions": [
                0.03361746443366931,
                -2.2093255372079157,
                -1.510473110279459,
                1.3607729689601509,
                0.3134335399804899,
                -0.5024463922169145
            ]
        },
        {
            "positions": [
                0.1480028623973375,
                -2.26707780516554,
                -1.5817706699948624,
                1.4076303261282717,
                0.3013495607365799,
                -0.4109262396183766
            ]
        },
        {
            "positions": [
                0.2623882603610057,
                -2.3248300731231644,
                -1.6530682297102657,
                1.454487683296392,
                0.28926558149267,
                -0.3194060870198392
            ]
        },
        {
            "positions": [
                0.3767736583246738,
                -2.3825823410807887,
                -1.724365789425669,
                1.5013450404645128,
                0.2771816022487601,
                -0.22788593442130134
            ]
        },
        {
            "positions": [
                0.2639728378889104,
                -2.3616548736008287,
                -1.8568196032778648,
                1.4957297668662317,
                0.25770797386149985,
                -0.17136743035457255
            ]
        },
        {
            "positions": [
                0.151172017453147,
                -2.3407274061208683,
                -1.9892734171300606,
                1.4901144932679509,
                0.2382343454742396,
                -0.11484892628784375
            ]
        },
        {
            "positions": [
                0.038371197017383674,
                -2.3197999386409083,
                -2.1217272309822564,
                1.4844992196696698,
                0.21876071708697936,
                -0.05833042222111498
            ]
        },
        {
            "positions": [
                -0.07442962341837978,
                -2.298872471160948,
                -2.254181044834452,
                1.478883946071389,
                0.1992870886997191,
                -0.0018119181543861662
            ]
        },
        {
            "positions": [
                -0.18723044385414317,
                -2.277945003680988,
                -2.386634858686648,
                1.4732686724731079,
                0.17981346031245884,
                0.054706585912342606
            ]
        }
    ]
}