{
    "goal": {
        "global_pose": {
            "orientation": {
                "w": 0.5084816217422485,
                "x": -0.49083608388900757,
                "y": 0.5182115435600281,
                "z": -0.4816462993621826
            },
            "position": {
                "x": 0.5540239810943604,
                "y": 0.030875300988554955,
                "z": 0.16403168439865112
            }
        },
        "name": "move_to_storage_A"
    },
    "id": "LBTRRT_move_to_storage_A_29",
    "joint_names": [
        "shoulder_pan_joint",
        "shoulder_lift_joint",
        "elbow_joint",
        "wrist_1_joint",
        "wrist_2_joint",
        "wrist_3_joint"
    ],
    "metrics": {
        "cart_traj_len": 0.35238844686924936,
        "distance_elbow_joint": 0.4500600380755977,
        "distance_shoulder_lift_joint": 0.2335067562235449,
        "distance_shoulder_pan_joint": 0.46034978229451823,
        "distance_wrist_1_joint": 0.24365213641818484,
        "distance_wrist_2_joint": 1.099118338802375,
        "distance_wrist_3_joint": 0.10499773265632806,
        "smoothness": 2.2204460668324854e-16,
        "time": 5.003844642,
        "traj_len": 1.609871045913476,
        "weighted_distance": 2.035792407148569
    },
    "planner": "LBTRRT",
    "start": {
        "state": {
            "elbow_joint": 1.971548259319323,
            "shoulder_lift_joint": -1.1394851275133948,
            "shoulder_pan_joint": 0.1228115487234821,
            "wrist_1_joint": -0.7804723859257726,
            "wrist_2_joint": 0.12958671773740124,
            "wrist_3_joint": -3.192489227718131
        }
    },
    "waypoints": [
        {
            "positions": [
                0.1228115487234821,
                -1.1394851275133948,
                1.971548259319323,
                -0.7804723859257726,
                0.12958671773740124,
                -3.192489227718131
            ]
        },
        {
            "positions": [
                0.057047294109979496,
                -1.1728432355453298,
                2.03584255047298,
                -0.8152798339855133,
                0.2866036232805977,
                -3.17748955162437
            ]
        },
        {
            "positions": [
                -0.008716960503523108,
                -1.2062013435772647,
                2.100136841626637,
                -0.850087282045254,
                0.4436205288237941,
                -3.162489875530609
            ]
        },
        {
            "positions": [
                -0.07448121511702571,
                -1.2395594516091997,
                2.1644311327802934,
                -0.8848947301049946,
                0.6006374343669906,
                -3.147490199436848
            ]
        },
        {
            "positions": [
                -0.14024546973052832,
                -1.2729175596411348,
                2.22872542393395,
                -0.9197021781647354,
                0.757654339910187,
                -3.1324905233430864
            ]
        },
        {
            "positions": [
                -0.20600972434403092,
                -1.3062756676730698,
                2.293019715087607,
                -0.9545096262244761,
                0.9146712454533835,
                -3.1174908472493255
            ]
        },
        {
            "positions": [
                -0.2717739789575335,
                -1.3396337757050047,
                2.357314006241264,
                -0.9893170742842168,
                1.0716881509965799,
                -3.102491171155564
            ]
        },
        {
            "positions": [
                -0.33753823357103613,
                -1.3729918837369397,
                2.4216082973949207,
                -1.0241245223439575,
                1.2287050565397764,
                -3.087491495061803
            ]
        }
    ]
}{
    "goal": {
        "global_pose": {
            "orientation": {
                "w": 0.5084816217422485,
                "x": -0.49083608388900757,
                "y": 0.5182115435600281,
                "z": -0.4816462993621826
            },
            "position": {
                "x": 0.5540239810943604,
                "y": 0.030875300988554955,
                "z": 0.16403168439865112
            }
        },
        "name": "move_to_storage_A"
    },
    "id": "LBTRRT_move_to_storage_A_29",
    "joint_names": [
        "shoulder_pan_joint",
        "shoulder_lift_joint",
        "elbow_joint",
        "wrist_1_joint",
        "wrist_2_joint",
        "wrist_3_joint"
    ],
    "metrics": {
        "cart_traj_len": 0.353116858758883,
        "distance_elbow_joint": 0.44917782735543055,
        "distance_shoulder_lift_joint": 0.23605763862631957,
        "distance_shoulder_pan_joint": 0.4591309775999788,
        "distance_wrist_1_joint": 0.23676780198466507,
        "distance_wrist_2_joint": 1.110950100740641,
        "distance_wrist_3_joint": 0.1016716665158981,
        "smoothness": 2.2204460668324854e-16,
        "time": 5.004490197,
        "traj_len": 1.610514207581831,
        "weighted_distance": 2.0358824250383507
    },
    "planner": "LBTRRT",
    "start": {
        "state": {
            "elbow_joint": 1.97154746011099,
            "shoulder_lift_joint": -1.13948474672311,
            "shoulder_pan_joint": 0.12281154466712228,
            "wrist_1_joint": -0.7804688027058302,
            "wrist_2_joint": 0.12958655903071145,
            "wrist_3_joint": 3.0906928834467795
        }
    },
    "waypoints": [
        {
            "positions": [
                0.12281154466712228,
                -1.13948474672311,
                1.97154746011099,
                -0.7804688027058302,
                0.12958655903071145,
                3.0906928834467795
            ]
        },
        {
            "positions": [
                0.05722140500998246,
                -1.1732072665268698,
                2.0357157211617656,
                -0.8142927744179252,
                0.28829371627937445,
                3.105217407234765
            ]
        },
        {
            "positions": [
                -0.008368734647157358,
                -1.2069297863306299,
                2.0998839822125417,
                -0.8481167461300202,
                0.4470008735280374,
                3.1197419310227503
            ]
        },
        {
            "positions": [
                -0.07395887430429719,
                -1.2406523061343897,
                2.1640522432633174,
                -0.8819407178421153,
                0.6057080307767004,
                3.134266454810736
            ]
        },
        {
            "positions": [
                -0.13954901396143699,
                -1.2743748259381498,
                2.228220504314093,
                -0.9157646895542102,
                0.7644151880253635,
                3.148790978598721
            ]
        },
        {
            "positions": [
                -0.20513915361857682,
                -1.3080973457419096,
                2.292388765364869,
                -0.9495886612663053,
                0.9231223452740265,
                3.163315502386707
            ]
        },
        {
            "positions": [
                -0.27072929327571665,
                -1.3418198655456695,
                2.356557026415645,
                -0.9834126329784002,
                1.0818295025226894,
                3.177840026174692
            ]
        },
        {
            "positions": [
                -0.3363194329328565,
                -1.3755423853494295,
                2.4207252874664205,
                -1.0172366046904953,
                1.2405366597713525,
                3.1923645499626776
            ]
        }
    ]
}{
    "goal": {
        "global_pose": {
            "orientation": {
                "w": 0.5084816217422485,
                "x": -0.49083608388900757,
                "y": 0.5182115435600281,
                "z": -0.4816462993621826
            },
            "position": {
                "x": 0.5540239810943604,
                "y": 0.030875300988554955,
                "z": 0.16403168439865112
            }
        },
        "name": "move_to_storage_A"
    },
    "id": "LBTRRT_move_to_storage_A_29",
    "joint_names": [
        "shoulder_pan_joint",
        "shoulder_lift_joint",
        "elbow_joint",
        "wrist_1_joint",
        "wrist_2_joint",
        "wrist_3_joint"
    ],
    "metrics": {
        "cart_traj_len": 0.3526118841562321,
        "distance_elbow_joint": 0.45380884029660296,
        "distance_shoulder_lift_joint": 0.23385209960951214,
        "distance_shoulder_pan_joint": 0.46049440272071984,
        "distance_wrist_1_joint": 0.25835224812560864,
        "distance_wrist_2_joint": 1.1007828134715478,
        "distance_wrist_3_joint": 0.09750149181571732,
        "smoothness": 0.0,
        "time": 5.003453792,
        "traj_len": 1.613936769529621,
        "weighted_distance": 2.039345468837563
    },
    "planner": "LBTRRT",
    "start": {
        "state": {
            "elbow_joint": 1.9715472970024885,
            "shoulder_lift_joint": -1.1394870060712896,
            "shoulder_pan_joint": 0.12281152778156021,
            "wrist_1_joint": -0.780463741449964,
            "wrist_2_joint": 0.12958659822042276,
            "wrist_3_joint": 3.090690232415272
        }
    },
    "waypoints": [
        {
            "positions": [
                0.12281152778156021,
                -1.1394870060712896,
                1.9715472970024885,
                -0.780463741449964,
                0.12958659822042276,
                3.090690232415272
            ]
        },
        {
            "positions": [
                0.057026613107171664,
                -1.1728944488726485,
                2.0363771313305747,
                -0.8173712054679081,
                0.2868412858592153,
                3.1046190169603745
            ]
        },
        {
            "positions": [
                -0.00875830156721688,
                -1.2063018916740074,
                2.101206965658661,
                -0.8542786694858522,
                0.4440959734980079,
                3.1185478015054766
            ]
        },
        {
            "positions": [
                -0.07454321624160543,
                -1.2397093344753662,
                2.166036799986747,
                -0.8911861335037963,
                0.6013506611368004,
                3.132476586050579
            ]
        },
        {
            "positions": [
                -0.14032813091599397,
                -1.2731167772767251,
                2.230866634314833,
                -0.9280935975217404,
                0.7586053487755929,
                3.146405370595682
            ]
        },
        {
            "positions": [
                -0.20611304559038254,
                -1.306524220078084,
                2.295696468642919,
                -0.9650010615396845,
                0.9158600364143855,
                3.1603341551407844
            ]
        },
        {
            "positions": [
                -0.2718979602647711,
                -1.3399316628794429,
                2.3605263029710053,
                -1.0019085255576285,
                1.073114724053178,
                3.1742629396858866
            ]
        },
        {
            "positions": [
                -0.3376828749391596,
                -1.3733391056808018,
                2.4253561372990915,
                -1.0388159895755726,
                1.2303694116919706,
                3.188191724230989
            ]
        }
    ]
}