{
    "goal": {
        "global_pose": {
            "orientation": {
                "w": 0.7031023480610252,
                "x": -0.7110244013736278,
                "y": 0.0077485991402295624,
                "z": 0.005598929693374583
            },
            "position": {
                "x": -0.8841497679147869,
                "y": 0.44412534475326537,
                "z": 0.3711530566215515
            }
        },
        "name": "move_to_auspresseinheit_D"
    },
    "id": "LBTRRT_move_to_auspresseinheit_D_96",
    "joint_names": [
        "shoulder_pan_joint",
        "shoulder_lift_joint",
        "elbow_joint",
        "wrist_1_joint",
        "wrist_2_joint",
        "wrist_3_joint"
    ],
    "metrics": {
        "cart_traj_len": 0.3450328745029123,
        "distance_elbow_joint": 0.6686052092901207,
        "distance_shoulder_lift_joint": 0.13861095340989582,
        "distance_shoulder_pan_joint": 0.13421702693331394,
        "distance_wrist_1_joint": 0.6159935699723103,
        "distance_wrist_2_joint": 1.447259221635362,
        "distance_wrist_3_joint": 0.06469891076445711,
        "smoothness": 0.0,
        "time": 5.005686776,
        "traj_len": 1.7519660076626657,
        "weighted_distance": 2.2939127065217733
    },
    "planner": "LBTRRT",
    "start": {
        "state": {
            "elbow_joint": -1.8275523626775212,
            "shoulder_lift_joint": -2.126789852344167,
            "shoulder_pan_joint": -0.03513704404078235,
            "wrist_1_joint": -2.347782403156801,
            "wrist_2_joint": -1.6058999987535132,
            "wrist_3_joint": -3.0880379163319196
        }
    },
    "waypoints": [
        {
            "positions": [
                -0.03513704404078235,
                -2.126789852344167,
                -1.8275523626775212,
                -2.347782403156801,
                -1.6058999987535132,
                -3.0880379163319196
            ]
        },
        {
            "positions": [
                -0.05191417240744659,
                -2.1441162215204037,
                -1.743976711516256,
                -2.4247815994033397,
                -1.424992596049093,
                -3.0799505524863626
            ]
        },
        {
            "positions": [
                -0.06869130077411084,
                -2.161442590696641,
                -1.660401060354991,
                -2.5017807956498785,
                -1.2440851933446728,
                -3.071863188640805
            ]
        },
        {
            "positions": [
                -0.08546842914077507,
                -2.178768959872878,
                -1.576825409193726,
                -2.5787799918964174,
                -1.0631777906402524,
                -3.0637758247952482
            ]
        },
        {
            "positions": [
                -0.10224555750743933,
                -2.1960953290491148,
                -1.4932497580324608,
                -2.655779188142956,
                -0.8822703879358322,
                -3.055688460949691
            ]
        },
        {
            "positions": [
                -0.11902268587410356,
                -2.2134216982253516,
                -1.4096741068711958,
                -2.7327783843894946,
                -0.701362985231412,
                -3.047601097104134
            ]
        },
        {
            "positions": [
                -0.1357998142407678,
                -2.2307480674015885,
                -1.3260984557099307,
                -2.8097775806360334,
                -0.5204555825269916,
                -3.039513733258577
            ]
        },
        {
            "positions": [
                -0.15257694260743204,
                -2.248074436577826,
                -1.2425228045486656,
                -2.8867767768825723,
                -0.33954817982257146,
                -3.0314263694130195
            ]
        },
        {
            "positions": [
                -0.1693540709740963,
                -2.2654008057540627,
                -1.1589471533874005,
                -2.963775973129111,
                -0.1586407771181513,
                -3.0233390055674625
            ]
        }
    ]
}