{
    "goal": {
        "global_pose": {
            "orientation": {
                "w": 0.005598929693374612,
                "x": 0.007748599140229565,
                "y": 0.7110244013736278,
                "z": -0.7031023480610252
            },
            "position": {
                "x": -0.8858502320852131,
                "y": -0.7141253447532654,
                "z": 0.3711530566215515
            }
        },
        "name": "move_to_auspresseinheit_C"
    },
    "id": "LBTRRT_move_to_auspresseinheit_C_107",
    "joint_names": [
        "shoulder_pan_joint",
        "shoulder_lift_joint",
        "elbow_joint",
        "wrist_1_joint",
        "wrist_2_joint",
        "wrist_3_joint"
    ],
    "metrics": {
        "cart_traj_len": 0.49345437249316804,
        "distance_elbow_joint": 1.0035281838003676,
        "distance_shoulder_lift_joint": 0.3259164086536096,
        "distance_shoulder_pan_joint": 0.2558768424287696,
        "distance_wrist_1_joint": 0.6828801457886287,
        "distance_wrist_2_joint": 1.3104699659691545,
        "distance_wrist_3_joint": 0.05434648456339186,
        "smoothness": 0.0,
        "time": 5.002133895999999,
        "traj_len": 1.906047751553964,
        "weighted_distance": 2.394798762336512
    },
    "planner": "LBTRRT",
    "start": {
        "state": {
            "elbow_joint": 1.7527959577737207,
            "shoulder_lift_joint": -0.9740617694225068,
            "shoulder_pan_joint": -2.967991417825858,
            "wrist_1_joint": -0.759517768980727,
            "wrist_2_joint": 1.7443932448377408,
            "wrist_3_joint": -3.0840537646736568
        }
    },
    "waypoints": [
        {
            "positions": [
                -2.967991417825858,
                -0.9740617694225068,
                1.7527959577737207,
                -0.759517768980727,
                1.7443932448377408,
                -3.0840537646736568
            ]
        },
        {
            "positions": [
                -2.942403733582981,
                -0.9414701285571458,
                1.6524431393936838,
                -0.6912297544018641,
                1.6133462482408254,
                -3.089488413129996
            ]
        },
        {
            "positions": [
                -2.916816049340104,
                -0.9088784876917848,
                1.5520903210136472,
                -0.6229417398230013,
                1.48229925164391,
                -3.0949230615863352
            ]
        },
        {
            "positions": [
                -2.891228365097227,
                -0.8762868468264239,
                1.4517375026336103,
                -0.5546537252441384,
                1.3512522550469945,
                -3.1003577100426742
            ]
        },
        {
            "positions": [
                -2.86564068085435,
                -0.843695205961063,
                1.3513846842535737,
                -0.4863657106652755,
                1.220205258450079,
                -3.1057923584990137
            ]
        },
        {
            "positions": [
                -2.8400529966114734,
                -0.8111035650957019,
                1.2510318658735369,
                -0.41807769608641265,
                1.0891582618531634,
                -3.1112270069553527
            ]
        },
        {
            "positions": [
                -2.814465312368596,
                -0.778511924230341,
                1.1506790474935,
                -0.3497896815075498,
                0.9581112652562481,
                -3.1166616554116917
            ]
        },
        {
            "positions": [
                -2.7888776281257193,
                -0.7459202833649801,
                1.0503262291134634,
                -0.28150166692868694,
                0.8270642686593327,
                -3.122096303868031
            ]
        },
        {
            "positions": [
                -2.7632899438828424,
                -0.713328642499619,
                0.9499734107334266,
                -0.21321365234982403,
                0.6960172720624171,
                -3.12753095232437
            ]
        },
        {
            "positions": [
                -2.737702259639965,
                -0.6807370016342581,
                0.8496205923533898,
                -0.14492563777096112,
                0.5649702754655017,
                -3.1329656007807096
            ]
        },
        {
            "positions": [
                -2.7121145753970883,
                -0.6481453607688972,
                0.7492677739733532,
                -0.07663762319209835,
                0.43392327886858634,
                -3.1384002492370486
            ]
        }
    ]
}