{
    "goal": {
        "global_pose": {
            "orientation": {
                "w": 0.005598929693374612,
                "x": 0.007748599140229565,
                "y": 0.7110244013736278,
                "z": -0.7031023480610252
            },
            "position": {
                "x": 0.1141497679147869,
                "y": -0.7141253447532654,
                "z": 0.3711530566215515
            }
        },
        "name": "move_to_auspresseinheit_B"
    },
    "id": "LBTRRT_move_to_auspresseinheit_B_2",
    "joint_names": [
        "shoulder_pan_joint",
        "shoulder_lift_joint",
        "elbow_joint",
        "wrist_1_joint",
        "wrist_2_joint",
        "wrist_3_joint"
    ],
    "metrics": {
        "cart_traj_len": 0.5650458337875587,
        "distance_elbow_joint": 0.06006573684029681,
        "distance_shoulder_lift_joint": 0.29530800656789946,
        "distance_shoulder_pan_joint": 0.5760769767118197,
        "distance_wrist_1_joint": 0.3208146100992748,
        "distance_wrist_2_joint": 1.0062317006927493,
        "distance_wrist_3_joint": 0.005414965245047032,
        "smoothness": 2.5376526478085547e-16,
        "time": 5.005688794,
        "traj_len": 1.5046301858453748,
        "weighted_distance": 1.8978377795373358
    },
    "planner": "LBTRRT",
    "start": {
        "state": {
            "elbow_joint": 2.0193083361928714,
            "shoulder_lift_joint": -1.1220246554650708,
            "shoulder_pan_joint": -1.0952077554168747,
            "wrist_1_joint": -0.8559753972642168,
            "wrist_2_joint": 0.4759566250798843,
            "wrist_3_joint": -3.1240929996934557
        }
    },
    "waypoints": [
        {
            "positions": [
                -1.0952077554168747,
                -1.1220246554650708,
                2.0193083361928714,
                -0.8559753972642168,
                0.4759566250798843,
                -3.1240929996934557
            ]
        },
        {
            "positions": [
                -1.1912205848688446,
                -1.1712426565597207,
                2.0092973800528218,
                -0.8025062955810043,
                0.6436619085286759,
                -3.123190505485948
            ]
        },
        {
            "positions": [
                -1.2872334143208146,
                -1.2204606576543706,
                1.9992864239127726,
                -0.7490371938977919,
                0.8113671919774674,
                -3.12228801127844
            ]
        },
        {
            "positions": [
                -1.3832462437727844,
                -1.2696786587490205,
                1.989275467772723,
                -0.6955680922145794,
                0.979072475426259,
                -3.121385517070932
            ]
        },
        {
            "positions": [
                -1.4792590732247544,
                -1.3188966598436704,
                1.9792645116326735,
                -0.642098990531367,
                1.1467777588750505,
                -3.120483022863424
            ]
        },
        {
            "positions": [
                -1.5752719026767243,
                -1.3681146609383203,
                1.969253555492624,
                -0.5886298888481545,
                1.314483042323842,
                -3.1195805286559164
            ]
        },
        {
            "positions": [
                -1.6712847321286943,
                -1.4173326620329703,
                1.9592425993525746,
                -0.535160787164942,
                1.4821883257726336,
                -3.1186780344484086
            ]
        }
    ]
}