{
    "goal": {
        "global_pose": {
            "orientation": {
                "w": 0.7031023480610252,
                "x": -0.7110244013736278,
                "y": 0.0077485991402295624,
                "z": 0.005598929693374583
            },
            "position": {
                "x": -0.8841497679147869,
                "y": 0.44412534475326537,
                "z": 0.3711530566215515
            }
        },
        "name": "move_to_auspresseinheit_D"
    },
    "id": "LBTRRT_move_to_auspresseinheit_D_135",
    "joint_names": [
        "shoulder_pan_joint",
        "shoulder_lift_joint",
        "elbow_joint",
        "wrist_1_joint",
        "wrist_2_joint",
        "wrist_3_joint"
    ],
    "metrics": {
        "cart_traj_len": 0.3422270495568839,
        "distance_elbow_joint": 0.6306151555734365,
        "distance_shoulder_lift_joint": 0.11770095763789357,
        "distance_shoulder_pan_joint": 0.1338007132450474,
        "distance_wrist_1_joint": 0.5098964728754733,
        "distance_wrist_2_joint": 1.4399401386969601,
        "distance_wrist_3_joint": 0.014969220994037524,
        "smoothness": 1.9737298371844314e-16,
        "time": 5.004914436,
        "traj_len": 1.687282625710005,
        "weighted_distance": 2.1969746727223227
    },
    "planner": "LBTRRT",
    "start": {
        "state": {
            "elbow_joint": -1.8275523626775212,
            "shoulder_lift_joint": -2.126789852344167,
            "shoulder_pan_joint": -0.03513704404078235,
            "wrist_1_joint": -2.347782403156801,
            "wrist_2_joint": -1.6058999987535132,
            "wrist_3_joint": -3.0880379163319196
        }
    },
    "waypoints": [
        {
            "positions": [
                -0.03513704404078235,
                -2.126789852344167,
                -1.8275523626775212,
                -2.347782403156801,
                -1.6058999987535132,
                -3.0880379163319196
            ]
        },
        {
            "positions": [
                -0.05186213319641327,
                -2.1415024720489035,
                -1.7487254682308415,
                -2.4115194622662353,
                -1.4259074814163932,
                -3.089909068956174
            ]
        },
        {
            "positions": [
                -0.0685872223520442,
                -2.1562150917536402,
                -1.669898573784162,
                -2.475256521375669,
                -1.2459149640792733,
                -3.091780221580429
            ]
        },
        {
            "positions": [
                -0.08531231150767513,
                -2.170927711458377,
                -1.5910716793374826,
                -2.538993580485103,
                -1.065922446742153,
                -3.0936513742046836
            ]
        },
        {
            "positions": [
                -0.10203740066330605,
                -2.1856403311631136,
                -1.512244784890803,
                -2.6027306395945375,
                -0.8859299294050331,
                -3.0955225268289386
            ]
        },
        {
            "positions": [
                -0.11876248981893697,
                -2.2003529508678503,
                -1.4334178904441233,
                -2.666467698703972,
                -0.7059374120679132,
                -3.097393679453193
            ]
        },
        {
            "positions": [
                -0.1354875789745679,
                -2.215065570572587,
                -1.3545909959974438,
                -2.730204757813406,
                -0.525944894730793,
                -3.0992648320774476
            ]
        },
        {
            "positions": [
                -0.15221266813019882,
                -2.2297781902773237,
                -1.2757641015507644,
                -2.79394181692284,
                -0.345952377393673,
                -3.1011359847017026
            ]
        },
        {
            "positions": [
                -0.16893775728582974,
                -2.2444908099820604,
                -1.1969372071040847,
                -2.857678876032274,
                -0.16595986005655303,
                -3.103007137325957
            ]
        }
    ]
}