{
    "goal": {
        "global_pose": {
            "orientation": {
                "w": -0.4816463035849501,
                "x": 0.5182115481033762,
                "y": 0.4908360881923453,
                "z": -0.5084816262002911
            },
            "position": {
                "x": -0.8240239810943604,
                "y": -0.300875300988555,
                "z": 0.16403168439865112
            }
        },
        "name": "move_to_storage_C"
    },
    "id": "LBTRRT_move_to_storage_C_106",
    "joint_names": [
        "shoulder_pan_joint",
        "shoulder_lift_joint",
        "elbow_joint",
        "wrist_1_joint",
        "wrist_2_joint",
        "wrist_3_joint"
    ],
    "metrics": {
        "cart_traj_len": 0.576033593069883,
        "distance_elbow_joint": 0.25856490877412197,
        "distance_shoulder_lift_joint": 0.18950667572621238,
        "distance_shoulder_pan_joint": 0.4924204860302157,
        "distance_wrist_1_joint": 0.0794521141983352,
        "distance_wrist_2_joint": 1.0800776102238623,
        "distance_wrist_3_joint": 0.06428690238809187,
        "smoothness": 0.0,
        "time": 5.002939037,
        "traj_len": 1.4711589639943197,
        "weighted_distance": 1.8580667981908565
    },
    "planner": "LBTRRT",
    "start": {
        "state": {
            "elbow_joint": 2.010868314990456,
            "shoulder_lift_joint": -1.1634956873337592,
            "shoulder_pan_joint": -2.4736205022346125,
            "wrist_1_joint": -0.8367026794202681,
            "wrist_2_joint": 0.6746043897044499,
            "wrist_3_joint": -3.1496632123970403
        }
    },
    "waypoints": [
        {
            "positions": [
                -2.4736205022346125,
                -1.1634956873337592,
                2.010868314990456,
                -0.8367026794202681,
                0.6746043897044499,
                -3.1496632123970403
            ]
        },
        {
            "positions": [
                -2.5556905832396484,
                -1.1319112413793904,
                1.967774163528102,
                -0.8234606603872122,
                0.8546173247417603,
                -3.1389487286656914
            ]
        },
        {
            "positions": [
                -2.6377606642446842,
                -1.1003267954250218,
                1.9246800120657486,
                -0.8102186413541563,
                1.0346302597790706,
                -3.128234244934343
            ]
        },
        {
            "positions": [
                -2.7198307452497206,
                -1.068742349470653,
                1.8815858606033948,
                -0.7969766223211006,
                1.214643194816381,
                -3.1175197612029946
            ]
        },
        {
            "positions": [
                -2.8019008262547564,
                -1.0371579035162843,
                1.838491709141041,
                -0.7837346032880447,
                1.3946561298536913,
                -3.1068052774716457
            ]
        },
        {
            "positions": [
                -2.8839709072597923,
                -1.0055734575619155,
                1.7953975576786876,
                -0.7704925842549888,
                1.574669064891002,
                -3.096090793740297
            ]
        },
        {
            "positions": [
                -2.966040988264828,
                -0.9739890116075468,
                1.7523034062163338,
                -0.7572505652219329,
                1.7546819999283123,
                -3.0853763100089484
            ]
        }
    ]
}