{
    "goal": {
        "global_pose": {
            "orientation": {
                "w": 0.005598929693374612,
                "x": 0.007748599140229565,
                "y": 0.7110244013736278,
                "z": -0.7031023480610252
            },
            "position": {
                "x": 0.1141497679147869,
                "y": -0.7141253447532654,
                "z": 0.3711530566215515
            }
        },
        "name": "move_to_auspresseinheit_B"
    },
    "id": "LBTRRT_move_to_auspresseinheit_B_94",
    "joint_names": [
        "shoulder_pan_joint",
        "shoulder_lift_joint",
        "elbow_joint",
        "wrist_1_joint",
        "wrist_2_joint",
        "wrist_3_joint"
    ],
    "metrics": {
        "cart_traj_len": 0.5639764222560638,
        "distance_elbow_joint": 0.06130442008810255,
        "distance_shoulder_lift_joint": 0.29477724244406267,
        "distance_shoulder_pan_joint": 0.5774616332416804,
        "distance_wrist_1_joint": 0.32402175789176313,
        "distance_wrist_2_joint": 0.9879177244274224,
        "distance_wrist_3_joint": 0.006985379912424428,
        "smoothness": 5.075305295617109e-16,
        "time": 5.004535838000001,
        "traj_len": 1.500822493836448,
        "weighted_distance": 1.8916602232297137
    },
    "planner": "LBTRRT",
    "start": {
        "state": {
            "elbow_joint": 2.0193083361928714,
            "shoulder_lift_joint": -1.1220246554650708,
            "shoulder_pan_joint": -1.0952077554168747,
            "wrist_1_joint": -0.8559753972642168,
            "wrist_2_joint": 0.4759566250798843,
            "wrist_3_joint": -3.1240929996934557
        }
    },
    "waypoints": [
        {
            "positions": [
                -1.0952077554168747,
                -1.1220246554650708,
                2.0193083361928714,
                -0.8559753972642168,
                0.4759566250798843,
                -3.1240929996934557
            ]
        },
        {
            "positions": [
                -1.1914513609571546,
                -1.1711541958724145,
                2.0090909328448543,
                -0.8019717709489229,
                0.6406095791511214,
                -3.1229287697080514
            ]
        },
        {
            "positions": [
                -1.2876949664974349,
                -1.2202837362797583,
                1.9988735294968372,
                -0.747968144633629,
                0.8052625332223584,
                -3.1217645397226477
            ]
        },
        {
            "positions": [
                -1.3839385720377149,
                -1.2694132766871022,
                1.98865612614882,
                -0.6939645183183352,
                0.9699154872935956,
                -3.1206003097372434
            ]
        },
        {
            "positions": [
                -1.4801821775779949,
                -1.318542817094446,
                1.9784387228008031,
                -0.6399608920030414,
                1.1345684413648325,
                -3.1194360797518392
            ]
        },
        {
            "positions": [
                -1.576425783118275,
                -1.3676723575017897,
                1.968221319452786,
                -0.5859572656877474,
                1.2992213954360696,
                -3.1182718497664355
            ]
        },
        {
            "positions": [
                -1.672669388658555,
                -1.4168018979091335,
                1.9580039161047689,
                -0.5319536393724537,
                1.4638743495073068,
                -3.1171076197810312
            ]
        }
    ]
}