{
    "goal": {
        "global_pose": {
            "orientation": {
                "w": 0.5084816217422485,
                "x": -0.49083608388900757,
                "y": 0.5182115435600281,
                "z": -0.4816462993621826
            },
            "position": {
                "x": 0.5540239810943604,
                "y": 0.030875300988554955,
                "z": 0.16403168439865112
            }
        },
        "name": "move_to_storage_A"
    },
    "id": "LBTRRT_move_to_storage_A_11",
    "joint_names": [
        "shoulder_pan_joint",
        "shoulder_lift_joint",
        "elbow_joint",
        "wrist_1_joint",
        "wrist_2_joint",
        "wrist_3_joint"
    ],
    "metrics": {
        "cart_traj_len": 0.3533102927717302,
        "distance_elbow_joint": 0.44785738484081716,
        "distance_shoulder_lift_joint": 0.23411522652604844,
        "distance_shoulder_pan_joint": 0.4599052841959795,
        "distance_wrist_1_joint": 0.2390165252401878,
        "distance_wrist_2_joint": 1.1074947164601507,
        "distance_wrist_3_joint": 0.09743222626196957,
        "smoothness": 6.661338165333112e-16,
        "time": 5.002120103,
        "traj_len": 1.608048930699919,
        "weighted_distance": 2.0315504073858053
    },
    "planner": "LBTRRT",
    "start": {
        "state": {
            "elbow_joint": 1.971548259319323,
            "shoulder_lift_joint": -1.1394851275133948,
            "shoulder_pan_joint": 0.1228115487234821,
            "wrist_1_joint": -0.7804723859257726,
            "wrist_2_joint": 0.12958671773740124,
            "wrist_3_joint": -3.192489227718131
        }
    },
    "waypoints": [
        {
            "positions": [
                0.1228115487234821,
                -1.1394851275133948,
                1.971548259319323,
                -0.7804723859257726,
                0.12958671773740124,
                -3.192489227718131
            ]
        },
        {
            "positions": [
                0.05711079383834218,
                -1.172930159874259,
                2.035527885725154,
                -0.814617603817228,
                0.2878002486602799,
                -3.1785703382521353
            ]
        },
        {
            "positions": [
                -0.00858996104679774,
                -1.206375192235123,
                2.099507512130985,
                -0.8487628217086834,
                0.4460137795831586,
                -3.16465144878614
            ]
        },
        {
            "positions": [
                -0.07429071593193767,
                -1.239820224595987,
                2.163487138536816,
                -0.8829080396001387,
                0.6042273105060373,
                -3.150732559320144
            ]
        },
        {
            "positions": [
                -0.13999147081707758,
                -1.273265256956851,
                2.227466764942647,
                -0.9170532574915942,
                0.762440841428916,
                -3.1368136698541487
            ]
        },
        {
            "positions": [
                -0.2056922257022175,
                -1.3067102893177152,
                2.291446391348478,
                -0.9511984753830496,
                0.9206543723517947,
                -3.122894780388153
            ]
        },
        {
            "positions": [
                -0.27139298058735745,
                -1.340155321678579,
                2.355426017754309,
                -0.985343693274505,
                1.0788679032746733,
                -3.1089758909221574
            ]
        },
        {
            "positions": [
                -0.3370937354724974,
                -1.3736003540394432,
                2.41940564416014,
                -1.0194889111659604,
                1.237081434197552,
                -3.0950570014561616
            ]
        }
    ]
}{
    "goal": {
        "global_pose": {
            "orientation": {
                "w": 0.5084816217422485,
                "x": -0.49083608388900757,
                "y": 0.5182115435600281,
                "z": -0.4816462993621826
            },
            "position": {
                "x": 0.5540239810943604,
                "y": 0.030875300988554955,
                "z": 0.16403168439865112
            }
        },
        "name": "move_to_storage_A"
    },
    "id": "LBTRRT_move_to_storage_A_11",
    "joint_names": [
        "shoulder_pan_joint",
        "shoulder_lift_joint",
        "elbow_joint",
        "wrist_1_joint",
        "wrist_2_joint",
        "wrist_3_joint"
    ],
    "metrics": {
        "cart_traj_len": 0.3527454940220419,
        "distance_elbow_joint": 0.45336188304449765,
        "distance_shoulder_lift_joint": 0.2357653582946948,
        "distance_shoulder_pan_joint": 0.46219139926869035,
        "distance_wrist_1_joint": 0.2531413541448755,
        "distance_wrist_2_joint": 1.0953952668690083,
        "distance_wrist_3_joint": 0.103609695168831,
        "smoothness": 2.220446049250313e-15,
        "time": 5.004745314,
        "traj_len": 1.6135256294185716,
        "weighted_distance": 2.0394168205990026
    },
    "planner": "LBTRRT",
    "start": {
        "state": {
            "elbow_joint": 1.97154746011099,
            "shoulder_lift_joint": -1.13948474672311,
            "shoulder_pan_joint": 0.12281154466712228,
            "wrist_1_joint": -0.7804688027058302,
            "wrist_2_joint": 0.12958655903071145,
            "wrist_3_joint": 3.0906928834467795
        }
    },
    "waypoints": [
        {
            "positions": [
                0.12281154466712228,
                -1.13948474672311,
                1.97154746011099,
                -0.7804688027058302,
                0.12958655903071145,
                3.0906928834467795
            ]
        },
        {
            "positions": [
                0.05678420191445224,
                -1.1731655121937807,
                2.036313443403061,
                -0.8166318532979553,
                0.28607159715485553,
                3.105494268470898
            ]
        },
        {
            "positions": [
                -0.009243140838217798,
                -1.2068462776644513,
                2.101079426695132,
                -0.8527949038900803,
                0.4425566352789996,
                3.120295653495017
            ]
        },
        {
            "positions": [
                -0.07527048359088785,
                -1.240527043135122,
                2.1658454099872033,
                -0.8889579544822054,
                0.5990416734031436,
                3.1350970385191355
            ]
        },
        {
            "positions": [
                -0.14129782634355786,
                -1.2742078086057926,
                2.230611393279274,
                -0.9251210050743305,
                0.7555267115272877,
                3.1498984235432546
            ]
        },
        {
            "positions": [
                -0.20732516909622795,
                -1.3078885740764634,
                2.2953773765713454,
                -0.9612840556664555,
                0.9120117496514317,
                3.164699808567373
            ]
        },
        {
            "positions": [
                -0.27335251184889797,
                -1.341569339547134,
                2.3601433598634163,
                -0.9974471062585806,
                1.0684967877755758,
                3.179501193591492
            ]
        },
        {
            "positions": [
                -0.33937985460156805,
                -1.3752501050178048,
                2.4249093431554876,
                -1.0336101568507057,
                1.2249818258997198,
                3.1943025786156105
            ]
        }
    ]
}{
    "goal": {
        "global_pose": {
            "orientation": {
                "w": 0.5084816217422485,
                "x": -0.49083608388900757,
                "y": 0.5182115435600281,
                "z": -0.4816462993621826
            },
            "position": {
                "x": 0.5540239810943604,
                "y": 0.030875300988554955,
                "z": 0.16403168439865112
            }
        },
        "name": "move_to_storage_A"
    },
    "id": "LBTRRT_move_to_storage_A_11",
    "joint_names": [
        "shoulder_pan_joint",
        "shoulder_lift_joint",
        "elbow_joint",
        "wrist_1_joint",
        "wrist_2_joint",
        "wrist_3_joint"
    ],
    "metrics": {
        "cart_traj_len": 0.35206923217287567,
        "distance_elbow_joint": 0.4491350944832937,
        "distance_shoulder_lift_joint": 0.2348304578659317,
        "distance_shoulder_pan_joint": 0.4591426462642248,
        "distance_wrist_1_joint": 0.24129526600049234,
        "distance_wrist_2_joint": 1.1021440022356346,
        "distance_wrist_3_joint": 0.09686688251123154,
        "smoothness": 4.440892098500626e-16,
        "time": 5.00305992,
        "traj_len": 1.6073003295466621,
        "weighted_distance": 2.0299229991847962
    },
    "planner": "LBTRRT",
    "start": {
        "state": {
            "elbow_joint": 1.9715472970024885,
            "shoulder_lift_joint": -1.1394870060712896,
            "shoulder_pan_joint": 0.12281152778156021,
            "wrist_1_joint": -0.780463741449964,
            "wrist_2_joint": 0.12958659822042276,
            "wrist_3_joint": 3.090690232415272
        }
    },
    "waypoints": [
        {
            "positions": [
                0.12281152778156021,
                -1.1394870060712896,
                1.9715472970024885,
                -0.780463741449964,
                0.12958659822042276,
                3.090690232415272
            ]
        },
        {
            "positions": [
                0.057219721172385246,
                -1.1730342143378514,
                2.035709453357245,
                -0.8149344937357487,
                0.287035741396942,
                3.104528358488305
            ]
        },
        {
            "positions": [
                -0.008372085436789717,
                -1.206581422604413,
                2.099871609712001,
                -0.8494052460215332,
                0.44448488457346125,
                3.118366484561338
            ]
        },
        {
            "positions": [
                -0.07396389204596468,
                -1.2401286308709747,
                2.1640337660667575,
                -0.8838759983073179,
                0.6019340277499804,
                3.1322046106343713
            ]
        },
        {
            "positions": [
                -0.13955569865513964,
                -1.2736758391375362,
                2.2281959224215133,
                -0.9183467505931024,
                0.7593831709264997,
                3.146042736707404
            ]
        },
        {
            "positions": [
                -0.2051475052643146,
                -1.307223047404098,
                2.2923580787762696,
                -0.9528175028788871,
                0.9168323141030189,
                3.159880862780437
            ]
        },
        {
            "positions": [
                -0.27073931187348954,
                -1.3407702556706595,
                2.356520235131026,
                -0.9872882551646717,
                1.074281457279538,
                3.1737189888534703
            ]
        },
        {
            "positions": [
                -0.33633111848266456,
                -1.3743174639372213,
                2.4206823914857822,
                -1.0217590074504563,
                1.2317306004560573,
                3.1875571149265034
            ]
        }
    ]
}