{
    "goal": {
        "global_pose": {
            "orientation": {
                "w": 0.5084816217422485,
                "x": -0.49083608388900757,
                "y": 0.5182115435600281,
                "z": -0.4816462993621826
            },
            "position": {
                "x": 0.5540239810943604,
                "y": 0.030875300988554955,
                "z": 0.16403168439865112
            }
        },
        "name": "move_to_storage_A"
    },
    "id": "LBTRRT_move_to_storage_A_64",
    "joint_names": [
        "shoulder_pan_joint",
        "shoulder_lift_joint",
        "elbow_joint",
        "wrist_1_joint",
        "wrist_2_joint",
        "wrist_3_joint"
    ],
    "metrics": {
        "cart_traj_len": 0.35358766924128343,
        "distance_elbow_joint": 0.4524932369501611,
        "distance_shoulder_lift_joint": 0.23325304071091835,
        "distance_shoulder_pan_joint": 0.4601571100512684,
        "distance_wrist_1_joint": 0.26011540838577474,
        "distance_wrist_2_joint": 1.1085098054576437,
        "distance_wrist_3_joint": 0.10378704127396654,
        "smoothness": 6.661338165333112e-16,
        "time": 5.003351246,
        "traj_len": 1.6181210223063456,
        "weighted_distance": 2.0480514981857962
    },
    "planner": "LBTRRT",
    "start": {
        "state": {
            "elbow_joint": 1.971548259319323,
            "shoulder_lift_joint": -1.1394851275133948,
            "shoulder_pan_joint": 0.1228115487234821,
            "wrist_1_joint": -0.7804723859257726,
            "wrist_2_joint": 0.12958671773740124,
            "wrist_3_joint": -3.192489227718131
        }
    },
    "waypoints": [
        {
            "positions": [
                0.1228115487234821,
                -1.1394851275133948,
                1.971548259319323,
                -0.7804723859257726,
                0.12958671773740124,
                -3.192489227718131
            ]
        },
        {
            "positions": [
                0.05707481871615805,
                -1.1728069904720975,
                2.036190150312203,
                -0.8176317299808833,
                0.2879452613742075,
                -3.177662507536136
            ]
        },
        {
            "positions": [
                -0.008661911291166002,
                -1.2061288534308001,
                2.1008320413050834,
                -0.854791074035994,
                0.44630380501101374,
                -3.162835787354141
            ]
        },
        {
            "positions": [
                -0.07439864129849005,
                -1.2394507163895028,
                2.1654739322979633,
                -0.8919504180911046,
                0.60466234864782,
                -3.1480090671721457
            ]
        },
        {
            "positions": [
                -0.1401353713058141,
                -1.2727725793482052,
                2.2301158232908436,
                -0.9291097621462153,
                0.7630208922846262,
                -3.13318234699015
            ]
        },
        {
            "positions": [
                -0.2058721013131382,
                -1.3060944423069079,
                2.294757714283724,
                -0.966269106201326,
                0.9213794359214325,
                -3.118355626808155
            ]
        },
        {
            "positions": [
                -0.2716088313204622,
                -1.3394163052656105,
                2.3593996052766038,
                -1.0034284502564366,
                1.0797379795582387,
                -3.1035289066261598
            ]
        },
        {
            "positions": [
                -0.3373455613277863,
                -1.3727381682243132,
                2.424041496269484,
                -1.0405877943115474,
                1.238096523195045,
                -3.0887021864441646
            ]
        }
    ]
}{
    "goal": {
        "global_pose": {
            "orientation": {
                "w": 0.5084816217422485,
                "x": -0.49083608388900757,
                "y": 0.5182115435600281,
                "z": -0.4816462993621826
            },
            "position": {
                "x": 0.5540239810943604,
                "y": 0.030875300988554955,
                "z": 0.16403168439865112
            }
        },
        "name": "move_to_storage_A"
    },
    "id": "LBTRRT_move_to_storage_A_64",
    "joint_names": [
        "shoulder_pan_joint",
        "shoulder_lift_joint",
        "elbow_joint",
        "wrist_1_joint",
        "wrist_2_joint",
        "wrist_3_joint"
    ],
    "metrics": {
        "cart_traj_len": 0.353305440629774,
        "distance_elbow_joint": 0.4503061539016535,
        "distance_shoulder_lift_joint": 0.23334630273694934,
        "distance_shoulder_pan_joint": 0.46272916045593826,
        "distance_wrist_1_joint": 0.251127516131062,
        "distance_wrist_2_joint": 1.0950487443125232,
        "distance_wrist_3_joint": 0.10690219306256132,
        "smoothness": 4.440892098500626e-16,
        "time": 5.002968456,
        "traj_len": 1.612284115967371,
        "weighted_distance": 2.039470695344602
    },
    "planner": "LBTRRT",
    "start": {
        "state": {
            "elbow_joint": 1.97154746011099,
            "shoulder_lift_joint": -1.13948474672311,
            "shoulder_pan_joint": 0.12281154466712228,
            "wrist_1_joint": -0.7804688027058302,
            "wrist_2_joint": 0.12958655903071145,
            "wrist_3_joint": 3.0906928834467795
        }
    },
    "waypoints": [
        {
            "positions": [
                0.12281154466712228,
                -1.13948474672311,
                1.97154746011099,
                -0.7804688027058302,
                0.12958655903071145,
                3.0906928834467795
            ]
        },
        {
            "positions": [
                0.05670737888770254,
                -1.1728199328283884,
                2.035876910668369,
                -0.8163441621531248,
                0.28602209393250044,
                3.10596462531286
            ]
        },
        {
            "positions": [
                -0.009396786891717204,
                -1.206155118933667,
                2.100206361225748,
                -0.8522195216004194,
                0.4424576288342895,
                3.12123636717894
            ]
        },
        {
            "positions": [
                -0.07550095267113695,
                -1.2394903050389454,
                2.1645358117831273,
                -0.8880948810477138,
                0.5988931637360785,
                3.13650810904502
            ]
        },
        {
            "positions": [
                -0.14160511845055668,
                -1.2728254911442238,
                2.228865262340506,
                -0.9239702404950084,
                0.7553286986378676,
                3.1517798509111
            ]
        },
        {
            "positions": [
                -0.20770928422997648,
                -1.3061606772495025,
                2.2931947128978853,
                -0.959845599942303,
                0.9117642335396566,
                3.1670515927771805
            ]
        },
        {
            "positions": [
                -0.27381345000939616,
                -1.3394958633547809,
                2.357524163455264,
                -0.9957209593895976,
                1.0681997684414455,
                3.1823233346432604
            ]
        },
        {
            "positions": [
                -0.33991761578881596,
                -1.3728310494600593,
                2.4218536140126434,
                -1.0315963188368922,
                1.2246353033432347,
                3.197595076509341
            ]
        }
    ]
}{
    "goal": {
        "global_pose": {
            "orientation": {
                "w": 0.5084816217422485,
                "x": -0.49083608388900757,
                "y": 0.5182115435600281,
                "z": -0.4816462993621826
            },
            "position": {
                "x": 0.5540239810943604,
                "y": 0.030875300988554955,
                "z": 0.16403168439865112
            }
        },
        "name": "move_to_storage_A"
    },
    "id": "LBTRRT_move_to_storage_A_64",
    "joint_names": [
        "shoulder_pan_joint",
        "shoulder_lift_joint",
        "elbow_joint",
        "wrist_1_joint",
        "wrist_2_joint",
        "wrist_3_joint"
    ],
    "metrics": {
        "cart_traj_len": 0.353242986255715,
        "distance_elbow_joint": 0.452306454413383,
        "distance_shoulder_lift_joint": 0.23367326530399302,
        "distance_shoulder_pan_joint": 0.45807857829282367,
        "distance_wrist_1_joint": 0.25207410744261494,
        "distance_wrist_2_joint": 1.115716645627771,
        "distance_wrist_3_joint": 0.09479637991197087,
        "smoothness": 6.661338165333112e-16,
        "time": 5.003689012,
        "traj_len": 1.6145108952845617,
        "weighted_distance": 2.0405952425424507
    },
    "planner": "LBTRRT",
    "start": {
        "state": {
            "elbow_joint": 1.9715472970024885,
            "shoulder_lift_joint": -1.1394870060712896,
            "shoulder_pan_joint": 0.12281152778156021,
            "wrist_1_joint": -0.780463741449964,
            "wrist_2_joint": 0.12958659822042276,
            "wrist_3_joint": 3.090690232415272
        }
    },
    "waypoints": [
        {
            "positions": [
                0.12281152778156021,
                -1.1394870060712896,
                1.9715472970024885,
                -0.780463741449964,
                0.12958659822042276,
                3.090690232415272
            ]
        },
        {
            "positions": [
                0.05737173088258542,
                -1.172868901114717,
                2.036162504775829,
                -0.8164743282274805,
                0.2889746904529614,
                3.1042325724026965
            ]
        },
        {
            "positions": [
                -0.008068066016389375,
                -1.2062507961581448,
                2.1007777125491693,
                -0.8524849150049968,
                0.4483627826855001,
                3.1177749123901206
            ]
        },
        {
            "positions": [
                -0.07350786291536418,
                -1.2396326912015723,
                2.16539292032251,
                -0.8884955017825132,
                0.6077508749180388,
                3.131317252377545
            ]
        },
        {
            "positions": [
                -0.13894765981433896,
                -1.273014586245,
                2.23000812809585,
                -0.9245060885600297,
                0.7671389671505775,
                3.1448595923649694
            ]
        },
        {
            "positions": [
                -0.2043874567133138,
                -1.3063964812884274,
                2.2946233358691908,
                -0.960516675337546,
                0.9265270593831163,
                3.158401932352394
            ]
        },
        {
            "positions": [
                -0.26982725361228854,
                -1.339778376331855,
                2.359238543642531,
                -0.9965272621150625,
                1.0859151516156549,
                3.171944272339818
            ]
        },
        {
            "positions": [
                -0.33526705051126343,
                -1.3731602713752826,
                2.4238537514158716,
                -1.032537848892579,
                1.2453032438481937,
                3.1854866123272427
            ]
        }
    ]
}