{
    "goal": {
        "global_pose": {
            "orientation": {
                "w": 0.7047431468963623,
                "x": -0.7094548344612122,
                "y": 0.0024358443915843964,
                "z": -0.0022348060738295317
            },
            "position": {
                "x": 0.6094750761985779,
                "y": 0.3671506643295288,
                "z": 0.19426114857196808
            }
        },
        "name": "move_to_magneteinheit_A"
    },
    "id": "LBTRRT_move_to_magneteinheit_A_145",
    "joint_names": [
        "shoulder_pan_joint",
        "shoulder_lift_joint",
        "elbow_joint",
        "wrist_1_joint",
        "wrist_2_joint",
        "wrist_3_joint"
    ],
    "metrics": {
        "cart_traj_len": 3.5591651330442597,
        "distance_elbow_joint": 3.9303262757506356,
        "distance_shoulder_lift_joint": 0.13207604300357412,
        "distance_shoulder_pan_joint": 2.9254872135464502,
        "distance_wrist_1_joint": 0.7368869601737131,
        "distance_wrist_2_joint": 2.0949326088719595,
        "distance_wrist_3_joint": 3.6041672502979942,
        "smoothness": 0.24098591498140037,
        "time": 5.033152362,
        "traj_len": 3.663860853204489,
        "weighted_distance": 4.843968457916091
    },
    "planner": "LBTRRT",
    "start": {
        "state": {
            "elbow_joint": -1.9196185241190666,
            "shoulder_lift_joint": -1.2443396400964142,
            "shoulder_pan_joint": 2.6996025414629847,
            "wrist_1_joint": -1.5485510000780065,
            "wrist_2_joint": -1.5709468930060704,
            "wrist_3_joint": 0.4420197071253992
        }
    },
    "waypoints": [
        {
            "positions": [
                2.6996025414629847,
                -1.2443396400964142,
                -1.9196185241190666,
                -1.5485510000780065,
                -1.5709468930060704,
                0.4420197071253992
            ]
        },
        {
            "positions": [
                2.6122969966335288,
                -1.2448709092451498,
                -1.8017766558789208,
                -1.532301943318129,
                -1.5033309356058193,
                0.3465751134049918
            ]
        },
        {
            "positions": [
                2.524991451804073,
                -1.2454021783938853,
                -1.6839347876387751,
                -1.5160528865582514,
                -1.4357149782055683,
                0.25113051968458444
            ]
        },
        {
            "positions": [
                2.4376859069746164,
                -1.245933447542621,
                -1.5660929193986295,
                -1.499803829798374,
                -1.3680990208053172,
                0.15568592596417707
            ]
        },
        {
            "positions": [
                2.3503803621451604,
                -1.2464647166913565,
                -1.4482510511584836,
                -1.4835547730384964,
                -1.3004830634050661,
                0.06024133224376971
            ]
        },
        {
            "positions": [
                2.2630748173157045,
                -1.2469959858400923,
                -1.3304091829183378,
                -1.467305716278619,
                -1.232867106004815,
                -0.03520326147663766
            ]
        },
        {
            "positions": [
                2.1757692724862485,
                -1.2475272549888279,
                -1.2125673146781921,
                -1.4510566595187415,
                -1.1652511486045642,
                -0.13064785519704503
            ]
        },
        {
            "positions": [
                2.0884637276567926,
                -1.2480585241375635,
                -1.0947254464380465,
                -1.4348076027588639,
                -1.0976351912043132,
                -0.2260924489174524
            ]
        },
        {
            "positions": [
                2.001158182827336,
                -1.248589793286299,
                -0.9768835781979006,
                -1.4185585459989865,
                -1.0300192338040621,
                -0.32153704263785976
            ]
        },
        {
            "positions": [
                1.9138526379978802,
                -1.2491210624350346,
                -0.8590417099577548,
                -1.4023094892391088,
                -0.962403276403811,
                -0.41698163635826724
            ]
        },
        {
            "positions": [
                1.8265470931684242,
                -1.2496523315837702,
                -0.7411998417176091,
                -1.3860604324792314,
                -0.8947873190035599,
                -0.5124262300786745
            ]
        },
        {
            "positions": [
                1.7392415483389683,
                -1.2501836007325058,
                -0.6233579734774635,
                -1.369811375719354,
                -0.827171361603309,
                -0.6078708237990819
            ]
        },
        {
            "positions": [
                1.651936003509512,
                -1.2507148698812414,
                -0.5055161052373176,
                -1.3535623189594763,
                -0.7595554042030579,
                -0.7033154175194892
            ]
        },
        {
            "positions": [
                1.564630458680056,
                -1.251246139029977,
                -0.38767423699717174,
                -1.337313262199599,
                -0.6919394468028068,
                -0.7987600112398966
            ]
        },
        {
            "positions": [
                1.4773249138506,
                -1.2517774081787127,
                -0.2698323687570261,
                -1.3210642054397215,
                -0.6243234894025558,
                -0.894204604960304
            ]
        },
        {
            "positions": [
                1.390019369021144,
                -1.2523086773274483,
                -0.15199050051688046,
                -1.3048151486798438,
                -0.5567075320023047,
                -0.9896491986807113
            ]
        },
        {
            "positions": [
                1.3027138241916878,
                -1.252839946476184,
                -0.03414863227673459,
                -1.2885660919199664,
                -0.48909157460205366,
                -1.0850937924011186
            ]
        },
        {
            "positions": [
                1.2154082793622318,
                -1.2533712156249195,
                0.08369323596341083,
                -1.2723170351600888,
                -0.4214756172018028,
                -1.1805383861215257
            ]
        },
        {
            "positions": [
                1.1281027345327757,
                -1.253902484773655,
                0.20153510420355714,
                -1.2560679784002113,
                -0.35385965980155154,
                -1.2759829798419338
            ]
        },
        {
            "positions": [
                1.0407971897033197,
                -1.2544337539223906,
                0.31937697244370256,
                -1.239818921640334,
                -0.2862437024013005,
                -1.371427573562341
            ]
        },
        {
            "positions": [
                0.9534916448738635,
                -1.2549650230711262,
                0.4372188406838484,
                -1.2235698648804563,
                -0.21862774500104942,
                -1.466872167282748
            ]
        },
        {
            "positions": [
                0.8661861000444075,
                -1.2554962922198618,
                0.5550607089239943,
                -1.2073208081205788,
                -0.15101178760079859,
                -1.5623167610031556
            ]
        },
        {
            "positions": [
                0.7788805552149516,
                -1.2560275613685974,
                0.6729025771641397,
                -1.1910717513607012,
                -0.08339583020054753,
                -1.6577613547235628
            ]
        },
        {
            "positions": [
                0.6915750103854954,
                -1.256558830517333,
                0.7907444454042856,
                -1.1748226946008238,
                -0.01577987280029647,
                -1.75320594844397
            ]
        },
        {
            "positions": [
                0.6042694655560394,
                -1.2570900996660688,
                0.9085863136444314,
                -1.1585736378409464,
                0.05183608459995459,
                -1.8486505421643775
            ]
        },
        {
            "positions": [
                0.516963920726583,
                -1.2576213688148044,
                1.0264281818845773,
                -1.1423245810810687,
                0.11945204200020587,
                -1.944095135884785
            ]
        },
        {
            "positions": [
                0.4296583758971271,
                -1.25815263796354,
                1.1442700501247232,
                -1.1260755243211913,
                0.1870679994004567,
                -2.0395397296051923
            ]
        },
        {
            "positions": [
                0.3423528310676711,
                -1.2586839071122755,
                1.2621119183648686,
                -1.1098264675613136,
                0.25468395680070777,
                -2.1349843233256
            ]
        },
        {
            "positions": [
                0.25504728623821493,
                -1.259215176261011,
                1.3799537866050144,
                -1.0935774108014362,
                0.32229991420095877,
                -2.230428917046007
            ]
        },
        {
            "positions": [
                0.19377328436442479,
                -1.255996249196301,
                1.5026795500314227,
                -1.0382692331653198,
                0.2950734927285215,
                -2.2830903365558224
            ]
        },
        {
            "positions": [
                0.13249928249063464,
                -1.2527773221315908,
                1.625405313457831,
                -0.9829610555292035,
                0.2678470712560842,
                -2.335751756065638
            ]
        },
        {
            "positions": [
                0.07122528061684452,
                -1.2495583950668807,
                1.7481310768842393,
                -0.9276528778930871,
                0.24062064978364697,
                -2.3884131755754536
            ]
        },
        {
            "positions": [
                0.009951278743054348,
                -1.2463394680021704,
                1.8708568403106476,
                -0.8723447002569709,
                0.2133942283112097,
                -2.441074595085269
            ]
        },
        {
            "positions": [
                -0.051322723130735784,
                -1.2431205409374604,
                1.9935826037370559,
                -0.8170365226208545,
                0.18616780683877243,
                -2.4937360145950844
            ]
        },
        {
            "positions": [
                0.006864593186841114,
                -1.2094185837656515,
                1.9878742211055516,
                -0.8152456950486674,
                0.16431657540452427,
                -2.7165398574542547
            ]
        },
        {
            "positions": [
                0.06505190950441801,
                -1.1757166265938428,
                1.982165838474047,
                -0.8134548674764804,
                0.14246534397027608,
                -2.9393437003134246
            ]
        },
        {
            "positions": [
                0.12323922582199492,
                -1.142014669422034,
                1.9764574558425427,
                -0.8116640399042934,
                0.1206141125360279,
                -3.162147543172595
            ]
        }
    ]
}