{
    "goal": {
        "global_pose": {
            "orientation": {
                "w": 0.005598929693374612,
                "x": 0.007748599140229565,
                "y": 0.7110244013736278,
                "z": -0.7031023480610252
            },
            "position": {
                "x": -0.8858502320852131,
                "y": -0.7141253447532654,
                "z": 0.3711530566215515
            }
        },
        "name": "move_to_auspresseinheit_C"
    },
    "id": "LBTRRT_move_to_auspresseinheit_C_44",
    "joint_names": [
        "shoulder_pan_joint",
        "shoulder_lift_joint",
        "elbow_joint",
        "wrist_1_joint",
        "wrist_2_joint",
        "wrist_3_joint"
    ],
    "metrics": {
        "cart_traj_len": 0.493748023062373,
        "distance_elbow_joint": 1.0101887050692175,
        "distance_shoulder_lift_joint": 0.3306059930964512,
        "distance_shoulder_pan_joint": 0.25614632834934836,
        "distance_wrist_1_joint": 0.6919363833282371,
        "distance_wrist_2_joint": 1.3167696378235747,
        "distance_wrist_3_joint": 0.07609000206806149,
        "smoothness": 0.0,
        "time": 5.001544354,
        "traj_len": 1.9187853057950204,
        "weighted_distance": 2.4171518518750172
    },
    "planner": "LBTRRT",
    "start": {
        "state": {
            "elbow_joint": 1.7527959577737207,
            "shoulder_lift_joint": -0.9740617694225068,
            "shoulder_pan_joint": -2.967991417825858,
            "wrist_1_joint": -0.759517768980727,
            "wrist_2_joint": 1.7443932448377408,
            "wrist_3_joint": -3.0840537646736568
        }
    },
    "waypoints": [
        {
            "positions": [
                -2.967991417825858,
                -0.9740617694225068,
                1.7527959577737207,
                -0.759517768980727,
                1.7443932448377408,
                -3.0840537646736568
            ]
        },
        {
            "positions": [
                -2.9423767849909233,
                -0.9410011701128617,
                1.651777087266799,
                -0.6903241306479033,
                1.6127162810553834,
                -3.091662764880463
            ]
        },
        {
            "positions": [
                -2.916762152155988,
                -0.9079405708032166,
                1.5507582167598772,
                -0.6211304923150796,
                1.4810393172730258,
                -3.099271765087269
            ]
        },
        {
            "positions": [
                -2.8911475193210534,
                -0.8748799714935714,
                1.4497393462529553,
                -0.5519368539822558,
                1.3493623534906685,
                -3.106880765294075
            ]
        },
        {
            "positions": [
                -2.8655328864861187,
                -0.8418193721839262,
                1.3487204757460336,
                -0.4827432156494321,
                1.2176853897083109,
                -3.114489765500881
            ]
        },
        {
            "positions": [
                -2.8399182536511836,
                -0.8087587728742811,
                1.2477016052391119,
                -0.4135495773166084,
                1.0860084259259535,
                -3.1220987657076877
            ]
        },
        {
            "positions": [
                -2.814303620816249,
                -0.775698173564636,
                1.1466827347321902,
                -0.3443559389837847,
                0.954331462143596,
                -3.129707765914494
            ]
        },
        {
            "positions": [
                -2.788688987981314,
                -0.7426375742549909,
                1.0456638642252685,
                -0.27516230065096103,
                0.8226544983612386,
                -3.1373167661213
            ]
        },
        {
            "positions": [
                -2.7630743551463794,
                -0.7095769749453458,
                0.9446449937183465,
                -0.20596866231813726,
                0.6909775345788811,
                -3.144925766328106
            ]
        },
        {
            "positions": [
                -2.7374597223114443,
                -0.6765163756357007,
                0.8436261232114248,
                -0.1367750239853135,
                0.5593005707965235,
                -3.152534766534912
            ]
        },
        {
            "positions": [
                -2.7118450894765096,
                -0.6434557763260556,
                0.7426072527045031,
                -0.06758138565248986,
                0.4276236070141662,
                -3.1601437667417183
            ]
        }
    ]
}