{
    "goal": {
        "global_pose": {
            "orientation": {
                "w": 0.005598929693374612,
                "x": 0.007748599140229565,
                "y": 0.7110244013736278,
                "z": -0.7031023480610252
            },
            "position": {
                "x": 0.1141497679147869,
                "y": -0.7141253447532654,
                "z": 0.3711530566215515
            }
        },
        "name": "move_to_auspresseinheit_B"
    },
    "id": "LBTRRT_move_to_auspresseinheit_B_6",
    "joint_names": [
        "shoulder_pan_joint",
        "shoulder_lift_joint",
        "elbow_joint",
        "wrist_1_joint",
        "wrist_2_joint",
        "wrist_3_joint"
    ],
    "metrics": {
        "cart_traj_len": 0.5653906148525599,
        "distance_elbow_joint": 0.06179173408687144,
        "distance_shoulder_lift_joint": 0.29364388192611557,
        "distance_shoulder_pan_joint": 0.5760562367728372,
        "distance_wrist_1_joint": 0.32084516450065426,
        "distance_wrist_2_joint": 1.0049261832004928,
        "distance_wrist_3_joint": 0.0024948381608038694,
        "smoothness": 0.0,
        "time": 5.004456142,
        "traj_len": 1.5032491605345322,
        "weighted_distance": 1.8948665025986737
    },
    "planner": "LBTRRT",
    "start": {
        "state": {
            "elbow_joint": 2.0193083361928714,
            "shoulder_lift_joint": -1.1220246554650708,
            "shoulder_pan_joint": -1.0952077554168747,
            "wrist_1_joint": -0.8559753972642168,
            "wrist_2_joint": 0.4759566250798843,
            "wrist_3_joint": -3.1240929996934557
        }
    },
    "waypoints": [
        {
            "positions": [
                -1.0952077554168747,
                -1.1220246554650708,
                2.0193083361928714,
                -0.8559753972642168,
                0.4759566250798843,
                -3.1240929996934557
            ]
        },
        {
            "positions": [
                -1.1912171282123476,
                -1.1709653024527567,
                2.0090097138450593,
                -0.8025012031807744,
                0.6434443222799664,
                -3.1245088060535897
            ]
        },
        {
            "positions": [
                -1.2872265010078203,
                -1.2199059494404427,
                1.9987110914972477,
                -0.749027009097332,
                0.8109320194800484,
                -3.1249246124137238
            ]
        },
        {
            "positions": [
                -1.3832358738032933,
                -1.2688465964281286,
                1.9884124691494356,
                -0.6955528150138897,
                0.9784197166801307,
                -3.125340418773858
            ]
        },
        {
            "positions": [
                -1.479245246598766,
                -1.3177872434158144,
                1.9781138468016237,
                -0.6420786209304473,
                1.1459074138802128,
                -3.1257562251339914
            ]
        },
        {
            "positions": [
                -1.5752546193942392,
                -1.3667278904035005,
                1.9678152244538119,
                -0.5886044268470049,
                1.313395111080295,
                -3.1261720314941255
            ]
        },
        {
            "positions": [
                -1.6712639921897119,
                -1.4156685373911864,
                1.957516602106,
                -0.5351302327635625,
                1.480882808280377,
                -3.1265878378542595
            ]
        }
    ]
}