{
    "goal": {
        "global_pose": {
            "orientation": {
                "w": 0.005598929693374612,
                "x": 0.007748599140229565,
                "y": 0.7110244013736278,
                "z": -0.7031023480610252
            },
            "position": {
                "x": -0.8858502320852131,
                "y": -0.7141253447532654,
                "z": 0.3711530566215515
            }
        },
        "name": "move_to_auspresseinheit_C"
    },
    "id": "LBTRRT_move_to_auspresseinheit_C_13",
    "joint_names": [
        "shoulder_pan_joint",
        "shoulder_lift_joint",
        "elbow_joint",
        "wrist_1_joint",
        "wrist_2_joint",
        "wrist_3_joint"
    ],
    "metrics": {
        "cart_traj_len": 0.49332366457798854,
        "distance_elbow_joint": 0.9977542792040102,
        "distance_shoulder_lift_joint": 0.3236658087712193,
        "distance_shoulder_pan_joint": 0.25682871859892,
        "distance_wrist_1_joint": 0.674793482222942,
        "distance_wrist_2_joint": 1.307778843821724,
        "distance_wrist_3_joint": 0.06326580730652553,
        "smoothness": 0.0,
        "time": 5.002351815,
        "traj_len": 1.9037034800423467,
        "weighted_distance": 2.3944082526969073
    },
    "planner": "LBTRRT",
    "start": {
        "state": {
            "elbow_joint": 1.7527959577737207,
            "shoulder_lift_joint": -0.9740617694225068,
            "shoulder_pan_joint": -2.967991417825858,
            "wrist_1_joint": -0.759517768980727,
            "wrist_2_joint": 1.7443932448377408,
            "wrist_3_joint": -3.0840537646736568
        }
    },
    "waypoints": [
        {
            "positions": [
                -2.967991417825858,
                -0.9740617694225068,
                1.7527959577737207,
                -0.759517768980727,
                1.7443932448377408,
                -3.0840537646736568
            ]
        },
        {
            "positions": [
                -2.942308545965966,
                -0.9416951885453848,
                1.6530205298533196,
                -0.6920384207584328,
                1.6136153604555685,
                -3.0903803454043093
            ]
        },
        {
            "positions": [
                -2.916625674106074,
                -0.909328607668263,
                1.5532451019329185,
                -0.6245590725361385,
                1.482837476073396,
                -3.096706926134962
            ]
        },
        {
            "positions": [
                -2.890942802246182,
                -0.876962026791141,
                1.4534696740125177,
                -0.5570797243138443,
                1.3520595916912237,
                -3.1030335068656143
            ]
        },
        {
            "positions": [
                -2.86525993038629,
                -0.844595445914019,
                1.3536942460921166,
                -0.48960037609155016,
                1.2212817073090512,
                -3.109360087596267
            ]
        },
        {
            "positions": [
                -2.839577058526398,
                -0.8122288650368972,
                1.2539188181717156,
                -0.422121027869256,
                1.0905038229268789,
                -3.1156866683269193
            ]
        },
        {
            "positions": [
                -2.813894186666506,
                -0.7798622841597752,
                1.1541433902513147,
                -0.3546416796469618,
                0.9597259385447064,
                -3.1220132490575723
            ]
        },
        {
            "positions": [
                -2.788211314806614,
                -0.7474957032826532,
                1.0543679623309137,
                -0.2871623314246676,
                0.8289480541625341,
                -3.128339829788225
            ]
        },
        {
            "positions": [
                -2.762528442946722,
                -0.7151291224055314,
                0.9545925344105125,
                -0.21968298320237334,
                0.6981701697803617,
                -3.1346664105188773
            ]
        },
        {
            "positions": [
                -2.73684557108683,
                -0.6827625415284093,
                0.8548171064901114,
                -0.15220363498007916,
                0.5673922853981892,
                -3.14099299124953
            ]
        },
        {
            "positions": [
                -2.711162699226938,
                -0.6503959606512875,
                0.7550416785697105,
                -0.08472428675778494,
                0.4366144010160169,
                -3.1473195719801823
            ]
        }
    ]
}