{
    "goal": {
        "global_pose": {
            "orientation": {
                "w": -0.4816463035849501,
                "x": 0.5182115481033762,
                "y": 0.4908360881923453,
                "z": -0.5084816262002911
            },
            "position": {
                "x": -0.8240239810943604,
                "y": -0.300875300988555,
                "z": 0.16403168439865112
            }
        },
        "name": "move_to_storage_C"
    },
    "id": "LBTRRT_move_to_storage_C_92",
    "joint_names": [
        "shoulder_pan_joint",
        "shoulder_lift_joint",
        "elbow_joint",
        "wrist_1_joint",
        "wrist_2_joint",
        "wrist_3_joint"
    ],
    "metrics": {
        "cart_traj_len": 0.5761022090151113,
        "distance_elbow_joint": 0.259686640899526,
        "distance_shoulder_lift_joint": 0.18981382036669092,
        "distance_shoulder_pan_joint": 0.49395413201734106,
        "distance_wrist_1_joint": 0.0819137726675565,
        "distance_wrist_2_joint": 1.0650379474034417,
        "distance_wrist_3_joint": 0.07132716410228923,
        "smoothness": 2.5376526478085547e-16,
        "time": 5.005117395999999,
        "traj_len": 1.4702834684022144,
        "weighted_distance": 1.8577781153120578
    },
    "planner": "LBTRRT",
    "start": {
        "state": {
            "elbow_joint": 2.010868314990456,
            "shoulder_lift_joint": -1.1634956873337592,
            "shoulder_pan_joint": -2.4736205022346125,
            "wrist_1_joint": -0.8367026794202681,
            "wrist_2_joint": 0.6746043897044499,
            "wrist_3_joint": -3.1496632123970403
        }
    },
    "waypoints": [
        {
            "positions": [
                -2.4736205022346125,
                -1.1634956873337592,
                2.010868314990456,
                -0.8367026794202681,
                0.6746043897044499,
                -3.1496632123970403
            ]
        },
        {
            "positions": [
                -2.5559461909041694,
                -1.1318600506059773,
                1.9675872081738681,
                -0.8230503839756753,
                0.8521107142716902,
                -3.1377753517133256
            ]
        },
        {
            "positions": [
                -2.6382718795737263,
                -1.1002244138781956,
                1.9243061013572804,
                -0.8093980885310826,
                1.0296170388389305,
                -3.1258874910296104
            ]
        },
        {
            "positions": [
                -2.7205975682432832,
                -1.0685887771504137,
                1.881024994540693,
                -0.7957457930864898,
                1.2071233634061707,
                -3.1139996303458957
            ]
        },
        {
            "positions": [
                -2.8029232569128397,
                -1.036953140422632,
                1.8377438877241052,
                -0.7820934976418971,
                1.384629687973411,
                -3.102111769662181
            ]
        },
        {
            "positions": [
                -2.8852489455823966,
                -1.00531750369485,
                1.7944627809075175,
                -0.7684412021973044,
                1.5621360125406514,
                -3.0902239089784658
            ]
        },
        {
            "positions": [
                -2.9675746342519536,
                -0.9736818669670683,
                1.7511816740909298,
                -0.7547889067527116,
                1.7396423371078917,
                -3.078336048294751
            ]
        }
    ]
}