{
    "goal": {
        "global_pose": {
            "orientation": {
                "w": -0.4816463035849501,
                "x": 0.5182115481033762,
                "y": 0.4908360881923453,
                "z": -0.5084816262002911
            },
            "position": {
                "x": -0.8240239810943604,
                "y": -0.300875300988555,
                "z": 0.16403168439865112
            }
        },
        "name": "move_to_storage_C"
    },
    "id": "LBTRRT_move_to_storage_C_67",
    "joint_names": [
        "shoulder_pan_joint",
        "shoulder_lift_joint",
        "elbow_joint",
        "wrist_1_joint",
        "wrist_2_joint",
        "wrist_3_joint"
    ],
    "metrics": {
        "cart_traj_len": 0.5765225502654361,
        "distance_elbow_joint": 0.255609777828089,
        "distance_shoulder_lift_joint": 0.18893648442052646,
        "distance_shoulder_pan_joint": 0.4943222953269619,
        "distance_wrist_1_joint": 0.0669560436340596,
        "distance_wrist_2_joint": 1.0692061312045817,
        "distance_wrist_3_joint": 0.07010265055859133,
        "smoothness": 5.075305295617109e-16,
        "time": 5.003432946999999,
        "traj_len": 1.4646273870759108,
        "weighted_distance": 1.849729942161459
    },
    "planner": "LBTRRT",
    "start": {
        "state": {
            "elbow_joint": 2.010868314990456,
            "shoulder_lift_joint": -1.1634956873337592,
            "shoulder_pan_joint": -2.4736205022346125,
            "wrist_1_joint": -0.8367026794202681,
            "wrist_2_joint": 0.6746043897044499,
            "wrist_3_joint": -3.1496632123970403
        }
    },
    "waypoints": [
        {
            "positions": [
                -2.4736205022346125,
                -1.1634956873337592,
                2.010868314990456,
                -0.8367026794202681,
                0.6746043897044499,
                -3.1496632123970403
            ]
        },
        {
            "positions": [
                -2.5560075514557727,
                -1.1320062732636715,
                1.9682666853524409,
                -0.8255433388145915,
                0.8528054115718802,
                -3.1379794373039416
            ]
        },
        {
            "positions": [
                -2.638394600676933,
                -1.1005168591935837,
                1.9256650557144261,
                -0.8143839982089149,
                1.0310064334393105,
                -3.1262956622108433
            ]
        },
        {
            "positions": [
                -2.7207816498980932,
                -1.069027445123496,
                1.8830634260764114,
                -0.8032246576032382,
                1.209207455306741,
                -3.1146118871177446
            ]
        },
        {
            "positions": [
                -2.803168699119254,
                -1.0375380310534081,
                1.8404617964383965,
                -0.7920653169975617,
                1.387408477174171,
                -3.102928112024646
            ]
        },
        {
            "positions": [
                -2.885555748340414,
                -1.0060486169833205,
                1.7978601668003815,
                -0.7809059763918851,
                1.5656094990416014,
                -3.0912443369315477
            ]
        },
        {
            "positions": [
                -2.9679427975615744,
                -0.9745592029132327,
                1.7552585371623668,
                -0.7697466357862085,
                1.7438105209090318,
                -3.079560561838449
            ]
        }
    ]
}