{
    "goal": {
        "global_pose": {
            "orientation": {
                "w": 0.7047431468963623,
                "x": -0.7094548344612122,
                "y": 0.0024358443915843964,
                "z": -0.0022348060738295317
            },
            "position": {
                "x": 0.6094750761985779,
                "y": 0.3671506643295288,
                "z": 0.19426114857196808
            }
        },
        "name": "move_to_magneteinheit_A"
    },
    "id": "LBTRRT_move_to_magneteinheit_A_140",
    "joint_names": [
        "shoulder_pan_joint",
        "shoulder_lift_joint",
        "elbow_joint",
        "wrist_1_joint",
        "wrist_2_joint",
        "wrist_3_joint"
    ],
    "metrics": {
        "cart_traj_len": 3.3904976885543796,
        "distance_elbow_joint": 3.9285993988398826,
        "distance_shoulder_lift_joint": 1.2079396938727116,
        "distance_shoulder_pan_joint": 2.576100293483398,
        "distance_wrist_1_joint": 3.5249173067031494,
        "distance_wrist_2_joint": 1.4369265014534474,
        "distance_wrist_3_joint": 1.0854436636919027,
        "smoothness": 0.038153561942904674,
        "time": 5.059961134,
        "traj_len": 3.7094375393103047,
        "weighted_distance": 4.57084871698735
    },
    "planner": "LBTRRT",
    "start": {
        "state": {
            "elbow_joint": -1.9196185241190666,
            "shoulder_lift_joint": -1.2443396400964142,
            "shoulder_pan_joint": 2.6996025414629847,
            "wrist_1_joint": -1.5485510000780065,
            "wrist_2_joint": -1.5709468930060704,
            "wrist_3_joint": 0.4420197071253992
        }
    },
    "waypoints": [
        {
            "positions": [
                2.6996025414629847,
                -1.2443396400964142,
                -1.9196185241190666,
                -1.5485510000780065,
                -1.5709468930060704,
                0.4420197071253992
            ]
        },
        {
            "positions": [
                2.5889399734181984,
                -1.20668010464858,
                -1.8541548119170255,
                -1.47918483266178,
                -1.5127349994563977,
                0.4045025630671055
            ]
        },
        {
            "positions": [
                2.478277405373412,
                -1.1690205692007456,
                -1.7886910997149843,
                -1.4098186652455535,
                -1.4545231059067252,
                0.3669854190088118
            ]
        },
        {
            "positions": [
                2.3676148373286257,
                -1.1313610337529114,
                -1.7232273875129431,
                -1.340452497829327,
                -1.3963112123570525,
                0.32946827495051817
            ]
        },
        {
            "positions": [
                2.2569522692838393,
                -1.0937014983050772,
                -1.6577636753109017,
                -1.2710863304131008,
                -1.3380993188073798,
                0.29195113089222446
            ]
        },
        {
            "positions": [
                2.146289701239053,
                -1.0560419628572428,
                -1.5922999631088606,
                -1.2017201629968741,
                -1.279887425257707,
                0.2544339868339308
            ]
        },
        {
            "positions": [
                2.0356271331942666,
                -1.0183824274094087,
                -1.5268362509068194,
                -1.1323539955806479,
                -1.2216755317080343,
                0.21691684277563716
            ]
        },
        {
            "positions": [
                1.9249645651494804,
                -0.9807228919615745,
                -1.4613725387047782,
                -1.0629878281644214,
                -1.1634636381583618,
                0.17939969871734351
            ]
        },
        {
            "positions": [
                1.814301997104694,
                -0.9430633565137402,
                -1.3959088265027368,
                -0.9936216607481949,
                -1.1052517446086891,
                0.1418825546590498
            ]
        },
        {
            "positions": [
                1.7036394290599077,
                -0.9054038210659059,
                -1.3304451143006957,
                -0.9242554933319684,
                -1.0470398510590164,
                0.10436541060075616
            ]
        },
        {
            "positions": [
                1.5929768610151214,
                -0.8677442856180717,
                -1.2649814020986545,
                -0.854889325915742,
                -0.9888279575093438,
                0.06684826654246251
            ]
        },
        {
            "positions": [
                1.482314292970335,
                -0.8300847501702373,
                -1.1995176898966133,
                -0.7855231584995155,
                -0.9306160639596711,
                0.029331122484168748
            ]
        },
        {
            "positions": [
                1.3716517249255487,
                -0.7924252147224031,
                -1.1340539776945722,
                -0.7161569910832891,
                -0.8724041704099985,
                -0.008186021574124847
            ]
        },
        {
            "positions": [
                1.2609891568807623,
                -0.7547656792745688,
                -1.068590265492531,
                -0.6467908236670625,
                -0.8141922768603258,
                -0.04570316563241855
            ]
        },
        {
            "positions": [
                1.1503265888359762,
                -0.7171061438267347,
                -1.0031265532904898,
                -0.5774246562508362,
                -0.7559803833106532,
                -0.08322030969071215
            ]
        },
        {
            "positions": [
                1.0396640207911896,
                -0.6794466083789004,
                -0.9376628410884484,
                -0.5080584888346096,
                -0.6977684897609805,
                -0.12073745374900591
            ]
        },
        {
            "positions": [
                0.9290014527464034,
                -0.6417870729310662,
                -0.8721991288864073,
                -0.4386923214183833,
                -0.6395565962113079,
                -0.15825459780729956
            ]
        },
        {
            "positions": [
                0.8183388847016171,
                -0.6041275374832319,
                -0.8067354166843661,
                -0.36932615400215685,
                -0.5813447026616352,
                -0.1957717418655932
            ]
        },
        {
            "positions": [
                0.7076763166568307,
                -0.5664680020353976,
                -0.7412717044823249,
                -0.29995998658593037,
                -0.5231328091119627,
                -0.23328888592388686
            ]
        },
        {
            "positions": [
                0.5970137486120444,
                -0.5288084665875633,
                -0.6758079922802835,
                -0.2305938191697039,
                -0.46492091556228976,
                -0.2708060299821806
            ]
        },
        {
            "positions": [
                0.486351180567258,
                -0.49114893113972913,
                -0.6103442800782426,
                -0.16122765175347742,
                -0.40670902201261727,
                -0.30832317404047416
            ]
        },
        {
            "positions": [
                0.37568861252247177,
                -0.45348939569189484,
                -0.5448805678762013,
                -0.09186148433725104,
                -0.3484971284629446,
                -0.3458403180987679
            ]
        },
        {
            "positions": [
                0.32209999238493314,
                -0.439241680736792,
                -0.4277483515911111,
                0.013222056955273079,
                -0.3078467490569795,
                -0.3443133588985804
            ]
        },
        {
            "positions": [
                0.2685113722473946,
                -0.4249939657816892,
                -0.31061613530602084,
                0.1183055982477972,
                -0.26719636965101434,
                -0.3427863996983929
            ]
        },
        {
            "positions": [
                0.21492275210985598,
                -0.41074625082658633,
                -0.1934839190209306,
                0.2233891395403213,
                -0.22654599024504923,
                -0.3412594404982054
            ]
        },
        {
            "positions": [
                0.2078904056382968,
                -0.43954212041142354,
                -0.02406355027156548,
                0.35823353700838456,
                -0.21942863649947802,
                -0.31872076658534587
            ]
        },
        {
            "positions": [
                0.20085805916673766,
                -0.4683379899962608,
                0.14535681847779963,
                0.49307793447644777,
                -0.2123112827539068,
                -0.29618209267248635
            ]
        },
        {
            "positions": [
                0.19382571269517848,
                -0.497133859581098,
                0.3147771872271648,
                0.627922331944511,
                -0.20519392900833558,
                -0.27364341875962683
            ]
        },
        {
            "positions": [
                0.1867933662236193,
                -0.5259297291659353,
                0.48419755597652986,
                0.7627667294125742,
                -0.19807657526276434,
                -0.2511047448467673
            ]
        },
        {
            "positions": [
                0.17976101975206013,
                -0.5547255987507724,
                0.6536179247258951,
                0.8976111268806375,
                -0.19095922151719313,
                -0.2285660709339078
            ]
        },
        {
            "positions": [
                0.17272867328050096,
                -0.5835214683356097,
                0.8230382934752603,
                1.0324555243487006,
                -0.18384186777162193,
                -0.2060273970210483
            ]
        },
        {
            "positions": [
                0.1656963268089418,
                -0.612317337920447,
                0.9924586622246252,
                1.1672999218167637,
                -0.17672451402605072,
                -0.18348872310818878
            ]
        },
        {
            "positions": [
                0.15866398033738263,
                -0.6411132075052842,
                1.1618790309739904,
                1.3021443192848272,
                -0.16960716028047948,
                -0.16095004919532926
            ]
        },
        {
            "positions": [
                0.15163163386582346,
                -0.6699090770901214,
                1.3312993997233555,
                1.4369887167528903,
                -0.16248980653490824,
                -0.13841137528246977
            ]
        },
        {
            "positions": [
                0.1445992873942643,
                -0.6987049466749586,
                1.5007197684727207,
                1.5718331142209536,
                -0.15537245278933703,
                -0.11587270136961023
            ]
        },
        {
            "positions": [
                0.13756694092270513,
                -0.7275008162597958,
                1.6701401372220857,
                1.7066775116890167,
                -0.14825509904376583,
                -0.09333402745675073
            ]
        },
        {
            "positions": [
                0.13053459445114596,
                -0.7562966858446332,
                1.839560505971451,
                1.84152190915708,
                -0.1411377452981946,
                -0.07079535354389122
            ]
        },
        {
            "positions": [
                0.1235022479795868,
                -0.7850925554294703,
                2.008980874720816,
                1.9763663066251431,
                -0.13402039155262338,
                -0.04825667963103171
            ]
        }
    ]
}