{
    "goal": {
        "global_pose": {
            "orientation": {
                "w": 0.005598929693374612,
                "x": 0.007748599140229565,
                "y": 0.7110244013736278,
                "z": -0.7031023480610252
            },
            "position": {
                "x": -0.8858502320852131,
                "y": -0.7141253447532654,
                "z": 0.3711530566215515
            }
        },
        "name": "move_to_auspresseinheit_C"
    },
    "id": "LBTRRT_move_to_auspresseinheit_C_60",
    "joint_names": [
        "shoulder_pan_joint",
        "shoulder_lift_joint",
        "elbow_joint",
        "wrist_1_joint",
        "wrist_2_joint",
        "wrist_3_joint"
    ],
    "metrics": {
        "cart_traj_len": 0.4933931200972346,
        "distance_elbow_joint": 1.0162245232462288,
        "distance_shoulder_lift_joint": 0.3326499932200766,
        "distance_shoulder_pan_joint": 0.2551839401776843,
        "distance_wrist_1_joint": 0.7100647962731478,
        "distance_wrist_2_joint": 1.3223264710699798,
        "distance_wrist_3_joint": 0.08310635211039985,
        "smoothness": 9.689219124001365e-16,
        "time": 5.004226076,
        "traj_len": 1.9286150668543263,
        "weighted_distance": 2.4327268748590427
    },
    "planner": "LBTRRT",
    "start": {
        "state": {
            "elbow_joint": 1.7527959577737207,
            "shoulder_lift_joint": -0.9740617694225068,
            "shoulder_pan_joint": -2.967991417825858,
            "wrist_1_joint": -0.759517768980727,
            "wrist_2_joint": 1.7443932448377408,
            "wrist_3_joint": -3.0840537646736568
        }
    },
    "waypoints": [
        {
            "positions": [
                -2.967991417825858,
                -0.9740617694225068,
                1.7527959577737207,
                -0.759517768980727,
                1.7443932448377408,
                -3.0840537646736568
            ]
        },
        {
            "positions": [
                -2.9424730238080894,
                -0.9407967701004991,
                1.6511735054490977,
                -0.6885112893534122,
                1.612160597730743,
                -3.092364399884697
            ]
        },
        {
            "positions": [
                -2.9169546297903213,
                -0.9075317707784915,
                1.549551053124475,
                -0.6175048097260974,
                1.4799279506237448,
                -3.100675035095737
            ]
        },
        {
            "positions": [
                -2.8914362357725527,
                -0.8742667714564838,
                1.447928600799852,
                -0.5464983300987827,
                1.347695303516747,
                -3.108985670306777
            ]
        },
        {
            "positions": [
                -2.865917841754784,
                -0.8410017721344761,
                1.3463061484752292,
                -0.47549185047146786,
                1.2154626564097488,
                -3.117296305517817
            ]
        },
        {
            "positions": [
                -2.840399447737016,
                -0.8077367728124685,
                1.2446836961506063,
                -0.4044853708441531,
                1.083230009302751,
                -3.125606940728857
            ]
        },
        {
            "positions": [
                -2.8148810537192475,
                -0.7744717734904608,
                1.1430612438259833,
                -0.3334788912168383,
                0.9509973621957529,
                -3.1339175759398965
            ]
        },
        {
            "positions": [
                -2.789362659701479,
                -0.7412067741684532,
                1.0414387915013605,
                -0.26247241158952356,
                0.818764715088755,
                -3.1422282111509365
            ]
        },
        {
            "positions": [
                -2.7638442656837103,
                -0.7079417748464455,
                0.9398163391767376,
                -0.19146593196220874,
                0.686532067981757,
                -3.1505388463619766
            ]
        },
        {
            "positions": [
                -2.738325871665942,
                -0.6746767755244378,
                0.8381938868521147,
                -0.12045945233489397,
                0.5542994208747589,
                -3.1588494815730166
            ]
        },
        {
            "positions": [
                -2.7128074776481736,
                -0.6414117762024302,
                0.7365714345274917,
                -0.049452972707579236,
                0.4220667737677611,
                -3.1671601167840566
            ]
        }
    ]
}