{
    "goal": {
        "global_pose": {
            "orientation": {
                "w": -0.4816463035849501,
                "x": 0.5182115481033762,
                "y": 0.4908360881923453,
                "z": -0.5084816262002911
            },
            "position": {
                "x": -0.8240239810943604,
                "y": 0.19912469901144506,
                "z": 0.16403168439865112
            }
        },
        "name": "move_to_storage_D"
    },
    "id": "LBTRRT_move_to_storage_D_30",
    "joint_names": [
        "shoulder_pan_joint",
        "shoulder_lift_joint",
        "elbow_joint",
        "wrist_1_joint",
        "wrist_2_joint",
        "wrist_3_joint"
    ],
    "metrics": {
        "cart_traj_len": 3.79815039380879,
        "distance_elbow_joint": 4.212975509185583,
        "distance_shoulder_lift_joint": 1.2640818090812393,
        "distance_shoulder_pan_joint": 2.8136629128869286,
        "distance_wrist_1_joint": 2.2828671478406406,
        "distance_wrist_2_joint": 0.879658929867042,
        "distance_wrist_3_joint": 3.122438170836706,
        "smoothness": 0.00030068463451842094,
        "time": 5.047904299,
        "traj_len": 3.817811477757662,
        "weighted_distance": 4.897252995208563
    },
    "planner": "LBTRRT",
    "start": {
        "state": {
            "elbow_joint": -2.384821988534728,
            "shoulder_lift_joint": -2.2788054721415256,
            "shoulder_pan_joint": -0.1854694642142757,
            "wrist_1_joint": 1.4845938289331202,
            "wrist_2_joint": 0.17898776772866878,
            "wrist_3_joint": 0.037105688729662994
        }
    },
    "waypoints": [
        {
            "positions": [
                -0.1854694642142757,
                -2.2788054721415256,
                -2.384821988534728,
                1.4845938289331202,
                0.17898776772866878,
                0.037105688729662994
            ]
        },
        {
            "positions": [
                -0.09864985753747564,
                -2.2490269157261826,
                -2.2582382150340874,
                1.4205837138296304,
                0.20827369091598583,
                -0.019666569283490483
            ]
        },
        {
            "positions": [
                -0.011830250860675573,
                -2.2192483593108396,
                -2.1316544415334473,
                1.356573598726141,
                0.2375596141033029,
                -0.07643882729664396
            ]
        },
        {
            "positions": [
                0.07498935581612451,
                -2.1894698028954966,
                -2.0050706680328068,
                1.2925634836226512,
                0.26684553729061994,
                -0.13321108530979744
            ]
        },
        {
            "positions": [
                0.16180896249292456,
                -2.1596912464801536,
                -1.8784868945321664,
                1.2285533685191614,
                0.296131460477937,
                -0.18998334332295091
            ]
        },
        {
            "positions": [
                0.24862856916972462,
                -2.1299126900648107,
                -1.7519031210315261,
                1.1645432534156719,
                0.3254173836652541,
                -0.24675560133610439
            ]
        },
        {
            "positions": [
                0.33544817584652475,
                -2.100134133649467,
                -1.6253193475308856,
                1.1005331383121821,
                0.3547033068525711,
                -0.30352785934925786
            ]
        },
        {
            "positions": [
                0.42226778252332475,
                -2.0703555772341242,
                -1.4987355740302453,
                1.0365230232086924,
                0.38398923003988816,
                -0.3603001173624114
            ]
        },
        {
            "positions": [
                0.5090873892001249,
                -2.0405770208187812,
                -1.372151800529605,
                0.9725129081052027,
                0.4132751532272052,
                -0.41707237537556485
            ]
        },
        {
            "positions": [
                0.5959069958769249,
                -2.0107984644034382,
                -1.2455680270289646,
                0.9085027930017131,
                0.44256107641452225,
                -0.4738446333887183
            ]
        },
        {
            "positions": [
                0.682726602553725,
                -1.9810199079880952,
                -1.1189842535283243,
                0.8444926778982235,
                0.4718469996018393,
                -0.5306168914018717
            ]
        },
        {
            "positions": [
                0.769546209230525,
                -1.9512413515727522,
                -0.992400480027684,
                0.7804825627947338,
                0.5011329227891563,
                -0.5873891494150252
            ]
        },
        {
            "positions": [
                0.8563658159073252,
                -1.9214627951574093,
                -0.8658167065270432,
                0.7164724476912441,
                0.5304188459764735,
                -0.6441614074281787
            ]
        },
        {
            "positions": [
                0.9431854225841253,
                -1.891684238742066,
                -0.7392329330264029,
                0.6524623325877543,
                0.5597047691637905,
                -0.7009336654413323
            ]
        },
        {
            "positions": [
                1.030005029260925,
                -1.861905682326723,
                -0.6126491595257626,
                0.5884522174842647,
                0.5889906923511076,
                -0.7577059234544857
            ]
        },
        {
            "positions": [
                1.1168246359377252,
                -1.83212712591138,
                -0.4860653860251223,
                0.524442102380775,
                0.6182766155384246,
                -0.8144781814676392
            ]
        },
        {
            "positions": [
                1.2036442426145253,
                -1.802348569496037,
                -0.35948161252448196,
                0.4604319872772853,
                0.6475625387257417,
                -0.8712504394807926
            ]
        },
        {
            "positions": [
                1.2904638492913252,
                -1.7725700130806938,
                -0.23289783902384142,
                0.39642187217379576,
                0.6768484619130587,
                -0.9280226974939461
            ]
        },
        {
            "positions": [
                1.3772834559681253,
                -1.7427914566653508,
                -0.10631406552320133,
                0.332411757070306,
                0.7061343851003757,
                -0.9847949555070996
            ]
        },
        {
            "positions": [
                1.4641030626449254,
                -1.7130129002500079,
                0.02026970797743921,
                0.2684016419668165,
                0.7354203082876928,
                -1.041567213520253
            ]
        },
        {
            "positions": [
                1.5509226693217255,
                -1.6832343438346649,
                0.1468534814780793,
                0.20439152686332673,
                0.7647062314750098,
                -1.0983394715334065
            ]
        },
        {
            "positions": [
                1.6377422759985254,
                -1.6534557874193219,
                0.27343725497871985,
                0.14038141175983698,
                0.7939921546623269,
                -1.15511172954656
            ]
        },
        {
            "positions": [
                1.7245618826753255,
                -1.6236772310039789,
                0.40002102847935994,
                0.07637129665634745,
                0.8232780778496439,
                -1.2118839875597134
            ]
        },
        {
            "positions": [
                1.8113814893521258,
                -1.5938986745886357,
                0.5266048019800009,
                0.012361181552857481,
                0.8525640010369611,
                -1.2686562455728672
            ]
        },
        {
            "positions": [
                1.898201096028926,
                -1.5641201181732927,
                0.6531885754806415,
                -0.05164893355063205,
                0.8818499242242781,
                -1.3254285035860205
            ]
        },
        {
            "positions": [
                1.985020702705726,
                -1.5343415617579497,
                0.7797723489812816,
                -0.1156590486541218,
                0.9111358474115951,
                -1.382200761599174
            ]
        },
        {
            "positions": [
                2.071840309382526,
                -1.5045630053426065,
                0.9063561224819221,
                -0.17966916375761155,
                0.9404217705989122,
                -1.4389730196123276
            ]
        },
        {
            "positions": [
                2.158659916059326,
                -1.4747844489272635,
                1.0329398959825622,
                -0.24367927886110108,
                0.9697076937862292,
                -1.495745277625481
            ]
        },
        {
            "positions": [
                2.245479522736126,
                -1.4450058925119205,
                1.1595236694832027,
                -0.30768939396459083,
                0.9989936169735463,
                -1.5525175356386345
            ]
        },
        {
            "positions": [
                2.332299129412926,
                -1.4152273360965775,
                1.2861074429838428,
                -0.37169950906808036,
                1.0282795401608633,
                -1.6092897936517878
            ]
        },
        {
            "positions": [
                2.419118736089726,
                -1.3854487796812345,
                1.4126912164844834,
                -0.4357096241715701,
                1.0575654633481804,
                -1.6660620516649414
            ]
        },
        {
            "positions": [
                2.445253075162592,
                -1.339108140103616,
                1.4646240045052799,
                -0.48103008601356384,
                1.057430309067239,
                -1.843470855470204
            ]
        },
        {
            "positions": [
                2.471387414235458,
                -1.2927675005259975,
                1.5165567925260763,
                -0.5263505478555576,
                1.0572951547862979,
                -2.020879659275467
            ]
        },
        {
            "positions": [
                2.4975217533083236,
                -1.2464268609483788,
                1.568489580546873,
                -0.5716710096975512,
                1.0571600005053565,
                -2.1982884630807296
            ]
        },
        {
            "positions": [
                2.5236560923811897,
                -1.2000862213707604,
                1.6204223685676695,
                -0.616991471539545,
                1.0570248462244152,
                -2.375697266885992
            ]
        },
        {
            "positions": [
                2.5497904314540554,
                -1.153745581793142,
                1.672355156588466,
                -0.6623119333815388,
                1.0568896919434738,
                -2.5531060706912547
            ]
        },
        {
            "positions": [
                2.575924770526921,
                -1.1074049422155232,
                1.7242879446092627,
                -0.7076323952235325,
                1.0567545376625325,
                -2.7305148744965173
            ]
        },
        {
            "positions": [
                2.602059109599787,
                -1.0610643026379047,
                1.7762207326300592,
                -0.7529528570655262,
                1.0566193833815913,
                -2.9079236783017803
            ]
        },
        {
            "positions": [
                2.628193448672653,
                -1.0147236630602863,
                1.8281535206508557,
                -0.79827331890752,
                1.05648422910065,
                -3.085332482107043
            ]
        }
    ]
}