{
    "goal": {
        "global_pose": {
            "orientation": {
                "w": 0.005598929693374612,
                "x": 0.007748599140229565,
                "y": 0.7110244013736278,
                "z": -0.7031023480610252
            },
            "position": {
                "x": -0.8858502320852131,
                "y": -0.7141253447532654,
                "z": 0.3711530566215515
            }
        },
        "name": "move_to_auspresseinheit_C"
    },
    "id": "LBTRRT_move_to_auspresseinheit_C_54",
    "joint_names": [
        "shoulder_pan_joint",
        "shoulder_lift_joint",
        "elbow_joint",
        "wrist_1_joint",
        "wrist_2_joint",
        "wrist_3_joint"
    ],
    "metrics": {
        "cart_traj_len": 0.49349465244584867,
        "distance_elbow_joint": 0.9973993145175428,
        "distance_shoulder_lift_joint": 0.323557037035893,
        "distance_shoulder_pan_joint": 0.25633973966834933,
        "distance_wrist_1_joint": 0.6660852521662441,
        "distance_wrist_2_joint": 1.314920362112237,
        "distance_wrist_3_joint": 0.04720601721183293,
        "smoothness": 6.45947944157498e-16,
        "time": 5.0054865820000005,
        "traj_len": 1.8988174537622355,
        "weighted_distance": 2.3834691882661807
    },
    "planner": "LBTRRT",
    "start": {
        "state": {
            "elbow_joint": 1.7527959577737207,
            "shoulder_lift_joint": -0.9740617694225068,
            "shoulder_pan_joint": -2.967991417825858,
            "wrist_1_joint": -0.759517768980727,
            "wrist_2_joint": 1.7443932448377408,
            "wrist_3_joint": -3.0840537646736568
        }
    },
    "waypoints": [
        {
            "positions": [
                -2.967991417825858,
                -0.9740617694225068,
                1.7527959577737207,
                -0.759517768980727,
                1.7443932448377408,
                -3.0840537646736568
            ]
        },
        {
            "positions": [
                -2.942357443859023,
                -0.9417060657189175,
                1.6530560263219665,
                -0.6929092437641026,
                1.612901208626517,
                -3.08877436639484
            ]
        },
        {
            "positions": [
                -2.916723469892188,
                -0.9093503620153282,
                1.553316094870212,
                -0.6263007185474782,
                1.4814091724152934,
                -3.0934949681160235
            ]
        },
        {
            "positions": [
                -2.8910894959253532,
                -0.8769946583117388,
                1.4535761634184579,
                -0.5596921933308537,
                1.3499171362040698,
                -3.0982155698372065
            ]
        },
        {
            "positions": [
                -2.865455521958518,
                -0.8446389546081495,
                1.3538362319667034,
                -0.4930836681142293,
                1.2184250999928459,
                -3.10293617155839
            ]
        },
        {
            "positions": [
                -2.8398215479916833,
                -0.8122832509045603,
                1.2540963005149492,
                -0.4264751428976049,
                1.0869330637816224,
                -3.1076567732795732
            ]
        },
        {
            "positions": [
                -2.8141875740248485,
                -0.779927547200971,
                1.154356369063195,
                -0.3598666176809805,
                0.9554410275703987,
                -3.1123773750007566
            ]
        },
        {
            "positions": [
                -2.7885536000580133,
                -0.7475718434973817,
                1.0546164376114406,
                -0.29325809246435613,
                0.823948991359175,
                -3.11709797672194
            ]
        },
        {
            "positions": [
                -2.7629196260911786,
                -0.7152161397937924,
                0.9548765061596863,
                -0.22664956724773166,
                0.6924569551479511,
                -3.121818578443123
            ]
        },
        {
            "positions": [
                -2.7372856521243434,
                -0.6828604360902031,
                0.8551365747079321,
                -0.16004104203110725,
                0.5609649189367276,
                -3.1265391801643063
            ]
        },
        {
            "positions": [
                -2.7116516781575086,
                -0.6505047323866138,
                0.7553966432561778,
                -0.0934325168144828,
                0.42947288272550377,
                -3.1312597818854897
            ]
        }
    ]
}