{
    "goal": {
        "global_pose": {
            "orientation": {
                "w": 0.005598929693374612,
                "x": 0.007748599140229565,
                "y": 0.7110244013736278,
                "z": -0.7031023480610252
            },
            "position": {
                "x": -0.8858502320852131,
                "y": -0.7141253447532654,
                "z": 0.3711530566215515
            }
        },
        "name": "move_to_auspresseinheit_C"
    },
    "id": "LBTRRT_move_to_auspresseinheit_C_82",
    "joint_names": [
        "shoulder_pan_joint",
        "shoulder_lift_joint",
        "elbow_joint",
        "wrist_1_joint",
        "wrist_2_joint",
        "wrist_3_joint"
    ],
    "metrics": {
        "cart_traj_len": 0.4945751391895426,
        "distance_elbow_joint": 1.0232915149456199,
        "distance_shoulder_lift_joint": 0.33630246529661045,
        "distance_shoulder_pan_joint": 0.2555982034770432,
        "distance_wrist_1_joint": 0.7161841484877469,
        "distance_wrist_2_joint": 1.3205266262207322,
        "distance_wrist_3_joint": 0.07603770809536581,
        "smoothness": 0.0,
        "time": 5.001673045,
        "traj_len": 1.9307875767476645,
        "weighted_distance": 2.4324322924641355
    },
    "planner": "LBTRRT",
    "start": {
        "state": {
            "elbow_joint": 1.7527959577737207,
            "shoulder_lift_joint": -0.9740617694225068,
            "shoulder_pan_joint": -2.967991417825858,
            "wrist_1_joint": -0.759517768980727,
            "wrist_2_joint": 1.7443932448377408,
            "wrist_3_joint": -3.0840537646736568
        }
    },
    "waypoints": [
        {
            "positions": [
                -2.967991417825858,
                -0.9740617694225068,
                1.7527959577737207,
                -0.759517768980727,
                1.7443932448377408,
                -3.0840537646736568
            ]
        },
        {
            "positions": [
                -2.9424315974781536,
                -0.9404315228928457,
                1.6504668062791588,
                -0.6878993541319522,
                1.6123405822156676,
                -3.0916575354831934
            ]
        },
        {
            "positions": [
                -2.9168717771304493,
                -0.9068012763631846,
                1.5481376547845966,
                -0.6162809392831776,
                1.4802879195935943,
                -3.09926130629273
            ]
        },
        {
            "positions": [
                -2.891311956782745,
                -0.8731710298335237,
                1.4458085032900347,
                -0.5446625244344029,
                1.3482352569715212,
                -3.1068650771022663
            ]
        },
        {
            "positions": [
                -2.8657521364350407,
                -0.8395407833038626,
                1.3434793517954726,
                -0.4730441095856282,
                1.2161825943494478,
                -3.114468847911803
            ]
        },
        {
            "positions": [
                -2.8401923160873364,
                -0.8059105367742015,
                1.2411502003009107,
                -0.4014256947368535,
                1.0841299317273747,
                -3.1220726187213397
            ]
        },
        {
            "positions": [
                -2.814632495739632,
                -0.7722802902445405,
                1.1388210488063488,
                -0.32980727988807884,
                0.9520772691053015,
                -3.1296763895308763
            ]
        },
        {
            "positions": [
                -2.7890726753919277,
                -0.7386500437148795,
                1.036491897311787,
                -0.25818886503930416,
                0.8200246064832283,
                -3.137280160340413
            ]
        },
        {
            "positions": [
                -2.7635128550442234,
                -0.7050197971852183,
                0.9341627458172247,
                -0.18657045019052942,
                0.6879719438611549,
                -3.1448839311499492
            ]
        },
        {
            "positions": [
                -2.737953034696519,
                -0.6713895506555574,
                0.8318335943226628,
                -0.11495203534175469,
                0.5559192812390819,
                -3.152487701959486
            ]
        },
        {
            "positions": [
                -2.7123932143488148,
                -0.6377593041258963,
                0.7295044428281008,
                -0.043333620492980035,
                0.42386661861700853,
                -3.1600914727690226
            ]
        }
    ]
}