{
    "goal": {
        "global_pose": {
            "orientation": {
                "w": 0.7047431493862688,
                "x": -0.7094548369677653,
                "y": 0.0024358444001904,
                "z": -0.0022348060817251984
            },
            "position": {
                "x": -0.39052492380142206,
                "y": 0.3671506643295288,
                "z": 0.19426114857196808
            }
        },
        "name": "move_to_magneteinheit_D"
    },
    "id": "LBTRRT_move_to_magneteinheit_D_140",
    "joint_names": [
        "shoulder_pan_joint",
        "shoulder_lift_joint",
        "elbow_joint",
        "wrist_1_joint",
        "wrist_2_joint",
        "wrist_3_joint"
    ],
    "metrics": {
        "cart_traj_len": 4.764836546726783,
        "distance_elbow_joint": 4.131229571061352,
        "distance_shoulder_lift_joint": 1.5221103646277416,
        "distance_shoulder_pan_joint": 3.833994785627203,
        "distance_wrist_1_joint": 2.1536520974007134,
        "distance_wrist_2_joint": 1.4319514164189469,
        "distance_wrist_3_joint": 6.711618784997354,
        "smoothness": 0.6953549010785324,
        "time": 5.054363394,
        "traj_len": 4.447983477951926,
        "weighted_distance": 6.065756185666191
    },
    "planner": "LBTRRT",
    "start": {
        "state": {
            "elbow_joint": 0.749534889911806,
            "shoulder_lift_joint": -0.6476975780787326,
            "shoulder_pan_joint": -2.711696901376241,
            "wrist_1_joint": -0.07506478083263063,
            "wrist_2_joint": 0.43296659715538205,
            "wrist_3_joint": -3.14703540197715
        }
    },
    "waypoints": [
        {
            "positions": [
                -2.711696901376241,
                -0.6476975780787326,
                0.749534889911806,
                -0.07506478083263063,
                0.43296659715538205,
                -3.14703540197715
            ]
        },
        {
            "positions": [
                -2.733946899438204,
                -0.7075199609563074,
                0.7869719458547081,
                -0.12078523245787465,
                0.37209457582132155,
                -3.002111724684033
            ]
        },
        {
            "positions": [
                -2.7561968975001667,
                -0.7673423438338822,
                0.8244090017976102,
                -0.16650568408311867,
                0.3112225544872611,
                -2.8571880473909155
            ]
        },
        {
            "positions": [
                -2.77844689556213,
                -0.827164726711457,
                0.8618460577405123,
                -0.2122261357083627,
                0.2503505331532006,
                -2.7122643700977984
            ]
        },
        {
            "positions": [
                -2.800696893624093,
                -0.8869871095890318,
                0.8992831136834144,
                -0.25794658733360676,
                0.1894785118191401,
                -2.567340692804681
            ]
        },
        {
            "positions": [
                -2.8229468916860556,
                -0.9468094924666066,
                0.9367201696263165,
                -0.3036670389588507,
                0.1286064904850796,
                -2.422417015511564
            ]
        },
        {
            "positions": [
                -2.845196889748019,
                -1.0066318753441814,
                0.9741572255692186,
                -0.3493874905840948,
                0.06773446915101916,
                -2.277493338218447
            ]
        },
        {
            "positions": [
                -2.8674468878099817,
                -1.0664542582217562,
                1.0115942815121208,
                -0.3951079422093388,
                0.006862447816958661,
                -2.1325696609253297
            ]
        },
        {
            "positions": [
                -2.8896968858719445,
                -1.126276641099331,
                1.0490313374550229,
                -0.44082839383458283,
                -0.05400957351710183,
                -1.9876459836322122
            ]
        },
        {
            "positions": [
                -2.8115903436073357,
                -1.1461761819440757,
                0.9634725642744795,
                -0.48728209983633214,
                -0.06921483199649643,
                -1.8405819850557943
            ]
        },
        {
            "positions": [
                -2.7334838013427265,
                -1.16607572278882,
                0.8779137910939362,
                -0.5337358058380814,
                -0.08442009047589102,
                -1.6935179864793763
            ]
        },
        {
            "positions": [
                -2.6553772590781177,
                -1.1859752636335648,
                0.7923550179133929,
                -0.5801895118398308,
                -0.09962534895528562,
                -1.5464539879029586
            ]
        },
        {
            "positions": [
                -2.577270716813509,
                -1.2058748044783092,
                0.7067962447328495,
                -0.6266432178415801,
                -0.11483060743468021,
                -1.3993899893265407
            ]
        },
        {
            "positions": [
                -2.4991641745489,
                -1.2257743453230538,
                0.6212374715523061,
                -0.6730969238433293,
                -0.1300358659140748,
                -1.2523259907501227
            ]
        },
        {
            "positions": [
                -2.421057632284291,
                -1.2456738861677983,
                0.5356786983717629,
                -0.7195506298450787,
                -0.1452411243934694,
                -1.105261992173705
            ]
        },
        {
            "positions": [
                -2.342951090019682,
                -1.265573427012543,
                0.45011992519121946,
                -0.766004335846828,
                -0.160446382872864,
                -0.9581979935972871
            ]
        },
        {
            "positions": [
                -2.2648445477550734,
                -1.2854729678572874,
                0.3645611520106762,
                -0.8124580418485773,
                -0.17565164135225858,
                -0.8111339950208691
            ]
        },
        {
            "positions": [
                -2.186738005490464,
                -1.3053725087020318,
                0.2790023788301329,
                -0.8589117478503265,
                -0.1908568998316532,
                -0.6640699964444514
            ]
        },
        {
            "positions": [
                -2.1086314632258554,
                -1.3252720495467765,
                0.1934436056495895,
                -0.9053654538520759,
                -0.20606215831104777,
                -0.5170059978680335
            ]
        },
        {
            "positions": [
                -2.0305249209612466,
                -1.3451715903915211,
                0.10788483246904612,
                -0.9518191598538251,
                -0.22126741679044237,
                -0.36994199929161553
            ]
        },
        {
            "positions": [
                -1.9524183786966376,
                -1.3650711312362656,
                0.022326059288502842,
                -0.9982728658555745,
                -0.23647267526983698,
                -0.2228780007151976
            ]
        },
        {
            "positions": [
                -1.8743118364320286,
                -1.3849706720810102,
                -0.06323271389204055,
                -1.044726571857324,
                -0.2516779337492316,
                -0.07581400213877965
            ]
        },
        {
            "positions": [
                -1.7962052941674198,
                -1.4048702129257546,
                -0.14879148707258394,
                -1.0911802778590731,
                -0.26688319222862616,
                0.07124999643763807
            ]
        },
        {
            "positions": [
                -1.718098751902811,
                -1.4247697537704993,
                -0.2343502602531271,
                -1.1376339838608223,
                -0.28208845070802074,
                0.2183139950140558
            ]
        },
        {
            "positions": [
                -1.639992209638202,
                -1.4446692946152437,
                -0.3199090334336705,
                -1.1840876898625718,
                -0.2972937091874153,
                0.36537799359047396
            ]
        },
        {
            "positions": [
                -1.561885667373593,
                -1.4645688354599884,
                -0.4054678066142139,
                -1.230541395864321,
                -0.31249896766680996,
                0.5124419921668917
            ]
        },
        {
            "positions": [
                -1.4837791251089842,
                -1.4844683763047328,
                -0.49102657979475706,
                -1.2769951018660701,
                -0.32770422614620454,
                0.6595059907433094
            ]
        },
        {
            "positions": [
                -1.4056725828443755,
                -1.5043679171494775,
                -0.5765853529753004,
                -1.3234488078678197,
                -0.3429094846255991,
                0.8065699893197276
            ]
        },
        {
            "positions": [
                -1.3275660405797665,
                -1.524267457994222,
                -0.6621441261558438,
                -1.3699025138695688,
                -0.3581147431049937,
                0.9536339878961453
            ]
        },
        {
            "positions": [
                -1.2494594983151575,
                -1.5441669988389666,
                -0.7477028993363872,
                -1.4163562198713182,
                -0.37332000158438833,
                1.1006979864725634
            ]
        },
        {
            "positions": [
                -1.1713529560505487,
                -1.564066539683711,
                -0.8332616725169306,
                -1.4628099258730676,
                -0.3885252600637829,
                1.2477619850489812
            ]
        },
        {
            "positions": [
                -1.0932464137859397,
                -1.5839660805284557,
                -0.918820445697474,
                -1.5092636318748167,
                -0.40373051854317754,
                1.3948259836253993
            ]
        },
        {
            "positions": [
                -1.0151398715213307,
                -1.6038656213732,
                -1.0043792188780172,
                -1.5557173378765663,
                -0.4189357770225721,
                1.541889982201817
            ]
        },
        {
            "positions": [
                -0.9370333292567219,
                -1.6237651622179448,
                -1.0899379920585606,
                -1.6021710438783154,
                -0.4341410355019667,
                1.6889539807782348
            ]
        },
        {
            "positions": [
                -0.8589267869921127,
                -1.6436647030626892,
                -1.175496765239104,
                -1.648624749880065,
                -0.44934629398136133,
                1.836017979354653
            ]
        },
        {
            "positions": [
                -0.7808202447275039,
                -1.6635642439074338,
                -1.2610555384196473,
                -1.6950784558818142,
                -0.4645515524607559,
                1.9830819779310707
            ]
        },
        {
            "positions": [
                -0.7027137024628951,
                -1.6834637847521785,
                -1.3466143116001907,
                -1.7415321618835633,
                -0.4797568109401505,
                2.1301459765074884
            ]
        },
        {
            "positions": [
                -0.6246071601982859,
                -1.703363325596923,
                -1.4321730847807341,
                -1.7879858678853129,
                -0.4949620694195451,
                2.2772099750839065
            ]
        },
        {
            "positions": [
                -0.5465006179336775,
                -1.7232628664416674,
                -1.517731857961277,
                -1.834439573887062,
                -0.5101673278989396,
                2.424273973660324
            ]
        },
        {
            "positions": [
                -0.4683940756690683,
                -1.743162407286412,
                -1.6032906311418205,
                -1.8808932798888112,
                -0.5253725863783342,
                2.571337972236742
            ]
        },
        {
            "positions": [
                -0.39028753340445954,
                -1.7630619481311567,
                -1.6888494043223639,
                -1.9273469858905607,
                -0.5405778448577289,
                2.71840197081316
            ]
        },
        {
            "positions": [
                -0.31218099113985076,
                -1.7829614889759011,
                -1.7744081775029072,
                -1.9738006918923099,
                -0.5557831033371234,
                2.8654659693895783
            ]
        },
        {
            "positions": [
                -0.23407444887524154,
                -1.8028610298206456,
                -1.8599669506834506,
                -2.020254397894059,
                -0.570988361816518,
                3.0125299679659956
            ]
        },
        {
            "positions": [
                -0.15596790661063292,
                -1.8227605706653902,
                -1.945525723863994,
                -2.0667081038958086,
                -0.5861936202959126,
                3.1595939665424133
            ]
        },
        {
            "positions": [
                -0.06659637703243967,
                -1.77994903894725,
                -2.0712406269855532,
                -2.0600688752898195,
                -0.5670995953144352,
                3.1163568027953983
            ]
        },
        {
            "positions": [
                0.022775152545753574,
                -1.7371375072291102,
                -2.1969555301071124,
                -2.0534296466838304,
                -0.5480055703329577,
                3.0731196390483833
            ]
        },
        {
            "positions": [
                0.1121466821239468,
                -1.69432597551097,
                -2.3226704332286716,
                -2.0467904180778413,
                -0.5289115453514803,
                3.029882475301368
            ]
        },
        {
            "positions": [
                0.20151821170214007,
                -1.6515144437928302,
                -2.448385336350231,
                -2.0401511894718523,
                -0.5098175203700029,
                2.9866453115543528
            ]
        },
        {
            "positions": [
                0.2908897412803333,
                -1.60870291207469,
                -2.57410023947179,
                -2.033511960865863,
                -0.4907234953885255,
                2.9434081478073377
            ]
        },
        {
            "positions": [
                0.17203769778552788,
                -1.641950340437286,
                -2.5219498528239592,
                -2.0657151186927605,
                -0.41139322687345925,
                2.9906090472430162
            ]
        },
        {
            "positions": [
                0.05318565429072247,
                -1.675197768799882,
                -2.469799466176129,
                -2.0979182765196582,
                -0.332062958358393,
                3.0378099466786948
            ]
        },
        {
            "positions": [
                -0.06566638920408296,
                -1.7084451971624781,
                -2.4176490795282986,
                -2.130121434346556,
                -0.25273268984332675,
                3.0850108461143733
            ]
        },
        {
            "positions": [
                -0.18451843269888835,
                -1.741692625525074,
                -2.3654986928804678,
                -2.1623245921734533,
                -0.17340242132826048,
                3.1322117455500518
            ]
        }
    ]
}