{
    "goal": {
        "global_pose": {
            "orientation": {
                "w": 0.005598929693374612,
                "x": 0.007748599140229565,
                "y": 0.7110244013736278,
                "z": -0.7031023480610252
            },
            "position": {
                "x": -0.8858502320852131,
                "y": -0.7141253447532654,
                "z": 0.3711530566215515
            }
        },
        "name": "move_to_auspresseinheit_C"
    },
    "id": "LBTRRT_move_to_auspresseinheit_C_134",
    "joint_names": [
        "shoulder_pan_joint",
        "shoulder_lift_joint",
        "elbow_joint",
        "wrist_1_joint",
        "wrist_2_joint",
        "wrist_3_joint"
    ],
    "metrics": {
        "cart_traj_len": 0.4921563897529182,
        "distance_elbow_joint": 0.989391822807543,
        "distance_shoulder_lift_joint": 0.3192143916692822,
        "distance_shoulder_pan_joint": 0.25593709399601927,
        "distance_wrist_1_joint": 0.6604395054429208,
        "distance_wrist_2_joint": 1.306315251718479,
        "distance_wrist_3_joint": 0.03810877384198941,
        "smoothness": 0.0,
        "time": 5.001407931,
        "traj_len": 1.8892873893286415,
        "weighted_distance": 2.3690460409881466
    },
    "planner": "LBTRRT",
    "start": {
        "state": {
            "elbow_joint": 1.7527959577737207,
            "shoulder_lift_joint": -0.9740617694225068,
            "shoulder_pan_joint": -2.967991417825858,
            "wrist_1_joint": -0.759517768980727,
            "wrist_2_joint": 1.7443932448377408,
            "wrist_3_joint": -3.0840537646736568
        }
    },
    "waypoints": [
        {
            "positions": [
                -2.967991417825858,
                -0.9740617694225068,
                1.7527959577737207,
                -0.759517768980727,
                1.7443932448377408,
                -3.0840537646736568
            ]
        },
        {
            "positions": [
                -2.942397708426256,
                -0.9421403302555785,
                1.6538567754929663,
                -0.6934738184364349,
                1.6137617196658929,
                -3.0878646420578555
            ]
        },
        {
            "positions": [
                -2.916803999026654,
                -0.9102188910886503,
                1.5549175932122121,
                -0.6274298678921428,
                1.483130194494045,
                -3.0916755194420547
            ]
        },
        {
            "positions": [
                -2.891210289627052,
                -0.8782974519217221,
                1.4559784109314577,
                -0.5613859173478507,
                1.3524986693221972,
                -3.095486396826254
            ]
        },
        {
            "positions": [
                -2.8656165802274502,
                -0.8463760127547939,
                1.3570392286507034,
                -0.49534196680355863,
                1.221867144150349,
                -3.0992972742104525
            ]
        },
        {
            "positions": [
                -2.8400228708278483,
                -0.8144545735878657,
                1.2581000463699492,
                -0.42929801625926656,
                1.0912356189785013,
                -3.1031081515946513
            ]
        },
        {
            "positions": [
                -2.8144291614282464,
                -0.7825331344209374,
                1.1591608640891948,
                -0.3632540657149745,
                0.9606040938066535,
                -3.1069190289788504
            ]
        },
        {
            "positions": [
                -2.7888354520286445,
                -0.7506116952540092,
                1.0602216818084407,
                -0.2972101151706824,
                0.8299725686348055,
                -3.1107299063630496
            ]
        },
        {
            "positions": [
                -2.7632417426290425,
                -0.7186902560870809,
                0.9612824995276862,
                -0.23116616462639028,
                0.6993410434629574,
                -3.1145407837472483
            ]
        },
        {
            "positions": [
                -2.7376480332294406,
                -0.6867688169201527,
                0.8623433172469319,
                -0.16512221408209815,
                0.5687095182911097,
                -3.118351661131447
            ]
        },
        {
            "positions": [
                -2.7120543238298387,
                -0.6548473777532245,
                0.7634041349661776,
                -0.09907826353780613,
                0.4380779931192619,
                -3.122162538515646
            ]
        }
    ]
}