{
    "goal": {
        "global_pose": {
            "orientation": {
                "w": 0.7031023502349854,
                "x": -0.7110244035720825,
                "y": 0.007748599164187908,
                "z": 0.005598929710686207
            },
            "position": {
                "x": 0.11585023208521307,
                "y": 0.44412534475326537,
                "z": 0.3711530566215515
            }
        },
        "name": "move_to_auspresseinheit_A"
    },
    "id": "LBTRRT_move_to_auspresseinheit_A_85",
    "joint_names": [
        "shoulder_pan_joint",
        "shoulder_lift_joint",
        "elbow_joint",
        "wrist_1_joint",
        "wrist_2_joint",
        "wrist_3_joint"
    ],
    "metrics": {
        "cart_traj_len": 0.6841244393890459,
        "distance_elbow_joint": 0.5162912651885794,
        "distance_shoulder_lift_joint": 1.1922188387449901,
        "distance_shoulder_pan_joint": 1.0417183634431613,
        "distance_wrist_1_joint": 0.6591414810085705,
        "distance_wrist_2_joint": 0.5348847060899995,
        "distance_wrist_3_joint": 0.2021221968862883,
        "smoothness": 0.8940089419300349,
        "time": 5.015023664,
        "traj_len": 2.0362654177099775,
        "weighted_distance": 2.3967994142674387
    },
    "planner": "LBTRRT",
    "start": {
        "state": {
            "elbow_joint": 2.4225746658250005,
            "shoulder_lift_joint": -1.3736534386056498,
            "shoulder_pan_joint": -0.3378633547517467,
            "wrist_1_joint": -1.0288598680537169,
            "wrist_2_joint": 1.233022673432363,
            "wrist_3_joint": -3.0940220416140027
        }
    },
    "waypoints": [
        {
            "positions": [
                -0.3378633547517467,
                -1.3736534386056498,
                2.4225746658250005,
                -1.0288598680537169,
                1.233022673432363,
                -3.0940220416140027
            ]
        },
        {
            "positions": [
                -0.26023086321559424,
                -1.5175738429329633,
                2.4632216352363887,
                -1.0374188167366116,
                1.1770884467959237,
                -3.1136193219323127
            ]
        },
        {
            "positions": [
                -0.18259837167944176,
                -1.6614942472602767,
                2.503868604647777,
                -1.0459777654195064,
                1.1211542201594842,
                -3.1332166022506227
            ]
        },
        {
            "positions": [
                -0.10496588014328925,
                -1.8054146515875904,
                2.544515574059165,
                -1.0545367141024011,
                1.0652199935230446,
                -3.1528138825689327
            ]
        },
        {
            "positions": [
                -0.0273333886071368,
                -1.9493350559149039,
                2.585162543470553,
                -1.0630956627852959,
                1.0092857668866053,
                -3.1724111628872427
            ]
        },
        {
            "positions": [
                0.05029910292901574,
                -2.0932554602422173,
                2.625809512881941,
                -1.0716546114681906,
                0.9533515402501659,
                -3.1920084432055527
            ]
        },
        {
            "positions": [
                0.12793159446516822,
                -2.2371758645695308,
                2.6664564822933294,
                -1.0802135601510854,
                0.8974173136137265,
                -3.2116057235238626
            ]
        },
        {
            "positions": [
                0.2239188301695426,
                -2.1823931291060124,
                2.621054907506621,
                -0.9789155953325517,
                0.864204089235166,
                -3.197515971027791
            ]
        },
        {
            "positions": [
                0.31990606587391696,
                -2.1276103936424944,
                2.5756533327199125,
                -0.8776176305140181,
                0.8309908648566054,
                -3.1834262185317197
            ]
        },
        {
            "positions": [
                0.41589330157829135,
                -2.0728276581789764,
                2.530251757933204,
                -0.7763196656954844,
                0.797777640478045,
                -3.1693364660356487
            ]
        },
        {
            "positions": [
                0.5118805372826657,
                -2.018044922715458,
                2.484850183146496,
                -0.6750217008769508,
                0.7645644160994846,
                -3.155246713539577
            ]
        },
        {
            "positions": [
                0.6078677729870401,
                -1.9632621872519398,
                2.4394486083597875,
                -0.573723736058417,
                0.731351191720924,
                -3.1411569610435057
            ]
        },
        {
            "positions": [
                0.7038550086914145,
                -1.9084794517884216,
                2.394047033573079,
                -0.47242577123988333,
                0.6981379673423636,
                -3.1270672085474343
            ]
        }
    ]
}