{
    "goal": {
        "global_pose": {
            "orientation": {
                "w": 0.005598929693374612,
                "x": 0.007748599140229565,
                "y": 0.7110244013736278,
                "z": -0.7031023480610252
            },
            "position": {
                "x": 0.1141497679147869,
                "y": -0.7141253447532654,
                "z": 0.3711530566215515
            }
        },
        "name": "move_to_auspresseinheit_B"
    },
    "id": "LBTRRT_move_to_auspresseinheit_B_119",
    "joint_names": [
        "shoulder_pan_joint",
        "shoulder_lift_joint",
        "elbow_joint",
        "wrist_1_joint",
        "wrist_2_joint",
        "wrist_3_joint"
    ],
    "metrics": {
        "cart_traj_len": 0.564597291815156,
        "distance_elbow_joint": 0.06255288319660379,
        "distance_shoulder_lift_joint": 0.29357484879659235,
        "distance_shoulder_pan_joint": 0.576712672692981,
        "distance_wrist_1_joint": 0.32472719116023385,
        "distance_wrist_2_joint": 0.9950032367919113,
        "distance_wrist_3_joint": 0.00937130959870558,
        "smoothness": 2.5376526478085547e-16,
        "time": 5.004051486,
        "traj_len": 1.5039754460219847,
        "weighted_distance": 1.8974760049567383
    },
    "planner": "LBTRRT",
    "start": {
        "state": {
            "elbow_joint": 2.0193083361928714,
            "shoulder_lift_joint": -1.1220246554650708,
            "shoulder_pan_joint": -1.0952077554168747,
            "wrist_1_joint": -0.8559753972642168,
            "wrist_2_joint": 0.4759566250798843,
            "wrist_3_joint": -3.1240929996934557
        }
    },
    "waypoints": [
        {
            "positions": [
                -1.0952077554168747,
                -1.1220246554650708,
                2.0193083361928714,
                -0.8559753972642168,
                0.4759566250798843,
                -3.1240929996934557
            ]
        },
        {
            "positions": [
                -1.1913265341990382,
                -1.1709537969311694,
                2.008882855660104,
                -0.8018541987375112,
                0.6417904978785361,
                -3.1256548846265733
            ]
        },
        {
            "positions": [
                -1.2874453129812016,
                -1.2198829383972682,
                1.998457375127337,
                -0.7477330002108055,
                0.807624370677188,
                -3.127216769559691
            ]
        },
        {
            "positions": [
                -1.3835640917633651,
                -1.268812079863367,
                1.9880318945945694,
                -0.6936118016840999,
                0.9734582434758399,
                -3.1287786544928085
            ]
        },
        {
            "positions": [
                -1.4796828705455285,
                -1.3177412213294657,
                1.9776064140618022,
                -0.6394906031573943,
                1.1392921162744918,
                -3.130340539425926
            ]
        },
        {
            "positions": [
                -1.5758016493276923,
                -1.3666703627955643,
                1.967180933529035,
                -0.5853694046306885,
                1.3051259890731437,
                -3.1319024243590436
            ]
        },
        {
            "positions": [
                -1.6719204281098556,
                -1.4155995042616631,
                1.9567554529962676,
                -0.5312482061039829,
                1.4709598618717956,
                -3.1334643092921612
            ]
        }
    ]
}