{
    "goal": {
        "global_pose": {
            "orientation": {
                "w": 0.5084816262002911,
                "x": -0.4908360881923452,
                "y": 0.5182115481033761,
                "z": -0.48164630358495003
            },
            "position": {
                "x": 0.5540239810943604,
                "y": -0.46912469901144505,
                "z": 0.16403168439865112
            }
        },
        "name": "move_to_storage_B"
    },
    "id": "LBTRRT_move_to_storage_B_41",
    "joint_names": [
        "shoulder_pan_joint",
        "shoulder_lift_joint",
        "elbow_joint",
        "wrist_1_joint",
        "wrist_2_joint",
        "wrist_3_joint"
    ],
    "metrics": {
        "cart_traj_len": 1.2499779113946474,
        "distance_elbow_joint": 0.35820533473575944,
        "distance_shoulder_lift_joint": 1.4646963270271873,
        "distance_shoulder_pan_joint": 0.4162501731710041,
        "distance_wrist_1_joint": 3.0146285607761274,
        "distance_wrist_2_joint": 2.7150108020782104,
        "distance_wrist_3_joint": 3.1769874703113063,
        "smoothness": 0.13266709532159815,
        "time": 5.033913705,
        "traj_len": 3.338529416988803,
        "weighted_distance": 4.819688057496724
    },
    "planner": "LBTRRT",
    "start": {
        "state": {
            "elbow_joint": 1.664937868594044,
            "shoulder_lift_joint": -0.661644460510453,
            "shoulder_pan_joint": -0.9139846352900073,
            "wrist_1_joint": 2.146753192139373,
            "wrist_2_joint": -2.2341966793290973,
            "wrist_3_joint": 0.005466555786416001
        }
    },
    "waypoints": [
        {
            "positions": [
                -0.9139846352900073,
                -0.661644460510453,
                1.664937868594044,
                2.146753192139373,
                -2.2341966793290973,
                0.005466555786416001
            ]
        },
        {
            "positions": [
                -0.878477605440592,
                -0.7403216211619199,
                1.6821071816107982,
                2.126526273325167,
                -2.218207631446761,
                -0.006002754646848731
            ]
        },
        {
            "positions": [
                -0.8619270239662232,
                -0.8275189266874984,
                1.6956470838805577,
                1.9961020227086763,
                -2.1315210811235197,
                -0.002237005481801703
            ]
        },
        {
            "positions": [
                -0.8453764424918546,
                -0.9147162322130769,
                1.709186986150317,
                1.8656777720921855,
                -2.0448345308002778,
                0.0015287436832453248
            ]
        },
        {
            "positions": [
                -0.8288258610174859,
                -1.0019135377386552,
                1.7227268884200766,
                1.735253521475695,
                -1.9581479804770363,
                0.005294492848292352
            ]
        },
        {
            "positions": [
                -0.8122752795431173,
                -1.0891108432642338,
                1.736266790689836,
                1.604829270859204,
                -1.8714614301537946,
                0.009060242013339381
            ]
        },
        {
            "positions": [
                -0.7957246980687486,
                -1.1763081487898122,
                1.7498066929595955,
                1.4744050202427135,
                -1.784774879830553,
                0.012825991178386408
            ]
        },
        {
            "positions": [
                -0.8034959808975797,
                -1.210816792875679,
                1.758860093589256,
                1.3331995975806188,
                -1.677963752685384,
                0.08462482223666612
            ]
        },
        {
            "positions": [
                -0.8112672637264109,
                -1.245325436961546,
                1.7679134942189165,
                1.1919941749185243,
                -1.5711526255402148,
                0.1564236532949458
            ]
        },
        {
            "positions": [
                -0.819038546555242,
                -1.279834081047413,
                1.776966894848577,
                1.0507887522564296,
                -1.4643414983950456,
                0.2282224843532255
            ]
        },
        {
            "positions": [
                -0.8268098293840731,
                -1.31434272513328,
                1.7860202954782376,
                0.9095833295943351,
                -1.3575303712498765,
                0.30002131541150523
            ]
        },
        {
            "positions": [
                -0.8345811122129043,
                -1.3488513692191468,
                1.7950736961078981,
                0.7683779069322404,
                -1.2507192441047073,
                0.3718201464697849
            ]
        },
        {
            "positions": [
                -0.8423523950417354,
                -1.3833600133050137,
                1.8041270967375587,
                0.6271724842701458,
                -1.1439081169595382,
                0.4436189775280646
            ]
        },
        {
            "positions": [
                -0.8501236778705665,
                -1.4178686573908807,
                1.8131804973672194,
                0.48596706160805136,
                -1.0370969898143692,
                0.5154178085863443
            ]
        },
        {
            "positions": [
                -0.8578949606993977,
                -1.4523773014767476,
                1.82223389799688,
                0.3447616389459567,
                -0.9302858626692001,
                0.5872166396446241
            ]
        },
        {
            "positions": [
                -0.8656662435282289,
                -1.4868859455626144,
                1.8312872986265405,
                0.20355621628386222,
                -0.823474735524031,
                0.6590154707029038
            ]
        },
        {
            "positions": [
                -0.87343752635706,
                -1.5213945896484815,
                1.840340699256201,
                0.06235079362176732,
                -0.7166636083788618,
                0.7308143017611834
            ]
        },
        {
            "positions": [
                -0.8812088091858911,
                -1.5559032337343484,
                1.8493940998858616,
                -0.07885462904032714,
                -0.609852481233693,
                0.8026131328194631
            ]
        },
        {
            "positions": [
                -0.8889800920147223,
                -1.5904118778202154,
                1.858447500515522,
                -0.22006005170242182,
                -0.5030413540885237,
                0.8744119638777429
            ]
        },
        {
            "positions": [
                -0.8967513748435534,
                -1.6249205219060823,
                1.8675009011451826,
                -0.3612654743645163,
                -0.3962302269433547,
                0.9462107949360226
            ]
        },
        {
            "positions": [
                -0.9131650047747984,
                -1.583135499770119,
                1.880471092993901,
                -0.40348296555386937,
                -0.3231431978023158,
                1.1306528457939535
            ]
        },
        {
            "positions": [
                -0.9295786347060435,
                -1.541350477634156,
                1.8934412848426194,
                -0.44570045674322245,
                -0.25005616866127695,
                1.3150948966518843
            ]
        },
        {
            "positions": [
                -0.9459922646372885,
                -1.4995654554981928,
                1.9064114766913378,
                -0.48791794793257554,
                -0.17696913952023804,
                1.499536947509815
            ]
        },
        {
            "positions": [
                -0.9624058945685335,
                -1.4577804333622295,
                1.9193816685400562,
                -0.5301354391219286,
                -0.1038821103791992,
                1.683978998367746
            ]
        },
        {
            "positions": [
                -0.9788195244997786,
                -1.4159954112262665,
                1.9323518603887746,
                -0.5723529303112818,
                -0.03079508123816027,
                1.868421049225677
            ]
        },
        {
            "positions": [
                -0.9952331544310237,
                -1.3742103890903032,
                1.945322052237493,
                -0.6145704215006348,
                0.0422919479028786,
                2.0528631000836075
            ]
        },
        {
            "positions": [
                -1.0116467843622687,
                -1.33242536695434,
                1.9582922440862114,
                -0.6567879126899878,
                0.11537897704391747,
                2.2373051509415385
            ]
        },
        {
            "positions": [
                -1.0280604142935137,
                -1.290640344818377,
                1.9712624359349298,
                -0.699005403879341,
                0.1884660061849563,
                2.4217472017994695
            ]
        },
        {
            "positions": [
                -1.0444740442247589,
                -1.2488553226824137,
                1.9842326277836482,
                -0.7412228950686941,
                0.2615530353259952,
                2.6061892526574004
            ]
        },
        {
            "positions": [
                -1.0608876741560038,
                -1.2070703005464505,
                1.9972028196323666,
                -0.7834403862580471,
                0.33464006446703415,
                2.7906313035153314
            ]
        },
        {
            "positions": [
                -1.077301304087249,
                -1.1652852784104875,
                2.010173011481085,
                -0.8256578774474002,
                0.40772709360807297,
                2.975073354373262
            ]
        },
        {
            "positions": [
                -1.093714934018494,
                -1.1235002562745242,
                2.0231432033298034,
                -0.8678753686367533,
                0.4808141227491119,
                3.159515405231193
            ]
        }
    ]
}