{
    "goal": {
        "global_pose": {
            "orientation": {
                "w": 0.005598929693374612,
                "x": 0.007748599140229565,
                "y": 0.7110244013736278,
                "z": -0.7031023480610252
            },
            "position": {
                "x": 0.1141497679147869,
                "y": -0.7141253447532654,
                "z": 0.3711530566215515
            }
        },
        "name": "move_to_auspresseinheit_B"
    },
    "id": "LBTRRT_move_to_auspresseinheit_B_92",
    "joint_names": [
        "shoulder_pan_joint",
        "shoulder_lift_joint",
        "elbow_joint",
        "wrist_1_joint",
        "wrist_2_joint",
        "wrist_3_joint"
    ],
    "metrics": {
        "cart_traj_len": 0.564722551712637,
        "distance_elbow_joint": 0.06048747086924644,
        "distance_shoulder_lift_joint": 0.29615943432267877,
        "distance_shoulder_pan_joint": 0.5780875126970773,
        "distance_wrist_1_joint": 0.31920041061076,
        "distance_wrist_2_joint": 0.9873234082378222,
        "distance_wrist_3_joint": 0.0060014371337606676,
        "smoothness": 0.0,
        "time": 5.005676407999999,
        "traj_len": 1.4990862796621631,
        "weighted_distance": 1.8883289880175669
    },
    "planner": "LBTRRT",
    "start": {
        "state": {
            "elbow_joint": 2.0193083361928714,
            "shoulder_lift_joint": -1.1220246554650708,
            "shoulder_pan_joint": -1.0952077554168747,
            "wrist_1_joint": -0.8559753972642168,
            "wrist_2_joint": 0.4759566250798843,
            "wrist_3_joint": -3.1240929996934557
        }
    },
    "waypoints": [
        {
            "positions": [
                -1.0952077554168747,
                -1.1220246554650708,
                2.0193083361928714,
                -0.8559753972642168,
                0.4759566250798843,
                -3.1240929996934557
            ]
        },
        {
            "positions": [
                -1.1915556741997209,
                -1.1713845611855174,
                2.009227091047997,
                -0.8027753288290901,
                0.6405105264528547,
                -3.123092760171162
            ]
        },
        {
            "positions": [
                -1.287903592982567,
                -1.2207444669059637,
                1.9991458459031226,
                -0.7495752603939635,
                0.805064427825825,
                -3.1220925206488688
            ]
        },
        {
            "positions": [
                -1.3842515117654133,
                -1.27010437262641,
                1.9890646007582482,
                -0.6963751919588368,
                0.9696183291987954,
                -3.1210922811265753
            ]
        },
        {
            "positions": [
                -1.4805994305482595,
                -1.3194642783468566,
                1.9789833556133738,
                -0.6431751235237102,
                1.1341722305717656,
                -3.120092041604282
            ]
        },
        {
            "positions": [
                -1.5769473493311057,
                -1.3688241840673032,
                1.9689021104684994,
                -0.5899750550885834,
                1.298726131944736,
                -3.1190918020819884
            ]
        },
        {
            "positions": [
                -1.673295268113952,
                -1.4181840897877496,
                1.958820865323625,
                -0.5367749866534568,
                1.4632800333177065,
                -3.118091562559695
            ]
        }
    ]
}