{
    "goal": {
        "global_pose": {
            "orientation": {
                "w": 0.5084816262002911,
                "x": -0.4908360881923452,
                "y": 0.5182115481033761,
                "z": -0.48164630358495003
            },
            "position": {
                "x": 0.5540239810943604,
                "y": -0.46912469901144505,
                "z": 0.16403168439865112
            }
        },
        "name": "move_to_storage_B"
    },
    "id": "LBTRRT_move_to_storage_B_5",
    "joint_names": [
        "shoulder_pan_joint",
        "shoulder_lift_joint",
        "elbow_joint",
        "wrist_1_joint",
        "wrist_2_joint",
        "wrist_3_joint"
    ],
    "metrics": {
        "cart_traj_len": 0.6136437598104465,
        "distance_elbow_joint": 0.3512732306632014,
        "distance_shoulder_lift_joint": 0.45964982274152844,
        "distance_shoulder_pan_joint": 0.22928265371822365,
        "distance_wrist_1_joint": 2.986673179897623,
        "distance_wrist_2_joint": 2.7063620583261296,
        "distance_wrist_3_joint": 3.1395039452768674,
        "smoothness": 0.03321923842481491,
        "time": 5.062623663,
        "traj_len": 3.1420924382684183,
        "weighted_distance": 4.6738408209310105
    },
    "planner": "LBTRRT",
    "start": {
        "state": {
            "elbow_joint": 1.664937868594044,
            "shoulder_lift_joint": -0.661644460510453,
            "shoulder_pan_joint": -0.9139846352900073,
            "wrist_1_joint": 2.146753192139373,
            "wrist_2_joint": -2.2341966793290973,
            "wrist_3_joint": 0.005466555786416001
        }
    },
    "waypoints": [
        {
            "positions": [
                -0.9139846352900073,
                -0.661644460510453,
                1.664937868594044,
                2.146753192139373,
                -2.2341966793290973,
                0.005466555786416001
            ]
        },
        {
            "positions": [
                -0.890830721796982,
                -0.6984069380918803,
                1.7042256479614473,
                2.1357112971202774,
                -2.218988854326842,
                -0.10908398733837475
            ]
        },
        {
            "positions": [
                -0.8990758714059899,
                -0.7153224318982843,
                1.7167050660132792,
                2.016686045725136,
                -2.111342684993887,
                -0.23008212342445783
            ]
        },
        {
            "positions": [
                -0.9073210210149978,
                -0.7322379257046884,
                1.7291844840651112,
                1.8976607943299952,
                -2.0036965156609323,
                -0.3510802595105409
            ]
        },
        {
            "positions": [
                -0.9155661706240058,
                -0.7491534195110924,
                1.741663902116943,
                1.7786355429348542,
                -1.8960503463279772,
                -0.472078395596624
            ]
        },
        {
            "positions": [
                -0.9238113202330137,
                -0.7660689133174965,
                1.754143320168775,
                1.659610291539713,
                -1.788404176995022,
                -0.593076531682707
            ]
        },
        {
            "positions": [
                -0.9320564698420216,
                -0.7829844071239005,
                1.7666227382206068,
                1.5405850401445718,
                -1.6807580076620672,
                -0.7140746677687902
            ]
        },
        {
            "positions": [
                -0.9403016194510295,
                -0.7998999009303045,
                1.7791021562724387,
                1.421559788749431,
                -1.5731118383291123,
                -0.8350728038548733
            ]
        },
        {
            "positions": [
                -0.9485467690600375,
                -0.8168153947367086,
                1.7915815743242707,
                1.3025345373542896,
                -1.4654656689961572,
                -0.9560709399409564
            ]
        },
        {
            "positions": [
                -0.9567919186690454,
                -0.8337308885431126,
                1.8040609923761026,
                1.1835092859591487,
                -1.3578194996632023,
                -1.0770690760270394
            ]
        },
        {
            "positions": [
                -0.9650370682780534,
                -0.8506463823495167,
                1.8165404104279346,
                1.0644840345640076,
                -1.2501733303302474,
                -1.1980672121131224
            ]
        },
        {
            "positions": [
                -0.9732822178870613,
                -0.8675618761559207,
                1.8290198284797665,
                0.9454587831688663,
                -1.1425271609972922,
                -1.3190653481992056
            ]
        },
        {
            "positions": [
                -0.9815273674960693,
                -0.8844773699623247,
                1.8414992465315985,
                0.8264335317737255,
                -1.0348809916643373,
                -1.4400634842852886
            ]
        },
        {
            "positions": [
                -0.9897725171050772,
                -0.9013928637687288,
                1.8539786645834302,
                0.7074082803785844,
                -0.9272348223313824,
                -1.5610616203713716
            ]
        },
        {
            "positions": [
                -0.9980176667140851,
                -0.9183083575751328,
                1.8664580826352624,
                0.5883830289834431,
                -0.8195886529984273,
                -1.6820597564574546
            ]
        },
        {
            "positions": [
                -1.0062628163230931,
                -0.935223851381537,
                1.878937500687094,
                0.469357777588302,
                -0.7119424836654722,
                -1.8030578925435379
            ]
        },
        {
            "positions": [
                -1.014507965932101,
                -0.952139345187941,
                1.891416918738926,
                0.35033252619316113,
                -0.6042963143325175,
                -1.9240560286296207
            ]
        },
        {
            "positions": [
                -1.022753115541109,
                -0.969054838994345,
                1.903896336790758,
                0.23130727479801982,
                -0.4966501449995624,
                -2.045054164715704
            ]
        },
        {
            "positions": [
                -1.0309982651501168,
                -0.9859703328007491,
                1.91637575484259,
                0.11228202340287874,
                -0.38900397566660727,
                -2.166052300801787
            ]
        },
        {
            "positions": [
                -1.0392434147591247,
                -1.002885826607153,
                1.9288551728944219,
                -0.006743227992262124,
                -0.2813578063336526,
                -2.28705043688787
            ]
        },
        {
            "positions": [
                -1.0474885643681326,
                -1.0198013204135572,
                1.9413345909462538,
                -0.12576847938740343,
                -0.17371163700069747,
                -2.408048572973953
            ]
        },
        {
            "positions": [
                -1.0557337139771406,
                -1.0367168142199612,
                1.9538140089980858,
                -0.24479373078254474,
                -0.06606546766774235,
                -2.5290467090600366
            ]
        },
        {
            "positions": [
                -1.0639788635861485,
                -1.0536323080263652,
                1.9662934270499175,
                -0.3638189821776856,
                0.04158070166521233,
                -2.650044845146119
            ]
        },
        {
            "positions": [
                -1.0722240131951566,
                -1.0705478018327694,
                1.9787728451017494,
                -0.48284423357282646,
                0.14922687099816745,
                -2.7710429812322026
            ]
        },
        {
            "positions": [
                -1.0804691628041645,
                -1.0874632956391734,
                1.9912522631535814,
                -0.6018694849679678,
                0.25687304033112257,
                -2.8920411173182856
            ]
        },
        {
            "positions": [
                -1.0887143124131724,
                -1.1043787894455774,
                2.003731681205413,
                -0.7208947363631086,
                0.36451920966407725,
                -3.0130392534043686
            ]
        },
        {
            "positions": [
                -1.0969594620221803,
                -1.1212942832519814,
                2.0162110992572453,
                -0.83991998775825,
                0.4721653789970324,
                -3.1340373894904516
            ]
        }
    ]
}