{
    "goal": {
        "global_pose": {
            "orientation": {
                "w": 0.005598929693374612,
                "x": 0.007748599140229565,
                "y": 0.7110244013736278,
                "z": -0.7031023480610252
            },
            "position": {
                "x": 0.1141497679147869,
                "y": -0.7141253447532654,
                "z": 0.3711530566215515
            }
        },
        "name": "move_to_auspresseinheit_B"
    },
    "id": "LBTRRT_move_to_auspresseinheit_B_123",
    "joint_names": [
        "shoulder_pan_joint",
        "shoulder_lift_joint",
        "elbow_joint",
        "wrist_1_joint",
        "wrist_2_joint",
        "wrist_3_joint"
    ],
    "metrics": {
        "cart_traj_len": 0.564093632668909,
        "distance_elbow_joint": 0.06391312116598313,
        "distance_shoulder_lift_joint": 0.2937855196881676,
        "distance_shoulder_pan_joint": 0.5770115866914001,
        "distance_wrist_1_joint": 0.3331198866624453,
        "distance_wrist_2_joint": 0.9909599131538416,
        "distance_wrist_3_joint": 0.007834600496083866,
        "smoothness": 5.075305295617109e-16,
        "time": 5.004594701,
        "traj_len": 1.50553134403038,
        "weighted_distance": 1.8990454519748536
    },
    "planner": "LBTRRT",
    "start": {
        "state": {
            "elbow_joint": 2.0193083361928714,
            "shoulder_lift_joint": -1.1220246554650708,
            "shoulder_pan_joint": -1.0952077554168747,
            "wrist_1_joint": -0.8559753972642168,
            "wrist_2_joint": 0.4759566250798843,
            "wrist_3_joint": -3.1240929996934557
        }
    },
    "waypoints": [
        {
            "positions": [
                -1.0952077554168747,
                -1.1220246554650708,
                2.0193083361928714,
                -0.8559753972642168,
                0.4759566250798843,
                -3.1240929996934557
            ]
        },
        {
            "positions": [
                -1.1913763531987747,
                -1.170988908746432,
                2.008656149331874,
                -0.8004554161538092,
                0.6411166106055246,
                -3.122787232944108
            ]
        },
        {
            "positions": [
                -1.2875449509806747,
                -1.2199531620277932,
                1.998003962470877,
                -0.7449354350434017,
                0.8062765961311649,
                -3.121481466194761
            ]
        },
        {
            "positions": [
                -1.3837135487625747,
                -1.2689174153091547,
                1.9873517756098797,
                -0.6894154539329942,
                0.9714365816568051,
                -3.1201756994454137
            ]
        },
        {
            "positions": [
                -1.4798821465444747,
                -1.317881668590516,
                1.9766995887488827,
                -0.6338954728225866,
                1.1365965671824454,
                -3.1188699326960663
            ]
        },
        {
            "positions": [
                -1.5760507443263747,
                -1.3668459218718771,
                1.9660474018878855,
                -0.5783754917121791,
                1.3017565527080857,
                -3.1175641659467193
            ]
        },
        {
            "positions": [
                -1.6722193421082747,
                -1.4158101751532384,
                1.9553952150268883,
                -0.5228555106017715,
                1.466916538233726,
                -3.116258399197372
            ]
        }
    ]
}