{
    "goal": {
        "global_pose": {
            "orientation": {
                "w": -0.4816463035849501,
                "x": 0.5182115481033762,
                "y": 0.4908360881923453,
                "z": -0.5084816262002911
            },
            "position": {
                "x": -0.8240239810943604,
                "y": 0.19912469901144506,
                "z": 0.16403168439865112
            }
        },
        "name": "move_to_storage_D"
    },
    "id": "LBTRRT_move_to_storage_D_78",
    "joint_names": [
        "shoulder_pan_joint",
        "shoulder_lift_joint",
        "elbow_joint",
        "wrist_1_joint",
        "wrist_2_joint",
        "wrist_3_joint"
    ],
    "metrics": {
        "cart_traj_len": 3.950308251660676,
        "distance_elbow_joint": 4.212859526483886,
        "distance_shoulder_lift_joint": 1.264650994015817,
        "distance_shoulder_pan_joint": 2.81375761997019,
        "distance_wrist_1_joint": 2.2843231454636257,
        "distance_wrist_2_joint": 0.8837509134251015,
        "distance_wrist_3_joint": 3.1427466850210104,
        "smoothness": 5.92118947350289e-16,
        "time": 5.055493106999999,
        "traj_len": 3.8212679681461266,
        "weighted_distance": 4.904656594840293
    },
    "planner": "LBTRRT",
    "start": {
        "state": {
            "elbow_joint": -2.384821988534728,
            "shoulder_lift_joint": -2.2788054721415256,
            "shoulder_pan_joint": -0.1854694642142757,
            "wrist_1_joint": 1.4845938289331202,
            "wrist_2_joint": 0.17898776772866878,
            "wrist_3_joint": 0.037105688729662994
        }
    },
    "waypoints": [
        {
            "positions": [
                -0.1854694642142757,
                -2.2788054721415256,
                -2.384821988534728,
                1.4845938289331202,
                0.17898776772866878,
                0.037105688729662994
            ]
        },
        {
            "positions": [
                -0.1047559099814278,
                -2.253287676882428,
                -2.303394628885206,
                1.345518831686964,
                0.22990044083913325,
                0.038448149150619365
            ]
        },
        {
            "positions": [
                -0.02404235574857988,
                -2.2277698816233307,
                -2.2219672692356838,
                1.2064438344408077,
                0.28081311394959774,
                0.039790609571575736
            ]
        },
        {
            "positions": [
                0.06193663591872495,
                -2.191925471759976,
                -2.1093468795307198,
                1.1354367667155987,
                0.2937560159789367,
                0.11094667085144085
            ]
        },
        {
            "positions": [
                0.14791562758602977,
                -2.156081061896621,
                -1.9967264898257553,
                1.0644296989903894,
                0.3066989180082756,
                0.18210273213130596
            ]
        },
        {
            "positions": [
                0.2338946192533346,
                -2.1202366520332663,
                -1.884106100120791,
                0.9934226312651804,
                0.31964182003761454,
                0.2532587934111711
            ]
        },
        {
            "positions": [
                0.31987361092063943,
                -2.084392242169911,
                -1.7714857104158268,
                0.9224155635399713,
                0.33258472206695344,
                0.32441485469103615
            ]
        },
        {
            "positions": [
                0.40585260258794426,
                -2.0485478323065562,
                -1.6588653207108628,
                0.8514084958147621,
                0.3455276240962924,
                0.3955709159709013
            ]
        },
        {
            "positions": [
                0.4918315942552491,
                -2.0127034224432014,
                -1.5462449310058983,
                0.780401428089553,
                0.35847052612563135,
                0.4667269772507664
            ]
        },
        {
            "positions": [
                0.577810585922554,
                -1.9768590125798466,
                -1.4336245413009343,
                0.7093943603643439,
                0.37141342815497025,
                0.5378830385306316
            ]
        },
        {
            "positions": [
                0.6637895775898588,
                -1.9410146027164918,
                -1.32100415159597,
                0.6383872926391349,
                0.38435633018430915,
                0.6090390998104966
            ]
        },
        {
            "positions": [
                0.7497685692571636,
                -1.905170192853137,
                -1.2083837618910058,
                0.5673802249139257,
                0.3972992322136481,
                0.6801951610903618
            ]
        },
        {
            "positions": [
                0.8357475609244684,
                -1.8693257829897822,
                -1.0957633721860416,
                0.49637315718871655,
                0.41024213424298706,
                0.7513512223702269
            ]
        },
        {
            "positions": [
                0.9217265525917733,
                -1.8334813731264272,
                -0.9831429824810773,
                0.4253660894635075,
                0.42318503627232595,
                0.822507283650092
            ]
        },
        {
            "positions": [
                1.007705544259078,
                -1.7976369632630724,
                -0.8705225927761131,
                0.35435902173829836,
                0.4361279383016649,
                0.8936633449299571
            ]
        },
        {
            "positions": [
                1.093684535926383,
                -1.7617925533997176,
                -0.7579022030711491,
                0.2833519540130893,
                0.44907084033100386,
                0.9648194062098222
            ]
        },
        {
            "positions": [
                1.1796635275936878,
                -1.7259481435363626,
                -0.6452818133661846,
                0.21234488628788006,
                0.46201374236034276,
                1.0359754674896873
            ]
        },
        {
            "positions": [
                1.2656425192609926,
                -1.6901037336730078,
                -0.5326614236612204,
                0.14133781856267102,
                0.4749566443896817,
                1.1071315287695525
            ]
        },
        {
            "positions": [
                1.3516215109282974,
                -1.654259323809653,
                -0.42004103395625636,
                0.07033075083746199,
                0.4878995464190206,
                1.1782875900494174
            ]
        },
        {
            "positions": [
                1.4376005025956022,
                -1.6184149139462982,
                -0.3074206442512919,
                -0.0006763168877472747,
                0.5008424484483596,
                1.2494436513292826
            ]
        },
        {
            "positions": [
                1.523579494262907,
                -1.5825705040829434,
                -0.19480025454632788,
                -0.07168338461295631,
                0.5137853504776985,
                1.3205997126091478
            ]
        },
        {
            "positions": [
                1.609558485930212,
                -1.5467260942195886,
                -0.08217986484136386,
                -0.14269045233816535,
                0.5267282525070374,
                1.3917557738890127
            ]
        },
        {
            "positions": [
                1.6955374775975167,
                -1.5108816843562336,
                0.030440524863600604,
                -0.2136975200633746,
                0.5396711545363764,
                1.462911835168878
            ]
        },
        {
            "positions": [
                1.7815164692648215,
                -1.4750372744928788,
                0.14306091456856507,
                -0.28470458778858365,
                0.5526140565657153,
                1.534067896448743
            ]
        },
        {
            "positions": [
                1.8674954609321264,
                -1.4391928646295238,
                0.2556813042735291,
                -0.3557116555137927,
                0.5655569585950542,
                1.605223957728608
            ]
        },
        {
            "positions": [
                1.9534744525994312,
                -1.403348454766169,
                0.36830169397849355,
                -0.42671872323900195,
                0.5784998606243932,
                1.6763800190084734
            ]
        },
        {
            "positions": [
                2.039453444266736,
                -1.3675040449028142,
                0.4809220836834576,
                -0.4977257909642109,
                0.5914427626537321,
                1.7475360802883384
            ]
        },
        {
            "positions": [
                2.088523003557501,
                -1.3380582476713887,
                0.5931817048722658,
                -0.5228927514280688,
                0.6307174225287353,
                1.8668957714101997
            ]
        },
        {
            "positions": [
                2.1375925628482655,
                -1.3086124504399632,
                0.7054413260610741,
                -0.5480597118919268,
                0.6699920824037384,
                1.986255462532061
            ]
        },
        {
            "positions": [
                2.1866621221390306,
                -1.2791666532085377,
                0.8177009472498824,
                -0.5732266723557847,
                0.7092667422787416,
                2.1056151536539223
            ]
        },
        {
            "positions": [
                2.235731681429795,
                -1.2497208559771122,
                0.9299605684386907,
                -0.5983936328196426,
                0.7485414021537448,
                2.2249748447757836
            ]
        },
        {
            "positions": [
                2.2848012407205602,
                -1.2202750587456868,
                1.042220189627499,
                -0.6235605932835006,
                0.787816062028748,
                2.344334535897645
            ]
        },
        {
            "positions": [
                2.333870800011325,
                -1.1908292615142613,
                1.1544798108163072,
                -0.6487275537473585,
                0.8270907219037511,
                2.4636942270195057
            ]
        },
        {
            "positions": [
                2.38294035930209,
                -1.161383464282836,
                1.2667394320051155,
                -0.6738945142112165,
                0.8663653817787543,
                2.583053918141367
            ]
        },
        {
            "positions": [
                2.432009918592855,
                -1.1319376670514105,
                1.3789990531939238,
                -0.6990614746750744,
                0.9056400416537576,
                2.7024136092632283
            ]
        },
        {
            "positions": [
                2.4810794778836196,
                -1.102491869819985,
                1.491258674382732,
                -0.7242284351389323,
                0.9449147015287607,
                2.8217733003850896
            ]
        },
        {
            "positions": [
                2.5301490371743847,
                -1.0730460725885596,
                1.6035182955715404,
                -0.7493953956027903,
                0.9841893614037639,
                2.941132991506951
            ]
        },
        {
            "positions": [
                2.5792185964651493,
                -1.043600275357134,
                1.7157779167603486,
                -0.7745623560666481,
                1.0234640212787671,
                3.060492682628812
            ]
        },
        {
            "positions": [
                2.6282881557559143,
                -1.0141544781257086,
                1.828037537949157,
                -0.7997293165305062,
                1.0627386811537702,
                3.1798523737506734
            ]
        }
    ]
}