{
    "goal": {
        "global_pose": {
            "orientation": {
                "w": 0.5084816217422485,
                "x": -0.49083608388900757,
                "y": 0.5182115435600281,
                "z": -0.4816462993621826
            },
            "position": {
                "x": 0.5540239810943604,
                "y": 0.030875300988554955,
                "z": 0.16403168439865112
            }
        },
        "name": "move_to_storage_A"
    },
    "id": "LBTRRT_move_to_storage_A_82",
    "joint_names": [
        "shoulder_pan_joint",
        "shoulder_lift_joint",
        "elbow_joint",
        "wrist_1_joint",
        "wrist_2_joint",
        "wrist_3_joint"
    ],
    "metrics": {
        "cart_traj_len": 0.3529556275807424,
        "distance_elbow_joint": 0.4504085346612461,
        "distance_shoulder_lift_joint": 0.23544681175539295,
        "distance_shoulder_pan_joint": 0.4576849162542301,
        "distance_wrist_1_joint": 0.24058806039978153,
        "distance_wrist_2_joint": 1.116009445723133,
        "distance_wrist_3_joint": 0.10593760709511146,
        "smoothness": 8.881784197001252e-16,
        "time": 5.002757207,
        "traj_len": 1.6143343445175462,
        "weighted_distance": 2.0431710883335326
    },
    "planner": "LBTRRT",
    "start": {
        "state": {
            "elbow_joint": 1.971548259319323,
            "shoulder_lift_joint": -1.1394851275133948,
            "shoulder_pan_joint": 0.1228115487234821,
            "wrist_1_joint": -0.7804723859257726,
            "wrist_2_joint": 0.12958671773740124,
            "wrist_3_joint": -3.192489227718131
        }
    },
    "waypoints": [
        {
            "positions": [
                0.1228115487234821,
                -1.1394851275133948,
                1.971548259319323,
                -0.7804723859257726,
                0.12958671773740124,
                -3.192489227718131
            ]
        },
        {
            "positions": [
                0.05742798925859209,
                -1.173120386335594,
                2.035892335699501,
                -0.8148421088400272,
                0.2890166385549917,
                -3.177355283847401
            ]
        },
        {
            "positions": [
                -0.007955570206297918,
                -1.2067556451577928,
                2.100236412079679,
                -0.8492118317542816,
                0.44844655937258215,
                -3.1622213399766705
            ]
        },
        {
            "positions": [
                -0.07333912967118791,
                -1.2403909039799919,
                2.164580488459857,
                -0.8835815546685362,
                0.6078764801901726,
                -3.1470873961059405
            ]
        },
        {
            "positions": [
                -0.13872268913607794,
                -1.2740261628021907,
                2.228924564840035,
                -0.9179512775827906,
                0.767306401007763,
                -3.1319534522352104
            ]
        },
        {
            "positions": [
                -0.204106248600968,
                -1.3076614216243898,
                2.2932686412202132,
                -0.9523210004970452,
                0.9267363218253535,
                -3.1168195083644803
            ]
        },
        {
            "positions": [
                -0.2694898080658579,
                -1.3412966804465887,
                2.357612717600391,
                -0.9866907234112996,
                1.086166242642944,
                -3.1016855644937498
            ]
        },
        {
            "positions": [
                -0.334873367530748,
                -1.3749319392687878,
                2.421956793980569,
                -1.0210604463255541,
                1.2455961634605344,
                -3.0865516206230197
            ]
        }
    ]
}{
    "goal": {
        "global_pose": {
            "orientation": {
                "w": 0.5084816217422485,
                "x": -0.49083608388900757,
                "y": 0.5182115435600281,
                "z": -0.4816462993621826
            },
            "position": {
                "x": 0.5540239810943604,
                "y": 0.030875300988554955,
                "z": 0.16403168439865112
            }
        },
        "name": "move_to_storage_A"
    },
    "id": "LBTRRT_move_to_storage_A_82",
    "joint_names": [
        "shoulder_pan_joint",
        "shoulder_lift_joint",
        "elbow_joint",
        "wrist_1_joint",
        "wrist_2_joint",
        "wrist_3_joint"
    ],
    "metrics": {
        "cart_traj_len": 0.3523844621823577,
        "distance_elbow_joint": 0.45168262108606916,
        "distance_shoulder_lift_joint": 0.23476634368775273,
        "distance_shoulder_pan_joint": 0.46181276303610913,
        "distance_wrist_1_joint": 0.25506209789587997,
        "distance_wrist_2_joint": 1.0928918234525875,
        "distance_wrist_3_joint": 0.0963327822335418,
        "smoothness": 8.881784197001252e-16,
        "time": 5.003741646,
        "traj_len": 1.6101392583847958,
        "weighted_distance": 2.0330194089598583
    },
    "planner": "LBTRRT",
    "start": {
        "state": {
            "elbow_joint": 1.97154746011099,
            "shoulder_lift_joint": -1.13948474672311,
            "shoulder_pan_joint": 0.12281154466712228,
            "wrist_1_joint": -0.7804688027058302,
            "wrist_2_joint": 0.12958655903071145,
            "wrist_3_joint": 3.0906928834467795
        }
    },
    "waypoints": [
        {
            "positions": [
                0.12281154466712228,
                -1.13948474672311,
                1.97154746011099,
                -0.7804688027058302,
                0.12958655903071145,
                3.0906928834467795
            ]
        },
        {
            "positions": [
                0.056838292804820986,
                -1.1730227958213604,
                2.0360735488375714,
                -0.8169062452623844,
                0.2857139623810811,
                3.1044547094801427
            ]
        },
        {
            "positions": [
                -0.00913495905748031,
                -1.2065608449196108,
                2.1005996375641525,
                -0.8533436878189388,
                0.4418413657314507,
                3.118216535513506
            ]
        },
        {
            "positions": [
                -0.0751082109197816,
                -1.2400988940178612,
                2.165125726290734,
                -0.889781130375493,
                0.5979687690818204,
                3.131978361546869
            ]
        },
        {
            "positions": [
                -0.1410814627820829,
                -1.2736369431161114,
                2.229651815017315,
                -0.9262185729320473,
                0.7540961724321901,
                3.1457401875802318
            ]
        },
        {
            "positions": [
                -0.20705471464438424,
                -1.3071749922143618,
                2.2941779037438965,
                -0.9626560154886016,
                0.9102235757825597,
                3.159502013613595
            ]
        },
        {
            "positions": [
                -0.2730279665066855,
                -1.3407130413126123,
                2.3587039924704776,
                -0.9990934580451558,
                1.0663509791329293,
                3.173263839646958
            ]
        },
        {
            "positions": [
                -0.33900121836898683,
                -1.3742510904108627,
                2.423230081197059,
                -1.0355309006017102,
                1.222478382483299,
                3.1870256656803213
            ]
        }
    ]
}{
    "goal": {
        "global_pose": {
            "orientation": {
                "w": 0.5084816217422485,
                "x": -0.49083608388900757,
                "y": 0.5182115435600281,
                "z": -0.4816462993621826
            },
            "position": {
                "x": 0.5540239810943604,
                "y": 0.030875300988554955,
                "z": 0.16403168439865112
            }
        },
        "name": "move_to_storage_A"
    },
    "id": "LBTRRT_move_to_storage_A_82",
    "joint_names": [
        "shoulder_pan_joint",
        "shoulder_lift_joint",
        "elbow_joint",
        "wrist_1_joint",
        "wrist_2_joint",
        "wrist_3_joint"
    ],
    "metrics": {
        "cart_traj_len": 0.35302774488638045,
        "distance_elbow_joint": 0.44975692219781793,
        "distance_shoulder_lift_joint": 0.23571466841957256,
        "distance_shoulder_pan_joint": 0.46367953438590104,
        "distance_wrist_1_joint": 0.23610027666717248,
        "distance_wrist_2_joint": 1.0908931709774232,
        "distance_wrist_3_joint": 0.09050258003901712,
        "smoothness": 6.661338146305771e-16,
        "time": 5.003053653,
        "traj_len": 1.6020758885542545,
        "weighted_distance": 2.0185751807672494
    },
    "planner": "LBTRRT",
    "start": {
        "state": {
            "elbow_joint": 1.9715472970024885,
            "shoulder_lift_joint": -1.1394870060712896,
            "shoulder_pan_joint": 0.12281152778156021,
            "wrist_1_joint": -0.780463741449964,
            "wrist_2_joint": 0.12958659822042276,
            "wrist_3_joint": 3.090690232415272
        }
    },
    "waypoints": [
        {
            "positions": [
                0.12281152778156021,
                -1.1394870060712896,
                1.9715472970024885,
                -0.780463741449964,
                0.12958659822042276,
                3.090690232415272
            ]
        },
        {
            "positions": [
                0.05657159429786006,
                -1.1731605301312285,
                2.035798285887891,
                -0.8141923524024172,
                0.28542847978862607,
                3.1036191724208457
            ]
        },
        {
            "positions": [
                -0.009668339185840091,
                -1.2068340541911675,
                2.1000492747732937,
                -0.8479209633548704,
                0.4412703613568294,
                3.1165481124264196
            ]
        },
        {
            "positions": [
                -0.07590827266954023,
                -1.2405075782511064,
                2.164300263658696,
                -0.8816495743073236,
                0.5971122429250327,
                3.1294770524319935
            ]
        },
        {
            "positions": [
                -0.1421482061532404,
                -1.2741811023110454,
                2.228551252544099,
                -0.9153781852597769,
                0.752954124493236,
                3.1424059924375674
            ]
        },
        {
            "positions": [
                -0.20838813963694056,
                -1.3078546263709843,
                2.2928022414295013,
                -0.94910679621223,
                0.9087960060614393,
                3.1553349324431412
            ]
        },
        {
            "positions": [
                -0.27462807312064064,
                -1.341528150430923,
                2.3570532303149037,
                -0.9828354071646832,
                1.0646378876296427,
                3.168263872448715
            ]
        },
        {
            "positions": [
                -0.3408680066043408,
                -1.3752016744908622,
                2.4213042192003065,
                -1.0165640181171365,
                1.220479769197846,
                3.181192812454289
            ]
        }
    ]
}