{
    "goal": {
        "global_pose": {
            "orientation": {
                "w": -0.4816463035849501,
                "x": 0.5182115481033762,
                "y": 0.4908360881923453,
                "z": -0.5084816262002911
            },
            "position": {
                "x": -0.8240239810943604,
                "y": -0.300875300988555,
                "z": 0.16403168439865112
            }
        },
        "name": "move_to_storage_C"
    },
    "id": "LBTRRT_move_to_storage_C_20",
    "joint_names": [
        "shoulder_pan_joint",
        "shoulder_lift_joint",
        "elbow_joint",
        "wrist_1_joint",
        "wrist_2_joint",
        "wrist_3_joint"
    ],
    "metrics": {
        "cart_traj_len": 0.5762303539118214,
        "distance_elbow_joint": 0.2589538294185241,
        "distance_shoulder_lift_joint": 0.1893089819589281,
        "distance_shoulder_pan_joint": 0.4933516716503301,
        "distance_wrist_1_joint": 0.0797582956407542,
        "distance_wrist_2_joint": 1.0728865608360056,
        "distance_wrist_3_joint": 0.06254283342015343,
        "smoothness": 2.5376526478085547e-16,
        "time": 5.003227709,
        "traj_len": 1.4686055198468702,
        "weighted_distance": 1.8532492266939606
    },
    "planner": "LBTRRT",
    "start": {
        "state": {
            "elbow_joint": 2.010868314990456,
            "shoulder_lift_joint": -1.1634956873337592,
            "shoulder_pan_joint": -2.4736205022346125,
            "wrist_1_joint": -0.8367026794202681,
            "wrist_2_joint": 0.6746043897044499,
            "wrist_3_joint": -3.1496632123970403
        }
    },
    "waypoints": [
        {
            "positions": [
                -2.4736205022346125,
                -1.1634956873337592,
                2.010868314990456,
                -0.8367026794202681,
                0.6746043897044499,
                -3.1496632123970403
            ]
        },
        {
            "positions": [
                -2.5558457808430006,
                -1.1319441903406045,
                1.9677093434207018,
                -0.823409630146809,
                0.8534188165104508,
                -3.1392394068270146
            ]
        },
        {
            "positions": [
                -2.638071059451389,
                -1.10039269334745,
                1.9245503718509478,
                -0.81011658087335,
                1.0322332433164518,
                -3.128815601256989
            ]
        },
        {
            "positions": [
                -2.7202963380597778,
                -1.0688411963542952,
                1.8813914002811938,
                -0.796823531599891,
                1.2110476701224528,
                -3.1183917956869633
            ]
        },
        {
            "positions": [
                -2.802521616668166,
                -1.0372896993611405,
                1.8382324287114398,
                -0.783530482326432,
                1.3898620969284536,
                -3.107967990116938
            ]
        },
        {
            "positions": [
                -2.884746895276554,
                -1.0057382023679857,
                1.7950734571416858,
                -0.7702374330529729,
                1.5686765237344547,
                -3.0975441845469125
            ]
        },
        {
            "positions": [
                -2.9669721738849426,
                -0.9741867053748311,
                1.7519144855719317,
                -0.7569443837795139,
                1.7474909505404557,
                -3.087120378976887
            ]
        }
    ]
}