{
    "goal": {
        "global_pose": {
            "orientation": {
                "w": -0.00223480608172531,
                "x": 0.0024358444001904467,
                "y": 0.7094548369677653,
                "z": -0.704743149386269
            },
            "position": {
                "x": -0.37947507619857795,
                "y": -0.6371506643295288,
                "z": 0.19426114857196808
            }
        },
        "name": "move_to_magneteinheit_C"
    },
    "id": "LBTRRT_move_to_magneteinheit_C_59",
    "joint_names": [
        "shoulder_pan_joint",
        "shoulder_lift_joint",
        "elbow_joint",
        "wrist_1_joint",
        "wrist_2_joint",
        "wrist_3_joint"
    ],
    "metrics": {
        "cart_traj_len": 0.6383299115939087,
        "distance_elbow_joint": 0.5301123159086862,
        "distance_shoulder_lift_joint": 0.3003774762660576,
        "distance_shoulder_pan_joint": 0.8604975844376515,
        "distance_wrist_1_joint": 0.8946923559518178,
        "distance_wrist_2_joint": 1.1096413081274046,
        "distance_wrist_3_joint": 0.2287099506314001,
        "smoothness": 1.0697446359178935,
        "time": 5.025248697,
        "traj_len": 1.9809167047917533,
        "weighted_distance": 2.527010992588881
    },
    "planner": "LBTRRT",
    "start": {
        "state": {
            "elbow_joint": 1.9565354010623817,
            "shoulder_lift_joint": -1.4165861575791021,
            "shoulder_pan_joint": -1.6717766225146293,
            "wrist_1_joint": -0.5286633292919765,
            "wrist_2_joint": 1.472756589071564,
            "wrist_3_joint": -3.1238370188695823
        }
    },
    "waypoints": [
        {
            "positions": [
                -1.6717766225146293,
                -1.4165861575791021,
                1.9565354010623817,
                -0.5286633292919765,
                1.472756589071564,
                -3.1238370188695823
            ]
        },
        {
            "positions": [
                -1.7739852966093286,
                -1.4200463580965084,
                1.9982991683466311,
                -0.4862001797208043,
                1.3366929986306997,
                -3.1429354107857
            ]
        },
        {
            "positions": [
                -1.8761939707040278,
                -1.4235065586139148,
                2.0400629356308806,
                -0.4437370301496321,
                1.2006294081898354,
                -3.1620338027018184
            ]
        },
        {
            "positions": [
                -1.978402644798727,
                -1.426966759131321,
                2.08182670291513,
                -0.4012738805784599,
                1.0645658177489712,
                -3.1811321946179363
            ]
        },
        {
            "positions": [
                -2.0806113188934265,
                -1.4304269596487276,
                2.1235904701993795,
                -0.3588107310072878,
                0.928502227308107,
                -3.200230586534054
            ]
        },
        {
            "positions": [
                -2.182819992988126,
                -1.4338871601661338,
                2.165354237483629,
                -0.3163475814361156,
                0.7924386368672428,
                -3.219328978450172
            ]
        },
        {
            "positions": [
                -2.285028667082825,
                -1.4373473606835403,
                2.2071180047678784,
                -0.27388443186494343,
                0.6563750464263787,
                -3.2384273703662902
            ]
        },
        {
            "positions": [
                -2.3872373411775243,
                -1.4408075612009466,
                2.248881772052128,
                -0.23142128229377124,
                0.5203114559855144,
                -3.257525762282408
            ]
        },
        {
            "positions": [
                -2.4258615607456737,
                -1.3788186662776636,
                2.199607477441806,
                -0.36352212156081076,
                0.5324909957034463,
                -3.2360243205992814
            ]
        },
        {
            "positions": [
                -2.4644857803138236,
                -1.3168297713543808,
                2.1503331828314836,
                -0.4956229608278503,
                0.5446705354213782,
                -3.214522878916154
            ]
        },
        {
            "positions": [
                -2.503109999881973,
                -1.2548408764310979,
                2.1010588882211616,
                -0.6277238000948898,
                0.5568500751393101,
                -3.1930214372330274
            ]
        },
        {
            "positions": [
                -2.4885278963468194,
                -1.2097461824939155,
                2.0560873576771748,
                -0.7282976956711369,
                0.6171788530830897,
                -3.177762996148431
            ]
        },
        {
            "positions": [
                -2.4739457928116653,
                -1.1646514885567334,
                2.011115827133188,
                -0.8288715912473839,
                0.6775076310268695,
                -3.1625045550638338
            ]
        }
    ]
}