{
    "goal": {
        "global_pose": {
            "orientation": {
                "w": -0.4816463035849501,
                "x": 0.5182115481033762,
                "y": 0.4908360881923453,
                "z": -0.5084816262002911
            },
            "position": {
                "x": -0.8240239810943604,
                "y": -0.300875300988555,
                "z": 0.16403168439865112
            }
        },
        "name": "move_to_storage_C"
    },
    "id": "LBTRRT_move_to_storage_C_140",
    "joint_names": [
        "shoulder_pan_joint",
        "shoulder_lift_joint",
        "elbow_joint",
        "wrist_1_joint",
        "wrist_2_joint",
        "wrist_3_joint"
    ],
    "metrics": {
        "cart_traj_len": 0.5764981723777848,
        "distance_elbow_joint": 0.255447252266068,
        "distance_shoulder_lift_joint": 0.1890016013168283,
        "distance_shoulder_pan_joint": 0.4930952020146844,
        "distance_wrist_1_joint": 0.0655529545503325,
        "distance_wrist_2_joint": 1.0791540521915275,
        "distance_wrist_3_joint": 0.05436623253704953,
        "smoothness": 0.0,
        "time": 5.004070517,
        "traj_len": 1.4617172417661666,
        "weighted_distance": 1.8412106796052563
    },
    "planner": "LBTRRT",
    "start": {
        "state": {
            "elbow_joint": 2.010868314990456,
            "shoulder_lift_joint": -1.1634956873337592,
            "shoulder_pan_joint": -2.4736205022346125,
            "wrist_1_joint": -0.8367026794202681,
            "wrist_2_joint": 0.6746043897044499,
            "wrist_3_joint": -3.1496632123970403
        }
    },
    "waypoints": [
        {
            "positions": [
                -2.4736205022346125,
                -1.1634956873337592,
                2.010868314990456,
                -0.8367026794202681,
                0.6746043897044499,
                -3.1496632123970403
            ]
        },
        {
            "positions": [
                -2.5558030359037267,
                -1.131995420447621,
                1.9682937729461112,
                -0.8257771869952126,
                0.8544633984030379,
                -3.1406021736408656
            ]
        },
        {
            "positions": [
                -2.6379855695728405,
                -1.100495153561483,
                1.9257192309017666,
                -0.8148516945701573,
                1.0343224071016257,
                -3.1315411348846904
            ]
        },
        {
            "positions": [
                -2.7201681032419547,
                -1.0689948866753451,
                1.883144688857422,
                -0.8039262021451019,
                1.2141814158002138,
                -3.1224800961285153
            ]
        },
        {
            "positions": [
                -2.802350636911069,
                -1.037494619789207,
                1.840570146813077,
                -0.7930007097200464,
                1.3940404244988014,
                -3.1134190573723406
            ]
        },
        {
            "positions": [
                -2.8845331705801827,
                -1.0059943529030688,
                1.7979956047687324,
                -0.782075217294991,
                1.5738994331973895,
                -3.104358018616166
            ]
        },
        {
            "positions": [
                -2.966715704249297,
                -0.9744940860169309,
                1.7554210627243878,
                -0.7711497248699356,
                1.7537584418959773,
                -3.0952969798599907
            ]
        }
    ]
}