{
    "goal": {
        "global_pose": {
            "orientation": {
                "w": 0.7047431468963623,
                "x": -0.7094548344612122,
                "y": 0.0024358443915843964,
                "z": -0.0022348060738295317
            },
            "position": {
                "x": 0.6094750761985779,
                "y": 0.3671506643295288,
                "z": 0.19426114857196808
            }
        },
        "name": "move_to_magneteinheit_A"
    },
    "id": "LBTRRT_move_to_magneteinheit_A_101",
    "joint_names": [
        "shoulder_pan_joint",
        "shoulder_lift_joint",
        "elbow_joint",
        "wrist_1_joint",
        "wrist_2_joint",
        "wrist_3_joint"
    ],
    "metrics": {
        "cart_traj_len": 3.253195740579786,
        "distance_elbow_joint": 3.920141344832249,
        "distance_shoulder_lift_joint": 0.4643349193026076,
        "distance_shoulder_pan_joint": 2.829616882550896,
        "distance_wrist_1_joint": 3.493127045084808,
        "distance_wrist_2_joint": 1.4448807013798322,
        "distance_wrist_3_joint": 0.9486088987420256,
        "smoothness": 0.05727666368417088,
        "time": 5.045667882,
        "traj_len": 3.619490266859744,
        "weighted_distance": 4.464967562686332
    },
    "planner": "LBTRRT",
    "start": {
        "state": {
            "elbow_joint": -1.9196185241190666,
            "shoulder_lift_joint": -1.2443396400964142,
            "shoulder_pan_joint": 2.6996025414629847,
            "wrist_1_joint": -1.5485510000780065,
            "wrist_2_joint": -1.5709468930060704,
            "wrist_3_joint": 0.4420197071253992
        }
    },
    "waypoints": [
        {
            "positions": [
                2.6996025414629847,
                -1.2443396400964142,
                -1.9196185241190666,
                -1.5485510000780065,
                -1.5709468930060704,
                0.4420197071253992
            ]
        },
        {
            "positions": [
                2.5937204756361463,
                -1.2323594191182967,
                -1.8104343272255883,
                -1.4633837307647284,
                -1.5217624410284063,
                0.41130441789398947
            ]
        },
        {
            "positions": [
                2.487838409809308,
                -1.2203791981401793,
                -1.7012501303321101,
                -1.3782164614514503,
                -1.472577989050742,
                0.3805891286625798
            ]
        },
        {
            "positions": [
                2.38195634398247,
                -1.2083989771620618,
                -1.5920659334386318,
                -1.293049192138172,
                -1.423393537073078,
                0.3498738394311701
            ]
        },
        {
            "positions": [
                2.2760742781556313,
                -1.1964187561839443,
                -1.4828817365451537,
                -1.2078819228248938,
                -1.3742090850954138,
                0.31915855019976047
            ]
        },
        {
            "positions": [
                2.170192212328793,
                -1.1844385352058269,
                -1.3736975396516753,
                -1.1227146535116157,
                -1.3250246331177495,
                0.28844326096835077
            ]
        },
        {
            "positions": [
                2.0643101465019544,
                -1.1724583142277094,
                -1.264513342758197,
                -1.0375473841983376,
                -1.2758401811400855,
                0.25772797173694106
            ]
        },
        {
            "positions": [
                1.9584280806751162,
                -1.160478093249592,
                -1.1553291458647186,
                -0.9523801148850594,
                -1.2266557291624212,
                0.2270126825055314
            ]
        },
        {
            "positions": [
                1.852546014848278,
                -1.1484978722714745,
                -1.0461449489712404,
                -0.8672128455717812,
                -1.177471277184757,
                0.19629739327412174
            ]
        },
        {
            "positions": [
                1.7466639490214395,
                -1.1365176512933568,
                -0.9369607520777621,
                -0.7820455762585031,
                -1.128286825207093,
                0.165582104042712
            ]
        },
        {
            "positions": [
                1.640781883194601,
                -1.1245374303152393,
                -0.827776555184284,
                -0.696878306945225,
                -1.079102373229429,
                0.13486681481130236
            ]
        },
        {
            "positions": [
                1.5348998173677628,
                -1.1125572093371219,
                -0.7185923582908056,
                -0.6117110376319468,
                -1.0299179212517646,
                0.10415152557989266
            ]
        },
        {
            "positions": [
                1.4290177515409244,
                -1.1005769883590044,
                -0.6094081613973272,
                -0.5265437683186687,
                -0.9807334692741005,
                0.07343623634848301
            ]
        },
        {
            "positions": [
                1.3231356857140861,
                -1.088596767380887,
                -0.5002239645038491,
                -0.44137649900539055,
                -0.9315490172964364,
                0.04272094711707336
            ]
        },
        {
            "positions": [
                1.2172536198872477,
                -1.0766165464027695,
                -0.3910397676103705,
                -0.3562092296921122,
                -0.8823645653187722,
                0.012005657885663601
            ]
        },
        {
            "positions": [
                1.1113715540604092,
                -1.064636325424652,
                -0.2818555707168924,
                -0.2710419603788341,
                -0.833180113341108,
                -0.018709631345746047
            ]
        },
        {
            "positions": [
                1.005489488233571,
                -1.0526561044465346,
                -0.17267137382341424,
                -0.18587469106555599,
                -0.7839956613634439,
                -0.049424920577155695
            ]
        },
        {
            "positions": [
                0.8996074224067327,
                -1.040675883468417,
                -0.06348717692993588,
                -0.10070742175227787,
                -0.7348112093857798,
                -0.0801402098085654
            ]
        },
        {
            "positions": [
                0.7937253565798941,
                -1.0286956624902996,
                0.04569701996354247,
                -0.015540152438999755,
                -0.6856267574081155,
                -0.11085549903997516
            ]
        },
        {
            "positions": [
                0.6878432907530558,
                -1.0167154415121822,
                0.15488121685702083,
                0.06962711687427836,
                -0.6364423054304514,
                -0.1415707882713848
            ]
        },
        {
            "positions": [
                0.5819612249262174,
                -1.0047352205340647,
                0.26406541375049875,
                0.15479438618755648,
                -0.5872578534527872,
                -0.17228607750279445
            ]
        },
        {
            "positions": [
                0.47607915909937937,
                -0.9927549995559473,
                0.3732496106439771,
                0.2399616555008346,
                -0.5380734014751232,
                -0.2030013667342041
            ]
        },
        {
            "positions": [
                0.3701970932725409,
                -0.9807747785778297,
                0.48243380753745546,
                0.32512892481411293,
                -0.48888894949745887,
                -0.23371665596561386
            ]
        },
        {
            "positions": [
                0.26431502744570246,
                -0.9687945575997122,
                0.591618004430934,
                0.41029619412739093,
                -0.4397044975197949,
                -0.26443194519702345
            ]
        },
        {
            "positions": [
                0.21536808372276128,
                -0.9546621028760686,
                0.7082242853801161,
                0.5510054289706865,
                -0.4147680270947434,
                -0.26139647894984286
            ]
        },
        {
            "positions": [
                0.16642113999982008,
                -0.940529648152425,
                0.8248305663292981,
                0.691714663813982,
                -0.38983155666969194,
                -0.25836101270266226
            ]
        },
        {
            "positions": [
                0.1174741962768789,
                -0.9263971934287814,
                0.9414368472784802,
                0.8324238986572775,
                -0.36489508624464045,
                -0.25532554645548167
            ]
        },
        {
            "positions": [
                0.09720063060565122,
                -0.9115606539914735,
                1.081112487505149,
                0.993422079873608,
                -0.33680708838640333,
                -0.23610095886497484
            ]
        },
        {
            "positions": [
                0.07692706493442353,
                -0.8967241145541657,
                1.2207881277318178,
                1.1544202610899383,
                -0.30871909052816615,
                -0.21687637127446802
            ]
        },
        {
            "positions": [
                0.05665349926319585,
                -0.8818875751168578,
                1.3604637679584868,
                1.3154184423062687,
                -0.280631092669929,
                -0.1976517836839612
            ]
        },
        {
            "positions": [
                0.03637993359196817,
                -0.8670510356795499,
                1.5001394081851556,
                1.4764166235225993,
                -0.2525430948116919,
                -0.17842719609345437
            ]
        },
        {
            "positions": [
                0.01610636792074048,
                -0.8522144962422421,
                1.6398150484118246,
                1.6374148047389296,
                -0.22445509695345472,
                -0.15920260850294754
            ]
        },
        {
            "positions": [
                -0.004167197750487202,
                -0.8373779568049342,
                1.7794906886384934,
                1.79841298595526,
                -0.1963670990952176,
                -0.13997802091244071
            ]
        },
        {
            "positions": [
                0.05875637391822524,
                -0.8086913387993704,
                1.890006754675838,
                1.8714945154810307,
                -0.16121664536072774,
                -0.08112635984493051
            ]
        },
        {
            "positions": [
                0.12167994558693769,
                -0.7800047207938066,
                2.0005228207131824,
                1.9445760450068015,
                -0.1260661916262379,
                -0.0222746987774203
            ]
        }
    ]
}