{
    "goal": {
        "global_pose": {
            "orientation": {
                "w": 0.005598929693374612,
                "x": 0.007748599140229565,
                "y": 0.7110244013736278,
                "z": -0.7031023480610252
            },
            "position": {
                "x": -0.8858502320852131,
                "y": -0.7141253447532654,
                "z": 0.3711530566215515
            }
        },
        "name": "move_to_auspresseinheit_C"
    },
    "id": "LBTRRT_move_to_auspresseinheit_C_26",
    "joint_names": [
        "shoulder_pan_joint",
        "shoulder_lift_joint",
        "elbow_joint",
        "wrist_1_joint",
        "wrist_2_joint",
        "wrist_3_joint"
    ],
    "metrics": {
        "cart_traj_len": 0.49447569213662995,
        "distance_elbow_joint": 1.010485695279773,
        "distance_shoulder_lift_joint": 0.32976856578462843,
        "distance_shoulder_pan_joint": 0.2569325686073394,
        "distance_wrist_1_joint": 0.6961901692559597,
        "distance_wrist_2_joint": 1.3063157372150114,
        "distance_wrist_3_joint": 0.0785075476505499,
        "smoothness": 0.0,
        "time": 5.001814622,
        "traj_len": 1.9178634684964573,
        "weighted_distance": 2.41613767934804
    },
    "planner": "LBTRRT",
    "start": {
        "state": {
            "elbow_joint": 1.7527959577737207,
            "shoulder_lift_joint": -0.9740617694225068,
            "shoulder_pan_joint": -2.967991417825858,
            "wrist_1_joint": -0.759517768980727,
            "wrist_2_joint": 1.7443932448377408,
            "wrist_3_joint": -3.0840537646736568
        }
    },
    "waypoints": [
        {
            "positions": [
                -2.967991417825858,
                -0.9740617694225068,
                1.7527959577737207,
                -0.759517768980727,
                1.7443932448377408,
                -3.0840537646736568
            ]
        },
        {
            "positions": [
                -2.942298160965124,
                -0.9410849128440439,
                1.6517473882457434,
                -0.689898752055131,
                1.6137616711162397,
                -3.0919045194387116
            ]
        },
        {
            "positions": [
                -2.91660490410439,
                -0.9081080562655811,
                1.5506988187177662,
                -0.620279735129535,
                1.4831300973947386,
                -3.099755274203767
            ]
        },
        {
            "positions": [
                -2.890911647243656,
                -0.8751311996871183,
                1.449650249189789,
                -0.5506607182039391,
                1.3524985236732374,
                -3.1076060289688217
            ]
        },
        {
            "positions": [
                -2.865218390382922,
                -0.8421543431086553,
                1.3486016796618114,
                -0.4810417012783431,
                1.2218669499517363,
                -3.115456783733877
            ]
        },
        {
            "positions": [
                -2.839525133522188,
                -0.8091774865301926,
                1.2475531101338342,
                -0.41142268435274715,
                1.0912353762302351,
                -3.1233075384989317
            ]
        },
        {
            "positions": [
                -2.8138318766614545,
                -0.7762006299517297,
                1.146504540605857,
                -0.3418036674271512,
                0.960603802508734,
                -3.1311582932639865
            ]
        },
        {
            "positions": [
                -2.7881386198007205,
                -0.743223773373267,
                1.0454559710778797,
                -0.27218465050155527,
                0.829972228787233,
                -3.139009048029042
            ]
        },
        {
            "positions": [
                -2.7624453629399865,
                -0.710246916794804,
                0.9444074015499022,
                -0.20256563357595925,
                0.6993406550657317,
                -3.1468598027940966
            ]
        },
        {
            "positions": [
                -2.7367521060792526,
                -0.6772700602163412,
                0.843358832021925,
                -0.13294661665036323,
                0.5687090813442306,
                -3.154710557559152
            ]
        },
        {
            "positions": [
                -2.7110588492185186,
                -0.6442932036378783,
                0.7423102624939478,
                -0.06332759972476731,
                0.43807750762272957,
                -3.1625613123242067
            ]
        }
    ]
}