{
    "goal": {
        "global_pose": {
            "orientation": {
                "w": -0.00223480608172531,
                "x": 0.0024358444001904467,
                "y": 0.7094548369677653,
                "z": -0.704743149386269
            },
            "position": {
                "x": -0.37947507619857795,
                "y": -0.6371506643295288,
                "z": 0.19426114857196808
            }
        },
        "name": "move_to_magneteinheit_C"
    },
    "id": "LBTRRT_move_to_magneteinheit_C_121",
    "joint_names": [
        "shoulder_pan_joint",
        "shoulder_lift_joint",
        "elbow_joint",
        "wrist_1_joint",
        "wrist_2_joint",
        "wrist_3_joint"
    ],
    "metrics": {
        "cart_traj_len": 0.6058908499659024,
        "distance_elbow_joint": 0.37093831848221237,
        "distance_shoulder_lift_joint": 0.25207137293461823,
        "distance_shoulder_pan_joint": 0.9803809789656219,
        "distance_wrist_1_joint": 0.732228608019702,
        "distance_wrist_2_joint": 2.0767634389094134,
        "distance_wrist_3_joint": 0.18354038922673777,
        "smoothness": 1.131577412168147,
        "time": 5.019837806,
        "traj_len": 2.143810417583212,
        "weighted_distance": 2.7878299682586265
    },
    "planner": "LBTRRT",
    "start": {
        "state": {
            "elbow_joint": 1.9565354010623817,
            "shoulder_lift_joint": -1.4165861575791021,
            "shoulder_pan_joint": -1.6717766225146293,
            "wrist_1_joint": -0.5286633292919765,
            "wrist_2_joint": 1.472756589071564,
            "wrist_3_joint": -3.1238370188695823
        }
    },
    "waypoints": [
        {
            "positions": [
                -1.6717766225146293,
                -1.4165861575791021,
                1.9565354010623817,
                -0.5286633292919765,
                1.472756589071564,
                -3.1238370188695823
            ]
        },
        {
            "positions": [
                -1.7591588322421647,
                -1.4109325016380572,
                1.9832241543672433,
                -0.5940869355567883,
                1.292494190381751,
                -3.114129153831931
            ]
        },
        {
            "positions": [
                -1.8465410419697,
                -1.405278845697012,
                2.0099129076721045,
                -0.6595105418216001,
                1.1122317916919382,
                -3.1044212887942795
            ]
        },
        {
            "positions": [
                -1.9339232516972353,
                -1.399625189755967,
                2.036601660976966,
                -0.7249341480864118,
                0.9319693930021256,
                -3.0947134237566276
            ]
        },
        {
            "positions": [
                -2.0213054614247707,
                -1.3939715338149221,
                2.063290414281828,
                -0.7903577543512236,
                0.7517069943123127,
                -3.085005558718976
            ]
        },
        {
            "positions": [
                -2.108687671152306,
                -1.3883178778738772,
                2.0899791675866894,
                -0.8557813606160354,
                0.5714445956224998,
                -3.0752976936813248
            ]
        },
        {
            "positions": [
                -2.1960698808798416,
                -1.3826642219328322,
                2.116667920891551,
                -0.9212049668808471,
                0.3911821969326872,
                -3.065589828643673
            ]
        },
        {
            "positions": [
                -2.2834520906073767,
                -1.377010565991787,
                2.1433566741964123,
                -0.9866285731456589,
                0.21091979824287432,
                -3.0558819636060215
            ]
        },
        {
            "positions": [
                -2.370834300334912,
                -1.3713569100507421,
                2.170045427501274,
                -1.0520521794104707,
                0.030657399553061515,
                -3.04617409856837
            ]
        },
        {
            "positions": [
                -2.5144404370997466,
                -1.3002143775847395,
                2.1673857232613205,
                -1.0295415683600322,
                0.13271786764138588,
                -3.064035096984101
            ]
        },
        {
            "positions": [
                -2.5636895247959153,
                -1.2625926217757182,
                2.1444924099939495,
                -0.9556271953503837,
                0.23977513224058583,
                -3.0883146717387047
            ]
        },
        {
            "positions": [
                -2.5342001659011366,
                -1.22990000939864,
                2.1005339851486178,
                -0.9181556040700101,
                0.38162397114171454,
                -3.109560303657102
            ]
        },
        {
            "positions": [
                -2.504710807006358,
                -1.197207397021562,
                2.0565755603032856,
                -0.8806840127896365,
                0.5234728100428433,
                -3.1308059355754985
            ]
        },
        {
            "positions": [
                -2.4752214481115793,
                -1.1645147846444839,
                2.012617135457954,
                -0.8432124215092629,
                0.665321648943972,
                -3.1520515674938956
            ]
        }
    ]
}