{
    "goal": {
        "global_pose": {
            "orientation": {
                "w": -0.4816463035849501,
                "x": 0.5182115481033762,
                "y": 0.4908360881923453,
                "z": -0.5084816262002911
            },
            "position": {
                "x": -0.8240239810943604,
                "y": -0.300875300988555,
                "z": 0.16403168439865112
            }
        },
        "name": "move_to_storage_C"
    },
    "id": "LBTRRT_move_to_storage_C_80",
    "joint_names": [
        "shoulder_pan_joint",
        "shoulder_lift_joint",
        "elbow_joint",
        "wrist_1_joint",
        "wrist_2_joint",
        "wrist_3_joint"
    ],
    "metrics": {
        "cart_traj_len": 0.5765296600405313,
        "distance_elbow_joint": 0.26155977668474883,
        "distance_shoulder_lift_joint": 0.18930031999564223,
        "distance_shoulder_pan_joint": 0.4945781225162915,
        "distance_wrist_1_joint": 0.0904891651734071,
        "distance_wrist_2_joint": 1.064999024839473,
        "distance_wrist_3_joint": 0.07559224031277756,
        "smoothness": 0.0,
        "time": 5.005259594,
        "traj_len": 1.4753029009401222,
        "weighted_distance": 1.8663309781924466
    },
    "planner": "LBTRRT",
    "start": {
        "state": {
            "elbow_joint": 2.010868314990456,
            "shoulder_lift_joint": -1.1634956873337592,
            "shoulder_pan_joint": -2.4736205022346125,
            "wrist_1_joint": -0.8367026794202681,
            "wrist_2_joint": 0.6746043897044499,
            "wrist_3_joint": -3.1496632123970403
        }
    },
    "waypoints": [
        {
            "positions": [
                -2.4736205022346125,
                -1.1634956873337592,
                2.010868314990456,
                -0.8367026794202681,
                0.6746043897044499,
                -3.1496632123970403
            ]
        },
        {
            "positions": [
                -2.5560501893206613,
                -1.1319456340011522,
                1.967275018876331,
                -0.821621151891367,
                0.8521042271776954,
                -3.137064505678244
            ]
        },
        {
            "positions": [
                -2.6384798764067097,
                -1.100395580668545,
                1.9236817227622063,
                -0.8065396243624657,
                1.029604064650941,
                -3.1244657989594478
            ]
        },
        {
            "positions": [
                -2.720909563492758,
                -1.068845527335938,
                1.8800884266480815,
                -0.7914580968335645,
                1.2071039021241865,
                -3.1118670922406517
            ]
        },
        {
            "positions": [
                -2.803339250578807,
                -1.037295474003331,
                1.8364951305339565,
                -0.7763765693046634,
                1.384603739597432,
                -3.0992683855218552
            ]
        },
        {
            "positions": [
                -2.8857689376648556,
                -1.005745420670724,
                1.7929018344198318,
                -0.7612950417757622,
                1.5621035770706775,
                -3.0866696788030588
            ]
        },
        {
            "positions": [
                -2.968198624750904,
                -0.974195367338117,
                1.749308538305707,
                -0.746213514246861,
                1.7396034145439228,
                -3.0740709720842627
            ]
        }
    ]
}