{
    "goal": {
        "global_pose": {
            "orientation": {
                "w": 0.5084816217422485,
                "x": -0.49083608388900757,
                "y": 0.5182115435600281,
                "z": -0.4816462993621826
            },
            "position": {
                "x": 0.5540239810943604,
                "y": 0.030875300988554955,
                "z": 0.16403168439865112
            }
        },
        "name": "move_to_storage_A"
    },
    "id": "LBTRRT_move_to_storage_A_10",
    "joint_names": [
        "shoulder_pan_joint",
        "shoulder_lift_joint",
        "elbow_joint",
        "wrist_1_joint",
        "wrist_2_joint",
        "wrist_3_joint"
    ],
    "metrics": {
        "cart_traj_len": 0.3530612294304539,
        "distance_elbow_joint": 0.4491639904741873,
        "distance_shoulder_lift_joint": 0.2348795678457194,
        "distance_shoulder_pan_joint": 0.462833244970617,
        "distance_wrist_1_joint": 0.24133432641847008,
        "distance_wrist_2_joint": 1.093675553622693,
        "distance_wrist_3_joint": 0.09326683540364922,
        "smoothness": 1.554312239749871e-15,
        "time": 5.003213264999999,
        "traj_len": 1.6047284875440255,
        "weighted_distance": 2.0240299082730466
    },
    "planner": "LBTRRT",
    "start": {
        "state": {
            "elbow_joint": 1.971548259319323,
            "shoulder_lift_joint": -1.1394851275133948,
            "shoulder_pan_joint": 0.1228115487234821,
            "wrist_1_joint": -0.7804723859257726,
            "wrist_2_joint": 0.12958671773740124,
            "wrist_3_joint": -3.192489227718131
        }
    },
    "waypoints": [
        {
            "positions": [
                0.1228115487234821,
                -1.1394851275133948,
                1.971548259319323,
                -0.7804723859257726,
                0.12958671773740124,
                -3.192489227718131
            ]
        },
        {
            "positions": [
                0.05669251372767968,
                -1.1730393514913546,
                2.0357145436727784,
                -0.8149487182712684,
                0.2858260825406431,
                -3.1791653940890385
            ]
        },
        {
            "positions": [
                -0.00942652126812274,
                -1.2065935754693147,
                2.0998808280262335,
                -0.8494250506167641,
                0.442065447343885,
                -3.1658415604599455
            ]
        },
        {
            "positions": [
                -0.07554555626392517,
                -1.2401477994472745,
                2.164047112379689,
                -0.8839013829622597,
                0.5983048121471268,
                -3.152517726830853
            ]
        },
        {
            "positions": [
                -0.14166459125972758,
                -1.2737020234252345,
                2.2282133967331443,
                -0.9183777153077555,
                0.7545441769503687,
                -3.1391938932017602
            ]
        },
        {
            "positions": [
                -0.20778362625553004,
                -1.3072562474031943,
                2.2923796810865995,
                -0.9528540476532512,
                0.9107835417536105,
                -3.1258700595726676
            ]
        },
        {
            "positions": [
                -0.27390266125133245,
                -1.3408104713811544,
                2.356545965440055,
                -0.987330379998747,
                1.0670229065568524,
                -3.1125462259435746
            ]
        },
        {
            "positions": [
                -0.3400216962471349,
                -1.3743646953591142,
                2.4207122497935103,
                -1.0218067123442427,
                1.2232622713600942,
                -3.099222392314482
            ]
        }
    ]
}{
    "goal": {
        "global_pose": {
            "orientation": {
                "w": 0.5084816217422485,
                "x": -0.49083608388900757,
                "y": 0.5182115435600281,
                "z": -0.4816462993621826
            },
            "position": {
                "x": 0.5540239810943604,
                "y": 0.030875300988554955,
                "z": 0.16403168439865112
            }
        },
        "name": "move_to_storage_A"
    },
    "id": "LBTRRT_move_to_storage_A_10",
    "joint_names": [
        "shoulder_pan_joint",
        "shoulder_lift_joint",
        "elbow_joint",
        "wrist_1_joint",
        "wrist_2_joint",
        "wrist_3_joint"
    ],
    "metrics": {
        "cart_traj_len": 0.35270254871566886,
        "distance_elbow_joint": 0.45377464015193025,
        "distance_shoulder_lift_joint": 0.23318551720226033,
        "distance_shoulder_pan_joint": 0.4600318711062809,
        "distance_wrist_1_joint": 0.26213569107501056,
        "distance_wrist_2_joint": 1.1028431398443332,
        "distance_wrist_3_joint": 0.10271710836784864,
        "smoothness": 0.0,
        "time": 5.004175583,
        "traj_len": 1.6169996808124807,
        "weighted_distance": 2.045751943761194
    },
    "planner": "LBTRRT",
    "start": {
        "state": {
            "elbow_joint": 1.97154746011099,
            "shoulder_lift_joint": -1.13948474672311,
            "shoulder_pan_joint": 0.12281154466712228,
            "wrist_1_joint": -0.7804688027058302,
            "wrist_2_joint": 0.12958655903071145,
            "wrist_3_joint": 3.0906928834467795
        }
    },
    "waypoints": [
        {
            "positions": [
                0.12281154466712228,
                -1.13948474672311,
                1.97154746011099,
                -0.7804688027058302,
                0.12958655903071145,
                3.0906928834467795
            ]
        },
        {
            "positions": [
                0.05709270593765359,
                -1.17279696346629,
                2.0363724087041226,
                -0.8179167585736888,
                0.2871355790084733,
                3.105366756070758
            ]
        },
        {
            "positions": [
                -0.008626132791815108,
                -1.2061091802094701,
                2.1011973572972558,
                -0.8553647144415475,
                0.44468459898623525,
                3.120040628694736
            ]
        },
        {
            "positions": [
                -0.07434497152128382,
                -1.2394213969526502,
                2.1660223058903885,
                -0.8928126703094061,
                0.6022336189639971,
                3.1347145013187148
            ]
        },
        {
            "positions": [
                -0.14006381025075249,
                -1.27273361369583,
                2.2308472544835216,
                -0.9302606261772648,
                0.759782638941759,
                3.149388373942693
            ]
        },
        {
            "positions": [
                -0.2057826489802212,
                -1.3060458304390101,
                2.2956722030766543,
                -0.9677085820451234,
                0.917331658919521,
                3.1640622465666715
            ]
        },
        {
            "positions": [
                -0.2715014877096899,
                -1.3393580471821902,
                2.3604971516697875,
                -1.005156537912982,
                1.0748806788972827,
                3.1787361191906496
            ]
        },
        {
            "positions": [
                -0.3372203264391586,
                -1.3726702639253703,
                2.42532210026292,
                -1.0426044937808407,
                1.2324296988750447,
                3.193409991814628
            ]
        }
    ]
}{
    "goal": {
        "global_pose": {
            "orientation": {
                "w": 0.5084816217422485,
                "x": -0.49083608388900757,
                "y": 0.5182115435600281,
                "z": -0.4816462993621826
            },
            "position": {
                "x": 0.5540239810943604,
                "y": 0.030875300988554955,
                "z": 0.16403168439865112
            }
        },
        "name": "move_to_storage_A"
    },
    "id": "LBTRRT_move_to_storage_A_10",
    "joint_names": [
        "shoulder_pan_joint",
        "shoulder_lift_joint",
        "elbow_joint",
        "wrist_1_joint",
        "wrist_2_joint",
        "wrist_3_joint"
    ],
    "metrics": {
        "cart_traj_len": 0.3525237252572448,
        "distance_elbow_joint": 0.4501294109520928,
        "distance_shoulder_lift_joint": 0.23333612431025497,
        "distance_shoulder_pan_joint": 0.45804487908109803,
        "distance_wrist_1_joint": 0.2501295063209328,
        "distance_wrist_2_joint": 1.1094325588875391,
        "distance_wrist_3_joint": 0.10093933673745958,
        "smoothness": 2.2204460668324854e-16,
        "time": 5.002914576,
        "traj_len": 1.613075266777523,
        "weighted_distance": 2.0404540070711636
    },
    "planner": "LBTRRT",
    "start": {
        "state": {
            "elbow_joint": 1.9715472970024885,
            "shoulder_lift_joint": -1.1394870060712896,
            "shoulder_pan_joint": 0.12281152778156021,
            "wrist_1_joint": -0.780463741449964,
            "wrist_2_joint": 0.12958659822042276,
            "wrist_3_joint": 3.090690232415272
        }
    },
    "waypoints": [
        {
            "positions": [
                0.12281152778156021,
                -1.1394870060712896,
                1.9715472970024885,
                -0.780463741449964,
                0.12958659822042276,
                3.090690232415272
            ]
        },
        {
            "positions": [
                0.057376545055689065,
                -1.1728207381156117,
                2.035851498567073,
                -0.8161965280672401,
                0.2880769637757855,
                3.1051101376634804
            ]
        },
        {
            "positions": [
                -0.008058437670182078,
                -1.2061544701599338,
                2.100155700131658,
                -0.8519293146845162,
                0.4465673293311482,
                3.119530042911689
            ]
        },
        {
            "positions": [
                -0.07349342039605322,
                -1.239488202204256,
                2.1644599016962425,
                -0.8876621013017924,
                0.605057694886511,
                3.1339499481598976
            ]
        },
        {
            "positions": [
                -0.13892840312192437,
                -1.272821934248578,
                2.2287641032608274,
                -0.9233948879190684,
                0.7635480604418736,
                3.1483698534081057
            ]
        },
        {
            "positions": [
                -0.20436338584779554,
                -1.3061556662929004,
                2.293068304825412,
                -0.9591276745363446,
                0.9220384259972364,
                3.1627897586563143
            ]
        },
        {
            "positions": [
                -0.2697983685736667,
                -1.3394893983372225,
                2.3573725063899964,
                -0.9948604611536207,
                1.0805287915525992,
                3.177209663904523
            ]
        },
        {
            "positions": [
                -0.3352333512995378,
                -1.3728231303815446,
                2.4216767079545813,
                -1.0305932477708968,
                1.2390191571079618,
                3.1916295691527314
            ]
        }
    ]
}