{
    "goal": {
        "global_pose": {
            "orientation": {
                "w": 0.5084816217422485,
                "x": -0.49083608388900757,
                "y": 0.5182115435600281,
                "z": -0.4816462993621826
            },
            "position": {
                "x": 0.5540239810943604,
                "y": 0.030875300988554955,
                "z": 0.16403168439865112
            }
        },
        "name": "move_to_storage_A"
    },
    "id": "LBTRRT_move_to_storage_A_118",
    "joint_names": [
        "shoulder_pan_joint",
        "shoulder_lift_joint",
        "elbow_joint",
        "wrist_1_joint",
        "wrist_2_joint",
        "wrist_3_joint"
    ],
    "metrics": {
        "cart_traj_len": 0.35287287011123164,
        "distance_elbow_joint": 0.44723431870695474,
        "distance_shoulder_lift_joint": 0.2335222894646467,
        "distance_shoulder_pan_joint": 0.46068145890557644,
        "distance_wrist_1_joint": 0.23483151221774212,
        "distance_wrist_2_joint": 1.1007440175389893,
        "distance_wrist_3_joint": 0.09142873351111813,
        "smoothness": 1.2212453191034883e-15,
        "time": 5.003499385,
        "traj_len": 1.6026360567343503,
        "weighted_distance": 2.021602168361519
    },
    "planner": "LBTRRT",
    "start": {
        "state": {
            "elbow_joint": 1.971548259319323,
            "shoulder_lift_joint": -1.1394851275133948,
            "shoulder_pan_joint": 0.1228115487234821,
            "wrist_1_joint": -0.7804723859257726,
            "wrist_2_joint": 0.12958671773740124,
            "wrist_3_joint": -3.192489227718131
        }
    },
    "waypoints": [
        {
            "positions": [
                0.1228115487234821,
                -1.1394851275133948,
                1.971548259319323,
                -0.7804723859257726,
                0.12958671773740124,
                -3.192489227718131
            ]
        },
        {
            "positions": [
                0.05699991173697118,
                -1.1728454545797729,
                2.0354388762774596,
                -0.8140197448140215,
                0.286835863100114,
                -3.1794279800736858
            ]
        },
        {
            "positions": [
                -0.008811725249539742,
                -1.206205781646151,
                2.099329493235596,
                -0.8475671037022704,
                0.4440850084628267,
                -3.1663667324292404
            ]
        },
        {
            "positions": [
                -0.07462336223605065,
                -1.2395661087125291,
                2.1632201101937323,
                -0.8811144625905192,
                0.6013341538255395,
                -3.153305484784795
            ]
        },
        {
            "positions": [
                -0.14043499922256159,
                -1.2729264357789072,
                2.2271107271518686,
                -0.9146618214787681,
                0.7585832991882523,
                -3.140244237140349
            ]
        },
        {
            "positions": [
                -0.20624663620907252,
                -1.3062867628452852,
                2.291001344110005,
                -0.948209180367017,
                0.9158324445509651,
                -3.127182989495904
            ]
        },
        {
            "positions": [
                -0.2720582731955834,
                -1.3396470899116635,
                2.3548919610681414,
                -0.9817565392552658,
                1.0730815899136776,
                -3.1141217418514584
            ]
        },
        {
            "positions": [
                -0.33786991018209434,
                -1.3730074169780415,
                2.4187825780262777,
                -1.0153038981435147,
                1.2303307352763906,
                -3.101060494207013
            ]
        }
    ]
}{
    "goal": {
        "global_pose": {
            "orientation": {
                "w": 0.5084816217422485,
                "x": -0.49083608388900757,
                "y": 0.5182115435600281,
                "z": -0.4816462993621826
            },
            "position": {
                "x": 0.5540239810943604,
                "y": 0.030875300988554955,
                "z": 0.16403168439865112
            }
        },
        "name": "move_to_storage_A"
    },
    "id": "LBTRRT_move_to_storage_A_118",
    "joint_names": [
        "shoulder_pan_joint",
        "shoulder_lift_joint",
        "elbow_joint",
        "wrist_1_joint",
        "wrist_2_joint",
        "wrist_3_joint"
    ],
    "metrics": {
        "cart_traj_len": 0.3523434186324121,
        "distance_elbow_joint": 0.44907024072167756,
        "distance_shoulder_lift_joint": 0.23441680277014565,
        "distance_shoulder_pan_joint": 0.46080328101886014,
        "distance_wrist_1_joint": 0.23822909304311546,
        "distance_wrist_2_joint": 1.0971566661229344,
        "distance_wrist_3_joint": 0.1025598427171035,
        "smoothness": 1.1102230263833737e-15,
        "time": 5.005774228,
        "traj_len": 1.6069337031731696,
        "weighted_distance": 2.030453489000448
    },
    "planner": "LBTRRT",
    "start": {
        "state": {
            "elbow_joint": 1.97154746011099,
            "shoulder_lift_joint": -1.13948474672311,
            "shoulder_pan_joint": 0.12281154466712228,
            "wrist_1_joint": -0.7804688027058302,
            "wrist_2_joint": 0.12958655903071145,
            "wrist_3_joint": 3.0906928834467795
        }
    },
    "waypoints": [
        {
            "positions": [
                0.12281154466712228,
                -1.13948474672311,
                1.97154746011099,
                -0.7804688027058302,
                0.12958655903071145,
                3.0906928834467795
            ]
        },
        {
            "positions": [
                0.05698250452157083,
                -1.1729728614045594,
                2.035700351642658,
                -0.8145015302834181,
                0.2863232256197021,
                3.105344289549223
            ]
        },
        {
            "positions": [
                -0.00884653562398062,
                -1.2064609760860088,
                2.0998532431743264,
                -0.848534257861006,
                0.4430598922086927,
                3.1199956956516663
            ]
        },
        {
            "positions": [
                -0.07467557576953206,
                -1.2399490907674582,
                2.1640061347059945,
                -0.8825669854385939,
                0.5997965587976833,
                3.1346471017541098
            ]
        },
        {
            "positions": [
                -0.1405046159150835,
                -1.2734372054489074,
                2.228159026237663,
                -0.9165997130161818,
                0.756533225386674,
                3.1492985078565527
            ]
        },
        {
            "positions": [
                -0.20633365606063497,
                -1.3069253201303568,
                2.292311917769331,
                -0.9506324405937698,
                0.9132698919756647,
                3.163949913958996
            ]
        },
        {
            "positions": [
                -0.2721626962061864,
                -1.3404134348118062,
                2.3564648093009994,
                -0.9846651681713577,
                1.0700065585646552,
                3.1786013200614396
            ]
        },
        {
            "positions": [
                -0.33799173635173785,
                -1.3739015494932556,
                2.4206177008326675,
                -1.0186978957489456,
                1.2267432251536459,
                3.193252726163883
            ]
        }
    ]
}{
    "goal": {
        "global_pose": {
            "orientation": {
                "w": 0.5084816217422485,
                "x": -0.49083608388900757,
                "y": 0.5182115435600281,
                "z": -0.4816462993621826
            },
            "position": {
                "x": 0.5540239810943604,
                "y": 0.030875300988554955,
                "z": 0.16403168439865112
            }
        },
        "name": "move_to_storage_A"
    },
    "id": "LBTRRT_move_to_storage_A_118",
    "joint_names": [
        "shoulder_pan_joint",
        "shoulder_lift_joint",
        "elbow_joint",
        "wrist_1_joint",
        "wrist_2_joint",
        "wrist_3_joint"
    ],
    "metrics": {
        "cart_traj_len": 0.3527455636505929,
        "distance_elbow_joint": 0.4537544827765756,
        "distance_shoulder_lift_joint": 0.23500672777213327,
        "distance_shoulder_pan_joint": 0.45886314705271236,
        "distance_wrist_1_joint": 0.26064170315162105,
        "distance_wrist_2_joint": 1.1089667490414044,
        "distance_wrist_3_joint": 0.10137731153768703,
        "smoothness": 4.440892098500626e-16,
        "time": 5.002756231,
        "traj_len": 1.6182120137151788,
        "weighted_distance": 2.047186654069563
    },
    "planner": "LBTRRT",
    "start": {
        "state": {
            "elbow_joint": 1.9715472970024885,
            "shoulder_lift_joint": -1.1394870060712896,
            "shoulder_pan_joint": 0.12281152778156021,
            "wrist_1_joint": -0.780463741449964,
            "wrist_2_joint": 0.12958659822042276,
            "wrist_3_joint": 3.090690232415272
        }
    },
    "waypoints": [
        {
            "positions": [
                0.12281152778156021,
                -1.1394870060712896,
                1.9715472970024885,
                -0.780463741449964,
                0.12958659822042276,
                3.090690232415272
            ]
        },
        {
            "positions": [
                0.057259649631172735,
                -1.1730593957530229,
                2.036369365970571,
                -0.8176982704716241,
                0.288010419512052,
                3.1051727054920844
            ]
        },
        {
            "positions": [
                -0.00829222851921474,
                -1.2066317854347564,
                2.101191434938653,
                -0.8549327994932843,
                0.4464342408036811,
                3.119655178568897
            ]
        },
        {
            "positions": [
                -0.07384410666960223,
                -1.2402041751164896,
                2.1660135039067354,
                -0.8921673285149444,
                0.6048580620953103,
                3.1341376516457093
            ]
        },
        {
            "positions": [
                -0.1393959848199897,
                -1.2737765647982229,
                2.2308355728748173,
                -0.9294018575366045,
                0.7632818833869395,
                3.1486201247225214
            ]
        },
        {
            "positions": [
                -0.20494786297037718,
                -1.3073489544799561,
                2.2956576418428996,
                -0.9666363865582648,
                0.9217057046785687,
                3.163102597799334
            ]
        },
        {
            "positions": [
                -0.2704997411207647,
                -1.3409213441616896,
                2.360479710810982,
                -1.0038709155799248,
                1.080129525970198,
                3.1775850708761464
            ]
        },
        {
            "positions": [
                -0.3360516192711521,
                -1.3744937338434229,
                2.425301779779064,
                -1.041105444601585,
                1.238553347261827,
                3.192067543952959
            ]
        }
    ]
}