{
    "goal": {
        "global_pose": {
            "orientation": {
                "w": 0.7047431493862688,
                "x": -0.7094548369677653,
                "y": 0.0024358444001904,
                "z": -0.0022348060817251984
            },
            "position": {
                "x": -0.39052492380142206,
                "y": 0.3671506643295288,
                "z": 0.19426114857196808
            }
        },
        "name": "move_to_magneteinheit_D"
    },
    "id": "LBTRRT_move_to_magneteinheit_D_40",
    "joint_names": [
        "shoulder_pan_joint",
        "shoulder_lift_joint",
        "elbow_joint",
        "wrist_1_joint",
        "wrist_2_joint",
        "wrist_3_joint"
    ],
    "metrics": {
        "cart_traj_len": 4.056723458097036,
        "distance_elbow_joint": 3.1455992092362566,
        "distance_shoulder_lift_joint": 1.6419876231931492,
        "distance_shoulder_pan_joint": 3.2346966117623674,
        "distance_wrist_1_joint": 1.529561014924258,
        "distance_wrist_2_joint": 0.24479859924077285,
        "distance_wrist_3_joint": 3.222947643153616,
        "smoothness": 0.20586138356256262,
        "time": 5.051509102,
        "traj_len": 3.6082669942107137,
        "weighted_distance": 4.608670697932613
    },
    "planner": "LBTRRT",
    "start": {
        "state": {
            "elbow_joint": 0.749534889911806,
            "shoulder_lift_joint": -0.6476975780787326,
            "shoulder_pan_joint": -2.711696901376241,
            "wrist_1_joint": -0.07506478083263063,
            "wrist_2_joint": 0.43296659715538205,
            "wrist_3_joint": -3.14703540197715
        }
    },
    "waypoints": [
        {
            "positions": [
                -2.711696901376241,
                -0.6476975780787326,
                0.749534889911806,
                -0.07506478083263063,
                0.43296659715538205,
                -3.14703540197715
            ]
        },
        {
            "positions": [
                -2.7197454387755062,
                -0.6749615264194488,
                0.6826811250466569,
                0.045229838487398324,
                0.43086863918126894,
                -3.00161210530554
            ]
        },
        {
            "positions": [
                -2.727793976174772,
                -0.7022254747601651,
                0.6158273601815079,
                0.16552445780742728,
                0.42877068120715583,
                -2.8561888086339304
            ]
        },
        {
            "positions": [
                -2.7358425135740374,
                -0.7294894231008812,
                0.5489735953163588,
                0.28581907712745624,
                0.42667272323304273,
                -2.710765511962321
            ]
        },
        {
            "positions": [
                -2.7438910509733025,
                -0.7567533714415974,
                0.48211983045120976,
                0.4061136964474852,
                0.4245747652589296,
                -2.565342215290711
            ]
        },
        {
            "positions": [
                -2.6301282019389256,
                -0.7910129757881108,
                0.374529838850348,
                0.4325980545155316,
                0.4206627412871468,
                -2.4679177642844814
            ]
        },
        {
            "positions": [
                -2.5163653529045487,
                -0.8252725801346242,
                0.2669398472494863,
                0.4590824125835781,
                0.41675071731536406,
                -2.3704933132782524
            ]
        },
        {
            "positions": [
                -2.402602503870172,
                -0.8595321844811377,
                0.15934985564862447,
                0.48556677065162457,
                0.41283869334358125,
                -2.273068862272023
            ]
        },
        {
            "positions": [
                -2.288839654835795,
                -0.8937917888276511,
                0.05175986404776273,
                0.5120511287196711,
                0.4089266693717985,
                -2.175644411265794
            ]
        },
        {
            "positions": [
                -2.1750768058014183,
                -0.9280513931741645,
                -0.05583012755309913,
                0.5385354867877175,
                0.4050146454000157,
                -2.0782199602595646
            ]
        },
        {
            "positions": [
                -2.0613139567670413,
                -0.962310997520678,
                -0.16342011915396082,
                0.565019844855764,
                0.40110262142823294,
                -1.9807955092533351
            ]
        },
        {
            "positions": [
                -1.9475511077326644,
                -0.9965706018671914,
                -0.2710101107548226,
                0.5915042029238105,
                0.39719059745645013,
                -1.883371058247106
            ]
        },
        {
            "positions": [
                -1.8337882586982879,
                -1.0308302062137047,
                -0.3786001023556843,
                0.6179885609918568,
                0.3932785734846674,
                -1.7859466072408767
            ]
        },
        {
            "positions": [
                -1.720025409663911,
                -1.0650898105602182,
                -0.4861900939565461,
                0.6444729190599033,
                0.3893665495128846,
                -1.6885221562346475
            ]
        },
        {
            "positions": [
                -1.606262560629534,
                -1.0993494149067315,
                -0.593780085557408,
                0.6709572771279498,
                0.3854545255411018,
                -1.5910977052284183
            ]
        },
        {
            "positions": [
                -1.4924997115951573,
                -1.133609019253245,
                -0.7013700771582696,
                0.6974416351959962,
                0.381542501569319,
                -1.4936732542221889
            ]
        },
        {
            "positions": [
                -1.3787368625607803,
                -1.1678686235997584,
                -0.8089600687591314,
                0.7239259932640427,
                0.3776304775975362,
                -1.3962488032159597
            ]
        },
        {
            "positions": [
                -1.2649740135264036,
                -1.2021282279462717,
                -0.916550060359993,
                0.7504103513320892,
                0.37371845362575346,
                -1.2988243522097305
            ]
        },
        {
            "positions": [
                -1.1512111644920264,
                -1.2363878322927853,
                -1.024140051960855,
                0.7768947094001357,
                0.36980642965397065,
                -1.201399901203501
            ]
        },
        {
            "positions": [
                -1.0374483154576497,
                -1.2706474366392988,
                -1.1317300435617168,
                0.8033790674681821,
                0.3658944056821879,
                -1.1039754501972718
            ]
        },
        {
            "positions": [
                -0.923685466423273,
                -1.3049070409858121,
                -1.2393200351625784,
                0.8298634255362285,
                0.3619823817104051,
                -1.0065509991910426
            ]
        },
        {
            "positions": [
                -0.809922617388896,
                -1.3391666453323257,
                -1.3469100267634404,
                0.856347783604275,
                0.35807035773862234,
                -0.9091265481848132
            ]
        },
        {
            "positions": [
                -0.6961597683545193,
                -1.373426249678839,
                -1.454500018364302,
                0.8828321416723215,
                0.35415833376683953,
                -0.8117020971785842
            ]
        },
        {
            "positions": [
                -0.5823969193201424,
                -1.4076858540253525,
                -1.5620900099651636,
                0.9093164997403679,
                0.3502463097950568,
                -0.714277646172355
            ]
        },
        {
            "positions": [
                -0.4686340702857654,
                -1.4419454583718658,
                -1.6696800015660258,
                0.9358008578084145,
                0.34633428582327397,
                -0.6168531951661256
            ]
        },
        {
            "positions": [
                -0.3548712212513885,
                -1.4762050627183791,
                -1.7772699931668872,
                0.9622852158764609,
                0.34242226185149116,
                -0.5194287441598964
            ]
        },
        {
            "positions": [
                -0.24110837221701198,
                -1.5104646670648927,
                -1.884859984767749,
                0.9887695739445073,
                0.3385102378797084,
                -0.42200429315366694
            ]
        },
        {
            "positions": [
                -0.12734552318263503,
                -1.5447242714114062,
                -1.9924499763686108,
                1.0152539320125538,
                0.33459821390792566,
                -0.3245798421474375
            ]
        },
        {
            "positions": [
                -0.013582674148258297,
                -1.5789838757579195,
                -2.100039967969473,
                1.0417382900806003,
                0.33068618993614285,
                -0.22715539114120833
            ]
        },
        {
            "positions": [
                0.03637791829645331,
                -1.7526130512226794,
                -2.1424343227767415,
                1.0411646848356666,
                0.3116551636430097,
                -0.18748329310795583
            ]
        },
        {
            "positions": [
                0.08633851074116491,
                -1.926242226687439,
                -2.1848286775840107,
                1.040591079590733,
                0.2926241373498766,
                -0.14781119507470333
            ]
        },
        {
            "positions": [
                0.1362991031858765,
                -2.099871402152199,
                -2.2272230323912794,
                1.0400174743457993,
                0.27359311105674344,
                -0.10813909704145083
            ]
        },
        {
            "positions": [
                0.06741476601459678,
                -2.145533288959889,
                -2.261282201700977,
                1.1420161059147467,
                0.25361920068935234,
                -0.08037188319862479
            ]
        },
        {
            "positions": [
                -0.0014695711566829472,
                -2.1911951757675787,
                -2.2953413710106743,
                1.244014737483694,
                0.23364529032196124,
                -0.05260466935579873
            ]
        },
        {
            "positions": [
                -0.07035390832796268,
                -2.236857062575269,
                -2.3294005403203717,
                1.3460133690526417,
                0.21367137995457014,
                -0.024837455512972673
            ]
        },
        {
            "positions": [
                -0.1392382454992424,
                -2.282518949382959,
                -2.363459709630069,
                1.448012000621589,
                0.19369746958717904,
                0.0029297583298533714
            ]
        },
        {
            "positions": [
                -0.18601320482024997,
                -2.275352697494036,
                -2.396064319324451,
                1.4449693986211527,
                0.1881679979146092,
                0.07591224117646593
            ]
        }
    ]
}