{
    "goal": {
        "global_pose": {
            "orientation": {
                "w": 0.5084816262002911,
                "x": -0.4908360881923452,
                "y": 0.5182115481033761,
                "z": -0.48164630358495003
            },
            "position": {
                "x": 0.5540239810943604,
                "y": -0.46912469901144505,
                "z": 0.16403168439865112
            }
        },
        "name": "move_to_storage_B"
    },
    "id": "LBTRRT_move_to_storage_B_58",
    "joint_names": [
        "shoulder_pan_joint",
        "shoulder_lift_joint",
        "elbow_joint",
        "wrist_1_joint",
        "wrist_2_joint",
        "wrist_3_joint"
    ],
    "metrics": {
        "cart_traj_len": 1.2268713020802533,
        "distance_elbow_joint": 0.42620931502839765,
        "distance_shoulder_lift_joint": 0.6421273482506937,
        "distance_shoulder_pan_joint": 1.038752716193657,
        "distance_wrist_1_joint": 2.9904486759250055,
        "distance_wrist_2_joint": 2.7081788403005875,
        "distance_wrist_3_joint": 3.15382623221583,
        "smoothness": 0.12467488417629632,
        "time": 5.0182702610000005,
        "traj_len": 3.310520069100045,
        "weighted_distance": 4.792267011401955
    },
    "planner": "LBTRRT",
    "start": {
        "state": {
            "elbow_joint": 1.664937868594044,
            "shoulder_lift_joint": -0.661644460510453,
            "shoulder_pan_joint": -0.9139846352900073,
            "wrist_1_joint": 2.146753192139373,
            "wrist_2_joint": -2.2341966793290973,
            "wrist_3_joint": 0.005466555786416001
        }
    },
    "waypoints": [
        {
            "positions": [
                -0.9139846352900073,
                -0.661644460510453,
                1.664937868594044,
                2.146753192139373,
                -2.2341966793290973,
                0.005466555786416001
            ]
        },
        {
            "positions": [
                -0.8749897105572481,
                -0.7116895447873737,
                1.700275402254374,
                2.0928645905069447,
                -2.160339713276404,
                0.1484248364511973
            ]
        },
        {
            "positions": [
                -0.8359947858244888,
                -0.7617346290642943,
                1.7356129359147041,
                2.038975988874516,
                -2.086482747223711,
                0.29138311711597864
            ]
        },
        {
            "positions": [
                -0.7969998610917297,
                -0.811779713341215,
                1.7709504695750342,
                1.9850873872420873,
                -2.012625781171018,
                0.4343413977807599
            ]
        },
        {
            "positions": [
                -0.7580049363589705,
                -0.8618247976181357,
                1.8062880032353643,
                1.9311987856096589,
                -1.938768815118325,
                0.5772996784455412
            ]
        },
        {
            "positions": [
                -0.7190100116262113,
                -0.9118698818950564,
                1.8416255368956942,
                1.8773101839772302,
                -1.864911849065632,
                0.7202579591103225
            ]
        },
        {
            "positions": [
                -0.680015086893452,
                -0.961914966171977,
                1.8769630705560243,
                1.8234215823448017,
                -1.791054883012939,
                0.8632162397751038
            ]
        },
        {
            "positions": [
                -0.6410201621606928,
                -1.0119600504488977,
                1.9123006042163544,
                1.769532980712373,
                -1.717197916960246,
                1.006174520439885
            ]
        },
        {
            "positions": [
                -0.6020252374279336,
                -1.0620051347258184,
                1.9476381378766845,
                1.7156443790799445,
                -1.643340950907553,
                1.1491328011046664
            ]
        },
        {
            "positions": [
                -0.5630303126951745,
                -1.112050219002739,
                1.9829756715370146,
                1.6617557774475158,
                -1.5694839848548598,
                1.292091081769448
            ]
        },
        {
            "positions": [
                -0.5240353879624153,
                -1.1620953032796597,
                2.0183132051973445,
                1.607867175815087,
                -1.4956270188021668,
                1.435049362434229
            ]
        },
        {
            "positions": [
                -0.48504046322965605,
                -1.2121403875565804,
                2.053650738857675,
                1.5539785741826586,
                -1.4217700527494737,
                1.5780076430990104
            ]
        },
        {
            "positions": [
                -0.520911554061027,
                -1.2067503039563117,
                2.051445065636218,
                1.4129389237139356,
                -1.3102552166482406,
                1.6710244163286125
            ]
        },
        {
            "positions": [
                -0.5567826448923979,
                -1.2013602203560432,
                2.049239392414761,
                1.2718992732452126,
                -1.1987403805470074,
                1.7640411895582147
            ]
        },
        {
            "positions": [
                -0.5926537357237688,
                -1.1959701367557745,
                2.0470337191933043,
                1.1308596227764895,
                -1.0872255444457744,
                1.8570579627878168
            ]
        },
        {
            "positions": [
                -0.6285248265551397,
                -1.190580053155506,
                2.0448280459718475,
                0.9898199723077666,
                -0.9757107083445411,
                1.9500747360174189
            ]
        },
        {
            "positions": [
                -0.6643959173865106,
                -1.1851899695552373,
                2.0426223727503903,
                0.8487803218390436,
                -0.864195872243308,
                2.043091509247021
            ]
        },
        {
            "positions": [
                -0.7002670082178816,
                -1.1797998859549688,
                2.0404166995289335,
                0.7077406713703206,
                -0.7526810361420748,
                2.136108282476623
            ]
        },
        {
            "positions": [
                -0.7361380990492525,
                -1.1744098023547,
                2.0382110263074766,
                0.5667010209015977,
                -0.6411662000408418,
                2.229125055706225
            ]
        },
        {
            "positions": [
                -0.7720091898806234,
                -1.1690197187544316,
                2.03600535308602,
                0.42566137043287466,
                -0.5296513639396087,
                2.3221418289358273
            ]
        },
        {
            "positions": [
                -0.8078802807119944,
                -1.1636296351541628,
                2.033799679864563,
                0.28462171996415164,
                -0.4181365278383755,
                2.4151586021654294
            ]
        },
        {
            "positions": [
                -0.8437513715433653,
                -1.1582395515538944,
                2.031594006643106,
                0.14358206949542862,
                -0.30662169173714227,
                2.5081753753950315
            ]
        },
        {
            "positions": [
                -0.8796224623747362,
                -1.1528494679536256,
                2.0293883334216494,
                0.0025424190267056,
                -0.19510685563590924,
                2.6011921486246337
            ]
        },
        {
            "positions": [
                -0.9154935532061071,
                -1.1474593843533571,
                2.0271826602001926,
                -0.13849723144201742,
                -0.08359201953467599,
                2.6942089218542358
            ]
        },
        {
            "positions": [
                -0.951364644037478,
                -1.1420693007530884,
                2.0249769869787353,
                -0.2795368819107402,
                0.02792281656655704,
                2.787225695083838
            ]
        },
        {
            "positions": [
                -0.987235734868849,
                -1.13667921715282,
                2.0227713137572785,
                -0.42057653237946324,
                0.13943765266779007,
                2.88024246831344
            ]
        },
        {
            "positions": [
                -1.0231068257002198,
                -1.1312891335525512,
                2.0205656405358217,
                -0.5616161828481863,
                0.2509524887690233,
                2.973259241543042
            ]
        },
        {
            "positions": [
                -1.0589779165315907,
                -1.1258990499522827,
                2.018359967314365,
                -0.7026558333169093,
                0.36246732487025635,
                3.066276014772644
            ]
        },
        {
            "positions": [
                -1.0948490073629618,
                -1.120508966352014,
                2.016154294092908,
                -0.8436954837856321,
                0.47398216097148965,
                3.1592927880022463
            ]
        }
    ]
}