{
    "goal": {
        "global_pose": {
            "orientation": {
                "w": 0.7047431493862688,
                "x": -0.7094548369677653,
                "y": 0.0024358444001904,
                "z": -0.0022348060817251984
            },
            "position": {
                "x": -0.39052492380142206,
                "y": 0.3671506643295288,
                "z": 0.19426114857196808
            }
        },
        "name": "move_to_magneteinheit_D"
    },
    "id": "LBTRRT_move_to_magneteinheit_D_105",
    "joint_names": [
        "shoulder_pan_joint",
        "shoulder_lift_joint",
        "elbow_joint",
        "wrist_1_joint",
        "wrist_2_joint",
        "wrist_3_joint"
    ],
    "metrics": {
        "cart_traj_len": 4.04832335857113,
        "distance_elbow_joint": 4.1090965846931695,
        "distance_shoulder_lift_joint": 1.6556688019320942,
        "distance_shoulder_pan_joint": 2.6650625565354087,
        "distance_wrist_1_joint": 2.1626062013591865,
        "distance_wrist_2_joint": 0.8450250584577437,
        "distance_wrist_3_joint": 3.2265946098707445,
        "smoothness": 0.26435234111100786,
        "time": 5.073714983,
        "traj_len": 3.8293672862299784,
        "weighted_distance": 4.9117078793843945
    },
    "planner": "LBTRRT",
    "start": {
        "state": {
            "elbow_joint": 0.749534889911806,
            "shoulder_lift_joint": -0.6476975780787326,
            "shoulder_pan_joint": -2.711696901376241,
            "wrist_1_joint": -0.07506478083263063,
            "wrist_2_joint": 0.43296659715538205,
            "wrist_3_joint": -3.14703540197715
        }
    },
    "waypoints": [
        {
            "positions": [
                -2.711696901376241,
                -0.6476975780787326,
                0.749534889911806,
                -0.07506478083263063,
                0.43296659715538205,
                -3.14703540197715
            ]
        },
        {
            "positions": [
                -2.7049134219316238,
                -0.6877825950674903,
                0.7866446077565611,
                0.06587787920754345,
                0.3997355864279709,
                -3.0258980058934206
            ]
        },
        {
            "positions": [
                -2.6981299424870064,
                -0.7278676120562481,
                0.8237543256013162,
                0.20682053924771754,
                0.36650457570055983,
                -2.904760609809691
            ]
        },
        {
            "positions": [
                -2.691346463042389,
                -0.7679526290450057,
                0.8608640434460715,
                0.3477631992878916,
                0.3332735649731487,
                -2.7836232137259618
            ]
        },
        {
            "positions": [
                -2.684562983597772,
                -0.8080376460337634,
                0.8979737612908266,
                0.4887058593280657,
                0.30004255424573756,
                -2.6624858176422324
            ]
        },
        {
            "positions": [
                -2.6777795041531545,
                -0.8481226630225212,
                0.9350834791355818,
                0.6296485193682397,
                0.2668115435183265,
                -2.5413484215585025
            ]
        },
        {
            "positions": [
                -2.670996024708537,
                -0.8882076800112788,
                0.972193196980337,
                0.7705911794084139,
                0.23358053279091534,
                -2.420211025474773
            ]
        },
        {
            "positions": [
                -2.66421254526392,
                -0.9282926970000365,
                1.009302914825092,
                0.9115338394485879,
                0.20034952206350426,
                -2.2990736293910436
            ]
        },
        {
            "positions": [
                -2.6574290658193025,
                -0.9683777139887941,
                1.0464126326698473,
                1.052476499488762,
                0.16711851133609312,
                -2.1779362333073142
            ]
        },
        {
            "positions": [
                -2.650645586374685,
                -1.0084627309775518,
                1.0835223505146026,
                1.193419159528936,
                0.13388750060868204,
                -2.056798837223585
            ]
        },
        {
            "positions": [
                -2.643862106930068,
                -1.0485477479663097,
                1.1206320683593576,
                1.3343618195691103,
                0.1006564898812709,
                -1.9356614411398552
            ]
        },
        {
            "positions": [
                -2.6370786274854505,
                -1.0886327649550673,
                1.1577417862041128,
                1.4753044796092842,
                0.06742547915385977,
                -1.814524045056126
            ]
        },
        {
            "positions": [
                -2.630295148040833,
                -1.128717781943825,
                1.1948515040488679,
                1.6162471396494584,
                0.03419446842644863,
                -1.6933866489723963
            ]
        },
        {
            "positions": [
                -2.623511668596216,
                -1.1688027989325827,
                1.2319612218936231,
                1.7571897996896324,
                0.0009634576990375579,
                -1.572249252888667
            ]
        },
        {
            "positions": [
                -2.5030646533687895,
                -1.222528391485281,
                1.1273578158377866,
                1.7450045968386139,
                0.017688042186838008,
                -1.5016794029939269
            ]
        },
        {
            "positions": [
                -2.3826176381413626,
                -1.2762539840379792,
                1.0227544097819503,
                1.7328193939875955,
                0.03441262667463846,
                -1.4311095530991869
            ]
        },
        {
            "positions": [
                -2.2621706229139362,
                -1.3299795765906774,
                0.9181510037261139,
                1.720634191136577,
                0.051137211162438904,
                -1.3605397032044468
            ]
        },
        {
            "positions": [
                -2.14172360768651,
                -1.3837051691433757,
                0.8135475976702775,
                1.7084489882855587,
                0.06786179565023936,
                -1.289969853309707
            ]
        },
        {
            "positions": [
                -2.021276592459083,
                -1.4374307616960742,
                0.708944191614441,
                1.6962637854345402,
                0.08458638013803982,
                -1.219400003414967
            ]
        },
        {
            "positions": [
                -1.9008295772316568,
                -1.4911563542487722,
                0.6043407855586047,
                1.6840785825835216,
                0.10131096462584024,
                -1.148830153520227
            ]
        },
        {
            "positions": [
                -1.7803825620042302,
                -1.5448819468014707,
                0.4997373795027682,
                1.6718933797325033,
                0.11803554911364073,
                -1.078260303625487
            ]
        },
        {
            "positions": [
                -1.6599355467768038,
                -1.598607539354169,
                0.3951339734469319,
                1.6597081768814848,
                0.13476013360144115,
                -1.007690453730747
            ]
        },
        {
            "positions": [
                -1.5394885315493771,
                -1.6523331319068673,
                0.2905305673910954,
                1.6475229740304664,
                0.1514847180892416,
                -0.937120603836007
            ]
        },
        {
            "positions": [
                -1.4190415163219505,
                -1.7060587244595655,
                0.18592716133525888,
                1.635337771179448,
                0.16820930257704206,
                -0.866550753941267
            ]
        },
        {
            "positions": [
                -1.298594501094524,
                -1.7597843170122638,
                0.08132375527942237,
                1.6231525683284294,
                0.1849338870648425,
                -0.795980904046527
            ]
        },
        {
            "positions": [
                -1.1781474858670977,
                -1.813509909564962,
                -0.023279650776413696,
                1.610967365477411,
                0.20165847155264294,
                -0.7254110541517871
            ]
        },
        {
            "positions": [
                -1.057700470639671,
                -1.8672355021176603,
                -0.1278830568322502,
                1.5987821626263925,
                0.2183830560404434,
                -0.6548412042570471
            ]
        },
        {
            "positions": [
                -0.9372534554122445,
                -1.9209610946703588,
                -0.23248646288808672,
                1.586596959775374,
                0.23510764052824387,
                -0.5842713543623071
            ]
        },
        {
            "positions": [
                -0.8168064401848179,
                -1.974686687223057,
                -0.33708986894392323,
                1.5744117569243556,
                0.2518322250160443,
                -0.513701504467567
            ]
        },
        {
            "positions": [
                -0.6963594249573917,
                -2.0284122797757553,
                -0.4416932749997593,
                1.562226554073337,
                0.26855680950384475,
                -0.4431316545728272
            ]
        },
        {
            "positions": [
                -0.5759124097299648,
                -2.0821378723284534,
                -0.5462966810555958,
                1.5500413512223188,
                0.2852813939916452,
                -0.3725618046780872
            ]
        },
        {
            "positions": [
                -0.4554653945025386,
                -2.135863464881152,
                -0.6509000871114322,
                1.5378561483713002,
                0.30200597847944566,
                -0.30199195478334717
            ]
        },
        {
            "positions": [
                -0.39907886395292447,
                -2.1614608404944344,
                -0.8590400482661584,
                1.5215516438083685,
                0.29588222216127413,
                -0.2560607714320439
            ]
        },
        {
            "positions": [
                -0.3426923334033104,
                -2.187058216107717,
                -1.0671800094208848,
                1.505247139245437,
                0.28975846584310266,
                -0.21012958808074067
            ]
        },
        {
            "positions": [
                -0.2863058028536962,
                -2.2126555917209996,
                -1.275319970575611,
                1.4889426346825054,
                0.28363470952493114,
                -0.16419840472943742
            ]
        },
        {
            "positions": [
                -0.22991927230408216,
                -2.238252967334282,
                -1.4834599317303372,
                1.4726381301195737,
                0.2775109532067596,
                -0.11826722137813417
            ]
        },
        {
            "positions": [
                -0.17353274175446803,
                -2.2638503429475647,
                -1.6915998928850637,
                1.456333625556642,
                0.27138719688858814,
                -0.07233603802683092
            ]
        },
        {
            "positions": [
                -0.1171462112048539,
                -2.2894477185608473,
                -1.8997398540397898,
                1.4400291209937104,
                0.2652634405704166,
                -0.02640485467552766
            ]
        },
        {
            "positions": [
                -0.15240214438686395,
                -2.2824883878358575,
                -2.14722444242876,
                1.446624592064211,
                0.22764501041443558,
                0.026577176609032548
            ]
        },
        {
            "positions": [
                -0.18765807756887398,
                -2.2755290571108677,
                -2.3947090308177295,
                1.4532200631347114,
                0.19002658025845454,
                0.07955920789359275
            ]
        }
    ]
}