{
    "goal": {
        "global_pose": {
            "orientation": {
                "w": 0.005598929693374612,
                "x": 0.007748599140229565,
                "y": 0.7110244013736278,
                "z": -0.7031023480610252
            },
            "position": {
                "x": 0.1141497679147869,
                "y": -0.7141253447532654,
                "z": 0.3711530566215515
            }
        },
        "name": "move_to_auspresseinheit_B"
    },
    "id": "LBTRRT_move_to_auspresseinheit_B_66",
    "joint_names": [
        "shoulder_pan_joint",
        "shoulder_lift_joint",
        "elbow_joint",
        "wrist_1_joint",
        "wrist_2_joint",
        "wrist_3_joint"
    ],
    "metrics": {
        "cart_traj_len": 0.5654112440593222,
        "distance_elbow_joint": 0.06509630261871413,
        "distance_shoulder_lift_joint": 0.294824590108558,
        "distance_shoulder_pan_joint": 0.5756018790338207,
        "distance_wrist_1_joint": 0.33602369214607175,
        "distance_wrist_2_joint": 1.0066531567301205,
        "distance_wrist_3_joint": 0.002740171341082842,
        "smoothness": 0.0,
        "time": 5.005631104,
        "traj_len": 1.510278051213871,
        "weighted_distance": 1.9050188932230372
    },
    "planner": "LBTRRT",
    "start": {
        "state": {
            "elbow_joint": 2.0193083361928714,
            "shoulder_lift_joint": -1.1220246554650708,
            "shoulder_pan_joint": -1.0952077554168747,
            "wrist_1_joint": -0.8559753972642168,
            "wrist_2_joint": 0.4759566250798843,
            "wrist_3_joint": -3.1240929996934557
        }
    },
    "waypoints": [
        {
            "positions": [
                -1.0952077554168747,
                -1.1220246554650708,
                2.0193083361928714,
                -0.8559753972642168,
                0.4759566250798843,
                -3.1240929996934557
            ]
        },
        {
            "positions": [
                -1.1911414019225115,
                -1.1711620871498305,
                2.008458952423086,
                -0.7999714485732048,
                0.643732151201571,
                -3.1245496949169693
            ]
        },
        {
            "positions": [
                -1.2870750484281481,
                -1.2202995188345902,
                1.9976095686533,
                -0.7439674998821929,
                0.8115076773232577,
                -3.1250063901404834
            ]
        },
        {
            "positions": [
                -1.383008694933785,
                -1.2694369505193497,
                1.9867601848835144,
                -0.6879635511911809,
                0.9792832034449446,
                -3.125463085363997
            ]
        },
        {
            "positions": [
                -1.4789423414394216,
                -1.3185743822041094,
                1.9759108011137287,
                -0.631959602500169,
                1.1470587295666312,
                -3.1259197805875107
            ]
        },
        {
            "positions": [
                -1.5748759879450587,
                -1.367711813888869,
                1.965061417343943,
                -0.575955653809157,
                1.3148342556883181,
                -3.126376475811025
            ]
        },
        {
            "positions": [
                -1.6708096344506953,
                -1.4168492455736288,
                1.9542120335741573,
                -0.519951705118145,
                1.4826097818100048,
                -3.1268331710345385
            ]
        }
    ]
}