{
    "goal": {
        "global_pose": {
            "orientation": {
                "w": 0.7031023480610252,
                "x": -0.7110244013736278,
                "y": 0.0077485991402295624,
                "z": 0.005598929693374583
            },
            "position": {
                "x": -0.8841497679147869,
                "y": 0.44412534475326537,
                "z": 0.3711530566215515
            }
        },
        "name": "move_to_auspresseinheit_D"
    },
    "id": "LBTRRT_move_to_auspresseinheit_D_121",
    "joint_names": [
        "shoulder_pan_joint",
        "shoulder_lift_joint",
        "elbow_joint",
        "wrist_1_joint",
        "wrist_2_joint",
        "wrist_3_joint"
    ],
    "metrics": {
        "cart_traj_len": 0.34511180611476416,
        "distance_elbow_joint": 0.6653688277852357,
        "distance_shoulder_lift_joint": 0.1356262592382409,
        "distance_shoulder_pan_joint": 0.1338542987532588,
        "distance_wrist_1_joint": 0.6111499219279679,
        "distance_wrist_2_joint": 1.4408744343575177,
        "distance_wrist_3_joint": 0.05517444985411135,
        "smoothness": 1.6776703436854158e-15,
        "time": 5.004256775,
        "traj_len": 1.7441468378311307,
        "weighted_distance": 2.281320110793319
    },
    "planner": "LBTRRT",
    "start": {
        "state": {
            "elbow_joint": -1.8275523626775212,
            "shoulder_lift_joint": -2.126789852344167,
            "shoulder_pan_joint": -0.03513704404078235,
            "wrist_1_joint": -2.347782403156801,
            "wrist_2_joint": -1.6058999987535132,
            "wrist_3_joint": -3.0880379163319196
        }
    },
    "waypoints": [
        {
            "positions": [
                -0.03513704404078235,
                -2.126789852344167,
                -1.8275523626775212,
                -2.347782403156801,
                -1.6058999987535132,
                -3.0880379163319196
            ]
        },
        {
            "positions": [
                -0.051868831384939695,
                -2.143743134748947,
                -1.7443812592043668,
                -2.424176143397797,
                -1.4257906944588234,
                -3.081141110100156
            ]
        },
        {
            "positions": [
                -0.06860061872909705,
                -2.1606964171537273,
                -1.6612101557312122,
                -2.500569883638793,
                -1.2456813901641337,
                -3.074244303868392
            ]
        },
        {
            "positions": [
                -0.0853324060732544,
                -2.1776496995585073,
                -1.5780390522580579,
                -2.576963623879789,
                -1.065572085869444,
                -3.0673474976366277
            ]
        },
        {
            "positions": [
                -0.10206419341741174,
                -2.1946029819632873,
                -1.4948679487849033,
                -2.653357364120785,
                -0.8854627815747543,
                -3.060450691404864
            ]
        },
        {
            "positions": [
                -0.11879598076156911,
                -2.2115562643680673,
                -1.4116968453117489,
                -2.729751104361781,
                -0.7053534772800646,
                -3.0535538851731
            ]
        },
        {
            "positions": [
                -0.13552776810572645,
                -2.2285095467728473,
                -1.3285257418385945,
                -2.806144844602777,
                -0.525244172985375,
                -3.046657078941336
            ]
        },
        {
            "positions": [
                -0.1522595554498838,
                -2.2454628291776277,
                -1.24535463836544,
                -2.882538584843773,
                -0.3451348686906852,
                -3.039760272709572
            ]
        },
        {
            "positions": [
                -0.16899134279404115,
                -2.2624161115824077,
                -1.1621835348922855,
                -2.9589323250847688,
                -0.16502556439599542,
                -3.0328634664778082
            ]
        }
    ]
}