{
    "goal": {
        "global_pose": {
            "orientation": {
                "w": 0.5084816217422485,
                "x": -0.49083608388900757,
                "y": 0.5182115435600281,
                "z": -0.4816462993621826
            },
            "position": {
                "x": 0.5540239810943604,
                "y": 0.030875300988554955,
                "z": 0.16403168439865112
            }
        },
        "name": "move_to_storage_A"
    },
    "id": "LBTRRT_move_to_storage_A_60",
    "joint_names": [
        "shoulder_pan_joint",
        "shoulder_lift_joint",
        "elbow_joint",
        "wrist_1_joint",
        "wrist_2_joint",
        "wrist_3_joint"
    ],
    "metrics": {
        "cart_traj_len": 0.35258557216064884,
        "distance_elbow_joint": 0.4521437501282193,
        "distance_shoulder_lift_joint": 0.23474233511632492,
        "distance_shoulder_pan_joint": 0.4619967586620781,
        "distance_wrist_1_joint": 0.25128952385880676,
        "distance_wrist_2_joint": 1.0942320023858634,
        "distance_wrist_3_joint": 0.1052018072922003,
        "smoothness": 2.2204460668324854e-16,
        "time": 5.004637121,
        "traj_len": 1.6123294258443257,
        "weighted_distance": 2.0385120353514137
    },
    "planner": "LBTRRT",
    "start": {
        "state": {
            "elbow_joint": 1.971548259319323,
            "shoulder_lift_joint": -1.1394851275133948,
            "shoulder_pan_joint": 0.1228115487234821,
            "wrist_1_joint": -0.7804723859257726,
            "wrist_2_joint": 0.12958671773740124,
            "wrist_3_joint": -3.192489227718131
        }
    },
    "waypoints": [
        {
            "positions": [
                0.1228115487234821,
                -1.1394851275133948,
                1.971548259319323,
                -0.7804723859257726,
                0.12958671773740124,
                -3.192489227718131
            ]
        },
        {
            "positions": [
                0.056812011771756654,
                -1.1730197468157268,
                2.036140223623354,
                -0.8163708893341736,
                0.285905575221096,
                -3.1774603981049596
            ]
        },
        {
            "positions": [
                -0.009187525179968792,
                -1.206554366118059,
                2.1007321879273855,
                -0.8522693927425745,
                0.4422244327047907,
                -3.162431568491788
            ]
        },
        {
            "positions": [
                -0.07518706213169424,
                -1.2400889854203911,
                2.165324152231417,
                -0.8881678961509755,
                0.5985432901884855,
                -3.1474027388786165
            ]
        },
        {
            "positions": [
                -0.14118659908341968,
                -1.2736236047227234,
                2.229916116535448,
                -0.9240663995593765,
                0.7548621476721803,
                -3.1323739092654455
            ]
        },
        {
            "positions": [
                -0.20718613603514513,
                -1.3071582240250554,
                2.2945080808394795,
                -0.9599649029677775,
                0.9111810051558751,
                -3.117345079652274
            ]
        },
        {
            "positions": [
                -0.2731856729868706,
                -1.3406928433273877,
                2.359100045143511,
                -0.9958634063761784,
                1.0674998626395698,
                -3.1023162500391024
            ]
        },
        {
            "positions": [
                -0.339185209938596,
                -1.3742274626297197,
                2.4236920094475423,
                -1.0317619097845794,
                1.2238187201232646,
                -3.087287420425931
            ]
        }
    ]
}{
    "goal": {
        "global_pose": {
            "orientation": {
                "w": 0.5084816217422485,
                "x": -0.49083608388900757,
                "y": 0.5182115435600281,
                "z": -0.4816462993621826
            },
            "position": {
                "x": 0.5540239810943604,
                "y": 0.030875300988554955,
                "z": 0.16403168439865112
            }
        },
        "name": "move_to_storage_A"
    },
    "id": "LBTRRT_move_to_storage_A_60",
    "joint_names": [
        "shoulder_pan_joint",
        "shoulder_lift_joint",
        "elbow_joint",
        "wrist_1_joint",
        "wrist_2_joint",
        "wrist_3_joint"
    ],
    "metrics": {
        "cart_traj_len": 0.352955657520148,
        "distance_elbow_joint": 0.45286071622994006,
        "distance_shoulder_lift_joint": 0.23229389609585893,
        "distance_shoulder_pan_joint": 0.4627064278761507,
        "distance_wrist_1_joint": 0.2575901346127789,
        "distance_wrist_2_joint": 1.0928504819858171,
        "distance_wrist_3_joint": 0.09370114119819428,
        "smoothness": 2.220446049250313e-15,
        "time": 5.003655378,
        "traj_len": 1.6099698127600839,
        "weighted_distance": 2.032202179162724
    },
    "planner": "LBTRRT",
    "start": {
        "state": {
            "elbow_joint": 1.97154746011099,
            "shoulder_lift_joint": -1.13948474672311,
            "shoulder_pan_joint": 0.12281154466712228,
            "wrist_1_joint": -0.7804688027058302,
            "wrist_2_joint": 0.12958655903071145,
            "wrist_3_joint": 3.0906928834467795
        }
    },
    "waypoints": [
        {
            "positions": [
                0.12281154466712228,
                -1.13948474672311,
                1.97154746011099,
                -0.7804688027058302,
                0.12958655903071145,
                3.0906928834467795
            ]
        },
        {
            "positions": [
                0.056710626399100766,
                -1.1726695890225183,
                2.0362418481438387,
                -0.8172673933647986,
                0.2857080564572567,
                3.104078760760807
            ]
        },
        {
            "positions": [
                -0.00939029186892075,
                -1.2058544313219268,
                2.100936236176687,
                -0.854065984023767,
                0.4418295538838021,
                3.117464638074835
            ]
        },
        {
            "positions": [
                -0.07549121013694228,
                -1.2390392736213351,
                2.165630624209536,
                -0.8908645746827354,
                0.5979510513103473,
                3.130850515388863
            ]
        },
        {
            "positions": [
                -0.14159212840496377,
                -1.2722241159207437,
                2.230325012242384,
                -0.9276631653417038,
                0.7540725487368927,
                3.1442363927028905
            ]
        },
        {
            "positions": [
                -0.20769304667298533,
                -1.305408958220152,
                2.295019400275233,
                -0.9644617560006723,
                0.910194046163438,
                3.157622270016918
            ]
        },
        {
            "positions": [
                -0.27379396494100683,
                -1.3385938005195603,
                2.359713788308081,
                -1.0012603466596406,
                1.0663155435899832,
                3.171008147330946
            ]
        },
        {
            "positions": [
                -0.3398948832090284,
                -1.3717786428189689,
                2.42440817634093,
                -1.038058937318609,
                1.2224370410165286,
                3.184394024644974
            ]
        }
    ]
}{
    "goal": {
        "global_pose": {
            "orientation": {
                "w": 0.5084816217422485,
                "x": -0.49083608388900757,
                "y": 0.5182115435600281,
                "z": -0.4816462993621826
            },
            "position": {
                "x": 0.5540239810943604,
                "y": 0.030875300988554955,
                "z": 0.16403168439865112
            }
        },
        "name": "move_to_storage_A"
    },
    "id": "LBTRRT_move_to_storage_A_60",
    "joint_names": [
        "shoulder_pan_joint",
        "shoulder_lift_joint",
        "elbow_joint",
        "wrist_1_joint",
        "wrist_2_joint",
        "wrist_3_joint"
    ],
    "metrics": {
        "cart_traj_len": 0.35378265504630657,
        "distance_elbow_joint": 0.4533637312375052,
        "distance_shoulder_lift_joint": 0.23187203671686918,
        "distance_shoulder_pan_joint": 0.4646687628037025,
        "distance_wrist_1_joint": 0.26187232672204974,
        "distance_wrist_2_joint": 1.090276892779052,
        "distance_wrist_3_joint": 0.09230787258676143,
        "smoothness": 1.3322676365830568e-15,
        "time": 5.002892429,
        "traj_len": 1.610702214205326,
        "weighted_distance": 2.032517303129438
    },
    "planner": "LBTRRT",
    "start": {
        "state": {
            "elbow_joint": 1.9715472970024885,
            "shoulder_lift_joint": -1.1394870060712896,
            "shoulder_pan_joint": 0.12281152778156021,
            "wrist_1_joint": -0.780463741449964,
            "wrist_2_joint": 0.12958659822042276,
            "wrist_3_joint": 3.090690232415272
        }
    },
    "waypoints": [
        {
            "positions": [
                0.12281152778156021,
                -1.1394870060712896,
                1.9715472970024885,
                -0.780463741449964,
                0.12958659822042276,
                3.090690232415272
            ]
        },
        {
            "positions": [
                0.05643027595245985,
                -1.172611582745128,
                2.036313544322132,
                -0.8178740738388283,
                0.2853404400460016,
                3.1038770713562376
            ]
        },
        {
            "positions": [
                -0.009950975876640511,
                -1.2057361594189666,
                2.1010797916417756,
                -0.8552844062276925,
                0.4410942818715805,
                3.1170639102972038
            ]
        },
        {
            "positions": [
                -0.07633222770574086,
                -1.238860736092805,
                2.165846038961419,
                -0.8926947386165567,
                0.5968481236971593,
                3.1302507492381695
            ]
        },
        {
            "positions": [
                -0.14271347953484123,
                -1.2719853127666434,
                2.2306122862810627,
                -0.930105071005421,
                0.7526019655227382,
                3.1434375881791357
            ]
        },
        {
            "positions": [
                -0.2090947313639416,
                -1.305109889440482,
                2.2953785336007066,
                -0.9675154033942852,
                0.9083558073483171,
                3.1566244271201014
            ]
        },
        {
            "positions": [
                -0.2754759831930419,
                -1.3382344661143204,
                2.36014478092035,
                -1.0049257357831496,
                1.064109649173896,
                3.1698112660610676
            ]
        },
        {
            "positions": [
                -0.34185723502214227,
                -1.3713590427881588,
                2.4249110282399937,
                -1.0423360681720137,
                1.2198634909994748,
                3.1829981050020333
            ]
        }
    ]
}