{
    "goal": {
        "global_pose": {
            "orientation": {
                "w": 0.5084816217422485,
                "x": -0.49083608388900757,
                "y": 0.5182115435600281,
                "z": -0.4816462993621826
            },
            "position": {
                "x": 0.5540239810943604,
                "y": 0.030875300988554955,
                "z": 0.16403168439865112
            }
        },
        "name": "move_to_storage_A"
    },
    "id": "LBTRRT_move_to_storage_A_143",
    "joint_names": [
        "shoulder_pan_joint",
        "shoulder_lift_joint",
        "elbow_joint",
        "wrist_1_joint",
        "wrist_2_joint",
        "wrist_3_joint"
    ],
    "metrics": {
        "cart_traj_len": 0.3531016939238452,
        "distance_elbow_joint": 0.4532130832864072,
        "distance_shoulder_lift_joint": 0.2339584196268374,
        "distance_shoulder_pan_joint": 0.4594579287594599,
        "distance_wrist_1_joint": 0.2546248846421285,
        "distance_wrist_2_joint": 1.1090294897191806,
        "distance_wrist_3_joint": 0.09662532527593948,
        "smoothness": 9.992007236661072e-16,
        "time": 5.002586194,
        "traj_len": 1.6145925589169403,
        "weighted_distance": 2.040542613184822
    },
    "planner": "LBTRRT",
    "start": {
        "state": {
            "elbow_joint": 1.971548259319323,
            "shoulder_lift_joint": -1.1394851275133948,
            "shoulder_pan_joint": 0.1228115487234821,
            "wrist_1_joint": -0.7804723859257726,
            "wrist_2_joint": 0.12958671773740124,
            "wrist_3_joint": -3.192489227718131
        }
    },
    "waypoints": [
        {
            "positions": [
                0.1228115487234821,
                -1.1394851275133948,
                1.971548259319323,
                -0.7804723859257726,
                0.12958671773740124,
                -3.192489227718131
            ]
        },
        {
            "positions": [
                0.057174701757844976,
                -1.1729077588886574,
                2.0362929855030956,
                -0.8168473694460767,
                0.28801950198299847,
                -3.1786856098215686
            ]
        },
        {
            "positions": [
                -0.008462145207792149,
                -1.2063303902639197,
                2.101037711686868,
                -0.8532223529663807,
                0.4464522862285957,
                -3.1648819919250055
            ]
        },
        {
            "positions": [
                -0.07409899217342927,
                -1.2397530216391823,
                2.1657824378706403,
                -0.8895973364866848,
                0.6048850704741929,
                -3.151078374028443
            ]
        },
        {
            "positions": [
                -0.1397358391390664,
                -1.2731756530144447,
                2.2305271640544126,
                -0.9259723200069889,
                0.7633178547197902,
                -3.13727475613188
            ]
        },
        {
            "positions": [
                -0.20537268610470355,
                -1.3065982843897073,
                2.2952718902381855,
                -0.9623473035272929,
                0.9217506389653874,
                -3.1234711382353173
            ]
        },
        {
            "positions": [
                -0.27100953307034065,
                -1.3400209157649696,
                2.360016616421958,
                -0.998722287047597,
                1.0801834232109846,
                -3.1096675203387543
            ]
        },
        {
            "positions": [
                -0.3366463800359778,
                -1.3734435471402322,
                2.42476134260573,
                -1.0350972705679011,
                1.2386162074565819,
                -3.0958639024421917
            ]
        }
    ]
}{
    "goal": {
        "global_pose": {
            "orientation": {
                "w": 0.5084816217422485,
                "x": -0.49083608388900757,
                "y": 0.5182115435600281,
                "z": -0.4816462993621826
            },
            "position": {
                "x": 0.5540239810943604,
                "y": 0.030875300988554955,
                "z": 0.16403168439865112
            }
        },
        "name": "move_to_storage_A"
    },
    "id": "LBTRRT_move_to_storage_A_143",
    "joint_names": [
        "shoulder_pan_joint",
        "shoulder_lift_joint",
        "elbow_joint",
        "wrist_1_joint",
        "wrist_2_joint",
        "wrist_3_joint"
    ],
    "metrics": {
        "cart_traj_len": 0.3528640589576603,
        "distance_elbow_joint": 0.44726988086760056,
        "distance_shoulder_lift_joint": 0.23642098695836156,
        "distance_shoulder_pan_joint": 0.45925363264988633,
        "distance_wrist_1_joint": 0.23186581046301202,
        "distance_wrist_2_joint": 1.1081443170908898,
        "distance_wrist_3_joint": 0.09647470370282996,
        "smoothness": 4.440892098500626e-16,
        "time": 5.00343719,
        "traj_len": 1.6060601893243542,
        "weighted_distance": 2.027902578205408
    },
    "planner": "LBTRRT",
    "start": {
        "state": {
            "elbow_joint": 1.97154746011099,
            "shoulder_lift_joint": -1.13948474672311,
            "shoulder_pan_joint": 0.12281154466712228,
            "wrist_1_joint": -0.7804688027058302,
            "wrist_2_joint": 0.12958655903071145,
            "wrist_3_joint": 3.0906928834467795
        }
    },
    "waypoints": [
        {
            "positions": [
                0.12281154466712228,
                -1.13948474672311,
                1.97154746011099,
                -0.7804688027058302,
                0.12958655903071145,
                3.0906928834467795
            ]
        },
        {
            "positions": [
                0.05720388285999567,
                -1.1732591734314473,
                2.03544315737779,
                -0.8135924899148319,
                0.28789289004369567,
                3.1044749839757553
            ]
        },
        {
            "positions": [
                -0.008403778947130944,
                -1.2070336001397848,
                2.09933885464459,
                -0.8467161771238336,
                0.44619922105668,
                3.118257084504731
            ]
        },
        {
            "positions": [
                -0.07401144075425757,
                -1.240808026848122,
                2.16323455191139,
                -0.8798398643328353,
                0.6045055520696642,
                3.132039185033707
            ]
        },
        {
            "positions": [
                -0.13961910256138416,
                -1.2745824535564594,
                2.2271302491781904,
                -0.9129635515418371,
                0.7628118830826485,
                3.145821285562682
            ]
        },
        {
            "positions": [
                -0.20522676436851078,
                -1.308356880264797,
                2.2910259464449902,
                -0.9460872387508388,
                0.9211182140956328,
                3.159603386091658
            ]
        },
        {
            "positions": [
                -0.2708344261756374,
                -1.3421313069731342,
                2.3549216437117906,
                -0.9792109259598405,
                1.0794245451086169,
                3.1733854866206337
            ]
        },
        {
            "positions": [
                -0.33644208798276404,
                -1.3759057336814715,
                2.4188173409785905,
                -1.0123346131688422,
                1.2377308761216013,
                3.1871675871496095
            ]
        }
    ]
}{
    "goal": {
        "global_pose": {
            "orientation": {
                "w": 0.5084816217422485,
                "x": -0.49083608388900757,
                "y": 0.5182115435600281,
                "z": -0.4816462993621826
            },
            "position": {
                "x": 0.5540239810943604,
                "y": 0.030875300988554955,
                "z": 0.16403168439865112
            }
        },
        "name": "move_to_storage_A"
    },
    "id": "LBTRRT_move_to_storage_A_143",
    "joint_names": [
        "shoulder_pan_joint",
        "shoulder_lift_joint",
        "elbow_joint",
        "wrist_1_joint",
        "wrist_2_joint",
        "wrist_3_joint"
    ],
    "metrics": {
        "cart_traj_len": 0.35292366298215166,
        "distance_elbow_joint": 0.4507513526268929,
        "distance_shoulder_lift_joint": 0.23160613312093958,
        "distance_shoulder_pan_joint": 0.462319449020782,
        "distance_wrist_1_joint": 0.2524308715701611,
        "distance_wrist_2_joint": 1.0934503283033004,
        "distance_wrist_3_joint": 0.10748131065934485,
        "smoothness": 2.2204460668324854e-16,
        "time": 5.003671083,
        "traj_len": 1.6118434928061165,
        "weighted_distance": 2.0393340252380363
    },
    "planner": "LBTRRT",
    "start": {
        "state": {
            "elbow_joint": 1.9715472970024885,
            "shoulder_lift_joint": -1.1394870060712896,
            "shoulder_pan_joint": 0.12281152778156021,
            "wrist_1_joint": -0.780463741449964,
            "wrist_2_joint": 0.12958659822042276,
            "wrist_3_joint": 3.090690232415272
        }
    },
    "waypoints": [
        {
            "positions": [
                0.12281152778156021,
                -1.1394870060712896,
                1.9715472970024885,
                -0.780463741449964,
                0.12958659822042276,
                3.090690232415272
            ]
        },
        {
            "positions": [
                0.0567658922071628,
                -1.1725735965171382,
                2.035940347377759,
                -0.8165252945314155,
                0.2857937879780371,
                3.1060447053666067
            ]
        },
        {
            "positions": [
                -0.00927974336723461,
                -1.2056601869629866,
                2.100333397753029,
                -0.8525868476128672,
                0.4420009777356514,
                3.121399178317942
            ]
        },
        {
            "positions": [
                -0.07532537894163202,
                -1.2387467774088352,
                2.1647264481282997,
                -0.8886484006943187,
                0.5982081674932658,
                3.136753651269277
            ]
        },
        {
            "positions": [
                -0.14137101451602943,
                -1.2718333678546836,
                2.2291194985035703,
                -0.9247099537757704,
                0.75441535725088,
                3.1521081242206117
            ]
        },
        {
            "positions": [
                -0.2074166500904269,
                -1.3049199583005322,
                2.293512548878841,
                -0.9607715068572219,
                0.9106225470084944,
                3.1674625971719466
            ]
        },
        {
            "positions": [
                -0.2734622856648242,
                -1.3380065487463806,
                2.357905599254111,
                -0.9968330599386734,
                1.0668297367661088,
                3.182817070123282
            ]
        },
        {
            "positions": [
                -0.33950792123922174,
                -1.3710931391922292,
                2.4222986496293815,
                -1.032894613020125,
                1.223036926523723,
                3.1981715430746167
            ]
        }
    ]
}