{
    "goal": {
        "global_pose": {
            "orientation": {
                "w": 0.5084816262002911,
                "x": -0.4908360881923452,
                "y": 0.5182115481033761,
                "z": -0.48164630358495003
            },
            "position": {
                "x": 0.5540239810943604,
                "y": -0.46912469901144505,
                "z": 0.16403168439865112
            }
        },
        "name": "move_to_storage_B"
    },
    "id": "LBTRRT_move_to_storage_B_62",
    "joint_names": [
        "shoulder_pan_joint",
        "shoulder_lift_joint",
        "elbow_joint",
        "wrist_1_joint",
        "wrist_2_joint",
        "wrist_3_joint"
    ],
    "metrics": {
        "cart_traj_len": 1.1854633146471274,
        "distance_elbow_joint": 1.2548851114191755,
        "distance_shoulder_lift_joint": 1.1327621621147341,
        "distance_shoulder_pan_joint": 0.6636822958955696,
        "distance_wrist_1_joint": 3.465120331579354,
        "distance_wrist_2_joint": 2.7202340244931107,
        "distance_wrist_3_joint": 4.094426656278975,
        "smoothness": 0.3161288446312094,
        "time": 5.042113596,
        "traj_len": 3.6511793412239997,
        "weighted_distance": 5.263584163895485
    },
    "planner": "LBTRRT",
    "start": {
        "state": {
            "elbow_joint": 1.664937868594044,
            "shoulder_lift_joint": -0.661644460510453,
            "shoulder_pan_joint": -0.9139846352900073,
            "wrist_1_joint": 2.146753192139373,
            "wrist_2_joint": -2.2341966793290973,
            "wrist_3_joint": 0.005466555786416001
        }
    },
    "waypoints": [
        {
            "positions": [
                -0.9139846352900073,
                -0.661644460510453,
                1.664937868594044,
                2.146753192139373,
                -2.2341966793290973,
                0.005466555786416001
            ]
        },
        {
            "positions": [
                -0.887095678390773,
                -0.7502312934974951,
                1.7544187974615457,
                2.1723632058449436,
                -2.126340218315301,
                0.05957021603139045
            ]
        },
        {
            "positions": [
                -0.8602067214915387,
                -0.8388181264845371,
                1.8438997263290475,
                2.1979732195505135,
                -2.0184837573015044,
                0.1136738762763649
            ]
        },
        {
            "positions": [
                -0.8333177645923043,
                -0.9274049594715792,
                1.9333806551965493,
                2.223583233256084,
                -1.910627296287708,
                0.16777753652133934
            ]
        },
        {
            "positions": [
                -0.80642880769307,
                -1.0159917924586213,
                2.022861584064051,
                2.249193246961654,
                -1.8027708352739116,
                0.2218811967663138
            ]
        },
        {
            "positions": [
                -0.7795398507938356,
                -1.1045786254456635,
                2.112342512931553,
                2.274803260667224,
                -1.6949143742601152,
                0.2759848570112883
            ]
        },
        {
            "positions": [
                -0.7526508938946013,
                -1.1931654584327056,
                2.2018234417990548,
                2.300413274372794,
                -1.5870579132463187,
                0.3300885172562627
            ]
        },
        {
            "positions": [
                -0.725761936995367,
                -1.2817522914197477,
                2.291304370666557,
                2.3260232880783644,
                -1.479201452232522,
                0.3841921775012372
            ]
        },
        {
            "positions": [
                -0.6988729800961326,
                -1.3703391244067897,
                2.3807852995340584,
                2.3516333017839344,
                -1.3713449912187259,
                0.4382958377462116
            ]
        },
        {
            "positions": [
                -0.6719840231968983,
                -1.4589259573938318,
                2.4702662284015604,
                2.3772433154895047,
                -1.2634885302049292,
                0.4923994979911861
            ]
        },
        {
            "positions": [
                -0.6888512905489967,
                -1.4455067307845775,
                2.452283958337094,
                2.2478581071603356,
                -1.1935074951901714,
                0.3480997494282179
            ]
        },
        {
            "positions": [
                -0.7057185579010952,
                -1.4320875041753234,
                2.434301688272628,
                2.118472898831167,
                -1.1235264601754138,
                0.20380000086524974
            ]
        },
        {
            "positions": [
                -0.7225858252531936,
                -1.418668277566069,
                2.4163194182081615,
                1.989087690501998,
                -1.053545425160656,
                0.05950025230228162
            ]
        },
        {
            "positions": [
                -0.739453092605292,
                -1.405249050956815,
                2.398337148143695,
                1.8597024821728292,
                -0.9835643901458982,
                -0.08479949626068661
            ]
        },
        {
            "positions": [
                -0.7563203599573904,
                -1.3918298243475606,
                2.3803548780792285,
                1.73031727384366,
                -0.9135833551311405,
                -0.22909924482365474
            ]
        },
        {
            "positions": [
                -0.7731876273094889,
                -1.3784105977383065,
                2.3623726080147622,
                1.6009320655144914,
                -0.8436023201163827,
                -0.37339899338662286
            ]
        },
        {
            "positions": [
                -0.7900548946615873,
                -1.3649913711290522,
                2.344390337950296,
                1.4715468571853223,
                -0.7736212851016249,
                -0.5176987419495911
            ]
        },
        {
            "positions": [
                -0.8069221620136857,
                -1.3515721445197981,
                2.3264080678858297,
                1.3421616488561536,
                -0.7036402500868673,
                -0.6619984905125593
            ]
        },
        {
            "positions": [
                -0.8237894293657841,
                -1.3381529179105438,
                2.3084257978213634,
                1.2127764405269847,
                -0.6336592150721095,
                -0.8062982390755273
            ]
        },
        {
            "positions": [
                -0.8406566967178826,
                -1.3247336913012897,
                2.2904435277568966,
                1.0833912321978156,
                -0.5636781800573517,
                -0.9505979876384956
            ]
        },
        {
            "positions": [
                -0.857523964069981,
                -1.3113144646920354,
                2.2724612576924303,
                0.954006023868647,
                -0.493697145042594,
                -1.0948977362014638
            ]
        },
        {
            "positions": [
                -0.8743912314220794,
                -1.2978952380827813,
                2.254478987627964,
                0.8246208155394781,
                -0.42371611002783627,
                -1.2391974847644318
            ]
        },
        {
            "positions": [
                -0.8912584987741778,
                -1.284476011473527,
                2.2364967175634978,
                0.695235607210309,
                -0.35373507501307844,
                -1.3834972333274
            ]
        },
        {
            "positions": [
                -0.9081257661262763,
                -1.2710567848642729,
                2.2185144474990315,
                0.5658503988811401,
                -0.2837540399983206,
                -1.5277969818903683
            ]
        },
        {
            "positions": [
                -0.9249930334783747,
                -1.2576375582550186,
                2.200532177434565,
                0.4364651905519714,
                -0.2137730049835631,
                -1.672096730453336
            ]
        },
        {
            "positions": [
                -0.9418603008304731,
                -1.2442183316457645,
                2.1825499073700985,
                0.30707998222280253,
                -0.14379196996880528,
                -1.8163964790163047
            ]
        },
        {
            "positions": [
                -0.9587275681825715,
                -1.2307991050365101,
                2.164567637305632,
                0.17769477389363342,
                -0.07381093495404745,
                -1.960696227579273
            ]
        },
        {
            "positions": [
                -0.97559483553467,
                -1.217379878427256,
                2.146585367241166,
                0.04830956556446475,
                -0.003829899939289838,
                -2.1049959761422405
            ]
        },
        {
            "positions": [
                -0.9924621028867684,
                -1.2039606518180017,
                2.1286030971766996,
                -0.08107564276470436,
                0.06615113507546799,
                -2.2492957247052088
            ]
        },
        {
            "positions": [
                -1.0093293702388668,
                -1.1905414252087474,
                2.1106208271122333,
                -0.21046085109387347,
                0.13613217009022582,
                -2.393595473268177
            ]
        },
        {
            "positions": [
                -1.0261966375909652,
                -1.1771221985994933,
                2.092638557047767,
                -0.33984605942304213,
                0.20611320510498343,
                -2.5378952218311452
            ]
        },
        {
            "positions": [
                -1.0430639049430637,
                -1.1637029719902392,
                2.0746562869833003,
                -0.4692312677522108,
                0.27609424011974126,
                -2.6821949703941135
            ]
        },
        {
            "positions": [
                -1.059931172295162,
                -1.1502837453809849,
                2.056674016918834,
                -0.5986164760813799,
                0.3460752751344991,
                -2.8264947189570817
            ]
        },
        {
            "positions": [
                -1.0767984396472605,
                -1.1368645187717306,
                2.0386917468543677,
                -0.7280016844105486,
                0.4160563101492567,
                -2.97079446752005
            ]
        },
        {
            "positions": [
                -1.093665706999359,
                -1.1234452921624765,
                2.0207094767899014,
                -0.8573868927397177,
                0.48603734516401464,
                -3.115094216083018
            ]
        }
    ]
}