{
    "goal": {
        "global_pose": {
            "orientation": {
                "w": -0.4816463035849501,
                "x": 0.5182115481033762,
                "y": 0.4908360881923453,
                "z": -0.5084816262002911
            },
            "position": {
                "x": -0.8240239810943604,
                "y": 0.19912469901144506,
                "z": 0.16403168439865112
            }
        },
        "name": "move_to_storage_D"
    },
    "id": "LBTRRT_move_to_storage_D_133",
    "joint_names": [
        "shoulder_pan_joint",
        "shoulder_lift_joint",
        "elbow_joint",
        "wrist_1_joint",
        "wrist_2_joint",
        "wrist_3_joint"
    ],
    "metrics": {
        "cart_traj_len": 0.826632849953064,
        "distance_elbow_joint": 0.5590211185020433,
        "distance_shoulder_lift_joint": 0.7902532154646562,
        "distance_shoulder_pan_joint": 0.6719115046636447,
        "distance_wrist_1_joint": 3.8385169640838392,
        "distance_wrist_2_joint": 1.7944249092514837,
        "distance_wrist_3_joint": 3.1535494705138265,
        "smoothness": 0.0989339983080434,
        "time": 5.0384688660000005,
        "traj_len": 3.28750318364553,
        "weighted_distance": 4.769456782154805
    },
    "planner": "LBTRRT",
    "start": {
        "state": {
            "elbow_joint": -2.384821988534728,
            "shoulder_lift_joint": -2.2788054721415256,
            "shoulder_pan_joint": -0.1854694642142757,
            "wrist_1_joint": 1.4845938289331202,
            "wrist_2_joint": 0.17898776772866878,
            "wrist_3_joint": 0.037105688729662994
        }
    },
    "waypoints": [
        {
            "positions": [
                -0.1854694642142757,
                -2.2788054721415256,
                -2.384821988534728,
                1.4845938289331202,
                0.17898776772866878,
                0.037105688729662994
            ]
        },
        {
            "positions": [
                -0.14814546911186927,
                -2.235951154106519,
                -2.3758496675270067,
                1.3611849681353156,
                0.10327190646075833,
                0.13721051219599123
            ]
        },
        {
            "positions": [
                -0.11082147400946285,
                -2.193096836071513,
                -2.366877346519285,
                1.237776107337511,
                0.027556045192847878,
                0.23731533566231947
            ]
        },
        {
            "positions": [
                -0.07349747890705642,
                -2.1502425180365066,
                -2.3579050255115637,
                1.1143672465397068,
                -0.04815981607506256,
                0.33742015912864765
            ]
        },
        {
            "positions": [
                -0.03617348380464999,
                -2.1073882000015,
                -2.3489327045038424,
                0.9909583857419022,
                -0.12387567734297303,
                0.43752498259497596
            ]
        },
        {
            "positions": [
                0.0011505112977564513,
                -2.0645338819664936,
                -2.3399603834961207,
                0.8675495249440978,
                -0.19959153861088344,
                0.5376298060613042
            ]
        },
        {
            "positions": [
                0.03847450640016287,
                -2.0216795639314875,
                -2.3309880624883994,
                0.7441406641462933,
                -0.27530739987879393,
                0.6377346295276324
            ]
        },
        {
            "positions": [
                0.07579850150256931,
                -1.978825245896481,
                -2.3220157414806777,
                0.6207318033484888,
                -0.35102326114670435,
                0.7378394529939606
            ]
        },
        {
            "positions": [
                0.11312249660497573,
                -1.9359709278614745,
                -2.3130434204729564,
                0.4973229425506842,
                -0.42673912241461487,
                0.8379442764602889
            ]
        },
        {
            "positions": [
                0.1504464917073822,
                -1.8931166098264682,
                -2.304071099465235,
                0.37391408175287966,
                -0.5024549836825254,
                0.9380490999266171
            ]
        },
        {
            "positions": [
                0.1877704868097886,
                -1.850262291791462,
                -2.2950987784575134,
                0.2505052209550753,
                -0.5781708449504357,
                1.0381539233929453
            ]
        },
        {
            "positions": [
                0.225094481912195,
                -1.8074079737564555,
                -2.286126457449792,
                0.12709636015727077,
                -0.6538867062183462,
                1.1382587468592735
            ]
        },
        {
            "positions": [
                0.20972109611589063,
                -1.8261641924081957,
                -2.259048481719374,
                -0.018845963096140395,
                -0.7104484965303738,
                1.2589879475877568
            ]
        },
        {
            "positions": [
                0.19434771031958625,
                -1.8449204110599362,
                -2.231970505988956,
                -0.16478828634955156,
                -0.7670102868424014,
                1.37971714831624
            ]
        },
        {
            "positions": [
                0.17897432452328188,
                -1.8636766297116765,
                -2.204892530258538,
                -0.3107306096029628,
                -0.8235720771544288,
                1.5004463490447235
            ]
        },
        {
            "positions": [
                0.1636009387269775,
                -1.882432848363417,
                -2.17781455452812,
                -0.4566729328563739,
                -0.8801338674664564,
                1.6211755497732068
            ]
        },
        {
            "positions": [
                0.14822755293067313,
                -1.9011890670151572,
                -2.1507365787977015,
                -0.6026152561097852,
                -0.936695657778484,
                1.74190475050169
            ]
        },
        {
            "positions": [
                0.13285416713436876,
                -1.9199452856668975,
                -2.1236586030672835,
                -0.7485575793631963,
                -0.9932574480905115,
                1.8626339512301735
            ]
        },
        {
            "positions": [
                0.11748078133806442,
                -1.938701504318638,
                -2.0965806273368655,
                -0.8944999026166074,
                -1.049819238402539,
                1.9833631519586565
            ]
        },
        {
            "positions": [
                0.10210739554176004,
                -1.9574577229703782,
                -2.0695026516064474,
                -1.0404422258700186,
                -1.1063810287145666,
                2.10409235268714
            ]
        },
        {
            "positions": [
                0.08673400974545567,
                -1.9762139416221187,
                -2.0424246758760294,
                -1.18638454912343,
                -1.1629428190265942,
                2.224821553415623
            ]
        },
        {
            "positions": [
                0.0713606239491513,
                -1.994970160273859,
                -2.0153467001456113,
                -1.332326872376841,
                -1.2195046093386217,
                2.3455507541441065
            ]
        },
        {
            "positions": [
                0.055987238152846924,
                -2.0137263789255995,
                -1.988268724415193,
                -1.4782691956302523,
                -1.2760663996506492,
                2.46627995487259
            ]
        },
        {
            "positions": [
                0.04061385235654255,
                -2.0324825975773395,
                -1.961190748684775,
                -1.6242115188836634,
                -1.3326281899626768,
                2.5870091556010735
            ]
        },
        {
            "positions": [
                0.025240466560238206,
                -2.05123881622908,
                -1.934112772954357,
                -1.7701538421370744,
                -1.3891899802747043,
                2.707738356329556
            ]
        },
        {
            "positions": [
                0.009867080763933833,
                -2.0699950348808205,
                -1.907034797223939,
                -1.9160961653904856,
                -1.4457517705867318,
                2.8284675570580395
            ]
        },
        {
            "positions": [
                -0.00550630503237054,
                -2.088751253532561,
                -1.8799568214935207,
                -2.062038488643897,
                -1.5023135608987594,
                2.949196757786523
            ]
        },
        {
            "positions": [
                -0.020879690828674913,
                -2.107507472184301,
                -1.8528788457631027,
                -2.2079808118973077,
                -1.5588753512107871,
                3.0699259585150065
            ]
        },
        {
            "positions": [
                -0.036253076624979313,
                -2.1262636908360415,
                -1.8258008700326847,
                -2.3539231351507195,
                -1.6154371415228146,
                3.1906551592434895
            ]
        }
    ]
}