{
    "goal": {
        "global_pose": {
            "orientation": {
                "w": 0.7031023480610252,
                "x": -0.7110244013736278,
                "y": 0.0077485991402295624,
                "z": 0.005598929693374583
            },
            "position": {
                "x": -0.8841497679147869,
                "y": 0.44412534475326537,
                "z": 0.3711530566215515
            }
        },
        "name": "move_to_auspresseinheit_D"
    },
    "id": "LBTRRT_move_to_auspresseinheit_D_67",
    "joint_names": [
        "shoulder_pan_joint",
        "shoulder_lift_joint",
        "elbow_joint",
        "wrist_1_joint",
        "wrist_2_joint",
        "wrist_3_joint"
    ],
    "metrics": {
        "cart_traj_len": 0.3446694325853066,
        "distance_elbow_joint": 0.6516919641190078,
        "distance_shoulder_lift_joint": 0.1284882239132923,
        "distance_shoulder_pan_joint": 0.13468834682011493,
        "distance_wrist_1_joint": 0.5647851397217094,
        "distance_wrist_2_joint": 1.4435479055649916,
        "distance_wrist_3_joint": 0.016768050042421212,
        "smoothness": 3.9474596431116675e-16,
        "time": 5.003684695,
        "traj_len": 1.7146339639064476,
        "weighted_distance": 2.2320033099332717
    },
    "planner": "LBTRRT",
    "start": {
        "state": {
            "elbow_joint": -1.8275523626775212,
            "shoulder_lift_joint": -2.126789852344167,
            "shoulder_pan_joint": -0.03513704404078235,
            "wrist_1_joint": -2.347782403156801,
            "wrist_2_joint": -1.6058999987535132,
            "wrist_3_joint": -3.0880379163319196
        }
    },
    "waypoints": [
        {
            "positions": [
                -0.03513704404078235,
                -2.126789852344167,
                -1.8275523626775212,
                -2.347782403156801,
                -1.6058999987535132,
                -3.0880379163319196
            ]
        },
        {
            "positions": [
                -0.051973087393296716,
                -2.142850880333328,
                -1.7460908671626452,
                -2.4183805456220147,
                -1.4254565105578894,
                -3.085941910076617
            ]
        },
        {
            "positions": [
                -0.06880913074581108,
                -2.15891190832249,
                -1.6646293716477691,
                -2.4889786880872284,
                -1.2450130223622653,
                -3.0838459038213144
            ]
        },
        {
            "positions": [
                -0.08564517409832545,
                -2.1749729363116517,
                -1.5831678761328933,
                -2.559576830552442,
                -1.0645695341666412,
                -3.0817498975660116
            ]
        },
        {
            "positions": [
                -0.10248121745083982,
                -2.191033964300813,
                -1.5017063806180173,
                -2.6301749730176556,
                -0.8841260459710174,
                -3.079653891310709
            ]
        },
        {
            "positions": [
                -0.1193172608033542,
                -2.2070949922899743,
                -1.4202448851031413,
                -2.7007731154828694,
                -0.7036825577753935,
                -3.0775578850554064
            ]
        },
        {
            "positions": [
                -0.13615330415586854,
                -2.223156020279136,
                -1.3387833895882655,
                -2.7713712579480827,
                -0.5232390695797695,
                -3.0754618788001036
            ]
        },
        {
            "positions": [
                -0.15298934750838292,
                -2.239217048268298,
                -1.2573218940733895,
                -2.8419694004132965,
                -0.34279558138414545,
                -3.073365872544801
            ]
        },
        {
            "positions": [
                -0.1698253908608973,
                -2.255278076257459,
                -1.1758603985585134,
                -2.9125675428785103,
                -0.1623520931885216,
                -3.0712698662894984
            ]
        }
    ]
}