{
    "goal": {
        "global_pose": {
            "orientation": {
                "w": -0.4816463035849501,
                "x": 0.5182115481033762,
                "y": 0.4908360881923453,
                "z": -0.5084816262002911
            },
            "position": {
                "x": -0.8240239810943604,
                "y": -0.300875300988555,
                "z": 0.16403168439865112
            }
        },
        "name": "move_to_storage_C"
    },
    "id": "LBTRRT_move_to_storage_C_42",
    "joint_names": [
        "shoulder_pan_joint",
        "shoulder_lift_joint",
        "elbow_joint",
        "wrist_1_joint",
        "wrist_2_joint",
        "wrist_3_joint"
    ],
    "metrics": {
        "cart_traj_len": 0.57631705576885,
        "distance_elbow_joint": 0.258441721460148,
        "distance_shoulder_lift_joint": 0.18816908848420222,
        "distance_shoulder_pan_joint": 0.49529956208481485,
        "distance_wrist_1_joint": 0.08151221637569628,
        "distance_wrist_2_joint": 1.0606946754287683,
        "distance_wrist_3_joint": 0.0570020413337029,
        "smoothness": 0.0,
        "time": 5.005341694,
        "traj_len": 1.4632564044511587,
        "weighted_distance": 1.8431848197180887
    },
    "planner": "LBTRRT",
    "start": {
        "state": {
            "elbow_joint": 2.010868314990456,
            "shoulder_lift_joint": -1.1634956873337592,
            "shoulder_pan_joint": -2.4736205022346125,
            "wrist_1_joint": -0.8367026794202681,
            "wrist_2_joint": 0.6746043897044499,
            "wrist_3_joint": -3.1496632123970403
        }
    },
    "waypoints": [
        {
            "positions": [
                -2.4736205022346125,
                -1.1634956873337592,
                2.010868314990456,
                -0.8367026794202681,
                0.6746043897044499,
                -3.1496632123970403
            ]
        },
        {
            "positions": [
                -2.5561704292487484,
                -1.132134172586392,
                1.967794694747098,
                -0.8231173100243188,
                0.8513868356092447,
                -3.1401628721747565
            ]
        },
        {
            "positions": [
                -2.6387203562628843,
                -1.1007726578390251,
                1.9247210745037397,
                -0.8095319406283693,
                1.0281692815140393,
                -3.130662531952473
            ]
        },
        {
            "positions": [
                -2.72127028327702,
                -1.0694111430916582,
                1.8816474542603818,
                -0.79594657123242,
                1.204951727418834,
                -3.121162191730189
            ]
        },
        {
            "positions": [
                -2.8038202102911556,
                -1.038049628344291,
                1.838573834017024,
                -0.7823612018364706,
                1.3817341733236286,
                -3.111661851507905
            ]
        },
        {
            "positions": [
                -2.8863701373052915,
                -1.006688113596924,
                1.7955002137736658,
                -0.7687758324405212,
                1.5585166192284237,
                -3.102161511285621
            ]
        },
        {
            "positions": [
                -2.9689200643194273,
                -0.975326598849557,
                1.7524265935303078,
                -0.7551904630445718,
                1.7352990651332183,
                -3.0926611710633374
            ]
        }
    ]
}