{
    "goal": {
        "global_pose": {
            "orientation": {
                "w": 0.005598929693374612,
                "x": 0.007748599140229565,
                "y": 0.7110244013736278,
                "z": -0.7031023480610252
            },
            "position": {
                "x": 0.1141497679147869,
                "y": -0.7141253447532654,
                "z": 0.3711530566215515
            }
        },
        "name": "move_to_auspresseinheit_B"
    },
    "id": "LBTRRT_move_to_auspresseinheit_B_89",
    "joint_names": [
        "shoulder_pan_joint",
        "shoulder_lift_joint",
        "elbow_joint",
        "wrist_1_joint",
        "wrist_2_joint",
        "wrist_3_joint"
    ],
    "metrics": {
        "cart_traj_len": 0.5649876870371419,
        "distance_elbow_joint": 0.06023514961099452,
        "distance_shoulder_lift_joint": 0.29599310693365233,
        "distance_shoulder_pan_joint": 0.5790497389899292,
        "distance_wrist_1_joint": 0.3219328470580415,
        "distance_wrist_2_joint": 0.9878086073240311,
        "distance_wrist_3_joint": 0.010261400074369487,
        "smoothness": 7.612957943425664e-16,
        "time": 5.0028698590000005,
        "traj_len": 1.5017592516748541,
        "weighted_distance": 1.8935535652634252
    },
    "planner": "LBTRRT",
    "start": {
        "state": {
            "elbow_joint": 2.0193083361928714,
            "shoulder_lift_joint": -1.1220246554650708,
            "shoulder_pan_joint": -1.0952077554168747,
            "wrist_1_joint": -0.8559753972642168,
            "wrist_2_joint": 0.4759566250798843,
            "wrist_3_joint": -3.1240929996934557
        }
    },
    "waypoints": [
        {
            "positions": [
                -1.0952077554168747,
                -1.1220246554650708,
                2.0193083361928714,
                -0.8559753972642168,
                0.4759566250798843,
                -3.1240929996934557
            ]
        },
        {
            "positions": [
                -1.1917160452485296,
                -1.1713568399540129,
                2.009269144591039,
                -0.8023199227545432,
                0.6405913929672228,
                -3.1223827663477275
            ]
        },
        {
            "positions": [
                -1.2882243350801843,
                -1.220689024442955,
                1.9992299529892066,
                -0.7486644482448697,
                0.8052261608545612,
                -3.1206725330019993
            ]
        },
        {
            "positions": [
                -1.3847326249118392,
                -1.270021208931897,
                1.9891907613873743,
                -0.6950089737351961,
                0.9698609287418998,
                -3.118962299656271
            ]
        },
        {
            "positions": [
                -1.481240914743494,
                -1.319353393420839,
                1.9791515697855417,
                -0.6413534992255225,
                1.1344956966292383,
                -3.1172520663105425
            ]
        },
        {
            "positions": [
                -1.5777492045751491,
                -1.368685577909781,
                1.9691123781837092,
                -0.5876980247158489,
                1.2991304645165769,
                -3.1155418329648144
            ]
        },
        {
            "positions": [
                -1.6742574944068038,
                -1.4180177623987231,
                1.959073186581877,
                -0.5340425502061753,
                1.4637652324039154,
                -3.113831599619086
            ]
        }
    ]
}