{
    "goal": {
        "global_pose": {
            "orientation": {
                "w": 0.5084816217422485,
                "x": -0.49083608388900757,
                "y": 0.5182115435600281,
                "z": -0.4816462993621826
            },
            "position": {
                "x": 0.5540239810943604,
                "y": 0.030875300988554955,
                "z": 0.16403168439865112
            }
        },
        "name": "move_to_storage_A"
    },
    "id": "LBTRRT_move_to_storage_A_35",
    "joint_names": [
        "shoulder_pan_joint",
        "shoulder_lift_joint",
        "elbow_joint",
        "wrist_1_joint",
        "wrist_2_joint",
        "wrist_3_joint"
    ],
    "metrics": {
        "cart_traj_len": 0.35297564345803745,
        "distance_elbow_joint": 0.4482182024684749,
        "distance_shoulder_lift_joint": 0.23671857170793187,
        "distance_shoulder_pan_joint": 0.45960881442904306,
        "distance_wrist_1_joint": 0.23424963599184456,
        "distance_wrist_2_joint": 1.1078046957193537,
        "distance_wrist_3_joint": 0.09385866697428868,
        "smoothness": 6.661338165333112e-16,
        "time": 5.003379645,
        "traj_len": 1.6063805860663707,
        "weighted_distance": 2.027370280178417
    },
    "planner": "LBTRRT",
    "start": {
        "state": {
            "elbow_joint": 1.971548259319323,
            "shoulder_lift_joint": -1.1394851275133948,
            "shoulder_pan_joint": 0.1228115487234821,
            "wrist_1_joint": -0.7804723859257726,
            "wrist_2_joint": 0.12958671773740124,
            "wrist_3_joint": -3.192489227718131
        }
    },
    "waypoints": [
        {
            "positions": [
                0.1228115487234821,
                -1.1394851275133948,
                1.971548259319323,
                -0.7804723859257726,
                0.12958671773740124,
                -3.192489227718131
            ]
        },
        {
            "positions": [
                0.057153146662190235,
                -1.1733020663288136,
                2.0355794311005337,
                -0.8139366196388933,
                0.2878445314115946,
                -3.179080846721804
            ]
        },
        {
            "positions": [
                -0.00850525539910163,
                -1.2071190051442324,
                2.0996106028817443,
                -0.8474008533520139,
                0.44610234508578794,
                -3.165672465725477
            ]
        },
        {
            "positions": [
                -0.0741636574603935,
                -1.2409359439596512,
                2.1636417746629553,
                -0.8808650870651346,
                0.6043601587599814,
                -3.15226408472915
            ]
        },
        {
            "positions": [
                -0.13982205952168536,
                -1.2747528827750703,
                2.227672946444166,
                -0.9143293207782552,
                0.7626179724341747,
                -3.1388557037328235
            ]
        },
        {
            "positions": [
                -0.20548046158297723,
                -1.308569821590489,
                2.2917041182253763,
                -0.9477935544913758,
                0.9208757861083682,
                -3.1254473227364965
            ]
        },
        {
            "positions": [
                -0.2711388636442691,
                -1.3423867604059079,
                2.3557352900065873,
                -0.9812577882044965,
                1.0791335997825615,
                -3.1120389417401695
            ]
        },
        {
            "positions": [
                -0.33679726570556096,
                -1.3762036992213267,
                2.419766461787798,
                -1.0147220219176172,
                1.237391413456755,
                -3.0986305607438425
            ]
        }
    ]
}{
    "goal": {
        "global_pose": {
            "orientation": {
                "w": 0.5084816217422485,
                "x": -0.49083608388900757,
                "y": 0.5182115435600281,
                "z": -0.4816462993621826
            },
            "position": {
                "x": 0.5540239810943604,
                "y": 0.030875300988554955,
                "z": 0.16403168439865112
            }
        },
        "name": "move_to_storage_A"
    },
    "id": "LBTRRT_move_to_storage_A_35",
    "joint_names": [
        "shoulder_pan_joint",
        "shoulder_lift_joint",
        "elbow_joint",
        "wrist_1_joint",
        "wrist_2_joint",
        "wrist_3_joint"
    ],
    "metrics": {
        "cart_traj_len": 0.3524118707004682,
        "distance_elbow_joint": 0.45223941645187216,
        "distance_shoulder_lift_joint": 0.2343950415809981,
        "distance_shoulder_pan_joint": 0.45910828260400915,
        "distance_wrist_1_joint": 0.2546197571387412,
        "distance_wrist_2_joint": 1.1050070688003082,
        "distance_wrist_3_joint": 0.09670958474798708,
        "smoothness": 0.0,
        "time": 5.004301396,
        "traj_len": 1.6130961382769213,
        "weighted_distance": 2.038412408409775
    },
    "planner": "LBTRRT",
    "start": {
        "state": {
            "elbow_joint": 1.97154746011099,
            "shoulder_lift_joint": -1.13948474672311,
            "shoulder_pan_joint": 0.12281154466712228,
            "wrist_1_joint": -0.7804688027058302,
            "wrist_2_joint": 0.12958655903071145,
            "wrist_3_joint": 3.0906928834467795
        }
    },
    "waypoints": [
        {
            "positions": [
                0.12281154466712228,
                -1.13948474672311,
                1.97154746011099,
                -0.7804688027058302,
                0.12958655903071145,
                3.0906928834467795
            ]
        },
        {
            "positions": [
                0.05722464715226383,
                -1.1729697526632525,
                2.036153091032686,
                -0.8168430537256504,
                0.2874447117164698,
                3.104508538410778
            ]
        },
        {
            "positions": [
                -0.008362250362594623,
                -1.2064547586033951,
                2.100758721954382,
                -0.8532173047454705,
                0.4453028644022281,
                3.1183241933747756
            ]
        },
        {
            "positions": [
                -0.07394914787745306,
                -1.2399397645435377,
                2.165364352876078,
                -0.8895915557652907,
                0.6031610170879864,
                3.132139848338774
            ]
        },
        {
            "positions": [
                -0.13953604539231151,
                -1.2734247704836803,
                2.229969983797774,
                -0.9259658067851109,
                0.7610191697737447,
                3.145955503302772
            ]
        },
        {
            "positions": [
                -0.20512294290716998,
                -1.3069097764238229,
                2.29457561471947,
                -0.962340057804931,
                0.918877322459503,
                3.1597711582667705
            ]
        },
        {
            "positions": [
                -0.2707098404220284,
                -1.3403947823639655,
                2.359181245641166,
                -0.9987143088247512,
                1.0767354751452614,
                3.1735868132307683
            ]
        },
        {
            "positions": [
                -0.33629673793688686,
                -1.373879788304108,
                2.423786876562862,
                -1.0350885598445714,
                1.2345936278310197,
                3.1874024681947666
            ]
        }
    ]
}{
    "goal": {
        "global_pose": {
            "orientation": {
                "w": 0.5084816217422485,
                "x": -0.49083608388900757,
                "y": 0.5182115435600281,
                "z": -0.4816462993621826
            },
            "position": {
                "x": 0.5540239810943604,
                "y": 0.030875300988554955,
                "z": 0.16403168439865112
            }
        },
        "name": "move_to_storage_A"
    },
    "id": "LBTRRT_move_to_storage_A_35",
    "joint_names": [
        "shoulder_pan_joint",
        "shoulder_lift_joint",
        "elbow_joint",
        "wrist_1_joint",
        "wrist_2_joint",
        "wrist_3_joint"
    ],
    "metrics": {
        "cart_traj_len": 0.3526131895507376,
        "distance_elbow_joint": 0.44938096579646647,
        "distance_shoulder_lift_joint": 0.2329329388140069,
        "distance_shoulder_pan_joint": 0.46225244576783,
        "distance_wrist_1_joint": 0.24537450485288814,
        "distance_wrist_2_joint": 1.0918493980691792,
        "distance_wrist_3_joint": 0.09525112989312712,
        "smoothness": 6.661338200497456e-16,
        "time": 5.003316752,
        "traj_len": 1.605316599052504,
        "weighted_distance": 2.0260225926434825
    },
    "planner": "LBTRRT",
    "start": {
        "state": {
            "elbow_joint": 1.9715472970024885,
            "shoulder_lift_joint": -1.1394870060712896,
            "shoulder_pan_joint": 0.12281152778156021,
            "wrist_1_joint": -0.780463741449964,
            "wrist_2_joint": 0.12958659822042276,
            "wrist_3_joint": 3.090690232415272
        }
    },
    "waypoints": [
        {
            "positions": [
                0.12281152778156021,
                -1.1394870060712896,
                1.9715472970024885,
                -0.780463741449964,
                0.12958659822042276,
                3.090690232415272
            ]
        },
        {
            "positions": [
                0.05677546410044164,
                -1.1727631401875762,
                2.035744577830555,
                -0.8155172421432337,
                0.2855650836588769,
                3.1042975366857184
            ]
        },
        {
            "positions": [
                -0.009260599580676931,
                -1.206039274303863,
                2.099941858658622,
                -0.8505707428365035,
                0.44154356909733106,
                3.1179048409561654
            ]
        },
        {
            "positions": [
                -0.07529666326179549,
                -1.2393154084201496,
                2.1641391394866885,
                -0.8856242435297732,
                0.5975220545357852,
                3.131512145226612
            ]
        },
        {
            "positions": [
                -0.14133272694291407,
                -1.2725915425364365,
                2.228336420314755,
                -0.9206777442230429,
                0.7535005399742394,
                3.145119449497059
            ]
        },
        {
            "positions": [
                -0.20736879062403266,
                -1.305867676652723,
                2.2925337011428217,
                -0.9557312449163127,
                0.9094790254126937,
                3.1587267537675054
            ]
        },
        {
            "positions": [
                -0.27340485430515116,
                -1.3391438107690097,
                2.3567309819708884,
                -0.9907847456095824,
                1.0654575108511477,
                3.1723340580379524
            ]
        },
        {
            "positions": [
                -0.33944091798626974,
                -1.3724199448852965,
                2.420928262798955,
                -1.0258382463028521,
                1.221435996289602,
                3.185941362308399
            ]
        }
    ]
}