{
    "goal": {
        "global_pose": {
            "orientation": {
                "w": 0.5084816217422485,
                "x": -0.49083608388900757,
                "y": 0.5182115435600281,
                "z": -0.4816462993621826
            },
            "position": {
                "x": 0.5540239810943604,
                "y": 0.030875300988554955,
                "z": 0.16403168439865112
            }
        },
        "name": "move_to_storage_A"
    },
    "id": "LBTRRT_move_to_storage_A_81",
    "joint_names": [
        "shoulder_pan_joint",
        "shoulder_lift_joint",
        "elbow_joint",
        "wrist_1_joint",
        "wrist_2_joint",
        "wrist_3_joint"
    ],
    "metrics": {
        "cart_traj_len": 0.3525693774050298,
        "distance_elbow_joint": 0.4535763462354472,
        "distance_shoulder_lift_joint": 0.23496870583869245,
        "distance_shoulder_pan_joint": 0.46161119873138184,
        "distance_wrist_1_joint": 0.2610729712947176,
        "distance_wrist_2_joint": 1.095622521587721,
        "distance_wrist_3_joint": 0.1101521232503404,
        "smoothness": 8.881784197001252e-16,
        "time": 5.002168353,
        "traj_len": 1.6177156322847044,
        "weighted_distance": 2.047926660386407
    },
    "planner": "LBTRRT",
    "start": {
        "state": {
            "elbow_joint": 1.971548259319323,
            "shoulder_lift_joint": -1.1394851275133948,
            "shoulder_pan_joint": 0.1228115487234821,
            "wrist_1_joint": -0.7804723859257726,
            "wrist_2_joint": 0.12958671773740124,
            "wrist_3_joint": -3.192489227718131
        }
    },
    "waypoints": [
        {
            "positions": [
                0.1228115487234821,
                -1.1394851275133948,
                1.971548259319323,
                -0.7804723859257726,
                0.12958671773740124,
                -3.192489227718131
            ]
        },
        {
            "positions": [
                0.05686709176185613,
                -1.1730520854903508,
                2.036344880210101,
                -0.8177685246821609,
                0.2861042208213614,
                -3.1767532101109395
            ]
        },
        {
            "positions": [
                -0.009077365199769843,
                -1.206619043467307,
                2.101141501100879,
                -0.855064663438549,
                0.4426217239053215,
                -3.1610171925037482
            ]
        },
        {
            "positions": [
                -0.07502182216139583,
                -1.240186001444263,
                2.1659381219916574,
                -0.8923608021949373,
                0.5991392269892817,
                -3.1452811748965566
            ]
        },
        {
            "positions": [
                -0.1409662791230218,
                -1.2737529594212191,
                2.2307347428824356,
                -0.9296569409513256,
                0.7556567300732419,
                -3.1295451572893653
            ]
        },
        {
            "positions": [
                -0.20691073608464777,
                -1.307319917398175,
                2.2955313637732138,
                -0.9669530797077137,
                0.912174233157202,
                -3.1138091396821737
            ]
        },
        {
            "positions": [
                -0.27285519304627376,
                -1.3408868753751313,
                2.360327984663992,
                -1.004249218464102,
                1.068691736241162,
                -3.0980731220749824
            ]
        },
        {
            "positions": [
                -0.33879965000789974,
                -1.3744538333520873,
                2.42512460555477,
                -1.0415453572204902,
                1.2252092393251224,
                -3.0823371044677907
            ]
        }
    ]
}{
    "goal": {
        "global_pose": {
            "orientation": {
                "w": 0.5084816217422485,
                "x": -0.49083608388900757,
                "y": 0.5182115435600281,
                "z": -0.4816462993621826
            },
            "position": {
                "x": 0.5540239810943604,
                "y": 0.030875300988554955,
                "z": 0.16403168439865112
            }
        },
        "name": "move_to_storage_A"
    },
    "id": "LBTRRT_move_to_storage_A_81",
    "joint_names": [
        "shoulder_pan_joint",
        "shoulder_lift_joint",
        "elbow_joint",
        "wrist_1_joint",
        "wrist_2_joint",
        "wrist_3_joint"
    ],
    "metrics": {
        "cart_traj_len": 0.3522585438659774,
        "distance_elbow_joint": 0.4529226136872686,
        "distance_shoulder_lift_joint": 0.23276700979492504,
        "distance_shoulder_pan_joint": 0.4591191516250818,
        "distance_wrist_1_joint": 0.2600761452651097,
        "distance_wrist_2_joint": 1.103063268893218,
        "distance_wrist_3_joint": 0.09685599890732366,
        "smoothness": 0.0,
        "time": 5.002962835,
        "traj_len": 1.6139405776461928,
        "weighted_distance": 2.0400136274412244
    },
    "planner": "LBTRRT",
    "start": {
        "state": {
            "elbow_joint": 1.97154746011099,
            "shoulder_lift_joint": -1.13948474672311,
            "shoulder_pan_joint": 0.12281154466712228,
            "wrist_1_joint": -0.7804688027058302,
            "wrist_2_joint": 0.12958655903071145,
            "wrist_3_joint": 3.0906928834467795
        }
    },
    "waypoints": [
        {
            "positions": [
                0.12281154466712228,
                -1.13948474672311,
                1.97154746011099,
                -0.7804688027058302,
                0.12958655903071145,
                3.0906928834467795
            ]
        },
        {
            "positions": [
                0.057223094434967745,
                -1.1727371766938135,
                2.0362506906377424,
                -0.817622537743703,
                0.28716702601545685,
                3.104529454719254
            ]
        },
        {
            "positions": [
                -0.008365355797186794,
                -1.205989606664517,
                2.1009539211644954,
                -0.8547762727815758,
                0.44474749300020233,
                3.118366025991729
            ]
        },
        {
            "positions": [
                -0.07395380602934133,
                -1.2392420366352206,
                2.165657151691248,
                -0.8919300078194486,
                0.6023279599849477,
                3.132202597264204
            ]
        },
        {
            "positions": [
                -0.13954225626149586,
                -1.2724944666059241,
                2.2303603822180005,
                -0.9290837428573214,
                0.7599084269696932,
                3.146039168536679
            ]
        },
        {
            "positions": [
                -0.20513070649365045,
                -1.305746896576628,
                2.2950636127447535,
                -0.9662374778951943,
                0.9174888939544387,
                3.1598757398091535
            ]
        },
        {
            "positions": [
                -0.27071915672580493,
                -1.3389993265473314,
                2.359766843271506,
                -1.003391212933067,
                1.075069360939184,
                3.1737123110816285
            ]
        },
        {
            "positions": [
                -0.3363076069579595,
                -1.372251756518035,
                2.4244700737982585,
                -1.0405449479709399,
                1.2326498279239295,
                3.187548882354103
            ]
        }
    ]
}{
    "goal": {
        "global_pose": {
            "orientation": {
                "w": 0.5084816217422485,
                "x": -0.49083608388900757,
                "y": 0.5182115435600281,
                "z": -0.4816462993621826
            },
            "position": {
                "x": 0.5540239810943604,
                "y": 0.030875300988554955,
                "z": 0.16403168439865112
            }
        },
        "name": "move_to_storage_A"
    },
    "id": "LBTRRT_move_to_storage_A_81",
    "joint_names": [
        "shoulder_pan_joint",
        "shoulder_lift_joint",
        "elbow_joint",
        "wrist_1_joint",
        "wrist_2_joint",
        "wrist_3_joint"
    ],
    "metrics": {
        "cart_traj_len": 0.35361089121163575,
        "distance_elbow_joint": 0.45006658462306826,
        "distance_shoulder_lift_joint": 0.2326940659756691,
        "distance_shoulder_pan_joint": 0.4617893612604541,
        "distance_wrist_1_joint": 0.24646701433815643,
        "distance_wrist_2_joint": 1.1015401823994622,
        "distance_wrist_3_joint": 0.09173424812155506,
        "smoothness": 2.2204460668324854e-16,
        "time": 5.002768194,
        "traj_len": 1.607573157501196,
        "weighted_distance": 2.0287353572359046
    },
    "planner": "LBTRRT",
    "start": {
        "state": {
            "elbow_joint": 1.9715472970024885,
            "shoulder_lift_joint": -1.1394870060712896,
            "shoulder_pan_joint": 0.12281152778156021,
            "wrist_1_joint": -0.780463741449964,
            "wrist_2_joint": 0.12958659822042276,
            "wrist_3_joint": 3.090690232415272
        }
    },
    "waypoints": [
        {
            "positions": [
                0.12281152778156021,
                -1.1394870060712896,
                1.9715472970024885,
                -0.780463741449964,
                0.12958659822042276,
                3.090690232415272
            ]
        },
        {
            "positions": [
                0.056841619030066765,
                -1.1727290154963852,
                2.0358425233772124,
                -0.8156733149268435,
                0.28694948142034593,
                3.1037951250040656
            ]
        },
        {
            "positions": [
                -0.00912828972142668,
                -1.2059710249214808,
                2.1001377497519367,
                -0.850882888403723,
                0.44431236462026913,
                3.116900017592859
            ]
        },
        {
            "positions": [
                -0.07509819847292012,
                -1.2392130343465764,
                2.1644329761266605,
                -0.8860924618806024,
                0.6016752478201922,
                3.1300049101816527
            ]
        },
        {
            "positions": [
                -0.14106810722441357,
                -1.272455043771672,
                2.228728202501385,
                -0.9213020353574819,
                0.7590381310201154,
                3.143109802770446
            ]
        },
        {
            "positions": [
                -0.207038015975907,
                -1.3056970531967675,
                2.2930234288761087,
                -0.9565116088343615,
                0.9164010142200386,
                3.15621469535924
            ]
        },
        {
            "positions": [
                -0.27300792472740043,
                -1.3389390626218631,
                2.3573186552508325,
                -0.991721182311241,
                1.0737638974199617,
                3.169319587948033
            ]
        },
        {
            "positions": [
                -0.3389778334788939,
                -1.3721810720469587,
                2.421613881625557,
                -1.0269307557881204,
                1.231126780619885,
                3.182424480536827
            ]
        }
    ]
}