{
    "goal": {
        "global_pose": {
            "orientation": {
                "w": 0.5084816262002911,
                "x": -0.4908360881923452,
                "y": 0.5182115481033761,
                "z": -0.48164630358495003
            },
            "position": {
                "x": 0.5540239810943604,
                "y": -0.46912469901144505,
                "z": 0.16403168439865112
            }
        },
        "name": "move_to_storage_B"
    },
    "id": "LBTRRT_move_to_storage_B_107",
    "joint_names": [
        "shoulder_pan_joint",
        "shoulder_lift_joint",
        "elbow_joint",
        "wrist_1_joint",
        "wrist_2_joint",
        "wrist_3_joint"
    ],
    "metrics": {
        "cart_traj_len": 0.733022769735578,
        "distance_elbow_joint": 0.35931340890972097,
        "distance_shoulder_lift_joint": 0.4618496381745032,
        "distance_shoulder_pan_joint": 0.18217618679933845,
        "distance_wrist_1_joint": 3.018684929896533,
        "distance_wrist_2_joint": 2.7102038532115236,
        "distance_wrist_3_joint": 3.1246948321102446,
        "smoothness": 2.631639782912575e-16,
        "time": 5.075039897,
        "traj_len": 3.1395736731444708,
        "weighted_distance": 4.672815136128372
    },
    "planner": "LBTRRT",
    "start": {
        "state": {
            "elbow_joint": 1.664937868594044,
            "shoulder_lift_joint": -0.661644460510453,
            "shoulder_pan_joint": -0.9139846352900073,
            "wrist_1_joint": 2.146753192139373,
            "wrist_2_joint": -2.2341966793290973,
            "wrist_3_joint": 0.005466555786416001
        }
    },
    "waypoints": [
        {
            "positions": [
                -0.9139846352900073,
                -0.661644460510453,
                1.664937868594044,
                2.146753192139373,
                -2.2341966793290973,
                0.005466555786416001
            ]
        },
        {
            "positions": [
                -0.9370960424386975,
                -0.727894180498061,
                1.6807788788924323,
                2.070516051746925,
                -2.1274702773156244,
                -0.08119698579254533
            ]
        },
        {
            "positions": [
                -0.9602074495873877,
                -0.7941439004856689,
                1.6966198891908206,
                1.9942789113544768,
                -2.0207438753021516,
                -0.16786052737150667
            ]
        },
        {
            "positions": [
                -0.9833188567360779,
                -0.8603936204732768,
                1.712460899489209,
                1.9180417709620285,
                -1.9140174732886786,
                -0.254524068950468
            ]
        },
        {
            "positions": [
                -0.9882250291427417,
                -0.8718327716998716,
                1.7260170028811461,
                1.7967385749307594,
                -1.8101033581942827,
                -0.379076425792788
            ]
        },
        {
            "positions": [
                -0.9931312015494055,
                -0.8832719229264664,
                1.7395731062730835,
                1.6754353788994905,
                -1.7061892430998868,
                -0.503628782635108
            ]
        },
        {
            "positions": [
                -0.9980373739560694,
                -0.8947110741530611,
                1.7531292096650206,
                1.5541321828682213,
                -1.602275128005491,
                -0.628181139477428
            ]
        },
        {
            "positions": [
                -1.0029435463627332,
                -0.9061502253796558,
                1.7666853130569578,
                1.4328289868369524,
                -1.4983610129110951,
                -0.7527334963197481
            ]
        },
        {
            "positions": [
                -1.0078497187693969,
                -0.9175893766062506,
                1.780241416448895,
                1.3115257908056832,
                -1.3944468978166993,
                -0.8772858531620681
            ]
        },
        {
            "positions": [
                -1.0127558911760608,
                -0.9290285278328454,
                1.7937975198408322,
                1.190222594774414,
                -1.2905327827223034,
                -1.001838210004388
            ]
        },
        {
            "positions": [
                -1.0176620635827247,
                -0.9404676790594402,
                1.8073536232327694,
                1.0689193987431451,
                -1.1866186676279076,
                -1.126390566846708
            ]
        },
        {
            "positions": [
                -1.0225682359893884,
                -0.9519068302860348,
                1.8209097266247067,
                0.9476162027118761,
                -1.0827045525335117,
                -1.2509429236890282
            ]
        },
        {
            "positions": [
                -1.0274744083960523,
                -0.9633459815126296,
                1.8344658300166439,
                0.826313006680607,
                -0.9787904374391159,
                -1.3754952805313483
            ]
        },
        {
            "positions": [
                -1.032380580802716,
                -0.9747851327392244,
                1.8480219334085812,
                0.7050098106493379,
                -0.87487632234472,
                -1.5000476373736682
            ]
        },
        {
            "positions": [
                -1.03728675320938,
                -0.9862242839658192,
                1.8615780368005184,
                0.5837066146180689,
                -0.7709622072503242,
                -1.624599994215988
            ]
        },
        {
            "positions": [
                -1.0421929256160438,
                -0.9976634351924138,
                1.8751341401924555,
                0.4624034185867998,
                -0.6670480921559283,
                -1.7491523510583082
            ]
        },
        {
            "positions": [
                -1.0470990980227075,
                -1.0091025864190086,
                1.8886902435843926,
                0.34110022255553085,
                -0.5631339770615325,
                -1.8737047079006282
            ]
        },
        {
            "positions": [
                -1.0520052704293714,
                -1.0205417376456034,
                1.90224634697633,
                0.2197970265242617,
                -0.4592198619671366,
                -1.9982570647429483
            ]
        },
        {
            "positions": [
                -1.056911442836035,
                -1.0319808888721982,
                1.9158024503682671,
                0.09849383049299254,
                -0.35530574687274075,
                -2.122809421585268
            ]
        },
        {
            "positions": [
                -1.061817615242699,
                -1.043420040098793,
                1.9293585537602045,
                -0.022809365538276394,
                -0.2513916317783449,
                -2.247361778427588
            ]
        },
        {
            "positions": [
                -1.0667237876493627,
                -1.0548591913253877,
                1.9429146571521416,
                -0.14411256156954533,
                -0.14747751668394926,
                -2.371914135269908
            ]
        },
        {
            "positions": [
                -1.0716299600560266,
                -1.0662983425519825,
                1.9564707605440788,
                -0.2654157576008145,
                -0.043563401589553186,
                -2.4964664921122286
            ]
        },
        {
            "positions": [
                -1.0765361324626905,
                -1.077737493778577,
                1.970026863936016,
                -0.38671895363208364,
                0.06035071350484267,
                -2.6210188489545483
            ]
        },
        {
            "positions": [
                -1.0814423048693542,
                -1.0891766450051719,
                1.9835829673279533,
                -0.5080221496633528,
                0.16426482859923852,
                -2.7455712057968684
            ]
        },
        {
            "positions": [
                -1.0863484772760181,
                -1.1006157962317666,
                1.9971390707198904,
                -0.6293253456946215,
                0.2681789436936344,
                -2.870123562639188
            ]
        },
        {
            "positions": [
                -1.0912546496826818,
                -1.1120549474583614,
                2.0106951741118277,
                -0.7506285417258907,
                0.37209305878803023,
                -2.9946759194815082
            ]
        },
        {
            "positions": [
                -1.0961608220893457,
                -1.1234940986849562,
                2.024251277503765,
                -0.8719317377571597,
                0.476007173882426,
                -3.1192282763238284
            ]
        }
    ]
}