{
    "goal": {
        "global_pose": {
            "orientation": {
                "w": 0.005598929693374612,
                "x": 0.007748599140229565,
                "y": 0.7110244013736278,
                "z": -0.7031023480610252
            },
            "position": {
                "x": 0.1141497679147869,
                "y": -0.7141253447532654,
                "z": 0.3711530566215515
            }
        },
        "name": "move_to_auspresseinheit_B"
    },
    "id": "LBTRRT_move_to_auspresseinheit_B_23",
    "joint_names": [
        "shoulder_pan_joint",
        "shoulder_lift_joint",
        "elbow_joint",
        "wrist_1_joint",
        "wrist_2_joint",
        "wrist_3_joint"
    ],
    "metrics": {
        "cart_traj_len": 0.5653616643287521,
        "distance_elbow_joint": 0.06649532506501532,
        "distance_shoulder_lift_joint": 0.2939083850420152,
        "distance_shoulder_pan_joint": 0.5764891029435593,
        "distance_wrist_1_joint": 0.3381485243025948,
        "distance_wrist_2_joint": 0.9988241378587446,
        "distance_wrist_3_joint": 0.008451500102861331,
        "smoothness": 3.806478935924272e-16,
        "time": 5.002643012,
        "traj_len": 1.5107339194294906,
        "weighted_distance": 1.9068803417314502
    },
    "planner": "LBTRRT",
    "start": {
        "state": {
            "elbow_joint": 2.0193083361928714,
            "shoulder_lift_joint": -1.1220246554650708,
            "shoulder_pan_joint": -1.0952077554168747,
            "wrist_1_joint": -0.8559753972642168,
            "wrist_2_joint": 0.4759566250798843,
            "wrist_3_joint": -3.1240929996934557
        }
    },
    "waypoints": [
        {
            "positions": [
                -1.0952077554168747,
                -1.1220246554650708,
                2.0193083361928714,
                -0.8559753972642168,
                0.4759566250798843,
                -3.1240929996934557
            ]
        },
        {
            "positions": [
                -1.1912892725741346,
                -1.1710093863054067,
                2.008225782015369,
                -0.799617309880451,
                0.6424273147230084,
                -3.1255015830439326
            ]
        },
        {
            "positions": [
                -1.2873707897313944,
                -1.2199941171457425,
                1.9971432278378662,
                -0.7432592224966852,
                0.8088980043661325,
                -3.1269101663944094
            ]
        },
        {
            "positions": [
                -1.3834523068886542,
                -1.2689788479860784,
                1.9860606736603637,
                -0.6869011351129194,
                0.9753686940092565,
                -3.1283187497448863
            ]
        },
        {
            "positions": [
                -1.4795338240459142,
                -1.3179635788264144,
                1.9749781194828613,
                -0.6305430477291536,
                1.1418393836523806,
                -3.129727333095363
            ]
        },
        {
            "positions": [
                -1.5756153412031741,
                -1.36694830966675,
                1.9638955653053587,
                -0.5741849603453878,
                1.3083100732955049,
                -3.13113591644584
            ]
        },
        {
            "positions": [
                -1.671696858360434,
                -1.415933040507086,
                1.952813011127856,
                -0.517826872961622,
                1.474780762938629,
                -3.132544499796317
            ]
        }
    ]
}