{
    "goal": {
        "global_pose": {
            "orientation": {
                "w": 0.5084816217422485,
                "x": -0.49083608388900757,
                "y": 0.5182115435600281,
                "z": -0.4816462993621826
            },
            "position": {
                "x": 0.5540239810943604,
                "y": 0.030875300988554955,
                "z": 0.16403168439865112
            }
        },
        "name": "move_to_storage_A"
    },
    "id": "LBTRRT_move_to_storage_A_132",
    "joint_names": [
        "shoulder_pan_joint",
        "shoulder_lift_joint",
        "elbow_joint",
        "wrist_1_joint",
        "wrist_2_joint",
        "wrist_3_joint"
    ],
    "metrics": {
        "cart_traj_len": 0.3532521683348321,
        "distance_elbow_joint": 0.45176807840624167,
        "distance_shoulder_lift_joint": 0.23369705981824795,
        "distance_shoulder_pan_joint": 0.4603377437287724,
        "distance_wrist_1_joint": 0.25640564915641406,
        "distance_wrist_2_joint": 1.1053539172239133,
        "distance_wrist_3_joint": 0.1074025194414765,
        "smoothness": 6.661338165333112e-16,
        "time": 5.008186224,
        "traj_len": 1.617085331012271,
        "weighted_distance": 2.0473225376179363
    },
    "planner": "LBTRRT",
    "start": {
        "state": {
            "elbow_joint": 1.971548259319323,
            "shoulder_lift_joint": -1.1394851275133948,
            "shoulder_pan_joint": 0.1228115487234821,
            "wrist_1_joint": -0.7804723859257726,
            "wrist_2_joint": 0.12958671773740124,
            "wrist_3_joint": -3.192489227718131
        }
    },
    "waypoints": [
        {
            "positions": [
                0.1228115487234821,
                -1.1394851275133948,
                1.971548259319323,
                -0.7804723859257726,
                0.12958671773740124,
                -3.192489227718131
            ]
        },
        {
            "positions": [
                0.05704901390508604,
                -1.1728704217731445,
                2.0360865562345003,
                -0.8171017643766889,
                0.2874944201979603,
                -3.177146010655063
            ]
        },
        {
            "positions": [
                -0.008713520913310013,
                -1.2062557160328942,
                2.100624853149678,
                -0.8537311428276052,
                0.4454021226585193,
                -3.161802793591995
            ]
        },
        {
            "positions": [
                -0.07447605573170607,
                -1.2396410102926438,
                2.165163150064855,
                -0.8903605212785215,
                0.6033098251190784,
                -3.146459576528927
            ]
        },
        {
            "positions": [
                -0.14023859055010213,
                -1.2730263045523937,
                2.2297014469800325,
                -0.9269898997294378,
                0.7612175275796375,
                -3.131116359465859
            ]
        },
        {
            "positions": [
                -0.20600112536849818,
                -1.3064115988121434,
                2.29423974389521,
                -0.9636192781803541,
                0.9191252300401965,
                -3.115773142402791
            ]
        },
        {
            "positions": [
                -0.27176366018689424,
                -1.339796893071893,
                2.358778040810387,
                -1.0002486566312703,
                1.0770329325007555,
                -3.1004299253397227
            ]
        },
        {
            "positions": [
                -0.3375261950052903,
                -1.3731821873316428,
                2.4233163377255647,
                -1.0368780350821867,
                1.2349406349613146,
                -3.0850867082766547
            ]
        }
    ]
}{
    "goal": {
        "global_pose": {
            "orientation": {
                "w": 0.5084816217422485,
                "x": -0.49083608388900757,
                "y": 0.5182115435600281,
                "z": -0.4816462993621826
            },
            "position": {
                "x": 0.5540239810943604,
                "y": 0.030875300988554955,
                "z": 0.16403168439865112
            }
        },
        "name": "move_to_storage_A"
    },
    "id": "LBTRRT_move_to_storage_A_132",
    "joint_names": [
        "shoulder_pan_joint",
        "shoulder_lift_joint",
        "elbow_joint",
        "wrist_1_joint",
        "wrist_2_joint",
        "wrist_3_joint"
    ],
    "metrics": {
        "cart_traj_len": 0.3537510987866927,
        "distance_elbow_joint": 0.44869984996987977,
        "distance_shoulder_lift_joint": 0.2332899267742108,
        "distance_shoulder_pan_joint": 0.463810532279331,
        "distance_wrist_1_joint": 0.23814777847644875,
        "distance_wrist_2_joint": 1.0941773900690508,
        "distance_wrist_3_joint": 0.10450737900741602,
        "smoothness": 1.1102230298998083e-15,
        "time": 5.004747793,
        "traj_len": 1.6070572038904953,
        "weighted_distance": 2.0307567021031026
    },
    "planner": "LBTRRT",
    "start": {
        "state": {
            "elbow_joint": 1.97154746011099,
            "shoulder_lift_joint": -1.13948474672311,
            "shoulder_pan_joint": 0.12281154466712228,
            "wrist_1_joint": -0.7804688027058302,
            "wrist_2_joint": 0.12958655903071145,
            "wrist_3_joint": 3.0906928834467795
        }
    },
    "waypoints": [
        {
            "positions": [
                0.12281154466712228,
                -1.13948474672311,
                1.97154746011099,
                -0.7804688027058302,
                0.12958655903071145,
                3.0906928834467795
            ]
        },
        {
            "positions": [
                0.056552897198646424,
                -1.1728118791194257,
                2.0356474386781156,
                -0.8144899139167514,
                0.28589761475486153,
                3.1056225090192675
            ]
        },
        {
            "positions": [
                -0.009705750269829436,
                -1.2061390115157415,
                2.0997474172452413,
                -0.8485110251276726,
                0.4422086704790117,
                3.1205521345917555
            ]
        },
        {
            "positions": [
                -0.07596439773830528,
                -1.2394661439120573,
                2.163847395812367,
                -0.882532136338594,
                0.5985197262031617,
                3.1354817601642435
            ]
        },
        {
            "positions": [
                -0.14222304520678114,
                -1.2727932763083731,
                2.2279473743794926,
                -0.9165532475495152,
                0.7548307819273119,
                3.1504113857367315
            ]
        },
        {
            "positions": [
                -0.208481692675257,
                -1.3061204087046892,
                2.2920473529466183,
                -0.9505743587604365,
                0.9111418376514621,
                3.1653410113092195
            ]
        },
        {
            "positions": [
                -0.27474034014373283,
                -1.339447541101005,
                2.356147331513744,
                -0.9845954699713577,
                1.067452893375612,
                3.1802706368817075
            ]
        },
        {
            "positions": [
                -0.3409989876122087,
                -1.3727746734973207,
                2.4202473100808697,
                -1.018616581182279,
                1.2237639490997623,
                3.1952002624541955
            ]
        }
    ]
}{
    "goal": {
        "global_pose": {
            "orientation": {
                "w": 0.5084816217422485,
                "x": -0.49083608388900757,
                "y": 0.5182115435600281,
                "z": -0.4816462993621826
            },
            "position": {
                "x": 0.5540239810943604,
                "y": 0.030875300988554955,
                "z": 0.16403168439865112
            }
        },
        "name": "move_to_storage_A"
    },
    "id": "LBTRRT_move_to_storage_A_132",
    "joint_names": [
        "shoulder_pan_joint",
        "shoulder_lift_joint",
        "elbow_joint",
        "wrist_1_joint",
        "wrist_2_joint",
        "wrist_3_joint"
    ],
    "metrics": {
        "cart_traj_len": 0.3535438234733389,
        "distance_elbow_joint": 0.4545410546238591,
        "distance_shoulder_lift_joint": 0.23484377915138,
        "distance_shoulder_pan_joint": 0.4625485403248326,
        "distance_wrist_1_joint": 0.2587582839350213,
        "distance_wrist_2_joint": 1.0996118833392008,
        "distance_wrist_3_joint": 0.09905054660468293,
        "smoothness": 0.0,
        "time": 5.002888358,
        "traj_len": 1.6153495250189591,
        "weighted_distance": 2.0410353618843953
    },
    "planner": "LBTRRT",
    "start": {
        "state": {
            "elbow_joint": 1.9715472970024885,
            "shoulder_lift_joint": -1.1394870060712896,
            "shoulder_pan_joint": 0.12281152778156021,
            "wrist_1_joint": -0.780463741449964,
            "wrist_2_joint": 0.12958659822042276,
            "wrist_3_joint": 3.090690232415272
        }
    },
    "waypoints": [
        {
            "positions": [
                0.12281152778156021,
                -1.1394870060712896,
                1.9715472970024885,
                -0.780463741449964,
                0.12958659822042276,
                3.090690232415272
            ]
        },
        {
            "positions": [
                0.05673316487801269,
                -1.1730361173786297,
                2.0364817333773257,
                -0.8174292105835385,
                0.2866740101260229,
                3.1048403105016553
            ]
        },
        {
            "positions": [
                -0.009345198025534823,
                -1.2065852286859695,
                2.1014161697521625,
                -0.8543946797171129,
                0.44376142203162294,
                3.1189903885880383
            ]
        },
        {
            "positions": [
                -0.07542356092908234,
                -1.2401343399933096,
                2.1663506061269997,
                -0.8913601488506874,
                0.6008488339372231,
                3.133140466674422
            ]
        },
        {
            "positions": [
                -0.14150192383262986,
                -1.2736834513006496,
                2.2312850425018365,
                -0.9283256179842618,
                0.7579362458428232,
                3.147290544760805
            ]
        },
        {
            "positions": [
                -0.20758028673617737,
                -1.3072325626079897,
                2.2962194788766737,
                -0.9652910871178364,
                0.9150236577484233,
                3.1614406228471883
            ]
        },
        {
            "positions": [
                -0.27365864963972486,
                -1.3407816739153295,
                2.3611539152515104,
                -1.0022565562514107,
                1.0721110696540235,
                3.1755907009335713
            ]
        },
        {
            "positions": [
                -0.3397370125432724,
                -1.3743307852226696,
                2.4260883516263476,
                -1.0392220253849853,
                1.2291984815596235,
                3.189740779019955
            ]
        }
    ]
}