{
    "goal": {
        "global_pose": {
            "orientation": {
                "w": -0.4816463035849501,
                "x": 0.5182115481033762,
                "y": 0.4908360881923453,
                "z": -0.5084816262002911
            },
            "position": {
                "x": -0.8240239810943604,
                "y": 0.19912469901144506,
                "z": 0.16403168439865112
            }
        },
        "name": "move_to_storage_D"
    },
    "id": "LBTRRT_move_to_storage_D_61",
    "joint_names": [
        "shoulder_pan_joint",
        "shoulder_lift_joint",
        "elbow_joint",
        "wrist_1_joint",
        "wrist_2_joint",
        "wrist_3_joint"
    ],
    "metrics": {
        "cart_traj_len": 0.5559179675082488,
        "distance_elbow_joint": 0.6400670043615386,
        "distance_shoulder_lift_joint": 0.15343258474004662,
        "distance_shoulder_pan_joint": 0.5726109787500464,
        "distance_wrist_1_joint": 3.8432712241277027,
        "distance_wrist_2_joint": 1.7862653765650072,
        "distance_wrist_3_joint": 3.1614595094903026,
        "smoothness": 0.09227625428039753,
        "time": 5.028619933,
        "traj_len": 3.187021599869484,
        "weighted_distance": 4.702080634964478
    },
    "planner": "LBTRRT",
    "start": {
        "state": {
            "elbow_joint": -2.384821988534728,
            "shoulder_lift_joint": -2.2788054721415256,
            "shoulder_pan_joint": -0.1854694642142757,
            "wrist_1_joint": 1.4845938289331202,
            "wrist_2_joint": 0.17898776772866878,
            "wrist_3_joint": 0.037105688729662994
        }
    },
    "waypoints": [
        {
            "positions": [
                -0.1854694642142757,
                -2.2788054721415256,
                -2.384821988534728,
                1.4845938289331202,
                0.17898776772866878,
                0.037105688729662994
            ]
        },
        {
            "positions": [
                -0.004615278673779116,
                -2.2779222681155904,
                -2.4052029542482716,
                1.4009496546668374,
                0.1658868693618122,
                0.10559021708576825
            ]
        },
        {
            "positions": [
                0.1762389068667175,
                -2.2770390640896547,
                -2.4255839199618157,
                1.3173054804005544,
                0.15278597099495564,
                0.1740747454418735
            ]
        },
        {
            "positions": [
                0.16745129821384028,
                -2.270719640060981,
                -2.4006128752562135,
                1.164139527250757,
                0.07944998850198506,
                0.300095180974294
            ]
        },
        {
            "positions": [
                0.15866368956096305,
                -2.264400216032307,
                -2.3756418305506113,
                1.0109735741009598,
                0.006114006009014489,
                0.4261156165067145
            ]
        },
        {
            "positions": [
                0.14987608090808582,
                -2.258080792003633,
                -2.350670785845009,
                0.8578076209511624,
                -0.06722197648395611,
                0.552136052039135
            ]
        },
        {
            "positions": [
                0.1410884722552086,
                -2.2517613679749586,
                -2.3256997411394074,
                0.7046416678013651,
                -0.14055795897692666,
                0.6781564875715554
            ]
        },
        {
            "positions": [
                0.13230086360233134,
                -2.2454419439462847,
                -2.300728696433805,
                0.5514757146515676,
                -0.2138939414698973,
                0.804176923103976
            ]
        },
        {
            "positions": [
                0.12351325494945413,
                -2.239122519917611,
                -2.275757651728203,
                0.39830976150177033,
                -0.28722992396286784,
                0.9301973586363965
            ]
        },
        {
            "positions": [
                0.11472564629657689,
                -2.232803095888937,
                -2.250786607022601,
                0.24514380835197302,
                -0.3605659064558385,
                1.0562177941688171
            ]
        },
        {
            "positions": [
                0.10593803764369968,
                -2.226483671860263,
                -2.2258155623169986,
                0.09197785520217572,
                -0.433901888948809,
                1.1822382297012375
            ]
        },
        {
            "positions": [
                0.09715042899082243,
                -2.2201642478315886,
                -2.2008445176113964,
                -0.06118809794762181,
                -0.5072378714417797,
                1.3082586652336579
            ]
        },
        {
            "positions": [
                0.08836282033794521,
                -2.2138448238029147,
                -2.1758734729057942,
                -0.21435405109741912,
                -0.5805738539347503,
                1.4342791007660787
            ]
        },
        {
            "positions": [
                0.07957521168506798,
                -2.207525399774241,
                -2.1509024282001925,
                -0.3675200042472164,
                -0.6539098364277208,
                1.560299536298499
            ]
        },
        {
            "positions": [
                0.07078760303219075,
                -2.201205975745567,
                -2.1259313834945903,
                -0.5206859573970137,
                -0.7272458189206914,
                1.6863199718309194
            ]
        },
        {
            "positions": [
                0.06199999437931353,
                -2.194886551716893,
                -2.100960338788988,
                -0.673851910546811,
                -0.8005818014136619,
                1.8123404073633398
            ]
        },
        {
            "positions": [
                0.05321238572643629,
                -2.188567127688219,
                -2.075989294083386,
                -0.8270178636966083,
                -0.8739177839066327,
                1.9383608428957606
            ]
        },
        {
            "positions": [
                0.044424777073559074,
                -2.182247703659545,
                -2.0510182493777838,
                -0.9801838168464057,
                -0.9472537663996031,
                2.064381278428181
            ]
        },
        {
            "positions": [
                0.03563716842068185,
                -2.1759282796308708,
                -2.0260472046721816,
                -1.133349769996203,
                -1.0205897488925735,
                2.1904017139606013
            ]
        },
        {
            "positions": [
                0.026849559767804593,
                -2.169608855602197,
                -2.0010761599665794,
                -1.2865157231460007,
                -1.0939257313855444,
                2.316422149493022
            ]
        },
        {
            "positions": [
                0.018061951114927366,
                -2.163289431573523,
                -1.9761051152609774,
                -1.439681676295798,
                -1.1672617138785149,
                2.4424425850254425
            ]
        },
        {
            "positions": [
                0.009274342462050167,
                -2.156970007544849,
                -1.9511340705553755,
                -1.5928476294455949,
                -1.2405976963714853,
                2.568463020557863
            ]
        },
        {
            "positions": [
                0.0004867338091729123,
                -2.150650583516175,
                -1.9261630258497733,
                -1.7460135825953926,
                -1.313933678864456,
                2.6944834560902837
            ]
        },
        {
            "positions": [
                -0.008300874843704314,
                -2.1443311594875007,
                -1.901191981144171,
                -1.89917953574519,
                -1.3872696613574265,
                2.820503891622704
            ]
        },
        {
            "positions": [
                -0.01708848349658154,
                -2.138011735458827,
                -1.876220936438569,
                -2.0523454888949875,
                -1.4606056438503972,
                2.9465243271551245
            ]
        },
        {
            "positions": [
                -0.025876092149458768,
                -2.131692311430153,
                -1.8512498917329667,
                -2.2055114420447843,
                -1.5339416263433678,
                3.0725447626875453
            ]
        },
        {
            "positions": [
                -0.03466370080233599,
                -2.125372887401479,
                -1.8262788470273648,
                -2.358677395194582,
                -1.6072776088363383,
                3.1985651982199657
            ]
        }
    ]
}