{
    "goal": {
        "global_pose": {
            "orientation": {
                "w": 0.7047431493862688,
                "x": -0.7094548369677653,
                "y": 0.0024358444001904,
                "z": -0.0022348060817251984
            },
            "position": {
                "x": -0.39052492380142206,
                "y": 0.3671506643295288,
                "z": 0.19426114857196808
            }
        },
        "name": "move_to_magneteinheit_D"
    },
    "id": "LBTRRT_move_to_magneteinheit_D_36",
    "joint_names": [
        "shoulder_pan_joint",
        "shoulder_lift_joint",
        "elbow_joint",
        "wrist_1_joint",
        "wrist_2_joint",
        "wrist_3_joint"
    ],
    "metrics": {
        "cart_traj_len": 4.672041648007168,
        "distance_elbow_joint": 3.2820380918333893,
        "distance_shoulder_lift_joint": 1.6447364085836067,
        "distance_shoulder_pan_joint": 3.210066854116559,
        "distance_wrist_1_joint": 2.455281674589684,
        "distance_wrist_2_joint": 0.521566022573078,
        "distance_wrist_3_joint": 3.234048678939828,
        "smoothness": 0.3774023346176955,
        "time": 5.046990163,
        "traj_len": 3.787840774192619,
        "weighted_distance": 4.877774368057481
    },
    "planner": "LBTRRT",
    "start": {
        "state": {
            "elbow_joint": 0.749534889911806,
            "shoulder_lift_joint": -0.6476975780787326,
            "shoulder_pan_joint": -2.711696901376241,
            "wrist_1_joint": -0.07506478083263063,
            "wrist_2_joint": 0.43296659715538205,
            "wrist_3_joint": -3.14703540197715
        }
    },
    "waypoints": [
        {
            "positions": [
                -2.711696901376241,
                -0.6476975780787326,
                0.749534889911806,
                -0.07506478083263063,
                0.43296659715538205,
                -3.14703540197715
            ]
        },
        {
            "positions": [
                -2.7401974378460463,
                -0.6852253075785749,
                0.7663876932878271,
                -0.16429433866106968,
                0.33642462774760684,
                -3.0834749032393134
            ]
        },
        {
            "positions": [
                -2.7686979743158515,
                -0.7227530370784172,
                0.7832404966638481,
                -0.25352389648950874,
                0.23988265833983166,
                -3.019914404501477
            ]
        },
        {
            "positions": [
                -2.7971985107856567,
                -0.7602807665782595,
                0.8000933000398691,
                -0.3427534543179478,
                0.14334068893205648,
                -2.956353905763641
            ]
        },
        {
            "positions": [
                -2.825699047255462,
                -0.7978084960781018,
                0.8169461034158902,
                -0.43198301214638685,
                0.046798719524281295,
                -2.8927934070258043
            ]
        },
        {
            "positions": [
                -2.6953121490950167,
                -0.8598354619592191,
                0.7210764728508436,
                -0.373017390893192,
                0.04798467384894517,
                -2.8610233081681837
            ]
        },
        {
            "positions": [
                -2.564925250934571,
                -0.9218624278403365,
                0.625206842285797,
                -0.31405176963999726,
                0.04917062817360905,
                -2.829253209310563
            ]
        },
        {
            "positions": [
                -2.434538352774126,
                -0.9838893937214539,
                0.5293372117207504,
                -0.25508614838680244,
                0.05035658249827293,
                -2.797483110452942
            ]
        },
        {
            "positions": [
                -2.3041514546136805,
                -1.0459163596025711,
                0.4334675811557037,
                -0.19612052713360764,
                0.05154253682293681,
                -2.7657130115953215
            ]
        },
        {
            "positions": [
                -2.173764556453235,
                -1.1079433254836886,
                0.3375979505906571,
                -0.13715490588041285,
                0.052728491147600684,
                -2.733942912737701
            ]
        },
        {
            "positions": [
                -2.0433776582927896,
                -1.1699702913648058,
                0.2417283200256105,
                -0.07818928462721808,
                0.05391444547226456,
                -2.7021728138800802
            ]
        },
        {
            "positions": [
                -1.9129907601323444,
                -1.2319972572459232,
                0.1458586894605639,
                -0.01922366337402326,
                0.05510039979692844,
                -2.6704027150224596
            ]
        },
        {
            "positions": [
                -1.782603861971899,
                -1.2940242231270407,
                0.04998905889551719,
                0.03974195787917156,
                0.056286354121592316,
                -2.6386326161648386
            ]
        },
        {
            "positions": [
                -1.6522169638114534,
                -1.356051189008158,
                -0.04588057166952941,
                0.09870757913236644,
                0.0574723084462562,
                -2.606862517307218
            ]
        },
        {
            "positions": [
                -1.5218300656510082,
                -1.4180781548892754,
                -0.14175020223457602,
                0.15767320038556115,
                0.058658262770920074,
                -2.5750924184495974
            ]
        },
        {
            "positions": [
                -1.3914431674905627,
                -1.4801051207703928,
                -0.23761983279962262,
                0.21663882163875597,
                0.05984421709558395,
                -2.5433223195919767
            ]
        },
        {
            "positions": [
                -1.2610562693301175,
                -1.54213208665151,
                -0.3334894633646692,
                0.2756044428919507,
                0.06103017142024783,
                -2.511552220734356
            ]
        },
        {
            "positions": [
                -1.1306693711696718,
                -1.6041590525326275,
                -0.42935909392971583,
                0.3345700641451456,
                0.06221612574491171,
                -2.4797821218767355
            ]
        },
        {
            "positions": [
                -1.0002824730092266,
                -1.6661860184137447,
                -0.5252287244947624,
                0.39353568539834033,
                0.06340208006957558,
                -2.448012023019115
            ]
        },
        {
            "positions": [
                -0.8698955748487813,
                -1.7282129842948621,
                -0.621098355059809,
                0.45250130665153515,
                0.06458803439423946,
                -2.416241924161494
            ]
        },
        {
            "positions": [
                -0.7395086766883359,
                -1.7902399501759794,
                -0.7169679856248559,
                0.5114669279047299,
                0.06577398871890335,
                -2.3844718253038732
            ]
        },
        {
            "positions": [
                -0.6091217785278906,
                -1.8522669160570968,
                -0.8128376161899022,
                0.5704325491579247,
                0.06695994304356723,
                -2.3527017264462526
            ]
        },
        {
            "positions": [
                -0.47873488036744494,
                -1.9142938819382143,
                -0.9087072467549491,
                0.6293981704111198,
                0.0681458973682311,
                -2.320931627588632
            ]
        },
        {
            "positions": [
                -0.3483479822069997,
                -1.9763208478193315,
                -1.0045768773199957,
                0.6883637916643144,
                0.06933185169289498,
                -2.289161528731011
            ]
        },
        {
            "positions": [
                -0.21796108404655445,
                -2.038347813700449,
                -1.1004465078850423,
                0.7473294129175092,
                0.07051780601755886,
                -2.2573914298733904
            ]
        },
        {
            "positions": [
                -0.08757418588610877,
                -2.1003747795815664,
                -1.196316138450089,
                0.806295034170704,
                0.07170376034222273,
                -2.2256213310157698
            ]
        },
        {
            "positions": [
                0.04281271227433658,
                -2.1624017454626836,
                -1.2921857690151357,
                0.8652606554238987,
                0.07288971466688661,
                -2.193851232158149
            ]
        },
        {
            "positions": [
                0.03196417287528525,
                -2.1747282452319996,
                -1.4007430059224428,
                0.9351694198491485,
                0.0775686281442377,
                -2.016627187836227
            ]
        },
        {
            "positions": [
                0.02111563347623393,
                -2.187054745001316,
                -1.50930024282975,
                1.0050781842743983,
                0.08224754162158879,
                -1.8394031435143052
            ]
        },
        {
            "positions": [
                0.010267094077182605,
                -2.199381244770632,
                -1.617857479737057,
                1.0749869486996482,
                0.08692645509893988,
                -1.662179099192383
            ]
        },
        {
            "positions": [
                -0.0005814453218687191,
                -2.211707744539948,
                -1.7264147166443644,
                1.1448957131248978,
                0.09160536857629097,
                -1.484955054870461
            ]
        },
        {
            "positions": [
                -0.011429984720920043,
                -2.2240342443092644,
                -1.8349719535516715,
                1.2148044775501476,
                0.09628428205364206,
                -1.307731010548539
            ]
        },
        {
            "positions": [
                -0.022278524119971367,
                -2.2363607440785804,
                -1.9435291904589787,
                1.2847132419753975,
                0.10096319553099314,
                -1.130506966226617
            ]
        },
        {
            "positions": [
                -0.03312706351902269,
                -2.2486872438478964,
                -2.052086427366286,
                1.3546220064006471,
                0.10564210900834424,
                -0.953282921904695
            ]
        },
        {
            "positions": [
                -0.043975602918074015,
                -2.261013743617213,
                -2.160643664273593,
                1.424530770825897,
                0.11032102248569534,
                -0.776058877582773
            ]
        },
        {
            "positions": [
                -0.05482414231712534,
                -2.273340243386529,
                -2.2692009011809002,
                1.4944395352511468,
                0.11499993596304642,
                -0.5988348332608509
            ]
        },
        {
            "positions": [
                -0.0755216928908681,
                -2.2829243233032295,
                -2.3658393663891797,
                1.5550264613436051,
                0.12323002284518747,
                -0.4101741931160058
            ]
        },
        {
            "positions": [
                -0.11192787407164642,
                -2.2797544355168595,
                -2.376453169230591,
                1.51790847141496,
                0.14288563671887772,
                -0.24444503642311116
            ]
        },
        {
            "positions": [
                -0.14833405525242477,
                -2.2765845477304896,
                -2.3870669720720024,
                1.4807904814863146,
                0.16254125059256797,
                -0.07871587973021654
            ]
        },
        {
            "positions": [
                -0.1847402364332031,
                -2.2734146599441196,
                -2.3976807749134137,
                1.4436724915576695,
                0.1821968644662582,
                0.08701327696267806
            ]
        }
    ]
}