{
    "goal": {
        "global_pose": {
            "orientation": {
                "w": 0.005598929693374612,
                "x": 0.007748599140229565,
                "y": 0.7110244013736278,
                "z": -0.7031023480610252
            },
            "position": {
                "x": -0.8858502320852131,
                "y": -0.7141253447532654,
                "z": 0.3711530566215515
            }
        },
        "name": "move_to_auspresseinheit_C"
    },
    "id": "LBTRRT_move_to_auspresseinheit_C_148",
    "joint_names": [
        "shoulder_pan_joint",
        "shoulder_lift_joint",
        "elbow_joint",
        "wrist_1_joint",
        "wrist_2_joint",
        "wrist_3_joint"
    ],
    "metrics": {
        "cart_traj_len": 0.4934792936331152,
        "distance_elbow_joint": 0.9978646627049039,
        "distance_shoulder_lift_joint": 0.3236249277192167,
        "distance_shoulder_pan_joint": 0.2568948499171304,
        "distance_wrist_1_joint": 0.6743506907894623,
        "distance_wrist_2_joint": 1.311093065132518,
        "distance_wrist_3_joint": 0.052541531014857146,
        "smoothness": 6.459479416000911e-16,
        "time": 5.010319111,
        "traj_len": 1.901675505252694,
        "weighted_distance": 2.3889111631096256
    },
    "planner": "LBTRRT",
    "start": {
        "state": {
            "elbow_joint": 1.7527959577737207,
            "shoulder_lift_joint": -0.9740617694225068,
            "shoulder_pan_joint": -2.967991417825858,
            "wrist_1_joint": -0.759517768980727,
            "wrist_2_joint": 1.7443932448377408,
            "wrist_3_joint": -3.0840537646736568
        }
    },
    "waypoints": [
        {
            "positions": [
                -2.967991417825858,
                -0.9740617694225068,
                1.7527959577737207,
                -0.759517768980727,
                1.7443932448377408,
                -3.0840537646736568
            ]
        },
        {
            "positions": [
                -2.942301932834145,
                -0.9416992766505851,
                1.6530094915032303,
                -0.6920826999017807,
                1.613283938324489,
                -3.0893079177751424
            ]
        },
        {
            "positions": [
                -2.916612447842432,
                -0.9093367838786635,
                1.55322302523274,
                -0.6246476308228345,
                1.4821746318112372,
                -3.0945620708766284
            ]
        },
        {
            "positions": [
                -2.890922962850719,
                -0.8769742911067417,
                1.4534365589622495,
                -0.5572125617438883,
                1.3510653252979854,
                -3.099816223978114
            ]
        },
        {
            "positions": [
                -2.8652334778590056,
                -0.84461179833482,
                1.3536500926917592,
                -0.489777492664942,
                1.2199560187847336,
                -3.1050703770795995
            ]
        },
        {
            "positions": [
                -2.8395439928672928,
                -0.8122493055628984,
                1.2538636264212686,
                -0.42234242358599583,
                1.0888467122714818,
                -3.110324530181085
            ]
        },
        {
            "positions": [
                -2.81385450787558,
                -0.7798868127909768,
                1.1540771601507784,
                -0.35490735450704963,
                0.95773740575823,
                -3.115578683282571
            ]
        },
        {
            "positions": [
                -2.7881650228838666,
                -0.7475243200190551,
                1.0542906938802878,
                -0.2874722854281034,
                0.8266280992449783,
                -3.1208328363840567
            ]
        },
        {
            "positions": [
                -2.7624755378921537,
                -0.7151618272471334,
                0.9545042276097975,
                -0.22003721634915707,
                0.6955187927317263,
                -3.1260869894855423
            ]
        },
        {
            "positions": [
                -2.7367860529004404,
                -0.6827993344752117,
                0.8547177613393071,
                -0.15260214727021093,
                0.5644094862184745,
                -3.1313411425870283
            ]
        },
        {
            "positions": [
                -2.7110965679087276,
                -0.6504368417032901,
                0.7549312950688167,
                -0.08516707819126468,
                0.4333001797052226,
                -3.136595295688514
            ]
        }
    ]
}