{
    "goal": {
        "global_pose": {
            "orientation": {
                "w": 0.7031023480610252,
                "x": -0.7110244013736278,
                "y": 0.0077485991402295624,
                "z": 0.005598929693374583
            },
            "position": {
                "x": -0.8841497679147869,
                "y": 0.44412534475326537,
                "z": 0.3711530566215515
            }
        },
        "name": "move_to_auspresseinheit_D"
    },
    "id": "LBTRRT_move_to_auspresseinheit_D_5",
    "joint_names": [
        "shoulder_pan_joint",
        "shoulder_lift_joint",
        "elbow_joint",
        "wrist_1_joint",
        "wrist_2_joint",
        "wrist_3_joint"
    ],
    "metrics": {
        "cart_traj_len": 0.34403558189615757,
        "distance_elbow_joint": 0.6533109857994293,
        "distance_shoulder_lift_joint": 0.129095205119385,
        "distance_shoulder_pan_joint": 0.13382177984149218,
        "distance_wrist_1_joint": 0.5828443051238938,
        "distance_wrist_2_joint": 1.4410173910700008,
        "distance_wrist_3_joint": 0.05086406198924953,
        "smoothness": 0.0,
        "time": 5.005014728,
        "traj_len": 1.7294374024356738,
        "weighted_distance": 2.261977795893639
    },
    "planner": "LBTRRT",
    "start": {
        "state": {
            "elbow_joint": -1.8275523626775212,
            "shoulder_lift_joint": -2.126789852344167,
            "shoulder_pan_joint": -0.03513704404078235,
            "wrist_1_joint": -2.347782403156801,
            "wrist_2_joint": -1.6058999987535132,
            "wrist_3_joint": -3.0880379163319196
        }
    },
    "waypoints": [
        {
            "positions": [
                -0.03513704404078235,
                -2.126789852344167,
                -1.8275523626775212,
                -2.347782403156801,
                -1.6058999987535132,
                -3.0880379163319196
            ]
        },
        {
            "positions": [
                -0.05186476652096887,
                -2.14292675298409,
                -1.7458884894525926,
                -2.4206379412972874,
                -1.425772824869763,
                -3.0816799085832636
            ]
        },
        {
            "positions": [
                -0.06859248900115539,
                -2.1590636536240133,
                -1.664224616227664,
                -2.4934934794377743,
                -1.245645650986013,
                -3.075321900834607
            ]
        },
        {
            "positions": [
                -0.08532021148134192,
                -2.1752005542639363,
                -1.5825607430027353,
                -2.5663490175782613,
                -1.065518477102263,
                -3.068963893085951
            ]
        },
        {
            "positions": [
                -0.10204793396152845,
                -2.1913374549038593,
                -1.5008968697778067,
                -2.639204555718748,
                -0.8853913032185128,
                -3.0626058853372946
            ]
        },
        {
            "positions": [
                -0.11877565644171498,
                -2.2074743555437824,
                -1.419232996552878,
                -2.7120600938592343,
                -0.7052641293347627,
                -3.0562478775886386
            ]
        },
        {
            "positions": [
                -0.13550337892190148,
                -2.2236112561837054,
                -1.3375691233279492,
                -2.7849156319997213,
                -0.5251369554510126,
                -3.0498898698399826
            ]
        },
        {
            "positions": [
                -0.152231101402088,
                -2.239748156823629,
                -1.2559052501030206,
                -2.857771170140208,
                -0.3450097815672626,
                -3.043531862091326
            ]
        },
        {
            "positions": [
                -0.16895882388227454,
                -2.255885057463552,
                -1.174241376878092,
                -2.9306267082806947,
                -0.16488260768351237,
                -3.03717385434267
            ]
        }
    ]
}