{
    "goal": {
        "global_pose": {
            "orientation": {
                "w": 0.7047431493862688,
                "x": -0.7094548369677653,
                "y": 0.0024358444001904,
                "z": -0.0022348060817251984
            },
            "position": {
                "x": -0.39052492380142206,
                "y": 0.3671506643295288,
                "z": 0.19426114857196808
            }
        },
        "name": "move_to_magneteinheit_D"
    },
    "id": "LBTRRT_move_to_magneteinheit_D_17",
    "joint_names": [
        "shoulder_pan_joint",
        "shoulder_lift_joint",
        "elbow_joint",
        "wrist_1_joint",
        "wrist_2_joint",
        "wrist_3_joint"
    ],
    "metrics": {
        "cart_traj_len": 6.960708941171478,
        "distance_elbow_joint": 5.694365889061211,
        "distance_shoulder_lift_joint": 3.246130299516403,
        "distance_shoulder_pan_joint": 9.83755142536294,
        "distance_wrist_1_joint": 5.768242052187499,
        "distance_wrist_2_joint": 5.083706639130263,
        "distance_wrist_3_joint": 13.4208524912539,
        "smoothness": 0.41772203819412185,
        "time": 5.107270679999999,
        "traj_len": 6.5613145631429886,
        "weighted_distance": 8.985794481866249
    },
    "planner": "LBTRRT",
    "start": {
        "state": {
            "elbow_joint": 0.749534889911806,
            "shoulder_lift_joint": -0.6476975780787326,
            "shoulder_pan_joint": -2.711696901376241,
            "wrist_1_joint": -0.07506478083263063,
            "wrist_2_joint": 0.43296659715538205,
            "wrist_3_joint": -3.14703540197715
        }
    },
    "waypoints": [
        {
            "positions": [
                -2.711696901376241,
                -0.6476975780787326,
                0.749534889911806,
                -0.07506478083263063,
                0.43296659715538205,
                -3.14703540197715
            ]
        },
        {
            "positions": [
                -2.7242605300573546,
                -0.7197981876476266,
                0.8232883063224707,
                -0.024007253218182596,
                0.3452080543288506,
                -3.0998526133784394
            ]
        },
        {
            "positions": [
                -2.7368241587384685,
                -0.7918987972165206,
                0.8970417227331355,
                0.027050274396265436,
                0.2574495115023191,
                -3.052669824779729
            ]
        },
        {
            "positions": [
                -2.749387787419582,
                -0.8639994067854146,
                0.9707951391438003,
                0.07810780201071346,
                0.1696909686757877,
                -3.0054870361810178
            ]
        },
        {
            "positions": [
                -2.761951416100696,
                -0.9361000163543086,
                1.0445485555544651,
                0.1291653296251615,
                0.0819324258492562,
                -2.958304247582307
            ]
        },
        {
            "positions": [
                -2.7745150447818094,
                -1.0082006259232026,
                1.11830197196513,
                0.1802228572396095,
                -0.005826116977275253,
                -2.9111214589835965
            ]
        },
        {
            "positions": [
                -2.785342600411978,
                -1.0736331163236346,
                1.1270463500689316,
                0.2653608979837179,
                -0.03695447962971655,
                -2.728211931700895
            ]
        },
        {
            "positions": [
                -2.7961701560421464,
                -1.1390656067240663,
                1.1357907281727333,
                0.35049893872782634,
                -0.06808284228215784,
                -2.545302404418193
            ]
        },
        {
            "positions": [
                -2.806997711672315,
                -1.2044980971244983,
                1.144535106276535,
                0.4356369794719348,
                -0.09921120493459915,
                -2.3623928771354916
            ]
        },
        {
            "positions": [
                -2.8178252673024837,
                -1.26993058752493,
                1.1532794843803367,
                0.5207750202160433,
                -0.13033956758704043,
                -2.1794833498527897
            ]
        },
        {
            "positions": [
                -2.828652822932652,
                -1.335363077925362,
                1.1620238624841384,
                0.6059130609601516,
                -0.16146793023948175,
                -1.9965738225700882
            ]
        },
        {
            "positions": [
                -2.8394803785628207,
                -1.400795568325794,
                1.17076824058794,
                0.6910511017042601,
                -0.19259629289192304,
                -1.8136642952873865
            ]
        },
        {
            "positions": [
                -2.850307934192989,
                -1.4662280587262257,
                1.1795126186917417,
                0.7761891424483685,
                -0.22372465554436433,
                -1.6307547680046848
            ]
        },
        {
            "positions": [
                -2.8611354898231576,
                -1.5316605491266575,
                1.1882569967955436,
                0.8613271831924769,
                -0.2548530181968056,
                -1.447845240721983
            ]
        },
        {
            "positions": [
                -2.871963045453326,
                -1.5970930395270895,
                1.1970013748993453,
                0.9464652239365853,
                -0.2859813808492469,
                -1.2649357134392814
            ]
        },
        {
            "positions": [
                -2.8827906010834945,
                -1.6625255299275215,
                1.205745753003147,
                1.0316032646806939,
                -0.31710974350168825,
                -1.0820261861565799
            ]
        },
        {
            "positions": [
                -2.8936181567136634,
                -1.7279580203279532,
                1.2144901311069487,
                1.116741305424802,
                -0.34823810615412953,
                -0.8991166588738779
            ]
        },
        {
            "positions": [
                -2.904445712343832,
                -1.7933905107283852,
                1.2232345092107504,
                1.2018793461689108,
                -0.3793664688065708,
                -0.7162071315911764
            ]
        },
        {
            "positions": [
                -2.9152732679740003,
                -1.8588230011288172,
                1.231978887314552,
                1.287017386913019,
                -0.4104948314590121,
                -0.533297604308475
            ]
        },
        {
            "positions": [
                -2.926100823604169,
                -1.924255491529249,
                1.2407232654183538,
                1.3721554276571273,
                -0.4416231941114534,
                -0.350388077025773
            ]
        },
        {
            "positions": [
                -2.9369283792343372,
                -1.9896879819296809,
                1.2494676435221554,
                1.457293468401236,
                -0.47275155676389474,
                -0.16747854974307108
            ]
        },
        {
            "positions": [
                -2.9477559348645057,
                -2.0551204723301124,
                1.2582120216259571,
                1.5424315091453442,
                -0.5038799194163359,
                0.015430977539630408
            ]
        },
        {
            "positions": [
                -2.9585834904946746,
                -2.1205529627305446,
                1.2669563997297588,
                1.627569549889453,
                -0.5350082820687774,
                0.19834050482233234
            ]
        },
        {
            "positions": [
                -2.969411046124843,
                -2.1859854531309764,
                1.2757007778335605,
                1.7127075906335611,
                -0.5661366447212186,
                0.38125003210503383
            ]
        },
        {
            "positions": [
                -2.9802386017550115,
                -2.2514179435314086,
                1.2844451559373622,
                1.7978456313776698,
                -0.5972650073736598,
                0.5641595593877358
            ]
        },
        {
            "positions": [
                -2.99106615738518,
                -2.3168504339318403,
                1.293189534041164,
                1.882983672121778,
                -0.6283933700261013,
                0.7470690866704368
            ]
        },
        {
            "positions": [
                -3.0018937130153485,
                -2.382282924332272,
                1.3019339121449658,
                1.9681217128658863,
                -0.6595217326785425,
                0.9299786139531387
            ]
        },
        {
            "positions": [
                -3.012721268645517,
                -2.447715414732704,
                1.3106782902487675,
                2.0532597536099946,
                -0.6906500953309838,
                1.1128881412358407
            ]
        },
        {
            "positions": [
                -3.0235488242756854,
                -2.513147905133136,
                1.3194226683525692,
                2.1383977943541033,
                -0.7217784579834252,
                1.2957976685185422
            ]
        },
        {
            "positions": [
                -3.0343763799058543,
                -2.5785803955335678,
                1.3281670464563708,
                2.223535835098212,
                -0.7529068206358664,
                1.4787071958012437
            ]
        },
        {
            "positions": [
                -3.0452039355360228,
                -2.644012885934,
                1.3369114245601725,
                2.30867387584232,
                -0.7840351832883077,
                1.661616723083946
            ]
        },
        {
            "positions": [
                -3.056031491166191,
                -2.7094453763344317,
                1.3456558026639742,
                2.3938119165864284,
                -0.8151635459407489,
                1.8445262503666466
            ]
        },
        {
            "positions": [
                -3.0668590467963597,
                -2.7748778667348635,
                1.354400180767776,
                2.478949957330537,
                -0.8462919085931904,
                2.0274357776493486
            ]
        },
        {
            "positions": [
                -2.9263715923459857,
                -2.7564663040454844,
                1.3696146360818813,
                2.430648075090517,
                -0.7912844667739327,
                1.911707669863798
            ]
        },
        {
            "positions": [
                -2.7858841378956116,
                -2.7380547413561054,
                1.3848290913959864,
                2.3823461928504965,
                -0.7362770249546751,
                1.7959795620782475
            ]
        },
        {
            "positions": [
                -2.645396683445237,
                -2.719643178666727,
                1.4000435467100918,
                2.3340443106104765,
                -0.6812695831354175,
                1.680251454292697
            ]
        },
        {
            "positions": [
                -2.504909228994863,
                -2.7012316159773477,
                1.4152580020241972,
                2.2857424283704564,
                -0.6262621413161599,
                1.5645233465071462
            ]
        },
        {
            "positions": [
                -2.364421774544489,
                -2.6828200532879687,
                1.4304724573383023,
                2.237440546130436,
                -0.5712546994969022,
                1.4487952387215957
            ]
        },
        {
            "positions": [
                -2.223934320094115,
                -2.6644084905985896,
                1.4456869126524077,
                2.189138663890416,
                -0.5162472576776447,
                1.3330671309360451
            ]
        },
        {
            "positions": [
                -2.083446865643741,
                -2.6459969279092106,
                1.4609013679665128,
                2.1408367816503957,
                -0.46123981585838697,
                1.2173390231504946
            ]
        },
        {
            "positions": [
                -1.9429594111933668,
                -2.627585365219832,
                1.4761158232806182,
                2.092534899410375,
                -0.4062323740391293,
                1.1016109153649438
            ]
        },
        {
            "positions": [
                -1.8024719567429925,
                -2.609173802530453,
                1.4913302785947236,
                2.044233017170355,
                -0.35122493221987167,
                0.9858828075793933
            ]
        },
        {
            "positions": [
                -1.6619845022926187,
                -2.590762239841074,
                1.5065447339088287,
                1.9959311349303348,
                -0.29621749040061407,
                0.8701546997938427
            ]
        },
        {
            "positions": [
                -1.5214970478422445,
                -2.572350677151695,
                1.521759189222934,
                1.9476292526903145,
                -0.24121004858135642,
                0.7544265920082922
            ]
        },
        {
            "positions": [
                -1.3810095933918705,
                -2.553939114462316,
                1.5369736445370394,
                1.8993273704502944,
                -0.18620260676209888,
                0.6386984842227417
            ]
        },
        {
            "positions": [
                -1.2405221389414962,
                -2.5355275517729368,
                1.5521880998511446,
                1.8510254882102741,
                -0.1311951649428411,
                0.5229703764371909
            ]
        },
        {
            "positions": [
                -1.1000346844911222,
                -2.517115989083558,
                1.56740255516525,
                1.8027236059702538,
                -0.07618772312358357,
                0.4072422686516406
            ]
        },
        {
            "positions": [
                -0.9595472300407484,
                -2.498704426394179,
                1.582617010479355,
                1.7544217237302338,
                -0.02118028130432592,
                0.29151416086609006
            ]
        },
        {
            "positions": [
                -0.8190597755903739,
                -2.4802928637048,
                1.5978314657934605,
                1.7061198414902135,
                0.03382716051493173,
                0.1757860530805393
            ]
        },
        {
            "positions": [
                -0.6785723211399999,
                -2.461881301015421,
                1.6130459211075658,
                1.6578179592501932,
                0.08883460233418938,
                0.06005794529498876
            ]
        },
        {
            "positions": [
                -0.5380848666896254,
                -2.443469738326042,
                1.6282603764216712,
                1.609516077010173,
                0.14384204415344704,
                -0.055670162490562
            ]
        },
        {
            "positions": [
                -0.3975974122392514,
                -2.4250581756366634,
                1.6434748317357764,
                1.5612141947701528,
                0.19884948597270458,
                -0.17139827027611254
            ]
        },
        {
            "positions": [
                -0.2571099577888778,
                -2.4066466129472843,
                1.6586892870498817,
                1.5129123125301325,
                0.25385692779196223,
                -0.2871263780616631
            ]
        },
        {
            "positions": [
                -0.11662250333850332,
                -2.3882350502579053,
                1.6739037423639869,
                1.4646104302901122,
                0.3088643696112199,
                -0.4028544858472136
            ]
        },
        {
            "positions": [
                0.023864951111870703,
                -2.3698234875685262,
                1.6891181976780922,
                1.416308548050092,
                0.36387181143047753,
                -0.5185825936327642
            ]
        },
        {
            "positions": [
                0.16435240556224473,
                -2.351411924879147,
                1.7043326529921976,
                1.368006665810072,
                0.4188792532497352,
                -0.6343107014183147
            ]
        },
        {
            "positions": [
                0.30483986001261876,
                -2.3330003621897686,
                1.7195471083063028,
                1.3197047835700517,
                0.4738866950689926,
                -0.7500388092038652
            ]
        },
        {
            "positions": [
                0.44532731446299323,
                -2.3145887995003895,
                1.7347615636204081,
                1.2714029013300312,
                0.5288941368882505,
                -0.8657669169894162
            ]
        },
        {
            "positions": [
                0.5858147689133673,
                -2.2961772368110105,
                1.7499760189345135,
                1.2231010190900111,
                0.5839015787075081,
                -0.9814950247749668
            ]
        },
        {
            "positions": [
                0.7263022233637413,
                -2.2777656741216314,
                1.7651904742486186,
                1.1747991368499908,
                0.6389090205267658,
                -1.0972231325605173
            ]
        },
        {
            "positions": [
                0.8667896778141153,
                -2.259354111432253,
                1.780404929562724,
                1.1264972546099707,
                0.6939164623460232,
                -1.2129512403460674
            ]
        },
        {
            "positions": [
                1.0072771322644893,
                -2.240942548742874,
                1.7956193848768291,
                1.0781953723699507,
                0.7489239041652809,
                -1.328679348131618
            ]
        },
        {
            "positions": [
                1.147764586714863,
                -2.2225309860534948,
                1.8108338401909345,
                1.0298934901299304,
                0.8039313459845385,
                -1.4444074559171685
            ]
        },
        {
            "positions": [
                1.2882520411652383,
                -2.2041194233641157,
                1.8260482955050399,
                0.9815916078899098,
                0.8589387878037964,
                -1.5601355637027194
            ]
        },
        {
            "positions": [
                1.4287394956156119,
                -2.1857078606747367,
                1.841262750819145,
                0.9332897256498898,
                0.9139462296230538,
                -1.67586367148827
            ]
        },
        {
            "positions": [
                1.5692269500659854,
                -2.1672962979853576,
                1.8564772061332504,
                0.8849878434098697,
                0.9689536714423115,
                -1.7915917792738205
            ]
        },
        {
            "positions": [
                1.70971440451636,
                -2.1488847352959786,
                1.8716916614473558,
                0.8366859611698494,
                1.0239611132615691,
                -1.907319887059371
            ]
        },
        {
            "positions": [
                1.8502018589667335,
                -2.1304731726066,
                1.886906116761461,
                0.7883840789298293,
                1.0789685550808266,
                -2.0230479948449216
            ]
        },
        {
            "positions": [
                1.9906893134171089,
                -2.112061609917221,
                1.9021205720755663,
                0.7400821966898088,
                1.1339759969000844,
                -2.1387761026304726
            ]
        },
        {
            "positions": [
                2.1311767678674824,
                -2.093650047227842,
                1.9173350273896714,
                0.6917803144497885,
                1.188983438719342,
                -2.2545042104160227
            ]
        },
        {
            "positions": [
                2.271664222317857,
                -2.075238484538463,
                1.9325494827037768,
                0.6434784322097684,
                1.2439908805385995,
                -2.3702323182015737
            ]
        },
        {
            "positions": [
                2.4121516767682305,
                -2.0568269218490842,
                1.9477639380178822,
                0.5951765499697483,
                1.2989983223578574,
                -2.4859604259871237
            ]
        },
        {
            "positions": [
                2.552639131218604,
                -2.038415359159705,
                1.9629783933319875,
                0.546874667729728,
                1.3540057641771148,
                -2.6016885337726747
            ]
        },
        {
            "positions": [
                2.6931265856689786,
                -2.020003796470326,
                1.9781928486460927,
                0.49857278548970796,
                1.4090132059963723,
                -2.717416641558225
            ]
        },
        {
            "positions": [
                2.833614040119353,
                -2.001592233780947,
                1.993407303960198,
                0.4502709032496872,
                1.4640206478156301,
                -2.833144749343776
            ]
        },
        {
            "positions": [
                2.9741014945697275,
                -1.983180671091568,
                2.008621759274303,
                0.40196902100966714,
                1.519028089634888,
                -2.948872857129327
            ]
        },
        {
            "positions": [
                3.114588949020101,
                -1.9647691084021892,
                2.0238362145884086,
                0.35366713876964706,
                1.5740355314541454,
                -3.0646009649148764
            ]
        },
        {
            "positions": [
                3.020276340902205,
                -1.973593144188692,
                1.897548655605991,
                0.3847798386400311,
                1.5344892259303065,
                -2.9744768343702144
            ]
        },
        {
            "positions": [
                2.9259637327843095,
                -1.9824171799751948,
                1.7712610966235736,
                0.41589253851041513,
                1.4949429204064677,
                -2.8843527038255523
            ]
        },
        {
            "positions": [
                2.8316511246664136,
                -1.9912412157616977,
                1.6449735376411563,
                0.4470052383807992,
                1.4553966148826287,
                -2.79422857328089
            ]
        },
        {
            "positions": [
                2.7373385165485176,
                -2.0000652515482003,
                1.5186859786587388,
                0.4781179382511832,
                1.4158503093587897,
                -2.7041044427362277
            ]
        },
        {
            "positions": [
                2.643025908430622,
                -2.008889287334703,
                1.3923984196763213,
                0.5092306381215672,
                1.376304003834951,
                -2.6139803121915657
            ]
        },
        {
            "positions": [
                2.548713300312726,
                -2.017713323121206,
                1.2661108606939038,
                0.5403433379919513,
                1.336757698311112,
                -2.523856181646903
            ]
        },
        {
            "positions": [
                2.45440069219483,
                -2.0265373589077087,
                1.1398233017114863,
                0.5714560378623353,
                1.297211392787273,
                -2.433732051102241
            ]
        },
        {
            "positions": [
                2.360088084076934,
                -2.0353613946942115,
                1.013535742729069,
                0.6025687377327194,
                1.257665087263434,
                -2.343607920557579
            ]
        },
        {
            "positions": [
                2.2657754759590385,
                -2.0441854304807143,
                0.8872481837466515,
                0.6336814376031035,
                1.2181187817395953,
                -2.253483790012917
            ]
        },
        {
            "positions": [
                2.1714628678411425,
                -2.053009466267217,
                0.760960624764234,
                0.6647941374734875,
                1.1785724762157563,
                -2.163359659468255
            ]
        },
        {
            "positions": [
                2.0771502597232465,
                -2.06183350205372,
                0.6346730657818165,
                0.6959068373438715,
                1.1390261706919174,
                -2.0732355289235924
            ]
        },
        {
            "positions": [
                1.9828376516053507,
                -2.0706575378402228,
                0.508385506799399,
                0.7270195372142556,
                1.0994798651680786,
                -1.9831113983789304
            ]
        },
        {
            "positions": [
                1.8885250434874548,
                -2.0794815736267256,
                0.3820979478169815,
                0.7581322370846396,
                1.0599335596442396,
                -1.892987267834268
            ]
        },
        {
            "positions": [
                1.794212435369559,
                -2.0883056094132284,
                0.255810388834564,
                0.7892449369550236,
                1.0203872541204007,
                -1.8028631372896058
            ]
        },
        {
            "positions": [
                1.6998998272516632,
                -2.0971296451997308,
                0.1295228298521467,
                0.8203576368254077,
                0.9808409485965619,
                -1.712739006744944
            ]
        },
        {
            "positions": [
                1.6055872191337672,
                -2.1059536809862336,
                0.003235270869729412,
                0.8514703366957918,
                0.9412946430727229,
                -1.6226148762002817
            ]
        },
        {
            "positions": [
                1.5112746110158715,
                -2.1147777167727364,
                -0.12305228811268831,
                0.8825830365661758,
                0.9017483375488841,
                -1.5324907456556194
            ]
        },
        {
            "positions": [
                1.4169620028979757,
                -2.123601752559239,
                -0.2493398470951056,
                0.9136957364365598,
                0.8622020320250452,
                -1.4423666151109573
            ]
        },
        {
            "positions": [
                1.3226493947800797,
                -2.132425788345742,
                -0.3756274060775229,
                0.9448084363069439,
                0.8226557265012062,
                -1.3522424845662953
            ]
        },
        {
            "positions": [
                1.228336786662184,
                -2.141249824132245,
                -0.5019149650599406,
                0.9759211361773279,
                0.7831094209773674,
                -1.262118354021633
            ]
        },
        {
            "positions": [
                1.134024178544288,
                -2.1500738599187477,
                -0.6282025240423579,
                1.0070338360477118,
                0.7435631154535284,
                -1.171994223476971
            ]
        },
        {
            "positions": [
                1.039711570426392,
                -2.1588978957052505,
                -0.7544900830247756,
                1.038146535918096,
                0.7040168099296895,
                -1.0818700929323086
            ]
        },
        {
            "positions": [
                0.9453989623084964,
                -2.1677219314917533,
                -0.8807776420071929,
                1.06925923578848,
                0.6644705044058505,
                -0.9917459623876463
            ]
        },
        {
            "positions": [
                0.8510863541906004,
                -2.176545967278256,
                -1.0070652009896106,
                1.1003719356588642,
                0.6249241988820117,
                -0.9016218318429843
            ]
        },
        {
            "positions": [
                0.7567737460727044,
                -2.185370003064759,
                -1.133352759972028,
                1.1314846355292483,
                0.5853778933581728,
                -0.8114977012983218
            ]
        },
        {
            "positions": [
                0.6624611379548084,
                -2.1941940388512617,
                -1.2596403189544456,
                1.1625973353996322,
                0.5458315878343338,
                -0.7213735707536597
            ]
        },
        {
            "positions": [
                0.5681485298369124,
                -2.2030180746377646,
                -1.385927877936863,
                1.1937100352700163,
                0.5062852823104949,
                -0.6312494402089976
            ]
        },
        {
            "positions": [
                0.4738359217190169,
                -2.211842110424267,
                -1.5122154369192806,
                1.2248227351404002,
                0.4667389767866561,
                -0.5411253096643351
            ]
        },
        {
            "positions": [
                0.3795233136011209,
                -2.22066614621077,
                -1.638502995901698,
                1.2559354350107843,
                0.4271926712628171,
                -0.4510011791196731
            ]
        },
        {
            "positions": [
                0.28521070548322536,
                -2.2294901819972726,
                -1.7647905548841152,
                1.2870481348811684,
                0.38764636573897837,
                -0.36087704857501146
            ]
        },
        {
            "positions": [
                0.19089809736532937,
                -2.2383142177837754,
                -1.8910781138665325,
                1.3181608347515523,
                0.3481000602151394,
                -0.27075291803034895
            ]
        },
        {
            "positions": [
                0.09658548924743338,
                -2.247138253570278,
                -2.0173656728489497,
                1.3492735346219364,
                0.3085537546913004,
                -0.1806287874856869
            ]
        },
        {
            "positions": [
                0.0022728811295378293,
                -2.255962289356781,
                -2.143653231831368,
                1.3803862344923206,
                0.26900744916746144,
                -0.09050465694102483
            ]
        },
        {
            "positions": [
                -0.09203972698835816,
                -2.264786325143284,
                -2.269940790813785,
                1.4114989343627045,
                0.2294611436436227,
                -0.000380526396362324
            ]
        },
        {
            "positions": [
                -0.18635233510625399,
                -2.2736103609297866,
                -2.3962283497962025,
                1.4426116342330886,
                0.18991483811978382,
                0.08974360414829964
            ]
        }
    ]
}