{
    "goal": {
        "global_pose": {
            "orientation": {
                "w": -0.00223480608172531,
                "x": 0.0024358444001904467,
                "y": 0.7094548369677653,
                "z": -0.704743149386269
            },
            "position": {
                "x": 0.6205249238014221,
                "y": -0.6371506643295288,
                "z": 0.19426114857196808
            }
        },
        "name": "move_to_magneteinheit_B"
    },
    "id": "LBTRRT_move_to_magneteinheit_B_109",
    "joint_names": [
        "shoulder_pan_joint",
        "shoulder_lift_joint",
        "elbow_joint",
        "wrist_1_joint",
        "wrist_2_joint",
        "wrist_3_joint"
    ],
    "metrics": {
        "cart_traj_len": 1.3207893629343659,
        "distance_elbow_joint": 1.1046041322198092,
        "distance_shoulder_lift_joint": 0.7566731944033418,
        "distance_shoulder_pan_joint": 1.6209565028132205,
        "distance_wrist_1_joint": 0.2688956801372768,
        "distance_wrist_2_joint": 1.5293319144390607,
        "distance_wrist_3_joint": 1.2599985598927361,
        "smoothness": 0.36637325623453704,
        "time": 5.019599468,
        "traj_len": 2.5574323028978587,
        "weighted_distance": 3.295251841402605
    },
    "planner": "LBTRRT",
    "start": {
        "state": {
            "elbow_joint": 2.6216224122426386,
            "shoulder_lift_joint": -1.4174107377796124,
            "shoulder_pan_joint": 0.7066234856936794,
            "wrist_1_joint": 1.9546482284002225,
            "wrist_2_joint": -0.7096286983471962,
            "wrist_3_joint": 0.005740856962016249
        }
    },
    "waypoints": [
        {
            "positions": [
                0.7066234856936794,
                -1.4174107377796124,
                2.6216224122426386,
                1.9546482284002225,
                -0.7096286983471962,
                0.005740856962016249
            ]
        },
        {
            "positions": [
                0.5801353600446122,
                -1.4043962043328921,
                2.6307370035611406,
                1.983196531771482,
                -0.8185714282682368,
                0.08438916978138554
            ]
        },
        {
            "positions": [
                0.45364723439554494,
                -1.3913816708861717,
                2.6398515948796426,
                2.011744835142742,
                -0.9275141581892775,
                0.16303748260075485
            ]
        },
        {
            "positions": [
                0.3271591087464777,
                -1.3783671374394515,
                2.6489661861981446,
                2.0402931385140013,
                -1.0364568881103182,
                0.24168579542012414
            ]
        },
        {
            "positions": [
                0.2006709830974105,
                -1.365352603992731,
                2.6580807775166466,
                2.0688414418852608,
                -1.1453996180313588,
                0.32033410823949343
            ]
        },
        {
            "positions": [
                0.0741828574483433,
                -1.3523380705460109,
                2.667195368835148,
                2.09738974525652,
                -1.2543423479523994,
                0.3989824210588627
            ]
        },
        {
            "positions": [
                -0.05230526820072401,
                -1.3393235370992906,
                2.67630996015365,
                2.1259380486277797,
                -1.36328507787344,
                0.477630733878232
            ]
        },
        {
            "positions": [
                -0.1787933938497912,
                -1.3263090036525702,
                2.685424551472152,
                2.1544863519990396,
                -1.4722278077944808,
                0.5562790466976012
            ]
        },
        {
            "positions": [
                -0.30528151949885834,
                -1.31329447020585,
                2.694539142790654,
                2.183034655370299,
                -1.5811705377155214,
                0.6349273595169705
            ]
        },
        {
            "positions": [
                -0.36618666926092663,
                -1.248038777522892,
                2.591370402623475,
                2.178983730053579,
                -1.6469495452225948,
                0.5718461537831924
            ]
        },
        {
            "positions": [
                -0.42709181902299487,
                -1.182783084839934,
                2.4882016624562953,
                2.174932804736859,
                -1.7127285527296685,
                0.5087649480494142
            ]
        },
        {
            "positions": [
                -0.48799696878506316,
                -1.1175273921569762,
                2.385032922289116,
                2.170881879420139,
                -1.7785075602367422,
                0.445683742315636
            ]
        },
        {
            "positions": [
                -0.5489021185471314,
                -1.0522716994740182,
                2.2818641821219368,
                2.166830954103419,
                -1.8442865677438156,
                0.3826025365818578
            ]
        },
        {
            "positions": [
                -0.6098072683091997,
                -0.9870160067910603,
                2.1786954419547575,
                2.162780028786699,
                -1.910065575250889,
                0.3195213308480796
            ]
        },
        {
            "positions": [
                -0.6707124180712679,
                -0.9217603141081023,
                2.0755267017875783,
                2.158729103469979,
                -1.9758445827579627,
                0.2564401251143014
            ]
        },
        {
            "positions": [
                -0.7316175678333362,
                -0.8565046214251444,
                1.9723579616203986,
                2.154678178153259,
                -2.0416235902650364,
                0.19335891938052324
            ]
        },
        {
            "positions": [
                -0.7925227175954045,
                -0.7912489287421864,
                1.8691892214532193,
                2.150627252836539,
                -2.1074025977721096,
                0.130277713646745
            ]
        },
        {
            "positions": [
                -0.8534278673574727,
                -0.7259932360592285,
                1.76602048128604,
                2.146576327519819,
                -2.1731816052791832,
                0.06719650791296683
            ]
        },
        {
            "positions": [
                -0.9143330171195411,
                -0.6607375433762706,
                1.6628517411188606,
                2.142525402203099,
                -2.238960612786257,
                0.004115302179188618
            ]
        }
    ]
}