{
    "goal": {
        "global_pose": {
            "orientation": {
                "w": -0.00223480608172531,
                "x": 0.0024358444001904467,
                "y": 0.7094548369677653,
                "z": -0.704743149386269
            },
            "position": {
                "x": 0.6205249238014221,
                "y": -0.6371506643295288,
                "z": 0.19426114857196808
            }
        },
        "name": "move_to_magneteinheit_B"
    },
    "id": "LBTRRT_move_to_magneteinheit_B_30",
    "joint_names": [
        "shoulder_pan_joint",
        "shoulder_lift_joint",
        "elbow_joint",
        "wrist_1_joint",
        "wrist_2_joint",
        "wrist_3_joint"
    ],
    "metrics": {
        "cart_traj_len": 3.1665989707868185,
        "distance_elbow_joint": 4.295086535294603,
        "distance_shoulder_lift_joint": 1.059636239384473,
        "distance_shoulder_pan_joint": 2.1634213680559893,
        "distance_wrist_1_joint": 1.0817401291647348,
        "distance_wrist_2_joint": 1.1854775299334324,
        "distance_wrist_3_joint": 0.820921035046897,
        "smoothness": 0.2151173057639106,
        "time": 5.05818784,
        "traj_len": 3.2567288552902474,
        "weighted_distance": 3.8099005979253695
    },
    "planner": "LBTRRT",
    "start": {
        "state": {
            "elbow_joint": 2.6216224122426386,
            "shoulder_lift_joint": -1.4174107377796124,
            "shoulder_pan_joint": 0.7066234856936794,
            "wrist_1_joint": 1.9546482284002225,
            "wrist_2_joint": -0.7096286983471962,
            "wrist_3_joint": 0.005740856962016249
        }
    },
    "waypoints": [
        {
            "positions": [
                0.7066234856936794,
                -1.4174107377796124,
                2.6216224122426386,
                1.9546482284002225,
                -0.7096286983471962,
                0.005740856962016249
            ]
        },
        {
            "positions": [
                0.7942020978455724,
                -1.4873150883141084,
                2.6174480702398837,
                1.9790507095214704,
                -0.6499977365042289,
                0.07140597198554624
            ]
        },
        {
            "positions": [
                0.8817807099974655,
                -1.5572194388486045,
                2.6132737282371292,
                2.0034531906427184,
                -0.5903667746612615,
                0.13707108700907625
            ]
        },
        {
            "positions": [
                0.9757041422736117,
                -1.598893157103939,
                2.4517243367765493,
                1.9739789380693962,
                -0.5592382642501722,
                0.11702382126113053
            ]
        },
        {
            "positions": [
                1.0696275745497577,
                -1.6405668753592737,
                2.29017494531597,
                1.944504685496074,
                -0.5281097538390828,
                0.0969765555131848
            ]
        },
        {
            "positions": [
                1.1635510068259038,
                -1.6822405936146085,
                2.12862555385539,
                1.9150304329227517,
                -0.49698124342799344,
                0.07692928976523909
            ]
        },
        {
            "positions": [
                1.25747443910205,
                -1.7239143118699432,
                1.96707616239481,
                1.8855561803494294,
                -0.4658527330169041,
                0.056882024017293364
            ]
        },
        {
            "positions": [
                1.3513978713781962,
                -1.7655880301252778,
                1.8055267709342304,
                1.8560819277761071,
                -0.4347242226058147,
                0.03683475826934765
            ]
        },
        {
            "positions": [
                1.4453213036543424,
                -1.8072617483806124,
                1.6439773794736507,
                1.8266076752027849,
                -0.40359571219472534,
                0.016787492521401937
            ]
        },
        {
            "positions": [
                1.5392447359304884,
                -1.848935466635947,
                1.482427988013071,
                1.7971334226294626,
                -0.372467201783636,
                -0.0032597732265437773
            ]
        },
        {
            "positions": [
                1.6331681682066346,
                -1.8906091848912818,
                1.320878596552491,
                1.7676591700561404,
                -0.34133869137254663,
                -0.02330703897448952
            ]
        },
        {
            "positions": [
                1.7270916004827808,
                -1.9322829031466164,
                1.1593292050919113,
                1.7381849174828181,
                -0.31021018096145725,
                -0.04335430472243523
            ]
        },
        {
            "positions": [
                1.8210150327589267,
                -1.973956621401951,
                0.9977798136313316,
                1.7087106649094959,
                -0.2790816705503679,
                -0.06340157047038095
            ]
        },
        {
            "positions": [
                1.9149384650350731,
                -2.0156303396572857,
                0.8362304221707517,
                1.6792364123361734,
                -0.24795316013927854,
                -0.08344883621832669
            ]
        },
        {
            "positions": [
                2.008861897311219,
                -2.0573040579126203,
                0.6746810307101723,
                1.6497621597628513,
                -0.2168246497281892,
                -0.10349610196627237
            ]
        },
        {
            "positions": [
                2.1027853295873653,
                -2.098977776167955,
                0.5131316392495924,
                1.6202879071895289,
                -0.18569613931709983,
                -0.12354336771421812
            ]
        },
        {
            "positions": [
                2.196708761863511,
                -2.1406514944232895,
                0.3515822477890129,
                1.5908136546162068,
                -0.1545676289060105,
                -0.1435906334621638
            ]
        },
        {
            "positions": [
                2.2906321941396577,
                -2.1823252126786246,
                0.19003285632843303,
                1.5613394020428844,
                -0.12343911849492112,
                -0.16363789921010954
            ]
        },
        {
            "positions": [
                2.3845556264158034,
                -2.223998930933959,
                0.028483464867852692,
                1.531865149469562,
                -0.09231060808383174,
                -0.18368516495805529
            ]
        },
        {
            "positions": [
                2.47847905869195,
                -2.265672649189294,
                -0.13306592659272676,
                1.5023908968962398,
                -0.06118209767274241,
                -0.20373243070600097
            ]
        },
        {
            "positions": [
                2.572402490968096,
                -2.3073463674446284,
                -0.29461531805330665,
                1.4729166443229176,
                -0.03005358726165297,
                -0.2237796964539467
            ]
        },
        {
            "positions": [
                2.666325923244242,
                -2.349020085699963,
                -0.4561647095138861,
                1.4434423917495953,
                0.0010749231494362466,
                -0.2438269622018924
            ]
        },
        {
            "positions": [
                2.760249355520388,
                -2.3906938039552976,
                -0.6177141009744658,
                1.413968139176273,
                0.032203433560525685,
                -0.2638742279498381
            ]
        },
        {
            "positions": [
                2.762518151662185,
                -2.3900842961503788,
                -0.7719069753259079,
                1.3825088187702006,
                0.07347233779151285,
                -0.22456625163239224
            ]
        },
        {
            "positions": [
                2.764786947803982,
                -2.3894747883454595,
                -0.92609984967735,
                1.3510494983641284,
                0.11474124202250002,
                -0.18525827531494635
            ]
        },
        {
            "positions": [
                2.7653349393713302,
                -2.389303541104656,
                -1.1336536615391166,
                1.3091611396927993,
                0.1738210034415938,
                -0.12999459679464245
            ]
        },
        {
            "positions": [
                2.758085337661224,
                -2.3948402669491156,
                -1.3304845681987327,
                1.2556345527178205,
                0.24073301820468074,
                -0.07573416146307389
            ]
        },
        {
            "positions": [
                2.750835735951118,
                -2.4003769927935745,
                -1.5273154748583486,
                1.2021079657428417,
                0.3076450329677677,
                -0.021473726131505333
            ]
        },
        {
            "positions": [
                2.7057303804720547,
                -2.437321722128188,
                -1.6003897989551572,
                1.0863129947316608,
                0.39174693227700186,
                0.001648767979789658
            ]
        },
        {
            "positions": [
                2.6606250249929917,
                -2.4742664514628023,
                -1.6734641230519658,
                0.9705180237204797,
                0.475848831586236,
                0.02477126209108465
            ]
        }
    ]
}