{
    "goal": {
        "global_pose": {
            "orientation": {
                "w": 0.7047431493862688,
                "x": -0.7094548369677653,
                "y": 0.0024358444001904,
                "z": -0.0022348060817251984
            },
            "position": {
                "x": -0.39052492380142206,
                "y": 0.3671506643295288,
                "z": 0.19426114857196808
            }
        },
        "name": "move_to_magneteinheit_D"
    },
    "id": "LBTRRT_move_to_magneteinheit_D_19",
    "joint_names": [
        "shoulder_pan_joint",
        "shoulder_lift_joint",
        "elbow_joint",
        "wrist_1_joint",
        "wrist_2_joint",
        "wrist_3_joint"
    ],
    "metrics": {
        "cart_traj_len": 4.716135609909704,
        "distance_elbow_joint": 3.9658877363085305,
        "distance_shoulder_lift_joint": 1.0960732155815487,
        "distance_shoulder_pan_joint": 3.701879734072598,
        "distance_wrist_1_joint": 2.103356941236801,
        "distance_wrist_2_joint": 1.6307578152012998,
        "distance_wrist_3_joint": 6.299239463967817,
        "smoothness": 0.30906570783723564,
        "time": 5.046002274999999,
        "traj_len": 4.335573192366678,
        "weighted_distance": 5.927038770814843
    },
    "planner": "LBTRRT",
    "start": {
        "state": {
            "elbow_joint": 0.749534889911806,
            "shoulder_lift_joint": -0.6476975780787326,
            "shoulder_pan_joint": -2.711696901376241,
            "wrist_1_joint": -0.07506478083263063,
            "wrist_2_joint": 0.43296659715538205,
            "wrist_3_joint": -3.14703540197715
        }
    },
    "waypoints": [
        {
            "positions": [
                -2.711696901376241,
                -0.6476975780787326,
                0.749534889911806,
                -0.07506478083263063,
                0.43296659715538205,
                -3.14703540197715
            ]
        },
        {
            "positions": [
                -2.7837045781848846,
                -0.7337194713279512,
                0.8206745416303117,
                -0.09395670784170843,
                0.3472328637125467,
                -3.09725636274639
            ]
        },
        {
            "positions": [
                -2.855712254993528,
                -0.8197413645771698,
                0.8918141933488175,
                -0.11284863485078622,
                0.2614991302697113,
                -3.0474773235156305
            ]
        },
        {
            "positions": [
                -2.927719931802172,
                -0.9057632578263886,
                0.9629538450673233,
                -0.13174056185986402,
                0.17576539682687592,
                -2.997698284284871
            ]
        },
        {
            "positions": [
                -2.9997276086108156,
                -0.9917851510756072,
                1.034093496785829,
                -0.15063248886894182,
                0.09003166338404056,
                -2.947919245054111
            ]
        },
        {
            "positions": [
                -3.071735285419459,
                -1.077807044324826,
                1.1052331485043347,
                -0.1695244158780196,
                0.0042979299412051475,
                -2.898140205823351
            ]
        },
        {
            "positions": [
                -3.1437429622281026,
                -1.1638289375740445,
                1.1763728002228406,
                -0.1884163428870974,
                -0.08143580350163027,
                -2.8483611665925914
            ]
        },
        {
            "positions": [
                -3.055300185061268,
                -1.1773282794093196,
                1.0928297205292343,
                -0.23743383165792392,
                -0.0666104944840986,
                -2.7078554851938472
            ]
        },
        {
            "positions": [
                -2.966857407894434,
                -1.1908276212445947,
                1.0092866408356282,
                -0.28645132042875043,
                -0.051785185466566935,
                -2.567349803795103
            ]
        },
        {
            "positions": [
                -2.8784146307275993,
                -1.2043269630798699,
                0.9257435611420219,
                -0.335468809199577,
                -0.03695987644903527,
                -2.426844122396359
            ]
        },
        {
            "positions": [
                -2.7899718535607647,
                -1.217826304915145,
                0.8422004814484156,
                -0.3844862979704035,
                -0.02213456743150361,
                -2.2863384409976146
            ]
        },
        {
            "positions": [
                -2.7015290763939306,
                -1.2313256467504199,
                0.7586574017548094,
                -0.43350378674123,
                -0.007309258413971939,
                -2.1458327595988704
            ]
        },
        {
            "positions": [
                -2.613086299227096,
                -1.244824988585695,
                0.6751143220612031,
                -0.4825212755120566,
                0.007516050603559726,
                -2.0053270782001262
            ]
        },
        {
            "positions": [
                -2.524643522060262,
                -1.2583243304209701,
                0.591571242367597,
                -0.531538764282883,
                0.022341359621091378,
                -1.864821396801382
            ]
        },
        {
            "positions": [
                -2.4362007448934273,
                -1.2718236722562453,
                0.5080281626739908,
                -0.5805562530537096,
                0.03716666863862304,
                -1.7243157154026378
            ]
        },
        {
            "positions": [
                -2.3477579677265927,
                -1.2853230140915204,
                0.42448508298038445,
                -0.6295737418245362,
                0.05199197765615471,
                -1.5838100340038936
            ]
        },
        {
            "positions": [
                -2.259315190559758,
                -1.2988223559267955,
                0.34094200328677826,
                -0.6785912305953627,
                0.06681728667368639,
                -1.4433043526051494
            ]
        },
        {
            "positions": [
                -2.170872413392924,
                -1.3123216977620706,
                0.25739892359317196,
                -0.7276087193661892,
                0.08164259569121804,
                -1.3027986712064052
            ]
        },
        {
            "positions": [
                -2.0824296362260895,
                -1.3258210395973458,
                0.17385584389956565,
                -0.7766262081370158,
                0.09646790470874972,
                -1.162292989807661
            ]
        },
        {
            "positions": [
                -1.9939868590592553,
                -1.3393203814326207,
                0.09031276420595957,
                -0.8256436969078422,
                0.11129321372628137,
                -1.021787308408917
            ]
        },
        {
            "positions": [
                -1.9055440818924207,
                -1.3528197232678958,
                0.006769684512353269,
                -0.8746611856786688,
                0.12611852274381302,
                -0.8812816270101727
            ]
        },
        {
            "positions": [
                -1.8171013047255864,
                -1.366319065103171,
                -0.07677339518125281,
                -0.9236786744494954,
                0.1409438317613447,
                -0.7407759456114285
            ]
        },
        {
            "positions": [
                -1.7286585275587518,
                -1.379818406938446,
                -0.16031647487485912,
                -0.9726961632203218,
                0.15576914077887635,
                -0.6002702642126843
            ]
        },
        {
            "positions": [
                -1.6402157503919175,
                -1.3933177487737212,
                -0.24385955456846542,
                -1.0217136519911483,
                0.17059444979640803,
                -0.45976458281394006
            ]
        },
        {
            "positions": [
                -1.5517729732250831,
                -1.4068170906089963,
                -0.3274026342620717,
                -1.0707311407619748,
                0.18541975881393968,
                -0.31925890141519586
            ]
        },
        {
            "positions": [
                -1.4633301960582485,
                -1.4203164324442714,
                -0.410945713955678,
                -1.1197486295328014,
                0.2002450678314714,
                -0.17875322001645166
            ]
        },
        {
            "positions": [
                -1.3748874188914142,
                -1.4338157742795465,
                -0.4944887936492841,
                -1.168766118303628,
                0.21507037684900304,
                -0.038247538617707466
            ]
        },
        {
            "positions": [
                -1.2864446417245796,
                -1.4473151161148214,
                -0.5780318733428904,
                -1.2177836070744545,
                0.2298956858665347,
                0.10225814278103673
            ]
        },
        {
            "positions": [
                -1.1980018645577453,
                -1.4608144579500966,
                -0.6615749530364967,
                -1.2668010958452811,
                0.24472099488406635,
                0.24276382417978093
            ]
        },
        {
            "positions": [
                -1.109559087390911,
                -1.4743137997853717,
                -0.745118032730103,
                -1.3158185846161077,
                0.25954630390159805,
                0.3832695055785251
            ]
        },
        {
            "positions": [
                -1.0211163102240763,
                -1.4878131416206468,
                -0.8286611124237093,
                -1.3648360733869342,
                0.2743716129191297,
                0.5237751869772693
            ]
        },
        {
            "positions": [
                -0.9326735330572418,
                -1.501312483455922,
                -0.9122041921173154,
                -1.4138535621577608,
                0.28919692193666136,
                0.664280868376014
            ]
        },
        {
            "positions": [
                -0.8442307558904081,
                -1.514811825291197,
                -0.9957472718109215,
                -1.462871050928587,
                0.304022230954193,
                0.8047865497747573
            ]
        },
        {
            "positions": [
                -0.7557879787235735,
                -1.5283111671264722,
                -1.0792903515045276,
                -1.5118885396994135,
                0.31884753997172466,
                0.9452922311735019
            ]
        },
        {
            "positions": [
                -0.6673452015567389,
                -1.5418105089617473,
                -1.162833431198134,
                -1.56090602847024,
                0.3336728489892563,
                1.0857979125722461
            ]
        },
        {
            "positions": [
                -0.5789024243899044,
                -1.5553098507970224,
                -1.2463765108917402,
                -1.6099235172410666,
                0.348498158006788,
                1.2263035939709899
            ]
        },
        {
            "positions": [
                -0.4904596472230702,
                -1.5688091926322976,
                -1.3299195905853463,
                -1.6589410060118932,
                0.36332346702431967,
                1.3668092753697345
            ]
        },
        {
            "positions": [
                -0.40201687005623565,
                -1.5823085344675725,
                -1.4134626702789528,
                -1.7079584947827198,
                0.3781487760418513,
                1.5073149567684783
            ]
        },
        {
            "positions": [
                -0.3135740928894011,
                -1.5958078763028476,
                -1.4970057499725589,
                -1.7569759835535463,
                0.39297408505938297,
                1.647820638167223
            ]
        },
        {
            "positions": [
                -0.22513131572256695,
                -1.6093072181381227,
                -1.5805488296661654,
                -1.805993472324373,
                0.4077993940769147,
                1.7883263195659667
            ]
        },
        {
            "positions": [
                -0.13668853855573232,
                -1.6228065599733978,
                -1.6640919093597715,
                -1.8550109610951993,
                0.4226247030944463,
                1.9288320009647115
            ]
        },
        {
            "positions": [
                -0.08820318892646703,
                -1.6379486171175293,
                -1.7533318905426654,
                -1.8922943456353036,
                0.37133819841882154,
                2.0657881513759713
            ]
        },
        {
            "positions": [
                -0.039717839297201754,
                -1.6530906742616607,
                -1.8425718717255593,
                -1.9295777301754078,
                0.32005169374319686,
                2.2027443017872312
            ]
        },
        {
            "positions": [
                -0.038175518180479234,
                -1.6666360498640764,
                -1.9271304014649653,
                -1.9653373998025003,
                0.24789298436932009,
                2.3446022954752834
            ]
        },
        {
            "positions": [
                -0.03663319706375672,
                -1.6801814254664922,
                -2.0116889312043713,
                -2.001097069429593,
                0.1757342749954433,
                2.486460289163335
            ]
        },
        {
            "positions": [
                -0.0350908759470342,
                -1.693726801068908,
                -2.0962474609437773,
                -2.0368567390566854,
                0.10357556562156653,
                2.628318282851387
            ]
        },
        {
            "positions": [
                -0.03354855483031168,
                -1.7072721766713235,
                -2.180805990683184,
                -2.0726164086837775,
                0.03141685624768975,
                2.770176276539439
            ]
        },
        {
            "positions": [
                -0.03200623371358917,
                -1.7208175522737392,
                -2.26536452042259,
                -2.10837607831087,
                -0.040741853126187055,
                2.9120342702274913
            ]
        },
        {
            "positions": [
                -0.03046391259686665,
                -1.734362927876155,
                -2.349923050161996,
                -2.1441357479379626,
                -0.11290056250006382,
                3.053892263915543
            ]
        },
        {
            "positions": [
                -0.1870185361863657,
                -1.7437707936602813,
                -2.362677025774656,
                -2.1784217220694315,
                -0.18967020485376548,
                3.1522040619906657
            ]
        }
    ]
}