{
    "goal": {
        "global_pose": {
            "orientation": {
                "w": 0.7047431468963623,
                "x": -0.7094548344612122,
                "y": 0.0024358443915843964,
                "z": -0.0022348060738295317
            },
            "position": {
                "x": 0.6094750761985779,
                "y": 0.3671506643295288,
                "z": 0.19426114857196808
            }
        },
        "name": "move_to_magneteinheit_A"
    },
    "id": "LBTRRT_move_to_magneteinheit_A_89",
    "joint_names": [
        "shoulder_pan_joint",
        "shoulder_lift_joint",
        "elbow_joint",
        "wrist_1_joint",
        "wrist_2_joint",
        "wrist_3_joint"
    ],
    "metrics": {
        "cart_traj_len": 3.514253254112595,
        "distance_elbow_joint": 3.9074999685545713,
        "distance_shoulder_lift_joint": 0.0951330467415945,
        "distance_shoulder_pan_joint": 2.721201486991642,
        "distance_wrist_1_joint": 0.7070083634094476,
        "distance_wrist_2_joint": 1.7081298365357969,
        "distance_wrist_3_joint": 3.6153969204351397,
        "smoothness": 0.09101907228503568,
        "time": 5.024504458,
        "traj_len": 3.5713260314158086,
        "weighted_distance": 4.732895695394493
    },
    "planner": "LBTRRT",
    "start": {
        "state": {
            "elbow_joint": -1.9196185241190666,
            "shoulder_lift_joint": -1.2443396400964142,
            "shoulder_pan_joint": 2.6996025414629847,
            "wrist_1_joint": -1.5485510000780065,
            "wrist_2_joint": -1.5709468930060704,
            "wrist_3_joint": 0.4420197071253992
        }
    },
    "waypoints": [
        {
            "positions": [
                2.6996025414629847,
                -1.2443396400964142,
                -1.9196185241190666,
                -1.5485510000780065,
                -1.5709468930060704,
                0.4420197071253992
            ]
        },
        {
            "positions": [
                2.6140913643057866,
                -1.2439654180644608,
                -1.8120336065909741,
                -1.533096718970528,
                -1.521083465027237,
                0.3106388091046737
            ]
        },
        {
            "positions": [
                2.528580187148589,
                -1.2435911960325072,
                -1.7044486890628818,
                -1.5176424378630495,
                -1.4712200370484032,
                0.17925791108394817
            ]
        },
        {
            "positions": [
                2.4430690099913908,
                -1.2432169740005539,
                -1.5968637715347893,
                -1.502188156755571,
                -1.4213566090695697,
                0.04787701306322262
            ]
        },
        {
            "positions": [
                2.3575578328341926,
                -1.2428427519686005,
                -1.489278854006697,
                -1.4867338756480928,
                -1.371493181090736,
                -0.08350388495750283
            ]
        },
        {
            "positions": [
                2.2720466556769945,
                -1.242468529936647,
                -1.3816939364786045,
                -1.4712795945406143,
                -1.3216297531119026,
                -0.21488478297822844
            ]
        },
        {
            "positions": [
                2.1865354785197963,
                -1.2420943079046936,
                -1.274109018950512,
                -1.4558253134331358,
                -1.2717663251330689,
                -0.34626568099895394
            ]
        },
        {
            "positions": [
                2.1010243013625987,
                -1.2417200858727402,
                -1.1665241014224197,
                -1.4403710323256573,
                -1.2219028971542354,
                -0.47764657901967944
            ]
        },
        {
            "positions": [
                2.0155131242054005,
                -1.2413458638407866,
                -1.0589391838943274,
                -1.4249167512181788,
                -1.1720394691754017,
                -0.6090274770404048
            ]
        },
        {
            "positions": [
                1.9300019470482026,
                -1.2409716418088332,
                -0.9513542663662349,
                -1.4094624701107004,
                -1.1221760411965682,
                -0.7404083750611304
            ]
        },
        {
            "positions": [
                1.8444907698910047,
                -1.2405974197768799,
                -0.8437693488381424,
                -1.3940081890032219,
                -1.0723126132177345,
                -0.871789273081856
            ]
        },
        {
            "positions": [
                1.7589795927338066,
                -1.2402231977449263,
                -0.7361844313100501,
                -1.3785539078957436,
                -1.022449185238901,
                -1.0031701711025813
            ]
        },
        {
            "positions": [
                1.6734684155766084,
                -1.239848975712973,
                -0.6285995137819576,
                -1.3630996267882651,
                -0.9725857572600675,
                -1.1345510691233072
            ]
        },
        {
            "positions": [
                1.5879572384194105,
                -1.2394747536810196,
                -0.5210145962538653,
                -1.3476453456807866,
                -0.9227223292812339,
                -1.2659319671440326
            ]
        },
        {
            "positions": [
                1.5024460612622126,
                -1.239100531649066,
                -0.41342967872577274,
                -1.3321910645733082,
                -0.8728589013024003,
                -1.397312865164758
            ]
        },
        {
            "positions": [
                1.4169348841050144,
                -1.2387263096171126,
                -0.3058447611976802,
                -1.3167367834658297,
                -0.8229954733235666,
                -1.5286937631854838
            ]
        },
        {
            "positions": [
                1.3314237069478165,
                -1.2383520875851592,
                -0.19825984366958793,
                -1.3012825023583512,
                -0.7731320453447331,
                -1.6600746612062087
            ]
        },
        {
            "positions": [
                1.2459125297906184,
                -1.2379778655532057,
                -0.09067492614149542,
                -1.2858282212508727,
                -0.7232686173658994,
                -1.7914555592269346
            ]
        },
        {
            "positions": [
                1.1604013526334205,
                -1.2376036435212523,
                0.01690999138659688,
                -1.2703739401433944,
                -0.673405189387066,
                -1.92283645724766
            ]
        },
        {
            "positions": [
                1.0748901754762223,
                -1.237229421489299,
                0.12449490891468962,
                -1.254919659035916,
                -0.6235417614082324,
                -2.054217355268386
            ]
        },
        {
            "positions": [
                0.9893789983190244,
                -1.2368551994573453,
                0.2320798264427819,
                -1.2394653779284375,
                -0.5736783334293988,
                -2.185598253289111
            ]
        },
        {
            "positions": [
                0.9038678211618263,
                -1.236480977425392,
                0.3396647439708742,
                -1.224011096820959,
                -0.5238149054505652,
                -2.3169791513098366
            ]
        },
        {
            "positions": [
                0.8183566440046284,
                -1.2361067553934386,
                0.4472496614989665,
                -1.2085568157134805,
                -0.4739514774717317,
                -2.448360049330562
            ]
        },
        {
            "positions": [
                0.7328454668474302,
                -1.235732533361485,
                0.5548345790270592,
                -1.1931025346060022,
                -0.424088049492898,
                -2.579740947351288
            ]
        },
        {
            "positions": [
                0.6473342896902321,
                -1.2353583113295317,
                0.6624194965551515,
                -1.1776482534985238,
                -0.37422462151406455,
                -2.711121845372013
            ]
        },
        {
            "positions": [
                0.561823112533034,
                -1.2349840892975783,
                0.7700044140832438,
                -1.1621939723910453,
                -0.32436119353523085,
                -2.8425027433927386
            ]
        },
        {
            "positions": [
                0.47631193537583627,
                -1.2346098672656247,
                0.8775893316113361,
                -1.1467396912835668,
                -0.2744977655563974,
                -2.973883641413464
            ]
        },
        {
            "positions": [
                0.3908007582186379,
                -1.2342356452336714,
                0.9851742491394289,
                -1.1312854101760883,
                -0.22463433757756374,
                -3.10526453943419
            ]
        },
        {
            "positions": [
                0.2885608894375565,
                -1.2210497757274634,
                1.074555764490468,
                -1.1095037882450969,
                -0.19634156725135332,
                -3.1208868375867085
            ]
        },
        {
            "positions": [
                0.20922327316346762,
                -1.2085940664003139,
                1.1758214340260542,
                -1.0829998268280134,
                -0.16248146427053756,
                -3.1326323232985716
            ]
        },
        {
            "positions": [
                0.12988565688937875,
                -1.196138357073164,
                1.2770871035616405,
                -1.0564958654109298,
                -0.12862136128972182,
                -3.144377809010435
            ]
        },
        {
            "positions": [
                0.050548040615289905,
                -1.1836826477460145,
                1.3783527730972267,
                -1.0299919039938463,
                -0.09476125830890605,
                -3.156123294722298
            ]
        },
        {
            "positions": [
                0.07162942495745543,
                -1.1722519832639475,
                1.567580354075022,
                -0.971845331337864,
                -0.02301397327255425,
                -3.1510489249346443
            ]
        },
        {
            "positions": [
                0.09271080929962096,
                -1.1608213187818806,
                1.7568079350528172,
                -0.9136987586818818,
                0.048733311763797554,
                -3.1459745551469904
            ]
        },
        {
            "positions": [
                0.11379219364178648,
                -1.1493906542998136,
                1.9460355160306124,
                -0.8555521860258994,
                0.12048059680014939,
                -3.1409001853593366
            ]
        },
        {
            "positions": [
                0.12269502675923809,
                -1.1492065933548197,
                1.9878814444355044,
                -0.8415426366685589,
                0.1371829435297264,
                -3.1429309945838173
            ]
        }
    ]
}