{
    "goal": {
        "global_pose": {
            "orientation": {
                "w": -0.4816463035849501,
                "x": 0.5182115481033762,
                "y": 0.4908360881923453,
                "z": -0.5084816262002911
            },
            "position": {
                "x": -0.8240239810943604,
                "y": -0.300875300988555,
                "z": 0.16403168439865112
            }
        },
        "name": "move_to_storage_C"
    },
    "id": "LBTRRT_move_to_storage_C_73",
    "joint_names": [
        "shoulder_pan_joint",
        "shoulder_lift_joint",
        "elbow_joint",
        "wrist_1_joint",
        "wrist_2_joint",
        "wrist_3_joint"
    ],
    "metrics": {
        "cart_traj_len": 0.5765724726143999,
        "distance_elbow_joint": 0.2564965277605513,
        "distance_shoulder_lift_joint": 0.19043958296190056,
        "distance_shoulder_pan_joint": 0.4928414736386575,
        "distance_wrist_1_joint": 0.06877745175903693,
        "distance_wrist_2_joint": 1.0804384433885574,
        "distance_wrist_3_joint": 0.061554036015558644,
        "smoothness": 2.5376526478085547e-16,
        "time": 5.007093243,
        "traj_len": 1.4664745192209316,
        "weighted_distance": 1.850100398006274
    },
    "planner": "LBTRRT",
    "start": {
        "state": {
            "elbow_joint": 2.010868314990456,
            "shoulder_lift_joint": -1.1634956873337592,
            "shoulder_pan_joint": -2.4736205022346125,
            "wrist_1_joint": -0.8367026794202681,
            "wrist_2_joint": 0.6746043897044499,
            "wrist_3_joint": -3.1496632123970403
        }
    },
    "waypoints": [
        {
            "positions": [
                -2.4736205022346125,
                -1.1634956873337592,
                2.010868314990456,
                -0.8367026794202681,
                0.6746043897044499,
                -3.1496632123970403
            ]
        },
        {
            "positions": [
                -2.5557607478410556,
                -1.131755756840109,
                1.9681188936970306,
                -0.825239770793762,
                0.8546774636025428,
                -3.139404206394447
            ]
        },
        {
            "positions": [
                -2.637900993447498,
                -1.100015826346459,
                1.9253694724036055,
                -0.8137768621672558,
                1.0347505375006358,
                -3.129145200391854
            ]
        },
        {
            "positions": [
                -2.7200412390539412,
                -1.068275895852809,
                1.8826200511101803,
                -0.8023139535407496,
                1.2148236113987285,
                -3.118886194389261
            ]
        },
        {
            "positions": [
                -2.8021814846603843,
                -1.0365359653591588,
                1.8398706298167549,
                -0.7908510449142435,
                1.3948966852968216,
                -3.108627188386668
            ]
        },
        {
            "positions": [
                -2.884321730266827,
                -1.0047960348655087,
                1.7971212085233297,
                -0.7793881362877373,
                1.5749697591949143,
                -3.0983681823840747
            ]
        },
        {
            "positions": [
                -2.96646197587327,
                -0.9730561043718586,
                1.7543717872299045,
                -0.7679252276612312,
                1.7550428330930072,
                -3.0881091763814816
            ]
        }
    ]
}