{
    "goal": {
        "global_pose": {
            "orientation": {
                "w": 0.7031023480610252,
                "x": -0.7110244013736278,
                "y": 0.0077485991402295624,
                "z": 0.005598929693374583
            },
            "position": {
                "x": -0.8841497679147869,
                "y": 0.44412534475326537,
                "z": 0.3711530566215515
            }
        },
        "name": "move_to_auspresseinheit_D"
    },
    "id": "LBTRRT_move_to_auspresseinheit_D_93",
    "joint_names": [
        "shoulder_pan_joint",
        "shoulder_lift_joint",
        "elbow_joint",
        "wrist_1_joint",
        "wrist_2_joint",
        "wrist_3_joint"
    ],
    "metrics": {
        "cart_traj_len": 0.34423299361093895,
        "distance_elbow_joint": 0.6651096081702788,
        "distance_shoulder_lift_joint": 0.1364504909689308,
        "distance_shoulder_pan_joint": 0.1334767926508623,
        "distance_wrist_1_joint": 0.6139624997769526,
        "distance_wrist_2_joint": 1.4417676587970885,
        "distance_wrist_3_joint": 0.07435113996148912,
        "smoothness": 1.9737298371844314e-16,
        "time": 5.005111273,
        "traj_len": 1.7507478945655202,
        "weighted_distance": 2.2955501799835747
    },
    "planner": "LBTRRT",
    "start": {
        "state": {
            "elbow_joint": -1.8275523626775212,
            "shoulder_lift_joint": -2.126789852344167,
            "shoulder_pan_joint": -0.03513704404078235,
            "wrist_1_joint": -2.347782403156801,
            "wrist_2_joint": -1.6058999987535132,
            "wrist_3_joint": -3.0880379163319196
        }
    },
    "waypoints": [
        {
            "positions": [
                -0.03513704404078235,
                -2.126789852344167,
                -1.8275523626775212,
                -2.347782403156801,
                -1.6058999987535132,
                -3.0880379163319196
            ]
        },
        {
            "positions": [
                -0.05182164312214013,
                -2.143846163715283,
                -1.7444136616562362,
                -2.42452771562892,
                -1.4256790414038771,
                -3.0787440238367334
            ]
        },
        {
            "positions": [
                -0.06850624220349792,
                -2.1609024750863997,
                -1.6612749606349515,
                -2.501273028101039,
                -1.245458084054241,
                -3.069450131341547
            ]
        },
        {
            "positions": [
                -0.08519084128485571,
                -2.177958786457516,
                -1.5781362596136668,
                -2.5780183405731583,
                -1.065237126704605,
                -3.060156238846361
            ]
        },
        {
            "positions": [
                -0.10187544036621349,
                -2.195015097828632,
                -1.4949975585923818,
                -2.6547636530452774,
                -0.885016169354969,
                -3.050862346351175
            ]
        },
        {
            "positions": [
                -0.11856003944757129,
                -2.2120714091997487,
                -1.4118588575710969,
                -2.731508965517396,
                -0.7047952120053329,
                -3.041568453855989
            ]
        },
        {
            "positions": [
                -0.13524463852892907,
                -2.229127720570865,
                -1.3287201565498121,
                -2.808254277989515,
                -0.5245742546556968,
                -3.032274561360803
            ]
        },
        {
            "positions": [
                -0.15192923761028684,
                -2.2461840319419815,
                -1.2455814555285274,
                -2.8849995904616343,
                -0.3443532973060608,
                -3.0229806688656167
            ]
        },
        {
            "positions": [
                -0.16861383669164465,
                -2.2632403433130976,
                -1.1624427545072424,
                -2.9617449029337535,
                -0.16413233995642465,
                -3.0136867763704305
            ]
        }
    ]
}