{
    "goal": {
        "global_pose": {
            "orientation": {
                "w": -0.4816463035849501,
                "x": 0.5182115481033762,
                "y": 0.4908360881923453,
                "z": -0.5084816262002911
            },
            "position": {
                "x": -0.8240239810943604,
                "y": 0.19912469901144506,
                "z": 0.16403168439865112
            }
        },
        "name": "move_to_storage_D"
    },
    "id": "LBTRRT_move_to_storage_D_4",
    "joint_names": [
        "shoulder_pan_joint",
        "shoulder_lift_joint",
        "elbow_joint",
        "wrist_1_joint",
        "wrist_2_joint",
        "wrist_3_joint"
    ],
    "metrics": {
        "cart_traj_len": 0.9722780171464626,
        "distance_elbow_joint": 1.0790290508708875,
        "distance_shoulder_lift_joint": 1.169020614928693,
        "distance_shoulder_pan_joint": 0.34326033779246534,
        "distance_wrist_1_joint": 3.8662904809120358,
        "distance_wrist_2_joint": 2.594959846329032,
        "distance_wrist_3_joint": 3.131916307658017,
        "smoothness": 0.11048744940249247,
        "time": 5.019844609000001,
        "traj_len": 3.4906269692551115,
        "weighted_distance": 4.990947763806814
    },
    "planner": "LBTRRT",
    "start": {
        "state": {
            "elbow_joint": -2.384821988534728,
            "shoulder_lift_joint": -2.2788054721415256,
            "shoulder_pan_joint": -0.1854694642142757,
            "wrist_1_joint": 1.4845938289331202,
            "wrist_2_joint": 0.17898776772866878,
            "wrist_3_joint": 0.037105688729662994
        }
    },
    "waypoints": [
        {
            "positions": [
                -0.1854694642142757,
                -2.2788054721415256,
                -2.384821988534728,
                1.4845938289331202,
                0.17898776772866878,
                0.037105688729662994
            ]
        },
        {
            "positions": [
                -0.1820508643514609,
                -2.172137460752616,
                -2.4522222537667346,
                1.4888133515582798,
                0.2641062425113574,
                -0.0016367085782781898
            ]
        },
        {
            "positions": [
                -0.17863226448864608,
                -2.065469449363706,
                -2.519622518998742,
                1.4930328741834393,
                0.349224717294046,
                -0.040379105886219374
            ]
        },
        {
            "positions": [
                -0.17521366462583127,
                -1.9588014379747962,
                -2.5870227842307485,
                1.497252396808599,
                0.43434319207673466,
                -0.07912150319416057
            ]
        },
        {
            "positions": [
                -0.1616163362018025,
                -1.8881485913924132,
                -2.6062091599827757,
                1.4318407063104355,
                0.47225958474135943,
                -0.1464278005733236
            ]
        },
        {
            "positions": [
                -0.14801900777777371,
                -1.8174957448100304,
                -2.6253955357348024,
                1.3664290158122718,
                0.5101759774059842,
                -0.2137340979524866
            ]
        },
        {
            "positions": [
                -0.13442167935374494,
                -1.7468428982276474,
                -2.6445819114868296,
                1.3010173253141084,
                0.548092370070609,
                -0.28104039533164965
            ]
        },
        {
            "positions": [
                -0.1129433662676321,
                -1.6828673101876213,
                -2.6413655564017295,
                1.1866225401966357,
                0.5674927174335254,
                -0.37566776370953203
            ]
        },
        {
            "positions": [
                -0.09146505318151928,
                -1.6188917221475951,
                -2.638149201316629,
                1.0722277550791628,
                0.5868930647964419,
                -0.47029513208741447
            ]
        },
        {
            "positions": [
                -0.08187602827599447,
                -1.623396909928739,
                -2.603203068890024,
                0.9207502960272087,
                0.5155855889435882,
                -0.5834379908368146
            ]
        },
        {
            "positions": [
                -0.07228700337046964,
                -1.627902097709883,
                -2.568256936463419,
                0.7692728369752545,
                0.44427811309073445,
                -0.6965808495862147
            ]
        },
        {
            "positions": [
                -0.06269797846494482,
                -1.6324072854910268,
                -2.533310804036814,
                0.6177953779233003,
                0.3729706372378807,
                -0.8097237083356147
            ]
        },
        {
            "positions": [
                -0.05310895355942001,
                -1.6369124732721707,
                -2.4983646716102093,
                0.4663179188713462,
                0.301663161385027,
                -0.9228665670850148
            ]
        },
        {
            "positions": [
                -0.043519928653895194,
                -1.6414176610533147,
                -2.4634185391836043,
                0.3148404598193921,
                0.23035568553217334,
                -1.0360094258344148
            ]
        },
        {
            "positions": [
                -0.03393090374837038,
                -1.6459228488344584,
                -2.4284724067569994,
                0.16336300076743793,
                0.1590482096793196,
                -1.149152284583815
            ]
        },
        {
            "positions": [
                -0.02434187884284557,
                -1.6504280366156023,
                -2.3935262743303944,
                0.011885541715483727,
                0.08774073382646586,
                -1.262295143333215
            ]
        },
        {
            "positions": [
                -0.014752853937320745,
                -1.6549332243967463,
                -2.35858014190379,
                -0.13959191733647036,
                0.01643325797361217,
                -1.3754380020826151
            ]
        },
        {
            "positions": [
                -0.005163829031795922,
                -1.6594384121778902,
                -2.3236340094771846,
                -0.29106937638842445,
                -0.054874217879241516,
                -1.4885808608320152
            ]
        },
        {
            "positions": [
                0.004425195873728888,
                -1.6639435999590342,
                -2.28868787705058,
                -0.44254683544037854,
                -0.1261816937320952,
                -1.6017237195814154
            ]
        },
        {
            "positions": [
                0.014014220779253697,
                -1.668448787740178,
                -2.253741744623975,
                -0.5940242944923328,
                -0.197489169584949,
                -1.7148665783308155
            ]
        },
        {
            "positions": [
                0.02360324568477852,
                -1.6729539755213219,
                -2.21879561219737,
                -0.7455017535442869,
                -0.2687966454378027,
                -1.8280094370802153
            ]
        },
        {
            "positions": [
                0.033192270590303344,
                -1.6774591633024658,
                -2.1838494797707653,
                -0.896979212596241,
                -0.34010412129065637,
                -1.9411522958296155
            ]
        },
        {
            "positions": [
                0.04278129549582814,
                -1.6819643510836095,
                -2.1489033473441603,
                -1.0484566716481953,
                -0.41141159714351017,
                -2.0542951545790156
            ]
        },
        {
            "positions": [
                0.05237032040135296,
                -1.6864695388647535,
                -2.1139572149175554,
                -1.1999341307001494,
                -0.48271907299636374,
                -2.1674380133284155
            ]
        },
        {
            "positions": [
                0.061959345306877786,
                -1.6909747266458974,
                -2.0790110824909505,
                -1.3514115897521037,
                -0.5540265488492175,
                -2.280580872077816
            ]
        },
        {
            "positions": [
                0.05237619247974662,
                -1.7346771126895435,
                -2.0536412525986596,
                -1.4519083823996892,
                -0.6586400424107774,
                -2.3620038467628697
            ]
        },
        {
            "positions": [
                0.04279303965261545,
                -1.7783794987331896,
                -2.028271422706369,
                -1.5524051750472747,
                -0.7632535359723374,
                -2.4434268214479236
            ]
        },
        {
            "positions": [
                0.033209886825484286,
                -1.8220818847768354,
                -2.0029015928140783,
                -1.65290196769486,
                -0.8678670295338973,
                -2.5248497961329774
            ]
        },
        {
            "positions": [
                0.02362673399835312,
                -1.8657842708204815,
                -1.977531762921788,
                -1.7533987603424455,
                -0.9724805230954572,
                -2.6062727708180313
            ]
        },
        {
            "positions": [
                0.014043581171221953,
                -1.9094866568641276,
                -1.952161933029497,
                -1.853895552990031,
                -1.0770940166570169,
                -2.6876957455030848
            ]
        },
        {
            "positions": [
                0.004460428344090786,
                -1.9531890429077736,
                -1.9267921031372064,
                -1.9543923456376162,
                -1.181707510218577,
                -2.7691187201881386
            ]
        },
        {
            "positions": [
                -0.005122724483040381,
                -1.9968914289514195,
                -1.9014222732449158,
                -2.0548891382852017,
                -1.2863210037801367,
                -2.8505416948731925
            ]
        },
        {
            "positions": [
                -0.014705877310171547,
                -2.0405938149950655,
                -1.876052443352625,
                -2.155385930932787,
                -1.3909344973416968,
                -2.9319646695582464
            ]
        },
        {
            "positions": [
                -0.024289030137302714,
                -2.0842962010387116,
                -1.8506826134603345,
                -2.2558827235803727,
                -1.4955479909032565,
                -3.0133876442433003
            ]
        },
        {
            "positions": [
                -0.03387218296443388,
                -2.1279985870823577,
                -1.8253127835680438,
                -2.356379516227958,
                -1.6001614844648164,
                -3.094810618928354
            ]
        }
    ]
}