{
    "goal": {
        "global_pose": {
            "orientation": {
                "w": 0.7031023480610252,
                "x": -0.7110244013736278,
                "y": 0.0077485991402295624,
                "z": 0.005598929693374583
            },
            "position": {
                "x": -0.8841497679147869,
                "y": 0.44412534475326537,
                "z": 0.3711530566215515
            }
        },
        "name": "move_to_auspresseinheit_D"
    },
    "id": "LBTRRT_move_to_auspresseinheit_D_58",
    "joint_names": [
        "shoulder_pan_joint",
        "shoulder_lift_joint",
        "elbow_joint",
        "wrist_1_joint",
        "wrist_2_joint",
        "wrist_3_joint"
    ],
    "metrics": {
        "cart_traj_len": 0.34342086728587956,
        "distance_elbow_joint": 0.6541549065484613,
        "distance_shoulder_lift_joint": 0.13035907874408537,
        "distance_shoulder_pan_joint": 0.13338067951120086,
        "distance_wrist_1_joint": 0.5833214611929942,
        "distance_wrist_2_joint": 1.4402252382906953,
        "distance_wrist_3_joint": 0.04301525749763835,
        "smoothness": 0.0,
        "time": 5.005041245,
        "traj_len": 1.727557993754501,
        "weighted_distance": 2.2569966407294544
    },
    "planner": "LBTRRT",
    "start": {
        "state": {
            "elbow_joint": -1.8275523626775212,
            "shoulder_lift_joint": -2.126789852344167,
            "shoulder_pan_joint": -0.03513704404078235,
            "wrist_1_joint": -2.347782403156801,
            "wrist_2_joint": -1.6058999987535132,
            "wrist_3_joint": -3.0880379163319196
        }
    },
    "waypoints": [
        {
            "positions": [
                -0.03513704404078235,
                -2.126789852344167,
                -1.8275523626775212,
                -2.347782403156801,
                -1.6058999987535132,
                -3.0880379163319196
            ]
        },
        {
            "positions": [
                -0.05180962897968246,
                -2.1430847371871775,
                -1.7457829993589635,
                -2.420697585805925,
                -1.4258718439671763,
                -3.0826610091447146
            ]
        },
        {
            "positions": [
                -0.06848221391858256,
                -2.159379622030188,
                -1.6640136360404059,
                -2.4936127684550495,
                -1.2458436891808393,
                -3.07728410195751
            ]
        },
        {
            "positions": [
                -0.08515479885748267,
                -2.175674506873199,
                -1.5822442727218482,
                -2.566527951104174,
                -1.0658155343945026,
                -3.071907194770305
            ]
        },
        {
            "positions": [
                -0.10182738379638279,
                -2.1919693917162095,
                -1.5004749094032905,
                -2.639443133753298,
                -0.8857873796081656,
                -3.0665302875831006
            ]
        },
        {
            "positions": [
                -0.1184999687352829,
                -2.20826427655922,
                -1.4187055460847329,
                -2.712358316402422,
                -0.7057592248218286,
                -3.0611533803958957
            ]
        },
        {
            "positions": [
                -0.135172553674183,
                -2.224559161402231,
                -1.3369361827661752,
                -2.7852734990515464,
                -0.5257310700354918,
                -3.0557764732086907
            ]
        },
        {
            "positions": [
                -0.1518451386130831,
                -2.2408540462452415,
                -1.2551668194476175,
                -2.8581886817006708,
                -0.34570291524915486,
                -3.050399566021486
            ]
        },
        {
            "positions": [
                -0.16851772355198322,
                -2.257148931088252,
                -1.1733974561290599,
                -2.931103864349795,
                -0.16567476046281793,
                -3.0450226588342812
            ]
        }
    ]
}