{
    "goal": {
        "global_pose": {
            "orientation": {
                "w": 0.005598929693374612,
                "x": 0.007748599140229565,
                "y": 0.7110244013736278,
                "z": -0.7031023480610252
            },
            "position": {
                "x": -0.8858502320852131,
                "y": -0.7141253447532654,
                "z": 0.3711530566215515
            }
        },
        "name": "move_to_auspresseinheit_C"
    },
    "id": "LBTRRT_move_to_auspresseinheit_C_74",
    "joint_names": [
        "shoulder_pan_joint",
        "shoulder_lift_joint",
        "elbow_joint",
        "wrist_1_joint",
        "wrist_2_joint",
        "wrist_3_joint"
    ],
    "metrics": {
        "cart_traj_len": 0.4935107484562744,
        "distance_elbow_joint": 1.003455737572366,
        "distance_shoulder_lift_joint": 0.3271262025056463,
        "distance_shoulder_pan_joint": 0.2562592700146413,
        "distance_wrist_1_joint": 0.6784667495048319,
        "distance_wrist_2_joint": 1.3152812621632235,
        "distance_wrist_3_joint": 0.04855749078774885,
        "smoothness": 1.6148698667872622e-16,
        "time": 5.004823871,
        "traj_len": 1.9050319452829283,
        "weighted_distance": 2.391654177717174
    },
    "planner": "LBTRRT",
    "start": {
        "state": {
            "elbow_joint": 1.7527959577737207,
            "shoulder_lift_joint": -0.9740617694225068,
            "shoulder_pan_joint": -2.967991417825858,
            "wrist_1_joint": -0.759517768980727,
            "wrist_2_joint": 1.7443932448377408,
            "wrist_3_joint": -3.0840537646736568
        }
    },
    "waypoints": [
        {
            "positions": [
                -2.967991417825858,
                -0.9740617694225068,
                1.7527959577737207,
                -0.759517768980727,
                1.7443932448377408,
                -3.0840537646736568
            ]
        },
        {
            "positions": [
                -2.9423654908243937,
                -0.9413491491719421,
                1.6524503840164841,
                -0.6916710940302437,
                1.6128651186214185,
                -3.088909513752432
            ]
        },
        {
            "positions": [
                -2.91673956382293,
                -0.9086365289213775,
                1.5521048102592474,
                -0.6238244190797606,
                1.481336992405096,
                -3.0937652628312065
            ]
        },
        {
            "positions": [
                -2.8911136368214656,
                -0.8759239086708129,
                1.4517592365020109,
                -0.5559777441292775,
                1.3498088661887737,
                -3.0986210119099815
            ]
        },
        {
            "positions": [
                -2.8654877098200013,
                -0.8432112884202483,
                1.3514136627447741,
                -0.48813106917879423,
                1.2182807399724513,
                -3.103476760988756
            ]
        },
        {
            "positions": [
                -2.839861782818537,
                -0.8104986681696836,
                1.2510680889875376,
                -0.42028439422831104,
                1.0867526137561292,
                -3.108332510067531
            ]
        },
        {
            "positions": [
                -2.8142358558170733,
                -0.777786047919119,
                1.1507225152303011,
                -0.35243771927782785,
                0.9552244875398067,
                -3.1131882591463063
            ]
        },
        {
            "positions": [
                -2.788609928815609,
                -0.7450734276685544,
                1.0503769414730644,
                -0.2845910443273447,
                0.8236963613234844,
                -3.118044008225081
            ]
        },
        {
            "positions": [
                -2.7629840018141447,
                -0.7123608074179897,
                0.9500313677158277,
                -0.21674436937686148,
                0.6921682351071621,
                -3.122899757303856
            ]
        },
        {
            "positions": [
                -2.737358074812681,
                -0.6796481871674251,
                0.8496857939585912,
                -0.14889769442637824,
                0.5606401088908397,
                -3.1277555063826306
            ]
        },
        {
            "positions": [
                -2.7117321478112166,
                -0.6469355669168605,
                0.7493402202013547,
                -0.0810510194758951,
                0.4291119826745174,
                -3.1326112554614056
            ]
        }
    ]
}