{
    "goal": {
        "global_pose": {
            "orientation": {
                "w": 0.5084816217422485,
                "x": -0.49083608388900757,
                "y": 0.5182115435600281,
                "z": -0.4816462993621826
            },
            "position": {
                "x": 0.5540239810943604,
                "y": 0.030875300988554955,
                "z": 0.16403168439865112
            }
        },
        "name": "move_to_storage_A"
    },
    "id": "LBTRRT_move_to_storage_A_126",
    "joint_names": [
        "shoulder_pan_joint",
        "shoulder_lift_joint",
        "elbow_joint",
        "wrist_1_joint",
        "wrist_2_joint",
        "wrist_3_joint"
    ],
    "metrics": {
        "cart_traj_len": 0.3533249596792399,
        "distance_elbow_joint": 0.44798028583211313,
        "distance_shoulder_lift_joint": 0.23361521774613414,
        "distance_shoulder_pan_joint": 0.46182900836946245,
        "distance_wrist_1_joint": 0.23599879741270768,
        "distance_wrist_2_joint": 1.0994906640873938,
        "distance_wrist_3_joint": 0.10378358070500004,
        "smoothness": 1.7763568391112168e-15,
        "time": 5.004163659,
        "traj_len": 1.607077332972129,
        "weighted_distance": 2.031195258231693
    },
    "planner": "LBTRRT",
    "start": {
        "state": {
            "elbow_joint": 1.971548259319323,
            "shoulder_lift_joint": -1.1394851275133948,
            "shoulder_pan_joint": 0.1228115487234821,
            "wrist_1_joint": -0.7804723859257726,
            "wrist_2_joint": 0.12958671773740124,
            "wrist_3_joint": -3.192489227718131
        }
    },
    "waypoints": [
        {
            "positions": [
                0.1228115487234821,
                -1.1394851275133948,
                1.971548259319323,
                -0.7804723859257726,
                0.12958671773740124,
                -3.192489227718131
            ]
        },
        {
            "positions": [
                0.05683597609927318,
                -1.172858730048557,
                2.035545443009625,
                -0.8141864998418737,
                0.2866568126070289,
                -3.1776630019031313
            ]
        },
        {
            "positions": [
                -0.009139596524935734,
                -1.2062323325837188,
                2.0995426266999266,
                -0.8479006137579748,
                0.44372690747665655,
                -3.162836776088131
            ]
        },
        {
            "positions": [
                -0.07511516914914465,
                -1.2396059351188808,
                2.163539810390229,
                -0.8816147276740759,
                0.6007970023462843,
                -3.1480105502731313
            ]
        },
        {
            "positions": [
                -0.14109074177335357,
                -1.272979537654043,
                2.2275369940805305,
                -0.915328841590177,
                0.7578670972159119,
                -3.133184324458131
            ]
        },
        {
            "positions": [
                -0.2070663143975625,
                -1.306353140189205,
                2.2915341777708322,
                -0.949042955506278,
                0.9149371920855397,
                -3.118358098643131
            ]
        },
        {
            "positions": [
                -0.2730418870217714,
                -1.3397267427243669,
                2.3555313614611344,
                -0.9827570694223792,
                1.0720072869551673,
                -3.103531872828131
            ]
        },
        {
            "positions": [
                -0.33901745964598035,
                -1.373100345259529,
                2.419528545151436,
                -1.0164711833384803,
                1.229077381824795,
                -3.088705647013131
            ]
        }
    ]
}{
    "goal": {
        "global_pose": {
            "orientation": {
                "w": 0.5084816217422485,
                "x": -0.49083608388900757,
                "y": 0.5182115435600281,
                "z": -0.4816462993621826
            },
            "position": {
                "x": 0.5540239810943604,
                "y": 0.030875300988554955,
                "z": 0.16403168439865112
            }
        },
        "name": "move_to_storage_A"
    },
    "id": "LBTRRT_move_to_storage_A_126",
    "joint_names": [
        "shoulder_pan_joint",
        "shoulder_lift_joint",
        "elbow_joint",
        "wrist_1_joint",
        "wrist_2_joint",
        "wrist_3_joint"
    ],
    "metrics": {
        "cart_traj_len": 0.35246586665163454,
        "distance_elbow_joint": 0.45252278132657286,
        "distance_shoulder_lift_joint": 0.23415249023797569,
        "distance_shoulder_pan_joint": 0.4567483315338965,
        "distance_wrist_1_joint": 0.2569440647239003,
        "distance_wrist_2_joint": 1.1154206980949672,
        "distance_wrist_3_joint": 0.10972355164764735,
        "smoothness": 0.0,
        "time": 5.003225962,
        "traj_len": 1.6203431480908481,
        "weighted_distance": 2.0536123742515584
    },
    "planner": "LBTRRT",
    "start": {
        "state": {
            "elbow_joint": 1.97154746011099,
            "shoulder_lift_joint": -1.13948474672311,
            "shoulder_pan_joint": 0.12281154466712228,
            "wrist_1_joint": -0.7804688027058302,
            "wrist_2_joint": 0.12958655903071145,
            "wrist_3_joint": 3.0906928834467795
        }
    },
    "waypoints": [
        {
            "positions": [
                0.12281154466712228,
                -1.13948474672311,
                1.97154746011099,
                -0.7804688027058302,
                0.12958655903071145,
                3.0906928834467795
            ]
        },
        {
            "positions": [
                0.05756178301942279,
                -1.172935102471392,
                2.0361935717290716,
                -0.8171750976663874,
                0.2889323730442782,
                3.1063676765393007
            ]
        },
        {
            "positions": [
                -0.0076879786282767065,
                -1.2063854582196745,
                2.1008396833471537,
                -0.8538813926269445,
                0.44827818705784495,
                3.1220424696318214
            ]
        },
        {
            "positions": [
                -0.0729377402759762,
                -1.2398358139679566,
                2.1654857949652353,
                -0.8905876875875017,
                0.6076240010714117,
                3.1377172627243426
            ]
        },
        {
            "positions": [
                -0.13818750192367568,
                -1.273286169716239,
                2.2301319065833174,
                -0.927293982548059,
                0.7669698150849784,
                3.1533920558168638
            ]
        },
        {
            "positions": [
                -0.2034372635713752,
                -1.3067365254645211,
                2.294778018201399,
                -0.964000277508616,
                0.9263156290985453,
                3.169066848909385
            ]
        },
        {
            "positions": [
                -0.26868702521907467,
                -1.3401868812128033,
                2.359424129819481,
                -1.0007065724691733,
                1.0856614431121119,
                3.1847416420019057
            ]
        },
        {
            "positions": [
                -0.3339367868667742,
                -1.3736372369610856,
                2.4240702414375628,
                -1.0374128674297305,
                1.2450072571256787,
                3.200416435094427
            ]
        }
    ]
}{
    "goal": {
        "global_pose": {
            "orientation": {
                "w": 0.5084816217422485,
                "x": -0.49083608388900757,
                "y": 0.5182115435600281,
                "z": -0.4816462993621826
            },
            "position": {
                "x": 0.5540239810943604,
                "y": 0.030875300988554955,
                "z": 0.16403168439865112
            }
        },
        "name": "move_to_storage_A"
    },
    "id": "LBTRRT_move_to_storage_A_126",
    "joint_names": [
        "shoulder_pan_joint",
        "shoulder_lift_joint",
        "elbow_joint",
        "wrist_1_joint",
        "wrist_2_joint",
        "wrist_3_joint"
    ],
    "metrics": {
        "cart_traj_len": 0.3532269121927853,
        "distance_elbow_joint": 0.44966184445727597,
        "distance_shoulder_lift_joint": 0.2346442855809403,
        "distance_shoulder_pan_joint": 0.4608707798629153,
        "distance_wrist_1_joint": 0.2417949605119465,
        "distance_wrist_2_joint": 1.1035487159332102,
        "distance_wrist_3_joint": 0.09138569380473882,
        "smoothness": 4.440892098500626e-16,
        "time": 5.003171866,
        "traj_len": 1.6068311299421068,
        "weighted_distance": 2.027318757424609
    },
    "planner": "LBTRRT",
    "start": {
        "state": {
            "elbow_joint": 1.9715472970024885,
            "shoulder_lift_joint": -1.1394870060712896,
            "shoulder_pan_joint": 0.12281152778156021,
            "wrist_1_joint": -0.780463741449964,
            "wrist_2_joint": 0.12958659822042276,
            "wrist_3_joint": 3.090690232415272
        }
    },
    "waypoints": [
        {
            "positions": [
                0.12281152778156021,
                -1.1394870060712896,
                1.9715472970024885,
                -0.780463741449964,
                0.12958659822042276,
                3.090690232415272
            ]
        },
        {
            "positions": [
                0.056972844944000886,
                -1.1730076182971383,
                2.035784703353528,
                -0.8150058786659563,
                0.28723641478230993,
                3.1037453315302344
            ]
        },
        {
            "positions": [
                -0.008865837893558437,
                -1.2065282305229867,
                2.1000221097045673,
                -0.8495480158819487,
                0.44488623134419714,
                3.1168004306451973
            ]
        },
        {
            "positions": [
                -0.07470452073111775,
                -1.2400488427488354,
                2.1642595160556066,
                -0.884090153097941,
                0.6025360479060843,
                3.12985552976016
            ]
        },
        {
            "positions": [
                -0.14054320356867708,
                -1.273569454974684,
                2.228496922406646,
                -0.9186322903139335,
                0.7601858644679714,
                3.1429106288751227
            ]
        },
        {
            "positions": [
                -0.20638188640623642,
                -1.3070900672005328,
                2.292734328757686,
                -0.9531744275299258,
                0.9178356810298587,
                3.1559657279900852
            ]
        },
        {
            "positions": [
                -0.2722205692437957,
                -1.3406106794263812,
                2.356971735108725,
                -0.9877165647459181,
                1.0754854975917458,
                3.169020827105048
            ]
        },
        {
            "positions": [
                -0.33805925208135507,
                -1.37413129165223,
                2.4212091414597645,
                -1.0222587019619105,
                1.233135314153633,
                3.1820759262200107
            ]
        }
    ]
}