{
    "goal": {
        "global_pose": {
            "orientation": {
                "w": -0.00223480608172531,
                "x": 0.0024358444001904467,
                "y": 0.7094548369677653,
                "z": -0.704743149386269
            },
            "position": {
                "x": 0.6205249238014221,
                "y": -0.6371506643295288,
                "z": 0.19426114857196808
            }
        },
        "name": "move_to_magneteinheit_B"
    },
    "id": "LBTRRT_move_to_magneteinheit_B_88",
    "joint_names": [
        "shoulder_pan_joint",
        "shoulder_lift_joint",
        "elbow_joint",
        "wrist_1_joint",
        "wrist_2_joint",
        "wrist_3_joint"
    ],
    "metrics": {
        "cart_traj_len": 1.479083310317942,
        "distance_elbow_joint": 0.9614868180311811,
        "distance_shoulder_lift_joint": 0.8587494233339878,
        "distance_shoulder_pan_joint": 1.6190672540358397,
        "distance_wrist_1_joint": 0.18144534988114502,
        "distance_wrist_2_joint": 1.5352231067894226,
        "distance_wrist_3_joint": 0.030093587453220973,
        "smoothness": 0.057418836763688315,
        "time": 5.023974891,
        "traj_len": 2.277293468028396,
        "weighted_distance": 2.638734767099908
    },
    "planner": "LBTRRT",
    "start": {
        "state": {
            "elbow_joint": 2.6216224122426386,
            "shoulder_lift_joint": -1.4174107377796124,
            "shoulder_pan_joint": 0.7066234856936794,
            "wrist_1_joint": 1.9546482284002225,
            "wrist_2_joint": -0.7096286983471962,
            "wrist_3_joint": 0.005740856962016249
        }
    },
    "waypoints": [
        {
            "positions": [
                0.7066234856936794,
                -1.4174107377796124,
                2.6216224122426386,
                1.9546482284002225,
                -0.7096286983471962,
                0.005740856962016249
            ]
        },
        {
            "positions": [
                0.5713565555501435,
                -1.4257124623774016,
                2.5618231109276524,
                1.9618349249991487,
                -0.8903875955380656,
                0.0029545162398791863
            ]
        },
        {
            "positions": [
                0.4360896254066076,
                -1.4340141869751908,
                2.5020238096126666,
                1.969021621598075,
                -1.0711464927289347,
                0.00016817551774212392
            ]
        },
        {
            "positions": [
                0.3008226952630717,
                -1.44231591157298,
                2.4422245082976803,
                1.9762083181970012,
                -1.2519053899198043,
                -0.002618165204394939
            ]
        },
        {
            "positions": [
                0.16555576511953585,
                -1.4506176361707692,
                2.382425206982694,
                1.9833950147959274,
                -1.4326642871106734,
                -0.005404505926532001
            ]
        },
        {
            "positions": [
                0.03028883497599988,
                -1.4589193607685584,
                2.3226259056677083,
                1.9905817113948536,
                -1.613423184301543,
                -0.008190846648669065
            ]
        },
        {
            "positions": [
                -0.10497809516753603,
                -1.4672210853663477,
                2.262826604352722,
                1.9977684079937799,
                -1.794182081492412,
                -0.010977187370806128
            ]
        },
        {
            "positions": [
                -0.20591130431436408,
                -1.366103700897941,
                2.187490228085064,
                2.015059054279728,
                -1.850515796947938,
                -0.009305244480756304
            ]
        },
        {
            "positions": [
                -0.3068445134611921,
                -1.2649863164295345,
                2.112153851817406,
                2.0323497005656765,
                -1.906849512403464,
                -0.007633301590706479
            ]
        },
        {
            "positions": [
                -0.4077777226080202,
                -1.163868931961128,
                2.0368174755497477,
                2.0496403468516253,
                -1.9631832278589896,
                -0.005961358700656655
            ]
        },
        {
            "positions": [
                -0.5087109317548482,
                -1.0627515474927214,
                1.9614810992820897,
                2.0669309931375737,
                -2.0195169433145157,
                -0.00428941581060683
            ]
        },
        {
            "positions": [
                -0.6096441409016762,
                -0.9616341630243148,
                1.8861447230144317,
                2.084221639423522,
                -2.075850658770041,
                -0.0026174729205570065
            ]
        },
        {
            "positions": [
                -0.7105773500485044,
                -0.8605167785559082,
                1.8108083467467737,
                2.101512285709471,
                -2.132184374225567,
                -0.0009455300305071818
            ]
        },
        {
            "positions": [
                -0.8115105591953324,
                -0.7593993940875017,
                1.7354719704791157,
                2.118802931995419,
                -2.188518089681093,
                0.0007264128595426429
            ]
        },
        {
            "positions": [
                -0.9124437683421605,
                -0.6582820096190951,
                1.6601355942114575,
                2.1360935782813675,
                -2.244851805136619,
                0.0023983557495924675
            ]
        }
    ]
}