{
    "goal": {
        "global_pose": {
            "orientation": {
                "w": -0.4816463035849501,
                "x": 0.5182115481033762,
                "y": 0.4908360881923453,
                "z": -0.5084816262002911
            },
            "position": {
                "x": -0.8240239810943604,
                "y": -0.300875300988555,
                "z": 0.16403168439865112
            }
        },
        "name": "move_to_storage_C"
    },
    "id": "LBTRRT_move_to_storage_C_7",
    "joint_names": [
        "shoulder_pan_joint",
        "shoulder_lift_joint",
        "elbow_joint",
        "wrist_1_joint",
        "wrist_2_joint",
        "wrist_3_joint"
    ],
    "metrics": {
        "cart_traj_len": 0.5767879546146341,
        "distance_elbow_joint": 0.2536698237670205,
        "distance_shoulder_lift_joint": 0.18793591637739937,
        "distance_shoulder_pan_joint": 0.4957734195136485,
        "distance_wrist_1_joint": 0.06408112747568084,
        "distance_wrist_2_joint": 1.0646969565329334,
        "distance_wrist_3_joint": 0.058495395155108376,
        "smoothness": 0.0,
        "time": 5.002713284,
        "traj_len": 1.4576188249407975,
        "weighted_distance": 1.8358707778982217
    },
    "planner": "LBTRRT",
    "start": {
        "state": {
            "elbow_joint": 2.010868314990456,
            "shoulder_lift_joint": -1.1634956873337592,
            "shoulder_pan_joint": -2.4736205022346125,
            "wrist_1_joint": -0.8367026794202681,
            "wrist_2_joint": 0.6746043897044499,
            "wrist_3_joint": -3.1496632123970403
        }
    },
    "waypoints": [
        {
            "positions": [
                -2.4736205022346125,
                -1.1634956873337592,
                2.010868314990456,
                -0.8367026794202681,
                0.6746043897044499,
                -3.1496632123970403
            ]
        },
        {
            "positions": [
                -2.5562494054868874,
                -1.1321730346041927,
                1.9685900110292858,
                -0.8260224915076546,
                0.8520538824599388,
                -3.139913979871189
            ]
        },
        {
            "positions": [
                -2.638878308739162,
                -1.100850381874626,
                1.9263117070681157,
                -0.8153423035950411,
                1.0295033752154277,
                -3.1301647473453373
            ]
        },
        {
            "positions": [
                -2.7215072119914367,
                -1.0695277291450596,
                1.8840334031069457,
                -0.8046621156824276,
                1.2069528679709167,
                -3.120415514819486
            ]
        },
        {
            "positions": [
                -2.8041361152437116,
                -1.0382050764154929,
                1.8417550991457754,
                -0.7939819277698142,
                1.3844023607264053,
                -3.110666282293635
            ]
        },
        {
            "positions": [
                -2.886765018495986,
                -1.0068824236859264,
                1.7994767951846053,
                -0.7833017398572008,
                1.5618518534818944,
                -3.100917049767783
            ]
        },
        {
            "positions": [
                -2.969393921748261,
                -0.9755597709563598,
                1.7571984912234353,
                -0.7726215519445873,
                1.7393013462373832,
                -3.091167817241932
            ]
        }
    ]
}