{
    "goal": {
        "global_pose": {
            "orientation": {
                "w": 0.7031023480610252,
                "x": -0.7110244013736278,
                "y": 0.0077485991402295624,
                "z": 0.005598929693374583
            },
            "position": {
                "x": -0.8841497679147869,
                "y": 0.44412534475326537,
                "z": 0.3711530566215515
            }
        },
        "name": "move_to_auspresseinheit_D"
    },
    "id": "LBTRRT_move_to_auspresseinheit_D_114",
    "joint_names": [
        "shoulder_pan_joint",
        "shoulder_lift_joint",
        "elbow_joint",
        "wrist_1_joint",
        "wrist_2_joint",
        "wrist_3_joint"
    ],
    "metrics": {
        "cart_traj_len": 0.343942032097041,
        "distance_elbow_joint": 0.6501091420163634,
        "distance_shoulder_lift_joint": 0.1277308561769841,
        "distance_shoulder_pan_joint": 0.1343106416232318,
        "distance_wrist_1_joint": 0.5705461352860737,
        "distance_wrist_2_joint": 1.4350087947627799,
        "distance_wrist_3_joint": 0.024437875341701165,
        "smoothness": 6.908054304474895e-16,
        "time": 5.003350214,
        "traj_len": 1.7152677473814792,
        "weighted_distance": 2.2353017975073053
    },
    "planner": "LBTRRT",
    "start": {
        "state": {
            "elbow_joint": -1.8275523626775212,
            "shoulder_lift_joint": -2.126789852344167,
            "shoulder_pan_joint": -0.03513704404078235,
            "wrist_1_joint": -2.347782403156801,
            "wrist_2_joint": -1.6058999987535132,
            "wrist_3_joint": -3.0880379163319196
        }
    },
    "waypoints": [
        {
            "positions": [
                -0.03513704404078235,
                -2.126789852344167,
                -1.8275523626775212,
                -2.347782403156801,
                -1.6058999987535132,
                -3.0880379163319196
            ]
        },
        {
            "positions": [
                -0.051925874243686325,
                -2.14275620936629,
                -1.7462887199254757,
                -2.41910067006756,
                -1.4265238994081657,
                -3.084983181914207
            ]
        },
        {
            "positions": [
                -0.06871470444659031,
                -2.1587225663884126,
                -1.6650250771734303,
                -2.4904189369783194,
                -1.2471478000628182,
                -3.0819284474964945
            ]
        },
        {
            "positions": [
                -0.08550353464949428,
                -2.1746889234105358,
                -1.5837614344213848,
                -2.5617372038890784,
                -1.0677717007174707,
                -3.0788737130787815
            ]
        },
        {
            "positions": [
                -0.10229236485239826,
                -2.190655280432659,
                -1.5024977916693394,
                -2.633055470799838,
                -0.8883956013721233,
                -3.075818978661069
            ]
        },
        {
            "positions": [
                -0.11908119505530224,
                -2.206621637454782,
                -1.4212341489172942,
                -2.704373737710597,
                -0.7090195020267758,
                -3.0727642442433565
            ]
        },
        {
            "positions": [
                -0.1358700252582062,
                -2.222587994476905,
                -1.3399705061652487,
                -2.775692004621356,
                -0.5296434026814283,
                -3.0697095098256435
            ]
        },
        {
            "positions": [
                -0.1526588554611102,
                -2.238554351499028,
                -1.2587068634132033,
                -2.8470102715321155,
                -0.3502673033360808,
                -3.066654775407931
            ]
        },
        {
            "positions": [
                -0.16944768566401416,
                -2.254520708521151,
                -1.1774432206611578,
                -2.9183285384428745,
                -0.1708912039907332,
                -3.0636000409902184
            ]
        }
    ]
}