{
    "goal": {
        "global_pose": {
            "orientation": {
                "w": -0.4816463035849501,
                "x": 0.5182115481033762,
                "y": 0.4908360881923453,
                "z": -0.5084816262002911
            },
            "position": {
                "x": -0.8240239810943604,
                "y": 0.19912469901144506,
                "z": 0.16403168439865112
            }
        },
        "name": "move_to_storage_D"
    },
    "id": "LBTRRT_move_to_storage_D_140",
    "joint_names": [
        "shoulder_pan_joint",
        "shoulder_lift_joint",
        "elbow_joint",
        "wrist_1_joint",
        "wrist_2_joint",
        "wrist_3_joint"
    ],
    "metrics": {
        "cart_traj_len": 2.6591994577669307,
        "distance_elbow_joint": 0.5579259800620191,
        "distance_shoulder_lift_joint": 0.9573635639683964,
        "distance_shoulder_pan_joint": 3.4844836570536164,
        "distance_wrist_1_joint": 3.835386964097233,
        "distance_wrist_2_joint": 5.450656888271129,
        "distance_wrist_3_joint": 3.120297280799082,
        "smoothness": 0.23349824424316343,
        "time": 5.027694225,
        "traj_len": 4.172063558270832,
        "weighted_distance": 5.738706539649679
    },
    "planner": "LBTRRT",
    "start": {
        "state": {
            "elbow_joint": -2.384821988534728,
            "shoulder_lift_joint": -2.2788054721415256,
            "shoulder_pan_joint": -0.1854694642142757,
            "wrist_1_joint": 1.4845938289331202,
            "wrist_2_joint": 0.17898776772866878,
            "wrist_3_joint": 0.037105688729662994
        }
    },
    "waypoints": [
        {
            "positions": [
                -0.1854694642142757,
                -2.2788054721415256,
                -2.384821988534728,
                1.4845938289331202,
                0.17898776772866878,
                0.037105688729662994
            ]
        },
        {
            "positions": [
                -0.08597782417402054,
                -2.248600341603266,
                -2.3755139726473455,
                1.358212503539411,
                0.28264974272534293,
                0.012412903336000099
            ]
        },
        {
            "positions": [
                0.013513815866234624,
                -2.218395211065006,
                -2.3662059567599636,
                1.231831178145702,
                0.3863117177220171,
                -0.012279882057662797
            ]
        },
        {
            "positions": [
                0.11300545590648983,
                -2.1881900805267462,
                -2.356897940872581,
                1.105449852751993,
                0.4899736927186913,
                -0.0369726674513257
            ]
        },
        {
            "positions": [
                0.21249709594674496,
                -2.1579849499884864,
                -2.347589924985199,
                0.979068527358284,
                0.5936356677153654,
                -0.06166545284498859
            ]
        },
        {
            "positions": [
                0.31198873598700017,
                -2.127779819450226,
                -2.3382819090978164,
                0.8526872019645749,
                0.6972976427120395,
                -0.0863582382386515
            ]
        },
        {
            "positions": [
                0.4114803760272554,
                -2.0975746889119664,
                -2.3289738932104345,
                0.7263058765708658,
                0.8009596177087137,
                -0.1110510236323144
            ]
        },
        {
            "positions": [
                0.5109720160675105,
                -2.0673695583737066,
                -2.319665877323052,
                0.5999245511771568,
                0.9046215927053878,
                -0.13574380902597727
            ]
        },
        {
            "positions": [
                0.6104636561077657,
                -2.037164427835447,
                -2.3103578614356697,
                0.47354322578344776,
                1.008283567702062,
                -0.16043659441964017
            ]
        },
        {
            "positions": [
                0.7099552961480209,
                -2.006959297297187,
                -2.3010498455482877,
                0.3471619003897386,
                1.1119455426987364,
                -0.1851293798133031
            ]
        },
        {
            "positions": [
                0.809446936188276,
                -1.9767541667589272,
                -2.2917418296609053,
                0.22078057499602965,
                1.2156075176954104,
                -0.209822165206966
            ]
        },
        {
            "positions": [
                0.9089385762285312,
                -1.9465490362206672,
                -2.282433813773523,
                0.09439924960232049,
                1.3192694926920847,
                -0.2345149506006289
            ]
        },
        {
            "positions": [
                1.0084302162687864,
                -1.9163439056824074,
                -2.2731257978861406,
                -0.031982075791388676,
                1.4229314676887588,
                -0.2592077359942918
            ]
        },
        {
            "positions": [
                1.1079218563090414,
                -1.8861387751441476,
                -2.2638177819987586,
                -0.1583634011850974,
                1.5265934426854328,
                -0.28390052138795463
            ]
        },
        {
            "positions": [
                1.2074134963492966,
                -1.8559336446058878,
                -2.254509766111376,
                -0.28474472657880656,
                1.630255417682107,
                -0.30859330678161756
            ]
        },
        {
            "positions": [
                1.3069051363895516,
                -1.8257285140676278,
                -2.245201750223994,
                -0.4111260519725157,
                1.7339173926787812,
                -0.3332860921752805
            ]
        },
        {
            "positions": [
                1.4063967764298069,
                -1.795523383529368,
                -2.235893734336612,
                -0.5375073773662247,
                1.8375793676754553,
                -0.3579788775689433
            ]
        },
        {
            "positions": [
                1.505888416470062,
                -1.7653182529911082,
                -2.2265857184492295,
                -0.6638887027599338,
                1.9412413426721296,
                -0.3826716629626063
            ]
        },
        {
            "positions": [
                1.5686794944514164,
                -1.7445848743532928,
                -2.2122199267859566,
                -0.8006175421586098,
                1.9764430693233437,
                -0.4464867930902592
            ]
        },
        {
            "positions": [
                1.6314705724327707,
                -1.7238514957154774,
                -2.1978541351226837,
                -0.9373463815572858,
                2.011644795974558,
                -0.510301923217912
            ]
        },
        {
            "positions": [
                1.5673342793402105,
                -1.7393287875440293,
                -2.1835865148669154,
                -0.9917097182344714,
                1.8724909552043563,
                -0.6092592181737392
            ]
        },
        {
            "positions": [
                1.50319798624765,
                -1.754806079372581,
                -2.169318894611147,
                -1.046073054911657,
                1.7333371144341547,
                -0.7082165131295663
            ]
        },
        {
            "positions": [
                1.43906169315509,
                -1.770283371201133,
                -2.1550512743553787,
                -1.1004363915888427,
                1.5941832736639532,
                -0.8071738080853936
            ]
        },
        {
            "positions": [
                1.3749254000625295,
                -1.7857606630296847,
                -2.140783654099611,
                -1.1547997282660285,
                1.4550294328937516,
                -0.9061311030412208
            ]
        },
        {
            "positions": [
                1.3107891069699693,
                -1.8012379548582367,
                -2.1265160338438425,
                -1.2091630649432141,
                1.3158755921235503,
                -1.005088397997048
            ]
        },
        {
            "positions": [
                1.2466528138774091,
                -1.8167152466867884,
                -2.112248413588074,
                -1.2635264016203998,
                1.1767217513533486,
                -1.1040456929528752
            ]
        },
        {
            "positions": [
                1.182516520784849,
                -1.8321925385153404,
                -2.097980793332306,
                -1.3178897382975854,
                1.0375679105831472,
                -1.2030029879087023
            ]
        },
        {
            "positions": [
                1.1183802276922885,
                -1.847669830343892,
                -2.0837131730765375,
                -1.372253074974771,
                0.8984140698129457,
                -1.3019602828645296
            ]
        },
        {
            "positions": [
                1.0542439345997283,
                -1.863147122172444,
                -2.069445552820769,
                -1.4266164116519566,
                0.7592602290427444,
                -1.4009175778203566
            ]
        },
        {
            "positions": [
                0.990107641507168,
                -1.8786244140009958,
                -2.055177932565001,
                -1.4809797483291423,
                0.6201063882725426,
                -1.499874872776184
            ]
        },
        {
            "positions": [
                0.9259713484146077,
                -1.8941017058295477,
                -2.040910312309233,
                -1.5353430850063279,
                0.4809525475023413,
                -1.5988321677320112
            ]
        },
        {
            "positions": [
                0.8618350553220474,
                -1.9095789976580995,
                -2.0266426920534646,
                -1.5897064216835135,
                0.3417987067321395,
                -1.6977894626878385
            ]
        },
        {
            "positions": [
                0.7976987622294872,
                -1.9250562894866514,
                -2.0123750717976963,
                -1.6440697583606991,
                0.2026448659619382,
                -1.7967467576436655
            ]
        },
        {
            "positions": [
                0.733562469136927,
                -1.9405335813152034,
                -1.998107451541928,
                -1.6984330950378848,
                0.06349102519173688,
                -1.8957040525994926
            ]
        },
        {
            "positions": [
                0.6694261760443667,
                -1.956010873143755,
                -1.9838398312861598,
                -1.7527964317150704,
                -0.07566281557846466,
                -1.9946613475553199
            ]
        },
        {
            "positions": [
                0.6052898829518063,
                -1.971488164972307,
                -1.9695722110303915,
                -1.8071597683922562,
                -0.21481665634866642,
                -2.093618642511147
            ]
        },
        {
            "positions": [
                0.5411535898592461,
                -1.9869654568008588,
                -1.9553045907746232,
                -1.8615231050694419,
                -0.35397049711886774,
                -2.1925759374669744
            ]
        },
        {
            "positions": [
                0.4770172967666859,
                -2.0024427486294107,
                -1.941036970518855,
                -1.9158864417466275,
                -0.49312433788906906,
                -2.2915332324228013
            ]
        },
        {
            "positions": [
                0.4128810036741257,
                -2.0179200404579625,
                -1.9267693502630867,
                -1.970249778423813,
                -0.6322781786592708,
                -2.3904905273786285
            ]
        },
        {
            "positions": [
                0.3487447105815653,
                -2.033397332286514,
                -1.9125017300073184,
                -2.024613115100999,
                -0.7714320194294726,
                -2.489447822334456
            ]
        },
        {
            "positions": [
                0.2846084174890051,
                -2.0488746241150664,
                -1.89823410975155,
                -2.0789764517781846,
                -0.9105858601996739,
                -2.588405117290283
            ]
        },
        {
            "positions": [
                0.2204721243964447,
                -2.064351915943618,
                -1.883966489495782,
                -2.1333397884553698,
                -1.0497397009698752,
                -2.6873624122461104
            ]
        },
        {
            "positions": [
                0.1563358313038845,
                -2.07982920777217,
                -1.8696988692400136,
                -2.187703125132556,
                -1.1888935417400766,
                -2.7863197072019372
            ]
        },
        {
            "positions": [
                0.0921995382113241,
                -2.0953064996007216,
                -1.8554312489842453,
                -2.2420664618097415,
                -1.3280473825102788,
                -2.885277002157765
            ]
        },
        {
            "positions": [
                0.028063245118763902,
                -2.1107837914292737,
                -1.8411636287284772,
                -2.296429798486927,
                -1.46720122328048,
                -2.984234297113592
            ]
        },
        {
            "positions": [
                -0.03607304797379624,
                -2.1262610832578255,
                -1.8268960084727088,
                -2.3507931351641127,
                -1.6063550640506814,
                -3.083191592069419
            ]
        }
    ]
}