{
    "goal": {
        "global_pose": {
            "orientation": {
                "w": -0.4816463035849501,
                "x": 0.5182115481033762,
                "y": 0.4908360881923453,
                "z": -0.5084816262002911
            },
            "position": {
                "x": -0.8240239810943604,
                "y": -0.300875300988555,
                "z": 0.16403168439865112
            }
        },
        "name": "move_to_storage_C"
    },
    "id": "LBTRRT_move_to_storage_C_88",
    "joint_names": [
        "shoulder_pan_joint",
        "shoulder_lift_joint",
        "elbow_joint",
        "wrist_1_joint",
        "wrist_2_joint",
        "wrist_3_joint"
    ],
    "metrics": {
        "cart_traj_len": 0.576354177208548,
        "distance_elbow_joint": 0.2606125450742003,
        "distance_shoulder_lift_joint": 0.189548213276165,
        "distance_shoulder_pan_joint": 0.49420194947926666,
        "distance_wrist_1_joint": 0.08872789676931225,
        "distance_wrist_2_joint": 1.068303438486255,
        "distance_wrist_3_joint": 0.0647107898749244,
        "smoothness": 0.0,
        "time": 5.0023640480000005,
        "traj_len": 1.4717692865935625,
        "weighted_distance": 1.858105957141718
    },
    "planner": "LBTRRT",
    "start": {
        "state": {
            "elbow_joint": 2.010868314990456,
            "shoulder_lift_joint": -1.1634956873337592,
            "shoulder_pan_joint": -2.4736205022346125,
            "wrist_1_joint": -0.8367026794202681,
            "wrist_2_joint": 0.6746043897044499,
            "wrist_3_joint": -3.1496632123970403
        }
    },
    "waypoints": [
        {
            "positions": [
                -2.4736205022346125,
                -1.1634956873337592,
                2.010868314990456,
                -0.8367026794202681,
                0.6746043897044499,
                -3.1496632123970403
            ]
        },
        {
            "positions": [
                -2.55598749381449,
                -1.1319043184543984,
                1.9674328908114225,
                -0.8219146966253827,
                0.8526549627854925,
                -3.1388780807512195
            ]
        },
        {
            "positions": [
                -2.638354485394368,
                -1.1003129495750374,
                1.9239974666323891,
                -0.8071267138304974,
                1.030705535866535,
                -3.128092949105399
            ]
        },
        {
            "positions": [
                -2.720721476974246,
                -1.0687215806956767,
                1.8805620424533558,
                -0.792338731035612,
                1.2087561089475773,
                -3.117307817459578
            ]
        },
        {
            "positions": [
                -2.8030884685541237,
                -1.037130211816316,
                1.8371266182743222,
                -0.7775507482407266,
                1.3868066820286198,
                -3.1065226858137573
            ]
        },
        {
            "positions": [
                -2.8854554601340014,
                -1.005538842936955,
                1.7936911940952889,
                -0.7627627654458412,
                1.5648572551096627,
                -3.0957375541679366
            ]
        },
        {
            "positions": [
                -2.967822451713879,
                -0.9739474740575942,
                1.7502557699162555,
                -0.7479747826509558,
                1.742907828190705,
                -3.084952422522116
            ]
        }
    ]
}