{
    "goal": {
        "global_pose": {
            "orientation": {
                "w": 0.005598929693374612,
                "x": 0.007748599140229565,
                "y": 0.7110244013736278,
                "z": -0.7031023480610252
            },
            "position": {
                "x": 0.1141497679147869,
                "y": -0.7141253447532654,
                "z": 0.3711530566215515
            }
        },
        "name": "move_to_auspresseinheit_B"
    },
    "id": "LBTRRT_move_to_auspresseinheit_B_107",
    "joint_names": [
        "shoulder_pan_joint",
        "shoulder_lift_joint",
        "elbow_joint",
        "wrist_1_joint",
        "wrist_2_joint",
        "wrist_3_joint"
    ],
    "metrics": {
        "cart_traj_len": 0.5652491981651968,
        "distance_elbow_joint": 0.06517354771323758,
        "distance_shoulder_lift_joint": 0.2939706967258118,
        "distance_shoulder_pan_joint": 0.5785499479355436,
        "distance_wrist_1_joint": 0.3322696894652042,
        "distance_wrist_2_joint": 0.9857022790549244,
        "distance_wrist_3_joint": 0.009514426481303406,
        "smoothness": 0.0,
        "time": 5.005998394000001,
        "traj_len": 1.505051689270513,
        "weighted_distance": 1.8979413607534772
    },
    "planner": "LBTRRT",
    "start": {
        "state": {
            "elbow_joint": 2.0193083361928714,
            "shoulder_lift_joint": -1.1220246554650708,
            "shoulder_pan_joint": -1.0952077554168747,
            "wrist_1_joint": -0.8559753972642168,
            "wrist_2_joint": 0.4759566250798843,
            "wrist_3_joint": -3.1240929996934557
        }
    },
    "waypoints": [
        {
            "positions": [
                -1.0952077554168747,
                -1.1220246554650708,
                2.0193083361928714,
                -0.8559753972642168,
                0.4759566250798843,
                -3.1240929996934557
            ]
        },
        {
            "positions": [
                -1.1916327467394652,
                -1.1710197715860393,
                2.0084460782406652,
                -0.8005971156866828,
                0.640240338255705,
                -3.1256787374403396
            ]
        },
        {
            "positions": [
                -1.288057738062056,
                -1.220014887707008,
                1.9975838202884588,
                -0.7452188341091487,
                0.8045240514315257,
                -3.1272644751872236
            ]
        },
        {
            "positions": [
                -1.3844827293846464,
                -1.2690100038279768,
                1.9867215623362526,
                -0.6898405525316147,
                0.9688077646073465,
                -3.1288502129341076
            ]
        },
        {
            "positions": [
                -1.480907720707237,
                -1.3180051199489453,
                1.9758593043840464,
                -0.6344622709540807,
                1.133091477783167,
                -3.130435950680991
            ]
        },
        {
            "positions": [
                -1.5773327120298277,
                -1.3670002360699138,
                1.96499704643184,
                -0.5790839893765466,
                1.297375190958988,
                -3.132021688427875
            ]
        },
        {
            "positions": [
                -1.6737577033524182,
                -1.4159953521908826,
                1.9541347884796338,
                -0.5237057077990126,
                1.4616589041348087,
                -3.133607426174759
            ]
        }
    ]
}