{
    "goal": {
        "global_pose": {
            "orientation": {
                "w": 0.7047431493862688,
                "x": -0.7094548369677653,
                "y": 0.0024358444001904,
                "z": -0.0022348060817251984
            },
            "position": {
                "x": -0.39052492380142206,
                "y": 0.3671506643295288,
                "z": 0.19426114857196808
            }
        },
        "name": "move_to_magneteinheit_D"
    },
    "id": "LBTRRT_move_to_magneteinheit_D_50",
    "joint_names": [
        "shoulder_pan_joint",
        "shoulder_lift_joint",
        "elbow_joint",
        "wrist_1_joint",
        "wrist_2_joint",
        "wrist_3_joint"
    ],
    "metrics": {
        "cart_traj_len": 3.8211800078673606,
        "distance_elbow_joint": 3.1392079288915795,
        "distance_shoulder_lift_joint": 1.6281874855049143,
        "distance_shoulder_pan_joint": 2.9223749063075055,
        "distance_wrist_1_joint": 2.5206091709422553,
        "distance_wrist_2_joint": 0.675484656319701,
        "distance_wrist_3_joint": 3.216074819336985,
        "smoothness": 0.16400477820316756,
        "time": 5.050858075,
        "traj_len": 3.7552548471845344,
        "weighted_distance": 4.87136350863276
    },
    "planner": "LBTRRT",
    "start": {
        "state": {
            "elbow_joint": 0.749534889911806,
            "shoulder_lift_joint": -0.6476975780787326,
            "shoulder_pan_joint": -2.711696901376241,
            "wrist_1_joint": -0.07506478083263063,
            "wrist_2_joint": 0.43296659715538205,
            "wrist_3_joint": -3.14703540197715
        }
    },
    "waypoints": [
        {
            "positions": [
                -2.711696901376241,
                -0.6476975780787326,
                0.749534889911806,
                -0.07506478083263063,
                0.43296659715538205,
                -3.14703540197715
            ]
        },
        {
            "positions": [
                -2.7099617355358916,
                -0.704023748791502,
                0.523689275318834,
                -0.04289026322122367,
                0.433671919586547,
                -3.138413121759106
            ]
        },
        {
            "positions": [
                -2.6711035373838183,
                -0.7582373535587432,
                0.34615009062344854,
                0.021882910237545843,
                0.420082090441895,
                -3.1095399734811204
            ]
        },
        {
            "positions": [
                -2.5677482322929954,
                -0.7967708316475482,
                0.25075575716591597,
                0.1023939902490657,
                0.42875143590510595,
                -3.052759543081252
            ]
        },
        {
            "positions": [
                -2.464392927202173,
                -0.8353043097363532,
                0.1553614237083834,
                0.18290507026058558,
                0.4374207813683169,
                -2.9959791126813835
            ]
        },
        {
            "positions": [
                -2.36103762211135,
                -0.8738377878251582,
                0.05996709025085084,
                0.26341615027210546,
                0.4460901268315279,
                -2.939198682281515
            ]
        },
        {
            "positions": [
                -2.257682317020527,
                -0.9123712659139631,
                -0.035427243206681724,
                0.3439272302836253,
                0.45475947229473884,
                -2.8824182518816466
            ]
        },
        {
            "positions": [
                -2.1543270119297047,
                -0.9509047440027683,
                -0.1308215766642143,
                0.4244383102951452,
                0.4634288177579498,
                -2.825637821481778
            ]
        },
        {
            "positions": [
                -2.0509717068388817,
                -0.9894382220915732,
                -0.22621591012174685,
                0.5049493903066651,
                0.47209816322116077,
                -2.7688573910819096
            ]
        },
        {
            "positions": [
                -1.947616401748059,
                -1.027971700180378,
                -0.3216102435792794,
                0.5854604703181849,
                0.48076750868437174,
                -2.7120769606820407
            ]
        },
        {
            "positions": [
                -1.8442610966572364,
                -1.0665051782691832,
                -0.417004577036812,
                0.6659715503297048,
                0.48943685414758265,
                -2.6552965302821723
            ]
        },
        {
            "positions": [
                -1.7409057915664137,
                -1.1050386563579881,
                -0.5123989104943445,
                0.7464826303412248,
                0.4981061996107936,
                -2.598516099882304
            ]
        },
        {
            "positions": [
                -1.6375504864755908,
                -1.143572134446793,
                -0.6077932439518772,
                0.8269937103527446,
                0.5067755450740046,
                -2.5417356694824353
            ]
        },
        {
            "positions": [
                -1.534195181384768,
                -1.1821056125355982,
                -0.7031875774094096,
                0.9075047903642645,
                0.5154448905372155,
                -2.484955239082567
            ]
        },
        {
            "positions": [
                -1.4308398762939454,
                -1.2206390906244031,
                -0.7985819108669423,
                0.9880158703757843,
                0.5241142360004265,
                -2.4281748086826984
            ]
        },
        {
            "positions": [
                -1.3274845712031227,
                -1.259172568713208,
                -0.8939762443244748,
                1.068526950387304,
                0.5327835814636375,
                -2.37139437828283
            ]
        },
        {
            "positions": [
                -1.2241292661122998,
                -1.2977060468020132,
                -0.9893705777820074,
                1.149038030398824,
                0.5414529269268484,
                -2.3146139478829615
            ]
        },
        {
            "positions": [
                -1.120773961021477,
                -1.336239524890818,
                -1.08476491123954,
                1.2295491104103438,
                0.5501222723900594,
                -2.257833517483093
            ]
        },
        {
            "positions": [
                -1.0174186559306544,
                -1.374773002979623,
                -1.1801592446970726,
                1.3100601904218636,
                0.5587916178532704,
                -2.2010530870832246
            ]
        },
        {
            "positions": [
                -0.9140633508398315,
                -1.4133064810684282,
                -1.2755535781546052,
                1.3905712704333837,
                0.5674609633164813,
                -2.1442726566833556
            ]
        },
        {
            "positions": [
                -0.810708045749009,
                -1.451839959157233,
                -1.3709479116121377,
                1.4710823504449035,
                0.5761303087796923,
                -2.087492226283487
            ]
        },
        {
            "positions": [
                -0.7073527406581863,
                -1.490373437246038,
                -1.4663422450696701,
                1.5515934304564232,
                0.5847996542429033,
                -2.0307117958836187
            ]
        },
        {
            "positions": [
                -0.6039974355673632,
                -1.5289069153348431,
                -1.5617365785272028,
                1.6321045104679432,
                0.5934689997061142,
                -1.9739313654837503
            ]
        },
        {
            "positions": [
                -0.5006421304765407,
                -1.567440393423648,
                -1.6571309119847353,
                1.712615590479463,
                0.6021383451693252,
                -1.9171509350838818
            ]
        },
        {
            "positions": [
                -0.3972868253857178,
                -1.605973871512453,
                -1.7525252454422677,
                1.793126670490983,
                0.6108076906325361,
                -1.8603705046840135
            ]
        },
        {
            "positions": [
                -0.2939315202948949,
                -1.644507349601258,
                -1.8479195788998006,
                1.8736377505025028,
                0.6194770360957471,
                -1.8035900742841449
            ]
        },
        {
            "positions": [
                -0.19057621520407253,
                -1.683040827690063,
                -1.9433139123573329,
                1.9541488305140227,
                0.6281463815589581,
                -1.7468096438842764
            ]
        },
        {
            "positions": [
                -0.15657527920188516,
                -1.7419968594289759,
                -1.990288702595234,
                1.926813438878792,
                0.5862010507796364,
                -1.570085765476237
            ]
        },
        {
            "positions": [
                -0.1225743431996978,
                -1.8009528911678885,
                -2.0372634928331355,
                1.8994780472435613,
                0.5442557200003146,
                -1.3933618870681976
            ]
        },
        {
            "positions": [
                -0.08857340719751043,
                -1.859908922906801,
                -2.0842382830710364,
                1.8721426556083305,
                0.5023103892209929,
                -1.216638008660158
            ]
        },
        {
            "positions": [
                -0.054572471195323075,
                -1.918864954645714,
                -2.131213073308938,
                1.8448072639731,
                0.4603650584416712,
                -1.0399141302521187
            ]
        },
        {
            "positions": [
                -0.020571535193135704,
                -1.9778209863846268,
                -2.178187863546839,
                1.8174718723378693,
                0.41841972766234947,
                -0.863190251844079
            ]
        },
        {
            "positions": [
                0.013429400809051658,
                -2.0367770181235394,
                -2.22516265378474,
                1.7901364807026385,
                0.37647439688302775,
                -0.6864663734360397
            ]
        },
        {
            "positions": [
                -0.015362693460426303,
                -2.0935194713219953,
                -2.2636353467280017,
                1.7324963150744495,
                0.32833687160673086,
                -0.5220736397798131
            ]
        },
        {
            "positions": [
                -0.04415478772990426,
                -2.150261924520451,
                -2.302108039671263,
                1.6748561494462606,
                0.2801993463304339,
                -0.3576809061235867
            ]
        },
        {
            "positions": [
                -0.07294688199938223,
                -2.2070043777189063,
                -2.3405807326145243,
                1.6172159838180717,
                0.23206182105413703,
                -0.19328817246736024
            ]
        },
        {
            "positions": [
                -0.10173897626886019,
                -2.2637468309173623,
                -2.3790534255577858,
                1.5595758181898827,
                0.1839242957778401,
                -0.028895438811133822
            ]
        },
        {
            "positions": [
                -0.18381920331315885,
                -2.275885063583647,
                -2.3896730389797742,
                1.4627532709184206,
                0.17502116793213704,
                0.06903941735983503
            ]
        }
    ]
}