{
    "goal": {
        "global_pose": {
            "orientation": {
                "w": 0.7031023480610252,
                "x": -0.7110244013736278,
                "y": 0.0077485991402295624,
                "z": 0.005598929693374583
            },
            "position": {
                "x": -0.8841497679147869,
                "y": 0.44412534475326537,
                "z": 0.3711530566215515
            }
        },
        "name": "move_to_auspresseinheit_D"
    },
    "id": "LBTRRT_move_to_auspresseinheit_D_23",
    "joint_names": [
        "shoulder_pan_joint",
        "shoulder_lift_joint",
        "elbow_joint",
        "wrist_1_joint",
        "wrist_2_joint",
        "wrist_3_joint"
    ],
    "metrics": {
        "cart_traj_len": 0.343812580716623,
        "distance_elbow_joint": 0.649233593697321,
        "distance_shoulder_lift_joint": 0.12691120716661297,
        "distance_shoulder_pan_joint": 0.13429795661796404,
        "distance_wrist_1_joint": 0.5763270231922872,
        "distance_wrist_2_joint": 1.4315122363823307,
        "distance_wrist_3_joint": 0.03462488967816624,
        "smoothness": 0.0,
        "time": 5.005067938,
        "traj_len": 1.7184024286338409,
        "weighted_distance": 2.2427652453312255
    },
    "planner": "LBTRRT",
    "start": {
        "state": {
            "elbow_joint": -1.8275523626775212,
            "shoulder_lift_joint": -2.126789852344167,
            "shoulder_pan_joint": -0.03513704404078235,
            "wrist_1_joint": -2.347782403156801,
            "wrist_2_joint": -1.6058999987535132,
            "wrist_3_joint": -3.0880379163319196
        }
    },
    "waypoints": [
        {
            "positions": [
                -0.03513704404078235,
                -2.126789852344167,
                -1.8275523626775212,
                -2.347782403156801,
                -1.6058999987535132,
                -3.0880379163319196
            ]
        },
        {
            "positions": [
                -0.05192428861802785,
                -2.1426537532399936,
                -1.746398163465356,
                -2.419823281055837,
                -1.426960969205722,
                -3.0837098051221488
            ]
        },
        {
            "positions": [
                -0.06871153319527336,
                -2.15851765413582,
                -1.6652439642531909,
                -2.491864158954873,
                -1.2480219396579306,
                -3.079381693912378
            ]
        },
        {
            "positions": [
                -0.08549877777251885,
                -2.1743815550316468,
                -1.5840897650410257,
                -2.5639050368539085,
                -1.0690829101101391,
                -3.075053582702607
            ]
        },
        {
            "positions": [
                -0.10228602234976436,
                -2.1902454559274736,
                -1.5029355658288606,
                -2.6359459147529445,
                -0.8901438805623478,
                -3.0707254714928363
            ]
        },
        {
            "positions": [
                -0.11907326692700987,
                -2.2061093568233,
                -1.4217813666166954,
                -2.7079867926519805,
                -0.7112048510145565,
                -3.066397360283066
            ]
        },
        {
            "positions": [
                -0.13586051150425538,
                -2.2219732577191267,
                -1.3406271674045305,
                -2.780027670551016,
                -0.532265821466765,
                -3.062069249073295
            ]
        },
        {
            "positions": [
                -0.15264775608150088,
                -2.237837158614953,
                -1.2594729681923653,
                -2.852068548450052,
                -0.35332679191897376,
                -3.057741137863524
            ]
        },
        {
            "positions": [
                -0.1694350006587464,
                -2.25370105951078,
                -1.1783187689802002,
                -2.924109426349088,
                -0.17438776237118248,
                -3.0534130266537534
            ]
        }
    ]
}