{
    "goal": {
        "global_pose": {
            "orientation": {
                "w": 0.7047431493862688,
                "x": -0.7094548369677653,
                "y": 0.0024358444001904,
                "z": -0.0022348060817251984
            },
            "position": {
                "x": -0.39052492380142206,
                "y": 0.3671506643295288,
                "z": 0.19426114857196808
            }
        },
        "name": "move_to_magneteinheit_D"
    },
    "id": "LBTRRT_move_to_magneteinheit_D_119",
    "joint_names": [
        "shoulder_pan_joint",
        "shoulder_lift_joint",
        "elbow_joint",
        "wrist_1_joint",
        "wrist_2_joint",
        "wrist_3_joint"
    ],
    "metrics": {
        "cart_traj_len": 3.9240281275979916,
        "distance_elbow_joint": 3.1279435649652383,
        "distance_shoulder_lift_joint": 1.6348830736143702,
        "distance_shoulder_pan_joint": 3.5388523581601516,
        "distance_wrist_1_joint": 1.8434766062265957,
        "distance_wrist_2_joint": 1.7985168570693189,
        "distance_wrist_3_joint": 3.414946144069867,
        "smoothness": 0.41937812536818037,
        "time": 5.065374985,
        "traj_len": 3.9190073493303816,
        "weighted_distance": 5.082371922197469
    },
    "planner": "LBTRRT",
    "start": {
        "state": {
            "elbow_joint": 0.749534889911806,
            "shoulder_lift_joint": -0.6476975780787326,
            "shoulder_pan_joint": -2.711696901376241,
            "wrist_1_joint": -0.07506478083263063,
            "wrist_2_joint": 0.43296659715538205,
            "wrist_3_joint": -3.14703540197715
        }
    },
    "waypoints": [
        {
            "positions": [
                -2.711696901376241,
                -0.6476975780787326,
                0.749534889911806,
                -0.07506478083263063,
                0.43296659715538205,
                -3.14703540197715
            ]
        },
        {
            "positions": [
                -2.7751824212551215,
                -0.7033056277162181,
                0.6502236937681466,
                -0.1005237229062318,
                0.36868450243855777,
                -3.173106941396404
            ]
        },
        {
            "positions": [
                -2.838667941134002,
                -0.7589136773537036,
                0.5509124976244872,
                -0.12598266497983296,
                0.30440240772173355,
                -3.1991784808156583
            ]
        },
        {
            "positions": [
                -2.9021534610128827,
                -0.8145217269911891,
                0.45160130148082783,
                -0.15144160705343412,
                0.2401203130049093,
                -3.225250020234913
            ]
        },
        {
            "positions": [
                -2.965638980891763,
                -0.8701297766286746,
                0.3522901053371684,
                -0.1769005491270353,
                0.175838218288085,
                -3.251321559654167
            ]
        },
        {
            "positions": [
                -3.0291245007706435,
                -0.9257378262661601,
                0.25297890919350907,
                -0.20235949120063645,
                0.11155612357126077,
                -3.277393099073421
            ]
        },
        {
            "positions": [
                -2.927464460268635,
                -0.9522238557222771,
                0.1714842843018773,
                -0.15185086710819545,
                0.08721718637024532,
                -3.172671965327199
            ]
        },
        {
            "positions": [
                -2.825804419766626,
                -0.9787098851783941,
                0.08998965941024548,
                -0.10134224301575447,
                0.06287824916922988,
                -3.067950831580977
            ]
        },
        {
            "positions": [
                -2.724144379264618,
                -1.005195914634511,
                0.008495034518613692,
                -0.05083361892331348,
                0.03853931196821442,
                -2.963229697834755
            ]
        },
        {
            "positions": [
                -2.622484338762609,
                -1.0316819440906282,
                -0.07299959037301812,
                -0.00032499483087247705,
                0.014200374767198973,
                -2.858508564088533
            ]
        },
        {
            "positions": [
                -2.5208242982606004,
                -1.058167973546745,
                -0.15449421526464996,
                0.05018362926156855,
                -0.010138562433816486,
                -2.753787430342311
            ]
        },
        {
            "positions": [
                -2.4191642577585917,
                -1.084654003002862,
                -0.2359888401562817,
                0.1006922533540095,
                -0.03447749963483193,
                -2.649066296596089
            ]
        },
        {
            "positions": [
                -2.317504217256583,
                -1.111140032458979,
                -0.3174834650479136,
                0.15120087744645055,
                -0.05881643683584739,
                -2.544345162849867
            ]
        },
        {
            "positions": [
                -2.2158441767545742,
                -1.1376260619150962,
                -0.3989780899395453,
                0.2017095015388915,
                -0.08315537403686282,
                -2.439624029103645
            ]
        },
        {
            "positions": [
                -2.1141841362525655,
                -1.164112091371213,
                -0.48047271483117715,
                0.2522181256313325,
                -0.10749431123787828,
                -2.334902895357423
            ]
        },
        {
            "positions": [
                -2.012524095750557,
                -1.19059812082733,
                -0.561967339722809,
                0.30272674972377356,
                -0.13183324843889374,
                -2.2301817616112007
            ]
        },
        {
            "positions": [
                -1.9108640552485485,
                -1.217084150283447,
                -0.6434619646144406,
                0.3532353738162145,
                -0.1561721856399092,
                -2.125460627864979
            ]
        },
        {
            "positions": [
                -1.8092040147465398,
                -1.2435701797395642,
                -0.7249565895060724,
                0.40374399790865545,
                -0.18051112284092463,
                -2.0207394941187573
            ]
        },
        {
            "positions": [
                -1.707543974244531,
                -1.270056209195681,
                -0.8064512143977043,
                0.4542526220010965,
                -0.20485006004194012,
                -1.9160183603725351
            ]
        },
        {
            "positions": [
                -1.6058839337425226,
                -1.296542238651798,
                -0.8879458392893362,
                0.5047612460935376,
                -0.22918899724295555,
                -1.811297226626313
            ]
        },
        {
            "positions": [
                -1.5042238932405139,
                -1.323028268107915,
                -0.969440464180968,
                0.5552698701859785,
                -0.25352793444397104,
                -1.706576092880091
            ]
        },
        {
            "positions": [
                -1.4025638527385054,
                -1.3495142975640322,
                -1.0509350890725997,
                0.6057784942784195,
                -0.2778668716449864,
                -1.601854959133869
            ]
        },
        {
            "positions": [
                -1.3009038122364969,
                -1.376000327020149,
                -1.1324297139642314,
                0.6562871183708604,
                -0.30220580884600184,
                -1.4971338253876474
            ]
        },
        {
            "positions": [
                -1.199243771734488,
                -1.402486356476266,
                -1.2139243388558634,
                0.7067957424633015,
                -0.32654474604701733,
                -1.392412691641425
            ]
        },
        {
            "positions": [
                -1.0975837312324794,
                -1.428972385932383,
                -1.295418963747495,
                0.7573043665557424,
                -0.35088368324803276,
                -1.2876915578952033
            ]
        },
        {
            "positions": [
                -0.9959236907304705,
                -1.4554584153885002,
                -1.376913588639127,
                0.8078129906481836,
                -0.37522262044904825,
                -1.182970424148981
            ]
        },
        {
            "positions": [
                -0.8942636502284622,
                -1.481944444844617,
                -1.4584082135307588,
                0.8583216147406244,
                -0.39956155765006374,
                -1.0782492904027592
            ]
        },
        {
            "positions": [
                -0.7926036097264535,
                -1.508430474300734,
                -1.5399028384223903,
                0.9088302388330655,
                -0.42390049485107917,
                -0.9735281566565375
            ]
        },
        {
            "positions": [
                -0.6909435692244448,
                -1.534916503756851,
                -1.6213974633140222,
                0.9593388629255065,
                -0.4482394320520946,
                -0.8688070229103153
            ]
        },
        {
            "positions": [
                -0.5892835287224361,
                -1.5614025332129682,
                -1.702892088205654,
                1.0098474870179475,
                -0.47257836925311003,
                -0.7640858891640931
            ]
        },
        {
            "positions": [
                -0.4876234882204278,
                -1.587888562669085,
                -1.7843867130972857,
                1.0603561111103885,
                -0.49691730645412546,
                -0.6593647554178714
            ]
        },
        {
            "positions": [
                -0.3859634477184186,
                -1.614374592125202,
                -1.8658813379889176,
                1.1108647352028296,
                -0.521256243655141,
                -0.5546436216716493
            ]
        },
        {
            "positions": [
                -0.28430340721641034,
                -1.640860621581319,
                -1.9473759628805496,
                1.1613733592952702,
                -0.5455951808561563,
                -0.4499224879254271
            ]
        },
        {
            "positions": [
                -0.18264336671440162,
                -1.6673466510374362,
                -2.0288705877721815,
                1.2118819833877117,
                -0.5699341180571719,
                -0.34520135417920494
            ]
        },
        {
            "positions": [
                -0.08098332621239297,
                -1.693832680493553,
                -2.110365212663813,
                1.2623906074801525,
                -0.5942730552581873,
                -0.24048022043298317
            ]
        },
        {
            "positions": [
                -0.03843493492024042,
                -1.7373796921607751,
                -2.1430499631502116,
                1.281209791764311,
                -0.543954349731377,
                -0.18329734551960278
            ]
        },
        {
            "positions": [
                0.004113456371912131,
                -1.780926703827997,
                -2.1757347136366096,
                1.3000289760484693,
                -0.4936356442045666,
                -0.12611447060622238
            ]
        },
        {
            "positions": [
                -0.03352390395272645,
                -1.8812574934010182,
                -2.216269505919974,
                1.3427876617703662,
                -0.3595076854841408,
                -0.09945250690494288
            ]
        },
        {
            "positions": [
                -0.07116126427736502,
                -1.9815882829740394,
                -2.2568042982033387,
                1.385546347492263,
                -0.22537972676371498,
                -0.07279054320366338
            ]
        },
        {
            "positions": [
                -0.1087986246020036,
                -2.0819190725470604,
                -2.297339090486703,
                1.4283050332141598,
                -0.09125176804328916,
                -0.046128579502383874
            ]
        },
        {
            "positions": [
                -0.14643598492664217,
                -2.1822498621200817,
                -2.337873882770068,
                1.4710637189360565,
                0.04287619067713666,
                -0.019466615801104356
            ]
        },
        {
            "positions": [
                -0.18407334525128075,
                -2.282580651693103,
                -2.378408675053432,
                1.5138224046579534,
                0.17700414939756248,
                0.0071953479001751405
            ]
        }
    ]
}