{
    "goal": {
        "global_pose": {
            "orientation": {
                "w": 0.7047431468963623,
                "x": -0.7094548344612122,
                "y": 0.0024358443915843964,
                "z": -0.0022348060738295317
            },
            "position": {
                "x": 0.6094750761985779,
                "y": 0.3671506643295288,
                "z": 0.19426114857196808
            }
        },
        "name": "move_to_magneteinheit_A"
    },
    "id": "LBTRRT_move_to_magneteinheit_A_65",
    "joint_names": [
        "shoulder_pan_joint",
        "shoulder_lift_joint",
        "elbow_joint",
        "wrist_1_joint",
        "wrist_2_joint",
        "wrist_3_joint"
    ],
    "metrics": {
        "cart_traj_len": 3.147940895893303,
        "distance_elbow_joint": 3.9045985732019663,
        "distance_shoulder_lift_joint": 0.21867804783722877,
        "distance_shoulder_pan_joint": 2.6247431795685148,
        "distance_wrist_1_joint": 1.6270565504471586,
        "distance_wrist_2_joint": 1.7037680565315205,
        "distance_wrist_3_joint": 3.591972115715488,
        "smoothness": 0.017034852517691004,
        "time": 5.0343011870000005,
        "traj_len": 3.697406729493237,
        "weighted_distance": 4.917884236306456
    },
    "planner": "LBTRRT",
    "start": {
        "state": {
            "elbow_joint": -1.9196185241190666,
            "shoulder_lift_joint": -1.2443396400964142,
            "shoulder_pan_joint": 2.6996025414629847,
            "wrist_1_joint": -1.5485510000780065,
            "wrist_2_joint": -1.5709468930060704,
            "wrist_3_joint": 0.4420197071253992
        }
    },
    "waypoints": [
        {
            "positions": [
                2.6996025414629847,
                -1.2443396400964142,
                -1.9196185241190666,
                -1.5485510000780065,
                -1.5709468930060704,
                0.4420197071253992
            ]
        },
        {
            "positions": [
                2.5983245511375177,
                -1.2385714328734176,
                -1.8314357991096708,
                -1.4956508232987393,
                -1.5404331150953627,
                0.3271825224217705
            ]
        },
        {
            "positions": [
                2.497046560812051,
                -1.2328032256504213,
                -1.743253074100275,
                -1.4427506465194722,
                -1.5099193371846553,
                0.21234533771814174
            ]
        },
        {
            "positions": [
                2.395768570486584,
                -1.2270350184274248,
                -1.6550703490908791,
                -1.389850469740205,
                -1.4794055592739477,
                0.09750815301451304
            ]
        },
        {
            "positions": [
                2.294490580161117,
                -1.2212668112044285,
                -1.5668876240814833,
                -1.3369502929609378,
                -1.4488917813632403,
                -0.017329031689115704
            ]
        },
        {
            "positions": [
                2.1932125898356505,
                -1.215498603981432,
                -1.4787048990720875,
                -1.2840501161816706,
                -1.4183780034525326,
                -0.1321662163927444
            ]
        },
        {
            "positions": [
                2.0919345995101835,
                -1.2097303967584356,
                -1.3905221740626916,
                -1.2311499394024032,
                -1.3878642255418252,
                -0.2470034010963731
            ]
        },
        {
            "positions": [
                1.9906566091847164,
                -1.203962189535439,
                -1.3023394490532958,
                -1.1782497626231363,
                -1.3573504476311176,
                -0.3618405858000018
            ]
        },
        {
            "positions": [
                1.8893786188592494,
                -1.1981939823124428,
                -1.2141567240439,
                -1.125349585843869,
                -1.3268366697204101,
                -0.4766777705036306
            ]
        },
        {
            "positions": [
                1.7881006285337824,
                -1.1924257750894462,
                -1.1259739990345041,
                -1.0724494090646017,
                -1.2963228918097025,
                -0.5915149552072593
            ]
        },
        {
            "positions": [
                1.6868226382083158,
                -1.18665756786645,
                -1.0377912740251083,
                -1.0195492322853346,
                -1.265809113898995,
                -0.706352139910888
            ]
        },
        {
            "positions": [
                1.5855446478828488,
                -1.1808893606434534,
                -0.9496085490157125,
                -0.9666490555060674,
                -1.2352953359882874,
                -0.8211893246145167
            ]
        },
        {
            "positions": [
                1.484266657557382,
                -1.175121153420457,
                -0.8614258240063166,
                -0.9137488787268002,
                -1.2047815580775798,
                -0.9360265093181453
            ]
        },
        {
            "positions": [
                1.382988667231915,
                -1.1693529461974606,
                -0.7732430989969208,
                -0.8608487019475329,
                -1.1742677801668724,
                -1.0508636940217744
            ]
        },
        {
            "positions": [
                1.2817106769064481,
                -1.163584738974464,
                -0.685060373987525,
                -0.8079485251682659,
                -1.143754002256165,
                -1.1657008787254028
            ]
        },
        {
            "positions": [
                1.1804326865809813,
                -1.1578165317514677,
                -0.5968776489781291,
                -0.7550483483889987,
                -1.1132402243454573,
                -1.2805380634290313
            ]
        },
        {
            "positions": [
                1.0791546962555143,
                -1.1520483245284712,
                -0.5086949239687333,
                -0.7021481716097314,
                -1.0827264464347497,
                -1.3953752481326602
            ]
        },
        {
            "positions": [
                0.9778767059300473,
                -1.1462801173054749,
                -0.42051219895933745,
                -0.6492479948304642,
                -1.0522126685240423,
                -1.5102124328362887
            ]
        },
        {
            "positions": [
                0.8765987156045802,
                -1.1405119100824783,
                -0.3323294739499416,
                -0.596347818051197,
                -1.0216988906133346,
                -1.6250496175399176
            ]
        },
        {
            "positions": [
                0.7753207252791134,
                -1.134743702859482,
                -0.24414674894054578,
                -0.5434476412719298,
                -0.9911851127026271,
                -1.739886802243546
            ]
        },
        {
            "positions": [
                0.6740427349536469,
                -1.1289754956364855,
                -0.15596402393114994,
                -0.4905474644926626,
                -0.9606713347919196,
                -1.854723986947175
            ]
        },
        {
            "positions": [
                0.5727647446281798,
                -1.123207288413489,
                -0.06778129892175411,
                -0.43764728771339545,
                -0.930157556881212,
                -1.969561171650804
            ]
        },
        {
            "positions": [
                0.4714867543027129,
                -1.1174390811904926,
                0.0204014260876417,
                -0.38474711093412817,
                -0.8996437789705045,
                -2.0843983563544324
            ]
        },
        {
            "positions": [
                0.41261555750511564,
                -1.1122197832853284,
                0.18810396500573778,
                -0.38385215886480695,
                -0.8468307051100943,
                -2.177100039046678
            ]
        },
        {
            "positions": [
                0.35374436070751836,
                -1.107000485380164,
                0.35580650392383384,
                -0.3829572067954857,
                -0.7940176312496842,
                -2.269801721738924
            ]
        },
        {
            "positions": [
                0.294873163909921,
                -1.1017811874749999,
                0.52350904284193,
                -0.3820622547261645,
                -0.7412045573892739,
                -2.3625034044311697
            ]
        },
        {
            "positions": [
                0.23600196711232377,
                -1.0965618895698357,
                0.6912115817600261,
                -0.38116730265684323,
                -0.6883914835288638,
                -2.4552050871234155
            ]
        },
        {
            "positions": [
                0.17713077031472646,
                -1.0913425916646713,
                0.8589141206781222,
                -0.380272350587522,
                -0.6355784096684536,
                -2.547906769815661
            ]
        },
        {
            "positions": [
                0.11825957351712918,
                -1.0861232937595071,
                1.0266166595962183,
                -0.3793773985182008,
                -0.5827653358080433,
                -2.640608452507907
            ]
        },
        {
            "positions": [
                0.11435525901985713,
                -1.08815299714028,
                1.1650672916380096,
                -0.4133426804552574,
                -0.5069532340607812,
                -2.7054322145384475
            ]
        },
        {
            "positions": [
                0.11045094452258508,
                -1.0901827005210527,
                1.3035179236798007,
                -0.447307962392314,
                -0.431141132313519,
                -2.770255976568988
            ]
        },
        {
            "positions": [
                0.10654663002531303,
                -1.0922124039018255,
                1.441968555721592,
                -0.4812732443293706,
                -0.35532903056625686,
                -2.835079738599529
            ]
        },
        {
            "positions": [
                0.10264231552804098,
                -1.0942421072825983,
                1.580419187763383,
                -0.5152385262664272,
                -0.27951692881899465,
                -2.8999035006300695
            ]
        },
        {
            "positions": [
                0.09873800103076893,
                -1.096271810663371,
                1.7188698198051744,
                -0.5492038082034838,
                -0.20370482707173249,
                -2.96472726266061
            ]
        },
        {
            "positions": [
                0.10669754740953502,
                -1.1130428721955237,
                1.8075732295644162,
                -0.6452226546041736,
                -0.09152949687267152,
                -3.026468977970436
            ]
        },
        {
            "positions": [
                0.11465709378830109,
                -1.1298139337276762,
                1.896276639323658,
                -0.7412415010048633,
                0.020645833326389446,
                -3.0882106932802627
            ]
        },
        {
            "positions": [
                0.12261664016706718,
                -1.1465849952598288,
                1.9849800490829,
                -0.8372603474055531,
                0.13282116352545043,
                -3.1499524085900887
            ]
        }
    ]
}