{
    "goal": {
        "global_pose": {
            "orientation": {
                "w": 0.005598929693374612,
                "x": 0.007748599140229565,
                "y": 0.7110244013736278,
                "z": -0.7031023480610252
            },
            "position": {
                "x": 0.1141497679147869,
                "y": -0.7141253447532654,
                "z": 0.3711530566215515
            }
        },
        "name": "move_to_auspresseinheit_B"
    },
    "id": "LBTRRT_move_to_auspresseinheit_B_108",
    "joint_names": [
        "shoulder_pan_joint",
        "shoulder_lift_joint",
        "elbow_joint",
        "wrist_1_joint",
        "wrist_2_joint",
        "wrist_3_joint"
    ],
    "metrics": {
        "cart_traj_len": 0.564448290868413,
        "distance_elbow_joint": 0.0639719489743007,
        "distance_shoulder_lift_joint": 0.2939657376702549,
        "distance_shoulder_pan_joint": 0.577098417173848,
        "distance_wrist_1_joint": 0.33345452668011544,
        "distance_wrist_2_joint": 0.9932630495743722,
        "distance_wrist_3_joint": 0.005527602469526549,
        "smoothness": 0.0,
        "time": 5.005565714,
        "traj_len": 1.505749408946395,
        "weighted_distance": 1.8986979917132578
    },
    "planner": "LBTRRT",
    "start": {
        "state": {
            "elbow_joint": 2.0193083361928714,
            "shoulder_lift_joint": -1.1220246554650708,
            "shoulder_pan_joint": -1.0952077554168747,
            "wrist_1_joint": -0.8559753972642168,
            "wrist_2_joint": 0.4759566250798843,
            "wrist_3_joint": -3.1240929996934557
        }
    },
    "waypoints": [
        {
            "positions": [
                -1.0952077554168747,
                -1.1220246554650708,
                2.0193083361928714,
                -0.8559753972642168,
                0.4759566250798843,
                -3.1240929996934557
            ]
        },
        {
            "positions": [
                -1.1913908249458494,
                -1.17101894507678,
                2.0086463446971545,
                -0.8003996428175308,
                0.641500466675613,
                -3.1250142667717102
            ]
        },
        {
            "positions": [
                -1.287573894474824,
                -1.220013234688489,
                1.9979843532014379,
                -0.744823888370845,
                0.8070443082713417,
                -3.1259355338499644
            ]
        },
        {
            "positions": [
                -1.3837569640037986,
                -1.2690075243001981,
                1.9873223617057212,
                -0.6892481339241591,
                0.9725881498670703,
                -3.126856800928219
            ]
        },
        {
            "positions": [
                -1.4799400335327733,
                -1.3180018139119074,
                1.9766603702100043,
                -0.6336723794774732,
                1.138131991462799,
                -3.1277780680064735
            ]
        },
        {
            "positions": [
                -1.576123103061748,
                -1.3669961035236167,
                1.9659983787142874,
                -0.5780966250307873,
                1.3036758330585279,
                -3.1286993350847276
            ]
        },
        {
            "positions": [
                -1.6723061725907227,
                -1.4159903931353257,
                1.9553363872185707,
                -0.5225208705841013,
                1.4692196746542565,
                -3.129620602162982
            ]
        }
    ]
}