{
    "goal": {
        "global_pose": {
            "orientation": {
                "w": -0.4816463035849501,
                "x": 0.5182115481033762,
                "y": 0.4908360881923453,
                "z": -0.5084816262002911
            },
            "position": {
                "x": -0.8240239810943604,
                "y": 0.19912469901144506,
                "z": 0.16403168439865112
            }
        },
        "name": "move_to_storage_D"
    },
    "id": "LBTRRT_move_to_storage_D_14",
    "joint_names": [
        "shoulder_pan_joint",
        "shoulder_lift_joint",
        "elbow_joint",
        "wrist_1_joint",
        "wrist_2_joint",
        "wrist_3_joint"
    ],
    "metrics": {
        "cart_traj_len": 3.95814114986157,
        "distance_elbow_joint": 4.209151532960238,
        "distance_shoulder_lift_joint": 1.2644604334118872,
        "distance_shoulder_pan_joint": 2.9079992547641296,
        "distance_wrist_1_joint": 2.2696041944840575,
        "distance_wrist_2_joint": 1.273696803357974,
        "distance_wrist_3_joint": 3.1549692870575496,
        "smoothness": 0.14377377647446216,
        "time": 5.0766208530000005,
        "traj_len": 3.8832823108854493,
        "weighted_distance": 4.993307629016358
    },
    "planner": "LBTRRT",
    "start": {
        "state": {
            "elbow_joint": -2.384821988534728,
            "shoulder_lift_joint": -2.2788054721415256,
            "shoulder_pan_joint": -0.1854694642142757,
            "wrist_1_joint": 1.4845938289331202,
            "wrist_2_joint": 0.17898776772866878,
            "wrist_3_joint": 0.037105688729662994
        }
    },
    "waypoints": [
        {
            "positions": [
                -0.1854694642142757,
                -2.2788054721415256,
                -2.384821988534728,
                1.4845938289331202,
                0.17898776772866878,
                0.037105688729662994
            ]
        },
        {
            "positions": [
                -0.15918088280093712,
                -2.265009095564807,
                -2.3727074055621094,
                1.4708550161190497,
                0.19745400722071782,
                0.04255014899393237
            ]
        },
        {
            "positions": [
                -0.08259102490331924,
                -2.23182835132028,
                -2.263724025902264,
                1.4103842143788214,
                0.22592918167779294,
                -0.03597675046087486
            ]
        },
        {
            "positions": [
                -0.006001167005701358,
                -2.1986476070757535,
                -2.154740646242419,
                1.349913412638593,
                0.25440435613486806,
                -0.1145036499156821
            ]
        },
        {
            "positions": [
                0.07058869089191655,
                -2.1654668628312272,
                -2.0457572665825734,
                1.2894426108983648,
                0.28287953059194315,
                -0.19303054937048933
            ]
        },
        {
            "positions": [
                0.1471785487895344,
                -2.1322861185867006,
                -1.9367738869227282,
                1.2289718091581363,
                0.3113547050490183,
                -0.27155744882529653
            ]
        },
        {
            "positions": [
                0.2237684066871523,
                -2.099105374342174,
                -1.827790507262883,
                1.168501007417908,
                0.3398298795060934,
                -0.35008434828010376
            ]
        },
        {
            "positions": [
                0.3003582645847702,
                -2.0659246300976473,
                -1.7188071276030377,
                1.1080302056776796,
                0.3683050539631685,
                -0.428611247734911
            ]
        },
        {
            "positions": [
                0.37694812248238807,
                -2.032743885853121,
                -1.6098237479431925,
                1.0475594039374514,
                0.39678022842024363,
                -0.5071381471897182
            ]
        },
        {
            "positions": [
                0.4535379803800059,
                -1.9995631416085944,
                -1.500840368283347,
                0.9870886021972229,
                0.4252554028773188,
                -0.5856650466445255
            ]
        },
        {
            "positions": [
                0.5301278382776239,
                -1.9663823973640677,
                -1.391856988623502,
                0.9266178004569946,
                0.45373057733439387,
                -0.6641919460993326
            ]
        },
        {
            "positions": [
                0.6067176961752417,
                -1.933201653119541,
                -1.2828736089636565,
                0.8661469987167664,
                0.48220575179146896,
                -0.7427188455541399
            ]
        },
        {
            "positions": [
                0.6833075540728596,
                -1.9000209088750146,
                -1.1738902293038114,
                0.805676196976538,
                0.5106809262485441,
                -0.8212457450089471
            ]
        },
        {
            "positions": [
                0.7598974119704776,
                -1.8668401646304882,
                -1.064906849643966,
                0.7452053952363097,
                0.5391561007056191,
                -0.8997726444637544
            ]
        },
        {
            "positions": [
                0.8364872698680954,
                -1.8336594203859615,
                -0.9559234699841208,
                0.6847345934960813,
                0.5676312751626944,
                -0.9782995439185616
            ]
        },
        {
            "positions": [
                0.9130771277657133,
                -1.8004786761414349,
                -0.8469400903242756,
                0.624263791755853,
                0.5961064496197694,
                -1.0568264433733687
            ]
        },
        {
            "positions": [
                0.9896669856633311,
                -1.7672979318969084,
                -0.7379567106644302,
                0.5637929900156247,
                0.6245816240768446,
                -1.1353533428281761
            ]
        },
        {
            "positions": [
                1.066256843560949,
                -1.7341171876523818,
                -0.6289733310045851,
                0.5033221882753963,
                0.6530567985339197,
                -1.2138802422829833
            ]
        },
        {
            "positions": [
                1.142846701458567,
                -1.7009364434078553,
                -0.5199899513447397,
                0.442851386535168,
                0.6815319729909948,
                -1.2924071417377905
            ]
        },
        {
            "positions": [
                1.219436559356185,
                -1.6677556991633287,
                -0.4110065716848945,
                0.3823805847949395,
                0.7100071474480699,
                -1.3709340411925977
            ]
        },
        {
            "positions": [
                1.2960264172538025,
                -1.6345749549188022,
                -0.30202319202504935,
                0.3219097830547115,
                0.738482321905145,
                -1.4494609406474048
            ]
        },
        {
            "positions": [
                1.3726162751514206,
                -1.6013942106742756,
                -0.19303981236520373,
                0.26143898131448307,
                0.7669574963622201,
                -1.5279878401022122
            ]
        },
        {
            "positions": [
                1.4492061330490384,
                -1.5682134664297491,
                -0.08405643270535901,
                0.20096817957425483,
                0.7954326708192953,
                -1.6065147395570192
            ]
        },
        {
            "positions": [
                1.5257959909466563,
                -1.5350327221852225,
                0.024926946954486606,
                0.14049737783402638,
                0.8239078452763704,
                -1.6850416390118266
            ]
        },
        {
            "positions": [
                1.6023858488442742,
                -1.5018519779406958,
                0.13391032661433178,
                0.08002657609379815,
                0.8523830197334454,
                -1.7635685384666338
            ]
        },
        {
            "positions": [
                1.6789757067418922,
                -1.4686712336961694,
                0.2428937062741774,
                0.0195557743535697,
                0.8808581941905206,
                -1.8420954379214411
            ]
        },
        {
            "positions": [
                1.7555655646395099,
                -1.435490489451643,
                0.3518770859340221,
                -0.04091502738665853,
                0.9093333686475956,
                -1.920622337376248
            ]
        },
        {
            "positions": [
                1.832155422537128,
                -1.4023097452071163,
                0.46086046559386773,
                -0.10138582912688698,
                0.9378085431046709,
                -1.9991492368310555
            ]
        },
        {
            "positions": [
                1.9087452804347456,
                -1.3691290009625896,
                0.5698438452537129,
                -0.16185663086711521,
                0.9662837175617459,
                -2.077676136285863
            ]
        },
        {
            "positions": [
                1.9853351383323636,
                -1.335948256718063,
                0.6788272249135581,
                -0.22232743260734367,
                0.9947588920188211,
                -2.15620303574067
            ]
        },
        {
            "positions": [
                2.0619249962299815,
                -1.3027675124735367,
                0.7878106045734032,
                -0.2827982343475719,
                1.023234066475896,
                -2.2347299351954772
            ]
        },
        {
            "positions": [
                2.1385148541275996,
                -1.26958676822901,
                0.8967939842332489,
                -0.34326903608780035,
                1.0517092409329714,
                -2.313256834650285
            ]
        },
        {
            "positions": [
                2.2151047120252176,
                -1.2364060239844834,
                1.005777363893094,
                -0.4037398378280286,
                1.0801844153900464,
                -2.3917837341050916
            ]
        },
        {
            "positions": [
                2.291694569922835,
                -1.2032252797399567,
                1.1147607435529392,
                -0.46421063956825703,
                1.1086595898471217,
                -2.470310633559899
            ]
        },
        {
            "positions": [
                2.368284427820453,
                -1.1700445354954303,
                1.2237441232127844,
                -0.5246814413084853,
                1.1371347643041965,
                -2.5488375330147064
            ]
        },
        {
            "positions": [
                2.444874285718071,
                -1.1368637912509036,
                1.33272750287263,
                -0.5851522430487137,
                1.1656099387612717,
                -2.6273644324695136
            ]
        },
        {
            "positions": [
                2.521464143615689,
                -1.1036830470063772,
                1.4417108825324751,
                -0.6456230447889422,
                1.194085113218347,
                -2.7058913319243207
            ]
        },
        {
            "positions": [
                2.598054001513307,
                -1.0705023027618505,
                1.5506942621923203,
                -0.7060938465291706,
                1.222560287675422,
                -2.784418231379128
            ]
        },
        {
            "positions": [
                2.6746438594109243,
                -1.037321558517324,
                1.659677641852166,
                -0.7665646482693984,
                1.251035462132497,
                -2.862945130833935
            ]
        },
        {
            "positions": [
                2.650700893841459,
                -1.0258332986234813,
                1.742003593138838,
                -0.7757875069101676,
                1.150210907655424,
                -2.984959904316641
            ]
        },
        {
            "positions": [
                2.6267579282719944,
                -1.0143450387296384,
                1.82432954442551,
                -0.785010365550937,
                1.0493863531783512,
                -3.1069746777993474
            ]
        }
    ]
}