{
    "goal": {
        "global_pose": {
            "orientation": {
                "w": -0.4816463035849501,
                "x": 0.5182115481033762,
                "y": 0.4908360881923453,
                "z": -0.5084816262002911
            },
            "position": {
                "x": -0.8240239810943604,
                "y": -0.300875300988555,
                "z": 0.16403168439865112
            }
        },
        "name": "move_to_storage_C"
    },
    "id": "LBTRRT_move_to_storage_C_24",
    "joint_names": [
        "shoulder_pan_joint",
        "shoulder_lift_joint",
        "elbow_joint",
        "wrist_1_joint",
        "wrist_2_joint",
        "wrist_3_joint"
    ],
    "metrics": {
        "cart_traj_len": 0.5763545179226004,
        "distance_elbow_joint": 0.2624057032086309,
        "distance_shoulder_lift_joint": 0.19004533248245237,
        "distance_shoulder_pan_joint": 0.49301164345306514,
        "distance_wrist_1_joint": 0.09091892603906082,
        "distance_wrist_2_joint": 1.073704795352731,
        "distance_wrist_3_joint": 0.07419749062278136,
        "smoothness": 2.5376526478085547e-16,
        "time": 5.00434551,
        "traj_len": 1.47793230263051,
        "weighted_distance": 1.870107642301928
    },
    "planner": "LBTRRT",
    "start": {
        "state": {
            "elbow_joint": 2.010868314990456,
            "shoulder_lift_joint": -1.1634956873337592,
            "shoulder_pan_joint": -2.4736205022346125,
            "wrist_1_joint": -0.8367026794202681,
            "wrist_2_joint": 0.6746043897044499,
            "wrist_3_joint": -3.1496632123970403
        }
    },
    "waypoints": [
        {
            "positions": [
                -2.4736205022346125,
                -1.1634956873337592,
                2.010868314990456,
                -0.8367026794202681,
                0.6746043897044499,
                -3.1496632123970403
            ]
        },
        {
            "positions": [
                -2.55578910947679,
                -1.1318214652533505,
                1.9671340311223506,
                -0.8215495250804247,
                0.8535551889299051,
                -3.13729696395991
            ]
        },
        {
            "positions": [
                -2.6379577167189674,
                -1.1001472431729418,
                1.9233997472542455,
                -0.8063963707405811,
                1.0325059881553602,
                -3.1249307155227797
            ]
        },
        {
            "positions": [
                -2.720126323961145,
                -1.068473021092533,
                1.8796654633861403,
                -0.7912432164007377,
                1.2114567873808153,
                -3.1125644670856496
            ]
        },
        {
            "positions": [
                -2.8022949312033227,
                -1.0367987990121244,
                1.8359311795180353,
                -0.7760900620608943,
                1.3904075866062704,
                -3.1001982186485195
            ]
        },
        {
            "positions": [
                -2.8844635384455,
                -1.0051245769317156,
                1.7921968956499301,
                -0.7609369077210507,
                1.569358385831726,
                -3.087831970211389
            ]
        },
        {
            "positions": [
                -2.9666321456876776,
                -0.9734503548513068,
                1.748462611781825,
                -0.7457837533812073,
                1.748309185057181,
                -3.075465721774259
            ]
        }
    ]
}