{
    "goal": {
        "global_pose": {
            "orientation": {
                "w": 0.5084816262002911,
                "x": -0.4908360881923452,
                "y": 0.5182115481033761,
                "z": -0.48164630358495003
            },
            "position": {
                "x": 0.5540239810943604,
                "y": -0.46912469901144505,
                "z": 0.16403168439865112
            }
        },
        "name": "move_to_storage_B"
    },
    "id": "LBTRRT_move_to_storage_B_66",
    "joint_names": [
        "shoulder_pan_joint",
        "shoulder_lift_joint",
        "elbow_joint",
        "wrist_1_joint",
        "wrist_2_joint",
        "wrist_3_joint"
    ],
    "metrics": {
        "cart_traj_len": 0.9174111446260006,
        "distance_elbow_joint": 0.9048141565522276,
        "distance_shoulder_lift_joint": 0.9097218831832656,
        "distance_shoulder_pan_joint": 0.1797191922931215,
        "distance_wrist_1_joint": 2.980670661018303,
        "distance_wrist_2_joint": 2.7171273376479297,
        "distance_wrist_3_joint": 3.1486078722187734,
        "smoothness": 0.1641246921025205,
        "time": 5.0606135299999995,
        "traj_len": 3.292515922955213,
        "weighted_distance": 4.778668731562944
    },
    "planner": "LBTRRT",
    "start": {
        "state": {
            "elbow_joint": 1.664937868594044,
            "shoulder_lift_joint": -0.661644460510453,
            "shoulder_pan_joint": -0.9139846352900073,
            "wrist_1_joint": 2.146753192139373,
            "wrist_2_joint": -2.2341966793290973,
            "wrist_3_joint": 0.005466555786416001
        }
    },
    "waypoints": [
        {
            "positions": [
                -0.9139846352900073,
                -0.661644460510453,
                1.664937868594044,
                2.146753192139373,
                -2.2341966793290973,
                0.005466555786416001
            ]
        },
        {
            "positions": [
                -0.917764656276381,
                -0.697647095779678,
                1.697936857864761,
                2.0125098634525216,
                -2.109448291893393,
                -0.05266203766883361
            ]
        },
        {
            "positions": [
                -0.9215446772627549,
                -0.7336497310489029,
                1.7309358471354777,
                1.87826653476567,
                -1.9846999044576885,
                -0.11079063112408322
            ]
        },
        {
            "positions": [
                -0.9253246982491287,
                -0.7696523663181278,
                1.7639348364061946,
                1.7440232060788186,
                -1.8599515170219842,
                -0.16891922457933284
            ]
        },
        {
            "positions": [
                -0.9291047192355024,
                -0.8056550015873527,
                1.7969338256769114,
                1.609779877391967,
                -1.73520312958628,
                -0.22704781803458243
            ]
        },
        {
            "positions": [
                -0.9328847402218763,
                -0.8416576368565777,
                1.8299328149476284,
                1.4755365487051153,
                -1.6104547421505755,
                -0.285176411489832
            ]
        },
        {
            "positions": [
                -0.93666476120825,
                -0.8776602721258027,
                1.8629318042183451,
                1.341293220018264,
                -1.4857063547148712,
                -0.34330500494508165
            ]
        },
        {
            "positions": [
                -0.9404447821946238,
                -0.9136629073950275,
                1.8959307934890621,
                1.2070498913314123,
                -1.360957967279167,
                -0.4014335984003312
            ]
        },
        {
            "positions": [
                -0.9442248031809977,
                -0.9496655426642525,
                1.9289297827597789,
                1.0728065626445606,
                -1.2362095798434627,
                -0.45956219185558084
            ]
        },
        {
            "positions": [
                -0.9480048241673714,
                -0.9856681779334775,
                1.9619287720304959,
                0.938563233957709,
                -1.1114611924077582,
                -0.5176907853108306
            ]
        },
        {
            "positions": [
                -0.9517848451537452,
                -1.0216708132027024,
                1.9949277613012129,
                0.8043199052708574,
                -0.9867128049720539,
                -0.5758193787660801
            ]
        },
        {
            "positions": [
                -0.955564866140119,
                -1.0576734484719275,
                2.02792675057193,
                0.6700765765840058,
                -0.8619644175363494,
                -0.6339479722213298
            ]
        },
        {
            "positions": [
                -0.9593448871264928,
                -1.0936760837411523,
                2.0609257398426464,
                0.5358332478971544,
                -0.7372160301006454,
                -0.6920765656765794
            ]
        },
        {
            "positions": [
                -0.9631249081128666,
                -1.1296787190103772,
                2.0939247291133634,
                0.40158991921030274,
                -0.6124676426649409,
                -0.7502051591318291
            ]
        },
        {
            "positions": [
                -0.9669049290992403,
                -1.1656813542796023,
                2.1269237183840803,
                0.2673465905234511,
                -0.48771925522923665,
                -0.8083337525870785
            ]
        },
        {
            "positions": [
                -0.9706849500856142,
                -1.2016839895488272,
                2.1599227076547973,
                0.1331032618365997,
                -0.36297086779353216,
                -0.8664623460423282
            ]
        },
        {
            "positions": [
                -0.9744649710719879,
                -1.237686624818052,
                2.192921696925514,
                -0.0011400668502519196,
                -0.2382224803578279,
                -0.9245909394975778
            ]
        },
        {
            "positions": [
                -0.9782449920583617,
                -1.2736892600872771,
                2.225920686196231,
                -0.13538339553710355,
                -0.1134740929221234,
                -0.9827195329528274
            ]
        },
        {
            "positions": [
                -0.9820250130447356,
                -1.3096918953565018,
                2.258919675466948,
                -0.26962672422395517,
                0.011274294513580863,
                -1.0408481264080771
            ]
        },
        {
            "positions": [
                -0.9858050340311093,
                -1.3456945306257269,
                2.291918664737665,
                -0.40387005291080696,
                0.13602268194928505,
                -1.0989767198633267
            ]
        },
        {
            "positions": [
                -0.9977937888702226,
                -1.3206198847292834,
                2.261048291358931,
                -0.45165309912948715,
                0.17456801265701236,
                -1.326106119482108
            ]
        },
        {
            "positions": [
                -1.009782543709336,
                -1.29554523883284,
                2.2301779179801966,
                -0.49943614534816727,
                0.21311334336473964,
                -1.553235519100889
            ]
        },
        {
            "positions": [
                -1.021771298548449,
                -1.2704705929363962,
                2.1993075446014627,
                -0.5472191915668474,
                0.25165867407246695,
                -1.7803649187196702
            ]
        },
        {
            "positions": [
                -1.0337600533875624,
                -1.2453959470399527,
                2.1684371712227284,
                -0.5950022377855275,
                0.29020400478019426,
                -2.0074943183384515
            ]
        },
        {
            "positions": [
                -1.0457488082266757,
                -1.2203213011435092,
                2.1375667978439945,
                -0.6427852840042078,
                0.32874933548792157,
                -2.234623717957233
            ]
        },
        {
            "positions": [
                -1.057737563065789,
                -1.1952466552470657,
                2.10669642446526,
                -0.6905683302228879,
                0.3672946661956489,
                -2.4617531175760137
            ]
        },
        {
            "positions": [
                -1.0697263179049021,
                -1.170172009350622,
                2.0758260510865263,
                -0.7383513764415681,
                0.40583999690337613,
                -2.688882517194795
            ]
        },
        {
            "positions": [
                -1.0817150727440155,
                -1.1450973634541786,
                2.044955677707792,
                -0.7861344226602482,
                0.4443853276111035,
                -2.9160119168135763
            ]
        },
        {
            "positions": [
                -1.0937038275831288,
                -1.120022717557735,
                2.014085304329058,
                -0.8339174688789284,
                0.48293065831883075,
                -3.1431413164323576
            ]
        }
    ]
}