{
    "goal": {
        "global_pose": {
            "orientation": {
                "w": 0.7031023480610252,
                "x": -0.7110244013736278,
                "y": 0.0077485991402295624,
                "z": 0.005598929693374583
            },
            "position": {
                "x": -0.8841497679147869,
                "y": 0.44412534475326537,
                "z": 0.3711530566215515
            }
        },
        "name": "move_to_auspresseinheit_D"
    },
    "id": "LBTRRT_move_to_auspresseinheit_D_22",
    "joint_names": [
        "shoulder_pan_joint",
        "shoulder_lift_joint",
        "elbow_joint",
        "wrist_1_joint",
        "wrist_2_joint",
        "wrist_3_joint"
    ],
    "metrics": {
        "cart_traj_len": 0.3440203928485767,
        "distance_elbow_joint": 0.6539303932082658,
        "distance_shoulder_lift_joint": 0.12967106753106128,
        "distance_shoulder_pan_joint": 0.13363395312367227,
        "distance_wrist_1_joint": 0.5766567964139795,
        "distance_wrist_2_joint": 1.4352302067057512,
        "distance_wrist_3_joint": 0.030584670337521658,
        "smoothness": 0.0,
        "time": 5.004339152,
        "traj_len": 1.7203799252840204,
        "weighted_distance": 2.2433821411242056
    },
    "planner": "LBTRRT",
    "start": {
        "state": {
            "elbow_joint": -1.8275523626775212,
            "shoulder_lift_joint": -2.126789852344167,
            "shoulder_pan_joint": -0.03513704404078235,
            "wrist_1_joint": -2.347782403156801,
            "wrist_2_joint": -1.6058999987535132,
            "wrist_3_joint": -3.0880379163319196
        }
    },
    "waypoints": [
        {
            "positions": [
                -0.03513704404078235,
                -2.126789852344167,
                -1.8275523626775212,
                -2.347782403156801,
                -1.6058999987535132,
                -3.0880379163319196
            ]
        },
        {
            "positions": [
                -0.05184128818124138,
                -2.1429987357855493,
                -1.7458110635264878,
                -2.419864502708548,
                -1.4264962229152942,
                -3.0842148325397294
            ]
        },
        {
            "positions": [
                -0.06854553232170041,
                -2.1592076192269323,
                -1.6640697643754547,
                -2.491946602260296,
                -1.2470924470770754,
                -3.080391748747539
            ]
        },
        {
            "positions": [
                -0.08524977646215945,
                -2.1754165026683148,
                -1.5823284652244216,
                -2.564028701812043,
                -1.0676886712388565,
                -3.076568664955349
            ]
        },
        {
            "positions": [
                -0.10195402060261849,
                -2.1916253861096973,
                -1.5005871660733883,
                -2.636110801363791,
                -0.8882848954006376,
                -3.0727455811631588
            ]
        },
        {
            "positions": [
                -0.11865826474307753,
                -2.20783426955108,
                -1.418845866922355,
                -2.708192900915538,
                -0.7088811195624187,
                -3.0689224973709686
            ]
        },
        {
            "positions": [
                -0.13536250888353654,
                -2.2240431529924627,
                -1.3371045677713218,
                -2.7802750004672854,
                -0.5294773437241997,
                -3.0650994135787784
            ]
        },
        {
            "positions": [
                -0.15206675302399558,
                -2.2402520364338456,
                -1.2553632686202887,
                -2.8523571000190326,
                -0.350073567885981,
                -3.061276329786588
            ]
        },
        {
            "positions": [
                -0.16877099716445462,
                -2.256460919875228,
                -1.1736219694692553,
                -2.9244391995707804,
                -0.17066979204776203,
                -3.057453245994398
            ]
        }
    ]
}