{
    "goal": {
        "global_pose": {
            "orientation": {
                "w": 0.7047431493862688,
                "x": -0.7094548369677653,
                "y": 0.0024358444001904,
                "z": -0.0022348060817251984
            },
            "position": {
                "x": -0.39052492380142206,
                "y": 0.3671506643295288,
                "z": 0.19426114857196808
            }
        },
        "name": "move_to_magneteinheit_D"
    },
    "id": "LBTRRT_move_to_magneteinheit_D_138",
    "joint_names": [
        "shoulder_pan_joint",
        "shoulder_lift_joint",
        "elbow_joint",
        "wrist_1_joint",
        "wrist_2_joint",
        "wrist_3_joint"
    ],
    "metrics": {
        "cart_traj_len": 4.046479913138907,
        "distance_elbow_joint": 3.1969214255098928,
        "distance_shoulder_lift_joint": 1.6331212562349473,
        "distance_shoulder_pan_joint": 2.9387699814151254,
        "distance_wrist_1_joint": 1.6915033663548915,
        "distance_wrist_2_joint": 0.6176758721322099,
        "distance_wrist_3_joint": 3.144210065841503,
        "smoothness": 0.19113394506441356,
        "time": 5.062077454000001,
        "traj_len": 3.6362345864215873,
        "weighted_distance": 4.671167020955114
    },
    "planner": "LBTRRT",
    "start": {
        "state": {
            "elbow_joint": 0.749534889911806,
            "shoulder_lift_joint": -0.6476975780787326,
            "shoulder_pan_joint": -2.711696901376241,
            "wrist_1_joint": -0.07506478083263063,
            "wrist_2_joint": 0.43296659715538205,
            "wrist_3_joint": -3.14703540197715
        }
    },
    "waypoints": [
        {
            "positions": [
                -2.711696901376241,
                -0.6476975780787326,
                0.749534889911806,
                -0.07506478083263063,
                0.43296659715538205,
                -3.14703540197715
            ]
        },
        {
            "positions": [
                -2.7277921167378554,
                -0.7536681517701195,
                0.7680753400835436,
                0.06239708858020518,
                0.4775169259170927,
                -3.11378007144358
            ]
        },
        {
            "positions": [
                -2.7438873320994697,
                -0.8596387254615063,
                0.7866157902552814,
                0.199858957993041,
                0.5220672546788033,
                -3.0805247409100107
            ]
        },
        {
            "positions": [
                -2.6361255824432863,
                -0.8989097059602231,
                0.6912600408995679,
                0.25303918952848026,
                0.5045566839429454,
                -3.0063401149697215
            ]
        },
        {
            "positions": [
                -2.528363832787103,
                -0.9381806864589399,
                0.5959042915438544,
                0.30621942106391953,
                0.48704611320708746,
                -2.9321554890294323
            ]
        },
        {
            "positions": [
                -2.4206020831309196,
                -0.9774516669576566,
                0.5005485421881409,
                0.3593996525993588,
                0.4695355424712295,
                -2.857970863089143
            ]
        },
        {
            "positions": [
                -2.3128403334747363,
                -1.0167226474563735,
                0.40519279283242743,
                0.41257988413479807,
                0.45202497173537154,
                -2.7837862371488535
            ]
        },
        {
            "positions": [
                -2.2050785838185525,
                -1.05599362795509,
                0.3098370434767139,
                0.46576011567023734,
                0.4345144009995136,
                -2.7096016112085644
            ]
        },
        {
            "positions": [
                -2.097316834162369,
                -1.095264608453807,
                0.21448129412100048,
                0.5189403472056766,
                0.4170038302636557,
                -2.635416985268275
            ]
        },
        {
            "positions": [
                -1.9895550845061858,
                -1.1345355889525237,
                0.11912554476528692,
                0.5721205787411159,
                0.3994932595277977,
                -2.561232359327986
            ]
        },
        {
            "positions": [
                -1.8817933348500024,
                -1.1738065694512405,
                0.02376979540957347,
                0.6253008102765552,
                0.38198268879193975,
                -2.487047733387697
            ]
        },
        {
            "positions": [
                -1.774031585193819,
                -1.2130775499499573,
                -0.07158595394613998,
                0.6784810418119944,
                0.3644721180560818,
                -2.412863107447407
            ]
        },
        {
            "positions": [
                -1.6662698355376355,
                -1.2523485304486741,
                -0.16694170330185354,
                0.7316612733474337,
                0.3469615473202239,
                -2.338678481507118
            ]
        },
        {
            "positions": [
                -1.5585080858814522,
                -1.291619510947391,
                -0.2622974526575671,
                0.784841504882873,
                0.32945097658436595,
                -2.264493855566829
            ]
        },
        {
            "positions": [
                -1.4507463362252688,
                -1.3308904914461075,
                -0.35765320201328044,
                0.8380217364183122,
                0.311940405848508,
                -2.1903092296265396
            ]
        },
        {
            "positions": [
                -1.3429845865690855,
                -1.3701614719448245,
                -0.453008951368994,
                0.8912019679537515,
                0.29442983511265,
                -2.1161246036862504
            ]
        },
        {
            "positions": [
                -1.235222836912902,
                -1.409432452443541,
                -0.5483647007247076,
                0.9443821994891909,
                0.27691926437679204,
                -2.041939977745961
            ]
        },
        {
            "positions": [
                -1.1274610872567188,
                -1.448703432942258,
                -0.6437204500804209,
                0.99756243102463,
                0.25940869364093416,
                -1.9677553518056718
            ]
        },
        {
            "positions": [
                -1.0196993376005352,
                -1.4879744134409747,
                -0.7390761994361345,
                1.0507426625600693,
                0.24189812290507617,
                -1.8935707258653827
            ]
        },
        {
            "positions": [
                -0.9119375879443516,
                -1.5272453939396915,
                -0.834431948791848,
                1.1039228940955086,
                0.22438755216921824,
                -1.8193860999250933
            ]
        },
        {
            "positions": [
                -0.8041758382881685,
                -1.5665163744384083,
                -0.9297876981475613,
                1.1571031256309479,
                0.2068769814333603,
                -1.745201473984804
            ]
        },
        {
            "positions": [
                -0.6964140886319852,
                -1.605787354937125,
                -1.0251434475032748,
                1.2102833571663871,
                0.18936641069750232,
                -1.671016848044515
            ]
        },
        {
            "positions": [
                -0.5886523389758014,
                -1.645058335435842,
                -1.1204991968589884,
                1.2634635887018264,
                0.17185583996164439,
                -1.5968322221042255
            ]
        },
        {
            "positions": [
                -0.4808905893196185,
                -1.6843293159345585,
                -1.2158549462147015,
                1.3166438202372657,
                0.15434526922578645,
                -1.5226475961639365
            ]
        },
        {
            "positions": [
                -0.3731288396634347,
                -1.7236002964332755,
                -1.3112106955704155,
                1.369824051772705,
                0.13683469848992852,
                -1.4484629702236471
            ]
        },
        {
            "positions": [
                -0.26536709000725134,
                -1.762871276931992,
                -1.406566444926129,
                1.4230042833081442,
                0.11932412775407053,
                -1.3742783442833577
            ]
        },
        {
            "positions": [
                -0.157605340351068,
                -1.8021422574307089,
                -1.5019221942818421,
                1.4761845148435835,
                0.10181355701821265,
                -1.3000937183430687
            ]
        },
        {
            "positions": [
                -0.04984359069488474,
                -1.8414132379294257,
                -1.5972779436375557,
                1.5293647463790228,
                0.08430298628235464,
                -1.2259090924027793
            ]
        },
        {
            "positions": [
                -0.04353036914059739,
                -1.8966676632374844,
                -1.7245974639801427,
                1.5215073504582772,
                0.08729126469361682,
                -1.0598015682544233
            ]
        },
        {
            "positions": [
                -0.03721714758631004,
                -1.9519220885455428,
                -1.8519169843227294,
                1.5136499545375317,
                0.09027954310487901,
                -0.8936940441060672
            ]
        },
        {
            "positions": [
                -0.03090392603202269,
                -2.0071765138536017,
                -1.9792365046653164,
                1.5057925586167862,
                0.0932678215161412,
                -0.7275865199577111
            ]
        },
        {
            "positions": [
                -0.02459070447773534,
                -2.06243093916166,
                -2.106556025007903,
                1.4979351626960404,
                0.09625609992740339,
                -0.561478995809355
            ]
        },
        {
            "positions": [
                -0.018277482923447982,
                -2.1176853644697187,
                -2.2338755453504904,
                1.490077766775295,
                0.09924437833866558,
                -0.39537147166099884
            ]
        },
        {
            "positions": [
                -0.011964261369160636,
                -2.1729397897777774,
                -2.361195065693077,
                1.4822203708545494,
                0.10223265674992776,
                -0.2292639475126428
            ]
        },
        {
            "positions": [
                -0.09929250134995453,
                -2.2268793120457286,
                -2.3672099003021065,
                1.502185102663932,
                0.13867329462231132,
                -0.11604464182414492
            ]
        },
        {
            "positions": [
                -0.18662074133074844,
                -2.28081883431368,
                -2.3732247349111364,
                1.5221498344733144,
                0.17511393249469484,
                -0.0028253361356470395
            ]
        }
    ]
}