{
    "goal": {
        "global_pose": {
            "orientation": {
                "w": 0.7031023480610252,
                "x": -0.7110244013736278,
                "y": 0.0077485991402295624,
                "z": 0.005598929693374583
            },
            "position": {
                "x": -0.8841497679147869,
                "y": 0.44412534475326537,
                "z": 0.3711530566215515
            }
        },
        "name": "move_to_auspresseinheit_D"
    },
    "id": "LBTRRT_move_to_auspresseinheit_D_85",
    "joint_names": [
        "shoulder_pan_joint",
        "shoulder_lift_joint",
        "elbow_joint",
        "wrist_1_joint",
        "wrist_2_joint",
        "wrist_3_joint"
    ],
    "metrics": {
        "cart_traj_len": 0.3454577428964412,
        "distance_elbow_joint": 0.6672466642252017,
        "distance_shoulder_lift_joint": 0.13692478641739125,
        "distance_shoulder_pan_joint": 0.1344211929304794,
        "distance_wrist_1_joint": 0.615316648935484,
        "distance_wrist_2_joint": 1.4405171623825541,
        "distance_wrist_3_joint": 0.06696526543449144,
        "smoothness": 0.0,
        "time": 5.004314023999999,
        "traj_len": 1.7496833200112534,
        "weighted_distance": 2.2915401071141264
    },
    "planner": "LBTRRT",
    "start": {
        "state": {
            "elbow_joint": -1.8275523626775212,
            "shoulder_lift_joint": -2.126789852344167,
            "shoulder_pan_joint": -0.03513704404078235,
            "wrist_1_joint": -2.347782403156801,
            "wrist_2_joint": -1.6058999987535132,
            "wrist_3_joint": -3.0880379163319196
        }
    },
    "waypoints": [
        {
            "positions": [
                -0.03513704404078235,
                -2.126789852344167,
                -1.8275523626775212,
                -2.347782403156801,
                -1.6058999987535132,
                -3.0880379163319196
            ]
        },
        {
            "positions": [
                -0.05193969315709228,
                -2.143905450646341,
                -1.744146529649371,
                -2.4246969842737363,
                -1.425835353455694,
                -3.0796672581526083
            ]
        },
        {
            "positions": [
                -0.0687423422734022,
                -2.1610210489485144,
                -1.6607406966212208,
                -2.5016115653906716,
                -1.2457707081578746,
                -3.0712965999732966
            ]
        },
        {
            "positions": [
                -0.08554499138971214,
                -2.1781366472506885,
                -1.5773348635930704,
                -2.5785261465076075,
                -1.0657060628600554,
                -3.0629259417939854
            ]
        },
        {
            "positions": [
                -0.10234764050602205,
                -2.1952522455528625,
                -1.4939290305649204,
                -2.655440727624543,
                -0.8856414175622361,
                -3.0545552836146737
            ]
        },
        {
            "positions": [
                -0.11915028962233198,
                -2.2123678438550365,
                -1.41052319753677,
                -2.7323553087414783,
                -0.7055767722644168,
                -3.0461846254353624
            ]
        },
        {
            "positions": [
                -0.13595293873864192,
                -2.2294834421572105,
                -1.3271173645086198,
                -2.809269889858414,
                -0.5255121269665977,
                -3.037813967256051
            ]
        },
        {
            "positions": [
                -0.15275558785495183,
                -2.246599040459384,
                -1.2437115314804696,
                -2.8861844709753495,
                -0.34544748166877826,
                -3.0294433090767394
            ]
        },
        {
            "positions": [
                -0.16955823697126177,
                -2.263714638761558,
                -1.1603056984523195,
                -2.963099052092285,
                -0.16538283637095905,
                -3.021072650897428
            ]
        }
    ]
}