{
    "goal": {
        "global_pose": {
            "orientation": {
                "w": -0.4816463035849501,
                "x": 0.5182115481033762,
                "y": 0.4908360881923453,
                "z": -0.5084816262002911
            },
            "position": {
                "x": -0.8240239810943604,
                "y": 0.19912469901144506,
                "z": 0.16403168439865112
            }
        },
        "name": "move_to_storage_D"
    },
    "id": "LBTRRT_move_to_storage_D_13",
    "joint_names": [
        "shoulder_pan_joint",
        "shoulder_lift_joint",
        "elbow_joint",
        "wrist_1_joint",
        "wrist_2_joint",
        "wrist_3_joint"
    ],
    "metrics": {
        "cart_traj_len": 3.787091316611549,
        "distance_elbow_joint": 4.212007681684643,
        "distance_shoulder_lift_joint": 1.2646351640438576,
        "distance_shoulder_pan_joint": 2.811535119366038,
        "distance_wrist_1_joint": 2.2835172393869176,
        "distance_wrist_2_joint": 0.8763976779008552,
        "distance_wrist_3_joint": 3.1351346916651304,
        "smoothness": 0.018774072995052526,
        "time": 5.046726822,
        "traj_len": 3.8187992319638178,
        "weighted_distance": 4.900348138108706
    },
    "planner": "LBTRRT",
    "start": {
        "state": {
            "elbow_joint": -2.384821988534728,
            "shoulder_lift_joint": -2.2788054721415256,
            "shoulder_pan_joint": -0.1854694642142757,
            "wrist_1_joint": 1.4845938289331202,
            "wrist_2_joint": 0.17898776772866878,
            "wrist_3_joint": 0.037105688729662994
        }
    },
    "waypoints": [
        {
            "positions": [
                -0.1854694642142757,
                -2.2788054721415256,
                -2.384821988534728,
                1.4845938289331202,
                0.17898776772866878,
                0.037105688729662994
            ]
        },
        {
            "positions": [
                -0.1363719237699018,
                -2.2360333159254164,
                -2.376005670280632,
                1.4504215756189702,
                0.17414095416298983,
                0.029902573850900508
            ]
        },
        {
            "positions": [
                -0.051890038785577394,
                -2.1921585320807537,
                -2.2973405669728244,
                1.3860074398749598,
                0.19099687802691268,
                -0.06992708144489676
            ]
        },
        {
            "positions": [
                0.032591846198747,
                -2.1482837482360906,
                -2.2186754636650168,
                1.3215933041309493,
                0.20785280189083552,
                -0.16975673674069403
            ]
        },
        {
            "positions": [
                0.11707373118307138,
                -2.1044089643914274,
                -2.140010360357209,
                1.2571791683869389,
                0.22470872575475836,
                -0.26958639203649126
            ]
        },
        {
            "positions": [
                0.20155561616739578,
                -2.0605341805467647,
                -2.0613452570494015,
                1.1927650326429287,
                0.24156464961868118,
                -0.36941604733228856
            ]
        },
        {
            "positions": [
                0.2860375011517201,
                -2.016659396702102,
                -1.9826801537415941,
                1.1283508968989182,
                0.25842057348260405,
                -0.4692457026280858
            ]
        },
        {
            "positions": [
                0.3705193861360445,
                -1.972784612857439,
                -1.9040150504337867,
                1.0639367611549078,
                0.27527649734652687,
                -0.569075357923883
            ]
        },
        {
            "positions": [
                0.4550012711203689,
                -1.928909829012776,
                -1.825349947125979,
                0.9995226254108973,
                0.29213242121044974,
                -0.6689050132196802
            ]
        },
        {
            "positions": [
                0.5394831561046933,
                -1.885035045168113,
                -1.7466848438181715,
                0.935108489666887,
                0.30898834507437256,
                -0.7687346685154776
            ]
        },
        {
            "positions": [
                0.6239650410890177,
                -1.8411602613234501,
                -1.6680197405103638,
                0.8706943539228765,
                0.32584426893829543,
                -0.8685643238112748
            ]
        },
        {
            "positions": [
                0.708446926073342,
                -1.7972854774787872,
                -1.5893546372025562,
                0.8062802181788661,
                0.34270019280221825,
                -0.968393979107072
            ]
        },
        {
            "positions": [
                0.7929288110576664,
                -1.7534106936341243,
                -1.5106895338947486,
                0.7418660824348557,
                0.35955611666614107,
                -1.0682236344028695
            ]
        },
        {
            "positions": [
                0.8774106960419908,
                -1.7095359097894613,
                -1.4320244305869412,
                0.6774519466908453,
                0.37641204053006394,
                -1.1680532896986666
            ]
        },
        {
            "positions": [
                0.9618925810263154,
                -1.6656611259447984,
                -1.3533593272791336,
                0.6130378109468348,
                0.3932679643939868,
                -1.267882944994464
            ]
        },
        {
            "positions": [
                1.0463744660106398,
                -1.6217863421001355,
                -1.274694223971326,
                0.5486236752028245,
                0.41012388825790963,
                -1.367712600290261
            ]
        },
        {
            "positions": [
                1.1308563509949643,
                -1.5779115582554726,
                -1.1960291206635183,
                0.48420953945881395,
                0.42697981212183245,
                -1.4675422555860587
            ]
        },
        {
            "positions": [
                1.2153382359792886,
                -1.5340367744108097,
                -1.117364017355711,
                0.4197954037148037,
                0.4438357359857553,
                -1.5673719108818558
            ]
        },
        {
            "positions": [
                1.299820120963613,
                -1.4901619905661467,
                -1.0386989140479033,
                0.35538126797079306,
                0.4606916598496782,
                -1.6672015661776531
            ]
        },
        {
            "positions": [
                1.3843020059479374,
                -1.4462872067214838,
                -0.9600338107400956,
                0.29096713222678283,
                0.47754758371360095,
                -1.7670312214734503
            ]
        },
        {
            "positions": [
                1.468783890932262,
                -1.4024124228768209,
                -0.881368707432288,
                0.22655299648277238,
                0.4944035075775238,
                -1.8668608767692476
            ]
        },
        {
            "positions": [
                1.553265775916586,
                -1.358537639032158,
                -0.8027036041244806,
                0.16213886073876194,
                0.5112594314414467,
                -1.9666905320650447
            ]
        },
        {
            "positions": [
                1.6377476609009105,
                -1.314662855187495,
                -0.724038500816673,
                0.09772472499475149,
                0.5281153553053696,
                -2.066520187360842
            ]
        },
        {
            "positions": [
                1.7222295458852348,
                -1.2707880713428321,
                -0.6453733975088654,
                0.03331058925074126,
                0.5449712791692923,
                -2.1663498426566394
            ]
        },
        {
            "positions": [
                1.8067114308695593,
                -1.2269132874981692,
                -0.5667082942010577,
                -0.031103546493269407,
                0.5618272030332152,
                -2.266179497952437
            ]
        },
        {
            "positions": [
                1.8911933158538836,
                -1.1830385036535063,
                -0.4880431908932503,
                -0.09551768223727963,
                0.5786831268971381,
                -2.3660091532482337
            ]
        },
        {
            "positions": [
                1.9756752008382084,
                -1.1391637198088433,
                -0.4093780875854427,
                -0.15993181798129008,
                0.595539050761061,
                -2.465838808544031
            ]
        },
        {
            "positions": [
                2.0601570858225324,
                -1.0952889359641804,
                -0.33071298427763507,
                -0.22434595372530053,
                0.6123949746249837,
                -2.5656684638398284
            ]
        },
        {
            "positions": [
                2.1446389708068567,
                -1.0514141521195175,
                -0.2520478809698274,
                -0.28876008946931087,
                0.6292508984889066,
                -2.6654981191356257
            ]
        },
        {
            "positions": [
                2.1927816392413475,
                -1.0476897677173325,
                -0.044124523557853235,
                -0.3397764215677595,
                0.6708949904898325,
                -2.70875120751561
            ]
        },
        {
            "positions": [
                2.240924307675838,
                -1.0439653833151477,
                0.16379883385412092,
                -0.39079275366620814,
                0.7125390824907585,
                -2.752004295895594
            ]
        },
        {
            "positions": [
                2.2890669761103286,
                -1.0402409989129626,
                0.371722191266095,
                -0.44180908576465683,
                0.7541831744916845,
                -2.7952573842755783
            ]
        },
        {
            "positions": [
                2.337209644544819,
                -1.0365166145107778,
                0.5796455486780692,
                -0.49282541786310546,
                0.7958272664926104,
                -2.8385104726555626
            ]
        },
        {
            "positions": [
                2.3853523129793097,
                -1.0327922301085928,
                0.7875689060900433,
                -0.5438417499615541,
                0.8374713584935363,
                -2.8817635610355463
            ]
        },
        {
            "positions": [
                2.4334949814138005,
                -1.0290678457064077,
                0.9954922635020174,
                -0.5948580820600027,
                0.8791154504944623,
                -2.9250166494155305
            ]
        },
        {
            "positions": [
                2.481637649848291,
                -1.025343461304223,
                1.2034156209139915,
                -0.6458744141584514,
                0.9207595424953883,
                -2.9682697377955147
            ]
        },
        {
            "positions": [
                2.5297803182827816,
                -1.021619076902038,
                1.4113389783259658,
                -0.6968907462569001,
                0.9624036344963142,
                -3.011522826175499
            ]
        },
        {
            "positions": [
                2.577922986717272,
                -1.017894692499853,
                1.6192623357379399,
                -0.7479070783553488,
                1.00404772649724,
                -3.054775914555483
            ]
        },
        {
            "positions": [
                2.6260656551517627,
                -1.014170308097668,
                1.8271856931499142,
                -0.7989234104537973,
                1.045691818498166,
                -3.0980290029354673
            ]
        }
    ]
}