{
    "goal": {
        "global_pose": {
            "orientation": {
                "w": 0.7031023480610252,
                "x": -0.7110244013736278,
                "y": 0.0077485991402295624,
                "z": 0.005598929693374583
            },
            "position": {
                "x": -0.8841497679147869,
                "y": 0.44412534475326537,
                "z": 0.3711530566215515
            }
        },
        "name": "move_to_auspresseinheit_D"
    },
    "id": "LBTRRT_move_to_auspresseinheit_D_125",
    "joint_names": [
        "shoulder_pan_joint",
        "shoulder_lift_joint",
        "elbow_joint",
        "wrist_1_joint",
        "wrist_2_joint",
        "wrist_3_joint"
    ],
    "metrics": {
        "cart_traj_len": 0.34425855821096596,
        "distance_elbow_joint": 0.6567871967581134,
        "distance_shoulder_lift_joint": 0.13198606550466607,
        "distance_shoulder_pan_joint": 0.1342259837812327,
        "distance_wrist_1_joint": 0.5830621101204909,
        "distance_wrist_2_joint": 1.448643759516194,
        "distance_wrist_3_joint": 0.0513404604534653,
        "smoothness": 0.0,
        "time": 5.004823651,
        "traj_len": 1.7337951367258364,
        "weighted_distance": 2.267252162128813
    },
    "planner": "LBTRRT",
    "start": {
        "state": {
            "elbow_joint": -1.8275523626775212,
            "shoulder_lift_joint": -2.126789852344167,
            "shoulder_pan_joint": -0.03513704404078235,
            "wrist_1_joint": -2.347782403156801,
            "wrist_2_joint": -1.6058999987535132,
            "wrist_3_joint": -3.0880379163319196
        }
    },
    "waypoints": [
        {
            "positions": [
                -0.03513704404078235,
                -2.126789852344167,
                -1.8275523626775212,
                -2.347782403156801,
                -1.6058999987535132,
                -3.0880379163319196
            ]
        },
        {
            "positions": [
                -0.051915292013436434,
                -2.14328811053225,
                -1.745453963082757,
                -2.420665166921862,
                -1.4248195288139889,
                -3.081620358775236
            ]
        },
        {
            "positions": [
                -0.06869353998609053,
                -2.1597863687203334,
                -1.6633555634879928,
                -2.4935479306869235,
                -1.2437390588744646,
                -3.0752028012185533
            ]
        },
        {
            "positions": [
                -0.0854717879587446,
                -2.1762846269084166,
                -1.5812571638932287,
                -2.566430694451985,
                -1.0626585889349405,
                -3.0687852436618703
            ]
        },
        {
            "positions": [
                -0.1022500359313987,
                -2.1927828850965,
                -1.4991587642984645,
                -2.639313458217046,
                -0.8815781189954162,
                -3.062367686105187
            ]
        },
        {
            "positions": [
                -0.11902828390405279,
                -2.209281143284583,
                -1.4170603647037003,
                -2.712196221982108,
                -0.7004976490558918,
                -3.0559501285485036
            ]
        },
        {
            "positions": [
                -0.13580653187670688,
                -2.2257794014726664,
                -1.3349619651089362,
                -2.785078985747169,
                -0.5194171791163678,
                -3.0495325709918206
            ]
        },
        {
            "positions": [
                -0.15258477984936097,
                -2.2422776596607497,
                -1.252863565514172,
                -2.8579617495122305,
                -0.33833670917684344,
                -3.0431150134351377
            ]
        },
        {
            "positions": [
                -0.16936302782201507,
                -2.258775917848833,
                -1.1707651659194078,
                -2.930844513277292,
                -0.15725623923731907,
                -3.0366974558784543
            ]
        }
    ]
}