{
    "goal": {
        "global_pose": {
            "orientation": {
                "w": 0.7031023480610252,
                "x": -0.7110244013736278,
                "y": 0.0077485991402295624,
                "z": 0.005598929693374583
            },
            "position": {
                "x": -0.8841497679147869,
                "y": 0.44412534475326537,
                "z": 0.3711530566215515
            }
        },
        "name": "move_to_auspresseinheit_D"
    },
    "id": "LBTRRT_move_to_auspresseinheit_D_145",
    "joint_names": [
        "shoulder_pan_joint",
        "shoulder_lift_joint",
        "elbow_joint",
        "wrist_1_joint",
        "wrist_2_joint",
        "wrist_3_joint"
    ],
    "metrics": {
        "cart_traj_len": 0.3447233800106236,
        "distance_elbow_joint": 0.6698959312846231,
        "distance_shoulder_lift_joint": 0.13839873793684232,
        "distance_shoulder_pan_joint": 0.13344724644370964,
        "distance_wrist_1_joint": 0.6346563547980661,
        "distance_wrist_2_joint": 1.4354164362226087,
        "distance_wrist_3_joint": 0.09450646872194746,
        "smoothness": 0.0,
        "time": 5.005265426,
        "traj_len": 1.7624758651986692,
        "weighted_distance": 2.3163347996074246
    },
    "planner": "LBTRRT",
    "start": {
        "state": {
            "elbow_joint": -1.8275523626775212,
            "shoulder_lift_joint": -2.126789852344167,
            "shoulder_pan_joint": -0.03513704404078235,
            "wrist_1_joint": -2.347782403156801,
            "wrist_2_joint": -1.6058999987535132,
            "wrist_3_joint": -3.0880379163319196
        }
    },
    "waypoints": [
        {
            "positions": [
                -0.03513704404078235,
                -2.126789852344167,
                -1.8275523626775212,
                -2.347782403156801,
                -1.6058999987535132,
                -3.0880379163319196
            ]
        },
        {
            "positions": [
                -0.051817949846246054,
                -2.144089694586272,
                -1.7438153712669433,
                -2.4271144475065594,
                -1.4264729442256872,
                -3.0762246077416764
            ]
        },
        {
            "positions": [
                -0.06849885565170977,
                -2.1613895368283775,
                -1.6600783798563654,
                -2.5064464918563174,
                -1.2470458896978611,
                -3.0644112991514327
            ]
        },
        {
            "positions": [
                -0.08517976145717346,
                -2.178689379070483,
                -1.5763413884457875,
                -2.5857785362060755,
                -1.0676188351700349,
                -3.052597990561189
            ]
        },
        {
            "positions": [
                -0.10186066726263718,
                -2.195989221312588,
                -1.4926043970352096,
                -2.665110580555834,
                -0.8881917806422088,
                -3.040784681970946
            ]
        },
        {
            "positions": [
                -0.11854157306810087,
                -2.213289063554693,
                -1.4088674056246318,
                -2.7444426249055924,
                -0.7087647261143828,
                -3.0289713733807027
            ]
        },
        {
            "positions": [
                -0.1352224788735646,
                -2.2305889057967985,
                -1.3251304142140539,
                -2.8237746692553505,
                -0.5293376715865565,
                -3.017158064790459
            ]
        },
        {
            "positions": [
                -0.15190338467902828,
                -2.247888748038904,
                -1.241393422803476,
                -2.9031067136051085,
                -0.3499106170587305,
                -3.0053447562002154
            ]
        },
        {
            "positions": [
                -0.168584290484492,
                -2.265188590281009,
                -1.157656431392898,
                -2.982438757954867,
                -0.17048356253090438,
                -2.993531447609972
            ]
        }
    ]
}