{
    "goal": {
        "global_pose": {
            "orientation": {
                "w": 0.5084816262002911,
                "x": -0.4908360881923452,
                "y": 0.5182115481033761,
                "z": -0.48164630358495003
            },
            "position": {
                "x": 0.5540239810943604,
                "y": -0.46912469901144505,
                "z": 0.16403168439865112
            }
        },
        "name": "move_to_storage_B"
    },
    "id": "LBTRRT_move_to_storage_B_35",
    "joint_names": [
        "shoulder_pan_joint",
        "shoulder_lift_joint",
        "elbow_joint",
        "wrist_1_joint",
        "wrist_2_joint",
        "wrist_3_joint"
    ],
    "metrics": {
        "cart_traj_len": 0.9415917203307408,
        "distance_elbow_joint": 0.8487796285949556,
        "distance_shoulder_lift_joint": 0.46111639216366407,
        "distance_shoulder_pan_joint": 0.8802501326881654,
        "distance_wrist_1_joint": 3.016223225535987,
        "distance_wrist_2_joint": 2.7047544917469777,
        "distance_wrist_3_joint": 3.1682341166102708,
        "smoothness": 0.09380427447262576,
        "time": 5.041495082,
        "traj_len": 3.32856695701619,
        "weighted_distance": 4.810073173855416
    },
    "planner": "LBTRRT",
    "start": {
        "state": {
            "elbow_joint": 1.664937868594044,
            "shoulder_lift_joint": -0.661644460510453,
            "shoulder_pan_joint": -0.9139846352900073,
            "wrist_1_joint": 2.146753192139373,
            "wrist_2_joint": -2.2341966793290973,
            "wrist_3_joint": 0.005466555786416001
        }
    },
    "waypoints": [
        {
            "positions": [
                -0.9139846352900073,
                -0.661644460510453,
                1.664937868594044,
                2.146753192139373,
                -2.2341966793290973,
                0.005466555786416001
            ]
        },
        {
            "positions": [
                -0.9623098787430089,
                -0.6825965143027555,
                1.7197795330306702,
                2.128083898900325,
                -2.149953201092541,
                0.15497670816634374
            ]
        },
        {
            "positions": [
                -1.0106351221960106,
                -0.7035485680950578,
                1.7746211974672965,
                2.1094146056612764,
                -2.065709722855985,
                0.3044868605462715
            ]
        },
        {
            "positions": [
                -1.0589603656490123,
                -0.7245006218873603,
                1.8294628619039228,
                2.090745312422228,
                -1.9814662446194284,
                0.45399701292619915
            ]
        },
        {
            "positions": [
                -1.1072856091020138,
                -0.7454526756796628,
                1.8843045263405493,
                2.07207601918318,
                -1.897222766382872,
                0.6035071653061269
            ]
        },
        {
            "positions": [
                -1.1556108525550155,
                -0.7664047294719653,
                1.9391461907771756,
                2.0534067259441318,
                -1.8129792881463158,
                0.7530173176860545
            ]
        },
        {
            "positions": [
                -1.2039360960080172,
                -0.7873567832642676,
                1.993987855213802,
                2.034737432705083,
                -1.7287358099097596,
                0.9025274700659822
            ]
        },
        {
            "positions": [
                -1.2522613394610187,
                -0.8083088370565701,
                2.0488295196504285,
                2.016068139466035,
                -1.6444923316732032,
                1.05203762244591
            ]
        },
        {
            "positions": [
                -1.3005865829140204,
                -0.8292608908488726,
                2.103671184087055,
                1.9973988462269867,
                -1.560248853436647,
                1.2015477748258379
            ]
        },
        {
            "positions": [
                -1.3489118263670221,
                -0.850212944641175,
                2.158512848523681,
                1.9787295529879383,
                -1.4760053752000908,
                1.3510579272057655
            ]
        },
        {
            "positions": [
                -1.3972370698200236,
                -0.8711649984334774,
                2.2133545129603074,
                1.96006025974889,
                -1.3917618969635344,
                1.500568079585693
            ]
        },
        {
            "positions": [
                -1.4455623132730253,
                -0.8921170522257799,
                2.2681961773969337,
                1.9413909665098417,
                -1.3075184187269782,
                1.6500782319656209
            ]
        },
        {
            "positions": [
                -1.4261916213449615,
                -0.904930596695132,
                2.254556104075152,
                1.7852320220705942,
                -1.2087364058855972,
                1.7347239231006801
            ]
        },
        {
            "positions": [
                -1.4068209294168978,
                -0.917744141164484,
                2.240916030753371,
                1.6290730776313467,
                -1.1099543930442162,
                1.8193696142357392
            ]
        },
        {
            "positions": [
                -1.387450237488834,
                -0.930557685633836,
                2.2272759574315892,
                1.4729141331920992,
                -1.0111723802028352,
                1.9040153053707984
            ]
        },
        {
            "positions": [
                -1.3680795455607704,
                -0.9433712301031881,
                2.213635884109808,
                1.3167551887528517,
                -0.912390367361454,
                1.9886609965058577
            ]
        },
        {
            "positions": [
                -1.3487088536327065,
                -0.9561847745725403,
                2.1999958107880264,
                1.160596244313604,
                -0.813608354520073,
                2.0733066876409167
            ]
        },
        {
            "positions": [
                -1.329338161704643,
                -0.9689983190418923,
                2.1863557374662452,
                1.0044372998743567,
                -0.714826341678692,
                2.157952378775976
            ]
        },
        {
            "positions": [
                -1.309967469776579,
                -0.9818118635112443,
                2.1727156641444636,
                0.848278355435109,
                -0.6160443288373109,
                2.2425980699110353
            ]
        },
        {
            "positions": [
                -1.2905967778485155,
                -0.9946254079805964,
                2.1590755908226824,
                0.6921194109958615,
                -0.5172623159959299,
                2.3272437610460943
            ]
        },
        {
            "positions": [
                -1.2712260859204516,
                -1.0074389524499485,
                2.145435517500901,
                0.535960466556614,
                -0.41848030315454876,
                2.411889452181154
            ]
        },
        {
            "positions": [
                -1.2518553939923878,
                -1.0202524969193005,
                2.131795444179119,
                0.3798015221173665,
                -0.31969829031316765,
                2.496535143316213
            ]
        },
        {
            "positions": [
                -1.2324847020643241,
                -1.0330660413886525,
                2.118155370857338,
                0.2236425776781188,
                -0.22091627747178655,
                2.5811808344512723
            ]
        },
        {
            "positions": [
                -1.2131140101362603,
                -1.0458795858580046,
                2.1045152975355563,
                0.06748363323887152,
                -0.12213426463040578,
                2.665826525586331
            ]
        },
        {
            "positions": [
                -1.1937433182081967,
                -1.0586931303273568,
                2.090875224213775,
                -0.08867531120037597,
                -0.02335225178902456,
                2.7504722167213904
            ]
        },
        {
            "positions": [
                -1.1743726262801328,
                -1.0715066747967088,
                2.0772351508919935,
                -0.2448342556396237,
                0.07542976105235644,
                2.83511790785645
            ]
        },
        {
            "positions": [
                -1.155001934352069,
                -1.0843202192660608,
                2.0635950775702123,
                -0.4009932000788714,
                0.17421177389373765,
                2.919763598991509
            ]
        },
        {
            "positions": [
                -1.1356312424240054,
                -1.097133763735413,
                2.0499550042484307,
                -0.5571521445181187,
                0.2729937867351184,
                3.004409290126568
            ]
        },
        {
            "positions": [
                -1.1162605504959418,
                -1.109947308204765,
                2.0363149309266495,
                -0.713311088957366,
                0.37177579957649964,
                3.0890549812616275
            ]
        },
        {
            "positions": [
                -1.096889858567878,
                -1.122760852674117,
                2.022674857604868,
                -0.8694700333966138,
                0.4705578124178805,
                3.1737006723966865
            ]
        }
    ]
}