{
    "goal": {
        "global_pose": {
            "orientation": {
                "w": -0.00223480608172531,
                "x": 0.0024358444001904467,
                "y": 0.7094548369677653,
                "z": -0.704743149386269
            },
            "position": {
                "x": -0.37947507619857795,
                "y": -0.6371506643295288,
                "z": 0.19426114857196808
            }
        },
        "name": "move_to_magneteinheit_C"
    },
    "id": "LBTRRT_move_to_magneteinheit_C_12",
    "joint_names": [
        "shoulder_pan_joint",
        "shoulder_lift_joint",
        "elbow_joint",
        "wrist_1_joint",
        "wrist_2_joint",
        "wrist_3_joint"
    ],
    "metrics": {
        "cart_traj_len": 1.2451310604029258,
        "distance_elbow_joint": 0.19561073280438235,
        "distance_shoulder_lift_joint": 1.4896088746672789,
        "distance_shoulder_pan_joint": 1.0819239151636924,
        "distance_wrist_1_joint": 0.6058272509292992,
        "distance_wrist_2_joint": 1.0655061963232946,
        "distance_wrist_3_joint": 0.44615312107046634,
        "smoothness": 1.8314898946531732,
        "time": 5.0193800589999995,
        "traj_len": 2.2101199268271423,
        "weighted_distance": 2.7291518426705283
    },
    "planner": "LBTRRT",
    "start": {
        "state": {
            "elbow_joint": 1.9565354010623817,
            "shoulder_lift_joint": -1.4165861575791021,
            "shoulder_pan_joint": -1.6717766225146293,
            "wrist_1_joint": -0.5286633292919765,
            "wrist_2_joint": 1.472756589071564,
            "wrist_3_joint": -3.1238370188695823
        }
    },
    "waypoints": [
        {
            "positions": [
                -1.6717766225146293,
                -1.4165861575791021,
                1.9565354010623817,
                -0.5286633292919765,
                1.472756589071564,
                -3.1238370188695823
            ]
        },
        {
            "positions": [
                -1.6701664485598584,
                -1.534421577745328,
                1.9432966762509878,
                -0.590207454152426,
                1.4752021453118505,
                -3.0201730403082276
            ]
        },
        {
            "positions": [
                -1.764422071429783,
                -1.6345688569522638,
                1.9346643470721263,
                -0.5617709708237841,
                1.3883705293878943,
                -3.012975148525624
            ]
        },
        {
            "positions": [
                -1.8586776942997074,
                -1.7347161361591996,
                1.926032017893265,
                -0.5333344874951421,
                1.301538913463938,
                -3.0057772567430203
            ]
        },
        {
            "positions": [
                -1.9529333171696317,
                -1.8348634153661356,
                1.9173996887144036,
                -0.5048980041665002,
                1.2147072975399817,
                -2.998579364960417
            ]
        },
        {
            "positions": [
                -2.047188940039556,
                -1.9350106945730714,
                1.9087673595355423,
                -0.4764615208378583,
                1.1278756816160254,
                -2.991381473177813
            ]
        },
        {
            "positions": [
                -2.1414445629094807,
                -2.035157973780007,
                1.9001350303566809,
                -0.44802503750921635,
                1.0410440656920692,
                -2.9841835813952096
            ]
        },
        {
            "positions": [
                -2.219924845241269,
                -1.950965828483786,
                1.921117900348027,
                -0.49656581778125986,
                0.9574126174019907,
                -3.0232916555422045
            ]
        },
        {
            "positions": [
                -2.2984051275730573,
                -1.8667736831875652,
                1.942100770339373,
                -0.5451065980533034,
                0.8737811691119123,
                -3.0623997296891994
            ]
        },
        {
            "positions": [
                -2.3768854099048458,
                -1.7825815378913443,
                1.963083640330719,
                -0.593647378325347,
                0.7901497208218338,
                -3.101507803836194
            ]
        },
        {
            "positions": [
                -2.4553656922366343,
                -1.6983893925951232,
                1.9840665103220652,
                -0.6421881585973905,
                0.7065182725317554,
                -3.1406158779831888
            ]
        },
        {
            "positions": [
                -2.5338459745684223,
                -1.6141972472989021,
                2.005049380313411,
                -0.690728938869434,
                0.6228868242416767,
                -3.1797239521301837
            ]
        },
        {
            "positions": [
                -2.612326256900211,
                -1.5300051020026812,
                2.026032250304757,
                -0.7392697191414775,
                0.5392553759515983,
                -3.2188320262771786
            ]
        },
        {
            "positions": [
                -2.5662749459440213,
                -1.4080437064396654,
                2.0215945362545553,
                -0.7762217284059372,
                0.581626666192517,
                -3.1948816133724702
            ]
        },
        {
            "positions": [
                -2.5202236349878313,
                -1.2860823108766493,
                2.017156822204354,
                -0.8131737376703967,
                0.6239979564334356,
                -3.1709312004677623
            ]
        },
        {
            "positions": [
                -2.474172324031642,
                -1.1641209153136334,
                2.012719108154152,
                -0.8501257469348563,
                0.6663692466743543,
                -3.146980787563054
            ]
        }
    ]
}