{
    "goal": {
        "global_pose": {
            "orientation": {
                "w": 0.005598929693374612,
                "x": 0.007748599140229565,
                "y": 0.7110244013736278,
                "z": -0.7031023480610252
            },
            "position": {
                "x": 0.1141497679147869,
                "y": -0.7141253447532654,
                "z": 0.3711530566215515
            }
        },
        "name": "move_to_auspresseinheit_B"
    },
    "id": "LBTRRT_move_to_auspresseinheit_B_109",
    "joint_names": [
        "shoulder_pan_joint",
        "shoulder_lift_joint",
        "elbow_joint",
        "wrist_1_joint",
        "wrist_2_joint",
        "wrist_3_joint"
    ],
    "metrics": {
        "cart_traj_len": 0.5637208576345923,
        "distance_elbow_joint": 0.0618479563643779,
        "distance_shoulder_lift_joint": 0.29518518821694206,
        "distance_shoulder_pan_joint": 0.5754676499029938,
        "distance_wrist_1_joint": 0.3258889251781337,
        "distance_wrist_2_joint": 0.9962058749196818,
        "distance_wrist_3_joint": 0.0033161787003130883,
        "smoothness": 0.0,
        "time": 5.002647703,
        "traj_len": 1.502634943451816,
        "weighted_distance": 1.8938423722107616
    },
    "planner": "LBTRRT",
    "start": {
        "state": {
            "elbow_joint": 2.0193083361928714,
            "shoulder_lift_joint": -1.1220246554650708,
            "shoulder_pan_joint": -1.0952077554168747,
            "wrist_1_joint": -0.8559753972642168,
            "wrist_2_joint": 0.4759566250798843,
            "wrist_3_joint": -3.1240929996934557
        }
    },
    "waypoints": [
        {
            "positions": [
                -1.0952077554168747,
                -1.1220246554650708,
                2.0193083361928714,
                -0.8559753972642168,
                0.4759566250798843,
                -3.1240929996934557
            ]
        },
        {
            "positions": [
                -1.1911190304007069,
                -1.1712221868345611,
                2.009000343465475,
                -0.8016605764011945,
                0.6419909375664979,
                -3.1235403032434035
            ]
        },
        {
            "positions": [
                -1.2870303053845393,
                -1.2204197182040515,
                1.9986923507380787,
                -0.7473457555381722,
                0.8080252500531115,
                -3.1229876067933513
            ]
        },
        {
            "positions": [
                -1.3829415803683716,
                -1.2696172495735418,
                1.9883843580106824,
                -0.69303093467515,
                0.9740595625397253,
                -3.122434910343299
            ]
        },
        {
            "positions": [
                -1.4788528553522038,
                -1.3188147809430322,
                1.9780763652832862,
                -0.6387161138121277,
                1.1400938750263387,
                -3.121882213893247
            ]
        },
        {
            "positions": [
                -1.5747641303360362,
                -1.3680123123125225,
                1.9677683725558899,
                -0.5844012929491054,
                1.3061281875129525,
                -3.1213295174431948
            ]
        },
        {
            "positions": [
                -1.6706754053198685,
                -1.4172098436820129,
                1.9574603798284935,
                -0.5300864720860831,
                1.4721624999995662,
                -3.1207768209931426
            ]
        }
    ]
}