{
    "goal": {
        "global_pose": {
            "orientation": {
                "w": 0.5084816217422485,
                "x": -0.49083608388900757,
                "y": 0.5182115435600281,
                "z": -0.4816462993621826
            },
            "position": {
                "x": 0.5540239810943604,
                "y": 0.030875300988554955,
                "z": 0.16403168439865112
            }
        },
        "name": "move_to_storage_A"
    },
    "id": "LBTRRT_move_to_storage_A_57",
    "joint_names": [
        "shoulder_pan_joint",
        "shoulder_lift_joint",
        "elbow_joint",
        "wrist_1_joint",
        "wrist_2_joint",
        "wrist_3_joint"
    ],
    "metrics": {
        "cart_traj_len": 0.3530024914334667,
        "distance_elbow_joint": 0.4531246650794356,
        "distance_shoulder_lift_joint": 0.23545057593369845,
        "distance_shoulder_pan_joint": 0.46254697938237177,
        "distance_wrist_1_joint": 0.25385620551626575,
        "distance_wrist_2_joint": 1.0954943893845026,
        "distance_wrist_3_joint": 0.09225224405244115,
        "smoothness": 2.2204460668324854e-16,
        "time": 5.004001032,
        "traj_len": 1.6101941061091718,
        "weighted_distance": 2.031398568069389
    },
    "planner": "LBTRRT",
    "start": {
        "state": {
            "elbow_joint": 1.971548259319323,
            "shoulder_lift_joint": -1.1394851275133948,
            "shoulder_pan_joint": 0.1228115487234821,
            "wrist_1_joint": -0.7804723859257726,
            "wrist_2_joint": 0.12958671773740124,
            "wrist_3_joint": -3.192489227718131
        }
    },
    "waypoints": [
        {
            "positions": [
                0.1228115487234821,
                -1.1394851275133948,
                1.971548259319323,
                -0.7804723859257726,
                0.12958671773740124,
                -3.192489227718131
            ]
        },
        {
            "positions": [
                0.05673340881171471,
                -1.1731209240753517,
                2.036280354330671,
                -0.816737558142382,
                0.2860859162209016,
                -3.1793103357106394
            ]
        },
        {
            "positions": [
                -0.009344731100052683,
                -1.2067567206373087,
                2.101012449342019,
                -0.8530027303589914,
                0.442585114704402,
                -3.166131443703148
            ]
        },
        {
            "positions": [
                -0.07542287101182008,
                -1.2403925171992656,
                2.165744544353367,
                -0.8892679025756007,
                0.5990843131879023,
                -3.1529525516956562
            ]
        },
        {
            "positions": [
                -0.14150101092358747,
                -1.2740283137612225,
                2.230476639364715,
                -0.9255330747922101,
                0.7555835116714027,
                -3.139773659688165
            ]
        },
        {
            "positions": [
                -0.2075791508353549,
                -1.3076641103231794,
                2.2952087343760628,
                -0.9617982470088196,
                0.9120827101549032,
                -3.126594767680673
            ]
        },
        {
            "positions": [
                -0.27365729074712225,
                -1.3412999068851363,
                2.3599408293874107,
                -0.998063419225429,
                1.0685819086384034,
                -3.113415875673182
            ]
        },
        {
            "positions": [
                -0.33973543065888967,
                -1.3749357034470933,
                2.4246729243987586,
                -1.0343285914420384,
                1.2250811071219039,
                -3.10023698366569
            ]
        }
    ]
}{
    "goal": {
        "global_pose": {
            "orientation": {
                "w": 0.5084816217422485,
                "x": -0.49083608388900757,
                "y": 0.5182115435600281,
                "z": -0.4816462993621826
            },
            "position": {
                "x": 0.5540239810943604,
                "y": 0.030875300988554955,
                "z": 0.16403168439865112
            }
        },
        "name": "move_to_storage_A"
    },
    "id": "LBTRRT_move_to_storage_A_57",
    "joint_names": [
        "shoulder_pan_joint",
        "shoulder_lift_joint",
        "elbow_joint",
        "wrist_1_joint",
        "wrist_2_joint",
        "wrist_3_joint"
    ],
    "metrics": {
        "cart_traj_len": 0.35292227025553013,
        "distance_elbow_joint": 0.4487857210766002,
        "distance_shoulder_lift_joint": 0.2328839485224341,
        "distance_shoulder_pan_joint": 0.4591065887230694,
        "distance_wrist_1_joint": 0.245835406807682,
        "distance_wrist_2_joint": 1.1074120273774675,
        "distance_wrist_3_joint": 0.09199988018139438,
        "smoothness": 8.881784197001252e-16,
        "time": 5.005768686000001,
        "traj_len": 1.6081118035412363,
        "weighted_distance": 2.0305838488564283
    },
    "planner": "LBTRRT",
    "start": {
        "state": {
            "elbow_joint": 1.97154746011099,
            "shoulder_lift_joint": -1.13948474672311,
            "shoulder_pan_joint": 0.12281154466712228,
            "wrist_1_joint": -0.7804688027058302,
            "wrist_2_joint": 0.12958655903071145,
            "wrist_3_joint": 3.0906928834467795
        }
    },
    "waypoints": [
        {
            "positions": [
                0.12281154466712228,
                -1.13948474672311,
                1.97154746011099,
                -0.7804688027058302,
                0.12958655903071145,
                3.0906928834467795
            ]
        },
        {
            "positions": [
                0.057224889135255225,
                -1.1727538822263148,
                2.0356597059790755,
                -0.815588146535499,
                0.2877882772274925,
                3.103835723472693
            ]
        },
        {
            "positions": [
                -0.008361766396611833,
                -1.2060230177295197,
                2.0997719518471616,
                -0.8507074903651679,
                0.44598999542427353,
                3.1169785634986065
            ]
        },
        {
            "positions": [
                -0.07394842192847888,
                -1.2392921532327246,
                2.163884197715247,
                -0.8858268341948368,
                0.6041917136210546,
                3.13012140352452
            ]
        },
        {
            "positions": [
                -0.13953507746034594,
                -1.2725612887359294,
                2.227996443583333,
                -0.9209461780245056,
                0.7623934318178357,
                3.1432642435504334
            ]
        },
        {
            "positions": [
                -0.20512173299221304,
                -1.3058304242391343,
                2.2921086894514184,
                -0.9560655218541745,
                0.9205951500146168,
                3.156407083576347
            ]
        },
        {
            "positions": [
                -0.27070838852408,
                -1.3390995597423392,
                2.3562209353195045,
                -0.9911848656838433,
                1.0787968682113978,
                3.1695499236022604
            ]
        },
        {
            "positions": [
                -0.3362950440559471,
                -1.372368695245544,
                2.42033318118759,
                -1.0263042095135122,
                1.236998586408179,
                3.182692763628174
            ]
        }
    ]
}{
    "goal": {
        "global_pose": {
            "orientation": {
                "w": 0.5084816217422485,
                "x": -0.49083608388900757,
                "y": 0.5182115435600281,
                "z": -0.4816462993621826
            },
            "position": {
                "x": 0.5540239810943604,
                "y": 0.030875300988554955,
                "z": 0.16403168439865112
            }
        },
        "name": "move_to_storage_A"
    },
    "id": "LBTRRT_move_to_storage_A_57",
    "joint_names": [
        "shoulder_pan_joint",
        "shoulder_lift_joint",
        "elbow_joint",
        "wrist_1_joint",
        "wrist_2_joint",
        "wrist_3_joint"
    ],
    "metrics": {
        "cart_traj_len": 0.35252015788248287,
        "distance_elbow_joint": 0.45319986045194804,
        "distance_shoulder_lift_joint": 0.2343960193918584,
        "distance_shoulder_pan_joint": 0.45712597683006445,
        "distance_wrist_1_joint": 0.2554452708094268,
        "distance_wrist_2_joint": 1.11476823815378,
        "distance_wrist_3_joint": 0.10980958608821112,
        "smoothness": 6.661338165333112e-16,
        "time": 5.0037445730000005,
        "traj_len": 1.6201064630836113,
        "weighted_distance": 2.0529436506794134
    },
    "planner": "LBTRRT",
    "start": {
        "state": {
            "elbow_joint": 1.9715472970024885,
            "shoulder_lift_joint": -1.1394870060712896,
            "shoulder_pan_joint": 0.12281152778156021,
            "wrist_1_joint": -0.780463741449964,
            "wrist_2_joint": 0.12958659822042276,
            "wrist_3_joint": 3.090690232415272
        }
    },
    "waypoints": [
        {
            "positions": [
                0.12281152778156021,
                -1.1394870060712896,
                1.9715472970024885,
                -0.780463741449964,
                0.12958659822042276,
                3.090690232415272
            ]
        },
        {
            "positions": [
                0.057507816805836734,
                -1.172972151698698,
                2.0362901342099096,
                -0.8169559229941679,
                0.2888392036709627,
                3.1063773161421593
            ]
        },
        {
            "positions": [
                -0.007795894169886741,
                -1.2064572973261063,
                2.101032971417331,
                -0.8534481045383716,
                0.4480918091215027,
                3.1220643998690463
            ]
        },
        {
            "positions": [
                -0.07309960514561023,
                -1.2399424429535146,
                2.165775808624752,
                -0.8899402860825755,
                0.6073444145720427,
                3.1377514835959337
            ]
        },
        {
            "positions": [
                -0.1384033161213337,
                -1.273427588580923,
                2.230518645832173,
                -0.9264324676267793,
                0.7665970200225827,
                3.153438567322821
            ]
        },
        {
            "positions": [
                -0.2037070270970572,
                -1.3069127342083313,
                2.295261483039594,
                -0.9629246491709831,
                0.9258496254731228,
                3.1691256510497086
            ]
        },
        {
            "positions": [
                -0.26901073807278064,
                -1.3403978798357397,
                2.3600043202470156,
                -0.9994168307151869,
                1.0851022309236626,
                3.1848127347765955
            ]
        },
        {
            "positions": [
                -0.3343144490485042,
                -1.373883025463148,
                2.4247471574544366,
                -1.0359090122593908,
                1.2443548363742027,
                3.200499818503483
            ]
        }
    ]
}