{
    "goal": {
        "global_pose": {
            "orientation": {
                "w": 0.7031023480610252,
                "x": -0.7110244013736278,
                "y": 0.0077485991402295624,
                "z": 0.005598929693374583
            },
            "position": {
                "x": -0.8841497679147869,
                "y": 0.44412534475326537,
                "z": 0.3711530566215515
            }
        },
        "name": "move_to_auspresseinheit_D"
    },
    "id": "LBTRRT_move_to_auspresseinheit_D_101",
    "joint_names": [
        "shoulder_pan_joint",
        "shoulder_lift_joint",
        "elbow_joint",
        "wrist_1_joint",
        "wrist_2_joint",
        "wrist_3_joint"
    ],
    "metrics": {
        "cart_traj_len": 0.34393603442140175,
        "distance_elbow_joint": 0.6669251152002771,
        "distance_shoulder_lift_joint": 0.13752766427735574,
        "distance_shoulder_pan_joint": 0.1331302385747972,
        "distance_wrist_1_joint": 0.6248144789273198,
        "distance_wrist_2_joint": 1.437615349407671,
        "distance_wrist_3_joint": 0.0684345256200638,
        "smoothness": 3.947459674368863e-16,
        "time": 5.0045805450000005,
        "traj_len": 1.75169842496004,
        "weighted_distance": 2.295157130041994
    },
    "planner": "LBTRRT",
    "start": {
        "state": {
            "elbow_joint": -1.8275523626775212,
            "shoulder_lift_joint": -2.126789852344167,
            "shoulder_pan_joint": -0.03513704404078235,
            "wrist_1_joint": -2.347782403156801,
            "wrist_2_joint": -1.6058999987535132,
            "wrist_3_joint": -3.0880379163319196
        }
    },
    "waypoints": [
        {
            "positions": [
                -0.03513704404078235,
                -2.126789852344167,
                -1.8275523626775212,
                -2.347782403156801,
                -1.6058999987535132,
                -3.0880379163319196
            ]
        },
        {
            "positions": [
                -0.051778323862631995,
                -2.1439808103788365,
                -1.7441867232774866,
                -2.425884213022716,
                -1.4261980800775542,
                -3.0794836006294117
            ]
        },
        {
            "positions": [
                -0.06841960368448165,
                -2.1611717684135057,
                -1.660821083877452,
                -2.503986022888631,
                -1.2464961614015955,
                -3.070929284926904
            ]
        },
        {
            "positions": [
                -0.08506088350633129,
                -2.1783627264481753,
                -1.5774554444774171,
                -2.582087832754546,
                -1.0667942427256365,
                -3.0623749692243956
            ]
        },
        {
            "positions": [
                -0.10170216332818094,
                -2.195553684482845,
                -1.4940898050773828,
                -2.6601896426204608,
                -0.8870923240496776,
                -3.0538206535218877
            ]
        },
        {
            "positions": [
                -0.11834344315003059,
                -2.212744642517514,
                -1.410724165677348,
                -2.7382914524863757,
                -0.7073904053737188,
                -3.04526633781938
            ]
        },
        {
            "positions": [
                -0.13498472297188024,
                -2.2299356005521838,
                -1.3273585262773133,
                -2.8163932623522907,
                -0.5276884866977598,
                -3.0367120221168715
            ]
        },
        {
            "positions": [
                -0.1516260027937299,
                -2.247126558586853,
                -1.2439928868772787,
                -2.8944950722182057,
                -0.34798656802180106,
                -3.0281577064143637
            ]
        },
        {
            "positions": [
                -0.16826728261557955,
                -2.2643175166215226,
                -1.160627247477244,
                -2.9725968820841207,
                -0.16828464934584214,
                -3.019603390711856
            ]
        }
    ]
}