{
    "goal": {
        "global_pose": {
            "orientation": {
                "w": 0.7047431493862688,
                "x": -0.7094548369677653,
                "y": 0.0024358444001904,
                "z": -0.0022348060817251984
            },
            "position": {
                "x": -0.39052492380142206,
                "y": 0.3671506643295288,
                "z": 0.19426114857196808
            }
        },
        "name": "move_to_magneteinheit_D"
    },
    "id": "LBTRRT_move_to_magneteinheit_D_148",
    "joint_names": [
        "shoulder_pan_joint",
        "shoulder_lift_joint",
        "elbow_joint",
        "wrist_1_joint",
        "wrist_2_joint",
        "wrist_3_joint"
    ],
    "metrics": {
        "cart_traj_len": 4.957161557389329,
        "distance_elbow_joint": 3.145569280930874,
        "distance_shoulder_lift_joint": 1.9998730368386557,
        "distance_shoulder_pan_joint": 3.2139975705813244,
        "distance_wrist_1_joint": 2.599841551596397,
        "distance_wrist_2_joint": 2.6243519065098333,
        "distance_wrist_3_joint": 3.2789770556174576,
        "smoothness": 0.4419013447740699,
        "time": 5.055502589,
        "traj_len": 4.10641089055571,
        "weighted_distance": 5.352079779993541
    },
    "planner": "LBTRRT",
    "start": {
        "state": {
            "elbow_joint": 0.749534889911806,
            "shoulder_lift_joint": -0.6476975780787326,
            "shoulder_pan_joint": -2.711696901376241,
            "wrist_1_joint": -0.07506478083263063,
            "wrist_2_joint": 0.43296659715538205,
            "wrist_3_joint": -3.14703540197715
        }
    },
    "waypoints": [
        {
            "positions": [
                -2.711696901376241,
                -0.6476975780787326,
                0.749534889911806,
                -0.07506478083263063,
                0.43296659715538205,
                -3.14703540197715
            ]
        },
        {
            "positions": [
                -2.7376323947966856,
                -0.7473531646306174,
                0.7420437765545549,
                -0.02586812767456581,
                0.45550413820813407,
                -3.0781461094948885
            ]
        },
        {
            "positions": [
                -2.7635678882171297,
                -0.8470087511825022,
                0.7345526631973038,
                0.023328525483499007,
                0.4780416792608861,
                -3.0092568170126266
            ]
        },
        {
            "positions": [
                -2.7895033816375743,
                -0.946664337734387,
                0.7270615498400528,
                0.07252517864156381,
                0.5005792203136381,
                -2.940367524530365
            ]
        },
        {
            "positions": [
                -2.659096494896894,
                -0.9382065983612488,
                0.6529435514979504,
                0.04814825397247516,
                0.5286745910782235,
                -2.8199957534738083
            ]
        },
        {
            "positions": [
                -2.528689608156214,
                -0.9297488589881107,
                0.5788255531558479,
                0.023771329303386497,
                0.5567699618428087,
                -2.6996239824172514
            ]
        },
        {
            "positions": [
                -2.398282721415534,
                -0.9212911196149725,
                0.5047075548137456,
                -0.0006055953657021496,
                0.584865332607394,
                -2.579252211360694
            ]
        },
        {
            "positions": [
                -2.2678758346748538,
                -0.9128333802418342,
                0.43058955647164315,
                -0.024982520034790817,
                0.6129607033719793,
                -2.4588804403041373
            ]
        },
        {
            "positions": [
                -2.1374689479341735,
                -0.9043756408686962,
                0.3564715581295408,
                -0.04935944470387946,
                0.6410560741365646,
                -2.3385086692475805
            ]
        },
        {
            "positions": [
                -2.0070620611934933,
                -0.8959179014955579,
                0.2823535597874384,
                -0.07373636937296811,
                0.6691514449011499,
                -2.2181368981910237
            ]
        },
        {
            "positions": [
                -1.876655174452813,
                -0.8874601621224197,
                0.20823556144533595,
                -0.09811329404205678,
                0.6972468156657352,
                -2.0977651271344664
            ]
        },
        {
            "positions": [
                -1.746248287712133,
                -0.8790024227492816,
                0.13411756310323353,
                -0.12249021871114545,
                0.7253421864303204,
                -1.9773933560779096
            ]
        },
        {
            "positions": [
                -1.6158414009714528,
                -0.8705446833761434,
                0.05999956476113111,
                -0.1468671433802341,
                0.7534375571949058,
                -1.8570215850213527
            ]
        },
        {
            "positions": [
                -1.4854345142307728,
                -0.8620869440030052,
                -0.014118433580971201,
                -0.17124406804932274,
                0.7815329279594911,
                -1.736649813964796
            ]
        },
        {
            "positions": [
                -1.3550276274900925,
                -0.853629204629867,
                -0.08823643192307362,
                -0.19562099271841138,
                0.8096282987240764,
                -1.6162780429082388
            ]
        },
        {
            "positions": [
                -1.2246207407494125,
                -0.8451714652567289,
                -0.16235443026517593,
                -0.21999791738750002,
                0.8377236694886616,
                -1.495906271851682
            ]
        },
        {
            "positions": [
                -1.094213854008732,
                -0.8367137258835907,
                -0.23647242860727846,
                -0.24437484205658871,
                0.8658190402532471,
                -1.375534500795125
            ]
        },
        {
            "positions": [
                -0.963806967268052,
                -0.8282559865104526,
                -0.3105904269493809,
                -0.26875176672567735,
                0.8939144110178323,
                -1.2551627297385681
            ]
        },
        {
            "positions": [
                -0.833400080527372,
                -0.8197982471373144,
                -0.3847084252914832,
                -0.293128691394766,
                0.9220097817824175,
                -1.1347909586820113
            ]
        },
        {
            "positions": [
                -0.7029931937866918,
                -0.8113405077641762,
                -0.4588264236335857,
                -0.3175056160638547,
                0.9501051525470029,
                -1.014419187625454
            ]
        },
        {
            "positions": [
                -0.5725863070460115,
                -0.802882768391038,
                -0.532944421975688,
                -0.3418825407329433,
                0.9782005233115881,
                -0.8940474165688972
            ]
        },
        {
            "positions": [
                -0.4421794203053313,
                -0.7944250290178999,
                -0.6070624203177906,
                -0.36625946540203197,
                1.0062958940761735,
                -0.7736756455123404
            ]
        },
        {
            "positions": [
                -0.31177253356465107,
                -0.7859672896447617,
                -0.6811804186598929,
                -0.3906363900711206,
                1.0343912648407587,
                -0.6533038744557835
            ]
        },
        {
            "positions": [
                -0.18136564682397127,
                -0.7775095502716236,
                -0.7552984170019952,
                -0.41501331474020925,
                1.0624866356053442,
                -0.5329321033992267
            ]
        },
        {
            "positions": [
                -0.05095876008329103,
                -0.7690518108984854,
                -0.8294164153440977,
                -0.439390239409298,
                1.0905820063699294,
                -0.4125603323426694
            ]
        },
        {
            "positions": [
                0.07944812665738943,
                -0.7605940715253472,
                -0.9035344136862,
                -0.46376716407838664,
                1.1186773771345146,
                -0.2921885612861126
            ]
        },
        {
            "positions": [
                0.07630556683136169,
                -0.8360859607500066,
                -0.9859308108898406,
                -0.3500153833358534,
                1.023132453762111,
                -0.2940139825668792
            ]
        },
        {
            "positions": [
                0.07316300700533397,
                -0.9115778499746662,
                -1.0683272080934811,
                -0.23626360259332016,
                0.9275875303897071,
                -0.2958394038476459
            ]
        },
        {
            "positions": [
                0.07002044717930624,
                -0.9870697391993257,
                -1.1507236052971215,
                -0.1225118218507869,
                0.8320426070173033,
                -0.2976648251284125
            ]
        },
        {
            "positions": [
                0.0668778873532785,
                -1.0625616284239852,
                -1.233120002500762,
                -0.00876004110825368,
                0.7364976836448995,
                -0.2994902464091792
            ]
        },
        {
            "positions": [
                0.06373532752725078,
                -1.1380535176486446,
                -1.3155163997044026,
                0.10499173963427949,
                0.6409527602724958,
                -0.30131566768994583
            ]
        },
        {
            "positions": [
                0.060592767701223044,
                -1.2135454068733043,
                -1.3979127969080432,
                0.21874352037681283,
                0.545407836900092,
                -0.30314108897071246
            ]
        },
        {
            "positions": [
                0.05745020787519531,
                -1.2890372960979637,
                -1.4803091941116837,
                0.33249530111934605,
                0.44986291352768826,
                -0.30496651025147914
            ]
        },
        {
            "positions": [
                0.05430764804916759,
                -1.3645291853226231,
                -1.562705591315324,
                0.4462470818618793,
                0.35431799015528453,
                -0.30679193153224577
            ]
        },
        {
            "positions": [
                0.05116508822313985,
                -1.4400210745472828,
                -1.6451019885189646,
                0.5599988626044123,
                0.2587730667828808,
                -0.30861735281301245
            ]
        },
        {
            "positions": [
                0.04802252839711212,
                -1.515512963771942,
                -1.7274983857226052,
                0.6737506433469456,
                0.16322814341047698,
                -0.3104427740937791
            ]
        },
        {
            "positions": [
                0.044879968571084394,
                -1.5910048529966017,
                -1.8098947829262455,
                0.7875024240894788,
                0.06768322003807326,
                -0.3122681953745457
            ]
        },
        {
            "positions": [
                0.04173740874505666,
                -1.6664967422212613,
                -1.8922911801298863,
                0.9012542048320122,
                -0.02786170333433069,
                -0.3140936166553124
            ]
        },
        {
            "positions": [
                0.03859484891902892,
                -1.7419886314459205,
                -1.9746875773335268,
                1.0150059855745455,
                -0.12340662670673441,
                -0.315919037936079
            ]
        },
        {
            "positions": [
                0.035452289093001195,
                -1.8174805206705802,
                -2.057083974537167,
                1.1287577663170787,
                -0.21895155007913814,
                -0.3177444592168457
            ]
        },
        {
            "positions": [
                0.032309729266973466,
                -1.8929724098952396,
                -2.1394803717408077,
                1.242509547059612,
                -0.31449647345154186,
                -0.3195698804976123
            ]
        },
        {
            "positions": [
                -0.011710507659948965,
                -1.9694639444160535,
                -2.19079117559646,
                1.2844460547124625,
                -0.21340301826261276,
                -0.240220101354628
            ]
        },
        {
            "positions": [
                -0.0557307445868714,
                -2.0459554789368672,
                -2.2421019794521118,
                1.3263825623653132,
                -0.11230956307368367,
                -0.16087032221164374
            ]
        },
        {
            "positions": [
                -0.09975098151379382,
                -2.122447013457681,
                -2.293412783307764,
                1.3683190700181638,
                -0.011216107884754578,
                -0.0815205430686595
            ]
        },
        {
            "positions": [
                -0.14377121844071628,
                -2.198938547978495,
                -2.344723587163416,
                1.4102555776710144,
                0.08987734730417452,
                -0.0021707639256751676
            ]
        },
        {
            "positions": [
                -0.1877914553676387,
                -2.275430082499309,
                -2.396034391019068,
                1.452192085323865,
                0.19097080249310355,
                0.07717901521730908
            ]
        }
    ]
}