{
    "goal": {
        "global_pose": {
            "orientation": {
                "w": -0.4816463035849501,
                "x": 0.5182115481033762,
                "y": 0.4908360881923453,
                "z": -0.5084816262002911
            },
            "position": {
                "x": -0.8240239810943604,
                "y": -0.300875300988555,
                "z": 0.16403168439865112
            }
        },
        "name": "move_to_storage_C"
    },
    "id": "LBTRRT_move_to_storage_C_74",
    "joint_names": [
        "shoulder_pan_joint",
        "shoulder_lift_joint",
        "elbow_joint",
        "wrist_1_joint",
        "wrist_2_joint",
        "wrist_3_joint"
    ],
    "metrics": {
        "cart_traj_len": 0.5768143927863386,
        "distance_elbow_joint": 0.25612881460141756,
        "distance_shoulder_lift_joint": 0.18845958814275254,
        "distance_shoulder_pan_joint": 0.49352606485640704,
        "distance_wrist_1_joint": 0.06959895676808447,
        "distance_wrist_2_joint": 1.0800656295340687,
        "distance_wrist_3_joint": 0.0686883174446562,
        "smoothness": 0.0,
        "time": 5.008127342,
        "traj_len": 1.4684915292051863,
        "weighted_distance": 1.8556693112025244
    },
    "planner": "LBTRRT",
    "start": {
        "state": {
            "elbow_joint": 2.010868314990456,
            "shoulder_lift_joint": -1.1634956873337592,
            "shoulder_pan_joint": -2.4736205022346125,
            "wrist_1_joint": -0.8367026794202681,
            "wrist_2_joint": 0.6746043897044499,
            "wrist_3_joint": -3.1496632123970403
        }
    },
    "waypoints": [
        {
            "positions": [
                -2.4736205022346125,
                -1.1634956873337592,
                2.010868314990456,
                -0.8367026794202681,
                0.6746043897044499,
                -3.1496632123970403
            ]
        },
        {
            "positions": [
                -2.555874846377347,
                -1.1320857559766337,
                1.968180179223553,
                -0.825102853292254,
                0.8546153279601281,
                -3.1382151594895977
            ]
        },
        {
            "positions": [
                -2.6381291905200817,
                -1.1006758246195083,
                1.92549204345665,
                -0.81350302716424,
                1.0346262662158061,
                -3.1267671065821547
            ]
        },
        {
            "positions": [
                -2.7203835346628162,
                -1.0692658932623829,
                1.882803907689747,
                -0.8019032010362259,
                1.2146372044714844,
                -3.115319053674712
            ]
        },
        {
            "positions": [
                -2.8026378788055504,
                -1.0378559619052574,
                1.840115771922844,
                -0.7903033749082118,
                1.3946481427271622,
                -3.1038710007672696
            ]
        },
        {
            "positions": [
                -2.884892222948285,
                -1.006446030548132,
                1.7974276361559411,
                -0.7787035487801977,
                1.5746590809828405,
                -3.0924229478598266
            ]
        },
        {
            "positions": [
                -2.9671465670910195,
                -0.9750360991910066,
                1.7547395003890383,
                -0.7671037226521836,
                1.7546700192385185,
                -3.080974894952384
            ]
        }
    ]
}