{
    "goal": {
        "global_pose": {
            "orientation": {
                "w": 0.7047431493862688,
                "x": -0.7094548369677653,
                "y": 0.0024358444001904,
                "z": -0.0022348060817251984
            },
            "position": {
                "x": -0.39052492380142206,
                "y": 0.3671506643295288,
                "z": 0.19426114857196808
            }
        },
        "name": "move_to_magneteinheit_D"
    },
    "id": "LBTRRT_move_to_magneteinheit_D_117",
    "joint_names": [
        "shoulder_pan_joint",
        "shoulder_lift_joint",
        "elbow_joint",
        "wrist_1_joint",
        "wrist_2_joint",
        "wrist_3_joint"
    ],
    "metrics": {
        "cart_traj_len": 4.026473867699079,
        "distance_elbow_joint": 3.2086488627915264,
        "distance_shoulder_lift_joint": 1.1367221380014438,
        "distance_shoulder_pan_joint": 3.110330029681324,
        "distance_wrist_1_joint": 2.109544816236017,
        "distance_wrist_2_joint": 1.4060468886634316,
        "distance_wrist_3_joint": 6.301861570540369,
        "smoothness": 0.10330425235528883,
        "time": 5.047608975,
        "traj_len": 4.156098447572448,
        "weighted_distance": 5.7786217346262
    },
    "planner": "LBTRRT",
    "start": {
        "state": {
            "elbow_joint": 0.749534889911806,
            "shoulder_lift_joint": -0.6476975780787326,
            "shoulder_pan_joint": -2.711696901376241,
            "wrist_1_joint": -0.07506478083263063,
            "wrist_2_joint": 0.43296659715538205,
            "wrist_3_joint": -3.14703540197715
        }
    },
    "waypoints": [
        {
            "positions": [
                -2.711696901376241,
                -0.6476975780787326,
                0.749534889911806,
                -0.07506478083263063,
                0.43296659715538205,
                -3.14703540197715
            ]
        },
        {
            "positions": [
                -2.730346050465805,
                -0.6766895595191802,
                0.6603107057258945,
                -0.14155955978170215,
                0.3450210547488538,
                -3.077639508596153
            ]
        },
        {
            "positions": [
                -2.748995199555369,
                -0.7056815409596277,
                0.571086521539983,
                -0.2080543387307737,
                0.2570755123423255,
                -3.0082436152151564
            ]
        },
        {
            "positions": [
                -2.767644348644933,
                -0.7346735224000751,
                0.4818623373540715,
                -0.27454911767984524,
                0.16912996993579726,
                -2.938847721834159
            ]
        },
        {
            "positions": [
                -2.786293497734497,
                -0.7636655038405227,
                0.39263815316816003,
                -0.34104389662891677,
                0.08118442752926894,
                -2.8694518284531623
            ]
        },
        {
            "positions": [
                -2.6874305730359813,
                -0.7738054553167899,
                0.28920814504568576,
                -0.38827759846339877,
                0.05686050846075397,
                -2.7573839601908747
            ]
        },
        {
            "positions": [
                -2.5885676483374653,
                -0.7839454067930572,
                0.18577813692321152,
                -0.4355113002978808,
                0.03253658939223899,
                -2.6453160919285867
            ]
        },
        {
            "positions": [
                -2.48970472363895,
                -0.7940853582693245,
                0.08234812880073727,
                -0.4827450021323628,
                0.008212670323724011,
                -2.533248223666299
            ]
        },
        {
            "positions": [
                -2.390841798940434,
                -0.8042253097455917,
                -0.021081879321736996,
                -0.5299787039668449,
                -0.01611124874479096,
                -2.4211803554040117
            ]
        },
        {
            "positions": [
                -2.2919788742419183,
                -0.814365261221859,
                -0.12451188744421121,
                -0.5772124058013268,
                -0.04043516781330593,
                -2.309112487141724
            ]
        },
        {
            "positions": [
                -2.1931159495434027,
                -0.8245052126981263,
                -0.22794189556668548,
                -0.624446107635809,
                -0.06475908688182092,
                -2.197044618879436
            ]
        },
        {
            "positions": [
                -2.0942530248448867,
                -0.8346451641743935,
                -0.33137190368915975,
                -0.6716798094702909,
                -0.08908300595033589,
                -2.0849767506171486
            ]
        },
        {
            "positions": [
                -1.995390100146371,
                -0.8447851156506608,
                -0.434801911811634,
                -0.7189135113047729,
                -0.11340692501885086,
                -1.972908882354861
            ]
        },
        {
            "positions": [
                -1.8965271754478552,
                -0.8549250671269281,
                -0.5382319199341083,
                -0.766147213139255,
                -0.13773084408736583,
                -1.8608410140925733
            ]
        },
        {
            "positions": [
                -1.7976642507493397,
                -0.8650650186031954,
                -0.6416619280565825,
                -0.813380914973737,
                -0.1620547631558808,
                -1.7487731458302855
            ]
        },
        {
            "positions": [
                -1.6988013260508237,
                -0.8752049700794626,
                -0.7450919361790569,
                -0.860614616808219,
                -0.18637868222439577,
                -1.636705277567998
            ]
        },
        {
            "positions": [
                -1.5999384013523081,
                -0.8853449215557299,
                -0.848521944301531,
                -0.9078483186427011,
                -0.21070260129291077,
                -1.5246374093057102
            ]
        },
        {
            "positions": [
                -1.5010754766537924,
                -0.8954848730319972,
                -0.9519519524240052,
                -0.955082020477183,
                -0.2350265203614257,
                -1.4125695410434227
            ]
        },
        {
            "positions": [
                -1.4022125519552766,
                -0.9056248245082644,
                -1.0553819605464796,
                -1.002315722311665,
                -0.25935043942994074,
                -1.300501672781135
            ]
        },
        {
            "positions": [
                -1.3033496272567606,
                -0.9157647759845318,
                -1.158811968668954,
                -1.0495494241461472,
                -0.2836743584984557,
                -1.1884338045188472
            ]
        },
        {
            "positions": [
                -1.204486702558245,
                -0.925904727460799,
                -1.2622419767914281,
                -1.096783125980629,
                -0.3079982775669706,
                -1.0763659362565596
            ]
        },
        {
            "positions": [
                -1.1056237778597293,
                -0.9360446789370662,
                -1.3656719849139025,
                -1.1440168278151113,
                -0.3323221966354857,
                -0.9642980679942719
            ]
        },
        {
            "positions": [
                -1.0067608531612136,
                -0.9461846304133334,
                -1.4691019930363767,
                -1.1912505296495932,
                -0.3566461157040006,
                -0.8522301997319843
            ]
        },
        {
            "positions": [
                -0.9078979284626978,
                -0.9563245818896008,
                -1.572532001158851,
                -1.2384842314840752,
                -0.38097003477251556,
                -0.7401623314696963
            ]
        },
        {
            "positions": [
                -0.8090350037641822,
                -0.966464533365868,
                -1.675962009281325,
                -1.285717933318557,
                -0.4052939538410305,
                -0.6280944632074088
            ]
        },
        {
            "positions": [
                -0.7101720790656665,
                -0.9766044848421354,
                -1.7793920174037996,
                -1.3329516351530395,
                -0.42961787290954556,
                -0.5160265949451213
            ]
        },
        {
            "positions": [
                -0.6113091543671505,
                -0.9867444363184026,
                -1.8828220255262738,
                -1.3801853369875214,
                -0.4539417919780605,
                -0.4039587266828337
            ]
        },
        {
            "positions": [
                -0.512446229668635,
                -0.9968843877946698,
                -1.986252033648748,
                -1.4274190388220034,
                -0.47826571104657556,
                -0.29189085842054574
            ]
        },
        {
            "positions": [
                -0.4135833049701194,
                -1.007024339270937,
                -2.089682041771222,
                -1.4746527406564853,
                -0.5025896301150905,
                -0.1798229901582582
            ]
        },
        {
            "positions": [
                -0.31472038027160343,
                -1.0171642907472045,
                -2.1931120498936965,
                -1.5218864424909673,
                -0.5269135491836054,
                -0.06775512189597066
            ]
        },
        {
            "positions": [
                -0.2158574555730879,
                -1.0273042422234717,
                -2.29654205801617,
                -1.5691201443254492,
                -0.5512374682521204,
                0.04431274636631688
            ]
        },
        {
            "positions": [
                -0.11699453087457212,
                -1.037444193699739,
                -2.3999720661386448,
                -1.6163538461599314,
                -0.5755613873206354,
                0.15638061462860509
            ]
        },
        {
            "positions": [
                -0.08759539040760946,
                -1.0930858748223757,
                -2.4018984425779775,
                -1.650551448261366,
                -0.5510691108262485,
                0.3410960733347471
            ]
        },
        {
            "positions": [
                -0.05819624994064678,
                -1.1487275559450125,
                -2.40382481901731,
                -1.6847490503628002,
                -0.5265768343318618,
                0.5258115320408892
            ]
        },
        {
            "positions": [
                -0.02879710947368412,
                -1.2043692370676493,
                -2.4057511954566433,
                -1.7189466524642347,
                -0.5020845578374749,
                0.7105269907470311
            ]
        },
        {
            "positions": [
                0.00060203099327856,
                -1.260010918190286,
                -2.407677571895976,
                -1.753144254565669,
                -0.477592281343088,
                0.8952424494531732
            ]
        },
        {
            "positions": [
                0.030001171460241227,
                -1.3156525993129229,
                -2.4096039483353087,
                -1.7873418566671035,
                -0.45310000484870117,
                1.0799579081593151
            ]
        },
        {
            "positions": [
                0.030219986796444553,
                -1.3800060107487835,
                -2.403975536003098,
                -1.8312673979676912,
                -0.42049041623869926,
                1.3287467114477816
            ]
        },
        {
            "positions": [
                0.03043880213264788,
                -1.4443594221846439,
                -2.398347123670887,
                -1.8751929392682787,
                -0.38788082762869736,
                1.5775355147362482
            ]
        },
        {
            "positions": [
                0.030657617468851206,
                -1.5087128336205045,
                -2.3927187113386763,
                -1.9191184805688664,
                -0.35527123901869545,
                1.8263243180247146
            ]
        },
        {
            "positions": [
                0.030876432805054532,
                -1.5730662450563648,
                -2.387090299006465,
                -1.963044021869454,
                -0.32266165040869355,
                2.0751131213131813
            ]
        },
        {
            "positions": [
                0.03109524814125786,
                -1.6374196564922254,
                -2.3814618866742543,
                -2.0069695631700415,
                -0.2900520617986916,
                2.323901924601648
            ]
        },
        {
            "positions": [
                0.031314063477461185,
                -1.7017730679280858,
                -2.3758334743420435,
                -2.050895104470629,
                -0.25744247318868974,
                2.572690727890114
            ]
        },
        {
            "positions": [
                0.03153287881366451,
                -1.7661264793639464,
                -2.3702050620098327,
                -2.094820645771217,
                -0.22483288457868777,
                2.8214795311785807
            ]
        },
        {
            "positions": [
                -0.07742064957378939,
                -1.7569798610058314,
                -2.3651494929003647,
                -2.139715121419932,
                -0.20143768385595476,
                2.988152849870901
            ]
        },
        {
            "positions": [
                -0.18637417796124328,
                -1.7478332426477163,
                -2.360093923790896,
                -2.1846095970686474,
                -0.17804248313322174,
                3.1548261685632215
            ]
        }
    ]
}