{
    "goal": {
        "global_pose": {
            "orientation": {
                "w": 0.7031023502349854,
                "x": -0.7110244035720825,
                "y": 0.007748599164187908,
                "z": 0.005598929710686207
            },
            "position": {
                "x": 0.11585023208521307,
                "y": 0.44412534475326537,
                "z": 0.3711530566215515
            }
        },
        "name": "move_to_auspresseinheit_A"
    },
    "id": "LBTRRT_move_to_auspresseinheit_A_42",
    "joint_names": [
        "shoulder_pan_joint",
        "shoulder_lift_joint",
        "elbow_joint",
        "wrist_1_joint",
        "wrist_2_joint",
        "wrist_3_joint"
    ],
    "metrics": {
        "cart_traj_len": 0.6649791392006172,
        "distance_elbow_joint": 0.05095122190579948,
        "distance_shoulder_lift_joint": 0.5384402530754444,
        "distance_shoulder_pan_joint": 1.0457793283188337,
        "distance_wrist_1_joint": 0.6262612581693556,
        "distance_wrist_2_joint": 0.7530542052371431,
        "distance_wrist_3_joint": 0.09853653773535465,
        "smoothness": 0.7000653412124627,
        "time": 5.011392249,
        "traj_len": 1.7643760382758351,
        "weighted_distance": 2.1655048703060307
    },
    "planner": "LBTRRT",
    "start": {
        "state": {
            "elbow_joint": 2.4225746658250005,
            "shoulder_lift_joint": -1.3736534386056498,
            "shoulder_pan_joint": -0.3378633547517467,
            "wrist_1_joint": -1.0288598680537169,
            "wrist_2_joint": 1.233022673432363,
            "wrist_3_joint": -3.0940220416140027
        }
    },
    "waypoints": [
        {
            "positions": [
                -0.3378633547517467,
                -1.3736534386056498,
                2.4225746658250005,
                -1.0288598680537169,
                1.233022673432363,
                -3.0940220416140027
            ]
        },
        {
            "positions": [
                -0.33803926288524677,
                -1.407186160128904,
                2.426658209940785,
                -0.933390642774922,
                1.0477497338275727,
                -3.084878323419157
            ]
        },
        {
            "positions": [
                -0.3382151710187469,
                -1.440718881652158,
                2.430741754056569,
                -0.8379214174961273,
                0.8624767942227826,
                -3.0757346052243113
            ]
        },
        {
            "positions": [
                -0.3383910791522469,
                -1.474251603175412,
                2.4348252981723535,
                -0.7424521922173324,
                0.6772038546179923,
                -3.0665908870294656
            ]
        },
        {
            "positions": [
                -0.15297189157802132,
                -1.554903285316765,
                2.4276382664378944,
                -0.6814805511497211,
                0.6612005950838802,
                -3.0792518173691903
            ]
        },
        {
            "positions": [
                0.03244729599620427,
                -1.635554967458118,
                2.4204512347034353,
                -0.6205089100821098,
                0.645197335549768,
                -3.091912747708915
            ]
        },
        {
            "positions": [
                0.21786648357042976,
                -1.7162066495994712,
                2.413264202968976,
                -0.5595372690144986,
                0.6291940760156559,
                -3.1045736780486397
            ]
        },
        {
            "positions": [
                0.40328567114465547,
                -1.7968583317408242,
                2.406077171234517,
                -0.4985656279468873,
                0.6131908164815437,
                -3.1172346083883644
            ]
        },
        {
            "positions": [
                0.588704858718881,
                -1.8775100138821772,
                2.398890139500058,
                -0.43759398687927603,
                0.5971875569474316,
                -3.129895538728089
            ]
        },
        {
            "positions": [
                0.7068605247660866,
                -1.9120936916810942,
                2.396124708613907,
                -0.47258936387419076,
                0.7144066456996433,
                -3.122094807275895
            ]
        }
    ]
}