{
    "goal": {
        "global_pose": {
            "orientation": {
                "w": -0.4816463035849501,
                "x": 0.5182115481033762,
                "y": 0.4908360881923453,
                "z": -0.5084816262002911
            },
            "position": {
                "x": -0.8240239810943604,
                "y": 0.19912469901144506,
                "z": 0.16403168439865112
            }
        },
        "name": "move_to_storage_D"
    },
    "id": "LBTRRT_move_to_storage_D_62",
    "joint_names": [
        "shoulder_pan_joint",
        "shoulder_lift_joint",
        "elbow_joint",
        "wrist_1_joint",
        "wrist_2_joint",
        "wrist_3_joint"
    ],
    "metrics": {
        "cart_traj_len": 4.048510962245993,
        "distance_elbow_joint": 4.210194983029332,
        "distance_shoulder_lift_joint": 1.2645535017195808,
        "distance_shoulder_pan_joint": 2.814102326185716,
        "distance_wrist_1_joint": 2.2715202372323184,
        "distance_wrist_2_joint": 0.9677352052154743,
        "distance_wrist_3_joint": 3.128423873759628,
        "smoothness": 0.006841306641381534,
        "time": 5.053487545,
        "traj_len": 3.8283847935052258,
        "weighted_distance": 4.9145328686569085
    },
    "planner": "LBTRRT",
    "start": {
        "state": {
            "elbow_joint": -2.384821988534728,
            "shoulder_lift_joint": -2.2788054721415256,
            "shoulder_pan_joint": -0.1854694642142757,
            "wrist_1_joint": 1.4845938289331202,
            "wrist_2_joint": 0.17898776772866878,
            "wrist_3_joint": 0.037105688729662994
        }
    },
    "waypoints": [
        {
            "positions": [
                -0.1854694642142757,
                -2.2788054721415256,
                -2.384821988534728,
                1.4845938289331202,
                0.17898776772866878,
                0.037105688729662994
            ]
        },
        {
            "positions": [
                -0.1615618166764942,
                -2.266489714897844,
                -2.3840731567221134,
                1.4682725931673357,
                0.19807276990691333,
                0.015749638250871785
            ]
        },
        {
            "positions": [
                -0.07444173991428293,
                -2.221698041437281,
                -2.310141060379979,
                1.3972210138982537,
                0.23568620801999665,
                -0.0502631316362026
            ]
        },
        {
            "positions": [
                0.012678336847928323,
                -2.1769063679767187,
                -2.236208964037844,
                1.3261694346291717,
                0.27329964613308,
                -0.11627590152327699
            ]
        },
        {
            "positions": [
                0.09979841361013961,
                -2.1321146945161558,
                -2.16227686769571,
                1.2551178553600897,
                0.31091308424616326,
                -0.1822886714103514
            ]
        },
        {
            "positions": [
                0.18691849037235084,
                -2.0873230210555933,
                -2.0883447713535754,
                1.1840662760910077,
                0.34852652235924664,
                -0.24830144129742576
            ]
        },
        {
            "positions": [
                0.2740385671345622,
                -2.0425313475950304,
                -2.0144126750114406,
                1.1130146968219257,
                0.3861399604723299,
                -0.3143142111845002
            ]
        },
        {
            "positions": [
                0.36115864389677343,
                -1.9977396741344677,
                -1.9404805786693062,
                1.0419631175528434,
                0.4237533985854133,
                -0.3803269810715746
            ]
        },
        {
            "positions": [
                0.4482787206589848,
                -1.952948000673905,
                -1.8665484823271719,
                0.9709115382837614,
                0.46136683669849654,
                -0.44633975095864903
            ]
        },
        {
            "positions": [
                0.5353987974211959,
                -1.9081563272133424,
                -1.7926163859850375,
                0.8998599590146795,
                0.4989802748115799,
                -0.5123525208457232
            ]
        },
        {
            "positions": [
                0.6225188741834072,
                -1.8633646537527797,
                -1.7186842896429029,
                0.8288083797455974,
                0.5365937129246632,
                -0.5783652907327977
            ]
        },
        {
            "positions": [
                0.7096389509456186,
                -1.8185729802922168,
                -1.6447521933007683,
                0.7577568004765154,
                0.5742071510377466,
                -0.6443780606198721
            ]
        },
        {
            "positions": [
                0.7967590277078297,
                -1.7737813068316541,
                -1.570820096958634,
                0.6867052212074334,
                0.6118205891508298,
                -0.7103908305069465
            ]
        },
        {
            "positions": [
                0.883879104470041,
                -1.7289896333710915,
                -1.4968880006164993,
                0.6156536419383514,
                0.6494340272639132,
                -0.7764036003940209
            ]
        },
        {
            "positions": [
                0.9709991812322522,
                -1.6841979599105288,
                -1.4229559042743647,
                0.5446020626692694,
                0.6870474653769965,
                -0.8424163702810953
            ]
        },
        {
            "positions": [
                1.0581192579944636,
                -1.639406286449966,
                -1.3490238079322303,
                0.47355048340018724,
                0.7246609034900798,
                -0.9084291401681698
            ]
        },
        {
            "positions": [
                1.1452393347566747,
                -1.5946146129894032,
                -1.2750917115900957,
                0.40249890413110534,
                0.7622743416031632,
                -0.974441910055244
            ]
        },
        {
            "positions": [
                1.2323594115188858,
                -1.5498229395288408,
                -1.2011596152479613,
                0.33144732486202333,
                0.7998877797162465,
                -1.0404546799423184
            ]
        },
        {
            "positions": [
                1.3194794882810974,
                -1.5050312660682779,
                -1.1272275189058267,
                0.2603957455929411,
                0.8375012178293298,
                -1.106467449829393
            ]
        },
        {
            "positions": [
                1.4065995650433085,
                -1.4602395926077152,
                -1.0532954225636924,
                0.1893441663238591,
                0.8751146559424131,
                -1.1724802197164674
            ]
        },
        {
            "positions": [
                1.4937196418055196,
                -1.4154479191471525,
                -0.9793633262215578,
                0.1182925870547773,
                0.9127280940554964,
                -1.2384929896035417
            ]
        },
        {
            "positions": [
                1.5808397185677312,
                -1.3706562456865896,
                -0.9054312298794231,
                0.047241007785695066,
                0.9503415321685798,
                -1.3045057594906162
            ]
        },
        {
            "positions": [
                1.6679597953299423,
                -1.3258645722260272,
                -0.8314991335372888,
                -0.023810571483386944,
                0.987954970281663,
                -1.3705185293776905
            ]
        },
        {
            "positions": [
                1.7550798720921534,
                -1.2810728987654643,
                -0.7575670371951542,
                -0.09486215075246895,
                1.0255684083947463,
                -1.436531299264765
            ]
        },
        {
            "positions": [
                1.8421999488543648,
                -1.2362812253049016,
                -0.6836349408530196,
                -0.16591373002155096,
                1.0631818465078298,
                -1.5025440691518395
            ]
        },
        {
            "positions": [
                1.9293200256165761,
                -1.191489551844339,
                -0.6097028445108852,
                -0.23696530929063297,
                1.100795284620913,
                -1.5685568390389137
            ]
        },
        {
            "positions": [
                1.9792709424990664,
                -1.1788297245998822,
                -0.4357688560104932,
                -0.2762482449341019,
                1.097514735454968,
                -1.677325506609703
            ]
        },
        {
            "positions": [
                2.0292218593815567,
                -1.1661698973554255,
                -0.26183486751010115,
                -0.3155311805775708,
                1.094234186289023,
                -1.7860941741804925
            ]
        },
        {
            "positions": [
                2.079172776264047,
                -1.1535100701109688,
                -0.08790087900970911,
                -0.3548141162210397,
                1.0909536371230781,
                -1.8948628417512818
            ]
        },
        {
            "positions": [
                2.1291236931465374,
                -1.140850242866512,
                0.08603310949068288,
                -0.3940970518645086,
                1.087673087957133,
                -2.003631509322071
            ]
        },
        {
            "positions": [
                2.1790746100290277,
                -1.1281904156220552,
                0.259967097991075,
                -0.4333799875079775,
                1.084392538791188,
                -2.1124001768928604
            ]
        },
        {
            "positions": [
                2.229025526911518,
                -1.1155305883775986,
                0.43390108649146697,
                -0.4726629231514464,
                1.081111989625243,
                -2.2211688444636497
            ]
        },
        {
            "positions": [
                2.278976443794008,
                -1.1028707611331419,
                0.6078350749918591,
                -0.5119458587949153,
                1.0778314404592981,
                -2.3299375120344394
            ]
        },
        {
            "positions": [
                2.328927360676498,
                -1.0902109338886852,
                0.781769063492251,
                -0.5512287944383842,
                1.074550891293353,
                -2.4387061796052287
            ]
        },
        {
            "positions": [
                2.3788782775589885,
                -1.0775511066442285,
                0.9557030519926433,
                -0.5905117300818532,
                1.071270342127408,
                -2.547474847176018
            ]
        },
        {
            "positions": [
                2.428829194441479,
                -1.0648912793997716,
                1.1296370404930351,
                -0.6297946657253221,
                1.067989792961463,
                -2.6562435147468078
            ]
        },
        {
            "positions": [
                2.478780111323969,
                -1.0522314521553149,
                1.3035710289934272,
                -0.6690776013687909,
                1.0647092437955181,
                -2.765012182317597
            ]
        },
        {
            "positions": [
                2.5287310282064595,
                -1.0395716249108582,
                1.4775050174938191,
                -0.7083605370122599,
                1.061428694629573,
                -2.8737808498883863
            ]
        },
        {
            "positions": [
                2.5786819450889498,
                -1.0269117976664015,
                1.6514390059942112,
                -0.7476434726557288,
                1.058148145463628,
                -2.9825495174591756
            ]
        },
        {
            "positions": [
                2.62863286197144,
                -1.0142519704219448,
                1.8253729944946036,
                -0.7869264082991977,
                1.054867596297683,
                -3.091318185029965
            ]
        }
    ]
}