{
    "goal": {
        "global_pose": {
            "orientation": {
                "w": 0.5084816262002911,
                "x": -0.4908360881923452,
                "y": 0.5182115481033761,
                "z": -0.48164630358495003
            },
            "position": {
                "x": 0.5540239810943604,
                "y": -0.46912469901144505,
                "z": 0.16403168439865112
            }
        },
        "name": "move_to_storage_B"
    },
    "id": "LBTRRT_move_to_storage_B_31",
    "joint_names": [
        "shoulder_pan_joint",
        "shoulder_lift_joint",
        "elbow_joint",
        "wrist_1_joint",
        "wrist_2_joint",
        "wrist_3_joint"
    ],
    "metrics": {
        "cart_traj_len": 1.3812545074510338,
        "distance_elbow_joint": 0.5444596806589361,
        "distance_shoulder_lift_joint": 0.5859635882066943,
        "distance_shoulder_pan_joint": 0.9599942340887199,
        "distance_wrist_1_joint": 3.009201357043823,
        "distance_wrist_2_joint": 2.7171445713088223,
        "distance_wrist_3_joint": 3.1592676246719984,
        "smoothness": 0.12950281802573602,
        "time": 5.044049362,
        "traj_len": 3.3130093655133237,
        "weighted_distance": 4.798011279027555
    },
    "planner": "LBTRRT",
    "start": {
        "state": {
            "elbow_joint": 1.664937868594044,
            "shoulder_lift_joint": -0.661644460510453,
            "shoulder_pan_joint": -0.9139846352900073,
            "wrist_1_joint": 2.146753192139373,
            "wrist_2_joint": -2.2341966793290973,
            "wrist_3_joint": 0.005466555786416001
        }
    },
    "waypoints": [
        {
            "positions": [
                -0.9139846352900073,
                -0.661644460510453,
                1.664937868594044,
                2.146753192139373,
                -2.2341966793290973,
                0.005466555786416001
            ]
        },
        {
            "positions": [
                -0.8993447756397814,
                -0.6778912889898233,
                1.6595922198129527,
                2.148217080448838,
                -2.214838337270211,
                0.016093805544750032
            ]
        },
        {
            "positions": [
                -0.8577320114464861,
                -0.7342713767785763,
                1.649764505172639,
                2.0748356977065763,
                -2.099844381728964,
                0.09325770723054594
            ]
        },
        {
            "positions": [
                -0.8161192472531907,
                -0.7906514645673295,
                1.6399367905323252,
                2.001454314964314,
                -1.9848504261877167,
                0.17042160891634187
            ]
        },
        {
            "positions": [
                -0.7745064830598954,
                -0.8470315523560825,
                1.6301090758920116,
                1.928072932222052,
                -1.8698564706464693,
                0.24758551060213776
            ]
        },
        {
            "positions": [
                -0.7328937188666,
                -0.9034116401448355,
                1.6202813612516977,
                1.85469154947979,
                -1.7548625151052222,
                0.3247494122879337
            ]
        },
        {
            "positions": [
                -0.6912809546733047,
                -0.9597917279335887,
                1.6104536466113841,
                1.781310166737528,
                -1.6398685595639748,
                0.4019133139737296
            ]
        },
        {
            "positions": [
                -0.6496681904800095,
                -1.0161718157223416,
                1.6006259319710703,
                1.707928783995266,
                -1.5248746040227277,
                0.4790772156595255
            ]
        },
        {
            "positions": [
                -0.608055426286714,
                -1.0725519035110949,
                1.5907982173307567,
                1.634547401253004,
                -1.4098806484814803,
                0.5562411173453214
            ]
        },
        {
            "positions": [
                -0.5664426620934186,
                -1.128931991299848,
                1.5809705026904428,
                1.5611660185107419,
                -1.2948866929402332,
                0.6334050190311173
            ]
        },
        {
            "positions": [
                -0.5248298979001234,
                -1.185312079088601,
                1.5711427880501292,
                1.4877846357684799,
                -1.1798927373989858,
                0.7105689207169132
            ]
        },
        {
            "positions": [
                -0.5533718727350652,
                -1.1821972806071737,
                1.5936760180558802,
                1.37041938456578,
                -1.0967507059300503,
                0.8332771837039883
            ]
        },
        {
            "positions": [
                -0.581913847570007,
                -1.1790824821257462,
                1.6162092480616312,
                1.2530541333630798,
                -1.0136086744611146,
                0.9559854466910633
            ]
        },
        {
            "positions": [
                -0.6104558224049488,
                -1.175967683644319,
                1.6387424780673825,
                1.1356888821603799,
                -0.9304666429921791,
                1.0786937096781384
            ]
        },
        {
            "positions": [
                -0.6389977972398906,
                -1.1728528851628917,
                1.6612757080731335,
                1.0183236309576797,
                -0.8473246115232436,
                1.2014019726652134
            ]
        },
        {
            "positions": [
                -0.6675397720748324,
                -1.1697380866814644,
                1.6838089380788845,
                0.9009583797549798,
                -0.764182580054308,
                1.3241102356522885
            ]
        },
        {
            "positions": [
                -0.6960817469097741,
                -1.1666232882000371,
                1.7063421680846356,
                0.7835931285522798,
                -0.6810405485853723,
                1.4468184986393635
            ]
        },
        {
            "positions": [
                -0.7246237217447159,
                -1.1635084897186097,
                1.7288753980903866,
                0.6662278773495799,
                -0.5978985171164368,
                1.5695267616264386
            ]
        },
        {
            "positions": [
                -0.7531656965796577,
                -1.1603936912371824,
                1.7514086280961378,
                0.5488626261468798,
                -0.5147564856475012,
                1.6922350246135136
            ]
        },
        {
            "positions": [
                -0.7817076714145995,
                -1.1572788927557551,
                1.7739418581018889,
                0.4314973749441797,
                -0.4316144541785656,
                1.8149432876005887
            ]
        },
        {
            "positions": [
                -0.8102496462495413,
                -1.1541640942743276,
                1.79647508810764,
                0.3141321237414798,
                -0.3484724227096301,
                1.9376515505876637
            ]
        },
        {
            "positions": [
                -0.8387916210844831,
                -1.1510492957929004,
                1.819008318113391,
                0.19676687253877967,
                -0.26533039124069446,
                2.0603598135747387
            ]
        },
        {
            "positions": [
                -0.8673335959194248,
                -1.1479344973114731,
                1.841541548119142,
                0.07940162133607975,
                -0.18218835977175896,
                2.183068076561814
            ]
        },
        {
            "positions": [
                -0.8958755707543667,
                -1.1448196988300459,
                1.8640747781248932,
                -0.03796362986662016,
                -0.09904632830282334,
                2.305776339548889
            ]
        },
        {
            "positions": [
                -0.9244175455893084,
                -1.1417049003486186,
                1.8866080081306442,
                -0.15532888106932008,
                -0.015904296833887832,
                2.428484602535964
            ]
        },
        {
            "positions": [
                -0.9529595204242503,
                -1.1385901018671911,
                1.9091412381363952,
                -0.2726941322720202,
                0.06723773463504767,
                2.551192865523039
            ]
        },
        {
            "positions": [
                -0.9815014952591921,
                -1.1354753033857639,
                1.9316744681421463,
                -0.39005938347472036,
                0.1503797661039834,
                2.673901128510114
            ]
        },
        {
            "positions": [
                -1.0100434700941339,
                -1.1323605049043366,
                1.9542076981478973,
                -0.5074246346774203,
                0.2335217975729189,
                2.796609391497189
            ]
        },
        {
            "positions": [
                -1.0385854449290757,
                -1.1292457064229091,
                1.9767409281536485,
                -0.6247898858801204,
                0.31666382904185464,
                2.919317654484264
            ]
        },
        {
            "positions": [
                -1.0671274197640175,
                -1.1261309079414819,
                1.9992741581593996,
                -0.7421551370828203,
                0.3998058605107899,
                3.042025917471339
            ]
        },
        {
            "positions": [
                -1.0956693945989593,
                -1.1230161094600546,
                2.0218073881651506,
                -0.8595203882855201,
                0.4829478919797257,
                3.164734180458414
            ]
        }
    ]
}