{
    "goal": {
        "global_pose": {
            "orientation": {
                "w": 0.7047431468963623,
                "x": -0.7094548344612122,
                "y": 0.0024358443915843964,
                "z": -0.0022348060738295317
            },
            "position": {
                "x": 0.6094750761985779,
                "y": 0.3671506643295288,
                "z": 0.19426114857196808
            }
        },
        "name": "move_to_magneteinheit_A"
    },
    "id": "LBTRRT_move_to_magneteinheit_A_103",
    "joint_names": [
        "shoulder_pan_joint",
        "shoulder_lift_joint",
        "elbow_joint",
        "wrist_1_joint",
        "wrist_2_joint",
        "wrist_3_joint"
    ],
    "metrics": {
        "cart_traj_len": 3.5855466381675027,
        "distance_elbow_joint": 3.9031818694408558,
        "distance_shoulder_lift_joint": 0.3561990910042898,
        "distance_shoulder_pan_joint": 2.6852191241258003,
        "distance_wrist_1_joint": 1.218253361976262,
        "distance_wrist_2_joint": 2.000259090060904,
        "distance_wrist_3_joint": 2.6949196293302693,
        "smoothness": 0.23703836031193093,
        "time": 5.037877794,
        "traj_len": 3.5858098340456346,
        "weighted_distance": 4.633182909905035
    },
    "planner": "LBTRRT",
    "start": {
        "state": {
            "elbow_joint": -1.9196185241190666,
            "shoulder_lift_joint": -1.2443396400964142,
            "shoulder_pan_joint": 2.6996025414629847,
            "wrist_1_joint": -1.5485510000780065,
            "wrist_2_joint": -1.5709468930060704,
            "wrist_3_joint": 0.4420197071253992
        }
    },
    "waypoints": [
        {
            "positions": [
                2.6996025414629847,
                -1.2443396400964142,
                -1.9196185241190666,
                -1.5485510000780065,
                -1.5709468930060704,
                0.4420197071253992
            ]
        },
        {
            "positions": [
                2.607572445329238,
                -1.2356184108842165,
                -1.813794974005581,
                -1.5113040130663962,
                -1.505995942969985,
                0.519089729001698
            ]
        },
        {
            "positions": [
                2.5155423491954916,
                -1.2268971816720187,
                -1.7079714238920953,
                -1.4740570260547856,
                -1.4410449929338993,
                0.5961597508779969
            ]
        },
        {
            "positions": [
                2.4235122530617446,
                -1.218175952459821,
                -1.6021478737786095,
                -1.4368100390431753,
                -1.376094042897814,
                0.6732297727542957
            ]
        },
        {
            "positions": [
                2.331482156927998,
                -1.2094547232476232,
                -1.4963243236651238,
                -1.399563052031565,
                -1.3111430928617285,
                0.7502997946305947
            ]
        },
        {
            "positions": [
                2.2394520607942514,
                -1.2007334940354255,
                -1.3905007735516381,
                -1.3623160650199544,
                -1.246192142825643,
                0.8273698165068935
            ]
        },
        {
            "positions": [
                2.147421964660505,
                -1.1920122648232279,
                -1.2846772234381523,
                -1.325069078008344,
                -1.1812411927895576,
                0.9044398383831924
            ]
        },
        {
            "positions": [
                2.0553918685267583,
                -1.18329103561103,
                -1.1788536733246668,
                -1.2878220909967335,
                -1.1162902427534722,
                0.9815098602594912
            ]
        },
        {
            "positions": [
                1.9633617723930117,
                -1.1745698063988324,
                -1.073030123211181,
                -1.2505751039851232,
                -1.0513392927173866,
                1.0585798821357901
            ]
        },
        {
            "positions": [
                1.871331676259265,
                -1.1658485771866347,
                -0.9672065730976953,
                -1.2133281169735128,
                -0.9863883426813012,
                1.135649904012089
            ]
        },
        {
            "positions": [
                1.779301580125518,
                -1.1571273479744368,
                -0.8613830229842094,
                -1.1760811299619023,
                -0.9214373926452156,
                1.2127199258883878
            ]
        },
        {
            "positions": [
                1.6872714839917717,
                -1.1484061187622392,
                -0.755559472870724,
                -1.138834142950292,
                -0.8564864426091302,
                1.2897899477646866
            ]
        },
        {
            "positions": [
                1.595241387858025,
                -1.1396848895500413,
                -0.6497359227572381,
                -1.1015871559386814,
                -0.7915354925730447,
                1.3668599696409856
            ]
        },
        {
            "positions": [
                1.5032112917242784,
                -1.1309636603378437,
                -0.5439123726437525,
                -1.064340168927071,
                -0.7265845425369593,
                1.4439299915172845
            ]
        },
        {
            "positions": [
                1.4111811955905318,
                -1.122242431125646,
                -0.4380888225302668,
                -1.0270931819154607,
                -0.6616335925008738,
                1.521000013393583
            ]
        },
        {
            "positions": [
                1.3191510994567852,
                -1.1135212019134482,
                -0.33226527241678117,
                -0.9898461949038503,
                -0.5966826424647884,
                1.598070035269882
            ]
        },
        {
            "positions": [
                1.2271210033230384,
                -1.1047999727012505,
                -0.2264417223032953,
                -0.9525992078922398,
                -0.5317316924287028,
                1.675140057146181
            ]
        },
        {
            "positions": [
                1.1350909071892918,
                -1.0960787434890529,
                -0.12061817218980964,
                -0.9153522208806295,
                -0.46678074239261735,
                1.75221007902248
            ]
        },
        {
            "positions": [
                1.0430608110555453,
                -1.087357514276855,
                -0.014794622076323982,
                -0.8781052338690191,
                -0.40182979235653193,
                1.829280100898779
            ]
        },
        {
            "positions": [
                0.9510307149217987,
                -1.0786362850646574,
                0.09102892803716145,
                -0.8408582468574086,
                -0.3368788423204465,
                1.9063501227750774
            ]
        },
        {
            "positions": [
                0.8590006187880517,
                -1.0699150558524595,
                0.19685247815064777,
                -0.8036112598457982,
                -0.2719278922843609,
                1.9834201446513764
            ]
        },
        {
            "positions": [
                0.7669705226543051,
                -1.0611938266402619,
                0.3026760282641332,
                -0.7663642728341878,
                -0.20697694224827545,
                2.0604901665276754
            ]
        },
        {
            "positions": [
                0.6749404265205587,
                -1.0524725974280642,
                0.40849957837761863,
                -0.7291172858225774,
                -0.14202599221219003,
                2.1375601884039743
            ]
        },
        {
            "positions": [
                0.5829103303868122,
                -1.0437513682158663,
                0.5143231284911045,
                -0.691870298810967,
                -0.07707504217610461,
                2.214630210280273
            ]
        },
        {
            "positions": [
                0.49088023425306515,
                -1.0350301390036687,
                0.6201466786045904,
                -0.6546233117993565,
                -0.012124092140018972,
                2.291700232156572
            ]
        },
        {
            "positions": [
                0.3988501381193186,
                -1.0263089097914708,
                0.7259702287180763,
                -0.6173763247877462,
                0.05282685789606645,
                2.368770254032871
            ]
        },
        {
            "positions": [
                0.3068200419855722,
                -1.0175876805792732,
                0.8317937788315618,
                -0.5801293377761357,
                0.11777780793215198,
                2.4458402759091697
            ]
        },
        {
            "positions": [
                0.24733405046543072,
                -1.028698378271417,
                1.0016890018905105,
                -0.5982887353547182,
                0.15674788953400914,
                2.539955024035497
            ]
        },
        {
            "positions": [
                0.18784805894528922,
                -1.0398090759635608,
                1.171584224949459,
                -0.6164481329333007,
                0.19571797113586628,
                2.6340697721618245
            ]
        },
        {
            "positions": [
                0.12836206742514775,
                -1.0509197736557045,
                1.3414794480084078,
                -0.6346075305118831,
                0.23468805273772342,
                2.7281845202881523
            ]
        },
        {
            "positions": [
                0.06887607590500625,
                -1.0620304713478483,
                1.5113746710673563,
                -0.6527669280904655,
                0.2736581343395806,
                2.8222992684144796
            ]
        },
        {
            "positions": [
                0.0868028884462303,
                -1.0867898737865094,
                1.662567088811233,
                -0.6858940423077978,
                0.22422725171727664,
                2.902060029696503
            ]
        },
        {
            "positions": [
                0.10472970098745435,
                -1.1115492762251706,
                1.8137595065551093,
                -0.7190211565251302,
                0.17479636909497268,
                2.981820790978527
            ]
        },
        {
            "positions": [
                0.1226565135286784,
                -1.1363086786638317,
                1.964951924298986,
                -0.7521482707424625,
                0.1253654864726687,
                3.0615815522605505
            ]
        },
        {
            "positions": [
                0.1219442925845294,
                -1.147034812066422,
                1.9835633453217896,
                -0.829961037450527,
                0.13272690132100926,
                3.1369393364556686
            ]
        }
    ]
}