{
    "goal": {
        "global_pose": {
            "orientation": {
                "w": -0.00223480608172531,
                "x": 0.0024358444001904467,
                "y": 0.7094548369677653,
                "z": -0.704743149386269
            },
            "position": {
                "x": 0.6205249238014221,
                "y": -0.6371506643295288,
                "z": 0.19426114857196808
            }
        },
        "name": "move_to_magneteinheit_B"
    },
    "id": "LBTRRT_move_to_magneteinheit_B_32",
    "joint_names": [
        "shoulder_pan_joint",
        "shoulder_lift_joint",
        "elbow_joint",
        "wrist_1_joint",
        "wrist_2_joint",
        "wrist_3_joint"
    ],
    "metrics": {
        "cart_traj_len": 2.4355980822725742,
        "distance_elbow_joint": 0.9586700508763104,
        "distance_shoulder_lift_joint": 3.5994776617739737,
        "distance_shoulder_pan_joint": 1.6186694630458018,
        "distance_wrist_1_joint": 0.19359687332207853,
        "distance_wrist_2_joint": 1.5362906624684485,
        "distance_wrist_3_joint": 0.6180452490483127,
        "smoothness": 0.871324938639467,
        "time": 5.029979863,
        "traj_len": 2.919717445324962,
        "weighted_distance": 3.3897976332551294
    },
    "planner": "LBTRRT",
    "start": {
        "state": {
            "elbow_joint": 2.6216224122426386,
            "shoulder_lift_joint": -1.4174107377796124,
            "shoulder_pan_joint": 0.7066234856936794,
            "wrist_1_joint": 1.9546482284002225,
            "wrist_2_joint": -0.7096286983471962,
            "wrist_3_joint": 0.005740856962016249
        }
    },
    "waypoints": [
        {
            "positions": [
                0.7066234856936794,
                -1.4174107377796124,
                2.6216224122426386,
                1.9546482284002225,
                -0.7096286983471962,
                0.005740856962016249
            ]
        },
        {
            "positions": [
                0.5515332441062707,
                -1.3827395706998287,
                2.5779830131759596,
                1.9752013477986075,
                -0.7694474663421269,
                0.01051394836142848
            ]
        },
        {
            "positions": [
                0.48914874595271446,
                -1.54072187299725,
                2.553300245582636,
                1.984096391463594,
                -0.8725561159301731,
                -0.023609393957822987
            ]
        },
        {
            "positions": [
                0.4267642477991582,
                -1.6987041752946714,
                2.5286174779893122,
                1.9929914351285807,
                -0.9756647655182193,
                -0.05773273627707445
            ]
        },
        {
            "positions": [
                0.364379749645602,
                -1.8566864775920926,
                2.503934710395989,
                2.0018864787935673,
                -1.0787734151062656,
                -0.09185607859632591
            ]
        },
        {
            "positions": [
                0.30199525149204576,
                -2.014668779889514,
                2.479251942802665,
                2.010781522458554,
                -1.1818820646943118,
                -0.1259794209155774
            ]
        },
        {
            "positions": [
                0.23961075333848947,
                -2.1726510821869356,
                2.4545691752093415,
                2.0196765661235405,
                -1.2849907142823582,
                -0.16010276323482886
            ]
        },
        {
            "positions": [
                0.1772262551849333,
                -2.3306333844843565,
                2.4298864076160176,
                2.028571609788527,
                -1.3880993638704044,
                -0.19422610555408032
            ]
        },
        {
            "positions": [
                0.114841757031377,
                -2.4886156867817784,
                2.405203640022694,
                2.0374666534535137,
                -1.4912080134584507,
                -0.22834944787333178
            ]
        },
        {
            "positions": [
                0.05245725887782082,
                -2.6465979890791993,
                2.3805208724293703,
                2.0463616971185004,
                -1.5943166630464969,
                -0.26247279019258324
            ]
        },
        {
            "positions": [
                -0.009927239275735467,
                -2.8045802913766207,
                2.355838104836047,
                2.055256740783487,
                -1.697425312634543,
                -0.2965961325118347
            ]
        },
        {
            "positions": [
                -0.08510380078210107,
                -2.625999810208504,
                2.29809762621357,
                2.0630057708617215,
                -1.7431331499829683,
                -0.2710826261138649
            ]
        },
        {
            "positions": [
                -0.16028036228846668,
                -2.447419329040388,
                2.2403571475910935,
                2.070754800939956,
                -1.7888409873313933,
                -0.24556911971589518
            ]
        },
        {
            "positions": [
                -0.2354569237948323,
                -2.268838847872271,
                2.1826166689686173,
                2.0785038310181907,
                -1.8345488246798185,
                -0.2200556133179254
            ]
        },
        {
            "positions": [
                -0.3106334853011979,
                -2.090258366704155,
                2.1248761903461406,
                2.086252861096425,
                -1.8802566620282437,
                -0.19454210691995563
            ]
        },
        {
            "positions": [
                -0.38581004680756353,
                -1.9116778855360383,
                2.067135711723664,
                2.0940018911746594,
                -1.9259644993766687,
                -0.16902860052198584
            ]
        },
        {
            "positions": [
                -0.4609866083139291,
                -1.733097404367922,
                2.0093952331011877,
                2.101750921252894,
                -1.971672336725094,
                -0.14351509412401608
            ]
        },
        {
            "positions": [
                -0.5361631698202948,
                -1.5545169231998053,
                1.951654754478711,
                2.1094999513311286,
                -2.017380174073519,
                -0.1180015877260463
            ]
        },
        {
            "positions": [
                -0.6113397313266603,
                -1.375936442031689,
                1.8939142758562344,
                2.117248981409363,
                -2.0630880114219443,
                -0.09248808132807657
            ]
        },
        {
            "positions": [
                -0.686516292833026,
                -1.1973559608635727,
                1.8361737972337577,
                2.1249980114875973,
                -2.1087958487703693,
                -0.06697457493010678
            ]
        },
        {
            "positions": [
                -0.7616928543393916,
                -1.018775479695456,
                1.7784333186112813,
                2.132747041565832,
                -2.1545036861187943,
                -0.04146106853213699
            ]
        },
        {
            "positions": [
                -0.8368694158457571,
                -0.8401949985273398,
                1.7206928399888048,
                2.1404960716440664,
                -2.2002115234672193,
                -0.01594756213416726
            ]
        },
        {
            "positions": [
                -0.9120459773521228,
                -0.661614517359223,
                1.6629523613663282,
                2.148245101722301,
                -2.2459193608156447,
                0.009565944263802506
            ]
        }
    ]
}