{
    "goal": {
        "global_pose": {
            "orientation": {
                "w": 0.5084816262002911,
                "x": -0.4908360881923452,
                "y": 0.5182115481033761,
                "z": -0.48164630358495003
            },
            "position": {
                "x": 0.5540239810943604,
                "y": -0.46912469901144505,
                "z": 0.16403168439865112
            }
        },
        "name": "move_to_storage_B"
    },
    "id": "LBTRRT_move_to_storage_B_115",
    "joint_names": [
        "shoulder_pan_joint",
        "shoulder_lift_joint",
        "elbow_joint",
        "wrist_1_joint",
        "wrist_2_joint",
        "wrist_3_joint"
    ],
    "metrics": {
        "cart_traj_len": 0.6923676827474081,
        "distance_elbow_joint": 0.35258285903673103,
        "distance_shoulder_lift_joint": 0.45963036021503045,
        "distance_shoulder_pan_joint": 0.2002176047746319,
        "distance_wrist_1_joint": 2.986814733836487,
        "distance_wrist_2_joint": 2.71577009219171,
        "distance_wrist_3_joint": 3.147318988039595,
        "smoothness": 0.03694701786376772,
        "time": 5.061642705,
        "traj_len": 3.1404354217360027,
        "weighted_distance": 4.675420562922824
    },
    "planner": "LBTRRT",
    "start": {
        "state": {
            "elbow_joint": 1.664937868594044,
            "shoulder_lift_joint": -0.661644460510453,
            "shoulder_pan_joint": -0.9139846352900073,
            "wrist_1_joint": 2.146753192139373,
            "wrist_2_joint": -2.2341966793290973,
            "wrist_3_joint": 0.005466555786416001
        }
    },
    "waypoints": [
        {
            "positions": [
                -0.9139846352900073,
                -0.661644460510453,
                1.664937868594044,
                2.146753192139373,
                -2.2341966793290973,
                0.005466555786416001
            ]
        },
        {
            "positions": [
                -0.9047963921291395,
                -0.6853434494001615,
                1.70559672323953,
                2.087753806904696,
                -2.1335471145735037,
                0.008186727000187504
            ]
        },
        {
            "positions": [
                -0.9111164782464307,
                -0.7154393812442392,
                1.722758338940283,
                1.940901559883545,
                -2.017140693879273,
                -0.05723931087681615
            ]
        },
        {
            "positions": [
                -0.9174365643637219,
                -0.7455353130883169,
                1.739919954641036,
                1.7940493128623938,
                -1.9007342731850427,
                -0.1226653487538198
            ]
        },
        {
            "positions": [
                -0.9237566504810131,
                -0.7756312449323947,
                1.7570815703417888,
                1.6471970658412425,
                -1.7843278524908124,
                -0.18809138663082348
            ]
        },
        {
            "positions": [
                -0.9300767365983043,
                -0.8057271767764724,
                1.7742431860425418,
                1.5003448188200914,
                -1.667921431796582,
                -0.2535174245078271
            ]
        },
        {
            "positions": [
                -0.9363968227155954,
                -0.8358231086205502,
                1.7914048017432949,
                1.3534925717989403,
                -1.5515150111023515,
                -0.3189434623848308
            ]
        },
        {
            "positions": [
                -0.9427169088328866,
                -0.865919040464628,
                1.8085664174440477,
                1.206640324777789,
                -1.435108590408121,
                -0.3843695002618344
            ]
        },
        {
            "positions": [
                -0.9490369949501779,
                -0.8960149723087056,
                1.8257280331448007,
                1.0597880777566377,
                -1.3187021697138905,
                -0.4497955381388381
            ]
        },
        {
            "positions": [
                -0.9553570810674691,
                -0.9261109041527834,
                1.8428896488455537,
                0.9129358307354867,
                -1.2022957490196604,
                -0.5152215760158417
            ]
        },
        {
            "positions": [
                -0.9616771671847603,
                -0.9562068359968612,
                1.8600512645463068,
                0.7660835837143356,
                -1.0858893283254298,
                -0.5806476138928454
            ]
        },
        {
            "positions": [
                -0.9679972533020514,
                -0.9863027678409388,
                1.8772128802470598,
                0.6192313366931843,
                -0.9694829076311993,
                -0.6460736517698491
            ]
        },
        {
            "positions": [
                -0.9743173394193426,
                -1.0163986996850167,
                1.8943744959478126,
                0.47237908967203324,
                -0.8530764869369691,
                -0.7114996896468526
            ]
        },
        {
            "positions": [
                -0.9806374255366338,
                -1.0464946315290944,
                1.9115361116485656,
                0.32552684265088205,
                -0.7366700662427387,
                -0.7769257275238564
            ]
        },
        {
            "positions": [
                -0.9894980661678854,
                -1.0522469537749706,
                1.919688774416428,
                0.23586619770103623,
                -0.6429590293884808,
                -0.9584246784701471
            ]
        },
        {
            "positions": [
                -0.9983587067991369,
                -1.0579992760208465,
                1.9278414371842902,
                0.1462055527511904,
                -0.549247992534223,
                -1.1399236294164379
            ]
        },
        {
            "positions": [
                -1.0072193474303883,
                -1.0637515982667227,
                1.9359940999521523,
                0.05654490780134458,
                -0.45553695567996505,
                -1.3214225803627286
            ]
        },
        {
            "positions": [
                -1.01607998806164,
                -1.0695039205125987,
                1.9441467627200146,
                -0.033115737148501245,
                -0.3618259188257072,
                -1.5029215313090192
            ]
        },
        {
            "positions": [
                -1.0249406286928915,
                -1.0752562427584749,
                1.952299425487877,
                -0.12277638209834707,
                -0.26811488197144934,
                -1.68442048225531
            ]
        },
        {
            "positions": [
                -1.033801269324143,
                -1.0810085650043508,
                1.9604520882557392,
                -0.2124370270481929,
                -0.17440384511719143,
                -1.8659194332016007
            ]
        },
        {
            "positions": [
                -1.0426619099553944,
                -1.086760887250227,
                1.9686047510236013,
                -0.3020976719980387,
                -0.08069280826293368,
                -2.0474183841478912
            ]
        },
        {
            "positions": [
                -1.0515225505866461,
                -1.092513209496103,
                1.9767574137914636,
                -0.39175831694788454,
                0.013018228591324288,
                -2.228917335094182
            ]
        },
        {
            "positions": [
                -1.0603831912178976,
                -1.0982655317419792,
                1.984910076559326,
                -0.48141896189773037,
                0.10672926544558214,
                -2.4104162860404728
            ]
        },
        {
            "positions": [
                -1.069243831849149,
                -1.1040178539878551,
                1.9930627393271882,
                -0.5710796068475762,
                0.20044030229984,
                -2.5919152369867637
            ]
        },
        {
            "positions": [
                -1.0781044724804005,
                -1.1097701762337313,
                2.0012154020950503,
                -0.660740251797422,
                0.29415133915409786,
                -2.773414187933054
            ]
        },
        {
            "positions": [
                -1.0869651131116522,
                -1.1155224984796073,
                2.0093680648629126,
                -0.7504008967472678,
                0.3878623760083558,
                -2.954913138879345
            ]
        },
        {
            "positions": [
                -1.0958257537429037,
                -1.1212748207254835,
                2.017520727630775,
                -0.8400615416971138,
                0.48157341286261357,
                -3.136412089825636
            ]
        }
    ]
}