{
    "goal": {
        "global_pose": {
            "orientation": {
                "w": -0.4816463035849501,
                "x": 0.5182115481033762,
                "y": 0.4908360881923453,
                "z": -0.5084816262002911
            },
            "position": {
                "x": -0.8240239810943604,
                "y": -0.300875300988555,
                "z": 0.16403168439865112
            }
        },
        "name": "move_to_storage_C"
    },
    "id": "LBTRRT_move_to_storage_C_39",
    "joint_names": [
        "shoulder_pan_joint",
        "shoulder_lift_joint",
        "elbow_joint",
        "wrist_1_joint",
        "wrist_2_joint",
        "wrist_3_joint"
    ],
    "metrics": {
        "cart_traj_len": 0.5773857238441786,
        "distance_elbow_joint": 0.2585259807802587,
        "distance_shoulder_lift_joint": 0.18980943605431932,
        "distance_shoulder_pan_joint": 0.49478796316191964,
        "distance_wrist_1_joint": 0.07892463435450703,
        "distance_wrist_2_joint": 1.0737706911433533,
        "distance_wrist_3_joint": 0.06359500483236546,
        "smoothness": 1.0150610591234219e-15,
        "time": 5.003608267,
        "traj_len": 1.4694943723358465,
        "weighted_distance": 1.8545347248000819
    },
    "planner": "LBTRRT",
    "start": {
        "state": {
            "elbow_joint": 2.010868314990456,
            "shoulder_lift_joint": -1.1634956873337592,
            "shoulder_pan_joint": -2.4736205022346125,
            "wrist_1_joint": -0.8367026794202681,
            "wrist_2_joint": 0.6746043897044499,
            "wrist_3_joint": -3.1496632123970403
        }
    },
    "waypoints": [
        {
            "positions": [
                -2.4736205022346125,
                -1.1634956873337592,
                2.010868314990456,
                -0.8367026794202681,
                0.6746043897044499,
                -3.1496632123970403
            ]
        },
        {
            "positions": [
                -2.5560851627615992,
                -1.131860781324706,
                1.9677806515270793,
                -0.823548573694517,
                0.8535661715616755,
                -3.1390640449249796
            ]
        },
        {
            "positions": [
                -2.6385498232885856,
                -1.1002258753156529,
                1.924692988063703,
                -0.8103944679687658,
                1.0325279534189011,
                -3.1284648774529185
            ]
        },
        {
            "positions": [
                -2.7210144838155723,
                -1.0685909693065996,
                1.8816053246003266,
                -0.7972403622430146,
                1.2114897352761265,
                -3.1178657099808573
            ]
        },
        {
            "positions": [
                -2.803479144342559,
                -1.0369560632975463,
                1.83851766113695,
                -0.7840862565172634,
                1.3904515171333522,
                -3.1072665425087966
            ]
        },
        {
            "positions": [
                -2.8859438048695454,
                -1.005321157288493,
                1.7954299976735735,
                -0.7709321507915122,
                1.5694132989905776,
                -3.096667375036736
            ]
        },
        {
            "positions": [
                -2.968408465396532,
                -0.9736862512794399,
                1.7523423342101971,
                -0.7577780450657611,
                1.7483750808478034,
                -3.086068207564675
            ]
        }
    ]
}