{
    "goal": {
        "global_pose": {
            "orientation": {
                "w": 0.005598929693374612,
                "x": 0.007748599140229565,
                "y": 0.7110244013736278,
                "z": -0.7031023480610252
            },
            "position": {
                "x": -0.8858502320852131,
                "y": -0.7141253447532654,
                "z": 0.3711530566215515
            }
        },
        "name": "move_to_auspresseinheit_C"
    },
    "id": "LBTRRT_move_to_auspresseinheit_C_8",
    "joint_names": [
        "shoulder_pan_joint",
        "shoulder_lift_joint",
        "elbow_joint",
        "wrist_1_joint",
        "wrist_2_joint",
        "wrist_3_joint"
    ],
    "metrics": {
        "cart_traj_len": 0.49231072466389114,
        "distance_elbow_joint": 0.9917825809456046,
        "distance_shoulder_lift_joint": 0.32180436921916356,
        "distance_shoulder_pan_joint": 0.2560146998744459,
        "distance_wrist_1_joint": 0.6573368538652934,
        "distance_wrist_2_joint": 1.3109060754014297,
        "distance_wrist_3_joint": 0.0351201613308878,
        "smoothness": 4.844609574787718e-16,
        "time": 5.005214454,
        "traj_len": 1.8902287535208073,
        "weighted_distance": 2.3688495082139185
    },
    "planner": "LBTRRT",
    "start": {
        "state": {
            "elbow_joint": 1.7527959577737207,
            "shoulder_lift_joint": -0.9740617694225068,
            "shoulder_pan_joint": -2.967991417825858,
            "wrist_1_joint": -0.759517768980727,
            "wrist_2_joint": 1.7443932448377408,
            "wrist_3_joint": -3.0840537646736568
        }
    },
    "waypoints": [
        {
            "positions": [
                -2.967991417825858,
                -0.9740617694225068,
                1.7527959577737207,
                -0.759517768980727,
                1.7443932448377408,
                -3.0840537646736568
            ]
        },
        {
            "positions": [
                -2.9423899478384135,
                -0.9418813325005904,
                1.6536176996791603,
                -0.6937840835941976,
                1.6133026372975978,
                -3.0875657808067456
            ]
        },
        {
            "positions": [
                -2.916788477850969,
                -0.9097008955786741,
                1.5544394415845997,
                -0.6280503982076683,
                1.4822120297574548,
                -3.0910777969398344
            ]
        },
        {
            "positions": [
                -2.891187007863524,
                -0.8775204586567578,
                1.4552611834900393,
                -0.5623167128211389,
                1.351121422217312,
                -3.0945898130729232
            ]
        },
        {
            "positions": [
                -2.8655855378760795,
                -0.8453400217348414,
                1.3560829253954787,
                -0.49658302743460964,
                1.2200308146771688,
                -3.098101829206012
            ]
        },
        {
            "positions": [
                -2.839984067888635,
                -0.8131595848129249,
                1.2569046673009183,
                -0.4308493420480803,
                1.088940207137026,
                -3.1016138453391005
            ]
        },
        {
            "positions": [
                -2.8143825979011905,
                -0.7809791478910086,
                1.157726409206358,
                -0.36511565666155094,
                0.9578495995968831,
                -3.1051258614721893
            ]
        },
        {
            "positions": [
                -2.788781127913746,
                -0.7487987109690923,
                1.0585481511117973,
                -0.29938197127502164,
                0.8267589920567401,
                -3.108637877605278
            ]
        },
        {
            "positions": [
                -2.763179657926301,
                -0.7166182740471759,
                0.959369893017237,
                -0.2336482858884923,
                0.695668384516597,
                -3.112149893738367
            ]
        },
        {
            "positions": [
                -2.7375781879388565,
                -0.6844378371252595,
                0.8601916349226766,
                -0.16791460050196294,
                0.5645777769764542,
                -3.1156619098714557
            ]
        },
        {
            "positions": [
                -2.711976717951412,
                -0.6522574002033432,
                0.7610133768281161,
                -0.10218091511543359,
                0.43348716943631127,
                -3.1191739260045446
            ]
        }
    ]
}