{
    "goal": {
        "global_pose": {
            "orientation": {
                "w": 0.005598929693374612,
                "x": 0.007748599140229565,
                "y": 0.7110244013736278,
                "z": -0.7031023480610252
            },
            "position": {
                "x": 0.1141497679147869,
                "y": -0.7141253447532654,
                "z": 0.3711530566215515
            }
        },
        "name": "move_to_auspresseinheit_B"
    },
    "id": "LBTRRT_move_to_auspresseinheit_B_120",
    "joint_names": [
        "shoulder_pan_joint",
        "shoulder_lift_joint",
        "elbow_joint",
        "wrist_1_joint",
        "wrist_2_joint",
        "wrist_3_joint"
    ],
    "metrics": {
        "cart_traj_len": 0.5638768935992766,
        "distance_elbow_joint": 0.06026204514282241,
        "distance_shoulder_lift_joint": 0.2959951758849235,
        "distance_shoulder_pan_joint": 0.577789285164864,
        "distance_wrist_1_joint": 0.3221376877866644,
        "distance_wrist_2_joint": 0.9857576174153655,
        "distance_wrist_3_joint": 0.0017901813169567404,
        "smoothness": 0.0,
        "time": 5.008299191,
        "traj_len": 1.4979092070988804,
        "weighted_distance": 1.8855258313127243
    },
    "planner": "LBTRRT",
    "start": {
        "state": {
            "elbow_joint": 2.0193083361928714,
            "shoulder_lift_joint": -1.1220246554650708,
            "shoulder_pan_joint": -1.0952077554168747,
            "wrist_1_joint": -0.8559753972642168,
            "wrist_2_joint": 0.4759566250798843,
            "wrist_3_joint": -3.1240929996934557
        }
    },
    "waypoints": [
        {
            "positions": [
                -1.0952077554168747,
                -1.1220246554650708,
                2.0193083361928714,
                -0.8559753972642168,
                0.4759566250798843,
                -3.1240929996934557
            ]
        },
        {
            "positions": [
                -1.1915059696110186,
                -1.1713571847792248,
                2.009264662002401,
                -0.802285782633106,
                0.6402495613157786,
                -3.1243913632462816
            ]
        },
        {
            "positions": [
                -1.2878041838051626,
                -1.2206897140933786,
                1.9992209878119307,
                -0.7485961680019954,
                0.8045424975516728,
                -3.124689726799108
            ]
        },
        {
            "positions": [
                -1.3841023979993068,
                -1.2700222434075326,
                1.98917731362146,
                -0.6949065533708846,
                0.9688354337875671,
                -3.124988090351934
            ]
        },
        {
            "positions": [
                -1.4804006121934505,
                -1.3193547727216866,
                1.9791336394309897,
                -0.6412169387397739,
                1.1331283700234613,
                -3.12528645390476
            ]
        },
        {
            "positions": [
                -1.5766988263875947,
                -1.3686873020358403,
                1.9690899652405194,
                -0.5875273241086632,
                1.2974213062593556,
                -3.1255848174575864
            ]
        },
        {
            "positions": [
                -1.6729970405817387,
                -1.4180198313499943,
                1.959046291050049,
                -0.5338377094775524,
                1.4617142424952498,
                -3.1258831810104124
            ]
        }
    ]
}