{
    "goal": {
        "global_pose": {
            "orientation": {
                "w": 0.5084816262002911,
                "x": -0.4908360881923452,
                "y": 0.5182115481033761,
                "z": -0.48164630358495003
            },
            "position": {
                "x": 0.5540239810943604,
                "y": -0.46912469901144505,
                "z": 0.16403168439865112
            }
        },
        "name": "move_to_storage_B"
    },
    "id": "LBTRRT_move_to_storage_B_59",
    "joint_names": [
        "shoulder_pan_joint",
        "shoulder_lift_joint",
        "elbow_joint",
        "wrist_1_joint",
        "wrist_2_joint",
        "wrist_3_joint"
    ],
    "metrics": {
        "cart_traj_len": 1.4353779685468553,
        "distance_elbow_joint": 0.5834611480996457,
        "distance_shoulder_lift_joint": 1.2342049149055516,
        "distance_shoulder_pan_joint": 1.022943732888053,
        "distance_wrist_1_joint": 3.0109162098614677,
        "distance_wrist_2_joint": 2.709810991433823,
        "distance_wrist_3_joint": 3.2442484976444184,
        "smoothness": 0.14635284376780455,
        "time": 5.030100495,
        "traj_len": 3.4359257114834367,
        "weighted_distance": 4.900490760262393
    },
    "planner": "LBTRRT",
    "start": {
        "state": {
            "elbow_joint": 1.664937868594044,
            "shoulder_lift_joint": -0.661644460510453,
            "shoulder_pan_joint": -0.9139846352900073,
            "wrist_1_joint": 2.146753192139373,
            "wrist_2_joint": -2.2341966793290973,
            "wrist_3_joint": 0.005466555786416001
        }
    },
    "waypoints": [
        {
            "positions": [
                -0.9139846352900073,
                -0.661644460510453,
                1.664937868594044,
                2.146753192139373,
                -2.2341966793290973,
                0.005466555786416001
            ]
        },
        {
            "positions": [
                -0.8614239602517849,
                -0.7676607810251868,
                1.723676290357453,
                2.0880657312069313,
                -2.150764192071812,
                -0.00022820683323225132
            ]
        },
        {
            "positions": [
                -0.8088632852135624,
                -0.8736771015399204,
                1.782414712120862,
                2.0293782702744894,
                -2.0673317048145265,
                -0.005922969452880503
            ]
        },
        {
            "positions": [
                -0.7563026101753401,
                -0.979693422054654,
                1.8411531338842713,
                1.9706908093420474,
                -1.983899217557241,
                -0.011617732072528756
            ]
        },
        {
            "positions": [
                -0.7037419351371177,
                -1.0857097425693878,
                1.8998915556476803,
                1.9120033484096055,
                -1.9004667302999556,
                -0.017312494692177008
            ]
        },
        {
            "positions": [
                -0.6511812600988953,
                -1.1917260630841215,
                1.9586299774110894,
                1.8533158874771636,
                -1.8170342430426702,
                -0.02300725731182526
            ]
        },
        {
            "positions": [
                -0.598620585060673,
                -1.2977423835988553,
                2.0173683991744986,
                1.7946284265447217,
                -1.7336017557853847,
                -0.02870201993147351
            ]
        },
        {
            "positions": [
                -0.5460599100224505,
                -1.4037587041135888,
                2.0761068209379077,
                1.7359409656122797,
                -1.6501692685280993,
                -0.03439678255112176
            ]
        },
        {
            "positions": [
                -0.4934992349842281,
                -1.5097750246283226,
                2.1348452427013167,
                1.6772535046798378,
                -1.566736781270814,
                -0.040091545170770015
            ]
        },
        {
            "positions": [
                -0.5196930755312835,
                -1.4929891832897277,
                2.1299081220929525,
                1.5667571341406235,
                -1.4779389076457905,
                0.09898195033737053
            ]
        },
        {
            "positions": [
                -0.5458869160783388,
                -1.476203341951133,
                2.124971001484589,
                1.4562607636014089,
                -1.389141034020767,
                0.23805544584551108
            ]
        },
        {
            "positions": [
                -0.5720807566253943,
                -1.459417500612538,
                2.1200338808762247,
                1.3457643930621945,
                -1.3003431603957434,
                0.3771289413536516
            ]
        },
        {
            "positions": [
                -0.5982745971724496,
                -1.442631659273943,
                2.1150967602678605,
                1.23526802252298,
                -1.21154528677072,
                0.5162024368617921
            ]
        },
        {
            "positions": [
                -0.624468437719505,
                -1.4258458179353481,
                2.1101596396594964,
                1.1247716519837656,
                -1.1227474131456965,
                0.6552759323699326
            ]
        },
        {
            "positions": [
                -0.6506622782665603,
                -1.4090599765967533,
                2.1052225190511327,
                1.0142752814445513,
                -1.0339495395206728,
                0.7943494278780732
            ]
        },
        {
            "positions": [
                -0.6768561188136157,
                -1.3922741352581585,
                2.1002853984427685,
                0.9037789109053366,
                -0.9451516658956494,
                0.9334229233862139
            ]
        },
        {
            "positions": [
                -0.7030499593606712,
                -1.3754882939195636,
                2.0953482778344044,
                0.7932825403661222,
                -0.8563537922706259,
                1.0724964188943544
            ]
        },
        {
            "positions": [
                -0.7292437999077266,
                -1.3587024525809688,
                2.09041115722604,
                0.6827861698269078,
                -0.7675559186456024,
                1.211569914402495
            ]
        },
        {
            "positions": [
                -0.7554376404547819,
                -1.341916611242374,
                2.0854740366176765,
                0.5722897992876934,
                -0.6787580450205789,
                1.3506434099106355
            ]
        },
        {
            "positions": [
                -0.7816314810018373,
                -1.325130769903779,
                2.0805369160093123,
                0.46179342874847884,
                -0.5899601713955553,
                1.489716905418776
            ]
        },
        {
            "positions": [
                -0.8078253215488926,
                -1.3083449285651843,
                2.075599795400948,
                0.3512970582092645,
                -0.5011622977705319,
                1.6287904009269165
            ]
        },
        {
            "positions": [
                -0.8340191620959481,
                -1.2915590872265892,
                2.070662674792584,
                0.24080068767005014,
                -0.41236442414550845,
                1.767863896435057
            ]
        },
        {
            "positions": [
                -0.8602130026430035,
                -1.2747732458879943,
                2.0657255541842203,
                0.13030431713083535,
                -0.3235665505204848,
                1.9069373919431978
            ]
        },
        {
            "positions": [
                -0.8864068431900588,
                -1.2579874045493995,
                2.060788433575856,
                0.019807946591620995,
                -0.23476867689546133,
                2.046010887451338
            ]
        },
        {
            "positions": [
                -0.9126006837371141,
                -1.2412015632108047,
                2.055851312967492,
                -0.09068842394759336,
                -0.14597080327043788,
                2.1850843829594786
            ]
        },
        {
            "positions": [
                -0.9387945242841695,
                -1.2244157218722098,
                2.050914192359128,
                -0.2011847944868077,
                -0.05717292964541443,
                2.3241578784676187
            ]
        },
        {
            "positions": [
                -0.964988364831225,
                -1.2076298805336148,
                2.045977071750764,
                -0.3116811650260223,
                0.031624943979609244,
                2.4632313739757596
            ]
        },
        {
            "positions": [
                -0.9911822053782804,
                -1.19084403919502,
                2.0410399511424,
                -0.42217753556523663,
                0.12042281760463269,
                2.6023048694839
            ]
        },
        {
            "positions": [
                -1.0173760459253356,
                -1.174058197856425,
                2.036102830534036,
                -0.532673906104451,
                0.20922069122965614,
                2.7413783649920407
            ]
        },
        {
            "positions": [
                -1.043569886472391,
                -1.1572723565178302,
                2.0311657099256717,
                -0.6431702766436653,
                0.2980185648546796,
                2.880451860500181
            ]
        },
        {
            "positions": [
                -1.0697637270194464,
                -1.1404865151792354,
                2.026228589317308,
                -0.7536666471828801,
                0.38681643847970326,
                3.0195253560083217
            ]
        },
        {
            "positions": [
                -1.0959575675665019,
                -1.1237006738406405,
                2.021291468708944,
                -0.8641630177220944,
                0.4756143121047266,
                3.1585988515164622
            ]
        }
    ]
}