{
    "goal": {
        "global_pose": {
            "orientation": {
                "w": -0.4816463035849501,
                "x": 0.5182115481033762,
                "y": 0.4908360881923453,
                "z": -0.5084816262002911
            },
            "position": {
                "x": -0.8240239810943604,
                "y": -0.300875300988555,
                "z": 0.16403168439865112
            }
        },
        "name": "move_to_storage_C"
    },
    "id": "LBTRRT_move_to_storage_C_99",
    "joint_names": [
        "shoulder_pan_joint",
        "shoulder_lift_joint",
        "elbow_joint",
        "wrist_1_joint",
        "wrist_2_joint",
        "wrist_3_joint"
    ],
    "metrics": {
        "cart_traj_len": 0.5769968140497634,
        "distance_elbow_joint": 0.26257855903394023,
        "distance_shoulder_lift_joint": 0.19039150539895067,
        "distance_shoulder_pan_joint": 0.49301654581318344,
        "distance_wrist_1_joint": 0.09066484824809207,
        "distance_wrist_2_joint": 1.0798195913070616,
        "distance_wrist_3_joint": 0.0670015519723628,
        "smoothness": 2.5376526478085547e-16,
        "time": 5.0024992269999995,
        "traj_len": 1.4776578094313957,
        "weighted_distance": 1.8676081348273976
    },
    "planner": "LBTRRT",
    "start": {
        "state": {
            "elbow_joint": 2.010868314990456,
            "shoulder_lift_joint": -1.1634956873337592,
            "shoulder_pan_joint": -2.4736205022346125,
            "wrist_1_joint": -0.8367026794202681,
            "wrist_2_joint": 0.6746043897044499,
            "wrist_3_joint": -3.1496632123970403
        }
    },
    "waypoints": [
        {
            "positions": [
                -2.4736205022346125,
                -1.1634956873337592,
                2.010868314990456,
                -0.8367026794202681,
                0.6746043897044499,
                -3.1496632123970403
            ]
        },
        {
            "positions": [
                -2.55578992653681,
                -1.1317637697672673,
                1.9671052218181324,
                -0.8215918713789194,
                0.8545743215889602,
                -3.138496287068313
            ]
        },
        {
            "positions": [
                -2.637959350839007,
                -1.1000318522007757,
                1.923342128645809,
                -0.8064810633375707,
                1.0345442534734706,
                -3.127329361739586
            ]
        },
        {
            "positions": [
                -2.7201287751412044,
                -1.0682999346342839,
                1.8795790354734856,
                -0.7913702552962221,
                1.2145141853579808,
                -3.1161624364108587
            ]
        },
        {
            "positions": [
                -2.8022981994434013,
                -1.036568017067792,
                1.8358159423011624,
                -0.7762594472548734,
                1.394484117242491,
                -3.104995511082132
            ]
        },
        {
            "positions": [
                -2.8844676237455986,
                -1.0048360995013004,
                1.792052849128839,
                -0.7611486392135247,
                1.5744540491270014,
                -3.0938285857534047
            ]
        },
        {
            "positions": [
                -2.966637048047796,
                -0.9731041819348085,
                1.7482897559565156,
                -0.746037831172176,
                1.7544239810115116,
                -3.0826616604246775
            ]
        }
    ]
}