{
    "goal": {
        "global_pose": {
            "orientation": {
                "w": 0.7031023480610252,
                "x": -0.7110244013736278,
                "y": 0.0077485991402295624,
                "z": 0.005598929693374583
            },
            "position": {
                "x": -0.8841497679147869,
                "y": 0.44412534475326537,
                "z": 0.3711530566215515
            }
        },
        "name": "move_to_auspresseinheit_D"
    },
    "id": "LBTRRT_move_to_auspresseinheit_D_45",
    "joint_names": [
        "shoulder_pan_joint",
        "shoulder_lift_joint",
        "elbow_joint",
        "wrist_1_joint",
        "wrist_2_joint",
        "wrist_3_joint"
    ],
    "metrics": {
        "cart_traj_len": 0.34408533753796866,
        "distance_elbow_joint": 0.6662596950251642,
        "distance_shoulder_lift_joint": 0.13726183578226836,
        "distance_shoulder_pan_joint": 0.13376324279571586,
        "distance_wrist_1_joint": 0.6254463802755517,
        "distance_wrist_2_joint": 1.4317299361300582,
        "distance_wrist_3_joint": 0.08710830305296158,
        "smoothness": 0.0,
        "time": 5.004716629000001,
        "traj_len": 1.7554399428809064,
        "weighted_distance": 2.30498640247036
    },
    "planner": "LBTRRT",
    "start": {
        "state": {
            "elbow_joint": -1.8275523626775212,
            "shoulder_lift_joint": -2.126789852344167,
            "shoulder_pan_joint": -0.03513704404078235,
            "wrist_1_joint": -2.347782403156801,
            "wrist_2_joint": -1.6058999987535132,
            "wrist_3_joint": -3.0880379163319196
        }
    },
    "waypoints": [
        {
            "positions": [
                -0.03513704404078235,
                -2.126789852344167,
                -1.8275523626775212,
                -2.347782403156801,
                -1.6058999987535132,
                -3.0880379163319196
            ]
        },
        {
            "positions": [
                -0.051857449390246835,
                -2.1439475818169504,
                -1.7442699007993756,
                -2.425963200691245,
                -1.426933756737256,
                -3.0771493784502995
            ]
        },
        {
            "positions": [
                -0.06857785473971131,
                -2.161105311289734,
                -1.66098743892123,
                -2.504143998225689,
                -1.2479675147209988,
                -3.0662608405686793
            ]
        },
        {
            "positions": [
                -0.08529826008917579,
                -2.1782630407625176,
                -1.5777049770430847,
                -2.5823247957601327,
                -1.0690012727047413,
                -3.055372302687059
            ]
        },
        {
            "positions": [
                -0.10201866543864027,
                -2.195420770235301,
                -1.494422515164939,
                -2.6605055932945767,
                -0.8900350306884841,
                -3.044483764805439
            ]
        },
        {
            "positions": [
                -0.11873907078810475,
                -2.2125784997080844,
                -1.4111400532867935,
                -2.7386863908290207,
                -0.7110687886722269,
                -3.0335952269238184
            ]
        },
        {
            "positions": [
                -0.13545947613756926,
                -2.229736229180868,
                -1.3278575914086481,
                -2.8168671883634646,
                -0.5321025466559695,
                -3.0227066890421983
            ]
        },
        {
            "positions": [
                -0.15217988148703374,
                -2.2468939586536516,
                -1.2445751295305025,
                -2.8950479858979086,
                -0.35313630463971224,
                -3.011818151160578
            ]
        },
        {
            "positions": [
                -0.16890028683649821,
                -2.264051688126435,
                -1.161292667652357,
                -2.9732287834323525,
                -0.17417006262345497,
                -3.000929613278958
            ]
        }
    ]
}