{
    "goal": {
        "global_pose": {
            "orientation": {
                "w": 0.7047431468963623,
                "x": -0.7094548344612122,
                "y": 0.0024358443915843964,
                "z": -0.0022348060738295317
            },
            "position": {
                "x": 0.6094750761985779,
                "y": 0.3671506643295288,
                "z": 0.19426114857196808
            }
        },
        "name": "move_to_magneteinheit_A"
    },
    "id": "LBTRRT_move_to_magneteinheit_A_99",
    "joint_names": [
        "shoulder_pan_joint",
        "shoulder_lift_joint",
        "elbow_joint",
        "wrist_1_joint",
        "wrist_2_joint",
        "wrist_3_joint"
    ],
    "metrics": {
        "cart_traj_len": 3.1379779703387323,
        "distance_elbow_joint": 3.9120380758714917,
        "distance_shoulder_lift_joint": 1.138589848066322,
        "distance_shoulder_pan_joint": 2.5773816322709164,
        "distance_wrist_1_joint": 3.47645781387474,
        "distance_wrist_2_joint": 1.4456737673110562,
        "distance_wrist_3_joint": 0.5448084048051158,
        "smoothness": 0.08161057086843358,
        "time": 5.059162181,
        "traj_len": 3.6186944527273432,
        "weighted_distance": 4.371120901210086
    },
    "planner": "LBTRRT",
    "start": {
        "state": {
            "elbow_joint": -1.9196185241190666,
            "shoulder_lift_joint": -1.2443396400964142,
            "shoulder_pan_joint": 2.6996025414629847,
            "wrist_1_joint": -1.5485510000780065,
            "wrist_2_joint": -1.5709468930060704,
            "wrist_3_joint": 0.4420197071253992
        }
    },
    "waypoints": [
        {
            "positions": [
                2.6996025414629847,
                -1.2443396400964142,
                -1.9196185241190666,
                -1.5485510000780065,
                -1.5709468930060704,
                0.4420197071253992
            ]
        },
        {
            "positions": [
                2.593445161889676,
                -1.2094372889592644,
                -1.8513076402675872,
                -1.4222376243831754,
                -1.537508869105147,
                0.42043138957894394
            ]
        },
        {
            "positions": [
                2.4872877823163666,
                -1.1745349378221146,
                -1.7829967564161078,
                -1.2959242486883442,
                -1.5040708452042235,
                0.39884307203248864
            ]
        },
        {
            "positions": [
                2.3811304027430578,
                -1.1396325866849648,
                -1.7146858725646286,
                -1.169610872993513,
                -1.4706328213033002,
                0.3772547544860334
            ]
        },
        {
            "positions": [
                2.274973023169749,
                -1.1047302355478152,
                -1.6463749887131491,
                -1.043297497298682,
                -1.4371947974023767,
                0.3556664369395781
            ]
        },
        {
            "positions": [
                2.1688156435964396,
                -1.0698278844106655,
                -1.5780641048616697,
                -0.9169841216038509,
                -1.4037567735014533,
                0.3340781193931229
            ]
        },
        {
            "positions": [
                2.062658264023131,
                -1.0349255332735157,
                -1.5097532210101905,
                -0.7906707459090198,
                -1.3703187496005298,
                0.31248980184666764
            ]
        },
        {
            "positions": [
                1.9565008844498215,
                -1.0000231821363659,
                -1.441442337158711,
                -0.6643573702141885,
                -1.3368807256996065,
                0.29090148430021234
            ]
        },
        {
            "positions": [
                1.8503435048765127,
                -0.9651208309992161,
                -1.3731314533072316,
                -0.5380439945193574,
                -1.3034427017986832,
                0.2693131667537571
            ]
        },
        {
            "positions": [
                1.7441861253032036,
                -0.9302184798620663,
                -1.3048205694557522,
                -0.4117306188245262,
                -1.2700046778977596,
                0.24772484920730184
            ]
        },
        {
            "positions": [
                1.6380287457298945,
                -0.8953161287249166,
                -1.2365096856042728,
                -0.2854172431296953,
                -1.236566653996836,
                0.22613653166084657
            ]
        },
        {
            "positions": [
                1.5318713661565855,
                -0.8604137775877668,
                -1.1681988017527936,
                -0.15910386743486393,
                -1.2031286300959128,
                0.2045482141143913
            ]
        },
        {
            "positions": [
                1.4257139865832766,
                -0.8255114264506171,
                -1.0998879179013141,
                -0.03279049174003301,
                -1.1696906061949894,
                0.18295989656793604
            ]
        },
        {
            "positions": [
                1.3195566070099676,
                -0.7906090753134674,
                -1.031577034049835,
                0.09352288395479813,
                -1.136252582294066,
                0.1613715790214808
            ]
        },
        {
            "positions": [
                1.2133992274366585,
                -0.7557067241763176,
                -0.9632661501983554,
                0.2198362596496295,
                -1.1028145583931424,
                0.1397832614750255
            ]
        },
        {
            "positions": [
                1.1072418478633494,
                -0.7208043730391678,
                -0.894955266346876,
                0.3461496353444604,
                -1.069376534492219,
                0.11819494392857027
            ]
        },
        {
            "positions": [
                1.0010844682900406,
                -0.6859020219020181,
                -0.8266443824953966,
                0.4724630110392918,
                -1.0359385105912957,
                0.09660662638211504
            ]
        },
        {
            "positions": [
                0.8949270887167315,
                -0.6509996707648684,
                -0.7583334986439174,
                0.5987763867341227,
                -1.0025004866903724,
                0.0750183088356598
            ]
        },
        {
            "positions": [
                0.7887697091434225,
                -0.6160973196277185,
                -0.6900226147924378,
                0.7250897624289541,
                -0.9690624627894487,
                0.053429991289204504
            ]
        },
        {
            "positions": [
                0.6826123295701136,
                -0.5811949684905688,
                -0.6217117309409586,
                0.851403138123785,
                -0.9356244388885254,
                0.031841673742749266
            ]
        },
        {
            "positions": [
                0.5764549499968044,
                -0.546292617353419,
                -0.5534008470894791,
                0.9777165138186159,
                -0.902186414987602,
                0.010253356196293972
            ]
        },
        {
            "positions": [
                0.4702975704234955,
                -0.5113902662162694,
                -0.4850899632379999,
                1.1040298895134473,
                -0.8687483910866786,
                -0.011334961350161266
            ]
        },
        {
            "positions": [
                0.36414019085018623,
                -0.4764879150791195,
                -0.4167790793865205,
                1.2303432652082786,
                -0.8353103671857551,
                -0.03292327889661656
            ]
        },
        {
            "positions": [
                0.25798281127687733,
                -0.4415855639419698,
                -0.3484681955350411,
                1.3566566409031096,
                -0.8018723432848317,
                -0.05451159644307182
            ]
        },
        {
            "positions": [
                0.2445864492599229,
                -0.47131691178902874,
                -0.13326327585237321,
                1.4106532924287192,
                -0.7399477400656785,
                -0.05043691474883126
            ]
        },
        {
            "positions": [
                0.23119008724296847,
                -0.5010482596360877,
                0.08194164383029467,
                1.464649943954329,
                -0.6780231368465254,
                -0.046362233054590696
            ]
        },
        {
            "positions": [
                0.21779372522601403,
                -0.5307796074831467,
                0.2971465635129625,
                1.5186465954799386,
                -0.6160985336273723,
                -0.042287551360350145
            ]
        },
        {
            "positions": [
                0.2043973632090596,
                -0.5605109553302057,
                0.5123514831956304,
                1.5726432470055483,
                -0.5541739304082192,
                -0.03821286966610958
            ]
        },
        {
            "positions": [
                0.19100100119210517,
                -0.5902423031772646,
                0.7275564028782984,
                1.6266398985311579,
                -0.492249327189066,
                -0.03413818797186902
            ]
        },
        {
            "positions": [
                0.17760463917515074,
                -0.6199736510243236,
                0.9427613225609661,
                1.6806365500567677,
                -0.4303247239699129,
                -0.030063506277628466
            ]
        },
        {
            "positions": [
                0.1642082771581963,
                -0.6497049988713826,
                1.157966242243634,
                1.7346332015823773,
                -0.36840012075075973,
                -0.025988824583387908
            ]
        },
        {
            "positions": [
                0.15081191514124187,
                -0.6794363467184416,
                1.373171161926302,
                1.7886298531079872,
                -0.30647551753160657,
                -0.021914142889147344
            ]
        },
        {
            "positions": [
                0.13741555312428744,
                -0.7091676945655006,
                1.58837608160897,
                1.8426265046335968,
                -0.24455091431245346,
                -0.017839461194906786
            ]
        },
        {
            "positions": [
                0.124019191107333,
                -0.7388990424125594,
                1.8035810012916378,
                1.8966231561592064,
                -0.1826263110933003,
                -0.013764779500666232
            ]
        },
        {
            "positions": [
                0.1222209091920678,
                -0.7774213358538471,
                1.992419551752426,
                1.9279068137967343,
                -0.12527312569501423,
                -0.006234495206426615
            ]
        }
    ]
}