{
    "goal": {
        "global_pose": {
            "orientation": {
                "w": 0.7031023502349854,
                "x": -0.7110244035720825,
                "y": 0.007748599164187908,
                "z": 0.005598929710686207
            },
            "position": {
                "x": 0.11585023208521307,
                "y": 0.44412534475326537,
                "z": 0.3711530566215515
            }
        },
        "name": "move_to_auspresseinheit_A"
    },
    "id": "LBTRRT_move_to_auspresseinheit_A_123",
    "joint_names": [
        "shoulder_pan_joint",
        "shoulder_lift_joint",
        "elbow_joint",
        "wrist_1_joint",
        "wrist_2_joint",
        "wrist_3_joint"
    ],
    "metrics": {
        "cart_traj_len": 0.8260248340863071,
        "distance_elbow_joint": 0.3114538532054967,
        "distance_shoulder_lift_joint": 0.5367312729635052,
        "distance_shoulder_pan_joint": 1.046696046333503,
        "distance_wrist_1_joint": 0.5495267814693967,
        "distance_wrist_2_joint": 0.575957048865297,
        "distance_wrist_3_joint": 0.032031773012211495,
        "smoothness": 0.35332600147228443,
        "time": 5.021278487,
        "traj_len": 1.7471109798319655,
        "weighted_distance": 2.059598055982897
    },
    "planner": "LBTRRT",
    "start": {
        "state": {
            "elbow_joint": 2.4225746658250005,
            "shoulder_lift_joint": -1.3736534386056498,
            "shoulder_pan_joint": -0.3378633547517467,
            "wrist_1_joint": -1.0288598680537169,
            "wrist_2_joint": 1.233022673432363,
            "wrist_3_joint": -3.0940220416140027
        }
    },
    "waypoints": [
        {
            "positions": [
                -0.3378633547517467,
                -1.3736534386056498,
                2.4225746658250005,
                -1.0288598680537169,
                1.233022673432363,
                -3.0940220416140027
            ]
        },
        {
            "positions": [
                -0.2034470370107069,
                -1.4807528022003738,
                2.3802564453148545,
                -0.9859936027482921,
                1.2404615286407887,
                -3.093183639841074
            ]
        },
        {
            "positions": [
                -0.06903071926966708,
                -1.5878521657950977,
                2.3379382248047085,
                -0.9431273374428673,
                1.2479003838492146,
                -3.0923452380681455
            ]
        },
        {
            "positions": [
                0.06538559847137276,
                -1.6949515293898216,
                2.2956200042945625,
                -0.9002610721374423,
                1.2553392390576403,
                -3.0915068362952165
            ]
        },
        {
            "positions": [
                0.19980191621241256,
                -1.8020508929845456,
                2.2533017837844165,
                -0.8573948068320175,
                1.262778094266066,
                -3.090668434522288
            ]
        },
        {
            "positions": [
                0.30160807128628137,
                -1.8237176567014675,
                2.281737978017399,
                -0.7817824627824781,
                1.1535377686597472,
                -3.0964040677063873
            ]
        },
        {
            "positions": [
                0.4034142263601501,
                -1.8453844204183893,
                2.3101741722503815,
                -0.7061701187329386,
                1.0442974430534284,
                -3.1021397008904867
            ]
        },
        {
            "positions": [
                0.5052203814340189,
                -1.8670511841353112,
                2.338610366483364,
                -0.6305577746833991,
                0.9350571174471096,
                -3.1078753340745857
            ]
        },
        {
            "positions": [
                0.6070265365078877,
                -1.8887179478522331,
                2.3670465607163464,
                -0.5549454306338597,
                0.8258167918407908,
                -3.113610967258685
            ]
        },
        {
            "positions": [
                0.7088326915817565,
                -1.910384711569155,
                2.395482754949329,
                -0.4793330865843202,
                0.716576466234472,
                -3.1193466004427846
            ]
        }
    ]
}