{
    "goal": {
        "global_pose": {
            "orientation": {
                "w": 0.7031023480610252,
                "x": -0.7110244013736278,
                "y": 0.0077485991402295624,
                "z": 0.005598929693374583
            },
            "position": {
                "x": -0.8841497679147869,
                "y": 0.44412534475326537,
                "z": 0.3711530566215515
            }
        },
        "name": "move_to_auspresseinheit_D"
    },
    "id": "LBTRRT_move_to_auspresseinheit_D_141",
    "joint_names": [
        "shoulder_pan_joint",
        "shoulder_lift_joint",
        "elbow_joint",
        "wrist_1_joint",
        "wrist_2_joint",
        "wrist_3_joint"
    ],
    "metrics": {
        "cart_traj_len": 0.3444946226275128,
        "distance_elbow_joint": 0.6609394734968446,
        "distance_shoulder_lift_joint": 0.1335954616700059,
        "distance_shoulder_pan_joint": 0.13425764368180287,
        "distance_wrist_1_joint": 0.6068171911932612,
        "distance_wrist_2_joint": 1.4291935375537785,
        "distance_wrist_3_joint": 0.07192890992367573,
        "smoothness": 0.0,
        "time": 5.004252236,
        "traj_len": 1.7426222245568228,
        "weighted_distance": 2.283987908486768
    },
    "planner": "LBTRRT",
    "start": {
        "state": {
            "elbow_joint": -1.8275523626775212,
            "shoulder_lift_joint": -2.126789852344167,
            "shoulder_pan_joint": -0.03513704404078235,
            "wrist_1_joint": -2.347782403156801,
            "wrist_2_joint": -1.6058999987535132,
            "wrist_3_joint": -3.0880379163319196
        }
    },
    "waypoints": [
        {
            "positions": [
                -0.03513704404078235,
                -2.126789852344167,
                -1.8275523626775212,
                -2.347782403156801,
                -1.6058999987535132,
                -3.0880379163319196
            ]
        },
        {
            "positions": [
                -0.05191924950100771,
                -2.1434892850529175,
                -1.7449349284904156,
                -2.4236345520559586,
                -1.4272508065592908,
                -3.07904680259146
            ]
        },
        {
            "positions": [
                -0.06870145496123306,
                -2.1601887177616685,
                -1.66231749430331,
                -2.4994867009551163,
                -1.2486016143650684,
                -3.0700556888510007
            ]
        },
        {
            "positions": [
                -0.08548366042145843,
                -2.176888150470419,
                -1.5797000601162046,
                -2.575338849854274,
                -1.0699524221708463,
                -3.0610645751105414
            ]
        },
        {
            "positions": [
                -0.10226586588168379,
                -2.19358758317917,
                -1.497082625929099,
                -2.6511909987534317,
                -0.8913032299766239,
                -3.0520734613700817
            ]
        },
        {
            "positions": [
                -0.11904807134190915,
                -2.2102870158879204,
                -1.4144651917419933,
                -2.727043147652589,
                -0.7126540377824016,
                -3.043082347629622
            ]
        },
        {
            "positions": [
                -0.1358302768021345,
                -2.226986448596671,
                -1.3318477575548877,
                -2.8028952965517466,
                -0.5340048455881794,
                -3.034091233889163
            ]
        },
        {
            "positions": [
                -0.15261248226235988,
                -2.243685881305422,
                -1.2492303233677822,
                -2.8787474454509043,
                -0.355355653393957,
                -3.0251001201487036
            ]
        },
        {
            "positions": [
                -0.16939468772258523,
                -2.2603853140141728,
                -1.1666128891806766,
                -2.954599594350062,
                -0.17670646119973465,
                -3.016109006408244
            ]
        }
    ]
}