{
    "goal": {
        "global_pose": {
            "orientation": {
                "w": 0.005598929693374612,
                "x": 0.007748599140229565,
                "y": 0.7110244013736278,
                "z": -0.7031023480610252
            },
            "position": {
                "x": -0.8858502320852131,
                "y": -0.7141253447532654,
                "z": 0.3711530566215515
            }
        },
        "name": "move_to_auspresseinheit_C"
    },
    "id": "LBTRRT_move_to_auspresseinheit_C_35",
    "joint_names": [
        "shoulder_pan_joint",
        "shoulder_lift_joint",
        "elbow_joint",
        "wrist_1_joint",
        "wrist_2_joint",
        "wrist_3_joint"
    ],
    "metrics": {
        "cart_traj_len": 0.4924366213637724,
        "distance_elbow_joint": 0.9980720062876988,
        "distance_shoulder_lift_joint": 0.3240525336706307,
        "distance_shoulder_pan_joint": 0.25531270181193744,
        "distance_wrist_1_joint": 0.6712052654246546,
        "distance_wrist_2_joint": 1.3154805872680995,
        "distance_wrist_3_joint": 0.049349903168552256,
        "smoothness": 4.844609600361787e-16,
        "time": 5.001678228,
        "traj_len": 1.9009137270353889,
        "weighted_distance": 2.387228237236949
    },
    "planner": "LBTRRT",
    "start": {
        "state": {
            "elbow_joint": 1.7527959577737207,
            "shoulder_lift_joint": -0.9740617694225068,
            "shoulder_pan_joint": -2.967991417825858,
            "wrist_1_joint": -0.759517768980727,
            "wrist_2_joint": 1.7443932448377408,
            "wrist_3_joint": -3.0840537646736568
        }
    },
    "waypoints": [
        {
            "positions": [
                -2.967991417825858,
                -0.9740617694225068,
                1.7527959577737207,
                -0.759517768980727,
                1.7443932448377408,
                -3.0840537646736568
            ]
        },
        {
            "positions": [
                -2.942460147644664,
                -0.9416565160554438,
                1.6529887571449509,
                -0.6923972424382615,
                1.612845186110931,
                -3.088988754990512
            ]
        },
        {
            "positions": [
                -2.9169288774634703,
                -0.9092512626883806,
                1.5531815565161808,
                -0.625276715895796,
                1.481297127384121,
                -3.093923745307367
            ]
        },
        {
            "positions": [
                -2.891397607282277,
                -0.8768460093213175,
                1.453374355887411,
                -0.5581561893533306,
                1.349749068657311,
                -3.0988587356242223
            ]
        },
        {
            "positions": [
                -2.865866337101083,
                -0.8444407559542545,
                1.353567155258641,
                -0.49103566281086514,
                1.218201009930501,
                -3.1037937259410775
            ]
        },
        {
            "positions": [
                -2.8403350669198892,
                -0.8120355025871915,
                1.2537599546298712,
                -0.42391513626839966,
                1.086652951203691,
                -3.108728716257933
            ]
        },
        {
            "positions": [
                -2.8148037967386954,
                -0.7796302492201284,
                1.1539527540011014,
                -0.3567946097259342,
                0.9551048924768811,
                -3.1136637065747883
            ]
        },
        {
            "positions": [
                -2.7892725265575016,
                -0.7472249958530653,
                1.0541455533723316,
                -0.28967408318346877,
                0.8235568337500713,
                -3.1185986968916435
            ]
        },
        {
            "positions": [
                -2.763741256376308,
                -0.7148197424860022,
                0.9543383527435616,
                -0.2225535566410033,
                0.6920087750232613,
                -3.1235336872084987
            ]
        },
        {
            "positions": [
                -2.7382099861951144,
                -0.6824144891189392,
                0.8545311521147918,
                -0.15543303009853782,
                0.5604607162964512,
                -3.128468677525354
            ]
        },
        {
            "positions": [
                -2.7126787160139205,
                -0.6500092357518761,
                0.7547239514860219,
                -0.0883125035560723,
                0.4289126575696415,
                -3.133403667842209
            ]
        }
    ]
}