{
    "goal": {
        "global_pose": {
            "orientation": {
                "w": 0.5084816262002911,
                "x": -0.4908360881923452,
                "y": 0.5182115481033761,
                "z": -0.48164630358495003
            },
            "position": {
                "x": 0.5540239810943604,
                "y": -0.46912469901144505,
                "z": 0.16403168439865112
            }
        },
        "name": "move_to_storage_B"
    },
    "id": "LBTRRT_move_to_storage_B_77",
    "joint_names": [
        "shoulder_pan_joint",
        "shoulder_lift_joint",
        "elbow_joint",
        "wrist_1_joint",
        "wrist_2_joint",
        "wrist_3_joint"
    ],
    "metrics": {
        "cart_traj_len": 0.6763944827856311,
        "distance_elbow_joint": 0.3542111340447267,
        "distance_shoulder_lift_joint": 0.4591517274231971,
        "distance_shoulder_pan_joint": 0.18507495973751176,
        "distance_wrist_1_joint": 3.0156729084406333,
        "distance_wrist_2_joint": 2.7022561149737303,
        "distance_wrist_3_joint": 3.1130700662417117,
        "smoothness": 0.004239878522090161,
        "time": 5.0577218660000005,
        "traj_len": 3.1351932812605843,
        "weighted_distance": 4.666208960897411
    },
    "planner": "LBTRRT",
    "start": {
        "state": {
            "elbow_joint": 1.664937868594044,
            "shoulder_lift_joint": -0.661644460510453,
            "shoulder_pan_joint": -0.9139846352900073,
            "wrist_1_joint": 2.146753192139373,
            "wrist_2_joint": -2.2341966793290973,
            "wrist_3_joint": 0.005466555786416001
        }
    },
    "waypoints": [
        {
            "positions": [
                -0.9139846352900073,
                -0.661644460510453,
                1.664937868594044,
                2.146753192139373,
                -2.2341966793290973,
                0.005466555786416001
            ]
        },
        {
            "positions": [
                -0.9130264363524969,
                -0.7333223392989195,
                1.721064625482002,
                2.1143286941198367,
                -2.2025314479203404,
                -0.005180637422656213
            ]
        },
        {
            "positions": [
                -0.9120682374149865,
                -0.8050002180873861,
                1.77719138236996,
                2.0819041961003,
                -2.170866216511584,
                -0.015827830631728428
            ]
        },
        {
            "positions": [
                -0.919699844159257,
                -0.8181583834976471,
                1.7872729498811606,
                1.9589531997502352,
                -2.0609109810050747,
                -0.1446518172910437
            ]
        },
        {
            "positions": [
                -0.9273314509035274,
                -0.8313165489079081,
                1.797354517392361,
                1.8360022034001702,
                -1.950955745498566,
                -0.273475803950359
            ]
        },
        {
            "positions": [
                -0.934963057647798,
                -0.8444747143181691,
                1.8074360849035613,
                1.7130512070501052,
                -1.8410005099920568,
                -0.4022997906096743
            ]
        },
        {
            "positions": [
                -0.9425946643920684,
                -0.85763287972843,
                1.8175176524147618,
                1.5901002107000402,
                -1.731045274485548,
                -0.5311237772689895
            ]
        },
        {
            "positions": [
                -0.9502262711363388,
                -0.8707910451386911,
                1.8275992199259623,
                1.4671492143499751,
                -1.6210900389790388,
                -0.6599477639283049
            ]
        },
        {
            "positions": [
                -0.9578578778806093,
                -0.8839492105489521,
                1.8376807874371628,
                1.3441982179999101,
                -1.5111348034725298,
                -0.7887717505876202
            ]
        },
        {
            "positions": [
                -0.9654894846248798,
                -0.8971073759592131,
                1.8477623549483633,
                1.221247221649845,
                -1.4011795679660208,
                -0.9175957372469355
            ]
        },
        {
            "positions": [
                -0.9731210913691503,
                -0.9102655413694741,
                1.8578439224595635,
                1.09829622529978,
                -1.2912243324595118,
                -1.0464197239062505
            ]
        },
        {
            "positions": [
                -0.9807526981134207,
                -0.9234237067797351,
                1.867925489970764,
                0.9753452289497149,
                -1.1812690969530029,
                -1.175243710565566
            ]
        },
        {
            "positions": [
                -0.9883843048576911,
                -0.9365818721899961,
                1.8780070574819645,
                0.8523942325996499,
                -1.0713138614464937,
                -1.3040676972248813
            ]
        },
        {
            "positions": [
                -0.9960159116019616,
                -0.949740037600257,
                1.888088624993165,
                0.7294432362495848,
                -0.9613586259399847,
                -1.4328916838841965
            ]
        },
        {
            "positions": [
                -1.0036475183462321,
                -0.9628982030105181,
                1.8981701925043653,
                0.6064922398995198,
                -0.8514033904334757,
                -1.5617156705435118
            ]
        },
        {
            "positions": [
                -1.0112791250905024,
                -0.976056368420779,
                1.9082517600155657,
                0.4835412435494548,
                -0.7414481549269667,
                -1.690539657202827
            ]
        },
        {
            "positions": [
                -1.018910731834773,
                -0.9892145338310401,
                1.9183333275267662,
                0.3605902471993896,
                -0.6314929194204575,
                -1.8193636438621426
            ]
        },
        {
            "positions": [
                -1.0265423385790435,
                -1.0023726992413011,
                1.9284148950379667,
                0.2376392508493248,
                -0.5215376839139485,
                -1.9481876305214576
            ]
        },
        {
            "positions": [
                -1.0341739453233139,
                -1.0155308646515622,
                1.9384964625491672,
                0.11468825449925979,
                -0.41158244840743974,
                -2.077011617180773
            ]
        },
        {
            "positions": [
                -1.0418055520675844,
                -1.0286890300618232,
                1.9485780300603674,
                -0.008262741850805444,
                -0.30162721290093053,
                -2.2058356038400886
            ]
        },
        {
            "positions": [
                -1.0494371588118547,
                -1.041847195472084,
                1.958659597571568,
                -0.13121373820087046,
                -0.19167197739442154,
                -2.334659590499404
            ]
        },
        {
            "positions": [
                -1.0570687655561253,
                -1.055005360882345,
                1.9687411650827684,
                -0.25416473455093547,
                -0.08171674188791256,
                -2.463483577158719
            ]
        },
        {
            "positions": [
                -1.0647003723003958,
                -1.0681635262926061,
                1.978822732593969,
                -0.3771157309010005,
                0.02823849361859665,
                -2.5923075638180344
            ]
        },
        {
            "positions": [
                -1.0723319790446662,
                -1.081321691702867,
                1.9889043001051694,
                -0.5000667272510655,
                0.1381937291251054,
                -2.7211315504773497
            ]
        },
        {
            "positions": [
                -1.0799635857889367,
                -1.094479857113128,
                1.9989858676163696,
                -0.6230177236011305,
                0.24814896463161462,
                -2.849955537136665
            ]
        },
        {
            "positions": [
                -1.087595192533207,
                -1.107638022523389,
                2.0090674351275704,
                -0.7459687199511955,
                0.35810420013812383,
                -2.97877952379598
            ]
        },
        {
            "positions": [
                -1.0952267992774776,
                -1.12079618793365,
                2.0191490026387706,
                -0.8689197163012604,
                0.4680594356446328,
                -3.1076035104552955
            ]
        }
    ]
}