{
    "goal": {
        "global_pose": {
            "orientation": {
                "w": 0.005598929693374612,
                "x": 0.007748599140229565,
                "y": 0.7110244013736278,
                "z": -0.7031023480610252
            },
            "position": {
                "x": 0.1141497679147869,
                "y": -0.7141253447532654,
                "z": 0.3711530566215515
            }
        },
        "name": "move_to_auspresseinheit_B"
    },
    "id": "LBTRRT_move_to_auspresseinheit_B_84",
    "joint_names": [
        "shoulder_pan_joint",
        "shoulder_lift_joint",
        "elbow_joint",
        "wrist_1_joint",
        "wrist_2_joint",
        "wrist_3_joint"
    ],
    "metrics": {
        "cart_traj_len": 0.5644126312491358,
        "distance_elbow_joint": 0.06435513082050726,
        "distance_shoulder_lift_joint": 0.2943537220428347,
        "distance_shoulder_pan_joint": 0.5768701994695911,
        "distance_wrist_1_joint": 0.3366116310861157,
        "distance_wrist_2_joint": 0.9950635775181436,
        "distance_wrist_3_joint": 0.0077406657002097035,
        "smoothness": 3.806478935924272e-16,
        "time": 5.003137951,
        "traj_len": 1.5083086310955731,
        "weighted_distance": 1.9031950679428742
    },
    "planner": "LBTRRT",
    "start": {
        "state": {
            "elbow_joint": 2.0193083361928714,
            "shoulder_lift_joint": -1.1220246554650708,
            "shoulder_pan_joint": -1.0952077554168747,
            "wrist_1_joint": -0.8559753972642168,
            "wrist_2_joint": 0.4759566250798843,
            "wrist_3_joint": -3.1240929996934557
        }
    },
    "waypoints": [
        {
            "positions": [
                -1.0952077554168747,
                -1.1220246554650708,
                2.0193083361928714,
                -0.8559753972642168,
                0.4759566250798843,
                -3.1240929996934557
            ]
        },
        {
            "positions": [
                -1.1913527886618065,
                -1.1710836091388765,
                2.0085824810561204,
                -0.7998734587498642,
                0.6418005546662415,
                -3.1228028887434207
            ]
        },
        {
            "positions": [
                -1.2874978219067383,
                -1.2201425628126823,
                1.997856625919369,
                -0.7437715202355115,
                0.8076444842525987,
                -3.1215127777933858
            ]
        },
        {
            "positions": [
                -1.3836428551516702,
                -1.269201516486488,
                1.9871307707826178,
                -0.6876695817211589,
                0.9734884138389561,
                -3.120222666843351
            ]
        },
        {
            "positions": [
                -1.479787888396602,
                -1.318260470160294,
                1.9764049156458665,
                -0.6315676432068064,
                1.1393323434253133,
                -3.118932555893316
            ]
        },
        {
            "positions": [
                -1.5759329216415339,
                -1.3673194238340998,
                1.9656790605091155,
                -0.5754657046924536,
                1.3051762730116707,
                -3.117642444943281
            ]
        },
        {
            "positions": [
                -1.6720779548864657,
                -1.4163783775079055,
                1.9549532053723642,
                -0.5193637661781011,
                1.471020202598028,
                -3.116352333993246
            ]
        }
    ]
}