{
    "goal": {
        "global_pose": {
            "orientation": {
                "w": -0.4816463035849501,
                "x": 0.5182115481033762,
                "y": 0.4908360881923453,
                "z": -0.5084816262002911
            },
            "position": {
                "x": -0.8240239810943604,
                "y": 0.19912469901144506,
                "z": 0.16403168439865112
            }
        },
        "name": "move_to_storage_D"
    },
    "id": "LBTRRT_move_to_storage_D_16",
    "joint_names": [
        "shoulder_pan_joint",
        "shoulder_lift_joint",
        "elbow_joint",
        "wrist_1_joint",
        "wrist_2_joint",
        "wrist_3_joint"
    ],
    "metrics": {
        "cart_traj_len": 3.3192383181382255,
        "distance_elbow_joint": 4.214509370811837,
        "distance_shoulder_lift_joint": 1.2638022359769165,
        "distance_shoulder_pan_joint": 3.1134647089815073,
        "distance_wrist_1_joint": 2.284579447367771,
        "distance_wrist_2_joint": 1.9932500041885601,
        "distance_wrist_3_joint": 3.160523361292654,
        "smoothness": 0.061379561408500274,
        "time": 5.029650196,
        "traj_len": 4.003764369767437,
        "weighted_distance": 5.16032996064795
    },
    "planner": "LBTRRT",
    "start": {
        "state": {
            "elbow_joint": -2.384821988534728,
            "shoulder_lift_joint": -2.2788054721415256,
            "shoulder_pan_joint": -0.1854694642142757,
            "wrist_1_joint": 1.4845938289331202,
            "wrist_2_joint": 0.17898776772866878,
            "wrist_3_joint": 0.037105688729662994
        }
    },
    "waypoints": [
        {
            "positions": [
                -0.1854694642142757,
                -2.2788054721415256,
                -2.384821988534728,
                1.4845938289331202,
                0.17898776772866878,
                0.037105688729662994
            ]
        },
        {
            "positions": [
                -0.07150613301686418,
                -2.251837195559556,
                -2.2235563236733302,
                1.47308462170866,
                0.1573772591575548,
                0.08490791904281521
            ]
        },
        {
            "positions": [
                0.042457198180547356,
                -2.2248689189775868,
                -2.062290658811933,
                1.4615754144841997,
                0.1357667505864408,
                0.13271014935596742
            ]
        },
        {
            "positions": [
                0.1564205293779589,
                -2.1979006423956178,
                -1.9010249939505355,
                1.4500662072597392,
                0.11415624201532681,
                0.18051237966911962
            ]
        },
        {
            "positions": [
                0.27038386057537045,
                -2.1709323658136483,
                -1.739759329089138,
                1.438557000035279,
                0.09254573344421282,
                0.22831460998227185
            ]
        },
        {
            "positions": [
                0.384347191772782,
                -2.143964089231679,
                -1.5784936642277405,
                1.4270477928108187,
                0.07093522487309883,
                0.27611684029542405
            ]
        },
        {
            "positions": [
                0.4983105229701935,
                -2.1169958126497095,
                -1.417227999366343,
                1.4155385855863585,
                0.049324716301984844,
                0.3239190706085763
            ]
        },
        {
            "positions": [
                0.612273854167605,
                -2.0900275360677405,
                -1.2559623345049458,
                1.4040293783618982,
                0.027714207730870882,
                0.3717213009217285
            ]
        },
        {
            "positions": [
                0.7262371853650166,
                -2.063059259485771,
                -1.094696669643548,
                1.3925201711374378,
                0.006103699159756865,
                0.41952353123488073
            ]
        },
        {
            "positions": [
                0.8402005165624281,
                -2.0360909829038016,
                -0.9334310047821508,
                1.3810109639129775,
                -0.015506809411357098,
                0.46732576154803285
            ]
        },
        {
            "positions": [
                0.9541638477598396,
                -2.009122706321832,
                -0.7721653399207531,
                1.3695017566885173,
                -0.037117317982471115,
                0.5151279918611851
            ]
        },
        {
            "positions": [
                1.068127178957251,
                -1.982154429739863,
                -0.6108996750593558,
                1.357992549464057,
                -0.05872782655358508,
                0.5629302221743373
            ]
        },
        {
            "positions": [
                1.1820905101546626,
                -1.9551861531578938,
                -0.4496340101979581,
                1.3464833422395968,
                -0.0803383351246991,
                0.6107324524874895
            ]
        },
        {
            "positions": [
                1.2960538413520741,
                -1.9282178765759244,
                -0.28836834533656086,
                1.3349741350151363,
                -0.10194884369581306,
                0.6585346828006418
            ]
        },
        {
            "positions": [
                1.4100171725494857,
                -1.901249599993955,
                -0.1271026804751636,
                1.323464927790676,
                -0.12355935226692702,
                0.706336913113794
            ]
        },
        {
            "positions": [
                1.523980503746897,
                -1.8742813234119857,
                0.034162984386233664,
                1.3119557205662158,
                -0.14516986083804098,
                0.7541391434269461
            ]
        },
        {
            "positions": [
                1.6379438349443087,
                -1.8473130468300163,
                0.1954286492476318,
                1.3004465133417555,
                -0.16678036940915505,
                0.8019413737400984
            ]
        },
        {
            "positions": [
                1.7519071661417203,
                -1.820344770248047,
                0.3566943141090291,
                1.2889373061172953,
                -0.18839087798026902,
                0.8497436040532506
            ]
        },
        {
            "positions": [
                1.8658704973391318,
                -1.7933764936660777,
                0.5179599789704263,
                1.2774280988928348,
                -0.21000138655138298,
                0.8975458343664028
            ]
        },
        {
            "positions": [
                1.979833828536543,
                -1.7664082170841084,
                0.6792256438318236,
                1.2659188916683746,
                -0.23161189512249694,
                0.945348064679555
            ]
        },
        {
            "positions": [
                2.093797159733955,
                -1.739439940502139,
                0.8404913086932218,
                1.2544096844439143,
                -0.25322240369361104,
                0.9931502949927072
            ]
        },
        {
            "positions": [
                2.2077604909313666,
                -1.7124716639201698,
                1.001756973554619,
                1.242900477219454,
                -0.27483291226472495,
                1.0409525253058594
            ]
        },
        {
            "positions": [
                2.321723822128778,
                -1.6855033873382004,
                1.1630226384160163,
                1.2313912699949938,
                -0.29644342083583897,
                1.0887547556190116
            ]
        },
        {
            "positions": [
                2.4356871533261892,
                -1.658535110756231,
                1.3242883032774135,
                1.2198820627705333,
                -0.3180539294069529,
                1.1365569859321638
            ]
        },
        {
            "positions": [
                2.549650484523601,
                -1.6315668341742617,
                1.4855539681388117,
                1.208372855546073,
                -0.339664437978067,
                1.184359216245316
            ]
        },
        {
            "positions": [
                2.6636138157210127,
                -1.6045985575922925,
                1.646819633000209,
                1.1968636483216128,
                -0.3612749465491809,
                1.2321614465584683
            ]
        },
        {
            "positions": [
                2.777577146918424,
                -1.577630281010323,
                1.8080852978616064,
                1.1853544410971526,
                -0.38288545512029487,
                1.2799636768716205
            ]
        },
        {
            "positions": [
                2.7681760158028736,
                -1.5424660907074659,
                1.8094354281375753,
                1.0612706873764148,
                -0.29342440628657007,
                1.399817762693539
            ]
        },
        {
            "positions": [
                2.7587748846873232,
                -1.5073019004046089,
                1.810785558413544,
                0.9371869336556772,
                -0.2039633574528453,
                1.5196718485154577
            ]
        },
        {
            "positions": [
                2.7493737535717724,
                -1.4721377101017517,
                1.8121356886895128,
                0.8131031799349394,
                -0.11450230861912053,
                1.639525934337376
            ]
        },
        {
            "positions": [
                2.739972622456222,
                -1.4369735197988946,
                1.8134858189654817,
                0.6890194262142018,
                -0.02504125978539573,
                1.7593800201592946
            ]
        },
        {
            "positions": [
                2.7305714913406716,
                -1.4018093294960374,
                1.8148359492414505,
                0.564935672493464,
                0.06441978904832907,
                1.8792341059812132
            ]
        },
        {
            "positions": [
                2.721170360225121,
                -1.3666451391931804,
                1.8161860795174194,
                0.4408519187727262,
                0.1538808378820538,
                1.9990881918031316
            ]
        },
        {
            "positions": [
                2.7117692291095707,
                -1.3314809488903232,
                1.817536209793388,
                0.31676816505198857,
                0.24334188671577867,
                2.11894227762505
            ]
        },
        {
            "positions": [
                2.70236809799402,
                -1.2963167585874662,
                1.818886340069357,
                0.1926844113312508,
                0.3328029355495034,
                2.2387963634469688
            ]
        },
        {
            "positions": [
                2.6929669668784695,
                -1.261152568284609,
                1.8202364703453258,
                0.06860065761051315,
                0.42226398438322815,
                2.3586504492688873
            ]
        },
        {
            "positions": [
                2.683565835762919,
                -1.2259883779817518,
                1.8215866006212944,
                -0.05548309611022462,
                0.511725033216953,
                2.478504535090806
            ]
        },
        {
            "positions": [
                2.6741647046473687,
                -1.1908241876788948,
                1.8229367308972633,
                -0.17956684983096238,
                0.6011860820506778,
                2.598358620912724
            ]
        },
        {
            "positions": [
                2.6647635735318183,
                -1.1556599973760375,
                1.8242868611732321,
                -0.30365060355170015,
                0.6906471308844024,
                2.7182127067346427
            ]
        },
        {
            "positions": [
                2.655362442416268,
                -1.1204958070731805,
                1.825636991449201,
                -0.4277343572724379,
                0.7801081797181273,
                2.8380667925565612
            ]
        },
        {
            "positions": [
                2.645961311300717,
                -1.0853316167703233,
                1.8269871217251699,
                -0.5518181109931755,
                0.8695692285518521,
                2.95792087837848
            ]
        },
        {
            "positions": [
                2.6365601801851666,
                -1.0501674264674663,
                1.8283372520011385,
                -0.6759018647139132,
                0.9590302773855768,
                3.0777749642003984
            ]
        },
        {
            "positions": [
                2.627159049069616,
                -1.015003236164609,
                1.8296873822771074,
                -0.799985618434651,
                1.0484913262193016,
                3.197629050022317
            ]
        }
    ]
}