{
    "goal": {
        "global_pose": {
            "orientation": {
                "w": 0.7047431468963623,
                "x": -0.7094548344612122,
                "y": 0.0024358443915843964,
                "z": -0.0022348060738295317
            },
            "position": {
                "x": 0.6094750761985779,
                "y": 0.3671506643295288,
                "z": 0.19426114857196808
            }
        },
        "name": "move_to_magneteinheit_A"
    },
    "id": "LBTRRT_move_to_magneteinheit_A_85",
    "joint_names": [
        "shoulder_pan_joint",
        "shoulder_lift_joint",
        "elbow_joint",
        "wrist_1_joint",
        "wrist_2_joint",
        "wrist_3_joint"
    ],
    "metrics": {
        "cart_traj_len": 3.2106112206076416,
        "distance_elbow_joint": 3.880991358585673,
        "distance_shoulder_lift_joint": 0.4820743081590779,
        "distance_shoulder_pan_joint": 2.905041187079528,
        "distance_wrist_1_joint": 0.8122281896797147,
        "distance_wrist_2_joint": 1.6949042904171334,
        "distance_wrist_3_joint": 3.6767797328818546,
        "smoothness": 0.05609625510473044,
        "time": 5.040334339,
        "traj_len": 3.6676994242717034,
        "weighted_distance": 4.828323830550674
    },
    "planner": "LBTRRT",
    "start": {
        "state": {
            "elbow_joint": -1.9196185241190666,
            "shoulder_lift_joint": -1.2443396400964142,
            "shoulder_pan_joint": 2.6996025414629847,
            "wrist_1_joint": -1.5485510000780065,
            "wrist_2_joint": -1.5709468930060704,
            "wrist_3_joint": 0.4420197071253992
        }
    },
    "waypoints": [
        {
            "positions": [
                2.6996025414629847,
                -1.2443396400964142,
                -1.9196185241190666,
                -1.5485510000780065,
                -1.5709468930060704,
                0.4420197071253992
            ]
        },
        {
            "positions": [
                2.5899378316712496,
                -1.2517808890074202,
                -1.7919828849682538,
                -1.5174547048920983,
                -1.552802980102856,
                0.34154982943878137
            ]
        },
        {
            "positions": [
                2.480273121879514,
                -1.2592221379184263,
                -1.6643472458174406,
                -1.4863584097061904,
                -1.5346590671996416,
                0.2410799517521636
            ]
        },
        {
            "positions": [
                2.370608412087779,
                -1.2666633868294324,
                -1.5367116066666278,
                -1.4552621145202822,
                -1.5165151542964272,
                0.14061007406554582
            ]
        },
        {
            "positions": [
                2.2609437022960432,
                -1.2741046357404384,
                -1.4090759675158147,
                -1.424165819334374,
                -1.4983712413932126,
                0.04014019637892802
            ]
        },
        {
            "positions": [
                2.151278992504308,
                -1.2815458846514445,
                -1.2814403283650018,
                -1.3930695241484659,
                -1.4802273284899983,
                -0.060329681307689786
            ]
        },
        {
            "positions": [
                2.0416142827125725,
                -1.2889871335624505,
                -1.1538046892141889,
                -1.361973228962558,
                -1.462083415586784,
                -0.16079955899430753
            ]
        },
        {
            "positions": [
                1.9319495729208374,
                -1.2964283824734566,
                -1.0261690500633758,
                -1.3308769337766497,
                -1.4439395026835695,
                -0.2612694366809254
            ]
        },
        {
            "positions": [
                1.822284863129102,
                -1.3038696313844627,
                -0.8985334109125629,
                -1.2997806385907416,
                -1.4257955897803551,
                -0.36173931436754314
            ]
        },
        {
            "positions": [
                1.7126201533373666,
                -1.3113108802954687,
                -0.77089777176175,
                -1.2686843434048334,
                -1.4076516768771408,
                -0.4622091920541609
            ]
        },
        {
            "positions": [
                1.6029554435456312,
                -1.3187521292064748,
                -0.6432621326109369,
                -1.2375880482189254,
                -1.3895077639739262,
                -0.5626790697407787
            ]
        },
        {
            "positions": [
                1.4932907337538959,
                -1.3261933781174808,
                -0.515626493460124,
                -1.2064917530330173,
                -1.3713638510707118,
                -0.6631489474273965
            ]
        },
        {
            "positions": [
                1.3836260239621607,
                -1.333634627028487,
                -0.3879908543093109,
                -1.175395457847109,
                -1.3532199381674974,
                -0.7636188251140142
            ]
        },
        {
            "positions": [
                1.2739613141704251,
                -1.341075875939493,
                -0.260355215158498,
                -1.144299162661201,
                -1.335076025264283,
                -0.8640887028006322
            ]
        },
        {
            "positions": [
                1.1642966043786898,
                -1.348517124850499,
                -0.13271957600768491,
                -1.1132028674752927,
                -1.3169321123610687,
                -0.96455858048725
            ]
        },
        {
            "positions": [
                1.0546318945869546,
                -1.3559583737615049,
                -0.005083936856872029,
                -1.0821065722893848,
                -1.2987881994578543,
                -1.0650284581738676
            ]
        },
        {
            "positions": [
                0.9449671847952192,
                -1.363399622672511,
                0.12255170229394086,
                -1.0510102771034766,
                -1.2806442865546397,
                -1.1654983358604856
            ]
        },
        {
            "positions": [
                0.8353024750034836,
                -1.370840871583517,
                0.2501873414447542,
                -1.0199139819175684,
                -1.2625003736514253,
                -1.2659682135471035
            ]
        },
        {
            "positions": [
                0.7256377652117485,
                -1.378282120494523,
                0.3778229805955666,
                -0.9888176867316605,
                -1.244356460748211,
                -1.366438091233721
            ]
        },
        {
            "positions": [
                0.6159730554200133,
                -1.385723369405529,
                0.50545861974638,
                -0.9577213915457523,
                -1.2262125478449966,
                -1.466907968920339
            ]
        },
        {
            "positions": [
                0.5063083456282778,
                -1.3931646183165352,
                0.6330942588971928,
                -0.9266250963598441,
                -1.2080686349417822,
                -1.5673778466069566
            ]
        },
        {
            "positions": [
                0.3966436358365426,
                -1.4006058672275412,
                0.7607298980480057,
                -0.8955288011739361,
                -1.1899247220385678,
                -1.667847724293574
            ]
        },
        {
            "positions": [
                0.286978926044807,
                -1.4080471161385473,
                0.8883655371988186,
                -0.8644325059880279,
                -1.1717808091353534,
                -1.768317601980192
            ]
        },
        {
            "positions": [
                0.17731421625307187,
                -1.4154883650495533,
                1.016001176349632,
                -0.8333362108021198,
                -1.1536368962321388,
                -1.86878747966681
            ]
        },
        {
            "positions": [
                0.06764950646133672,
                -1.4229296139605594,
                1.1436368155004448,
                -0.8022399156162118,
                -1.1354929833289245,
                -1.9692573573534276
            ]
        },
        {
            "positions": [
                -0.04201520333039904,
                -1.4303708628715655,
                1.2712724546512577,
                -0.7711436204303036,
                -1.11734907042571,
                -2.0697272350400455
            ]
        },
        {
            "positions": [
                -0.025632778193488866,
                -1.3997631255534162,
                1.3423579243841783,
                -0.7675386886070539,
                -0.9895929807116427,
                -2.1896889155474093
            ]
        },
        {
            "positions": [
                -0.009250353056578689,
                -1.3691553882352667,
                1.4134433941170992,
                -0.7639337567838042,
                -0.8618368909975753,
                -2.309650596054773
            ]
        },
        {
            "positions": [
                0.007132072080331488,
                -1.3385476509171175,
                1.4845288638500198,
                -0.7603288249605544,
                -0.7340808012835078,
                -2.4296122765621373
            ]
        },
        {
            "positions": [
                0.023514497217241664,
                -1.3079399135989682,
                1.5556143335829407,
                -0.7567238931373047,
                -0.6063247115694405,
                -2.549573957069501
            ]
        },
        {
            "positions": [
                0.03989692235415185,
                -1.2773321762808187,
                1.6266998033158613,
                -0.753118961314055,
                -0.4785686218553731,
                -2.669535637576865
            ]
        },
        {
            "positions": [
                0.05627934749106202,
                -1.2467244389626695,
                1.697785273048782,
                -0.7495140294908053,
                -0.3508125321413056,
                -2.789497318084229
            ]
        },
        {
            "positions": [
                0.07266177262797219,
                -1.21611670164452,
                1.7688707427817025,
                -0.7459090976675555,
                -0.2230564424272382,
                -2.909458998591593
            ]
        },
        {
            "positions": [
                0.08904419776488237,
                -1.1855089643263708,
                1.8399562125146234,
                -0.7423041658443058,
                -0.09530035271317086,
                -3.0294206790989566
            ]
        },
        {
            "positions": [
                0.1052262183603137,
                -1.159918370907005,
                1.9006645234906148,
                -0.7393134881212988,
                0.014328522348946118,
                -3.132090352427706
            ]
        },
        {
            "positions": [
                0.12140823895574505,
                -1.1343277774876388,
                1.9613728344666064,
                -0.7363228103982918,
                0.1239573974110631,
                -3.2347600257564553
            ]
        }
    ]
}