{
    "goal": {
        "global_pose": {
            "orientation": {
                "w": 0.5084816217422485,
                "x": -0.49083608388900757,
                "y": 0.5182115435600281,
                "z": -0.4816462993621826
            },
            "position": {
                "x": 0.5540239810943604,
                "y": 0.030875300988554955,
                "z": 0.16403168439865112
            }
        },
        "name": "move_to_storage_A"
    },
    "id": "LBTRRT_move_to_storage_A_94",
    "joint_names": [
        "shoulder_pan_joint",
        "shoulder_lift_joint",
        "elbow_joint",
        "wrist_1_joint",
        "wrist_2_joint",
        "wrist_3_joint"
    ],
    "metrics": {
        "cart_traj_len": 0.35313086677858013,
        "distance_elbow_joint": 0.4536997525954731,
        "distance_shoulder_lift_joint": 0.23374787517226747,
        "distance_shoulder_pan_joint": 0.4578616828879729,
        "distance_wrist_1_joint": 0.2599410745874803,
        "distance_wrist_2_joint": 1.1157808041456727,
        "distance_wrist_3_joint": 0.10521222873246305,
        "smoothness": 2.2204460668324854e-16,
        "time": 5.003955403,
        "traj_len": 1.6205688563345062,
        "weighted_distance": 2.0524107177461848
    },
    "planner": "LBTRRT",
    "start": {
        "state": {
            "elbow_joint": 1.971548259319323,
            "shoulder_lift_joint": -1.1394851275133948,
            "shoulder_pan_joint": 0.1228115487234821,
            "wrist_1_joint": -0.7804723859257726,
            "wrist_2_joint": 0.12958671773740124,
            "wrist_3_joint": -3.192489227718131
        }
    },
    "waypoints": [
        {
            "positions": [
                0.1228115487234821,
                -1.1394851275133948,
                1.971548259319323,
                -0.7804723859257726,
                0.12958671773740124,
                -3.192489227718131
            ]
        },
        {
            "positions": [
                0.05740273688234311,
                -1.172877681109433,
                2.036362509690105,
                -0.8176068251525556,
                0.2889839754724973,
                -3.1774589093277794
            ]
        },
        {
            "positions": [
                -0.008006074958795878,
                -1.2062702347054712,
                2.101176760060887,
                -0.8547412643793384,
                0.4483812332075934,
                -3.1624285909374272
            ]
        },
        {
            "positions": [
                -0.07341488679993485,
                -1.2396627883015094,
                2.1659910104316684,
                -0.8918757036061213,
                0.6077784909426895,
                -3.1473982725470755
            ]
        },
        {
            "positions": [
                -0.13882369864107386,
                -1.2730553418975477,
                2.2308052608024505,
                -0.9290101428329042,
                0.7671757486777856,
                -3.1323679541567238
            ]
        },
        {
            "positions": [
                -0.20423251048221286,
                -1.3064478954935859,
                2.2956195111732325,
                -0.9661445820596871,
                0.9265730064128818,
                -3.117337635766372
            ]
        },
        {
            "positions": [
                -0.2696413223233518,
                -1.339840449089624,
                2.360433761544014,
                -1.00327902128647,
                1.0859702641479778,
                -3.10230731737602
            ]
        },
        {
            "positions": [
                -0.3350501341644908,
                -1.3732330026856623,
                2.425248011914796,
                -1.040413460513253,
                1.245367521883074,
                -3.087276998985668
            ]
        }
    ]
}{
    "goal": {
        "global_pose": {
            "orientation": {
                "w": 0.5084816217422485,
                "x": -0.49083608388900757,
                "y": 0.5182115435600281,
                "z": -0.4816462993621826
            },
            "position": {
                "x": 0.5540239810943604,
                "y": 0.030875300988554955,
                "z": 0.16403168439865112
            }
        },
        "name": "move_to_storage_A"
    },
    "id": "LBTRRT_move_to_storage_A_94",
    "joint_names": [
        "shoulder_pan_joint",
        "shoulder_lift_joint",
        "elbow_joint",
        "wrist_1_joint",
        "wrist_2_joint",
        "wrist_3_joint"
    ],
    "metrics": {
        "cart_traj_len": 0.35360866884147374,
        "distance_elbow_joint": 0.44785483718263164,
        "distance_shoulder_lift_joint": 0.235317429650719,
        "distance_shoulder_pan_joint": 0.46066349113089294,
        "distance_wrist_1_joint": 0.23655160878289627,
        "distance_wrist_2_joint": 1.1071150902365738,
        "distance_wrist_3_joint": 0.1033700029223068,
        "smoothness": 2.2204460668324854e-16,
        "time": 5.003083113,
        "traj_len": 1.609618731223646,
        "weighted_distance": 2.035013308253807
    },
    "planner": "LBTRRT",
    "start": {
        "state": {
            "elbow_joint": 1.97154746011099,
            "shoulder_lift_joint": -1.13948474672311,
            "shoulder_pan_joint": 0.12281154466712228,
            "wrist_1_joint": -0.7804688027058302,
            "wrist_2_joint": 0.12958655903071145,
            "wrist_3_joint": 3.0906928834467795
        }
    },
    "waypoints": [
        {
            "positions": [
                0.12281154466712228,
                -1.13948474672311,
                1.97154746011099,
                -0.7804688027058302,
                0.12958655903071145,
                3.0906928834467795
            ]
        },
        {
            "positions": [
                0.057002474505566156,
                -1.1731015223874983,
                2.0355267225656517,
                -0.8142618896748154,
                0.2877458576359363,
                3.1054600267213948
            ]
        },
        {
            "positions": [
                -0.008806595655989971,
                -1.206718298051887,
                2.099505985020313,
                -0.8480549766438006,
                0.4459051562411611,
                3.12022716999601
            ]
        },
        {
            "positions": [
                -0.0746156658175461,
                -1.2403350737162753,
                2.163485247474975,
                -0.8818480636127857,
                0.6040644548463859,
                3.1349943132706253
            ]
        },
        {
            "positions": [
                -0.1404247359791022,
                -1.2739518493806636,
                2.2274645099296366,
                -0.9156411505817709,
                0.7622237534516108,
                3.1497614565452405
            ]
        },
        {
            "positions": [
                -0.2062338061406584,
                -1.307568625045052,
                2.2914437723842984,
                -0.9494342375507561,
                0.9203830520568357,
                3.164528599819856
            ]
        },
        {
            "positions": [
                -0.27204287630221446,
                -1.3411854007094406,
                2.3554230348389598,
                -0.9832273245197413,
                1.0785423506620604,
                3.179295743094471
            ]
        },
        {
            "positions": [
                -0.33785194646377065,
                -1.374802176373829,
                2.4194022972936216,
                -1.0170204114887265,
                1.2367016492672853,
                3.1940628863690863
            ]
        }
    ]
}{
    "goal": {
        "global_pose": {
            "orientation": {
                "w": 0.5084816217422485,
                "x": -0.49083608388900757,
                "y": 0.5182115435600281,
                "z": -0.4816462993621826
            },
            "position": {
                "x": 0.5540239810943604,
                "y": 0.030875300988554955,
                "z": 0.16403168439865112
            }
        },
        "name": "move_to_storage_A"
    },
    "id": "LBTRRT_move_to_storage_A_94",
    "joint_names": [
        "shoulder_pan_joint",
        "shoulder_lift_joint",
        "elbow_joint",
        "wrist_1_joint",
        "wrist_2_joint",
        "wrist_3_joint"
    ],
    "metrics": {
        "cart_traj_len": 0.3534972809773489,
        "distance_elbow_joint": 0.45086657069301106,
        "distance_shoulder_lift_joint": 0.2355846558227781,
        "distance_shoulder_pan_joint": 0.4645572982928836,
        "distance_wrist_1_joint": 0.24090013516286635,
        "distance_wrist_2_joint": 1.0906959913213008,
        "distance_wrist_3_joint": 0.0982773185522765,
        "smoothness": 6.661338165333112e-16,
        "time": 5.0042962289999995,
        "traj_len": 1.6065123621824753,
        "weighted_distance": 2.027074920528059
    },
    "planner": "LBTRRT",
    "start": {
        "state": {
            "elbow_joint": 1.9715472970024885,
            "shoulder_lift_joint": -1.1394870060712896,
            "shoulder_pan_joint": 0.12281152778156021,
            "wrist_1_joint": -0.780463741449964,
            "wrist_2_joint": 0.12958659822042276,
            "wrist_3_joint": 3.090690232415272
        }
    },
    "waypoints": [
        {
            "positions": [
                0.12281152778156021,
                -1.1394870060712896,
                1.9715472970024885,
                -0.780463741449964,
                0.12958659822042276,
                3.090690232415272
            ]
        },
        {
            "positions": [
                0.056446199454005405,
                -1.173141956903115,
                2.03595680710149,
                -0.8148780464732306,
                0.28540031126632287,
                3.1047298493513114
            ]
        },
        {
            "positions": [
                -0.009919128873549399,
                -1.2067969077349405,
                2.100366317200492,
                -0.8492923514964972,
                0.441214024312223,
                3.118769466287351
            ]
        },
        {
            "positions": [
                -0.07628445720110419,
                -1.2404518585667659,
                2.1647758272994935,
                -0.8837066565197639,
                0.5970277373581231,
                3.1328090832233904
            ]
        },
        {
            "positions": [
                -0.142649785528659,
                -1.2741068093985914,
                2.2291853373984947,
                -0.9181209615430305,
                0.7528414504040232,
                3.14684870015943
            ]
        },
        {
            "positions": [
                -0.20901511385621382,
                -1.3077617602304168,
                2.2935948474974963,
                -0.9525352665662972,
                0.9086551634499234,
                3.1608883170954694
            ]
        },
        {
            "positions": [
                -0.27538044218376856,
                -1.3414167110622421,
                2.358004357596498,
                -0.9869495715895638,
                1.0644688764958234,
                3.174927934031509
            ]
        },
        {
            "positions": [
                -0.3417457705113234,
                -1.3750716618940677,
                2.4224138676954996,
                -1.0213638766128303,
                1.2202825895417235,
                3.1889675509675484
            ]
        }
    ]
}