{
    "goal": {
        "global_pose": {
            "orientation": {
                "w": 0.7031023480610252,
                "x": -0.7110244013736278,
                "y": 0.0077485991402295624,
                "z": 0.005598929693374583
            },
            "position": {
                "x": -0.8841497679147869,
                "y": 0.44412534475326537,
                "z": 0.3711530566215515
            }
        },
        "name": "move_to_auspresseinheit_D"
    },
    "id": "LBTRRT_move_to_auspresseinheit_D_124",
    "joint_names": [
        "shoulder_pan_joint",
        "shoulder_lift_joint",
        "elbow_joint",
        "wrist_1_joint",
        "wrist_2_joint",
        "wrist_3_joint"
    ],
    "metrics": {
        "cart_traj_len": 0.34386706787562443,
        "distance_elbow_joint": 0.64147451916135,
        "distance_shoulder_lift_joint": 0.12318427698478196,
        "distance_shoulder_pan_joint": 0.1344022085537656,
        "distance_wrist_1_joint": 0.5294021173128227,
        "distance_wrist_2_joint": 1.4433887628633055,
        "distance_wrist_3_joint": 0.009897567497268778,
        "smoothness": 2.1711028083999964e-15,
        "time": 5.005552772,
        "traj_len": 1.697571633944587,
        "weighted_distance": 2.207789724485546
    },
    "planner": "LBTRRT",
    "start": {
        "state": {
            "elbow_joint": -1.8275523626775212,
            "shoulder_lift_joint": -2.126789852344167,
            "shoulder_pan_joint": -0.03513704404078235,
            "wrist_1_joint": -2.347782403156801,
            "wrist_2_joint": -1.6058999987535132,
            "wrist_3_joint": -3.0880379163319196
        }
    },
    "waypoints": [
        {
            "positions": [
                -0.03513704404078235,
                -2.126789852344167,
                -1.8275523626775212,
                -2.347782403156801,
                -1.6058999987535132,
                -3.0880379163319196
            ]
        },
        {
            "positions": [
                -0.05193732011000305,
                -2.142187886967265,
                -1.7473680477823526,
                -2.413957667820904,
                -1.4254764033956,
                -3.0892751122690782
            ]
        },
        {
            "positions": [
                -0.06873759617922376,
                -2.1575859215903623,
                -1.6671837328871837,
                -2.4801329324850068,
                -1.2450528080376868,
                -3.090512308206237
            ]
        },
        {
            "positions": [
                -0.08553787224844445,
                -2.17298395621346,
                -1.5869994179920148,
                -2.5463081971491093,
                -1.0646292126797736,
                -3.0917495041433956
            ]
        },
        {
            "positions": [
                -0.10233814831766516,
                -2.188381990836558,
                -1.5068151030968462,
                -2.6124834618132122,
                -0.8842056173218604,
                -3.092986700080554
            ]
        },
        {
            "positions": [
                -0.11913842438688585,
                -2.203780025459656,
                -1.4266307882016775,
                -2.678658726477315,
                -0.7037820219639472,
                -3.0942238960177124
            ]
        },
        {
            "positions": [
                -0.13593870045610656,
                -2.2191780600827533,
                -1.3464464733065087,
                -2.7448339911414177,
                -0.523358426606034,
                -3.095461091954871
            ]
        },
        {
            "positions": [
                -0.15273897652532725,
                -2.234576094705851,
                -1.2662621584113398,
                -2.8110092558055206,
                -0.34293483124812085,
                -3.0966982878920297
            ]
        },
        {
            "positions": [
                -0.16953925259454797,
                -2.249974129328949,
                -1.1860778435161712,
                -2.8771845204696236,
                -0.16251123589020774,
                -3.0979354838291884
            ]
        }
    ]
}