{
    "goal": {
        "global_pose": {
            "orientation": {
                "w": 0.7031023502349854,
                "x": -0.7110244035720825,
                "y": 0.007748599164187908,
                "z": 0.005598929710686207
            },
            "position": {
                "x": 0.11585023208521307,
                "y": 0.44412534475326537,
                "z": 0.3711530566215515
            }
        },
        "name": "move_to_auspresseinheit_A"
    },
    "id": "LBTRRT_move_to_auspresseinheit_A_68",
    "joint_names": [
        "shoulder_pan_joint",
        "shoulder_lift_joint",
        "elbow_joint",
        "wrist_1_joint",
        "wrist_2_joint",
        "wrist_3_joint"
    ],
    "metrics": {
        "cart_traj_len": 0.6589387833411525,
        "distance_elbow_joint": 0.17933161312288126,
        "distance_shoulder_lift_joint": 0.6073179257797581,
        "distance_shoulder_pan_joint": 1.0453122310466738,
        "distance_wrist_1_joint": 0.5562177961140576,
        "distance_wrist_2_joint": 0.5256081575057595,
        "distance_wrist_3_joint": 0.4245058248492848,
        "smoothness": 0.48605678414142267,
        "time": 5.016156775,
        "traj_len": 1.8270997642215423,
        "weighted_distance": 2.2954588107253855
    },
    "planner": "LBTRRT",
    "start": {
        "state": {
            "elbow_joint": 2.4225746658250005,
            "shoulder_lift_joint": -1.3736534386056498,
            "shoulder_pan_joint": -0.3378633547517467,
            "wrist_1_joint": -1.0288598680537169,
            "wrist_2_joint": 1.233022673432363,
            "wrist_3_joint": -3.0940220416140027
        }
    },
    "waypoints": [
        {
            "positions": [
                -0.3378633547517467,
                -1.3736534386056498,
                2.4225746658250005,
                -1.0288598680537169,
                1.233022673432363,
                -3.0940220416140027
            ]
        },
        {
            "positions": [
                -0.24213624563833036,
                -1.468770715377292,
                2.4352319133360187,
                -0.9453184492783943,
                1.2145116328645513,
                -3.0617669100451237
            ]
        },
        {
            "positions": [
                -0.14640913652491397,
                -1.5638879921489341,
                2.447889160847037,
                -0.8617770305030716,
                1.1960005922967394,
                -3.029511778476244
            ]
        },
        {
            "positions": [
                -0.05068202741149758,
                -1.6590052689205765,
                2.4605464083580557,
                -0.7782356117277489,
                1.1774895517289277,
                -2.997256646907365
            ]
        },
        {
            "positions": [
                0.04504508170191879,
                -1.7541225456922187,
                2.473203655869074,
                -0.6946941929524263,
                1.158978511161116,
                -2.965001515338486
            ]
        },
        {
            "positions": [
                0.1407721908153352,
                -1.8492398224638609,
                2.4858609033800922,
                -0.6111527741771036,
                1.140467470593304,
                -2.9327463837696066
            ]
        },
        {
            "positions": [
                0.23649929992875152,
                -1.944357099235503,
                2.4985181508911105,
                -0.527611355401781,
                1.1219564300254923,
                -2.9004912522007276
            ]
        },
        {
            "positions": [
                0.3542366940202954,
                -1.9352035329480268,
                2.4726711188769177,
                -0.5138690345362505,
                1.01832095150077,
                -2.95823501105973
            ]
        },
        {
            "positions": [
                0.4719740881118393,
                -1.9260499666605506,
                2.446824086862725,
                -0.5001267136707201,
                0.9146854729760479,
                -3.0159787699187324
            ]
        },
        {
            "positions": [
                0.5897114822033831,
                -1.9168964003730744,
                2.420977054848532,
                -0.4863843928051897,
                0.8110499944513258,
                -3.0737225287777346
            ]
        },
        {
            "positions": [
                0.707448876294927,
                -1.9077428340855982,
                2.3951300228343393,
                -0.4726420719396593,
                0.7074145159266035,
                -3.131466287636737
            ]
        }
    ]
}