{
    "goal": {
        "global_pose": {
            "orientation": {
                "w": 0.5084816262002911,
                "x": -0.4908360881923452,
                "y": 0.5182115481033761,
                "z": -0.48164630358495003
            },
            "position": {
                "x": 0.5540239810943604,
                "y": -0.46912469901144505,
                "z": 0.16403168439865112
            }
        },
        "name": "move_to_storage_B"
    },
    "id": "LBTRRT_move_to_storage_B_26",
    "joint_names": [
        "shoulder_pan_joint",
        "shoulder_lift_joint",
        "elbow_joint",
        "wrist_1_joint",
        "wrist_2_joint",
        "wrist_3_joint"
    ],
    "metrics": {
        "cart_traj_len": 0.8374308943475985,
        "distance_elbow_joint": 0.37208352875804085,
        "distance_shoulder_lift_joint": 0.46001455523880264,
        "distance_shoulder_pan_joint": 0.4737733522970432,
        "distance_wrist_1_joint": 3.4879208213567927,
        "distance_wrist_2_joint": 2.7079361806604307,
        "distance_wrist_3_joint": 3.1642834847075627,
        "smoothness": 0.13611644465161576,
        "time": 5.048546804,
        "traj_len": 3.2658860854320495,
        "weighted_distance": 4.815644909505997
    },
    "planner": "LBTRRT",
    "start": {
        "state": {
            "elbow_joint": 1.664937868594044,
            "shoulder_lift_joint": -0.661644460510453,
            "shoulder_pan_joint": -0.9139846352900073,
            "wrist_1_joint": 2.146753192139373,
            "wrist_2_joint": -2.2341966793290973,
            "wrist_3_joint": 0.005466555786416001
        }
    },
    "waypoints": [
        {
            "positions": [
                -0.9139846352900073,
                -0.661644460510453,
                1.664937868594044,
                2.146753192139373,
                -2.2341966793290973,
                0.005466555786416001
            ]
        },
        {
            "positions": [
                -0.9685178012053257,
                -0.7075883864418491,
                1.7255943911822849,
                2.1858991304954722,
                -2.100707345240981,
                0.056009326595633804
            ]
        },
        {
            "positions": [
                -1.0230509671206443,
                -0.7535323123732451,
                1.7862509137705258,
                2.2250450688515713,
                -1.9672180111528648,
                0.10655209740485161
            ]
        },
        {
            "positions": [
                -1.0775841330359628,
                -0.7994762383046412,
                1.8469074363587668,
                2.2641910072076703,
                -1.8337286770647485,
                0.15709486821406943
            ]
        },
        {
            "positions": [
                -1.132117298951281,
                -0.8454201642360373,
                1.9075639589470077,
                2.3033369455637693,
                -1.7002393429766323,
                0.20763763902328722
            ]
        },
        {
            "positions": [
                -1.1866504648665996,
                -0.8913640901674335,
                1.9682204815352486,
                2.3424828839198684,
                -1.5667500088885158,
                0.25818040983250506
            ]
        },
        {
            "positions": [
                -1.2411836307819182,
                -0.9373080160988295,
                2.0288770041234896,
                2.3816288222759674,
                -1.4332606748003995,
                0.3087231806417229
            ]
        },
        {
            "positions": [
                -1.2345211600180486,
                -0.9456876069920307,
                2.028506804431281,
                2.2337631317659583,
                -1.3465788486125936,
                0.43876985608955266
            ]
        },
        {
            "positions": [
                -1.227858689254179,
                -0.9540671978852319,
                2.0281366047390716,
                2.0858974412559492,
                -1.2598970224247874,
                0.5688165315373825
            ]
        },
        {
            "positions": [
                -1.2211962184903091,
                -0.962446788778433,
                2.027766405046863,
                1.9380317507459404,
                -1.1732151962369815,
                0.6988632069852123
            ]
        },
        {
            "positions": [
                -1.2145337477264395,
                -0.9708263796716343,
                2.027396205354654,
                1.7901660602359313,
                -1.0865333700491755,
                0.8289098824330421
            ]
        },
        {
            "positions": [
                -1.20787127696257,
                -0.9792059705648355,
                2.0270260056624454,
                1.6423003697259224,
                -0.9998515438613693,
                0.9589565578808719
            ]
        },
        {
            "positions": [
                -1.2012088061987003,
                -0.9875855614580367,
                2.026655805970236,
                1.4944346792159133,
                -0.9131697176735634,
                1.0890032333287016
            ]
        },
        {
            "positions": [
                -1.1945463354348307,
                -0.9959651523512378,
                2.0262856062780275,
                1.3465689887059042,
                -0.8264878914857573,
                1.2190499087765314
            ]
        },
        {
            "positions": [
                -1.187883864670961,
                -1.004344743244439,
                2.0259154065858187,
                1.1987032981958952,
                -0.7398060652979512,
                1.3490965842243612
            ]
        },
        {
            "positions": [
                -1.1812213939070912,
                -1.0127243341376402,
                2.02554520689361,
                1.050837607685886,
                -0.6531242391101452,
                1.479143259672191
            ]
        },
        {
            "positions": [
                -1.1745589231432216,
                -1.0211039250308414,
                2.0251750072014008,
                0.9029719171758772,
                -0.5664424129223392,
                1.6091899351200207
            ]
        },
        {
            "positions": [
                -1.167896452379352,
                -1.0294835159240425,
                2.024804807509192,
                0.7551062266658681,
                -0.47976058673453315,
                1.7392366105678505
            ]
        },
        {
            "positions": [
                -1.1612339816154824,
                -1.0378631068172437,
                2.0244346078169833,
                0.6072405361558593,
                -0.3930787605467272,
                1.8692832860156803
            ]
        },
        {
            "positions": [
                -1.1545715108516128,
                -1.0462426977104449,
                2.024064408124774,
                0.45937484564584996,
                -0.306396934358921,
                1.9993299614635105
            ]
        },
        {
            "positions": [
                -1.147909040087743,
                -1.054622288603646,
                2.0236942084325653,
                0.3115091551358411,
                -0.21971510817111506,
                2.12937663691134
            ]
        },
        {
            "positions": [
                -1.1412465693238734,
                -1.0630018794968472,
                2.0233240087403566,
                0.163643464625832,
                -0.1330332819833091,
                2.2594233123591696
            ]
        },
        {
            "positions": [
                -1.1345840985600038,
                -1.0713814703900486,
                2.022953809048148,
                0.01577777411582293,
                -0.04635145579550293,
                2.389469987807
            ]
        },
        {
            "positions": [
                -1.1279216277961341,
                -1.0797610612832498,
                2.0225836093559386,
                -0.13208791639418616,
                0.04033037039230303,
                2.5195166632548296
            ]
        },
        {
            "positions": [
                -1.1212591570322645,
                -1.088140652176451,
                2.02221340966373,
                -0.27995360690419524,
                0.1270121965801092,
                2.6495633387026594
            ]
        },
        {
            "positions": [
                -1.1145966862683947,
                -1.0965202430696521,
                2.021843209971521,
                -0.4278192974142039,
                0.21369402276791516,
                2.779610014150489
            ]
        },
        {
            "positions": [
                -1.107934215504525,
                -1.1048998339628533,
                2.0214730102793124,
                -0.575684987924213,
                0.3003758489557211,
                2.909656689598319
            ]
        },
        {
            "positions": [
                -1.1012717447406555,
                -1.1132794248560545,
                2.021102810587103,
                -0.723550678434222,
                0.3870576751435273,
                3.0397033650461487
            ]
        },
        {
            "positions": [
                -1.0946092739767859,
                -1.1216590157492556,
                2.0207326108948944,
                -0.8714163689442312,
                0.47373950133133336,
                3.1697500404939785
            ]
        }
    ]
}