{
    "goal": {
        "global_pose": {
            "orientation": {
                "w": -0.4816463035849501,
                "x": 0.5182115481033762,
                "y": 0.4908360881923453,
                "z": -0.5084816262002911
            },
            "position": {
                "x": -0.8240239810943604,
                "y": -0.300875300988555,
                "z": 0.16403168439865112
            }
        },
        "name": "move_to_storage_C"
    },
    "id": "LBTRRT_move_to_storage_C_107",
    "joint_names": [
        "shoulder_pan_joint",
        "shoulder_lift_joint",
        "elbow_joint",
        "wrist_1_joint",
        "wrist_2_joint",
        "wrist_3_joint"
    ],
    "metrics": {
        "cart_traj_len": 0.5771538705719907,
        "distance_elbow_joint": 0.25932238783164974,
        "distance_shoulder_lift_joint": 0.18994904782201383,
        "distance_shoulder_pan_joint": 0.4955994862959918,
        "distance_wrist_1_joint": 0.08464109937838882,
        "distance_wrist_2_joint": 1.06600360295286,
        "distance_wrist_3_joint": 0.06721909813190274,
        "smoothness": 2.5376526478085547e-16,
        "time": 5.003776188,
        "traj_len": 1.4706239228343891,
        "weighted_distance": 1.8568299924893128
    },
    "planner": "LBTRRT",
    "start": {
        "state": {
            "elbow_joint": 2.010868314990456,
            "shoulder_lift_joint": -1.1634956873337592,
            "shoulder_pan_joint": -2.4736205022346125,
            "wrist_1_joint": -0.8367026794202681,
            "wrist_2_joint": 0.6746043897044499,
            "wrist_3_joint": -3.1496632123970403
        }
    },
    "waypoints": [
        {
            "positions": [
                -2.4736205022346125,
                -1.1634956873337592,
                2.010868314990456,
                -0.8367026794202681,
                0.6746043897044499,
                -3.1496632123970403
            ]
        },
        {
            "positions": [
                -2.5562204166172777,
                -1.1318375126967568,
                1.9676479170185142,
                -0.82259582952387,
                0.8522716568632599,
                -3.1384600293750564
            ]
        },
        {
            "positions": [
                -2.638820330999943,
                -1.1001793380597547,
                1.9244275190465725,
                -0.8084889796274718,
                1.02993892402207,
                -3.1272568463530726
            ]
        },
        {
            "positions": [
                -2.7214202453826086,
                -1.0685211634227523,
                1.881207121074631,
                -0.7943821297310737,
                1.2076061911808798,
                -3.1160536633310887
            ]
        },
        {
            "positions": [
                -2.804020159765274,
                -1.03686298878575,
                1.8379867231026894,
                -0.7802752798346756,
                1.38527345833969,
                -3.1048504803091053
            ]
        },
        {
            "positions": [
                -2.886620074147939,
                -1.0052048141487477,
                1.7947663251307477,
                -0.7661684299382774,
                1.5629407254984997,
                -3.0936472972871214
            ]
        },
        {
            "positions": [
                -2.9692199885306043,
                -0.9735466395117454,
                1.751545927158806,
                -0.7520615800418793,
                1.74060799265731,
                -3.0824441142651375
            ]
        }
    ]
}