{
    "goal": {
        "global_pose": {
            "orientation": {
                "w": 0.5084816262002911,
                "x": -0.4908360881923452,
                "y": 0.5182115481033761,
                "z": -0.48164630358495003
            },
            "position": {
                "x": 0.5540239810943604,
                "y": -0.46912469901144505,
                "z": 0.16403168439865112
            }
        },
        "name": "move_to_storage_B"
    },
    "id": "LBTRRT_move_to_storage_B_130",
    "joint_names": [
        "shoulder_pan_joint",
        "shoulder_lift_joint",
        "elbow_joint",
        "wrist_1_joint",
        "wrist_2_joint",
        "wrist_3_joint"
    ],
    "metrics": {
        "cart_traj_len": 0.7023073274811436,
        "distance_elbow_joint": 0.3538834066615171,
        "distance_shoulder_lift_joint": 0.46051220338150034,
        "distance_shoulder_pan_joint": 0.35273220029784913,
        "distance_wrist_1_joint": 2.9979202076184994,
        "distance_wrist_2_joint": 2.7073488498196188,
        "distance_wrist_3_joint": 3.1589610923761726,
        "smoothness": 0.039986403855852025,
        "time": 5.035586049,
        "traj_len": 3.1672319081739433,
        "weighted_distance": 4.696227124229153
    },
    "planner": "LBTRRT",
    "start": {
        "state": {
            "elbow_joint": 1.664937868594044,
            "shoulder_lift_joint": -0.661644460510453,
            "shoulder_pan_joint": -0.9139846352900073,
            "wrist_1_joint": 2.146753192139373,
            "wrist_2_joint": -2.2341966793290973,
            "wrist_3_joint": 0.005466555786416001
        }
    },
    "waypoints": [
        {
            "positions": [
                -0.9139846352900073,
                -0.661644460510453,
                1.664937868594044,
                2.146753192139373,
                -2.2341966793290973,
                0.005466555786416001
            ]
        },
        {
            "positions": [
                -0.8969827141153078,
                -0.6897153968864101,
                1.6999993210905098,
                2.115427189106671,
                -2.1558041006195237,
                0.13785355615602177
            ]
        },
        {
            "positions": [
                -0.8799807929406084,
                -0.7177863332623673,
                1.7350607735869759,
                2.0841011860739695,
                -2.0774115219099505,
                0.27024055652562756
            ]
        },
        {
            "positions": [
                -0.862978871765909,
                -0.7458572696383243,
                1.7701222260834417,
                2.0527751830412675,
                -1.9990189432003769,
                0.4026275568952333
            ]
        },
        {
            "positions": [
                -0.8459769505912096,
                -0.7739282060142815,
                1.8051836785799078,
                2.0214491800085654,
                -1.9206263644908033,
                0.535014557264839
            ]
        },
        {
            "positions": [
                -0.8289750294165101,
                -0.8019991423902386,
                1.8402451310763737,
                1.9901231769758636,
                -1.8422337857812299,
                0.6674015576344448
            ]
        },
        {
            "positions": [
                -0.8411442382539807,
                -0.8165517570039529,
                1.848362228539064,
                1.860973622773364,
                -1.7369889695870593,
                0.7809027435675422
            ]
        },
        {
            "positions": [
                -0.8533134470914512,
                -0.8311043716176673,
                1.8564793260017542,
                1.7318240685708646,
                -1.631744153392889,
                0.8944039295006396
            ]
        },
        {
            "positions": [
                -0.8654826559289217,
                -0.8456569862313815,
                1.8645964234644448,
                1.6026745143683652,
                -1.5264993371987183,
                1.007905115433737
            ]
        },
        {
            "positions": [
                -0.8776518647663923,
                -0.8602096008450959,
                1.872713520927135,
                1.4735249601658655,
                -1.4212545210045477,
                1.1214063013668345
            ]
        },
        {
            "positions": [
                -0.8898210736038629,
                -0.8747622154588102,
                1.8808306183898253,
                1.344375405963366,
                -1.3160097048103774,
                1.234907487299932
            ]
        },
        {
            "positions": [
                -0.9019902824413334,
                -0.8893148300725244,
                1.8889477158525156,
                1.2152258517608665,
                -1.2107648886162068,
                1.3484086732330294
            ]
        },
        {
            "positions": [
                -0.9141594912788039,
                -0.9038674446862387,
                1.897064813315206,
                1.0860762975583669,
                -1.1055200724220362,
                1.4619098591661268
            ]
        },
        {
            "positions": [
                -0.9263287001162746,
                -0.9184200592999531,
                1.9051819107778962,
                0.9569267433558675,
                -1.0002752562278656,
                1.5754110450992242
            ]
        },
        {
            "positions": [
                -0.9384979089537451,
                -0.9329726739136673,
                1.9132990082405867,
                0.8277771891533678,
                -0.895030440033695,
                1.6889122310323217
            ]
        },
        {
            "positions": [
                -0.9506671177912156,
                -0.9475252885273817,
                1.921416105703277,
                0.6986276349508684,
                -0.7897856238395247,
                1.8024134169654191
            ]
        },
        {
            "positions": [
                -0.9628363266286861,
                -0.962077903141096,
                1.9295332031659673,
                0.5694780807483688,
                -0.6845408076453541,
                1.9159146028985166
            ]
        },
        {
            "positions": [
                -0.9750055354661566,
                -0.9766305177548102,
                1.9376503006286576,
                0.4403285265458694,
                -0.5792959914511837,
                2.029415788831614
            ]
        },
        {
            "positions": [
                -0.9871747443036272,
                -0.9911831323685246,
                1.945767398091348,
                0.3111789723433698,
                -0.4740511752570129,
                2.142916974764711
            ]
        },
        {
            "positions": [
                -0.9993439531410977,
                -1.0057357469822388,
                1.9538844955540384,
                0.18202941814087015,
                -0.36880635906284254,
                2.256418160697809
            ]
        },
        {
            "positions": [
                -1.0115131619785682,
                -1.0202883615959533,
                1.9620015930167287,
                0.05287986393837074,
                -0.26356154286867217,
                2.369919346630906
            ]
        },
        {
            "positions": [
                -1.0236823708160387,
                -1.0348409762096675,
                1.970118690479419,
                -0.07626969026412866,
                -0.15831672667450136,
                2.4834205325640037
            ]
        },
        {
            "positions": [
                -1.0358515796535093,
                -1.0493935908233818,
                1.9782357879421093,
                -0.20541924446662851,
                -0.053071910480331,
                2.596921718497101
            ]
        },
        {
            "positions": [
                -1.04802078849098,
                -1.063946205437096,
                1.9863528854047996,
                -0.3345687986691279,
                0.05217290571383981,
                2.7104229044301986
            ]
        },
        {
            "positions": [
                -1.0601899973284505,
                -1.0784988200508105,
                1.99446998286749,
                -0.4637183528716273,
                0.15741772190801018,
                2.8239240903632963
            ]
        },
        {
            "positions": [
                -1.072359206165921,
                -1.0930514346645248,
                2.0025870803301804,
                -0.5928679070741267,
                0.26266253810218054,
                2.9374252762963935
            ]
        },
        {
            "positions": [
                -1.0845284150033916,
                -1.107604049278239,
                2.0107041777928707,
                -0.7220174612766266,
                0.36790735429635135,
                3.050926462229491
            ]
        },
        {
            "positions": [
                -1.0966976238408621,
                -1.1221566638919533,
                2.018821275255561,
                -0.851167015479126,
                0.4731521704905217,
                3.1644276481625884
            ]
        }
    ]
}