{
    "goal": {
        "global_pose": {
            "orientation": {
                "w": 0.005598929693374612,
                "x": 0.007748599140229565,
                "y": 0.7110244013736278,
                "z": -0.7031023480610252
            },
            "position": {
                "x": -0.8858502320852131,
                "y": -0.7141253447532654,
                "z": 0.3711530566215515
            }
        },
        "name": "move_to_auspresseinheit_C"
    },
    "id": "LBTRRT_move_to_auspresseinheit_C_20",
    "joint_names": [
        "shoulder_pan_joint",
        "shoulder_lift_joint",
        "elbow_joint",
        "wrist_1_joint",
        "wrist_2_joint",
        "wrist_3_joint"
    ],
    "metrics": {
        "cart_traj_len": 0.49372395461826196,
        "distance_elbow_joint": 0.9987621235336833,
        "distance_shoulder_lift_joint": 0.3241969334456608,
        "distance_shoulder_pan_joint": 0.2574425733164363,
        "distance_wrist_1_joint": 0.6778035812457639,
        "distance_wrist_2_joint": 1.3010189021933334,
        "distance_wrist_3_joint": 0.06423077090261797,
        "smoothness": 4.844609600361787e-16,
        "time": 5.005164117,
        "traj_len": 1.9035374660451252,
        "weighted_distance": 2.3938961777574708
    },
    "planner": "LBTRRT",
    "start": {
        "state": {
            "elbow_joint": 1.7527959577737207,
            "shoulder_lift_joint": -0.9740617694225068,
            "shoulder_pan_joint": -2.967991417825858,
            "wrist_1_joint": -0.759517768980727,
            "wrist_2_joint": 1.7443932448377408,
            "wrist_3_joint": -3.0840537646736568
        }
    },
    "waypoints": [
        {
            "positions": [
                -2.967991417825858,
                -0.9740617694225068,
                1.7527959577737207,
                -0.759517768980727,
                1.7443932448377408,
                -3.0840537646736568
            ]
        },
        {
            "positions": [
                -2.9422471604942144,
                -0.9416420760779407,
                1.6529197454203524,
                -0.6917374108561506,
                1.6142913546184074,
                -3.090476841763919
            ]
        },
        {
            "positions": [
                -2.916502903162571,
                -0.9092223827333746,
                1.553043533066984,
                -0.6239570527315742,
                1.484189464399074,
                -3.0968999188541804
            ]
        },
        {
            "positions": [
                -2.890758645830927,
                -0.8768026893888086,
                1.4531673207136158,
                -0.5561766946069978,
                1.354087574179741,
                -3.103322995944442
            ]
        },
        {
            "positions": [
                -2.8650143884992834,
                -0.8443829960442424,
                1.3532911083602472,
                -0.4883963364824214,
                1.2239856839604073,
                -3.109746073034704
            ]
        },
        {
            "positions": [
                -2.83927013116764,
                -0.8119633026996764,
                1.253414896006879,
                -0.42061597835784503,
                1.0938837937410741,
                -3.116169150124966
            ]
        },
        {
            "positions": [
                -2.8135258738359963,
                -0.7795436093551102,
                1.1535386836535106,
                -0.35283562023326864,
                0.9637819035217409,
                -3.1225922272152276
            ]
        },
        {
            "positions": [
                -2.7877816165043527,
                -0.7471239160105443,
                1.0536624713001423,
                -0.2850552621086923,
                0.8336800133024075,
                -3.129015304305489
            ]
        },
        {
            "positions": [
                -2.7620373591727088,
                -0.7147042226659781,
                0.9537862589467739,
                -0.21727490398411586,
                0.703578123083074,
                -3.135438381395751
            ]
        },
        {
            "positions": [
                -2.7362931018410652,
                -0.682284529321412,
                0.8539100465934056,
                -0.14949454585953947,
                0.5734762328637408,
                -3.141861458486013
            ]
        },
        {
            "positions": [
                -2.7105488445094217,
                -0.649864835976846,
                0.7540338342400373,
                -0.08171418773496306,
                0.44337434264440745,
                -3.1482845355762747
            ]
        }
    ]
}