{
    "goal": {
        "global_pose": {
            "orientation": {
                "w": 0.7047431493862688,
                "x": -0.7094548369677653,
                "y": 0.0024358444001904,
                "z": -0.0022348060817251984
            },
            "position": {
                "x": -0.39052492380142206,
                "y": 0.3671506643295288,
                "z": 0.19426114857196808
            }
        },
        "name": "move_to_magneteinheit_D"
    },
    "id": "LBTRRT_move_to_magneteinheit_D_95",
    "joint_names": [
        "shoulder_pan_joint",
        "shoulder_lift_joint",
        "elbow_joint",
        "wrist_1_joint",
        "wrist_2_joint",
        "wrist_3_joint"
    ],
    "metrics": {
        "cart_traj_len": 4.3310355253866,
        "distance_elbow_joint": 3.884062236385419,
        "distance_shoulder_lift_joint": 1.7476991520208853,
        "distance_shoulder_pan_joint": 2.7914962483830443,
        "distance_wrist_1_joint": 1.7157515321817316,
        "distance_wrist_2_joint": 0.9446708335296001,
        "distance_wrist_3_joint": 3.155403238853903,
        "smoothness": 0.4652528052764703,
        "time": 5.049662662,
        "traj_len": 3.773470980589964,
        "weighted_distance": 4.817708177626964
    },
    "planner": "LBTRRT",
    "start": {
        "state": {
            "elbow_joint": 0.749534889911806,
            "shoulder_lift_joint": -0.6476975780787326,
            "shoulder_pan_joint": -2.711696901376241,
            "wrist_1_joint": -0.07506478083263063,
            "wrist_2_joint": 0.43296659715538205,
            "wrist_3_joint": -3.14703540197715
        }
    },
    "waypoints": [
        {
            "positions": [
                -2.711696901376241,
                -0.6476975780787326,
                0.749534889911806,
                -0.07506478083263063,
                0.43296659715538205,
                -3.14703540197715
            ]
        },
        {
            "positions": [
                -2.701853105301101,
                -0.7205721165484634,
                0.8442665183624711,
                -0.0905668248453326,
                0.5192532435421522,
                -3.0468233453429088
            ]
        },
        {
            "positions": [
                -2.6920093092259614,
                -0.7934466550181942,
                0.9389981468131364,
                -0.10606886885803456,
                0.6055398899289223,
                -2.946611288708668
            ]
        },
        {
            "positions": [
                -2.6821655131508217,
                -0.8663211934879249,
                1.0337297752638017,
                -0.12157091287073651,
                0.6918265363156924,
                -2.846399232074427
            ]
        },
        {
            "positions": [
                -2.6723217170756817,
                -0.9391957319576557,
                1.128461403714467,
                -0.13707295688343848,
                0.7781131827024625,
                -2.746187175440186
            ]
        },
        {
            "positions": [
                -2.582331936312687,
                -0.9841123002397039,
                1.0284696620267293,
                -0.0837776308004959,
                0.7636290744280021,
                -2.653648777858967
            ]
        },
        {
            "positions": [
                -2.492342155549692,
                -1.0290288685217521,
                0.9284779203389917,
                -0.03048230471755331,
                0.7491449661535418,
                -2.5611103802777486
            ]
        },
        {
            "positions": [
                -2.4023523747866973,
                -1.0739454368038004,
                0.8284861786512541,
                0.022813021365389263,
                0.7346608578790813,
                -2.4685719826965298
            ]
        },
        {
            "positions": [
                -2.3123625940237025,
                -1.1188620050858484,
                0.7284944369635165,
                0.07610834744833186,
                0.720176749604621,
                -2.3760335851153114
            ]
        },
        {
            "positions": [
                -2.2223728132607077,
                -1.1637785733678967,
                0.6285026952757788,
                0.1294036735312745,
                0.7056926413301605,
                -2.2834951875340925
            ]
        },
        {
            "positions": [
                -2.132383032497713,
                -1.208695141649945,
                0.5285109535880413,
                0.182698999614217,
                0.6912085330557001,
                -2.190956789952874
            ]
        },
        {
            "positions": [
                -2.042393251734718,
                -1.2536117099319932,
                0.42851921190030373,
                0.23599432569715964,
                0.6767244247812397,
                -2.0984183923716553
            ]
        },
        {
            "positions": [
                -1.9524034709717233,
                -1.2985282782140413,
                0.3285274702125661,
                0.28928965178010224,
                0.6622403165067793,
                -2.005879994790437
            ]
        },
        {
            "positions": [
                -1.8624136902087285,
                -1.3434448464960895,
                0.2285357285248285,
                0.34258497786304476,
                0.6477562082323189,
                -1.913341597209218
            ]
        },
        {
            "positions": [
                -1.7724239094457335,
                -1.3883614147781378,
                0.1285439868370909,
                0.3958803039459875,
                0.6332720999578585,
                -1.8208031996279992
            ]
        },
        {
            "positions": [
                -1.682434128682739,
                -1.4332779830601858,
                0.028552245149353395,
                0.44917563002893,
                0.618787991683398,
                -1.7282648020467808
            ]
        },
        {
            "positions": [
                -1.5924443479197439,
                -1.478194551342234,
                -0.07143949653838422,
                0.5024709561118725,
                0.6043038834089376,
                -1.6357264044655622
            ]
        },
        {
            "positions": [
                -1.502454567156749,
                -1.5231111196242824,
                -0.17143123822612183,
                0.5557662821948152,
                0.5898197751344773,
                -1.5431880068843435
            ]
        },
        {
            "positions": [
                -1.4124647863937543,
                -1.5680276879063306,
                -0.27142297991385944,
                0.6090616082777578,
                0.5753356668600168,
                -1.4506496093031247
            ]
        },
        {
            "positions": [
                -1.3224750056307595,
                -1.6129442561883787,
                -0.37141472160159705,
                0.6623569343607004,
                0.5608515585855565,
                -1.358111211721906
            ]
        },
        {
            "positions": [
                -1.2324852248677647,
                -1.657860824470427,
                -0.47140646328933467,
                0.7156522604436429,
                0.546367450311096,
                -1.2655728141406875
            ]
        },
        {
            "positions": [
                -1.1424954441047699,
                -1.7027773927524752,
                -0.571398204977072,
                0.7689475865265855,
                0.5318833420366357,
                -1.173034416559469
            ]
        },
        {
            "positions": [
                -1.052505663341775,
                -1.7476939610345235,
                -0.6713899466648099,
                0.8222429126095281,
                0.5173992337621752,
                -1.0804960189782502
            ]
        },
        {
            "positions": [
                -0.9625158825787803,
                -1.7926105293165715,
                -0.7713816883525473,
                0.8755382386924707,
                0.5029151254877149,
                -0.9879576213970316
            ]
        },
        {
            "positions": [
                -0.8725261018157853,
                -1.83752709759862,
                -0.8713734300402851,
                0.9288335647754135,
                0.4884310172132544,
                -0.8954192238158127
            ]
        },
        {
            "positions": [
                -0.7825363210527907,
                -1.8824436658806678,
                -0.9713651717280225,
                0.982128890858356,
                0.473946908938794,
                -0.8028808262345943
            ]
        },
        {
            "positions": [
                -0.6925465402897959,
                -1.927360234162716,
                -1.0713569134157601,
                1.0354242169412984,
                0.4594628006643336,
                -0.7103424286533757
            ]
        },
        {
            "positions": [
                -0.6025567595268009,
                -1.9722768024447643,
                -1.1713486551034977,
                1.088719543024241,
                0.44497869238987314,
                -0.6178040310721569
            ]
        },
        {
            "positions": [
                -0.5125669787638061,
                -2.0171933707268126,
                -1.2713403967912353,
                1.1420148691071834,
                0.43049458411541275,
                -0.5252656334909385
            ]
        },
        {
            "positions": [
                -0.4225771980008113,
                -2.062109939008861,
                -1.371332138478973,
                1.195310195190126,
                0.41601047584095235,
                -0.43272723590972006
            ]
        },
        {
            "positions": [
                -0.3325874172378165,
                -2.107026507290909,
                -1.4713238801667106,
                1.2486055212730687,
                0.40152636756649196,
                -0.3401888383285012
            ]
        },
        {
            "positions": [
                -0.2425976364748217,
                -2.151943075572957,
                -1.5713156218544482,
                1.3019008473560112,
                0.38704225929203157,
                -0.24765044074728237
            ]
        },
        {
            "positions": [
                -0.1526078557118269,
                -2.1968596438550057,
                -1.6713073635421858,
                1.355196173438954,
                0.3725581510175711,
                -0.15511204316606353
            ]
        },
        {
            "positions": [
                -0.06261807494883229,
                -2.2417762121370535,
                -1.7712991052299234,
                1.4084914995218965,
                0.3580740427431107,
                -0.06257364558484507
            ]
        },
        {
            "positions": [
                -0.05764929656599023,
                -2.2131280702590086,
                -1.9050758018573497,
                1.4575028349334462,
                0.3496889498814453,
                -0.042491786237387
            ]
        },
        {
            "positions": [
                -0.05268051818314817,
                -2.184479928380964,
                -2.038852498484776,
                1.5065141703449962,
                0.3413038570197799,
                -0.022409926889928933
            ]
        },
        {
            "positions": [
                -0.11892045077812381,
                -2.2326420454842015,
                -2.207763408676534,
                1.5115922847962406,
                0.2599463958698616,
                -0.007021045006587737
            ]
        },
        {
            "positions": [
                -0.18516038337309945,
                -2.2808041625874393,
                -2.3766743188682917,
                1.516670399247485,
                0.17858893471994336,
                0.008367836876753456
            ]
        }
    ]
}