{
    "goal": {
        "global_pose": {
            "orientation": {
                "w": 0.7047431468963623,
                "x": -0.7094548344612122,
                "y": 0.0024358443915843964,
                "z": -0.0022348060738295317
            },
            "position": {
                "x": 0.6094750761985779,
                "y": 0.3671506643295288,
                "z": 0.19426114857196808
            }
        },
        "name": "move_to_magneteinheit_A"
    },
    "id": "LBTRRT_move_to_magneteinheit_A_96",
    "joint_names": [
        "shoulder_pan_joint",
        "shoulder_lift_joint",
        "elbow_joint",
        "wrist_1_joint",
        "wrist_2_joint",
        "wrist_3_joint"
    ],
    "metrics": {
        "cart_traj_len": 3.55114230623158,
        "distance_elbow_joint": 3.9014422713831616,
        "distance_shoulder_lift_joint": 1.2232686362911855,
        "distance_shoulder_pan_joint": 2.576473146564151,
        "distance_wrist_1_joint": 0.7149332486223662,
        "distance_wrist_2_joint": 1.7462071988187724,
        "distance_wrist_3_joint": 2.687468241798745,
        "smoothness": 0.06651139798126611,
        "time": 5.031418389000001,
        "traj_len": 3.5846607570979967,
        "weighted_distance": 4.54817212454817
    },
    "planner": "LBTRRT",
    "start": {
        "state": {
            "elbow_joint": -1.9196185241190666,
            "shoulder_lift_joint": -1.2443396400964142,
            "shoulder_pan_joint": 2.6996025414629847,
            "wrist_1_joint": -1.5485510000780065,
            "wrist_2_joint": -1.5709468930060704,
            "wrist_3_joint": 0.4420197071253992
        }
    },
    "waypoints": [
        {
            "positions": [
                2.6996025414629847,
                -1.2443396400964142,
                -1.9196185241190666,
                -1.5485510000780065,
                -1.5709468930060704,
                0.4420197071253992
            ]
        },
        {
            "positions": [
                2.591542597723222,
                -1.207603426436343,
                -1.895658553858262,
                -1.5320936465623023,
                -1.4835365651122112,
                0.5459586611003743
            ]
        },
        {
            "positions": [
                2.48348265398346,
                -1.170867212776272,
                -1.8716985835974573,
                -1.515636293046598,
                -1.3961262372183523,
                0.6498976150753494
            ]
        },
        {
            "positions": [
                2.375422710243697,
                -1.1341309991162007,
                -1.8477386133366527,
                -1.4991789395308939,
                -1.308715909324493,
                0.7538365690503246
            ]
        },
        {
            "positions": [
                2.2673627665039344,
                -1.0973947854561297,
                -1.823778643075848,
                -1.4827215860151897,
                -1.221305581430634,
                0.8577755230252997
            ]
        },
        {
            "positions": [
                2.1593028227641717,
                -1.0606585717960586,
                -1.7998186728150434,
                -1.4662642324994855,
                -1.1338952535367748,
                0.9617144770002748
            ]
        },
        {
            "positions": [
                2.051242879024409,
                -1.0239223581359875,
                -1.7758587025542387,
                -1.4498068789837812,
                -1.0464849256429158,
                1.06565343097525
            ]
        },
        {
            "positions": [
                1.9431829352846468,
                -0.9871861444759163,
                -1.751898732293434,
                -1.433349525468077,
                -0.9590745977490567,
                1.1695923849502252
            ]
        },
        {
            "positions": [
                1.8351229915448841,
                -0.9504499308158452,
                -1.7279387620326294,
                -1.4168921719523728,
                -0.8716642698551976,
                1.2735313389252
            ]
        },
        {
            "positions": [
                1.7270630478051214,
                -0.9137137171557741,
                -1.7039787917718248,
                -1.4004348184366684,
                -0.7842539419613385,
                1.3774702929001754
            ]
        },
        {
            "positions": [
                1.619003104065359,
                -0.876977503495703,
                -1.68001882151102,
                -1.3839774649209642,
                -0.6968436140674793,
                1.4814092468751503
            ]
        },
        {
            "positions": [
                1.5109431603255963,
                -0.8402412898356318,
                -1.6560588512502155,
                -1.36752011140526,
                -0.6094332861736201,
                1.5853482008501256
            ]
        },
        {
            "positions": [
                1.4028832165858338,
                -0.8035050761755608,
                -1.632098880989411,
                -1.3510627578895558,
                -0.5220229582797613,
                1.6892871548251005
            ]
        },
        {
            "positions": [
                1.2948232728460713,
                -0.7667688625154896,
                -1.6081389107286064,
                -1.3346054043738516,
                -0.43461263038590214,
                1.7932261088000758
            ]
        },
        {
            "positions": [
                1.1867633291063087,
                -0.7300326488554185,
                -1.5841789404678017,
                -1.3181480508581473,
                -0.347202302492043,
                1.8971650627750511
            ]
        },
        {
            "positions": [
                1.078703385366546,
                -0.6932964351953473,
                -1.560218970206997,
                -1.3016906973424431,
                -0.2597919745981838,
                2.001104016750026
            ]
        },
        {
            "positions": [
                0.9706434416267835,
                -0.6565602215352763,
                -1.5362589999461924,
                -1.285233343826739,
                -0.17238164670432488,
                2.105042970725001
            ]
        },
        {
            "positions": [
                0.862583497887021,
                -0.6198240078752052,
                -1.5122990296853878,
                -1.2687759903110347,
                -0.08497131881046571,
                2.2089819246999762
            ]
        },
        {
            "positions": [
                0.7545235541472584,
                -0.583087794215134,
                -1.488339059424583,
                -1.2523186367953305,
                0.0024390090833935063,
                2.3129208786749516
            ]
        },
        {
            "positions": [
                0.7090711395193315,
                -0.6066518297155956,
                -1.2440982933445728,
                -1.2313016759933932,
                0.00044598801182530855,
                2.371776400459741
            ]
        },
        {
            "positions": [
                0.6636187248914047,
                -0.6302158652160571,
                -0.9998575272645622,
                -1.210284715191456,
                -0.0015470330597428892,
                2.4306319222445305
            ]
        },
        {
            "positions": [
                0.6181663102634778,
                -0.6537799007165187,
                -0.7556167611845518,
                -1.1892677543895187,
                -0.003540054131311087,
                2.4894874440293204
            ]
        },
        {
            "positions": [
                0.572713895635551,
                -0.6773439362169802,
                -0.5113759951045413,
                -1.1682507935875814,
                -0.005533075202879285,
                2.54834296581411
            ]
        },
        {
            "positions": [
                0.5272614810076242,
                -0.7009079717174418,
                -0.267135229024531,
                -1.1472338327856442,
                -0.007526096274447483,
                2.6071984875988994
            ]
        },
        {
            "positions": [
                0.4818090663796973,
                -0.7244720072179033,
                -0.022894462944520466,
                -1.126216871983707,
                -0.00951911734601568,
                2.666054009383689
            ]
        },
        {
            "positions": [
                0.43635665175177046,
                -0.7480360427183649,
                0.22134630313548964,
                -1.1051999111817699,
                -0.011512138417583877,
                2.724909531168479
            ]
        },
        {
            "positions": [
                0.3909042371238436,
                -0.7716000782188264,
                0.4655870692155004,
                -1.0841829503798326,
                -0.013505159489152076,
                2.7837650529532683
            ]
        },
        {
            "positions": [
                0.34545182249591677,
                -0.795164113719288,
                0.7098278352955105,
                -1.0631659895778953,
                -0.015498180560720273,
                2.8426205747380577
            ]
        },
        {
            "positions": [
                0.2999994078679899,
                -0.8187281492197496,
                0.9540686013755211,
                -1.042149028775958,
                -0.017491201632288473,
                2.901476096522847
            ]
        },
        {
            "positions": [
                0.2545469932400631,
                -0.8422921847202111,
                1.1983093674555316,
                -1.0211320679740208,
                -0.019484222703856666,
                2.960331618307637
            ]
        },
        {
            "positions": [
                0.2090945786121362,
                -0.8658562202206725,
                1.4425501335355422,
                -1.0001151071720835,
                -0.021477243775424867,
                3.0191871400924266
            ]
        },
        {
            "positions": [
                0.16364216398420942,
                -0.8894202557211341,
                1.686790899615552,
                -0.9790981463701462,
                -0.023470264846993064,
                3.078042661877216
            ]
        },
        {
            "positions": [
                0.15013790762241708,
                -0.9746483653557693,
                1.7851351821650663,
                -0.9306046813986443,
                0.025500409419314245,
                3.095191090892859
            ]
        },
        {
            "positions": [
                0.13663365126062477,
                -1.0598764749904044,
                1.8834794647145803,
                -0.8821112164271423,
                0.07447108368562155,
                3.1123395199085016
            ]
        },
        {
            "positions": [
                0.12312939489883243,
                -1.1451045846250394,
                1.9818237472640945,
                -0.8336177514556403,
                0.12344175795192887,
                3.1294879489241443
            ]
        }
    ]
}