{
    "goal": {
        "global_pose": {
            "orientation": {
                "w": 0.5084816262002911,
                "x": -0.4908360881923452,
                "y": 0.5182115481033761,
                "z": -0.48164630358495003
            },
            "position": {
                "x": 0.5540239810943604,
                "y": -0.46912469901144505,
                "z": 0.16403168439865112
            }
        },
        "name": "move_to_storage_B"
    },
    "id": "LBTRRT_move_to_storage_B_45",
    "joint_names": [
        "shoulder_pan_joint",
        "shoulder_lift_joint",
        "elbow_joint",
        "wrist_1_joint",
        "wrist_2_joint",
        "wrist_3_joint"
    ],
    "metrics": {
        "cart_traj_len": 2.448784156243664,
        "distance_elbow_joint": 0.35612597111014566,
        "distance_shoulder_lift_joint": 1.8679639033806337,
        "distance_shoulder_pan_joint": 2.2855283351125095,
        "distance_wrist_1_joint": 3.017013617710205,
        "distance_wrist_2_joint": 2.7015006179180006,
        "distance_wrist_3_joint": 3.1634399024899174,
        "smoothness": 0.24866852740209047,
        "time": 5.021504997,
        "traj_len": 3.659449732913599,
        "weighted_distance": 5.043507349883557
    },
    "planner": "LBTRRT",
    "start": {
        "state": {
            "elbow_joint": 1.664937868594044,
            "shoulder_lift_joint": -0.661644460510453,
            "shoulder_pan_joint": -0.9139846352900073,
            "wrist_1_joint": 2.146753192139373,
            "wrist_2_joint": -2.2341966793290973,
            "wrist_3_joint": 0.005466555786416001
        }
    },
    "waypoints": [
        {
            "positions": [
                -0.9139846352900073,
                -0.661644460510453,
                1.664937868594044,
                2.146753192139373,
                -2.2341966793290973,
                0.005466555786416001
            ]
        },
        {
            "positions": [
                -0.848240531026081,
                -0.7344356491544863,
                1.6731539818658945,
                2.061212248933237,
                -2.093070631568908,
                0.007222328854980119
            ]
        },
        {
            "positions": [
                -0.7824964267621548,
                -0.8072268377985198,
                1.681370095137745,
                1.9756713057271003,
                -1.9519445838087186,
                0.008978101923544236
            ]
        },
        {
            "positions": [
                -0.7167523224982286,
                -0.8800180264425532,
                1.6895862084095956,
                1.890130362520964,
                -1.8108185360485292,
                0.010733874992108355
            ]
        },
        {
            "positions": [
                -0.6510082182343023,
                -0.9528092150865866,
                1.6978023216814462,
                1.8045894193148273,
                -1.66969248828834,
                0.012489648060672473
            ]
        },
        {
            "positions": [
                -0.585264113970376,
                -1.02560040373062,
                1.706018434953297,
                1.719048476108691,
                -1.5285664405281505,
                0.014245421129236591
            ]
        },
        {
            "positions": [
                -0.5195200097064498,
                -1.0983915923746532,
                1.7142345482251475,
                1.6335075329025546,
                -1.387440392767961,
                0.01600119419780071
            ]
        },
        {
            "positions": [
                -0.4537759054425236,
                -1.1711827810186868,
                1.722450661496998,
                1.547966589696418,
                -1.2463143450077716,
                0.017756967266364828
            ]
        },
        {
            "positions": [
                -0.38803180117859737,
                -1.2439739696627201,
                1.7306667747688487,
                1.4624256464902816,
                -1.1051882972475824,
                0.019512740334928946
            ]
        },
        {
            "positions": [
                -0.3222876969146712,
                -1.3167651583067534,
                1.7388828880406992,
                1.3768847032841451,
                -0.9640622494873929,
                0.021268513403493065
            ]
        },
        {
            "positions": [
                -0.2565435926507449,
                -1.389556346950787,
                1.7470990013125498,
                1.2913437600780087,
                -0.8229362017272037,
                0.023024286472057183
            ]
        },
        {
            "positions": [
                -0.1907994883868186,
                -1.4623475355948203,
                1.7553151145844004,
                1.2058028168718722,
                -0.6818101539670143,
                0.0247800595406213
            ]
        },
        {
            "positions": [
                -0.1250553841228924,
                -1.5351387242388537,
                1.7635312278562512,
                1.120261873665736,
                -0.5406841062068248,
                0.02653583260918542
            ]
        },
        {
            "positions": [
                -0.059311279858966226,
                -1.607929912882887,
                1.7717473411281017,
                1.0347209304595995,
                -0.3995580584466356,
                0.028291605677749538
            ]
        },
        {
            "positions": [
                0.006432824404960069,
                -1.6807211015269206,
                1.7799634543999523,
                0.949179987253463,
                -0.25843201068644617,
                0.030047378746313656
            ]
        },
        {
            "positions": [
                0.07217692866888636,
                -1.753512290170954,
                1.7881795676718029,
                0.8636390440473265,
                -0.11730596292625695,
                0.03180315181487778
            ]
        },
        {
            "positions": [
                0.13792103293281258,
                -1.8263034788149872,
                1.7963956809436534,
                0.7780981008411901,
                0.02382008483393261,
                0.03355892488344189
            ]
        },
        {
            "positions": [
                0.07299352414914467,
                -1.7892874322320347,
                1.8082203208784184,
                0.691342388924768,
                0.04716134029472071,
                0.19857721611464668
            ]
        },
        {
            "positions": [
                0.00806601536547677,
                -1.752271385649082,
                1.8200449608131835,
                0.6045866770083457,
                0.07050259575550881,
                0.36359550734585144
            ]
        },
        {
            "positions": [
                -0.05686149341819116,
                -1.7152553390661294,
                1.8318696007479487,
                0.5178309650919235,
                0.09384385121629692,
                0.5286137985770563
            ]
        },
        {
            "positions": [
                -0.12178900220185904,
                -1.6782392924831768,
                1.8436942406827137,
                0.43107525317550127,
                0.11718510667708501,
                0.6936320898082611
            ]
        },
        {
            "positions": [
                -0.18671651098552697,
                -1.6412232459002243,
                1.8555188806174787,
                0.34431954125907904,
                0.14052636213787312,
                0.8586503810394659
            ]
        },
        {
            "positions": [
                -0.2516440197691949,
                -1.6042071993172717,
                1.8673435205522437,
                0.25756382934265687,
                0.16386761759866122,
                1.0236686722706705
            ]
        },
        {
            "positions": [
                -0.31657152855286275,
                -1.567191152734319,
                1.8791681604870087,
                0.17080811742623458,
                0.18720887305944933,
                1.1886869635018753
            ]
        },
        {
            "positions": [
                -0.3814990373365307,
                -1.5301751061513664,
                1.890992800421774,
                0.08405240550981241,
                0.2105501285202374,
                1.3537052547330801
            ]
        },
        {
            "positions": [
                -0.4464265461201986,
                -1.4931590595684139,
                1.902817440356539,
                -0.0027033064066097623,
                0.23389138398102552,
                1.518723545964285
            ]
        },
        {
            "positions": [
                -0.5113540549038665,
                -1.4561430129854611,
                1.914642080291304,
                -0.08945901832303205,
                0.2572326394418136,
                1.6837418371954898
            ]
        },
        {
            "positions": [
                -0.5762815636875346,
                -1.4191269664025086,
                1.926466720226069,
                -0.17621473023945433,
                0.28057389490260176,
                1.8487601284266946
            ]
        },
        {
            "positions": [
                -0.6412090724712024,
                -1.382110919819556,
                1.938291360160834,
                -0.2629704421558764,
                0.30391515036338984,
                2.0137784196578994
            ]
        },
        {
            "positions": [
                -0.7061365812548703,
                -1.3450948732366035,
                1.9501160000955993,
                -0.3497261540722988,
                0.327256405824178,
                2.178796710889104
            ]
        },
        {
            "positions": [
                -0.7710640900385382,
                -1.308078826653651,
                1.9619406400303643,
                -0.43648186598872096,
                0.35059766128496606,
                2.343815002120309
            ]
        },
        {
            "positions": [
                -0.8359915988222062,
                -1.2710627800706982,
                1.9737652799651293,
                -0.5232375779051431,
                0.37393891674575414,
                2.508833293351514
            ]
        },
        {
            "positions": [
                -0.9009191076058739,
                -1.2340467334877456,
                1.9855899198998943,
                -0.6099932898215653,
                0.3972801722065422,
                2.6738515845827187
            ]
        },
        {
            "positions": [
                -0.965846616389542,
                -1.1970306869047929,
                1.9974145598346595,
                -0.6967490017379877,
                0.42062142766733035,
                2.8388698758139235
            ]
        },
        {
            "positions": [
                -1.0307741251732097,
                -1.1600146403218403,
                2.0092391997694246,
                -0.7835047136544097,
                0.44396268312811843,
                3.0038881670451283
            ]
        },
        {
            "positions": [
                -1.0957016339568777,
                -1.1229985937388878,
                2.0210638397041896,
                -0.870260425570832,
                0.46730393858890656,
                3.168906458276333
            ]
        }
    ]
}