{
    "goal": {
        "global_pose": {
            "orientation": {
                "w": 0.7047431493862688,
                "x": -0.7094548369677653,
                "y": 0.0024358444001904,
                "z": -0.0022348060817251984
            },
            "position": {
                "x": -0.39052492380142206,
                "y": 0.3671506643295288,
                "z": 0.19426114857196808
            }
        },
        "name": "move_to_magneteinheit_D"
    },
    "id": "LBTRRT_move_to_magneteinheit_D_146",
    "joint_names": [
        "shoulder_pan_joint",
        "shoulder_lift_joint",
        "elbow_joint",
        "wrist_1_joint",
        "wrist_2_joint",
        "wrist_3_joint"
    ],
    "metrics": {
        "cart_traj_len": 4.496761747442972,
        "distance_elbow_joint": 3.4853182292302938,
        "distance_shoulder_lift_joint": 1.1640381504870538,
        "distance_shoulder_pan_joint": 3.0264733995998765,
        "distance_wrist_1_joint": 2.1848563974377697,
        "distance_wrist_2_joint": 0.935201519280647,
        "distance_wrist_3_joint": 6.299458895326568,
        "smoothness": 0.28774587606604474,
        "time": 5.077365018,
        "traj_len": 4.134651931101602,
        "weighted_distance": 5.728378679760422
    },
    "planner": "LBTRRT",
    "start": {
        "state": {
            "elbow_joint": 0.749534889911806,
            "shoulder_lift_joint": -0.6476975780787326,
            "shoulder_pan_joint": -2.711696901376241,
            "wrist_1_joint": -0.07506478083263063,
            "wrist_2_joint": 0.43296659715538205,
            "wrist_3_joint": -3.14703540197715
        }
    },
    "waypoints": [
        {
            "positions": [
                -2.711696901376241,
                -0.6476975780787326,
                0.749534889911806,
                -0.07506478083263063,
                0.43296659715538205,
                -3.14703540197715
            ]
        },
        {
            "positions": [
                -2.727223571877233,
                -0.709335534437652,
                0.8057699633441848,
                -0.061250137642443435,
                0.4246436851841452,
                -3.089629855379869
            ]
        },
        {
            "positions": [
                -2.742750242378225,
                -0.7709734907965713,
                0.8620050367765636,
                -0.04743549445225624,
                0.4163207732129083,
                -3.032224308782588
            ]
        },
        {
            "positions": [
                -2.738595327559201,
                -0.8318317231822154,
                0.8994947997688107,
                -0.043557732570556076,
                0.39975993995464193,
                -2.9350897516719505
            ]
        },
        {
            "positions": [
                -2.734440412740178,
                -0.8926899555678597,
                0.9369845627610578,
                -0.03967997068885592,
                0.3831991066963756,
                -2.837955194561313
            ]
        },
        {
            "positions": [
                -2.6639996162467816,
                -0.9158039531466872,
                0.8635082102002832,
                -0.08718060300090488,
                0.36428887663108983,
                -2.678998102005609
            ]
        },
        {
            "positions": [
                -2.593558819753386,
                -0.9389179507255145,
                0.7900318576395087,
                -0.13468123531295384,
                0.345378646565804,
                -2.520041009449905
            ]
        },
        {
            "positions": [
                -2.5231180232599897,
                -0.962031948304342,
                0.716555505078734,
                -0.1821818676250028,
                0.3264684165005183,
                -2.361083916894201
            ]
        },
        {
            "positions": [
                -2.452677226766594,
                -0.9851459458831694,
                0.6430791525179596,
                -0.22968249993705175,
                0.30755818643523253,
                -2.202126824338497
            ]
        },
        {
            "positions": [
                -2.3822364302731978,
                -1.0082599434619968,
                0.5696027999571849,
                -0.27718313224910074,
                0.2886479563699467,
                -2.0431697317827933
            ]
        },
        {
            "positions": [
                -2.311795633779802,
                -1.0313739410408242,
                0.4961264473964103,
                -0.32468376456114967,
                0.269737726304661,
                -1.8842126392270893
            ]
        },
        {
            "positions": [
                -2.241354837286406,
                -1.0544879386196517,
                0.42265009483563565,
                -0.37218439687319865,
                0.25082749623937517,
                -1.725255546671385
            ]
        },
        {
            "positions": [
                -2.17091404079301,
                -1.0776019361984792,
                0.3491737422748612,
                -0.4196850291852476,
                0.23191726617408945,
                -1.5662984541156812
            ]
        },
        {
            "positions": [
                -2.100473244299614,
                -1.1007159337773067,
                0.2756973897140865,
                -0.46718566149729657,
                0.21300703610880367,
                -1.4073413615599772
            ]
        },
        {
            "positions": [
                -2.0300324478062177,
                -1.1238299313561342,
                0.20222103715331186,
                -0.5146862938093455,
                0.1940968060435179,
                -1.2483842690042732
            ]
        },
        {
            "positions": [
                -1.959591651312822,
                -1.1469439289349614,
                0.1287446845925373,
                -0.5621869261213944,
                0.17518657597823212,
                -1.0894271764485692
            ]
        },
        {
            "positions": [
                -1.889150854819426,
                -1.170057926513789,
                0.055268332031762846,
                -0.6096875584334434,
                0.15627634591294637,
                -0.9304700838928655
            ]
        },
        {
            "positions": [
                -1.81871005832603,
                -1.1931719240926164,
                -0.018208020529011826,
                -0.6571881907454924,
                0.1373661158476606,
                -0.7715129913371617
            ]
        },
        {
            "positions": [
                -1.7482692618326339,
                -1.2162859216714437,
                -0.0916843730897865,
                -0.7046888230575413,
                0.11845588578237481,
                -0.6125558987814572
            ]
        },
        {
            "positions": [
                -1.677828465339238,
                -1.2393999192502712,
                -0.16516072565056095,
                -0.7521894553695903,
                0.09954565571708907,
                -0.4535988062257532
            ]
        },
        {
            "positions": [
                -1.6073876688458422,
                -1.2625139168290986,
                -0.2386370782113354,
                -0.7996900876816392,
                0.08063542565180332,
                -0.29464171367004965
            ]
        },
        {
            "positions": [
                -1.536946872352446,
                -1.2856279144079261,
                -0.31211343077211007,
                -0.8471907199936882,
                0.06172519558651751,
                -0.13568462111434565
            ]
        },
        {
            "positions": [
                -1.46650607585905,
                -1.3087419119867536,
                -0.38558978333288474,
                -0.8946913523057372,
                0.04281496552123176,
                0.023272471441358356
            ]
        },
        {
            "positions": [
                -1.396065279365654,
                -1.331855909565581,
                -0.4590661358936594,
                -0.9421919846177861,
                0.023904735455946013,
                0.18222956399706236
            ]
        },
        {
            "positions": [
                -1.3256244828722579,
                -1.3549699071444086,
                -0.5325424884544341,
                -0.9896926169298351,
                0.004994505390660209,
                0.34118665655276637
            ]
        },
        {
            "positions": [
                -1.255183686378862,
                -1.3780839047232358,
                -0.6060188410152085,
                -1.037193249241884,
                -0.01391572467462554,
                0.5001437491084704
            ]
        },
        {
            "positions": [
                -1.184742889885466,
                -1.4011979023020633,
                -0.6794951935759832,
                -1.084693881553933,
                -0.032825954739911345,
                0.6591008416641744
            ]
        },
        {
            "positions": [
                -1.1143020933920702,
                -1.4243118998808906,
                -0.7529715461367574,
                -1.132194513865982,
                -0.05173618480519704,
                0.8180579342198779
            ]
        },
        {
            "positions": [
                -1.0438612968986742,
                -1.447425897459718,
                -0.8264478986975321,
                -1.179695146178031,
                -0.07064641487048284,
                0.9770150267755819
            ]
        },
        {
            "positions": [
                -0.9734205004052783,
                -1.4705398950385455,
                -0.8999242512583068,
                -1.22719577849008,
                -0.08955664493576859,
                1.135972119331286
            ]
        },
        {
            "positions": [
                -0.9029797039118821,
                -1.493653892617373,
                -0.9734006038190814,
                -1.274696410802129,
                -0.1084668750010544,
                1.2949292118869895
            ]
        },
        {
            "positions": [
                -0.8325389074184861,
                -1.5167678901962005,
                -1.0468769563798561,
                -1.3221970431141779,
                -0.12737710506634015,
                1.453886304442694
            ]
        },
        {
            "positions": [
                -0.7620981109250902,
                -1.539881887775028,
                -1.1203533089406308,
                -1.369697675426227,
                -0.14628733513162595,
                1.6128433969983984
            ]
        },
        {
            "positions": [
                -0.6916573144316942,
                -1.5629958853538555,
                -1.1938296615014055,
                -1.417198307738276,
                -0.16519756519691164,
                1.771800489554102
            ]
        },
        {
            "positions": [
                -0.621216517938298,
                -1.586109882932683,
                -1.2673060140621797,
                -1.4646989400503247,
                -0.18410779526219745,
                1.9307575821098064
            ]
        },
        {
            "positions": [
                -0.5507757214449018,
                -1.6092238805115102,
                -1.3407823666229544,
                -1.5121995723623738,
                -0.20301802532748325,
                2.08971467466551
            ]
        },
        {
            "positions": [
                -0.48033492495150654,
                -1.6323378780903375,
                -1.4142587191837286,
                -1.5597002046744226,
                -0.22192825539276895,
                2.2486717672212135
            ]
        },
        {
            "positions": [
                -0.40989412845811035,
                -1.655451875669165,
                -1.4877350717445033,
                -1.6072008369864716,
                -0.24083848545805475,
                2.407628859776917
            ]
        },
        {
            "positions": [
                -0.33945333196471417,
                -1.6785658732479924,
                -1.561211424305278,
                -1.6547014692985207,
                -0.25974871552334056,
                2.5665859523326215
            ]
        },
        {
            "positions": [
                -0.2690125354713184,
                -1.70167987082682,
                -1.6346877768660526,
                -1.7022021016105695,
                -0.27865894558862625,
                2.725543044888325
            ]
        },
        {
            "positions": [
                -0.1985717389779222,
                -1.7247938684056474,
                -1.7081641294268273,
                -1.7497027339226185,
                -0.297569175653912,
                2.884500137444029
            ]
        },
        {
            "positions": [
                -0.1408400679314904,
                -1.7164617840260923,
                -1.829036318265753,
                -1.8239144328572554,
                -0.3098061362681286,
                2.949559834939112
            ]
        },
        {
            "positions": [
                -0.0831083968850586,
                -1.7081296996465372,
                -1.9499085071046784,
                -1.898126131791892,
                -0.32204309688234517,
                3.0146195324341942
            ]
        },
        {
            "positions": [
                -0.025376725838626796,
                -1.6997976152669823,
                -2.070780695943604,
                -1.972337830726529,
                -0.33428005749656176,
                3.079679229929277
            ]
        },
        {
            "positions": [
                0.03235494520780502,
                -1.6914655308874271,
                -2.19165288478253,
                -2.0465495296611658,
                -0.34651701811077834,
                3.14473892742436
            ]
        },
        {
            "positions": [
                -0.07780249029812626,
                -1.7182722922083866,
                -2.276268439201257,
                -2.1178505438220085,
                -0.26865806610353493,
                3.1485812103868884
            ]
        },
        {
            "positions": [
                -0.18795992580405754,
                -1.745079053529346,
                -2.3608839936199844,
                -2.189151557982851,
                -0.19079911409629155,
                3.1524234933494166
            ]
        }
    ]
}