{
    "goal": {
        "global_pose": {
            "orientation": {
                "w": 0.5084816217422485,
                "x": -0.49083608388900757,
                "y": 0.5182115435600281,
                "z": -0.4816462993621826
            },
            "position": {
                "x": 0.5540239810943604,
                "y": 0.030875300988554955,
                "z": 0.16403168439865112
            }
        },
        "name": "move_to_storage_A"
    },
    "id": "LBTRRT_move_to_storage_A_40",
    "joint_names": [
        "shoulder_pan_joint",
        "shoulder_lift_joint",
        "elbow_joint",
        "wrist_1_joint",
        "wrist_2_joint",
        "wrist_3_joint"
    ],
    "metrics": {
        "cart_traj_len": 0.35243959440424905,
        "distance_elbow_joint": 0.45119182701791893,
        "distance_shoulder_lift_joint": 0.23492409951742732,
        "distance_shoulder_pan_joint": 0.4605960993362869,
        "distance_wrist_1_joint": 0.2497232074237984,
        "distance_wrist_2_joint": 1.0989103074182112,
        "distance_wrist_3_joint": 0.0990467092583951,
        "smoothness": 6.661338165333112e-16,
        "time": 5.004164105,
        "traj_len": 1.6107117215603908,
        "weighted_distance": 2.0349740006523027
    },
    "planner": "LBTRRT",
    "start": {
        "state": {
            "elbow_joint": 1.971548259319323,
            "shoulder_lift_joint": -1.1394851275133948,
            "shoulder_pan_joint": 0.1228115487234821,
            "wrist_1_joint": -0.7804723859257726,
            "wrist_2_joint": 0.12958671773740124,
            "wrist_3_joint": -3.192489227718131
        }
    },
    "waypoints": [
        {
            "positions": [
                0.1228115487234821,
                -1.1394851275133948,
                1.971548259319323,
                -0.7804723859257726,
                0.12958671773740124,
                -3.192489227718131
            ]
        },
        {
            "positions": [
                0.0570121059611554,
                -1.1730457131587415,
                2.036004234607597,
                -0.816147129843458,
                0.2865739045114314,
                -3.1783396978240748
            ]
        },
        {
            "positions": [
                -0.008787336801171303,
                -1.2066062988040884,
                2.1004602098958713,
                -0.8518218737611436,
                0.4435610912854615,
                -3.1641901679300184
            ]
        },
        {
            "positions": [
                -0.07458677956349799,
                -1.2401668844494351,
                2.164916185184145,
                -0.887496617678829,
                0.6005482780594917,
                -3.150040638035962
            ]
        },
        {
            "positions": [
                -0.1403862223258247,
                -1.2737274700947818,
                2.2293721604724195,
                -0.9231713615965146,
                0.7575354648335219,
                -3.135891108141905
            ]
        },
        {
            "positions": [
                -0.20618566508815145,
                -1.3072880557401287,
                2.2938281357606938,
                -0.9588461055142,
                0.9145226516075521,
                -3.121741578247849
            ]
        },
        {
            "positions": [
                -0.2719851078504781,
                -1.3408486413854754,
                2.3582841110489676,
                -0.9945208494318856,
                1.0715098383815822,
                -3.1075920483537924
            ]
        },
        {
            "positions": [
                -0.3377845506128048,
                -1.3744092270308221,
                2.422740086337242,
                -1.030195593349571,
                1.2284970251556124,
                -3.093442518459736
            ]
        }
    ]
}{
    "goal": {
        "global_pose": {
            "orientation": {
                "w": 0.5084816217422485,
                "x": -0.49083608388900757,
                "y": 0.5182115435600281,
                "z": -0.4816462993621826
            },
            "position": {
                "x": 0.5540239810943604,
                "y": 0.030875300988554955,
                "z": 0.16403168439865112
            }
        },
        "name": "move_to_storage_A"
    },
    "id": "LBTRRT_move_to_storage_A_40",
    "joint_names": [
        "shoulder_pan_joint",
        "shoulder_lift_joint",
        "elbow_joint",
        "wrist_1_joint",
        "wrist_2_joint",
        "wrist_3_joint"
    ],
    "metrics": {
        "cart_traj_len": 0.35299591272774195,
        "distance_elbow_joint": 0.450878393620489,
        "distance_shoulder_lift_joint": 0.2355966200453139,
        "distance_shoulder_pan_joint": 0.4606237627817438,
        "distance_wrist_1_joint": 0.23972106973654572,
        "distance_wrist_2_joint": 1.1040314975952832,
        "distance_wrist_3_joint": 0.10076539163913001,
        "smoothness": 8.881784267329941e-16,
        "time": 5.003330137,
        "traj_len": 1.6098499108359468,
        "weighted_distance": 2.0339370899879365
    },
    "planner": "LBTRRT",
    "start": {
        "state": {
            "elbow_joint": 1.97154746011099,
            "shoulder_lift_joint": -1.13948474672311,
            "shoulder_pan_joint": 0.12281154466712228,
            "wrist_1_joint": -0.7804688027058302,
            "wrist_2_joint": 0.12958655903071145,
            "wrist_3_joint": 3.0906928834467795
        }
    },
    "waypoints": [
        {
            "positions": [
                0.12281154466712228,
                -1.13948474672311,
                1.97154746011099,
                -0.7804688027058302,
                0.12958655903071145,
                3.0906928834467795
            ]
        },
        {
            "positions": [
                0.05700814998401603,
                -1.1731414067295833,
                2.0359586591996313,
                -0.814714669811051,
                0.28730534440146616,
                3.1050879393952266
            ]
        },
        {
            "positions": [
                -0.008795244699090224,
                -1.2067980667360567,
                2.1003698582882726,
                -0.8489605369162718,
                0.44502412977222094,
                3.119482995343674
            ]
        },
        {
            "positions": [
                -0.07459863938219648,
                -1.24045472674253,
                2.164781057376914,
                -0.8832064040214926,
                0.6027429151429756,
                3.133878051292121
            ]
        },
        {
            "positions": [
                -0.14040203406530272,
                -1.2741113867490035,
                2.229192256465555,
                -0.9174522711267135,
                0.7604617005137304,
                3.148273107240568
            ]
        },
        {
            "positions": [
                -0.20620542874840897,
                -1.307768046755477,
                2.293603455554196,
                -0.9516981382319343,
                0.9181804858844852,
                3.1626681631890152
            ]
        },
        {
            "positions": [
                -0.2720088234315152,
                -1.3414247067619505,
                2.3580146546428375,
                -0.9859440053371551,
                1.0758992712552398,
                3.1770632191374624
            ]
        },
        {
            "positions": [
                -0.3378122181146215,
                -1.3750813667684239,
                2.422425853731479,
                -1.020189872442376,
                1.2336180566259947,
                3.1914582750859095
            ]
        }
    ]
}{
    "goal": {
        "global_pose": {
            "orientation": {
                "w": 0.5084816217422485,
                "x": -0.49083608388900757,
                "y": 0.5182115435600281,
                "z": -0.4816462993621826
            },
            "position": {
                "x": 0.5540239810943604,
                "y": 0.030875300988554955,
                "z": 0.16403168439865112
            }
        },
        "name": "move_to_storage_A"
    },
    "id": "LBTRRT_move_to_storage_A_40",
    "joint_names": [
        "shoulder_pan_joint",
        "shoulder_lift_joint",
        "elbow_joint",
        "wrist_1_joint",
        "wrist_2_joint",
        "wrist_3_joint"
    ],
    "metrics": {
        "cart_traj_len": 0.35309601206049185,
        "distance_elbow_joint": 0.45385202177893325,
        "distance_shoulder_lift_joint": 0.23486535222740845,
        "distance_shoulder_pan_joint": 0.46097059382648375,
        "distance_wrist_1_joint": 0.2586689945872589,
        "distance_wrist_2_joint": 1.1027094880226975,
        "distance_wrist_3_joint": 0.09183026753112289,
        "smoothness": 2.2204460668324854e-16,
        "time": 5.004490004,
        "traj_len": 1.6133495337260009,
        "weighted_distance": 2.0366481619676255
    },
    "planner": "LBTRRT",
    "start": {
        "state": {
            "elbow_joint": 1.9715472970024885,
            "shoulder_lift_joint": -1.1394870060712896,
            "shoulder_pan_joint": 0.12281152778156021,
            "wrist_1_joint": -0.780463741449964,
            "wrist_2_joint": 0.12958659822042276,
            "wrist_3_joint": 3.090690232415272
        }
    },
    "waypoints": [
        {
            "positions": [
                0.12281152778156021,
                -1.1394870060712896,
                1.9715472970024885,
                -0.780463741449964,
                0.12958659822042276,
                3.090690232415272
            ]
        },
        {
            "positions": [
                0.056958585806348244,
                -1.1730391992466336,
                2.036383300113765,
                -0.8174164549624295,
                0.2871165250808081,
                3.103808842062575
            ]
        },
        {
            "positions": [
                -0.00889435616886372,
                -1.2065913924219778,
                2.101219303225041,
                -0.8543691684748951,
                0.44464645194119345,
                3.1169274517098784
            ]
        },
        {
            "positions": [
                -0.07474729814407569,
                -1.2401435855973217,
                2.1660553063363173,
                -0.8913218819873606,
                0.6021763788015788,
                3.1300460613571817
            ]
        },
        {
            "positions": [
                -0.14060024011928765,
                -1.273695778772666,
                2.230891309447593,
                -0.9282745954998262,
                0.7597063056619642,
                3.143164671004485
            ]
        },
        {
            "positions": [
                -0.20645318209449962,
                -1.30724797194801,
                2.2957273125588693,
                -0.9652273090122918,
                0.9172362325223495,
                3.156283280651788
            ]
        },
        {
            "positions": [
                -0.27230612406971155,
                -1.3408001651233539,
                2.3605633156701455,
                -1.0021800225247572,
                1.074766159382735,
                3.1694018902990915
            ]
        },
        {
            "positions": [
                -0.3381590660449235,
                -1.374352358298698,
                2.425399318781422,
                -1.039132736037223,
                1.2322960862431203,
                3.1825204999463947
            ]
        }
    ]
}