{
    "goal": {
        "global_pose": {
            "orientation": {
                "w": 0.7047431493862688,
                "x": -0.7094548369677653,
                "y": 0.0024358444001904,
                "z": -0.0022348060817251984
            },
            "position": {
                "x": -0.39052492380142206,
                "y": 0.3671506643295288,
                "z": 0.19426114857196808
            }
        },
        "name": "move_to_magneteinheit_D"
    },
    "id": "LBTRRT_move_to_magneteinheit_D_118",
    "joint_names": [
        "shoulder_pan_joint",
        "shoulder_lift_joint",
        "elbow_joint",
        "wrist_1_joint",
        "wrist_2_joint",
        "wrist_3_joint"
    ],
    "metrics": {
        "cart_traj_len": 4.311431738605088,
        "distance_elbow_joint": 3.1422213221750797,
        "distance_shoulder_lift_joint": 1.6291366036165862,
        "distance_shoulder_pan_joint": 4.910980618681523,
        "distance_wrist_1_joint": 1.6561707340613203,
        "distance_wrist_2_joint": 2.0763145559636977,
        "distance_wrist_3_joint": 4.441656267740368,
        "smoothness": 0.4578951470522366,
        "time": 5.048247502000001,
        "traj_len": 4.225692854697153,
        "weighted_distance": 5.520170099529934
    },
    "planner": "LBTRRT",
    "start": {
        "state": {
            "elbow_joint": 0.749534889911806,
            "shoulder_lift_joint": -0.6476975780787326,
            "shoulder_pan_joint": -2.711696901376241,
            "wrist_1_joint": -0.07506478083263063,
            "wrist_2_joint": 0.43296659715538205,
            "wrist_3_joint": -3.14703540197715
        }
    },
    "waypoints": [
        {
            "positions": [
                -2.711696901376241,
                -0.6476975780787326,
                0.749534889911806,
                -0.07506478083263063,
                0.43296659715538205,
                -3.14703540197715
            ]
        },
        {
            "positions": [
                -2.7120912035645413,
                -0.701858228244233,
                0.623429957437821,
                -0.10650040994424485,
                0.4379659232573182,
                -3.0649677722657787
            ]
        },
        {
            "positions": [
                -2.7124855057528414,
                -0.7560188784097335,
                0.4973250249638362,
                -0.13793603905585908,
                0.4429652493592544,
                -2.9829001425544073
            ]
        },
        {
            "positions": [
                -2.599828999881402,
                -0.7741154189439279,
                0.410004026254934,
                -0.10689172849720176,
                0.4077752984273032,
                -2.8718571273287523
            ]
        },
        {
            "positions": [
                -2.487172494009963,
                -0.7922119594781223,
                0.32268302754603184,
                -0.07584741793854444,
                0.372585347495352,
                -2.760814112103097
            ]
        },
        {
            "positions": [
                -2.374515988138523,
                -0.8103085000123166,
                0.2353620288371296,
                -0.04480310737988712,
                0.3373953965634008,
                -2.649771096877442
            ]
        },
        {
            "positions": [
                -2.261859482267084,
                -0.828405040546511,
                0.14804103012822745,
                -0.013758796821229796,
                0.3022054456314496,
                -2.5387280816517865
            ]
        },
        {
            "positions": [
                -2.1492029763956446,
                -0.8465015810807054,
                0.06072003141932525,
                0.017285513737427538,
                0.26701549469949837,
                -2.4276850664261316
            ]
        },
        {
            "positions": [
                -2.036546470524205,
                -0.8645981216148998,
                -0.026600967289577004,
                0.048329824296084845,
                0.23182554376754713,
                -2.3166420512004766
            ]
        },
        {
            "positions": [
                -1.9238899646527656,
                -0.8826946621490942,
                -0.1139219659984792,
                0.07937413485474218,
                0.19663559283559592,
                -2.2055990359748217
            ]
        },
        {
            "positions": [
                -1.8112334587813264,
                -0.9007912026832885,
                -0.2012429647073813,
                0.11041844541339949,
                0.1614456419036447,
                -2.0945560207491662
            ]
        },
        {
            "positions": [
                -1.698576952909887,
                -0.9188877432174829,
                -0.2885639634162835,
                0.1414627559720568,
                0.12625569097169353,
                -1.9835130055235113
            ]
        },
        {
            "positions": [
                -1.5859204470384476,
                -0.9369842837516773,
                -0.3758849621251857,
                0.17250706653071415,
                0.09106574003974227,
                -1.872469990297856
            ]
        },
        {
            "positions": [
                -1.4732639411670083,
                -0.9550808242858717,
                -0.4632059608340879,
                0.2035513770893714,
                0.05587578910779112,
                -1.761426975072201
            ]
        },
        {
            "positions": [
                -1.3606074352955688,
                -0.9731773648200661,
                -0.5505269595429902,
                0.23459568764802877,
                0.020685838175839855,
                -1.6503839598465457
            ]
        },
        {
            "positions": [
                -1.2479509294241296,
                -0.9912739053542605,
                -0.6378479582518923,
                0.26563999820668605,
                -0.014504112756111298,
                -1.5393409446208908
            ]
        },
        {
            "positions": [
                -1.13529442355269,
                -1.009370445888455,
                -0.7251689569607946,
                0.29668430876534346,
                -0.04969406368806256,
                -1.4282979293952356
            ]
        },
        {
            "positions": [
                -1.0226379176812508,
                -1.0274669864226493,
                -0.8124899556696967,
                0.32772861932400066,
                -0.08488401462001371,
                -1.3172549141695804
            ]
        },
        {
            "positions": [
                -0.9099814118098113,
                -1.0455635269568435,
                -0.8998109543785988,
                0.3587729298826581,
                -0.12007396555196503,
                -1.2062118989439252
            ]
        },
        {
            "positions": [
                -0.797324905938372,
                -1.0636600674910381,
                -0.9871319530875011,
                0.3898172404413154,
                -0.15526391648391613,
                -1.0951688837182703
            ]
        },
        {
            "positions": [
                -0.6846684000669327,
                -1.0817566080252323,
                -1.0744529517964032,
                0.4208615509999727,
                -0.19045386741586734,
                -0.9841258684926153
            ]
        },
        {
            "positions": [
                -0.572011894195493,
                -1.099853148559427,
                -1.1617739505053055,
                0.4519058615586301,
                -0.22564381834781866,
                -0.8730828532669599
            ]
        },
        {
            "positions": [
                -0.45935538832405376,
                -1.1179496890936211,
                -1.2490949492142076,
                0.4829501721172874,
                -0.26083376927976987,
                -0.7620398380413049
            ]
        },
        {
            "positions": [
                -0.3466988824526145,
                -1.1360462296278155,
                -1.3364159479231097,
                0.5139944826759446,
                -0.2960237202117211,
                -0.6509968228156495
            ]
        },
        {
            "positions": [
                -0.23404237658117522,
                -1.15414277016201,
                -1.423736946632012,
                0.5450387932346019,
                -0.3312136711436722,
                -0.5399538075899946
            ]
        },
        {
            "positions": [
                -0.1213858707097355,
                -1.1722393106962044,
                -1.5110579453409143,
                0.5760831037932593,
                -0.3664036220756235,
                -0.42891079236433916
            ]
        },
        {
            "positions": [
                -0.008729364838296227,
                -1.1903358512303988,
                -1.5983789440498166,
                0.6071274143519166,
                -0.4015935730075747,
                -0.3178677771386842
            ]
        },
        {
            "positions": [
                0.10392714103314304,
                -1.2084323917645932,
                -1.6856999427587185,
                0.638171724910574,
                -0.4367835239395259,
                -0.20682476191302923
            ]
        },
        {
            "positions": [
                0.21658364690458232,
                -1.2265289322987876,
                -1.7730209414676208,
                0.6692160354692313,
                -0.471973474871477,
                -0.09578174668737427
            ]
        },
        {
            "positions": [
                0.32924015277602203,
                -1.244625472832982,
                -1.860341940176523,
                0.7002603460278887,
                -0.5071634258034283,
                0.015261268538281136
            ]
        },
        {
            "positions": [
                0.4418966586474613,
                -1.2627220133671764,
                -1.9476629388854254,
                0.731304656586546,
                -0.5423533767353795,
                0.1263042837639361
            ]
        },
        {
            "positions": [
                0.5545531645189006,
                -1.2808185539013706,
                -2.034983937594327,
                0.7623489671452032,
                -0.5775433276673307,
                0.2373472989895915
            ]
        },
        {
            "positions": [
                0.6672096703903398,
                -1.298915094435565,
                -2.1223049363032294,
                0.7933932777038605,
                -0.6127332785992818,
                0.34839031421524647
            ]
        },
        {
            "positions": [
                0.7798661762617796,
                -1.3170116349697594,
                -2.2096259350121317,
                0.8244375882625179,
                -0.6479232295312332,
                0.45943332944090187
            ]
        },
        {
            "positions": [
                0.8925226821332188,
                -1.3351081755039538,
                -2.2969469337210335,
                0.8554818988211752,
                -0.6831131804631845,
                0.5704763446665568
            ]
        },
        {
            "positions": [
                1.005179188004658,
                -1.3532047160381482,
                -2.384267932429936,
                0.8865262093798325,
                -0.7183031313951355,
                0.681519359892212
            ]
        },
        {
            "positions": [
                0.8967676134094379,
                -1.437171031097891,
                -2.385033250596603,
                0.9382386845982326,
                -0.6360260838491868,
                0.625782859358484
            ]
        },
        {
            "positions": [
                0.7883560388142177,
                -1.5211373461576339,
                -2.38579856876327,
                0.9899511598166326,
                -0.553749036303238,
                0.570046358824756
            ]
        },
        {
            "positions": [
                0.6799444642189976,
                -1.6051036612173766,
                -2.386563886929937,
                1.0416636350350326,
                -0.4714719887572894,
                0.5143098582910279
            ]
        },
        {
            "positions": [
                0.5715328896237774,
                -1.6890699762771193,
                -2.387329205096604,
                1.0933761102534327,
                -0.3891949412113407,
                0.4585733577572998
            ]
        },
        {
            "positions": [
                0.46312131502855725,
                -1.773036291336862,
                -2.388094523263271,
                1.1450885854718327,
                -0.306917893665392,
                0.40283685722357176
            ]
        },
        {
            "positions": [
                0.35470974043333703,
                -1.857002606396605,
                -2.3888598414299382,
                1.1968010606902326,
                -0.22464084611944335,
                0.34710035668984374
            ]
        },
        {
            "positions": [
                0.2462981658381168,
                -1.9409689214563477,
                -2.3896251595966054,
                1.2485135359086326,
                -0.14236379857349468,
                0.2913638561561157
            ]
        },
        {
            "positions": [
                0.1378865912428966,
                -2.0249352365160904,
                -2.3903904777632725,
                1.3002260111270327,
                -0.060086751027545904,
                0.23562735562238762
            ]
        },
        {
            "positions": [
                0.029475016647676378,
                -2.1089015515758334,
                -2.391155795929939,
                1.351938486345433,
                0.022190296518402763,
                0.17989085508865954
            ]
        },
        {
            "positions": [
                -0.07893655794754362,
                -2.192867866635576,
                -2.3919211140966063,
                1.4036509615638328,
                0.10446734406435143,
                0.12415435455493151
            ]
        },
        {
            "positions": [
                -0.18734813254276386,
                -2.276834181695319,
                -2.3926864322632735,
                1.4553634367822328,
                0.18674439161030013,
                0.06841785402120346
            ]
        }
    ]
}