{
    "goal": {
        "global_pose": {
            "orientation": {
                "w": -0.4816463035849501,
                "x": 0.5182115481033762,
                "y": 0.4908360881923453,
                "z": -0.5084816262002911
            },
            "position": {
                "x": -0.8240239810943604,
                "y": 0.19912469901144506,
                "z": 0.16403168439865112
            }
        },
        "name": "move_to_storage_D"
    },
    "id": "LBTRRT_move_to_storage_D_28",
    "joint_names": [
        "shoulder_pan_joint",
        "shoulder_lift_joint",
        "elbow_joint",
        "wrist_1_joint",
        "wrist_2_joint",
        "wrist_3_joint"
    ],
    "metrics": {
        "cart_traj_len": 0.5504298257000372,
        "distance_elbow_joint": 0.5641746803839831,
        "distance_shoulder_lift_joint": 0.15232667950014855,
        "distance_shoulder_pan_joint": 0.2471780885226574,
        "distance_wrist_1_joint": 3.8304993616443443,
        "distance_wrist_2_joint": 1.7845115340138826,
        "distance_wrist_3_joint": 3.1747934149805963,
        "smoothness": 0.036723901271362415,
        "time": 5.02581677,
        "traj_len": 3.1230567972814094,
        "weighted_distance": 4.660266246113523
    },
    "planner": "LBTRRT",
    "start": {
        "state": {
            "elbow_joint": -2.384821988534728,
            "shoulder_lift_joint": -2.2788054721415256,
            "shoulder_pan_joint": -0.1854694642142757,
            "wrist_1_joint": 1.4845938289331202,
            "wrist_2_joint": 0.17898776772866878,
            "wrist_3_joint": 0.037105688729662994
        }
    },
    "waypoints": [
        {
            "positions": [
                -0.1854694642142757,
                -2.2788054721415256,
                -2.384821988534728,
                1.4845938289331202,
                0.17898776772866878,
                0.037105688729662994
            ]
        },
        {
            "positions": [
                -0.08586754004745055,
                -2.235042124904858,
                -2.3869224992363423,
                1.418006875109386,
                0.1255527487676481,
                0.031412975394245216
            ]
        },
        {
            "positions": [
                0.01373438411937461,
                -2.191278777668191,
                -2.389023009937957,
                1.351419921285652,
                0.07211772980662742,
                0.025720262058827437
            ]
        },
        {
            "positions": [
                0.011735457444832644,
                -2.1885787782920736,
                -2.365690774147092,
                1.197364694035782,
                0.0022160008028007105,
                0.1575289282384008
            ]
        },
        {
            "positions": [
                0.009736530770290679,
                -2.1858787789159564,
                -2.3423585383562275,
                1.0433094667859122,
                -0.067685728201026,
                0.2893375944179742
            ]
        },
        {
            "positions": [
                0.007737604095748712,
                -2.183178779539839,
                -2.3190263025653626,
                0.8892542395360423,
                -0.13758745720485274,
                0.42114626059754756
            ]
        },
        {
            "positions": [
                0.005738677421206748,
                -2.180478780163722,
                -2.295694066774498,
                0.7351990122861725,
                -0.20748918620867943,
                0.552954926777121
            ]
        },
        {
            "positions": [
                0.0037397507466647804,
                -2.177778780787605,
                -2.272361830983633,
                0.5811437850363026,
                -0.27739091521250625,
                0.6847635929566944
            ]
        },
        {
            "positions": [
                0.0017408240721228149,
                -2.1750787814114876,
                -2.2490295951927686,
                0.42708855778643273,
                -0.3472926442163329,
                0.8165722591362676
            ]
        },
        {
            "positions": [
                -0.0002581026024191524,
                -2.17237878203537,
                -2.2256973594019036,
                0.27303333053656287,
                -0.4171943732201596,
                0.9483809253158411
            ]
        },
        {
            "positions": [
                -0.0022570292769611144,
                -2.1696787826592527,
                -2.202365123611039,
                0.118978103286693,
                -0.48709610222398625,
                1.0801895914954145
            ]
        },
        {
            "positions": [
                -0.004255955951503083,
                -2.1669787832831355,
                -2.179032887820174,
                -0.03507712396317686,
                -0.5569978312278131,
                1.211998257674988
            ]
        },
        {
            "positions": [
                -0.006254882626045049,
                -2.1642787839070183,
                -2.1557006520293096,
                -0.18913235121304672,
                -0.6268995602316398,
                1.3438069238545614
            ]
        },
        {
            "positions": [
                -0.008253809300587014,
                -2.161578784530901,
                -2.1323684162384446,
                -0.3431875784629166,
                -0.6968012892354665,
                1.4756155900341346
            ]
        },
        {
            "positions": [
                -0.01025273597512898,
                -2.158878785154784,
                -2.10903618044758,
                -0.49724280571278645,
                -0.7667030182392932,
                1.607424256213708
            ]
        },
        {
            "positions": [
                -0.012251662649670945,
                -2.1561787857786667,
                -2.085703944656715,
                -0.6512980329626561,
                -0.8366047472431198,
                1.7392329223932812
            ]
        },
        {
            "positions": [
                -0.014250589324212914,
                -2.1534787864025495,
                -2.0623717088658506,
                -0.8053532602125262,
                -0.9065064762469467,
                1.8710415885728549
            ]
        },
        {
            "positions": [
                -0.016249515998754877,
                -2.1507787870264323,
                -2.0390394730749857,
                -0.9594084874623958,
                -0.9764082052507733,
                2.002850254752428
            ]
        },
        {
            "positions": [
                -0.01824844267329684,
                -2.148078787650315,
                -2.015707237284121,
                -1.113463714712266,
                -1.0463099342546,
                2.1346589209320013
            ]
        },
        {
            "positions": [
                -0.020247369347838808,
                -2.145378788274198,
                -1.9923750014932562,
                -1.267518941962136,
                -1.116211663258427,
                2.266467587111575
            ]
        },
        {
            "positions": [
                -0.022246296022380777,
                -2.1426787888980803,
                -1.9690427657023915,
                -1.4215741692120056,
                -1.1861133922622538,
                2.398276253291148
            ]
        },
        {
            "positions": [
                -0.02424522269692274,
                -2.139978789521963,
                -1.9457105299115267,
                -1.5756293964618753,
                -1.2560151212660804,
                2.5300849194707213
            ]
        },
        {
            "positions": [
                -0.026244149371464708,
                -2.137278790145846,
                -1.922378294120662,
                -1.7296846237117454,
                -1.3259168502699072,
                2.661893585650295
            ]
        },
        {
            "positions": [
                -0.02824307604600667,
                -2.1345787907697287,
                -1.8990460583297972,
                -1.8837398509616154,
                -1.3958185792737339,
                2.793702251829868
            ]
        },
        {
            "positions": [
                -0.03024200272054864,
                -2.1318787913936115,
                -1.8757138225389325,
                -2.0377950782114853,
                -1.4657203082775605,
                2.9255109180094414
            ]
        },
        {
            "positions": [
                -0.03224092939509061,
                -2.1291787920174943,
                -1.8523815867480677,
                -2.1918503054613554,
                -1.5356220372813874,
                3.057319584189015
            ]
        },
        {
            "positions": [
                -0.03423985606963257,
                -2.126478792641377,
                -1.829049350957203,
                -2.3459055327112246,
                -1.605523766285214,
                3.1891282503685883
            ]
        }
    ]
}