{
    "goal": {
        "global_pose": {
            "orientation": {
                "w": 0.005598929693374612,
                "x": 0.007748599140229565,
                "y": 0.7110244013736278,
                "z": -0.7031023480610252
            },
            "position": {
                "x": 0.1141497679147869,
                "y": -0.7141253447532654,
                "z": 0.3711530566215515
            }
        },
        "name": "move_to_auspresseinheit_B"
    },
    "id": "LBTRRT_move_to_auspresseinheit_B_110",
    "joint_names": [
        "shoulder_pan_joint",
        "shoulder_lift_joint",
        "elbow_joint",
        "wrist_1_joint",
        "wrist_2_joint",
        "wrist_3_joint"
    ],
    "metrics": {
        "cart_traj_len": 0.5650843335248545,
        "distance_elbow_joint": 0.06301366520074692,
        "distance_shoulder_lift_joint": 0.29489476742901455,
        "distance_shoulder_pan_joint": 0.5753846804269713,
        "distance_wrist_1_joint": 0.3299796598675927,
        "distance_wrist_2_joint": 1.0078230589107198,
        "distance_wrist_3_joint": 0.0006471616267820224,
        "smoothness": 3.806478935924272e-16,
        "time": 5.002868699,
        "traj_len": 1.5072302390351076,
        "weighted_distance": 1.9002210491134193
    },
    "planner": "LBTRRT",
    "start": {
        "state": {
            "elbow_joint": 2.0193083361928714,
            "shoulder_lift_joint": -1.1220246554650708,
            "shoulder_pan_joint": -1.0952077554168747,
            "wrist_1_joint": -0.8559753972642168,
            "wrist_2_joint": 0.4759566250798843,
            "wrist_3_joint": -3.1240929996934557
        }
    },
    "waypoints": [
        {
            "positions": [
                -1.0952077554168747,
                -1.1220246554650708,
                2.0193083361928714,
                -0.8559753972642168,
                0.4759566250798843,
                -3.1240929996934557
            ]
        },
        {
            "positions": [
                -1.1911052021547033,
                -1.1711737833699065,
                2.0088060586594136,
                -0.8009787872862847,
                0.6439271348983375,
                -3.124200859964586
            ]
        },
        {
            "positions": [
                -1.2870026488925317,
                -1.2203229112747422,
                1.9983037811259559,
                -0.7459821773083526,
                0.8118976447167909,
                -3.1243087202357165
            ]
        },
        {
            "positions": [
                -1.3829000956303603,
                -1.2694720391795782,
                1.987801503592498,
                -0.6909855673304204,
                0.9798681545352441,
                -3.1244165805068467
            ]
        },
        {
            "positions": [
                -1.4787975423681887,
                -1.318621167084414,
                1.97729922605904,
                -0.6359889573524884,
                1.1478386643536975,
                -3.124524440777977
            ]
        },
        {
            "positions": [
                -1.5746949891060176,
                -1.3677702949892496,
                1.9667969485255823,
                -0.5809923473745562,
                1.3158091741721507,
                -3.1246323010491075
            ]
        },
        {
            "positions": [
                -1.670592435843846,
                -1.4169194228940853,
                1.9562946709921245,
                -0.5259957373966241,
                1.4837796839906041,
                -3.1247401613202377
            ]
        }
    ]
}