{
    "goal": {
        "global_pose": {
            "orientation": {
                "w": -0.4816463035849501,
                "x": 0.5182115481033762,
                "y": 0.4908360881923453,
                "z": -0.5084816262002911
            },
            "position": {
                "x": -0.8240239810943604,
                "y": 0.19912469901144506,
                "z": 0.16403168439865112
            }
        },
        "name": "move_to_storage_D"
    },
    "id": "LBTRRT_move_to_storage_D_63",
    "joint_names": [
        "shoulder_pan_joint",
        "shoulder_lift_joint",
        "elbow_joint",
        "wrist_1_joint",
        "wrist_2_joint",
        "wrist_3_joint"
    ],
    "metrics": {
        "cart_traj_len": 1.007703948425173,
        "distance_elbow_joint": 0.9568815259221102,
        "distance_shoulder_lift_joint": 1.3366783424471484,
        "distance_shoulder_pan_joint": 0.6937827130668103,
        "distance_wrist_1_joint": 3.837578182871616,
        "distance_wrist_2_joint": 1.778574288524212,
        "distance_wrist_3_joint": 3.124107583894276,
        "smoothness": 0.13648356906169928,
        "time": 5.037354827,
        "traj_len": 3.424558750660613,
        "weighted_distance": 4.857156604013355
    },
    "planner": "LBTRRT",
    "start": {
        "state": {
            "elbow_joint": -2.384821988534728,
            "shoulder_lift_joint": -2.2788054721415256,
            "shoulder_pan_joint": -0.1854694642142757,
            "wrist_1_joint": 1.4845938289331202,
            "wrist_2_joint": 0.17898776772866878,
            "wrist_3_joint": 0.037105688729662994
        }
    },
    "waypoints": [
        {
            "positions": [
                -0.1854694642142757,
                -2.2788054721415256,
                -2.384821988534728,
                1.4845938289331202,
                0.17898776772866878,
                0.037105688729662994
            ]
        },
        {
            "positions": [
                -0.20399863629110146,
                -2.2328142165519846,
                -2.409768198116409,
                1.351458184202947,
                0.12860519498549727,
                -0.051595571623484104
            ]
        },
        {
            "positions": [
                -0.2225278083679272,
                -2.186822960962444,
                -2.4347144076980904,
                1.2183225394727737,
                0.07822262224232579,
                -0.1402968319766312
            ]
        },
        {
            "positions": [
                -0.24105698044475293,
                -2.1408317053729036,
                -2.4596606172797717,
                1.0851868947426007,
                0.02784004949915428,
                -0.22899809232977833
            ]
        },
        {
            "positions": [
                -0.2595861525215787,
                -2.0948404497833626,
                -2.484606826861453,
                0.9520512500124273,
                -0.022542523244017204,
                -0.3176993526829254
            ]
        },
        {
            "positions": [
                -0.27811532459840443,
                -2.0488491941938216,
                -2.509553036443134,
                0.818915605282254,
                -0.07292509598718869,
                -0.40640061303607244
            ]
        },
        {
            "positions": [
                -0.2966444966752302,
                -2.002857938604281,
                -2.5344992460248155,
                0.6857799605520809,
                -0.12330766873036023,
                -0.4951018733892196
            ]
        },
        {
            "positions": [
                -0.31517366875205594,
                -1.9568666830147403,
                -2.5594454556064967,
                0.5526443158219077,
                -0.1736902414735317,
                -0.5838031337423667
            ]
        },
        {
            "positions": [
                -0.3337028408288817,
                -1.9108754274251996,
                -2.584391665188178,
                0.41950867109173434,
                -0.2240728142167032,
                -0.6725043940955138
            ]
        },
        {
            "positions": [
                -0.34489723731848654,
                -1.8766037207978814,
                -2.577592545890051,
                0.3274359951572247,
                -0.30852476034479576,
                -0.8136950092720505
            ]
        },
        {
            "positions": [
                -0.35609163380809145,
                -1.842332014170563,
                -2.570793426591924,
                0.2353633192227151,
                -0.3929767064728883,
                -0.9548856244485872
            ]
        },
        {
            "positions": [
                -0.3672860302976963,
                -1.8080603075432449,
                -2.563994307293797,
                0.1432906432882055,
                -0.4774286526009808,
                -1.0960762396251238
            ]
        },
        {
            "positions": [
                -0.3784804267873012,
                -1.7737886009159267,
                -2.5571951879956702,
                0.05121796735369588,
                -0.5618805987290734,
                -1.2372668548016605
            ]
        },
        {
            "positions": [
                -0.38967482327690606,
                -1.7395168942886086,
                -2.5503960686975433,
                -0.04085470858081369,
                -0.646332544857166,
                -1.3784574699781973
            ]
        },
        {
            "positions": [
                -0.4008692197665109,
                -1.7052451876612902,
                -2.5435969493994164,
                -0.13292738451532332,
                -0.7307844909852584,
                -1.5196480851547338
            ]
        },
        {
            "positions": [
                -0.41206361625611576,
                -1.670973481033972,
                -2.5367978301012895,
                -0.22500006044983295,
                -0.815236437113351,
                -1.6608387003312706
            ]
        },
        {
            "positions": [
                -0.42325801274572067,
                -1.6367017744066539,
                -2.5299987108031625,
                -0.3170727363843426,
                -0.8996883832414436,
                -1.8020293155078073
            ]
        },
        {
            "positions": [
                -0.4344524092353256,
                -1.6024300677793355,
                -2.5231995915050356,
                -0.4091454123188522,
                -0.9841403293695362,
                -1.943219930684344
            ]
        },
        {
            "positions": [
                -0.44564680572493043,
                -1.5681583611520173,
                -2.5164004722069087,
                -0.5012180882533617,
                -1.0685922754976287,
                -2.0844105458608806
            ]
        },
        {
            "positions": [
                -0.4568412022145353,
                -1.5338866545246992,
                -2.5096013529087817,
                -0.5932907641878714,
                -1.1530442216257213,
                -2.2256011610374173
            ]
        },
        {
            "positions": [
                -0.41745094459627935,
                -1.5737420896601266,
                -2.4429621031228703,
                -0.6959129329010633,
                -1.2214853489495843,
                -2.2993327954283163
            ]
        },
        {
            "positions": [
                -0.3780606869780235,
                -1.6135975247955539,
                -2.376322853336959,
                -0.798535101614255,
                -1.2899264762734473,
                -2.3730644298192147
            ]
        },
        {
            "positions": [
                -0.33867042935976754,
                -1.6534529599309813,
                -2.3096836035510475,
                -0.9011572703274469,
                -1.3583676035973102,
                -2.4467960642101136
            ]
        },
        {
            "positions": [
                -0.30824640913858925,
                -1.7006722818733853,
                -2.2614232247878947,
                -1.0463399786885517,
                -1.3824894953171336,
                -2.5108166473055635
            ]
        },
        {
            "positions": [
                -0.27782238891741096,
                -1.7478916038157892,
                -2.2131628460247414,
                -1.1915226870496565,
                -1.4066113870369568,
                -2.5748372304010134
            ]
        },
        {
            "positions": [
                -0.24739836869623266,
                -1.7951109257581932,
                -2.1649024672615886,
                -1.3367053954107613,
                -1.4307332787567801,
                -2.6388578134964633
            ]
        },
        {
            "positions": [
                -0.21697434847505437,
                -1.8423302477005974,
                -2.116642088498436,
                -1.4818881037718663,
                -1.4548551704766035,
                -2.702878396591913
            ]
        },
        {
            "positions": [
                -0.1865503282538761,
                -1.8895495696430014,
                -2.0683817097352826,
                -1.627070812132971,
                -1.4789770621964267,
                -2.7668989796873635
            ]
        },
        {
            "positions": [
                -0.1561263080326978,
                -1.9367688915854053,
                -2.0201213309721298,
                -1.772253520494076,
                -1.50309895391625,
                -2.8309195627828134
            ]
        },
        {
            "positions": [
                -0.12570228781151954,
                -1.9839882135278093,
                -1.9718609522089767,
                -1.9174362288551805,
                -1.5272208456360734,
                -2.8949401458782633
            ]
        },
        {
            "positions": [
                -0.09527826759034122,
                -2.0312075354702133,
                -1.9236005734458237,
                -2.0626189372162855,
                -1.5513427373558968,
                -2.958960728973713
            ]
        },
        {
            "positions": [
                -0.06485424736916295,
                -2.0784268574126172,
                -1.8753401946826709,
                -2.2078016455773906,
                -1.57546462907572,
                -3.022981312069163
            ]
        },
        {
            "positions": [
                -0.03443022714798465,
                -2.125646179355021,
                -1.8270798159195178,
                -2.352984353938495,
                -1.5995865207955433,
                -3.087001895164613
            ]
        }
    ]
}