{
    "goal": {
        "global_pose": {
            "orientation": {
                "w": 0.7047431493862688,
                "x": -0.7094548369677653,
                "y": 0.0024358444001904,
                "z": -0.0022348060817251984
            },
            "position": {
                "x": -0.39052492380142206,
                "y": 0.3671506643295288,
                "z": 0.19426114857196808
            }
        },
        "name": "move_to_magneteinheit_D"
    },
    "id": "LBTRRT_move_to_magneteinheit_D_31",
    "joint_names": [
        "shoulder_pan_joint",
        "shoulder_lift_joint",
        "elbow_joint",
        "wrist_1_joint",
        "wrist_2_joint",
        "wrist_3_joint"
    ],
    "metrics": {
        "cart_traj_len": 4.13678813086339,
        "distance_elbow_joint": 3.127615463155032,
        "distance_shoulder_lift_joint": 1.6332646577350232,
        "distance_shoulder_pan_joint": 2.768710260985742,
        "distance_wrist_1_joint": 1.866245760013789,
        "distance_wrist_2_joint": 2.2890248717950774,
        "distance_wrist_3_joint": 3.3700311927383115,
        "smoothness": 0.3415577184148419,
        "time": 5.038815831,
        "traj_len": 3.88006342814431,
        "weighted_distance": 5.0941363569999245
    },
    "planner": "LBTRRT",
    "start": {
        "state": {
            "elbow_joint": 0.749534889911806,
            "shoulder_lift_joint": -0.6476975780787326,
            "shoulder_pan_joint": -2.711696901376241,
            "wrist_1_joint": -0.07506478083263063,
            "wrist_2_joint": 0.43296659715538205,
            "wrist_3_joint": -3.14703540197715
        }
    },
    "waypoints": [
        {
            "positions": [
                -2.711696901376241,
                -0.6476975780787326,
                0.749534889911806,
                -0.07506478083263063,
                0.43296659715538205,
                -3.14703540197715
            ]
        },
        {
            "positions": [
                -2.724183722251456,
                -0.6787672196972941,
                0.740826262445965,
                -0.04967605463479868,
                0.39948293431833015,
                -3.06555589207603
            ]
        },
        {
            "positions": [
                -2.697641094479269,
                -0.8400493819501313,
                0.6321843479848911,
                -0.051488919361038846,
                0.4258334137102351,
                -3.0191963662911006
            ]
        },
        {
            "positions": [
                -2.6710984667070816,
                -1.0013315442029684,
                0.5235424335238172,
                -0.05330178408727901,
                0.45218389310213997,
                -2.9728368405061705
            ]
        },
        {
            "positions": [
                -2.5768406935143933,
                -1.0405373967810159,
                0.4695097872582689,
                -0.013502583182935048,
                0.4048180782187091,
                -2.8655848094901875
            ]
        },
        {
            "positions": [
                -2.482582920321705,
                -1.0797432493590633,
                0.4154771409927206,
                0.026296617721408913,
                0.35745226333527813,
                -2.7583327784742044
            ]
        },
        {
            "positions": [
                -2.3883251471290166,
                -1.1189491019371107,
                0.36144449472717227,
                0.06609581862575288,
                0.3100864484518473,
                -2.651080747458222
            ]
        },
        {
            "positions": [
                -2.294067373936328,
                -1.1581549545151582,
                0.30741184846162395,
                0.10589501953009683,
                0.26272063356841635,
                -2.543828716442239
            ]
        },
        {
            "positions": [
                -2.19980960074364,
                -1.1973608070932058,
                0.2533792021960756,
                0.14569422043444083,
                0.21535481868498543,
                -2.436576685426256
            ]
        },
        {
            "positions": [
                -2.105551827550952,
                -1.2365666596712532,
                0.1993465559305273,
                0.18549342133878477,
                0.16798900380155457,
                -2.329324654410273
            ]
        },
        {
            "positions": [
                -2.0112940543582636,
                -1.2757725122493007,
                0.14531390966497898,
                0.22529262224312877,
                0.12062318891812357,
                -2.22207262339429
            ]
        },
        {
            "positions": [
                -1.9170362811655752,
                -1.314978364827348,
                0.09128126339943066,
                0.2650918231474727,
                0.07325737403469273,
                -2.1148205923783068
            ]
        },
        {
            "positions": [
                -1.8227785079728869,
                -1.3541842174053955,
                0.03724861713388239,
                0.3048910240518167,
                0.025891559151261845,
                -2.0075685613623238
            ]
        },
        {
            "positions": [
                -1.7285207347801985,
                -1.393390069983443,
                -0.01678402913166599,
                0.34469022495616064,
                -0.0214742557321691,
                -1.900316530346341
            ]
        },
        {
            "positions": [
                -1.6342629615875104,
                -1.4325959225614904,
                -0.07081667539721426,
                0.3844894258605046,
                -0.06884007061559999,
                -1.793064499330358
            ]
        },
        {
            "positions": [
                -1.540005188394822,
                -1.4718017751395378,
                -0.12484932166276264,
                0.4242886267648486,
                -0.11620588549903083,
                -1.6858124683143751
            ]
        },
        {
            "positions": [
                -1.4457474152021337,
                -1.5110076277175852,
                -0.1788819679283109,
                0.46408782766919254,
                -0.16357170038246188,
                -1.5785604372983921
            ]
        },
        {
            "positions": [
                -1.3514896420094453,
                -1.5502134802956329,
                -0.23291461419385928,
                0.5038870285735365,
                -0.21093751526589283,
                -1.471308406282409
            ]
        },
        {
            "positions": [
                -1.2572318688167572,
                -1.58941933287368,
                -0.28694726045940755,
                0.5436862294778804,
                -0.25830333014932355,
                -1.3640563752664263
            ]
        },
        {
            "positions": [
                -1.1629740956240688,
                -1.6286251854517277,
                -0.34097990672495593,
                0.5834854303822243,
                -0.3056691450327545,
                -1.2568043442504433
            ]
        },
        {
            "positions": [
                -1.0687163224313805,
                -1.6678310380297754,
                -0.3950125529905043,
                0.6232846312865684,
                -0.35303495991618544,
                -1.1495523132344603
            ]
        },
        {
            "positions": [
                -0.9744585492386924,
                -1.7070368906078226,
                -0.44904519925605246,
                0.6630838321909123,
                -0.4004007747996163,
                -1.0423002822184775
            ]
        },
        {
            "positions": [
                -0.8802007760460038,
                -1.7462427431858702,
                -0.503077845521601,
                0.7028830330952562,
                -0.4477665896830472,
                -0.9350482512024945
            ]
        },
        {
            "positions": [
                -0.7859430028533154,
                -1.7854485957639175,
                -0.5571104917871492,
                0.7426822339996003,
                -0.49513240456647817,
                -0.8277962201865114
            ]
        },
        {
            "positions": [
                -0.6916852296606273,
                -1.824654448341965,
                -0.6111431380526975,
                0.7824814349039442,
                -0.5424982194499091,
                -0.7205441891705289
            ]
        },
        {
            "positions": [
                -0.5974274564679392,
                -1.8638603009200123,
                -0.6651757843182458,
                0.8222806358082881,
                -0.5898640343333399,
                -0.6132921581545454
            ]
        },
        {
            "positions": [
                -0.5031696832752508,
                -1.90306615349806,
                -0.7192084305837942,
                0.8620798367126321,
                -0.637229849216771,
                -0.5060401271385624
            ]
        },
        {
            "positions": [
                -0.40891191008256245,
                -1.9422720060761072,
                -0.7732410768493425,
                0.9018790376169761,
                -0.6845956641002016,
                -0.3987880961225798
            ]
        },
        {
            "positions": [
                -0.3146541368898741,
                -1.9814778586541548,
                -0.8272737231148908,
                0.94167823852132,
                -0.7319614789836326,
                -0.29153606510659663
            ]
        },
        {
            "positions": [
                -0.26101404491658925,
                -1.9886076862163697,
                -0.9445508087151466,
                1.0369093001509353,
                -0.7452448088389165,
                -0.21758321596095836
            ]
        },
        {
            "positions": [
                -0.20737395294330443,
                -1.9957375137785847,
                -1.0618278943154027,
                1.1321403617805503,
                -0.7585281386942004,
                -0.1436303668153201
            ]
        },
        {
            "positions": [
                -0.15373386097001962,
                -2.0028673413407994,
                -1.1791049799156585,
                1.2273714234101654,
                -0.7718114685494843,
                -0.06967751766968183
            ]
        },
        {
            "positions": [
                -0.10009376899673478,
                -2.0099971689030145,
                -1.2963820655159144,
                1.3226024850397806,
                -0.7850947984047683,
                0.004275331475956448
            ]
        },
        {
            "positions": [
                -0.09410253651768721,
                -2.0198523478031607,
                -1.4347677981665106,
                1.404807075584725,
                -0.7365926623379095,
                0.030761605762208627
            ]
        },
        {
            "positions": [
                -0.08811130403863965,
                -2.029707526703307,
                -1.5731535308171067,
                1.4870116661296695,
                -0.6880905262710509,
                0.057247880048460806
            ]
        },
        {
            "positions": [
                -0.08212007155959207,
                -2.0395627056034535,
                -1.711539263467703,
                1.569216256674614,
                -0.6395883902041923,
                0.08373415433471298
            ]
        },
        {
            "positions": [
                -0.0761288390805445,
                -2.0494178845035997,
                -1.849924996118299,
                1.6514208472195584,
                -0.5910862541373336,
                0.11022042862096516
            ]
        },
        {
            "positions": [
                -0.09776255046846757,
                -2.095726754765631,
                -1.9555561115432845,
                1.6249191126082305,
                -0.4367756512573592,
                0.08766535619292587
            ]
        },
        {
            "positions": [
                -0.11939626185639064,
                -2.142035625027662,
                -2.06118722696827,
                1.5984173779969026,
                -0.2824650483773847,
                0.06511028376488656
            ]
        },
        {
            "positions": [
                -0.1410299732443137,
                -2.1883444952896935,
                -2.166818342393255,
                1.5719156433855748,
                -0.12815444549741023,
                0.04255521133684727
            ]
        },
        {
            "positions": [
                -0.1626636846322368,
                -2.2346533655517247,
                -2.2724494578182406,
                1.545413908774247,
                0.02615615738256427,
                0.02000013890880796
            ]
        },
        {
            "positions": [
                -0.18429739602015985,
                -2.280962235813756,
                -2.378080573243226,
                1.518912174162919,
                0.18046676026253866,
                -0.002554933519231334
            ]
        }
    ]
}