{
    "goal": {
        "global_pose": {
            "orientation": {
                "w": -0.00223480608172531,
                "x": 0.0024358444001904467,
                "y": 0.7094548369677653,
                "z": -0.704743149386269
            },
            "position": {
                "x": 0.6205249238014221,
                "y": -0.6371506643295288,
                "z": 0.19426114857196808
            }
        },
        "name": "move_to_magneteinheit_B"
    },
    "id": "LBTRRT_move_to_magneteinheit_B_141",
    "joint_names": [
        "shoulder_pan_joint",
        "shoulder_lift_joint",
        "elbow_joint",
        "wrist_1_joint",
        "wrist_2_joint",
        "wrist_3_joint"
    ],
    "metrics": {
        "cart_traj_len": 3.7867620588586144,
        "distance_elbow_joint": 4.90278833379582,
        "distance_shoulder_lift_joint": 1.0470920385411047,
        "distance_shoulder_pan_joint": 3.2302144230770917,
        "distance_wrist_1_joint": 4.623623394105838,
        "distance_wrist_2_joint": 0.8372964117958219,
        "distance_wrist_3_joint": 3.217561207567047,
        "smoothness": 0.44407388950879884,
        "time": 5.094605731000001,
        "traj_len": 4.225940819377707,
        "weighted_distance": 5.454779374999365
    },
    "planner": "LBTRRT",
    "start": {
        "state": {
            "elbow_joint": 2.6216224122426386,
            "shoulder_lift_joint": -1.4174107377796124,
            "shoulder_pan_joint": 0.7066234856936794,
            "wrist_1_joint": 1.9546482284002225,
            "wrist_2_joint": -0.7096286983471962,
            "wrist_3_joint": 0.005740856962016249
        }
    },
    "waypoints": [
        {
            "positions": [
                0.7066234856936794,
                -1.4174107377796124,
                2.6216224122426386,
                1.9546482284002225,
                -0.7096286983471962,
                0.005740856962016249
            ]
        },
        {
            "positions": [
                0.611044689406929,
                -1.4244731188004733,
                2.636733027110739,
                1.9581269934335963,
                -0.7071145507309864,
                0.15453837635652426
            ]
        },
        {
            "positions": [
                0.5124830781100379,
                -1.4775595866873132,
                2.621893677485449,
                1.9817873153796035,
                -0.7216421438909706,
                0.27060325257348916
            ]
        },
        {
            "positions": [
                0.41392146681314684,
                -1.5306460545741531,
                2.6070543278601592,
                2.0054476373256103,
                -0.7361697370509548,
                0.386668128790454
            ]
        },
        {
            "positions": [
                0.3153598555162558,
                -1.5837325224609933,
                2.592214978234869,
                2.0291079592716175,
                -0.7506973302109391,
                0.5027330050074189
            ]
        },
        {
            "positions": [
                0.2167982442193647,
                -1.6368189903478332,
                2.577375628609579,
                2.0527682812176247,
                -0.7652249233709233,
                0.6187978812243837
            ]
        },
        {
            "positions": [
                0.2502052537056029,
                -1.6195217328688165,
                2.4389291037267538,
                1.9919543262670154,
                -0.7432832297767221,
                0.7204863155144455
            ]
        },
        {
            "positions": [
                0.2836122631918412,
                -1.6022244753898,
                2.3004825788439285,
                1.931140371316406,
                -0.7213415361825211,
                0.8221747498045073
            ]
        },
        {
            "positions": [
                0.31701927267807944,
                -1.5849272179107836,
                2.162036053961103,
                1.8703264163657967,
                -0.6993998425883199,
                0.923863184094569
            ]
        },
        {
            "positions": [
                0.3504262821643177,
                -1.567629960431767,
                2.0235895290782775,
                1.8095124614151872,
                -0.6774581489941187,
                1.0255516183846307
            ]
        },
        {
            "positions": [
                0.3838332916505559,
                -1.5503327029527503,
                1.8851430041954524,
                1.748698506464578,
                -0.6555164553999175,
                1.1272400526746926
            ]
        },
        {
            "positions": [
                0.41724030113679417,
                -1.5330354454737338,
                1.746696479312627,
                1.6878845515139687,
                -0.6335747618057164,
                1.2289284869647543
            ]
        },
        {
            "positions": [
                0.4506473106230324,
                -1.5157381879947174,
                1.6082499544298017,
                1.6270705965633594,
                -0.6116330682115153,
                1.330616921254816
            ]
        },
        {
            "positions": [
                0.48405432010927063,
                -1.4984409305157007,
                1.4698034295469764,
                1.56625664161275,
                -0.5896913746173141,
                1.432305355544878
            ]
        },
        {
            "positions": [
                0.5642405653866682,
                -1.5141381378593581,
                1.3519249283472365,
                1.4600224678065077,
                -0.577250528431669,
                1.4928996084156698
            ]
        },
        {
            "positions": [
                0.6444268106640659,
                -1.5298353452030156,
                1.234046427147497,
                1.3537882940002652,
                -0.5648096822460238,
                1.5534938612864615
            ]
        },
        {
            "positions": [
                0.7246130559414636,
                -1.545532552546673,
                1.116167925947757,
                1.247554120194023,
                -0.5523688360603787,
                1.6140881141572534
            ]
        },
        {
            "positions": [
                0.8047993012188612,
                -1.5612297598903304,
                0.9982894247480172,
                1.1413199463877808,
                -0.5399279898747334,
                1.6746823670280453
            ]
        },
        {
            "positions": [
                0.8849855464962588,
                -1.5769269672339878,
                0.8804109235482774,
                1.0350857725815383,
                -0.5274871436890883,
                1.735276619898837
            ]
        },
        {
            "positions": [
                0.9651717917736565,
                -1.5926241745776453,
                0.7625324223485377,
                0.9288515987752962,
                -0.5150462975034431,
                1.7958708727696289
            ]
        },
        {
            "positions": [
                1.0453580370510542,
                -1.6083213819213027,
                0.6446539211487978,
                0.8226174249690539,
                -0.502605451317798,
                1.8564651256404208
            ]
        },
        {
            "positions": [
                1.1255442823284518,
                -1.6240185892649603,
                0.5267754199490581,
                0.7163832511628117,
                -0.49016460513215276,
                1.9170593785112124
            ]
        },
        {
            "positions": [
                1.2057305276058496,
                -1.6397157966086178,
                0.40889691874931833,
                0.6101490773565693,
                -0.47772375894650765,
                1.9776536313820043
            ]
        },
        {
            "positions": [
                1.285916772883247,
                -1.6554130039522752,
                0.29101841754957847,
                0.503914903550327,
                -0.4652829127608624,
                2.038247884252796
            ]
        },
        {
            "positions": [
                1.3661030181606448,
                -1.6711102112959326,
                0.17313991634983883,
                0.39768072974408497,
                -0.4528420665752173,
                2.098842137123588
            ]
        },
        {
            "positions": [
                1.4462892634380424,
                -1.68680741863959,
                0.05526141515009897,
                0.2914465559378425,
                -0.44040122038957213,
                2.15943638999438
            ]
        },
        {
            "positions": [
                1.52647550871544,
                -1.7025046259832475,
                -0.06261708604964089,
                0.1852123821316003,
                -0.42796037420392696,
                2.2200306428651717
            ]
        },
        {
            "positions": [
                1.6066617539928378,
                -1.718201833326905,
                -0.18049558724938075,
                0.07897820832535785,
                -0.4155195280182818,
                2.2806248957359636
            ]
        },
        {
            "positions": [
                1.6868479992702354,
                -1.7338990406705623,
                -0.2983740884491206,
                -0.02725596548088438,
                -0.4030786818326366,
                2.341219148606755
            ]
        },
        {
            "positions": [
                1.767034244547633,
                -1.7495962480142198,
                -0.41625258964886025,
                -0.1334901392871266,
                -0.39063783564699145,
                2.401813401477547
            ]
        },
        {
            "positions": [
                1.8472204898250306,
                -1.7652934553578772,
                -0.5341310908485997,
                -0.2397243130933686,
                -0.3781969894613463,
                2.462407654348339
            ]
        },
        {
            "positions": [
                1.9274067351024284,
                -1.7809906627015346,
                -0.6520095920483397,
                -0.3459584868996113,
                -0.3657561432757011,
                2.5230019072191308
            ]
        },
        {
            "positions": [
                2.007592980379826,
                -1.796687870045192,
                -0.7698880932480794,
                -0.4521926607058535,
                -0.35331529709005594,
                2.5835961600899227
            ]
        },
        {
            "positions": [
                2.087779225657224,
                -1.8123850773888495,
                -0.8877665944478195,
                -0.558426834512096,
                -0.34087445090441076,
                2.6441904129607146
            ]
        },
        {
            "positions": [
                2.167965470934621,
                -1.8280822847325071,
                -1.005645095647559,
                -0.664661008318338,
                -0.3284336047187656,
                2.7047846658315065
            ]
        },
        {
            "positions": [
                2.2481517162120186,
                -1.8437794920761643,
                -1.1235235968472987,
                -0.77089518212458,
                -0.3159927585331205,
                2.765378918702298
            ]
        },
        {
            "positions": [
                2.3283379614894164,
                -1.859476699419822,
                -1.2414020980470388,
                -0.8771293559308224,
                -0.30355191234747525,
                2.82597317157309
            ]
        },
        {
            "positions": [
                2.4085242067668142,
                -1.8751739067634794,
                -1.3592805992467785,
                -0.9833635297370649,
                -0.29111106616183013,
                2.8865674244438817
            ]
        },
        {
            "positions": [
                2.4887104520442116,
                -1.8908711141071368,
                -1.477159100446518,
                -1.0895977035433069,
                -0.27867021997618496,
                2.947161677314673
            ]
        },
        {
            "positions": [
                2.5688966973216094,
                -1.9065683214507942,
                -1.5950376016462582,
                -1.1958318773495493,
                -0.2662293737905398,
                3.007755930185465
            ]
        },
        {
            "positions": [
                2.6490829425990072,
                -1.9222655287944517,
                -1.7129161028459978,
                -1.3020660511557918,
                -0.2537885276048946,
                3.068350183056257
            ]
        },
        {
            "positions": [
                2.729269187876405,
                -1.937962736138109,
                -1.830794604045738,
                -1.4083002249620342,
                -0.24134768141924945,
                3.128944435927049
            ]
        },
        {
            "positions": [
                2.8094554331538024,
                -1.9536599434817665,
                -1.9486731052454775,
                -1.5145343987682764,
                -0.22890683523360428,
                3.1895386887978407
            ]
        },
        {
            "positions": [
                2.7799090346201347,
                -2.0004772861167037,
                -1.8882187879311767,
                -1.7061745310287837,
                -0.27697759591407556,
                3.1827860136515964
            ]
        },
        {
            "positions": [
                2.750362636086467,
                -2.047294628751641,
                -1.8277644706168756,
                -1.897814663289291,
                -0.32504835659454684,
                3.1760333385053516
            ]
        },
        {
            "positions": [
                2.720816237552799,
                -2.0941119713865777,
                -1.7673101533025748,
                -2.0894547955497984,
                -0.3731191172750181,
                3.1692806633591073
            ]
        },
        {
            "positions": [
                2.691269839019131,
                -2.140929314021515,
                -1.7068558359882737,
                -2.2810949278103054,
                -0.42118987795548934,
                3.1625279882128625
            ]
        },
        {
            "positions": [
                2.6617234404854635,
                -2.187746656656452,
                -1.6464015186739729,
                -2.472735060070813,
                -0.4692606386359606,
                3.155775313066618
            ]
        }
    ]
}