{
    "goal": {
        "global_pose": {
            "orientation": {
                "w": -0.00223480608172531,
                "x": 0.0024358444001904467,
                "y": 0.7094548369677653,
                "z": -0.704743149386269
            },
            "position": {
                "x": -0.37947507619857795,
                "y": -0.6371506643295288,
                "z": 0.19426114857196808
            }
        },
        "name": "move_to_magneteinheit_C"
    },
    "id": "LBTRRT_move_to_magneteinheit_C_10",
    "joint_names": [
        "shoulder_pan_joint",
        "shoulder_lift_joint",
        "elbow_joint",
        "wrist_1_joint",
        "wrist_2_joint",
        "wrist_3_joint"
    ],
    "metrics": {
        "cart_traj_len": 0.738875829807391,
        "distance_elbow_joint": 0.44400235780353725,
        "distance_shoulder_lift_joint": 0.8140583817182991,
        "distance_shoulder_pan_joint": 0.8827508719267143,
        "distance_wrist_1_joint": 0.4563796722226561,
        "distance_wrist_2_joint": 0.8080590115852068,
        "distance_wrist_3_joint": 0.29605165650664533,
        "smoothness": 1.4479416499597242,
        "time": 5.013077288,
        "traj_len": 1.923876802646952,
        "weighted_distance": 2.357507995444387
    },
    "planner": "LBTRRT",
    "start": {
        "state": {
            "elbow_joint": 1.9565354010623817,
            "shoulder_lift_joint": -1.4165861575791021,
            "shoulder_pan_joint": -1.6717766225146293,
            "wrist_1_joint": -0.5286633292919765,
            "wrist_2_joint": 1.472756589071564,
            "wrist_3_joint": -3.1238370188695823
        }
    },
    "waypoints": [
        {
            "positions": [
                -1.6717766225146293,
                -1.4165861575791021,
                1.9565354010623817,
                -0.5286633292919765,
                1.472756589071564,
                -3.1238370188695823
            ]
        },
        {
            "positions": [
                -1.774090831816413,
                -1.46385772942224,
                2.0097225723330836,
                -0.5872617826407496,
                1.3985365274920123,
                -3.0918802355367614
            ]
        },
        {
            "positions": [
                -1.8764050411181965,
                -1.5111293012653775,
                2.0629097436037855,
                -0.6458602359895227,
                1.3243164659124607,
                -3.0599234522039405
            ]
        },
        {
            "positions": [
                -1.9787192504199802,
                -1.558400873108515,
                2.1160969148744875,
                -0.7044586893382958,
                1.2500964043329093,
                -3.027966668871119
            ]
        },
        {
            "positions": [
                -2.081033459721764,
                -1.6056724449516528,
                2.1692840861451894,
                -0.7630571426870689,
                1.1758763427533576,
                -2.996009885538298
            ]
        },
        {
            "positions": [
                -2.040996348204135,
                -1.6963279225270258,
                2.203461958345309,
                -0.8493642284742684,
                1.0526435489523225,
                -2.9965842730270533
            ]
        },
        {
            "positions": [
                -2.17468398576648,
                -1.6233138041588495,
                2.1978597252101255,
                -0.8679460314197956,
                0.9734006521349614,
                -2.999500891355716
            ]
        },
        {
            "positions": [
                -2.3083716233288243,
                -1.5502996857906735,
                2.192257492074942,
                -0.8865278343653228,
                0.8941577553176003,
                -3.0024175096843795
            ]
        },
        {
            "positions": [
                -2.442059260891169,
                -1.4772855674224972,
                2.1866552589397585,
                -0.90510963731085,
                0.8149148585002393,
                -3.0053341280130423
            ]
        },
        {
            "positions": [
                -2.4528572643961413,
                -1.372194146867215,
                2.126565558568072,
                -0.8784651825762558,
                0.7648424314956119,
                -3.058300888246581
            ]
        },
        {
            "positions": [
                -2.463655267901114,
                -1.2671027263119325,
                2.066475858196385,
                -0.8518207278416617,
                0.7147700044909845,
                -3.1112676484801205
            ]
        },
        {
            "positions": [
                -2.474453271406086,
                -1.1620113057566503,
                2.0063861578246986,
                -0.8251762731070675,
                0.6646975774863572,
                -3.1642344087136594
            ]
        }
    ]
}