{
    "goal": {
        "global_pose": {
            "orientation": {
                "w": 0.7031023502349854,
                "x": -0.7110244035720825,
                "y": 0.007748599164187908,
                "z": 0.005598929710686207
            },
            "position": {
                "x": 0.11585023208521307,
                "y": 0.44412534475326537,
                "z": 0.3711530566215515
            }
        },
        "name": "move_to_auspresseinheit_A"
    },
    "id": "LBTRRT_move_to_auspresseinheit_A_129",
    "joint_names": [
        "shoulder_pan_joint",
        "shoulder_lift_joint",
        "elbow_joint",
        "wrist_1_joint",
        "wrist_2_joint",
        "wrist_3_joint"
    ],
    "metrics": {
        "cart_traj_len": 0.6595382944600862,
        "distance_elbow_joint": 0.026181222308528707,
        "distance_shoulder_lift_joint": 0.5360139316144743,
        "distance_shoulder_pan_joint": 1.0442416736715143,
        "distance_wrist_1_joint": 1.1087034149599622,
        "distance_wrist_2_joint": 0.5272724304867863,
        "distance_wrist_3_joint": 1.3502127673313336,
        "smoothness": 1.0318881008430552,
        "time": 5.028832544999999,
        "traj_len": 2.143041166280433,
        "weighted_distance": 2.988147724005963
    },
    "planner": "LBTRRT",
    "start": {
        "state": {
            "elbow_joint": 2.4225746658250005,
            "shoulder_lift_joint": -1.3736534386056498,
            "shoulder_pan_joint": -0.3378633547517467,
            "wrist_1_joint": -1.0288598680537169,
            "wrist_2_joint": 1.233022673432363,
            "wrist_3_joint": -3.0940220416140027
        }
    },
    "waypoints": [
        {
            "positions": [
                -0.3378633547517467,
                -1.3736534386056498,
                2.4225746658250005,
                -1.0288598680537169,
                1.233022673432363,
                -3.0940220416140027
            ]
        },
        {
            "positions": [
                -0.2481176383890824,
                -1.4407169203565882,
                2.4203651247038303,
                -0.9101978267276728,
                1.228605395570905,
                -2.9996845304116406
            ]
        },
        {
            "positions": [
                -0.1583719220264181,
                -1.5077804021075267,
                2.41815558358266,
                -0.7915357854016287,
                1.2241881177094471,
                -2.905347019209278
            ]
        },
        {
            "positions": [
                -0.06862620566375377,
                -1.574843883858465,
                2.41594604246149,
                -0.6728737440755845,
                1.2197708398479892,
                -2.811009508006916
            ]
        },
        {
            "positions": [
                0.02111951069891055,
                -1.6419073656094034,
                2.4137365013403196,
                -0.5542117027495406,
                1.2153535619865314,
                -2.7166719968045534
            ]
        },
        {
            "positions": [
                0.11086522706157492,
                -1.7089708473603418,
                2.4115269602191494,
                -0.4355496614234964,
                1.2109362841250735,
                -2.6223344856021913
            ]
        },
        {
            "positions": [
                0.20061094342423919,
                -1.7760343291112801,
                2.409317419097979,
                -0.3168876200974523,
                1.2065190062636155,
                -2.527996974399829
            ]
        },
        {
            "positions": [
                0.2903566597869036,
                -1.8430978108622187,
                2.407107877976809,
                -0.19822557877140828,
                1.2021017284021576,
                -2.4336594631974666
            ]
        },
        {
            "positions": [
                0.37356099161347645,
                -1.8564117227337997,
                2.4049649910847415,
                -0.25383940390693904,
                1.1028314313108414,
                -2.571629500980426
            ]
        },
        {
            "positions": [
                0.4567653234400493,
                -1.8697256346053808,
                2.402822104192674,
                -0.3094532290424698,
                1.0035611342195252,
                -2.7095995387633858
            ]
        },
        {
            "positions": [
                0.539969655266622,
                -1.883039546476962,
                2.4006792173006066,
                -0.36506705417800056,
                0.904290837128209,
                -2.847569576546345
            ]
        },
        {
            "positions": [
                0.6231739870931949,
                -1.896353458348543,
                2.398536330408539,
                -0.4206808793135313,
                0.8050205400368928,
                -2.9855396143293045
            ]
        },
        {
            "positions": [
                0.7063783189197677,
                -1.9096673702201241,
                2.3963934435164718,
                -0.4762947044490621,
                0.7057502429455768,
                -3.123509652112264
            ]
        }
    ]
}