{
    "goal": {
        "global_pose": {
            "orientation": {
                "w": 0.5084816262002911,
                "x": -0.4908360881923452,
                "y": 0.5182115481033761,
                "z": -0.48164630358495003
            },
            "position": {
                "x": 0.5540239810943604,
                "y": -0.46912469901144505,
                "z": 0.16403168439865112
            }
        },
        "name": "move_to_storage_B"
    },
    "id": "LBTRRT_move_to_storage_B_123",
    "joint_names": [
        "shoulder_pan_joint",
        "shoulder_lift_joint",
        "elbow_joint",
        "wrist_1_joint",
        "wrist_2_joint",
        "wrist_3_joint"
    ],
    "metrics": {
        "cart_traj_len": 1.0985440676299625,
        "distance_elbow_joint": 0.8145694444745524,
        "distance_shoulder_lift_joint": 1.0228954392180483,
        "distance_shoulder_pan_joint": 0.18009982656750945,
        "distance_wrist_1_joint": 3.0254020920984575,
        "distance_wrist_2_joint": 2.716280698741899,
        "distance_wrist_3_joint": 3.117552603681217,
        "smoothness": 0.11322425640895786,
        "time": 5.057113478000001,
        "traj_len": 3.297999409457449,
        "weighted_distance": 4.780542657793618
    },
    "planner": "LBTRRT",
    "start": {
        "state": {
            "elbow_joint": 1.664937868594044,
            "shoulder_lift_joint": -0.661644460510453,
            "shoulder_pan_joint": -0.9139846352900073,
            "wrist_1_joint": 2.146753192139373,
            "wrist_2_joint": -2.2341966793290973,
            "wrist_3_joint": 0.005466555786416001
        }
    },
    "waypoints": [
        {
            "positions": [
                -0.9139846352900073,
                -0.661644460510453,
                1.664937868594044,
                2.146753192139373,
                -2.2341966793290973,
                0.005466555786416001
            ]
        },
        {
            "positions": [
                -0.9209449242082819,
                -0.7111247528951136,
                1.704040647143904,
                2.063241223748771,
                -2.14820898316642,
                -0.12325580982382336
            ]
        },
        {
            "positions": [
                -0.9279052131265565,
                -0.7606050452797741,
                1.7431434256937641,
                1.9797292553581691,
                -2.0622212870037426,
                -0.2519781754340627
            ]
        },
        {
            "positions": [
                -0.9348655020448311,
                -0.8100853376644348,
                1.7822462042436245,
                1.896217286967567,
                -1.9762335908410653,
                -0.38070054104430207
            ]
        },
        {
            "positions": [
                -0.9418257909631057,
                -0.8595656300490954,
                1.8213489827934846,
                1.812705318576965,
                -1.890245894678388,
                -0.5094229066545415
            ]
        },
        {
            "positions": [
                -0.9487860798813803,
                -0.9090459224337559,
                1.8604517613433447,
                1.7291933501863632,
                -1.804258198515711,
                -0.6381452722647808
            ]
        },
        {
            "positions": [
                -0.9557463687996549,
                -0.9585262148184166,
                1.8995545398932048,
                1.645681381795761,
                -1.7182705023530334,
                -0.7668676378750202
            ]
        },
        {
            "positions": [
                -0.9627066577179295,
                -1.008006507203077,
                1.9386573184430649,
                1.5621694134051591,
                -1.6322828061903563,
                -0.8955900034852595
            ]
        },
        {
            "positions": [
                -0.9696669466362041,
                -1.0574867995877377,
                1.9777600969929252,
                1.478657445014557,
                -1.5462951100276787,
                -1.024312369095499
            ]
        },
        {
            "positions": [
                -0.9766272355544787,
                -1.1069670919723982,
                2.016862875542785,
                1.3951454766239553,
                -1.4603074138650016,
                -1.1530347347057381
            ]
        },
        {
            "positions": [
                -0.9835875244727533,
                -1.1564473843570588,
                2.0559656540926454,
                1.3116335082333532,
                -1.3743197177023243,
                -1.2817571003159776
            ]
        },
        {
            "positions": [
                -0.9905478133910279,
                -1.2059276767417195,
                2.0950684326425053,
                1.2281215398427512,
                -1.288332021539647,
                -1.410479465926217
            ]
        },
        {
            "positions": [
                -0.9975081023093025,
                -1.25540796912638,
                2.1341712111923656,
                1.144609571452149,
                -1.2023443253769697,
                -1.5392018315364564
            ]
        },
        {
            "positions": [
                -1.0044683912275771,
                -1.3048882615110406,
                2.173273989742226,
                1.061097603061547,
                -1.1163566292142924,
                -1.6679241971466958
            ]
        },
        {
            "positions": [
                -1.0114286801458516,
                -1.3543685538957013,
                2.212376768292086,
                0.9775856346709451,
                -1.030368933051615,
                -1.796646562756935
            ]
        },
        {
            "positions": [
                -1.0183889690641263,
                -1.4038488462803618,
                2.251479546841946,
                0.894073666280343,
                -0.9443812368889377,
                -1.9253689283671744
            ]
        },
        {
            "positions": [
                -1.0242116992790025,
                -1.3822572267843511,
                2.2339389494398962,
                0.7577103919542332,
                -0.8346531402503424,
                -2.01665486063853
            ]
        },
        {
            "positions": [
                -1.0300344294938788,
                -1.3606656072883403,
                2.2163983520378463,
                0.6213471176281233,
                -0.7249250436117471,
                -2.1079407929098863
            ]
        },
        {
            "positions": [
                -1.035857159708755,
                -1.3390739877923297,
                2.1988577546357964,
                0.48498384330201355,
                -0.615196946973152,
                -2.199226725181242
            ]
        },
        {
            "positions": [
                -1.041679889923631,
                -1.3174823682963188,
                2.181317157233746,
                0.34862056897590366,
                -0.5054688503345566,
                -2.290512657452598
            ]
        },
        {
            "positions": [
                -1.0475026201385074,
                -1.2958907488003082,
                2.163776559831696,
                0.21225729464979382,
                -0.3957407536959614,
                -2.381798589723954
            ]
        },
        {
            "positions": [
                -1.0533253503533835,
                -1.2742991293042973,
                2.146235962429646,
                0.07589402032368409,
                -0.2860126570573661,
                -2.4730845219953097
            ]
        },
        {
            "positions": [
                -1.0591480805682596,
                -1.2527075098082867,
                2.128695365027596,
                -0.060469254002425754,
                -0.17628456041877094,
                -2.5643704542666654
            ]
        },
        {
            "positions": [
                -1.0649708107831357,
                -1.2311158903122759,
                2.111154767625546,
                -0.1968325283285357,
                -0.06655646378017555,
                -2.6556563865380216
            ]
        },
        {
            "positions": [
                -1.070793540998012,
                -1.2095242708162652,
                2.0936141702234963,
                -0.3331958026546453,
                0.04317163285841963,
                -2.7469423188093773
            ]
        },
        {
            "positions": [
                -1.0766162712128882,
                -1.1879326513202544,
                2.076073572821446,
                -0.4695590769807554,
                0.1528997294970149,
                -2.838228251080733
            ]
        },
        {
            "positions": [
                -1.0824390014277643,
                -1.1663410318242438,
                2.058532975419396,
                -0.605922351306865,
                0.2626278261356101,
                -2.9295141833520892
            ]
        },
        {
            "positions": [
                -1.0882617316426406,
                -1.144749412328233,
                2.040992378017346,
                -0.7422856256329748,
                0.3723559227742055,
                -3.020800115623445
            ]
        },
        {
            "positions": [
                -1.0940844618575167,
                -1.1231577928322223,
                2.023451780615296,
                -0.8786488999590847,
                0.4820840194128006,
                -3.1120860478948007
            ]
        }
    ]
}