{
    "goal": {
        "global_pose": {
            "orientation": {
                "w": -0.4816463035849501,
                "x": 0.5182115481033762,
                "y": 0.4908360881923453,
                "z": -0.5084816262002911
            },
            "position": {
                "x": -0.8240239810943604,
                "y": -0.300875300988555,
                "z": 0.16403168439865112
            }
        },
        "name": "move_to_storage_C"
    },
    "id": "LBTRRT_move_to_storage_C_132",
    "joint_names": [
        "shoulder_pan_joint",
        "shoulder_lift_joint",
        "elbow_joint",
        "wrist_1_joint",
        "wrist_2_joint",
        "wrist_3_joint"
    ],
    "metrics": {
        "cart_traj_len": 0.5769083753442744,
        "distance_elbow_joint": 0.2600644525794529,
        "distance_shoulder_lift_joint": 0.18902710702571557,
        "distance_shoulder_pan_joint": 0.4937565538223372,
        "distance_wrist_1_joint": 0.08456771802949659,
        "distance_wrist_2_joint": 1.077034532019029,
        "distance_wrist_3_joint": 0.06848998175635534,
        "smoothness": 0.0,
        "time": 5.003906454,
        "traj_len": 1.474089666618821,
        "weighted_distance": 1.8632022323928294
    },
    "planner": "LBTRRT",
    "start": {
        "state": {
            "elbow_joint": 2.010868314990456,
            "shoulder_lift_joint": -1.1634956873337592,
            "shoulder_pan_joint": -2.4736205022346125,
            "wrist_1_joint": -0.8367026794202681,
            "wrist_2_joint": 0.6746043897044499,
            "wrist_3_joint": -3.1496632123970403
        }
    },
    "waypoints": [
        {
            "positions": [
                -2.4736205022346125,
                -1.1634956873337592,
                2.010868314990456,
                -0.8367026794202681,
                0.6746043897044499,
                -3.1496632123970403
            ]
        },
        {
            "positions": [
                -2.555913261205002,
                -1.13199116949614,
                1.967524239560547,
                -0.8226080597486853,
                0.8541101450409547,
                -3.1382482154376476
            ]
        },
        {
            "positions": [
                -2.6382060201753914,
                -1.1004866516585206,
                1.9241801641306382,
                -0.8085134400771026,
                1.0336159003774597,
                -3.126833218478255
            ]
        },
        {
            "positions": [
                -2.720498779145781,
                -1.0689821338209013,
                1.8808360887007294,
                -0.7944188204055198,
                1.2131216557139646,
                -3.115418221518863
            ]
        },
        {
            "positions": [
                -2.8027915381161708,
                -1.0374776159832821,
                1.8374920132708206,
                -0.780324200733937,
                1.3926274110504693,
                -3.10400322455947
            ]
        },
        {
            "positions": [
                -2.8850842970865602,
                -1.005973098145663,
                1.7941479378409118,
                -0.7662295810623543,
                1.5721331663869742,
                -3.0925882276000776
            ]
        },
        {
            "positions": [
                -2.9673770560569497,
                -0.9744685803080436,
                1.750803862411003,
                -0.7521349613907715,
                1.7516389217234791,
                -3.081173230640685
            ]
        }
    ]
}