{
    "goal": {
        "global_pose": {
            "orientation": {
                "w": 0.5084816262002911,
                "x": -0.4908360881923452,
                "y": 0.5182115481033761,
                "z": -0.48164630358495003
            },
            "position": {
                "x": 0.5540239810943604,
                "y": -0.46912469901144505,
                "z": 0.16403168439865112
            }
        },
        "name": "move_to_storage_B"
    },
    "id": "LBTRRT_move_to_storage_B_113",
    "joint_names": [
        "shoulder_pan_joint",
        "shoulder_lift_joint",
        "elbow_joint",
        "wrist_1_joint",
        "wrist_2_joint",
        "wrist_3_joint"
    ],
    "metrics": {
        "cart_traj_len": 1.9741073344693083,
        "distance_elbow_joint": 1.0982900229947004,
        "distance_shoulder_lift_joint": 1.2966074572737631,
        "distance_shoulder_pan_joint": 1.3294654349552621,
        "distance_wrist_1_joint": 3.7691284878055455,
        "distance_wrist_2_joint": 3.5592872963691082,
        "distance_wrist_3_joint": 3.146003508307156,
        "smoothness": 0.5274350382660045,
        "time": 5.060168904,
        "traj_len": 3.7681271485587557,
        "weighted_distance": 5.2743914348950725
    },
    "planner": "LBTRRT",
    "start": {
        "state": {
            "elbow_joint": 1.664937868594044,
            "shoulder_lift_joint": -0.661644460510453,
            "shoulder_pan_joint": -0.9139846352900073,
            "wrist_1_joint": 2.146753192139373,
            "wrist_2_joint": -2.2341966793290973,
            "wrist_3_joint": 0.005466555786416001
        }
    },
    "waypoints": [
        {
            "positions": [
                -0.9139846352900073,
                -0.661644460510453,
                1.664937868594044,
                2.146753192139373,
                -2.2341966793290973,
                0.005466555786416001
            ]
        },
        {
            "positions": [
                -0.840797287940282,
                -0.747403456365712,
                1.7200659416318307,
                2.224264965308507,
                -2.3194860003656435,
                0.010386319504589792
            ]
        },
        {
            "positions": [
                -0.7676099405905568,
                -0.8331624522209711,
                1.7751940146696175,
                2.301776738477641,
                -2.40477532140219,
                0.015306083222763583
            ]
        },
        {
            "positions": [
                -0.6944225932408314,
                -0.9189214480762302,
                1.8303220877074042,
                2.3792885116467746,
                -2.4900646424387363,
                0.020225846940937375
            ]
        },
        {
            "positions": [
                -0.6212352458911061,
                -1.0046804439314894,
                1.885450160745191,
                2.4568002848159085,
                -2.575353963475283,
                0.025145610659111167
            ]
        },
        {
            "positions": [
                -0.5480478985413809,
                -1.0904394397867483,
                1.9405782337829778,
                2.5343120579850424,
                -2.660643284511829,
                0.03006537437728496
            ]
        },
        {
            "positions": [
                -0.536514670210171,
                -1.1153888928166038,
                1.9198736516800248,
                2.4741352478216307,
                -2.544316449620866,
                0.17403714624810132
            ]
        },
        {
            "positions": [
                -0.524981441878961,
                -1.140338345846459,
                1.8991690695770715,
                2.413958437658219,
                -2.4279896147299027,
                0.3180089181189177
            ]
        },
        {
            "positions": [
                -0.513448213547751,
                -1.1652877988763146,
                1.8784644874741185,
                2.353781627494807,
                -2.3116627798389398,
                0.4619806899897341
            ]
        },
        {
            "positions": [
                -0.5019149852165411,
                -1.19023725190617,
                1.8577599053711653,
                2.293604817331395,
                -2.195335944947977,
                0.6059524618605504
            ]
        },
        {
            "positions": [
                -0.4903817568853311,
                -1.2151867049360254,
                1.8370553232682123,
                2.2334280071679835,
                -2.0790091100570134,
                0.7499242337313669
            ]
        },
        {
            "positions": [
                -0.4788485285541212,
                -1.2401361579658807,
                1.816350741165259,
                2.173251197004572,
                -1.9626822751660504,
                0.8938960056021832
            ]
        },
        {
            "positions": [
                -0.4673153002229112,
                -1.2650856109957362,
                1.795646159062306,
                2.11307438684116,
                -1.846355440275087,
                1.0378677774729996
            ]
        },
        {
            "positions": [
                -0.4557820718917012,
                -1.2900350640255915,
                1.7749415769593528,
                2.0528975766777484,
                -1.730028605384124,
                1.1818395493438159
            ]
        },
        {
            "positions": [
                -0.44424884356049127,
                -1.314984517055447,
                1.7542369948563998,
                1.9927207665143365,
                -1.6137017704931609,
                1.3258113212146323
            ]
        },
        {
            "positions": [
                -0.4327156152292813,
                -1.3399339700853026,
                1.7335324127534468,
                1.9325439563509246,
                -1.4973749356021977,
                1.4697830930854487
            ]
        },
        {
            "positions": [
                -0.4211823868980713,
                -1.3648834231151579,
                1.7128278306504936,
                1.8723671461875129,
                -1.3810481007112345,
                1.6137548649562652
            ]
        },
        {
            "positions": [
                -0.4096491585668614,
                -1.3898328761450132,
                1.6921232485475406,
                1.8121903360241012,
                -1.2647212658202716,
                1.7577266368270814
            ]
        },
        {
            "positions": [
                -0.3981159302356514,
                -1.4147823291748687,
                1.6714186664445874,
                1.7520135258606895,
                -1.1483944309293084,
                1.9016984086978979
            ]
        },
        {
            "positions": [
                -0.38658270190444144,
                -1.4397317822047242,
                1.6507140843416344,
                1.6918367156972778,
                -1.0320675960383452,
                2.045670180568714
            ]
        },
        {
            "positions": [
                -0.3750494735732315,
                -1.4646812352345795,
                1.6300095022386811,
                1.6316599055338659,
                -0.915740761147382,
                2.1896419524395307
            ]
        },
        {
            "positions": [
                -0.36351624524202153,
                -1.489630688264435,
                1.6093049201357281,
                1.5714830953704542,
                -0.799413926256419,
                2.3336137243103465
            ]
        },
        {
            "positions": [
                -0.3519830169108116,
                -1.5145801412942905,
                1.5886003380327751,
                1.5113062852070422,
                -0.6830870913654559,
                2.477585496181163
            ]
        },
        {
            "positions": [
                -0.3404497885796016,
                -1.5395295943241458,
                1.5678957559298219,
                1.4511294750436305,
                -0.5667602564744926,
                2.6215572680519794
            ]
        },
        {
            "positions": [
                -0.3944448305970914,
                -1.5096208569341407,
                1.6000362687835799,
                1.2869589722565975,
                -0.4925489948209898,
                2.65940818205495
            ]
        },
        {
            "positions": [
                -0.4484398726145812,
                -1.4797121195441358,
                1.6321767816373376,
                1.1227884694695645,
                -0.418337733167487,
                2.697259096057921
            ]
        },
        {
            "positions": [
                -0.5024349146320709,
                -1.4498033821541307,
                1.6643172944910956,
                0.9586179666825312,
                -0.34412647151398423,
                2.7351100100608923
            ]
        },
        {
            "positions": [
                -0.5564299566495607,
                -1.4198946447641256,
                1.6964578073448535,
                0.7944474638954981,
                -0.2699152098604814,
                2.772960924063863
            ]
        },
        {
            "positions": [
                -0.6104249986670505,
                -1.3899859073741208,
                1.7285983201986115,
                0.630276961108465,
                -0.19570394820697856,
                2.810811838066834
            ]
        },
        {
            "positions": [
                -0.6644200406845402,
                -1.3600771699841157,
                1.7607388330523692,
                0.46610645832143194,
                -0.12149268655347584,
                2.8486627520698047
            ]
        },
        {
            "positions": [
                -0.71841508270203,
                -1.3301684325941108,
                1.7928793459061272,
                0.3019359555343988,
                -0.047281424899973,
                2.8865136660727755
            ]
        },
        {
            "positions": [
                -0.7724101247195198,
                -1.3002596952041057,
                1.8250198587598851,
                0.13776545274736574,
                0.02692983675352978,
                2.9243645800757467
            ]
        },
        {
            "positions": [
                -0.8264051667370096,
                -1.2703509578141006,
                1.857160371613643,
                -0.026405050039667533,
                0.10114109840703267,
                2.9622154940787175
            ]
        },
        {
            "positions": [
                -0.8804002087544993,
                -1.2404422204240957,
                1.8893008844674009,
                -0.19057555282670058,
                0.17535236006053545,
                3.0000664080816883
            ]
        },
        {
            "positions": [
                -0.9343952507719891,
                -1.2105334830340906,
                1.9214413973211588,
                -0.3547460556137336,
                0.24956362171403812,
                3.037917322084659
            ]
        },
        {
            "positions": [
                -0.9883902927894789,
                -1.1806247456440855,
                1.9535819101749166,
                -0.5189165584007667,
                0.3237748833675409,
                3.0757682360876304
            ]
        },
        {
            "positions": [
                -1.0423853348069687,
                -1.1507160082540806,
                1.9857224230286745,
                -0.6830870611878002,
                0.3979861450210438,
                3.113619150090601
            ]
        },
        {
            "positions": [
                -1.0963803768244584,
                -1.1208072708640755,
                2.0178629358824325,
                -0.847257563974833,
                0.47219740667454646,
                3.151470064093572
            ]
        }
    ]
}