{
    "goal": {
        "global_pose": {
            "orientation": {
                "w": 0.7047431468963623,
                "x": -0.7094548344612122,
                "y": 0.0024358443915843964,
                "z": -0.0022348060738295317
            },
            "position": {
                "x": 0.6094750761985779,
                "y": 0.3671506643295288,
                "z": 0.19426114857196808
            }
        },
        "name": "move_to_magneteinheit_A"
    },
    "id": "LBTRRT_move_to_magneteinheit_A_100",
    "joint_names": [
        "shoulder_pan_joint",
        "shoulder_lift_joint",
        "elbow_joint",
        "wrist_1_joint",
        "wrist_2_joint",
        "wrist_3_joint"
    ],
    "metrics": {
        "cart_traj_len": 3.6192207733292943,
        "distance_elbow_joint": 3.8691137738768413,
        "distance_shoulder_lift_joint": 0.36993368211629596,
        "distance_shoulder_pan_joint": 2.890104132134762,
        "distance_wrist_1_joint": 0.860218758729615,
        "distance_wrist_2_joint": 2.1818097728275405,
        "distance_wrist_3_joint": 2.9058623930526792,
        "smoothness": 0.531727123958505,
        "time": 5.04127765,
        "traj_len": 3.6162193673417726,
        "weighted_distance": 4.683032759911065
    },
    "planner": "LBTRRT",
    "start": {
        "state": {
            "elbow_joint": -1.9196185241190666,
            "shoulder_lift_joint": -1.2443396400964142,
            "shoulder_pan_joint": 2.6996025414629847,
            "wrist_1_joint": -1.5485510000780065,
            "wrist_2_joint": -1.5709468930060704,
            "wrist_3_joint": 0.4420197071253992
        }
    },
    "waypoints": [
        {
            "positions": [
                2.6996025414629847,
                -1.2443396400964142,
                -1.9196185241190666,
                -1.5485510000780065,
                -1.5709468930060704,
                0.4420197071253992
            ]
        },
        {
            "positions": [
                2.6261737449403633,
                -1.231075249031173,
                -1.9130720081736816,
                -1.5352543640107703,
                -1.4545424189613145,
                0.561484262113991
            ]
        },
        {
            "positions": [
                2.5527449484177414,
                -1.2178108579659315,
                -1.9065254922282964,
                -1.5219577279435341,
                -1.3381379449165585,
                0.6809488171025828
            ]
        },
        {
            "positions": [
                2.47931615189512,
                -1.2045464669006902,
                -1.8999789762829113,
                -1.5086610918762977,
                -1.2217334708718024,
                0.8004133720911746
            ]
        },
        {
            "positions": [
                2.4058873553724984,
                -1.191282075835449,
                -1.8934324603375263,
                -1.4953644558090615,
                -1.1053289968270466,
                0.9198779270797665
            ]
        },
        {
            "positions": [
                2.3324585588498765,
                -1.1780176847702075,
                -1.886885944392141,
                -1.4820678197418253,
                -0.9889245227822906,
                1.0393424820683583
            ]
        },
        {
            "positions": [
                2.259029762327255,
                -1.1647532937049663,
                -1.880339428446756,
                -1.4687711836745891,
                -0.8725200487375346,
                1.15880703705695
            ]
        },
        {
            "positions": [
                2.168982111285835,
                -1.1697789291912306,
                -1.7404229927825328,
                -1.4470630378225608,
                -0.8287472359058095,
                1.2394604187580147
            ]
        },
        {
            "positions": [
                2.078934460244415,
                -1.174804564677495,
                -1.6005065571183097,
                -1.4253548919705323,
                -0.7849744230740842,
                1.3201138004590793
            ]
        },
        {
            "positions": [
                1.988886809202995,
                -1.1798302001637593,
                -1.4605901214540866,
                -1.403646746118504,
                -0.741201610242359,
                1.4007671821601437
            ]
        },
        {
            "positions": [
                1.898839158161575,
                -1.1848558356500236,
                -1.3206736857898633,
                -1.3819386002664755,
                -0.6974287974106338,
                1.4814205638612084
            ]
        },
        {
            "positions": [
                1.8087915071201548,
                -1.1898814711362877,
                -1.18075725012564,
                -1.3602304544144472,
                -0.6536559845789085,
                1.562073945562273
            ]
        },
        {
            "positions": [
                1.718743856078735,
                -1.194907106622552,
                -1.0408408144614172,
                -1.338522308562419,
                -0.6098831717471833,
                1.6427273272633376
            ]
        },
        {
            "positions": [
                1.6286962050373148,
                -1.1999327421088164,
                -0.9009243787971938,
                -1.3168141627103904,
                -0.5661103589154581,
                1.7233807089644022
            ]
        },
        {
            "positions": [
                1.5386485539958947,
                -1.2049583775950807,
                -0.7610079431329706,
                -1.2951060168583621,
                -0.522337546083733,
                1.8040340906654668
            ]
        },
        {
            "positions": [
                1.4486009029544746,
                -1.209984013081345,
                -0.6210915074687475,
                -1.2733978710063336,
                -0.4785647332520077,
                1.8846874723665312
            ]
        },
        {
            "positions": [
                1.3585532519130545,
                -1.2150096485676094,
                -0.48117507180452423,
                -1.2516897251543053,
                -0.4347919204202824,
                1.9653408540675958
            ]
        },
        {
            "positions": [
                1.2685056008716344,
                -1.2200352840538737,
                -0.34125863614030116,
                -1.229981579302277,
                -0.39101910758855724,
                2.0459942357686605
            ]
        },
        {
            "positions": [
                1.1784579498302146,
                -1.225060919540138,
                -0.2013422004760781,
                -1.2082734334502485,
                -0.347246294756832,
                2.126647617469725
            ]
        },
        {
            "positions": [
                1.0884102987887945,
                -1.2300865550264022,
                -0.0614257648118548,
                -1.1865652875982202,
                -0.3034734819251068,
                2.2073009991707897
            ]
        },
        {
            "positions": [
                0.9983626477473744,
                -1.2351121905126665,
                0.0784906708523685,
                -1.1648571417461917,
                -0.2597006690933815,
                2.287954380871854
            ]
        },
        {
            "positions": [
                0.9083149967059545,
                -1.2401378259989309,
                0.21840710651659156,
                -1.1431489958941634,
                -0.21592785626165634,
                2.3686077625729185
            ]
        },
        {
            "positions": [
                0.8182673456645344,
                -1.2451634614851952,
                0.35832354218081486,
                -1.1214408500421351,
                -0.17215504342993115,
                2.4492611442739833
            ]
        },
        {
            "positions": [
                0.7282196946231143,
                -1.2501890969714595,
                0.49823997784503815,
                -1.0997327041901066,
                -0.12838223059820586,
                2.529914525975048
            ]
        },
        {
            "positions": [
                0.6381720435816944,
                -1.2552147324577239,
                0.638156413509261,
                -1.0780245583380783,
                -0.08460941776648079,
                2.6105679076761126
            ]
        },
        {
            "positions": [
                0.5481243925402741,
                -1.2602403679439882,
                0.7780728491734843,
                -1.05631641248605,
                -0.040836604934755494,
                2.691221289377177
            ]
        },
        {
            "positions": [
                0.458076741498854,
                -1.2652660034302525,
                0.9179892848377076,
                -1.0346082666340215,
                0.0029362078969698002,
                2.7718746710782414
            ]
        },
        {
            "positions": [
                0.36802909045743415,
                -1.2702916389165166,
                1.0579057205019304,
                -1.0129001207819932,
                0.04670902072869487,
                2.852528052779306
            ]
        },
        {
            "positions": [
                0.27798143941601405,
                -1.275317274402781,
                1.1978221561661537,
                -0.9911919749299647,
                0.09048183356042017,
                2.933181434480371
            ]
        },
        {
            "positions": [
                0.18793378837459418,
                -1.2803429098890453,
                1.337738591830377,
                -0.9694838290779364,
                0.13425464639214546,
                3.0138348161814354
            ]
        },
        {
            "positions": [
                0.09788613733317408,
                -1.2853685453753096,
                1.4776550274945999,
                -0.947775683225908,
                0.17802745922387064,
                3.0944881978825
            ]
        },
        {
            "positions": [
                0.007838486291753946,
                -1.290394180861574,
                1.6175714631588232,
                -0.9260675373738796,
                0.22180027205559594,
                3.1751415795835647
            ]
        },
        {
            "positions": [
                -0.006177223322015986,
                -1.2523298214976464,
                1.6790313287176142,
                -0.8851015591583895,
                0.1401878033315553,
                3.1323798623878947
            ]
        },
        {
            "positions": [
                -0.020192932935785918,
                -1.2142654621337188,
                1.740491194276405,
                -0.8441355809428994,
                0.058575334607514684,
                3.0896181451922247
            ]
        },
        {
            "positions": [
                -0.03420864254955585,
                -1.1762011027697912,
                1.801951059835196,
                -0.8031696027274093,
                -0.023037134116525956,
                3.0468564279965547
            ]
        },
        {
            "positions": [
                0.04393783151155415,
                -1.1509444175315624,
                1.8757231547964852,
                -0.7457509220379004,
                0.04907546668035061,
                3.0246287434928028
            ]
        },
        {
            "positions": [
                0.12208430557266416,
                -1.1256877322933336,
                1.9494952497577747,
                -0.6883322413483915,
                0.12118806747722718,
                3.002401058989051
            ]
        }
    ]
}