{
    "goal": {
        "global_pose": {
            "orientation": {
                "w": 0.7047431468963623,
                "x": -0.7094548344612122,
                "y": 0.0024358443915843964,
                "z": -0.0022348060738295317
            },
            "position": {
                "x": 0.6094750761985779,
                "y": 0.3671506643295288,
                "z": 0.19426114857196808
            }
        },
        "name": "move_to_magneteinheit_A"
    },
    "id": "LBTRRT_move_to_magneteinheit_A_66",
    "joint_names": [
        "shoulder_pan_joint",
        "shoulder_lift_joint",
        "elbow_joint",
        "wrist_1_joint",
        "wrist_2_joint",
        "wrist_3_joint"
    ],
    "metrics": {
        "cart_traj_len": 3.020044549764765,
        "distance_elbow_joint": 3.8726379855508446,
        "distance_shoulder_lift_joint": 1.0489831041250923,
        "distance_shoulder_pan_joint": 2.8534169454409737,
        "distance_wrist_1_joint": 1.771996875325479,
        "distance_wrist_2_joint": 1.698548310913582,
        "distance_wrist_3_joint": 2.561645698850951,
        "smoothness": 0.16614962425352256,
        "time": 5.0313221619999995,
        "traj_len": 3.7158079767672225,
        "weighted_distance": 4.732976389561635
    },
    "planner": "LBTRRT",
    "start": {
        "state": {
            "elbow_joint": -1.9196185241190666,
            "shoulder_lift_joint": -1.2443396400964142,
            "shoulder_pan_joint": 2.6996025414629847,
            "wrist_1_joint": -1.5485510000780065,
            "wrist_2_joint": -1.5709468930060704,
            "wrist_3_joint": 0.4420197071253992
        }
    },
    "waypoints": [
        {
            "positions": [
                2.6996025414629847,
                -1.2443396400964142,
                -1.9196185241190666,
                -1.5485510000780065,
                -1.5709468930060704,
                0.4420197071253992
            ]
        },
        {
            "positions": [
                2.6063246921793195,
                -1.262291890559006,
                -1.7754607027197364,
                -1.4980322121344563,
                -1.5287720043723594,
                0.4797432262066615
            ]
        },
        {
            "positions": [
                2.513046842895654,
                -1.2802441410215977,
                -1.6313028813204065,
                -1.4475134241909062,
                -1.4865971157386484,
                0.5174667452879238
            ]
        },
        {
            "positions": [
                2.4197689936119886,
                -1.2981963914841894,
                -1.4871450599210765,
                -1.396994636247356,
                -1.4444222271049374,
                0.5551902643691862
            ]
        },
        {
            "positions": [
                2.326491144328323,
                -1.3161486419467812,
                -1.3429872385217463,
                -1.346475848303806,
                -1.4022473384712264,
                0.5929137834504485
            ]
        },
        {
            "positions": [
                2.2332132950446577,
                -1.334100892409373,
                -1.198829417122416,
                -1.2959570603602557,
                -1.3600724498375154,
                0.6306373025317108
            ]
        },
        {
            "positions": [
                2.139935445760992,
                -1.3520531428719647,
                -1.054671595723086,
                -1.2454382724167057,
                -1.3178975612038044,
                0.668360821612973
            ]
        },
        {
            "positions": [
                2.046657596477327,
                -1.3700053933345564,
                -0.9105137743237561,
                -1.1949194844731554,
                -1.2757226725700934,
                0.7060843406942354
            ]
        },
        {
            "positions": [
                1.9533797471936616,
                -1.3879576437971484,
                -0.7663559529244259,
                -1.1444006965296052,
                -1.2335477839363824,
                0.7438078597754978
            ]
        },
        {
            "positions": [
                1.8601018979099961,
                -1.4059098942597401,
                -0.622198131525096,
                -1.0938819085860552,
                -1.1913728953026714,
                0.78153137885676
            ]
        },
        {
            "positions": [
                1.7668240486263307,
                -1.4238621447223319,
                -0.47804031012576575,
                -1.043363120642505,
                -1.1491980066689604,
                0.8192548979380224
            ]
        },
        {
            "positions": [
                1.6735461993426655,
                -1.4418143951849236,
                -0.3338824887264358,
                -0.9928443326989548,
                -1.1070231180352494,
                0.8569784170192847
            ]
        },
        {
            "positions": [
                1.5802683500589998,
                -1.4597666456475153,
                -0.18972466732710558,
                -0.9423255447554046,
                -1.0648482294015387,
                0.894701936100547
            ]
        },
        {
            "positions": [
                1.4869905007753346,
                -1.477718896110107,
                -0.0455668459277756,
                -0.8918067568118545,
                -1.0226733407678275,
                0.9324254551818094
            ]
        },
        {
            "positions": [
                1.3937126514916693,
                -1.4956711465726988,
                0.09859097547155438,
                -0.8412879688683044,
                -0.9804984521341166,
                0.9701489742630717
            ]
        },
        {
            "positions": [
                1.300434802208004,
                -1.5136233970352906,
                0.24274879687088458,
                -0.7907691809247542,
                -0.9383235635004057,
                1.007872493344334
            ]
        },
        {
            "positions": [
                1.2071569529243382,
                -1.5315756474978823,
                0.3869066182702148,
                -0.740250392981204,
                -0.8961486748666946,
                1.0455960124255963
            ]
        },
        {
            "positions": [
                1.113879103640673,
                -1.549527897960474,
                0.5310644396695445,
                -0.6897316050376538,
                -0.8539737862329836,
                1.0833195315068587
            ]
        },
        {
            "positions": [
                1.0206012543570075,
                -1.5674801484230658,
                0.6752222610688747,
                -0.6392128170941037,
                -0.8117988975992727,
                1.121043050588121
            ]
        },
        {
            "positions": [
                0.9273234050733423,
                -1.5854323988856576,
                0.8193800824682049,
                -0.5886940291505537,
                -0.7696240089655617,
                1.1587665696693832
            ]
        },
        {
            "positions": [
                0.8340455557896767,
                -1.6033846493482495,
                0.9635379038675351,
                -0.5381752412070033,
                -0.7274491203318506,
                1.1964900887506458
            ]
        },
        {
            "positions": [
                0.7407677065060114,
                -1.6213368998108413,
                1.1076957252668649,
                -0.4876564532634533,
                -0.6852742316981396,
                1.234213607831908
            ]
        },
        {
            "positions": [
                0.6474898572223462,
                -1.639289150273433,
                1.251853546666195,
                -0.43713766531990306,
                -0.6430993430644287,
                1.2719371269131703
            ]
        },
        {
            "positions": [
                0.5542120079386805,
                -1.6572414007360248,
                1.3960113680655253,
                -0.38661887737635303,
                -0.6009244544307177,
                1.3096606459944327
            ]
        },
        {
            "positions": [
                0.46093415865501486,
                -1.6751936511986165,
                1.5401691894648555,
                -0.3361000894328028,
                -0.5587495657970067,
                1.3473841650756948
            ]
        },
        {
            "positions": [
                0.36765630937134963,
                -1.6931459016612083,
                1.6843270108641852,
                -0.28558130148925254,
                -0.5165746771632957,
                1.3851076841569574
            ]
        },
        {
            "positions": [
                0.2743784600876844,
                -1.7110981521238,
                1.8284848322635154,
                -0.23506251354570257,
                -0.4743997885295848,
                1.4228312032382195
            ]
        },
        {
            "positions": [
                0.21625134077424468,
                -1.655581240852026,
                1.833489883934013,
                -0.2690470021197732,
                -0.42480218161925426,
                1.5463926355355204
            ]
        },
        {
            "positions": [
                0.15812422146080493,
                -1.6000643295802521,
                1.8384949356045106,
                -0.3030314906938439,
                -0.3752045747089237,
                1.6699540678328213
            ]
        },
        {
            "positions": [
                0.09999710214736521,
                -1.5445474183084782,
                1.843499987275008,
                -0.3370159792679145,
                -0.32560696779859316,
                1.7935155001301224
            ]
        },
        {
            "positions": [
                0.041869982833925457,
                -1.4890305070367043,
                1.8485050389455056,
                -0.37100046784198515,
                -0.2760093608882626,
                1.9170769324274233
            ]
        },
        {
            "positions": [
                -0.016257136479514274,
                -1.4335135957649303,
                1.8535100906160031,
                -0.4049849564160558,
                -0.22641175397793206,
                2.040638364724724
            ]
        },
        {
            "positions": [
                -0.0010055588475772169,
                -1.3933724765617126,
                1.8659742564947588,
                -0.441722786853737,
                -0.18090336586939396,
                2.165122156432187
            ]
        },
        {
            "positions": [
                0.01424601878435984,
                -1.3532313573584946,
                1.8784384223735147,
                -0.4784606172914182,
                -0.13539497776085585,
                2.28960594813965
            ]
        },
        {
            "positions": [
                0.03677625504634645,
                -1.3003616847182558,
                1.8952320840615082,
                -0.5273665834874905,
                -0.07504473903536583,
                2.455061488925452
            ]
        },
        {
            "positions": [
                0.059306491308333056,
                -1.247492012078017,
                1.912025745749502,
                -0.5762725496835629,
                -0.014694500309875819,
                2.620517029711254
            ]
        },
        {
            "positions": [
                0.08183672757031966,
                -1.1946223394377782,
                1.9288194074374956,
                -0.6251785158796352,
                0.0456557384156142,
                2.785972570497056
            ]
        },
        {
            "positions": [
                0.10156842929463991,
                -1.1617479497319358,
                1.940919434434637,
                -0.659374709109256,
                0.08662857816156289,
                2.894818988236703
            ]
        },
        {
            "positions": [
                0.12130013101896014,
                -1.1288735600260935,
                1.9530194614317784,
                -0.6935709023388767,
                0.1276014179075116,
                3.00366540597635
            ]
        }
    ]
}