{
    "goal": {
        "global_pose": {
            "orientation": {
                "w": 0.7047431468963623,
                "x": -0.7094548344612122,
                "y": 0.0024358443915843964,
                "z": -0.0022348060738295317
            },
            "position": {
                "x": 0.6094750761985779,
                "y": 0.3671506643295288,
                "z": 0.19426114857196808
            }
        },
        "name": "move_to_magneteinheit_A"
    },
    "id": "LBTRRT_move_to_magneteinheit_A_104",
    "joint_names": [
        "shoulder_pan_joint",
        "shoulder_lift_joint",
        "elbow_joint",
        "wrist_1_joint",
        "wrist_2_joint",
        "wrist_3_joint"
    ],
    "metrics": {
        "cart_traj_len": 3.3474053184329278,
        "distance_elbow_joint": 3.938829694173954,
        "distance_shoulder_lift_joint": 1.2386304726546329,
        "distance_shoulder_pan_joint": 2.5851812451465133,
        "distance_wrist_1_joint": 4.462249682801312,
        "distance_wrist_2_joint": 2.2062961625943185,
        "distance_wrist_3_joint": 1.1703013540085447,
        "smoothness": 0.32875405565191435,
        "time": 5.054024001,
        "traj_len": 3.9498719740491945,
        "weighted_distance": 4.960910920868465
    },
    "planner": "LBTRRT",
    "start": {
        "state": {
            "elbow_joint": -1.9196185241190666,
            "shoulder_lift_joint": -1.2443396400964142,
            "shoulder_pan_joint": 2.6996025414629847,
            "wrist_1_joint": -1.5485510000780065,
            "wrist_2_joint": -1.5709468930060704,
            "wrist_3_joint": 0.4420197071253992
        }
    },
    "waypoints": [
        {
            "positions": [
                2.6996025414629847,
                -1.2443396400964142,
                -1.9196185241190666,
                -1.5485510000780065,
                -1.5709468930060704,
                0.4420197071253992
            ]
        },
        {
            "positions": [
                2.6143835254951386,
                -1.273375738561091,
                -1.811540726824147,
                -1.467023747914856,
                -1.5259277775981843,
                0.40582705589640733
            ]
        },
        {
            "positions": [
                2.529164509527292,
                -1.302411837025768,
                -1.7034629295292272,
                -1.3854964957517053,
                -1.480908662190298,
                0.3696344046674155
            ]
        },
        {
            "positions": [
                2.443945493559446,
                -1.331447935490445,
                -1.5953851322343073,
                -1.3039692435885546,
                -1.435889546782412,
                0.33344175343842364
            ]
        },
        {
            "positions": [
                2.3587264775915995,
                -1.360484033955122,
                -1.4873073349393877,
                -1.222441991425404,
                -1.390870431374526,
                0.2972491022094318
            ]
        },
        {
            "positions": [
                2.2735074616237534,
                -1.389520132419799,
                -1.379229537644468,
                -1.1409147392622536,
                -1.3458513159666399,
                0.26105645098043995
            ]
        },
        {
            "positions": [
                2.188288445655907,
                -1.418556230884476,
                -1.2711517403495483,
                -1.059387487099103,
                -1.3008322005587536,
                0.22486379975144807
            ]
        },
        {
            "positions": [
                2.1030694296880608,
                -1.4475923293491528,
                -1.1630739430546286,
                -0.9778602349359524,
                -1.2558130851508675,
                0.18867114852245626
            ]
        },
        {
            "positions": [
                2.0178504137202147,
                -1.4766284278138297,
                -1.0549961457597088,
                -0.8963329827728017,
                -1.2107939697429815,
                0.15247849729346435
            ]
        },
        {
            "positions": [
                1.9326313977523681,
                -1.5056645262785067,
                -0.9469183484647892,
                -0.8148057306096512,
                -1.1657748543350954,
                0.11628584606447251
            ]
        },
        {
            "positions": [
                1.847412381784522,
                -1.5347006247431838,
                -0.8388405511698693,
                -0.7332784784465005,
                -1.1207557389272091,
                0.08009319483548066
            ]
        },
        {
            "positions": [
                1.7621933658166755,
                -1.5637367232078607,
                -0.7307627538749497,
                -0.65175122628335,
                -1.075736623519323,
                0.04390054360648882
            ]
        },
        {
            "positions": [
                1.6769743498488294,
                -1.5927728216725376,
                -0.6226849565800299,
                -0.5702239741201993,
                -1.030717508111437,
                0.007707892377496972
            ]
        },
        {
            "positions": [
                1.5917553338809831,
                -1.6218089201372146,
                -0.5146071592851104,
                -0.4886967219570489,
                -0.9856983927035509,
                -0.028484758851494863
            ]
        },
        {
            "positions": [
                1.5159845861513812,
                -1.5874553683601718,
                -0.4240933041035002,
                -0.33340014635333903,
                -1.0061060252110186,
                -0.011763302127454602
            ]
        },
        {
            "positions": [
                1.4402138384217793,
                -1.553101816583129,
                -0.3335794489218901,
                -0.17810357074962913,
                -1.0265136577184861,
                0.004958154596585659
            ]
        },
        {
            "positions": [
                1.3644430906921774,
                -1.518748264806086,
                -0.24306559374027997,
                -0.022806995145919273,
                -1.0469212902259537,
                0.021679611320625913
            ]
        },
        {
            "positions": [
                1.2886723429625755,
                -1.4843947130290431,
                -0.15255173855866988,
                0.13248958045779063,
                -1.0673289227334213,
                0.038401068044666184
            ]
        },
        {
            "positions": [
                1.2129015952329736,
                -1.4500411612520003,
                -0.06203788337705973,
                0.28778615606150054,
                -1.0877365552408889,
                0.05512252476870644
            ]
        },
        {
            "positions": [
                1.1371308475033717,
                -1.4156876094749575,
                0.028475971804550415,
                0.44308273166521034,
                -1.1081441877483567,
                0.07184398149274669
            ]
        },
        {
            "positions": [
                1.0613600997737698,
                -1.3813340576979147,
                0.11898982698616056,
                0.5983793072689203,
                -1.1285518202558242,
                0.08856543821678696
            ]
        },
        {
            "positions": [
                0.9855893520441679,
                -1.3469805059208717,
                0.2095036821677706,
                0.7536758828726302,
                -1.1489594527632918,
                0.10528689494082723
            ]
        },
        {
            "positions": [
                0.909818604314566,
                -1.3126269541438291,
                0.30001753734938075,
                0.9089724584763401,
                -1.1693670852707594,
                0.12200835166486747
            ]
        },
        {
            "positions": [
                0.834047856584964,
                -1.278273402366786,
                0.3905313925309909,
                1.06426903408005,
                -1.189774717778227,
                0.13872980838890772
            ]
        },
        {
            "positions": [
                0.7582771088553621,
                -1.2439198505897433,
                0.48104524771260115,
                1.21956560968376,
                -1.2101823502856948,
                0.155451265112948
            ]
        },
        {
            "positions": [
                0.6825063611257602,
                -1.2095662988127005,
                0.5715591028942112,
                1.3748621852874696,
                -1.2305899827931623,
                0.17217272183698823
            ]
        },
        {
            "positions": [
                0.6067356133961583,
                -1.1752127470356575,
                0.6620729580758214,
                1.5301587608911795,
                -1.25099761530063,
                0.18889417856102853
            ]
        },
        {
            "positions": [
                0.5309648656665564,
                -1.140859195258615,
                0.7525868132574315,
                1.6854553364948894,
                -1.2714052478080975,
                0.20561563528506877
            ]
        },
        {
            "positions": [
                0.4551941179369545,
                -1.1065056434815719,
                0.8431006684390415,
                1.8407519120985993,
                -1.291812880315565,
                0.22233709200910906
            ]
        },
        {
            "positions": [
                0.3794233702073526,
                -1.072152091704529,
                0.9336145236206516,
                1.9960484877023092,
                -1.3122205128230326,
                0.2390585487331493
            ]
        },
        {
            "positions": [
                0.3036526224777507,
                -1.0377985399274863,
                1.0241283788022617,
                2.151345063306019,
                -1.3326281453305004,
                0.25578000545718954
            ]
        },
        {
            "positions": [
                0.2278818747481488,
                -1.0034449881504435,
                1.1146422339838717,
                2.306641638909729,
                -1.353035777837968,
                0.2725014621812298
            ]
        },
        {
            "positions": [
                0.15211112701854684,
                -0.9690914363734006,
                1.2051560891654822,
                2.461938214513439,
                -1.3734434103454356,
                0.2892229189052701
            ]
        },
        {
            "positions": [
                0.14735880516839878,
                -0.9413816797010991,
                1.312529027620537,
                2.4159038246703517,
                -1.2223904847912626,
                0.24776239876853967
            ]
        },
        {
            "positions": [
                0.14260648331825068,
                -0.9136719230287975,
                1.4199019660755918,
                2.369869434827264,
                -1.0713375592370895,
                0.20630187863180927
            ]
        },
        {
            "positions": [
                0.13785416146810262,
                -0.885962166356496,
                1.5272749045306468,
                2.3238350449841767,
                -0.9202846336829166,
                0.16484135849507886
            ]
        },
        {
            "positions": [
                0.13310183961795455,
                -0.8582524096841945,
                1.6346478429857016,
                2.2778006551410894,
                -0.7692317081287435,
                0.12338083835834843
            ]
        },
        {
            "positions": [
                0.12834951776780645,
                -0.830542653011893,
                1.7420207814407567,
                2.231766265298002,
                -0.6181787825745705,
                0.081920318221618
            ]
        },
        {
            "positions": [
                0.12359719591765839,
                -0.8028328963395914,
                1.8493937198958115,
                2.1857318754549144,
                -0.46712585702039755,
                0.040459798084887616
            ]
        },
        {
            "positions": [
                0.1188448740675103,
                -0.77512313966729,
                1.9567666583508663,
                2.139697485611827,
                -0.3160729314662246,
                -0.0010007220518427964
            ]
        },
        {
            "positions": [
                0.12105666294302872,
                -0.7823608457392441,
                1.9879889142028773,
                2.074937615957699,
                -0.2281068485808728,
                -0.0469335067107294
            ]
        },
        {
            "positions": [
                0.12326845181854713,
                -0.7895985518111984,
                2.0192111700548883,
                2.0101777463035706,
                -0.14014076569552097,
                -0.09286629136961601
            ]
        }
    ]
}