{
    "goal": {
        "global_pose": {
            "orientation": {
                "w": -0.00223480608172531,
                "x": 0.0024358444001904467,
                "y": 0.7094548369677653,
                "z": -0.704743149386269
            },
            "position": {
                "x": 0.6205249238014221,
                "y": -0.6371506643295288,
                "z": 0.19426114857196808
            }
        },
        "name": "move_to_magneteinheit_B"
    },
    "id": "LBTRRT_move_to_magneteinheit_B_25",
    "joint_names": [
        "shoulder_pan_joint",
        "shoulder_lift_joint",
        "elbow_joint",
        "wrist_1_joint",
        "wrist_2_joint",
        "wrist_3_joint"
    ],
    "metrics": {
        "cart_traj_len": 1.5817086481863434,
        "distance_elbow_joint": 0.9589062395855685,
        "distance_shoulder_lift_joint": 0.8048677339052128,
        "distance_shoulder_pan_joint": 1.6204230918123366,
        "distance_wrist_1_joint": 0.20504472187518052,
        "distance_wrist_2_joint": 1.525006575131943,
        "distance_wrist_3_joint": 0.289994275910461,
        "smoothness": 0.2996090174923216,
        "time": 5.035087754,
        "traj_len": 2.324702698888764,
        "weighted_distance": 2.7774597183485397
    },
    "planner": "LBTRRT",
    "start": {
        "state": {
            "elbow_joint": 2.6216224122426386,
            "shoulder_lift_joint": -1.4174107377796124,
            "shoulder_pan_joint": 0.7066234856936794,
            "wrist_1_joint": 1.9546482284002225,
            "wrist_2_joint": -0.7096286983471962,
            "wrist_3_joint": 0.005740856962016249
        }
    },
    "waypoints": [
        {
            "positions": [
                0.7066234856936794,
                -1.4174107377796124,
                2.6216224122426386,
                1.9546482284002225,
                -0.7096286983471962,
                0.005740856962016249
            ]
        },
        {
            "positions": [
                0.6082280405907583,
                -1.4415742306905406,
                2.5905821038514567,
                1.944304879889536,
                -0.7324692956646598,
                0.03410042692795074
            ]
        },
        {
            "positions": [
                0.48466765221808744,
                -1.396454173396419,
                2.5049967834687155,
                1.952007729646901,
                -0.8131722306044131,
                0.04683411967383466
            ]
        },
        {
            "positions": [
                0.3611072638454166,
                -1.3513341161022976,
                2.4194114630859738,
                1.9597105794042662,
                -0.8938751655441665,
                0.059567812419718584
            ]
        },
        {
            "positions": [
                0.23754687547274578,
                -1.306214058808176,
                2.3338261427032325,
                1.9674134291616312,
                -0.9745781004839198,
                0.0723015051656025
            ]
        },
        {
            "positions": [
                0.11398648710007492,
                -1.2610940015140546,
                2.248240822320491,
                1.9751162789189962,
                -1.0552810354236732,
                0.08503519791148642
            ]
        },
        {
            "positions": [
                -0.009573901272595942,
                -1.2159739442199329,
                2.1626555019377496,
                1.9828191286763615,
                -1.1359839703634265,
                0.09776889065737035
            ]
        },
        {
            "positions": [
                -0.13313428964526675,
                -1.1708538869258116,
                2.0770701815550083,
                1.9905219784337265,
                -1.2166869053031797,
                0.11050258340325428
            ]
        },
        {
            "positions": [
                -0.25669467801793766,
                -1.1257338296316899,
                1.9914848611722666,
                1.9982248281910915,
                -1.2973898402429331,
                0.12323627614913821
            ]
        },
        {
            "positions": [
                -0.38025506639060846,
                -1.0806137723375684,
                1.9058995407895252,
                2.0059276779484567,
                -1.3780927751826866,
                0.1359699688950221
            ]
        },
        {
            "positions": [
                -0.5038154547632794,
                -1.035493715043447,
                1.8203142204067837,
                2.0136305277058217,
                -1.4587957101224398,
                0.14870366164090604
            ]
        },
        {
            "positions": [
                -0.5721461466558424,
                -0.9730564274855817,
                1.7940478791151648,
                2.0345264819638564,
                -1.5881023040152231,
                0.12419841643564417
            ]
        },
        {
            "positions": [
                -0.6404768385484053,
                -0.9106191399277166,
                1.7677815378235457,
                2.055422436221891,
                -1.7174088979080062,
                0.0996931712303823
            ]
        },
        {
            "positions": [
                -0.7088075304409683,
                -0.8481818523698514,
                1.7415151965319269,
                2.076318390479926,
                -1.8467154918007895,
                0.07518792602512042
            ]
        },
        {
            "positions": [
                -0.7771382223335312,
                -0.7857445648119863,
                1.715248855240308,
                2.0972143447379605,
                -1.9760220856935726,
                0.05068268081985855
            ]
        },
        {
            "positions": [
                -0.8454689142260943,
                -0.7233072772541211,
                1.688982513948689,
                2.1181102989959952,
                -2.105328679586356,
                0.026177435614596678
            ]
        },
        {
            "positions": [
                -0.9137996061186573,
                -0.660869989696256,
                1.66271617265707,
                2.13900625325403,
                -2.2346352734791393,
                0.001672190409334793
            ]
        }
    ]
}