{
    "goal": {
        "global_pose": {
            "orientation": {
                "w": 0.5084816217422485,
                "x": -0.49083608388900757,
                "y": 0.5182115435600281,
                "z": -0.4816462993621826
            },
            "position": {
                "x": 0.5540239810943604,
                "y": 0.030875300988554955,
                "z": 0.16403168439865112
            }
        },
        "name": "move_to_storage_A"
    },
    "id": "LBTRRT_move_to_storage_A_55",
    "joint_names": [
        "shoulder_pan_joint",
        "shoulder_lift_joint",
        "elbow_joint",
        "wrist_1_joint",
        "wrist_2_joint",
        "wrist_3_joint"
    ],
    "metrics": {
        "cart_traj_len": 0.3532730659758222,
        "distance_elbow_joint": 0.4531358454587273,
        "distance_shoulder_lift_joint": 0.23594316845984897,
        "distance_shoulder_pan_joint": 0.46428029420279177,
        "distance_wrist_1_joint": 0.25479845156593395,
        "distance_wrist_2_joint": 1.0901112493785632,
        "distance_wrist_3_joint": 0.09219926682270785,
        "smoothness": 2.2204460668324854e-16,
        "time": 5.0039459299999995,
        "traj_len": 1.6094931736073232,
        "weighted_distance": 2.029723259579612
    },
    "planner": "LBTRRT",
    "start": {
        "state": {
            "elbow_joint": 1.971548259319323,
            "shoulder_lift_joint": -1.1394851275133948,
            "shoulder_pan_joint": 0.1228115487234821,
            "wrist_1_joint": -0.7804723859257726,
            "wrist_2_joint": 0.12958671773740124,
            "wrist_3_joint": -3.192489227718131
        }
    },
    "waypoints": [
        {
            "positions": [
                0.1228115487234821,
                -1.1394851275133948,
                1.971548259319323,
                -0.7804723859257726,
                0.12958671773740124,
                -3.192489227718131
            ]
        },
        {
            "positions": [
                0.05648579240879757,
                -1.1731912944362304,
                2.0362819515277124,
                -0.8168721647209061,
                0.28531689622005313,
                -3.1793179038863157
            ]
        },
        {
            "positions": [
                -0.009839963905886956,
                -1.206897461359066,
                2.101015643736102,
                -0.8532719435160394,
                0.441047074702705,
                -3.1661465800545003
            ]
        },
        {
            "positions": [
                -0.0761657202205715,
                -1.2406036282819015,
                2.1657493359444917,
                -0.8896717223111729,
                0.5967772531853569,
                -3.152975256222685
            ]
        },
        {
            "positions": [
                -0.142491476535256,
                -1.274309795204737,
                2.2304830281528814,
                -0.9260715011063063,
                0.7525074316680088,
                -3.1398039323908695
            ]
        },
        {
            "positions": [
                -0.20881723284994058,
                -1.3080159621275727,
                2.295216720361271,
                -0.9624712799014397,
                0.9082376101506607,
                -3.126632608559054
            ]
        },
        {
            "positions": [
                -0.2751429891646251,
                -1.3417221290504082,
                2.3599504125696606,
                -0.9988710586965731,
                1.0639677886333125,
                -3.1134612847272387
            ]
        },
        {
            "positions": [
                -0.34146874547930967,
                -1.3754282959732438,
                2.4246841047780503,
                -1.0352708374917066,
                1.2196979671159645,
                -3.1002899608954233
            ]
        }
    ]
}{
    "goal": {
        "global_pose": {
            "orientation": {
                "w": 0.5084816217422485,
                "x": -0.49083608388900757,
                "y": 0.5182115435600281,
                "z": -0.4816462993621826
            },
            "position": {
                "x": 0.5540239810943604,
                "y": 0.030875300988554955,
                "z": 0.16403168439865112
            }
        },
        "name": "move_to_storage_A"
    },
    "id": "LBTRRT_move_to_storage_A_55",
    "joint_names": [
        "shoulder_pan_joint",
        "shoulder_lift_joint",
        "elbow_joint",
        "wrist_1_joint",
        "wrist_2_joint",
        "wrist_3_joint"
    ],
    "metrics": {
        "cart_traj_len": 0.3534234621641621,
        "distance_elbow_joint": 0.45270052701151187,
        "distance_shoulder_lift_joint": 0.23362381085698303,
        "distance_shoulder_pan_joint": 0.46169461719473875,
        "distance_wrist_1_joint": 0.25670195598739154,
        "distance_wrist_2_joint": 1.1012172041240398,
        "distance_wrist_3_joint": 0.10017136539306648,
        "smoothness": 8.881784197001252e-16,
        "time": 5.004309436000001,
        "traj_len": 1.6143449075608756,
        "weighted_distance": 2.040679144663682
    },
    "planner": "LBTRRT",
    "start": {
        "state": {
            "elbow_joint": 1.97154746011099,
            "shoulder_lift_joint": -1.13948474672311,
            "shoulder_pan_joint": 0.12281154466712228,
            "wrist_1_joint": -0.7804688027058302,
            "wrist_2_joint": 0.12958655903071145,
            "wrist_3_joint": 3.0906928834467795
        }
    },
    "waypoints": [
        {
            "positions": [
                0.12281154466712228,
                -1.13948474672311,
                1.97154746011099,
                -0.7804688027058302,
                0.12958655903071145,
                3.0906928834467795
            ]
        },
        {
            "positions": [
                0.05685517078215961,
                -1.172859576845536,
                2.036218963969777,
                -0.8171405107040289,
                0.28690330247700285,
                3.1050030785029317
            ]
        },
        {
            "positions": [
                -0.00910120310280306,
                -1.2062344069679622,
                2.100890467828565,
                -0.8538122187022278,
                0.4442200459232942,
                3.1193132735590843
            ]
        },
        {
            "positions": [
                -0.07505757698776573,
                -1.2396092370903884,
                2.165561971687352,
                -0.8904839267004265,
                0.6015367893695857,
                3.1336234686152364
            ]
        },
        {
            "positions": [
                -0.1410139508727284,
                -1.2729840672128145,
                2.2302334755461395,
                -0.9271556346986254,
                0.7588535328158771,
                3.147933663671389
            ]
        },
        {
            "positions": [
                -0.20697032475769112,
                -1.3063588973352407,
                2.2949049794049268,
                -0.9638273426968241,
                0.9161702762621685,
                3.162243858727541
            ]
        },
        {
            "positions": [
                -0.27292669864265373,
                -1.3397337274576668,
                2.3595764832637145,
                -1.0004990506950229,
                1.0734870197084598,
                3.176554053783694
            ]
        },
        {
            "positions": [
                -0.33888307252761646,
                -1.373108557580093,
                2.424247987122502,
                -1.0371707586932217,
                1.2308037631547513,
                3.190864248839846
            ]
        }
    ]
}{
    "goal": {
        "global_pose": {
            "orientation": {
                "w": 0.5084816217422485,
                "x": -0.49083608388900757,
                "y": 0.5182115435600281,
                "z": -0.4816462993621826
            },
            "position": {
                "x": 0.5540239810943604,
                "y": 0.030875300988554955,
                "z": 0.16403168439865112
            }
        },
        "name": "move_to_storage_A"
    },
    "id": "LBTRRT_move_to_storage_A_55",
    "joint_names": [
        "shoulder_pan_joint",
        "shoulder_lift_joint",
        "elbow_joint",
        "wrist_1_joint",
        "wrist_2_joint",
        "wrist_3_joint"
    ],
    "metrics": {
        "cart_traj_len": 0.3533982768419368,
        "distance_elbow_joint": 0.44902380539481923,
        "distance_shoulder_lift_joint": 0.23570537609380238,
        "distance_shoulder_pan_joint": 0.46199470971900736,
        "distance_wrist_1_joint": 0.2373712255781777,
        "distance_wrist_2_joint": 1.1004528475631241,
        "distance_wrist_3_joint": 0.09158217387288703,
        "smoothness": 0.0,
        "time": 5.003495191000001,
        "traj_len": 1.6050327530059372,
        "weighted_distance": 2.0241340269628623
    },
    "planner": "LBTRRT",
    "start": {
        "state": {
            "elbow_joint": 1.9715472970024885,
            "shoulder_lift_joint": -1.1394870060712896,
            "shoulder_pan_joint": 0.12281152778156021,
            "wrist_1_joint": -0.780463741449964,
            "wrist_2_joint": 0.12958659822042276,
            "wrist_3_joint": 3.090690232415272
        }
    },
    "waypoints": [
        {
            "positions": [
                0.12281152778156021,
                -1.1394870060712896,
                1.9715472970024885,
                -0.780463741449964,
                0.12958659822042276,
                3.090690232415272
            ]
        },
        {
            "positions": [
                0.05681228353598773,
                -1.1731592026561186,
                2.035693554916034,
                -0.8143739165325609,
                0.2867941478722976,
                3.1037734001113986
            ]
        },
        {
            "positions": [
                -0.009186960709584746,
                -1.2068313992409474,
                2.09983981282958,
                -0.8482840916151576,
                0.4440016975241725,
                3.1168565678075253
            ]
        },
        {
            "positions": [
                -0.07518620495515721,
                -1.2405035958257764,
                2.1639860707431255,
                -0.8821942666977545,
                0.6012092471760474,
                3.129939735503652
            ]
        },
        {
            "positions": [
                -0.1411854492007297,
                -1.2741757924106052,
                2.2281323286566708,
                -0.9161044417803512,
                0.7584167968279222,
                3.1430229031997787
            ]
        },
        {
            "positions": [
                -0.20718469344630222,
                -1.3078479889954342,
                2.2922785865702164,
                -0.9500146168629481,
                0.9156243464797971,
                3.1561060708959054
            ]
        },
        {
            "positions": [
                -0.27318393769187466,
                -1.341520185580263,
                2.356424844483762,
                -0.9839247919455448,
                1.072831896131672,
                3.169189238592032
            ]
        },
        {
            "positions": [
                -0.3391831819374471,
                -1.375192382165092,
                2.4205711023973078,
                -1.0178349670281417,
                1.2300394457835468,
                3.182272406288159
            ]
        }
    ]
}