{
    "goal": {
        "global_pose": {
            "orientation": {
                "w": -0.4816463035849501,
                "x": 0.5182115481033762,
                "y": 0.4908360881923453,
                "z": -0.5084816262002911
            },
            "position": {
                "x": -0.8240239810943604,
                "y": -0.300875300988555,
                "z": 0.16403168439865112
            }
        },
        "name": "move_to_storage_C"
    },
    "id": "LBTRRT_move_to_storage_C_142",
    "joint_names": [
        "shoulder_pan_joint",
        "shoulder_lift_joint",
        "elbow_joint",
        "wrist_1_joint",
        "wrist_2_joint",
        "wrist_3_joint"
    ],
    "metrics": {
        "cart_traj_len": 0.5766962168393506,
        "distance_elbow_joint": 0.2574164355262629,
        "distance_shoulder_lift_joint": 0.1904607132741153,
        "distance_shoulder_pan_joint": 0.4951255616576402,
        "distance_wrist_1_joint": 0.07398599047754972,
        "distance_wrist_2_joint": 1.0627039441571142,
        "distance_wrist_3_joint": 0.0647343420841695,
        "smoothness": 2.5376526478085547e-16,
        "time": 5.0028273180000005,
        "traj_len": 1.4643862151689533,
        "weighted_distance": 1.846777086163854
    },
    "planner": "LBTRRT",
    "start": {
        "state": {
            "elbow_joint": 2.010868314990456,
            "shoulder_lift_joint": -1.1634956873337592,
            "shoulder_pan_joint": -2.4736205022346125,
            "wrist_1_joint": -0.8367026794202681,
            "wrist_2_joint": 0.6746043897044499,
            "wrist_3_joint": -3.1496632123970403
        }
    },
    "waypoints": [
        {
            "positions": [
                -2.4736205022346125,
                -1.1634956873337592,
                2.010868314990456,
                -0.8367026794202681,
                0.6746043897044499,
                -3.1496632123970403
            ]
        },
        {
            "positions": [
                -2.5561414291775524,
                -1.1317522351214067,
                1.9679655757360788,
                -0.8243716810073431,
                0.8517217137306357,
                -3.138874155383012
            ]
        },
        {
            "positions": [
                -2.6386623561204927,
                -1.1000087829090541,
                1.9250628364817015,
                -0.8120406825944182,
                1.0288390377568213,
                -3.1280850983689836
            ]
        },
        {
            "positions": [
                -2.7211832830634326,
                -1.0682653306967016,
                1.8821600972273242,
                -0.7997096841814932,
                1.2059563617830071,
                -3.1172960413549555
            ]
        },
        {
            "positions": [
                -2.8037042100063725,
                -1.036521878484349,
                1.8392573579729472,
                -0.7873786857685683,
                1.3830736858091925,
                -3.1065069843409274
            ]
        },
        {
            "positions": [
                -2.886225136949313,
                -1.0047784262719963,
                1.7963546187185702,
                -0.7750476873556433,
                1.5601910098353784,
                -3.095717927326899
            ]
        },
        {
            "positions": [
                -2.9687460638922527,
                -0.9730349740596439,
                1.753451879464193,
                -0.7627166889427184,
                1.737308333861564,
                -3.0849288703128708
            ]
        }
    ]
}