{
    "goal": {
        "global_pose": {
            "orientation": {
                "w": 0.005598929693374612,
                "x": 0.007748599140229565,
                "y": 0.7110244013736278,
                "z": -0.7031023480610252
            },
            "position": {
                "x": 0.1141497679147869,
                "y": -0.7141253447532654,
                "z": 0.3711530566215515
            }
        },
        "name": "move_to_auspresseinheit_B"
    },
    "id": "LBTRRT_move_to_auspresseinheit_B_124",
    "joint_names": [
        "shoulder_pan_joint",
        "shoulder_lift_joint",
        "elbow_joint",
        "wrist_1_joint",
        "wrist_2_joint",
        "wrist_3_joint"
    ],
    "metrics": {
        "cart_traj_len": 0.564346514336099,
        "distance_elbow_joint": 0.060638640156175594,
        "distance_shoulder_lift_joint": 0.2940374333811404,
        "distance_shoulder_pan_joint": 0.5758855828040124,
        "distance_wrist_1_joint": 0.3205279872433715,
        "distance_wrist_2_joint": 1.0007834738694092,
        "distance_wrist_3_joint": 0.0073649000825004585,
        "smoothness": 5.075305255429287e-16,
        "time": 5.003085903,
        "traj_len": 1.5030761848744094,
        "weighted_distance": 1.896122168747149
    },
    "planner": "LBTRRT",
    "start": {
        "state": {
            "elbow_joint": 2.0193083361928714,
            "shoulder_lift_joint": -1.1220246554650708,
            "shoulder_pan_joint": -1.0952077554168747,
            "wrist_1_joint": -0.8559753972642168,
            "wrist_2_joint": 0.4759566250798843,
            "wrist_3_joint": -3.1240929996934557
        }
    },
    "waypoints": [
        {
            "positions": [
                -1.0952077554168747,
                -1.1220246554650708,
                2.0193083361928714,
                -0.8559753972642168,
                0.4759566250798843,
                -3.1240929996934557
            ]
        },
        {
            "positions": [
                -1.19118868588421,
                -1.1710308943619276,
                2.009201896166842,
                -0.8025540660569882,
                0.6427538707247858,
                -3.125320483040539
            ]
        },
        {
            "positions": [
                -1.2871696163515454,
                -1.2200371332587843,
                1.999095456140813,
                -0.7491327348497596,
                0.8095511163696874,
                -3.1265479663876223
            ]
        },
        {
            "positions": [
                -1.383150546818881,
                -1.269043372155641,
                1.9889890161147836,
                -0.695711403642531,
                0.976348362014589,
                -3.127775449734706
            ]
        },
        {
            "positions": [
                -1.479131477286216,
                -1.3180496110524977,
                1.9788825760887543,
                -0.6422900724353025,
                1.1431456076594904,
                -3.1290029330817895
            ]
        },
        {
            "positions": [
                -1.5751124077535517,
                -1.3670558499493546,
                1.9687761360627252,
                -0.5888687412280739,
                1.309942853304392,
                -3.130230416428873
            ]
        },
        {
            "positions": [
                -1.671093338220887,
                -1.4160620888462112,
                1.9586696960366958,
                -0.5354474100208453,
                1.4767400989492936,
                -3.131457899775956
            ]
        }
    ]
}