{
    "goal": {
        "global_pose": {
            "orientation": {
                "w": 0.7047431493862688,
                "x": -0.7094548369677653,
                "y": 0.0024358444001904,
                "z": -0.0022348060817251984
            },
            "position": {
                "x": -0.39052492380142206,
                "y": 0.3671506643295288,
                "z": 0.19426114857196808
            }
        },
        "name": "move_to_magneteinheit_D"
    },
    "id": "LBTRRT_move_to_magneteinheit_D_108",
    "joint_names": [
        "shoulder_pan_joint",
        "shoulder_lift_joint",
        "elbow_joint",
        "wrist_1_joint",
        "wrist_2_joint",
        "wrist_3_joint"
    ],
    "metrics": {
        "cart_traj_len": 4.452026276508322,
        "distance_elbow_joint": 3.1818699910155304,
        "distance_shoulder_lift_joint": 1.1617973434331517,
        "distance_shoulder_pan_joint": 3.05943463279696,
        "distance_wrist_1_joint": 2.1982362193572764,
        "distance_wrist_2_joint": 0.6191805625068669,
        "distance_wrist_3_joint": 6.368105250291236,
        "smoothness": 0.08410702784783508,
        "time": 5.042679229999999,
        "traj_len": 4.072913453463137,
        "weighted_distance": 5.669413662967947
    },
    "planner": "LBTRRT",
    "start": {
        "state": {
            "elbow_joint": 0.749534889911806,
            "shoulder_lift_joint": -0.6476975780787326,
            "shoulder_pan_joint": -2.711696901376241,
            "wrist_1_joint": -0.07506478083263063,
            "wrist_2_joint": 0.43296659715538205,
            "wrist_3_joint": -3.14703540197715
        }
    },
    "waypoints": [
        {
            "positions": [
                -2.711696901376241,
                -0.6476975780787326,
                0.749534889911806,
                -0.07506478083263063,
                0.43296659715538205,
                -3.14703540197715
            ]
        },
        {
            "positions": [
                -2.721463930718298,
                -0.6454366962238419,
                0.6772559300809865,
                -0.10413233369923217,
                0.38670089568501387,
                -3.0870424876295752
            ]
        },
        {
            "positions": [
                -2.731230960060355,
                -0.6431758143689512,
                0.6049769702501671,
                -0.1331998865658337,
                0.34043519421464563,
                -3.027049573282001
            ]
        },
        {
            "positions": [
                -2.744253665849764,
                -0.640161305229097,
                0.5086050238090745,
                -0.17195662372130244,
                0.2787475922541547,
                -2.947059020818568
            ]
        },
        {
            "positions": [
                -2.7572763716391733,
                -0.6371467960892429,
                0.412233077367982,
                -0.21071336087677117,
                0.21705999029366374,
                -2.8670684683551357
            ]
        },
        {
            "positions": [
                -2.7702990774285823,
                -0.6341322869493886,
                0.3158611309268894,
                -0.2494700980322399,
                0.1553723883331728,
                -2.787077915891703
            ]
        },
        {
            "positions": [
                -2.6730907394991252,
                -0.6707129322114869,
                0.23434656105147267,
                -0.2726302520970107,
                0.15239718469925434,
                -2.6452573660439143
            ]
        },
        {
            "positions": [
                -2.5758824015696677,
                -0.7072935774735851,
                0.15283199117605592,
                -0.29579040616178154,
                0.14942198106533588,
                -2.503436816196126
            ]
        },
        {
            "positions": [
                -2.4786740636402107,
                -0.7438742227356833,
                0.0713174213006392,
                -0.3189505602265523,
                0.14644677743141743,
                -2.3616162663483373
            ]
        },
        {
            "positions": [
                -2.381465725710753,
                -0.7804548679977815,
                -0.010197148574777548,
                -0.3421107142913231,
                0.143471573797499,
                -2.219795716500549
            ]
        },
        {
            "positions": [
                -2.284257387781296,
                -0.8170355132598798,
                -0.09171171845019432,
                -0.3652708683560939,
                0.14049637016358055,
                -2.0779751666527604
            ]
        },
        {
            "positions": [
                -2.187049049851839,
                -0.8536161585219779,
                -0.173226288325611,
                -0.3884310224208647,
                0.1375211665296621,
                -1.9361546168049717
            ]
        },
        {
            "positions": [
                -2.0898407119223816,
                -0.8901968037840762,
                -0.25474085820102776,
                -0.41159117648563553,
                0.13454596289574364,
                -1.7943340669571832
            ]
        },
        {
            "positions": [
                -1.9926323739929246,
                -0.9267774490461744,
                -0.3362554280764445,
                -0.4347513305504063,
                0.13157075926182518,
                -1.6525135171093948
            ]
        },
        {
            "positions": [
                -1.895424036063467,
                -0.9633580943082727,
                -0.4177699979518613,
                -0.45791148461517717,
                0.12859555562790673,
                -1.510692967261606
            ]
        },
        {
            "positions": [
                -1.79821569813401,
                -0.9999387395703709,
                -0.49928456782727804,
                -0.48107163867994795,
                0.12562035199398827,
                -1.3688724174138176
            ]
        },
        {
            "positions": [
                -1.7010073602045528,
                -1.0365193848324692,
                -0.5807991377026946,
                -0.5042317927447187,
                0.12264514836006983,
                -1.2270518675660291
            ]
        },
        {
            "positions": [
                -1.6037990222750957,
                -1.0731000300945674,
                -0.6623137075781114,
                -0.5273919468094895,
                0.11966994472615139,
                -1.0852313177182407
            ]
        },
        {
            "positions": [
                -1.5065906843456385,
                -1.1096806753566657,
                -0.7438282774535282,
                -0.5505521008742604,
                0.11669474109223293,
                -0.943410767870452
            ]
        },
        {
            "positions": [
                -1.4093823464161812,
                -1.146261320618764,
                -0.8253428473289449,
                -0.5737122549390312,
                0.11371953745831448,
                -0.8015902180226635
            ]
        },
        {
            "positions": [
                -1.312174008486724,
                -1.1828419658808622,
                -0.9068574172043616,
                -0.596872409003802,
                0.11074433382439602,
                -0.6597696681748748
            ]
        },
        {
            "positions": [
                -1.214965670557267,
                -1.2194226111429602,
                -0.9883719870797784,
                -0.6200325630685728,
                0.10776913019047758,
                -0.5179491183270866
            ]
        },
        {
            "positions": [
                -1.1177573326278096,
                -1.2560032564050585,
                -1.0698865569551952,
                -0.6431927171333436,
                0.10479392655655913,
                -0.3761285684792979
            ]
        },
        {
            "positions": [
                -1.0205489946983521,
                -1.292583901667157,
                -1.1514011268306121,
                -0.6663528711981144,
                0.10181872292264067,
                -0.23430801863150919
            ]
        },
        {
            "positions": [
                -0.9233406567688951,
                -1.329164546929255,
                -1.2329156967060286,
                -0.6895130252628852,
                0.09884351928872222,
                -0.09248746878372094
            ]
        },
        {
            "positions": [
                -0.8261323188394378,
                -1.3657451921913533,
                -1.3144302665814456,
                -0.712673179327656,
                0.09586831565480378,
                0.04933308106406775
            ]
        },
        {
            "positions": [
                -0.7289239809099808,
                -1.4023258374534515,
                -1.395944836456862,
                -0.7358333333924267,
                0.09289311202088532,
                0.191153630911856
            ]
        },
        {
            "positions": [
                -0.6317156429805233,
                -1.4389064827155496,
                -1.4774594063322786,
                -0.7589934874571975,
                0.08991790838696687,
                0.3329741807596447
            ]
        },
        {
            "positions": [
                -0.5345073050510663,
                -1.4754871279776478,
                -1.5589739762076955,
                -0.7821536415219683,
                0.08694270475304842,
                0.4747947306074334
            ]
        },
        {
            "positions": [
                -0.4372989671216092,
                -1.512067773239746,
                -1.640488546083112,
                -0.8053137955867391,
                0.08396750111912997,
                0.6166152804552216
            ]
        },
        {
            "positions": [
                -0.3400906291921517,
                -1.5486484185018443,
                -1.7220031159585294,
                -0.8284739496515101,
                0.08099229748521151,
                0.7584358303030103
            ]
        },
        {
            "positions": [
                -0.24288229126269467,
                -1.5852290637639426,
                -1.803517685833946,
                -0.8516341037162809,
                0.07801709385129306,
                0.900256380150799
            ]
        },
        {
            "positions": [
                -0.14567395333323718,
                -1.6218097090260408,
                -1.8850322557093628,
                -0.8747942577810517,
                0.07504189021737462,
                1.0420769299985873
            ]
        },
        {
            "positions": [
                -0.04846561540378011,
                -1.658390354288139,
                -1.9665468255847793,
                -0.8979544118458224,
                0.07206668658345616,
                1.1838974798463757
            ]
        },
        {
            "positions": [
                -0.040592715875869864,
                -1.6707267710210947,
                -2.0133667426616464,
                -1.0001969183832715,
                0.05566969005427673,
                1.3763649670891291
            ]
        },
        {
            "positions": [
                -0.03271981634795961,
                -1.68306318775405,
                -2.060186659738513,
                -1.1024394249207208,
                0.0392726935250973,
                1.5688324543318826
            ]
        },
        {
            "positions": [
                -0.02484691682004936,
                -1.6953996044870057,
                -2.10700657681538,
                -1.20468193145817,
                0.02287569699591787,
                1.7612999415746358
            ]
        },
        {
            "positions": [
                -0.016974017292139112,
                -1.707736021219961,
                -2.1538264938922467,
                -1.3069244379956193,
                0.0064787004667384435,
                1.9537674288173892
            ]
        },
        {
            "positions": [
                -0.009101117764228853,
                -1.7200724379529166,
                -2.2006464109691137,
                -1.4091669445330686,
                -0.009918296062441004,
                2.1462349160601426
            ]
        },
        {
            "positions": [
                -0.0012282182363186067,
                -1.732408854685872,
                -2.2474663280459803,
                -1.5114094510705178,
                -0.026315292591620423,
                2.338702403302896
            ]
        },
        {
            "positions": [
                0.006644681291591646,
                -1.7447452714188276,
                -2.2942862451228474,
                -1.613651957607967,
                -0.04271228912079986,
                2.5311698905456494
            ]
        },
        {
            "positions": [
                0.014517580819501885,
                -1.757081688151783,
                -2.341106162199714,
                -1.7158944641454161,
                -0.059109285649979276,
                2.723637377788403
            ]
        },
        {
            "positions": [
                0.022390480347412145,
                -1.7694181048847386,
                -2.387926079276581,
                -1.8181369706828654,
                -0.07550628217915872,
                2.9161048650311563
            ]
        },
        {
            "positions": [
                -0.04699048597546261,
                -1.765102693428586,
                -2.3731230720008667,
                -1.9698583138518793,
                -0.11240884323660082,
                3.0177598594587995
            ]
        },
        {
            "positions": [
                -0.11637145229833737,
                -1.7607872819724335,
                -2.358320064725152,
                -2.1215796570208934,
                -0.1493114042940429,
                3.1194148538864424
            ]
        },
        {
            "positions": [
                -0.18575241862121214,
                -1.756471870516281,
                -2.3435170574494375,
                -2.273301000189907,
                -0.18621396535148502,
                3.2210698483140856
            ]
        }
    ]
}