{
    "goal": {
        "global_pose": {
            "orientation": {
                "w": -0.00223480608172531,
                "x": 0.0024358444001904467,
                "y": 0.7094548369677653,
                "z": -0.704743149386269
            },
            "position": {
                "x": 0.6205249238014221,
                "y": -0.6371506643295288,
                "z": 0.19426114857196808
            }
        },
        "name": "move_to_magneteinheit_B"
    },
    "id": "LBTRRT_move_to_magneteinheit_B_38",
    "joint_names": [
        "shoulder_pan_joint",
        "shoulder_lift_joint",
        "elbow_joint",
        "wrist_1_joint",
        "wrist_2_joint",
        "wrist_3_joint"
    ],
    "metrics": {
        "cart_traj_len": 3.295373154441325,
        "distance_elbow_joint": 4.709005277743376,
        "distance_shoulder_lift_joint": 1.4882508760103992,
        "distance_shoulder_pan_joint": 2.2955421567520635,
        "distance_wrist_1_joint": 2.018747973410024,
        "distance_wrist_2_joint": 1.1887967792335383,
        "distance_wrist_3_joint": 1.1112574849260457,
        "smoothness": 0.23862106531882735,
        "time": 5.035770259,
        "traj_len": 3.5793296227192393,
        "weighted_distance": 4.271025669622123
    },
    "planner": "LBTRRT",
    "start": {
        "state": {
            "elbow_joint": 2.6216224122426386,
            "shoulder_lift_joint": -1.4174107377796124,
            "shoulder_pan_joint": 0.7066234856936794,
            "wrist_1_joint": 1.9546482284002225,
            "wrist_2_joint": -0.7096286983471962,
            "wrist_3_joint": 0.005740856962016249
        }
    },
    "waypoints": [
        {
            "positions": [
                0.7066234856936794,
                -1.4174107377796124,
                2.6216224122426386,
                1.9546482284002225,
                -0.7096286983471962,
                0.005740856962016249
            ]
        },
        {
            "positions": [
                0.7407733713431344,
                -1.4542375318803558,
                2.674362488100648,
                2.0145825392904957,
                -0.6790521360071192,
                0.0887789389557236
            ]
        },
        {
            "positions": [
                0.7749232569925892,
                -1.4910643259810994,
                2.727102563958657,
                2.0745168501807685,
                -0.6484755736670422,
                0.17181702094943097
            ]
        },
        {
            "positions": [
                0.8090731426420442,
                -1.527891120081843,
                2.7798426398166662,
                2.1344511610710417,
                -0.6178990113269652,
                0.2548551029431383
            ]
        },
        {
            "positions": [
                0.8432230282914992,
                -1.5647179141825864,
                2.8325827156746755,
                2.194385471961315,
                -0.5873224489868882,
                0.33789318493684567
            ]
        },
        {
            "positions": [
                0.9378685602086604,
                -1.6415681049049655,
                2.714997966880698,
                2.2131977519945374,
                -0.5389827743023625,
                0.35849292713535374
            ]
        },
        {
            "positions": [
                1.0325140921258216,
                -1.7184182956273446,
                2.5974132180867207,
                2.23201003202776,
                -0.4906430996178368,
                0.3790926693338618
            ]
        },
        {
            "positions": [
                1.1271596240429829,
                -1.7952684863497237,
                2.4798284692927433,
                2.2508223120609827,
                -0.44230342493331115,
                0.3996924115323699
            ]
        },
        {
            "positions": [
                1.2218051559601442,
                -1.8721186770721028,
                2.362243720498766,
                2.269634592094205,
                -0.39396375024878544,
                0.420292153730878
            ]
        },
        {
            "positions": [
                1.3164506878773052,
                -1.9489688677944819,
                2.244658971704789,
                2.2884468721274276,
                -0.3456240755642597,
                0.44089189592938605
            ]
        },
        {
            "positions": [
                1.4110962197944665,
                -2.025819058516861,
                2.1270742229108115,
                2.3072591521606505,
                -0.29728440087973407,
                0.4614916381278942
            ]
        },
        {
            "positions": [
                1.5057417517116276,
                -2.10266924923924,
                2.009489474116834,
                2.326071432193873,
                -0.24894472619520835,
                0.48209138032640225
            ]
        },
        {
            "positions": [
                1.600387283628789,
                -2.179519439961619,
                1.8919047253228567,
                2.3448837122270954,
                -0.20060505151068267,
                0.5026911225249103
            ]
        },
        {
            "positions": [
                1.7185052066182507,
                -2.2308576189950973,
                1.7247957402001937,
                2.3592034731582565,
                -0.18054321789926098,
                0.5086024924572451
            ]
        },
        {
            "positions": [
                1.8366231296077122,
                -2.2821957980285754,
                1.5576867550775306,
                2.3735232340894177,
                -0.16048138428783926,
                0.5145138623895799
            ]
        },
        {
            "positions": [
                1.954741052597174,
                -2.3335339770620536,
                1.3905777699548676,
                2.387842995020579,
                -0.14041955067641756,
                0.5204252323219146
            ]
        },
        {
            "positions": [
                2.0728589755866356,
                -2.3848721560955317,
                1.2234687848322046,
                2.40216275595174,
                -0.12035771706499584,
                0.5263366022542494
            ]
        },
        {
            "positions": [
                2.190976898576097,
                -2.43621033512901,
                1.0563597997095415,
                2.416482516882901,
                -0.10029588345357415,
                0.5322479721865842
            ]
        },
        {
            "positions": [
                2.309094821565559,
                -2.487548514162488,
                0.8892508145868785,
                2.4308022778140623,
                -0.08023404984215246,
                0.5381593421189189
            ]
        },
        {
            "positions": [
                2.4272127445550207,
                -2.538886693195966,
                0.7221418294642155,
                2.4451220387452235,
                -0.06017221623073077,
                0.5440707120512537
            ]
        },
        {
            "positions": [
                2.5453306675444827,
                -2.5902248722294443,
                0.5550328443415524,
                2.4594417996763847,
                -0.04011038261930902,
                0.5499820819835884
            ]
        },
        {
            "positions": [
                2.6634485905339442,
                -2.6415630512629225,
                0.3879238592188894,
                2.473761560607546,
                -0.02004854900788733,
                0.5558934519159232
            ]
        },
        {
            "positions": [
                2.781566513523406,
                -2.6929012302964006,
                0.22081487409622647,
                2.488081321538707,
                1.3284603534356731e-05,
                0.561804821848258
            ]
        },
        {
            "positions": [
                2.7898883802970857,
                -2.6821166160226295,
                0.06186211188839244,
                2.3976879472443335,
                0.02345003350003303,
                0.5189739394762585
            ]
        },
        {
            "positions": [
                2.798210247070766,
                -2.6713320017488584,
                -0.09709065031944158,
                2.30729457294996,
                0.046886782396531705,
                0.47614305710425897
            ]
        },
        {
            "positions": [
                2.8065321138444466,
                -2.6605473874750873,
                -0.25604341252727564,
                2.216901198655587,
                0.07032353129303037,
                0.43331217473225947
            ]
        },
        {
            "positions": [
                2.8148539806181265,
                -2.6497627732013163,
                -0.41499617473510964,
                2.1265078243612137,
                0.09376028018952906,
                0.39048129236025997
            ]
        },
        {
            "positions": [
                2.8231758473918065,
                -2.638978158927545,
                -0.5739489369429437,
                2.03611445006684,
                0.11719702908602772,
                0.34765040998826047
            ]
        },
        {
            "positions": [
                2.831497714165487,
                -2.628193544653774,
                -0.7329016991507777,
                1.9457210757724668,
                0.1406337779825264,
                0.30481952761626097
            ]
        },
        {
            "positions": [
                2.8168879879070734,
                -2.6098506174057206,
                -0.873344832898316,
                1.8303686359794153,
                0.1766749784003929,
                0.26091747707576596
            ]
        },
        {
            "positions": [
                2.80227826164866,
                -2.591507690157667,
                -1.0137879666458542,
                1.7150161961863641,
                0.21271617881825938,
                0.217015426535271
            ]
        },
        {
            "positions": [
                2.7876685353902464,
                -2.5731647629096135,
                -1.1542311003933925,
                1.5996637563933127,
                0.2487573792361259,
                0.17311337599477605
            ]
        },
        {
            "positions": [
                2.773058809131833,
                -2.55482183566156,
                -1.2946742341409307,
                1.4843113166002615,
                0.28479857965399236,
                0.12921132545428105
            ]
        },
        {
            "positions": [
                2.7584490828734194,
                -2.5364789084135064,
                -1.435117367888469,
                1.36895887680721,
                0.32083978007185887,
                0.08530927491378609
            ]
        },
        {
            "positions": [
                2.72590931721069,
                -2.5176995545432677,
                -1.5118989981378672,
                1.2468947316271959,
                0.3736158803433533,
                0.05907661721200874
            ]
        },
        {
            "positions": [
                2.6933695515479603,
                -2.4989202006730284,
                -1.5886806283872654,
                1.1248305864471817,
                0.42639198061484773,
                0.03284395951023139
            ]
        },
        {
            "positions": [
                2.660829785885231,
                -2.4801408468027897,
                -1.6654622586366636,
                1.0027664412671675,
                0.47916808088634216,
                0.006611301808454046
            ]
        }
    ]
}