{
    "goal": {
        "global_pose": {
            "orientation": {
                "w": -0.4816463035849501,
                "x": 0.5182115481033762,
                "y": 0.4908360881923453,
                "z": -0.5084816262002911
            },
            "position": {
                "x": -0.8240239810943604,
                "y": 0.19912469901144506,
                "z": 0.16403168439865112
            }
        },
        "name": "move_to_storage_D"
    },
    "id": "LBTRRT_move_to_storage_D_42",
    "joint_names": [
        "shoulder_pan_joint",
        "shoulder_lift_joint",
        "elbow_joint",
        "wrist_1_joint",
        "wrist_2_joint",
        "wrist_3_joint"
    ],
    "metrics": {
        "cart_traj_len": 4.272687198753855,
        "distance_elbow_joint": 4.214566222384614,
        "distance_shoulder_lift_joint": 1.2632760726915824,
        "distance_shoulder_pan_joint": 2.81355172584905,
        "distance_wrist_1_joint": 2.282587440695846,
        "distance_wrist_2_joint": 1.5429762618832024,
        "distance_wrist_3_joint": 3.1293004198889602,
        "smoothness": 0.06066877616930225,
        "time": 5.054202737000001,
        "traj_len": 3.904645712915994,
        "weighted_distance": 5.032933805023689
    },
    "planner": "LBTRRT",
    "start": {
        "state": {
            "elbow_joint": -2.384821988534728,
            "shoulder_lift_joint": -2.2788054721415256,
            "shoulder_pan_joint": -0.1854694642142757,
            "wrist_1_joint": 1.4845938289331202,
            "wrist_2_joint": 0.17898776772866878,
            "wrist_3_joint": 0.037105688729662994
        }
    },
    "waypoints": [
        {
            "positions": [
                -0.1854694642142757,
                -2.2788054721415256,
                -2.384821988534728,
                1.4845938289331202,
                0.17898776772866878,
                0.037105688729662994
            ]
        },
        {
            "positions": [
                -0.06964491418678158,
                -2.2566204858250285,
                -2.3472968213734346,
                1.3769551589299824,
                0.2526300002683401,
                0.026741452926314448
            ]
        },
        {
            "positions": [
                0.04617963584071255,
                -2.2344354995085314,
                -2.309771654212142,
                1.2693164889268445,
                0.32627223280801143,
                0.016377217122965897
            ]
        },
        {
            "positions": [
                0.16200418586820667,
                -2.2122505131920347,
                -2.2722464870508485,
                1.1616778189237067,
                0.39991446534768277,
                0.0060129813196173505
            ]
        },
        {
            "positions": [
                0.2778287358957008,
                -2.1900655268755376,
                -2.2347213198895557,
                1.0540391489205687,
                0.4735566978873541,
                -0.0043512544837312
            ]
        },
        {
            "positions": [
                0.39365328592319493,
                -2.1678805405590404,
                -2.1971961527282624,
                0.946400478917431,
                0.5471989304270254,
                -0.014715490287079747
            ]
        },
        {
            "positions": [
                0.4677579699619045,
                -2.1304805193678322,
                -2.0777474392446895,
                0.8972581997258382,
                0.5763480123079409,
                -0.09029172444040096
            ]
        },
        {
            "positions": [
                0.5418626540006141,
                -2.093080498176624,
                -1.9582987257611162,
                0.8481159205342456,
                0.6054970941888564,
                -0.16586795859372216
            ]
        },
        {
            "positions": [
                0.6159673380393236,
                -2.055680476985416,
                -1.838850012277543,
                0.7989736413426529,
                0.6346461760697719,
                -0.24144419274704337
            ]
        },
        {
            "positions": [
                0.6900720220780332,
                -2.018280455794207,
                -1.71940129879397,
                0.7498313621510602,
                0.6637952579506874,
                -0.3170204269003646
            ]
        },
        {
            "positions": [
                0.7641767061167427,
                -1.980880434602999,
                -1.599952585310397,
                0.7006890829594674,
                0.6929443398316029,
                -0.39259666105368585
            ]
        },
        {
            "positions": [
                0.8382813901554522,
                -1.9434804134117907,
                -1.4805038718268237,
                0.6515468037678748,
                0.7220934217125183,
                -0.468172895207007
            ]
        },
        {
            "positions": [
                0.9123860741941618,
                -1.9060803922205825,
                -1.3610551583432509,
                0.602404524576282,
                0.7512425035934339,
                -0.5437491293603283
            ]
        },
        {
            "positions": [
                0.9864907582328714,
                -1.8686803710293742,
                -1.2416064448596777,
                0.5532622453846894,
                0.7803915854743494,
                -0.6193253635136494
            ]
        },
        {
            "positions": [
                1.0605954422715809,
                -1.8312803498381658,
                -1.1221577313761046,
                0.5041199661930966,
                0.8095406673552649,
                -0.6949015976669707
            ]
        },
        {
            "positions": [
                1.1347001263102905,
                -1.7938803286469576,
                -1.0027090178925315,
                0.4549776870015039,
                0.8386897492361804,
                -0.770477831820292
            ]
        },
        {
            "positions": [
                1.2088048103490001,
                -1.7564803074557493,
                -0.8832603044089584,
                0.40583540780991134,
                0.8678388311170959,
                -0.846054065973613
            ]
        },
        {
            "positions": [
                1.2829094943877095,
                -1.719080286264541,
                -0.7638115909253853,
                0.3566931286183186,
                0.8969879129980114,
                -0.9216303001269343
            ]
        },
        {
            "positions": [
                1.3570141784264191,
                -1.6816802650733327,
                -0.6443628774418122,
                0.30755084942672584,
                0.9261369948789269,
                -0.9972065342802555
            ]
        },
        {
            "positions": [
                1.4311188624651288,
                -1.6442802438821245,
                -0.5249141639582391,
                0.2584085702351331,
                0.9552860767598423,
                -1.072782768433577
            ]
        },
        {
            "positions": [
                1.5052235465038384,
                -1.606880222690916,
                -0.405465450474666,
                0.20926629104354044,
                0.9844351586407579,
                -1.148359002586898
            ]
        },
        {
            "positions": [
                1.5793282305425478,
                -1.5694802014997078,
                -0.2860167369910931,
                0.1601240118519478,
                1.0135842405216735,
                -1.223935236740219
            ]
        },
        {
            "positions": [
                1.6534329145812572,
                -1.5320801803084996,
                -0.1665680235075202,
                0.11098173266035516,
                1.0427333224025888,
                -1.29951147089354
            ]
        },
        {
            "positions": [
                1.727537598619967,
                -1.4946801591172911,
                -0.04711931002394687,
                0.061839453468762295,
                1.0718824042835045,
                -1.3750877050468615
            ]
        },
        {
            "positions": [
                1.8016422826586764,
                -1.457280137926083,
                0.07232940345962602,
                0.012697174277169654,
                1.1010314861644197,
                -1.4506639392001826
            ]
        },
        {
            "positions": [
                1.875746966697386,
                -1.4198801167348747,
                0.19177811694319935,
                -0.0364451049144231,
                1.1301805680453354,
                -1.526240173353504
            ]
        },
        {
            "positions": [
                1.9498516507360957,
                -1.3824800955436665,
                0.31122683042677224,
                -0.08558738410601574,
                1.1593296499262509,
                -1.601816407506825
            ]
        },
        {
            "positions": [
                2.0239563347748053,
                -1.3450800743524582,
                0.43067554391034557,
                -0.13472966329760827,
                1.1884787318071663,
                -1.6773926416601461
            ]
        },
        {
            "positions": [
                2.0980610188135147,
                -1.3076800531612496,
                0.5501242573939189,
                -0.18387194248920125,
                1.217627813688082,
                -1.7529688758134676
            ]
        },
        {
            "positions": [
                2.172165702852224,
                -1.2702800319700414,
                0.6695729708774918,
                -0.23301422168079378,
                1.2467768955689973,
                -1.8285451099667887
            ]
        },
        {
            "positions": [
                2.2462703868909335,
                -1.2328800107788331,
                0.7890216843610647,
                -0.28215650087238653,
                1.275925977449913,
                -1.9041213441201097
            ]
        },
        {
            "positions": [
                2.3203750709296433,
                -1.195479989587625,
                0.908470397844638,
                -0.3312987800639793,
                1.3050750593308282,
                -1.9796975782734312
            ]
        },
        {
            "positions": [
                2.3944797549683527,
                -1.1580799683964167,
                1.027919111328211,
                -0.3804410592555718,
                1.334224141211744,
                -2.0552738124267522
            ]
        },
        {
            "positions": [
                2.4685844390070626,
                -1.1206799472052082,
                1.1473678248117842,
                -0.4295833384471648,
                1.3633732230926594,
                -2.1308500465800737
            ]
        },
        {
            "positions": [
                2.542689123045772,
                -1.083279926014,
                1.2668165382953571,
                -0.47872561763875726,
                1.3925223049735749,
                -2.2064262807333948
            ]
        },
        {
            "positions": [
                2.556921312810606,
                -1.0719881715866573,
                1.3606378208877787,
                -0.531936949992752,
                1.3376153508671922,
                -2.3540543558043785
            ]
        },
        {
            "positions": [
                2.5711535025754397,
                -1.0606964171593145,
                1.4544591034802004,
                -0.5851482823467467,
                1.2827083967608095,
                -2.5016824308753622
            ]
        },
        {
            "positions": [
                2.5853856923402736,
                -1.0494046627319715,
                1.548280386072622,
                -0.6383596147007414,
                1.2278014426544268,
                -2.649310505946346
            ]
        },
        {
            "positions": [
                2.599617882105107,
                -1.0381129083046288,
                1.6421016686650434,
                -0.6915709470547361,
                1.172894488548044,
                -2.7969385810173297
            ]
        },
        {
            "positions": [
                2.613850071869941,
                -1.026821153877286,
                1.735922951257465,
                -0.7447822794087309,
                1.1179875344416612,
                -2.9445666560883135
            ]
        },
        {
            "positions": [
                2.6280822616347748,
                -1.0155293994499432,
                1.8297442338498866,
                -0.7979936117627255,
                1.0630805803352785,
                -3.092194731159297
            ]
        }
    ]
}