{
    "goal": {
        "global_pose": {
            "orientation": {
                "w": -0.4816463035849501,
                "x": 0.5182115481033762,
                "y": 0.4908360881923453,
                "z": -0.5084816262002911
            },
            "position": {
                "x": -0.8240239810943604,
                "y": 0.19912469901144506,
                "z": 0.16403168439865112
            }
        },
        "name": "move_to_storage_D"
    },
    "id": "LBTRRT_move_to_storage_D_24",
    "joint_names": [
        "shoulder_pan_joint",
        "shoulder_lift_joint",
        "elbow_joint",
        "wrist_1_joint",
        "wrist_2_joint",
        "wrist_3_joint"
    ],
    "metrics": {
        "cart_traj_len": 3.523929511360575,
        "distance_elbow_joint": 4.2117956163485655,
        "distance_shoulder_lift_joint": 1.2643949632493097,
        "distance_shoulder_pan_joint": 2.814066186255258,
        "distance_wrist_1_joint": 2.277678081922316,
        "distance_wrist_2_joint": 2.403965687546407,
        "distance_wrist_3_joint": 3.187389598030664,
        "smoothness": 0.2558405262424385,
        "time": 5.098746736,
        "traj_len": 4.019861954514424,
        "weighted_distance": 5.216868131252943
    },
    "planner": "LBTRRT",
    "start": {
        "state": {
            "elbow_joint": -2.384821988534728,
            "shoulder_lift_joint": -2.2788054721415256,
            "shoulder_pan_joint": -0.1854694642142757,
            "wrist_1_joint": 1.4845938289331202,
            "wrist_2_joint": 0.17898776772866878,
            "wrist_3_joint": 0.037105688729662994
        }
    },
    "waypoints": [
        {
            "positions": [
                -0.1854694642142757,
                -2.2788054721415256,
                -2.384821988534728,
                1.4845938289331202,
                0.17898776772866878,
                0.037105688729662994
            ]
        },
        {
            "positions": [
                -0.09449631306103756,
                -2.2193936187695145,
                -2.3395895586367277,
                1.4611056963558202,
                0.08773009584648786,
                0.0596437305101664
            ]
        },
        {
            "positions": [
                -0.003523161907799416,
                -2.1599817653975038,
                -2.294357128738728,
                1.4376175637785202,
                -0.003527576035693064,
                0.08218177229066981
            ]
        },
        {
            "positions": [
                0.0874499892454387,
                -2.1005699120254926,
                -2.2491246988407276,
                1.4141294312012205,
                -0.09478524791787399,
                0.10471981407117321
            ]
        },
        {
            "positions": [
                0.17842314039867688,
                -2.041158058653482,
                -2.203892268942728,
                1.3906412986239205,
                -0.1860429198000549,
                0.12725785585167665
            ]
        },
        {
            "positions": [
                0.269396291551915,
                -1.9817462052814707,
                -2.1586598390447276,
                1.3671531660466205,
                -0.27730059168223586,
                0.14979589763218004
            ]
        },
        {
            "positions": [
                0.3369241122655209,
                -1.959780565426578,
                -2.0398953142188043,
                1.3253477049264548,
                -0.2224191402412324,
                0.23865897637415356
            ]
        },
        {
            "positions": [
                0.4044519329791268,
                -1.9378149255716854,
                -1.9211307893928815,
                1.283542243806289,
                -0.16753768880022896,
                0.3275220551161271
            ]
        },
        {
            "positions": [
                0.4719797536927327,
                -1.915849285716793,
                -1.8023662645669585,
                1.2417367826861232,
                -0.11265623735922548,
                0.41638513385810066
            ]
        },
        {
            "positions": [
                0.5395075744063386,
                -1.8938836458619004,
                -1.6836017397410354,
                1.1999313215659575,
                -0.05777478591822205,
                0.5052482126000741
            ]
        },
        {
            "positions": [
                0.6070353951199444,
                -1.8719180060070078,
                -1.5648372149151124,
                1.1581258604457916,
                -0.002893334477218623,
                0.5941112913420477
            ]
        },
        {
            "positions": [
                0.6745632158335504,
                -1.8499523661521151,
                -1.4460726900891894,
                1.1163203993256259,
                0.051988116963784914,
                0.6829743700840213
            ]
        },
        {
            "positions": [
                0.7420910365471562,
                -1.8279867262972225,
                -1.3273081652632663,
                1.0745149382054602,
                0.10686956840478834,
                0.7718374488259948
            ]
        },
        {
            "positions": [
                0.8096188572607621,
                -1.80602108644233,
                -1.2085436404373433,
                1.0327094770852945,
                0.16175101984579177,
                0.8607005275679683
            ]
        },
        {
            "positions": [
                0.877146677974368,
                -1.7840554465874374,
                -1.0897791156114203,
                0.9909040159651286,
                0.2166324712867952,
                0.9495636063099419
            ]
        },
        {
            "positions": [
                0.9446744986879738,
                -1.7620898067325448,
                -0.9710145907854972,
                0.9490985548449629,
                0.2715139227277986,
                1.0384266850519155
            ]
        },
        {
            "positions": [
                1.0122023194015797,
                -1.7401241668776521,
                -0.8522500659595742,
                0.9072930937247972,
                0.32639537416880215,
                1.1272897637938888
            ]
        },
        {
            "positions": [
                1.0797301401151858,
                -1.7181585270227595,
                -0.7334855411336512,
                0.8654876326046314,
                0.3812768256098057,
                1.2161528425358625
            ]
        },
        {
            "positions": [
                1.1472579608287916,
                -1.696192887167867,
                -0.6147210163077281,
                0.8236821714844655,
                0.4361582770508091,
                1.305015921277836
            ]
        },
        {
            "positions": [
                1.2147857815423975,
                -1.6742272473129745,
                -0.4959564914818051,
                0.7818767103642998,
                0.49103972849181254,
                1.3938790000198096
            ]
        },
        {
            "positions": [
                1.2823136022560033,
                -1.6522616074580818,
                -0.37719196665588206,
                0.740071249244134,
                0.545921179932816,
                1.482742078761783
            ]
        },
        {
            "positions": [
                1.3498414229696092,
                -1.6302959676031892,
                -0.258427441829959,
                0.6982657881239682,
                0.6008026313738194,
                1.5716051575037566
            ]
        },
        {
            "positions": [
                1.417369243683215,
                -1.6083303277482965,
                -0.1396629170040362,
                0.6564603270038025,
                0.6556840828148228,
                1.6604682362457301
            ]
        },
        {
            "positions": [
                1.484897064396821,
                -1.5863646878934041,
                -0.020898392178112957,
                0.6146548658836367,
                0.7105655342558262,
                1.7493313149877037
            ]
        },
        {
            "positions": [
                1.5524248851104268,
                -1.5643990480385115,
                0.09786613264780986,
                0.572849404763471,
                0.7654469856968297,
                1.8381943937296772
            ]
        },
        {
            "positions": [
                1.6199527058240326,
                -1.5424334081836188,
                0.2166306574737331,
                0.5310439436433052,
                0.8203284371378331,
                1.9270574724716507
            ]
        },
        {
            "positions": [
                1.6874805265376385,
                -1.5204677683287262,
                0.3353951822996559,
                0.4892384825231395,
                0.8752098885788365,
                2.0159205512136245
            ]
        },
        {
            "positions": [
                1.7550083472512443,
                -1.4985021284738336,
                0.4541597071255792,
                0.4474330214029737,
                0.9300913400198402,
                2.1047836299555978
            ]
        },
        {
            "positions": [
                1.8225361679648506,
                -1.4765364886189412,
                0.5729242319515024,
                0.4056275602828079,
                0.9849727914608436,
                2.193646708697572
            ]
        },
        {
            "positions": [
                1.8900639886784565,
                -1.4545708487640483,
                0.6916887567774253,
                0.3638220991626422,
                1.0398542429018471,
                2.282509787439545
            ]
        },
        {
            "positions": [
                1.9575918093920623,
                -1.4326052089091559,
                0.8104532816033485,
                0.32201663804247627,
                1.0947356943428508,
                2.3713728661815185
            ]
        },
        {
            "positions": [
                2.025119630105668,
                -1.4106395690542632,
                0.9292178064292713,
                0.28021117692231057,
                1.149617145783854,
                2.4602359449234923
            ]
        },
        {
            "positions": [
                2.092647450819274,
                -1.3886739291993706,
                1.0479823312551946,
                0.23840571580214487,
                1.2044985972248576,
                2.549099023665466
            ]
        },
        {
            "positions": [
                2.16017527153288,
                -1.3667082893444782,
                1.1667468560811174,
                0.19660025468197917,
                1.2593800486658608,
                2.637962102407439
            ]
        },
        {
            "positions": [
                2.227703092246486,
                -1.3447426494895856,
                1.2855113809070406,
                0.15479479356181325,
                1.3142615001068645,
                2.7268251811494126
            ]
        },
        {
            "positions": [
                2.2952309129600916,
                -1.322777009634693,
                1.4042759057329635,
                0.11298933244164756,
                1.3691429515478677,
                2.8156882598913864
            ]
        },
        {
            "positions": [
                2.3578586917751974,
                -1.2806946667200823,
                1.4714070829376267,
                -0.01844594985085911,
                1.3027424874035436,
                2.807927410816797
            ]
        },
        {
            "positions": [
                2.4204864705903026,
                -1.2386123238054716,
                1.53853826014229,
                -0.14988123214336577,
                1.2363420232592193,
                2.8001665617422073
            ]
        },
        {
            "positions": [
                2.4621085208804385,
                -1.1937719608228206,
                1.5962253336765992,
                -0.27852183631253175,
                1.2026554519358692,
                2.8788236274861596
            ]
        },
        {
            "positions": [
                2.5037305711705744,
                -1.1489315978401693,
                1.6539124072109088,
                -0.4071624404816977,
                1.1689688806125191,
                2.957480693230112
            ]
        },
        {
            "positions": [
                2.5453526214607107,
                -1.1040912348575183,
                1.7115994807452182,
                -0.5358030446508636,
                1.1352823092891688,
                3.0361377589740646
            ]
        },
        {
            "positions": [
                2.5869746717508466,
                -1.059250871874867,
                1.7692865542795277,
                -0.6644436488200297,
                1.1015957379658188,
                3.114794824718017
            ]
        },
        {
            "positions": [
                2.6285967220409825,
                -1.014410508892216,
                1.826973627813837,
                -0.7930842529891956,
                1.0679091666424687,
                3.193451890461969
            ]
        }
    ]
}