{
    "goal": {
        "global_pose": {
            "orientation": {
                "w": 0.7047431468963623,
                "x": -0.7094548344612122,
                "y": 0.0024358443915843964,
                "z": -0.0022348060738295317
            },
            "position": {
                "x": 0.6094750761985779,
                "y": 0.3671506643295288,
                "z": 0.19426114857196808
            }
        },
        "name": "move_to_magneteinheit_A"
    },
    "id": "LBTRRT_move_to_magneteinheit_A_142",
    "joint_names": [
        "shoulder_pan_joint",
        "shoulder_lift_joint",
        "elbow_joint",
        "wrist_1_joint",
        "wrist_2_joint",
        "wrist_3_joint"
    ],
    "metrics": {
        "cart_traj_len": 3.8646881884192026,
        "distance_elbow_joint": 3.987809975314346,
        "distance_shoulder_lift_joint": 0.48861718471667337,
        "distance_shoulder_pan_joint": 3.0482105819479344,
        "distance_wrist_1_joint": 1.3529782687831418,
        "distance_wrist_2_joint": 2.436162844559962,
        "distance_wrist_3_joint": 3.870687529693915,
        "smoothness": 0.5315333576520676,
        "time": 5.041157653,
        "traj_len": 3.8967250846083528,
        "weighted_distance": 5.168653843869495
    },
    "planner": "LBTRRT",
    "start": {
        "state": {
            "elbow_joint": -1.9196185241190666,
            "shoulder_lift_joint": -1.2443396400964142,
            "shoulder_pan_joint": 2.6996025414629847,
            "wrist_1_joint": -1.5485510000780065,
            "wrist_2_joint": -1.5709468930060704,
            "wrist_3_joint": 0.4420197071253992
        }
    },
    "waypoints": [
        {
            "positions": [
                2.6996025414629847,
                -1.2443396400964142,
                -1.9196185241190666,
                -1.5485510000780065,
                -1.5709468930060704,
                0.4420197071253992
            ]
        },
        {
            "positions": [
                2.6129812794197087,
                -1.2366742721872523,
                -1.81583494213477,
                -1.5170817978633184,
                -1.5042004112912146,
                0.3424008849612495
            ]
        },
        {
            "positions": [
                2.5263600173764322,
                -1.2290089042780905,
                -1.7120513601504732,
                -1.4856125956486301,
                -1.437453929576359,
                0.2427820627970998
            ]
        },
        {
            "positions": [
                2.439738755333156,
                -1.221343536368929,
                -1.6082677781661765,
                -1.454143393433942,
                -1.3707074478615033,
                0.1431632406329501
            ]
        },
        {
            "positions": [
                2.35311749328988,
                -1.213678168459767,
                -1.5044841961818798,
                -1.4226741912192538,
                -1.3039609661466476,
                0.04354441846880042
            ]
        },
        {
            "positions": [
                2.2664962312466037,
                -1.2060128005506052,
                -1.400700614197583,
                -1.3912049890045657,
                -1.2372144844317918,
                -0.05607440369534927
            ]
        },
        {
            "positions": [
                2.1798749692033277,
                -1.1983474326414434,
                -1.2969170322132866,
                -1.3597357867898774,
                -1.170468002716936,
                -0.15569322585949896
            ]
        },
        {
            "positions": [
                2.0932537071600517,
                -1.1906820647322818,
                -1.1931334502289899,
                -1.3282665845751893,
                -1.1037215210020805,
                -0.2553120480236486
            ]
        },
        {
            "positions": [
                2.006632445116775,
                -1.18301669682312,
                -1.0893498682446932,
                -1.296797382360501,
                -1.0369750392872248,
                -0.35493087018779834
            ]
        },
        {
            "positions": [
                1.9200111830734992,
                -1.175351328913958,
                -0.9855662862603964,
                -1.265328180145813,
                -0.970228557572369,
                -0.4545496923519481
            ]
        },
        {
            "positions": [
                1.8333899210302231,
                -1.1676859610047963,
                -0.8817827042760997,
                -1.2338589779311246,
                -0.9034820758575134,
                -0.5541685145160977
            ]
        },
        {
            "positions": [
                1.7467686589869467,
                -1.1600205930956344,
                -0.777999122291803,
                -1.2023897757164366,
                -0.8367355941426576,
                -0.6537873366802475
            ]
        },
        {
            "positions": [
                1.6601473969436706,
                -1.1523552251864728,
                -0.6742155403075065,
                -1.1709205735017485,
                -0.769989112427802,
                -0.7534061588443971
            ]
        },
        {
            "positions": [
                1.5735261349003944,
                -1.144689857277311,
                -0.5704319583232096,
                -1.1394513712870602,
                -0.7032426307129462,
                -0.853024981008547
            ]
        },
        {
            "positions": [
                1.4869048728571184,
                -1.1370244893681491,
                -0.4666483763389131,
                -1.107982169072372,
                -0.6364961489980906,
                -0.9526438031726964
            ]
        },
        {
            "positions": [
                1.4002836108138421,
                -1.1293591214589873,
                -0.3628647943546164,
                -1.0765129668576838,
                -0.569749667283235,
                -1.0522626253368461
            ]
        },
        {
            "positions": [
                1.313662348770566,
                -1.1216937535498257,
                -0.25908121237031967,
                -1.0450437646429958,
                -0.5030031855683792,
                -1.1518814475009957
            ]
        },
        {
            "positions": [
                1.22704108672729,
                -1.1140283856406639,
                -0.15529763038602318,
                -1.0135745624283075,
                -0.43625670385352366,
                -1.2515002696651454
            ]
        },
        {
            "positions": [
                1.1404198246840136,
                -1.106363017731502,
                -0.05151404840172624,
                -0.9821053602136193,
                -0.3695102221386677,
                -1.3511190918292955
            ]
        },
        {
            "positions": [
                1.0537985626407376,
                -1.0986976498223402,
                0.05226953358257047,
                -0.9506361579989311,
                -0.30276374042381216,
                -1.450737913993445
            ]
        },
        {
            "positions": [
                0.9671773005974613,
                -1.0910322819131784,
                0.15605311556686718,
                -0.9191669557842429,
                -0.2360172587089564,
                -1.5503567361575947
            ]
        },
        {
            "positions": [
                0.8805560385541853,
                -1.0833669140040167,
                0.25983669755116345,
                -0.8876977535695548,
                -0.16927077699410087,
                -1.649975558321744
            ]
        },
        {
            "positions": [
                0.7939347765109088,
                -1.075701546094855,
                0.3636202795354606,
                -0.8562285513548665,
                -0.10252429527924489,
                -1.749594380485894
            ]
        },
        {
            "positions": [
                0.7073135144676328,
                -1.068036178185693,
                0.4674038615197573,
                -0.8247593491401783,
                -0.03577781356438936,
                -1.8492132026500436
            ]
        },
        {
            "positions": [
                0.6206922524243565,
                -1.0603708102765315,
                0.5711874435040536,
                -0.7932901469254903,
                0.030968668150466394,
                -1.9488320248141933
            ]
        },
        {
            "positions": [
                0.5340709903810805,
                -1.0527054423673696,
                0.6749710254883503,
                -0.7618209447108021,
                0.09771514986532193,
                -2.048450846978343
            ]
        },
        {
            "positions": [
                0.44744972833780405,
                -1.0450400744582078,
                0.7787546074726475,
                -0.7303517424961138,
                0.1644616315801779,
                -2.148069669142493
            ]
        },
        {
            "positions": [
                0.360828466294528,
                -1.037374706549046,
                0.8825381894569437,
                -0.6988825402814257,
                0.23120811329503344,
                -2.2476884913066426
            ]
        },
        {
            "positions": [
                0.274207204251252,
                -1.0297093386398841,
                0.9863217714412404,
                -0.6674133380667375,
                0.2979545950098892,
                -2.347307313470792
            ]
        },
        {
            "positions": [
                0.18758594220797598,
                -1.0220439707307225,
                1.0901053534255372,
                -0.6359441358520493,
                0.3647010767247447,
                -2.4469261356349414
            ]
        },
        {
            "positions": [
                0.1009646801646995,
                -1.0143786028215607,
                1.1938889354098339,
                -0.6044749336373612,
                0.4314475584396005,
                -2.5465449577990915
            ]
        },
        {
            "positions": [
                0.014343418121423535,
                -1.0067132349123988,
                1.2976725173941306,
                -0.573005731422673,
                0.49819404015445634,
                -2.646163779963241
            ]
        },
        {
            "positions": [
                -0.006786540278676666,
                -1.03889987114659,
                1.4183706309170032,
                -0.6236079218291433,
                0.47911492023216007,
                -2.7557183382347374
            ]
        },
        {
            "positions": [
                -0.027916498678776866,
                -1.0710865073807811,
                1.539068744439876,
                -0.6742101122356137,
                0.46003580030986374,
                -2.8652728965062337
            ]
        },
        {
            "positions": [
                -0.04904645707887707,
                -1.1032731436149725,
                1.6597668579627487,
                -0.7248123026420841,
                0.4409566803875674,
                -2.9748274547777296
            ]
        },
        {
            "positions": [
                -0.07017641547897727,
                -1.1354597798491637,
                1.7804649714856213,
                -0.7754144930485544,
                0.42187756046527114,
                -3.084382013049226
            ]
        },
        {
            "positions": [
                -0.09130637387907749,
                -1.1676464160833548,
                1.9011630850084942,
                -0.8260166834550247,
                0.40279844054297487,
                -3.193936571320722
            ]
        },
        {
            "positions": [
                -0.11243633227917768,
                -1.199833052317546,
                2.021861198531367,
                -0.8766188738614951,
                0.38371932062067854,
                -3.3034911295922185
            ]
        },
        {
            "positions": [
                0.005649521823707995,
                -1.1708975712537906,
                1.9986960721994107,
                -0.8397089450170019,
                0.2574457246878492,
                -3.2409027831040698
            ]
        },
        {
            "positions": [
                0.12373537592659367,
                -1.1419620901900351,
                1.9755309458674548,
                -0.8027990161725088,
                0.13117212875501988,
                -3.178314436615921
            ]
        }
    ]
}