{
    "goal": {
        "global_pose": {
            "orientation": {
                "w": 0.5084816262002911,
                "x": -0.4908360881923452,
                "y": 0.5182115481033761,
                "z": -0.48164630358495003
            },
            "position": {
                "x": 0.5540239810943604,
                "y": -0.46912469901144505,
                "z": 0.16403168439865112
            }
        },
        "name": "move_to_storage_B"
    },
    "id": "LBTRRT_move_to_storage_B_120",
    "joint_names": [
        "shoulder_pan_joint",
        "shoulder_lift_joint",
        "elbow_joint",
        "wrist_1_joint",
        "wrist_2_joint",
        "wrist_3_joint"
    ],
    "metrics": {
        "cart_traj_len": 0.949095229247664,
        "distance_elbow_joint": 0.8967856004034434,
        "distance_shoulder_lift_joint": 0.4621751808482242,
        "distance_shoulder_pan_joint": 0.529757165808271,
        "distance_wrist_1_joint": 3.5305433675909215,
        "distance_wrist_2_joint": 2.728261411871099,
        "distance_wrist_3_joint": 3.3752176710319346,
        "smoothness": 1.1524329262194812,
        "time": 5.0470163779999995,
        "traj_len": 3.3945162243762947,
        "weighted_distance": 4.952976935044195
    },
    "planner": "LBTRRT",
    "start": {
        "state": {
            "elbow_joint": 1.664937868594044,
            "shoulder_lift_joint": -0.661644460510453,
            "shoulder_pan_joint": -0.9139846352900073,
            "wrist_1_joint": 2.146753192139373,
            "wrist_2_joint": -2.2341966793290973,
            "wrist_3_joint": 0.005466555786416001
        }
    },
    "waypoints": [
        {
            "positions": [
                -0.9139846352900073,
                -0.661644460510453,
                1.664937868594044,
                2.146753192139373,
                -2.2341966793290973,
                0.005466555786416001
            ]
        },
        {
            "positions": [
                -0.9265623318144727,
                -0.6886137785981115,
                1.751266855799227,
                2.254544766124895,
                -2.2379961374559274,
                0.07980328970910404
            ]
        },
        {
            "positions": [
                -0.9391400283389381,
                -0.71558309668577,
                1.8375958430044101,
                2.362336340110417,
                -2.241795595582758,
                0.15414002363179208
            ]
        },
        {
            "positions": [
                -0.8893896690821721,
                -0.7174561095112639,
                1.727273959442972,
                2.273252216219402,
                -2.150134516660526,
                0.10467843630536636
            ]
        },
        {
            "positions": [
                -0.8396393098254062,
                -0.7193291223367577,
                1.6169520758815337,
                2.1841680923283873,
                -2.058473437738294,
                0.055216848978940636
            ]
        },
        {
            "positions": [
                -0.8024666470931057,
                -0.74817145324991,
                1.5929591795252787,
                2.2028755424228947,
                -1.970611816942892,
                0.08009199557520295
            ]
        },
        {
            "positions": [
                -0.7652939843608051,
                -0.7770137841630623,
                1.5689662831690234,
                2.2215829925174018,
                -1.8827501961474902,
                0.10496714217146527
            ]
        },
        {
            "positions": [
                -0.7785242135120534,
                -0.7908860184508869,
                1.587186205815331,
                2.0976079096514484,
                -1.7882855123002033,
                0.2280819715851126
            ]
        },
        {
            "positions": [
                -0.7917544426633016,
                -0.8047582527387115,
                1.6054061284616385,
                1.973632826785495,
                -1.6938208284529166,
                0.35119680099875994
            ]
        },
        {
            "positions": [
                -0.8049846718145499,
                -0.8186304870265361,
                1.6236260511079463,
                1.8496577439195419,
                -1.5993561446056297,
                0.4743116304124072
            ]
        },
        {
            "positions": [
                -0.8182149009657983,
                -0.8325027213143608,
                1.641845973754254,
                1.7256826610535885,
                -1.5048914607583428,
                0.5974264598260546
            ]
        },
        {
            "positions": [
                -0.8314451301170466,
                -0.8463749556021853,
                1.6600658964005615,
                1.601707578187635,
                -1.4104267769110561,
                0.720541289239702
            ]
        },
        {
            "positions": [
                -0.8446753592682948,
                -0.8602471898900099,
                1.678285819046869,
                1.477732495321682,
                -1.3159620930637694,
                0.8436561186533492
            ]
        },
        {
            "positions": [
                -0.8579055884195431,
                -0.8741194241778345,
                1.6965057416931768,
                1.3537574124557286,
                -1.2214974092164823,
                0.9667709480669966
            ]
        },
        {
            "positions": [
                -0.8711358175707914,
                -0.8879916584656591,
                1.7147256643394844,
                1.2297823295897752,
                -1.1270327253691956,
                1.0898857774806439
            ]
        },
        {
            "positions": [
                -0.8843660467220397,
                -0.9018638927534837,
                1.732945586985792,
                1.1058072467238218,
                -1.032568041521909,
                1.2130006068942911
            ]
        },
        {
            "positions": [
                -0.897596275873288,
                -0.9157361270413082,
                1.7511655096320995,
                0.9818321638578684,
                -0.9381033576746219,
                1.3361154363079386
            ]
        },
        {
            "positions": [
                -0.9108265050245363,
                -0.9296083613291328,
                1.7693854322784073,
                0.8578570809919153,
                -0.8436386738273352,
                1.4592302657215859
            ]
        },
        {
            "positions": [
                -0.9240567341757846,
                -0.9434805956169574,
                1.7876053549247148,
                0.7338819981259619,
                -0.7491739899800485,
                1.5823450951352331
            ]
        },
        {
            "positions": [
                -0.9372869633270329,
                -0.957352829904782,
                1.8058252775710224,
                0.6099069152600085,
                -0.6547093061327613,
                1.7054599245488804
            ]
        },
        {
            "positions": [
                -0.9505171924782811,
                -0.9712250641926067,
                1.8240452002173302,
                0.48593183239405513,
                -0.5602446222854744,
                1.8285747539625279
            ]
        },
        {
            "positions": [
                -0.9637474216295294,
                -0.9850972984804313,
                1.8422651228636377,
                0.361956749528102,
                -0.465779938438188,
                1.951689583376175
            ]
        },
        {
            "positions": [
                -0.9769776507807777,
                -0.9989695327682558,
                1.8604850455099453,
                0.2379816666621486,
                -0.3713152545909011,
                2.074804412789822
            ]
        },
        {
            "positions": [
                -0.9902078799320261,
                -1.0128417670560805,
                1.8787049681562529,
                0.11400658379619522,
                -0.2768505707436142,
                2.1979192422034695
            ]
        },
        {
            "positions": [
                -1.0034381090832742,
                -1.0267140013439051,
                1.8969248908025604,
                -0.009968499069758163,
                -0.1823858868963275,
                2.3210340716171167
            ]
        },
        {
            "positions": [
                -1.0166683382345227,
                -1.0405862356317297,
                1.915144813448868,
                -0.13394358193571154,
                -0.08792120304904061,
                2.444148901030764
            ]
        },
        {
            "positions": [
                -1.029898567385771,
                -1.0544584699195543,
                1.9333647360951758,
                -0.2579186648016649,
                0.006543480798246293,
                2.5672637304444117
            ]
        },
        {
            "positions": [
                -1.0431287965370193,
                -1.0683307042073789,
                1.9515846587414833,
                -0.38189374766761786,
                0.10100816464553297,
                2.6903785598580585
            ]
        },
        {
            "positions": [
                -1.0563590256882676,
                -1.0822029384952034,
                1.969804581387791,
                -0.5058688305335712,
                0.19547284849281987,
                2.8134933892717062
            ]
        },
        {
            "positions": [
                -1.0695892548395158,
                -1.096075172783028,
                1.9880245040340987,
                -0.6298439133995251,
                0.289937532340107,
                2.9366082186853535
            ]
        },
        {
            "positions": [
                -1.082819483990764,
                -1.1099474070708526,
                2.0062444266804063,
                -0.753818996265478,
                0.38440221618739323,
                3.0597230480990008
            ]
        },
        {
            "positions": [
                -1.0960497131420124,
                -1.1238196413586772,
                2.024464349326714,
                -0.8777940791314315,
                0.4788669000346806,
                3.182837877512648
            ]
        }
    ]
}