{
    "goal": {
        "global_pose": {
            "orientation": {
                "w": -0.4816463035849501,
                "x": 0.5182115481033762,
                "y": 0.4908360881923453,
                "z": -0.5084816262002911
            },
            "position": {
                "x": -0.8240239810943604,
                "y": 0.19912469901144506,
                "z": 0.16403168439865112
            }
        },
        "name": "move_to_storage_D"
    },
    "id": "LBTRRT_move_to_storage_D_103",
    "joint_names": [
        "shoulder_pan_joint",
        "shoulder_lift_joint",
        "elbow_joint",
        "wrist_1_joint",
        "wrist_2_joint",
        "wrist_3_joint"
    ],
    "metrics": {
        "cart_traj_len": 4.027025859368372,
        "distance_elbow_joint": 4.515815003546182,
        "distance_shoulder_lift_joint": 1.264823267409574,
        "distance_shoulder_pan_joint": 2.8151319910424397,
        "distance_wrist_1_joint": 2.3109659187383564,
        "distance_wrist_2_joint": 1.1280617389025238,
        "distance_wrist_3_joint": 3.1426225388827294,
        "smoothness": 0.24711336950049054,
        "time": 5.047066957999999,
        "traj_len": 3.895820896617529,
        "weighted_distance": 4.990159636116679
    },
    "planner": "LBTRRT",
    "start": {
        "state": {
            "elbow_joint": -2.384821988534728,
            "shoulder_lift_joint": -2.2788054721415256,
            "shoulder_pan_joint": -0.1854694642142757,
            "wrist_1_joint": 1.4845938289331202,
            "wrist_2_joint": 0.17898776772866878,
            "wrist_3_joint": 0.037105688729662994
        }
    },
    "waypoints": [
        {
            "positions": [
                -0.1854694642142757,
                -2.2788054721415256,
                -2.384821988534728,
                1.4845938289331202,
                0.17898776772866878,
                0.037105688729662994
            ]
        },
        {
            "positions": [
                -0.13871791553654966,
                -2.256955482039558,
                -2.461218079991143,
                1.4945309349153941,
                0.26821103307475236,
                0.1303713472399245
            ]
        },
        {
            "positions": [
                -0.09196636685882364,
                -2.235105491937591,
                -2.537614171447559,
                1.504468040897668,
                0.3574342984208359,
                0.22363700575018597
            ]
        },
        {
            "positions": [
                -0.01763509562840912,
                -2.203318279410402,
                -2.4220772219847726,
                1.4399314222186088,
                0.38253895590642306,
                0.29820705344086884
            ]
        },
        {
            "positions": [
                0.056696175602005405,
                -2.1715310668832126,
                -2.306540272521986,
                1.3753948035395496,
                0.40764361339201016,
                0.37277710113155177
            ]
        },
        {
            "positions": [
                0.13102744683241993,
                -2.1397438543560234,
                -2.1910033230591996,
                1.31085818486049,
                0.4327482708775973,
                0.4473471488222347
            ]
        },
        {
            "positions": [
                0.20535871806283446,
                -2.1079566418288342,
                -2.075466373596413,
                1.2463215661814309,
                0.4578529283631845,
                0.5219171965129176
            ]
        },
        {
            "positions": [
                0.279689989293249,
                -2.076169429301645,
                -1.9599294241336267,
                1.1817849475023716,
                0.4829575858487716,
                0.5964872442036004
            ]
        },
        {
            "positions": [
                0.3540212605236635,
                -2.044382216774456,
                -1.84439247467084,
                1.1172483288233122,
                0.5080622433343588,
                0.6710572918942834
            ]
        },
        {
            "positions": [
                0.42835253175407806,
                -2.0125950042472667,
                -1.7288555252080537,
                1.052711710144253,
                0.5331669008199459,
                0.7456273395849663
            ]
        },
        {
            "positions": [
                0.5026838029844926,
                -1.9808077917200777,
                -1.613318575745267,
                0.9881750914651937,
                0.5582715583055331,
                0.8201973872756492
            ]
        },
        {
            "positions": [
                0.577015074214907,
                -1.9490205791928885,
                -1.4977816262824808,
                0.9236384727861343,
                0.5833762157911202,
                0.894767434966332
            ]
        },
        {
            "positions": [
                0.6513463454453217,
                -1.9172333666656993,
                -1.3822446768196943,
                0.859101854107075,
                0.6084808732767073,
                0.969337482657015
            ]
        },
        {
            "positions": [
                0.725677616675736,
                -1.8854461541385104,
                -1.2667077273569078,
                0.7945652354280157,
                0.6335855307622944,
                1.043907530347698
            ]
        },
        {
            "positions": [
                0.8000088879061507,
                -1.8536589416113212,
                -1.1511707778941214,
                0.7300286167489564,
                0.6586901882478816,
                1.1184775780383807
            ]
        },
        {
            "positions": [
                0.8743401591365652,
                -1.821871729084132,
                -1.035633828431335,
                0.6654919980698971,
                0.6837948457334687,
                1.1930476257290636
            ]
        },
        {
            "positions": [
                0.9486714303669798,
                -1.7900845165569428,
                -0.9200968789685484,
                0.6009553793908378,
                0.7088995032190559,
                1.2676176734197466
            ]
        },
        {
            "positions": [
                1.0230027015973944,
                -1.7582973040297536,
                -0.8045599295057622,
                0.5364187607117785,
                0.734004160704643,
                1.3421877211104294
            ]
        },
        {
            "positions": [
                1.0973339728278089,
                -1.7265100915025644,
                -0.6890229800429755,
                0.4718821420327193,
                0.7591088181902301,
                1.4167577688011124
            ]
        },
        {
            "positions": [
                1.1716652440582234,
                -1.6947228789753752,
                -0.5734860305801892,
                0.4073455233536598,
                0.7842134756758172,
                1.4913278164917954
            ]
        },
        {
            "positions": [
                1.2459965152886379,
                -1.662935666448186,
                -0.45794908111740273,
                0.34280890467460057,
                0.8093181331614043,
                1.5658978641824781
            ]
        },
        {
            "positions": [
                1.3203277865190524,
                -1.6311484539209968,
                -0.34241213165461604,
                0.2782722859955411,
                0.8344227906469917,
                1.6404679118731613
            ]
        },
        {
            "positions": [
                1.3946590577494669,
                -1.5993612413938076,
                -0.22687518219182978,
                0.21373566731648186,
                0.8595274481325788,
                1.715037959563844
            ]
        },
        {
            "positions": [
                1.4689903289798814,
                -1.5675740288666185,
                -0.11133823272904353,
                0.14919904863742262,
                0.8846321056181659,
                1.7896080072545268
            ]
        },
        {
            "positions": [
                1.5433216002102959,
                -1.5357868163394295,
                0.0041987167337431686,
                0.08466242995836337,
                0.909736763103753,
                1.8641780549452098
            ]
        },
        {
            "positions": [
                1.6176528714407103,
                -1.50399960381224,
                0.11973566619652987,
                0.020125811279303907,
                0.9348414205893403,
                1.9387481026358928
            ]
        },
        {
            "positions": [
                1.6919841426711248,
                -1.472212391285051,
                0.23527261565931612,
                -0.044410807399755337,
                0.9599460780749274,
                2.0133181503265756
            ]
        },
        {
            "positions": [
                1.7663154139015393,
                -1.440425178757862,
                0.3508095651221024,
                -0.10894742607881458,
                0.9850507355605145,
                2.0878881980172586
            ]
        },
        {
            "positions": [
                1.8406466851319538,
                -1.408637966230673,
                0.46634651458488907,
                -0.17348404475787382,
                1.0101553930461016,
                2.162458245707941
            ]
        },
        {
            "positions": [
                1.9149779563623688,
                -1.3768507537034835,
                0.5818834640476758,
                -0.2380206634369333,
                1.0352600505316887,
                2.237028293398624
            ]
        },
        {
            "positions": [
                1.9893092275927833,
                -1.3450635411762946,
                0.697420413510462,
                -0.30255728211599253,
                1.0603647080172758,
                2.311598341089307
            ]
        },
        {
            "positions": [
                2.0636404988231978,
                -1.3132763286491054,
                0.8129573629732483,
                -0.3670939007950518,
                1.085469365502863,
                2.38616838877999
            ]
        },
        {
            "positions": [
                2.1379717700536123,
                -1.2814891161219162,
                0.9284943124360345,
                -0.431630519474111,
                1.1105740229884502,
                2.460738436470673
            ]
        },
        {
            "positions": [
                2.2123030412840268,
                -1.249701903594727,
                1.0440312618988217,
                -0.4961671381531705,
                1.1356786804740373,
                2.535308484161356
            ]
        },
        {
            "positions": [
                2.2866343125144413,
                -1.2179146910675378,
                1.159568211361608,
                -0.5607037568322295,
                1.1607833379596244,
                2.609878531852039
            ]
        },
        {
            "positions": [
                2.3609655837448558,
                -1.1861274785403486,
                1.2751051608243942,
                -0.6252403755112891,
                1.1858879954452115,
                2.684448579542722
            ]
        },
        {
            "positions": [
                2.4147049723615175,
                -1.1516984237786692,
                1.385165858496674,
                -0.6575170335842595,
                1.1616556932080153,
                2.783504509156656
            ]
        },
        {
            "positions": [
                2.468444360978179,
                -1.1172693690169897,
                1.4952265561689537,
                -0.68979369165723,
                1.1374233909708191,
                2.8825604387705903
            ]
        },
        {
            "positions": [
                2.522183749594841,
                -1.0828403142553105,
                1.6052872538412333,
                -0.7220703497302005,
                1.113191088733623,
                2.981616368384524
            ]
        },
        {
            "positions": [
                2.5759231382115026,
                -1.048411259493631,
                1.715347951513513,
                -0.754347007803171,
                1.0889587864964267,
                3.080672297998458
            ]
        },
        {
            "positions": [
                2.6296625268281644,
                -1.0139822047319516,
                1.8254086491857928,
                -0.7866236658761414,
                1.0647264842592306,
                3.1797282276123924
            ]
        }
    ]
}