{
    "goal": {
        "global_pose": {
            "orientation": {
                "w": 0.005598929693374612,
                "x": 0.007748599140229565,
                "y": 0.7110244013736278,
                "z": -0.7031023480610252
            },
            "position": {
                "x": -0.8858502320852131,
                "y": -0.7141253447532654,
                "z": 0.3711530566215515
            }
        },
        "name": "move_to_auspresseinheit_C"
    },
    "id": "LBTRRT_move_to_auspresseinheit_C_3",
    "joint_names": [
        "shoulder_pan_joint",
        "shoulder_lift_joint",
        "elbow_joint",
        "wrist_1_joint",
        "wrist_2_joint",
        "wrist_3_joint"
    ],
    "metrics": {
        "cart_traj_len": 0.49318108082521345,
        "distance_elbow_joint": 1.0058730769155322,
        "distance_shoulder_lift_joint": 0.3268729524722682,
        "distance_shoulder_pan_joint": 0.25615588985106585,
        "distance_wrist_1_joint": 0.697421080273609,
        "distance_wrist_2_joint": 1.3068452874390928,
        "distance_wrist_3_joint": 0.08144353528752335,
        "smoothness": 8.074349282788172e-16,
        "time": 5.001929443,
        "traj_len": 1.9169277039677557,
        "weighted_distance": 2.4169744021248634
    },
    "planner": "LBTRRT",
    "start": {
        "state": {
            "elbow_joint": 1.7527959577737207,
            "shoulder_lift_joint": -0.9740617694225068,
            "shoulder_pan_joint": -2.967991417825858,
            "wrist_1_joint": -0.759517768980727,
            "wrist_2_joint": 1.7443932448377408,
            "wrist_3_joint": -3.0840537646736568
        }
    },
    "waypoints": [
        {
            "positions": [
                -2.967991417825858,
                -0.9740617694225068,
                1.7527959577737207,
                -0.759517768980727,
                1.7443932448377408,
                -3.0840537646736568
            ]
        },
        {
            "positions": [
                -2.9423758288407513,
                -0.94137447417528,
                1.6522086500821676,
                -0.6897756609533661,
                1.6137087160938315,
                -3.092198118202409
            ]
        },
        {
            "positions": [
                -2.9167602398556447,
                -0.9086871789280532,
                1.5516213423906142,
                -0.6200335529260051,
                1.4830241873499221,
                -3.1003424717311616
            ]
        },
        {
            "positions": [
                -2.891144650870538,
                -0.8759998836808263,
                1.451034034699061,
                -0.5502914448986442,
                1.352339658606013,
                -3.108486825259914
            ]
        },
        {
            "positions": [
                -2.8655290618854314,
                -0.8433125884335995,
                1.3504467270075078,
                -0.4805493368712834,
                1.2216551298621037,
                -3.116631178788666
            ]
        },
        {
            "positions": [
                -2.8399134729003253,
                -0.8106252931863727,
                1.2498594193159547,
                -0.41080722884392246,
                1.0909706011181943,
                -3.1247755323174182
            ]
        },
        {
            "positions": [
                -2.8142978839152186,
                -0.7779379979391459,
                1.1492721116244013,
                -0.34106512081656154,
                0.9602860723742852,
                -3.132919885846171
            ]
        },
        {
            "positions": [
                -2.788682294930112,
                -0.7452507026919191,
                1.048684803932848,
                -0.2713230127892007,
                0.829601543630376,
                -3.141064239374923
            ]
        },
        {
            "positions": [
                -2.7630667059450054,
                -0.7125634074446923,
                0.9480974962412949,
                -0.20158090476183976,
                0.6989170148864665,
                -3.1492085929036753
            ]
        },
        {
            "positions": [
                -2.7374511169598987,
                -0.6798761121974654,
                0.8475101885497417,
                -0.13183879673447885,
                0.5682324861425574,
                -3.157352946432428
            ]
        },
        {
            "positions": [
                -2.711835527974792,
                -0.6471888169502386,
                0.7469228808581885,
                -0.06209668870711791,
                0.437547957398648,
                -3.16549729996118
            ]
        }
    ]
}