{
    "goal": {
        "global_pose": {
            "orientation": {
                "w": -0.4816463035849501,
                "x": 0.5182115481033762,
                "y": 0.4908360881923453,
                "z": -0.5084816262002911
            },
            "position": {
                "x": -0.8240239810943604,
                "y": -0.300875300988555,
                "z": 0.16403168439865112
            }
        },
        "name": "move_to_storage_C"
    },
    "id": "LBTRRT_move_to_storage_C_149",
    "joint_names": [
        "shoulder_pan_joint",
        "shoulder_lift_joint",
        "elbow_joint",
        "wrist_1_joint",
        "wrist_2_joint",
        "wrist_3_joint"
    ],
    "metrics": {
        "cart_traj_len": 0.5767140920121058,
        "distance_elbow_joint": 0.25859271436979614,
        "distance_shoulder_lift_joint": 0.1910651658283875,
        "distance_shoulder_pan_joint": 0.4927253200487396,
        "distance_wrist_1_joint": 0.0747454366383501,
        "distance_wrist_2_joint": 1.0800256081120598,
        "distance_wrist_3_joint": 0.07109688040372575,
        "smoothness": 0.0,
        "time": 5.0045949720000005,
        "traj_len": 1.4724982598974639,
        "weighted_distance": 1.8615090467034858
    },
    "planner": "LBTRRT",
    "start": {
        "state": {
            "elbow_joint": 2.010868314990456,
            "shoulder_lift_joint": -1.1634956873337592,
            "shoulder_pan_joint": -2.4736205022346125,
            "wrist_1_joint": -0.8367026794202681,
            "wrist_2_joint": 0.6746043897044499,
            "wrist_3_joint": -3.1496632123970403
        }
    },
    "waypoints": [
        {
            "positions": [
                -2.4736205022346125,
                -1.1634956873337592,
                2.010868314990456,
                -0.8367026794202681,
                0.6746043897044499,
                -3.1496632123970403
            ]
        },
        {
            "positions": [
                -2.5557413889094023,
                -1.131651493029028,
                1.9677695292621564,
                -0.8242451066472097,
                0.8546086577231266,
                -3.137813732329753
            ]
        },
        {
            "positions": [
                -2.6378622755841925,
                -1.0998072987242966,
                1.924670743533857,
                -0.8117875338741514,
                1.0346129257418033,
                -3.125964252262465
            ]
        },
        {
            "positions": [
                -2.7199831622589823,
                -1.0679631044195654,
                1.8815719578055576,
                -0.7993299611010931,
                1.2146171937604797,
                -3.1141147721951774
            ]
        },
        {
            "positions": [
                -2.802104048933772,
                -1.0361189101148343,
                1.8384731720772585,
                -0.7868723883280347,
                1.3946214617791566,
                -3.10226529212789
            ]
        },
        {
            "positions": [
                -2.8842249356085623,
                -1.0042747158101029,
                1.795374386348959,
                -0.7744148155549764,
                1.574625729797833,
                -3.090415812060602
            ]
        },
        {
            "positions": [
                -2.966345822283352,
                -0.9724305215053717,
                1.7522756006206597,
                -0.761957242781918,
                1.7546299978165099,
                -3.0785663319933145
            ]
        }
    ]
}