{
    "goal": {
        "global_pose": {
            "orientation": {
                "w": -0.4816463035849501,
                "x": 0.5182115481033762,
                "y": 0.4908360881923453,
                "z": -0.5084816262002911
            },
            "position": {
                "x": -0.8240239810943604,
                "y": -0.300875300988555,
                "z": 0.16403168439865112
            }
        },
        "name": "move_to_storage_C"
    },
    "id": "LBTRRT_move_to_storage_C_32",
    "joint_names": [
        "shoulder_pan_joint",
        "shoulder_lift_joint",
        "elbow_joint",
        "wrist_1_joint",
        "wrist_2_joint",
        "wrist_3_joint"
    ],
    "metrics": {
        "cart_traj_len": 0.5776408927168957,
        "distance_elbow_joint": 0.2619990166876245,
        "distance_shoulder_lift_joint": 0.19014432099507583,
        "distance_shoulder_pan_joint": 0.49425514000883997,
        "distance_wrist_1_joint": 0.08697805176439344,
        "distance_wrist_2_joint": 1.0750594986278803,
        "distance_wrist_3_joint": 0.07520459601391227,
        "smoothness": 0.0,
        "time": 5.002949323,
        "traj_len": 1.4777146626117392,
        "weighted_distance": 1.869782705695457
    },
    "planner": "LBTRRT",
    "start": {
        "state": {
            "elbow_joint": 2.010868314990456,
            "shoulder_lift_joint": -1.1634956873337592,
            "shoulder_pan_joint": -2.4736205022346125,
            "wrist_1_joint": -0.8367026794202681,
            "wrist_2_joint": 0.6746043897044499,
            "wrist_3_joint": -3.1496632123970403
        }
    },
    "waypoints": [
        {
            "positions": [
                -2.4736205022346125,
                -1.1634956873337592,
                2.010868314990456,
                -0.8367026794202681,
                0.6746043897044499,
                -3.1496632123970403
            ]
        },
        {
            "positions": [
                -2.5559963589027523,
                -1.1318049671679131,
                1.967201812209185,
                -0.8222063374595359,
                0.8537809728090966,
                -3.137129113061388
            ]
        },
        {
            "positions": [
                -2.6383722155708926,
                -1.1001142470020673,
                1.9235353094279144,
                -0.8077099954988036,
                1.0329575559137434,
                -3.1245950137257363
            ]
        },
        {
            "positions": [
                -2.7207480722390325,
                -1.0684235268362212,
                1.8798688066466436,
                -0.7932136535380714,
                1.21213413901839,
                -3.112060914390084
            ]
        },
        {
            "positions": [
                -2.8031239289071723,
                -1.0367328066703754,
                1.8362023038653728,
                -0.7787173115773391,
                1.3913107221230367,
                -3.099526815054432
            ]
        },
        {
            "positions": [
                -2.8854997855753126,
                -1.0050420865045293,
                1.7925358010841022,
                -0.7642209696166069,
                1.5704873052276835,
                -3.08699271571878
            ]
        },
        {
            "positions": [
                -2.9678756422434525,
                -0.9733513663386834,
                1.7488692983028313,
                -0.7497246276558747,
                1.74966388833233,
                -3.074458616383128
            ]
        }
    ]
}