{
    "goal": {
        "global_pose": {
            "orientation": {
                "w": 0.7031023480610252,
                "x": -0.7110244013736278,
                "y": 0.0077485991402295624,
                "z": 0.005598929693374583
            },
            "position": {
                "x": -0.8841497679147869,
                "y": 0.44412534475326537,
                "z": 0.3711530566215515
            }
        },
        "name": "move_to_auspresseinheit_D"
    },
    "id": "LBTRRT_move_to_auspresseinheit_D_15",
    "joint_names": [
        "shoulder_pan_joint",
        "shoulder_lift_joint",
        "elbow_joint",
        "wrist_1_joint",
        "wrist_2_joint",
        "wrist_3_joint"
    ],
    "metrics": {
        "cart_traj_len": 0.3433289610934572,
        "distance_elbow_joint": 0.6439158805867486,
        "distance_shoulder_lift_joint": 0.1243011899615567,
        "distance_shoulder_pan_joint": 0.13426259517901087,
        "distance_wrist_1_joint": 0.5590993277485063,
        "distance_wrist_2_joint": 1.4307053820575115,
        "distance_wrist_3_joint": 0.01565382943572624,
        "smoothness": 1.9737298371844314e-16,
        "time": 5.004385223,
        "traj_len": 1.705267781015363,
        "weighted_distance": 2.220146520760855
    },
    "planner": "LBTRRT",
    "start": {
        "state": {
            "elbow_joint": -1.8275523626775212,
            "shoulder_lift_joint": -2.126789852344167,
            "shoulder_pan_joint": -0.03513704404078235,
            "wrist_1_joint": -2.347782403156801,
            "wrist_2_joint": -1.6058999987535132,
            "wrist_3_joint": -3.0880379163319196
        }
    },
    "waypoints": [
        {
            "positions": [
                -0.03513704404078235,
                -2.126789852344167,
                -1.8275523626775212,
                -2.347782403156801,
                -1.6058999987535132,
                -3.0880379163319196
            ]
        },
        {
            "positions": [
                -0.05191986843815871,
                -2.1423275010893614,
                -1.7470628776041777,
                -2.417669819125364,
                -1.4270618259963244,
                -3.0860811876524537
            ]
        },
        {
            "positions": [
                -0.06870269283553507,
                -2.157865149834556,
                -1.6665733925308341,
                -2.4875572350939272,
                -1.2482236532391353,
                -3.084124458972988
            ]
        },
        {
            "positions": [
                -0.08548551723291142,
                -2.1734027985797506,
                -1.5860839074574904,
                -2.557444651062491,
                -1.0693854804819463,
                -3.082167730293522
            ]
        },
        {
            "positions": [
                -0.10226834163028778,
                -2.188940447324945,
                -1.5055944223841469,
                -2.627332067031054,
                -0.8905473077247574,
                -3.0802110016140567
            ]
        },
        {
            "positions": [
                -0.11905116602766413,
                -2.20447809607014,
                -1.4251049373108033,
                -2.6972194829996172,
                -0.7117091349675685,
                -3.0782542729345908
            ]
        },
        {
            "positions": [
                -0.13583399042504052,
                -2.2200157448153344,
                -1.3446154522374596,
                -2.767106898968181,
                -0.5328709622103796,
                -3.076297544255125
            ]
        },
        {
            "positions": [
                -0.15261681482241687,
                -2.235553393560529,
                -1.264125967164116,
                -2.836994314936744,
                -0.3540327894531905,
                -3.0743408155756593
            ]
        },
        {
            "positions": [
                -0.16939963921979323,
                -2.2510910423057235,
                -1.1836364820907725,
                -2.906881730905307,
                -0.17519461669600178,
                -3.0723840868961934
            ]
        }
    ]
}