{
    "goal": {
        "global_pose": {
            "orientation": {
                "w": -0.4816463035849501,
                "x": 0.5182115481033762,
                "y": 0.4908360881923453,
                "z": -0.5084816262002911
            },
            "position": {
                "x": -0.8240239810943604,
                "y": 0.19912469901144506,
                "z": 0.16403168439865112
            }
        },
        "name": "move_to_storage_D"
    },
    "id": "LBTRRT_move_to_storage_D_88",
    "joint_names": [
        "shoulder_pan_joint",
        "shoulder_lift_joint",
        "elbow_joint",
        "wrist_1_joint",
        "wrist_2_joint",
        "wrist_3_joint"
    ],
    "metrics": {
        "cart_traj_len": 0.6139651971815765,
        "distance_elbow_joint": 0.7396166749709054,
        "distance_shoulder_lift_joint": 0.2761851000303621,
        "distance_shoulder_pan_joint": 0.49512428871242015,
        "distance_wrist_1_joint": 3.820644524429712,
        "distance_wrist_2_joint": 2.1324713623840963,
        "distance_wrist_3_joint": 3.1182043378288,
        "smoothness": 0.3115503889273993,
        "time": 5.0377182540000005,
        "traj_len": 3.253036472029832,
        "weighted_distance": 4.771977666631279
    },
    "planner": "LBTRRT",
    "start": {
        "state": {
            "elbow_joint": -2.384821988534728,
            "shoulder_lift_joint": -2.2788054721415256,
            "shoulder_pan_joint": -0.1854694642142757,
            "wrist_1_joint": 1.4845938289331202,
            "wrist_2_joint": 0.17898776772866878,
            "wrist_3_joint": 0.037105688729662994
        }
    },
    "waypoints": [
        {
            "positions": [
                -0.1854694642142757,
                -2.2788054721415256,
                -2.384821988534728,
                1.4845938289331202,
                0.17898776772866878,
                0.037105688729662994
            ]
        },
        {
            "positions": [
                -0.0776358654551027,
                -2.2074351917406547,
                -2.4157930088877233,
                1.4694192783859221,
                0.23751655506548205,
                0.0024170817957754817
            ]
        },
        {
            "positions": [
                0.0301977333040703,
                -2.1360649113397834,
                -2.4467640292407182,
                1.4542447278387238,
                0.29604534240229535,
                -0.03227152513811203
            ]
        },
        {
            "positions": [
                0.1380313320632433,
                -2.0646946309389125,
                -2.4777350495937136,
                1.4390701772915258,
                0.3545741297391086,
                -0.06696013207199955
            ]
        },
        {
            "positions": [
                0.13116639236584726,
                -2.0671776012920224,
                -2.451866905037237,
                1.288065342380001,
                0.27629872972416236,
                -0.18752567275308507
            ]
        },
        {
            "positions": [
                0.12430145266845123,
                -2.0696605716451324,
                -2.42599876048076,
                1.1370605074684763,
                0.19802332970921607,
                -0.30809121343417056
            ]
        },
        {
            "positions": [
                0.11743651297105519,
                -2.0721435419982424,
                -2.400130615924283,
                0.9860556725569516,
                0.11974792969426981,
                -0.42865675411525606
            ]
        },
        {
            "positions": [
                0.11057157327365914,
                -2.0746265123513523,
                -2.3742624713678064,
                0.835050837645427,
                0.04147252967932352,
                -0.5492222947963415
            ]
        },
        {
            "positions": [
                0.10370663357626311,
                -2.0771094827044623,
                -2.34839432681133,
                0.6840460027339021,
                -0.036802870335622795,
                -0.6697878354774272
            ]
        },
        {
            "positions": [
                0.09684169387886707,
                -2.0795924530575722,
                -2.322526182254853,
                0.5330411678223775,
                -0.115078270350569,
                -0.7903533761585125
            ]
        },
        {
            "positions": [
                0.08997675418147102,
                -2.082075423410682,
                -2.296658037698376,
                0.3820363329108527,
                -0.19335367036551532,
                -0.9109189168395981
            ]
        },
        {
            "positions": [
                0.08311181448407498,
                -2.084558393763792,
                -2.2707898931418993,
                0.2310314979993282,
                -0.2716290703804616,
                -1.0314844575206836
            ]
        },
        {
            "positions": [
                0.07624687478667895,
                -2.087041364116902,
                -2.2449217485854227,
                0.08002666308780348,
                -0.34990447039540784,
                -1.152049998201769
            ]
        },
        {
            "positions": [
                0.0693819350892829,
                -2.089524334470012,
                -2.2190536040289457,
                -0.07097817182372146,
                -0.4281798704103542,
                -1.2726155388828546
            ]
        },
        {
            "positions": [
                0.06251699539188686,
                -2.092007304823122,
                -2.1931854594724687,
                -0.22198300673524596,
                -0.5064552704253004,
                -1.3931810795639399
            ]
        },
        {
            "positions": [
                0.05565205569449083,
                -2.094490275176232,
                -2.167317314915992,
                -0.3729878416467707,
                -0.5847306704402466,
                -1.5137466202450254
            ]
        },
        {
            "positions": [
                0.04878711599709479,
                -2.096973245529342,
                -2.1414491703595155,
                -0.5239926765582954,
                -0.6630060704551929,
                -1.634312160926111
            ]
        },
        {
            "positions": [
                0.041922176299698743,
                -2.099456215882452,
                -2.1155810258030385,
                -0.6749975114698203,
                -0.7412814704701393,
                -1.7548777016071966
            ]
        },
        {
            "positions": [
                0.03505723660230271,
                -2.101939186235562,
                -2.0897128812465615,
                -0.8260023463813446,
                -0.8195568704850854,
                -1.8754432422882819
            ]
        },
        {
            "positions": [
                0.02819229690490667,
                -2.104422156588672,
                -2.063844736690085,
                -0.9770071812928693,
                -0.8978322705000318,
                -1.9960087829693676
            ]
        },
        {
            "positions": [
                0.021327357207510625,
                -2.106905126941782,
                -2.037976592133608,
                -1.1280120162043945,
                -0.9761076705149782,
                -2.116574323650453
            ]
        },
        {
            "positions": [
                0.014462417510114595,
                -2.1093880972948917,
                -2.0121084475771314,
                -1.2790168511159188,
                -1.0543830705299242,
                -2.2371398643315383
            ]
        },
        {
            "positions": [
                0.0075974778127185505,
                -2.1118710676480017,
                -1.9862403030206546,
                -1.4300216860274435,
                -1.1326584705448708,
                -2.357705405012624
            ]
        },
        {
            "positions": [
                0.0007325381153225063,
                -2.1143540380011117,
                -1.9603721584641778,
                -1.5810265209389687,
                -1.210933870559817,
                -2.4782709456937098
            ]
        },
        {
            "positions": [
                -0.00613240158207351,
                -2.1168370083542216,
                -1.934504013907701,
                -1.732031355850493,
                -1.289209270574763,
                -2.598836486374795
            ]
        },
        {
            "positions": [
                -0.012997341279469582,
                -2.1193199787073316,
                -1.9086358693512242,
                -1.8830361907620177,
                -1.3674846705897092,
                -2.7194020270558803
            ]
        },
        {
            "positions": [
                -0.019862280976865626,
                -2.1218029490604415,
                -1.8827677247947474,
                -2.0340410256735426,
                -1.4457600706046558,
                -2.839967567736966
            ]
        },
        {
            "positions": [
                -0.026727220674261642,
                -2.1242859194135515,
                -1.8568995802382706,
                -2.185045860585067,
                -1.524035470619602,
                -2.9605331084180513
            ]
        },
        {
            "positions": [
                -0.033592160371657694,
                -2.1267688897666615,
                -1.8310314356817938,
                -2.336050695496592,
                -1.6023108706345481,
                -3.081098649099137
            ]
        }
    ]
}