{
    "goal": {
        "global_pose": {
            "orientation": {
                "w": 0.7031023502349854,
                "x": -0.7110244035720825,
                "y": 0.007748599164187908,
                "z": 0.005598929710686207
            },
            "position": {
                "x": 0.11585023208521307,
                "y": 0.44412534475326537,
                "z": 0.3711530566215515
            }
        },
        "name": "move_to_auspresseinheit_A"
    },
    "id": "LBTRRT_move_to_auspresseinheit_A_143",
    "joint_names": [
        "shoulder_pan_joint",
        "shoulder_lift_joint",
        "elbow_joint",
        "wrist_1_joint",
        "wrist_2_joint",
        "wrist_3_joint"
    ],
    "metrics": {
        "cart_traj_len": 0.7214927766427373,
        "distance_elbow_joint": 0.13751882018380046,
        "distance_shoulder_lift_joint": 0.5383936638145725,
        "distance_shoulder_pan_joint": 1.3314710125554332,
        "distance_wrist_1_joint": 0.547502832917236,
        "distance_wrist_2_joint": 0.5130923408483121,
        "distance_wrist_3_joint": 0.05777355221536862,
        "smoothness": 0.6630249360319728,
        "time": 5.016476075000001,
        "traj_len": 1.767979700826546,
        "weighted_distance": 2.0741008897184843
    },
    "planner": "LBTRRT",
    "start": {
        "state": {
            "elbow_joint": 2.4225746658250005,
            "shoulder_lift_joint": -1.3736534386056498,
            "shoulder_pan_joint": -0.3378633547517467,
            "wrist_1_joint": -1.0288598680537169,
            "wrist_2_joint": 1.233022673432363,
            "wrist_3_joint": -3.0940220416140027
        }
    },
    "waypoints": [
        {
            "positions": [
                -0.3378633547517467,
                -1.3736534386056498,
                2.4225746658250005,
                -1.0288598680537169,
                1.233022673432363,
                -3.0940220416140027
            ]
        },
        {
            "positions": [
                -0.38546170013863273,
                -1.4278200683474502,
                2.4412194999223913,
                -0.9475348635285218,
                1.1564955104987165,
                -3.090639093506712
            ]
        },
        {
            "positions": [
                -0.4330600455255187,
                -1.4819866980892509,
                2.459864334019782,
                -0.8662098590033267,
                1.07996834756507,
                -3.0872561453994214
            ]
        },
        {
            "positions": [
                -0.4806583909124047,
                -1.5361533278310513,
                2.478509168117173,
                -0.7848848544781315,
                1.0034411846314235,
                -3.0838731972921307
            ]
        },
        {
            "positions": [
                -0.28254572817994217,
                -1.5988022902625798,
                2.4649117818019017,
                -0.7342968845878564,
                0.9561893759568614,
                -3.0918106486077135
            ]
        },
        {
            "positions": [
                -0.08443306544747964,
                -1.6614512526941083,
                2.45131439548663,
                -0.6837089146975812,
                0.9089375672822994,
                -3.0997480999232963
            ]
        },
        {
            "positions": [
                0.11367959728498289,
                -1.7241002151256368,
                2.437717009171359,
                -0.6331209448073062,
                0.8616857586077372,
                -3.107685551238879
            ]
        },
        {
            "positions": [
                0.3117922600174454,
                -1.7867491775571653,
                2.4241196228560877,
                -0.582532974917031,
                0.8144339499331752,
                -3.115623002554462
            ]
        },
        {
            "positions": [
                0.509904922749908,
                -1.8493981399886938,
                2.410522236540816,
                -0.5319450050267559,
                0.7671821412586131,
                -3.1235604538700446
            ]
        },
        {
            "positions": [
                0.7080175854823705,
                -1.9120471024202224,
                2.396924850225545,
                -0.4813570351364808,
                0.7199303325840509,
                -3.1314979051856273
            ]
        }
    ]
}