{
    "goal": {
        "global_pose": {
            "orientation": {
                "w": -0.4816463035849501,
                "x": 0.5182115481033762,
                "y": 0.4908360881923453,
                "z": -0.5084816262002911
            },
            "position": {
                "x": -0.8240239810943604,
                "y": 0.19912469901144506,
                "z": 0.16403168439865112
            }
        },
        "name": "move_to_storage_D"
    },
    "id": "LBTRRT_move_to_storage_D_149",
    "joint_names": [
        "shoulder_pan_joint",
        "shoulder_lift_joint",
        "elbow_joint",
        "wrist_1_joint",
        "wrist_2_joint",
        "wrist_3_joint"
    ],
    "metrics": {
        "cart_traj_len": 5.275888111688421,
        "distance_elbow_joint": 4.854431457789925,
        "distance_shoulder_lift_joint": 1.2649570208956769,
        "distance_shoulder_pan_joint": 4.631486023785417,
        "distance_wrist_1_joint": 2.282924145015306,
        "distance_wrist_2_joint": 2.4912984832873417,
        "distance_wrist_3_joint": 3.9012836503027724,
        "smoothness": 0.7868075077866711,
        "time": 5.027993762,
        "traj_len": 4.407536815623488,
        "weighted_distance": 5.657134496366921
    },
    "planner": "LBTRRT",
    "start": {
        "state": {
            "elbow_joint": -2.384821988534728,
            "shoulder_lift_joint": -2.2788054721415256,
            "shoulder_pan_joint": -0.1854694642142757,
            "wrist_1_joint": 1.4845938289331202,
            "wrist_2_joint": 0.17898776772866878,
            "wrist_3_joint": 0.037105688729662994
        }
    },
    "waypoints": [
        {
            "positions": [
                -0.1854694642142757,
                -2.2788054721415256,
                -2.384821988534728,
                1.4845938289331202,
                0.17898776772866878,
                0.037105688729662994
            ]
        },
        {
            "positions": [
                -0.043572387443177235,
                -2.2717801305701433,
                -2.3362605737252102,
                1.4711045547579336,
                0.1122147482517579,
                0.1279831536789499
            ]
        },
        {
            "positions": [
                0.09832468932792124,
                -2.2647547889987605,
                -2.287699158915693,
                1.4576152805827467,
                0.04544172877484701,
                0.2188606186282368
            ]
        },
        {
            "positions": [
                0.2402217660990197,
                -2.257729447427378,
                -2.2391377441061753,
                1.44412600640756,
                -0.021331290702063882,
                0.30973808357752375
            ]
        },
        {
            "positions": [
                0.3821188428701182,
                -2.250704105855996,
                -2.1905763292966576,
                1.4306367322323734,
                -0.08810431017897477,
                0.4006155485268106
            ]
        },
        {
            "positions": [
                0.5240159196412167,
                -2.2436787642846134,
                -2.1420149144871403,
                1.4171474580571866,
                -0.15487732965588566,
                0.49149301347609753
            ]
        },
        {
            "positions": [
                0.6659129964123152,
                -2.236653422713231,
                -2.0934534996776226,
                1.403658183882,
                -0.22165034913279655,
                0.5823704784253845
            ]
        },
        {
            "positions": [
                0.8078100731834137,
                -2.2296280811418483,
                -2.0448920848681054,
                1.3901689097068133,
                -0.2884233686097075,
                0.6732479433746714
            ]
        },
        {
            "positions": [
                0.9497071499545121,
                -2.222602739570466,
                -1.9963306700585877,
                1.3766796355316264,
                -0.35519638808661835,
                0.7641254083239583
            ]
        },
        {
            "positions": [
                1.0916042267256105,
                -2.2155773979990836,
                -1.9477692552490702,
                1.3631903613564398,
                -0.4219694075635293,
                0.8550028732732452
            ]
        },
        {
            "positions": [
                1.233501303496709,
                -2.208552056427701,
                -1.8992078404395527,
                1.3497010871812531,
                -0.48874242704044013,
                0.9458803382225321
            ]
        },
        {
            "positions": [
                1.3753983802678074,
                -2.2015267148563185,
                -1.850646425630035,
                1.3362118130060663,
                -0.555515446517351,
                1.036757803171819
            ]
        },
        {
            "positions": [
                1.517295457038906,
                -2.194501373284936,
                -1.8020850108205175,
                1.3227225388308796,
                -0.6222884659942619,
                1.127635268121106
            ]
        },
        {
            "positions": [
                1.4037781190029246,
                -2.1801864081428284,
                -1.8421813676651173,
                1.26906602288301,
                -0.5285571192110418,
                1.080956231659945
            ]
        },
        {
            "positions": [
                1.2902607809669433,
                -2.16587144300072,
                -1.882277724509717,
                1.2154095069351403,
                -0.4348257724278216,
                1.0342771951987841
            ]
        },
        {
            "positions": [
                1.176743442930962,
                -2.1515564778586125,
                -1.9223740813543169,
                1.1617529909872708,
                -0.34109442564460146,
                0.9875981587376231
            ]
        },
        {
            "positions": [
                1.0632261048949807,
                -2.1372415127165043,
                -1.9624704381989169,
                1.1080964750394011,
                -0.2473630788613813,
                0.9409191222764621
            ]
        },
        {
            "positions": [
                0.9497087668589994,
                -2.1229265475743966,
                -2.0025667950435166,
                1.0544399590915314,
                -0.15363173207816117,
                0.8942400858153012
            ]
        },
        {
            "positions": [
                0.8361914288230181,
                -2.108611582432289,
                -2.0426631518881164,
                1.0007834431436617,
                -0.059900385294941016,
                0.8475610493541403
            ]
        },
        {
            "positions": [
                0.7226740907870368,
                -2.0942966172901807,
                -2.082759508732716,
                0.9471269271957921,
                0.03383096148827913,
                0.8008820128929794
            ]
        },
        {
            "positions": [
                0.6091567527510555,
                -2.079981652148073,
                -2.122855865577316,
                0.8934704112479225,
                0.12756230827149923,
                0.7542029764318184
            ]
        },
        {
            "positions": [
                0.6743368301137775,
                -2.0455902585705816,
                -1.9954067163734799,
                0.8388961942372739,
                0.1578904203779073,
                0.8328262596325294
            ]
        },
        {
            "positions": [
                0.7395169074764996,
                -2.0111988649930908,
                -1.8679575671696438,
                0.7843219772266252,
                0.18821853248431533,
                0.9114495428332405
            ]
        },
        {
            "positions": [
                0.8046969848392216,
                -1.9768074714155996,
                -1.740508417965808,
                0.7297477602159765,
                0.21854664459072337,
                0.9900728260339515
            ]
        },
        {
            "positions": [
                0.8698770622019436,
                -1.9424160778381085,
                -1.6130592687619718,
                0.675173543205328,
                0.24887475669713144,
                1.0686961092346625
            ]
        },
        {
            "positions": [
                0.9350571395646656,
                -1.9080246842606174,
                -1.4856101195581357,
                0.6205993261946794,
                0.2792028688035395,
                1.1473193924353735
            ]
        },
        {
            "positions": [
                1.0002372169273877,
                -1.8736332906831263,
                -1.3581609703542998,
                0.5660251091840307,
                0.3095309809099476,
                1.2259426756360847
            ]
        },
        {
            "positions": [
                1.0654172942901097,
                -1.8392418971056352,
                -1.2307118211504637,
                0.511450892173382,
                0.3398590930163556,
                1.3045659588367957
            ]
        },
        {
            "positions": [
                1.1305973716528315,
                -1.8048505035281441,
                -1.1032626719466276,
                0.45687667516273345,
                0.37018720512276365,
                1.3831892420375067
            ]
        },
        {
            "positions": [
                1.1957774490155537,
                -1.770459109950653,
                -0.9758135227427915,
                0.4023024581520848,
                0.4005153172291717,
                1.461812525238218
            ]
        },
        {
            "positions": [
                1.2609575263782755,
                -1.736067716373162,
                -0.8483643735389557,
                0.3477282411414362,
                0.43084342933557973,
                1.5404358084389287
            ]
        },
        {
            "positions": [
                1.3261376037409978,
                -1.7016763227956708,
                -0.7209152243351196,
                0.2931540241307875,
                0.4611715414419878,
                1.61905909163964
            ]
        },
        {
            "positions": [
                1.3913176811037196,
                -1.6672849292181797,
                -0.5934660751312837,
                0.23857980712013893,
                0.49149965354839587,
                1.697682374840351
            ]
        },
        {
            "positions": [
                1.4564977584664418,
                -1.6328935356406886,
                -0.46601692592744737,
                0.18400559010949025,
                0.5218277656548039,
                1.7763056580410619
            ]
        },
        {
            "positions": [
                1.5216778358291636,
                -1.5985021420631975,
                -0.3385677767236115,
                0.12943137309884167,
                0.5521558777612119,
                1.854928941241773
            ]
        },
        {
            "positions": [
                1.5868579131918858,
                -1.5641107484857064,
                -0.2111186275197754,
                0.0748571560881931,
                0.58248398986762,
                1.9335522244424843
            ]
        },
        {
            "positions": [
                1.6520379905546076,
                -1.5297193549082153,
                -0.0836694783159393,
                0.020282939077544415,
                0.612812101974028,
                2.012175507643195
            ]
        },
        {
            "positions": [
                1.7172180679173297,
                -1.4953279613307242,
                0.04377967088789658,
                -0.03429127793310416,
                0.6431402140804361,
                2.090798790843906
            ]
        },
        {
            "positions": [
                1.782398145280052,
                -1.460936567753233,
                0.1712288200917329,
                -0.08886549494375284,
                0.6734683261868442,
                2.169422074044617
            ]
        },
        {
            "positions": [
                1.8475782226427737,
                -1.426545174175742,
                0.2986779692955688,
                -0.14343971195440142,
                0.7037964382932522,
                2.2480453572453283
            ]
        },
        {
            "positions": [
                1.9127583000054957,
                -1.392153780598251,
                0.42612711849940466,
                -0.1980139289650501,
                0.7341245503996603,
                2.326668640446039
            ]
        },
        {
            "positions": [
                1.9779383773682178,
                -1.3577623870207598,
                0.5535762677032405,
                -0.25258814597569856,
                0.7644526625060684,
                2.4052919236467503
            ]
        },
        {
            "positions": [
                2.04311845473094,
                -1.3233709934432687,
                0.6810254169070769,
                -0.30716236298634747,
                0.7947807746124764,
                2.4839152068474615
            ]
        },
        {
            "positions": [
                2.108298532093662,
                -1.2889795998657776,
                0.8084745661109127,
                -0.36173657999699593,
                0.8251088867188845,
                2.5625384900481722
            ]
        },
        {
            "positions": [
                2.173478609456384,
                -1.2545882062882865,
                0.9359237153147486,
                -0.4163107970076446,
                0.8554369988252926,
                2.6411617732488835
            ]
        },
        {
            "positions": [
                2.2386586868191056,
                -1.2201968127107954,
                1.0633728645185845,
                -0.4708850140182931,
                0.8857651109317004,
                2.7197850564495942
            ]
        },
        {
            "positions": [
                2.303838764181828,
                -1.1858054191333043,
                1.1908220137224212,
                -0.525459231028942,
                0.9160932230381087,
                2.7984083396503054
            ]
        },
        {
            "positions": [
                2.36901884154455,
                -1.1514140255558132,
                1.3182711629262571,
                -0.5800334480395904,
                0.9464213351445168,
                2.8770316228510167
            ]
        },
        {
            "positions": [
                2.434198918907272,
                -1.117022631978322,
                1.445720312130093,
                -0.6346076650502391,
                0.9767494472509246,
                2.9556549060517274
            ]
        },
        {
            "positions": [
                2.4993789962699937,
                -1.0826312384008312,
                1.5731694613339289,
                -0.6891818820608876,
                1.0070775593573327,
                3.034278189252438
            ]
        },
        {
            "positions": [
                2.564559073632716,
                -1.0482398448233399,
                1.7006186105377652,
                -0.7437560990715363,
                1.0374056714637407,
                3.11290147245315
            ]
        },
        {
            "positions": [
                2.6297391509954378,
                -1.0138484512458488,
                1.8280677597416013,
                -0.7983303160821851,
                1.0677337835701488,
                3.1915247556538606
            ]
        }
    ]
}