{
    "goal": {
        "global_pose": {
            "orientation": {
                "w": -0.00223480608172531,
                "x": 0.0024358444001904467,
                "y": 0.7094548369677653,
                "z": -0.704743149386269
            },
            "position": {
                "x": -0.37947507619857795,
                "y": -0.6371506643295288,
                "z": 0.19426114857196808
            }
        },
        "name": "move_to_magneteinheit_C"
    },
    "id": "LBTRRT_move_to_magneteinheit_C_32",
    "joint_names": [
        "shoulder_pan_joint",
        "shoulder_lift_joint",
        "elbow_joint",
        "wrist_1_joint",
        "wrist_2_joint",
        "wrist_3_joint"
    ],
    "metrics": {
        "cart_traj_len": 0.5467497742187095,
        "distance_elbow_joint": 0.10170904600182418,
        "distance_shoulder_lift_joint": 0.344388793318956,
        "distance_shoulder_pan_joint": 0.8022923472861179,
        "distance_wrist_1_joint": 0.2946161595530917,
        "distance_wrist_2_joint": 0.9171539654902596,
        "distance_wrist_3_joint": 0.03997433475582701,
        "smoothness": 0.46081016861911955,
        "time": 5.0659593009999995,
        "traj_len": 1.5811814084430909,
        "weighted_distance": 1.9472681995454766
    },
    "planner": "LBTRRT",
    "start": {
        "state": {
            "elbow_joint": 1.9565354010623817,
            "shoulder_lift_joint": -1.4165861575791021,
            "shoulder_pan_joint": -1.6717766225146293,
            "wrist_1_joint": -0.5286633292919765,
            "wrist_2_joint": 1.472756589071564,
            "wrist_3_joint": -3.1238370188695823
        }
    },
    "waypoints": [
        {
            "positions": [
                -1.6717766225146293,
                -1.4165861575791021,
                1.9565354010623817,
                -0.5286633292919765,
                1.472756589071564,
                -3.1238370188695823
            ]
        },
        {
            "positions": [
                -1.7601258391842256,
                -1.428121505871456,
                1.9758254818951553,
                -0.533347342113669,
                1.2590775287661191,
                -3.130329546022801
            ]
        },
        {
            "positions": [
                -1.848475055853822,
                -1.4396568541638102,
                1.9951155627279287,
                -0.5380313549353615,
                1.0453984684606743,
                -3.1368220731760195
            ]
        },
        {
            "positions": [
                -1.9368242725234184,
                -1.451192202456164,
                2.014405643560702,
                -0.542715367757054,
                0.8317194081552293,
                -3.1433146003292385
            ]
        },
        {
            "positions": [
                -2.0251734891930147,
                -1.462727550748518,
                2.0336957243934757,
                -0.5473993805787465,
                0.6180403478497845,
                -3.149807127482457
            ]
        },
        {
            "positions": [
                -2.1748053160622587,
                -1.3633117506986714,
                2.0255128168365655,
                -0.6393594166675204,
                0.6388529226059445,
                -3.1544752028634413
            ]
        },
        {
            "positions": [
                -2.324437142931503,
                -1.2638959506488245,
                2.0173299092796557,
                -0.7313194527562943,
                0.6596654973621046,
                -3.159143278244425
            ]
        },
        {
            "positions": [
                -2.474068969800747,
                -1.164480150598978,
                2.0091470017227455,
                -0.8232794888450682,
                0.6804780721182646,
                -3.1638113536254093
            ]
        }
    ]
}