{
    "goal": {
        "global_pose": {
            "orientation": {
                "w": -0.4816463035849501,
                "x": 0.5182115481033762,
                "y": 0.4908360881923453,
                "z": -0.5084816262002911
            },
            "position": {
                "x": -0.8240239810943604,
                "y": -0.300875300988555,
                "z": 0.16403168439865112
            }
        },
        "name": "move_to_storage_C"
    },
    "id": "LBTRRT_move_to_storage_C_29",
    "joint_names": [
        "shoulder_pan_joint",
        "shoulder_lift_joint",
        "elbow_joint",
        "wrist_1_joint",
        "wrist_2_joint",
        "wrist_3_joint"
    ],
    "metrics": {
        "cart_traj_len": 0.5766789924094091,
        "distance_elbow_joint": 0.2570616919322737,
        "distance_shoulder_lift_joint": 0.18782924461262318,
        "distance_shoulder_pan_joint": 0.49548488463076756,
        "distance_wrist_1_joint": 0.07644133616588455,
        "distance_wrist_2_joint": 1.0639981570765218,
        "distance_wrist_3_joint": 0.06964643040680896,
        "smoothness": 0.0,
        "time": 5.00386865,
        "traj_len": 1.4664452750869632,
        "weighted_distance": 1.8520783187762075
    },
    "planner": "LBTRRT",
    "start": {
        "state": {
            "elbow_joint": 2.010868314990456,
            "shoulder_lift_joint": -1.1634956873337592,
            "shoulder_pan_joint": -2.4736205022346125,
            "wrist_1_joint": -0.8367026794202681,
            "wrist_2_joint": 0.6746043897044499,
            "wrist_3_joint": -3.1496632123970403
        }
    },
    "waypoints": [
        {
            "positions": [
                -2.4736205022346125,
                -1.1634956873337592,
                2.010868314990456,
                -0.8367026794202681,
                0.6746043897044499,
                -3.1496632123970403
            ]
        },
        {
            "positions": [
                -2.5562013163397403,
                -1.1321908132316554,
                1.96802469966841,
                -0.823962456725954,
                0.8519374158838702,
                -3.1380554739959052
            ]
        },
        {
            "positions": [
                -2.638782130444868,
                -1.1008859391295513,
                1.9251810843463646,
                -0.81122223403164,
                1.0292704420632905,
                -3.1264477355947706
            ]
        },
        {
            "positions": [
                -2.7213629445499965,
                -1.0695810650274475,
                1.882337469024319,
                -0.7984820113373259,
                1.2066034682427107,
                -3.114839997193636
            ]
        },
        {
            "positions": [
                -2.8039437586551244,
                -1.0382761909253437,
                1.8394938537022734,
                -0.7857417886430117,
                1.383936494422131,
                -3.103232258792501
            ]
        },
        {
            "positions": [
                -2.886524572760252,
                -1.00697131682324,
                1.7966502383802276,
                -0.7730015659486976,
                1.5612695206015514,
                -3.091624520391366
            ]
        },
        {
            "positions": [
                -2.96910538686538,
                -0.975666442721136,
                1.7538066230581821,
                -0.7602613432543835,
                1.7386025467809716,
                -3.0800167819902313
            ]
        }
    ]
}