{
    "goal": {
        "global_pose": {
            "orientation": {
                "w": -0.00223480608172531,
                "x": 0.0024358444001904467,
                "y": 0.7094548369677653,
                "z": -0.704743149386269
            },
            "position": {
                "x": 0.6205249238014221,
                "y": -0.6371506643295288,
                "z": 0.19426114857196808
            }
        },
        "name": "move_to_magneteinheit_B"
    },
    "id": "LBTRRT_move_to_magneteinheit_B_139",
    "joint_names": [
        "shoulder_pan_joint",
        "shoulder_lift_joint",
        "elbow_joint",
        "wrist_1_joint",
        "wrist_2_joint",
        "wrist_3_joint"
    ],
    "metrics": {
        "cart_traj_len": 3.1850828858533413,
        "distance_elbow_joint": 5.506157930828849,
        "distance_shoulder_lift_joint": 1.0560877956056567,
        "distance_shoulder_pan_joint": 1.95376578565594,
        "distance_wrist_1_joint": 4.705698496635863,
        "distance_wrist_2_joint": 1.5604170784655453,
        "distance_wrist_3_joint": 3.4521243979723115,
        "smoothness": 0.3373899556817792,
        "time": 5.0820969499999995,
        "traj_len": 4.270158250599639,
        "weighted_distance": 5.603982142745477
    },
    "planner": "LBTRRT",
    "start": {
        "state": {
            "elbow_joint": 2.6216224122426386,
            "shoulder_lift_joint": -1.4174107377796124,
            "shoulder_pan_joint": 0.7066234856936794,
            "wrist_1_joint": 1.9546482284002225,
            "wrist_2_joint": -0.7096286983471962,
            "wrist_3_joint": 0.005740856962016249
        }
    },
    "waypoints": [
        {
            "positions": [
                0.7066234856936794,
                -1.4174107377796124,
                2.6216224122426386,
                1.9546482284002225,
                -0.7096286983471962,
                0.005740856962016249
            ]
        },
        {
            "positions": [
                0.7439055864711841,
                -1.4713546268549922,
                2.4979860295981346,
                1.9199963757239908,
                -0.748702041375924,
                0.0827037208506489
            ]
        },
        {
            "positions": [
                0.7811876872486887,
                -1.5252985159303722,
                2.3743496469536307,
                1.885344523047759,
                -0.7877753844046517,
                0.15966658473928158
            ]
        },
        {
            "positions": [
                0.8247300460865731,
                -1.5940907033735934,
                2.2451100485297943,
                1.9241552477735386,
                -0.8190556027994171,
                0.1057553255329522
            ]
        },
        {
            "positions": [
                0.8682724049244575,
                -1.6628828908168145,
                2.115870450105958,
                1.962965972499318,
                -0.8503358211941827,
                0.051844066326622806
            ]
        },
        {
            "positions": [
                0.9118147637623417,
                -1.7316750782600356,
                1.9866308516821212,
                2.0017766972250977,
                -0.8816160395889482,
                -0.002067192879706581
            ]
        },
        {
            "positions": [
                0.9553571226002261,
                -1.8004672657032568,
                1.8573912532582848,
                2.0405874219508773,
                -0.9128962579837137,
                -0.05597845208603597
            ]
        },
        {
            "positions": [
                0.9812911882654235,
                -1.793305082186037,
                1.7009918897119718,
                1.9560243769205918,
                -0.9299343915345848,
                -0.15255483851194485
            ]
        },
        {
            "positions": [
                1.007225253930621,
                -1.7861428986688173,
                1.544592526165659,
                1.8714613318903064,
                -0.9469725250854558,
                -0.2491312249378537
            ]
        },
        {
            "positions": [
                1.0331593195958184,
                -1.7789807151515975,
                1.388193162619346,
                1.786898286860021,
                -0.9640106586363268,
                -0.34570761136376255
            ]
        },
        {
            "positions": [
                1.0590933852610158,
                -1.7718185316343775,
                1.2317937990730332,
                1.7023352418297355,
                -0.981048792187198,
                -0.4422839977896714
            ]
        },
        {
            "positions": [
                1.0850274509262132,
                -1.7646563481171578,
                1.0753944355267202,
                1.61777219679945,
                -0.9980869257380691,
                -0.5388603842155802
            ]
        },
        {
            "positions": [
                1.1109615165914106,
                -1.757494164599938,
                0.9189950719804073,
                1.5332091517691646,
                -1.0151250592889403,
                -0.6354367706414892
            ]
        },
        {
            "positions": [
                1.136895582256608,
                -1.7503319810827183,
                0.7625957084340944,
                1.4486461067388792,
                -1.0321631928398112,
                -0.732013157067398
            ]
        },
        {
            "positions": [
                1.1628296479218054,
                -1.7431697975654985,
                0.6061963448877814,
                1.3640830617085937,
                -1.0492013263906823,
                -0.8285895434933068
            ]
        },
        {
            "positions": [
                1.1887637135870028,
                -1.7360076140482787,
                0.4497969813414684,
                1.2795200166783083,
                -1.0662394599415534,
                -0.9251659299192156
            ]
        },
        {
            "positions": [
                1.2146977792522002,
                -1.728845430531059,
                0.2933976177951556,
                1.1949569716480228,
                -1.0832775934924244,
                -1.0217423163451245
            ]
        },
        {
            "positions": [
                1.2406318449173979,
                -1.721683247013839,
                0.1369982542488426,
                1.1103939266177374,
                -1.1003157270432955,
                -1.1183187027710335
            ]
        },
        {
            "positions": [
                1.266565910582595,
                -1.7145210634966193,
                -0.019401109297470187,
                1.0258308815874522,
                -1.1173538605941666,
                -1.2148950891969423
            ]
        },
        {
            "positions": [
                1.2924999762477927,
                -1.7073588799793995,
                -0.17580047284378342,
                0.9412678365571665,
                -1.1343919941450378,
                -1.3114714756228512
            ]
        },
        {
            "positions": [
                1.3184340419129899,
                -1.7001966964621797,
                -0.332199836390096,
                0.8567047915268813,
                -1.1514301276959087,
                -1.40804786204876
            ]
        },
        {
            "positions": [
                1.3443681075781875,
                -1.69303451294496,
                -0.488599199936409,
                0.7721417464965958,
                -1.1684682612467798,
                -1.5046242484746688
            ]
        },
        {
            "positions": [
                1.3703021732433849,
                -1.6858723294277402,
                -0.644998563482722,
                0.6875787014663102,
                -1.185506394797651,
                -1.6012006349005778
            ]
        },
        {
            "positions": [
                1.3962362389085823,
                -1.6787101459105203,
                -0.8013979270290346,
                0.603015656436025,
                -1.202544528348522,
                -1.6977770213264864
            ]
        },
        {
            "positions": [
                1.4221703045737797,
                -1.6715479623933005,
                -0.957797290575348,
                0.5184526114057395,
                -1.219582661899393,
                -1.7943534077523955
            ]
        },
        {
            "positions": [
                1.448104370238977,
                -1.6643857788760807,
                -1.1141966541216606,
                0.43388956637545406,
                -1.2366207954502642,
                -1.890929794178304
            ]
        },
        {
            "positions": [
                1.4740384359041745,
                -1.657223595358861,
                -1.2705960176679734,
                0.3493265213451687,
                -1.2536589290011353,
                -1.9875061806042131
            ]
        },
        {
            "positions": [
                1.5273485187007252,
                -1.6812258642945481,
                -1.353671991712364,
                0.21522262707112552,
                -1.264383286784322,
                -2.075709379607311
            ]
        },
        {
            "positions": [
                1.5806586014972759,
                -1.7052281332302355,
                -1.4367479657567548,
                0.08111873279708237,
                -1.275107644567509,
                -2.163912578610409
            ]
        },
        {
            "positions": [
                1.6339686842938266,
                -1.7292304021659226,
                -1.5198239398011453,
                -0.05298516147696075,
                -1.285832002350696,
                -2.2521157776135077
            ]
        },
        {
            "positions": [
                1.6872787670903773,
                -1.75323267110161,
                -1.602899913845536,
                -0.18708905575100393,
                -1.2965563601338828,
                -2.3403189766166057
            ]
        },
        {
            "positions": [
                1.7405888498869277,
                -1.777234940037297,
                -1.6859758878899267,
                -0.32119295002504705,
                -1.3072807179170696,
                -2.4285221756197037
            ]
        },
        {
            "positions": [
                1.7938989326834784,
                -1.8012372089729844,
                -1.7690518619343174,
                -0.4552968442990902,
                -1.3180050757002564,
                -2.5167253746228018
            ]
        },
        {
            "positions": [
                1.8472090154800291,
                -1.8252394779086716,
                -1.852127835978708,
                -0.5894007385731332,
                -1.3287294334834432,
                -2.6049285736259
            ]
        },
        {
            "positions": [
                1.9005190982765798,
                -1.849241746844359,
                -1.9352038100230988,
                -0.7235046328471766,
                -1.33945379126663,
                -2.6931317726289983
            ]
        },
        {
            "positions": [
                1.9538291810731305,
                -1.873244015780046,
                -2.0182797840674893,
                -0.8576085271212197,
                -1.350178149049817,
                -2.7813349716320963
            ]
        },
        {
            "positions": [
                2.0071392638696812,
                -1.8972462847157332,
                -2.10135575811188,
                -0.9917124213952628,
                -1.3609025068330038,
                -2.8695381706351943
            ]
        },
        {
            "positions": [
                2.060449346666232,
                -1.9212485536514206,
                -2.1844317321562707,
                -1.125816315669306,
                -1.3716268646161907,
                -2.9577413696382924
            ]
        },
        {
            "positions": [
                2.1263001458004163,
                -1.9546545000525815,
                -2.226448385496466,
                -1.2854330482651144,
                -1.3701995974194816,
                -3.031868332753625
            ]
        },
        {
            "positions": [
                2.1921509449346006,
                -1.9880604464537424,
                -2.268465038836661,
                -1.445049780860923,
                -1.3687723302227726,
                -3.105995295868957
            ]
        },
        {
            "positions": [
                2.2441774256473805,
                -2.0101660849251575,
                -2.200012763308933,
                -1.5556625241463098,
                -1.2692651771335355,
                -3.1096104947119354
            ]
        },
        {
            "positions": [
                2.2962039063601605,
                -2.0322717233965726,
                -2.131560487781205,
                -1.6662752674316965,
                -1.1697580240442986,
                -3.1132256935549143
            ]
        },
        {
            "positions": [
                2.3482303870729404,
                -2.0543773618679873,
                -2.063108212253477,
                -1.776888010717083,
                -1.0702508709550616,
                -3.1168408923978927
            ]
        },
        {
            "positions": [
                2.4002568677857203,
                -2.0764830003394024,
                -1.9946559367257493,
                -1.8875007540024697,
                -0.9707437178658247,
                -3.1204560912408716
            ]
        },
        {
            "positions": [
                2.4522833484985,
                -2.0985886388108175,
                -1.9262036611980213,
                -1.9981134972878565,
                -0.8712365647765876,
                -3.12407129008385
            ]
        },
        {
            "positions": [
                2.5043098292112798,
                -2.1206942772822326,
                -1.8577513856702936,
                -2.108726240573243,
                -0.7717294116873507,
                -3.127686488926829
            ]
        },
        {
            "positions": [
                2.5563363099240597,
                -2.1427999157536473,
                -1.7892991101425657,
                -2.2193389838586297,
                -0.6722222585981136,
                -3.1313016877698074
            ]
        },
        {
            "positions": [
                2.6083627906368396,
                -2.1649055542250624,
                -1.7208468346148378,
                -2.3299517271440164,
                -0.5727151055088767,
                -3.1349168866127863
            ]
        },
        {
            "positions": [
                2.6603892713496196,
                -2.1870111926964775,
                -1.6523945590871099,
                -2.440564470429403,
                -0.47320795241963964,
                -3.138532085455765
            ]
        }
    ]
}