{
    "goal": {
        "global_pose": {
            "orientation": {
                "w": -0.4816463035849501,
                "x": 0.5182115481033762,
                "y": 0.4908360881923453,
                "z": -0.5084816262002911
            },
            "position": {
                "x": -0.8240239810943604,
                "y": -0.300875300988555,
                "z": 0.16403168439865112
            }
        },
        "name": "move_to_storage_C"
    },
    "id": "LBTRRT_move_to_storage_C_119",
    "joint_names": [
        "shoulder_pan_joint",
        "shoulder_lift_joint",
        "elbow_joint",
        "wrist_1_joint",
        "wrist_2_joint",
        "wrist_3_joint"
    ],
    "metrics": {
        "cart_traj_len": 0.5771513491985113,
        "distance_elbow_joint": 0.2621544011282655,
        "distance_shoulder_lift_joint": 0.19069834523456153,
        "distance_shoulder_pan_joint": 0.4933223082182576,
        "distance_wrist_1_joint": 0.08724600565877405,
        "distance_wrist_2_joint": 1.0772598102415523,
        "distance_wrist_3_joint": 0.07250108951158785,
        "smoothness": 0.0,
        "time": 5.003943643,
        "traj_len": 1.4775594607300917,
        "weighted_distance": 1.868873980480359
    },
    "planner": "LBTRRT",
    "start": {
        "state": {
            "elbow_joint": 2.010868314990456,
            "shoulder_lift_joint": -1.1634956873337592,
            "shoulder_pan_joint": -2.4736205022346125,
            "wrist_1_joint": -0.8367026794202681,
            "wrist_2_joint": 0.6746043897044499,
            "wrist_3_joint": -3.1496632123970403
        }
    },
    "waypoints": [
        {
            "positions": [
                -2.4736205022346125,
                -1.1634956873337592,
                2.010868314990456,
                -0.8367026794202681,
                0.6746043897044499,
                -3.1496632123970403
            ]
        },
        {
            "positions": [
                -2.5558408869376557,
                -1.1317126297946656,
                1.9671759148024115,
                -0.8221616784771391,
                0.8541476914113753,
                -3.1375796974784422
            ]
        },
        {
            "positions": [
                -2.6380612716406984,
                -1.099929572255572,
                1.9234835146143674,
                -0.8076206775340101,
                1.0336909931183007,
                -3.125496182559844
            ]
        },
        {
            "positions": [
                -2.720281656343741,
                -1.0681465147164784,
                1.879791114426323,
                -0.7930796765908811,
                1.213234294825226,
                -3.1134126676412466
            ]
        },
        {
            "positions": [
                -2.8025020410467842,
                -1.0363634571773848,
                1.8360987142382788,
                -0.778538675647752,
                1.3927775965321514,
                -3.1013291527226485
            ]
        },
        {
            "positions": [
                -2.8847224257498274,
                -1.0045803996382912,
                1.7924063140502347,
                -0.7639976747046231,
                1.5723208982390768,
                -3.0892456378040505
            ]
        },
        {
            "positions": [
                -2.96694281045287,
                -0.9727973420991977,
                1.7487139138621903,
                -0.749456673761494,
                1.7518641999460023,
                -3.0771621228854524
            ]
        }
    ]
}