{
    "goal": {
        "global_pose": {
            "orientation": {
                "w": 0.5084816217422485,
                "x": -0.49083608388900757,
                "y": 0.5182115435600281,
                "z": -0.4816462993621826
            },
            "position": {
                "x": 0.5540239810943604,
                "y": 0.030875300988554955,
                "z": 0.16403168439865112
            }
        },
        "name": "move_to_storage_A"
    },
    "id": "LBTRRT_move_to_storage_A_44",
    "joint_names": [
        "shoulder_pan_joint",
        "shoulder_lift_joint",
        "elbow_joint",
        "wrist_1_joint",
        "wrist_2_joint",
        "wrist_3_joint"
    ],
    "metrics": {
        "cart_traj_len": 0.35307560755824663,
        "distance_elbow_joint": 0.44912989303451245,
        "distance_shoulder_lift_joint": 0.23418935499748983,
        "distance_shoulder_pan_joint": 0.46375626594817376,
        "distance_wrist_1_joint": 0.23639982835080786,
        "distance_wrist_2_joint": 1.090035180877811,
        "distance_wrist_3_joint": 0.09918834744464755,
        "smoothness": 2.2204460668324854e-16,
        "time": 5.004804065,
        "traj_len": 1.6039634879427407,
        "weighted_distance": 2.0242308600481707
    },
    "planner": "LBTRRT",
    "start": {
        "state": {
            "elbow_joint": 1.971548259319323,
            "shoulder_lift_joint": -1.1394851275133948,
            "shoulder_pan_joint": 0.1228115487234821,
            "wrist_1_joint": -0.7804723859257726,
            "wrist_2_joint": 0.12958671773740124,
            "wrist_3_joint": -3.192489227718131
        }
    },
    "waypoints": [
        {
            "positions": [
                0.1228115487234821,
                -1.1394851275133948,
                1.971548259319323,
                -0.7804723859257726,
                0.12958671773740124,
                -3.192489227718131
            ]
        },
        {
            "positions": [
                0.05656065358802871,
                -1.1729407496558935,
                2.0357096726099675,
                -0.814243789975888,
                0.2853060292913743,
                -3.178319463797467
            ]
        },
        {
            "positions": [
                -0.009690241547424677,
                -1.2063963717983919,
                2.0998710859006122,
                -0.8480151940260034,
                0.4410253408453473,
                -3.1641496998768033
            ]
        },
        {
            "positions": [
                -0.07594113668287808,
                -1.2398519939408905,
                2.164032499191257,
                -0.8817865980761188,
                0.5967446523993203,
                -3.1499799359561393
            ]
        },
        {
            "positions": [
                -0.14219203181833145,
                -1.273307616083389,
                2.2281939124819017,
                -0.9155580021262343,
                0.7524639639532933,
                -3.1358101720354754
            ]
        },
        {
            "positions": [
                -0.20844292695378486,
                -1.3067632382258876,
                2.2923553257725464,
                -0.9493294061763496,
                0.9081832755072663,
                -3.1216404081148115
            ]
        },
        {
            "positions": [
                -0.27469382208923826,
                -1.340218860368386,
                2.3565167390631907,
                -0.9831008102264651,
                1.0639025870612393,
                -3.1074706441941475
            ]
        },
        {
            "positions": [
                -0.34094471722469166,
                -1.3736744825108846,
                2.4206781523538354,
                -1.0168722142765805,
                1.2196218986152123,
                -3.0933008802734836
            ]
        }
    ]
}{
    "goal": {
        "global_pose": {
            "orientation": {
                "w": 0.5084816217422485,
                "x": -0.49083608388900757,
                "y": 0.5182115435600281,
                "z": -0.4816462993621826
            },
            "position": {
                "x": 0.5540239810943604,
                "y": 0.030875300988554955,
                "z": 0.16403168439865112
            }
        },
        "name": "move_to_storage_A"
    },
    "id": "LBTRRT_move_to_storage_A_44",
    "joint_names": [
        "shoulder_pan_joint",
        "shoulder_lift_joint",
        "elbow_joint",
        "wrist_1_joint",
        "wrist_2_joint",
        "wrist_3_joint"
    ],
    "metrics": {
        "cart_traj_len": 0.35231777944649545,
        "distance_elbow_joint": 0.4494548449478577,
        "distance_shoulder_lift_joint": 0.23480564905759538,
        "distance_shoulder_pan_joint": 0.4589887129215996,
        "distance_wrist_1_joint": 0.24236633706403188,
        "distance_wrist_2_joint": 1.1047286497346236,
        "distance_wrist_3_joint": 0.10371854947387282,
        "smoothness": 8.881784232165597e-16,
        "time": 5.002800914000001,
        "traj_len": 1.6106094322335198,
        "weighted_distance": 2.036809963876351
    },
    "planner": "LBTRRT",
    "start": {
        "state": {
            "elbow_joint": 1.97154746011099,
            "shoulder_lift_joint": -1.13948474672311,
            "shoulder_pan_joint": 0.12281154466712228,
            "wrist_1_joint": -0.7804688027058302,
            "wrist_2_joint": 0.12958655903071145,
            "wrist_3_joint": 3.0906928834467795
        }
    },
    "waypoints": [
        {
            "positions": [
                0.12281154466712228,
                -1.13948474672311,
                1.97154746011099,
                -0.7804688027058302,
                0.12958655903071145,
                3.0906928834467795
            ]
        },
        {
            "positions": [
                0.057241728535465206,
                -1.173028410874195,
                2.035755295103541,
                -0.815092565143549,
                0.28740493756422913,
                3.105509819085904
            ]
        },
        {
            "positions": [
                -0.008328087596191872,
                -1.20657207502528,
                2.099963130096092,
                -0.8497163275812678,
                0.4452233160977468,
                3.120326754725029
            ]
        },
        {
            "positions": [
                -0.07389790372784895,
                -1.240115739176365,
                2.164170965088643,
                -0.8843400900189867,
                0.6030416946312644,
                3.1351436903641536
            ]
        },
        {
            "positions": [
                -0.139467719859506,
                -1.2736594033274502,
                2.2283788000811944,
                -0.9189638524567055,
                0.7608600731647821,
                3.149960626003278
            ]
        },
        {
            "positions": [
                -0.20503753599116314,
                -1.3072030674785353,
                2.2925866350737456,
                -0.9535876148944245,
                0.9186784516982998,
                3.1647775616424028
            ]
        },
        {
            "positions": [
                -0.27060735212282017,
                -1.3407467316296202,
                2.3567944700662964,
                -0.9882113773321433,
                1.0764968302318174,
                3.1795944972815278
            ]
        },
        {
            "positions": [
                -0.3361771682544773,
                -1.3742903957807053,
                2.4210023050588476,
                -1.022835139769862,
                1.234315208765335,
                3.1944114329206523
            ]
        }
    ]
}{
    "goal": {
        "global_pose": {
            "orientation": {
                "w": 0.5084816217422485,
                "x": -0.49083608388900757,
                "y": 0.5182115435600281,
                "z": -0.4816462993621826
            },
            "position": {
                "x": 0.5540239810943604,
                "y": 0.030875300988554955,
                "z": 0.16403168439865112
            }
        },
        "name": "move_to_storage_A"
    },
    "id": "LBTRRT_move_to_storage_A_44",
    "joint_names": [
        "shoulder_pan_joint",
        "shoulder_lift_joint",
        "elbow_joint",
        "wrist_1_joint",
        "wrist_2_joint",
        "wrist_3_joint"
    ],
    "metrics": {
        "cart_traj_len": 0.3522702017521316,
        "distance_elbow_joint": 0.45049151845915025,
        "distance_shoulder_lift_joint": 0.23312741261182568,
        "distance_shoulder_pan_joint": 0.45819020669545335,
        "distance_wrist_1_joint": 0.25200304185183686,
        "distance_wrist_2_joint": 1.1068312573382462,
        "distance_wrist_3_joint": 0.10136001591700738,
        "smoothness": 6.661338165333112e-16,
        "time": 5.002444486,
        "traj_len": 1.6130726743930415,
        "weighted_distance": 2.0404797925727216
    },
    "planner": "LBTRRT",
    "start": {
        "state": {
            "elbow_joint": 1.9715472970024885,
            "shoulder_lift_joint": -1.1394870060712896,
            "shoulder_pan_joint": 0.12281152778156021,
            "wrist_1_joint": -0.780463741449964,
            "wrist_2_joint": 0.12958659822042276,
            "wrist_3_joint": 3.090690232415272
        }
    },
    "waypoints": [
        {
            "positions": [
                0.12281152778156021,
                -1.1394870060712896,
                1.9715472970024885,
                -0.780463741449964,
                0.12958659822042276,
                3.090690232415272
            ]
        },
        {
            "positions": [
                0.057355783967924026,
                -1.1727909221586932,
                2.0359032282109384,
                -0.8164641760002264,
                0.28770534926874364,
                3.10517023468913
            ]
        },
        {
            "positions": [
                -0.008099959845712157,
                -1.206094838246097,
                2.1002591594193887,
                -0.8524646105504888,
                0.44582410031706454,
                3.1196502369629884
            ]
        },
        {
            "positions": [
                -0.07355570365934833,
                -1.2393987543335006,
                2.1646150906278385,
                -0.8884650451007512,
                0.6039428513653854,
                3.1341302392368466
            ]
        },
        {
            "positions": [
                -0.13901144747298452,
                -1.2727026704209043,
                2.228971021836289,
                -0.9244654796510137,
                0.7620616024137062,
                3.1486102415107045
            ]
        },
        {
            "positions": [
                -0.20446719128662075,
                -1.306006586508308,
                2.2933269530447387,
                -0.960465914201276,
                0.9201803534620272,
                3.1630902437845627
            ]
        },
        {
            "positions": [
                -0.2699229351002569,
                -1.3393105025957115,
                2.3576828842531885,
                -0.9964663487515384,
                1.078299104510348,
                3.177570246058421
            ]
        },
        {
            "positions": [
                -0.3353786789138931,
                -1.3726144186831153,
                2.422038815461639,
                -1.0324667833018009,
                1.236417855558669,
                3.1920502483322792
            ]
        }
    ]
}