{
    "goal": {
        "global_pose": {
            "orientation": {
                "w": 0.005598929693374612,
                "x": 0.007748599140229565,
                "y": 0.7110244013736278,
                "z": -0.7031023480610252
            },
            "position": {
                "x": -0.8858502320852131,
                "y": -0.7141253447532654,
                "z": 0.3711530566215515
            }
        },
        "name": "move_to_auspresseinheit_C"
    },
    "id": "LBTRRT_move_to_auspresseinheit_C_142",
    "joint_names": [
        "shoulder_pan_joint",
        "shoulder_lift_joint",
        "elbow_joint",
        "wrist_1_joint",
        "wrist_2_joint",
        "wrist_3_joint"
    ],
    "metrics": {
        "cart_traj_len": 0.49498252577494317,
        "distance_elbow_joint": 1.0220523012902731,
        "distance_shoulder_lift_joint": 0.33477992647220023,
        "distance_shoulder_pan_joint": 0.25620944591047357,
        "distance_wrist_1_joint": 0.7188926828171602,
        "distance_wrist_2_joint": 1.3168549071126374,
        "distance_wrist_3_joint": 0.08405515739280345,
        "smoothness": 1.6148698667872622e-16,
        "time": 5.001654592,
        "traj_len": 1.9320570439289695,
        "weighted_distance": 2.436534901393976
    },
    "planner": "LBTRRT",
    "start": {
        "state": {
            "elbow_joint": 1.7527959577737207,
            "shoulder_lift_joint": -0.9740617694225068,
            "shoulder_pan_joint": -2.967991417825858,
            "wrist_1_joint": -0.759517768980727,
            "wrist_2_joint": 1.7443932448377408,
            "wrist_3_joint": -3.0840537646736568
        }
    },
    "waypoints": [
        {
            "positions": [
                -2.967991417825858,
                -0.9740617694225068,
                1.7527959577737207,
                -0.759517768980727,
                1.7443932448377408,
                -3.0840537646736568
            ]
        },
        {
            "positions": [
                -2.942370473234811,
                -0.9405837767752867,
                1.6505907276446934,
                -0.6876285006990109,
                1.6127077541264772,
                -3.092459280412937
            ]
        },
        {
            "positions": [
                -2.9167495286437632,
                -0.9071057841280667,
                1.5483854975156661,
                -0.6157392324172949,
                1.4810222634152133,
                -3.1008647961522176
            ]
        },
        {
            "positions": [
                -2.8911285840527157,
                -0.8736277914808467,
                1.4461802673866386,
                -0.543849964135579,
                1.3493367727039496,
                -3.109270311891498
            ]
        },
        {
            "positions": [
                -2.8655076394616685,
                -0.8401497988336266,
                1.3439750372576114,
                -0.47196069585386285,
                1.2176512819926857,
                -3.1176758276307783
            ]
        },
        {
            "positions": [
                -2.8398866948706214,
                -0.8066718061864067,
                1.241769807128584,
                -0.40007142757214686,
                1.085965791281422,
                -3.1260813433700587
            ]
        },
        {
            "positions": [
                -2.814265750279574,
                -0.7731938135391867,
                1.1395645769995568,
                -0.3281821592904309,
                0.9542803005701584,
                -3.1344868591093387
            ]
        },
        {
            "positions": [
                -2.7886448056885262,
                -0.7397158208919666,
                1.0373593468705296,
                -0.2562928910087149,
                0.8225948098588947,
                -3.142892374848619
            ]
        },
        {
            "positions": [
                -2.763023861097479,
                -0.7062378282447466,
                0.9351541167415021,
                -0.18440362272699873,
                0.6909093191476308,
                -3.1512978905878994
            ]
        },
        {
            "positions": [
                -2.737402916506432,
                -0.6727598355975266,
                0.8329488866124748,
                -0.1125143544452828,
                0.5592238284363671,
                -3.15970340632718
            ]
        },
        {
            "positions": [
                -2.7117819719153844,
                -0.6392818429503065,
                0.7307436564834476,
                -0.04062508616356675,
                0.4275383377251034,
                -3.16810892206646
            ]
        }
    ]
}