{
    "goal": {
        "global_pose": {
            "orientation": {
                "w": 0.7031023480610252,
                "x": -0.7110244013736278,
                "y": 0.0077485991402295624,
                "z": 0.005598929693374583
            },
            "position": {
                "x": -0.8841497679147869,
                "y": 0.44412534475326537,
                "z": 0.3711530566215515
            }
        },
        "name": "move_to_auspresseinheit_D"
    },
    "id": "LBTRRT_move_to_auspresseinheit_D_111",
    "joint_names": [
        "shoulder_pan_joint",
        "shoulder_lift_joint",
        "elbow_joint",
        "wrist_1_joint",
        "wrist_2_joint",
        "wrist_3_joint"
    ],
    "metrics": {
        "cart_traj_len": 0.344064059289131,
        "distance_elbow_joint": 0.6678147118796525,
        "distance_shoulder_lift_joint": 0.13747659682101654,
        "distance_shoulder_pan_joint": 0.1329370279676254,
        "distance_wrist_1_joint": 0.631094871771698,
        "distance_wrist_2_joint": 1.4336334443848193,
        "distance_wrist_3_joint": 0.07914758699466118,
        "smoothness": 2.8619082208619516e-15,
        "time": 5.003495723,
        "traj_len": 1.755592276076502,
        "weighted_distance": 2.3032862891888435
    },
    "planner": "LBTRRT",
    "start": {
        "state": {
            "elbow_joint": -1.8275523626775212,
            "shoulder_lift_joint": -2.126789852344167,
            "shoulder_pan_joint": -0.03513704404078235,
            "wrist_1_joint": -2.347782403156801,
            "wrist_2_joint": -1.6058999987535132,
            "wrist_3_joint": -3.0880379163319196
        }
    },
    "waypoints": [
        {
            "positions": [
                -0.03513704404078235,
                -2.126789852344167,
                -1.8275523626775212,
                -2.347782403156801,
                -1.6058999987535132,
                -3.0880379163319196
            ]
        },
        {
            "positions": [
                -0.051754172536735525,
                -2.143974426946794,
                -1.7440755236925647,
                -2.426669262128263,
                -1.4266958182054108,
                -3.078144467957587
            ]
        },
        {
            "positions": [
                -0.06837130103268871,
                -2.161159001549421,
                -1.6605986847076082,
                -2.5055561210997253,
                -1.2474916376573084,
                -3.068251019583254
            ]
        },
        {
            "positions": [
                -0.08498842952864188,
                -2.178343576152048,
                -1.5771218457226515,
                -2.5844429800711874,
                -1.0682874571092058,
                -3.0583575712089215
            ]
        },
        {
            "positions": [
                -0.10160555802459506,
                -2.195528150754675,
                -1.493645006737695,
                -2.6633298390426496,
                -0.8890832765611035,
                -3.048464122834589
            ]
        },
        {
            "positions": [
                -0.11822268652054824,
                -2.212712725357302,
                -1.4101681677527385,
                -2.7422166980141123,
                -0.7098790960130011,
                -3.0385706744602565
            ]
        },
        {
            "positions": [
                -0.1348398150165014,
                -2.229897299959929,
                -1.3266913287677817,
                -2.8211035569855745,
                -0.5306749154648986,
                -3.028677226085924
            ]
        },
        {
            "positions": [
                -0.1514569435124546,
                -2.2470818745625563,
                -1.2432144897828252,
                -2.8999904159570367,
                -0.35147073491679626,
                -3.018783777711591
            ]
        },
        {
            "positions": [
                -0.16807407200840777,
                -2.2642664491651834,
                -1.1597376507978687,
                -2.978877274928499,
                -0.17226655436869379,
                -3.0088903293372584
            ]
        }
    ]
}