{
    "goal": {
        "global_pose": {
            "orientation": {
                "w": 0.7047431468963623,
                "x": -0.7094548344612122,
                "y": 0.0024358443915843964,
                "z": -0.0022348060738295317
            },
            "position": {
                "x": 0.6094750761985779,
                "y": 0.3671506643295288,
                "z": 0.19426114857196808
            }
        },
        "name": "move_to_magneteinheit_A"
    },
    "id": "LBTRRT_move_to_magneteinheit_A_86",
    "joint_names": [
        "shoulder_pan_joint",
        "shoulder_lift_joint",
        "elbow_joint",
        "wrist_1_joint",
        "wrist_2_joint",
        "wrist_3_joint"
    ],
    "metrics": {
        "cart_traj_len": 2.923184969204202,
        "distance_elbow_joint": 3.9422835475230045,
        "distance_shoulder_lift_joint": 0.45391783398231744,
        "distance_shoulder_pan_joint": 2.838825565042998,
        "distance_wrist_1_joint": 3.620694245698154,
        "distance_wrist_2_joint": 1.4329219055121905,
        "distance_wrist_3_joint": 2.5170947980465055,
        "smoothness": 0.17380400917545452,
        "time": 5.039710774,
        "traj_len": 3.8478224875642555,
        "weighted_distance": 4.989343007161215
    },
    "planner": "LBTRRT",
    "start": {
        "state": {
            "elbow_joint": -1.9196185241190666,
            "shoulder_lift_joint": -1.2443396400964142,
            "shoulder_pan_joint": 2.6996025414629847,
            "wrist_1_joint": -1.5485510000780065,
            "wrist_2_joint": -1.5709468930060704,
            "wrist_3_joint": 0.4420197071253992
        }
    },
    "waypoints": [
        {
            "positions": [
                2.6996025414629847,
                -1.2443396400964142,
                -1.9196185241190666,
                -1.5485510000780065,
                -1.5709468930060704,
                0.4420197071253992
            ]
        },
        {
            "positions": [
                2.5602935461435306,
                -1.2267314947433285,
                -1.897017174860373,
                -1.427058533686945,
                -1.5655113178461026,
                0.3616101633944453
            ]
        },
        {
            "positions": [
                2.4209845508240764,
                -1.209123349390243,
                -1.8744158256016796,
                -1.3055660672958833,
                -1.560075742686135,
                0.28120061966349147
            ]
        },
        {
            "positions": [
                2.281675555504622,
                -1.1915152040371575,
                -1.851814476342986,
                -1.1840736009048218,
                -1.5546401675261674,
                0.20079107593253764
            ]
        },
        {
            "positions": [
                2.142366560185168,
                -1.1739070586840719,
                -1.8292131270842926,
                -1.0625811345137604,
                -1.5492045923661997,
                0.12038153220158376
            ]
        },
        {
            "positions": [
                2.0030575648657134,
                -1.1562989133309862,
                -1.806611777825599,
                -0.9410886681226989,
                -1.543769017206232,
                0.03997198847062994
            ]
        },
        {
            "positions": [
                1.8637485695462594,
                -1.1386907679779006,
                -1.7840104285669054,
                -0.8195962017316373,
                -1.5383334420462642,
                -0.04043755526032389
            ]
        },
        {
            "positions": [
                1.7244395742268053,
                -1.1210826226248152,
                -1.761409079308212,
                -0.6981037353405758,
                -1.5328978668862965,
                -0.12084709899127777
            ]
        },
        {
            "positions": [
                1.585130578907351,
                -1.1034744772717295,
                -1.7388077300495184,
                -0.5766112689495142,
                -1.527462291726329,
                -0.20125664272223165
            ]
        },
        {
            "positions": [
                1.4458215835878967,
                -1.085866331918644,
                -1.7162063807908248,
                -0.4551188025584527,
                -1.5220267165663612,
                -0.2816661864531854
            ]
        },
        {
            "positions": [
                1.3065125882684425,
                -1.0682581865655583,
                -1.6936050315321314,
                -0.33362633616739124,
                -1.5165911414063935,
                -0.3620757301841393
            ]
        },
        {
            "positions": [
                1.1672035929489881,
                -1.0506500412124726,
                -1.6710036822734378,
                -0.21213386977632953,
                -1.5111555662464258,
                -0.4424852739150932
            ]
        },
        {
            "positions": [
                1.0278945976295342,
                -1.0330418958593872,
                -1.6484023330147441,
                -0.09064140338526805,
                -1.5057199910864583,
                -0.522894817646047
            ]
        },
        {
            "positions": [
                0.8885856023100798,
                -1.0154337505063016,
                -1.6258009837560508,
                0.030851063005793655,
                -1.5002844159264905,
                -0.6033043613770009
            ]
        },
        {
            "positions": [
                0.7492766069906258,
                -0.9978256051532159,
                -1.6031996344973571,
                0.15234352939685492,
                -1.4948488407665228,
                -0.6837139051079547
            ]
        },
        {
            "positions": [
                0.6099676116711712,
                -0.9802174598001303,
                -1.5805982852386635,
                0.2738359957879166,
                -1.489413265606555,
                -0.7641234488389087
            ]
        },
        {
            "positions": [
                0.47065861635171746,
                -0.9626093144470448,
                -1.5579969359799701,
                0.3953284621789781,
                -1.4839776904465873,
                -0.8445329925698625
            ]
        },
        {
            "positions": [
                0.33134962103226284,
                -0.9450011690939591,
                -1.5353955867212765,
                0.5168209285700398,
                -1.4785421152866198,
                -0.9249425363008162
            ]
        },
        {
            "positions": [
                0.19204062571280867,
                -0.9273930237408736,
                -1.5127942374625831,
                0.6383133949611011,
                -1.473106540126652,
                -1.00535208003177
            ]
        },
        {
            "positions": [
                0.05273163039335449,
                -0.909784878387788,
                -1.4901928882038895,
                0.7598058613521628,
                -1.4676709649666844,
                -1.085761623762724
            ]
        },
        {
            "positions": [
                0.04933889363965575,
                -0.9033555589837274,
                -1.3056464109095278,
                0.8313738822687226,
                -1.4004481712587786,
                -1.0314781620863562
            ]
        },
        {
            "positions": [
                0.04594615688595701,
                -0.8969262395796669,
                -1.1210999336151661,
                0.9029419031852824,
                -1.333225377550873,
                -0.9771947004099885
            ]
        },
        {
            "positions": [
                0.04255342013225827,
                -0.8904969201756064,
                -0.9365534563208042,
                0.9745099241018422,
                -1.2660025838429672,
                -0.9229112387336207
            ]
        },
        {
            "positions": [
                0.03916068337855953,
                -0.8840676007715459,
                -0.7520069790264425,
                1.0460779450184021,
                -1.1987797901350614,
                -0.868627777057253
            ]
        },
        {
            "positions": [
                0.03576794662486078,
                -0.8776382813674853,
                -0.5674605017320806,
                1.117645965934962,
                -1.1315569964271557,
                -0.8143443153808854
            ]
        },
        {
            "positions": [
                0.03237520987116205,
                -0.8712089619634248,
                -0.38291402443771894,
                1.1892139868515217,
                -1.06433420271925,
                -0.7600608537045176
            ]
        },
        {
            "positions": [
                0.028982473117463308,
                -0.8647796425593643,
                -0.19836754714335725,
                1.2607820077680816,
                -0.9971114090113441,
                -0.7057773920281498
            ]
        },
        {
            "positions": [
                0.02558973636376457,
                -0.8583503231553038,
                -0.01382106984899556,
                1.3323500286846413,
                -0.9298886153034384,
                -0.6514939303517822
            ]
        },
        {
            "positions": [
                0.022196999610065826,
                -0.8519210037512432,
                0.17072540744536635,
                1.4039180496012014,
                -0.8626658215955326,
                -0.5972104686754145
            ]
        },
        {
            "positions": [
                0.018804262856367084,
                -0.8454916843471827,
                0.35527188473972826,
                1.475486070517761,
                -0.7954430278876269,
                -0.5429270069990467
            ]
        },
        {
            "positions": [
                0.015411526102668341,
                -0.8390623649431221,
                0.5398183620340902,
                1.547054091434321,
                -0.728220234179721,
                -0.48864354532267895
            ]
        },
        {
            "positions": [
                0.012018789348969605,
                -0.8326330455390617,
                0.7243648393284516,
                1.6186221123508808,
                -0.6609974404718154,
                -0.4343600836463113
            ]
        },
        {
            "positions": [
                0.008626052595270862,
                -0.8262037261350011,
                0.9089113166228135,
                1.6901901332674405,
                -0.5937746467639097,
                -0.38007662196994363
            ]
        },
        {
            "positions": [
                0.005233315841572127,
                -0.8197744067309406,
                1.093457793917175,
                1.7617581541840004,
                -0.5265518530560038,
                -0.32579316029357586
            ]
        },
        {
            "positions": [
                0.001840579087873384,
                -0.81334508732688,
                1.278004271211537,
                1.8333261751005603,
                -0.4593290593480981,
                -0.2715096986172081
            ]
        },
        {
            "positions": [
                -0.0015521576658253516,
                -0.8069157679228196,
                1.4625507485058984,
                1.90489419601712,
                -0.39210626564019235,
                -0.21722623694084042
            ]
        },
        {
            "positions": [
                -0.004944894419524094,
                -0.800486448518759,
                1.6470972258002603,
                1.9764622169336798,
                -0.3248834719322866,
                -0.16294277526447276
            ]
        },
        {
            "positions": [
                -0.008337631173222837,
                -0.7940571291146985,
                1.8316437030946222,
                2.0480302378502397,
                -0.2576606782243808,
                -0.10865931358810495
            ]
        },
        {
            "positions": [
                0.05710506503017218,
                -0.7922394676143976,
                1.92715436324928,
                2.035973733965286,
                -0.1978428328591304,
                -0.11476489207998697
            ]
        },
        {
            "positions": [
                0.1225477612335672,
                -0.7904218061140967,
                2.022665023403938,
                2.023917230080332,
                -0.13802498749387995,
                -0.120870470571869
            ]
        }
    ]
}