{
    "goal": {
        "global_pose": {
            "orientation": {
                "w": -0.4816463035849501,
                "x": 0.5182115481033762,
                "y": 0.4908360881923453,
                "z": -0.5084816262002911
            },
            "position": {
                "x": -0.8240239810943604,
                "y": -0.300875300988555,
                "z": 0.16403168439865112
            }
        },
        "name": "move_to_storage_C"
    },
    "id": "LBTRRT_move_to_storage_C_96",
    "joint_names": [
        "shoulder_pan_joint",
        "shoulder_lift_joint",
        "elbow_joint",
        "wrist_1_joint",
        "wrist_2_joint",
        "wrist_3_joint"
    ],
    "metrics": {
        "cart_traj_len": 0.5764514225978701,
        "distance_elbow_joint": 0.25916272069852897,
        "distance_shoulder_lift_joint": 0.18863991822241077,
        "distance_shoulder_pan_joint": 0.49560419516413345,
        "distance_wrist_1_joint": 0.08540454466792491,
        "distance_wrist_2_joint": 1.0600197658468522,
        "distance_wrist_3_joint": 0.07400031736787449,
        "smoothness": 2.5376526478085547e-16,
        "time": 5.003259776,
        "traj_len": 1.4706568131170932,
        "weighted_distance": 1.8591009674620287
    },
    "planner": "LBTRRT",
    "start": {
        "state": {
            "elbow_joint": 2.010868314990456,
            "shoulder_lift_joint": -1.1634956873337592,
            "shoulder_pan_joint": -2.4736205022346125,
            "wrist_1_joint": -0.8367026794202681,
            "wrist_2_joint": 0.6746043897044499,
            "wrist_3_joint": -3.1496632123970403
        }
    },
    "waypoints": [
        {
            "positions": [
                -2.4736205022346125,
                -1.1634956873337592,
                2.010868314990456,
                -0.8367026794202681,
                0.6746043897044499,
                -3.1496632123970403
            ]
        },
        {
            "positions": [
                -2.5562212014286345,
                -1.1320557009633574,
                1.9676745282073678,
                -0.8224685886422807,
                0.8512743506789253,
                -3.1373298261690614
            ]
        },
        {
            "positions": [
                -2.638821900622657,
                -1.1006157145929556,
                1.9244807414242795,
                -0.8082344978642931,
                1.0279443116534006,
                -3.124996439941082
            ]
        },
        {
            "positions": [
                -2.7214225998166794,
                -1.0691757282225538,
                1.8812869546411912,
                -0.7940004070863056,
                1.2046142726278761,
                -3.112663053713103
            ]
        },
        {
            "positions": [
                -2.8040232990107015,
                -1.037735741852152,
                1.8380931678581032,
                -0.7797663163083182,
                1.3812842336023512,
                -3.100329667485124
            ]
        },
        {
            "positions": [
                -2.8866239982047235,
                -1.0062957554817502,
                1.7948993810750151,
                -0.7655322255303307,
                1.5579541945768267,
                -3.087996281257145
            ]
        },
        {
            "positions": [
                -2.969224697398746,
                -0.9748557691113484,
                1.7517055942919268,
                -0.7512981347523432,
                1.7346241555513022,
                -3.075662895029166
            ]
        }
    ]
}