{
    "goal": {
        "global_pose": {
            "orientation": {
                "w": 0.005598929693374612,
                "x": 0.007748599140229565,
                "y": 0.7110244013736278,
                "z": -0.7031023480610252
            },
            "position": {
                "x": -0.8858502320852131,
                "y": -0.7141253447532654,
                "z": 0.3711530566215515
            }
        },
        "name": "move_to_auspresseinheit_C"
    },
    "id": "LBTRRT_move_to_auspresseinheit_C_136",
    "joint_names": [
        "shoulder_pan_joint",
        "shoulder_lift_joint",
        "elbow_joint",
        "wrist_1_joint",
        "wrist_2_joint",
        "wrist_3_joint"
    ],
    "metrics": {
        "cart_traj_len": 0.4939184451633084,
        "distance_elbow_joint": 1.0080923803462496,
        "distance_shoulder_lift_joint": 0.3290151406541366,
        "distance_shoulder_pan_joint": 0.25701397961858286,
        "distance_wrist_1_joint": 0.6954844674859975,
        "distance_wrist_2_joint": 1.3034966809830792,
        "distance_wrist_3_joint": 0.072576230387563,
        "smoothness": 3.2297397335745243e-16,
        "time": 5.001581699,
        "traj_len": 1.9145962706209394,
        "weighted_distance": 2.4103552619312802
    },
    "planner": "LBTRRT",
    "start": {
        "state": {
            "elbow_joint": 1.7527959577737207,
            "shoulder_lift_joint": -0.9740617694225068,
            "shoulder_pan_joint": -2.967991417825858,
            "wrist_1_joint": -0.759517768980727,
            "wrist_2_joint": 1.7443932448377408,
            "wrist_3_joint": -3.0840537646736568
        }
    },
    "waypoints": [
        {
            "positions": [
                -2.967991417825858,
                -0.9740617694225068,
                1.7527959577737207,
                -0.759517768980727,
                1.7443932448377408,
                -3.0840537646736568
            ]
        },
        {
            "positions": [
                -2.9422900198639996,
                -0.9411602553570931,
                1.6519867197390956,
                -0.6899693222321273,
                1.614043576739433,
                -3.091311387712413
            ]
        },
        {
            "positions": [
                -2.9165886219021413,
                -0.9082587412916795,
                1.5511774817044708,
                -0.6204208754835274,
                1.483693908641125,
                -3.098569010751169
            ]
        },
        {
            "positions": [
                -2.890887223940283,
                -0.8753572272262657,
                1.4503682436698457,
                -0.5508724287349278,
                1.353344240542817,
                -3.105826633789926
            ]
        },
        {
            "positions": [
                -2.8651858259784246,
                -0.8424557131608521,
                1.349559005635221,
                -0.481323981986328,
                1.222994572444509,
                -3.113084256828682
            ]
        },
        {
            "positions": [
                -2.8394844280165668,
                -0.8095541990954385,
                1.2487497676005959,
                -0.41177553523772825,
                1.0926449043462012,
                -3.1203418798674383
            ]
        },
        {
            "positions": [
                -2.8137830300547084,
                -0.7766526850300248,
                1.1479405295659708,
                -0.34222708848912853,
                0.9622952362478933,
                -3.1275995029061945
            ]
        },
        {
            "positions": [
                -2.78808163209285,
                -0.7437511709646112,
                1.047131291531346,
                -0.2726786417405288,
                0.8319455681495854,
                -3.1348571259449507
            ]
        },
        {
            "positions": [
                -2.7623802341309918,
                -0.7108496568991975,
                0.9463220534967209,
                -0.20313019499192897,
                0.7015959000512775,
                -3.1421147489837074
            ]
        },
        {
            "positions": [
                -2.7366788361691334,
                -0.6779481428337838,
                0.845512815462096,
                -0.13358174824332925,
                0.5712462319529694,
                -3.1493723720224636
            ]
        },
        {
            "positions": [
                -2.710977438207275,
                -0.6450466287683702,
                0.7447035774274711,
                -0.06403330149472951,
                0.4408965638546617,
                -3.1566299950612198
            ]
        }
    ]
}