{
    "goal": {
        "global_pose": {
            "orientation": {
                "w": 0.005598929693374612,
                "x": 0.007748599140229565,
                "y": 0.7110244013736278,
                "z": -0.7031023480610252
            },
            "position": {
                "x": 0.1141497679147869,
                "y": -0.7141253447532654,
                "z": 0.3711530566215515
            }
        },
        "name": "move_to_auspresseinheit_B"
    },
    "id": "LBTRRT_move_to_auspresseinheit_B_79",
    "joint_names": [
        "shoulder_pan_joint",
        "shoulder_lift_joint",
        "elbow_joint",
        "wrist_1_joint",
        "wrist_2_joint",
        "wrist_3_joint"
    ],
    "metrics": {
        "cart_traj_len": 0.5649961031235949,
        "distance_elbow_joint": 0.060868180122387594,
        "distance_shoulder_lift_joint": 0.2946312200619905,
        "distance_shoulder_pan_joint": 0.5778150093143066,
        "distance_wrist_1_joint": 0.31707010159430915,
        "distance_wrist_2_joint": 0.9900684226022396,
        "distance_wrist_3_joint": 0.004533953174118199,
        "smoothness": 5.075305255429287e-16,
        "time": 5.004881925,
        "traj_len": 1.4983280304624056,
        "weighted_distance": 1.887112428397984
    },
    "planner": "LBTRRT",
    "start": {
        "state": {
            "elbow_joint": 2.0193083361928714,
            "shoulder_lift_joint": -1.1220246554650708,
            "shoulder_pan_joint": -1.0952077554168747,
            "wrist_1_joint": -0.8559753972642168,
            "wrist_2_joint": 0.4759566250798843,
            "wrist_3_joint": -3.1240929996934557
        }
    },
    "waypoints": [
        {
            "positions": [
                -1.0952077554168747,
                -1.1220246554650708,
                2.0193083361928714,
                -0.8559753972642168,
                0.4759566250798843,
                -3.1240929996934557
            ]
        },
        {
            "positions": [
                -1.191510256969259,
                -1.1711298588087358,
                2.009163639505807,
                -0.8031303803318319,
                0.6409680288469242,
                -3.1248486585558086
            ]
        },
        {
            "positions": [
                -1.2878127585216435,
                -1.220235062152401,
                1.9990189428187422,
                -0.7502853633994471,
                0.8059794326139642,
                -3.1256043174181616
            ]
        },
        {
            "positions": [
                -1.384115260074028,
                -1.2693402654960662,
                1.9888742461316777,
                -0.6974403464670622,
                0.970990836381004,
                -3.126359976280515
            ]
        },
        {
            "positions": [
                -1.4804177616264123,
                -1.3184454688397311,
                1.978729549444613,
                -0.6445953295346774,
                1.136002240148044,
                -3.127115635142868
            ]
        },
        {
            "positions": [
                -1.5767202631787969,
                -1.367550672183396,
                1.9685848527575485,
                -0.5917503126022925,
                1.301013643915084,
                -3.127871294005221
            ]
        },
        {
            "positions": [
                -1.6730227647311813,
                -1.4166558755270613,
                1.9584401560704838,
                -0.5389052956699076,
                1.466025047682124,
                -3.128626952867574
            ]
        }
    ]
}