{
    "goal": {
        "global_pose": {
            "orientation": {
                "w": 0.7047431493862688,
                "x": -0.7094548369677653,
                "y": 0.0024358444001904,
                "z": -0.0022348060817251984
            },
            "position": {
                "x": -0.39052492380142206,
                "y": 0.3671506643295288,
                "z": 0.19426114857196808
            }
        },
        "name": "move_to_magneteinheit_D"
    },
    "id": "LBTRRT_move_to_magneteinheit_D_141",
    "joint_names": [
        "shoulder_pan_joint",
        "shoulder_lift_joint",
        "elbow_joint",
        "wrist_1_joint",
        "wrist_2_joint",
        "wrist_3_joint"
    ],
    "metrics": {
        "cart_traj_len": 3.4483429222973343,
        "distance_elbow_joint": 3.1273821089602274,
        "distance_shoulder_lift_joint": 1.8128815308531319,
        "distance_shoulder_pan_joint": 2.965883288565799,
        "distance_wrist_1_joint": 1.5891050536630205,
        "distance_wrist_2_joint": 1.621167587348805,
        "distance_wrist_3_joint": 3.1523177744663387,
        "smoothness": 0.20140518303698496,
        "time": 5.0749763009999995,
        "traj_len": 3.7773982241560553,
        "weighted_distance": 4.876847909644285
    },
    "planner": "LBTRRT",
    "start": {
        "state": {
            "elbow_joint": 0.749534889911806,
            "shoulder_lift_joint": -0.6476975780787326,
            "shoulder_pan_joint": -2.711696901376241,
            "wrist_1_joint": -0.07506478083263063,
            "wrist_2_joint": 0.43296659715538205,
            "wrist_3_joint": -3.14703540197715
        }
    },
    "waypoints": [
        {
            "positions": [
                -2.711696901376241,
                -0.6476975780787326,
                0.749534889911806,
                -0.07506478083263063,
                0.43296659715538205,
                -3.14703540197715
            ]
        },
        {
            "positions": [
                -2.727764865304752,
                -0.6212714848385452,
                0.5911894358713496,
                0.0012636067813039387,
                0.3582947616796121,
                -3.134237274974906
            ]
        },
        {
            "positions": [
                -2.7438328292332628,
                -0.5948453915983578,
                0.4328439818308934,
                0.0775919943952385,
                0.2836229262038422,
                -3.1214391479726618
            ]
        },
        {
            "positions": [
                -2.7599007931617736,
                -0.5684192983581704,
                0.2744985277904371,
                0.1539203820091731,
                0.20895109072807225,
                -3.108641020970418
            ]
        },
        {
            "positions": [
                -2.764663645243689,
                -0.5580221535215089,
                0.2095703224570037,
                0.18520665265580072,
                0.1784333024048711,
                -3.1015976630287767
            ]
        },
        {
            "positions": [
                -2.679612387806615,
                -0.5753273485731144,
                0.10418475010554726,
                0.23823025150743832,
                0.1476353852458751,
                -3.013313338793987
            ]
        },
        {
            "positions": [
                -2.5945611303695406,
                -0.5926325436247201,
                -0.0012008222459091722,
                0.2912538503590759,
                0.1168374680868791,
                -2.9250290145591977
            ]
        },
        {
            "positions": [
                -2.5095098729324663,
                -0.6099377386763256,
                -0.10658639459736557,
                0.34427744921071357,
                0.08603955092788311,
                -2.8367446903244082
            ]
        },
        {
            "positions": [
                -2.4244586154953924,
                -0.6272429337279313,
                -0.21197196694882203,
                0.39730104806235117,
                0.055241633768887105,
                -2.7484603660896187
            ]
        },
        {
            "positions": [
                -2.3394073580583186,
                -0.6445481287795368,
                -0.31735753930027844,
                0.45032464691398877,
                0.024443716609891114,
                -2.6601760418548293
            ]
        },
        {
            "positions": [
                -2.2543561006212443,
                -0.6618533238311424,
                -0.42274311165173484,
                0.5033482457656264,
                -0.006354200549104877,
                -2.5718917176200398
            ]
        },
        {
            "positions": [
                -2.16930484318417,
                -0.679158518882748,
                -0.5281286840031914,
                0.5563718446172641,
                -0.03715211770810087,
                -2.4836073933852503
            ]
        },
        {
            "positions": [
                -2.084253585747096,
                -0.6964637139343536,
                -0.6335142563546478,
                0.6093954434689016,
                -0.06795003486709689,
                -2.395323069150461
            ]
        },
        {
            "positions": [
                -1.999202328310022,
                -0.7137689089859591,
                -0.7388998287061043,
                0.6624190423205393,
                -0.09874795202609288,
                -2.3070387449156713
            ]
        },
        {
            "positions": [
                -1.914151070872948,
                -0.7310741040375648,
                -0.8442854010575606,
                0.7154426411721768,
                -0.12954586918508887,
                -2.218754420680882
            ]
        },
        {
            "positions": [
                -1.8290998134358738,
                -0.7483792990891703,
                -0.9496709734090171,
                0.7684662400238145,
                -0.16034378634408486,
                -2.1304700964460928
            ]
        },
        {
            "positions": [
                -1.7440485559987997,
                -0.7656844941407759,
                -1.0550565457604733,
                0.821489838875452,
                -0.19114170350308085,
                -2.042185772211303
            ]
        },
        {
            "positions": [
                -1.6589972985617256,
                -0.7829896891923815,
                -1.1604421181119302,
                0.8745134377270898,
                -0.2219396206620769,
                -1.9539014479765136
            ]
        },
        {
            "positions": [
                -1.5739460411246515,
                -0.8002948842439871,
                -1.2658276904633863,
                0.9275370365787273,
                -0.25273753782107283,
                -1.865617123741724
            ]
        },
        {
            "positions": [
                -1.4888947836875774,
                -0.8176000792955926,
                -1.3712132628148428,
                0.9805606354303649,
                -0.2835354549800688,
                -1.7773327995069348
            ]
        },
        {
            "positions": [
                -1.4038435262505033,
                -0.8349052743471983,
                -1.4765988351662993,
                1.0335842342820025,
                -0.31433337213906487,
                -1.689048475272145
            ]
        },
        {
            "positions": [
                -1.3187922688134293,
                -0.8522104693988038,
                -1.5819844075177558,
                1.0866078331336402,
                -0.3451312892980608,
                -1.6007641510373558
            ]
        },
        {
            "positions": [
                -1.2337410113763552,
                -0.8695156644504094,
                -1.6873699798692123,
                1.1396314319852778,
                -0.37592920645705685,
                -1.512479826802566
            ]
        },
        {
            "positions": [
                -1.148689753939281,
                -0.8868208595020151,
                -1.7927555522206688,
                1.1926550308369155,
                -0.4067271236160528,
                -1.4241955025677768
            ]
        },
        {
            "positions": [
                -1.063638496502207,
                -0.9041260545536206,
                -1.898141124572125,
                1.245678629688553,
                -0.43752504077504883,
                -1.3359111783329873
            ]
        },
        {
            "positions": [
                -0.9785872390651329,
                -0.9214312496052263,
                -2.0035266969235814,
                1.2987022285401906,
                -0.4683229579340449,
                -1.2476268540981978
            ]
        },
        {
            "positions": [
                -0.8935359816280588,
                -0.9387364446568318,
                -2.108912269275038,
                1.3517258273918282,
                -0.49912087509304076,
                -1.1593425298634084
            ]
        },
        {
            "positions": [
                -0.7842971336558083,
                -1.0179510467262463,
                -2.121445407269195,
                1.3617581818594193,
                -0.4544449267587787,
                -1.0546005611953095
            ]
        },
        {
            "positions": [
                -0.6750582856835579,
                -1.097165648795661,
                -2.1339785452633517,
                1.3717905363270106,
                -0.40976897842451654,
                -0.9498585925272107
            ]
        },
        {
            "positions": [
                -0.5658194377113073,
                -1.1763802508650754,
                -2.146511683257509,
                1.3818228907946017,
                -0.36509303009025446,
                -0.845116623859112
            ]
        },
        {
            "positions": [
                -0.4565805897390568,
                -1.25559485293449,
                -2.159044821251666,
                1.3918552452621928,
                -0.3204170817559924,
                -0.7403746551910132
            ]
        },
        {
            "positions": [
                -0.3473417417668063,
                -1.3348094550039045,
                -2.171577959245823,
                1.4018875997297842,
                -0.2757411334217303,
                -0.6356326865229144
            ]
        },
        {
            "positions": [
                -0.23810289379455574,
                -1.414024057073319,
                -2.18411109723998,
                1.4119199541973753,
                -0.23106518508746815,
                -0.5308907178548157
            ]
        },
        {
            "positions": [
                -0.12886404582230526,
                -1.4932386591427336,
                -2.196644235234137,
                1.4219523086649666,
                -0.18638923675320607,
                -0.42614874918671686
            ]
        },
        {
            "positions": [
                -0.019625197850054763,
                -1.572453261212148,
                -2.209177373228294,
                1.4319846631325577,
                -0.14171328841894398,
                -0.32140678051861804
            ]
        },
        {
            "positions": [
                -0.053200817310998114,
                -1.7142082609332019,
                -2.2429113423923193,
                1.448395785072124,
                -0.07537878273368692,
                -0.25606894991705675
            ]
        },
        {
            "positions": [
                -0.08677643677194147,
                -1.8559632606542555,
                -2.276645311556345,
                1.4648069070116905,
                -0.00904427704842986,
                -0.1907311193154954
            ]
        },
        {
            "positions": [
                -0.12035205623288481,
                -1.9977182603753094,
                -2.3103792807203702,
                1.4812180289512569,
                0.0572902286368272,
                -0.12539328871393413
            ]
        },
        {
            "positions": [
                -0.15392767569382818,
                -2.1394732600963633,
                -2.344113249884396,
                1.4976291508908233,
                0.12362473432208426,
                -0.060055458112372784
            ]
        },
        {
            "positions": [
                -0.18750329515477152,
                -2.281228259817417,
                -2.3778472190484212,
                1.5140402728303897,
                0.18995924000734132,
                0.0052823724891884775
            ]
        }
    ]
}