{
    "goal": {
        "global_pose": {
            "orientation": {
                "w": 0.5084816217422485,
                "x": -0.49083608388900757,
                "y": 0.5182115435600281,
                "z": -0.4816462993621826
            },
            "position": {
                "x": 0.5540239810943604,
                "y": 0.030875300988554955,
                "z": 0.16403168439865112
            }
        },
        "name": "move_to_storage_A"
    },
    "id": "LBTRRT_move_to_storage_A_95",
    "joint_names": [
        "shoulder_pan_joint",
        "shoulder_lift_joint",
        "elbow_joint",
        "wrist_1_joint",
        "wrist_2_joint",
        "wrist_3_joint"
    ],
    "metrics": {
        "cart_traj_len": 0.3537613106512718,
        "distance_elbow_joint": 0.45103574718542183,
        "distance_shoulder_lift_joint": 0.2361652942486927,
        "distance_shoulder_pan_joint": 0.462605777360276,
        "distance_wrist_1_joint": 0.24350887459207182,
        "distance_wrist_2_joint": 1.1011397493614965,
        "distance_wrist_3_joint": 0.10256841712033538,
        "smoothness": 8.881784197001252e-16,
        "time": 5.003323154,
        "traj_len": 1.6115284235372005,
        "weighted_distance": 2.0363716060833625
    },
    "planner": "LBTRRT",
    "start": {
        "state": {
            "elbow_joint": 1.971548259319323,
            "shoulder_lift_joint": -1.1394851275133948,
            "shoulder_pan_joint": 0.1228115487234821,
            "wrist_1_joint": -0.7804723859257726,
            "wrist_2_joint": 0.12958671773740124,
            "wrist_3_joint": -3.192489227718131
        }
    },
    "waypoints": [
        {
            "positions": [
                0.1228115487234821,
                -1.1394851275133948,
                1.971548259319323,
                -0.7804723859257726,
                0.12958671773740124,
                -3.192489227718131
            ]
        },
        {
            "positions": [
                0.05672500910058553,
                -1.1732230266917796,
                2.035981937488669,
                -0.8152593680103543,
                0.28689239621761503,
                -3.1778365967009403
            ]
        },
        {
            "positions": [
                -0.009361530522311035,
                -1.2069609258701641,
                2.100415615658015,
                -0.850046350094936,
                0.4441980746978288,
                -3.1631839656837495
            ]
        },
        {
            "positions": [
                -0.0754480701452076,
                -1.240698825048549,
                2.164849293827361,
                -0.8848333321795177,
                0.6015037531780426,
                -3.1485313346665587
            ]
        },
        {
            "positions": [
                -0.14153460976810417,
                -1.2744367242269334,
                2.2292829719967067,
                -0.9196203142640994,
                0.7588094316582564,
                -3.1338787036493683
            ]
        },
        {
            "positions": [
                -0.2076211493910008,
                -1.3081746234053182,
                2.293716650166053,
                -0.954407296348681,
                0.9161151101384702,
                -3.1192260726321774
            ]
        },
        {
            "positions": [
                -0.2737076890138973,
                -1.3419125225837027,
                2.358150328335399,
                -0.9891942784332628,
                1.073420788618684,
                -3.1045734416149866
            ]
        },
        {
            "positions": [
                -0.3397942286367939,
                -1.3756504217620875,
                2.422584006504745,
                -1.0239812605178444,
                1.2307264670988978,
                -3.0899208105977958
            ]
        }
    ]
}{
    "goal": {
        "global_pose": {
            "orientation": {
                "w": 0.5084816217422485,
                "x": -0.49083608388900757,
                "y": 0.5182115435600281,
                "z": -0.4816462993621826
            },
            "position": {
                "x": 0.5540239810943604,
                "y": 0.030875300988554955,
                "z": 0.16403168439865112
            }
        },
        "name": "move_to_storage_A"
    },
    "id": "LBTRRT_move_to_storage_A_95",
    "joint_names": [
        "shoulder_pan_joint",
        "shoulder_lift_joint",
        "elbow_joint",
        "wrist_1_joint",
        "wrist_2_joint",
        "wrist_3_joint"
    ],
    "metrics": {
        "cart_traj_len": 0.3530700925445624,
        "distance_elbow_joint": 0.4515122451984288,
        "distance_shoulder_lift_joint": 0.2355629848437324,
        "distance_shoulder_pan_joint": 0.4637891665124777,
        "distance_wrist_1_joint": 0.24381379779460088,
        "distance_wrist_2_joint": 1.0908324444525193,
        "distance_wrist_3_joint": 0.10205598802108096,
        "smoothness": 4.440892098500626e-16,
        "time": 5.002238607,
        "traj_len": 1.608591504025444,
        "weighted_distance": 2.0313357292954115
    },
    "planner": "LBTRRT",
    "start": {
        "state": {
            "elbow_joint": 1.97154746011099,
            "shoulder_lift_joint": -1.13948474672311,
            "shoulder_pan_joint": 0.12281154466712228,
            "wrist_1_joint": -0.7804688027058302,
            "wrist_2_joint": 0.12958655903071145,
            "wrist_3_joint": 3.0906928834467795
        }
    },
    "waypoints": [
        {
            "positions": [
                0.12281154466712228,
                -1.13948474672311,
                1.97154746011099,
                -0.7804688027058302,
                0.12958655903071145,
                3.0906928834467795
            ]
        },
        {
            "positions": [
                0.05655594945105405,
                -1.173136601700786,
                2.0360492094250513,
                -0.815299345247916,
                0.28541976538107133,
                3.1052723103069337
            ]
        },
        {
            "positions": [
                -0.009699645765014184,
                -1.2067884566784621,
                2.1005509587391122,
                -0.8501298877900019,
                0.4412529717314312,
                3.1198517371670884
            ]
        },
        {
            "positions": [
                -0.07595524098108243,
                -1.2404403116561382,
                2.1650527080531736,
                -0.8849604303320877,
                0.5970861780817911,
                3.1344311640272426
            ]
        },
        {
            "positions": [
                -0.14221083619715064,
                -1.274092166633814,
                2.229554457367235,
                -0.9197909728741736,
                0.752919384432151,
                3.1490105908873973
            ]
        },
        {
            "positions": [
                -0.2084664314132189,
                -1.3077440216114902,
                2.2940562066812964,
                -0.9546215154162594,
                0.9087525907825109,
                3.1635900177475516
            ]
        },
        {
            "positions": [
                -0.27472202662928713,
                -1.3413958765891663,
                2.3585579559953573,
                -0.9894520579583452,
                1.0645857971328707,
                3.1781694446077062
            ]
        },
        {
            "positions": [
                -0.3409776218453554,
                -1.3750477315668423,
                2.4230597053094187,
                -1.024282600500431,
                1.2204190034832307,
                3.1927488714678605
            ]
        }
    ]
}{
    "goal": {
        "global_pose": {
            "orientation": {
                "w": 0.5084816217422485,
                "x": -0.49083608388900757,
                "y": 0.5182115435600281,
                "z": -0.4816462993621826
            },
            "position": {
                "x": 0.5540239810943604,
                "y": 0.030875300988554955,
                "z": 0.16403168439865112
            }
        },
        "name": "move_to_storage_A"
    },
    "id": "LBTRRT_move_to_storage_A_95",
    "joint_names": [
        "shoulder_pan_joint",
        "shoulder_lift_joint",
        "elbow_joint",
        "wrist_1_joint",
        "wrist_2_joint",
        "wrist_3_joint"
    ],
    "metrics": {
        "cart_traj_len": 0.3533626411611468,
        "distance_elbow_joint": 0.45102984252485756,
        "distance_shoulder_lift_joint": 0.23248926227292532,
        "distance_shoulder_pan_joint": 0.4578560500747288,
        "distance_wrist_1_joint": 0.25642136145869143,
        "distance_wrist_2_joint": 1.1160901999561768,
        "distance_wrist_3_joint": 0.10381865176271088,
        "smoothness": 4.440892098500626e-16,
        "time": 5.00441999,
        "traj_len": 1.617932436182083,
        "weighted_distance": 2.048866572764166
    },
    "planner": "LBTRRT",
    "start": {
        "state": {
            "elbow_joint": 1.9715472970024885,
            "shoulder_lift_joint": -1.1394870060712896,
            "shoulder_pan_joint": 0.12281152778156021,
            "wrist_1_joint": -0.780463741449964,
            "wrist_2_joint": 0.12958659822042276,
            "wrist_3_joint": 3.090690232415272
        }
    },
    "waypoints": [
        {
            "positions": [
                0.12281152778156021,
                -1.1394870060712896,
                1.9715472970024885,
                -0.780463741449964,
                0.12958659822042276,
                3.090690232415272
            ]
        },
        {
            "positions": [
                0.05740352062802753,
                -1.1726997578245646,
                2.0359801316488966,
                -0.8170953645154914,
                0.2890280553570194,
                3.105521468381373
            ]
        },
        {
            "positions": [
                -0.008004486525505145,
                -1.2059125095778398,
                2.100412966295305,
                -0.8537269875810187,
                0.4484695124936161,
                3.120352704347475
            ]
        },
        {
            "positions": [
                -0.07341249367903782,
                -1.2391252613311148,
                2.164845800941713,
                -0.890358610646546,
                0.6079109696302127,
                3.1351839403135764
            ]
        },
        {
            "positions": [
                -0.1388205008325705,
                -1.2723380130843898,
                2.2292786355881216,
                -0.9269902337120733,
                0.7673524267668094,
                3.150015176279678
            ]
        },
        {
            "positions": [
                -0.20422850798610317,
                -1.305550764837665,
                2.2937114702345296,
                -0.9636218567776007,
                0.9267938839034061,
                3.1648464122457796
            ]
        },
        {
            "positions": [
                -0.2696365151396358,
                -1.33876351659094,
                2.3581443048809376,
                -1.0002534798431282,
                1.0862353410400027,
                3.1796776482118814
            ]
        },
        {
            "positions": [
                -0.33504452229316856,
                -1.371976268344215,
                2.422577139527346,
                -1.0368851029086554,
                1.2456767981765995,
                3.1945088841779827
            ]
        }
    ]
}