{
    "goal": {
        "global_pose": {
            "orientation": {
                "w": -0.4816463035849501,
                "x": 0.5182115481033762,
                "y": 0.4908360881923453,
                "z": -0.5084816262002911
            },
            "position": {
                "x": -0.8240239810943604,
                "y": -0.300875300988555,
                "z": 0.16403168439865112
            }
        },
        "name": "move_to_storage_C"
    },
    "id": "LBTRRT_move_to_storage_C_105",
    "joint_names": [
        "shoulder_pan_joint",
        "shoulder_lift_joint",
        "elbow_joint",
        "wrist_1_joint",
        "wrist_2_joint",
        "wrist_3_joint"
    ],
    "metrics": {
        "cart_traj_len": 0.5771904327321176,
        "distance_elbow_joint": 0.2584223047591634,
        "distance_shoulder_lift_joint": 0.18909392601927066,
        "distance_shoulder_pan_joint": 0.4959081395859908,
        "distance_wrist_1_joint": 0.0814456032351355,
        "distance_wrist_2_joint": 1.0646598292457163,
        "distance_wrist_3_joint": 0.07089939526176225,
        "smoothness": 5.075305295617109e-16,
        "time": 5.008556518,
        "traj_len": 1.4698398545783955,
        "weighted_distance": 1.8569688799523312
    },
    "planner": "LBTRRT",
    "start": {
        "state": {
            "elbow_joint": 2.010868314990456,
            "shoulder_lift_joint": -1.1634956873337592,
            "shoulder_pan_joint": -2.4736205022346125,
            "wrist_1_joint": -0.8367026794202681,
            "wrist_2_joint": 0.6746043897044499,
            "wrist_3_joint": -3.1496632123970403
        }
    },
    "waypoints": [
        {
            "positions": [
                -2.4736205022346125,
                -1.1634956873337592,
                2.010868314990456,
                -0.8367026794202681,
                0.6746043897044499,
                -3.1496632123970403
            ]
        },
        {
            "positions": [
                -2.5562718588322775,
                -1.131980032997214,
                1.9677979308639286,
                -0.8231284122144122,
                0.852047694578736,
                -3.13784664652008
            ]
        },
        {
            "positions": [
                -2.638923215429943,
                -1.100464378660669,
                1.9247275467374014,
                -0.8095541450085563,
                1.0294909994530221,
                -3.1260300806431194
            ]
        },
        {
            "positions": [
                -2.721574572027608,
                -1.0689487243241238,
                1.8816571626108742,
                -0.7959798778027003,
                1.2069343043273082,
                -3.114213514766159
            ]
        },
        {
            "positions": [
                -2.804225928625273,
                -1.0374330699875787,
                1.8385867784843468,
                -0.7824056105968444,
                1.3843776092015943,
                -3.102396948889199
            ]
        },
        {
            "positions": [
                -2.8868772852229383,
                -1.0059174156510335,
                1.7955163943578196,
                -0.7688313433909886,
                1.5618209140758803,
                -3.0905803830122385
            ]
        },
        {
            "positions": [
                -2.9695286418206033,
                -0.9744017613144885,
                1.7524460102312924,
                -0.7552570761851326,
                1.7392642189501664,
                -3.078763817135278
            ]
        }
    ]
}