{
    "goal": {
        "global_pose": {
            "orientation": {
                "w": -0.4816463035849501,
                "x": 0.5182115481033762,
                "y": 0.4908360881923453,
                "z": -0.5084816262002911
            },
            "position": {
                "x": -0.8240239810943604,
                "y": -0.300875300988555,
                "z": 0.16403168439865112
            }
        },
        "name": "move_to_storage_C"
    },
    "id": "LBTRRT_move_to_storage_C_40",
    "joint_names": [
        "shoulder_pan_joint",
        "shoulder_lift_joint",
        "elbow_joint",
        "wrist_1_joint",
        "wrist_2_joint",
        "wrist_3_joint"
    ],
    "metrics": {
        "cart_traj_len": 0.5770749884316998,
        "distance_elbow_joint": 0.2545530750729137,
        "distance_shoulder_lift_joint": 0.18942579112726865,
        "distance_shoulder_pan_joint": 0.4953642231690645,
        "distance_wrist_1_joint": 0.06456933761905714,
        "distance_wrist_2_joint": 1.0679054387762865,
        "distance_wrist_3_joint": 0.06220597484220747,
        "smoothness": 0.0,
        "time": 5.003149861,
        "traj_len": 1.4608298465621512,
        "weighted_distance": 1.8414425233187584
    },
    "planner": "LBTRRT",
    "start": {
        "state": {
            "elbow_joint": 2.010868314990456,
            "shoulder_lift_joint": -1.1634956873337592,
            "shoulder_pan_joint": -2.4736205022346125,
            "wrist_1_joint": -0.8367026794202681,
            "wrist_2_joint": 0.6746043897044499,
            "wrist_3_joint": -3.1496632123970403
        }
    },
    "waypoints": [
        {
            "positions": [
                -2.4736205022346125,
                -1.1634956873337592,
                2.010868314990456,
                -0.8367026794202681,
                0.6746043897044499,
                -3.1496632123970403
            ]
        },
        {
            "positions": [
                -2.5561812060961233,
                -1.131924722145881,
                1.9684428024783036,
                -0.8259411231504252,
                0.8525886295004976,
                -3.139295549923339
            ]
        },
        {
            "positions": [
                -2.638741909957634,
                -1.100353756958003,
                1.9260172899661512,
                -0.8151795668805824,
                1.0305728692965455,
                -3.128927887449638
            ]
        },
        {
            "positions": [
                -2.7213026138191445,
                -1.068782791770125,
                1.883591777453999,
                -0.8044180106107395,
                1.208557109092593,
                -3.1185602249759365
            ]
        },
        {
            "positions": [
                -2.8038633176806553,
                -1.0372118265822468,
                1.8411662649418468,
                -0.7936564543408967,
                1.386541348888641,
                -3.1081925625022353
            ]
        },
        {
            "positions": [
                -2.886424021542166,
                -1.0056408613943686,
                1.7987407524296943,
                -0.7828948980710538,
                1.5645255886846887,
                -3.097824900028534
            ]
        },
        {
            "positions": [
                -2.968984725403677,
                -0.9740698962064905,
                1.7563152399175421,
                -0.772133341801211,
                1.7425098284807363,
                -3.087457237554833
            ]
        }
    ]
}