{
    "goal": {
        "global_pose": {
            "orientation": {
                "w": 0.005598929693374612,
                "x": 0.007748599140229565,
                "y": 0.7110244013736278,
                "z": -0.7031023480610252
            },
            "position": {
                "x": -0.8858502320852131,
                "y": -0.7141253447532654,
                "z": 0.3711530566215515
            }
        },
        "name": "move_to_auspresseinheit_C"
    },
    "id": "LBTRRT_move_to_auspresseinheit_C_90",
    "joint_names": [
        "shoulder_pan_joint",
        "shoulder_lift_joint",
        "elbow_joint",
        "wrist_1_joint",
        "wrist_2_joint",
        "wrist_3_joint"
    ],
    "metrics": {
        "cart_traj_len": 0.4931140045890949,
        "distance_elbow_joint": 0.9928492886746212,
        "distance_shoulder_lift_joint": 0.32190359502856325,
        "distance_shoulder_pan_joint": 0.25660928478919187,
        "distance_wrist_1_joint": 0.6580690883549897,
        "distance_wrist_2_joint": 1.3184406440824872,
        "distance_wrist_3_joint": 0.0485340681850448,
        "smoothness": 4.844609574787718e-16,
        "time": 5.103051496,
        "traj_len": 1.8964192492998213,
        "weighted_distance": 2.381172786238425
    },
    "planner": "LBTRRT",
    "start": {
        "state": {
            "elbow_joint": 1.7527959577737207,
            "shoulder_lift_joint": -0.9740617694225068,
            "shoulder_pan_joint": -2.967991417825858,
            "wrist_1_joint": -0.759517768980727,
            "wrist_2_joint": 1.7443932448377408,
            "wrist_3_joint": -3.0840537646736568
        }
    },
    "waypoints": [
        {
            "positions": [
                -2.967991417825858,
                -0.9740617694225068,
                1.7527959577737207,
                -0.759517768980727,
                1.7443932448377408,
                -3.0840537646736568
            ]
        },
        {
            "positions": [
                -2.9423304893469386,
                -0.9418714099196505,
                1.6535110289062585,
                -0.693710860145228,
                1.612549180429492,
                -3.088907171492161
            ]
        },
        {
            "positions": [
                -2.9166695608680198,
                -0.9096810504167941,
                1.5542261000387965,
                -0.6279039513097291,
                1.4807051160212434,
                -3.0937605783106656
            ]
        },
        {
            "positions": [
                -2.8910086323891004,
                -0.8774906909139378,
                1.4549411711713343,
                -0.5620970424742301,
                1.3488610516129946,
                -3.09861398512917
            ]
        },
        {
            "positions": [
                -2.865347703910181,
                -0.8453003314110814,
                1.3556562423038723,
                -0.4962901336387311,
                1.217016987204746,
                -3.1034673919476745
            ]
        },
        {
            "positions": [
                -2.839686775431262,
                -0.8131099719082251,
                1.25637131343641,
                -0.43048322480323215,
                1.0851729227964972,
                -3.1083207987661794
            ]
        },
        {
            "positions": [
                -2.814025846952343,
                -0.7809196124053688,
                1.1570863845689479,
                -0.3646763159677332,
                0.9533288583882485,
                -3.113174205584684
            ]
        },
        {
            "positions": [
                -2.7883649184734236,
                -0.7487292529025125,
                1.0578014557014859,
                -0.29886940713223425,
                0.8214847939799998,
                -3.1180276124031883
            ]
        },
        {
            "positions": [
                -2.7627039899945043,
                -0.7165388933996562,
                0.9585165268340237,
                -0.2330624982967352,
                0.689640729571751,
                -3.1228810192216927
            ]
        },
        {
            "positions": [
                -2.7370430615155854,
                -0.6843485338967998,
                0.8592315979665616,
                -0.1672555894612363,
                0.5577966651635022,
                -3.127734426040197
            ]
        },
        {
            "positions": [
                -2.711382133036666,
                -0.6521581743939435,
                0.7599466690990995,
                -0.10144868062573735,
                0.42595260075525376,
                -3.1325878328587016
            ]
        }
    ]
}