{
    "goal": {
        "global_pose": {
            "orientation": {
                "w": 0.7047431493862688,
                "x": -0.7094548369677653,
                "y": 0.0024358444001904,
                "z": -0.0022348060817251984
            },
            "position": {
                "x": -0.39052492380142206,
                "y": 0.3671506643295288,
                "z": 0.19426114857196808
            }
        },
        "name": "move_to_magneteinheit_D"
    },
    "id": "LBTRRT_move_to_magneteinheit_D_3",
    "joint_names": [
        "shoulder_pan_joint",
        "shoulder_lift_joint",
        "elbow_joint",
        "wrist_1_joint",
        "wrist_2_joint",
        "wrist_3_joint"
    ],
    "metrics": {
        "cart_traj_len": 3.6351361726825835,
        "distance_elbow_joint": 3.141166875984229,
        "distance_shoulder_lift_joint": 1.7016294313400517,
        "distance_shoulder_pan_joint": 2.7455818157792877,
        "distance_wrist_1_joint": 1.9845337236311817,
        "distance_wrist_2_joint": 3.369588739958463,
        "distance_wrist_3_joint": 3.1735474663316676,
        "smoothness": 0.2804942441335109,
        "time": 5.051642628,
        "traj_len": 4.014479798557327,
        "weighted_distance": 5.2742075660024845
    },
    "planner": "LBTRRT",
    "start": {
        "state": {
            "elbow_joint": 0.749534889911806,
            "shoulder_lift_joint": -0.6476975780787326,
            "shoulder_pan_joint": -2.711696901376241,
            "wrist_1_joint": -0.07506478083263063,
            "wrist_2_joint": 0.43296659715538205,
            "wrist_3_joint": -3.14703540197715
        }
    },
    "waypoints": [
        {
            "positions": [
                -2.711696901376241,
                -0.6476975780787326,
                0.749534889911806,
                -0.07506478083263063,
                0.43296659715538205,
                -3.14703540197715
            ]
        },
        {
            "positions": [
                -2.7437753450150435,
                -0.6301861842273788,
                0.6962256018195603,
                -0.1240066562424788,
                0.39027587435718336,
                -3.080604234499993
            ]
        },
        {
            "positions": [
                -2.775853788653846,
                -0.6126747903760249,
                0.6429163137273146,
                -0.17294853165232696,
                0.3475851515589846,
                -3.0141730670228353
            ]
        },
        {
            "positions": [
                -2.770239084171892,
                -0.639089169721579,
                0.6455153048621556,
                -0.04940402019646678,
                0.20021238946158978,
                -2.984229409315642
            ]
        },
        {
            "positions": [
                -2.7646243796899377,
                -0.665503549067133,
                0.6481142959969967,
                0.0741404912593934,
                0.05283962736419495,
                -2.9542857516084484
            ]
        },
        {
            "positions": [
                -2.68362032382956,
                -0.6991137687691608,
                0.5651555511300196,
                0.11954908667243432,
                -0.002538689769508641,
                -2.872954715968239
            ]
        },
        {
            "positions": [
                -2.602616267969182,
                -0.7327239884711885,
                0.4821968062630424,
                0.16495768208547523,
                -0.057917006903212234,
                -2.791623680328029
            ]
        },
        {
            "positions": [
                -2.5216122121088045,
                -0.7663342081732162,
                0.3992380613960653,
                0.21036627749851616,
                -0.1132953240369158,
                -2.7102926446878195
            ]
        },
        {
            "positions": [
                -2.4406081562484268,
                -0.7999444278752439,
                0.3162793165290882,
                0.2557748729115571,
                -0.16867364117061942,
                -2.62896160904761
            ]
        },
        {
            "positions": [
                -2.359604100388049,
                -0.8335546475772716,
                0.23332057166211112,
                0.30118346832459797,
                -0.224051958304323,
                -2.5476305734074
            ]
        },
        {
            "positions": [
                -2.2786000445276713,
                -0.8671648672792993,
                0.150361826795134,
                0.34659206373763896,
                -0.27943027543802657,
                -2.4662995377671906
            ]
        },
        {
            "positions": [
                -2.1975959886672936,
                -0.9007750869813271,
                0.0674030819281568,
                0.39200065915067983,
                -0.33480859257173023,
                -2.3849685021269806
            ]
        },
        {
            "positions": [
                -2.116591932806916,
                -0.9343853066833547,
                -0.01555566293882027,
                0.4374092545637207,
                -0.3901869097054338,
                -2.303637466486771
            ]
        },
        {
            "positions": [
                -2.035587876946538,
                -0.9679955263853826,
                -0.09851440780579734,
                0.4828178499767617,
                -0.4455652268391374,
                -2.2223064308465617
            ]
        },
        {
            "positions": [
                -1.9545838210861606,
                -1.0016057460874102,
                -0.18147315267277442,
                0.5282264453898026,
                -0.5009435439728409,
                -2.140975395206352
            ]
        },
        {
            "positions": [
                -1.8735797652257828,
                -1.035215965789438,
                -0.2644318975397516,
                0.5736350408028436,
                -0.5563218611065446,
                -2.0596443595661422
            ]
        },
        {
            "positions": [
                -1.7925757093654051,
                -1.0688261854914656,
                -0.3473906424067287,
                0.6190436362158844,
                -0.611700178240248,
                -1.9783133239259327
            ]
        },
        {
            "positions": [
                -1.7115716535050274,
                -1.1024364051934934,
                -0.43034938727370575,
                0.6644522316289253,
                -0.6670784953739517,
                -1.896982288285723
            ]
        },
        {
            "positions": [
                -1.6305675976446496,
                -1.136046624895521,
                -0.513308132140683,
                0.7098608270419663,
                -0.7224568125076554,
                -1.8156512526455133
            ]
        },
        {
            "positions": [
                -1.549563541784272,
                -1.1696568445975488,
                -0.5962668770076601,
                0.7552694224550072,
                -0.777835129641359,
                -1.7343202170053036
            ]
        },
        {
            "positions": [
                -1.4685594859238944,
                -1.2032670642995766,
                -0.6792256218746372,
                0.800678017868048,
                -0.8332134467750625,
                -1.652989181365094
            ]
        },
        {
            "positions": [
                -1.3875554300635167,
                -1.2368772840016042,
                -0.7621843667416143,
                0.8460866132810889,
                -0.8885917639087662,
                -1.5716581457248846
            ]
        },
        {
            "positions": [
                -1.3065513742031387,
                -1.2704875037036318,
                -0.8451431116085913,
                0.8914952086941299,
                -0.9439700810424698,
                -1.4903271100846747
            ]
        },
        {
            "positions": [
                -1.2255473183427612,
                -1.3040977234056597,
                -0.9281018564755684,
                0.9369038041071708,
                -0.9993483981761733,
                -1.4089960744444652
            ]
        },
        {
            "positions": [
                -1.1445432624823835,
                -1.3377079431076875,
                -1.0110606013425456,
                0.9823123995202118,
                -1.054726715309877,
                -1.3276650388042555
            ]
        },
        {
            "positions": [
                -1.0635392066220057,
                -1.371318162809715,
                -1.0940193462095227,
                1.0277209949332526,
                -1.1101050324435804,
                -1.246334003164046
            ]
        },
        {
            "positions": [
                -0.982535150761628,
                -1.4049283825117427,
                -1.1769780910764998,
                1.0731295903462936,
                -1.1654833495772843,
                -1.165002967523836
            ]
        },
        {
            "positions": [
                -0.9015310949012502,
                -1.4385386022137705,
                -1.2599368359434768,
                1.1185381857593346,
                -1.2208616667109877,
                -1.0836719318836265
            ]
        },
        {
            "positions": [
                -0.8026653242833653,
                -1.513746329042892,
                -1.3149996811176266,
                1.1880845545072596,
                -1.25343968843693,
                -1.031583505292043
            ]
        },
        {
            "positions": [
                -0.7037995536654806,
                -1.5889540558720137,
                -1.3700625262917765,
                1.2576309232551843,
                -1.2860177101628727,
                -0.9794950787004597
            ]
        },
        {
            "positions": [
                -0.6049337830475958,
                -1.664161782701135,
                -1.4251253714659262,
                1.3271772920031093,
                -1.318595731888815,
                -0.9274066521088762
            ]
        },
        {
            "positions": [
                -0.506068012429711,
                -1.7393695095302566,
                -1.4801882166400762,
                1.396723660751034,
                -1.3511737536147577,
                -0.8753182255172928
            ]
        },
        {
            "positions": [
                -0.4072022418118263,
                -1.8145772363593782,
                -1.5352510618142259,
                1.466270029498959,
                -1.3837517753407,
                -0.8232297989257094
            ]
        },
        {
            "positions": [
                -0.36452693900013156,
                -1.8715251426780954,
                -1.6111905760504168,
                1.488429352798748,
                -1.2772707903201594,
                -0.7473410752966185
            ]
        },
        {
            "positions": [
                -0.3218516361884368,
                -1.9284730489968125,
                -1.6871300902866075,
                1.510588676098537,
                -1.1707898052996186,
                -0.6714523516675277
            ]
        },
        {
            "positions": [
                -0.2791763333767421,
                -1.9854209553155298,
                -1.7630696045227983,
                1.532747999398326,
                -1.064308820279078,
                -0.5955636280384368
            ]
        },
        {
            "positions": [
                -0.23650103056504734,
                -2.042368861634247,
                -1.8390091187589892,
                1.5549073226981152,
                -0.9578278352585374,
                -0.5196749044093459
            ]
        },
        {
            "positions": [
                -0.1938257277533526,
                -2.0993167679529643,
                -1.9149486329951801,
                1.5770666459979041,
                -0.8513468502379966,
                -0.443786180780255
            ]
        },
        {
            "positions": [
                -0.15115042494165787,
                -2.1562646742716813,
                -1.9908881472313709,
                1.5992259692976931,
                -0.744865865217456,
                -0.3678974571511642
            ]
        },
        {
            "positions": [
                -0.14833915665255942,
                -2.1815095711258756,
                -2.05338532640748,
                1.5883652390517138,
                -0.6105196530084676,
                -0.30489132599289703
            ]
        },
        {
            "positions": [
                -0.14552788836346098,
                -2.20675446798007,
                -2.1158825055835893,
                1.5775045088057342,
                -0.47617344079947915,
                -0.24188519483462986
            ]
        },
        {
            "positions": [
                -0.14271662007436253,
                -2.231999364834264,
                -2.1783796847596983,
                1.566643778559755,
                -0.34182722859049075,
                -0.1788790636763627
            ]
        },
        {
            "positions": [
                -0.1399053517852641,
                -2.2572442616884585,
                -2.2408768639358074,
                1.5557830483137756,
                -0.2074810163815023,
                -0.11587293251809555
            ]
        },
        {
            "positions": [
                -0.15506418232963098,
                -2.264589985796762,
                -2.2876632498015583,
                1.532105531354593,
                -0.0819478135471079,
                -0.0684112668938909
            ]
        },
        {
            "positions": [
                -0.1702230128739979,
                -2.2719357099050654,
                -2.334449635667309,
                1.5084280143954105,
                0.0435853892872865,
                -0.020949601269686244
            ]
        },
        {
            "positions": [
                -0.1853818434183648,
                -2.279281434013369,
                -2.3812360215330597,
                1.484750497436228,
                0.16911859212168087,
                0.026512064354518416
            ]
        }
    ]
}