{
    "goal": {
        "global_pose": {
            "orientation": {
                "w": 0.5084816217422485,
                "x": -0.49083608388900757,
                "y": 0.5182115435600281,
                "z": -0.4816462993621826
            },
            "position": {
                "x": 0.5540239810943604,
                "y": 0.030875300988554955,
                "z": 0.16403168439865112
            }
        },
        "name": "move_to_storage_A"
    },
    "id": "LBTRRT_move_to_storage_A_5",
    "joint_names": [
        "shoulder_pan_joint",
        "shoulder_lift_joint",
        "elbow_joint",
        "wrist_1_joint",
        "wrist_2_joint",
        "wrist_3_joint"
    ],
    "metrics": {
        "cart_traj_len": 0.35257460700536647,
        "distance_elbow_joint": 0.4483326171265969,
        "distance_shoulder_lift_joint": 0.23454427110864517,
        "distance_shoulder_pan_joint": 0.4582720219223785,
        "distance_wrist_1_joint": 0.2382821988150189,
        "distance_wrist_2_joint": 1.1094879626852918,
        "distance_wrist_3_joint": 0.09177626951467666,
        "smoothness": 0.0,
        "time": 5.002261595,
        "traj_len": 1.6064542760914822,
        "weighted_distance": 2.027811145472446
    },
    "planner": "LBTRRT",
    "start": {
        "state": {
            "elbow_joint": 1.971548259319323,
            "shoulder_lift_joint": -1.1394851275133948,
            "shoulder_pan_joint": 0.1228115487234821,
            "wrist_1_joint": -0.7804723859257726,
            "wrist_2_joint": 0.12958671773740124,
            "wrist_3_joint": -3.192489227718131
        }
    },
    "waypoints": [
        {
            "positions": [
                0.1228115487234821,
                -1.1394851275133948,
                1.971548259319323,
                -0.7804723859257726,
                0.12958671773740124,
                -3.192489227718131
            ]
        },
        {
            "positions": [
                0.057344117020285176,
                -1.1729914519574869,
                2.035595776051694,
                -0.8145127000422039,
                0.28808499812101435,
                -3.179378332073177
            ]
        },
        {
            "positions": [
                -0.008123314682911748,
                -1.2064977764015792,
                2.099643292784065,
                -0.8485530141586352,
                0.4465832785046274,
                -3.1662674364282237
            ]
        },
        {
            "positions": [
                -0.07359074638610866,
                -1.2400041008456713,
                2.163690809516436,
                -0.8825933282750664,
                0.6050815588882406,
                -3.15315654078327
            ]
        },
        {
            "positions": [
                -0.1390581780893056,
                -1.2735104252897635,
                2.227738326248807,
                -0.9166336423914977,
                0.7635798392718537,
                -3.140045645138316
            ]
        },
        {
            "positions": [
                -0.20452560979250256,
                -1.3070167497338556,
                2.291785842981178,
                -0.950673956507929,
                0.9220781196554668,
                -3.126934749493362
            ]
        },
        {
            "positions": [
                -0.2699930414956994,
                -1.340523074177948,
                2.355833359713549,
                -0.9847142706243602,
                1.0805764000390798,
                -3.1138238538484084
            ]
        },
        {
            "positions": [
                -0.3354604731988964,
                -1.37402939862204,
                2.41988087644592,
                -1.0187545847407915,
                1.239074680422693,
                -3.1007129582034545
            ]
        }
    ]
}{
    "goal": {
        "global_pose": {
            "orientation": {
                "w": 0.5084816217422485,
                "x": -0.49083608388900757,
                "y": 0.5182115435600281,
                "z": -0.4816462993621826
            },
            "position": {
                "x": 0.5540239810943604,
                "y": 0.030875300988554955,
                "z": 0.16403168439865112
            }
        },
        "name": "move_to_storage_A"
    },
    "id": "LBTRRT_move_to_storage_A_5",
    "joint_names": [
        "shoulder_pan_joint",
        "shoulder_lift_joint",
        "elbow_joint",
        "wrist_1_joint",
        "wrist_2_joint",
        "wrist_3_joint"
    ],
    "metrics": {
        "cart_traj_len": 0.35402906802205514,
        "distance_elbow_joint": 0.45275776767088916,
        "distance_shoulder_lift_joint": 0.232147148523846,
        "distance_shoulder_pan_joint": 0.45994701447335656,
        "distance_wrist_1_joint": 0.2611487161365802,
        "distance_wrist_2_joint": 1.1123816705812863,
        "distance_wrist_3_joint": 0.0973849505065103,
        "smoothness": 4.440892098500626e-16,
        "time": 5.003441207,
        "traj_len": 1.617333381802425,
        "weighted_distance": 2.045499341389128
    },
    "planner": "LBTRRT",
    "start": {
        "state": {
            "elbow_joint": 1.97154746011099,
            "shoulder_lift_joint": -1.13948474672311,
            "shoulder_pan_joint": 0.12281154466712228,
            "wrist_1_joint": -0.7804688027058302,
            "wrist_2_joint": 0.12958655903071145,
            "wrist_3_joint": 3.0906928834467795
        }
    },
    "waypoints": [
        {
            "positions": [
                0.12281154466712228,
                -1.13948474672311,
                1.97154746011099,
                -0.7804688027058302,
                0.12958655903071145,
                3.0906928834467795
            ]
        },
        {
            "positions": [
                0.05710482831378563,
                -1.1726486250836594,
                2.0362271412068313,
                -0.8177757621539131,
                0.2884982262566095,
                3.104605019233424
            ]
        },
        {
            "positions": [
                -0.008601888039551017,
                -1.2058125034442089,
                2.1009068223026723,
                -0.8550827216019959,
                0.4474098934825075,
                3.118517155020068
            ]
        },
        {
            "positions": [
                -0.07430860439288765,
                -1.2389763818047583,
                2.1655865033985138,
                -0.8923896810500789,
                0.6063215607084056,
                3.1324292908067126
            ]
        },
        {
            "positions": [
                -0.1400153207462243,
                -1.2721402601653076,
                2.230266184494355,
                -0.9296966404981617,
                0.7652332279343036,
                3.1463414265933567
            ]
        },
        {
            "positions": [
                -0.205722037099561,
                -1.305304138525857,
                2.2949458655901966,
                -0.9670035999462446,
                0.9241448951602017,
                3.160253562380001
            ]
        },
        {
            "positions": [
                -0.2714287534528976,
                -1.3384680168864065,
                2.3596255466860376,
                -1.0043105593943276,
                1.0830565623860997,
                3.1741656981666453
            ]
        },
        {
            "positions": [
                -0.33713546980623427,
                -1.371631895246956,
                2.424305227781879,
                -1.0416175188424104,
                1.2419682296119978,
                3.18807783395329
            ]
        }
    ]
}{
    "goal": {
        "global_pose": {
            "orientation": {
                "w": 0.5084816217422485,
                "x": -0.49083608388900757,
                "y": 0.5182115435600281,
                "z": -0.4816462993621826
            },
            "position": {
                "x": 0.5540239810943604,
                "y": 0.030875300988554955,
                "z": 0.16403168439865112
            }
        },
        "name": "move_to_storage_A"
    },
    "id": "LBTRRT_move_to_storage_A_5",
    "joint_names": [
        "shoulder_pan_joint",
        "shoulder_lift_joint",
        "elbow_joint",
        "wrist_1_joint",
        "wrist_2_joint",
        "wrist_3_joint"
    ],
    "metrics": {
        "cart_traj_len": 0.35330698305755087,
        "distance_elbow_joint": 0.4512359772979466,
        "distance_shoulder_lift_joint": 0.23372856601302194,
        "distance_shoulder_pan_joint": 0.459640126262871,
        "distance_wrist_1_joint": 0.24541470600408277,
        "distance_wrist_2_joint": 1.1095949294089482,
        "distance_wrist_3_joint": 0.09705791304331246,
        "smoothness": 0.0,
        "time": 5.003537302,
        "traj_len": 1.611419317877933,
        "weighted_distance": 2.0361231985147263
    },
    "planner": "LBTRRT",
    "start": {
        "state": {
            "elbow_joint": 1.9715472970024885,
            "shoulder_lift_joint": -1.1394870060712896,
            "shoulder_pan_joint": 0.12281152778156021,
            "wrist_1_joint": -0.780463741449964,
            "wrist_2_joint": 0.12958659822042276,
            "wrist_3_joint": 3.090690232415272
        }
    },
    "waypoints": [
        {
            "positions": [
                0.12281152778156021,
                -1.1394870060712896,
                1.9715472970024885,
                -0.780463741449964,
                0.12958659822042276,
                3.090690232415272
            ]
        },
        {
            "positions": [
                0.05714865260115007,
                -1.1728768012160071,
                2.0360095794736237,
                -0.815522985164833,
                0.2881001595645582,
                3.1045556485643164
            ]
        },
        {
            "positions": [
                -0.008514222579260072,
                -1.2062665963607244,
                2.100471861944759,
                -0.8505822288797019,
                0.44661372090869367,
                3.118421064713361
            ]
        },
        {
            "positions": [
                -0.07417709775967021,
                -1.239656391505442,
                2.164934144415894,
                -0.8856414725945709,
                0.6051272822528291,
                3.1322864808624056
            ]
        },
        {
            "positions": [
                -0.13983997294008035,
                -1.2730461866501592,
                2.229396426887029,
                -0.9207007163094398,
                0.7636408435969645,
                3.1461518970114506
            ]
        },
        {
            "positions": [
                -0.2055028481204905,
                -1.3064359817948767,
                2.293858709358165,
                -0.9557599600243089,
                0.9221544049411,
                3.160017313160495
            ]
        },
        {
            "positions": [
                -0.2711657233009006,
                -1.339825776939594,
                2.3583209918293,
                -0.9908192037391778,
                1.0806679662852354,
                3.1738827293095397
            ]
        },
        {
            "positions": [
                -0.33682859848131075,
                -1.3732155720843116,
                2.422783274300435,
                -1.0258784474540468,
                1.239181527629371,
                3.1877481454585843
            ]
        }
    ]
}