{
    "goal": {
        "global_pose": {
            "orientation": {
                "w": 0.005598929693374612,
                "x": 0.007748599140229565,
                "y": 0.7110244013736278,
                "z": -0.7031023480610252
            },
            "position": {
                "x": 0.1141497679147869,
                "y": -0.7141253447532654,
                "z": 0.3711530566215515
            }
        },
        "name": "move_to_auspresseinheit_B"
    },
    "id": "LBTRRT_move_to_auspresseinheit_B_26",
    "joint_names": [
        "shoulder_pan_joint",
        "shoulder_lift_joint",
        "elbow_joint",
        "wrist_1_joint",
        "wrist_2_joint",
        "wrist_3_joint"
    ],
    "metrics": {
        "cart_traj_len": 0.5653462289501091,
        "distance_elbow_joint": 0.06407523848350016,
        "distance_shoulder_lift_joint": 0.29410433330995644,
        "distance_shoulder_pan_joint": 0.5770050365533543,
        "distance_wrist_1_joint": 0.32816439314408885,
        "distance_wrist_2_joint": 0.9959003890680518,
        "distance_wrist_3_joint": 0.008256586323990067,
        "smoothness": 0.0,
        "time": 5.008978414,
        "traj_len": 1.505824019227659,
        "weighted_distance": 1.8994957045866312
    },
    "planner": "LBTRRT",
    "start": {
        "state": {
            "elbow_joint": 2.0193083361928714,
            "shoulder_lift_joint": -1.1220246554650708,
            "shoulder_pan_joint": -1.0952077554168747,
            "wrist_1_joint": -0.8559753972642168,
            "wrist_2_joint": 0.4759566250798843,
            "wrist_3_joint": -3.1240929996934557
        }
    },
    "waypoints": [
        {
            "positions": [
                -1.0952077554168747,
                -1.1220246554650708,
                2.0193083361928714,
                -0.8559753972642168,
                0.4759566250798843,
                -3.1240929996934557
            ]
        },
        {
            "positions": [
                -1.1913752615091004,
                -1.1710420443500635,
                2.0086291297789547,
                -0.801281331740202,
                0.6419400232578929,
                -3.1227169019727907
            ]
        },
        {
            "positions": [
                -1.287542767601326,
                -1.2200594332350563,
                1.997949923365038,
                -0.7465872662161872,
                0.8079234214359015,
                -3.121340804252126
            ]
        },
        {
            "positions": [
                -1.3837102736935518,
                -1.269076822120049,
                1.9872707169511212,
                -0.6918932006921723,
                0.9739068196139102,
                -3.1199647065314604
            ]
        },
        {
            "positions": [
                -1.4798777797857774,
                -1.3180942110050418,
                1.9765915105372047,
                -0.6371991351681576,
                1.1398902177919188,
                -3.1185886088107955
            ]
        },
        {
            "positions": [
                -1.5760452858780032,
                -1.3671115998900345,
                1.965912304123288,
                -0.5825050696441427,
                1.3058736159699276,
                -3.1172125110901305
            ]
        },
        {
            "positions": [
                -1.672212791970229,
                -1.4161289887750272,
                1.9552330977093713,
                -0.5278110041201279,
                1.4718570141479361,
                -3.1158364133694656
            ]
        }
    ]
}