{
    "goal": {
        "global_pose": {
            "orientation": {
                "w": -0.4816463035849501,
                "x": 0.5182115481033762,
                "y": 0.4908360881923453,
                "z": -0.5084816262002911
            },
            "position": {
                "x": -0.8240239810943604,
                "y": -0.300875300988555,
                "z": 0.16403168439865112
            }
        },
        "name": "move_to_storage_C"
    },
    "id": "LBTRRT_move_to_storage_C_38",
    "joint_names": [
        "shoulder_pan_joint",
        "shoulder_lift_joint",
        "elbow_joint",
        "wrist_1_joint",
        "wrist_2_joint",
        "wrist_3_joint"
    ],
    "metrics": {
        "cart_traj_len": 0.5764131191870574,
        "distance_elbow_joint": 0.2566508190509609,
        "distance_shoulder_lift_joint": 0.19008996523895783,
        "distance_shoulder_pan_joint": 0.4943572761767485,
        "distance_wrist_1_joint": 0.07302505654663849,
        "distance_wrist_2_joint": 1.0685530999874167,
        "distance_wrist_3_joint": 0.06259987068902584,
        "smoothness": 0.0,
        "time": 5.003203126,
        "traj_len": 1.464676103338123,
        "weighted_distance": 1.8471745953216916
    },
    "planner": "LBTRRT",
    "start": {
        "state": {
            "elbow_joint": 2.010868314990456,
            "shoulder_lift_joint": -1.1634956873337592,
            "shoulder_pan_joint": -2.4736205022346125,
            "wrist_1_joint": -0.8367026794202681,
            "wrist_2_joint": 0.6746043897044499,
            "wrist_3_joint": -3.1496632123970403
        }
    },
    "waypoints": [
        {
            "positions": [
                -2.4736205022346125,
                -1.1634956873337592,
                2.010868314990456,
                -0.8367026794202681,
                0.6746043897044499,
                -3.1496632123970403
            ]
        },
        {
            "positions": [
                -2.556013381597404,
                -1.1318140264605996,
                1.9680931784819624,
                -0.824531836662495,
                0.852696573035686,
                -3.139229900615536
            ]
        },
        {
            "positions": [
                -2.6384062609601955,
                -1.10013236558744,
                1.9253180419734688,
                -0.8123609939047219,
                1.0307887563669222,
                -3.1287965888340317
            ]
        },
        {
            "positions": [
                -2.7207991403229865,
                -1.0684507047142802,
                1.8825429054649754,
                -0.8001901511469489,
                1.2088809396981581,
                -3.118363277052527
            ]
        },
        {
            "positions": [
                -2.803192019685778,
                -1.0367690438411206,
                1.839767768956482,
                -0.7880193083891758,
                1.3869731230293945,
                -3.107929965271023
            ]
        },
        {
            "positions": [
                -2.8855848990485695,
                -1.005087382967961,
                1.7969926324479883,
                -0.7758484656314026,
                1.5650653063606303,
                -3.097496653489519
            ]
        },
        {
            "positions": [
                -2.967977778411361,
                -0.9734057220948014,
                1.754217495939495,
                -0.7636776228736296,
                1.7431574896918667,
                -3.0870633417080144
            ]
        }
    ]
}