{
    "goal": {
        "global_pose": {
            "orientation": {
                "w": 0.7031023480610252,
                "x": -0.7110244013736278,
                "y": 0.0077485991402295624,
                "z": 0.005598929693374583
            },
            "position": {
                "x": -0.8841497679147869,
                "y": 0.44412534475326537,
                "z": 0.3711530566215515
            }
        },
        "name": "move_to_auspresseinheit_D"
    },
    "id": "LBTRRT_move_to_auspresseinheit_D_118",
    "joint_names": [
        "shoulder_pan_joint",
        "shoulder_lift_joint",
        "elbow_joint",
        "wrist_1_joint",
        "wrist_2_joint",
        "wrist_3_joint"
    ],
    "metrics": {
        "cart_traj_len": 0.34315272318485457,
        "distance_elbow_joint": 0.6387334450792348,
        "distance_shoulder_lift_joint": 0.12120244990946105,
        "distance_shoulder_pan_joint": 0.13363933092453154,
        "distance_wrist_1_joint": 0.5328802212683654,
        "distance_wrist_2_joint": 1.4346977421146798,
        "distance_wrist_3_joint": 0.005555901723962808,
        "smoothness": 1.578983857244667e-15,
        "time": 5.004464347,
        "traj_len": 1.6931358749433656,
        "weighted_distance": 2.2012266711656947
    },
    "planner": "LBTRRT",
    "start": {
        "state": {
            "elbow_joint": -1.8275523626775212,
            "shoulder_lift_joint": -2.126789852344167,
            "shoulder_pan_joint": -0.03513704404078235,
            "wrist_1_joint": -2.347782403156801,
            "wrist_2_joint": -1.6058999987535132,
            "wrist_3_joint": -3.0880379163319196
        }
    },
    "waypoints": [
        {
            "positions": [
                -0.03513704404078235,
                -2.126789852344167,
                -1.8275523626775212,
                -2.347782403156801,
                -1.6058999987535132,
                -3.0880379163319196
            ]
        },
        {
            "positions": [
                -0.051841960406348794,
                -2.1419401585828495,
                -1.747710682042617,
                -2.4143924308153464,
                -1.4265627809891783,
                -3.088732404047415
            ]
        },
        {
            "positions": [
                -0.06854687677191523,
                -2.157090464821532,
                -1.6678690014077124,
                -2.4810024584738923,
                -1.2472255632248432,
                -3.08942689176291
            ]
        },
        {
            "positions": [
                -0.08525179313748169,
                -2.1722407710602147,
                -1.5880273207728082,
                -2.547612486132438,
                -1.0678883454605081,
                -3.0901213794784055
            ]
        },
        {
            "positions": [
                -0.10195670950304811,
                -2.1873910772988974,
                -1.5081856401379037,
                -2.614222513790984,
                -0.8885511276961733,
                -3.090815867193901
            ]
        },
        {
            "positions": [
                -0.11866162586861456,
                -2.20254138353758,
                -1.4283439595029994,
                -2.6808325414495293,
                -0.7092139099318383,
                -3.0915103549093965
            ]
        },
        {
            "positions": [
                -0.13536654223418101,
                -2.2176916897762626,
                -1.3485022788680951,
                -2.747442569108075,
                -0.5298766921675033,
                -3.092204842624892
            ]
        },
        {
            "positions": [
                -0.15207145859974744,
                -2.2328419960149453,
                -1.2686605982331907,
                -2.814052596766621,
                -0.35053947440316824,
                -3.092899330340387
            ]
        },
        {
            "positions": [
                -0.1687763749653139,
                -2.247992302253628,
                -1.1888189175982864,
                -2.8806626244251663,
                -0.17120225663883343,
                -3.0935938180558824
            ]
        }
    ]
}