{
    "goal": {
        "global_pose": {
            "orientation": {
                "w": -0.4816463035849501,
                "x": 0.5182115481033762,
                "y": 0.4908360881923453,
                "z": -0.5084816262002911
            },
            "position": {
                "x": -0.8240239810943604,
                "y": -0.300875300988555,
                "z": 0.16403168439865112
            }
        },
        "name": "move_to_storage_C"
    },
    "id": "LBTRRT_move_to_storage_C_98",
    "joint_names": [
        "shoulder_pan_joint",
        "shoulder_lift_joint",
        "elbow_joint",
        "wrist_1_joint",
        "wrist_2_joint",
        "wrist_3_joint"
    ],
    "metrics": {
        "cart_traj_len": 0.575931086926028,
        "distance_elbow_joint": 0.25764941549247977,
        "distance_shoulder_lift_joint": 0.18754080941829443,
        "distance_shoulder_pan_joint": 0.4954785275567355,
        "distance_wrist_1_joint": 0.0834519371242477,
        "distance_wrist_2_joint": 1.0598582748027923,
        "distance_wrist_3_joint": 0.05744964857624968,
        "smoothness": 2.5376526478085547e-16,
        "time": 5.005724666000001,
        "traj_len": 1.4633620922283042,
        "weighted_distance": 1.8438107609107661
    },
    "planner": "LBTRRT",
    "start": {
        "state": {
            "elbow_joint": 2.010868314990456,
            "shoulder_lift_joint": -1.1634956873337592,
            "shoulder_pan_joint": -2.4736205022346125,
            "wrist_1_joint": -0.8367026794202681,
            "wrist_2_joint": 0.6746043897044499,
            "wrist_3_joint": -3.1496632123970403
        }
    },
    "waypoints": [
        {
            "positions": [
                -2.4736205022346125,
                -1.1634956873337592,
                2.010868314990456,
                -0.8367026794202681,
                0.6746043897044499,
                -3.1496632123970403
            ]
        },
        {
            "positions": [
                -2.5562002568274016,
                -1.1322388857640435,
                1.9679267457417091,
                -0.8227940232328935,
                0.8512474355049153,
                -3.140088270967665
            ]
        },
        {
            "positions": [
                -2.638780011420191,
                -1.1009820841943276,
                1.9249851764929626,
                -0.8088853670455188,
                1.0278904813053806,
                -3.1305133295382905
            ]
        },
        {
            "positions": [
                -2.7213597660129802,
                -1.069725282624612,
                1.882043607244216,
                -0.7949767108581443,
                1.2045335271058462,
                -3.1209383881089154
            ]
        },
        {
            "positions": [
                -2.8039395206057693,
                -1.0384684810548963,
                1.8391020379954692,
                -0.7810680546707697,
                1.3811765729063112,
                -3.1113634466795403
            ]
        },
        {
            "positions": [
                -2.886519275198559,
                -1.0072116794851804,
                1.7961604687467227,
                -0.767159398483395,
                1.5578196187067768,
                -3.1017885052501657
            ]
        },
        {
            "positions": [
                -2.969099029791348,
                -0.9759548779154648,
                1.753218899497976,
                -0.7532507422960204,
                1.7344626645072423,
                -3.0922135638207906
            ]
        }
    ]
}