{
    "goal": {
        "global_pose": {
            "orientation": {
                "w": -0.4816463035849501,
                "x": 0.5182115481033762,
                "y": 0.4908360881923453,
                "z": -0.5084816262002911
            },
            "position": {
                "x": -0.8240239810943604,
                "y": -0.300875300988555,
                "z": 0.16403168439865112
            }
        },
        "name": "move_to_storage_C"
    },
    "id": "LBTRRT_move_to_storage_C_26",
    "joint_names": [
        "shoulder_pan_joint",
        "shoulder_lift_joint",
        "elbow_joint",
        "wrist_1_joint",
        "wrist_2_joint",
        "wrist_3_joint"
    ],
    "metrics": {
        "cart_traj_len": 0.5765168636212233,
        "distance_elbow_joint": 0.25344017139255737,
        "distance_shoulder_lift_joint": 0.18909655616623233,
        "distance_shoulder_pan_joint": 0.4959851796063601,
        "distance_wrist_1_joint": 0.06414589958076267,
        "distance_wrist_2_joint": 1.0602755299073592,
        "distance_wrist_3_joint": 0.06597013701806231,
        "smoothness": 2.5376526478085547e-16,
        "time": 5.003259592,
        "traj_len": 1.459079666663659,
        "weighted_distance": 1.83991173081634
    },
    "planner": "LBTRRT",
    "start": {
        "state": {
            "elbow_joint": 2.010868314990456,
            "shoulder_lift_joint": -1.1634956873337592,
            "shoulder_pan_joint": -2.4736205022346125,
            "wrist_1_joint": -0.8367026794202681,
            "wrist_2_joint": 0.6746043897044499,
            "wrist_3_joint": -3.1496632123970403
        }
    },
    "waypoints": [
        {
            "positions": [
                -2.4736205022346125,
                -1.1634956873337592,
                2.010868314990456,
                -0.8367026794202681,
                0.6746043897044499,
                -3.1496632123970403
            ]
        },
        {
            "positions": [
                -2.5562846988356727,
                -1.1319795946393871,
                1.9686282864250295,
                -0.8260116961568077,
                0.8513169780223431,
                -3.1386681895606965
            ]
        },
        {
            "positions": [
                -2.6389488954367324,
                -1.100463501945015,
                1.9263882578596034,
                -0.8153207128933472,
                1.0280295663402363,
                -3.1276731667243527
            ]
        },
        {
            "positions": [
                -2.7216130920377926,
                -1.068947409250643,
                1.8841482292941771,
                -0.8046297296298868,
                1.2047421546581294,
                -3.1166781438880093
            ]
        },
        {
            "positions": [
                -2.8042772886388527,
                -1.037431316556271,
                1.8419082007287508,
                -0.7939387463664264,
                1.3814547429760227,
                -3.1056831210516656
            ]
        },
        {
            "positions": [
                -2.8869414852399125,
                -1.005915223861899,
                1.7996681721633248,
                -0.7832477631029658,
                1.558167331293916,
                -3.0946880982153218
            ]
        },
        {
            "positions": [
                -2.9696056818409726,
                -0.9743991311675269,
                1.7574281435978985,
                -0.7725567798395054,
                1.734879919611809,
                -3.083693075378978
            ]
        }
    ]
}