{
    "goal": {
        "global_pose": {
            "orientation": {
                "w": -0.4816463035849501,
                "x": 0.5182115481033762,
                "y": 0.4908360881923453,
                "z": -0.5084816262002911
            },
            "position": {
                "x": -0.8240239810943604,
                "y": -0.300875300988555,
                "z": 0.16403168439865112
            }
        },
        "name": "move_to_storage_C"
    },
    "id": "LBTRRT_move_to_storage_C_116",
    "joint_names": [
        "shoulder_pan_joint",
        "shoulder_lift_joint",
        "elbow_joint",
        "wrist_1_joint",
        "wrist_2_joint",
        "wrist_3_joint"
    ],
    "metrics": {
        "cart_traj_len": 0.576909812774527,
        "distance_elbow_joint": 0.2558905191989371,
        "distance_shoulder_lift_joint": 0.18822637745411386,
        "distance_shoulder_pan_joint": 0.4945764496585814,
        "distance_wrist_1_joint": 0.06915599778641668,
        "distance_wrist_2_joint": 1.072445374071112,
        "distance_wrist_3_joint": 0.06655607041035783,
        "smoothness": 0.0,
        "time": 5.003259237000001,
        "traj_len": 1.4652135641535395,
        "weighted_distance": 1.849747091160779
    },
    "planner": "LBTRRT",
    "start": {
        "state": {
            "elbow_joint": 2.010868314990456,
            "shoulder_lift_joint": -1.1634956873337592,
            "shoulder_pan_joint": -2.4736205022346125,
            "wrist_1_joint": -0.8367026794202681,
            "wrist_2_joint": 0.6746043897044499,
            "wrist_3_joint": -3.1496632123970403
        }
    },
    "waypoints": [
        {
            "positions": [
                -2.4736205022346125,
                -1.1634956873337592,
                2.010868314990456,
                -0.8367026794202681,
                0.6746043897044499,
                -3.1496632123970403
            ]
        },
        {
            "positions": [
                -2.556049910511043,
                -1.1321246244247403,
                1.9682198951239662,
                -0.8251766797891986,
                0.8533452853829686,
                -3.138570533995314
            ]
        },
        {
            "positions": [
                -2.638479318787473,
                -1.1007535615157211,
                1.9255714752574769,
                -0.8136506801581292,
                1.0320861810614872,
                -3.127477855593588
            ]
        },
        {
            "positions": [
                -2.720908727063903,
                -1.0693824986067022,
                1.8829230553909873,
                -0.8021246805270598,
                1.210827076740006,
                -3.1163851771918614
            ]
        },
        {
            "positions": [
                -2.8033381353403333,
                -1.0380114356976833,
                1.8402746355244977,
                -0.7905986808959903,
                1.3895679724185244,
                -3.105292498790135
            ]
        },
        {
            "positions": [
                -2.8857675436167636,
                -1.0066403727886644,
                1.7976262156580083,
                -0.7790726812649209,
                1.5683088680970432,
                -3.094199820388409
            ]
        },
        {
            "positions": [
                -2.968196951893194,
                -0.9752693098796453,
                1.7549777957915187,
                -0.7675466816338514,
                1.7470497637755618,
                -3.0831071419866825
            ]
        }
    ]
}