{
    "goal": {
        "global_pose": {
            "orientation": {
                "w": 0.005598929693374612,
                "x": 0.007748599140229565,
                "y": 0.7110244013736278,
                "z": -0.7031023480610252
            },
            "position": {
                "x": -0.8858502320852131,
                "y": -0.7141253447532654,
                "z": 0.3711530566215515
            }
        },
        "name": "move_to_auspresseinheit_C"
    },
    "id": "LBTRRT_move_to_auspresseinheit_C_140",
    "joint_names": [
        "shoulder_pan_joint",
        "shoulder_lift_joint",
        "elbow_joint",
        "wrist_1_joint",
        "wrist_2_joint",
        "wrist_3_joint"
    ],
    "metrics": {
        "cart_traj_len": 0.4930818518462985,
        "distance_elbow_joint": 1.001330579142718,
        "distance_shoulder_lift_joint": 0.32481581223533906,
        "distance_shoulder_pan_joint": 0.2559610458021351,
        "distance_wrist_1_joint": 0.6831162857663413,
        "distance_wrist_2_joint": 1.3117848904946832,
        "distance_wrist_3_joint": 0.05560374494818898,
        "smoothness": 8.074349268950106e-16,
        "time": 5.001724629,
        "traj_len": 1.9059413313083393,
        "weighted_distance": 2.3955627782520765
    },
    "planner": "LBTRRT",
    "start": {
        "state": {
            "elbow_joint": 1.7527959577737207,
            "shoulder_lift_joint": -0.9740617694225068,
            "shoulder_pan_joint": -2.967991417825858,
            "wrist_1_joint": -0.759517768980727,
            "wrist_2_joint": 1.7443932448377408,
            "wrist_3_joint": -3.0840537646736568
        }
    },
    "waypoints": [
        {
            "positions": [
                -2.967991417825858,
                -0.9740617694225068,
                1.7527959577737207,
                -0.759517768980727,
                1.7443932448377408,
                -3.0840537646736568
            ]
        },
        {
            "positions": [
                -2.9423953132456444,
                -0.9415801881989728,
                1.6526628998594488,
                -0.6912061404040929,
                1.6132147557882726,
                -3.0896141391684755
            ]
        },
        {
            "positions": [
                -2.916799208665431,
                -0.909098606975439,
                1.552529841945177,
                -0.6228945118274587,
                1.4820362667388043,
                -3.0951745136632947
            ]
        },
        {
            "positions": [
                -2.8912031040852173,
                -0.876617025751905,
                1.4523967840309053,
                -0.5545828832508246,
                1.350857777689336,
                -3.1007348881581134
            ]
        },
        {
            "positions": [
                -2.8656069995050037,
                -0.8441354445283711,
                1.3522637261166335,
                -0.48627125467419047,
                1.2196792886398675,
                -3.1062952626529325
            ]
        },
        {
            "positions": [
                -2.8400108949247906,
                -0.8116538633048372,
                1.2521306682023616,
                -0.4179596260975563,
                1.0885007995903992,
                -3.1118556371477513
            ]
        },
        {
            "positions": [
                -2.814414790344577,
                -0.7791722820813034,
                1.15199761028809,
                -0.3496479975209222,
                0.957322310540931,
                -3.11741601164257
            ]
        },
        {
            "positions": [
                -2.7888186857643635,
                -0.7466907008577695,
                1.051864552373818,
                -0.2813363689442881,
                0.8261438214914627,
                -3.122976386137389
            ]
        },
        {
            "positions": [
                -2.76322258118415,
                -0.7142091196342355,
                0.9517314944595462,
                -0.21302474036765395,
                0.6949653324419942,
                -3.128536760632208
            ]
        },
        {
            "positions": [
                -2.7376264766039364,
                -0.6817275384107016,
                0.8515984365452743,
                -0.14471311179101976,
                0.5637868433925259,
                -3.134097135127027
            ]
        },
        {
            "positions": [
                -2.712030372023723,
                -0.6492459571871677,
                0.7514653786310026,
                -0.07640148321438565,
                0.4326083543430577,
                -3.1396575096218458
            ]
        }
    ]
}