{
    "goal": {
        "global_pose": {
            "orientation": {
                "w": -0.4816463035849501,
                "x": 0.5182115481033762,
                "y": 0.4908360881923453,
                "z": -0.5084816262002911
            },
            "position": {
                "x": -0.8240239810943604,
                "y": 0.19912469901144506,
                "z": 0.16403168439865112
            }
        },
        "name": "move_to_storage_D"
    },
    "id": "LBTRRT_move_to_storage_D_52",
    "joint_names": [
        "shoulder_pan_joint",
        "shoulder_lift_joint",
        "elbow_joint",
        "wrist_1_joint",
        "wrist_2_joint",
        "wrist_3_joint"
    ],
    "metrics": {
        "cart_traj_len": 1.0312663767898065,
        "distance_elbow_joint": 0.5543915022893455,
        "distance_shoulder_lift_joint": 1.0326944468576311,
        "distance_shoulder_pan_joint": 0.350106850288547,
        "distance_wrist_1_joint": 3.8216854735118004,
        "distance_wrist_2_joint": 1.7923112220378947,
        "distance_wrist_3_joint": 3.120232350271191,
        "smoothness": 0.09349468039471782,
        "time": 5.050706106000001,
        "traj_len": 3.266714227669205,
        "weighted_distance": 4.746144039254234
    },
    "planner": "LBTRRT",
    "start": {
        "state": {
            "elbow_joint": -2.384821988534728,
            "shoulder_lift_joint": -2.2788054721415256,
            "shoulder_pan_joint": -0.1854694642142757,
            "wrist_1_joint": 1.4845938289331202,
            "wrist_2_joint": 0.17898776772866878,
            "wrist_3_joint": 0.037105688729662994
        }
    },
    "waypoints": [
        {
            "positions": [
                -0.1854694642142757,
                -2.2788054721415256,
                -2.384821988534728,
                1.4845938289331202,
                0.17898776772866878,
                0.037105688729662994
            ]
        },
        {
            "positions": [
                -0.16273240674968822,
                -2.2249492390845673,
                -2.3628251276606758,
                1.3996693094300796,
                0.10427356646568116,
                -0.08200607959139121
            ]
        },
        {
            "positions": [
                -0.13999534928510074,
                -2.171093006027609,
                -2.340828266786623,
                1.3147447899270388,
                0.029559365202693533,
                -0.2011178479124454
            ]
        },
        {
            "positions": [
                -0.11725829182051326,
                -2.117236772970651,
                -2.318831405912571,
                1.2298202704239982,
                -0.04515483606029405,
                -0.32022961623349955
            ]
        },
        {
            "positions": [
                -0.09452123435592577,
                -2.063380539913693,
                -2.2968345450385184,
                1.1448957509209576,
                -0.11986903732328172,
                -0.43934138455455385
            ]
        },
        {
            "positions": [
                -0.07178417689133829,
                -2.0095243068567346,
                -2.274837684164466,
                1.059971231417917,
                -0.19458323858626927,
                -0.5584531528756079
            ]
        },
        {
            "positions": [
                -0.0490471194267508,
                -1.9556680737997763,
                -2.2528408232904136,
                0.9750467119148764,
                -0.2692974398492569,
                -0.6775649211966621
            ]
        },
        {
            "positions": [
                -0.026310061962163317,
                -1.901811840742818,
                -2.2308439624163614,
                0.8901221924118357,
                -0.3440116411122446,
                -0.7966766895177164
            ]
        },
        {
            "positions": [
                -0.0035730044975758324,
                -1.8479556076858599,
                -2.208847101542309,
                0.805197672908795,
                -0.41872584237523225,
                -0.9157884578387706
            ]
        },
        {
            "positions": [
                0.019164052967011652,
                -1.7940993746289016,
                -2.1868502406682566,
                0.7202731534057544,
                -0.4934400436382198,
                -1.0349002261598248
            ]
        },
        {
            "positions": [
                0.04190111043159914,
                -1.7402431415719435,
                -2.164853379794204,
                0.6353486339027138,
                -0.5681542449012074,
                -1.1540119944808789
            ]
        },
        {
            "positions": [
                0.06463816789618664,
                -1.6863869085149852,
                -2.142856518920152,
                0.5504241143996731,
                -0.642868446164195,
                -1.2731237628019332
            ]
        },
        {
            "positions": [
                0.058755860944534596,
                -1.7122854898815199,
                -2.1244785169981064,
                0.38057024622447583,
                -0.6999540348786086,
                -1.379594521551321
            ]
        },
        {
            "positions": [
                0.05287355399288256,
                -1.7381840712480547,
                -2.1061005150760614,
                0.21071637804927856,
                -0.7570396235930222,
                -1.486065280300709
            ]
        },
        {
            "positions": [
                0.04699124704123052,
                -1.7640826526145894,
                -2.087722513154016,
                0.04086250987408124,
                -0.8141252123074358,
                -1.5925360390500969
            ]
        },
        {
            "positions": [
                0.04110894008957849,
                -1.789981233981124,
                -2.0693445112319706,
                -0.12899135830111597,
                -0.8712108010218494,
                -1.699006797799485
            ]
        },
        {
            "positions": [
                0.03522663313792645,
                -1.815879815347659,
                -2.0509665093099256,
                -0.2988452264763133,
                -0.928296389736263,
                -1.8054775565488728
            ]
        },
        {
            "positions": [
                0.02934432618627441,
                -1.8417783967141936,
                -2.03258850738788,
                -0.4686990946515106,
                -0.9853819784506767,
                -1.9119483152982606
            ]
        },
        {
            "positions": [
                0.023462019234622378,
                -1.8676769780807283,
                -2.014210505465835,
                -0.6385529628267077,
                -1.0424675671650903,
                -2.0184190740476486
            ]
        },
        {
            "positions": [
                0.01757971228297034,
                -1.8935755594472632,
                -1.9958325035437898,
                -0.808406831001905,
                -1.0995531558795038,
                -2.1248898327970362
            ]
        },
        {
            "positions": [
                0.0116974053313183,
                -1.9194741408137979,
                -1.9774545016217444,
                -0.9782606991771023,
                -1.1566387445939175,
                -2.2313605915464247
            ]
        },
        {
            "positions": [
                0.005815098379666261,
                -1.9453727221803327,
                -1.9590764996996992,
                -1.1481145673522997,
                -1.2137243333083312,
                -2.3378313502958123
            ]
        },
        {
            "positions": [
                -6.720857198577734e-05,
                -1.9712713035468674,
                -1.940698497777654,
                -1.317968435527497,
                -1.2708099220227447,
                -2.4443021090452004
            ]
        },
        {
            "positions": [
                -0.005949515523637816,
                -1.997169884913402,
                -1.9223204958556086,
                -1.4878223037026943,
                -1.3278955107371582,
                -2.5507728677945884
            ]
        },
        {
            "positions": [
                -0.011831822475289841,
                -2.0230684662799368,
                -1.9039424939335634,
                -1.6576761718778912,
                -1.3849810994515719,
                -2.657243626543976
            ]
        },
        {
            "positions": [
                -0.01771412942694188,
                -2.0489670476464714,
                -1.8855644920115182,
                -1.8275300400530885,
                -1.4420666881659856,
                -2.7637143852933637
            ]
        },
        {
            "positions": [
                -0.02359643637859392,
                -2.0748656290130065,
                -1.8671864900894728,
                -1.9973839082282858,
                -1.499152276880399,
                -2.870185144042752
            ]
        },
        {
            "positions": [
                -0.029478743330245957,
                -2.100764210379541,
                -1.8488084881674276,
                -2.167237776403483,
                -1.5562378655948126,
                -2.9766559027921398
            ]
        },
        {
            "positions": [
                -0.03536105028189799,
                -2.126662791746076,
                -1.8304304862453824,
                -2.3370916445786807,
                -1.6133234543092263,
                -3.083126661541528
            ]
        }
    ]
}