{
    "goal": {
        "global_pose": {
            "orientation": {
                "w": 0.7047431493862688,
                "x": -0.7094548369677653,
                "y": 0.0024358444001904,
                "z": -0.0022348060817251984
            },
            "position": {
                "x": -0.39052492380142206,
                "y": 0.3671506643295288,
                "z": 0.19426114857196808
            }
        },
        "name": "move_to_magneteinheit_D"
    },
    "id": "LBTRRT_move_to_magneteinheit_D_39",
    "joint_names": [
        "shoulder_pan_joint",
        "shoulder_lift_joint",
        "elbow_joint",
        "wrist_1_joint",
        "wrist_2_joint",
        "wrist_3_joint"
    ],
    "metrics": {
        "cart_traj_len": 3.964281379306327,
        "distance_elbow_joint": 3.106390164581085,
        "distance_shoulder_lift_joint": 1.0998721020863327,
        "distance_shoulder_pan_joint": 2.8281110247546493,
        "distance_wrist_1_joint": 2.1731137489158225,
        "distance_wrist_2_joint": 2.012427944464683,
        "distance_wrist_3_joint": 6.316179074195022,
        "smoothness": 0.11316247993538239,
        "time": 5.0448035639999995,
        "traj_len": 4.187611975696602,
        "weighted_distance": 5.8612280198579665
    },
    "planner": "LBTRRT",
    "start": {
        "state": {
            "elbow_joint": 0.749534889911806,
            "shoulder_lift_joint": -0.6476975780787326,
            "shoulder_pan_joint": -2.711696901376241,
            "wrist_1_joint": -0.07506478083263063,
            "wrist_2_joint": 0.43296659715538205,
            "wrist_3_joint": -3.14703540197715
        }
    },
    "waypoints": [
        {
            "positions": [
                -2.711696901376241,
                -0.6476975780787326,
                0.749534889911806,
                -0.07506478083263063,
                0.43296659715538205,
                -3.14703540197715
            ]
        },
        {
            "positions": [
                -2.708918302999757,
                -0.6654007490208472,
                0.7181556755791679,
                -0.08666832583207673,
                0.44236224604514296,
                -3.1144664077149544
            ]
        },
        {
            "positions": [
                -2.701701202850624,
                -0.7032887371389507,
                0.6473764940712943,
                -0.11364749347317274,
                0.4638916963360977,
                -3.0397242692254434
            ]
        },
        {
            "positions": [
                -2.694484102701492,
                -0.7411767252570542,
                0.5765973125634207,
                -0.14062666111426875,
                0.48542114662705244,
                -2.9649821307359323
            ]
        },
        {
            "positions": [
                -2.6686270388877276,
                -0.779236037809516,
                0.466292553623431,
                -0.19243078332262203,
                0.5201388342469291,
                -2.8306802012118504
            ]
        },
        {
            "positions": [
                -2.6427699750739633,
                -0.8172953503619779,
                0.3559877946834414,
                -0.24423490553097532,
                0.5548565218668058,
                -2.696378271687768
            ]
        },
        {
            "positions": [
                -2.616912911260199,
                -0.8553546629144396,
                0.24568303574345174,
                -0.29603902773932855,
                0.5895742094866824,
                -2.562076342163686
            ]
        },
        {
            "positions": [
                -2.5910558474464347,
                -0.8934139754669014,
                0.13537827680346204,
                -0.34784314994768184,
                0.624291897106559,
                -2.4277744126396037
            ]
        },
        {
            "positions": [
                -2.5651987836326704,
                -0.9314732880193632,
                0.02507351786347234,
                -0.3996472721560351,
                0.6590095847264357,
                -2.2934724831155218
            ]
        },
        {
            "positions": [
                -2.539341719818906,
                -0.969532600571825,
                -0.08523124107651725,
                -0.4514513943643884,
                0.6937272723463124,
                -2.1591705535914394
            ]
        },
        {
            "positions": [
                -2.513484656005142,
                -1.0075919131242868,
                -0.19553600001650695,
                -0.5032555165727417,
                0.728444959966189,
                -2.0248686240673575
            ]
        },
        {
            "positions": [
                -2.4876275921913775,
                -1.0456512256767485,
                -0.30584075895649665,
                -0.555059638781095,
                0.7631626475860656,
                -1.8905666945432753
            ]
        },
        {
            "positions": [
                -2.4617705283776132,
                -1.0837105382292103,
                -0.41614551789648624,
                -0.6068637609894483,
                0.7978803352059423,
                -1.7562647650191934
            ]
        },
        {
            "positions": [
                -2.435913464563849,
                -1.1217698507816722,
                -0.526450276836476,
                -0.6586678831978015,
                0.832598022825819,
                -1.621962835495111
            ]
        },
        {
            "positions": [
                -2.4100564007500846,
                -1.159829163334134,
                -0.6367550357764655,
                -0.7104720054061548,
                0.8673157104456956,
                -1.487660905971029
            ]
        },
        {
            "positions": [
                -2.3841993369363204,
                -1.1978884758865957,
                -0.7470597947164552,
                -0.762276127614508,
                0.9020333980655721,
                -1.3533589764469467
            ]
        },
        {
            "positions": [
                -2.358342273122556,
                -1.2359477884390575,
                -0.8573645536564449,
                -0.8140802498228614,
                0.9367510856854488,
                -1.2190570469228648
            ]
        },
        {
            "positions": [
                -2.292183266168261,
                -1.2380901738869687,
                -0.9399012586811695,
                -0.8737661174709227,
                0.9507556503962032,
                -1.068741713321351
            ]
        },
        {
            "positions": [
                -2.226024259213966,
                -1.2402325593348797,
                -1.022437963705894,
                -0.9334519851189839,
                0.9647602151069578,
                -0.9184263797198373
            ]
        },
        {
            "positions": [
                -2.159865252259671,
                -1.242374944782791,
                -1.1049746687306186,
                -0.9931378527670451,
                0.9787647798177121,
                -0.7681110461183236
            ]
        },
        {
            "positions": [
                -2.093706245305376,
                -1.244517330230702,
                -1.187511373755343,
                -1.0528237204151063,
                0.9927693445284665,
                -0.6177957125168099
            ]
        },
        {
            "positions": [
                -2.027547238351081,
                -1.2466597156786132,
                -1.2700480787800676,
                -1.1125095880631677,
                1.006773909239221,
                -0.46748037891529615
            ]
        },
        {
            "positions": [
                -1.9613882313967859,
                -1.2488021011265242,
                -1.352584783804792,
                -1.1721954557112286,
                1.0207784739499755,
                -0.3171650453137824
            ]
        },
        {
            "positions": [
                -1.8952292244424909,
                -1.2509444865744355,
                -1.4351214888295165,
                -1.23188132335929,
                1.0347830386607297,
                -0.1668497117122687
            ]
        },
        {
            "positions": [
                -1.8290702174881959,
                -1.2530868720223467,
                -1.517658193854241,
                -1.2915671910073512,
                1.0487876033714842,
                -0.016534378110754977
            ]
        },
        {
            "positions": [
                -1.7629112105339009,
                -1.2552292574702577,
                -1.6001948988789656,
                -1.3512530586554126,
                1.0627921680822388,
                0.13378095549075875
            ]
        },
        {
            "positions": [
                -1.6967522035796057,
                -1.257371642918169,
                -1.6827316039036901,
                -1.4109389263034737,
                1.0767967327929933,
                0.28409628909227247
            ]
        },
        {
            "positions": [
                -1.6305931966253109,
                -1.25951402836608,
                -1.7652683089284147,
                -1.470624793951535,
                1.0908012975037475,
                0.4344116226937862
            ]
        },
        {
            "positions": [
                -1.5644341896710157,
                -1.2616564138139912,
                -1.8478050139531392,
                -1.530310661599596,
                1.104805862214502,
                0.5847269562952999
            ]
        },
        {
            "positions": [
                -1.4982751827167207,
                -1.2637987992619022,
                -1.9303417189778638,
                -1.5899965292476574,
                1.1188104269252563,
                0.7350422898968136
            ]
        },
        {
            "positions": [
                -1.4321161757624257,
                -1.2659411847098134,
                -2.0128784240025883,
                -1.6496823968957186,
                1.1328149916360108,
                0.8853576234983274
            ]
        },
        {
            "positions": [
                -1.3457077747621469,
                -1.269059797475394,
                -2.0335527488203358,
                -1.687090306640795,
                1.0936186316285639,
                0.9998944419547987
            ]
        },
        {
            "positions": [
                -1.259299373761868,
                -1.2721784102409746,
                -2.054227073638083,
                -1.7244982163858715,
                1.054422271621117,
                1.11443126041127
            ]
        },
        {
            "positions": [
                -1.1650785136205477,
                -1.2913014253567925,
                -2.0757079303823676,
                -1.7630267985562442,
                0.9943840631237834,
                1.2475875133975416
            ]
        },
        {
            "positions": [
                -1.0708576534792271,
                -1.3104244404726104,
                -2.0971887871266515,
                -1.8015553807266171,
                0.9343458546264498,
                1.3807437663838131
            ]
        },
        {
            "positions": [
                -0.9766367933379067,
                -1.3295474555884284,
                -2.118669643870936,
                -1.8400839628969898,
                0.8743076461291163,
                1.5139000193700847
            ]
        },
        {
            "positions": [
                -0.8824159331965862,
                -1.3486704707042463,
                -2.14015050061522,
                -1.8786125450673627,
                0.8142694376317827,
                1.6470562723563562
            ]
        },
        {
            "positions": [
                -0.7881950730552657,
                -1.3677934858200642,
                -2.161631357359504,
                -1.9171411272377354,
                0.7542312291344491,
                1.780212525342628
            ]
        },
        {
            "positions": [
                -0.6939742129139452,
                -1.3869165009358821,
                -2.1831122141037884,
                -1.9556697094081084,
                0.6941930206371156,
                1.9133687783288995
            ]
        },
        {
            "positions": [
                -0.5997533527726249,
                -1.4060395160516999,
                -2.2045930708480728,
                -1.994198291578481,
                0.634154812139782,
                2.046525031315171
            ]
        },
        {
            "positions": [
                -0.5055324926313043,
                -1.4251625311675178,
                -2.226073927592357,
                -2.032726873748854,
                0.5741166036424484,
                2.1796812843014424
            ]
        },
        {
            "positions": [
                -0.4113116324899839,
                -1.4442855462833357,
                -2.247554784336641,
                -2.0712554559192267,
                0.5140783951451149,
                2.312837537287714
            ]
        },
        {
            "positions": [
                -0.31709077234866334,
                -1.4634085613991537,
                -2.2690356410809254,
                -2.1097840380895994,
                0.45404018664778134,
                2.445993790273986
            ]
        },
        {
            "positions": [
                -0.22286991220734298,
                -1.4825315765149716,
                -2.2905164978252097,
                -2.148312620259972,
                0.3940019781504478,
                2.5791500432602574
            ]
        },
        {
            "positions": [
                -0.1286490520660224,
                -1.5016545916307895,
                -2.3119973545694936,
                -2.186841202430345,
                0.33396376965311425,
                2.712306296246529
            ]
        },
        {
            "positions": [
                -0.03442819192470205,
                -1.5207776067466074,
                -2.333478211313778,
                -2.225369784600718,
                0.27392556115578065,
                2.8454625492328005
            ]
        },
        {
            "positions": [
                -0.07213877075047982,
                -1.5774756251012219,
                -2.3393224771526535,
                -2.219667598313784,
                0.1605030312798248,
                2.926382829979069
            ]
        },
        {
            "positions": [
                -0.1098493495762576,
                -1.6341736434558363,
                -2.3451667429915286,
                -2.21396541202685,
                0.04708050140386891,
                3.0073031107253376
            ]
        },
        {
            "positions": [
                -0.14755992840203536,
                -1.690871661810451,
                -2.351011008830404,
                -2.208263225739916,
                -0.06634202847208698,
                3.0882233914716064
            ]
        },
        {
            "positions": [
                -0.18527050722781313,
                -1.7475696801650653,
                -2.3568552746692797,
                -2.2025610394529824,
                -0.17976455834804284,
                3.1691436722178747
            ]
        }
    ]
}