{
    "goal": {
        "global_pose": {
            "orientation": {
                "w": 0.7031023502349854,
                "x": -0.7110244035720825,
                "y": 0.007748599164187908,
                "z": 0.005598929710686207
            },
            "position": {
                "x": 0.11585023208521307,
                "y": 0.44412534475326537,
                "z": 0.3711530566215515
            }
        },
        "name": "move_to_auspresseinheit_A"
    },
    "id": "LBTRRT_move_to_auspresseinheit_A_18",
    "joint_names": [
        "shoulder_pan_joint",
        "shoulder_lift_joint",
        "elbow_joint",
        "wrist_1_joint",
        "wrist_2_joint",
        "wrist_3_joint"
    ],
    "metrics": {
        "cart_traj_len": 0.6580372433386374,
        "distance_elbow_joint": 0.3149800331136139,
        "distance_shoulder_lift_joint": 0.5320155794551278,
        "distance_shoulder_pan_joint": 1.048994062984253,
        "distance_wrist_1_joint": 0.5766103540322989,
        "distance_wrist_2_joint": 1.1551075002363735,
        "distance_wrist_3_joint": 0.11888687232257222,
        "smoothness": 0.8072688248090654,
        "time": 5.0134126100000005,
        "traj_len": 1.9356121517866742,
        "weighted_distance": 2.39083374600955
    },
    "planner": "LBTRRT",
    "start": {
        "state": {
            "elbow_joint": 2.4225746658250005,
            "shoulder_lift_joint": -1.3736534386056498,
            "shoulder_pan_joint": -0.3378633547517467,
            "wrist_1_joint": -1.0288598680537169,
            "wrist_2_joint": 1.233022673432363,
            "wrist_3_joint": -3.0940220416140027
        }
    },
    "waypoints": [
        {
            "positions": [
                -0.3378633547517467,
                -1.3736534386056498,
                2.4225746658250005,
                -1.0288598680537169,
                1.233022673432363,
                -3.0940220416140027
            ]
        },
        {
            "positions": [
                -0.2218584598947041,
                -1.4586663306910557,
                2.4507406006126327,
                -0.9656261006723825,
                1.2974588156260212,
                -3.087482921010624
            ]
        },
        {
            "positions": [
                -0.10585356503766144,
                -1.5436792227764617,
                2.4789065354002644,
                -0.9023923332910482,
                1.3618949578196793,
                -3.0809438004072454
            ]
        },
        {
            "positions": [
                0.01015132981938116,
                -1.6286921148618676,
                2.5070724701878966,
                -0.8391585659097139,
                1.4263311000133376,
                -3.0744046798038664
            ]
        },
        {
            "positions": [
                0.12615622467642384,
                -1.7137050069472735,
                2.5352384049755283,
                -0.7759247985283795,
                1.4907672422069957,
                -3.067865559200488
            ]
        },
        {
            "positions": [
                0.2421611195334665,
                -1.7987178990326793,
                2.5634043397631605,
                -0.7126910311470452,
                1.5552033844006539,
                -3.061326438597109
            ]
        },
        {
            "positions": [
                0.33595503727327447,
                -1.820108122838299,
                2.52857426792807,
                -0.6606027277219197,
                1.3886180265470374,
                -3.0785646924582446
            ]
        },
        {
            "positions": [
                0.4297489550130824,
                -1.8414983466439185,
                2.493744196092979,
                -0.6085144242967944,
                1.2220326686934206,
                -3.0958029463193806
            ]
        },
        {
            "positions": [
                0.5235428727528904,
                -1.8628885704495384,
                2.458914124257888,
                -0.5564261208716689,
                1.0554473108398041,
                -3.113041200180516
            ]
        },
        {
            "positions": [
                0.6173367904926983,
                -1.884278794255158,
                2.4240840524227973,
                -0.5043378174465434,
                0.8888619529861876,
                -3.130279454041652
            ]
        },
        {
            "positions": [
                0.7111307082325062,
                -1.9056690180607776,
                2.3892539805877067,
                -0.452249514021418,
                0.7222765951325711,
                -3.1475177079027876
            ]
        }
    ]
}