{
    "goal": {
        "global_pose": {
            "orientation": {
                "w": 0.7031023502349854,
                "x": -0.7110244035720825,
                "y": 0.007748599164187908,
                "z": 0.005598929710686207
            },
            "position": {
                "x": 0.11585023208521307,
                "y": 0.44412534475326537,
                "z": 0.3711530566215515
            }
        },
        "name": "move_to_auspresseinheit_A"
    },
    "id": "LBTRRT_move_to_auspresseinheit_A_24",
    "joint_names": [
        "shoulder_pan_joint",
        "shoulder_lift_joint",
        "elbow_joint",
        "wrist_1_joint",
        "wrist_2_joint",
        "wrist_3_joint"
    ],
    "metrics": {
        "cart_traj_len": 0.7033233784454735,
        "distance_elbow_joint": 0.39262343075361805,
        "distance_shoulder_lift_joint": 0.5640578317418772,
        "distance_shoulder_pan_joint": 1.047661045064448,
        "distance_wrist_1_joint": 0.5708815961402567,
        "distance_wrist_2_joint": 0.727588559619391,
        "distance_wrist_3_joint": 0.37970291723491734,
        "smoothness": 0.7087737225976999,
        "time": 5.011026437,
        "traj_len": 1.9189881137085003,
        "weighted_distance": 2.3959113862545065
    },
    "planner": "LBTRRT",
    "start": {
        "state": {
            "elbow_joint": 2.4225746658250005,
            "shoulder_lift_joint": -1.3736534386056498,
            "shoulder_pan_joint": -0.3378633547517467,
            "wrist_1_joint": -1.0288598680537169,
            "wrist_2_joint": 1.233022673432363,
            "wrist_3_joint": -3.0940220416140027
        }
    },
    "waypoints": [
        {
            "positions": [
                -0.3378633547517467,
                -1.3736534386056498,
                2.4225746658250005,
                -1.0288598680537169,
                1.233022673432363,
                -3.0940220416140027
            ]
        },
        {
            "positions": [
                -0.3076540966528048,
                -1.5110121916189279,
                2.467727411399779,
                -1.0249976389817534,
                1.2598717696533739,
                -3.1485031448270253
            ]
        },
        {
            "positions": [
                -0.27744483855386287,
                -1.6483709446322057,
                2.512880156974558,
                -1.0211354099097902,
                1.286720865874385,
                -3.202984248040048
            ]
        },
        {
            "positions": [
                -0.24723558045492092,
                -1.7857296976454837,
                2.5580329025493365,
                -1.0172731808378268,
                1.313569962095396,
                -3.25746535125307
            ]
        },
        {
            "positions": [
                -0.217026322355979,
                -1.9230884506587618,
                2.603185648124115,
                -1.0134109517658634,
                1.3404190583164068,
                -3.3119464544660926
            ]
        },
        {
            "positions": [
                -0.08462289197473899,
                -1.9209994764175096,
                2.5728981554877577,
                -0.9340634260726629,
                1.2518201762113572,
                -3.28883523955426
            ]
        },
        {
            "positions": [
                0.04778053840650101,
                -1.9189105021762574,
                2.5426106628514,
                -0.8547159003794624,
                1.1632212941063076,
                -3.2657240246424277
            ]
        },
        {
            "positions": [
                0.18018396878774104,
                -1.9168215279350052,
                2.5123231702150424,
                -0.7753683746862621,
                1.0746224120012582,
                -3.2426128097305953
            ]
        },
        {
            "positions": [
                0.31258739916898104,
                -1.9147325536937532,
                2.4820356775786845,
                -0.6960208489930615,
                0.9860235298962086,
                -3.2195015948187624
            ]
        },
        {
            "positions": [
                0.44499082955022107,
                -1.912643579452501,
                2.451748184942327,
                -0.6166733232998611,
                0.8974246477911589,
                -3.19639037990693
            ]
        },
        {
            "positions": [
                0.5773942599314611,
                -1.9105546052112488,
                2.421460692305969,
                -0.5373257976066607,
                0.8088257656861093,
                -3.1732791649950975
            ]
        },
        {
            "positions": [
                0.7097976903127011,
                -1.9084656309699966,
                2.3911731996696117,
                -0.45797827191346013,
                0.7202268835810597,
                -3.150167950083265
            ]
        }
    ]
}