{
    "goal": {
        "global_pose": {
            "orientation": {
                "w": 0.005598929693374612,
                "x": 0.007748599140229565,
                "y": 0.7110244013736278,
                "z": -0.7031023480610252
            },
            "position": {
                "x": 0.1141497679147869,
                "y": -0.7141253447532654,
                "z": 0.3711530566215515
            }
        },
        "name": "move_to_auspresseinheit_B"
    },
    "id": "LBTRRT_move_to_auspresseinheit_B_125",
    "joint_names": [
        "shoulder_pan_joint",
        "shoulder_lift_joint",
        "elbow_joint",
        "wrist_1_joint",
        "wrist_2_joint",
        "wrist_3_joint"
    ],
    "metrics": {
        "cart_traj_len": 0.564205446470339,
        "distance_elbow_joint": 0.06244334826085618,
        "distance_shoulder_lift_joint": 0.29397052587783956,
        "distance_shoulder_pan_joint": 0.5752411738677126,
        "distance_wrist_1_joint": 0.3231555068874553,
        "distance_wrist_2_joint": 0.9985861708851878,
        "distance_wrist_3_joint": 0.0038698294178165504,
        "smoothness": 5.075305255429287e-16,
        "time": 5.002522662,
        "traj_len": 1.5024202325570792,
        "weighted_distance": 1.893871139176355
    },
    "planner": "LBTRRT",
    "start": {
        "state": {
            "elbow_joint": 2.0193083361928714,
            "shoulder_lift_joint": -1.1220246554650708,
            "shoulder_pan_joint": -1.0952077554168747,
            "wrist_1_joint": -0.8559753972642168,
            "wrist_2_joint": 0.4759566250798843,
            "wrist_3_joint": -3.1240929996934557
        }
    },
    "waypoints": [
        {
            "positions": [
                -1.0952077554168747,
                -1.1220246554650708,
                2.0193083361928714,
                -0.8559753972642168,
                0.4759566250798843,
                -3.1240929996934557
            ]
        },
        {
            "positions": [
                -1.1910812843948269,
                -1.1710197431113774,
                2.0089011114827287,
                -0.8021161461163075,
                0.6423876535607489,
                -3.1234480281238195
            ]
        },
        {
            "positions": [
                -1.2869548133727788,
                -1.220014830757684,
                1.998493886772586,
                -0.7482568949683983,
                0.8088186820416134,
                -3.1228030565541833
            ]
        },
        {
            "positions": [
                -1.3828283423507308,
                -1.2690099184039907,
                1.9880866620624433,
                -0.6943976438204891,
                0.9752497105224782,
                -3.122158084984547
            ]
        },
        {
            "positions": [
                -1.478701871328683,
                -1.3180050060502972,
                1.9776794373523006,
                -0.64053839267258,
                1.1416807390033428,
                -3.1215131134149114
            ]
        },
        {
            "positions": [
                -1.5745754003066352,
                -1.3670000936966038,
                1.967272212642158,
                -0.5866791415246706,
                1.3081117674842075,
                -3.1208681418452753
            ]
        },
        {
            "positions": [
                -1.6704489292845872,
                -1.4159951813429104,
                1.9568649879320152,
                -0.5328198903767615,
                1.474542795965072,
                -3.120223170275639
            ]
        }
    ]
}