{
    "goal": {
        "global_pose": {
            "orientation": {
                "w": 0.005598929693374612,
                "x": 0.007748599140229565,
                "y": 0.7110244013736278,
                "z": -0.7031023480610252
            },
            "position": {
                "x": -0.8858502320852131,
                "y": -0.7141253447532654,
                "z": 0.3711530566215515
            }
        },
        "name": "move_to_auspresseinheit_C"
    },
    "id": "LBTRRT_move_to_auspresseinheit_C_98",
    "joint_names": [
        "shoulder_pan_joint",
        "shoulder_lift_joint",
        "elbow_joint",
        "wrist_1_joint",
        "wrist_2_joint",
        "wrist_3_joint"
    ],
    "metrics": {
        "cart_traj_len": 0.49434607364413574,
        "distance_elbow_joint": 1.0119379794963481,
        "distance_shoulder_lift_joint": 0.33081689005537085,
        "distance_shoulder_pan_joint": 0.2570460829958443,
        "distance_wrist_1_joint": 0.701652623606493,
        "distance_wrist_2_joint": 1.3111220971569297,
        "distance_wrist_3_joint": 0.08424672756422869,
        "smoothness": 1.6148698667872622e-16,
        "time": 5.006563476999999,
        "traj_len": 1.9227122511897652,
        "weighted_distance": 2.424477382193345
    },
    "planner": "LBTRRT",
    "start": {
        "state": {
            "elbow_joint": 1.7527959577737207,
            "shoulder_lift_joint": -0.9740617694225068,
            "shoulder_pan_joint": -2.967991417825858,
            "wrist_1_joint": -0.759517768980727,
            "wrist_2_joint": 1.7443932448377408,
            "wrist_3_joint": -3.0840537646736568
        }
    },
    "waypoints": [
        {
            "positions": [
                -2.967991417825858,
                -0.9740617694225068,
                1.7527959577737207,
                -0.759517768980727,
                1.7443932448377408,
                -3.0840537646736568
            ]
        },
        {
            "positions": [
                -2.9422868095262737,
                -0.9409800804169697,
                1.6516021598240858,
                -0.6893525066200776,
                1.613281035122048,
                -3.0924784374300796
            ]
        },
        {
            "positions": [
                -2.916582201226689,
                -0.9078983914114326,
                1.550408361874451,
                -0.6191872442594284,
                1.482168825406355,
                -3.1009031101865023
            ]
        },
        {
            "positions": [
                -2.8908775929271044,
                -0.8748167024058955,
                1.4492145639248162,
                -0.549021981898779,
                1.3510566156906618,
                -3.1093277829429256
            ]
        },
        {
            "positions": [
                -2.8651729846275202,
                -0.8417350134003584,
                1.3480207659751815,
                -0.47885671953812975,
                1.219944405974969,
                -3.1177524556993483
            ]
        },
        {
            "positions": [
                -2.839468376327936,
                -0.8086533243948213,
                1.2468269680255466,
                -0.40869145717748045,
                1.088832196259276,
                -3.126177128455771
            ]
        },
        {
            "positions": [
                -2.8137637680283514,
                -0.7755716353892843,
                1.1456331700759117,
                -0.33852619481683116,
                0.957719986543583,
                -3.134601801212194
            ]
        },
        {
            "positions": [
                -2.7880591597287667,
                -0.7424899463837472,
                1.044439372126277,
                -0.26836093245618187,
                0.8266077768278901,
                -3.1430264739686167
            ]
        },
        {
            "positions": [
                -2.7623545514291825,
                -0.7094082573782101,
                0.9432455741766421,
                -0.19819567009553252,
                0.695495567112197,
                -3.15145114672504
            ]
        },
        {
            "positions": [
                -2.7366499431295983,
                -0.676326568372673,
                0.8420517762270073,
                -0.12803040773488317,
                0.564383357396504,
                -3.1598758194814627
            ]
        },
        {
            "positions": [
                -2.7109453348300137,
                -0.6432448793671359,
                0.7408579782773727,
                -0.057865145374233984,
                0.43327114768081104,
                -3.1683004922378855
            ]
        }
    ]
}