{
    "goal": {
        "global_pose": {
            "orientation": {
                "w": -0.4816463035849501,
                "x": 0.5182115481033762,
                "y": 0.4908360881923453,
                "z": -0.5084816262002911
            },
            "position": {
                "x": -0.8240239810943604,
                "y": -0.300875300988555,
                "z": 0.16403168439865112
            }
        },
        "name": "move_to_storage_C"
    },
    "id": "LBTRRT_move_to_storage_C_59",
    "joint_names": [
        "shoulder_pan_joint",
        "shoulder_lift_joint",
        "elbow_joint",
        "wrist_1_joint",
        "wrist_2_joint",
        "wrist_3_joint"
    ],
    "metrics": {
        "cart_traj_len": 0.5760896808827779,
        "distance_elbow_joint": 0.2537483397254159,
        "distance_shoulder_lift_joint": 0.1883628474722433,
        "distance_shoulder_pan_joint": 0.49513131070712824,
        "distance_wrist_1_joint": 0.06685944058756754,
        "distance_wrist_2_joint": 1.0645459168468454,
        "distance_wrist_3_joint": 0.06113066916989984,
        "smoothness": 5.075305295617109e-16,
        "time": 5.003208912,
        "traj_len": 1.4593760737072197,
        "weighted_distance": 1.839414368836808
    },
    "planner": "LBTRRT",
    "start": {
        "state": {
            "elbow_joint": 2.010868314990456,
            "shoulder_lift_joint": -1.1634956873337592,
            "shoulder_pan_joint": -2.4736205022346125,
            "wrist_1_joint": -0.8367026794202681,
            "wrist_2_joint": 0.6746043897044499,
            "wrist_3_joint": -3.1496632123970403
        }
    },
    "waypoints": [
        {
            "positions": [
                -2.4736205022346125,
                -1.1634956873337592,
                2.010868314990456,
                -0.8367026794202681,
                0.6746043897044499,
                -3.1496632123970403
            ]
        },
        {
            "positions": [
                -2.5561423873524673,
                -1.1321018794217186,
                1.9685769250362197,
                -0.8255594393223402,
                0.8520287091789241,
                -3.1394747675353902
            ]
        },
        {
            "positions": [
                -2.6386642724703218,
                -1.1007080715096782,
                1.9262855350819839,
                -0.8144161992244122,
                1.0294530286533985,
                -3.12928632267374
            ]
        },
        {
            "positions": [
                -2.7211861575881766,
                -1.0693142635976376,
                1.883994145127748,
                -0.8032729591264843,
                1.2068773481278727,
                -3.1190978778120906
            ]
        },
        {
            "positions": [
                -2.8037080427060315,
                -1.037920455685597,
                1.841702755173512,
                -0.7921297190285564,
                1.384301667602347,
                -3.1089094329504405
            ]
        },
        {
            "positions": [
                -2.886229927823886,
                -1.0065266477735564,
                1.7994113652192758,
                -0.7809864789306284,
                1.5617259870768212,
                -3.0987209880887905
            ]
        },
        {
            "positions": [
                -2.9687518129417407,
                -0.9751328398615159,
                1.75711997526504,
                -0.7698432388327006,
                1.7391503065512952,
                -3.0885325432271404
            ]
        }
    ]
}