{
    "goal": {
        "global_pose": {
            "orientation": {
                "w": 0.005598929693374612,
                "x": 0.007748599140229565,
                "y": 0.7110244013736278,
                "z": -0.7031023480610252
            },
            "position": {
                "x": 0.1141497679147869,
                "y": -0.7141253447532654,
                "z": 0.3711530566215515
            }
        },
        "name": "move_to_auspresseinheit_B"
    },
    "id": "LBTRRT_move_to_auspresseinheit_B_132",
    "joint_names": [
        "shoulder_pan_joint",
        "shoulder_lift_joint",
        "elbow_joint",
        "wrist_1_joint",
        "wrist_2_joint",
        "wrist_3_joint"
    ],
    "metrics": {
        "cart_traj_len": 0.565586939199985,
        "distance_elbow_joint": 0.06273350280346435,
        "distance_shoulder_lift_joint": 0.2952523931205493,
        "distance_shoulder_pan_joint": 0.579560616868158,
        "distance_wrist_1_joint": 0.32757142908974146,
        "distance_wrist_2_joint": 0.9862285363789369,
        "distance_wrist_3_joint": 0.004083435074129227,
        "smoothness": 7.612957903237841e-16,
        "time": 5.004829826,
        "traj_len": 1.5018088804288576,
        "weighted_distance": 1.8914007372716963
    },
    "planner": "LBTRRT",
    "start": {
        "state": {
            "elbow_joint": 2.0193083361928714,
            "shoulder_lift_joint": -1.1220246554650708,
            "shoulder_pan_joint": -1.0952077554168747,
            "wrist_1_joint": -0.8559753972642168,
            "wrist_2_joint": 0.4759566250798843,
            "wrist_3_joint": -3.1240929996934557
        }
    },
    "waypoints": [
        {
            "positions": [
                -1.0952077554168747,
                -1.1220246554650708,
                2.0193083361928714,
                -0.8559753972642168,
                0.4759566250798843,
                -3.1240929996934557
            ]
        },
        {
            "positions": [
                -1.1918011915615676,
                -1.171233387651829,
                2.008852752392294,
                -0.8013801590825932,
                0.6403280478097071,
                -3.1247735722058105
            ]
        },
        {
            "positions": [
                -1.2883946277062606,
                -1.2204421198385873,
                1.9983971685917166,
                -0.7467849209009696,
                0.8046994705395298,
                -3.1254541447181654
            ]
        },
        {
            "positions": [
                -1.3849880638509537,
                -1.2696508520253453,
                1.9879415847911392,
                -0.6921896827193461,
                0.9690708932693528,
                -3.1261347172305203
            ]
        },
        {
            "positions": [
                -1.4815814999956465,
                -1.3188595842121036,
                1.977486000990562,
                -0.6375944445377225,
                1.1334423159991756,
                -3.126815289742875
            ]
        },
        {
            "positions": [
                -1.5781749361403397,
                -1.3680683163988618,
                1.9670304171899844,
                -0.5829992063560989,
                1.2978137387289985,
                -3.12749586225523
            ]
        },
        {
            "positions": [
                -1.6747683722850326,
                -1.41727704858562,
                1.956574833389407,
                -0.5284039681744753,
                1.4621851614588213,
                -3.128176434767585
            ]
        }
    ]
}