{
    "goal": {
        "global_pose": {
            "orientation": {
                "w": 0.005598929693374612,
                "x": 0.007748599140229565,
                "y": 0.7110244013736278,
                "z": -0.7031023480610252
            },
            "position": {
                "x": 0.1141497679147869,
                "y": -0.7141253447532654,
                "z": 0.3711530566215515
            }
        },
        "name": "move_to_auspresseinheit_B"
    },
    "id": "LBTRRT_move_to_auspresseinheit_B_41",
    "joint_names": [
        "shoulder_pan_joint",
        "shoulder_lift_joint",
        "elbow_joint",
        "wrist_1_joint",
        "wrist_2_joint",
        "wrist_3_joint"
    ],
    "metrics": {
        "cart_traj_len": 0.5656086217534328,
        "distance_elbow_joint": 0.06723962264204109,
        "distance_shoulder_lift_joint": 0.2938024315478811,
        "distance_shoulder_pan_joint": 0.5773884732770052,
        "distance_wrist_1_joint": 0.3405611034328676,
        "distance_wrist_2_joint": 0.9951029374224649,
        "distance_wrist_3_joint": 0.0028347735343796643,
        "smoothness": 2.5376526478085547e-16,
        "time": 5.002838203,
        "traj_len": 1.5089497479560543,
        "weighted_distance": 1.9021732123496882
    },
    "planner": "LBTRRT",
    "start": {
        "state": {
            "elbow_joint": 2.0193083361928714,
            "shoulder_lift_joint": -1.1220246554650708,
            "shoulder_pan_joint": -1.0952077554168747,
            "wrist_1_joint": -0.8559753972642168,
            "wrist_2_joint": 0.4759566250798843,
            "wrist_3_joint": -3.1240929996934557
        }
    },
    "waypoints": [
        {
            "positions": [
                -1.0952077554168747,
                -1.1220246554650708,
                2.0193083361928714,
                -0.8559753972642168,
                0.4759566250798843,
                -3.1240929996934557
            ]
        },
        {
            "positions": [
                -1.191439167629709,
                -1.1709917273897177,
                2.008101732419198,
                -0.7992152133587389,
                0.641807114650295,
                -3.1236205374377257
            ]
        },
        {
            "positions": [
                -1.287670579842543,
                -1.2199587993143646,
                1.9968951286455243,
                -0.7424550294532609,
                0.807657604220706,
                -3.1231480751819958
            ]
        },
        {
            "positions": [
                -1.3839019920553772,
                -1.2689258712390115,
                1.985688524871851,
                -0.6856948455477829,
                0.9735080937911167,
                -3.122675612926266
            ]
        },
        {
            "positions": [
                -1.4801334042682113,
                -1.3178929431636581,
                1.9744819210981774,
                -0.628934661642305,
                1.1393585833615276,
                -3.122203150670536
            ]
        },
        {
            "positions": [
                -1.5763648164810458,
                -1.366860015088305,
                1.9632753173245039,
                -0.5721744777368272,
                1.3052090729319383,
                -3.121730688414806
            ]
        },
        {
            "positions": [
                -1.6725962286938798,
                -1.415827087012952,
                1.9520687135508303,
                -0.5154142938313492,
                1.4710595625023493,
                -3.121258226159076
            ]
        }
    ]
}