{
    "goal": {
        "global_pose": {
            "orientation": {
                "w": -0.4816463035849501,
                "x": 0.5182115481033762,
                "y": 0.4908360881923453,
                "z": -0.5084816262002911
            },
            "position": {
                "x": -0.8240239810943604,
                "y": -0.300875300988555,
                "z": 0.16403168439865112
            }
        },
        "name": "move_to_storage_C"
    },
    "id": "LBTRRT_move_to_storage_C_87",
    "joint_names": [
        "shoulder_pan_joint",
        "shoulder_lift_joint",
        "elbow_joint",
        "wrist_1_joint",
        "wrist_2_joint",
        "wrist_3_joint"
    ],
    "metrics": {
        "cart_traj_len": 0.5774385409414337,
        "distance_elbow_joint": 0.25728680991973785,
        "distance_shoulder_lift_joint": 0.18988352670675135,
        "distance_shoulder_pan_joint": 0.4946266375014292,
        "distance_wrist_1_joint": 0.0721724852442791,
        "distance_wrist_2_joint": 1.0745147907089603,
        "distance_wrist_3_joint": 0.0700473459335007,
        "smoothness": 2.5376526478085547e-16,
        "time": 5.003044545,
        "traj_len": 1.4691941995579272,
        "weighted_distance": 1.85615558718414
    },
    "planner": "LBTRRT",
    "start": {
        "state": {
            "elbow_joint": 2.010868314990456,
            "shoulder_lift_joint": -1.1634956873337592,
            "shoulder_pan_joint": -2.4736205022346125,
            "wrist_1_joint": -0.8367026794202681,
            "wrist_2_joint": 0.6746043897044499,
            "wrist_3_joint": -3.1496632123970403
        }
    },
    "waypoints": [
        {
            "positions": [
                -2.4736205022346125,
                -1.1634956873337592,
                2.010868314990456,
                -0.8367026794202681,
                0.6746043897044499,
                -3.1496632123970403
            ]
        },
        {
            "positions": [
                -2.5560582751515173,
                -1.131848432882634,
                1.9679871800038329,
                -0.824673931879555,
                0.8536901881559433,
                -3.1379886547414566
            ]
        },
        {
            "positions": [
                -2.638496048068422,
                -1.1002011784315087,
                1.92510604501721,
                -0.8126451843388417,
                1.0327759866074366,
                -3.1263140970858734
            ]
        },
        {
            "positions": [
                -2.7209338209853273,
                -1.0685539239803834,
                1.8822249100305868,
                -0.8006164367981286,
                1.2118617850589302,
                -3.11463953943029
            ]
        },
        {
            "positions": [
                -2.803371593902232,
                -1.0369066695292584,
                1.8393437750439638,
                -0.7885876892574154,
                1.3909475835104232,
                -3.1029649817747065
            ]
        },
        {
            "positions": [
                -2.885809366819137,
                -1.005259415078133,
                1.796462640057341,
                -0.7765589417167021,
                1.5700333819619168,
                -3.091290424119123
            ]
        },
        {
            "positions": [
                -2.9682471397360417,
                -0.9736121606270078,
                1.753581505070718,
                -0.764530194175989,
                1.74911918041341,
                -3.0796158664635396
            ]
        }
    ]
}