{
    "goal": {
        "global_pose": {
            "orientation": {
                "w": 0.5084816262002911,
                "x": -0.4908360881923452,
                "y": 0.5182115481033761,
                "z": -0.48164630358495003
            },
            "position": {
                "x": 0.5540239810943604,
                "y": -0.46912469901144505,
                "z": 0.16403168439865112
            }
        },
        "name": "move_to_storage_B"
    },
    "id": "LBTRRT_move_to_storage_B_141",
    "joint_names": [
        "shoulder_pan_joint",
        "shoulder_lift_joint",
        "elbow_joint",
        "wrist_1_joint",
        "wrist_2_joint",
        "wrist_3_joint"
    ],
    "metrics": {
        "cart_traj_len": 0.6099495082742739,
        "distance_elbow_joint": 0.349925731850222,
        "distance_shoulder_lift_joint": 0.4599669620585747,
        "distance_shoulder_pan_joint": 0.2319720450381474,
        "distance_wrist_1_joint": 2.9783339136052414,
        "distance_wrist_2_joint": 2.708981482463604,
        "distance_wrist_3_joint": 3.151626683937791,
        "smoothness": 0.027114847321741114,
        "time": 5.0465103319999995,
        "traj_len": 3.1433750681319563,
        "weighted_distance": 4.6766842509301405
    },
    "planner": "LBTRRT",
    "start": {
        "state": {
            "elbow_joint": 1.664937868594044,
            "shoulder_lift_joint": -0.661644460510453,
            "shoulder_pan_joint": -0.9139846352900073,
            "wrist_1_joint": 2.146753192139373,
            "wrist_2_joint": -2.2341966793290973,
            "wrist_3_joint": 0.005466555786416001
        }
    },
    "waypoints": [
        {
            "positions": [
                -0.9139846352900073,
                -0.661644460510453,
                1.664937868594044,
                2.146753192139373,
                -2.2341966793290973,
                0.005466555786416001
            ]
        },
        {
            "positions": [
                -0.8888310109607591,
                -0.7037844600081558,
                1.6999225077046902,
                2.0293007007296806,
                -2.1092781760201245,
                -0.03965217579181548
            ]
        },
        {
            "positions": [
                -0.8974484451569632,
                -0.7211939167815254,
                1.713045053235506,
                1.9100973081381993,
                -2.001608885222015,
                -0.16909000714013045
            ]
        },
        {
            "positions": [
                -0.9060658793531674,
                -0.7386033735548951,
                1.7261675987663216,
                1.7908939155467183,
                -1.8939395944239052,
                -0.2985278384884454
            ]
        },
        {
            "positions": [
                -0.9146833135493715,
                -0.7560128303282647,
                1.7392901442971371,
                1.671690522955237,
                -1.7862703036257956,
                -0.4279656698367604
            ]
        },
        {
            "positions": [
                -0.9233007477455757,
                -0.7734222871016344,
                1.7524126898279528,
                1.552487130363756,
                -1.678601012827686,
                -0.5574035011850753
            ]
        },
        {
            "positions": [
                -0.9319181819417798,
                -0.7908317438750041,
                1.7655352353587686,
                1.4332837377722747,
                -1.5709317220295762,
                -0.6868413325333903
            ]
        },
        {
            "positions": [
                -0.9405356161379839,
                -0.8082412006483737,
                1.778657780889584,
                1.3140803451807934,
                -1.4632624312314666,
                -0.8162791638817053
            ]
        },
        {
            "positions": [
                -0.9491530503341881,
                -0.8256506574217434,
                1.7917803264203997,
                1.1948769525893121,
                -1.3555931404333568,
                -0.9457169952300203
            ]
        },
        {
            "positions": [
                -0.9577704845303922,
                -0.8430601141951131,
                1.8049028719512155,
                1.075673559997831,
                -1.2479238496352474,
                -1.0751548265783353
            ]
        },
        {
            "positions": [
                -0.9663879187265964,
                -0.8604695709684828,
                1.8180254174820312,
                0.9564701674063498,
                -1.1402545588371376,
                -1.2045926579266504
            ]
        },
        {
            "positions": [
                -0.9750053529228004,
                -0.8778790277418524,
                1.8311479630128469,
                0.8372667748148686,
                -1.032585268039028,
                -1.3340304892749653
            ]
        },
        {
            "positions": [
                -0.9836227871190046,
                -0.895288484515222,
                1.8442705085436624,
                0.7180633822233875,
                -0.9249159772409183,
                -1.4634683206232801
            ]
        },
        {
            "positions": [
                -0.9922402213152087,
                -0.9126979412885917,
                1.857393054074478,
                0.5988599896319062,
                -0.8172466864428087,
                -1.5929061519715952
            ]
        },
        {
            "positions": [
                -1.0008576555114128,
                -0.9301073980619614,
                1.8705155996052938,
                0.4796565970404252,
                -0.7095773956446991,
                -1.7223439833199101
            ]
        },
        {
            "positions": [
                -1.009475089707617,
                -0.9475168548353311,
                1.8836381451361093,
                0.3604532044489437,
                -0.6019081048465893,
                -1.8517818146682252
            ]
        },
        {
            "positions": [
                -1.0180925239038212,
                -0.9649263116087007,
                1.896760690666925,
                0.24124981185746264,
                -0.4942388140484799,
                -1.98121964601654
            ]
        },
        {
            "positions": [
                -1.0267099581000252,
                -0.9823357683820704,
                1.9098832361977407,
                0.12204641926598159,
                -0.3865695232503703,
                -2.110657477364855
            ]
        },
        {
            "positions": [
                -1.0353273922962294,
                -0.9997452251554401,
                1.9230057817285564,
                0.002843026674500315,
                -0.2789002324522605,
                -2.2400953087131703
            ]
        },
        {
            "positions": [
                -1.0439448264924336,
                -1.0171546819288098,
                1.9361283272593721,
                -0.11636036591698096,
                -0.17123094165415087,
                -2.369533140061485
            ]
        },
        {
            "positions": [
                -1.0525622606886376,
                -1.0345641387021793,
                1.9492508727901876,
                -0.23556375850846223,
                -0.06356165085604149,
                -2.4989709714098
            ]
        },
        {
            "positions": [
                -1.0611796948848418,
                -1.0519735954755491,
                1.9623734183210033,
                -0.3547671510999435,
                0.044107639942068566,
                -2.628408802758115
            ]
        },
        {
            "positions": [
                -1.069797129081046,
                -1.0693830522489187,
                1.975495963851819,
                -0.4739705436914248,
                0.15177693074017817,
                -2.75784663410643
            ]
        },
        {
            "positions": [
                -1.0784145632772502,
                -1.0867925090222883,
                1.9886185093826345,
                -0.5931739362829056,
                0.2594462215382878,
                -2.8872844654547447
            ]
        },
        {
            "positions": [
                -1.0870319974734541,
                -1.104201965795658,
                2.0017410549134502,
                -0.7123773288743869,
                0.3671155123363974,
                -3.01672229680306
            ]
        },
        {
            "positions": [
                -1.0956494316696583,
                -1.1216114225690277,
                2.014863600444266,
                -0.831580721465868,
                0.47478480313450677,
                -3.146160128151375
            ]
        }
    ]
}