{
    "goal": {
        "global_pose": {
            "orientation": {
                "w": 0.5084816262002911,
                "x": -0.4908360881923452,
                "y": 0.5182115481033761,
                "z": -0.48164630358495003
            },
            "position": {
                "x": 0.5540239810943604,
                "y": -0.46912469901144505,
                "z": 0.16403168439865112
            }
        },
        "name": "move_to_storage_B"
    },
    "id": "LBTRRT_move_to_storage_B_23",
    "joint_names": [
        "shoulder_pan_joint",
        "shoulder_lift_joint",
        "elbow_joint",
        "wrist_1_joint",
        "wrist_2_joint",
        "wrist_3_joint"
    ],
    "metrics": {
        "cart_traj_len": 1.0743440169543892,
        "distance_elbow_joint": 0.35382441956375654,
        "distance_shoulder_lift_joint": 0.459225447579503,
        "distance_shoulder_pan_joint": 0.9251893389284472,
        "distance_wrist_1_joint": 2.998559645988858,
        "distance_wrist_2_joint": 2.710217498831745,
        "distance_wrist_3_joint": 3.1404413070490773,
        "smoothness": 0.14248036674073783,
        "time": 5.030351962,
        "traj_len": 3.25383737423083,
        "weighted_distance": 4.751538426326798
    },
    "planner": "LBTRRT",
    "start": {
        "state": {
            "elbow_joint": 1.664937868594044,
            "shoulder_lift_joint": -0.661644460510453,
            "shoulder_pan_joint": -0.9139846352900073,
            "wrist_1_joint": 2.146753192139373,
            "wrist_2_joint": -2.2341966793290973,
            "wrist_3_joint": 0.005466555786416001
        }
    },
    "waypoints": [
        {
            "positions": [
                -0.9139846352900073,
                -0.661644460510453,
                1.664937868594044,
                2.146753192139373,
                -2.2341966793290973,
                0.005466555786416001
            ]
        },
        {
            "positions": [
                -0.8907060969673182,
                -0.6716897108987614,
                1.6634908435757945,
                2.1545495063918287,
                -2.227125210724509,
                0.05642554627143372
            ]
        },
        {
            "positions": [
                -0.8638680943093558,
                -0.692148078884631,
                1.6830037467329186,
                2.1242480514232795,
                -2.125027143615167,
                0.2410523095557453
            ]
        },
        {
            "positions": [
                -0.8370300916513935,
                -0.7126064468705008,
                1.7025166498900428,
                2.09394659645473,
                -2.022929076505825,
                0.42567907284005685
            ]
        },
        {
            "positions": [
                -0.8101920889934311,
                -0.7330648148563704,
                1.7220295530471672,
                2.0636451414861807,
                -1.9208310093964833,
                0.6103058361243684
            ]
        },
        {
            "positions": [
                -0.7833540863354688,
                -0.7535231828422401,
                1.7415424562042914,
                2.033343686517631,
                -1.8187329422871414,
                0.79493259940868
            ]
        },
        {
            "positions": [
                -0.7565160836775064,
                -0.7739815508281098,
                1.7610553593614156,
                2.003042231549082,
                -1.7166348751777996,
                0.9795593626929916
            ]
        },
        {
            "positions": [
                -0.729678081019544,
                -0.7944399188139795,
                1.7805682625185397,
                1.9727407765805323,
                -1.6145368080684577,
                1.1641861259773032
            ]
        },
        {
            "positions": [
                -0.7028400783615818,
                -0.8148982867998491,
                1.8000811656756641,
                1.942439321611983,
                -1.5124387409591158,
                1.3488128892616147
            ]
        },
        {
            "positions": [
                -0.6760020757036194,
                -0.8353566547857187,
                1.8195940688327883,
                1.9121378666434334,
                -1.4103406738497737,
                1.5334396525459264
            ]
        },
        {
            "positions": [
                -0.649164073045657,
                -0.8558150227715885,
                1.8391069719899125,
                1.8818364116748842,
                -1.308242606740432,
                1.718066415830238
            ]
        },
        {
            "positions": [
                -0.6223260703876947,
                -0.8762733907574581,
                1.8586198751470366,
                1.8515349567063348,
                -1.20614453963109,
                1.9026931791145496
            ]
        },
        {
            "positions": [
                -0.5954880677297323,
                -0.8967317587433278,
                1.878132778304161,
                1.8212335017377854,
                -1.104046472521748,
                2.087319942398861
            ]
        },
        {
            "positions": [
                -0.56865006507177,
                -0.9171901267291975,
                1.8976456814612852,
                1.790932046769236,
                -1.0019484054124062,
                2.2719467056831726
            ]
        },
        {
            "positions": [
                -0.5418120624138076,
                -0.9376484947150672,
                1.9171585846184094,
                1.7606305918006866,
                -0.8998503383030643,
                2.456573468967484
            ]
        },
        {
            "positions": [
                -0.5813132599889682,
                -0.9507357385275592,
                1.9242092741543302,
                1.5751417048617393,
                -0.8015738270312277,
                2.5058116399580563
            ]
        },
        {
            "positions": [
                -0.6208144575641287,
                -0.9638229823400513,
                1.9312599636902512,
                1.3896528179227923,
                -0.7032973157593911,
                2.555049810948628
            ]
        },
        {
            "positions": [
                -0.6603156551392892,
                -0.9769102261525433,
                1.938310653226172,
                1.204163930983845,
                -0.6050208044875547,
                2.6042879819392004
            ]
        },
        {
            "positions": [
                -0.6998168527144498,
                -0.9899974699650355,
                1.9453613427620928,
                1.018675044044898,
                -0.5067442932157181,
                2.6535261529297727
            ]
        },
        {
            "positions": [
                -0.7393180502896104,
                -1.0030847137775274,
                1.9524120322980136,
                0.8331861571059506,
                -0.4084677819438815,
                2.7027643239203445
            ]
        },
        {
            "positions": [
                -0.7788192478647709,
                -1.0161719575900194,
                1.9594627218339347,
                0.6476972701670034,
                -0.310191270672045,
                2.7520024949109168
            ]
        },
        {
            "positions": [
                -0.8183204454399314,
                -1.0292592014025117,
                1.9665134113698555,
                0.46220838322805613,
                -0.21191475940020843,
                2.8012406659014886
            ]
        },
        {
            "positions": [
                -0.857821643015092,
                -1.0423464452150037,
                1.9735641009057763,
                0.2767194962891091,
                -0.11363824812837198,
                2.850478836892061
            ]
        },
        {
            "positions": [
                -0.8973228405902525,
                -1.0554336890274958,
                1.9806147904416973,
                0.09123060935016158,
                -0.015361736856535302,
                2.899717007882633
            ]
        },
        {
            "positions": [
                -0.936824038165413,
                -1.0685209328399878,
                1.987665479977618,
                -0.09425827758878547,
                0.08291477441530126,
                2.948955178873205
            ]
        },
        {
            "positions": [
                -0.9763252357405736,
                -1.0816081766524799,
                1.994716169513539,
                -0.27974716452773274,
                0.18119128568713783,
                2.998193349863777
            ]
        },
        {
            "positions": [
                -1.015826433315734,
                -1.094695420464972,
                2.00176685904946,
                -0.4652360514666798,
                0.2794677969589743,
                3.0474315208543494
            ]
        },
        {
            "positions": [
                -1.0553276308908948,
                -1.107782664277464,
                2.0088175485853808,
                -0.6507249384056273,
                0.37774430823081095,
                3.0966696918449212
            ]
        },
        {
            "positions": [
                -1.0948288284660552,
                -1.120869908089956,
                2.0158682381213016,
                -0.8362138253445744,
                0.47602081950264746,
                3.1459078628354935
            ]
        }
    ]
}