{
    "goal": {
        "global_pose": {
            "orientation": {
                "w": 0.005598929693374612,
                "x": 0.007748599140229565,
                "y": 0.7110244013736278,
                "z": -0.7031023480610252
            },
            "position": {
                "x": 0.1141497679147869,
                "y": -0.7141253447532654,
                "z": 0.3711530566215515
            }
        },
        "name": "move_to_auspresseinheit_B"
    },
    "id": "LBTRRT_move_to_auspresseinheit_B_86",
    "joint_names": [
        "shoulder_pan_joint",
        "shoulder_lift_joint",
        "elbow_joint",
        "wrist_1_joint",
        "wrist_2_joint",
        "wrist_3_joint"
    ],
    "metrics": {
        "cart_traj_len": 0.5638781728885827,
        "distance_elbow_joint": 0.058965002554895785,
        "distance_shoulder_lift_joint": 0.2964280822080452,
        "distance_shoulder_pan_joint": 0.5776023922068363,
        "distance_wrist_1_joint": 0.31802937326466496,
        "distance_wrist_2_joint": 0.9876051716152787,
        "distance_wrist_3_joint": 0.010729350780044111,
        "smoothness": 5.075305255429287e-16,
        "time": 5.004037776,
        "traj_len": 1.4997864423409637,
        "weighted_distance": 1.891151135967138
    },
    "planner": "LBTRRT",
    "start": {
        "state": {
            "elbow_joint": 2.0193083361928714,
            "shoulder_lift_joint": -1.1220246554650708,
            "shoulder_pan_joint": -1.0952077554168747,
            "wrist_1_joint": -0.8559753972642168,
            "wrist_2_joint": 0.4759566250798843,
            "wrist_3_joint": -3.1240929996934557
        }
    },
    "waypoints": [
        {
            "positions": [
                -1.0952077554168747,
                -1.1220246554650708,
                2.0193083361928714,
                -0.8559753972642168,
                0.4759566250798843,
                -3.1240929996934557
            ]
        },
        {
            "positions": [
                -1.1914748207846806,
                -1.1714293358330783,
                2.0094808357670555,
                -0.802970501720106,
                0.6405574870157641,
                -3.1223047745634482
            ]
        },
        {
            "positions": [
                -1.2877418861524867,
                -1.2208340162010858,
                1.9996533353412396,
                -0.7499656061759952,
                0.8051583489516438,
                -3.120516549433441
            ]
        },
        {
            "positions": [
                -1.384008951520293,
                -1.2702386965690935,
                1.9898258349154236,
                -0.6969607106318843,
                0.9697592108875237,
                -3.118728324303434
            ]
        },
        {
            "positions": [
                -1.4802760168880988,
                -1.319643376937101,
                1.9799983344896075,
                -0.6439558150877736,
                1.1343600728234033,
                -3.1169400991734264
            ]
        },
        {
            "positions": [
                -1.5765430822559048,
                -1.3690480573051085,
                1.9701708340637916,
                -0.5909509195436626,
                1.2989609347592832,
                -3.115151874043419
            ]
        },
        {
            "positions": [
                -1.672810147623711,
                -1.418452737673116,
                1.9603433336379756,
                -0.5379460239995518,
                1.463561796695163,
                -3.1133636489134116
            ]
        }
    ]
}