{
    "goal": {
        "global_pose": {
            "orientation": {
                "w": 0.005598929693374612,
                "x": 0.007748599140229565,
                "y": 0.7110244013736278,
                "z": -0.7031023480610252
            },
            "position": {
                "x": -0.8858502320852131,
                "y": -0.7141253447532654,
                "z": 0.3711530566215515
            }
        },
        "name": "move_to_auspresseinheit_C"
    },
    "id": "LBTRRT_move_to_auspresseinheit_C_149",
    "joint_names": [
        "shoulder_pan_joint",
        "shoulder_lift_joint",
        "elbow_joint",
        "wrist_1_joint",
        "wrist_2_joint",
        "wrist_3_joint"
    ],
    "metrics": {
        "cart_traj_len": 0.4931070631618534,
        "distance_elbow_joint": 1.0127370711854147,
        "distance_shoulder_lift_joint": 0.3313427560711586,
        "distance_shoulder_pan_joint": 0.25574327367766436,
        "distance_wrist_1_joint": 0.7070407206764957,
        "distance_wrist_2_joint": 1.3115283662838757,
        "distance_wrist_3_joint": 0.08328726080828774,
        "smoothness": 3.2297397335745243e-16,
        "time": 5.002801796,
        "traj_len": 1.9239749085429614,
        "weighted_distance": 2.426277613398731
    },
    "planner": "LBTRRT",
    "start": {
        "state": {
            "elbow_joint": 1.7527959577737207,
            "shoulder_lift_joint": -0.9740617694225068,
            "shoulder_pan_joint": -2.967991417825858,
            "wrist_1_joint": -0.759517768980727,
            "wrist_2_joint": 1.7443932448377408,
            "wrist_3_joint": -3.0840537646736568
        }
    },
    "waypoints": [
        {
            "positions": [
                -2.967991417825858,
                -0.9740617694225068,
                1.7527959577737207,
                -0.759517768980727,
                1.7443932448377408,
                -3.0840537646736568
            ]
        },
        {
            "positions": [
                -2.9424170904580915,
                -0.9409274938153909,
                1.6515222506551792,
                -0.6888136969130774,
                1.6132404082093532,
                -3.0923824907544857
            ]
        },
        {
            "positions": [
                -2.916842763090325,
                -0.9077932182082751,
                1.5502485435366378,
                -0.6181096248454279,
                1.4820875715809656,
                -3.100711216835314
            ]
        },
        {
            "positions": [
                -2.8912684357225586,
                -0.8746589426011592,
                1.4489748364180963,
                -0.5474055527777782,
                1.3509347349525782,
                -3.109039942916143
            ]
        },
        {
            "positions": [
                -2.865694108354792,
                -0.8415246669940433,
                1.3477011292995549,
                -0.4767014807101287,
                1.2197818983241904,
                -3.117368668996972
            ]
        },
        {
            "positions": [
                -2.8401197809870258,
                -0.8083903913869275,
                1.2464274221810134,
                -0.40599740864247913,
                1.088629061695803,
                -3.1256973950778004
            ]
        },
        {
            "positions": [
                -2.8145454536192593,
                -0.7752561157798117,
                1.145153715062472,
                -0.33529333657482957,
                0.9574762250674155,
                -3.1340261211586293
            ]
        },
        {
            "positions": [
                -2.788971126251493,
                -0.7421218401726958,
                1.0438800079439305,
                -0.26458926450718,
                0.8263233884390279,
                -3.1423548472394582
            ]
        },
        {
            "positions": [
                -2.7633967988837265,
                -0.7089875645655799,
                0.9426063008253889,
                -0.1938851924395304,
                0.6951705518106401,
                -3.150683573320287
            ]
        },
        {
            "positions": [
                -2.73782247151596,
                -0.6758532889584641,
                0.8413325937068474,
                -0.12318112037188078,
                0.5640177151822527,
                -3.1590122994011156
            ]
        },
        {
            "positions": [
                -2.7122481441481936,
                -0.6427190133513482,
                0.740058886588306,
                -0.052477048304231264,
                0.432864878553865,
                -3.1673410254819445
            ]
        }
    ]
}