{
    "goal": {
        "global_pose": {
            "orientation": {
                "w": 0.5084816262002911,
                "x": -0.4908360881923452,
                "y": 0.5182115481033761,
                "z": -0.48164630358495003
            },
            "position": {
                "x": 0.5540239810943604,
                "y": -0.46912469901144505,
                "z": 0.16403168439865112
            }
        },
        "name": "move_to_storage_B"
    },
    "id": "LBTRRT_move_to_storage_B_129",
    "joint_names": [
        "shoulder_pan_joint",
        "shoulder_lift_joint",
        "elbow_joint",
        "wrist_1_joint",
        "wrist_2_joint",
        "wrist_3_joint"
    ],
    "metrics": {
        "cart_traj_len": 1.0862346148849273,
        "distance_elbow_joint": 0.8606889867652607,
        "distance_shoulder_lift_joint": 0.6445730861923897,
        "distance_shoulder_pan_joint": 0.5992739796852452,
        "distance_wrist_1_joint": 3.2416452181652375,
        "distance_wrist_2_joint": 2.7117501809723037,
        "distance_wrist_3_joint": 3.183998534491251,
        "smoothness": 0.9207891367591867,
        "time": 5.030206428,
        "traj_len": 3.3528987438143263,
        "weighted_distance": 4.854206676110086
    },
    "planner": "LBTRRT",
    "start": {
        "state": {
            "elbow_joint": 1.664937868594044,
            "shoulder_lift_joint": -0.661644460510453,
            "shoulder_pan_joint": -0.9139846352900073,
            "wrist_1_joint": 2.146753192139373,
            "wrist_2_joint": -2.2341966793290973,
            "wrist_3_joint": 0.005466555786416001
        }
    },
    "waypoints": [
        {
            "positions": [
                -0.9139846352900073,
                -0.661644460510453,
                1.664937868594044,
                2.146753192139373,
                -2.2341966793290973,
                0.005466555786416001
            ]
        },
        {
            "positions": [
                -0.9334945319812529,
                -0.6817458638379801,
                1.6993201162245477,
                1.9850090323405782,
                -2.1162343667914802,
                0.017447703896779295
            ]
        },
        {
            "positions": [
                -0.9530044286724985,
                -0.7018472671655072,
                1.7337023638550513,
                1.8232648725417833,
                -1.998272054253863,
                0.029428852007142587
            ]
        },
        {
            "positions": [
                -0.972514325363744,
                -0.7219486704930342,
                1.768084611485555,
                1.661520712742988,
                -1.880309741716246,
                0.04141000011750588
            ]
        },
        {
            "positions": [
                -0.9026659815314835,
                -0.7813276610835073,
                1.6832945375766384,
                1.703794595037037,
                -1.8149432079161845,
                0.10685534793174652
            ]
        },
        {
            "positions": [
                -0.832817637699223,
                -0.8407066516739804,
                1.5985044636677215,
                1.7460684773310862,
                -1.749576674116123,
                0.17230069574598716
            ]
        },
        {
            "positions": [
                -0.7629692938669624,
                -0.9000856422644534,
                1.5137143897588048,
                1.788342359625135,
                -1.6842101403160614,
                0.23774604356022783
            ]
        },
        {
            "positions": [
                -0.8132492434831783,
                -0.8816362221006014,
                1.588562836492634,
                1.6377278194271048,
                -1.6312057073722743,
                0.23376213018661782
            ]
        },
        {
            "positions": [
                -0.8635291930993941,
                -0.8631868019367495,
                1.6634112832264636,
                1.4871132792290744,
                -1.5782012744284872,
                0.2297782168130078
            ]
        },
        {
            "positions": [
                -0.9138091427156099,
                -0.8447373817728974,
                1.7382597299602929,
                1.336498739031044,
                -1.5251968414847004,
                0.22579430343939777
            ]
        },
        {
            "positions": [
                -0.9640890923318257,
                -0.8262879616090454,
                1.8131081766941224,
                1.1858841988330138,
                -1.4721924085409133,
                0.22181039006578776
            ]
        },
        {
            "positions": [
                -1.0143690419480416,
                -0.8078385414451934,
                1.8879566234279517,
                1.0352696586349834,
                -1.4191879755971262,
                0.21782647669217775
            ]
        },
        {
            "positions": [
                -1.018569016160339,
                -0.8243587942672529,
                1.8947424017688912,
                0.9365055327983227,
                -1.3193594767950034,
                0.37213171247372456
            ]
        },
        {
            "positions": [
                -1.022768990372636,
                -0.8408790470893123,
                1.901528180109831,
                0.8377414069616621,
                -1.2195309779928807,
                0.5264369482552713
            ]
        },
        {
            "positions": [
                -1.0269689645849334,
                -0.8573992999113718,
                1.9083139584507705,
                0.7389772811250014,
                -1.119702479190758,
                0.6807421840368182
            ]
        },
        {
            "positions": [
                -1.0311689387972305,
                -0.8739195527334311,
                1.91509973679171,
                0.6402131552883408,
                -1.0198739803886352,
                0.835047419818365
            ]
        },
        {
            "positions": [
                -1.0353689130095278,
                -0.8904398055554906,
                1.9218855151326497,
                0.54144902945168,
                -0.9200454815865123,
                0.9893526555999117
            ]
        },
        {
            "positions": [
                -1.039568887221825,
                -0.90696005837755,
                1.9286712934735892,
                0.44268490361501933,
                -0.8202169827843896,
                1.1436578913814586
            ]
        },
        {
            "positions": [
                -1.0437688614341223,
                -0.9234803111996095,
                1.935457071814529,
                0.3439207777783587,
                -0.7203884839822668,
                1.2979631271630054
            ]
        },
        {
            "positions": [
                -1.0479688356464196,
                -0.9400005640216689,
                1.9422428501554685,
                0.245156651941698,
                -0.6205599851801441,
                1.4522683629445523
            ]
        },
        {
            "positions": [
                -1.0521688098587167,
                -0.9565208168437284,
                1.949028628496408,
                0.14639252610503728,
                -0.5207314863780214,
                1.606573598726099
            ]
        },
        {
            "positions": [
                -1.056368784071014,
                -0.9730410696657877,
                1.9558144068373478,
                0.04762840026837667,
                -0.4209029875758985,
                1.7608788345076458
            ]
        },
        {
            "positions": [
                -1.0605687582833112,
                -0.9895613224878472,
                1.9626001851782873,
                -0.05113572556828405,
                -0.32107448877377576,
                1.9151840702891927
            ]
        },
        {
            "positions": [
                -1.0647687324956085,
                -1.0060815753099066,
                1.9693859635192268,
                -0.14989985140494477,
                -0.221245989971653,
                2.0694893060707393
            ]
        },
        {
            "positions": [
                -1.068968706707906,
                -1.022601828131966,
                1.9761717418601665,
                -0.2486639772416055,
                -0.12141749116953005,
                2.2237945418522864
            ]
        },
        {
            "positions": [
                -1.073168680920203,
                -1.0391220809540256,
                1.982957520201106,
                -0.347428103078266,
                -0.021588992367407522,
                2.378099777633833
            ]
        },
        {
            "positions": [
                -1.0773686551325004,
                -1.055642333776085,
                1.9897432985420458,
                -0.44619222891492694,
                0.07823950643471544,
                2.53240501341538
            ]
        },
        {
            "positions": [
                -1.0815686293447975,
                -1.0721625865981443,
                1.9965290768829853,
                -0.5449563547515874,
                0.17806800523683797,
                2.686710249196927
            ]
        },
        {
            "positions": [
                -1.0857686035570948,
                -1.088682839420204,
                2.003314855223925,
                -0.6437204805882482,
                0.27789650403896093,
                2.8410154849784734
            ]
        },
        {
            "positions": [
                -1.089968577769392,
                -1.1052030922422633,
                2.0101006335648646,
                -0.7424846064249089,
                0.37772500284108346,
                2.99532072076002
            ]
        },
        {
            "positions": [
                -1.0941685519816893,
                -1.1217233450643227,
                2.016886411905804,
                -0.8412487322615696,
                0.47755350164320653,
                3.149625956541567
            ]
        }
    ]
}