{
    "goal": {
        "global_pose": {
            "orientation": {
                "w": 0.7031023480610252,
                "x": -0.7110244013736278,
                "y": 0.0077485991402295624,
                "z": 0.005598929693374583
            },
            "position": {
                "x": -0.8841497679147869,
                "y": 0.44412534475326537,
                "z": 0.3711530566215515
            }
        },
        "name": "move_to_auspresseinheit_D"
    },
    "id": "LBTRRT_move_to_auspresseinheit_D_43",
    "joint_names": [
        "shoulder_pan_joint",
        "shoulder_lift_joint",
        "elbow_joint",
        "wrist_1_joint",
        "wrist_2_joint",
        "wrist_3_joint"
    ],
    "metrics": {
        "cart_traj_len": 0.34365568295489074,
        "distance_elbow_joint": 0.6526891152036365,
        "distance_shoulder_lift_joint": 0.12912924768843936,
        "distance_shoulder_pan_joint": 0.1330526073631408,
        "distance_wrist_1_joint": 0.5694127004409002,
        "distance_wrist_2_joint": 1.4426354014489486,
        "distance_wrist_3_joint": 0.028146590990850484,
        "smoothness": 0.0,
        "time": 5.00304954,
        "traj_len": 1.71903044276008,
        "weighted_distance": 2.2412958187190433
    },
    "planner": "LBTRRT",
    "start": {
        "state": {
            "elbow_joint": -1.8275523626775212,
            "shoulder_lift_joint": -2.126789852344167,
            "shoulder_pan_joint": -0.03513704404078235,
            "wrist_1_joint": -2.347782403156801,
            "wrist_2_joint": -1.6058999987535132,
            "wrist_3_joint": -3.0880379163319196
        }
    },
    "waypoints": [
        {
            "positions": [
                -0.03513704404078235,
                -2.126789852344167,
                -1.8275523626775212,
                -2.347782403156801,
                -1.6058999987535132,
                -3.0880379163319196
            ]
        },
        {
            "positions": [
                -0.05176861996117495,
                -2.1429310083052218,
                -1.7459662232770667,
                -2.4189589907119133,
                -1.4255705735723947,
                -3.0845195924580633
            ]
        },
        {
            "positions": [
                -0.06840019588156755,
                -2.1590721642662767,
                -1.664380083876612,
                -2.490135578267026,
                -1.245241148391276,
                -3.081001268584207
            ]
        },
        {
            "positions": [
                -0.08503177180196014,
                -2.1752133202273316,
                -1.5827939444761574,
                -2.5613121658221383,
                -1.0649117232101575,
                -3.0774829447103507
            ]
        },
        {
            "positions": [
                -0.10166334772235275,
                -2.1913544761883865,
                -1.501207805075703,
                -2.6324887533772507,
                -0.8845822980290389,
                -3.0739646208364944
            ]
        },
        {
            "positions": [
                -0.11829492364274535,
                -2.2074956321494414,
                -1.4196216656752485,
                -2.7036653409323637,
                -0.7042528728479203,
                -3.070446296962638
            ]
        },
        {
            "positions": [
                -0.13492649956313796,
                -2.2236367881104964,
                -1.3380355262747938,
                -2.774841928487476,
                -0.5239234476668018,
                -3.0669279730887817
            ]
        },
        {
            "positions": [
                -0.15155807548353056,
                -2.2397779440715513,
                -1.2564493868743392,
                -2.8460185160425886,
                -0.34359402248568305,
                -3.0634096492149254
            ]
        },
        {
            "positions": [
                -0.16818965140392317,
                -2.255919100032606,
                -1.1748632474738847,
                -2.917195103597701,
                -0.16326459730456447,
                -3.059891325341069
            ]
        }
    ]
}