{
    "goal": {
        "global_pose": {
            "orientation": {
                "w": 0.005598929693374612,
                "x": 0.007748599140229565,
                "y": 0.7110244013736278,
                "z": -0.7031023480610252
            },
            "position": {
                "x": 0.1141497679147869,
                "y": -0.7141253447532654,
                "z": 0.3711530566215515
            }
        },
        "name": "move_to_auspresseinheit_B"
    },
    "id": "LBTRRT_move_to_auspresseinheit_B_147",
    "joint_names": [
        "shoulder_pan_joint",
        "shoulder_lift_joint",
        "elbow_joint",
        "wrist_1_joint",
        "wrist_2_joint",
        "wrist_3_joint"
    ],
    "metrics": {
        "cart_traj_len": 0.5638895666093255,
        "distance_elbow_joint": 0.06192808685189144,
        "distance_shoulder_lift_joint": 0.2946691218543356,
        "distance_shoulder_pan_joint": 0.5774051414321468,
        "distance_wrist_1_joint": 0.32599400842330395,
        "distance_wrist_2_joint": 0.9869878743145521,
        "distance_wrist_3_joint": 0.0004748717708475958,
        "smoothness": 5.075305255429287e-16,
        "time": 5.006473731000001,
        "traj_len": 1.4991527956306114,
        "weighted_distance": 1.8871647333835562
    },
    "planner": "LBTRRT",
    "start": {
        "state": {
            "elbow_joint": 2.0193083361928714,
            "shoulder_lift_joint": -1.1220246554650708,
            "shoulder_pan_joint": -1.0952077554168747,
            "wrist_1_joint": -0.8559753972642168,
            "wrist_2_joint": 0.4759566250798843,
            "wrist_3_joint": -3.1240929996934557
        }
    },
    "waypoints": [
        {
            "positions": [
                -1.0952077554168747,
                -1.1220246554650708,
                2.0193083361928714,
                -0.8559753972642168,
                0.4759566250798843,
                -3.1240929996934557
            ]
        },
        {
            "positions": [
                -1.1914419456555658,
                -1.1711361757741268,
                2.0089869883842226,
                -0.8016430625269995,
                0.6404546041323096,
                -3.1240138543983145
            ]
        },
        {
            "positions": [
                -1.287676135894257,
                -1.2202476960831827,
                1.9986656405755743,
                -0.7473107277897821,
                0.8049525831847351,
                -3.1239347091031733
            ]
        },
        {
            "positions": [
                -1.383910326132948,
                -1.2693592163922385,
                1.9883442927669257,
                -0.6929783930525648,
                0.9694505622371603,
                -3.123855563808032
            ]
        },
        {
            "positions": [
                -1.4801445163716391,
                -1.3184707367012944,
                1.9780229449582771,
                -0.6386460583153475,
                1.1339485412895858,
                -3.1237764185128905
            ]
        },
        {
            "positions": [
                -1.5763787066103303,
                -1.3675822570103504,
                1.9677015971496286,
                -0.5843137235781302,
                1.298446520342011,
                -3.1236972732177493
            ]
        },
        {
            "positions": [
                -1.6726128968490215,
                -1.4166937773194064,
                1.95738024934098,
                -0.5299813888409128,
                1.4629444993944365,
                -3.123618127922608
            ]
        }
    ]
}