{
    "goal": {
        "global_pose": {
            "orientation": {
                "w": 0.7047431468963623,
                "x": -0.7094548344612122,
                "y": 0.0024358443915843964,
                "z": -0.0022348060738295317
            },
            "position": {
                "x": 0.6094750761985779,
                "y": 0.3671506643295288,
                "z": 0.19426114857196808
            }
        },
        "name": "move_to_magneteinheit_A"
    },
    "id": "LBTRRT_move_to_magneteinheit_A_106",
    "joint_names": [
        "shoulder_pan_joint",
        "shoulder_lift_joint",
        "elbow_joint",
        "wrist_1_joint",
        "wrist_2_joint",
        "wrist_3_joint"
    ],
    "metrics": {
        "cart_traj_len": 3.5011914445190198,
        "distance_elbow_joint": 3.877028275243097,
        "distance_shoulder_lift_joint": 0.3171970851093622,
        "distance_shoulder_pan_joint": 3.0109450863150973,
        "distance_wrist_1_joint": 2.0295970071461396,
        "distance_wrist_2_joint": 1.7336980357476373,
        "distance_wrist_3_joint": 2.5891646544490765,
        "smoothness": 0.1890244669072706,
        "time": 5.0398400819999996,
        "traj_len": 3.682068731570665,
        "weighted_distance": 4.743337906559297
    },
    "planner": "LBTRRT",
    "start": {
        "state": {
            "elbow_joint": -1.9196185241190666,
            "shoulder_lift_joint": -1.2443396400964142,
            "shoulder_pan_joint": 2.6996025414629847,
            "wrist_1_joint": -1.5485510000780065,
            "wrist_2_joint": -1.5709468930060704,
            "wrist_3_joint": 0.4420197071253992
        }
    },
    "waypoints": [
        {
            "positions": [
                2.6996025414629847,
                -1.2443396400964142,
                -1.9196185241190666,
                -1.5485510000780065,
                -1.5709468930060704,
                0.4420197071253992
            ]
        },
        {
            "positions": [
                2.572611056144968,
                -1.2345732591309635,
                -1.8241023973671122,
                -1.4835547653562355,
                -1.5032074272066998,
                0.4628630526486463
            ]
        },
        {
            "positions": [
                2.4456195708269513,
                -1.2248068781655126,
                -1.728586270615158,
                -1.4185585306344644,
                -1.4354679614073291,
                0.48370639817189337
            ]
        },
        {
            "positions": [
                2.3186280855089345,
                -1.215040497200062,
                -1.6330701438632036,
                -1.3535622959126934,
                -1.3677284956079583,
                0.5045497436951405
            ]
        },
        {
            "positions": [
                2.191636600190918,
                -1.2052741162346112,
                -1.5375540171112494,
                -1.2885660611909224,
                -1.2999890298085877,
                0.5253930892183876
            ]
        },
        {
            "positions": [
                2.0646451148729015,
                -1.1955077352691603,
                -1.442037890359295,
                -1.2235698264691515,
                -1.232249564009217,
                0.5462364347416346
            ]
        },
        {
            "positions": [
                1.9376536295548847,
                -1.1857413543037096,
                -1.3465217636073408,
                -1.1585735917473805,
                -1.1645100982098464,
                0.5670797802648818
            ]
        },
        {
            "positions": [
                1.810662144236868,
                -1.1759749733382587,
                -1.2510056368553863,
                -1.0935773570256093,
                -1.0967706324104758,
                0.5879231257881289
            ]
        },
        {
            "positions": [
                1.6836706589188513,
                -1.166208592372808,
                -1.1554895101034321,
                -1.0285811223038384,
                -1.0290311666111052,
                0.6087664713113761
            ]
        },
        {
            "positions": [
                1.5566791736008345,
                -1.1564422114073574,
                -1.0599733833514777,
                -0.9635848875820673,
                -0.9612917008117343,
                0.6296098168346231
            ]
        },
        {
            "positions": [
                1.429687688282818,
                -1.1466758304419065,
                -0.9644572565995234,
                -0.8985886528602963,
                -0.8935522350123638,
                0.6504531623578702
            ]
        },
        {
            "positions": [
                1.3026962029648013,
                -1.1369094494764558,
                -0.8689411298475691,
                -0.8335924181385252,
                -0.8258127692129931,
                0.6712965078811173
            ]
        },
        {
            "positions": [
                1.1757047176467847,
                -1.127143068511005,
                -0.7734250030956149,
                -0.7685961834167543,
                -0.7580733034136224,
                0.6921398534043643
            ]
        },
        {
            "positions": [
                1.0487132323287678,
                -1.1173766875455542,
                -0.6779088763436605,
                -0.7035999486949832,
                -0.6903338376142517,
                0.7129831989276116
            ]
        },
        {
            "positions": [
                0.9217217470107513,
                -1.1076103065801035,
                -0.5823927495917061,
                -0.6386037139732121,
                -0.6225943718148811,
                0.7338265444508587
            ]
        },
        {
            "positions": [
                0.7947302616927348,
                -1.0978439256146528,
                -0.48687662283975186,
                -0.5736074792514412,
                -0.5548549060155106,
                0.7546698899741058
            ]
        },
        {
            "positions": [
                0.6677387763747178,
                -1.088077544649202,
                -0.39136049608779744,
                -0.5086112445296702,
                -0.48711544021613973,
                0.7755132354973528
            ]
        },
        {
            "positions": [
                0.540747291056701,
                -1.0783111636837512,
                -0.29584436933584324,
                -0.44361500980789903,
                -0.4193759744167691,
                0.7963565810205999
            ]
        },
        {
            "positions": [
                0.4137558057386843,
                -1.0685447827183003,
                -0.20032824258388882,
                -0.37861877508612807,
                -0.35163650861739826,
                0.8171999265438471
            ]
        },
        {
            "positions": [
                0.286764320420668,
                -1.0587784017528497,
                -0.10481211583193462,
                -0.3136225403643571,
                -0.28389704281802763,
                0.8380432720670942
            ]
        },
        {
            "positions": [
                0.15977283510265128,
                -1.049012020787399,
                -0.009295989079980194,
                -0.24862630564258614,
                -0.21615757701865723,
                0.8588866175903412
            ]
        },
        {
            "positions": [
                0.03278134978463454,
                -1.039245639821948,
                0.08622013767197423,
                -0.18363007092081496,
                -0.14841811121928639,
                0.8797299631135884
            ]
        },
        {
            "positions": [
                -0.09421013553338235,
                -1.0294792588564974,
                0.18173626442392826,
                -0.118633836199044,
                -0.0806786454199157,
                0.9005733086368355
            ]
        },
        {
            "positions": [
                -0.08097105388806965,
                -1.0366199820136512,
                0.313549032780042,
                -0.15991548626252935,
                -0.06317588218440759,
                1.0578612327195842
            ]
        },
        {
            "positions": [
                -0.06773197224275695,
                -1.043760705170805,
                0.44536180113615575,
                -0.20119713632601471,
                -0.04567311894889946,
                1.2151491568023327
            ]
        },
        {
            "positions": [
                -0.05449289059744425,
                -1.050901428327959,
                0.5771745694922694,
                -0.24247878638950005,
                -0.028170355713391333,
                1.3724370808850814
            ]
        },
        {
            "positions": [
                -0.04125380895213155,
                -1.0580421514851126,
                0.7089873378483833,
                -0.28376043645298543,
                -0.010667592477883209,
                1.5297250049678301
            ]
        },
        {
            "positions": [
                -0.02801472730681885,
                -1.0651828746422665,
                0.840800106204497,
                -0.32504208651647076,
                0.006835170757624923,
                1.6870129290505786
            ]
        },
        {
            "positions": [
                -0.014775645661506145,
                -1.0723235977994203,
                0.9726128745606106,
                -0.3663237365799561,
                0.02433793399313304,
                1.8443008531333271
            ]
        },
        {
            "positions": [
                -0.0015365640161934674,
                -1.0794643209565742,
                1.1044256429167243,
                -0.4076053866434414,
                0.04184069722864116,
                2.001588777216076
            ]
        },
        {
            "positions": [
                0.011702517629119252,
                -1.086605044113728,
                1.2362384112728382,
                -0.4488870367069268,
                0.05934346046414929,
                2.1588767012988246
            ]
        },
        {
            "positions": [
                0.024941599274431944,
                -1.093745767270882,
                1.3680511796289518,
                -0.49016868677041214,
                0.0768462236996574,
                2.316164625381573
            ]
        },
        {
            "positions": [
                0.03818068091974465,
                -1.1008864904280355,
                1.4998639479850655,
                -0.5314503368338975,
                0.09434898693516555,
                2.473452549464322
            ]
        },
        {
            "positions": [
                0.05141976256505733,
                -1.1080272135851894,
                1.6316767163411792,
                -0.5727319868973828,
                0.11185175017067364,
                2.6307404735470703
            ]
        },
        {
            "positions": [
                0.06465884421037006,
                -1.1151679367423433,
                1.763489484697293,
                -0.6140136369608682,
                0.1293545134061818,
                2.788028397629819
            ]
        },
        {
            "positions": [
                0.07789792585568275,
                -1.1223086598994971,
                1.8953022530534067,
                -0.6552952870243536,
                0.1468572766416899,
                2.9453163217125673
            ]
        },
        {
            "positions": [
                0.1229222737853475,
                -1.1318159627259428,
                1.9574097511240278,
                -0.7183136794662206,
                0.1309634105418116,
                3.031184361574476
            ]
        }
    ]
}