{
    "goal": {
        "global_pose": {
            "orientation": {
                "w": -0.00223480608172531,
                "x": 0.0024358444001904467,
                "y": 0.7094548369677653,
                "z": -0.704743149386269
            },
            "position": {
                "x": 0.6205249238014221,
                "y": -0.6371506643295288,
                "z": 0.19426114857196808
            }
        },
        "name": "move_to_magneteinheit_B"
    },
    "id": "LBTRRT_move_to_magneteinheit_B_22",
    "joint_names": [
        "shoulder_pan_joint",
        "shoulder_lift_joint",
        "elbow_joint",
        "wrist_1_joint",
        "wrist_2_joint",
        "wrist_3_joint"
    ],
    "metrics": {
        "cart_traj_len": 1.4835077930689646,
        "distance_elbow_joint": 0.9598879593241734,
        "distance_shoulder_lift_joint": 0.7613429565261179,
        "distance_shoulder_pan_joint": 1.6194877397444545,
        "distance_wrist_1_joint": 0.3937255687463064,
        "distance_wrist_2_joint": 1.5307543601373867,
        "distance_wrist_3_joint": 0.3850985078257676,
        "smoothness": 0.20667173167604744,
        "time": 5.031608733,
        "traj_len": 2.37703535781532,
        "weighted_distance": 2.8887668713206045
    },
    "planner": "LBTRRT",
    "start": {
        "state": {
            "elbow_joint": 2.6216224122426386,
            "shoulder_lift_joint": -1.4174107377796124,
            "shoulder_pan_joint": 0.7066234856936794,
            "wrist_1_joint": 1.9546482284002225,
            "wrist_2_joint": -0.7096286983471962,
            "wrist_3_joint": 0.005740856962016249
        }
    },
    "waypoints": [
        {
            "positions": [
                0.7066234856936794,
                -1.4174107377796124,
                2.6216224122426386,
                1.9546482284002225,
                -0.7096286983471962,
                0.005740856962016249
            ]
        },
        {
            "positions": [
                0.6015909232387683,
                -1.4180799946820797,
                2.5945114164912293,
                1.9022118161276544,
                -0.7943489028034876,
                -0.09003063978780873
            ]
        },
        {
            "positions": [
                0.4965583607838572,
                -1.418749251584547,
                2.56740042073982,
                1.8497754038550864,
                -0.879069107259779,
                -0.1858021365376337
            ]
        },
        {
            "positions": [
                0.38814123656580857,
                -1.3602873713752253,
                2.497733807830485,
                1.8719948457167148,
                -0.9837855650463024,
                -0.17091325082024
            ]
        },
        {
            "positions": [
                0.2797241123477599,
                -1.3018254911659035,
                2.42806719492115,
                1.8942142875783434,
                -1.0885020228328257,
                -0.15602436510284634
            ]
        },
        {
            "positions": [
                0.17130698812971124,
                -1.2433636109565815,
                2.3584005820118152,
                1.9164337294399718,
                -1.193218480619349,
                -0.14113547938545265
            ]
        },
        {
            "positions": [
                0.06288986391166262,
                -1.1849017307472598,
                2.28873396910248,
                1.9386531713016004,
                -1.2979349384058725,
                -0.126246593668059
            ]
        },
        {
            "positions": [
                -0.045527260306385986,
                -1.126439850537938,
                2.219067356193145,
                1.9608726131632288,
                -1.4026513961923959,
                -0.1113577079506653
            ]
        },
        {
            "positions": [
                -0.1539443845244347,
                -1.0679779703286163,
                2.14940074328381,
                1.9830920550248574,
                -1.5073678539789193,
                -0.09646882223327162
            ]
        },
        {
            "positions": [
                -0.2623615087424832,
                -1.0095160901192946,
                2.079734130374475,
                2.005311496886486,
                -1.6120843117654426,
                -0.08157993651587796
            ]
        },
        {
            "positions": [
                -0.37077863296053193,
                -0.9510542099099726,
                2.0100675174651403,
                2.0275309387481144,
                -1.716800769551966,
                -0.06669105079848427
            ]
        },
        {
            "positions": [
                -0.47919575717858054,
                -0.8925923297006509,
                1.9404009045558053,
                2.049750380609743,
                -1.8215172273384894,
                -0.05180216508109059
            ]
        },
        {
            "positions": [
                -0.5876128813966291,
                -0.8341304494913291,
                1.8707342916464702,
                2.071969822471371,
                -1.9262336851250126,
                -0.0369132793636969
            ]
        },
        {
            "positions": [
                -0.6960300056146779,
                -0.7756685692820073,
                1.8010676787371351,
                2.094189264333,
                -2.030950142911536,
                -0.022024393646303236
            ]
        },
        {
            "positions": [
                -0.8044471298327266,
                -0.7172066890726855,
                1.7314010658278,
                2.1164087061946284,
                -2.1356666006980594,
                -0.007135507928909546
            ]
        },
        {
            "positions": [
                -0.9128642540507752,
                -0.6587448088633637,
                1.6617344529184652,
                2.138628148056257,
                -2.240383058484583,
                0.007753377788484117
            ]
        }
    ]
}