{
    "goal": {
        "global_pose": {
            "orientation": {
                "w": 0.7031023502349854,
                "x": -0.7110244035720825,
                "y": 0.007748599164187908,
                "z": 0.005598929710686207
            },
            "position": {
                "x": 0.11585023208521307,
                "y": 0.44412534475326537,
                "z": 0.3711530566215515
            }
        },
        "name": "move_to_auspresseinheit_A"
    },
    "id": "LBTRRT_move_to_auspresseinheit_A_76",
    "joint_names": [
        "shoulder_pan_joint",
        "shoulder_lift_joint",
        "elbow_joint",
        "wrist_1_joint",
        "wrist_2_joint",
        "wrist_3_joint"
    ],
    "metrics": {
        "cart_traj_len": 1.0301507348698458,
        "distance_elbow_joint": 0.02744733195886795,
        "distance_shoulder_lift_joint": 1.6292756109708706,
        "distance_shoulder_pan_joint": 1.0613845632800318,
        "distance_wrist_1_joint": 0.5595772501093159,
        "distance_wrist_2_joint": 0.5149349277430109,
        "distance_wrist_3_joint": 0.1756369360701937,
        "smoothness": 1.2630357678290487,
        "time": 5.011086007,
        "traj_len": 1.9920483478400546,
        "weighted_distance": 2.3225078407025896
    },
    "planner": "LBTRRT",
    "start": {
        "state": {
            "elbow_joint": 2.4225746658250005,
            "shoulder_lift_joint": -1.3736534386056498,
            "shoulder_pan_joint": -0.3378633547517467,
            "wrist_1_joint": -1.0288598680537169,
            "wrist_2_joint": 1.233022673432363,
            "wrist_3_joint": -3.0940220416140027
        }
    },
    "waypoints": [
        {
            "positions": [
                -0.3378633547517467,
                -1.3736534386056498,
                2.4225746658250005,
                -1.0288598680537169,
                1.233022673432363,
                -3.0940220416140027
            ]
        },
        {
            "positions": [
                -0.18743299663120302,
                -1.5283661078214446,
                2.4214910231019373,
                -0.9705912619209996,
                1.2111164019693268,
                -3.084647765747115
            ]
        },
        {
            "positions": [
                -0.037002638510659325,
                -1.6830787770372395,
                2.420407380378874,
                -0.9123226557882824,
                1.1892101305062905,
                -3.0752734898802276
            ]
        },
        {
            "positions": [
                0.11342771960988435,
                -1.8377914462530343,
                2.419323737655811,
                -0.8540540496555653,
                1.1673038590432543,
                -3.06589921401334
            ]
        },
        {
            "positions": [
                0.2638580777304281,
                -1.992504115468829,
                2.4182400949327483,
                -0.7957854435228481,
                1.145397587580218,
                -3.056524938146452
            ]
        },
        {
            "positions": [
                0.4142884358509718,
                -2.147216784684624,
                2.417156452209685,
                -0.7375168373901309,
                1.1234913161171818,
                -3.0471506622795643
            ]
        },
        {
            "positions": [
                0.5647187939715155,
                -2.301929453900419,
                2.416072809486622,
                -0.6792482312574136,
                1.1015850446541455,
                -3.037776386412677
            ]
        },
        {
            "positions": [
                0.7151491520920592,
                -2.4566421231162137,
                2.414989166763559,
                -0.6209796251246964,
                1.0796787731911093,
                -3.0284021105457892
            ]
        },
        {
            "positions": [
                0.7130561379830027,
                -2.320070391501137,
                2.4100237085392022,
                -0.5830553733296225,
                0.98928101631567,
                -3.0559063617962843
            ]
        },
        {
            "positions": [
                0.7109631238739462,
                -2.18349865988606,
                2.4050582503148457,
                -0.5451311215345487,
                0.8988832594402307,
                -3.0834106130467793
            ]
        },
        {
            "positions": [
                0.7088701097648897,
                -2.0469269282709837,
                2.400092792090489,
                -0.5072068697394748,
                0.8084855025647915,
                -3.1109148642972744
            ]
        },
        {
            "positions": [
                0.7067770956558332,
                -1.910355196655907,
                2.3951273338661325,
                -0.46928261794440096,
                0.7180877456893522,
                -3.1384191155477694
            ]
        }
    ]
}