{
    "goal": {
        "global_pose": {
            "orientation": {
                "w": -0.00223480608172531,
                "x": 0.0024358444001904467,
                "y": 0.7094548369677653,
                "z": -0.704743149386269
            },
            "position": {
                "x": 0.6205249238014221,
                "y": -0.6371506643295288,
                "z": 0.19426114857196808
            }
        },
        "name": "move_to_magneteinheit_B"
    },
    "id": "LBTRRT_move_to_magneteinheit_B_108",
    "joint_names": [
        "shoulder_pan_joint",
        "shoulder_lift_joint",
        "elbow_joint",
        "wrist_1_joint",
        "wrist_2_joint",
        "wrist_3_joint"
    ],
    "metrics": {
        "cart_traj_len": 1.4673240754292836,
        "distance_elbow_joint": 1.0255699527186755,
        "distance_shoulder_lift_joint": 0.7596337243660516,
        "distance_shoulder_pan_joint": 1.620126028444406,
        "distance_wrist_1_joint": 0.18149568198941468,
        "distance_wrist_2_joint": 1.5256914552459648,
        "distance_wrist_3_joint": 0.1253281118851191,
        "smoothness": 0.15040055872034502,
        "time": 5.014558878,
        "traj_len": 2.288633862077906,
        "weighted_distance": 2.682478017739428
    },
    "planner": "LBTRRT",
    "start": {
        "state": {
            "elbow_joint": 2.6216224122426386,
            "shoulder_lift_joint": -1.4174107377796124,
            "shoulder_pan_joint": 0.7066234856936794,
            "wrist_1_joint": 1.9546482284002225,
            "wrist_2_joint": -0.7096286983471962,
            "wrist_3_joint": 0.005740856962016249
        }
    },
    "waypoints": [
        {
            "positions": [
                0.7066234856936794,
                -1.4174107377796124,
                2.6216224122426386,
                1.9546482284002225,
                -0.7096286983471962,
                0.005740856962016249
            ]
        },
        {
            "positions": [
                0.6073937544232721,
                -1.4105755899270345,
                2.6377384452905144,
                1.9585953472811153,
                -0.7952035437698164,
                -0.027414351362670238
            ]
        },
        {
            "positions": [
                0.5081640231528648,
                -1.4037404420744564,
                2.6538544783383897,
                1.9625424661620081,
                -0.8807783891924367,
                -0.06056955968735672
            ]
        },
        {
            "positions": [
                0.38969180932756553,
                -1.3415768230193816,
                2.5710763211198127,
                1.9770092531809773,
                -0.9936568695591637,
                -0.055651418417711214
            ]
        },
        {
            "positions": [
                0.27121959550226626,
                -1.2794132039643071,
                2.4882981639012356,
                1.9914760401999463,
                -1.1065353499258908,
                -0.050733277148065706
            ]
        },
        {
            "positions": [
                0.152747381676967,
                -1.2172495849092324,
                2.4055200066826585,
                2.0059428272189153,
                -1.2194138302926176,
                -0.0458151358784202
            ]
        },
        {
            "positions": [
                0.03427516785166773,
                -1.155085965854158,
                2.3227418494640815,
                2.0204096142378845,
                -1.3322923106593447,
                -0.04089699460877469
            ]
        },
        {
            "positions": [
                -0.08419704597363153,
                -1.0929223467990832,
                2.2399636922455044,
                2.0348764012568537,
                -1.4451707910260718,
                -0.035978853339129174
            ]
        },
        {
            "positions": [
                -0.2026692597989308,
                -1.0307587277440087,
                2.157185535026928,
                2.049343188275823,
                -1.558049271392799,
                -0.03106071206948367
            ]
        },
        {
            "positions": [
                -0.32114147362423007,
                -0.968595108688934,
                2.0744073778083507,
                2.0638099752947916,
                -1.670927751759526,
                -0.026142570799838158
            ]
        },
        {
            "positions": [
                -0.43961368744952933,
                -0.9064314896338593,
                1.9916292205897737,
                2.078276762313761,
                -1.7838062321262527,
                -0.021224429530192657
            ]
        },
        {
            "positions": [
                -0.5580859012748287,
                -0.8442678705787847,
                1.9088510633711966,
                2.09274354933273,
                -1.8966847124929798,
                -0.01630628826054714
            ]
        },
        {
            "positions": [
                -0.6765581151001279,
                -0.78210425152371,
                1.8260729061526195,
                2.1072103363516987,
                -2.009563192859707,
                -0.011388146990901633
            ]
        },
        {
            "positions": [
                -0.795030328925427,
                -0.7199406324686354,
                1.7432947489340425,
                2.121677123370668,
                -2.122441673226434,
                -0.006470005721256125
            ]
        },
        {
            "positions": [
                -0.9135025427507263,
                -0.6577770134135608,
                1.6605165917154654,
                2.136143910389637,
                -2.235320153593161,
                -0.0015518644516106168
            ]
        }
    ]
}