{
    "goal": {
        "global_pose": {
            "orientation": {
                "w": 0.5084816217422485,
                "x": -0.49083608388900757,
                "y": 0.5182115435600281,
                "z": -0.4816462993621826
            },
            "position": {
                "x": 0.5540239810943604,
                "y": 0.030875300988554955,
                "z": 0.16403168439865112
            }
        },
        "name": "move_to_storage_A"
    },
    "id": "LBTRRT_move_to_storage_A_75",
    "joint_names": [
        "shoulder_pan_joint",
        "shoulder_lift_joint",
        "elbow_joint",
        "wrist_1_joint",
        "wrist_2_joint",
        "wrist_3_joint"
    ],
    "metrics": {
        "cart_traj_len": 0.352569944016029,
        "distance_elbow_joint": 0.45371312432604927,
        "distance_shoulder_lift_joint": 0.23429879099287065,
        "distance_shoulder_pan_joint": 0.45752722694474407,
        "distance_wrist_1_joint": 0.25832875915439557,
        "distance_wrist_2_joint": 1.1133630180752507,
        "distance_wrist_3_joint": 0.09492404151145317,
        "smoothness": 4.440892098500626e-16,
        "time": 5.002557003,
        "traj_len": 1.6162162482182771,
        "weighted_distance": 2.0429622662343316
    },
    "planner": "LBTRRT",
    "start": {
        "state": {
            "elbow_joint": 1.971548259319323,
            "shoulder_lift_joint": -1.1394851275133948,
            "shoulder_pan_joint": 0.1228115487234821,
            "wrist_1_joint": -0.7804723859257726,
            "wrist_2_joint": 0.12958671773740124,
            "wrist_3_joint": -3.192489227718131
        }
    },
    "waypoints": [
        {
            "positions": [
                0.1228115487234821,
                -1.1394851275133948,
                1.971548259319323,
                -0.7804723859257726,
                0.12958671773740124,
                -3.192489227718131
            ]
        },
        {
            "positions": [
                0.057450516302804386,
                -1.1729563833695191,
                2.03636441993733,
                -0.8173764943764006,
                0.28863857746243704,
                -3.178928650359352
            ]
        },
        {
            "positions": [
                -0.007910516117873329,
                -1.2064276392256437,
                2.101180580555337,
                -0.8542806028270284,
                0.4476904371874728,
                -3.165368073000573
            ]
        },
        {
            "positions": [
                -0.07327154853855106,
                -1.239898895081768,
                2.1659967411733443,
                -0.8911847112776564,
                0.6067422969125087,
                -3.151807495641794
            ]
        },
        {
            "positions": [
                -0.13863258095922876,
                -1.2733701509378923,
                2.230812901791351,
                -0.9280888197282844,
                0.7657941566375445,
                -3.138246918283015
            ]
        },
        {
            "positions": [
                -0.2039936133799065,
                -1.3068414067940166,
                2.295629062409358,
                -0.9649929281789122,
                0.9248460163625803,
                -3.124686340924236
            ]
        },
        {
            "positions": [
                -0.2693546458005842,
                -1.3403126626501412,
                2.3604452230273654,
                -1.0018970366295403,
                1.0838978760876161,
                -3.111125763565457
            ]
        },
        {
            "positions": [
                -0.33471567822126197,
                -1.3737839185062655,
                2.4252613836453722,
                -1.0388011450801682,
                1.242949735812652,
                -3.097565186206678
            ]
        }
    ]
}{
    "goal": {
        "global_pose": {
            "orientation": {
                "w": 0.5084816217422485,
                "x": -0.49083608388900757,
                "y": 0.5182115435600281,
                "z": -0.4816462993621826
            },
            "position": {
                "x": 0.5540239810943604,
                "y": 0.030875300988554955,
                "z": 0.16403168439865112
            }
        },
        "name": "move_to_storage_A"
    },
    "id": "LBTRRT_move_to_storage_A_75",
    "joint_names": [
        "shoulder_pan_joint",
        "shoulder_lift_joint",
        "elbow_joint",
        "wrist_1_joint",
        "wrist_2_joint",
        "wrist_3_joint"
    ],
    "metrics": {
        "cart_traj_len": 0.35365319928148525,
        "distance_elbow_joint": 0.4490119934598775,
        "distance_shoulder_lift_joint": 0.23276617464981952,
        "distance_shoulder_pan_joint": 0.46044693029100314,
        "distance_wrist_1_joint": 0.24094458903646032,
        "distance_wrist_2_joint": 1.1076781917136438,
        "distance_wrist_3_joint": 0.1040463602036601,
        "smoothness": 0.0,
        "time": 5.004446092,
        "traj_len": 1.6108675424610381,
        "weighted_distance": 2.0375499357100155
    },
    "planner": "LBTRRT",
    "start": {
        "state": {
            "elbow_joint": 1.97154746011099,
            "shoulder_lift_joint": -1.13948474672311,
            "shoulder_pan_joint": 0.12281154466712228,
            "wrist_1_joint": -0.7804688027058302,
            "wrist_2_joint": 0.12958655903071145,
            "wrist_3_joint": 3.0906928834467795
        }
    },
    "waypoints": [
        {
            "positions": [
                0.12281154466712228,
                -1.13948474672311,
                1.97154746011099,
                -0.7804688027058302,
                0.12958655903071145,
                3.0906928834467795
            ]
        },
        {
            "positions": [
                0.05703341176840755,
                -1.1727370573873699,
                2.035692030605258,
                -0.8148894582824674,
                0.2878263007040891,
                3.1055566491901594
            ]
        },
        {
            "positions": [
                -0.008744721130307179,
                -1.2059893680516298,
                2.0998366010995264,
                -0.8493101138591046,
                0.44606604237746683,
                3.1204204149335397
            ]
        },
        {
            "positions": [
                -0.07452285402902191,
                -1.2392416787158897,
                2.1639811715937944,
                -0.8837307694357417,
                0.6043057840508445,
                3.1352841806769196
            ]
        },
        {
            "positions": [
                -0.14030098692773663,
                -1.2724939893801497,
                2.228125742088063,
                -0.9181514250123789,
                0.7625455257242222,
                3.1501479464202995
            ]
        },
        {
            "positions": [
                -0.20607911982645138,
                -1.3057463000444096,
                2.292270312582331,
                -0.9525720805890161,
                0.9207852673975999,
                3.1650117121636794
            ]
        },
        {
            "positions": [
                -0.2718572527251661,
                -1.3389986107086695,
                2.3564148830765994,
                -0.9869927361656533,
                1.0790250090709774,
                3.1798754779070597
            ]
        },
        {
            "positions": [
                -0.33763538562388085,
                -1.3722509213729295,
                2.4205594535708674,
                -1.0214133917422905,
                1.2372647507443553,
                3.1947392436504396
            ]
        }
    ]
}{
    "goal": {
        "global_pose": {
            "orientation": {
                "w": 0.5084816217422485,
                "x": -0.49083608388900757,
                "y": 0.5182115435600281,
                "z": -0.4816462993621826
            },
            "position": {
                "x": 0.5540239810943604,
                "y": 0.030875300988554955,
                "z": 0.16403168439865112
            }
        },
        "name": "move_to_storage_A"
    },
    "id": "LBTRRT_move_to_storage_A_75",
    "joint_names": [
        "shoulder_pan_joint",
        "shoulder_lift_joint",
        "elbow_joint",
        "wrist_1_joint",
        "wrist_2_joint",
        "wrist_3_joint"
    ],
    "metrics": {
        "cart_traj_len": 0.3524207051327486,
        "distance_elbow_joint": 0.45011500887610145,
        "distance_shoulder_lift_joint": 0.23222606775953314,
        "distance_shoulder_pan_joint": 0.46049712308144647,
        "distance_wrist_1_joint": 0.2501468615708258,
        "distance_wrist_2_joint": 1.097663979420097,
        "distance_wrist_3_joint": 0.09458308974601382,
        "smoothness": 6.661338165333112e-16,
        "time": 5.003831094000001,
        "traj_len": 1.607865706598041,
        "weighted_distance": 2.030322425364249
    },
    "planner": "LBTRRT",
    "start": {
        "state": {
            "elbow_joint": 1.9715472970024885,
            "shoulder_lift_joint": -1.1394870060712896,
            "shoulder_pan_joint": 0.12281152778156021,
            "wrist_1_joint": -0.780463741449964,
            "wrist_2_joint": 0.12958659822042276,
            "wrist_3_joint": 3.090690232415272
        }
    },
    "waypoints": [
        {
            "positions": [
                0.12281152778156021,
                -1.1394870060712896,
                1.9715472970024885,
                -0.780463741449964,
                0.12958659822042276,
                3.090690232415272
            ]
        },
        {
            "positions": [
                0.05702622448421073,
                -1.1726621586083659,
                2.0358494411276458,
                -0.8161990073886534,
                0.28639573813757946,
                3.1042021023789883
            ]
        },
        {
            "positions": [
                -0.008759078813138754,
                -1.205837311145442,
                2.1001515852528034,
                -0.8519342733273427,
                0.4432048780547362,
                3.1177139723427043
            ]
        },
        {
            "positions": [
                -0.07454438211048825,
                -1.2390124636825182,
                2.1644537293779607,
                -0.8876695392660322,
                0.6000140179718929,
                3.1312258423064208
            ]
        },
        {
            "positions": [
                -0.14032968540783772,
                -1.2721876162195942,
                2.228755873503118,
                -0.9234048052047216,
                0.7568231578890496,
                3.1447377122701368
            ]
        },
        {
            "positions": [
                -0.2061149887051872,
                -1.3053627687566705,
                2.293058017628275,
                -0.959140071143411,
                0.9136322978062064,
                3.158249582233853
            ]
        },
        {
            "positions": [
                -0.27190029200253674,
                -1.3385379212937465,
                2.3573601617534328,
                -0.9948753370821004,
                1.070441437723363,
                3.171761452197569
            ]
        },
        {
            "positions": [
                -0.33768559529988623,
                -1.3717130738308227,
                2.42166230587859,
                -1.0306106030207898,
                1.2272505776405198,
                3.1852733221612857
            ]
        }
    ]
}