{
    "goal": {
        "global_pose": {
            "orientation": {
                "w": 0.005598929693374612,
                "x": 0.007748599140229565,
                "y": 0.7110244013736278,
                "z": -0.7031023480610252
            },
            "position": {
                "x": -0.8858502320852131,
                "y": -0.7141253447532654,
                "z": 0.3711530566215515
            }
        },
        "name": "move_to_auspresseinheit_C"
    },
    "id": "LBTRRT_move_to_auspresseinheit_C_87",
    "joint_names": [
        "shoulder_pan_joint",
        "shoulder_lift_joint",
        "elbow_joint",
        "wrist_1_joint",
        "wrist_2_joint",
        "wrist_3_joint"
    ],
    "metrics": {
        "cart_traj_len": 0.4922658379031836,
        "distance_elbow_joint": 0.9914677726282418,
        "distance_shoulder_lift_joint": 0.32081819793843447,
        "distance_shoulder_pan_joint": 0.25549814918208247,
        "distance_wrist_1_joint": 0.6569540868463983,
        "distance_wrist_2_joint": 1.3177806651549182,
        "distance_wrist_3_joint": 0.042301084012795975,
        "smoothness": 1.6148698667872622e-16,
        "time": 5.0035337349999995,
        "traj_len": 1.8933620773013469,
        "weighted_distance": 2.375743436440429
    },
    "planner": "LBTRRT",
    "start": {
        "state": {
            "elbow_joint": 1.7527959577737207,
            "shoulder_lift_joint": -0.9740617694225068,
            "shoulder_pan_joint": -2.967991417825858,
            "wrist_1_joint": -0.759517768980727,
            "wrist_2_joint": 1.7443932448377408,
            "wrist_3_joint": -3.0840537646736568
        }
    },
    "waypoints": [
        {
            "positions": [
                -2.967991417825858,
                -0.9740617694225068,
                1.7527959577737207,
                -0.759517768980727,
                1.7443932448377408,
                -3.0840537646736568
            ]
        },
        {
            "positions": [
                -2.9424416029076497,
                -0.9419799496286634,
                1.6536491805108964,
                -0.6938223602960871,
                1.612615178322249,
                -3.0882838730749365
            ]
        },
        {
            "positions": [
                -2.9168917879894414,
                -0.9098981298348199,
                1.5545024032480723,
                -0.6281269516114473,
                1.4808371118067571,
                -3.092513981476216
            ]
        },
        {
            "positions": [
                -2.891341973071233,
                -0.8778163100409764,
                1.455355625985248,
                -0.5624315429268075,
                1.3490590452912654,
                -3.0967440898774954
            ]
        },
        {
            "positions": [
                -2.865792158153025,
                -0.845734490247133,
                1.356208848722424,
                -0.4967361342421676,
                1.2172809787757735,
                -3.100974198278775
            ]
        },
        {
            "positions": [
                -2.8402423432348165,
                -0.8136526704532896,
                1.2570620714595997,
                -0.4310407255575278,
                1.0855029122602817,
                -3.1052043066800548
            ]
        },
        {
            "positions": [
                -2.8146925283166087,
                -0.7815708506594461,
                1.1579152941967756,
                -0.365345316872888,
                0.9537248457447899,
                -3.1094344150813344
            ]
        },
        {
            "positions": [
                -2.7891427133984004,
                -0.7494890308656027,
                1.0587685169339514,
                -0.29964990818824816,
                0.8219467792292982,
                -3.113664523482614
            ]
        },
        {
            "positions": [
                -2.763592898480192,
                -0.7174072110717592,
                0.9596217396711272,
                -0.23395449950360825,
                0.6901687127138063,
                -3.1178946318838934
            ]
        },
        {
            "positions": [
                -2.738043083561984,
                -0.6853253912779158,
                0.860474962408303,
                -0.1682590908189685,
                0.5583906461983144,
                -3.122124740285173
            ]
        },
        {
            "positions": [
                -2.7124932686437755,
                -0.6532435714840723,
                0.7613281851454788,
                -0.1025636821343286,
                0.4266125796828225,
                -3.1263548486864527
            ]
        }
    ]
}