{
    "goal": {
        "global_pose": {
            "orientation": {
                "w": 0.5084816262002911,
                "x": -0.4908360881923452,
                "y": 0.5182115481033761,
                "z": -0.48164630358495003
            },
            "position": {
                "x": 0.5540239810943604,
                "y": -0.46912469901144505,
                "z": 0.16403168439865112
            }
        },
        "name": "move_to_storage_B"
    },
    "id": "LBTRRT_move_to_storage_B_109",
    "joint_names": [
        "shoulder_pan_joint",
        "shoulder_lift_joint",
        "elbow_joint",
        "wrist_1_joint",
        "wrist_2_joint",
        "wrist_3_joint"
    ],
    "metrics": {
        "cart_traj_len": 0.9196313779062142,
        "distance_elbow_joint": 0.4221438808547262,
        "distance_shoulder_lift_joint": 0.4577638251111289,
        "distance_shoulder_pan_joint": 0.6856163982279772,
        "distance_wrist_1_joint": 3.0996417623999855,
        "distance_wrist_2_joint": 2.707547398433539,
        "distance_wrist_3_joint": 3.152027881942722,
        "smoothness": 0.1295710567977607,
        "time": 5.137479864,
        "traj_len": 3.244185744831834,
        "weighted_distance": 4.757729087672926
    },
    "planner": "LBTRRT",
    "start": {
        "state": {
            "elbow_joint": 1.664937868594044,
            "shoulder_lift_joint": -0.661644460510453,
            "shoulder_pan_joint": -0.9139846352900073,
            "wrist_1_joint": 2.146753192139373,
            "wrist_2_joint": -2.2341966793290973,
            "wrist_3_joint": 0.005466555786416001
        }
    },
    "waypoints": [
        {
            "positions": [
                -0.9139846352900073,
                -0.661644460510453,
                1.664937868594044,
                2.146753192139373,
                -2.2341966793290973,
                0.005466555786416001
            ]
        },
        {
            "positions": [
                -0.8510366315803016,
                -0.6912399496742254,
                1.6558335710256418,
                2.161621502733123,
                -2.055123086883772,
                -0.07749104522210117
            ]
        },
        {
            "positions": [
                -0.7880886278705961,
                -0.7208354388379977,
                1.6467292734572399,
                2.176489813326873,
                -1.8760494944384467,
                -0.16044864623061833
            ]
        },
        {
            "positions": [
                -0.7251406241608904,
                -0.75043092800177,
                1.637624975888838,
                2.1913581239206232,
                -1.6969759019931214,
                -0.24340624723913548
            ]
        },
        {
            "positions": [
                -0.6621926204511848,
                -0.7800264171655424,
                1.6285206783204358,
                2.206226434514373,
                -1.5179023095477961,
                -0.32636384824765263
            ]
        },
        {
            "positions": [
                -0.6810545501637567,
                -0.7947821505766746,
                1.6452914039978757,
                2.0740451945132867,
                -1.4313260909107424,
                -0.4489811298958549
            ]
        },
        {
            "positions": [
                -0.6999164798763287,
                -0.8095378839878067,
                1.6620621296753155,
                1.9418639545122003,
                -1.3447498722736886,
                -0.5715984115440572
            ]
        },
        {
            "positions": [
                -0.7187784095889006,
                -0.8242936173989389,
                1.6788328553527556,
                1.8096827145111138,
                -1.2581736536366348,
                -0.6942156931922595
            ]
        },
        {
            "positions": [
                -0.7376403393014725,
                -0.839049350810071,
                1.6956035810301955,
                1.6775014745100276,
                -1.171597434999581,
                -0.8168329748404618
            ]
        },
        {
            "positions": [
                -0.7565022690140445,
                -0.8538050842212032,
                1.7123743067076354,
                1.5453202345089414,
                -1.0850212163625272,
                -0.9394502564886641
            ]
        },
        {
            "positions": [
                -0.7753641987266164,
                -0.8685608176323354,
                1.7291450323850752,
                1.413138994507855,
                -0.9984449977254735,
                -1.0620675381368665
            ]
        },
        {
            "positions": [
                -0.7942261284391884,
                -0.8833165510434675,
                1.7459157580625153,
                1.2809577545067685,
                -0.9118687790884196,
                -1.1846848197850688
            ]
        },
        {
            "positions": [
                -0.8130880581517603,
                -0.8980722844545996,
                1.7626864837399552,
                1.1487765145056823,
                -0.8252925604513658,
                -1.307302101433271
            ]
        },
        {
            "positions": [
                -0.8319499878643323,
                -0.9128280178657318,
                1.779457209417395,
                1.0165952745045959,
                -0.738716341814312,
                -1.4299193830814736
            ]
        },
        {
            "positions": [
                -0.8508119175769042,
                -0.9275837512768639,
                1.796227935094835,
                0.8844140345035096,
                -0.6521401231772582,
                -1.5525366647296757
            ]
        },
        {
            "positions": [
                -0.869673847289476,
                -0.9423394846879961,
                1.8129986607722748,
                0.7522327945024232,
                -0.5655639045402044,
                -1.6751539463778782
            ]
        },
        {
            "positions": [
                -0.8885357770020481,
                -0.9570952180991282,
                1.8297693864497149,
                0.620051554501337,
                -0.4789876859031508,
                -1.7977712280260802
            ]
        },
        {
            "positions": [
                -0.90739770671462,
                -0.9718509515102604,
                1.8465401121271547,
                0.48787031450025076,
                -0.392411467266097,
                -1.9203885096742823
            ]
        },
        {
            "positions": [
                -0.926259636427192,
                -0.9866066849213926,
                1.8633108378045946,
                0.3556890744991641,
                -0.305835248629043,
                -2.043005791322485
            ]
        },
        {
            "positions": [
                -0.9451215661397638,
                -1.0013624183325247,
                1.8800815634820345,
                0.22350783449807787,
                -0.2192590299919892,
                -2.1656230729706873
            ]
        },
        {
            "positions": [
                -0.9639834958523358,
                -1.0161181517436568,
                1.8968522891594746,
                0.09132659449699165,
                -0.13268281135493543,
                -2.2882403546188894
            ]
        },
        {
            "positions": [
                -0.9828454255649077,
                -1.030873885154789,
                1.9136230148369142,
                -0.04085464550409457,
                -0.04610659271788187,
                -2.410857636267092
            ]
        },
        {
            "positions": [
                -1.0017073552774798,
                -1.045629618565921,
                1.9303937405143543,
                -0.17303588550518123,
                0.040469625919172136,
                -2.5334749179152944
            ]
        },
        {
            "positions": [
                -1.0205692849900516,
                -1.0603853519770534,
                1.9471644661917942,
                -0.30521712550626745,
                0.12704584455622592,
                -2.6560921995634965
            ]
        },
        {
            "positions": [
                -1.0394312147026237,
                -1.0751410853881853,
                1.963935191869234,
                -0.43739836550735367,
                0.2136220631932797,
                -2.7787094812116986
            ]
        },
        {
            "positions": [
                -1.0582931444151955,
                -1.0898968187993177,
                1.9807059175466741,
                -0.5695796055084399,
                0.30019828183033326,
                -2.901326762859901
            ]
        },
        {
            "positions": [
                -1.0771550741277673,
                -1.1046525522104498,
                1.997476643224114,
                -0.7017608455095266,
                0.38677450046738726,
                -3.0239440445081036
            ]
        },
        {
            "positions": [
                -1.0960170038403394,
                -1.119408285621582,
                2.014247368901554,
                -0.8339420855106129,
                0.473350719104441,
                -3.1465613261563057
            ]
        }
    ]
}