{
    "goal": {
        "global_pose": {
            "orientation": {
                "w": -0.4816463035849501,
                "x": 0.5182115481033762,
                "y": 0.4908360881923453,
                "z": -0.5084816262002911
            },
            "position": {
                "x": -0.8240239810943604,
                "y": -0.300875300988555,
                "z": 0.16403168439865112
            }
        },
        "name": "move_to_storage_C"
    },
    "id": "LBTRRT_move_to_storage_C_61",
    "joint_names": [
        "shoulder_pan_joint",
        "shoulder_lift_joint",
        "elbow_joint",
        "wrist_1_joint",
        "wrist_2_joint",
        "wrist_3_joint"
    ],
    "metrics": {
        "cart_traj_len": 0.5768334971135382,
        "distance_elbow_joint": 0.2551694139464946,
        "distance_shoulder_lift_joint": 0.1887689313132872,
        "distance_shoulder_pan_joint": 0.49479427189971714,
        "distance_wrist_1_joint": 0.06526970053387049,
        "distance_wrist_2_joint": 1.0687789883516734,
        "distance_wrist_3_joint": 0.07352263765207834,
        "smoothness": 0.0,
        "time": 5.00320855,
        "traj_len": 1.4650269429935823,
        "weighted_distance": 1.8513232856221578
    },
    "planner": "LBTRRT",
    "start": {
        "state": {
            "elbow_joint": 2.010868314990456,
            "shoulder_lift_joint": -1.1634956873337592,
            "shoulder_pan_joint": -2.4736205022346125,
            "wrist_1_joint": -0.8367026794202681,
            "wrist_2_joint": 0.6746043897044499,
            "wrist_3_joint": -3.1496632123970403
        }
    },
    "waypoints": [
        {
            "positions": [
                -2.4736205022346125,
                -1.1634956873337592,
                2.010868314990456,
                -0.8367026794202681,
                0.6746043897044499,
                -3.1496632123970403
            ]
        },
        {
            "positions": [
                -2.5560862142178986,
                -1.1320341987815445,
                1.9683400793327066,
                -0.8258243959979563,
                0.8527342210963955,
                -3.1374094394550274
            ]
        },
        {
            "positions": [
                -2.6385519262011847,
                -1.1005727102293301,
                1.9258118436749576,
                -0.8149461125756446,
                1.030864052488341,
                -3.125155666513014
            ]
        },
        {
            "positions": [
                -2.7210176381844713,
                -1.0691112216771157,
                1.8832836080172086,
                -0.8040678291533329,
                1.2089938838802867,
                -3.112901893571001
            ]
        },
        {
            "positions": [
                -2.8034833501677574,
                -1.037649733124901,
                1.8407553723594594,
                -0.7931895457310211,
                1.387123715272232,
                -3.100648120628988
            ]
        },
        {
            "positions": [
                -2.8859490621510435,
                -1.0061882445726864,
                1.7982271367017102,
                -0.7823112623087094,
                1.5652535466641777,
                -3.088394347686975
            ]
        },
        {
            "positions": [
                -2.9684147741343296,
                -0.974726756020472,
                1.7556989010439612,
                -0.7714329788863976,
                1.7433833780561234,
                -3.076140574744962
            ]
        }
    ]
}