{
    "goal": {
        "global_pose": {
            "orientation": {
                "w": 0.005598929693374612,
                "x": 0.007748599140229565,
                "y": 0.7110244013736278,
                "z": -0.7031023480610252
            },
            "position": {
                "x": -0.8858502320852131,
                "y": -0.7141253447532654,
                "z": 0.3711530566215515
            }
        },
        "name": "move_to_auspresseinheit_C"
    },
    "id": "LBTRRT_move_to_auspresseinheit_C_11",
    "joint_names": [
        "shoulder_pan_joint",
        "shoulder_lift_joint",
        "elbow_joint",
        "wrist_1_joint",
        "wrist_2_joint",
        "wrist_3_joint"
    ],
    "metrics": {
        "cart_traj_len": 0.49461055219128625,
        "distance_elbow_joint": 1.017908652228317,
        "distance_shoulder_lift_joint": 0.3328713837962617,
        "distance_shoulder_pan_joint": 0.2558028271381634,
        "distance_wrist_1_joint": 0.7073679443023462,
        "distance_wrist_2_joint": 1.31846832839016,
        "distance_wrist_3_joint": 0.08239128696107079,
        "smoothness": 3.2297397080004555e-16,
        "time": 5.0078069880000005,
        "traj_len": 1.9273843474554624,
        "weighted_distance": 2.430108900734896
    },
    "planner": "LBTRRT",
    "start": {
        "state": {
            "elbow_joint": 1.7527959577737207,
            "shoulder_lift_joint": -0.9740617694225068,
            "shoulder_pan_joint": -2.967991417825858,
            "wrist_1_joint": -0.759517768980727,
            "wrist_2_joint": 1.7443932448377408,
            "wrist_3_joint": -3.0840537646736568
        }
    },
    "waypoints": [
        {
            "positions": [
                -2.967991417825858,
                -0.9740617694225068,
                1.7527959577737207,
                -0.759517768980727,
                1.7443932448377408,
                -3.0840537646736568
            ]
        },
        {
            "positions": [
                -2.9424111351120414,
                -0.9407746310428806,
                1.651005092550889,
                -0.6887809745504924,
                1.612546411998725,
                -3.092292893369764
            ]
        },
        {
            "positions": [
                -2.9168308523982254,
                -0.9074874926632545,
                1.5492142273280574,
                -0.6180441801202577,
                1.4806995791597088,
                -3.1005320220658708
            ]
        },
        {
            "positions": [
                -2.891250569684409,
                -0.8742003542836283,
                1.4474233621052255,
                -0.5473073856900231,
                1.3488527463206927,
                -3.108771150761978
            ]
        },
        {
            "positions": [
                -2.865670286970593,
                -0.840913215904002,
                1.3456324968823938,
                -0.4765705912597885,
                1.2170059134816769,
                -3.117010279458085
            ]
        },
        {
            "positions": [
                -2.8400900042567763,
                -0.807626077524376,
                1.2438416316595622,
                -0.4058337968295539,
                1.085159080642661,
                -3.1252494081541924
            ]
        },
        {
            "positions": [
                -2.8145097215429598,
                -0.7743389391447497,
                1.1420507664367305,
                -0.3350970023993193,
                0.9533122478036449,
                -3.133488536850299
            ]
        },
        {
            "positions": [
                -2.7889294388291437,
                -0.7410518007651237,
                1.0402599012138989,
                -0.2643602079690847,
                0.821465414964629,
                -3.1417276655464064
            ]
        },
        {
            "positions": [
                -2.763349156115327,
                -0.7077646623854974,
                0.938469035991067,
                -0.19362341353885004,
                0.6896185821256129,
                -3.1499667942425136
            ]
        },
        {
            "positions": [
                -2.737768873401511,
                -0.6744775240058712,
                0.8366781707682354,
                -0.12288661910861542,
                0.5577717492865968,
                -3.1582059229386203
            ]
        },
        {
            "positions": [
                -2.7121885906876946,
                -0.6411903856262451,
                0.7348873055454036,
                -0.05214982467838081,
                0.42592491644758096,
                -3.1664450516347276
            ]
        }
    ]
}