{
    "goal": {
        "global_pose": {
            "orientation": {
                "w": 0.7031023480610252,
                "x": -0.7110244013736278,
                "y": 0.0077485991402295624,
                "z": 0.005598929693374583
            },
            "position": {
                "x": -0.8841497679147869,
                "y": 0.44412534475326537,
                "z": 0.3711530566215515
            }
        },
        "name": "move_to_auspresseinheit_D"
    },
    "id": "LBTRRT_move_to_auspresseinheit_D_83",
    "joint_names": [
        "shoulder_pan_joint",
        "shoulder_lift_joint",
        "elbow_joint",
        "wrist_1_joint",
        "wrist_2_joint",
        "wrist_3_joint"
    ],
    "metrics": {
        "cart_traj_len": 0.3443683312036679,
        "distance_elbow_joint": 0.6592034536612652,
        "distance_shoulder_lift_joint": 0.13218180055204076,
        "distance_shoulder_pan_joint": 0.13346944918055456,
        "distance_wrist_1_joint": 0.5973716281127097,
        "distance_wrist_2_joint": 1.4392019201844535,
        "distance_wrist_3_joint": 0.05557882677206738,
        "smoothness": 2.467162255653635e-15,
        "time": 5.005092639,
        "traj_len": 1.7369533898360923,
        "weighted_distance": 2.272606054797969
    },
    "planner": "LBTRRT",
    "start": {
        "state": {
            "elbow_joint": -1.8275523626775212,
            "shoulder_lift_joint": -2.126789852344167,
            "shoulder_pan_joint": -0.03513704404078235,
            "wrist_1_joint": -2.347782403156801,
            "wrist_2_joint": -1.6058999987535132,
            "wrist_3_joint": -3.0880379163319196
        }
    },
    "waypoints": [
        {
            "positions": [
                -0.03513704404078235,
                -2.126789852344167,
                -1.8275523626775212,
                -2.347782403156801,
                -1.6058999987535132,
                -3.0880379163319196
            ]
        },
        {
            "positions": [
                -0.051820725188351666,
                -2.143312577413172,
                -1.745151930969863,
                -2.4224538566708897,
                -1.4259997587304565,
                -3.0810905629854113
            ]
        },
        {
            "positions": [
                -0.06850440633592099,
                -2.1598353024821773,
                -1.662751499262205,
                -2.497125310184978,
                -1.2460995187073998,
                -3.074143209638903
            ]
        },
        {
            "positions": [
                -0.0851880874834903,
                -2.1763580275511822,
                -1.5803510675545467,
                -2.571796763699067,
                -1.0661992786843433,
                -3.067195856292394
            ]
        },
        {
            "positions": [
                -0.10187176863105962,
                -2.1928807526201872,
                -1.4979506358468886,
                -2.6464682172131555,
                -0.8862990386612865,
                -3.060248502945886
            ]
        },
        {
            "positions": [
                -0.11855544977862895,
                -2.209403477689192,
                -1.4155502041392305,
                -2.7211396707272444,
                -0.7063987986382297,
                -3.0533011495993776
            ]
        },
        {
            "positions": [
                -0.13523913092619827,
                -2.225926202758197,
                -1.3331497724315722,
                -2.7958111242413333,
                -0.5264985586151731,
                -3.046353796252869
            ]
        },
        {
            "positions": [
                -0.1519228120737676,
                -2.2424489278272026,
                -1.250749340723914,
                -2.870482577755422,
                -0.34659831859211643,
                -3.0394064429063605
            ]
        },
        {
            "positions": [
                -0.16860649322133692,
                -2.2589716528962076,
                -1.168348909016256,
                -2.9451540312695106,
                -0.1666980785690597,
                -3.032459089559852
            ]
        }
    ]
}