{
    "goal": {
        "global_pose": {
            "orientation": {
                "w": 0.7031023480610252,
                "x": -0.7110244013736278,
                "y": 0.0077485991402295624,
                "z": 0.005598929693374583
            },
            "position": {
                "x": -0.8841497679147869,
                "y": 0.44412534475326537,
                "z": 0.3711530566215515
            }
        },
        "name": "move_to_auspresseinheit_D"
    },
    "id": "LBTRRT_move_to_auspresseinheit_D_94",
    "joint_names": [
        "shoulder_pan_joint",
        "shoulder_lift_joint",
        "elbow_joint",
        "wrist_1_joint",
        "wrist_2_joint",
        "wrist_3_joint"
    ],
    "metrics": {
        "cart_traj_len": 0.3447983033314653,
        "distance_elbow_joint": 0.6671055542500173,
        "distance_shoulder_lift_joint": 0.13658583255766166,
        "distance_shoulder_pan_joint": 0.13368856961969208,
        "distance_wrist_1_joint": 0.6260893433037595,
        "distance_wrist_2_joint": 1.4316136541285867,
        "distance_wrist_3_joint": 0.0739597292524743,
        "smoothness": 1.9737298371844314e-16,
        "time": 5.005216980999999,
        "traj_len": 1.7518683406900737,
        "weighted_distance": 2.2966639151276547
    },
    "planner": "LBTRRT",
    "start": {
        "state": {
            "elbow_joint": -1.8275523626775212,
            "shoulder_lift_joint": -2.126789852344167,
            "shoulder_pan_joint": -0.03513704404078235,
            "wrist_1_joint": -2.347782403156801,
            "wrist_2_joint": -1.6058999987535132,
            "wrist_3_joint": -3.0880379163319196
        }
    },
    "waypoints": [
        {
            "positions": [
                -0.03513704404078235,
                -2.126789852344167,
                -1.8275523626775212,
                -2.347782403156801,
                -1.6058999987535132,
                -3.0880379163319196
            ]
        },
        {
            "positions": [
                -0.051848115243243856,
                -2.1438630814138744,
                -1.744164168396269,
                -2.426043571069771,
                -1.4269482919874399,
                -3.07879295017536
            ]
        },
        {
            "positions": [
                -0.06855918644570537,
                -2.1609363104835824,
                -1.6607759741150168,
                -2.5043047389827406,
                -1.2479965852213666,
                -3.069547984018801
            ]
        },
        {
            "positions": [
                -0.08527025764816687,
                -2.17800953955329,
                -1.5773877798337648,
                -2.5825659068957108,
                -1.0690448784552933,
                -3.0603030178622417
            ]
        },
        {
            "positions": [
                -0.10198132885062838,
                -2.1950827686229974,
                -1.4939995855525126,
                -2.6608270748086804,
                -0.8900931716892199,
                -3.0510580517056827
            ]
        },
        {
            "positions": [
                -0.1186924000530899,
                -2.2121559976927054,
                -1.4106113912712603,
                -2.7390882427216505,
                -0.7111414649231466,
                -3.041813085549123
            ]
        },
        {
            "positions": [
                -0.1354034712555514,
                -2.229229226762413,
                -1.3272231969900083,
                -2.8173494106346206,
                -0.5321897581570731,
                -3.0325681193925638
            ]
        },
        {
            "positions": [
                -0.15211454245801292,
                -2.246302455832121,
                -1.2438350027087561,
                -2.8956105785475907,
                -0.35323805139099984,
                -3.0233231532360048
            ]
        },
        {
            "positions": [
                -0.16882561366047444,
                -2.2633756849018285,
                -1.160446808427504,
                -2.9738717464605604,
                -0.17428634462492656,
                -3.0140781870794453
            ]
        }
    ]
}