{
    "goal": {
        "global_pose": {
            "orientation": {
                "w": 0.5084816217422485,
                "x": -0.49083608388900757,
                "y": 0.5182115435600281,
                "z": -0.4816462993621826
            },
            "position": {
                "x": 0.5540239810943604,
                "y": 0.030875300988554955,
                "z": 0.16403168439865112
            }
        },
        "name": "move_to_storage_A"
    },
    "id": "LBTRRT_move_to_storage_A_34",
    "joint_names": [
        "shoulder_pan_joint",
        "shoulder_lift_joint",
        "elbow_joint",
        "wrist_1_joint",
        "wrist_2_joint",
        "wrist_3_joint"
    ],
    "metrics": {
        "cart_traj_len": 0.3520915423342041,
        "distance_elbow_joint": 0.4510113130986724,
        "distance_shoulder_lift_joint": 0.23334515037831838,
        "distance_shoulder_pan_joint": 0.46098878235235813,
        "distance_wrist_1_joint": 0.2524764522086521,
        "distance_wrist_2_joint": 1.093676098842493,
        "distance_wrist_3_joint": 0.1086917615226426,
        "smoothness": 1.7763568429166847e-15,
        "time": 5.074184624,
        "traj_len": 1.612510328153943,
        "weighted_distance": 2.040520921848038
    },
    "planner": "LBTRRT",
    "start": {
        "state": {
            "elbow_joint": 1.971548259319323,
            "shoulder_lift_joint": -1.1394851275133948,
            "shoulder_pan_joint": 0.1228115487234821,
            "wrist_1_joint": -0.7804723859257726,
            "wrist_2_joint": 0.12958671773740124,
            "wrist_3_joint": -3.192489227718131
        }
    },
    "waypoints": [
        {
            "positions": [
                0.1228115487234821,
                -1.1394851275133948,
                1.971548259319323,
                -0.7804723859257726,
                0.12958671773740124,
                -3.192489227718131
            ]
        },
        {
            "positions": [
                0.05695600838743094,
                -1.1728201489960117,
                2.0359784469048474,
                -0.8165404505270086,
                0.28582616042918596,
                -3.1769618332148966
            ]
        },
        {
            "positions": [
                -0.008899531948620226,
                -1.2061551704786286,
                2.100408634490372,
                -0.8526085151282446,
                0.44206560312097065,
                -3.161434438711662
            ]
        },
        {
            "positions": [
                -0.07475507228467138,
                -1.2394901919612455,
                2.1648388220758967,
                -0.8886765797294807,
                0.5983050458127553,
                -3.1459070442084274
            ]
        },
        {
            "positions": [
                -0.14061061262072255,
                -1.2728252134438625,
                2.2292690096614214,
                -0.9247446443307167,
                0.75454448850454,
                -3.1303796497051923
            ]
        },
        {
            "positions": [
                -0.20646615295677373,
                -1.3061602349264794,
                2.293699197246946,
                -0.9608127089319527,
                0.9107839311963248,
                -3.1148522552019577
            ]
        },
        {
            "positions": [
                -0.27232169329282485,
                -1.3394952564090963,
                2.3581293848324707,
                -0.9968807735331887,
                1.0670233738881094,
                -3.099324860698723
            ]
        },
        {
            "positions": [
                -0.33817723362887603,
                -1.3728302778917132,
                2.4225595724179954,
                -1.0329488381344247,
                1.2232628165798942,
                -3.0837974661954886
            ]
        }
    ]
}{
    "goal": {
        "global_pose": {
            "orientation": {
                "w": 0.5084816217422485,
                "x": -0.49083608388900757,
                "y": 0.5182115435600281,
                "z": -0.4816462993621826
            },
            "position": {
                "x": 0.5540239810943604,
                "y": 0.030875300988554955,
                "z": 0.16403168439865112
            }
        },
        "name": "move_to_storage_A"
    },
    "id": "LBTRRT_move_to_storage_A_34",
    "joint_names": [
        "shoulder_pan_joint",
        "shoulder_lift_joint",
        "elbow_joint",
        "wrist_1_joint",
        "wrist_2_joint",
        "wrist_3_joint"
    ],
    "metrics": {
        "cart_traj_len": 0.3535134145633676,
        "distance_elbow_joint": 0.45330772018661847,
        "distance_shoulder_lift_joint": 0.23403483038047646,
        "distance_shoulder_pan_joint": 0.4644547982542154,
        "distance_wrist_1_joint": 0.2581045756494813,
        "distance_wrist_2_joint": 1.0902761804856997,
        "distance_wrist_3_joint": 0.10827867138596137,
        "smoothness": 8.881784197001252e-16,
        "time": 5.002340869,
        "traj_len": 1.6150717557874796,
        "weighted_distance": 2.042888855334415
    },
    "planner": "LBTRRT",
    "start": {
        "state": {
            "elbow_joint": 1.97154746011099,
            "shoulder_lift_joint": -1.13948474672311,
            "shoulder_pan_joint": 0.12281154466712228,
            "wrist_1_joint": -0.7804688027058302,
            "wrist_2_joint": 0.12958655903071145,
            "wrist_3_joint": 3.0906928834467795
        }
    },
    "waypoints": [
        {
            "positions": [
                0.12281154466712228,
                -1.13948474672311,
                1.97154746011099,
                -0.7804688027058302,
                0.12958655903071145,
                3.0906928834467795
            ]
        },
        {
            "positions": [
                0.05646085920223437,
                -1.1729182939203209,
                2.0363057058519356,
                -0.8173408849414704,
                0.2853402991000971,
                3.1061612650733452
            ]
        },
        {
            "positions": [
                -0.009889826262653542,
                -1.2063518411175318,
                2.101063951592881,
                -0.8542129671771106,
                0.44109403916948275,
                3.1216296466999114
            ]
        },
        {
            "positions": [
                -0.07624051172754144,
                -1.2397853883147427,
                2.1658221973338265,
                -0.8910850494127507,
                0.5968477792388684,
                3.137098028326477
            ]
        },
        {
            "positions": [
                -0.14259119719242935,
                -1.2732189355119536,
                2.2305804430747718,
                -0.9279571316483909,
                0.7526015193082541,
                3.1525664099530433
            ]
        },
        {
            "positions": [
                -0.20894188265731728,
                -1.3066524827091646,
                2.2953386888157175,
                -0.9648292138840311,
                0.9083552593776398,
                3.168034791579609
            ]
        },
        {
            "positions": [
                -0.27529256812220515,
                -1.3400860299063755,
                2.3600969345566627,
                -1.0017012961196712,
                1.0641089994470254,
                3.183503173206175
            ]
        },
        {
            "positions": [
                -0.3416432535870931,
                -1.3735195771035864,
                2.4248551802976084,
                -1.0385733783553115,
                1.2198627395164112,
                3.198971554832741
            ]
        }
    ]
}{
    "goal": {
        "global_pose": {
            "orientation": {
                "w": 0.5084816217422485,
                "x": -0.49083608388900757,
                "y": 0.5182115435600281,
                "z": -0.4816462993621826
            },
            "position": {
                "x": 0.5540239810943604,
                "y": 0.030875300988554955,
                "z": 0.16403168439865112
            }
        },
        "name": "move_to_storage_A"
    },
    "id": "LBTRRT_move_to_storage_A_34",
    "joint_names": [
        "shoulder_pan_joint",
        "shoulder_lift_joint",
        "elbow_joint",
        "wrist_1_joint",
        "wrist_2_joint",
        "wrist_3_joint"
    ],
    "metrics": {
        "cart_traj_len": 0.3539035719475532,
        "distance_elbow_joint": 0.45088560537530364,
        "distance_shoulder_lift_joint": 0.23261363398694135,
        "distance_shoulder_pan_joint": 0.46215025718323566,
        "distance_wrist_1_joint": 0.250772887544052,
        "distance_wrist_2_joint": 1.1021517201141662,
        "distance_wrist_3_joint": 0.09105623502861038,
        "smoothness": 2.2204460668324854e-16,
        "time": 5.004953193,
        "traj_len": 1.6092328418325015,
        "weighted_distance": 2.0309277232210277
    },
    "planner": "LBTRRT",
    "start": {
        "state": {
            "elbow_joint": 1.9715472970024885,
            "shoulder_lift_joint": -1.1394870060712896,
            "shoulder_pan_joint": 0.12281152778156021,
            "wrist_1_joint": -0.780463741449964,
            "wrist_2_joint": 0.12958659822042276,
            "wrist_3_joint": 3.090690232415272
        }
    },
    "waypoints": [
        {
            "positions": [
                0.12281152778156021,
                -1.1394870060712896,
                1.9715472970024885,
                -0.780463741449964,
                0.12958659822042276,
                3.090690232415272
            ]
        },
        {
            "positions": [
                0.0567900624696694,
                -1.1727175252122812,
                2.0359595263418178,
                -0.8162884396705429,
                0.2870368439510179,
                3.1036982659907877
            ]
        },
        {
            "positions": [
                -0.009231402842221403,
                -1.2059480443532729,
                2.1003717556811465,
                -0.8521131378911218,
                0.4444870896816131,
                3.1167062995663035
            ]
        },
        {
            "positions": [
                -0.0752528681541122,
                -1.2391785634942645,
                2.1647839850204758,
                -0.8879378361117005,
                0.6019373354122083,
                3.1297143331418193
            ]
        },
        {
            "positions": [
                -0.14127433346600302,
                -1.272409082635256,
                2.229196214359805,
                -0.9237625343322794,
                0.7593875811428034,
                3.1427223667173347
            ]
        },
        {
            "positions": [
                -0.20729579877789386,
                -1.3056396017762477,
                2.293608443699134,
                -0.9595872325528583,
                0.9168378268733985,
                3.1557304002928506
            ]
        },
        {
            "positions": [
                -0.27331726408978463,
                -1.3388701209172393,
                2.358020673038463,
                -0.9954119307734371,
                1.0742880726039938,
                3.1687384338683664
            ]
        },
        {
            "positions": [
                -0.3393387294016754,
                -1.372100640058231,
                2.422432902377792,
                -1.031236628994016,
                1.231738318334589,
                3.1817464674438822
            ]
        }
    ]
}