{
    "goal": {
        "global_pose": {
            "orientation": {
                "w": 0.5084816262002911,
                "x": -0.4908360881923452,
                "y": 0.5182115481033761,
                "z": -0.48164630358495003
            },
            "position": {
                "x": 0.5540239810943604,
                "y": -0.46912469901144505,
                "z": 0.16403168439865112
            }
        },
        "name": "move_to_storage_B"
    },
    "id": "LBTRRT_move_to_storage_B_150",
    "joint_names": [
        "shoulder_pan_joint",
        "shoulder_lift_joint",
        "elbow_joint",
        "wrist_1_joint",
        "wrist_2_joint",
        "wrist_3_joint"
    ],
    "metrics": {
        "cart_traj_len": 1.0454137032962516,
        "distance_elbow_joint": 0.415913244990068,
        "distance_shoulder_lift_joint": 0.4609491503156722,
        "distance_shoulder_pan_joint": 0.8753219680836096,
        "distance_wrist_1_joint": 2.9960051401953973,
        "distance_wrist_2_joint": 2.7173919396993647,
        "distance_wrist_3_joint": 3.141154452692359,
        "smoothness": 0.09114700092804266,
        "time": 5.038527103000001,
        "traj_len": 3.256798411934099,
        "weighted_distance": 4.754202549456212
    },
    "planner": "LBTRRT",
    "start": {
        "state": {
            "elbow_joint": 1.664937868594044,
            "shoulder_lift_joint": -0.661644460510453,
            "shoulder_pan_joint": -0.9139846352900073,
            "wrist_1_joint": 2.146753192139373,
            "wrist_2_joint": -2.2341966793290973,
            "wrist_3_joint": 0.005466555786416001
        }
    },
    "waypoints": [
        {
            "positions": [
                -0.9139846352900073,
                -0.661644460510453,
                1.664937868594044,
                2.146753192139373,
                -2.2341966793290973,
                0.005466555786416001
            ]
        },
        {
            "positions": [
                -0.844587024624316,
                -0.7171919978401383,
                1.6588386672934061,
                2.1231935646614586,
                -2.1754815164607115,
                -0.11054890819815807
            ]
        },
        {
            "positions": [
                -0.7751894139586246,
                -0.7727395351698237,
                1.6527394659927683,
                2.099633937183544,
                -2.1167663535923253,
                -0.22656437218273215
            ]
        },
        {
            "positions": [
                -0.7057918032929333,
                -0.8282870724995091,
                1.6466402646921303,
                2.0760743097056293,
                -2.0580511907239396,
                -0.3425798361673062
            ]
        },
        {
            "positions": [
                -0.6363941926272421,
                -0.8838346098291945,
                1.6405410633914925,
                2.0525146822277147,
                -1.9993360278555536,
                -0.45859530015188027
            ]
        },
        {
            "positions": [
                -0.5669965819615508,
                -0.9393821471588798,
                1.6344418620908547,
                2.0289550547498,
                -1.9406208649871677,
                -0.5746107641364544
            ]
        },
        {
            "positions": [
                -0.5899676217335139,
                -0.9473478629704991,
                1.6511991333294147,
                1.903815619845199,
                -1.8352375551890183,
                -0.6859619438220843
            ]
        },
        {
            "positions": [
                -0.6129386615054772,
                -0.9553135787821185,
                1.6679564045679747,
                1.7786761849405979,
                -1.729854245390869,
                -0.7973131235077143
            ]
        },
        {
            "positions": [
                -0.6359097012774403,
                -0.9632792945937378,
                1.6847136758065346,
                1.653536750035997,
                -1.6244709355927196,
                -0.9086643031933442
            ]
        },
        {
            "positions": [
                -0.6588807410494035,
                -0.9712450104053573,
                1.7014709470450946,
                1.5283973151313959,
                -1.5190876257945702,
                -1.0200154828789743
            ]
        },
        {
            "positions": [
                -0.6818517808213667,
                -0.9792107262169766,
                1.7182282182836546,
                1.403257880226795,
                -1.413704315996421,
                -1.1313666625646042
            ]
        },
        {
            "positions": [
                -0.7048228205933298,
                -0.987176442028596,
                1.7349854895222143,
                1.2781184453221939,
                -1.3083210061982715,
                -1.242717842250234
            ]
        },
        {
            "positions": [
                -0.727793860365293,
                -0.9951421578402153,
                1.7517427607607743,
                1.1529790104175928,
                -1.2029376964001222,
                -1.3540690219358642
            ]
        },
        {
            "positions": [
                -0.7507649001372563,
                -1.0031078736518346,
                1.7685000319993343,
                1.0278395755129917,
                -1.0975543866019728,
                -1.4654202016214941
            ]
        },
        {
            "positions": [
                -0.7737359399092194,
                -1.0110735894634542,
                1.7852573032378942,
                0.9027001406083905,
                -0.9921710768038234,
                -1.576771381307124
            ]
        },
        {
            "positions": [
                -0.7967069796811825,
                -1.0190393052750735,
                1.8020145744764542,
                0.7775607057037897,
                -0.8867877670056743,
                -1.688122560992754
            ]
        },
        {
            "positions": [
                -0.8196780194531458,
                -1.0270050210866928,
                1.8187718457150142,
                0.6524212707991885,
                -0.7814044572075247,
                -1.7994737406783838
            ]
        },
        {
            "positions": [
                -0.8426490592251089,
                -1.034970736898312,
                1.8355291169535741,
                0.5272818358945874,
                -0.6760211474093756,
                -1.9108249203640137
            ]
        },
        {
            "positions": [
                -0.8656200989970722,
                -1.0429364527099316,
                1.852286388192134,
                0.40214240098998655,
                -0.5706378376112262,
                -2.0221761000496437
            ]
        },
        {
            "positions": [
                -0.8885911387690353,
                -1.050902168521551,
                1.869043659430694,
                0.2770029660853852,
                -0.46525452781307663,
                -2.133527279735274
            ]
        },
        {
            "positions": [
                -0.9115621785409984,
                -1.0588678843331703,
                1.885800930669254,
                0.15186353118078433,
                -0.3598712180149275,
                -2.244878459420904
            ]
        },
        {
            "positions": [
                -0.9345332183129617,
                -1.0668336001447896,
                1.902558201907814,
                0.026724096276183218,
                -0.25448790821677814,
                -2.356229639106534
            ]
        },
        {
            "positions": [
                -0.9575042580849248,
                -1.074799315956409,
                1.9193154731463737,
                -0.09841533862841745,
                -0.14910459841862878,
                -2.4675808187921633
            ]
        },
        {
            "positions": [
                -0.980475297856888,
                -1.0827650317680284,
                1.936072744384934,
                -0.223554773533019,
                -0.04372128862047919,
                -2.5789319984777936
            ]
        },
        {
            "positions": [
                -1.0034463376288512,
                -1.0907307475796477,
                1.9528300156234937,
                -0.3486942084376201,
                0.061662021177669946,
                -2.6902831781634235
            ]
        },
        {
            "positions": [
                -1.0264173774008143,
                -1.098696463391267,
                1.9695872868620536,
                -0.4738336433422208,
                0.16704533097581908,
                -2.8016343578490535
            ]
        },
        {
            "positions": [
                -1.0493884171727776,
                -1.1066621792028863,
                1.9863445581006136,
                -0.5989730782468219,
                0.27242864077396867,
                -2.9129855375346834
            ]
        },
        {
            "positions": [
                -1.0723594569447408,
                -1.1146278950145059,
                2.003101829339174,
                -0.724112513151423,
                0.37781195057211825,
                -3.0243367172203133
            ]
        },
        {
            "positions": [
                -1.095330496716704,
                -1.1225936108261252,
                2.0198591005777335,
                -0.849251948056024,
                0.4831952603702673,
                -3.135687896905943
            ]
        }
    ]
}