{
    "goal": {
        "global_pose": {
            "orientation": {
                "w": 0.005598929693374612,
                "x": 0.007748599140229565,
                "y": 0.7110244013736278,
                "z": -0.7031023480610252
            },
            "position": {
                "x": 0.1141497679147869,
                "y": -0.7141253447532654,
                "z": 0.3711530566215515
            }
        },
        "name": "move_to_auspresseinheit_B"
    },
    "id": "LBTRRT_move_to_auspresseinheit_B_102",
    "joint_names": [
        "shoulder_pan_joint",
        "shoulder_lift_joint",
        "elbow_joint",
        "wrist_1_joint",
        "wrist_2_joint",
        "wrist_3_joint"
    ],
    "metrics": {
        "cart_traj_len": 0.5654570460093571,
        "distance_elbow_joint": 0.06234819372182532,
        "distance_shoulder_lift_joint": 0.2949024473066264,
        "distance_shoulder_pan_joint": 0.5790991476904184,
        "distance_wrist_1_joint": 0.32353730646305556,
        "distance_wrist_2_joint": 0.9861504799414431,
        "distance_wrist_3_joint": 0.007823184267669703,
        "smoothness": 0.0,
        "time": 5.004540327,
        "traj_len": 1.5012863682159505,
        "weighted_distance": 1.8918760303811866
    },
    "planner": "LBTRRT",
    "start": {
        "state": {
            "elbow_joint": 2.0193083361928714,
            "shoulder_lift_joint": -1.1220246554650708,
            "shoulder_pan_joint": -1.0952077554168747,
            "wrist_1_joint": -0.8559753972642168,
            "wrist_2_joint": 0.4759566250798843,
            "wrist_3_joint": -3.1240929996934557
        }
    },
    "waypoints": [
        {
            "positions": [
                -1.0952077554168747,
                -1.1220246554650708,
                2.0193083361928714,
                -0.8559753972642168,
                0.4759566250798843,
                -3.1240929996934557
            ]
        },
        {
            "positions": [
                -1.1917242800319443,
                -1.1711750633495086,
                2.0089169705725674,
                -0.8020525128537075,
                0.6403150384034582,
                -3.122789135648844
            ]
        },
        {
            "positions": [
                -1.2882408046470142,
                -1.2203254712339462,
                1.998525604952263,
                -0.7481296284431983,
                0.804673451727032,
                -3.1214852716042323
            ]
        },
        {
            "positions": [
                -1.3847573292620838,
                -1.269475879118384,
                1.9881342393319588,
                -0.694206744032689,
                0.9690318650506058,
                -3.120181407559621
            ]
        },
        {
            "positions": [
                -1.4812738538771535,
                -1.3186262870028218,
                1.9777428737116545,
                -0.6402838596221798,
                1.1333902783741796,
                -3.1188775435150093
            ]
        },
        {
            "positions": [
                -1.5777903784922234,
                -1.3677766948872594,
                1.9673515080913504,
                -0.5863609752116705,
                1.2977486916977536,
                -3.1175736794703974
            ]
        },
        {
            "positions": [
                -1.674306903107293,
                -1.4169271027716972,
                1.956960142471046,
                -0.5324380908011612,
                1.4621071050213275,
                -3.116269815425786
            ]
        }
    ]
}