{
    "goal": {
        "global_pose": {
            "orientation": {
                "w": -0.4816463035849501,
                "x": 0.5182115481033762,
                "y": 0.4908360881923453,
                "z": -0.5084816262002911
            },
            "position": {
                "x": -0.8240239810943604,
                "y": -0.300875300988555,
                "z": 0.16403168439865112
            }
        },
        "name": "move_to_storage_C"
    },
    "id": "LBTRRT_move_to_storage_C_8",
    "joint_names": [
        "shoulder_pan_joint",
        "shoulder_lift_joint",
        "elbow_joint",
        "wrist_1_joint",
        "wrist_2_joint",
        "wrist_3_joint"
    ],
    "metrics": {
        "cart_traj_len": 0.5766263589625746,
        "distance_elbow_joint": 0.2598041561950557,
        "distance_shoulder_lift_joint": 0.19044654629487068,
        "distance_shoulder_pan_joint": 0.4935825235511233,
        "distance_wrist_1_joint": 0.08285903277035589,
        "distance_wrist_2_joint": 1.0742816029360172,
        "distance_wrist_3_joint": 0.06481915901596169,
        "smoothness": 2.5376526478085547e-16,
        "time": 5.003668212,
        "traj_len": 1.4716633517090056,
        "weighted_distance": 1.8581097853737492
    },
    "planner": "LBTRRT",
    "start": {
        "state": {
            "elbow_joint": 2.010868314990456,
            "shoulder_lift_joint": -1.1634956873337592,
            "shoulder_pan_joint": -2.4736205022346125,
            "wrist_1_joint": -0.8367026794202681,
            "wrist_2_joint": 0.6746043897044499,
            "wrist_3_joint": -3.1496632123970403
        }
    },
    "waypoints": [
        {
            "positions": [
                -2.4736205022346125,
                -1.1634956873337592,
                2.010868314990456,
                -0.8367026794202681,
                0.6746043897044499,
                -3.1496632123970403
            ]
        },
        {
            "positions": [
                -2.5558842561598,
                -1.131754596284614,
                1.96756762229128,
                -0.8228928406252087,
                0.8536513235271195,
                -3.1388600192277134
            ]
        },
        {
            "positions": [
                -2.638148010084987,
                -1.100013505235469,
                1.924266929592104,
                -0.8090830018301495,
                1.032698257349789,
                -3.1280568260583865
            ]
        },
        {
            "positions": [
                -2.720411764010174,
                -1.0682724141863238,
                1.8809662368929279,
                -0.7952731630350902,
                1.2117451911724584,
                -3.117253632889059
            ]
        },
        {
            "positions": [
                -2.8026755179353615,
                -1.0365313231371787,
                1.837665544193752,
                -0.7814633242400308,
                1.3907921249951278,
                -3.1064504397197323
            ]
        },
        {
            "positions": [
                -2.8849392718605484,
                -1.0047902320880335,
                1.794364851494576,
                -0.7676534854449715,
                1.5698390588177977,
                -3.0956472465504055
            ]
        },
        {
            "positions": [
                -2.967203025785736,
                -0.9730491410388885,
                1.7510641587954001,
                -0.7538436466499122,
                1.748885992640467,
                -3.0848440533810786
            ]
        }
    ]
}