{
    "goal": {
        "global_pose": {
            "orientation": {
                "w": -0.4816463035849501,
                "x": 0.5182115481033762,
                "y": 0.4908360881923453,
                "z": -0.5084816262002911
            },
            "position": {
                "x": -0.8240239810943604,
                "y": 0.19912469901144506,
                "z": 0.16403168439865112
            }
        },
        "name": "move_to_storage_D"
    },
    "id": "LBTRRT_move_to_storage_D_123",
    "joint_names": [
        "shoulder_pan_joint",
        "shoulder_lift_joint",
        "elbow_joint",
        "wrist_1_joint",
        "wrist_2_joint",
        "wrist_3_joint"
    ],
    "metrics": {
        "cart_traj_len": 4.362520169768156,
        "distance_elbow_joint": 4.212242504929246,
        "distance_shoulder_lift_joint": 1.2641232963991098,
        "distance_shoulder_pan_joint": 2.813574439944688,
        "distance_wrist_1_joint": 2.27620913000947,
        "distance_wrist_2_joint": 2.955261928364387,
        "distance_wrist_3_joint": 3.1428378510878945,
        "smoothness": 0.11125398195816776,
        "time": 5.032305234,
        "traj_len": 4.082186809877127,
        "weighted_distance": 5.308615253649904
    },
    "planner": "LBTRRT",
    "start": {
        "state": {
            "elbow_joint": -2.384821988534728,
            "shoulder_lift_joint": -2.2788054721415256,
            "shoulder_pan_joint": -0.1854694642142757,
            "wrist_1_joint": 1.4845938289331202,
            "wrist_2_joint": 0.17898776772866878,
            "wrist_3_joint": 0.037105688729662994
        }
    },
    "waypoints": [
        {
            "positions": [
                -0.1854694642142757,
                -2.2788054721415256,
                -2.384821988534728,
                1.4845938289331202,
                0.17898776772866878,
                0.037105688729662994
            ]
        },
        {
            "positions": [
                -0.09489430589724392,
                -2.232593585262778,
                -2.3169841317042947,
                1.4020618985931113,
                0.25569769836085604,
                0.06543463260872359
            ]
        },
        {
            "positions": [
                -0.004319147580212124,
                -2.1863816983840305,
                -2.2491462748738615,
                1.3195299682531025,
                0.3324076289930433,
                0.09376357648778418
            ]
        },
        {
            "positions": [
                0.08625601073681968,
                -2.1401698115052827,
                -2.1813084180434283,
                1.2369980379130936,
                0.40911755962523055,
                0.12209252036684476
            ]
        },
        {
            "positions": [
                0.17683116905385146,
                -2.093957924626535,
                -2.1134705612129947,
                1.1544661075730849,
                0.4858274902574178,
                0.15042146424590536
            ]
        },
        {
            "positions": [
                0.2674063273708833,
                -2.047746037747787,
                -2.0456327043825615,
                1.071934177233076,
                0.5625374208896051,
                0.17875040812496595
            ]
        },
        {
            "positions": [
                0.3579814856879151,
                -2.00153415086904,
                -1.9777948475521285,
                0.9894022468930671,
                0.6392473515217924,
                0.20707935200402652
            ]
        },
        {
            "positions": [
                0.448556644004947,
                -1.955322263990292,
                -1.9099569907216951,
                0.9068703165530582,
                0.7159572821539796,
                0.23540829588308712
            ]
        },
        {
            "positions": [
                0.5391318023219787,
                -1.9091103771115443,
                -1.842119133891262,
                0.8243383862130493,
                0.7926672127861668,
                0.2637372397621477
            ]
        },
        {
            "positions": [
                0.6297069606390104,
                -1.8628984902327967,
                -1.7742812770608287,
                0.7418064558730405,
                0.869377143418354,
                0.2920661836412083
            ]
        },
        {
            "positions": [
                0.7202821189560423,
                -1.816686603354049,
                -1.7064434202303955,
                0.6592745255330317,
                0.9460870740505414,
                0.3203951275202689
            ]
        },
        {
            "positions": [
                0.8108572772730741,
                -1.7704747164753014,
                -1.6386055633999623,
                0.5767425951930228,
                1.0227970046827286,
                0.3487240713993295
            ]
        },
        {
            "positions": [
                0.9014324355901059,
                -1.7242628295965536,
                -1.5707677065695291,
                0.494210664853014,
                1.0995069353149158,
                0.3770530152783901
            ]
        },
        {
            "positions": [
                0.9920075939071377,
                -1.6780509427178059,
                -1.5029298497390955,
                0.4116787345130051,
                1.176216865947103,
                0.4053819591574507
            ]
        },
        {
            "positions": [
                1.0825827522241696,
                -1.6318390558390583,
                -1.4350919929086623,
                0.32914680417299613,
                1.2529267965792905,
                0.4337109030365113
            ]
        },
        {
            "positions": [
                1.173157910541201,
                -1.5856271689603108,
                -1.3672541360782293,
                0.2466148738329874,
                1.3296367272114777,
                0.46203984691557176
            ]
        },
        {
            "positions": [
                1.2637330688582329,
                -1.539415282081563,
                -1.299416279247796,
                0.16408294349297847,
                1.406346657843665,
                0.49036879079463247
            ]
        },
        {
            "positions": [
                1.354308227175265,
                -1.4932033952028152,
                -1.2315784224173627,
                0.08155101315296953,
                1.4830565884758522,
                0.5186977346736931
            ]
        },
        {
            "positions": [
                1.4448833854922964,
                -1.4469915083240679,
                -1.1637405655869295,
                -0.0009809171870391875,
                1.5597665191080394,
                0.5470266785527536
            ]
        },
        {
            "positions": [
                1.5354585438093284,
                -1.40077962144532,
                -1.095902708756496,
                -0.0835128475270479,
                1.6364764497402267,
                0.5753556224318143
            ]
        },
        {
            "positions": [
                1.6260337021263602,
                -1.3545677345665723,
                -1.028064851926063,
                -0.16604477786705685,
                1.713186380372414,
                0.6036845663108749
            ]
        },
        {
            "positions": [
                1.7166088604433918,
                -1.3083558476878248,
                -0.9602269950956297,
                -0.24857670820706557,
                1.7898963110046011,
                0.6320135101899353
            ]
        },
        {
            "positions": [
                1.8071840187604238,
                -1.262143960809077,
                -0.8923891382651965,
                -0.3311086385470745,
                1.8666062416367886,
                0.6603424540689959
            ]
        },
        {
            "positions": [
                1.8977591770774556,
                -1.2159320739303294,
                -0.8245512814347631,
                -0.41364056888708345,
                1.9433161722689758,
                0.6886713979480565
            ]
        },
        {
            "positions": [
                1.9883343353944873,
                -1.1697201870515819,
                -0.7567134246043301,
                -0.49617249922709217,
                2.020026102901163,
                0.7170003418271171
            ]
        },
        {
            "positions": [
                2.078909493711519,
                -1.123508300172834,
                -0.6888755677738968,
                -0.5787044295671011,
                2.0967360335333503,
                0.7453292857061777
            ]
        },
        {
            "positions": [
                2.1094203538236798,
                -1.1174624043711443,
                -0.5490813408756515,
                -0.590532811317615,
                2.0390963856133664,
                0.8805856331568099
            ]
        },
        {
            "positions": [
                2.1399312139358404,
                -1.1114165085694543,
                -0.4092871139774063,
                -0.602361193068129,
                1.9814567376933827,
                1.0158419806074421
            ]
        },
        {
            "positions": [
                2.170442074048001,
                -1.1053706127677643,
                -0.2694928870791611,
                -0.6141895748186429,
                1.923817089773399,
                1.1510983280580742
            ]
        },
        {
            "positions": [
                2.200952934160162,
                -1.0993247169660745,
                -0.1296986601809158,
                -0.6260179565691568,
                1.8661774418534154,
                1.2863546755087065
            ]
        },
        {
            "positions": [
                2.2314637942723228,
                -1.0932788211643847,
                0.010095566717329474,
                -0.6378463383196706,
                1.8085377939334315,
                1.4216110229593388
            ]
        },
        {
            "positions": [
                2.2619746543844834,
                -1.0872329253626947,
                0.14988979361557464,
                -0.6496747200701846,
                1.7508981460134478,
                1.556867370409971
            ]
        },
        {
            "positions": [
                2.292485514496644,
                -1.0811870295610047,
                0.28968402051382003,
                -0.6615031018206985,
                1.6932584980934642,
                1.6921237178606032
            ]
        },
        {
            "positions": [
                2.3229963746088047,
                -1.0751411337593149,
                0.4294782474120652,
                -0.6733314835712124,
                1.6356188501734805,
                1.8273800653112353
            ]
        },
        {
            "positions": [
                2.353507234720966,
                -1.069095237957625,
                0.5692724743103105,
                -0.6851598653217263,
                1.5779792022534966,
                1.9626364127618676
            ]
        },
        {
            "positions": [
                2.3840180948331264,
                -1.063049342155935,
                0.7090667012085557,
                -0.6969882470722403,
                1.5203395543335128,
                2.0978927602125
            ]
        },
        {
            "positions": [
                2.414528954945287,
                -1.057003446354245,
                0.848860928106801,
                -0.7088166288227542,
                1.462699906413529,
                2.2331491076631322
            ]
        },
        {
            "positions": [
                2.4450398150574477,
                -1.0509575505525552,
                0.9886551550050461,
                -0.720645010573268,
                1.4050602584935454,
                2.368405455113764
            ]
        },
        {
            "positions": [
                2.4755506751696084,
                -1.0449116547508654,
                1.1284493819032915,
                -0.7324733923237821,
                1.3474206105735616,
                2.5036618025643964
            ]
        },
        {
            "positions": [
                2.506061535281769,
                -1.0388657589491754,
                1.2682436088015367,
                -0.7443017740742959,
                1.2897809626535781,
                2.6389181500150287
            ]
        },
        {
            "positions": [
                2.5365723953939296,
                -1.0328198631474854,
                1.408037835699782,
                -0.7561301558248099,
                1.2321413147335942,
                2.774174497465661
            ]
        },
        {
            "positions": [
                2.5670832555060907,
                -1.0267739673457956,
                1.5478320625980273,
                -0.7679585375753237,
                1.1745016668136106,
                2.909430844916293
            ]
        },
        {
            "positions": [
                2.5975941156182514,
                -1.0207280715441058,
                1.6876262894962726,
                -0.7797869193258377,
                1.116862018893627,
                3.044687192366925
            ]
        },
        {
            "positions": [
                2.628104975730412,
                -1.0146821757424158,
                1.8274205163945179,
                -0.7916153010763516,
                1.059222370973643,
                3.1799435398175575
            ]
        }
    ]
}