{
    "goal": {
        "global_pose": {
            "orientation": {
                "w": 0.5084816217422485,
                "x": -0.49083608388900757,
                "y": 0.5182115435600281,
                "z": -0.4816462993621826
            },
            "position": {
                "x": 0.5540239810943604,
                "y": 0.030875300988554955,
                "z": 0.16403168439865112
            }
        },
        "name": "move_to_storage_A"
    },
    "id": "LBTRRT_move_to_storage_A_148",
    "joint_names": [
        "shoulder_pan_joint",
        "shoulder_lift_joint",
        "elbow_joint",
        "wrist_1_joint",
        "wrist_2_joint",
        "wrist_3_joint"
    ],
    "metrics": {
        "cart_traj_len": 0.35258770809314854,
        "distance_elbow_joint": 0.4504701932021946,
        "distance_shoulder_lift_joint": 0.23562192021443895,
        "distance_shoulder_pan_joint": 0.46173215143221275,
        "distance_wrist_1_joint": 0.24192294308992135,
        "distance_wrist_2_joint": 1.0957540719824228,
        "distance_wrist_3_joint": 0.09247306301809255,
        "smoothness": 2.2204460668324854e-16,
        "time": 5.003653890000001,
        "traj_len": 1.605607157102659,
        "weighted_distance": 2.024993205926334
    },
    "planner": "LBTRRT",
    "start": {
        "state": {
            "elbow_joint": 1.971548259319323,
            "shoulder_lift_joint": -1.1394851275133948,
            "shoulder_pan_joint": 0.1228115487234821,
            "wrist_1_joint": -0.7804723859257726,
            "wrist_2_joint": 0.12958671773740124,
            "wrist_3_joint": -3.192489227718131
        }
    },
    "waypoints": [
        {
            "positions": [
                0.1228115487234821,
                -1.1394851275133948,
                1.971548259319323,
                -0.7804723859257726,
                0.12958671773740124,
                -3.192489227718131
            ]
        },
        {
            "positions": [
                0.05684981280459457,
                -1.1731454018297431,
                2.0359011440624935,
                -0.81503280636719,
                0.28612301373489024,
                -3.1792787901441177
            ]
        },
        {
            "positions": [
                -0.009111923114292958,
                -1.2068056761460917,
                2.100254028805664,
                -0.8495932268086073,
                0.4426593097323792,
                -3.1660683525701048
            ]
        },
        {
            "positions": [
                -0.0750736590331805,
                -1.24046595046244,
                2.164606913548835,
                -0.8841536472500247,
                0.5991956057298682,
                -3.1528579149960914
            ]
        },
        {
            "positions": [
                -0.14103539495206802,
                -1.2741262247787886,
                2.2289597982920055,
                -0.9187140676914419,
                0.7557319017273572,
                -3.1396474774220784
            ]
        },
        {
            "positions": [
                -0.20699713087095556,
                -1.307786499095137,
                2.293312683035176,
                -0.9532744881328593,
                0.9122681977248461,
                -3.126437039848065
            ]
        },
        {
            "positions": [
                -0.2729588667898431,
                -1.3414467734114854,
                2.357665567778347,
                -0.9878349085742766,
                1.068804493722335,
                -3.113226602274052
            ]
        },
        {
            "positions": [
                -0.33892060270873064,
                -1.3751070477278338,
                2.4220184525215176,
                -1.022395329015694,
                1.225340789719824,
                -3.1000161647000386
            ]
        }
    ]
}{
    "goal": {
        "global_pose": {
            "orientation": {
                "w": 0.5084816217422485,
                "x": -0.49083608388900757,
                "y": 0.5182115435600281,
                "z": -0.4816462993621826
            },
            "position": {
                "x": 0.5540239810943604,
                "y": 0.030875300988554955,
                "z": 0.16403168439865112
            }
        },
        "name": "move_to_storage_A"
    },
    "id": "LBTRRT_move_to_storage_A_148",
    "joint_names": [
        "shoulder_pan_joint",
        "shoulder_lift_joint",
        "elbow_joint",
        "wrist_1_joint",
        "wrist_2_joint",
        "wrist_3_joint"
    ],
    "metrics": {
        "cart_traj_len": 0.3528920787674058,
        "distance_elbow_joint": 0.4498203649316763,
        "distance_shoulder_lift_joint": 0.2347741740293543,
        "distance_shoulder_pan_joint": 0.45940061789516085,
        "distance_wrist_1_joint": 0.23803879803498895,
        "distance_wrist_2_joint": 1.1078664667754297,
        "distance_wrist_3_joint": 0.08868729059761193,
        "smoothness": 2.2204460668324854e-16,
        "time": 5.003265578,
        "traj_len": 1.605798154272268,
        "weighted_distance": 2.0253067812728682
    },
    "planner": "LBTRRT",
    "start": {
        "state": {
            "elbow_joint": 1.97154746011099,
            "shoulder_lift_joint": -1.13948474672311,
            "shoulder_pan_joint": 0.12281154466712228,
            "wrist_1_joint": -0.7804688027058302,
            "wrist_2_joint": 0.12958655903071145,
            "wrist_3_joint": 3.0906928834467795
        }
    },
    "waypoints": [
        {
            "positions": [
                0.12281154466712228,
                -1.13948474672311,
                1.97154746011099,
                -0.7804688027058302,
                0.12958655903071145,
                3.0906928834467795
            ]
        },
        {
            "positions": [
                0.057182884967813596,
                -1.173023914441589,
                2.0358075122440864,
                -0.8144743452822572,
                0.2878531971414871,
                3.1033624963892956
            ]
        },
        {
            "positions": [
                -0.00844577473149509,
                -1.2065630821600684,
                2.1000675643771833,
                -0.8484798878586841,
                0.44611983525226273,
                3.1160321093318113
            ]
        },
        {
            "positions": [
                -0.07407443443080379,
                -1.2401022498785474,
                2.16432761651028,
                -0.8824854304351112,
                0.6043864733630384,
                3.1287017222743274
            ]
        },
        {
            "positions": [
                -0.13970309413011245,
                -1.2736414175970268,
                2.2285876686433763,
                -0.9164909730115381,
                0.7626531114738141,
                3.1413713352168435
            ]
        },
        {
            "positions": [
                -0.20533175382942115,
                -1.3071805853155058,
                2.2928477207764733,
                -0.9504965155879652,
                0.9209197495845898,
                3.1540409481593596
            ]
        },
        {
            "positions": [
                -0.27096041352872985,
                -1.340719753033985,
                2.3571077729095697,
                -0.9845020581643922,
                1.0791863876953653,
                3.1667105611018753
            ]
        },
        {
            "positions": [
                -0.33658907322803855,
                -1.3742589207524643,
                2.4213678250426662,
                -1.0185076007408191,
                1.2374530258061411,
                3.1793801740443914
            ]
        }
    ]
}{
    "goal": {
        "global_pose": {
            "orientation": {
                "w": 0.5084816217422485,
                "x": -0.49083608388900757,
                "y": 0.5182115435600281,
                "z": -0.4816462993621826
            },
            "position": {
                "x": 0.5540239810943604,
                "y": 0.030875300988554955,
                "z": 0.16403168439865112
            }
        },
        "name": "move_to_storage_A"
    },
    "id": "LBTRRT_move_to_storage_A_148",
    "joint_names": [
        "shoulder_pan_joint",
        "shoulder_lift_joint",
        "elbow_joint",
        "wrist_1_joint",
        "wrist_2_joint",
        "wrist_3_joint"
    ],
    "metrics": {
        "cart_traj_len": 0.35225278818424205,
        "distance_elbow_joint": 0.4497837351724021,
        "distance_shoulder_lift_joint": 0.2347013464919716,
        "distance_shoulder_pan_joint": 0.45787674057466865,
        "distance_wrist_1_joint": 0.24463517677483648,
        "distance_wrist_2_joint": 1.1089513072883397,
        "distance_wrist_3_joint": 0.08826935608566355,
        "smoothness": 4.440892098500626e-16,
        "time": 5.005118316000001,
        "traj_len": 1.6075502052464434,
        "weighted_distance": 2.0283842975684823
    },
    "planner": "LBTRRT",
    "start": {
        "state": {
            "elbow_joint": 1.9715472970024885,
            "shoulder_lift_joint": -1.1394870060712896,
            "shoulder_pan_joint": 0.12281152778156021,
            "wrist_1_joint": -0.780463741449964,
            "wrist_2_joint": 0.12958659822042276,
            "wrist_3_joint": 3.090690232415272
        }
    },
    "waypoints": [
        {
            "positions": [
                0.12281152778156021,
                -1.1394870060712896,
                1.9715472970024885,
                -0.780463741449964,
                0.12958659822042276,
                3.090690232415272
            ]
        },
        {
            "positions": [
                0.05740056484232184,
                -1.173015769855857,
                2.0358021163128317,
                -0.8154116238463692,
                0.2880082135473284,
                3.1033001404275096
            ]
        },
        {
            "positions": [
                -0.008010398096916532,
                -1.2065445336404244,
                2.100056935623175,
                -0.8503595062427745,
                0.4464298288742341,
                3.1159100484397473
            ]
        },
        {
            "positions": [
                -0.0734213610361549,
                -1.2400732974249917,
                2.164311754933518,
                -0.8853073886391796,
                0.6048514442011398,
                3.128519956451985
            ]
        },
        {
            "positions": [
                -0.13883232397539327,
                -1.273602061209559,
                2.228566574243861,
                -0.9202552710355848,
                0.7632730595280454,
                3.1411298644642223
            ]
        },
        {
            "positions": [
                -0.2042432869146317,
                -1.3071308249941265,
                2.2928213935542043,
                -0.95520315343199,
                0.921694674854951,
                3.15373977247646
            ]
        },
        {
            "positions": [
                -0.26965424985387,
                -1.3406595887786938,
                2.3570762128645475,
                -0.9901510358283953,
                1.0801162901818568,
                3.1663496804886977
            ]
        },
        {
            "positions": [
                -0.3350652127931084,
                -1.3741883525632612,
                2.4213310321748907,
                -1.0250989182248005,
                1.2385379055087624,
                3.1789595885009354
            ]
        }
    ]
}