{
    "goal": {
        "global_pose": {
            "orientation": {
                "w": 0.5084816217422485,
                "x": -0.49083608388900757,
                "y": 0.5182115435600281,
                "z": -0.4816462993621826
            },
            "position": {
                "x": 0.5540239810943604,
                "y": 0.030875300988554955,
                "z": 0.16403168439865112
            }
        },
        "name": "move_to_storage_A"
    },
    "id": "LBTRRT_move_to_storage_A_46",
    "joint_names": [
        "shoulder_pan_joint",
        "shoulder_lift_joint",
        "elbow_joint",
        "wrist_1_joint",
        "wrist_2_joint",
        "wrist_3_joint"
    ],
    "metrics": {
        "cart_traj_len": 0.3529456871456572,
        "distance_elbow_joint": 0.4522861899886259,
        "distance_shoulder_lift_joint": 0.23357008612108587,
        "distance_shoulder_pan_joint": 0.46277348102892096,
        "distance_wrist_1_joint": 0.254588530279512,
        "distance_wrist_2_joint": 1.092927779734286,
        "distance_wrist_3_joint": 0.10782153890061341,
        "smoothness": 0.0,
        "time": 5.003883078,
        "traj_len": 1.6136813830657664,
        "weighted_distance": 2.041354205881005
    },
    "planner": "LBTRRT",
    "start": {
        "state": {
            "elbow_joint": 1.971548259319323,
            "shoulder_lift_joint": -1.1394851275133948,
            "shoulder_pan_joint": 0.1228115487234821,
            "wrist_1_joint": -0.7804723859257726,
            "wrist_2_joint": 0.12958671773740124,
            "wrist_3_joint": -3.192489227718131
        }
    },
    "waypoints": [
        {
            "positions": [
                0.1228115487234821,
                -1.1394851275133948,
                1.971548259319323,
                -0.7804723859257726,
                0.12958671773740124,
                -3.192489227718131
            ]
        },
        {
            "positions": [
                0.056701051433636254,
                -1.17285228267355,
                2.036160572174841,
                -0.8168421759657029,
                0.28571925769944206,
                -3.1770861507323294
            ]
        },
        {
            "positions": [
                -0.009409445856209592,
                -1.206219437833705,
                2.100772885030359,
                -0.8532119660056332,
                0.44185179766148297,
                -3.161683073746527
            ]
        },
        {
            "positions": [
                -0.07551994314605545,
                -1.23958659299386,
                2.165385197885877,
                -0.8895817560455634,
                0.5979843376235238,
                -3.1462799967607253
            ]
        },
        {
            "positions": [
                -0.14163044043590128,
                -1.2729537481540154,
                2.229997510741395,
                -0.9259515460854938,
                0.7541168775855647,
                -3.1308769197749236
            ]
        },
        {
            "positions": [
                -0.20774093772574714,
                -1.3063209033141705,
                2.294609823596913,
                -0.962321336125424,
                0.9102494175476056,
                -3.1154738427891218
            ]
        },
        {
            "positions": [
                -0.273851435015593,
                -1.3396880584743256,
                2.359222136452431,
                -0.9986911261653544,
                1.0663819575096463,
                -3.1000707658033195
            ]
        },
        {
            "positions": [
                -0.33996193230543886,
                -1.3730552136344807,
                2.423834449307949,
                -1.0350609162052846,
                1.2225144974716873,
                -3.0846676888175177
            ]
        }
    ]
}{
    "goal": {
        "global_pose": {
            "orientation": {
                "w": 0.5084816217422485,
                "x": -0.49083608388900757,
                "y": 0.5182115435600281,
                "z": -0.4816462993621826
            },
            "position": {
                "x": 0.5540239810943604,
                "y": 0.030875300988554955,
                "z": 0.16403168439865112
            }
        },
        "name": "move_to_storage_A"
    },
    "id": "LBTRRT_move_to_storage_A_46",
    "joint_names": [
        "shoulder_pan_joint",
        "shoulder_lift_joint",
        "elbow_joint",
        "wrist_1_joint",
        "wrist_2_joint",
        "wrist_3_joint"
    ],
    "metrics": {
        "cart_traj_len": 0.3537084620079915,
        "distance_elbow_joint": 0.4531878990570295,
        "distance_shoulder_lift_joint": 0.2327658061434097,
        "distance_shoulder_pan_joint": 0.4609271194343743,
        "distance_wrist_1_joint": 0.25593045436878104,
        "distance_wrist_2_joint": 1.1067031522057267,
        "distance_wrist_3_joint": 0.10231579533302648,
        "smoothness": 2.2204460668324854e-16,
        "time": 5.0034291,
        "traj_len": 1.6161157837674711,
        "weighted_distance": 2.0442835967113044
    },
    "planner": "LBTRRT",
    "start": {
        "state": {
            "elbow_joint": 1.97154746011099,
            "shoulder_lift_joint": -1.13948474672311,
            "shoulder_pan_joint": 0.12281154466712228,
            "wrist_1_joint": -0.7804688027058302,
            "wrist_2_joint": 0.12958655903071145,
            "wrist_3_joint": 3.0906928834467795
        }
    },
    "waypoints": [
        {
            "positions": [
                0.12281154466712228,
                -1.13948474672311,
                1.97154746011099,
                -0.7804688027058302,
                0.12958655903071145,
                3.0906928834467795
            ]
        },
        {
            "positions": [
                0.05696481331935453,
                -1.172737004743597,
                2.0362885885477082,
                -0.8170302961870847,
                0.28768700934581526,
                3.105309425637212
            ]
        },
        {
            "positions": [
                -0.008881918028413219,
                -1.2059892627640842,
                2.101029716984427,
                -0.853591789668339,
                0.44578745966091904,
                3.119925967827644
            ]
        },
        {
            "positions": [
                -0.07472864937618097,
                -1.2392415207845713,
                2.1657708454211453,
                -0.8901532831495935,
                0.6038879099760228,
                3.1345425100180764
            ]
        },
        {
            "positions": [
                -0.1405753807239487,
                -1.2724937788050583,
                2.230511973857864,
                -0.9267147766308479,
                0.7619883602911267,
                3.149159052208509
            ]
        },
        {
            "positions": [
                -0.2064221120717165,
                -1.3057460368255454,
                2.2952531022945823,
                -0.9632762701121024,
                0.9200888106062306,
                3.1637755943989414
            ]
        },
        {
            "positions": [
                -0.2722688434194842,
                -1.3389982948460326,
                2.359994230731301,
                -0.9998377635933567,
                1.0781892609213342,
                3.1783921365893737
            ]
        },
        {
            "positions": [
                -0.338115574767252,
                -1.3722505528665196,
                2.4247353591680194,
                -1.0363992570746112,
                1.2362897112364382,
                3.193008678779806
            ]
        }
    ]
}{
    "goal": {
        "global_pose": {
            "orientation": {
                "w": 0.5084816217422485,
                "x": -0.49083608388900757,
                "y": 0.5182115435600281,
                "z": -0.4816462993621826
            },
            "position": {
                "x": 0.5540239810943604,
                "y": 0.030875300988554955,
                "z": 0.16403168439865112
            }
        },
        "name": "move_to_storage_A"
    },
    "id": "LBTRRT_move_to_storage_A_46",
    "joint_names": [
        "shoulder_pan_joint",
        "shoulder_lift_joint",
        "elbow_joint",
        "wrist_1_joint",
        "wrist_2_joint",
        "wrist_3_joint"
    ],
    "metrics": {
        "cart_traj_len": 0.3534739238910191,
        "distance_elbow_joint": 0.4505249827815412,
        "distance_shoulder_lift_joint": 0.23536449539169646,
        "distance_shoulder_pan_joint": 0.464749752027498,
        "distance_wrist_1_joint": 0.23892220009666287,
        "distance_wrist_2_joint": 1.0896310361069563,
        "distance_wrist_3_joint": 0.09976003102910758,
        "smoothness": 4.440892098500626e-16,
        "time": 5.002331184,
        "traj_len": 1.605911734010765,
        "weighted_distance": 2.026579827121374
    },
    "planner": "LBTRRT",
    "start": {
        "state": {
            "elbow_joint": 1.9715472970024885,
            "shoulder_lift_joint": -1.1394870060712896,
            "shoulder_pan_joint": 0.12281152778156021,
            "wrist_1_joint": -0.780463741449964,
            "wrist_2_joint": 0.12958659822042276,
            "wrist_3_joint": 3.090690232415272
        }
    },
    "waypoints": [
        {
            "positions": [
                0.12281152778156021,
                -1.1394870060712896,
                1.9715472970024885,
                -0.780463741449964,
                0.12958659822042276,
                3.090690232415272
            ]
        },
        {
            "positions": [
                0.056418706063346216,
                -1.1731105054129605,
                2.035908008828423,
                -0.8145954843209159,
                0.2852481748071308,
                3.10494166541943
            ]
        },
        {
            "positions": [
                -0.009974115654867777,
                -1.2067340047546316,
                2.1002687206543573,
                -0.8487272271918677,
                0.4409097513938388,
                3.1191930984235885
            ]
        },
        {
            "positions": [
                -0.07636693737308178,
                -1.2403575040963024,
                2.1646294324802917,
                -0.8828589700628195,
                0.5965713279805469,
                3.1334445314277466
            ]
        },
        {
            "positions": [
                -0.14275975909129576,
                -1.2739810034379733,
                2.228990144306226,
                -0.9169907129337713,
                0.7522329045672549,
                3.1476959644319047
            ]
        },
        {
            "positions": [
                -0.2091525808095098,
                -1.3076045027796441,
                2.293350856132161,
                -0.9511224558047232,
                0.907894481153963,
                3.161947397436063
            ]
        },
        {
            "positions": [
                -0.27554540252772375,
                -1.3412280021213152,
                2.3577115679580953,
                -0.985254198675675,
                1.063556057740671,
                3.1761988304402213
            ]
        },
        {
            "positions": [
                -0.3419382242459378,
                -1.374851501462986,
                2.4220722797840297,
                -1.0193859415466269,
                1.219217634327379,
                3.1904502634443794
            ]
        }
    ]
}