{
    "goal": {
        "global_pose": {
            "orientation": {
                "w": -0.4816463035849501,
                "x": 0.5182115481033762,
                "y": 0.4908360881923453,
                "z": -0.5084816262002911
            },
            "position": {
                "x": -0.8240239810943604,
                "y": 0.19912469901144506,
                "z": 0.16403168439865112
            }
        },
        "name": "move_to_storage_D"
    },
    "id": "LBTRRT_move_to_storage_D_6",
    "joint_names": [
        "shoulder_pan_joint",
        "shoulder_lift_joint",
        "elbow_joint",
        "wrist_1_joint",
        "wrist_2_joint",
        "wrist_3_joint"
    ],
    "metrics": {
        "cart_traj_len": 3.954517127749113,
        "distance_elbow_joint": 4.215289446802932,
        "distance_shoulder_lift_joint": 1.3475295001137664,
        "distance_shoulder_pan_joint": 2.8152271373980966,
        "distance_wrist_1_joint": 2.2795936178726697,
        "distance_wrist_2_joint": 0.8876950031802647,
        "distance_wrist_3_joint": 3.1385240676595707,
        "smoothness": 0.02684179721160491,
        "time": 5.093505040999999,
        "traj_len": 3.8319523448272808,
        "weighted_distance": 4.912045961653797
    },
    "planner": "LBTRRT",
    "start": {
        "state": {
            "elbow_joint": -2.384821988534728,
            "shoulder_lift_joint": -2.2788054721415256,
            "shoulder_pan_joint": -0.1854694642142757,
            "wrist_1_joint": 1.4845938289331202,
            "wrist_2_joint": 0.17898776772866878,
            "wrist_3_joint": 0.037105688729662994
        }
    },
    "waypoints": [
        {
            "positions": [
                -0.1854694642142757,
                -2.2788054721415256,
                -2.384821988534728,
                1.4845938289331202,
                0.17898776772866878,
                0.037105688729662994
            ]
        },
        {
            "positions": [
                -0.17220106073486768,
                -2.27119753718119,
                -2.3857005779330063,
                1.4797294424404128,
                0.183539731193878,
                0.0342764375275149
            ]
        },
        {
            "positions": [
                -0.08677628164135555,
                -2.2306452000272237,
                -2.28502807550314,
                1.4183776660094332,
                0.21062454721427015,
                -0.045134484405132694
            ]
        },
        {
            "positions": [
                -0.001351502547843414,
                -2.190092862873257,
                -2.1843555730732733,
                1.3570258895784533,
                0.23770936323466232,
                -0.12454540633778029
            ]
        },
        {
            "positions": [
                0.08407327654566871,
                -2.1495405257192908,
                -2.083683070643407,
                1.2956741131474736,
                0.2647941792550545,
                -0.20395632827042787
            ]
        },
        {
            "positions": [
                0.16949805563918086,
                -2.1089881885653243,
                -1.9830105682135404,
                1.234322336716494,
                0.29187899527544664,
                -0.28336725020307546
            ]
        },
        {
            "positions": [
                0.254922834732693,
                -2.068435851411358,
                -1.882338065783674,
                1.172970560285514,
                0.3189638112958388,
                -0.36277817213572305
            ]
        },
        {
            "positions": [
                0.3403476138262051,
                -2.0278835142573914,
                -1.7816655633538074,
                1.1116187838545344,
                0.346048627316231,
                -0.44218909406837065
            ]
        },
        {
            "positions": [
                0.4257723929197173,
                -1.9873311771034252,
                -1.680993060923941,
                1.0502670074235545,
                0.3731334433366231,
                -0.5216000160010184
            ]
        },
        {
            "positions": [
                0.5111971720132293,
                -1.9467788399494588,
                -1.5803205584940745,
                0.9889152309925748,
                0.40021825935701527,
                -0.6010109379336659
            ]
        },
        {
            "positions": [
                0.5966219511067414,
                -1.9062265027954923,
                -1.479648056064208,
                0.9275634545615951,
                0.4273030753774074,
                -0.6804218598663134
            ]
        },
        {
            "positions": [
                0.6820467302002537,
                -1.8656741656415259,
                -1.3789755536343413,
                0.8662116781306153,
                0.45438789139779956,
                -0.7598327817989611
            ]
        },
        {
            "positions": [
                0.7674715092937658,
                -1.8251218284875594,
                -1.2783030512044748,
                0.8048599016996356,
                0.48147270741819176,
                -0.8392437037316087
            ]
        },
        {
            "positions": [
                0.8528962883872779,
                -1.784569491333593,
                -1.1776305487746084,
                0.7435081252686558,
                0.508557523438584,
                -0.9186546256642563
            ]
        },
        {
            "positions": [
                0.93832106748079,
                -1.7440171541796265,
                -1.076958046344742,
                0.6821563488376761,
                0.535642339458976,
                -0.9980655475969038
            ]
        },
        {
            "positions": [
                1.0237458465743023,
                -1.7034648170256603,
                -0.9762855439148754,
                0.6208045724066964,
                0.5627271554793682,
                -1.0774764695295516
            ]
        },
        {
            "positions": [
                1.1091706256678144,
                -1.6629124798716939,
                -0.875613041485009,
                0.5594527959757166,
                0.5898119714997604,
                -1.156887391462199
            ]
        },
        {
            "positions": [
                1.1945954047613265,
                -1.6223601427177274,
                -0.7749405390551425,
                0.49810101954473684,
                0.6168967875201525,
                -1.2362983133948466
            ]
        },
        {
            "positions": [
                1.2800201838548386,
                -1.581807805563761,
                -0.674268036625276,
                0.4367492431137572,
                0.6439816035405447,
                -1.3157092353274942
            ]
        },
        {
            "positions": [
                1.3654449629483507,
                -1.5412554684097945,
                -0.5735955341954095,
                0.3753974666827773,
                0.6710664195609368,
                -1.3951201572601417
            ]
        },
        {
            "positions": [
                1.450869742041863,
                -1.500703131255828,
                -0.47292303176554307,
                0.3140456902517976,
                0.698151235581329,
                -1.4745310791927895
            ]
        },
        {
            "positions": [
                1.5362945211353751,
                -1.4601507941018617,
                -0.37225052933567637,
                0.25269391382081774,
                0.7252360516017211,
                -1.553942001125437
            ]
        },
        {
            "positions": [
                1.6217193002288872,
                -1.4195984569478952,
                -0.2715780269058099,
                0.19134213738983807,
                0.7523208676221134,
                -1.6333529230580845
            ]
        },
        {
            "positions": [
                1.7071440793223993,
                -1.3790461197939288,
                -0.17090552447594343,
                0.1299903609588584,
                0.7794056836425055,
                -1.7127638449907323
            ]
        },
        {
            "positions": [
                1.7925688584159114,
                -1.3384937826399623,
                -0.07023302204607695,
                0.06863858452787852,
                0.8064904996628977,
                -1.7921747669233798
            ]
        },
        {
            "positions": [
                1.8779936375094235,
                -1.2979414454859959,
                0.03043948038378952,
                0.007286808096898856,
                0.8335753156832898,
                -1.8715856888560274
            ]
        },
        {
            "positions": [
                1.9634184166029356,
                -1.2573891083320294,
                0.131111982813656,
                -0.05406496833408081,
                0.8606601317036819,
                -1.950996610788675
            ]
        },
        {
            "positions": [
                2.0488431956964477,
                -1.216836771178063,
                0.23178448524352246,
                -0.1154167447650607,
                0.8877449477240741,
                -2.0304075327213225
            ]
        },
        {
            "positions": [
                2.13426797478996,
                -1.1762844340240968,
                0.33245698767338894,
                -0.17676852119604036,
                0.9148297637444662,
                -2.10981845465397
            ]
        },
        {
            "positions": [
                2.2196927538834723,
                -1.1357320968701303,
                0.4331294901032554,
                -0.23812029762702003,
                0.9419145797648585,
                -2.189229376586618
            ]
        },
        {
            "positions": [
                2.3051175329769844,
                -1.0951797597161639,
                0.5338019925331219,
                -0.2994720740579999,
                0.9689993957852506,
                -2.2686402985192653
            ]
        },
        {
            "positions": [
                2.3905423120704965,
                -1.0546274225621974,
                0.6344744949629884,
                -0.3608238504889796,
                0.9960842118056428,
                -2.348051220451913
            ]
        },
        {
            "positions": [
                2.4759670911640086,
                -1.014075085408231,
                0.7351469973928548,
                -0.42217562691995947,
                1.023169027826035,
                -2.4274621423845604
            ]
        },
        {
            "positions": [
                2.5613918702575207,
                -0.9735227482542645,
                0.8358194998227214,
                -0.4835274033509391,
                1.050253843846427,
                -2.506873064317208
            ]
        },
        {
            "positions": [
                2.5727861707452373,
                -0.9805638776253488,
                1.0013012964308756,
                -0.5354394676157075,
                1.0529919983568448,
                -2.6059639500859912
            ]
        },
        {
            "positions": [
                2.584180471232954,
                -0.987605006996433,
                1.16678309303903,
                -0.5873515318804758,
                1.0557301528672625,
                -2.705054835854775
            ]
        },
        {
            "positions": [
                2.5955747717206705,
                -0.9946461363675173,
                1.3322648896471843,
                -0.6392635961452442,
                1.0584683073776802,
                -2.804145721623558
            ]
        },
        {
            "positions": [
                2.6069690722083876,
                -1.0016872657386016,
                1.4977466862553386,
                -0.6911756604100125,
                1.061206461888098,
                -2.903236607392341
            ]
        },
        {
            "positions": [
                2.618363372696104,
                -1.008728395109686,
                1.663228482863493,
                -0.743087724674781,
                1.0639446163985158,
                -3.0023274931611246
            ]
        },
        {
            "positions": [
                2.629757673183821,
                -1.01576952448077,
                1.828710279471647,
                -0.7949997889395494,
                1.0666827709089335,
                -3.1014183789299077
            ]
        }
    ]
}