{
    "goal": {
        "global_pose": {
            "orientation": {
                "w": 0.005598929693374612,
                "x": 0.007748599140229565,
                "y": 0.7110244013736278,
                "z": -0.7031023480610252
            },
            "position": {
                "x": -0.8858502320852131,
                "y": -0.7141253447532654,
                "z": 0.3711530566215515
            }
        },
        "name": "move_to_auspresseinheit_C"
    },
    "id": "LBTRRT_move_to_auspresseinheit_C_45",
    "joint_names": [
        "shoulder_pan_joint",
        "shoulder_lift_joint",
        "elbow_joint",
        "wrist_1_joint",
        "wrist_2_joint",
        "wrist_3_joint"
    ],
    "metrics": {
        "cart_traj_len": 0.49415218125837224,
        "distance_elbow_joint": 1.0106629742437927,
        "distance_shoulder_lift_joint": 0.330069888862468,
        "distance_shoulder_pan_joint": 0.25735971923751455,
        "distance_wrist_1_joint": 0.704194682493299,
        "distance_wrist_2_joint": 1.3012625550686685,
        "distance_wrist_3_joint": 0.07432775517423851,
        "smoothness": 0.0,
        "time": 5.005892806,
        "traj_len": 1.9177793343030844,
        "weighted_distance": 2.414951412138643
    },
    "planner": "LBTRRT",
    "start": {
        "state": {
            "elbow_joint": 1.7527959577737207,
            "shoulder_lift_joint": -0.9740617694225068,
            "shoulder_pan_joint": -2.967991417825858,
            "wrist_1_joint": -0.759517768980727,
            "wrist_2_joint": 1.7443932448377408,
            "wrist_3_joint": -3.0840537646736568
        }
    },
    "waypoints": [
        {
            "positions": [
                -2.967991417825858,
                -0.9740617694225068,
                1.7527959577737207,
                -0.759517768980727,
                1.7443932448377408,
                -3.0840537646736568
            ]
        },
        {
            "positions": [
                -2.9422554459021066,
                -0.94105478053626,
                1.6517296603493414,
                -0.6890983007313971,
                1.6142669893308739,
                -3.0914865401910805
            ]
        },
        {
            "positions": [
                -2.916519473978355,
                -0.9080477916500131,
                1.5506633629249622,
                -0.6186788324820671,
                1.4841407338240071,
                -3.0989193157085047
            ]
        },
        {
            "positions": [
                -2.8907835020546035,
                -0.8750408027637664,
                1.449597065500583,
                -0.5482593642327374,
                1.3540144783171404,
                -3.1063520912259284
            ]
        },
        {
            "positions": [
                -2.8650475301308522,
                -0.8420338138775195,
                1.3485307680762035,
                -0.47783989598340737,
                1.2238882228102734,
                -3.113784866743352
            ]
        },
        {
            "positions": [
                -2.8393115582071005,
                -0.8090268249912728,
                1.2474644706518243,
                -0.4074204277340775,
                1.0937619673034065,
                -3.121217642260776
            ]
        },
        {
            "positions": [
                -2.813575586283349,
                -0.776019836105026,
                1.146398173227445,
                -0.3370009594847476,
                0.9636357117965397,
                -3.1286504177782
            ]
        },
        {
            "positions": [
                -2.787839614359598,
                -0.7430128472187791,
                1.0453318758030659,
                -0.26658149123541774,
                0.833509456289673,
                -3.1360831932956237
            ]
        },
        {
            "positions": [
                -2.7621036424358465,
                -0.7100058583325324,
                0.9442655783786864,
                -0.19616202298608776,
                0.703383200782806,
                -3.1435159688130474
            ]
        },
        {
            "positions": [
                -2.7363676705120947,
                -0.6769988694462856,
                0.8431992809543072,
                -0.12574255473675788,
                0.5732569452759391,
                -3.1509487443304716
            ]
        },
        {
            "positions": [
                -2.7106316985883434,
                -0.6439918805600388,
                0.7421329835299278,
                -0.055323086487428064,
                0.4431306897690723,
                -3.1583815198478953
            ]
        }
    ]
}