{
    "goal": {
        "global_pose": {
            "orientation": {
                "w": -0.00223480608172531,
                "x": 0.0024358444001904467,
                "y": 0.7094548369677653,
                "z": -0.704743149386269
            },
            "position": {
                "x": -0.37947507619857795,
                "y": -0.6371506643295288,
                "z": 0.19426114857196808
            }
        },
        "name": "move_to_magneteinheit_C"
    },
    "id": "LBTRRT_move_to_magneteinheit_C_105",
    "joint_names": [
        "shoulder_pan_joint",
        "shoulder_lift_joint",
        "elbow_joint",
        "wrist_1_joint",
        "wrist_2_joint",
        "wrist_3_joint"
    ],
    "metrics": {
        "cart_traj_len": 0.8527637952004341,
        "distance_elbow_joint": 0.4384520478232372,
        "distance_shoulder_lift_joint": 0.25548325035975616,
        "distance_shoulder_pan_joint": 0.8677978828892254,
        "distance_wrist_1_joint": 0.29483735346524886,
        "distance_wrist_2_joint": 0.797651921835674,
        "distance_wrist_3_joint": 0.21190548480874982,
        "smoothness": 0.7825138342604533,
        "time": 5.015583364,
        "traj_len": 1.6929642468705273,
        "weighted_distance": 2.0934249893655883
    },
    "planner": "LBTRRT",
    "start": {
        "state": {
            "elbow_joint": 1.9565354010623817,
            "shoulder_lift_joint": -1.4165861575791021,
            "shoulder_pan_joint": -1.6717766225146293,
            "wrist_1_joint": -0.5286633292919765,
            "wrist_2_joint": 1.472756589071564,
            "wrist_3_joint": -3.1238370188695823
        }
    },
    "waypoints": [
        {
            "positions": [
                -1.6717766225146293,
                -1.4165861575791021,
                1.9565354010623817,
                -0.5286633292919765,
                1.472756589071564,
                -3.1238370188695823
            ]
        },
        {
            "positions": [
                -1.6605651884413901,
                -1.398736841157093,
                2.0276086173674397,
                -0.5383681810481987,
                1.2507158982311697,
                -3.0996900910355403
            ]
        },
        {
            "positions": [
                -1.6493537543681507,
                -1.3808875247350842,
                2.098681833672498,
                -0.5480730328044209,
                1.0286752073907754,
                -3.075543163201498
            ]
        },
        {
            "positions": [
                -1.6381423202949115,
                -1.3630382083130752,
                2.169755049977556,
                -0.5577778845606431,
                0.8066345165503812,
                -3.0513962353674557
            ]
        },
        {
            "positions": [
                -1.6620175437976734,
                -1.3636618265283247,
                2.2009748725369107,
                -0.5709676262171979,
                0.7049149278750613,
                -3.0396349572944015
            ]
        },
        {
            "positions": [
                -1.8240752152310225,
                -1.3233994899526287,
                2.162172357267169,
                -0.6214742375252034,
                0.698952875747227,
                -3.0651756419411154
            ]
        },
        {
            "positions": [
                -1.9861328866643717,
                -1.2831371533769327,
                2.1233698419974276,
                -0.6719808488332089,
                0.6929908236193927,
                -3.0907163265878292
            ]
        },
        {
            "positions": [
                -2.1481905580977205,
                -1.242874816801237,
                2.0845673267276856,
                -0.7224874601412143,
                0.6870287714915585,
                -3.1162570112345427
            ]
        },
        {
            "positions": [
                -2.3102482295310702,
                -1.202612480225541,
                2.045764811457944,
                -0.7729940714492198,
                0.6810667193637242,
                -3.1417976958812566
            ]
        },
        {
            "positions": [
                -2.472305900964419,
                -1.162350143649845,
                2.0069622961882025,
                -0.8235006827572253,
                0.6751046672358899,
                -3.1673383805279705
            ]
        }
    ]
}