{
    "goal": {
        "global_pose": {
            "orientation": {
                "w": -0.4816463035849501,
                "x": 0.5182115481033762,
                "y": 0.4908360881923453,
                "z": -0.5084816262002911
            },
            "position": {
                "x": -0.8240239810943604,
                "y": -0.300875300988555,
                "z": 0.16403168439865112
            }
        },
        "name": "move_to_storage_C"
    },
    "id": "LBTRRT_move_to_storage_C_93",
    "joint_names": [
        "shoulder_pan_joint",
        "shoulder_lift_joint",
        "elbow_joint",
        "wrist_1_joint",
        "wrist_2_joint",
        "wrist_3_joint"
    ],
    "metrics": {
        "cart_traj_len": 0.5763864775727545,
        "distance_elbow_joint": 0.2545333933218772,
        "distance_shoulder_lift_joint": 0.18770463725643605,
        "distance_shoulder_pan_joint": 0.4962530670984555,
        "distance_wrist_1_joint": 0.07045593163344954,
        "distance_wrist_2_joint": 1.0584470748742252,
        "distance_wrist_3_joint": 0.06752634751231934,
        "smoothness": 2.5376526478085547e-16,
        "time": 5.0037570019999995,
        "traj_len": 1.4611366984977014,
        "weighted_distance": 1.8436041205283404
    },
    "planner": "LBTRRT",
    "start": {
        "state": {
            "elbow_joint": 2.010868314990456,
            "shoulder_lift_joint": -1.1634956873337592,
            "shoulder_pan_joint": -2.4736205022346125,
            "wrist_1_joint": -0.8367026794202681,
            "wrist_2_joint": 0.6746043897044499,
            "wrist_3_joint": -3.1496632123970403
        }
    },
    "waypoints": [
        {
            "positions": [
                -2.4736205022346125,
                -1.1634956873337592,
                2.010868314990456,
                -0.8367026794202681,
                0.6746043897044499,
                -3.1496632123970403
            ]
        },
        {
            "positions": [
                -2.5563293467510215,
                -1.1322115811243532,
                1.9684460827701429,
                -0.8249600241480265,
                0.8510122355168208,
                -3.138408821144987
            ]
        },
        {
            "positions": [
                -2.639038191267431,
                -1.1009274749149471,
                1.9260238505498302,
                -0.8132173688757849,
                1.0274200813291916,
                -3.1271544298929337
            ]
        },
        {
            "positions": [
                -2.7217470357838405,
                -1.069643368705541,
                1.8836016183295172,
                -0.8014747136035434,
                1.2038279271415626,
                -3.1159000386408806
            ]
        },
        {
            "positions": [
                -2.8044558803002495,
                -1.038359262496135,
                1.8411793861092043,
                -0.7897320583313018,
                1.3802357729539332,
                -3.1046456473888275
            ]
        },
        {
            "positions": [
                -2.8871647248166585,
                -1.007075156286729,
                1.7987571538888916,
                -0.7779894030590602,
                1.5566436187663042,
                -3.093391256136774
            ]
        },
        {
            "positions": [
                -2.969873569333068,
                -0.9757910500773231,
                1.7563349216685786,
                -0.7662467477868186,
                1.733051464578675,
                -3.082136864884721
            ]
        }
    ]
}