{
    "goal": {
        "global_pose": {
            "orientation": {
                "w": 0.7047431468963623,
                "x": -0.7094548344612122,
                "y": 0.0024358443915843964,
                "z": -0.0022348060738295317
            },
            "position": {
                "x": 0.6094750761985779,
                "y": 0.3671506643295288,
                "z": 0.19426114857196808
            }
        },
        "name": "move_to_magneteinheit_A"
    },
    "id": "LBTRRT_move_to_magneteinheit_A_95",
    "joint_names": [
        "shoulder_pan_joint",
        "shoulder_lift_joint",
        "elbow_joint",
        "wrist_1_joint",
        "wrist_2_joint",
        "wrist_3_joint"
    ],
    "metrics": {
        "cart_traj_len": 3.89181100892866,
        "distance_elbow_joint": 3.8900237745501807,
        "distance_shoulder_lift_joint": 0.7785444185302928,
        "distance_shoulder_pan_joint": 2.600457473194062,
        "distance_wrist_1_joint": 1.5870298488498316,
        "distance_wrist_2_joint": 1.7011362687300062,
        "distance_wrist_3_joint": 2.643464412844949,
        "smoothness": 0.08849820152012157,
        "time": 5.030896207,
        "traj_len": 3.6332707298932907,
        "weighted_distance": 4.66644952184946
    },
    "planner": "LBTRRT",
    "start": {
        "state": {
            "elbow_joint": -1.9196185241190666,
            "shoulder_lift_joint": -1.2443396400964142,
            "shoulder_pan_joint": 2.6996025414629847,
            "wrist_1_joint": -1.5485510000780065,
            "wrist_2_joint": -1.5709468930060704,
            "wrist_3_joint": 0.4420197071253992
        }
    },
    "waypoints": [
        {
            "positions": [
                2.6996025414629847,
                -1.2443396400964142,
                -1.9196185241190666,
                -1.5485510000780065,
                -1.5709468930060704,
                0.4420197071253992
            ]
        },
        {
            "positions": [
                2.5917270196426174,
                -1.22593687273127,
                -1.7982505265404354,
                -1.5654771462508479,
                -1.5277108731108806,
                0.5294859794806335
            ]
        },
        {
            "positions": [
                2.4838514978222506,
                -1.2075341053661257,
                -1.676882528961804,
                -1.5824032924236895,
                -1.484474853215691,
                0.6169522518358678
            ]
        },
        {
            "positions": [
                2.3759759760018833,
                -1.1891313380009816,
                -1.5555145313831726,
                -1.5993294385965309,
                -1.4412388333205013,
                0.7044185241911021
            ]
        },
        {
            "positions": [
                2.268100454181516,
                -1.1707285706358372,
                -1.4341465338045412,
                -1.6162555847693723,
                -1.3980028134253115,
                0.7918847965463364
            ]
        },
        {
            "positions": [
                2.1602249323611487,
                -1.1523258032706931,
                -1.31277853622591,
                -1.6331817309422139,
                -1.354766793530122,
                0.8793510689015707
            ]
        },
        {
            "positions": [
                2.052349410540782,
                -1.133923035905549,
                -1.1914105386472786,
                -1.6501078771150552,
                -1.3115307736349322,
                0.966817341256805
            ]
        },
        {
            "positions": [
                1.9444738887204145,
                -1.1155202685404046,
                -1.0700425410686472,
                -1.6670340232878966,
                -1.2682947537397424,
                1.0542836136120393
            ]
        },
        {
            "positions": [
                1.8365983669000476,
                -1.0971175011752605,
                -0.9486745434900159,
                -1.6839601694607382,
                -1.2250587338445529,
                1.1417498859672737
            ]
        },
        {
            "positions": [
                1.7287228450796803,
                -1.0787147338101162,
                -0.8273065459113844,
                -1.7008863156335796,
                -1.1818227139493631,
                1.2292161583225079
            ]
        },
        {
            "positions": [
                1.620847323259313,
                -1.060311966444972,
                -0.7059385483327532,
                -1.717812461806421,
                -1.1385866940541733,
                1.316682430677742
            ]
        },
        {
            "positions": [
                1.5129718014389462,
                -1.0419091990798277,
                -0.5845705507541219,
                -1.7347386079792626,
                -1.0953506741589838,
                1.4041487030329765
            ]
        },
        {
            "positions": [
                1.4050962796185789,
                -1.0235064317146836,
                -0.4632025531754904,
                -1.751664754152104,
                -1.052114654263794,
                1.4916149753882109
            ]
        },
        {
            "positions": [
                1.2972207577982118,
                -1.0051036643495395,
                -0.34183455559685916,
                -1.7685909003249454,
                -1.0088786343686045,
                1.5790812477434448
            ]
        },
        {
            "positions": [
                1.1893452359778445,
                -0.9867008969843951,
                -0.22046655801822768,
                -1.785517046497787,
                -0.9656426144734146,
                1.6665475200986792
            ]
        },
        {
            "positions": [
                1.0814697141574774,
                -0.968298129619251,
                -0.09909856043959642,
                -1.8024431926706284,
                -0.9224065945782249,
                1.7540137924539136
            ]
        },
        {
            "positions": [
                0.9735941923371103,
                -0.9498953622541068,
                0.022269437139034842,
                -1.8193693388434697,
                -0.8791705746830353,
                1.841480064809148
            ]
        },
        {
            "positions": [
                0.865718670516743,
                -0.9314925948889625,
                0.14363743471766632,
                -1.8362954850163113,
                -0.8359345547878455,
                1.9289463371643825
            ]
        },
        {
            "positions": [
                0.7578431486963759,
                -0.9130898275238183,
                0.2650054322962978,
                -1.8532216311891527,
                -0.7926985348926558,
                2.0164126095196164
            ]
        },
        {
            "positions": [
                0.6499676268760091,
                -0.894687060158674,
                0.38637342987492884,
                -1.8701477773619941,
                -0.7494625149974662,
                2.103878881874851
            ]
        },
        {
            "positions": [
                0.5420921050556413,
                -0.8762842927935298,
                0.5077414274535603,
                -1.8870739235348357,
                -0.7062264951022764,
                2.1913451542300852
            ]
        },
        {
            "positions": [
                0.43421658323527446,
                -0.8578815254283856,
                0.6291094250321918,
                -1.904000069707677,
                -0.6629904752070868,
                2.2788114265853197
            ]
        },
        {
            "positions": [
                0.3263410614149076,
                -0.8394787580632415,
                0.7504774226108228,
                -1.9209262158805185,
                -0.6197544553118971,
                2.3662776989405536
            ]
        },
        {
            "positions": [
                0.21846553959453985,
                -0.8210759906980971,
                0.8718454201894548,
                -1.93785236205336,
                -0.5765184354167073,
                2.453743971295788
            ]
        },
        {
            "positions": [
                0.1105900177741732,
                -0.802673223332953,
                0.9932134177680858,
                -1.9547785082262015,
                -0.5332824155215177,
                2.5412102436510224
            ]
        },
        {
            "positions": [
                0.11173451272469824,
                -0.8363610235096361,
                1.0909326010343887,
                -1.8366982741560378,
                -0.4669352363969724,
                2.595637631282955
            ]
        },
        {
            "positions": [
                0.11287900767522328,
                -0.8700488236863193,
                1.1886517843006916,
                -1.7186180400858742,
                -0.4005880572724271,
                2.6500650189148875
            ]
        },
        {
            "positions": [
                0.11402350262574834,
                -0.9037366238630025,
                1.2863709675669943,
                -1.6005378060157105,
                -0.3342408781478818,
                2.7044924065468203
            ]
        },
        {
            "positions": [
                0.11516799757627338,
                -0.9374244240396856,
                1.3840901508332972,
                -1.4824575719455468,
                -0.2678936990233365,
                2.7589197941787527
            ]
        },
        {
            "positions": [
                0.11631249252679843,
                -0.9711122242163688,
                1.4818093340996001,
                -1.3643773378753832,
                -0.2015465198987912,
                2.8133471818106854
            ]
        },
        {
            "positions": [
                0.11745698747732347,
                -1.004800024393052,
                1.5795285173659028,
                -1.2462971038052195,
                -0.1351993407742459,
                2.867774569442618
            ]
        },
        {
            "positions": [
                0.11860148242784851,
                -1.038487824569735,
                1.6772477006322055,
                -1.1282168697350559,
                -0.06885216164970065,
                2.9222019570745505
            ]
        },
        {
            "positions": [
                0.11974597737837357,
                -1.0721756247464183,
                1.7749668838985087,
                -1.0101366356648922,
                -0.002504982525155297,
                2.9766293447064833
            ]
        },
        {
            "positions": [
                0.12089047232889862,
                -1.1058634249231014,
                1.8726860671648113,
                -0.8920564015947285,
                0.06384219659939006,
                3.0310567323384157
            ]
        },
        {
            "positions": [
                0.12203496727942366,
                -1.1395512250997846,
                1.9704052504311143,
                -0.7739761675245649,
                0.13018937572393532,
                3.0854841199703484
            ]
        }
    ]
}