{
    "goal": {
        "global_pose": {
            "orientation": {
                "w": 0.005598929693374612,
                "x": 0.007748599140229565,
                "y": 0.7110244013736278,
                "z": -0.7031023480610252
            },
            "position": {
                "x": 0.1141497679147869,
                "y": -0.7141253447532654,
                "z": 0.3711530566215515
            }
        },
        "name": "move_to_auspresseinheit_B"
    },
    "id": "LBTRRT_move_to_auspresseinheit_B_13",
    "joint_names": [
        "shoulder_pan_joint",
        "shoulder_lift_joint",
        "elbow_joint",
        "wrist_1_joint",
        "wrist_2_joint",
        "wrist_3_joint"
    ],
    "metrics": {
        "cart_traj_len": 0.5644333444626732,
        "distance_elbow_joint": 0.0637685944998918,
        "distance_shoulder_lift_joint": 0.29334562360866046,
        "distance_shoulder_pan_joint": 0.5735986005912028,
        "distance_wrist_1_joint": 0.3268913905319998,
        "distance_wrist_2_joint": 1.0091583155818222,
        "distance_wrist_3_joint": 0.0010915732208043316,
        "smoothness": 0.0,
        "time": 5.00244847,
        "traj_len": 1.505939606370183,
        "weighted_distance": 1.8989699709552577
    },
    "planner": "LBTRRT",
    "start": {
        "state": {
            "elbow_joint": 2.0193083361928714,
            "shoulder_lift_joint": -1.1220246554650708,
            "shoulder_pan_joint": -1.0952077554168747,
            "wrist_1_joint": -0.8559753972642168,
            "wrist_2_joint": 0.4759566250798843,
            "wrist_3_joint": -3.1240929996934557
        }
    },
    "waypoints": [
        {
            "positions": [
                -1.0952077554168747,
                -1.1220246554650708,
                2.0193083361928714,
                -0.8559753972642168,
                0.4759566250798843,
                -3.1240929996934557
            ]
        },
        {
            "positions": [
                -1.190807522182075,
                -1.170915592733181,
                2.008680237109556,
                -0.8014934988422169,
                0.6441496776768547,
                -3.12427492856359
            ]
        },
        {
            "positions": [
                -1.2864072889472755,
                -1.219806530001291,
                1.9980521380262408,
                -0.7470116004202169,
                0.8123427302738251,
                -3.124456857433724
            ]
        },
        {
            "positions": [
                -1.3820070557124762,
                -1.268697467269401,
                1.9874240389429256,
                -0.6925297019982168,
                0.9805357828707955,
                -3.1246387863038576
            ]
        },
        {
            "positions": [
                -1.4776068224776764,
                -1.317588404537511,
                1.9767959398596102,
                -0.6380478035762169,
                1.1487288354677658,
                -3.1248207151739917
            ]
        },
        {
            "positions": [
                -1.573206589242877,
                -1.3664793418056211,
                1.9661678407762948,
                -0.583565905154217,
                1.3169218880647362,
                -3.125002644044126
            ]
        },
        {
            "positions": [
                -1.6688063560080775,
                -1.4153702790737313,
                1.9555397416929796,
                -0.529084006732217,
                1.4851149406617066,
                -3.12518457291426
            ]
        }
    ]
}