{
    "goal": {
        "global_pose": {
            "orientation": {
                "w": -0.00223480608172531,
                "x": 0.0024358444001904467,
                "y": 0.7094548369677653,
                "z": -0.704743149386269
            },
            "position": {
                "x": 0.6205249238014221,
                "y": -0.6371506643295288,
                "z": 0.19426114857196808
            }
        },
        "name": "move_to_magneteinheit_B"
    },
    "id": "LBTRRT_move_to_magneteinheit_B_19",
    "joint_names": [
        "shoulder_pan_joint",
        "shoulder_lift_joint",
        "elbow_joint",
        "wrist_1_joint",
        "wrist_2_joint",
        "wrist_3_joint"
    ],
    "metrics": {
        "cart_traj_len": 3.103872746936666,
        "distance_elbow_joint": 4.2868915259868405,
        "distance_shoulder_lift_joint": 1.0620232948263757,
        "distance_shoulder_pan_joint": 2.4414504439123945,
        "distance_wrist_1_joint": 0.9632532310167451,
        "distance_wrist_2_joint": 1.1774196882679127,
        "distance_wrist_3_joint": 1.224710925152472,
        "smoothness": 0.21516319052820995,
        "time": 5.068274547,
        "traj_len": 3.3400223216563596,
        "weighted_distance": 3.968103309989842
    },
    "planner": "LBTRRT",
    "start": {
        "state": {
            "elbow_joint": 2.6216224122426386,
            "shoulder_lift_joint": -1.4174107377796124,
            "shoulder_pan_joint": 0.7066234856936794,
            "wrist_1_joint": 1.9546482284002225,
            "wrist_2_joint": -0.7096286983471962,
            "wrist_3_joint": 0.005740856962016249
        }
    },
    "waypoints": [
        {
            "positions": [
                0.7066234856936794,
                -1.4174107377796124,
                2.6216224122426386,
                1.9546482284002225,
                -0.7096286983471962,
                0.005740856962016249
            ]
        },
        {
            "positions": [
                0.6654455910222667,
                -1.497669126177148,
                2.6215236985226507,
                1.9003143775256564,
                -0.6945780684748384,
                0.11333629990717102
            ]
        },
        {
            "positions": [
                0.624267696350854,
                -1.5779275145746836,
                2.6214249848026627,
                1.8459805266510902,
                -0.6795274386024807,
                0.2209317428523258
            ]
        },
        {
            "positions": [
                0.64908031478483,
                -1.6372664494081146,
                2.5764423486763945,
                1.7915657189813805,
                -0.6629580466370096,
                0.3216502813979338
            ]
        },
        {
            "positions": [
                0.673892933218806,
                -1.6966053842415458,
                2.5314597125501264,
                1.737150911311671,
                -0.6463886546715385,
                0.4223688199435418
            ]
        },
        {
            "positions": [
                0.6987055516527819,
                -1.755944319074977,
                2.4864770764238586,
                1.6827361036419615,
                -0.6298192627060675,
                0.5230873584891498
            ]
        },
        {
            "positions": [
                0.7235181700867579,
                -1.815283253908408,
                2.4414944402975904,
                1.6283212959722517,
                -0.6132498707405964,
                0.6238058970347578
            ]
        },
        {
            "positions": [
                0.8314969135368769,
                -1.8391196758426707,
                2.252798187907084,
                1.6022201365084072,
                -0.5778158362688893,
                0.6100984801321275
            ]
        },
        {
            "positions": [
                0.939475656986996,
                -1.8629560977769333,
                2.064101935516577,
                1.576118977044563,
                -0.5423818017971822,
                0.5963910632294972
            ]
        },
        {
            "positions": [
                1.0474544004371151,
                -1.8867925197111959,
                1.8754056831260704,
                1.5500178175807184,
                -0.5069477673254751,
                0.582683646326867
            ]
        },
        {
            "positions": [
                1.155433143887234,
                -1.9106289416454587,
                1.6867094307355637,
                1.5239166581168742,
                -0.47151373285376796,
                0.5689762294242368
            ]
        },
        {
            "positions": [
                1.2634118873373532,
                -1.9344653635797213,
                1.498013178345057,
                1.4978154986530297,
                -0.43607969838206084,
                0.5552688125216065
            ]
        },
        {
            "positions": [
                1.3713906307874724,
                -1.958301785513984,
                1.3093169259545503,
                1.4717143391891854,
                -0.4006456639103537,
                0.5415613956189762
            ]
        },
        {
            "positions": [
                1.4793693742375913,
                -1.9821382074482465,
                1.1206206735640436,
                1.4456131797253409,
                -0.3652116294386466,
                0.527853978716346
            ]
        },
        {
            "positions": [
                1.5873481176877104,
                -2.0059746293825094,
                0.9319244211735369,
                1.4195120202614964,
                -0.3297775949669394,
                0.5141465618137158
            ]
        },
        {
            "positions": [
                1.6953268611378296,
                -2.0298110513167718,
                0.7432281687830302,
                1.393410860797652,
                -0.2943435604952323,
                0.5004391449110854
            ]
        },
        {
            "positions": [
                1.8033056045879485,
                -2.0536474732510346,
                0.5545319163925235,
                1.3673097013338076,
                -0.2589095260235252,
                0.4867317280084552
            ]
        },
        {
            "positions": [
                1.9112843480380677,
                -2.077483895185297,
                0.3658356640020166,
                1.341208541869963,
                -0.22347549155181806,
                0.47302431110582494
            ]
        },
        {
            "positions": [
                2.0192630914881864,
                -2.10132031711956,
                0.17713941161151014,
                1.3151073824061188,
                -0.18804145708011094,
                0.45931689420319466
            ]
        },
        {
            "positions": [
                2.1272418349383058,
                -2.125156739053822,
                -0.011556840778996769,
                1.2890062229422745,
                -0.15260742260840376,
                0.44560947730056444
            ]
        },
        {
            "positions": [
                2.2352205783884247,
                -2.148993160988085,
                -0.20025309316950324,
                1.26290506347843,
                -0.1171733881366967,
                0.4319020603979342
            ]
        },
        {
            "positions": [
                2.343199321838544,
                -2.172829582922348,
                -0.38894934556001015,
                1.2368039040145855,
                -0.08173935366498952,
                0.4181946434953039
            ]
        },
        {
            "positions": [
                2.451178065288663,
                -2.1966660048566102,
                -0.5776455979505166,
                1.2107027445507412,
                -0.0463053191932824,
                0.40448722659267367
            ]
        },
        {
            "positions": [
                2.5591568087387824,
                -2.220502426790873,
                -0.7663418503410235,
                1.1846015850868967,
                -0.01087128472157528,
                0.3907798096900434
            ]
        },
        {
            "positions": [
                2.667135552188901,
                -2.2443388487251354,
                -0.95503810273153,
                1.1585004256230524,
                0.02456274975013184,
                0.37707239278741317
            ]
        },
        {
            "positions": [
                2.7751142956390202,
                -2.2681752706593983,
                -1.143734355122037,
                1.132399266159208,
                0.05999678422183896,
                0.3633649758847829
            ]
        },
        {
            "positions": [
                2.7987422318456328,
                -2.2839906965263235,
                -1.2460214618005745,
                1.1219776600887943,
                0.09284273177804848,
                0.3362625997703725
            ]
        },
        {
            "positions": [
                2.8223701680522453,
                -2.2998061223932487,
                -1.348308568479112,
                1.1115560540183806,
                0.125688679334258,
                0.3091602236559621
            ]
        },
        {
            "positions": [
                2.782122122335201,
                -2.3447130999464334,
                -1.427548704795384,
                1.0815157898596548,
                0.21121425698087265,
                0.2361601707307283
            ]
        },
        {
            "positions": [
                2.7418740766181564,
                -2.389620077499618,
                -1.5067888411116561,
                1.051475525700929,
                0.2967398346274873,
                0.16316011780549458
            ]
        },
        {
            "positions": [
                2.701626030901112,
                -2.4345270550528033,
                -1.5860289774279281,
                1.021435261542203,
                0.38226541227410193,
                0.09016006488026085
            ]
        },
        {
            "positions": [
                2.6613779851840675,
                -2.479434032605988,
                -1.6652691137442002,
                0.9913949973834774,
                0.46779098992071655,
                0.01716001195502708
            ]
        }
    ]
}