{
    "goal": {
        "global_pose": {
            "orientation": {
                "w": 0.005598929693374612,
                "x": 0.007748599140229565,
                "y": 0.7110244013736278,
                "z": -0.7031023480610252
            },
            "position": {
                "x": 0.1141497679147869,
                "y": -0.7141253447532654,
                "z": 0.3711530566215515
            }
        },
        "name": "move_to_auspresseinheit_B"
    },
    "id": "LBTRRT_move_to_auspresseinheit_B_115",
    "joint_names": [
        "shoulder_pan_joint",
        "shoulder_lift_joint",
        "elbow_joint",
        "wrist_1_joint",
        "wrist_2_joint",
        "wrist_3_joint"
    ],
    "metrics": {
        "cart_traj_len": 0.5650079903415368,
        "distance_elbow_joint": 0.06094287706041146,
        "distance_shoulder_lift_joint": 0.29551686816809797,
        "distance_shoulder_pan_joint": 0.5766841240966696,
        "distance_wrist_1_joint": 0.3244596172341071,
        "distance_wrist_2_joint": 1.0019035616720988,
        "distance_wrist_3_joint": 0.004725259620733446,
        "smoothness": 2.5376526478085547e-16,
        "time": 5.00496448,
        "traj_len": 1.5047366240814763,
        "weighted_distance": 1.8973787197077423
    },
    "planner": "LBTRRT",
    "start": {
        "state": {
            "elbow_joint": 2.0193083361928714,
            "shoulder_lift_joint": -1.1220246554650708,
            "shoulder_pan_joint": -1.0952077554168747,
            "wrist_1_joint": -0.8559753972642168,
            "wrist_2_joint": 0.4759566250798843,
            "wrist_3_joint": -3.1240929996934557
        }
    },
    "waypoints": [
        {
            "positions": [
                -1.0952077554168747,
                -1.1220246554650708,
                2.0193083361928714,
                -0.8559753972642168,
                0.4759566250798843,
                -3.1240929996934557
            ]
        },
        {
            "positions": [
                -1.1913217760996528,
                -1.1712774668264205,
                2.0091511900161363,
                -0.8018987943918656,
                0.642940552025234,
                -3.1233054564233336
            ]
        },
        {
            "positions": [
                -1.2874357967824313,
                -1.22053027818777,
                1.998994043839401,
                -0.7478221915195145,
                0.809924478970584,
                -3.122517913153211
            ]
        },
        {
            "positions": [
                -1.3835498174652094,
                -1.2697830895491198,
                1.9888368976626656,
                -0.6937455886471633,
                0.9769084059159336,
                -3.121730369883089
            ]
        },
        {
            "positions": [
                -1.4796638381479876,
                -1.3190359009104695,
                1.9786797514859304,
                -0.6396689857748121,
                1.1438923328612836,
                -3.120942826612967
            ]
        },
        {
            "positions": [
                -1.575777858830766,
                -1.368288712271819,
                1.9685226053091953,
                -0.5855923829024609,
                1.3108762598066332,
                -3.1201552833428443
            ]
        },
        {
            "positions": [
                -1.6718918795135442,
                -1.4175415236331688,
                1.95836545913246,
                -0.5315157800301097,
                1.4778601867519832,
                -3.119367740072722
            ]
        }
    ]
}