{
    "goal": {
        "global_pose": {
            "orientation": {
                "w": -0.4816463035849501,
                "x": 0.5182115481033762,
                "y": 0.4908360881923453,
                "z": -0.5084816262002911
            },
            "position": {
                "x": -0.8240239810943604,
                "y": 0.19912469901144506,
                "z": 0.16403168439865112
            }
        },
        "name": "move_to_storage_D"
    },
    "id": "LBTRRT_move_to_storage_D_142",
    "joint_names": [
        "shoulder_pan_joint",
        "shoulder_lift_joint",
        "elbow_joint",
        "wrist_1_joint",
        "wrist_2_joint",
        "wrist_3_joint"
    ],
    "metrics": {
        "cart_traj_len": 1.5955196533907956,
        "distance_elbow_joint": 0.5878850539357465,
        "distance_shoulder_lift_joint": 1.9226298475005352,
        "distance_shoulder_pan_joint": 1.3208711723226108,
        "distance_wrist_1_joint": 3.834884808111764,
        "distance_wrist_2_joint": 1.7904573972617803,
        "distance_wrist_3_joint": 3.1213779507303303,
        "smoothness": 0.023135104805414867,
        "time": 5.041460872999999,
        "traj_len": 3.54656259353515,
        "weighted_distance": 4.944310299394343
    },
    "planner": "LBTRRT",
    "start": {
        "state": {
            "elbow_joint": -2.384821988534728,
            "shoulder_lift_joint": -2.2788054721415256,
            "shoulder_pan_joint": -0.1854694642142757,
            "wrist_1_joint": 1.4845938289331202,
            "wrist_2_joint": 0.17898776772866878,
            "wrist_3_joint": 0.037105688729662994
        }
    },
    "waypoints": [
        {
            "positions": [
                -0.1854694642142757,
                -2.2788054721415256,
                -2.384821988534728,
                1.4845938289331202,
                0.17898776772866878,
                0.037105688729662994
            ]
        },
        {
            "positions": [
                -0.23199140262033766,
                -2.248454848569743,
                -2.3886432527157484,
                1.3785236653513193,
                0.0827877479759668,
                -0.05529975254927513
            ]
        },
        {
            "positions": [
                -0.2785133410263996,
                -2.21810422499796,
                -2.3924645168967684,
                1.2724535017695184,
                -0.01341227177673518,
                -0.14770519382821326
            ]
        },
        {
            "positions": [
                -0.3250352794324615,
                -2.187753601426177,
                -2.396285781077789,
                1.1663833381877178,
                -0.10961229152943716,
                -0.2401106351071514
            ]
        },
        {
            "positions": [
                -0.37155721783852347,
                -2.1574029778543946,
                -2.4001070452588094,
                1.060313174605917,
                -0.20581231128213912,
                -0.33251607638608954
            ]
        },
        {
            "positions": [
                -0.4220458343609784,
                -2.1120074095337884,
                -2.397773194935674,
                0.9568342044761383,
                -0.28568698473696613,
                -0.40690923177114796
            ]
        },
        {
            "positions": [
                -0.47253445088343343,
                -2.066611841213182,
                -2.395439344612539,
                0.8533552343463597,
                -0.3655616581917932,
                -0.48130238715620643
            ]
        },
        {
            "positions": [
                -0.5230230674058884,
                -2.021216272892576,
                -2.393105494289404,
                0.749876264216581,
                -0.4454363316466202,
                -0.5556955425412649
            ]
        },
        {
            "positions": [
                -0.5735116839283434,
                -1.97582070457197,
                -2.3907716439662687,
                0.6463972940868025,
                -0.5253110051014472,
                -0.6300886979263233
            ]
        },
        {
            "positions": [
                -0.6065239968548328,
                -1.9266764982392104,
                -2.383190997996962,
                0.5315686121495167,
                -0.5918488022933729,
                -0.7067737470039821
            ]
        },
        {
            "positions": [
                -0.6395363097813224,
                -1.877532291906451,
                -2.3756103520276546,
                0.4167399302122309,
                -0.6583865994852987,
                -0.7834587960816408
            ]
        },
        {
            "positions": [
                -0.6725486227078118,
                -1.8283880855736916,
                -2.3680297060583477,
                0.3019112482749451,
                -0.7249243966772243,
                -0.8601438451592998
            ]
        },
        {
            "positions": [
                -0.7055609356343012,
                -1.779243879240932,
                -2.360449060089041,
                0.1870825663376593,
                -0.79146219386915,
                -0.9368288942369585
            ]
        },
        {
            "positions": [
                -0.7385732485607908,
                -1.7300996729081723,
                -2.3528684141197336,
                0.0722538844003735,
                -0.8579999910610757,
                -1.0135139433146174
            ]
        },
        {
            "positions": [
                -0.7715855614872802,
                -1.680955466575413,
                -2.3452877681504267,
                -0.042574797536912345,
                -0.9245377882530014,
                -1.0901989923922761
            ]
        },
        {
            "positions": [
                -0.7667481627114564,
                -1.6260044735851493,
                -2.3275287984193707,
                -0.18385883014392615,
                -0.966513555772516,
                -1.1763542553230757
            ]
        },
        {
            "positions": [
                -0.7619107639356326,
                -1.5710534805948857,
                -2.3097698286883146,
                -0.32514286275093995,
                -1.0084893232920304,
                -1.2625095182538753
            ]
        },
        {
            "positions": [
                -0.7570733651598088,
                -1.516102487604622,
                -2.292010858957259,
                -0.46642689535795373,
                -1.050465090811545,
                -1.3486647811846746
            ]
        },
        {
            "positions": [
                -0.752235966383985,
                -1.4611514946143584,
                -2.274251889226203,
                -0.6077109279649675,
                -1.0924408583310596,
                -1.4348200441154741
            ]
        },
        {
            "positions": [
                -0.7473985676081614,
                -1.4062005016240948,
                -2.256492919495147,
                -0.7489949605719814,
                -1.1344166258505741,
                -1.5209753070462737
            ]
        },
        {
            "positions": [
                -0.7425611688323376,
                -1.3512495086338312,
                -2.2387339497640912,
                -0.8902789931789952,
                -1.1763923933700888,
                -1.6071305699770733
            ]
        },
        {
            "positions": [
                -0.7377237700565138,
                -1.2962985156435676,
                -2.220974980033035,
                -1.031563025786009,
                -1.2183681608896033,
                -1.6932858329078728
            ]
        },
        {
            "positions": [
                -0.73288637128069,
                -1.241347522653304,
                -2.203216010301979,
                -1.1728470583930228,
                -1.2603439284091178,
                -1.7794410958386724
            ]
        },
        {
            "positions": [
                -0.6967320839322497,
                -1.2432503875558958,
                -2.177888969666022,
                -1.300956788086392,
                -1.2935849946349747,
                -1.8796880824305136
            ]
        },
        {
            "positions": [
                -0.6605777965838094,
                -1.2451532524584874,
                -2.152561929030065,
                -1.4290665177797612,
                -1.3268260608608315,
                -1.9799350690223547
            ]
        },
        {
            "positions": [
                -0.6244235092353692,
                -1.2470561173610792,
                -2.1272348883941072,
                -1.5571762474731303,
                -1.3600671270866884,
                -2.080182055614196
            ]
        },
        {
            "positions": [
                -0.5882692218869289,
                -1.2489589822636709,
                -2.10190784775815,
                -1.6852859771664996,
                -1.3933081933125453,
                -2.180429042206037
            ]
        },
        {
            "positions": [
                -0.5521149345384886,
                -1.2508618471662627,
                -2.076580807122193,
                -1.8133957068598687,
                -1.4265492595384022,
                -2.2806760287978785
            ]
        },
        {
            "positions": [
                -0.48770437852588666,
                -1.360319043853682,
                -2.045446587237812,
                -1.8805076158997158,
                -1.4496643057877407,
                -2.381125557948227
            ]
        },
        {
            "positions": [
                -0.4232938225132848,
                -1.4697762405411015,
                -2.0143123673534307,
                -1.9476195249395627,
                -1.4727793520370795,
                -2.4815750870985758
            ]
        },
        {
            "positions": [
                -0.3588832665006829,
                -1.5792334372285208,
                -1.9831781474690497,
                -2.0147314339794096,
                -1.4958943982864181,
                -2.5820246162489244
            ]
        },
        {
            "positions": [
                -0.294472710488081,
                -1.68869063391594,
                -1.9520439275846686,
                -2.0818433430192567,
                -1.5190094445357567,
                -2.682474145399273
            ]
        },
        {
            "positions": [
                -0.23006215447547906,
                -1.7981478306033596,
                -1.9209097077002875,
                -2.1489552520591038,
                -1.5421244907850955,
                -2.7829236745496218
            ]
        },
        {
            "positions": [
                -0.1656515984628772,
                -1.9076050272907787,
                -1.8897754878159065,
                -2.216067161098951,
                -1.565239537034434,
                -2.8833732036999704
            ]
        },
        {
            "positions": [
                -0.10124104245027532,
                -2.017062223978198,
                -1.8586412679315254,
                -2.2831790701387975,
                -1.5883545832837729,
                -2.983822732850319
            ]
        },
        {
            "positions": [
                -0.03683048643767341,
                -2.1265194206656175,
                -1.8275070480471443,
                -2.3502909791786446,
                -1.6114696295331115,
                -3.0842722620006677
            ]
        }
    ]
}