{
    "goal": {
        "global_pose": {
            "orientation": {
                "w": 0.005598929693374612,
                "x": 0.007748599140229565,
                "y": 0.7110244013736278,
                "z": -0.7031023480610252
            },
            "position": {
                "x": -0.8858502320852131,
                "y": -0.7141253447532654,
                "z": 0.3711530566215515
            }
        },
        "name": "move_to_auspresseinheit_C"
    },
    "id": "LBTRRT_move_to_auspresseinheit_C_116",
    "joint_names": [
        "shoulder_pan_joint",
        "shoulder_lift_joint",
        "elbow_joint",
        "wrist_1_joint",
        "wrist_2_joint",
        "wrist_3_joint"
    ],
    "metrics": {
        "cart_traj_len": 0.4922596054836851,
        "distance_elbow_joint": 0.9873161325331229,
        "distance_shoulder_lift_joint": 0.3185330847037373,
        "distance_shoulder_pan_joint": 0.25651810942890707,
        "distance_wrist_1_joint": 0.6570924133324924,
        "distance_wrist_2_joint": 1.3043814189406304,
        "distance_wrist_3_joint": 0.04568437800324565,
        "smoothness": 6.45947944157498e-16,
        "time": 5.005606599,
        "traj_len": 1.8893188023576475,
        "weighted_distance": 2.3711533322882663
    },
    "planner": "LBTRRT",
    "start": {
        "state": {
            "elbow_joint": 1.7527959577737207,
            "shoulder_lift_joint": -0.9740617694225068,
            "shoulder_pan_joint": -2.967991417825858,
            "wrist_1_joint": -0.759517768980727,
            "wrist_2_joint": 1.7443932448377408,
            "wrist_3_joint": -3.0840537646736568
        }
    },
    "waypoints": [
        {
            "positions": [
                -2.967991417825858,
                -0.9740617694225068,
                1.7527959577737207,
                -0.759517768980727,
                1.7443932448377408,
                -3.0840537646736568
            ]
        },
        {
            "positions": [
                -2.9423396068829675,
                -0.9422084609521331,
                1.6540643445204084,
                -0.6938085276474777,
                1.6139551029436778,
                -3.0886222024739816
            ]
        },
        {
            "positions": [
                -2.9166877959400765,
                -0.9103551524817594,
                1.5553327312670961,
                -0.6280992863142285,
                1.4835169610496148,
                -3.093190640274306
            ]
        },
        {
            "positions": [
                -2.8910359849971856,
                -0.8785018440113855,
                1.4566011180137837,
                -0.5623900449809793,
                1.3530788191555518,
                -3.0977590780746302
            ]
        },
        {
            "positions": [
                -2.865384174054295,
                -0.8466485355410118,
                1.3578695047604714,
                -0.49668080364773004,
                1.2226406772614886,
                -3.102327515874955
            ]
        },
        {
            "positions": [
                -2.8397323631114046,
                -0.8147952270706381,
                1.2591378915071592,
                -0.4309715623144808,
                1.0922025353674256,
                -3.10689595367528
            ]
        },
        {
            "positions": [
                -2.8140805521685137,
                -0.7829419186002644,
                1.160406278253847,
                -0.36526232098123157,
                0.9617643934733626,
                -3.111464391475604
            ]
        },
        {
            "positions": [
                -2.788428741225623,
                -0.7510886101298907,
                1.0616746650005346,
                -0.2995530796479824,
                0.8313262515792996,
                -3.1160328292759285
            ]
        },
        {
            "positions": [
                -2.7627769302827323,
                -0.719235301659517,
                0.9629430517472223,
                -0.2338438383147331,
                0.7008881096852364,
                -3.1206012670762533
            ]
        },
        {
            "positions": [
                -2.737125119339842,
                -0.6873819931891432,
                0.86421143849391,
                -0.1681345969814838,
                0.5704499677911734,
                -3.125169704876578
            ]
        },
        {
            "positions": [
                -2.711473308396951,
                -0.6555286847187695,
                0.7654798252405978,
                -0.10242535564823466,
                0.4400118258971103,
                -3.1297381426769024
            ]
        }
    ]
}