{
    "goal": {
        "global_pose": {
            "orientation": {
                "w": 0.5084816217422485,
                "x": -0.49083608388900757,
                "y": 0.5182115435600281,
                "z": -0.4816462993621826
            },
            "position": {
                "x": 0.5540239810943604,
                "y": 0.030875300988554955,
                "z": 0.16403168439865112
            }
        },
        "name": "move_to_storage_A"
    },
    "id": "LBTRRT_move_to_storage_A_49",
    "joint_names": [
        "shoulder_pan_joint",
        "shoulder_lift_joint",
        "elbow_joint",
        "wrist_1_joint",
        "wrist_2_joint",
        "wrist_3_joint"
    ],
    "metrics": {
        "cart_traj_len": 0.35290912744156683,
        "distance_elbow_joint": 0.44752314336073495,
        "distance_shoulder_lift_joint": 0.23493092482787659,
        "distance_shoulder_pan_joint": 0.4590213491177179,
        "distance_wrist_1_joint": 0.23588040630418383,
        "distance_wrist_2_joint": 1.1087160030815641,
        "distance_wrist_3_joint": 0.101497299075612,
        "smoothness": 6.661338165333112e-16,
        "time": 5.002237332,
        "traj_len": 1.6085922807746187,
        "weighted_distance": 2.0335093147818775
    },
    "planner": "LBTRRT",
    "start": {
        "state": {
            "elbow_joint": 1.971548259319323,
            "shoulder_lift_joint": -1.1394851275133948,
            "shoulder_pan_joint": 0.1228115487234821,
            "wrist_1_joint": -0.7804723859257726,
            "wrist_2_joint": 0.12958671773740124,
            "wrist_3_joint": -3.192489227718131
        }
    },
    "waypoints": [
        {
            "positions": [
                0.1228115487234821,
                -1.1394851275133948,
                1.971548259319323,
                -0.7804723859257726,
                0.12958671773740124,
                -3.192489227718131
            ]
        },
        {
            "positions": [
                0.05723707027809383,
                -1.1730466882030914,
                2.0354801369422852,
                -0.8141695868263703,
                0.28797471817762466,
                -3.1779896135644723
            ]
        },
        {
            "positions": [
                -0.008337408167294447,
                -1.206608248892788,
                2.0994120145652473,
                -0.847866787726968,
                0.44636271861784815,
                -3.1634899994108134
            ]
        },
        {
            "positions": [
                -0.07391188661268272,
                -1.2401698095824847,
                2.1633438921882093,
                -0.8815639886275657,
                0.6047507190580715,
                -3.1489903852571546
            ]
        },
        {
            "positions": [
                -0.139486365058071,
                -1.2737313702721815,
                2.2272757698111714,
                -0.9152611895281634,
                0.763138719498295,
                -3.1344907711034957
            ]
        },
        {
            "positions": [
                -0.20506084350345927,
                -1.3072929309618782,
                2.291207647434134,
                -0.9489583904287611,
                0.9215267199385185,
                -3.119991156949837
            ]
        },
        {
            "positions": [
                -0.27063532194884754,
                -1.3408544916515748,
                2.355139525057096,
                -0.9826555913293588,
                1.0799147203787418,
                -3.105491542796178
            ]
        },
        {
            "positions": [
                -0.3362098003942358,
                -1.3744160523412714,
                2.419071402680058,
                -1.0163527922299564,
                1.2383027208189654,
                -3.090991928642519
            ]
        }
    ]
}{
    "goal": {
        "global_pose": {
            "orientation": {
                "w": 0.5084816217422485,
                "x": -0.49083608388900757,
                "y": 0.5182115435600281,
                "z": -0.4816462993621826
            },
            "position": {
                "x": 0.5540239810943604,
                "y": 0.030875300988554955,
                "z": 0.16403168439865112
            }
        },
        "name": "move_to_storage_A"
    },
    "id": "LBTRRT_move_to_storage_A_49",
    "joint_names": [
        "shoulder_pan_joint",
        "shoulder_lift_joint",
        "elbow_joint",
        "wrist_1_joint",
        "wrist_2_joint",
        "wrist_3_joint"
    ],
    "metrics": {
        "cart_traj_len": 0.35301106528493204,
        "distance_elbow_joint": 0.4511911063063194,
        "distance_shoulder_lift_joint": 0.23378030123435578,
        "distance_shoulder_pan_joint": 0.4620461081655939,
        "distance_wrist_1_joint": 0.25028352591544634,
        "distance_wrist_2_joint": 1.0964972359977734,
        "distance_wrist_3_joint": 0.10442750396564549,
        "smoothness": 1.3322676295501878e-15,
        "time": 5.003050591,
        "traj_len": 1.6119012939957378,
        "weighted_distance": 2.038102438894975
    },
    "planner": "LBTRRT",
    "start": {
        "state": {
            "elbow_joint": 1.97154746011099,
            "shoulder_lift_joint": -1.13948474672311,
            "shoulder_pan_joint": 0.12281154466712228,
            "wrist_1_joint": -0.7804688027058302,
            "wrist_2_joint": 0.12958655903071145,
            "wrist_3_joint": 3.0906928834467795
        }
    },
    "waypoints": [
        {
            "positions": [
                0.12281154466712228,
                -1.13948474672311,
                1.97154746011099,
                -0.7804688027058302,
                0.12958655903071145,
                3.0906928834467795
            ]
        },
        {
            "positions": [
                0.05680495778632316,
                -1.1728819326137323,
                2.036003332440464,
                -0.8162235921223225,
                0.2862290213161076,
                3.1056110982990144
            ]
        },
        {
            "positions": [
                -0.009201629094475958,
                -1.2062791185043544,
                2.100459204769938,
                -0.8519783815388149,
                0.44287148360150386,
                3.1205293131512497
            ]
        },
        {
            "positions": [
                -0.07520821597527509,
                -1.2396763043949768,
                2.1649150770994123,
                -0.8877331709553071,
                0.5995139458869,
                3.1354475280034846
            ]
        },
        {
            "positions": [
                -0.14121480285607418,
                -1.273073490285599,
                2.229370949428887,
                -0.9234879603717995,
                0.7561564081722962,
                3.15036574285572
            ]
        },
        {
            "positions": [
                -0.20722138973687332,
                -1.3064706761762213,
                2.293826821758361,
                -0.9592427497882918,
                0.9127988704576925,
                3.165283957707955
            ]
        },
        {
            "positions": [
                -0.27322797661767245,
                -1.3398678620668434,
                2.358282694087835,
                -0.9949975392047842,
                1.0694413327430885,
                3.18020217256019
            ]
        },
        {
            "positions": [
                -0.3392345634984716,
                -1.3732650479574657,
                2.4227385664173093,
                -1.0307523286212765,
                1.2260837950284849,
                3.195120387412425
            ]
        }
    ]
}{
    "goal": {
        "global_pose": {
            "orientation": {
                "w": 0.5084816217422485,
                "x": -0.49083608388900757,
                "y": 0.5182115435600281,
                "z": -0.4816462993621826
            },
            "position": {
                "x": 0.5540239810943604,
                "y": 0.030875300988554955,
                "z": 0.16403168439865112
            }
        },
        "name": "move_to_storage_A"
    },
    "id": "LBTRRT_move_to_storage_A_49",
    "joint_names": [
        "shoulder_pan_joint",
        "shoulder_lift_joint",
        "elbow_joint",
        "wrist_1_joint",
        "wrist_2_joint",
        "wrist_3_joint"
    ],
    "metrics": {
        "cart_traj_len": 0.35329557395686123,
        "distance_elbow_joint": 0.4487221873355143,
        "distance_shoulder_lift_joint": 0.23387395397564648,
        "distance_shoulder_pan_joint": 0.46036586339964025,
        "distance_wrist_1_joint": 0.23657020403163886,
        "distance_wrist_2_joint": 1.1060099616310823,
        "distance_wrist_3_joint": 0.08720646689236133,
        "smoothness": 2.2204460668324854e-16,
        "time": 5.0047952790000005,
        "traj_len": 1.6039790015040358,
        "weighted_distance": 2.0223109891194597
    },
    "planner": "LBTRRT",
    "start": {
        "state": {
            "elbow_joint": 1.9715472970024885,
            "shoulder_lift_joint": -1.1394870060712896,
            "shoulder_pan_joint": 0.12281152778156021,
            "wrist_1_joint": -0.780463741449964,
            "wrist_2_joint": 0.12958659822042276,
            "wrist_3_joint": 3.090690232415272
        }
    },
    "waypoints": [
        {
            "positions": [
                0.12281152778156021,
                -1.1394870060712896,
                1.9715472970024885,
                -0.780463741449964,
                0.12958659822042276,
                3.090690232415272
            ]
        },
        {
            "positions": [
                0.05704497586732589,
                -1.1728975709249534,
                2.035650466621848,
                -0.8142594848830552,
                0.28758802131057737,
                3.1031482991141806
            ]
        },
        {
            "positions": [
                -0.00872157604690843,
                -1.2063081357786172,
                2.099753636241207,
                -0.8480552283161465,
                0.445589444400732,
                3.1156063658130893
            ]
        },
        {
            "positions": [
                -0.07448812796114274,
                -1.239718700632281,
                2.1638568058605663,
                -0.8818509717492378,
                0.6035908674908866,
                3.128064432511998
            ]
        },
        {
            "positions": [
                -0.14025467987537707,
                -1.2731292654859447,
                2.227959975479925,
                -0.9156467151823291,
                0.7615922905810412,
                3.140522499210907
            ]
        },
        {
            "positions": [
                -0.20602123178961143,
                -1.3065398303396085,
                2.2920631450992843,
                -0.9494424586154203,
                0.9195937136711958,
                3.152980565909816
            ]
        },
        {
            "positions": [
                -0.2717877837038457,
                -1.3399503951932723,
                2.3561663147186436,
                -0.9832382020485115,
                1.0775951367613505,
                3.1654386326087245
            ]
        },
        {
            "positions": [
                -0.33755433561808,
                -1.373360960046936,
                2.420269484338003,
                -1.0170339454816029,
                1.235596559851505,
                3.177896699307633
            ]
        }
    ]
}