{
    "goal": {
        "global_pose": {
            "orientation": {
                "w": -0.00223480608172531,
                "x": 0.0024358444001904467,
                "y": 0.7094548369677653,
                "z": -0.704743149386269
            },
            "position": {
                "x": 0.6205249238014221,
                "y": -0.6371506643295288,
                "z": 0.19426114857196808
            }
        },
        "name": "move_to_magneteinheit_B"
    },
    "id": "LBTRRT_move_to_magneteinheit_B_82",
    "joint_names": [
        "shoulder_pan_joint",
        "shoulder_lift_joint",
        "elbow_joint",
        "wrist_1_joint",
        "wrist_2_joint",
        "wrist_3_joint"
    ],
    "metrics": {
        "cart_traj_len": 3.2166368126803113,
        "distance_elbow_joint": 4.2891424955802755,
        "distance_shoulder_lift_joint": 1.0614329219599514,
        "distance_shoulder_pan_joint": 2.3797836468129145,
        "distance_wrist_1_joint": 0.9701743031804019,
        "distance_wrist_2_joint": 1.8022593003061984,
        "distance_wrist_3_joint": 0.7157442290003503,
        "smoothness": 0.15484535266983632,
        "time": 5.049698282,
        "traj_len": 3.3494084398353228,
        "weighted_distance": 3.9271438677908646
    },
    "planner": "LBTRRT",
    "start": {
        "state": {
            "elbow_joint": 2.6216224122426386,
            "shoulder_lift_joint": -1.4174107377796124,
            "shoulder_pan_joint": 0.7066234856936794,
            "wrist_1_joint": 1.9546482284002225,
            "wrist_2_joint": -0.7096286983471962,
            "wrist_3_joint": 0.005740856962016249
        }
    },
    "waypoints": [
        {
            "positions": [
                0.7066234856936794,
                -1.4174107377796124,
                2.6216224122426386,
                1.9546482284002225,
                -0.7096286983471962,
                0.005740856962016249
            ]
        },
        {
            "positions": [
                0.6474778855216927,
                -1.4471305917100419,
                2.6076958582250986,
                1.9268062182832948,
                -0.7905091875406474,
                0.009664453500149744
            ]
        },
        {
            "positions": [
                0.5868810450249099,
                -1.4911041132687644,
                2.5333842522159697,
                1.880708232992129,
                -0.8882165757212647,
                0.008636826888136913
            ]
        },
        {
            "positions": [
                0.6034309902439815,
                -1.525963312274943,
                2.3987830772608585,
                1.840617960303223,
                -0.9314557256909484,
                -0.004783800260625337
            ]
        },
        {
            "positions": [
                0.619980935463053,
                -1.5608225112811216,
                2.2641819023057477,
                1.8005276876143173,
                -0.9746948756606321,
                -0.01820442740938759
            ]
        },
        {
            "positions": [
                0.6365308806821246,
                -1.5956817102873002,
                2.1295807273506364,
                1.7604374149254114,
                -1.0179340256303158,
                -0.03162505455814984
            ]
        },
        {
            "positions": [
                0.7390499987127191,
                -1.6302275044087342,
                1.9595247562036493,
                1.7260770435111341,
                -1.0018187444678013,
                -0.04880961361776244
            ]
        },
        {
            "positions": [
                0.8415691167433136,
                -1.6647732985301682,
                1.7894687850566622,
                1.6917166720968568,
                -0.9857034633052867,
                -0.06599417267737505
            ]
        },
        {
            "positions": [
                0.9440882347739081,
                -1.699319092651602,
                1.6194128139096748,
                1.6573563006825798,
                -0.9695881821427722,
                -0.08317873173698764
            ]
        },
        {
            "positions": [
                1.0466073528045026,
                -1.733864886773036,
                1.4493568427626877,
                1.6229959292683025,
                -0.9534729009802576,
                -0.10036329079660025
            ]
        },
        {
            "positions": [
                1.1491264708350972,
                -1.76841068089447,
                1.2793008716157004,
                1.5886355578540252,
                -0.9373576198177431,
                -0.11754784985621286
            ]
        },
        {
            "positions": [
                1.2516455888656917,
                -1.802956475015904,
                1.1092449004687133,
                1.554275186439748,
                -0.9212423386552286,
                -0.13473240891582547
            ]
        },
        {
            "positions": [
                1.3541647068962863,
                -1.837502269137338,
                0.9391889293217262,
                1.5199148150254707,
                -0.905127057492714,
                -0.15191696797543808
            ]
        },
        {
            "positions": [
                1.4566838249268805,
                -1.872048063258772,
                0.769132958174739,
                1.4855544436111936,
                -0.8890117763301996,
                -0.16910152703505069
            ]
        },
        {
            "positions": [
                1.5592029429574752,
                -1.906593857380206,
                0.5990769870277517,
                1.4511940721969163,
                -0.872896495167685,
                -0.1862860860946633
            ]
        },
        {
            "positions": [
                1.6617220609880698,
                -1.94113965150164,
                0.42902101588076436,
                1.416833700782639,
                -0.8567812140051705,
                -0.2034706451542759
            ]
        },
        {
            "positions": [
                1.7642411790186643,
                -1.9756854456230737,
                0.25896504473377724,
                1.3824733293683618,
                -0.840665932842656,
                -0.2206552042138885
            ]
        },
        {
            "positions": [
                1.8667602970492587,
                -2.010231239744508,
                0.08890907358679012,
                1.3481129579540847,
                -0.8245506516801415,
                -0.2378397632735011
            ]
        },
        {
            "positions": [
                1.9692794150798532,
                -2.0447770338659415,
                -0.08114689756019722,
                1.3137525865398074,
                -0.8084353705176269,
                -0.2550243223331137
            ]
        },
        {
            "positions": [
                2.0717985331104476,
                -2.0793228279873754,
                -0.2512028687071841,
                1.2793922151255301,
                -0.7923200893551123,
                -0.2722088813927263
            ]
        },
        {
            "positions": [
                2.1743176511410423,
                -2.1138686221088094,
                -0.42125883985417145,
                1.2450318437112529,
                -0.7762048081925979,
                -0.28939344045233895
            ]
        },
        {
            "positions": [
                2.276836769171637,
                -2.1484144162302434,
                -0.5913148110011583,
                1.2106714722969758,
                -0.7600895270300834,
                -0.3065779995119515
            ]
        },
        {
            "positions": [
                2.379355887202231,
                -2.1829602103516774,
                -0.7613707821481457,
                1.1763111008826985,
                -0.7439742458675689,
                -0.3237625585715641
            ]
        },
        {
            "positions": [
                2.481875005232826,
                -2.2175060044731114,
                -0.9314267532951329,
                1.1419507294684212,
                -0.7278589647050543,
                -0.34094711763117674
            ]
        },
        {
            "positions": [
                2.549233198193634,
                -2.250926423259438,
                -1.046597707663059,
                1.1199039662206356,
                -0.6044071536155431,
                -0.3162757469919928
            ]
        },
        {
            "positions": [
                2.616591391154442,
                -2.284346842045764,
                -1.1617686620309853,
                1.09785720297285,
                -0.4809553425260319,
                -0.2916043763528088
            ]
        },
        {
            "positions": [
                2.68394958411525,
                -2.31776726083209,
                -1.2769396163989115,
                1.0758104397250643,
                -0.35750353143652064,
                -0.2669330057136248
            ]
        },
        {
            "positions": [
                2.7513077770760583,
                -2.3511876796184166,
                -1.3921105707668375,
                1.0537636764772786,
                -0.23405172034700944,
                -0.24226163507444087
            ]
        },
        {
            "positions": [
                2.7526199426688027,
                -2.3783146731870994,
                -1.463240262562234,
                1.0364642520477352,
                -0.11735361454948792,
                -0.20530150631578167
            ]
        },
        {
            "positions": [
                2.7539321082615476,
                -2.405441666755782,
                -1.5343699543576304,
                1.0191648276181917,
                -0.000655508751966391,
                -0.16834137755712247
            ]
        },
        {
            "positions": [
                2.722935393959045,
                -2.429908997750376,
                -1.5787533306842991,
                1.0076011934854012,
                0.15823630996294336,
                -0.10547360380484382
            ]
        },
        {
            "positions": [
                2.6919386796565425,
                -2.45437632874497,
                -1.623136707010968,
                0.996037559352611,
                0.3171281286778531,
                -0.04260583005256516
            ]
        },
        {
            "positions": [
                2.66094196535404,
                -2.4788436597395638,
                -1.6675200833376367,
                0.9844739252198206,
                0.47601994739276293,
                0.02026194369971352
            ]
        }
    ]
}