{
    "goal": {
        "global_pose": {
            "orientation": {
                "w": 0.7047431468963623,
                "x": -0.7094548344612122,
                "y": 0.0024358443915843964,
                "z": -0.0022348060738295317
            },
            "position": {
                "x": 0.6094750761985779,
                "y": 0.3671506643295288,
                "z": 0.19426114857196808
            }
        },
        "name": "move_to_magneteinheit_A"
    },
    "id": "LBTRRT_move_to_magneteinheit_A_59",
    "joint_names": [
        "shoulder_pan_joint",
        "shoulder_lift_joint",
        "elbow_joint",
        "wrist_1_joint",
        "wrist_2_joint",
        "wrist_3_joint"
    ],
    "metrics": {
        "cart_traj_len": 4.104583434192372,
        "distance_elbow_joint": 3.90592882077896,
        "distance_shoulder_lift_joint": 0.09749700999962996,
        "distance_shoulder_pan_joint": 4.990353801191097,
        "distance_wrist_1_joint": 0.7899290345752172,
        "distance_wrist_2_joint": 1.7078619491049483,
        "distance_wrist_3_joint": 2.7134814775351686,
        "smoothness": 0.20297223352032584,
        "time": 5.019155304,
        "traj_len": 3.7689590198335963,
        "weighted_distance": 4.704232778247216
    },
    "planner": "LBTRRT",
    "start": {
        "state": {
            "elbow_joint": -1.9196185241190666,
            "shoulder_lift_joint": -1.2443396400964142,
            "shoulder_pan_joint": 2.6996025414629847,
            "wrist_1_joint": -1.5485510000780065,
            "wrist_2_joint": -1.5709468930060704,
            "wrist_3_joint": 0.4420197071253992
        }
    },
    "waypoints": [
        {
            "positions": [
                2.6996025414629847,
                -1.2443396400964142,
                -1.9196185241190666,
                -1.5485510000780065,
                -1.5709468930060704,
                0.4420197071253992
            ]
        },
        {
            "positions": [
                2.53512231749995,
                -1.2409947850215288,
                -1.8499166673118914,
                -1.5505303293377026,
                -1.503923349980482,
                0.5272933506863554
            ]
        },
        {
            "positions": [
                2.3706420935369152,
                -1.2376499299466437,
                -1.7802148105047162,
                -1.5525096585973985,
                -1.4368998069548937,
                0.6125669942473116
            ]
        },
        {
            "positions": [
                2.2061618695738807,
                -1.2343050748717583,
                -1.710512953697541,
                -1.5544889878570947,
                -1.3698762639293054,
                0.6978406378082678
            ]
        },
        {
            "positions": [
                2.041681645610846,
                -1.230960219796873,
                -1.6408110968903658,
                -1.5564683171167908,
                -1.302852720903717,
                0.783114281369224
            ]
        },
        {
            "positions": [
                1.8772014216478115,
                -1.2276153647219878,
                -1.5711092400831905,
                -1.5584476463764867,
                -1.2358291778781287,
                0.8683879249301802
            ]
        },
        {
            "positions": [
                1.7127211976847767,
                -1.2242705096471025,
                -1.5014073832760153,
                -1.5604269756361828,
                -1.1688056348525404,
                0.9536615684911365
            ]
        },
        {
            "positions": [
                1.548240973721742,
                -1.2209256545722171,
                -1.43170552646884,
                -1.562406304895879,
                -1.101782091826952,
                1.0389352120520927
            ]
        },
        {
            "positions": [
                1.3837607497587074,
                -1.2175807994973318,
                -1.3620036696616649,
                -1.5643856341555749,
                -1.0347585488013638,
                1.124208855613049
            ]
        },
        {
            "positions": [
                1.2192805257956727,
                -1.2142359444224466,
                -1.2923018128544896,
                -1.566364963415271,
                -0.9677350057757754,
                1.2094824991740052
            ]
        },
        {
            "positions": [
                1.0548003018326382,
                -1.2108910893475613,
                -1.2225999560473144,
                -1.5683442926749671,
                -0.9007114627501871,
                1.2947561427349614
            ]
        },
        {
            "positions": [
                0.8903200778696034,
                -1.207546234272676,
                -1.1528980992401392,
                -1.570323621934663,
                -0.8336879197245988,
                1.3800297862959177
            ]
        },
        {
            "positions": [
                0.7258398539065689,
                -1.2042013791977908,
                -1.083196242432964,
                -1.5723029511943591,
                -0.7666643766990104,
                1.4653034298568737
            ]
        },
        {
            "positions": [
                0.5613596299435342,
                -1.2008565241229054,
                -1.0134943856257888,
                -1.574282280454055,
                -0.6996408336734222,
                1.5505770734178301
            ]
        },
        {
            "positions": [
                0.3968794059804992,
                -1.19751166904802,
                -0.9437925288186134,
                -1.5762616097137512,
                -0.6326172906478337,
                1.6358507169787866
            ]
        },
        {
            "positions": [
                0.23239918201746468,
                -1.194166813973135,
                -0.8740906720114383,
                -1.5782409389734473,
                -0.5655937476222455,
                1.7211243605397426
            ]
        },
        {
            "positions": [
                0.06791895805443016,
                -1.1908219588982496,
                -0.8043888152042631,
                -1.5802202682331432,
                -0.49857020459665713,
                1.8063980041006986
            ]
        },
        {
            "positions": [
                -0.09656126590860437,
                -1.1874771038233642,
                -0.7346869583970879,
                -1.5821995974928393,
                -0.4315466615710688,
                1.891671647661655
            ]
        },
        {
            "positions": [
                -0.26104148987163933,
                -1.1841322487484789,
                -0.6649851015899126,
                -1.5841789267525355,
                -0.3645231185454805,
                1.9769452912226115
            ]
        },
        {
            "positions": [
                -0.42552171383467385,
                -1.1807873936735938,
                -0.5952832447827374,
                -1.5861582560122314,
                -0.29749957551989215,
                2.0622189347835675
            ]
        },
        {
            "positions": [
                -0.5900019377977084,
                -1.1774425385987084,
                -0.5255813879755622,
                -1.5881375852719275,
                -0.23047603249430382,
                2.1474925783445236
            ]
        },
        {
            "positions": [
                -0.7544821617607429,
                -1.174097683523823,
                -0.455879531168387,
                -1.5901169145316236,
                -0.1634524894687155,
                2.23276622190548
            ]
        },
        {
            "positions": [
                -0.9189623857237779,
                -1.170752828448938,
                -0.38617767436121175,
                -1.5920962437913195,
                -0.09642894644312716,
                2.318039865466436
            ]
        },
        {
            "positions": [
                -1.0834426096868126,
                -1.1674079733740526,
                -0.31647581755403664,
                -1.5940755730510157,
                -0.029405403417538792,
                2.4033135090273925
            ]
        },
        {
            "positions": [
                -0.9972062775410057,
                -1.165939020282819,
                -0.15199109511018452,
                -1.540903825793715,
                -0.017525370594937556,
                2.457041200144048
            ]
        },
        {
            "positions": [
                -0.9109699453951987,
                -1.1644700671915857,
                0.0124936273336676,
                -1.4877320785364145,
                -0.005645337772336317,
                2.510768891260703
            ]
        },
        {
            "positions": [
                -0.8247336132493919,
                -1.1630011141003522,
                0.1769783497775197,
                -1.434560331279114,
                0.006234695050264923,
                2.5644965823773584
            ]
        },
        {
            "positions": [
                -0.7384972811035848,
                -1.1615321610091187,
                0.34146307222137184,
                -1.3813885840218134,
                0.01811472787286616,
                2.618224273494014
            ]
        },
        {
            "positions": [
                -0.652260948957778,
                -1.1600632079178852,
                0.505947794665224,
                -1.3282168367645126,
                0.0299947606954674,
                2.6719519646106695
            ]
        },
        {
            "positions": [
                -0.566024616811971,
                -1.158594254826652,
                0.670432517109076,
                -1.2750450895072123,
                0.04187479351806864,
                2.725679655727325
            ]
        },
        {
            "positions": [
                -0.4797882846661641,
                -1.1571253017354184,
                0.8349172395529282,
                -1.2218733422499115,
                0.05375482634066987,
                2.77940734684398
            ]
        },
        {
            "positions": [
                -0.39355195252035713,
                -1.1556563486441849,
                0.9994019619967803,
                -1.1687015949926112,
                0.06563485916327111,
                2.8331350379606355
            ]
        },
        {
            "positions": [
                -0.3073156203745502,
                -1.1541873955529516,
                1.1638866844406324,
                -1.1155298477353104,
                0.07751489198587236,
                2.886862729077291
            ]
        },
        {
            "positions": [
                -0.22107928822874323,
                -1.152718442461718,
                1.3283714068844845,
                -1.0623581004780098,
                0.0893949248084736,
                2.9405904201939466
            ]
        },
        {
            "positions": [
                -0.1348429560829364,
                -1.1512494893704845,
                1.4928561293283367,
                -1.0091863532207093,
                0.10127495763107482,
                2.9943181113106014
            ]
        },
        {
            "positions": [
                -0.048606623937129445,
                -1.149780536279251,
                1.6573408517721888,
                -0.9560146059634088,
                0.11315499045367607,
                3.048045802427257
            ]
        },
        {
            "positions": [
                0.037629708208677615,
                -1.1483115831880177,
                1.821825574216041,
                -0.9028428587061081,
                0.1250350232762773,
                3.1017734935439125
            ]
        },
        {
            "positions": [
                0.12386604035448437,
                -1.1468426300967842,
                1.9863102966598931,
                -0.8496711114488076,
                0.13691505609887852,
                3.155501184660568
            ]
        }
    ]
}