{
    "goal": {
        "global_pose": {
            "orientation": {
                "w": 0.7047431493862688,
                "x": -0.7094548369677653,
                "y": 0.0024358444001904,
                "z": -0.0022348060817251984
            },
            "position": {
                "x": -0.39052492380142206,
                "y": 0.3671506643295288,
                "z": 0.19426114857196808
            }
        },
        "name": "move_to_magneteinheit_D"
    },
    "id": "LBTRRT_move_to_magneteinheit_D_67",
    "joint_names": [
        "shoulder_pan_joint",
        "shoulder_lift_joint",
        "elbow_joint",
        "wrist_1_joint",
        "wrist_2_joint",
        "wrist_3_joint"
    ],
    "metrics": {
        "cart_traj_len": 4.294877080775647,
        "distance_elbow_joint": 3.096594161013367,
        "distance_shoulder_lift_joint": 1.400182273847172,
        "distance_shoulder_pan_joint": 3.0906209107288842,
        "distance_wrist_1_joint": 2.193521730368801,
        "distance_wrist_2_joint": 1.3552153450435895,
        "distance_wrist_3_joint": 0.5523515709628883,
        "smoothness": 0.33182368361347114,
        "time": 5.049494465,
        "traj_len": 3.418842785499898,
        "weighted_distance": 4.042514837239669
    },
    "planner": "LBTRRT",
    "start": {
        "state": {
            "elbow_joint": 0.749534889911806,
            "shoulder_lift_joint": -0.6476975780787326,
            "shoulder_pan_joint": -2.711696901376241,
            "wrist_1_joint": -0.07506478083263063,
            "wrist_2_joint": 0.43296659715538205,
            "wrist_3_joint": -3.14703540197715
        }
    },
    "waypoints": [
        {
            "positions": [
                -2.711696901376241,
                -0.6476975780787326,
                0.749534889911806,
                -0.07506478083263063,
                0.43296659715538205,
                -3.14703540197715
            ]
        },
        {
            "positions": [
                -2.73779968607014,
                -0.6234884456091963,
                0.7017323610783627,
                -0.10113437631065712,
                0.3027116433746978,
                -3.0988888721705794
            ]
        },
        {
            "positions": [
                -2.7639024707640387,
                -0.5992793131396599,
                0.6539298322449194,
                -0.12720397178868362,
                0.17245668959401356,
                -3.0507423423640088
            ]
        },
        {
            "positions": [
                -2.7900052554579373,
                -0.5750701806701235,
                0.6061273034114761,
                -0.1532735672667101,
                0.04220173581332931,
                -3.0025958125574386
            ]
        },
        {
            "positions": [
                -2.8161080401518364,
                -0.5508610482005871,
                0.5583247745780329,
                -0.1793431627447366,
                -0.08805321796735499,
                -2.954449282750868
            ]
        },
        {
            "positions": [
                -2.801452319185988,
                -0.5381354928615469,
                0.4448153719563778,
                -0.23565646079983257,
                -0.17577602281382268,
                -2.935789393898066
            ]
        },
        {
            "positions": [
                -2.7867965982201395,
                -0.5254099375225068,
                0.3313059693347228,
                -0.29196975885492854,
                -0.26349882766029037,
                -2.9171295050452644
            ]
        },
        {
            "positions": [
                -2.772140877254291,
                -0.5126843821834667,
                0.21779656671306774,
                -0.3482830569100245,
                -0.3512216325067581,
                -2.8984696161924624
            ]
        },
        {
            "positions": [
                -2.7574851562884426,
                -0.4999588268444265,
                0.10428716409141273,
                -0.4045963549651205,
                -0.43894443735322575,
                -2.8798097273396603
            ]
        },
        {
            "positions": [
                -2.6155381174608436,
                -0.5485827874371018,
                -0.008270142258783614,
                -0.46646677164741396,
                -0.4201454827001096,
                -2.8905305600832123
            ]
        },
        {
            "positions": [
                -2.473591078633245,
                -0.5972067480297771,
                -0.12082744860897995,
                -0.5283371883297074,
                -0.4013465280469934,
                -2.901251392826764
            ]
        },
        {
            "positions": [
                -2.3316440398056466,
                -0.6458307086224524,
                -0.2333847549591763,
                -0.5902076050120009,
                -0.38254757339387724,
                -2.9119722255703158
            ]
        },
        {
            "positions": [
                -2.1896970009780476,
                -0.6944546692151278,
                -0.34594206130937266,
                -0.6520780216942943,
                -0.36374861874076103,
                -2.9226930583138677
            ]
        },
        {
            "positions": [
                -2.0477499621504487,
                -0.743078629807803,
                -0.458499367659569,
                -0.7139484383765878,
                -0.3449496640876449,
                -2.9334138910574192
            ]
        },
        {
            "positions": [
                -1.9058029233228502,
                -0.7917025904004784,
                -0.5710566740097653,
                -0.7758188550588814,
                -0.32615070943452873,
                -2.944134723800971
            ]
        },
        {
            "positions": [
                -1.7638558844952514,
                -0.8403265509931537,
                -0.6836139803599617,
                -0.8376892717411748,
                -0.3073517547814125,
                -2.9548555565445227
            ]
        },
        {
            "positions": [
                -1.6219088456676527,
                -0.8889505115858289,
                -0.796171286710158,
                -0.8995596884234682,
                -0.28855280012829637,
                -2.9655763892880747
            ]
        },
        {
            "positions": [
                -1.479961806840054,
                -0.9375744721785043,
                -0.9087285930603544,
                -0.9614301051057618,
                -0.2697538454751802,
                -2.9762972220316266
            ]
        },
        {
            "positions": [
                -1.3380147680124552,
                -0.9861984327711797,
                -1.0212858994105507,
                -1.0233005217880553,
                -0.250954890822064,
                -2.987018054775178
            ]
        },
        {
            "positions": [
                -1.1960677291848563,
                -1.034822393363855,
                -1.1338432057607473,
                -1.0851709384703487,
                -0.2321559361689478,
                -2.99773888751873
            ]
        },
        {
            "positions": [
                -1.0541206903572578,
                -1.0834463539565302,
                -1.2464005121109434,
                -1.1470413551526422,
                -0.21335698151583166,
                -3.008459720262282
            ]
        },
        {
            "positions": [
                -0.9121736515296588,
                -1.1320703145492055,
                -1.35895781846114,
                -1.2089117718349356,
                -0.19455802686271548,
                -3.0191805530058335
            ]
        },
        {
            "positions": [
                -0.7702266127020603,
                -1.1806942751418807,
                -1.471515124811336,
                -1.270782188517229,
                -0.1757590722095993,
                -3.0299013857493855
            ]
        },
        {
            "positions": [
                -0.6282795738744613,
                -1.2293182357345562,
                -1.5840724311615326,
                -1.3326526051995224,
                -0.15696011755648315,
                -3.0406222184929375
            ]
        },
        {
            "positions": [
                -0.4863325350468628,
                -1.2779421963272315,
                -1.6966297375117287,
                -1.3945230218818159,
                -0.138161162903367,
                -3.051343051236489
            ]
        },
        {
            "positions": [
                -0.34438549621926384,
                -1.326566156919907,
                -1.8091870438619253,
                -1.4563934385641097,
                -0.11936220825025079,
                -3.062063883980041
            ]
        },
        {
            "positions": [
                -0.20243845739166533,
                -1.3751901175125822,
                -1.9217443502121214,
                -1.5182638552464032,
                -0.10056325359713464,
                -3.0727847167235924
            ]
        },
        {
            "positions": [
                -0.0604914185640663,
                -1.4238140781052575,
                -2.034301656562318,
                -1.5801342719286966,
                -0.08176429894401842,
                -3.0835055494671444
            ]
        },
        {
            "positions": [
                -0.0474141535528669,
                -1.4968699941314116,
                -2.111503895799916,
                -1.6841152804468296,
                -0.10782131280322999,
                -3.0902543317649087
            ]
        },
        {
            "positions": [
                -0.0343368885416675,
                -1.569925910157566,
                -2.1887061350375134,
                -1.7880962889649625,
                -0.13387832666244157,
                -3.097003114062673
            ]
        },
        {
            "positions": [
                -0.021259623530468105,
                -1.6429818261837204,
                -2.2659083742751114,
                -1.8920772974830955,
                -0.15993534052165315,
                -3.1037518963604374
            ]
        },
        {
            "positions": [
                -0.008182358519268705,
                -1.7160377422098745,
                -2.3431106135127093,
                -1.9960583060012285,
                -0.1859923543808647,
                -3.1105006786582017
            ]
        },
        {
            "positions": [
                -0.1348288779132106,
                -1.7420008359490997,
                -2.3465629918039825,
                -2.1762020839937017,
                -0.17717751941472462,
                -3.08614548737159
            ]
        },
        {
            "positions": [
                -0.18646644883999117,
                -1.7524023494572925,
                -2.347059271101561,
                -2.268586511201432,
                -0.19025880113751237,
                -3.0560657336513444
            ]
        }
    ]
}