{
    "goal": {
        "global_pose": {
            "orientation": {
                "w": 0.7031023480610252,
                "x": -0.7110244013736278,
                "y": 0.0077485991402295624,
                "z": 0.005598929693374583
            },
            "position": {
                "x": -0.8841497679147869,
                "y": 0.44412534475326537,
                "z": 0.3711530566215515
            }
        },
        "name": "move_to_auspresseinheit_D"
    },
    "id": "LBTRRT_move_to_auspresseinheit_D_119",
    "joint_names": [
        "shoulder_pan_joint",
        "shoulder_lift_joint",
        "elbow_joint",
        "wrist_1_joint",
        "wrist_2_joint",
        "wrist_3_joint"
    ],
    "metrics": {
        "cart_traj_len": 0.3442032907476889,
        "distance_elbow_joint": 0.6601096605409167,
        "distance_shoulder_lift_joint": 0.13295454345901447,
        "distance_shoulder_pan_joint": 0.1338048282086719,
        "distance_wrist_1_joint": 0.6093030797554229,
        "distance_wrist_2_joint": 1.4360710948832247,
        "distance_wrist_3_joint": 0.05920888189084561,
        "smoothness": 0.0,
        "time": 5.004357067,
        "traj_len": 1.7411065701840587,
        "weighted_distance": 2.2793077956165626
    },
    "planner": "LBTRRT",
    "start": {
        "state": {
            "elbow_joint": -1.8275523626775212,
            "shoulder_lift_joint": -2.126789852344167,
            "shoulder_pan_joint": -0.03513704404078235,
            "wrist_1_joint": -2.347782403156801,
            "wrist_2_joint": -1.6058999987535132,
            "wrist_3_joint": -3.0880379163319196
        }
    },
    "waypoints": [
        {
            "positions": [
                -0.03513704404078235,
                -2.126789852344167,
                -1.8275523626775212,
                -2.347782403156801,
                -1.6058999987535132,
                -3.0880379163319196
            ]
        },
        {
            "positions": [
                -0.051862647566866336,
                -2.1434091702765437,
                -1.7450386551099066,
                -2.423945288126229,
                -1.42639111189311,
                -3.080636806095564
            ]
        },
        {
            "positions": [
                -0.06858825109295033,
                -2.1600284882089205,
                -1.662524947542292,
                -2.5001081730956565,
                -1.246882225032707,
                -3.073235695859208
            ]
        },
        {
            "positions": [
                -0.08531385461903432,
                -2.1766478061412973,
                -1.5800112399746775,
                -2.5762710580650845,
                -1.0673733381723038,
                -3.0658345856228526
            ]
        },
        {
            "positions": [
                -0.1020394581451183,
                -2.193267124073674,
                -1.497497532407063,
                -2.652433943034512,
                -0.8878644513119008,
                -3.058433475386497
            ]
        },
        {
            "positions": [
                -0.1187650616712023,
                -2.209886442006051,
                -1.4149838248394482,
                -2.72859682800394,
                -0.7083555644514977,
                -3.051032365150141
            ]
        },
        {
            "positions": [
                -0.13549066519728628,
                -2.2265057599384277,
                -1.3324701172718336,
                -2.804759712973368,
                -0.5288466775910947,
                -3.0436312549137856
            ]
        },
        {
            "positions": [
                -0.15221626872337027,
                -2.2431250778708045,
                -1.249956409704219,
                -2.8809225979427957,
                -0.3493377907306916,
                -3.03623014467743
            ]
        },
        {
            "positions": [
                -0.16894187224945426,
                -2.2597443958031813,
                -1.1674427021366045,
                -2.9570854829122237,
                -0.16982890387028846,
                -3.028829034441074
            ]
        }
    ]
}