{
    "goal": {
        "global_pose": {
            "orientation": {
                "w": -0.4816463035849501,
                "x": 0.5182115481033762,
                "y": 0.4908360881923453,
                "z": -0.5084816262002911
            },
            "position": {
                "x": -0.8240239810943604,
                "y": 0.19912469901144506,
                "z": 0.16403168439865112
            }
        },
        "name": "move_to_storage_D"
    },
    "id": "LBTRRT_move_to_storage_D_39",
    "joint_names": [
        "shoulder_pan_joint",
        "shoulder_lift_joint",
        "elbow_joint",
        "wrist_1_joint",
        "wrist_2_joint",
        "wrist_3_joint"
    ],
    "metrics": {
        "cart_traj_len": 3.712854289542662,
        "distance_elbow_joint": 4.461811852798601,
        "distance_shoulder_lift_joint": 1.2942663164614265,
        "distance_shoulder_pan_joint": 2.8145801632228005,
        "distance_wrist_1_joint": 2.580261697859907,
        "distance_wrist_2_joint": 0.9827665101279393,
        "distance_wrist_3_joint": 3.2660145640469302,
        "smoothness": 0.40408174820233167,
        "time": 5.072005197,
        "traj_len": 3.9242452910741457,
        "weighted_distance": 5.049233450792239
    },
    "planner": "LBTRRT",
    "start": {
        "state": {
            "elbow_joint": -2.384821988534728,
            "shoulder_lift_joint": -2.2788054721415256,
            "shoulder_pan_joint": -0.1854694642142757,
            "wrist_1_joint": 1.4845938289331202,
            "wrist_2_joint": 0.17898776772866878,
            "wrist_3_joint": 0.037105688729662994
        }
    },
    "waypoints": [
        {
            "positions": [
                -0.1854694642142757,
                -2.2788054721415256,
                -2.384821988534728,
                1.4845938289331202,
                0.17898776772866878,
                0.037105688729662994
            ]
        },
        {
            "positions": [
                -0.07287828329432507,
                -2.1903063240151806,
                -2.4462884549793387,
                1.5575595922171592,
                0.15481274515840998,
                0.07303652433996148
            ]
        },
        {
            "positions": [
                0.039712897625625576,
                -2.101807175888836,
                -2.5077549214239494,
                1.6305253555011983,
                0.13063772258815115,
                0.10896735995025997
            ]
        },
        {
            "positions": [
                0.07668108772101014,
                -2.1056773173206396,
                -2.409065978947511,
                1.584206121901403,
                0.19355787503722544,
                0.011086768914230702
            ]
        },
        {
            "positions": [
                0.1136492778163947,
                -2.109547458752443,
                -2.3103770364710723,
                1.5378868883016077,
                0.25647802748629966,
                -0.08679382212179856
            ]
        },
        {
            "positions": [
                0.15061746791177927,
                -2.113417600184247,
                -2.211688093994634,
                1.4915676547018124,
                0.31939817993537395,
                -0.18467441315782784
            ]
        },
        {
            "positions": [
                0.1875856580071638,
                -2.1172877416160505,
                -2.1129991515181956,
                1.4452484211020171,
                0.38231833238444823,
                -0.2825550041938571
            ]
        },
        {
            "positions": [
                0.26520239916195937,
                -2.0857177665089788,
                -1.9859306526704725,
                1.3948227846035692,
                0.4029822102373511,
                -0.363400219633113
            ]
        },
        {
            "positions": [
                0.3428191403167549,
                -2.054147791401907,
                -1.8588621538227492,
                1.3443971481051216,
                0.42364608809025395,
                -0.4442454350723688
            ]
        },
        {
            "positions": [
                0.4204358814715505,
                -2.0225778162948354,
                -1.7317936549750261,
                1.2939715116066737,
                0.4443099659431568,
                -0.5250906505116246
            ]
        },
        {
            "positions": [
                0.49805262262634603,
                -1.9910078411877634,
                -1.6047251561273028,
                1.243545875108226,
                0.46497384379605966,
                -0.6059358659508804
            ]
        },
        {
            "positions": [
                0.5756693637811416,
                -1.9594378660806915,
                -1.4776566572795797,
                1.1931202386097781,
                0.4856377216489626,
                -0.6867810813901364
            ]
        },
        {
            "positions": [
                0.6532861049359371,
                -1.9278678909736198,
                -1.3505881584318566,
                1.1426946021113304,
                0.5063015995018654,
                -0.7676262968293922
            ]
        },
        {
            "positions": [
                0.7309028460907327,
                -1.896297915866548,
                -1.2235196595841336,
                1.0922689656128826,
                0.5269654773547683,
                -0.8484715122686481
            ]
        },
        {
            "positions": [
                0.8085195872455282,
                -1.8647279407594763,
                -1.0964511607364102,
                1.041843329114435,
                0.5476293552076711,
                -0.929316727707904
            ]
        },
        {
            "positions": [
                0.8861363284003239,
                -1.8331579656524044,
                -0.9693826618886869,
                0.991417692615987,
                0.568293233060574,
                -1.0101619431471598
            ]
        },
        {
            "positions": [
                0.9637530695551193,
                -1.8015879905453327,
                -0.8423141630409638,
                0.9409920561175392,
                0.5889571109134768,
                -1.0910071585864156
            ]
        },
        {
            "positions": [
                1.041369810709915,
                -1.7700180154382608,
                -0.7152456641932408,
                0.8905664196190914,
                0.6096209887663797,
                -1.1718523740256714
            ]
        },
        {
            "positions": [
                1.1189865518647104,
                -1.738448040331189,
                -0.5881771653455177,
                0.8401407831206437,
                0.6302848666192825,
                -1.2526975894649273
            ]
        },
        {
            "positions": [
                1.196603293019506,
                -1.7068780652241173,
                -0.46110866649779436,
                0.7897151466221959,
                0.6509487444721854,
                -1.3335428049041833
            ]
        },
        {
            "positions": [
                1.2742200341743015,
                -1.6753080901170456,
                -0.3340401676500713,
                0.7392895101237481,
                0.6716126223250882,
                -1.4143880203434391
            ]
        },
        {
            "positions": [
                1.351836775329097,
                -1.6437381150099737,
                -0.20697166880234819,
                0.6888638736253003,
                0.6922765001779911,
                -1.495233235782695
            ]
        },
        {
            "positions": [
                1.4294535164838926,
                -1.612168139902902,
                -0.07990316995462488,
                0.6384382371268525,
                0.712940378030894,
                -1.5760784512219508
            ]
        },
        {
            "positions": [
                1.507070257638688,
                -1.58059816479583,
                0.04716532889309821,
                0.5880126006284048,
                0.7336042558837969,
                -1.6569236666612066
            ]
        },
        {
            "positions": [
                1.5846869987934837,
                -1.5490281896887583,
                0.17423382774082175,
                0.5375869641299569,
                0.7542681337366998,
                -1.7377688821004627
            ]
        },
        {
            "positions": [
                1.6623037399482794,
                -1.5174582145816866,
                0.30130232658854483,
                0.4871613276315091,
                0.7749320115896026,
                -1.8186140975397185
            ]
        },
        {
            "positions": [
                1.7399204811030748,
                -1.485888239474615,
                0.4283708254362679,
                0.4367356911330613,
                0.7955958894425055,
                -1.8994593129789743
            ]
        },
        {
            "positions": [
                1.8175372222578705,
                -1.454318264367543,
                0.555439324283991,
                0.38631005463461365,
                0.8162597672954083,
                -1.9803045284182301
            ]
        },
        {
            "positions": [
                1.895153963412666,
                -1.4227482892604713,
                0.6825078231317141,
                0.33588441813616576,
                0.8369236451483111,
                -2.0611497438574857
            ]
        },
        {
            "positions": [
                1.9727707045674614,
                -1.3911783141533993,
                0.8095763219794372,
                0.2854587816377181,
                0.857587523001214,
                -2.1419949592967416
            ]
        },
        {
            "positions": [
                2.050387445722257,
                -1.3596083390463276,
                0.9366448208271603,
                0.2350331451392702,
                0.8782514008541169,
                -2.2228401747359974
            ]
        },
        {
            "positions": [
                2.1280041868770527,
                -1.328038363939256,
                1.0637133196748838,
                0.18460750864082232,
                0.8989152787070198,
                -2.3036853901752536
            ]
        },
        {
            "positions": [
                2.2056209280318484,
                -1.2964683888321842,
                1.190781818522607,
                0.13418187214237465,
                0.9195791565599226,
                -2.3845306056145095
            ]
        },
        {
            "positions": [
                2.2832376691866436,
                -1.2648984137251125,
                1.31785031737033,
                0.08375623564392676,
                0.9402430344128255,
                -2.4653758210537653
            ]
        },
        {
            "positions": [
                2.3608544103414393,
                -1.2333284386180405,
                1.444918816218053,
                0.03333059914547917,
                0.9609069122657283,
                -2.546221036493021
            ]
        },
        {
            "positions": [
                2.4055637917859536,
                -1.1970237467041218,
                1.5092863465959492,
                -0.10619197001053896,
                0.9782647914840358,
                -2.6360484525568633
            ]
        },
        {
            "positions": [
                2.450273173230468,
                -1.160719054790203,
                1.573653876973845,
                -0.24571453916655708,
                0.9956226707023431,
                -2.7258758686207054
            ]
        },
        {
            "positions": [
                2.4949825546749818,
                -1.1244143628762844,
                1.6380214073517412,
                -0.3852371083225753,
                1.0129805499206506,
                -2.815703284684547
            ]
        },
        {
            "positions": [
                2.539691936119496,
                -1.0881096709623657,
                1.702388937729637,
                -0.5247596774785933,
                1.030338429138958,
                -2.9055307007483893
            ]
        },
        {
            "positions": [
                2.5844013175640104,
                -1.051804979048447,
                1.7667564681075332,
                -0.6642822466346116,
                1.0476963083572655,
                -2.9953581168122314
            ]
        },
        {
            "positions": [
                2.6291106990085247,
                -1.0155002871345282,
                1.8311239984854293,
                -0.8038048157906297,
                1.0650541875755728,
                -3.0851855328760736
            ]
        }
    ]
}