{
    "goal": {
        "global_pose": {
            "orientation": {
                "w": 0.5084816262002911,
                "x": -0.4908360881923452,
                "y": 0.5182115481033761,
                "z": -0.48164630358495003
            },
            "position": {
                "x": 0.5540239810943604,
                "y": -0.46912469901144505,
                "z": 0.16403168439865112
            }
        },
        "name": "move_to_storage_B"
    },
    "id": "LBTRRT_move_to_storage_B_104",
    "joint_names": [
        "shoulder_pan_joint",
        "shoulder_lift_joint",
        "elbow_joint",
        "wrist_1_joint",
        "wrist_2_joint",
        "wrist_3_joint"
    ],
    "metrics": {
        "cart_traj_len": 1.071029560259565,
        "distance_elbow_joint": 0.45138152085591443,
        "distance_shoulder_lift_joint": 0.4636183877481017,
        "distance_shoulder_pan_joint": 0.8079824675929791,
        "distance_wrist_1_joint": 3.001408013529433,
        "distance_wrist_2_joint": 2.7076859474981423,
        "distance_wrist_3_joint": 3.139982303665456,
        "smoothness": 0.07733874990531128,
        "time": 5.050851652,
        "traj_len": 3.251470227587825,
        "weighted_distance": 4.749854440848532
    },
    "planner": "LBTRRT",
    "start": {
        "state": {
            "elbow_joint": 1.664937868594044,
            "shoulder_lift_joint": -0.661644460510453,
            "shoulder_pan_joint": -0.9139846352900073,
            "wrist_1_joint": 2.146753192139373,
            "wrist_2_joint": -2.2341966793290973,
            "wrist_3_joint": 0.005466555786416001
        }
    },
    "waypoints": [
        {
            "positions": [
                -0.9139846352900073,
                -0.661644460510453,
                1.664937868594044,
                2.146753192139373,
                -2.2341966793290973,
                0.005466555786416001
            ]
        },
        {
            "positions": [
                -0.9023897106561029,
                -0.6745496406535471,
                1.6612609047648683,
                2.1051288054814967,
                -2.1929447065520677,
                0.002507432563254514
            ]
        },
        {
            "positions": [
                -0.8792345583267707,
                -0.7090873416860447,
                1.6578087346456765,
                1.9736699433085894,
                -2.066034511397483,
                -0.04577484704912369
            ]
        },
        {
            "positions": [
                -0.8560794059974386,
                -0.7436250427185422,
                1.6543565645264844,
                1.842211081135682,
                -1.9391243162428988,
                -0.0940571266615019
            ]
        },
        {
            "positions": [
                -0.8329242536681064,
                -0.7781627437510399,
                1.6509043944072925,
                1.7107522189627746,
                -1.8122141210883145,
                -0.14233940627388011
            ]
        },
        {
            "positions": [
                -0.8097691013387742,
                -0.8127004447835375,
                1.6474522242881007,
                1.5792933567898673,
                -1.68530392593373,
                -0.19062168588625833
            ]
        },
        {
            "positions": [
                -0.7866139490094421,
                -0.8472381458160351,
                1.6440000541689086,
                1.4478344946169597,
                -1.5583937307791456,
                -0.23890396549863654
            ]
        },
        {
            "positions": [
                -0.76345879668011,
                -0.8817758468485327,
                1.6405478840497167,
                1.3163756324440525,
                -1.4314835356245612,
                -0.2871862451110147
            ]
        },
        {
            "positions": [
                -0.7403036443507779,
                -0.9163135478810303,
                1.6370957139305249,
                1.184916770271145,
                -1.3045733404699766,
                -0.3354685247233929
            ]
        },
        {
            "positions": [
                -0.7171484920214457,
                -0.9508512489135279,
                1.633643543811333,
                1.0534579080982376,
                -1.1776631453153923,
                -0.38375080433577113
            ]
        },
        {
            "positions": [
                -0.6939933396921136,
                -0.9853889499460255,
                1.630191373692141,
                0.9219990459253302,
                -1.050752950160808,
                -0.4320330839481493
            ]
        },
        {
            "positions": [
                -0.6708381873627814,
                -1.0199266509785232,
                1.626739203572949,
                0.7905401837524229,
                -0.9238427550062234,
                -0.48031536356052756
            ]
        },
        {
            "positions": [
                -0.6476830350334493,
                -1.0544643520110206,
                1.6232870334537572,
                0.6590813215795155,
                -0.796932559851639,
                -0.5285976431729058
            ]
        },
        {
            "positions": [
                -0.6245278827041172,
                -1.0890020530435183,
                1.6198348633345652,
                0.5276224594066081,
                -0.6700223646970545,
                -0.576879922785284
            ]
        },
        {
            "positions": [
                -0.601372730374785,
                -1.123539754076016,
                1.6163826932153733,
                0.39616359723370087,
                -0.5431121695424701,
                -0.6251622023976622
            ]
        },
        {
            "positions": [
                -0.6343974345533021,
                -1.1234248811305134,
                1.6432377829138562,
                0.3127757026587834,
                -0.47533874036170254,
                -0.7924524387630874
            ]
        },
        {
            "positions": [
                -0.6674221387318192,
                -1.1233100081850107,
                1.6700928726123392,
                0.22938780808386589,
                -0.407565311180935,
                -0.9597426751285125
            ]
        },
        {
            "positions": [
                -0.7004468429103363,
                -1.1231951352395082,
                1.6969479623108221,
                0.14599991350894842,
                -0.3397918820001674,
                -1.127032911493938
            ]
        },
        {
            "positions": [
                -0.7334715470888535,
                -1.1230802622940055,
                1.723803052009305,
                0.0626120189340309,
                -0.27201845281939985,
                -1.2943231478593629
            ]
        },
        {
            "positions": [
                -0.7664962512673705,
                -1.122965389348503,
                1.750658141707788,
                -0.020775875640886565,
                -0.20424502363863228,
                -1.461613384224788
            ]
        },
        {
            "positions": [
                -0.7995209554458877,
                -1.1228505164030005,
                1.777513231406271,
                -0.10416377021580403,
                -0.13647159445786466,
                -1.6289036205902134
            ]
        },
        {
            "positions": [
                -0.8325456596244049,
                -1.1227356434574978,
                1.8043683211047536,
                -0.1875516647907215,
                -0.0686981652770971,
                -1.7961938569556386
            ]
        },
        {
            "positions": [
                -0.865570363802922,
                -1.1226207705119953,
                1.8312234108032368,
                -0.27093955936563907,
                -0.0009247360963295925,
                -1.9634840933210636
            ]
        },
        {
            "positions": [
                -0.8985950679814391,
                -1.1225058975664925,
                1.8580785005017195,
                -0.35432745394055654,
                0.06684869308443797,
                -2.1307743296864885
            ]
        },
        {
            "positions": [
                -0.9316197721599562,
                -1.12239102462099,
                1.8849335902002025,
                -0.437715348515474,
                0.13462212226520553,
                -2.298064566051914
            ]
        },
        {
            "positions": [
                -0.9646444763384733,
                -1.1222761516754876,
                1.9117886798986854,
                -0.5211032430903915,
                0.2023955514459731,
                -2.4653548024173393
            ]
        },
        {
            "positions": [
                -0.9976691805169905,
                -1.1221612787299848,
                1.9386437695971683,
                -0.6044911376653089,
                0.2701689806267408,
                -2.6326450387827647
            ]
        },
        {
            "positions": [
                -1.0306938846955076,
                -1.1220464057844823,
                1.9654988592956513,
                -0.6878790322402265,
                0.33794240980750834,
                -2.7999352751481896
            ]
        },
        {
            "positions": [
                -1.0637185888740248,
                -1.1219315328389796,
                1.9923539489941342,
                -0.7712669268151439,
                0.4057158389882759,
                -2.967225511513615
            ]
        },
        {
            "positions": [
                -1.0967432930525418,
                -1.1218166598934771,
                2.019209038692617,
                -0.8546548213900614,
                0.4734892681690435,
                -3.13451574787904
            ]
        }
    ]
}