{
    "goal": {
        "global_pose": {
            "orientation": {
                "w": -0.4816463035849501,
                "x": 0.5182115481033762,
                "y": 0.4908360881923453,
                "z": -0.5084816262002911
            },
            "position": {
                "x": -0.8240239810943604,
                "y": -0.300875300988555,
                "z": 0.16403168439865112
            }
        },
        "name": "move_to_storage_C"
    },
    "id": "LBTRRT_move_to_storage_C_102",
    "joint_names": [
        "shoulder_pan_joint",
        "shoulder_lift_joint",
        "elbow_joint",
        "wrist_1_joint",
        "wrist_2_joint",
        "wrist_3_joint"
    ],
    "metrics": {
        "cart_traj_len": 0.5766338365225916,
        "distance_elbow_joint": 0.2588041150242877,
        "distance_shoulder_lift_joint": 0.18929822855124856,
        "distance_shoulder_pan_joint": 0.49558177400922965,
        "distance_wrist_1_joint": 0.08121435289893775,
        "distance_wrist_2_joint": 1.0596071661050792,
        "distance_wrist_3_joint": 0.06832199106969483,
        "smoothness": 2.5376526478085547e-16,
        "time": 5.004508113,
        "traj_len": 1.4672517260710507,
        "weighted_distance": 1.8521050533924595
    },
    "planner": "LBTRRT",
    "start": {
        "state": {
            "elbow_joint": 2.010868314990456,
            "shoulder_lift_joint": -1.1634956873337592,
            "shoulder_pan_joint": -2.4736205022346125,
            "wrist_1_joint": -0.8367026794202681,
            "wrist_2_joint": 0.6746043897044499,
            "wrist_3_joint": -3.1496632123970403
        }
    },
    "waypoints": [
        {
            "positions": [
                -2.4736205022346125,
                -1.1634956873337592,
                2.010868314990456,
                -0.8367026794202681,
                0.6746043897044499,
                -3.1496632123970403
            ]
        },
        {
            "positions": [
                -2.556217464569484,
                -1.1319459825752178,
                1.9677342958197412,
                -0.8231669539371118,
                0.8512055840552964,
                -3.1382762138854243
            ]
        },
        {
            "positions": [
                -2.638814426904356,
                -1.1003962778166763,
                1.9246002766490267,
                -0.8096312284539555,
                1.027806778406143,
                -3.126889215373809
            ]
        },
        {
            "positions": [
                -2.7214113892392273,
                -1.068846573058135,
                1.881466257478312,
                -0.7960955029707992,
                1.2044079727569894,
                -3.115502216862193
            ]
        },
        {
            "positions": [
                -2.804008351574099,
                -1.0372968682995936,
                1.8383322383075973,
                -0.7825597774876429,
                1.3810091671078362,
                -3.104115218350577
            ]
        },
        {
            "positions": [
                -2.8866053139089707,
                -1.005747163541052,
                1.7951982191368827,
                -0.7690240520044866,
                1.5576103614586825,
                -3.0927282198389614
            ]
        },
        {
            "positions": [
                -2.969202276243842,
                -0.9741974587825106,
                1.7520641999661681,
                -0.7554883265213304,
                1.7342115558095292,
                -3.0813412213273454
            ]
        }
    ]
}