{
    "goal": {
        "global_pose": {
            "orientation": {
                "w": 0.7031023502349854,
                "x": -0.7110244035720825,
                "y": 0.007748599164187908,
                "z": 0.005598929710686207
            },
            "position": {
                "x": 0.11585023208521307,
                "y": 0.44412534475326537,
                "z": 0.3711530566215515
            }
        },
        "name": "move_to_auspresseinheit_A"
    },
    "id": "LBTRRT_move_to_auspresseinheit_A_34",
    "joint_names": [
        "shoulder_pan_joint",
        "shoulder_lift_joint",
        "elbow_joint",
        "wrist_1_joint",
        "wrist_2_joint",
        "wrist_3_joint"
    ],
    "metrics": {
        "cart_traj_len": 0.6635046871167919,
        "distance_elbow_joint": 0.25936184033935783,
        "distance_shoulder_lift_joint": 0.7435296704821341,
        "distance_shoulder_pan_joint": 1.04663058395575,
        "distance_wrist_1_joint": 0.569551789721571,
        "distance_wrist_2_joint": 0.5123733094941779,
        "distance_wrist_3_joint": 0.13124089056939914,
        "smoothness": 0.5563319406368106,
        "time": 5.016147466,
        "traj_len": 1.806291251310926,
        "weighted_distance": 2.1464144438847166
    },
    "planner": "LBTRRT",
    "start": {
        "state": {
            "elbow_joint": 2.4225746658250005,
            "shoulder_lift_joint": -1.3736534386056498,
            "shoulder_pan_joint": -0.3378633547517467,
            "wrist_1_joint": -1.0288598680537169,
            "wrist_2_joint": 1.233022673432363,
            "wrist_3_joint": -3.0940220416140027
        }
    },
    "waypoints": [
        {
            "positions": [
                -0.3378633547517467,
                -1.3736534386056498,
                2.4225746658250005,
                -1.0288598680537169,
                1.233022673432363,
                -3.0940220416140027
            ]
        },
        {
            "positions": [
                -0.2281057568392134,
                -1.5014235663169202,
                2.445378016870526,
                -0.9664400257341502,
                1.1792584491898512,
                -3.111524797885527
            ]
        },
        {
            "positions": [
                -0.11834815892668007,
                -1.6291936940281908,
                2.468181367916052,
                -0.9040201834145837,
                1.1254942249473396,
                -3.129027554157052
            ]
        },
        {
            "positions": [
                -0.008590561014146791,
                -1.7569638217394612,
                2.490984718961577,
                -0.841600341095017,
                1.0717300007048278,
                -3.1465303104285764
            ]
        },
        {
            "positions": [
                0.10116703689838658,
                -1.8847339494507316,
                2.5137880700071027,
                -0.7791804987754505,
                1.017965776462316,
                -3.1640330667001013
            ]
        },
        {
            "positions": [
                0.2109246348109199,
                -2.012504077162002,
                2.5365914210526284,
                -0.7167606564558838,
                0.9642015522198044,
                -3.1815358229716257
            ]
        },
        {
            "positions": [
                0.3353852834091907,
                -1.9863343191805565,
                2.500255149774696,
                -0.6523975119249493,
                0.9033135051493996,
                -3.1706040456686817
            ]
        },
        {
            "positions": [
                0.4598459320074615,
                -1.960164561199111,
                2.4639188784967634,
                -0.5880343673940148,
                0.8424254580789947,
                -3.1596722683657377
            ]
        },
        {
            "positions": [
                0.5843065806057324,
                -1.9339948032176655,
                2.427582607218831,
                -0.5236712228630804,
                0.78153741100859,
                -3.1487404910627936
            ]
        },
        {
            "positions": [
                0.7087672292040031,
                -1.90782504523622,
                2.3912463359408984,
                -0.4593080783321459,
                0.7206493639381851,
                -3.1378087137598496
            ]
        }
    ]
}