{
    "goal": {
        "global_pose": {
            "orientation": {
                "w": 0.5084816262002911,
                "x": -0.4908360881923452,
                "y": 0.5182115481033761,
                "z": -0.48164630358495003
            },
            "position": {
                "x": 0.5540239810943604,
                "y": -0.46912469901144505,
                "z": 0.16403168439865112
            }
        },
        "name": "move_to_storage_B"
    },
    "id": "LBTRRT_move_to_storage_B_78",
    "joint_names": [
        "shoulder_pan_joint",
        "shoulder_lift_joint",
        "elbow_joint",
        "wrist_1_joint",
        "wrist_2_joint",
        "wrist_3_joint"
    ],
    "metrics": {
        "cart_traj_len": 0.7493016265427743,
        "distance_elbow_joint": 0.359275290879121,
        "distance_shoulder_lift_joint": 0.46076554607350095,
        "distance_shoulder_pan_joint": 0.5341264378416352,
        "distance_wrist_1_joint": 3.0252352957190647,
        "distance_wrist_2_joint": 2.7121307655862665,
        "distance_wrist_3_joint": 3.2380725278754556,
        "smoothness": 0.14781749255534793,
        "time": 5.082924978,
        "traj_len": 3.213970420519617,
        "weighted_distance": 4.747959243825845
    },
    "planner": "LBTRRT",
    "start": {
        "state": {
            "elbow_joint": 1.664937868594044,
            "shoulder_lift_joint": -0.661644460510453,
            "shoulder_pan_joint": -0.9139846352900073,
            "wrist_1_joint": 2.146753192139373,
            "wrist_2_joint": -2.2341966793290973,
            "wrist_3_joint": 0.005466555786416001
        }
    },
    "waypoints": [
        {
            "positions": [
                -0.9139846352900073,
                -0.661644460510453,
                1.664937868594044,
                2.146753192139373,
                -2.2341966793290973,
                0.005466555786416001
            ]
        },
        {
            "positions": [
                -0.8259671084829996,
                -0.6793446989010261,
                1.7365302389796369,
                2.0939962532318805,
                -2.187795664900302,
                0.03439564693467355
            ]
        },
        {
            "positions": [
                -0.737949581675992,
                -0.6970449372915993,
                1.8081226093652298,
                2.0412393143243874,
                -2.1413946504715065,
                0.0633247380829311
            ]
        },
        {
            "positions": [
                -0.7522732370450969,
                -0.7140595400632935,
                1.8167662313695472,
                1.9244504576082242,
                -2.0366215010023594,
                -0.06388383574022652
            ]
        },
        {
            "positions": [
                -0.7665968924142016,
                -0.7310741428349877,
                1.8254098533738647,
                1.807661600892061,
                -1.9318483515332123,
                -0.19109240956338414
            ]
        },
        {
            "positions": [
                -0.7809205477833064,
                -0.7480887456066819,
                1.834053475378182,
                1.690872744175898,
                -1.8270752020640653,
                -0.3183009833865417
            ]
        },
        {
            "positions": [
                -0.7952442031524112,
                -0.765103348378376,
                1.8426970973824994,
                1.5740838874597347,
                -1.7223020525949182,
                -0.44550955720969937
            ]
        },
        {
            "positions": [
                -0.809567858521516,
                -0.7821179511500702,
                1.8513407193868168,
                1.4572950307435715,
                -1.6175289031257711,
                -0.5727181310328571
            ]
        },
        {
            "positions": [
                -0.8238915138906208,
                -0.7991325539217644,
                1.8599843413911343,
                1.3405061740274085,
                -1.5127557536566243,
                -0.6999267048560145
            ]
        },
        {
            "positions": [
                -0.8382151692597256,
                -0.8161471566934586,
                1.8686279633954517,
                1.223717317311245,
                -1.4079826041874772,
                -0.8271352786791724
            ]
        },
        {
            "positions": [
                -0.8525388246288303,
                -0.8331617594651528,
                1.877271585399769,
                1.106928460595082,
                -1.3032094547183302,
                -0.9543438525023298
            ]
        },
        {
            "positions": [
                -0.8668624799979352,
                -0.850176362236847,
                1.8859152074040866,
                0.990139603878919,
                -1.1984363052491833,
                -1.0815524263254874
            ]
        },
        {
            "positions": [
                -0.8811861353670399,
                -0.8671909650085412,
                1.894558829408404,
                0.8733507471627557,
                -1.093663155780036,
                -1.208761000148645
            ]
        },
        {
            "positions": [
                -0.8955097907361448,
                -0.8842055677802354,
                1.9032024514127213,
                0.7565618904465925,
                -0.9888900063108892,
                -1.3359695739718027
            ]
        },
        {
            "positions": [
                -0.9098334461052495,
                -0.9012201705519296,
                1.9118460734170386,
                0.6397730337304295,
                -0.8841168568417421,
                -1.4631781477949601
            ]
        },
        {
            "positions": [
                -0.9241571014743544,
                -0.9182347733236238,
                1.9204896954213562,
                0.522984177014266,
                -0.7793437073725951,
                -1.590386721618118
            ]
        },
        {
            "positions": [
                -0.9384807568434592,
                -0.935249376095318,
                1.9291333174256735,
                0.4061953202981028,
                -0.674570557903448,
                -1.7175952954412756
            ]
        },
        {
            "positions": [
                -0.952804412212564,
                -0.9522639788670121,
                1.9377769394299909,
                0.2894064635819398,
                -0.5697974084343012,
                -1.844803869264433
            ]
        },
        {
            "positions": [
                -0.9671280675816687,
                -0.9692785816387063,
                1.9464205614343082,
                0.17261760686577654,
                -0.46502425896515387,
                -1.9720124430875907
            ]
        },
        {
            "positions": [
                -0.9814517229507735,
                -0.9862931844104005,
                1.9550641834386258,
                0.055828750149613304,
                -0.3602511094960068,
                -2.099221016910749
            ]
        },
        {
            "positions": [
                -0.9957753783198784,
                -1.0033077871820946,
                1.963707805442943,
                -0.06096010656654949,
                -0.25547796002685996,
                -2.2264295907339062
            ]
        },
        {
            "positions": [
                -1.010099033688983,
                -1.020322389953789,
                1.9723514274472604,
                -0.17774896328271295,
                -0.1507048105577129,
                -2.3536381645570637
            ]
        },
        {
            "positions": [
                -1.0244226890580879,
                -1.037336992725483,
                1.980995049451578,
                -0.29453781999887596,
                -0.04593166108856561,
                -2.4808467383802215
            ]
        },
        {
            "positions": [
                -1.0387463444271927,
                -1.0543515954971772,
                1.9896386714558953,
                -0.411326676715039,
                0.05884148838058101,
                -2.608055312203379
            ]
        },
        {
            "positions": [
                -1.0530699997962976,
                -1.0713661982688714,
                1.9982822934602127,
                -0.5281155334312024,
                0.16361463784972807,
                -2.735263886026537
            ]
        },
        {
            "positions": [
                -1.0673936551654024,
                -1.0883808010405656,
                2.0069259154645303,
                -0.6449043901473659,
                0.26838778731887514,
                -2.8624724598496942
            ]
        },
        {
            "positions": [
                -1.081717310534507,
                -1.1053954038122598,
                2.0155695374688474,
                -0.7616932468635285,
                0.3731609367880222,
                -2.9896810336728517
            ]
        },
        {
            "positions": [
                -1.0960409659036119,
                -1.122410006583954,
                2.024213159473165,
                -0.8784821035796919,
                0.4779340862571695,
                -3.1168896074960095
            ]
        }
    ]
}