{
    "goal": {
        "global_pose": {
            "orientation": {
                "w": -0.4816463035849501,
                "x": 0.5182115481033762,
                "y": 0.4908360881923453,
                "z": -0.5084816262002911
            },
            "position": {
                "x": -0.8240239810943604,
                "y": 0.19912469901144506,
                "z": 0.16403168439865112
            }
        },
        "name": "move_to_storage_D"
    },
    "id": "PRM_move_to_storage_D_46",
    "joint_names": [
        "shoulder_pan_joint",
        "shoulder_lift_joint",
        "elbow_joint",
        "wrist_1_joint",
        "wrist_2_joint",
        "wrist_3_joint"
    ],
    "metrics": {
        "cart_traj_len": 3.879721352580522,
        "distance_elbow_joint": 4.208780252297705,
        "distance_shoulder_lift_joint": 1.2648303685525748,
        "distance_shoulder_pan_joint": 2.914836945253126,
        "distance_wrist_1_joint": 2.2720099964694223,
        "distance_wrist_2_joint": 0.8751326705322979,
        "distance_wrist_3_joint": 3.135183127354041,
        "smoothness": 0.12610076257986286,
        "time": 0.40684133499999997,
        "traj_len": 3.830244556220812,
        "weighted_distance": 4.907981487553613
    },
    "planner": "PRM",
    "start": {
        "state": {
            "elbow_joint": -2.384821988534728,
            "shoulder_lift_joint": -2.2788054721415256,
            "shoulder_pan_joint": -0.1854694642142757,
            "wrist_1_joint": 1.4845938289331202,
            "wrist_2_joint": 0.17898776772866878,
            "wrist_3_joint": 0.037105688729662994
        }
    },
    "waypoints": [
        {
            "positions": [
                -0.1854694642142757,
                -2.2788054721415256,
                -2.384821988534728,
                1.4845938289331202,
                0.17898776772866878,
                0.037105688729662994
            ]
        },
        {
            "positions": [
                -0.17146329471190686,
                -2.273591837116834,
                -2.384019408220592,
                1.4892257169937237,
                0.17797191310497545,
                0.032986844415534046
            ]
        },
        {
            "positions": [
                -0.09005358934952973,
                -2.2378083123962518,
                -2.2731785477128224,
                1.4302525959117427,
                0.1997852405857431,
                -0.04929169770368912
            ]
        },
        {
            "positions": [
                -0.0086438839871526,
                -2.2020247876756693,
                -2.1623376872050524,
                1.3712794748297616,
                0.2215985680665107,
                -0.1315702398229123
            ]
        },
        {
            "positions": [
                0.07276582137522453,
                -2.166241262955087,
                -2.051496826697283,
                1.3123063537477808,
                0.24341189554727832,
                -0.2138487819421355
            ]
        },
        {
            "positions": [
                0.15417552673760165,
                -2.130457738234504,
                -1.940655966189513,
                1.2533332326657998,
                0.26522522302804596,
                -0.2961273240613586
            ]
        },
        {
            "positions": [
                0.23558523209997873,
                -2.0946742135139216,
                -1.8298151056817433,
                1.1943601115838187,
                0.28703855050881355,
                -0.37840586618058175
            ]
        },
        {
            "positions": [
                0.3169949374623559,
                -2.058890688793339,
                -1.7189742451739736,
                1.135386990501838,
                0.30885187798958125,
                -0.460684408299805
            ]
        },
        {
            "positions": [
                0.39840464282473304,
                -2.0231071640727567,
                -1.6081333846662038,
                1.0764138694198568,
                0.33066520547034883,
                -0.5429629504190282
            ]
        },
        {
            "positions": [
                0.47981434818711016,
                -1.9873236393521743,
                -1.4972925241584343,
                1.0174407483378758,
                0.3524785329511165,
                -0.6252414925382513
            ]
        },
        {
            "positions": [
                0.5612240535494872,
                -1.9515401146315918,
                -1.3864516636506643,
                0.9584676272558948,
                0.3742918604318841,
                -0.7075200346574745
            ]
        },
        {
            "positions": [
                0.6426337589118643,
                -1.9157565899110092,
                -1.2756108031428948,
                0.8994945061739138,
                0.3961051879126517,
                -0.7897985767766976
            ]
        },
        {
            "positions": [
                0.7240434642742415,
                -1.8799730651904267,
                -1.164769942635125,
                0.8405213850919329,
                0.41791851539341934,
                -0.8720771188959209
            ]
        },
        {
            "positions": [
                0.8054531696366187,
                -1.844189540469844,
                -1.0539290821273553,
                0.7815482640099518,
                0.439731842874187,
                -0.9543556610151441
            ]
        },
        {
            "positions": [
                0.8868628749989957,
                -1.8084060157492616,
                -0.9430882216195855,
                0.7225751429279708,
                0.4615451703549546,
                -1.0366342031343672
            ]
        },
        {
            "positions": [
                0.968272580361373,
                -1.7726224910286792,
                -0.8322473611118157,
                0.6636020218459898,
                0.48335849783572227,
                -1.1189127452535903
            ]
        },
        {
            "positions": [
                1.04968228572375,
                -1.7368389663080968,
                -0.7214065006040462,
                0.6046289007640089,
                0.5051718253164899,
                -1.2011912873728134
            ]
        },
        {
            "positions": [
                1.1310919910861272,
                -1.7010554415875143,
                -0.6105656400962765,
                0.5456557796820278,
                0.5269851527972576,
                -1.2834698294920366
            ]
        },
        {
            "positions": [
                1.2125016964485043,
                -1.6652719168669317,
                -0.4997247795885067,
                0.4866826586000468,
                0.5487984802780251,
                -1.3657483716112597
            ]
        },
        {
            "positions": [
                1.2939114018108813,
                -1.6294883921463492,
                -0.38888391908073694,
                0.42770953751806595,
                0.5706118077587927,
                -1.4480269137304829
            ]
        },
        {
            "positions": [
                1.3753211071732585,
                -1.5937048674257668,
                -0.2780430585729672,
                0.3687364164360849,
                0.5924251352395604,
                -1.530305455849706
            ]
        },
        {
            "positions": [
                1.4567308125356355,
                -1.5579213427051841,
                -0.16720219806519765,
                0.30976329535410385,
                0.6142384627203279,
                -1.6125839979689292
            ]
        },
        {
            "positions": [
                1.5381405178980128,
                -1.5221378179846017,
                -0.05636133755742767,
                0.250790174272123,
                0.6360517902010956,
                -1.6948625400881525
            ]
        },
        {
            "positions": [
                1.61955022326039,
                -1.4863542932640192,
                0.05447952295034186,
                0.19181705319014197,
                0.6578651176818633,
                -1.7771410822073757
            ]
        },
        {
            "positions": [
                1.700959928622767,
                -1.4505707685434368,
                0.16532038345811184,
                0.13284393210816092,
                0.679678445162631,
                -1.8594196243265988
            ]
        },
        {
            "positions": [
                1.7823696339851443,
                -1.4147872438228541,
                0.2761612439658814,
                0.07387081102617987,
                0.7014917726433985,
                -1.9416981664458222
            ]
        },
        {
            "positions": [
                1.8637793393475215,
                -1.3790037191022717,
                0.38700210447365135,
                0.014897689944198822,
                0.7233051001241662,
                -2.023976708565045
            ]
        },
        {
            "positions": [
                1.9451890447098983,
                -1.343220194381689,
                0.4978429649814209,
                -0.04407543113778223,
                0.7451184276049339,
                -2.1062552506842684
            ]
        },
        {
            "positions": [
                2.0265987500722753,
                -1.3074366696611066,
                0.6086838254891909,
                -0.10304855221976306,
                0.7669317550857013,
                -2.188533792803492
            ]
        },
        {
            "positions": [
                2.1080084554346525,
                -1.2716531449405242,
                0.7195246859969604,
                -0.1620216733017441,
                0.788745082566469,
                -2.2708123349227147
            ]
        },
        {
            "positions": [
                2.1894181607970298,
                -1.2358696202199415,
                0.8303655465047304,
                -0.22099479438372516,
                0.8105584100472367,
                -2.353090877041938
            ]
        },
        {
            "positions": [
                2.2708278661594066,
                -1.2000860954993593,
                0.9412064070124995,
                -0.279967915465706,
                0.8323717375280042,
                -2.435369419161161
            ]
        },
        {
            "positions": [
                2.352237571521784,
                -1.1643025707787766,
                1.0520472675202694,
                -0.33894103654768704,
                0.8541850650087719,
                -2.517647961280384
            ]
        },
        {
            "positions": [
                2.433647276884161,
                -1.1285190460581942,
                1.162888128028039,
                -0.3979141576296681,
                0.8759983924895396,
                -2.5999265033996073
            ]
        },
        {
            "positions": [
                2.515056982246538,
                -1.0927355213376118,
                1.273728988535809,
                -0.4568872787116489,
                0.8978117199703071,
                -2.6822050455188307
            ]
        },
        {
            "positions": [
                2.596466687608915,
                -1.056951996617029,
                1.3845698490435785,
                -0.5158603997936302,
                0.9196250474510748,
                -2.7644835876380536
            ]
        },
        {
            "positions": [
                2.6778763929712923,
                -1.0211684718964467,
                1.4954107095513485,
                -0.574833520875611,
                0.9414383749318425,
                -2.846762129757277
            ]
        },
        {
            "positions": [
                2.6607126969487727,
                -1.0187706824606146,
                1.6049265609552248,
                -0.6426064777221057,
                0.9783218262924217,
                -2.930533899379644
            ]
        },
        {
            "positions": [
                2.6435490009262534,
                -1.0163728930247828,
                1.714442412359101,
                -0.7103794345686003,
                1.015205277653001,
                -3.014305669002011
            ]
        },
        {
            "positions": [
                2.626385304903734,
                -1.0139751035889508,
                1.8239582637629774,
                -0.7781523914150951,
                1.05208872901358,
                -3.098077438624378
            ]
        }
    ]
}