{
    "goal": {
        "global_pose": {
            "orientation": {
                "w": 0.5084816262002911,
                "x": -0.4908360881923452,
                "y": 0.5182115481033761,
                "z": -0.48164630358495003
            },
            "position": {
                "x": 0.5540239810943604,
                "y": -0.46912469901144505,
                "z": 0.16403168439865112
            }
        },
        "name": "move_to_storage_B"
    },
    "id": "PRM_move_to_storage_B_18",
    "joint_names": [
        "shoulder_pan_joint",
        "shoulder_lift_joint",
        "elbow_joint",
        "wrist_1_joint",
        "wrist_2_joint",
        "wrist_3_joint"
    ],
    "metrics": {
        "cart_traj_len": 0.727130290187903,
        "distance_elbow_joint": 0.34796489841871514,
        "distance_shoulder_lift_joint": 0.4573985657795696,
        "distance_shoulder_pan_joint": 0.33348956036919664,
        "distance_wrist_1_joint": 3.0770943015603573,
        "distance_wrist_2_joint": 2.8035218374113806,
        "distance_wrist_3_joint": 3.1387440746466755,
        "smoothness": 0.20983690673828667,
        "time": 0.178930699,
        "traj_len": 3.187195199259985,
        "weighted_distance": 4.724014979490538
    },
    "planner": "PRM",
    "start": {
        "state": {
            "elbow_joint": 1.664937868594044,
            "shoulder_lift_joint": -0.661644460510453,
            "shoulder_pan_joint": -0.9139846352900073,
            "wrist_1_joint": 2.146753192139373,
            "wrist_2_joint": -2.2341966793290973,
            "wrist_3_joint": 0.005466555786416001
        }
    },
    "waypoints": [
        {
            "positions": [
                -0.9139846352900073,
                -0.661644460510453,
                1.664937868594044,
                2.146753192139373,
                -2.2341966793290973,
                0.005466555786416001
            ]
        },
        {
            "positions": [
                -0.8763732250995722,
                -0.7492001648816623,
                1.7026709671899538,
                2.1707098172216845,
                -2.2602086306539584,
                -0.08658810668462796
            ]
        },
        {
            "positions": [
                -0.838761814909137,
                -0.8367558692528716,
                1.7404040657858635,
                2.1946664423039954,
                -2.2862205819788195,
                -0.17864276915567193
            ]
        },
        {
            "positions": [
                -0.8490924845086701,
                -0.8480473555343576,
                1.7513040138349394,
                2.073499200248166,
                -2.176160664588353,
                -0.2968281591438554
            ]
        },
        {
            "positions": [
                -0.8594231541082031,
                -0.8593388418158436,
                1.762203961884015,
                1.9523319581923366,
                -2.0661007471978867,
                -0.4150135491320389
            ]
        },
        {
            "positions": [
                -0.8697538237077362,
                -0.8706303280973298,
                1.773103909933091,
                1.8311647161365072,
                -1.9560408298074206,
                -0.5331989391202224
            ]
        },
        {
            "positions": [
                -0.8800844933072692,
                -0.8819218143788158,
                1.7840038579821669,
                1.7099974740806778,
                -1.8459809124169542,
                -0.6513843291084059
            ]
        },
        {
            "positions": [
                -0.8904151629068023,
                -0.8932133006603018,
                1.7949038060312426,
                1.5888302320248484,
                -1.7359209950264878,
                -0.7695697190965894
            ]
        },
        {
            "positions": [
                -0.9007458325063353,
                -0.9045047869417878,
                1.8058037540803185,
                1.467662989969019,
                -1.6258610776360216,
                -0.887755109084773
            ]
        },
        {
            "positions": [
                -0.9110765021058684,
                -0.9157962732232738,
                1.8167037021293941,
                1.3464957479131896,
                -1.5158011602455552,
                -1.0059404990729566
            ]
        },
        {
            "positions": [
                -0.9214071717054015,
                -0.92708775950476,
                1.82760365017847,
                1.2253285058573602,
                -1.4057412428550888,
                -1.12412588906114
            ]
        },
        {
            "positions": [
                -0.9317378413049345,
                -0.938379245786246,
                1.838503598227546,
                1.1041612638015308,
                -1.2956813254646224,
                -1.2423112790493236
            ]
        },
        {
            "positions": [
                -0.9420685109044676,
                -0.949670732067732,
                1.8494035462766216,
                0.9829940217457014,
                -1.185621408074156,
                -1.360496669037507
            ]
        },
        {
            "positions": [
                -0.9523991805040006,
                -0.960962218349218,
                1.8603034943256975,
                0.861826779689872,
                -1.07556149068369,
                -1.4786820590256906
            ]
        },
        {
            "positions": [
                -0.9627298501035337,
                -0.972253704630704,
                1.8712034423747734,
                0.7406595376340426,
                -0.9655015732932235,
                -1.5968674490138741
            ]
        },
        {
            "positions": [
                -0.9730605197030667,
                -0.9835451909121902,
                1.882103390423849,
                0.6194922955782132,
                -0.8554416559027571,
                -1.7150528390020576
            ]
        },
        {
            "positions": [
                -0.9833911893025998,
                -0.9948366771936762,
                1.893003338472925,
                0.49832505352238354,
                -0.7453817385122907,
                -1.8332382289902414
            ]
        },
        {
            "positions": [
                -0.9937218589021328,
                -1.0061281634751622,
                1.903903286522001,
                0.37715781146655436,
                -0.6353218211218246,
                -1.9514236189784246
            ]
        },
        {
            "positions": [
                -1.004052528501666,
                -1.0174196497566483,
                1.9148032345710766,
                0.25599056941072496,
                -0.5252619037313582,
                -2.069609008966608
            ]
        },
        {
            "positions": [
                -1.014383198101199,
                -1.0287111360381342,
                1.9257031826201525,
                0.13482332735489555,
                -0.41520198634089156,
                -2.1877943989547917
            ]
        },
        {
            "positions": [
                -1.024713867700732,
                -1.0400026223196204,
                1.9366031306692282,
                0.013656085299066145,
                -0.3051420689504256,
                -2.305979788942975
            ]
        },
        {
            "positions": [
                -1.035044537300265,
                -1.0512941086011063,
                1.947503078718304,
                -0.10751115675676326,
                -0.195082151559959,
                -2.4241651789311587
            ]
        },
        {
            "positions": [
                -1.0453752068997981,
                -1.0625855948825924,
                1.95840302676738,
                -0.22867839881259266,
                -0.08502223416949262,
                -2.542350568919342
            ]
        },
        {
            "positions": [
                -1.0557058764993312,
                -1.0738770811640785,
                1.9693029748164557,
                -0.34984564086842207,
                0.025037683220973328,
                -2.6605359589075257
            ]
        },
        {
            "positions": [
                -1.0660365460988643,
                -1.0851685674455644,
                1.9802029228655316,
                -0.4710128829242515,
                0.13509760061143972,
                -2.778721348895709
            ]
        },
        {
            "positions": [
                -1.0763672156983972,
                -1.0964600537270506,
                1.9911028709146075,
                -0.5921801249800809,
                0.2451575180019061,
                -2.8969067388838927
            ]
        },
        {
            "positions": [
                -1.0866978852979303,
                -1.1077515400085365,
                2.002002818963683,
                -0.7133473670359103,
                0.3552174353923725,
                -3.0150921288720762
            ]
        },
        {
            "positions": [
                -1.0970285548974634,
                -1.1190430262900226,
                2.012902767012759,
                -0.8345146090917397,
                0.46527735278283877,
                -3.1332775188602597
            ]
        }
    ]
}