{
    "goal": {
        "global_pose": {
            "orientation": {
                "w": 0.005598929693374612,
                "x": 0.007748599140229565,
                "y": 0.7110244013736278,
                "z": -0.7031023480610252
            },
            "position": {
                "x": 0.1141497679147869,
                "y": -0.7141253447532654,
                "z": 0.3711530566215515
            }
        },
        "name": "move_to_auspresseinheit_B"
    },
    "id": "PRM_move_to_auspresseinheit_B_119",
    "joint_names": [
        "shoulder_pan_joint",
        "shoulder_lift_joint",
        "elbow_joint",
        "wrist_1_joint",
        "wrist_2_joint",
        "wrist_3_joint"
    ],
    "metrics": {
        "cart_traj_len": 0.5643129745063511,
        "distance_elbow_joint": 0.0587318868048019,
        "distance_shoulder_lift_joint": 0.2951590311220622,
        "distance_shoulder_pan_joint": 0.575644137202018,
        "distance_wrist_1_joint": 0.31565212211682847,
        "distance_wrist_2_joint": 1.0033378997066993,
        "distance_wrist_3_joint": 0.0005793836737963964,
        "smoothness": 5.075305255429287e-16,
        "time": 0.018448345999999997,
        "traj_len": 1.4997014571661276,
        "weighted_distance": 1.8892467413753362
    },
    "planner": "PRM",
    "start": {
        "state": {
            "elbow_joint": 2.0193083361928714,
            "shoulder_lift_joint": -1.1220246554650708,
            "shoulder_pan_joint": -1.0952077554168747,
            "wrist_1_joint": -0.8559753972642168,
            "wrist_2_joint": 0.4759566250798843,
            "wrist_3_joint": -3.1240929996934557
        }
    },
    "waypoints": [
        {
            "positions": [
                -1.0952077554168747,
                -1.1220246554650708,
                2.0193083361928714,
                -0.8559753972642168,
                0.4759566250798843,
                -3.1240929996934557
            ]
        },
        {
            "positions": [
                -1.1911484449505443,
                -1.171217827318748,
                2.009519688392071,
                -0.8033667102447454,
                0.6431796083643342,
                -3.1239964357478227
            ]
        },
        {
            "positions": [
                -1.287089134484214,
                -1.2204109991724248,
                1.9997310405912707,
                -0.750758023225274,
                0.810402591648784,
                -3.12389987180219
            ]
        },
        {
            "positions": [
                -1.3830298240178838,
                -1.269604171026102,
                1.9899423927904705,
                -0.6981493362058026,
                0.9776255749332339,
                -3.1238033078565577
            ]
        },
        {
            "positions": [
                -1.4789705135515532,
                -1.318797342879779,
                1.9801537449896702,
                -0.6455406491863311,
                1.1448485582176837,
                -3.1237067439109247
            ]
        },
        {
            "positions": [
                -1.574911203085223,
                -1.367990514733456,
                1.9703650971888698,
                -0.5929319621668597,
                1.3120715415021338,
                -3.1236101799652918
            ]
        },
        {
            "positions": [
                -1.6708518926188927,
                -1.417183686587133,
                1.9605764493880695,
                -0.5403232751473883,
                1.4792945247865836,
                -3.1235136160196593
            ]
        }
    ]
}