{
    "goal": {
        "global_pose": {
            "orientation": {
                "w": 0.5084816217422485,
                "x": -0.49083608388900757,
                "y": 0.5182115435600281,
                "z": -0.4816462993621826
            },
            "position": {
                "x": 0.5540239810943604,
                "y": 0.030875300988554955,
                "z": 0.16403168439865112
            }
        },
        "name": "move_to_storage_A"
    },
    "id": "PRM_move_to_storage_A_23",
    "joint_names": [
        "shoulder_pan_joint",
        "shoulder_lift_joint",
        "elbow_joint",
        "wrist_1_joint",
        "wrist_2_joint",
        "wrist_3_joint"
    ],
    "metrics": {
        "cart_traj_len": 0.35253286539356676,
        "distance_elbow_joint": 0.44958762683663056,
        "distance_shoulder_lift_joint": 0.23268310581163187,
        "distance_shoulder_pan_joint": 0.4576540380882538,
        "distance_wrist_1_joint": 0.24790147686174635,
        "distance_wrist_2_joint": 1.1109022530787287,
        "distance_wrist_3_joint": 0.10619540280588424,
        "smoothness": 6.661338165333112e-16,
        "time": 0.037875906,
        "traj_len": 1.6139776651127722,
        "weighted_distance": 2.043555342787447
    },
    "planner": "PRM",
    "start": {
        "state": {
            "elbow_joint": 1.971548259319323,
            "shoulder_lift_joint": -1.1394851275133948,
            "shoulder_pan_joint": 0.1228115487234821,
            "wrist_1_joint": -0.7804723859257726,
            "wrist_2_joint": 0.12958671773740124,
            "wrist_3_joint": -3.192489227718131
        }
    },
    "waypoints": [
        {
            "positions": [
                0.1228115487234821,
                -1.1394851275133948,
                1.971548259319323,
                -0.7804723859257726,
                0.12958671773740124,
                -3.192489227718131
            ]
        },
        {
            "positions": [
                0.05743240042516014,
                -1.1727255712007707,
                2.0357750631531273,
                -0.8158868826203078,
                0.28828703960579105,
                -3.1773184558887193
            ]
        },
        {
            "positions": [
                -0.007946747873161825,
                -1.2059660148881468,
                2.100001866986932,
                -0.851301379314843,
                0.44698736147418083,
                -3.162147684059307
            ]
        },
        {
            "positions": [
                -0.0733258961714838,
                -1.2392064585755227,
                2.164228670820736,
                -0.8867158760093782,
                0.6056876833425706,
                -3.146976912229895
            ]
        },
        {
            "positions": [
                -0.13870504446980575,
                -1.2724469022628988,
                2.2284554746545404,
                -0.9221303727039134,
                0.7643880052109605,
                -3.131806140400483
            ]
        },
        {
            "positions": [
                -0.20408419276812773,
                -1.3056873459502747,
                2.292682278488345,
                -0.9575448693984485,
                0.9230883270793504,
                -3.116635368571071
            ]
        },
        {
            "positions": [
                -0.2694633410664497,
                -1.3389277896376508,
                2.356909082322149,
                -0.9929593660929837,
                1.08178864894774,
                -3.1014645967416588
            ]
        },
        {
            "positions": [
                -0.3348424893647717,
                -1.3721682333250267,
                2.4211358861559535,
                -1.028373862787519,
                1.24048897081613,
                -3.086293824912247
            ]
        }
    ]
}{
    "goal": {
        "global_pose": {
            "orientation": {
                "w": 0.5084816217422485,
                "x": -0.49083608388900757,
                "y": 0.5182115435600281,
                "z": -0.4816462993621826
            },
            "position": {
                "x": 0.5540239810943604,
                "y": 0.030875300988554955,
                "z": 0.16403168439865112
            }
        },
        "name": "move_to_storage_A"
    },
    "id": "PRM_move_to_storage_A_23",
    "joint_names": [
        "shoulder_pan_joint",
        "shoulder_lift_joint",
        "elbow_joint",
        "wrist_1_joint",
        "wrist_2_joint",
        "wrist_3_joint"
    ],
    "metrics": {
        "cart_traj_len": 0.35226836022652386,
        "distance_elbow_joint": 0.45346164814952017,
        "distance_shoulder_lift_joint": 0.23296280526529545,
        "distance_shoulder_pan_joint": 0.4595067673955063,
        "distance_wrist_1_joint": 0.2618169915882764,
        "distance_wrist_2_joint": 1.1016366454877964,
        "distance_wrist_3_joint": 0.10089412044979085,
        "smoothness": 1.5543122362334363e-15,
        "time": 0.030464331,
        "traj_len": 1.6156357814607183,
        "weighted_distance": 2.0434091260224516
    },
    "planner": "PRM",
    "start": {
        "state": {
            "elbow_joint": 1.97154746011099,
            "shoulder_lift_joint": -1.13948474672311,
            "shoulder_pan_joint": 0.12281154466712228,
            "wrist_1_joint": -0.7804688027058302,
            "wrist_2_joint": 0.12958655903071145,
            "wrist_3_joint": 3.0906928834467795
        }
    },
    "waypoints": [
        {
            "positions": [
                0.12281154466712228,
                -1.13948474672311,
                1.97154746011099,
                -0.7804688027058302,
                0.12958655903071145,
                3.0906928834467795
            ]
        },
        {
            "positions": [
                0.057167720753478535,
                -1.172765147475295,
                2.0363276955609213,
                -0.8178712300755839,
                0.2869632226718252,
                3.105106329225321
            ]
        },
        {
            "positions": [
                -0.008476103160165213,
                -1.2060455482274801,
                2.1011079310108527,
                -0.8552736574453377,
                0.44433988631293897,
                3.119519775003863
            ]
        },
        {
            "positions": [
                -0.07411992707380897,
                -1.239325948979665,
                2.165888166460784,
                -0.8926760848150915,
                0.6017165499540528,
                3.133933220782404
            ]
        },
        {
            "positions": [
                -0.1397637509874527,
                -1.2726063497318503,
                2.230668401910716,
                -0.9300785121848453,
                0.7590932135951666,
                3.1483466665609456
            ]
        },
        {
            "positions": [
                -0.20540757490109646,
                -1.3058867504840352,
                2.2954486373606473,
                -0.9674809395545991,
                0.9164698772362804,
                3.162760112339487
            ]
        },
        {
            "positions": [
                -0.2710513988147402,
                -1.3391671512362202,
                2.3602288728105787,
                -1.0048833669243529,
                1.073846540877394,
                3.177173558118029
            ]
        },
        {
            "positions": [
                -0.336695222728384,
                -1.3724475519884054,
                2.42500910826051,
                -1.0422857942941066,
                1.2312232045185079,
                3.1915870038965704
            ]
        }
    ]
}{
    "goal": {
        "global_pose": {
            "orientation": {
                "w": 0.5084816217422485,
                "x": -0.49083608388900757,
                "y": 0.5182115435600281,
                "z": -0.4816462993621826
            },
            "position": {
                "x": 0.5540239810943604,
                "y": 0.030875300988554955,
                "z": 0.16403168439865112
            }
        },
        "name": "move_to_storage_A"
    },
    "id": "PRM_move_to_storage_A_23",
    "joint_names": [
        "shoulder_pan_joint",
        "shoulder_lift_joint",
        "elbow_joint",
        "wrist_1_joint",
        "wrist_2_joint",
        "wrist_3_joint"
    ],
    "metrics": {
        "cart_traj_len": 0.353160016154474,
        "distance_elbow_joint": 0.4471237397485037,
        "distance_shoulder_lift_joint": 0.23315672981331015,
        "distance_shoulder_pan_joint": 0.4576595390161576,
        "distance_wrist_1_joint": 0.23796836384514974,
        "distance_wrist_2_joint": 1.11545379636369,
        "distance_wrist_3_joint": 0.10166117963063037,
        "smoothness": 0.0,
        "time": 0.024329025,
        "traj_len": 1.6102867286348233,
        "weighted_distance": 2.0370979033633954
    },
    "planner": "PRM",
    "start": {
        "state": {
            "elbow_joint": 1.9715472970024885,
            "shoulder_lift_joint": -1.1394870060712896,
            "shoulder_pan_joint": 0.12281152778156021,
            "wrist_1_joint": -0.780463741449964,
            "wrist_2_joint": 0.12958659822042276,
            "wrist_3_joint": 3.090690232415272
        }
    },
    "waypoints": [
        {
            "positions": [
                0.12281152778156021,
                -1.1394870060712896,
                1.9715472970024885,
                -0.780463741449964,
                0.12958659822042276,
                3.090690232415272
            ]
        },
        {
            "positions": [
                0.057431593636394856,
                -1.172795110330334,
                2.0354221169665605,
                -0.8144592219992711,
                0.2889371405580927,
                3.1052132580767906
            ]
        },
        {
            "positions": [
                -0.007948340508770496,
                -1.2061032145893782,
                2.0992969369306325,
                -0.8484547025485782,
                0.4482876828957627,
                3.119736283738309
            ]
        },
        {
            "positions": [
                -0.07332827465393585,
                -1.2394113188484226,
                2.1631717568947044,
                -0.8824501830978853,
                0.6076382252334327,
                3.1342593093998277
            ]
        },
        {
            "positions": [
                -0.1387082087991012,
                -1.2727194231074668,
                2.2270465768587764,
                -0.9164456636471924,
                0.7669887675711027,
                3.1487823350613464
            ]
        },
        {
            "positions": [
                -0.2040881429442666,
                -1.3060275273665112,
                2.2909213968228483,
                -0.9504411441964995,
                0.9263393099087727,
                3.163305360722865
            ]
        },
        {
            "positions": [
                -0.2694680770894319,
                -1.3393356316255554,
                2.3547962167869203,
                -0.9844366247458066,
                1.0856898522464427,
                3.1778283863843835
            ]
        },
        {
            "positions": [
                -0.33484801123459734,
                -1.3726437358845998,
                2.4186710367509923,
                -1.0184321052951137,
                1.2450403945841126,
                3.1923514120459022
            ]
        }
    ]
}