{
    "goal": {
        "global_pose": {
            "orientation": {
                "w": 0.5084816262002911,
                "x": -0.4908360881923452,
                "y": 0.5182115481033761,
                "z": -0.48164630358495003
            },
            "position": {
                "x": 0.5540239810943604,
                "y": -0.46912469901144505,
                "z": 0.16403168439865112
            }
        },
        "name": "move_to_storage_B"
    },
    "id": "PRM_move_to_storage_B_117",
    "joint_names": [
        "shoulder_pan_joint",
        "shoulder_lift_joint",
        "elbow_joint",
        "wrist_1_joint",
        "wrist_2_joint",
        "wrist_3_joint"
    ],
    "metrics": {
        "cart_traj_len": 0.678524629433294,
        "distance_elbow_joint": 0.349341056026212,
        "distance_shoulder_lift_joint": 0.45942787511797767,
        "distance_shoulder_pan_joint": 0.25163052668117947,
        "distance_wrist_1_joint": 2.982435866287952,
        "distance_wrist_2_joint": 2.7027629670934834,
        "distance_wrist_3_joint": 3.137777578802722,
        "smoothness": 0.02881800581015186,
        "time": 3.075578187,
        "traj_len": 3.1437836868985642,
        "weighted_distance": 4.673770411669406
    },
    "planner": "PRM",
    "start": {
        "state": {
            "elbow_joint": 1.664937868594044,
            "shoulder_lift_joint": -0.661644460510453,
            "shoulder_pan_joint": -0.9139846352900073,
            "wrist_1_joint": 2.146753192139373,
            "wrist_2_joint": -2.2341966793290973,
            "wrist_3_joint": 0.005466555786416001
        }
    },
    "waypoints": [
        {
            "positions": [
                -0.9139846352900073,
                -0.661644460510453,
                1.664937868594044,
                2.146753192139373,
                -2.2341966793290973,
                0.005466555786416001
            ]
        },
        {
            "positions": [
                -0.8963563173001481,
                -0.7310325049957034,
                1.7139402381016937,
                2.133396651430465,
                -2.1777334733084794,
                -0.1521921039429211
            ]
        },
        {
            "positions": [
                -0.8787279993102889,
                -0.8004205494809536,
                1.7629426076093435,
                2.1200401107215567,
                -2.121270267287862,
                -0.30985076367225817
            ]
        },
        {
            "positions": [
                -0.8877435780895164,
                -0.8137810405704319,
                1.7734149541514648,
                1.9968849946853011,
                -2.0133604108273517,
                -0.42745327447826015
            ]
        },
        {
            "positions": [
                -0.896759156868744,
                -0.8271415316599101,
                1.7838873006935863,
                1.8737298786490455,
                -1.9054505543668414,
                -0.5450557852842621
            ]
        },
        {
            "positions": [
                -0.9057747356479715,
                -0.8405020227493882,
                1.7943596472357075,
                1.7505747626127897,
                -1.797540697906331,
                -0.6626582960902642
            ]
        },
        {
            "positions": [
                -0.914790314427199,
                -0.8538625138388665,
                1.804831993777829,
                1.6274196465765343,
                -1.6896308414458208,
                -0.7802608068962662
            ]
        },
        {
            "positions": [
                -0.9238058932064266,
                -0.8672230049283447,
                1.8153043403199502,
                1.5042645305402784,
                -1.5817209849853102,
                -0.8978633177022682
            ]
        },
        {
            "positions": [
                -0.9328214719856541,
                -0.8805834960178229,
                1.8257766868620715,
                1.3811094145040228,
                -1.4738111285248,
                -1.0154658285082703
            ]
        },
        {
            "positions": [
                -0.9418370507648817,
                -0.8939439871073012,
                1.836249033404193,
                1.2579542984677672,
                -1.3659012720642894,
                -1.1330683393142722
            ]
        },
        {
            "positions": [
                -0.9508526295441092,
                -0.9073044781967793,
                1.8467213799463142,
                1.1347991824315116,
                -1.2579914156037793,
                -1.2506708501202741
            ]
        },
        {
            "positions": [
                -0.9598682083233367,
                -0.9206649692862575,
                1.8571937264884357,
                1.011644066395256,
                -1.1500815591432687,
                -1.3682733609262763
            ]
        },
        {
            "positions": [
                -0.9688837871025644,
                -0.9340254603757357,
                1.867666073030557,
                0.8884889503590001,
                -1.0421717026827584,
                -1.4858758717322784
            ]
        },
        {
            "positions": [
                -0.9778993658817918,
                -0.947385951465214,
                1.8781384195726785,
                0.7653338343227445,
                -0.9342618462222481,
                -1.6034783825382801
            ]
        },
        {
            "positions": [
                -0.9869149446610195,
                -0.9607464425546921,
                1.8886107661147997,
                0.6421787182864889,
                -0.8263519897617377,
                -1.7210808933442823
            ]
        },
        {
            "positions": [
                -0.9959305234402469,
                -0.9741069336441703,
                1.899083112656921,
                0.5190236022502333,
                -0.7184421333012274,
                -1.838683404150284
            ]
        },
        {
            "positions": [
                -1.0049461022194746,
                -0.9874674247336486,
                1.9095554591990425,
                0.3958684862139774,
                -0.6105322768407169,
                -1.9562859149562861
            ]
        },
        {
            "positions": [
                -1.013961680998702,
                -1.0008279158231268,
                1.9200278057411637,
                0.2727133701777218,
                -0.5026224203802068,
                -2.0738884257622883
            ]
        },
        {
            "positions": [
                -1.0229772597779296,
                -1.014188406912605,
                1.9305001522832852,
                0.1495582541414664,
                -0.39471256391969645,
                -2.19149093656829
            ]
        },
        {
            "positions": [
                -1.031992838557157,
                -1.0275488980020833,
                1.9409724988254065,
                0.026403138105210555,
                -0.2868027074591859,
                -2.309093447374292
            ]
        },
        {
            "positions": [
                -1.0410084173363847,
                -1.0409093890915615,
                1.951444845367528,
                -0.09675197793104484,
                -0.17889285099867558,
                -2.4266959581802943
            ]
        },
        {
            "positions": [
                -1.0500239961156121,
                -1.0542698801810397,
                1.9619171919096492,
                -0.21990709396730068,
                -0.07098299453816548,
                -2.544298468986296
            ]
        },
        {
            "positions": [
                -1.0590395748948398,
                -1.0676303712705177,
                1.9723895384517705,
                -0.3430622100035565,
                0.03692686192234529,
                -2.6619009797922986
            ]
        },
        {
            "positions": [
                -1.0680551536740674,
                -1.080990862359996,
                1.982861884993892,
                -0.4662173260398119,
                0.1448367183828556,
                -2.7795034905983003
            ]
        },
        {
            "positions": [
                -1.0770707324532949,
                -1.0943513534494742,
                1.9933342315360132,
                -0.5893724420760678,
                0.25274657484336593,
                -2.897106001404302
            ]
        },
        {
            "positions": [
                -1.0860863112325223,
                -1.1077118445389524,
                2.0038065780781347,
                -0.7125275581123236,
                0.36065643130387626,
                -3.0147085122103046
            ]
        },
        {
            "positions": [
                -1.09510189001175,
                -1.1210723356284307,
                2.014278924620256,
                -0.835682674148579,
                0.46856628776438664,
                -3.1323110230163063
            ]
        }
    ]
}