{
    "goal": {
        "global_pose": {
            "orientation": {
                "w": 0.5084816262002911,
                "x": -0.4908360881923452,
                "y": 0.5182115481033761,
                "z": -0.48164630358495003
            },
            "position": {
                "x": 0.5540239810943604,
                "y": -0.46912469901144505,
                "z": 0.16403168439865112
            }
        },
        "name": "move_to_storage_B"
    },
    "id": "PRM_move_to_storage_B_81",
    "joint_names": [
        "shoulder_pan_joint",
        "shoulder_lift_joint",
        "elbow_joint",
        "wrist_1_joint",
        "wrist_2_joint",
        "wrist_3_joint"
    ],
    "metrics": {
        "cart_traj_len": 0.9715766932502174,
        "distance_elbow_joint": 0.9052286101153815,
        "distance_shoulder_lift_joint": 0.46277608073224075,
        "distance_shoulder_pan_joint": 0.18182889769825172,
        "distance_wrist_1_joint": 2.9812653320626357,
        "distance_wrist_2_joint": 2.710842018204809,
        "distance_wrist_3_joint": 3.1302427464050924,
        "smoothness": 0.07720475674926913,
        "time": 0.34180977399999996,
        "traj_len": 3.2205874751694616,
        "weighted_distance": 4.724910213781426
    },
    "planner": "PRM",
    "start": {
        "state": {
            "elbow_joint": 1.664937868594044,
            "shoulder_lift_joint": -0.661644460510453,
            "shoulder_pan_joint": -0.9139846352900073,
            "wrist_1_joint": 2.146753192139373,
            "wrist_2_joint": -2.2341966793290973,
            "wrist_3_joint": 0.005466555786416001
        }
    },
    "waypoints": [
        {
            "positions": [
                -0.9139846352900073,
                -0.661644460510453,
                1.664937868594044,
                2.146753192139373,
                -2.2341966793290973,
                0.005466555786416001
            ]
        },
        {
            "positions": [
                -0.9154689574085193,
                -0.6887276265293091,
                1.7018222315075808,
                2.0516492023585373,
                -2.1257330365385014,
                0.11233396294622001
            ]
        },
        {
            "positions": [
                -0.9169532795270312,
                -0.7158107925481652,
                1.7387065944211177,
                1.9565452125777019,
                -2.017269393747906,
                0.21920137010602403
            ]
        },
        {
            "positions": [
                -0.9184376016455432,
                -0.7428939585670213,
                1.7755909573346544,
                1.8614412227968662,
                -1.9088057509573102,
                0.3260687772658281
            ]
        },
        {
            "positions": [
                -0.9199219237640551,
                -0.7699771245858774,
                1.8124753202481914,
                1.7663372330160305,
                -1.8003421081667144,
                0.4329361844256321
            ]
        },
        {
            "positions": [
                -0.9214062458825671,
                -0.7970602906047335,
                1.8493596831617283,
                1.6712332432351948,
                -1.6918784653761187,
                0.5398035915854361
            ]
        },
        {
            "positions": [
                -0.9228905680010792,
                -0.8241434566235896,
                1.8862440460752652,
                1.5761292534543592,
                -1.5834148225855231,
                0.6466709987452401
            ]
        },
        {
            "positions": [
                -0.9243748901195911,
                -0.8512266226424456,
                1.923128408988802,
                1.4810252636735235,
                -1.4749511797949273,
                0.7535384059050441
            ]
        },
        {
            "positions": [
                -0.9258592122381031,
                -0.8783097886613018,
                1.9600127719023388,
                1.3859212738926878,
                -1.3664875370043317,
                0.8604058130648481
            ]
        },
        {
            "positions": [
                -0.927343534356615,
                -0.9053929546801578,
                1.996897134815876,
                1.2908172841118521,
                -1.258023894213736,
                0.9672732202246522
            ]
        },
        {
            "positions": [
                -0.928827856475127,
                -0.932476120699014,
                2.0337814977294126,
                1.1957132943310165,
                -1.1495602514231402,
                1.0741406273844563
            ]
        },
        {
            "positions": [
                -0.9303121785936389,
                -0.95955928671787,
                2.0706658606429498,
                1.1006093045501808,
                -1.0410966086325446,
                1.1810080345442602
            ]
        },
        {
            "positions": [
                -0.9317965007121509,
                -0.9866424527367261,
                2.1075502235564865,
                1.0055053147693451,
                -0.9326329658419488,
                1.2878754417040643
            ]
        },
        {
            "positions": [
                -0.9332808228306629,
                -1.0137256187555823,
                2.144434586470023,
                0.9104013249885095,
                -0.8241693230513534,
                1.3947428488638682
            ]
        },
        {
            "positions": [
                -0.9347651449491748,
                -1.0408087847744383,
                2.1813189493835603,
                0.8152973352076738,
                -0.7157056802607575,
                1.5016102560236722
            ]
        },
        {
            "positions": [
                -0.9362494670676869,
                -1.0678919507932945,
                2.218203312297097,
                0.7201933454268381,
                -0.6072420374701619,
                1.6084776631834763
            ]
        },
        {
            "positions": [
                -0.9377337891861988,
                -1.0949751168121504,
                2.2550876752106337,
                0.6250893556460024,
                -0.4987783946795661,
                1.7153450703432802
            ]
        },
        {
            "positions": [
                -0.9392181113047108,
                -1.1220582828310066,
                2.291972038124171,
                0.5299853658651668,
                -0.39031475188897047,
                1.8222124775030843
            ]
        },
        {
            "positions": [
                -0.9534540587304879,
                -1.1218435320663078,
                2.2666816344346024,
                0.4059401380662187,
                -0.3115001981830902,
                1.9416212797474866
            ]
        },
        {
            "positions": [
                -0.967690006156265,
                -1.121628781301609,
                2.2413912307450334,
                0.28189491026727065,
                -0.23268564447720994,
                2.0610300819918885
            ]
        },
        {
            "positions": [
                -0.9819259535820422,
                -1.12141403053691,
                2.216100827055465,
                0.1578496824683226,
                -0.1538710907713297,
                2.180438884236291
            ]
        },
        {
            "positions": [
                -0.9961619010078192,
                -1.1211992797722112,
                2.1908104233658965,
                0.033804454669374484,
                -0.0750565370654494,
                2.2998476864806934
            ]
        },
        {
            "positions": [
                -1.0103978484335963,
                -1.1209845290075124,
                2.165520019676328,
                -0.09024077312957357,
                0.0037580166404307946,
                2.4192564887250954
            ]
        },
        {
            "positions": [
                -1.0246337958593734,
                -1.1207697782428137,
                2.140229615986759,
                -0.21428600092852157,
                0.08257257034631105,
                2.5386652909694973
            ]
        },
        {
            "positions": [
                -1.0388697432851506,
                -1.1205550274781149,
                2.1149392122971906,
                -0.3383312287274697,
                0.16138712405219136,
                2.6580740932138998
            ]
        },
        {
            "positions": [
                -1.0531056907109277,
                -1.120340276713416,
                2.089648808607622,
                -0.4623764565264178,
                0.24020167775807166,
                2.777482895458302
            ]
        },
        {
            "positions": [
                -1.0673416381367047,
                -1.120125525948717,
                2.0643584049180532,
                -0.586421684325366,
                0.31901623146395186,
                2.896891697702704
            ]
        },
        {
            "positions": [
                -1.0815775855624818,
                -1.1199107751840183,
                2.0390680012284847,
                -0.7104669121243139,
                0.39783078516983206,
                3.016300499947106
            ]
        },
        {
            "positions": [
                -1.095813532988259,
                -1.1196960244193195,
                2.0137775975389163,
                -0.834512139923262,
                0.4766453388757123,
                3.1357093021915086
            ]
        }
    ]
}