{
    "goal": {
        "global_pose": {
            "orientation": {
                "w": 0.5084816262002911,
                "x": -0.4908360881923452,
                "y": 0.5182115481033761,
                "z": -0.48164630358495003
            },
            "position": {
                "x": 0.5540239810943604,
                "y": -0.46912469901144505,
                "z": 0.16403168439865112
            }
        },
        "name": "move_to_storage_B"
    },
    "id": "PRM_move_to_storage_B_48",
    "joint_names": [
        "shoulder_pan_joint",
        "shoulder_lift_joint",
        "elbow_joint",
        "wrist_1_joint",
        "wrist_2_joint",
        "wrist_3_joint"
    ],
    "metrics": {
        "cart_traj_len": 0.8761371001170983,
        "distance_elbow_joint": 1.0145508302265691,
        "distance_shoulder_lift_joint": 0.46074248707297594,
        "distance_shoulder_pan_joint": 0.47674364250412926,
        "distance_wrist_1_joint": 3.0119445587361073,
        "distance_wrist_2_joint": 2.7041724134676195,
        "distance_wrist_3_joint": 3.114529001935788,
        "smoothness": 0.07323408292242756,
        "time": 0.206528056,
        "traj_len": 3.283699580342756,
        "weighted_distance": 4.767374320317054
    },
    "planner": "PRM",
    "start": {
        "state": {
            "elbow_joint": 1.664937868594044,
            "shoulder_lift_joint": -0.661644460510453,
            "shoulder_pan_joint": -0.9139846352900073,
            "wrist_1_joint": 2.146753192139373,
            "wrist_2_joint": -2.2341966793290973,
            "wrist_3_joint": 0.005466555786416001
        }
    },
    "waypoints": [
        {
            "positions": [
                -0.9139846352900073,
                -0.661644460510453,
                1.664937868594044,
                2.146753192139373,
                -2.2341966793290973,
                0.005466555786416001
            ]
        },
        {
            "positions": [
                -0.9504999688531945,
                -0.7105829306347837,
                1.7410101348581162,
                2.0534278388347302,
                -2.117929120044194,
                -0.001893067625407109
            ]
        },
        {
            "positions": [
                -0.9870153024163819,
                -0.7595214007591145,
                1.8170824011221884,
                1.9601024855300875,
                -2.0016615607592905,
                -0.00925269103723022
            ]
        },
        {
            "positions": [
                -1.0235306359795693,
                -0.8084598708834451,
                1.8931546673862607,
                1.8667771322254445,
                -1.885394001474387,
                -0.01661231444905333
            ]
        },
        {
            "positions": [
                -1.0600459695427564,
                -0.8573983410077758,
                1.969226933650333,
                1.7734517789208017,
                -1.7691264421894837,
                -0.02397193786087644
            ]
        },
        {
            "positions": [
                -1.0965613031059438,
                -0.9063368111321065,
                2.045299199914405,
                1.6801264256161588,
                -1.6528588829045803,
                -0.03133156127269955
            ]
        },
        {
            "positions": [
                -1.1330766366691312,
                -0.9552752812564371,
                2.1213714661784775,
                1.5868010723115158,
                -1.5365913236196769,
                -0.03869118468452266
            ]
        },
        {
            "positions": [
                -1.1695919702323185,
                -1.0042137513807678,
                2.1974437324425495,
                1.4934757190068728,
                -1.4203237643347733,
                -0.04605080809634577
            ]
        },
        {
            "positions": [
                -1.2061073037955057,
                -1.0531522215050986,
                2.273515998706622,
                1.40015036570223,
                -1.30405620504987,
                -0.053410431508168876
            ]
        },
        {
            "positions": [
                -1.242622637358693,
                -1.1020906916294293,
                2.349588264970694,
                1.306825012397587,
                -1.1877886457649665,
                -0.06077005491999199
            ]
        },
        {
            "positions": [
                -1.2348276036515644,
                -1.1031589156270083,
                2.332225084241751,
                1.19250836087157,
                -1.1005378889279407,
                -0.22120649656364355
            ]
        },
        {
            "positions": [
                -1.2270325699444358,
                -1.104227139624587,
                2.3148619035128077,
                1.0781917093455533,
                -1.013287132090915,
                -0.3816429382072951
            ]
        },
        {
            "positions": [
                -1.2192375362373071,
                -1.105295363622166,
                2.297498722783865,
                0.9638750578195363,
                -0.9260363752538893,
                -0.5420793798509467
            ]
        },
        {
            "positions": [
                -1.2114425025301787,
                -1.106363587619745,
                2.280135542054922,
                0.8495584062935193,
                -0.8387856184168636,
                -0.7025158214945982
            ]
        },
        {
            "positions": [
                -1.20364746882305,
                -1.1074318116173238,
                2.2627723613259785,
                0.7352417547675024,
                -0.7515348615798378,
                -0.8629522631382498
            ]
        },
        {
            "positions": [
                -1.1958524351159214,
                -1.1085000356149028,
                2.2454091805970355,
                0.6209251032414855,
                -0.6642841047428121,
                -1.0233887047819015
            ]
        },
        {
            "positions": [
                -1.1880574014087928,
                -1.1095682596124818,
                2.228045999868092,
                0.5066084517154685,
                -0.5770333479057864,
                -1.1838251464255531
            ]
        },
        {
            "positions": [
                -1.1802623677016642,
                -1.1106364836100606,
                2.210682819139149,
                0.39229180018945164,
                -0.48978259106876065,
                -1.3442615880692044
            ]
        },
        {
            "positions": [
                -1.1724673339945355,
                -1.1117047076076396,
                2.1933196384102063,
                0.27797514866343476,
                -0.4025318342317349,
                -1.504698029712856
            ]
        },
        {
            "positions": [
                -1.164672300287407,
                -1.1127729316052186,
                2.175956457681263,
                0.16365849713741776,
                -0.31528107739470923,
                -1.6651344713565077
            ]
        },
        {
            "positions": [
                -1.1568772665802785,
                -1.1138411556027976,
                2.15859327695232,
                0.04934184561140076,
                -0.22803032055768335,
                -1.8255709130001594
            ]
        },
        {
            "positions": [
                -1.1490822328731498,
                -1.1149093796003764,
                2.141230096223377,
                -0.06497480591461602,
                -0.1407795637206577,
                -1.9860073546438106
            ]
        },
        {
            "positions": [
                -1.1412871991660212,
                -1.1159776035979554,
                2.1238669154944336,
                -0.17929145744063324,
                -0.05352880688363193,
                -2.1464437962874623
            ]
        },
        {
            "positions": [
                -1.1334921654588925,
                -1.1170458275955344,
                2.1065037347654907,
                -0.29360810896665,
                0.033721949953393615,
                -2.306880237931114
            ]
        },
        {
            "positions": [
                -1.125697131751764,
                -1.1181140515931132,
                2.0891405540365477,
                -0.407924760492667,
                0.1209727067904196,
                -2.4673166795747656
            ]
        },
        {
            "positions": [
                -1.1179020980446355,
                -1.1191822755906922,
                2.0717773733076044,
                -0.5222414120186838,
                0.20822346362744515,
                -2.627753121218417
            ]
        },
        {
            "positions": [
                -1.1101070643375068,
                -1.1202504995882712,
                2.0544141925786614,
                -0.636558063544701,
                0.2954742204644709,
                -2.7881895628620685
            ]
        },
        {
            "positions": [
                -1.1023120306303782,
                -1.12131872358585,
                2.037051011849718,
                -0.7508747150707176,
                0.3827249773014967,
                -2.94862600450572
            ]
        },
        {
            "positions": [
                -1.0945169969232496,
                -1.122386947583429,
                2.019687831120775,
                -0.8651913665967349,
                0.46997573413852234,
                -3.109062446149372
            ]
        }
    ]
}