{
    "goal": {
        "global_pose": {
            "orientation": {
                "w": 0.5084816262002911,
                "x": -0.4908360881923452,
                "y": 0.5182115481033761,
                "z": -0.48164630358495003
            },
            "position": {
                "x": 0.5540239810943604,
                "y": -0.46912469901144505,
                "z": 0.16403168439865112
            }
        },
        "name": "move_to_storage_B"
    },
    "id": "PRM_move_to_storage_B_95",
    "joint_names": [
        "shoulder_pan_joint",
        "shoulder_lift_joint",
        "elbow_joint",
        "wrist_1_joint",
        "wrist_2_joint",
        "wrist_3_joint"
    ],
    "metrics": {
        "cart_traj_len": 1.997568015281488,
        "distance_elbow_joint": 1.3136317171160794,
        "distance_shoulder_lift_joint": 0.4583913603379699,
        "distance_shoulder_pan_joint": 1.8998494332404527,
        "distance_wrist_1_joint": 3.5402905311511534,
        "distance_wrist_2_joint": 2.703380036687123,
        "distance_wrist_3_joint": 3.144607628741246,
        "smoothness": 0.2769457261955473,
        "time": 0.211341391,
        "traj_len": 3.61388305113406,
        "weighted_distance": 5.058956071423707
    },
    "planner": "PRM",
    "start": {
        "state": {
            "elbow_joint": 1.664937868594044,
            "shoulder_lift_joint": -0.661644460510453,
            "shoulder_pan_joint": -0.9139846352900073,
            "wrist_1_joint": 2.146753192139373,
            "wrist_2_joint": -2.2341966793290973,
            "wrist_3_joint": 0.005466555786416001
        }
    },
    "waypoints": [
        {
            "positions": [
                -0.9139846352900073,
                -0.661644460510453,
                1.664937868594044,
                2.146753192139373,
                -2.2341966793290973,
                0.005466555786416001
            ]
        },
        {
            "positions": [
                -0.8066125907819689,
                -0.7004569219974063,
                1.6045941424438512,
                2.1817759486487,
                -2.150815495383925,
                0.03274508055395084
            ]
        },
        {
            "positions": [
                -0.6992405462739304,
                -0.7392693834843596,
                1.5442504162936588,
                2.2167987051580273,
                -2.0674343114387534,
                0.06002360532148567
            ]
        },
        {
            "positions": [
                -0.591868501765892,
                -0.7780818449713128,
                1.483906690143466,
                2.2518214616673546,
                -1.9840531274935813,
                0.0873021300890205
            ]
        },
        {
            "positions": [
                -0.48449645725785356,
                -0.8168943064582661,
                1.4235629639932736,
                2.2868442181766815,
                -1.9006719435484096,
                0.11458065485655534
            ]
        },
        {
            "positions": [
                -0.3771244127498151,
                -0.8557067679452194,
                1.363219237843081,
                2.3218669746860083,
                -1.8172907596032375,
                0.14185917962409017
            ]
        },
        {
            "positions": [
                -0.26975236824177673,
                -0.8945192294321727,
                1.3028755116928883,
                2.3568897311953356,
                -1.7339095756580656,
                0.169137704391625
            ]
        },
        {
            "positions": [
                -0.16238032373373823,
                -0.9333316909191259,
                1.2425317855426958,
                2.391912487704663,
                -1.6505283917128937,
                0.19641622915915985
            ]
        },
        {
            "positions": [
                -0.05500827922569984,
                -0.9721441524060792,
                1.1821880593925032,
                2.4269352442139898,
                -1.5671472077677218,
                0.2236947539266947
            ]
        },
        {
            "positions": [
                -0.09504185911708998,
                -0.9778322935000155,
                1.2141450558507547,
                2.3015464565571997,
                -1.4888268014167314,
                0.3362478089498088
            ]
        },
        {
            "positions": [
                -0.13507543900848012,
                -0.9835204345939518,
                1.246102052309006,
                2.17615766890041,
                -1.4105063950657413,
                0.44880086397292296
            ]
        },
        {
            "positions": [
                -0.17510901889987027,
                -0.9892085756878881,
                1.2780590487672576,
                2.05076888124362,
                -1.332185988714751,
                0.561353918996037
            ]
        },
        {
            "positions": [
                -0.2151425987912604,
                -0.9948967167818243,
                1.3100160452255092,
                1.9253800935868304,
                -1.2538655823637606,
                0.6739069740191512
            ]
        },
        {
            "positions": [
                -0.2551761786826505,
                -1.0005848578757608,
                1.3419730416837605,
                1.7999913059300403,
                -1.1755451760127704,
                0.7864600290422653
            ]
        },
        {
            "positions": [
                -0.2952097585740407,
                -1.006272998969697,
                1.373930038142012,
                1.6746025182732507,
                -1.09722476966178,
                0.8990130840653795
            ]
        },
        {
            "positions": [
                -0.3352433384654308,
                -1.0119611400636332,
                1.4058870346002634,
                1.5492137306164606,
                -1.01890436331079,
                1.0115661390884934
            ]
        },
        {
            "positions": [
                -0.375276918356821,
                -1.0176492811575695,
                1.437844031058515,
                1.4238249429596708,
                -0.9405839569597996,
                1.1241191941116078
            ]
        },
        {
            "positions": [
                -0.4153104982482111,
                -1.023337422251506,
                1.4698010275167666,
                1.298436155302881,
                -0.8622635506088093,
                1.2366722491347217
            ]
        },
        {
            "positions": [
                -0.45534407813960126,
                -1.0290255633454422,
                1.5017580239750181,
                1.173047367646091,
                -0.783943144257819,
                1.349225304157836
            ]
        },
        {
            "positions": [
                -0.4953776580309914,
                -1.0347137044393784,
                1.5337150204332695,
                1.0476585799893012,
                -0.7056227379068288,
                1.4617783591809501
            ]
        },
        {
            "positions": [
                -0.5354112379223815,
                -1.0404018455333148,
                1.565672016891521,
                0.9222697923325114,
                -0.6273023315558385,
                1.5743314142040643
            ]
        },
        {
            "positions": [
                -0.5754448178137717,
                -1.046089986627251,
                1.5976290133497724,
                0.7968810046757215,
                -0.5489819252048482,
                1.6868844692271783
            ]
        },
        {
            "positions": [
                -0.6154783977051618,
                -1.0517781277211873,
                1.629586009808024,
                0.6714922170189317,
                -0.4706615188538581,
                1.7994375242502922
            ]
        },
        {
            "positions": [
                -0.6555119775965519,
                -1.0574662688151237,
                1.6615430062662755,
                0.5461034293621421,
                -0.39234111250286774,
                1.9119905792734064
            ]
        },
        {
            "positions": [
                -0.6955455574879421,
                -1.06315440990906,
                1.693500002724527,
                0.4207146417053518,
                -0.3140207061518774,
                2.0245436342965206
            ]
        },
        {
            "positions": [
                -0.7355791373793322,
                -1.0688425510029962,
                1.7254569991827784,
                0.29532585404856215,
                -0.23570029980088703,
                2.137096689319635
            ]
        },
        {
            "positions": [
                -0.7756127172707223,
                -1.0745306920969324,
                1.7574139956410297,
                0.16993706639177208,
                -0.1573798934498969,
                2.249649744342749
            ]
        },
        {
            "positions": [
                -0.8156462971621125,
                -1.0802188331908689,
                1.7893709920992813,
                0.04454827873498246,
                -0.07905948709890676,
                2.362202799365863
            ]
        },
        {
            "positions": [
                -0.8556798770535027,
                -1.085906974284805,
                1.8213279885575329,
                -0.08084050892180761,
                -0.0007390807479161765,
                2.4747558543889774
            ]
        },
        {
            "positions": [
                -0.8957134569448928,
                -1.0915951153787415,
                1.8532849850157844,
                -0.20622929657859723,
                0.07758132560307396,
                2.5873089094120916
            ]
        },
        {
            "positions": [
                -0.9357470368362829,
                -1.0972832564726778,
                1.885241981474036,
                -0.3316180842353873,
                0.1559017319540641,
                2.6998619644352058
            ]
        },
        {
            "positions": [
                -0.975780616727673,
                -1.102971397566614,
                1.9171989779322873,
                -0.4570068718921769,
                0.23422213830505445,
                2.812415019458319
            ]
        },
        {
            "positions": [
                -1.0158141966190632,
                -1.1086595386605502,
                1.949155974390539,
                -0.582395659548967,
                0.3125425446560448,
                2.924968074481434
            ]
        },
        {
            "positions": [
                -1.0558477765104535,
                -1.1143476797544867,
                1.9811129708487902,
                -0.7077844472057571,
                0.39086295100703516,
                3.0375211295045474
            ]
        },
        {
            "positions": [
                -1.0958813564018435,
                -1.120035820848423,
                2.013069967307042,
                -0.8331732348625468,
                0.46918335735802535,
                3.150074184527662
            ]
        }
    ]
}