{
    "goal": {
        "global_pose": {
            "orientation": {
                "w": 0.5084816262002911,
                "x": -0.4908360881923452,
                "y": 0.5182115481033761,
                "z": -0.48164630358495003
            },
            "position": {
                "x": 0.5540239810943604,
                "y": -0.46912469901144505,
                "z": 0.16403168439865112
            }
        },
        "name": "move_to_storage_B"
    },
    "id": "PRM_move_to_storage_B_67",
    "joint_names": [
        "shoulder_pan_joint",
        "shoulder_lift_joint",
        "elbow_joint",
        "wrist_1_joint",
        "wrist_2_joint",
        "wrist_3_joint"
    ],
    "metrics": {
        "cart_traj_len": 1.0258818715714568,
        "distance_elbow_joint": 1.0058552301117407,
        "distance_shoulder_lift_joint": 0.4605507715675352,
        "distance_shoulder_pan_joint": 0.4552167764555731,
        "distance_wrist_1_joint": 2.9938907589173054,
        "distance_wrist_2_joint": 3.346945952251531,
        "distance_wrist_3_joint": 3.171841437176906,
        "smoothness": 0.18818182945784906,
        "time": 0.702792252,
        "traj_len": 3.3814643169018637,
        "weighted_distance": 4.911091580494425
    },
    "planner": "PRM",
    "start": {
        "state": {
            "elbow_joint": 1.664937868594044,
            "shoulder_lift_joint": -0.661644460510453,
            "shoulder_pan_joint": -0.9139846352900073,
            "wrist_1_joint": 2.146753192139373,
            "wrist_2_joint": -2.2341966793290973,
            "wrist_3_joint": 0.005466555786416001
        }
    },
    "waypoints": [
        {
            "positions": [
                -0.9139846352900073,
                -0.661644460510453,
                1.664937868594044,
                2.146753192139373,
                -2.2341966793290973,
                0.005466555786416001
            ]
        },
        {
            "positions": [
                -0.8072223198728781,
                -0.6797667153004672,
                1.617265622445166,
                2.136093065350301,
                -2.1459768399337182,
                -0.010642962285739983
            ]
        },
        {
            "positions": [
                -0.8056653510059092,
                -0.7017397086657007,
                1.603350752518777,
                2.0369067765318576,
                -1.998670072141628,
                0.08536342530752333
            ]
        },
        {
            "positions": [
                -0.8041083821389403,
                -0.7237127020309343,
                1.589435882592388,
                1.9377204877134142,
                -1.8513633043495374,
                0.18136981290078663
            ]
        },
        {
            "positions": [
                -0.8025514132719713,
                -0.7456856953961679,
                1.5755210126659989,
                1.8385341988949708,
                -1.7040565365574472,
                0.27737620049404993
            ]
        },
        {
            "positions": [
                -0.8009944444050024,
                -0.7676586887614014,
                1.5616061427396097,
                1.7393479100765274,
                -1.5567497687653566,
                0.3733825880873133
            ]
        },
        {
            "positions": [
                -0.7994374755380336,
                -0.7896316821266349,
                1.5476912728132206,
                1.6401616212580843,
                -1.4094430009732664,
                0.4693889756805766
            ]
        },
        {
            "positions": [
                -0.7978805066710646,
                -0.8116046754918685,
                1.5337764028868315,
                1.540975332439641,
                -1.262136233181176,
                0.5653953632738398
            ]
        },
        {
            "positions": [
                -0.7963235378040957,
                -0.8335776688571022,
                1.5198615329604426,
                1.4417890436211975,
                -1.1148294653890856,
                0.6614017508671031
            ]
        },
        {
            "positions": [
                -0.7947665689371268,
                -0.8555506622223357,
                1.5059466630340534,
                1.3426027548027542,
                -0.9675226975969953,
                0.7574081384603665
            ]
        },
        {
            "positions": [
                -0.793209600070158,
                -0.8775236555875692,
                1.4920317931076643,
                1.243416465984311,
                -0.8202159298049048,
                0.8534145260536298
            ]
        },
        {
            "positions": [
                -0.7916526312031891,
                -0.8994966489528028,
                1.4781169231812754,
                1.1442301771658676,
                -0.6729091620128145,
                0.9494209136468931
            ]
        },
        {
            "positions": [
                -0.7900956623362201,
                -0.9214696423180364,
                1.4642020532548863,
                1.045043888347424,
                -0.525602394220724,
                1.0454273012401565
            ]
        },
        {
            "positions": [
                -0.7885386934692512,
                -0.9434426356832699,
                1.4502871833284972,
                0.9458575995289809,
                -0.3782956264286337,
                1.1414336888334196
            ]
        },
        {
            "positions": [
                -0.7869817246022823,
                -0.9654156290485034,
                1.436372313402108,
                0.8466713107105375,
                -0.2309888586365434,
                1.237440076426683
            ]
        },
        {
            "positions": [
                -0.7854247557353133,
                -0.987388622413737,
                1.422457443475719,
                0.7474850218920941,
                -0.08368209084445288,
                1.3334464640199462
            ]
        },
        {
            "positions": [
                -0.7838677868683445,
                -1.0093616157789707,
                1.40854257354933,
                0.6482987330736507,
                0.0636246769476374,
                1.4294528516132097
            ]
        },
        {
            "positions": [
                -0.7823108180013756,
                -1.0313346091442042,
                1.3946277036229409,
                0.5491124442552073,
                0.2109314447397277,
                1.525459239206473
            ]
        },
        {
            "positions": [
                -0.7807538491344067,
                -1.0533076025094377,
                1.3807128336965517,
                0.4499261554367642,
                0.358238212531818,
                1.6214656267997363
            ]
        },
        {
            "positions": [
                -0.7791968802674378,
                -1.0752805958746712,
                1.3667979637701628,
                0.3507398666183208,
                0.5055449803239087,
                1.7174720143929996
            ]
        },
        {
            "positions": [
                -0.7776399114004688,
                -1.097253589239905,
                1.3528830938437737,
                0.2515535777998774,
                0.652851748115999,
                1.8134784019862629
            ]
        },
        {
            "positions": [
                -0.7760829425335,
                -1.1192265826051384,
                1.3389682239173846,
                0.15236728898143398,
                0.8001585159080893,
                1.9094847895795262
            ]
        },
        {
            "positions": [
                -0.8113401740556184,
                -1.1195564325465661,
                1.4145110667435048,
                0.04131119389705999,
                0.7654262095731622,
                2.0467741414950242
            ]
        },
        {
            "positions": [
                -0.8465974055777368,
                -1.1198862824879938,
                1.4900539095696248,
                -0.069744901187314,
                0.7306939032382352,
                2.1840634934105223
            ]
        },
        {
            "positions": [
                -0.8818546370998552,
                -1.1202161324294218,
                1.565596752395745,
                -0.180800996271688,
                0.6959615969033082,
                2.321352845326021
            ]
        },
        {
            "positions": [
                -0.9171118686219737,
                -1.1205459823708495,
                1.641139595221865,
                -0.29185709135606197,
                0.6612292905683811,
                2.458642197241519
            ]
        },
        {
            "positions": [
                -0.9523691001440922,
                -1.1208758323122772,
                1.7166824380479855,
                -0.402913186440436,
                0.626496984233454,
                2.595931549157017
            ]
        },
        {
            "positions": [
                -0.9876263316662105,
                -1.1212056822537049,
                1.7922252808741055,
                -0.51396928152481,
                0.591764677898527,
                2.733220901072515
            ]
        },
        {
            "positions": [
                -1.0228835631883288,
                -1.1215355321951328,
                1.8677681237002255,
                -0.625025376609184,
                0.5570323715636,
                2.870510252988013
            ]
        },
        {
            "positions": [
                -1.0581407947104473,
                -1.1218653821365605,
                1.9433109665263457,
                -0.736081471693558,
                0.5223000652286729,
                3.0077996049035116
            ]
        },
        {
            "positions": [
                -1.0933980262325658,
                -1.1221952320779882,
                2.018853809352466,
                -0.847137566777932,
                0.4875677588937459,
                3.1450889568190097
            ]
        }
    ]
}