{
    "goal": {
        "global_pose": {
            "orientation": {
                "w": 0.7047431493862688,
                "x": -0.7094548369677653,
                "y": 0.0024358444001904,
                "z": -0.0022348060817251984
            },
            "position": {
                "x": -0.39052492380142206,
                "y": 0.3671506643295288,
                "z": 0.19426114857196808
            }
        },
        "name": "move_to_magneteinheit_D"
    },
    "id": "PRM_move_to_magneteinheit_D_52",
    "joint_names": [
        "shoulder_pan_joint",
        "shoulder_lift_joint",
        "elbow_joint",
        "wrist_1_joint",
        "wrist_2_joint",
        "wrist_3_joint"
    ],
    "metrics": {
        "cart_traj_len": 4.345813529180726,
        "distance_elbow_joint": 4.213313252556631,
        "distance_shoulder_lift_joint": 1.1836065436844463,
        "distance_shoulder_pan_joint": 4.118490069017486,
        "distance_wrist_1_joint": 2.817275508094596,
        "distance_wrist_2_joint": 1.753320929177836,
        "distance_wrist_3_joint": 6.614600301436702,
        "smoothness": 0.5135117933591062,
        "time": 0.26344313399999997,
        "traj_len": 4.549791929744447,
        "weighted_distance": 6.204869349479773
    },
    "planner": "PRM",
    "start": {
        "state": {
            "elbow_joint": 0.749534889911806,
            "shoulder_lift_joint": -0.6476975780787326,
            "shoulder_pan_joint": -2.711696901376241,
            "wrist_1_joint": -0.07506478083263063,
            "wrist_2_joint": 0.43296659715538205,
            "wrist_3_joint": -3.14703540197715
        }
    },
    "waypoints": [
        {
            "positions": [
                -2.711696901376241,
                -0.6476975780787326,
                0.749534889911806,
                -0.07506478083263063,
                0.43296659715538205,
                -3.14703540197715
            ]
        },
        {
            "positions": [
                -2.7164625153422635,
                -0.7004618907135445,
                0.814562481039299,
                -0.12627791731088983,
                0.4686142794806358,
                -2.9657744099722696
            ]
        },
        {
            "positions": [
                -2.721228129308286,
                -0.7532262033483563,
                0.879590072166792,
                -0.177491053789149,
                0.5042619618058896,
                -2.784513417967389
            ]
        },
        {
            "positions": [
                -2.725993743274308,
                -0.8059905159831683,
                0.944617663294285,
                -0.2287041902674082,
                0.5399096441311433,
                -2.6032524259625087
            ]
        },
        {
            "positions": [
                -2.730759357240331,
                -0.8587548286179801,
                1.009645254421778,
                -0.2799173267456674,
                0.575557326456397,
                -2.4219914339576283
            ]
        },
        {
            "positions": [
                -2.7355249712063534,
                -0.9115191412527921,
                1.0746728455492711,
                -0.3311304632239266,
                0.6112050087816507,
                -2.240730441952748
            ]
        },
        {
            "positions": [
                -2.740290585172376,
                -0.964283453887604,
                1.139700436676764,
                -0.3823435997021858,
                0.6468526911069046,
                -2.0594694499478674
            ]
        },
        {
            "positions": [
                -2.745056199138398,
                -1.0170477665224158,
                1.2047280278042571,
                -0.433556736180445,
                0.6825003734321583,
                -1.8782084579429872
            ]
        },
        {
            "positions": [
                -2.662029353832666,
                -1.015926249397702,
                1.1131053517122003,
                -0.48586944971968643,
                0.6527878790246314,
                -1.7488442657517322
            ]
        },
        {
            "positions": [
                -2.579002508526934,
                -1.0148047322729883,
                1.0214826756201434,
                -0.5381821632589279,
                0.6230753846171047,
                -1.6194800735604775
            ]
        },
        {
            "positions": [
                -2.4959756632212016,
                -1.0136832151482744,
                0.9298599995280867,
                -0.5904948767981693,
                0.5933628902095778,
                -1.4901158813692228
            ]
        },
        {
            "positions": [
                -2.4129488179154697,
                -1.0125616980235608,
                0.8382373234360299,
                -0.6428075903374108,
                0.5636503958020509,
                -1.3607516891779678
            ]
        },
        {
            "positions": [
                -2.3299219726097373,
                -1.011440180898847,
                0.746614647343973,
                -0.6951203038766522,
                0.533937901394524,
                -1.231387496986713
            ]
        },
        {
            "positions": [
                -2.2468951273040054,
                -1.0103186637741333,
                0.6549919712519162,
                -0.7474330174158936,
                0.5042254069869972,
                -1.1020233047954582
            ]
        },
        {
            "positions": [
                -2.163868281998273,
                -1.0091971466494194,
                0.5633692951598593,
                -0.799745730955135,
                0.47451291257947037,
                -0.9726591126042035
            ]
        },
        {
            "positions": [
                -2.080841436692541,
                -1.0080756295247055,
                0.47174661906780246,
                -0.8520584444943765,
                0.4448004181719435,
                -0.8432949204129485
            ]
        },
        {
            "positions": [
                -1.9978145913868088,
                -1.0069541123999919,
                0.3801239429757456,
                -0.904371158033618,
                0.41508792376441667,
                -0.7139307282216936
            ]
        },
        {
            "positions": [
                -1.9147877460810767,
                -1.005832595275278,
                0.2885012668836888,
                -0.9566838715728594,
                0.38537542935688984,
                -0.5845665360304388
            ]
        },
        {
            "positions": [
                -1.8317609007753446,
                -1.0047110781505644,
                0.19687859079163195,
                -1.0089965851121008,
                0.35566293494936296,
                -0.4552023438391839
            ]
        },
        {
            "positions": [
                -1.7487340554696125,
                -1.0035895610258505,
                0.10525591469957529,
                -1.0613092986513424,
                0.32595044054183614,
                -0.3258381516479292
            ]
        },
        {
            "positions": [
                -1.6657072101638803,
                -1.0024680439011369,
                0.013633238607518194,
                -1.1136220121905838,
                0.2962379461343093,
                -0.19647395945667423
            ]
        },
        {
            "positions": [
                -1.5826803648581482,
                -1.001346526776423,
                -0.07798943748453846,
                -1.1659347257298251,
                0.2665254517267825,
                -0.06710976726541973
            ]
        },
        {
            "positions": [
                -1.499653519552416,
                -1.0002250096517091,
                -0.16961211357659534,
                -1.2182474392690668,
                0.2368129573192556,
                0.06225442492583544
            ]
        },
        {
            "positions": [
                -1.4166266742466838,
                -0.9991034925269955,
                -0.2612347896686522,
                -1.270560152808308,
                0.20710046291172873,
                0.19161861711709016
            ]
        },
        {
            "positions": [
                -1.3335998289409516,
                -0.9979819754022816,
                -0.35285746576070887,
                -1.3228728663475495,
                0.1773879685042019,
                0.3209828093083449
            ]
        },
        {
            "positions": [
                -1.2505729836352195,
                -0.9968604582775679,
                -0.44448014185276596,
                -1.375185579886791,
                0.14767547409667503,
                0.45034700149960005
            ]
        },
        {
            "positions": [
                -1.1675461383294874,
                -0.9957389411528541,
                -0.5361028179448226,
                -1.4274982934260323,
                0.11796297968914826,
                0.5797111936908543
            ]
        },
        {
            "positions": [
                -1.0845192930237553,
                -0.9946174240281404,
                -0.6277254940368795,
                -1.479811006965274,
                0.08825048528162138,
                0.7090753858821095
            ]
        },
        {
            "positions": [
                -1.0014924477180231,
                -0.9934959069034266,
                -0.7193481701289364,
                -1.532123720504515,
                0.0585379908740945,
                0.8384395780733647
            ]
        },
        {
            "positions": [
                -0.9184656024122908,
                -0.9923743897787128,
                -0.8109708462209932,
                -1.5844364340437567,
                0.028825496466567624,
                0.9678037702646194
            ]
        },
        {
            "positions": [
                -0.8354387571065589,
                -0.9912528726539991,
                -0.9025935223130499,
                -1.6367491475829978,
                -0.0008869979409591444,
                1.0971679624558737
            ]
        },
        {
            "positions": [
                -0.7524119118008268,
                -0.9901313555292852,
                -0.9942161984051066,
                -1.6890618611222394,
                -0.030599492348486024,
                1.2265321546471288
            ]
        },
        {
            "positions": [
                -0.6693850664950944,
                -0.9890098384045715,
                -1.0858388744971637,
                -1.741374574661481,
                -0.06031198675601279,
                1.3558963468383836
            ]
        },
        {
            "positions": [
                -0.5863582211893625,
                -0.9878883212798577,
                -1.1774615505892208,
                -1.7936872882007227,
                -0.09002448116353967,
                1.4852605390296387
            ]
        },
        {
            "positions": [
                -0.5033313758836302,
                -0.986766804155144,
                -1.2690842266812774,
                -1.8460000017399638,
                -0.11973697557106655,
                1.6146247312208934
            ]
        },
        {
            "positions": [
                -0.4203045305778983,
                -0.9856452870304302,
                -1.360706902773334,
                -1.8983127152792054,
                -0.14944946997859332,
                1.7439889234121477
            ]
        },
        {
            "positions": [
                -0.33727768527216595,
                -0.9845237699057164,
                -1.4523295788653907,
                -1.9506254288184466,
                -0.1791619643861202,
                1.873353115603403
            ]
        },
        {
            "positions": [
                -0.25425083996643405,
                -0.9834022527810027,
                -1.5439522549574478,
                -2.002938142357688,
                -0.20887445879364708,
                2.002717307794658
            ]
        },
        {
            "positions": [
                -0.1712239946607017,
                -0.9822807356562888,
                -1.635574931049505,
                -2.05525085589693,
                -0.23858695320117396,
                2.1320814999859126
            ]
        },
        {
            "positions": [
                -0.08819714935496936,
                -0.9811592185315751,
                -1.7271976071415616,
                -2.107563569436171,
                -0.26829944760870084,
                2.2614456921771673
            ]
        },
        {
            "positions": [
                -0.005170304049237462,
                -0.9800377014068613,
                -1.8188202832336182,
                -2.1598762829754126,
                -0.2980119420162276,
                2.390809884368422
            ]
        },
        {
            "positions": [
                0.07785654125649488,
                -0.9789161842821476,
                -1.9104429593256749,
                -2.2121889965146537,
                -0.3277244364237545,
                2.5201740765596767
            ]
        },
        {
            "positions": [
                0.16088338656222678,
                -0.9777946671574338,
                -2.0020656354177317,
                -2.2645017100538953,
                -0.35743693083128136,
                2.6495382687509315
            ]
        },
        {
            "positions": [
                0.24391023186795913,
                -0.97667315003272,
                -2.093688311509789,
                -2.316814423593137,
                -0.38714942523880824,
                2.778902460942187
            ]
        },
        {
            "positions": [
                0.32693707717369147,
                -0.9755516329080062,
                -2.185310987601846,
                -2.3691271371323785,
                -0.4168619196463351,
                2.908266653133442
            ]
        },
        {
            "positions": [
                0.40996392247942337,
                -0.9744301157832924,
                -2.276933663693902,
                -2.4214398506716197,
                -0.4465744140538618,
                3.0376308453246956
            ]
        },
        {
            "positions": [
                0.49299076778515527,
                -0.9733085986585787,
                -2.3685563397859593,
                -2.473752564210861,
                -0.47628690846138866,
                3.1669950375159512
            ]
        },
        {
            "positions": [
                0.5760176130908878,
                -0.9721870815338649,
                -2.460179015878016,
                -2.5260652777501025,
                -0.5059994028689154,
                3.2963592297072064
            ]
        },
        {
            "positions": [
                0.4668666189443101,
                -1.0821007487127523,
                -2.4468628628806006,
                -2.47374027615337,
                -0.4609583490689175,
                3.2719012768854427
            ]
        },
        {
            "positions": [
                0.35771562479773233,
                -1.1920144158916397,
                -2.4335467098831853,
                -2.4214152745566384,
                -0.41591729526891946,
                3.247443324063679
            ]
        },
        {
            "positions": [
                0.24856463065115464,
                -1.3019280830705273,
                -2.42023055688577,
                -2.369090272959906,
                -0.3708762414689215,
                3.2229853712419154
            ]
        },
        {
            "positions": [
                0.1394136365045769,
                -1.4118417502494147,
                -2.406914403888355,
                -2.3167652713631743,
                -0.3258351876689235,
                3.198527418420152
            ]
        },
        {
            "positions": [
                0.030262642357999137,
                -1.5217554174283023,
                -2.39359825089094,
                -2.264440269766442,
                -0.28079413386892554,
                3.1740694655983885
            ]
        },
        {
            "positions": [
                -0.07888835178857856,
                -1.6316690846071897,
                -2.3802820978935246,
                -2.2121152681697103,
                -0.2357530800689276,
                3.149611512776625
            ]
        },
        {
            "positions": [
                -0.1880393459351563,
                -1.7415827517860771,
                -2.3669659448961093,
                -2.159790266572978,
                -0.19071202626892958,
                3.125153559954861
            ]
        }
    ]
}