{
    "goal": {
        "global_pose": {
            "orientation": {
                "w": -0.00223480608172531,
                "x": 0.0024358444001904467,
                "y": 0.7094548369677653,
                "z": -0.704743149386269
            },
            "position": {
                "x": -0.37947507619857795,
                "y": -0.6371506643295288,
                "z": 0.19426114857196808
            }
        },
        "name": "move_to_magneteinheit_C"
    },
    "id": "PRM_move_to_magneteinheit_C_28",
    "joint_names": [
        "shoulder_pan_joint",
        "shoulder_lift_joint",
        "elbow_joint",
        "wrist_1_joint",
        "wrist_2_joint",
        "wrist_3_joint"
    ],
    "metrics": {
        "cart_traj_len": 0.7315455980535804,
        "distance_elbow_joint": 1.1771631128535676,
        "distance_shoulder_lift_joint": 0.7981344497427629,
        "distance_shoulder_pan_joint": 0.8021438876190812,
        "distance_wrist_1_joint": 0.4984796644102695,
        "distance_wrist_2_joint": 0.8061247621492451,
        "distance_wrist_3_joint": 0.13678498452064058,
        "smoothness": 1.1917062739662276,
        "time": 0.155203769,
        "traj_len": 2.0539792747969896,
        "weighted_distance": 2.407697085784747
    },
    "planner": "PRM",
    "start": {
        "state": {
            "elbow_joint": 1.9565354010623817,
            "shoulder_lift_joint": -1.4165861575791021,
            "shoulder_pan_joint": -1.6717766225146293,
            "wrist_1_joint": -0.5286633292919765,
            "wrist_2_joint": 1.472756589071564,
            "wrist_3_joint": -3.1238370188695823
        }
    },
    "waypoints": [
        {
            "positions": [
                -1.6717766225146293,
                -1.4165861575791021,
                1.9565354010623817,
                -0.5286633292919765,
                1.472756589071564,
                -3.1238370188695823
            ]
        },
        {
            "positions": [
                -1.772446199611844,
                -1.4554134339430522,
                2.0443060145787677,
                -0.5858421197755137,
                1.4244358913174893,
                -3.135394399669014
            ]
        },
        {
            "positions": [
                -1.8731157767090587,
                -1.4942407103070023,
                2.132076628095154,
                -0.643020910259051,
                1.3761151935634148,
                -3.1469517804684464
            ]
        },
        {
            "positions": [
                -1.9737853538062733,
                -1.5330679866709525,
                2.2198472416115402,
                -0.7001997007425882,
                1.3277944958093402,
                -3.158509161267878
            ]
        },
        {
            "positions": [
                -2.074454930903488,
                -1.5718952630349028,
                2.3076178551279263,
                -0.7573784912261254,
                1.2794737980552657,
                -3.17006654206731
            ]
        },
        {
            "positions": [
                -2.1751245080007027,
                -1.610722539398853,
                2.3953884686443123,
                -0.8145572817096628,
                1.231153100301191,
                -3.181623922866742
            ]
        },
        {
            "positions": [
                -2.275794085097917,
                -1.649549815762803,
                2.483159082160699,
                -0.8717360721931999,
                1.1828324025471166,
                -3.193181303666174
            ]
        },
        {
            "positions": [
                -2.376463662195132,
                -1.6883770921267531,
                2.570929695677085,
                -0.9289148626767373,
                1.134511704793042,
                -3.204738684465606
            ]
        },
        {
            "positions": [
                -2.3959550317828477,
                -1.5831083890877307,
                2.458375932029312,
                -0.9092692364716356,
                1.0409357292188974,
                -3.1935620206806825
            ]
        },
        {
            "positions": [
                -2.415446401370563,
                -1.4778396860487084,
                2.345822168381539,
                -0.8896236102665338,
                0.9473597536447527,
                -3.182385356895759
            ]
        },
        {
            "positions": [
                -2.434937770958279,
                -1.372570983009686,
                2.2332684047337663,
                -0.8699779840614321,
                0.8537837780706081,
                -3.1712086931108354
            ]
        },
        {
            "positions": [
                -2.4544291405459946,
                -1.2673022799706635,
                2.120714641085993,
                -0.8503323578563303,
                0.7602078024964634,
                -3.160032029325912
            ]
        },
        {
            "positions": [
                -2.4739205101337105,
                -1.1620335769316412,
                2.0081608774382205,
                -0.8306867316512286,
                0.6666318269223188,
                -3.1488553655409888
            ]
        }
    ]
}