{
    "goal": {
        "global_pose": {
            "orientation": {
                "w": 0.7047431493862688,
                "x": -0.7094548369677653,
                "y": 0.0024358444001904,
                "z": -0.0022348060817251984
            },
            "position": {
                "x": -0.39052492380142206,
                "y": 0.3671506643295288,
                "z": 0.19426114857196808
            }
        },
        "name": "move_to_magneteinheit_D"
    },
    "id": "PRM_move_to_magneteinheit_D_16",
    "joint_names": [
        "shoulder_pan_joint",
        "shoulder_lift_joint",
        "elbow_joint",
        "wrist_1_joint",
        "wrist_2_joint",
        "wrist_3_joint"
    ],
    "metrics": {
        "cart_traj_len": 4.283724212608953,
        "distance_elbow_joint": 3.145513743020842,
        "distance_shoulder_lift_joint": 1.6261111565481834,
        "distance_shoulder_pan_joint": 2.852707508173482,
        "distance_wrist_1_joint": 1.5095580515067533,
        "distance_wrist_2_joint": 0.8447330634235981,
        "distance_wrist_3_joint": 3.288197583664087,
        "smoothness": 0.2033179583307196,
        "time": 0.27098175,
        "traj_len": 3.642364768435054,
        "weighted_distance": 4.711423074676638
    },
    "planner": "PRM",
    "start": {
        "state": {
            "elbow_joint": 0.749534889911806,
            "shoulder_lift_joint": -0.6476975780787326,
            "shoulder_pan_joint": -2.711696901376241,
            "wrist_1_joint": -0.07506478083263063,
            "wrist_2_joint": 0.43296659715538205,
            "wrist_3_joint": -3.14703540197715
        }
    },
    "waypoints": [
        {
            "positions": [
                -2.711696901376241,
                -0.6476975780787326,
                0.749534889911806,
                -0.07506478083263063,
                0.43296659715538205,
                -3.14703540197715
            ]
        },
        {
            "positions": [
                -2.7120284488470197,
                -0.6719969141300145,
                0.7435487016306492,
                -0.0015142304192047734,
                0.3640789833426072,
                -2.942937467058532
            ]
        },
        {
            "positions": [
                -2.7123599963177982,
                -0.6962962501812963,
                0.7375625133494925,
                0.07203631999422108,
                0.29519136952983227,
                -2.738839532139914
            ]
        },
        {
            "positions": [
                -2.7126915437885764,
                -0.7205955862325781,
                0.7315763250683358,
                0.14558687040764692,
                0.22630375571705744,
                -2.534741597221296
            ]
        },
        {
            "positions": [
                -2.713023091259355,
                -0.7448949222838599,
                0.7255901367871791,
                0.2191374208210728,
                0.15741614190428255,
                -2.330643662302678
            ]
        },
        {
            "positions": [
                -2.7133546387301335,
                -0.7691942583351418,
                0.7196039485060224,
                0.29268797123449863,
                0.08852852809150769,
                -2.12654572738406
            ]
        },
        {
            "positions": [
                -2.609923682031786,
                -0.8257967351661678,
                0.6256968568232213,
                0.3331857285637063,
                0.09983663455254234,
                -2.0402471294456097
            ]
        },
        {
            "positions": [
                -2.506492725333439,
                -0.882399211997194,
                0.5317897651404202,
                0.37368348589291395,
                0.11114474101357698,
                -1.9539485315071599
            ]
        },
        {
            "positions": [
                -2.4030617686350912,
                -0.93900168882822,
                0.4378826734576191,
                0.41418124322212163,
                0.12245284747461163,
                -1.86764993356871
            ]
        },
        {
            "positions": [
                -2.2996308119367437,
                -0.995604165659246,
                0.343975581774818,
                0.45467900055132926,
                0.13376095393564627,
                -1.7813513356302602
            ]
        },
        {
            "positions": [
                -2.1961998552383966,
                -1.052206642490272,
                0.2500684900920169,
                0.49517675788053694,
                0.14506906039668094,
                -1.69505273769181
            ]
        },
        {
            "positions": [
                -2.092768898540049,
                -1.108809119321298,
                0.15616139840921583,
                0.5356745152097446,
                0.15637716685771558,
                -1.6087541397533602
            ]
        },
        {
            "positions": [
                -1.9893379418417014,
                -1.1654115961523241,
                0.06225430672641474,
                0.5761722725389522,
                0.16768527331875022,
                -1.5224555418149104
            ]
        },
        {
            "positions": [
                -1.8859069851433539,
                -1.2220140729833504,
                -0.03165278495638635,
                0.61667002986816,
                0.17899337977978486,
                -1.4361569438764605
            ]
        },
        {
            "positions": [
                -1.7824760284450067,
                -1.2786165498143764,
                -0.12555987663918744,
                0.6571677871973676,
                0.1903014862408195,
                -1.3498583459380105
            ]
        },
        {
            "positions": [
                -1.6790450717466592,
                -1.3352190266454025,
                -0.21946696832198853,
                0.6976655445265753,
                0.2016095927018542,
                -1.2635597479995604
            ]
        },
        {
            "positions": [
                -1.5756141150483118,
                -1.3918215034764285,
                -0.3133740600047896,
                0.7381633018557829,
                0.21291769916288883,
                -1.1772611500611108
            ]
        },
        {
            "positions": [
                -1.4721831583499643,
                -1.4484239803074548,
                -0.4072811516875907,
                0.7786610591849905,
                0.22422580562392347,
                -1.0909625521226607
            ]
        },
        {
            "positions": [
                -1.368752201651617,
                -1.5050264571384808,
                -0.5011882433703918,
                0.8191588165141982,
                0.2355339120849581,
                -1.0046639541842108
            ]
        },
        {
            "positions": [
                -1.2653212449532696,
                -1.5616289339695069,
                -0.5950953350531929,
                0.8596565738434059,
                0.24684201854599275,
                -0.918365356245761
            ]
        },
        {
            "positions": [
                -1.1618902882549222,
                -1.618231410800533,
                -0.6890024267359938,
                0.9001543311726135,
                0.2581501250070274,
                -0.8320667583073111
            ]
        },
        {
            "positions": [
                -1.0584593315565745,
                -1.674833887631559,
                -0.7829095184187951,
                0.9406520885018212,
                0.269458231468062,
                -0.7457681603688611
            ]
        },
        {
            "positions": [
                -0.9550283748582271,
                -1.731436364462585,
                -0.8768166101015962,
                0.9811498458310288,
                0.28076633792909667,
                -0.6594695624304112
            ]
        },
        {
            "positions": [
                -0.8515974181598798,
                -1.788038841293611,
                -0.9707237017843973,
                1.0216476031602366,
                0.2920744443901313,
                -0.5731709644919614
            ]
        },
        {
            "positions": [
                -0.7481664614615324,
                -1.844641318124637,
                -1.0646307934671984,
                1.0621453604894442,
                0.30338255085116594,
                -0.4868723665535115
            ]
        },
        {
            "positions": [
                -0.6447355047631849,
                -1.901243794955663,
                -1.1585378851499994,
                1.1026431178186518,
                0.3146906573122007,
                -0.4005737686150612
            ]
        },
        {
            "positions": [
                -0.5413045480648373,
                -1.9578462717866891,
                -1.2524449768328005,
                1.1431408751478593,
                0.32599876377323533,
                -0.31427517067661137
            ]
        },
        {
            "positions": [
                -0.4378735913664902,
                -2.014448748617715,
                -1.3463520685156016,
                1.1836386324770671,
                0.33730687023427,
                -0.22797657273816152
            ]
        },
        {
            "positions": [
                -0.3344426346681426,
                -2.071051225448741,
                -1.4402591601984027,
                1.2241363898062747,
                0.34861497669530456,
                -0.14167797479971167
            ]
        },
        {
            "positions": [
                -0.23101167796979505,
                -2.1276537022797677,
                -1.5341662518812038,
                1.2646341471354825,
                0.35992308315633925,
                -0.0553793768612616
            ]
        },
        {
            "positions": [
                -0.12758072127144793,
                -2.1842561791107937,
                -1.628073343564005,
                1.30513190446469,
                0.3712311896173739,
                0.03091922107718803
            ]
        },
        {
            "positions": [
                -0.024149764573100575,
                -2.2408586559418198,
                -1.7219804352468062,
                1.3456296617938976,
                0.38253929607840853,
                0.117217819015638
            ]
        },
        {
            "positions": [
                -0.07809806346061947,
                -2.2518420155035184,
                -1.946646574534216,
                1.3752508647539727,
                0.31377788728746764,
                0.10923636479187225
            ]
        },
        {
            "positions": [
                -0.13204636234813838,
                -2.2628253750652174,
                -2.171312713821626,
                1.4048720677140476,
                0.24501647849652675,
                0.10125491056810648
            ]
        },
        {
            "positions": [
                -0.18599466123565728,
                -2.273808734626916,
                -2.395978853109036,
                1.4344932706741227,
                0.17625506970558585,
                0.09327345634434073
            ]
        }
    ]
}