{
    "goal": {
        "global_pose": {
            "orientation": {
                "w": -0.00223480608172531,
                "x": 0.0024358444001904467,
                "y": 0.7094548369677653,
                "z": -0.704743149386269
            },
            "position": {
                "x": -0.37947507619857795,
                "y": -0.6371506643295288,
                "z": 0.19426114857196808
            }
        },
        "name": "move_to_magneteinheit_C"
    },
    "id": "PRM_move_to_magneteinheit_C_51",
    "joint_names": [
        "shoulder_pan_joint",
        "shoulder_lift_joint",
        "elbow_joint",
        "wrist_1_joint",
        "wrist_2_joint",
        "wrist_3_joint"
    ],
    "metrics": {
        "cart_traj_len": 0.8484851674547627,
        "distance_elbow_joint": 0.08774206470841639,
        "distance_shoulder_lift_joint": 0.8085639492777243,
        "distance_shoulder_pan_joint": 0.8644501519174919,
        "distance_wrist_1_joint": 2.556286214821161,
        "distance_wrist_2_joint": 0.798965412807548,
        "distance_wrist_3_joint": 0.5352459257567972,
        "smoothness": 1.2607982714333827,
        "time": 0.377562214,
        "traj_len": 2.3772365720073254,
        "weighted_distance": 3.174428641256792
    },
    "planner": "PRM",
    "start": {
        "state": {
            "elbow_joint": 1.9565354010623817,
            "shoulder_lift_joint": -1.4165861575791021,
            "shoulder_pan_joint": -1.6717766225146293,
            "wrist_1_joint": -0.5286633292919765,
            "wrist_2_joint": 1.472756589071564,
            "wrist_3_joint": -3.1238370188695823
        }
    },
    "waypoints": [
        {
            "positions": [
                -1.6717766225146293,
                -1.4165861575791021,
                1.9565354010623817,
                -0.5286633292919765,
                1.472756589071564,
                -3.1238370188695823
            ]
        },
        {
            "positions": [
                -1.7759671726424755,
                -1.4513614616111141,
                1.9544292826342116,
                -0.38774466711959876,
                1.4157158736762194,
                -3.0923387521223407
            ]
        },
        {
            "positions": [
                -1.880157722770322,
                -1.486136765643126,
                1.9523231642060415,
                -0.24682600494722107,
                1.3586751582808752,
                -3.060840485375099
            ]
        },
        {
            "positions": [
                -1.984348272898168,
                -1.520912069675138,
                1.9502170457778711,
                -0.10590734277484337,
                1.3016344428855309,
                -3.029342218627857
            ]
        },
        {
            "positions": [
                -2.0885388230260142,
                -1.55568737370715,
                1.948110927349701,
                0.035011319397534324,
                1.2445937274901864,
                -2.9978439518806153
            ]
        },
        {
            "positions": [
                -2.1927293731538606,
                -1.5904626777391617,
                1.946004808921531,
                0.17592998156991202,
                1.1875530120948419,
                -2.9663456851333736
            ]
        },
        {
            "positions": [
                -2.296919923281707,
                -1.6252379817711737,
                1.9438986904933606,
                0.3168486437422897,
                1.1305122966994976,
                -2.9348474183861315
            ]
        },
        {
            "positions": [
                -2.401110473409553,
                -1.6600132858031855,
                1.9417925720651905,
                0.4577673059146674,
                1.0734715813041533,
                -2.90334915163889
            ]
        },
        {
            "positions": [
                -2.5053010235373994,
                -1.6947885898351975,
                1.9396864536370204,
                0.5986859680870452,
                1.0164308659088088,
                -2.871850884891648
            ]
        },
        {
            "positions": [
                -2.5008830591238675,
                -1.6190226588321077,
                1.949814041820314,
                0.39455212273816814,
                0.9674823388166955,
                -2.9123165694314856
            ]
        },
        {
            "positions": [
                -2.496465094710336,
                -1.543256727829018,
                1.9599416300036077,
                0.19041827738929107,
                0.9185338117245823,
                -2.9527822539713235
            ]
        },
        {
            "positions": [
                -2.4920471302968044,
                -1.467490796825928,
                1.9700692181869013,
                -0.01371556795958595,
                0.869585284632469,
                -2.993247938511161
            ]
        },
        {
            "positions": [
                -2.4876291658832725,
                -1.3917248658228383,
                1.9801968063701947,
                -0.21784941330846308,
                0.8206367575403558,
                -3.0337136230509985
            ]
        },
        {
            "positions": [
                -2.4832112014697407,
                -1.3159589348197482,
                1.9903243945534883,
                -0.4219832586573403,
                0.7716882304482425,
                -3.074179307590836
            ]
        },
        {
            "positions": [
                -2.4787932370562094,
                -1.2401930038166584,
                2.000451982736782,
                -0.6261171040062171,
                0.7227397033561292,
                -3.114644992130674
            ]
        },
        {
            "positions": [
                -2.4743752726426775,
                -1.1644270728135686,
                2.0105795709200756,
                -0.8302509493550944,
                0.673791176264016,
                -3.1551106766705113
            ]
        }
    ]
}