{
    "goal": {
        "global_pose": {
            "orientation": {
                "w": 0.7031023480610252,
                "x": -0.7110244013736278,
                "y": 0.0077485991402295624,
                "z": 0.005598929693374583
            },
            "position": {
                "x": -0.8841497679147869,
                "y": 0.44412534475326537,
                "z": 0.3711530566215515
            }
        },
        "name": "move_to_auspresseinheit_D"
    },
    "id": "PRM_move_to_auspresseinheit_D_69",
    "joint_names": [
        "shoulder_pan_joint",
        "shoulder_lift_joint",
        "elbow_joint",
        "wrist_1_joint",
        "wrist_2_joint",
        "wrist_3_joint"
    ],
    "metrics": {
        "cart_traj_len": 0.3441127583980699,
        "distance_elbow_joint": 0.6672612572104137,
        "distance_shoulder_lift_joint": 0.13727113400446056,
        "distance_shoulder_pan_joint": 0.13331185259480555,
        "distance_wrist_1_joint": 0.631947639982303,
        "distance_wrist_2_joint": 1.4321459481351568,
        "distance_wrist_3_joint": 0.08483779551575932,
        "smoothness": 3.947459674368863e-16,
        "time": 0.028620727000000002,
        "traj_len": 1.7569222030138099,
        "weighted_distance": 2.3066306177175133
    },
    "planner": "PRM",
    "start": {
        "state": {
            "elbow_joint": -1.8275523626775212,
            "shoulder_lift_joint": -2.126789852344167,
            "shoulder_pan_joint": -0.03513704404078235,
            "wrist_1_joint": -2.347782403156801,
            "wrist_2_joint": -1.6058999987535132,
            "wrist_3_joint": -3.0880379163319196
        }
    },
    "waypoints": [
        {
            "positions": [
                -0.03513704404078235,
                -2.126789852344167,
                -1.8275523626775212,
                -2.347782403156801,
                -1.6058999987535132,
                -3.0880379163319196
            ]
        },
        {
            "positions": [
                -0.05180102561513304,
                -2.1439487440947245,
                -1.7441447055262196,
                -2.426775858154589,
                -1.4268817552366186,
                -3.0774331918924496
            ]
        },
        {
            "positions": [
                -0.06846500718948373,
                -2.161107635845282,
                -1.6607370483749178,
                -2.505769313152377,
                -1.247863511719724,
                -3.0668284674529795
            ]
        },
        {
            "positions": [
                -0.08512898876383443,
                -2.1782665275958397,
                -1.577329391223616,
                -2.5847627681501644,
                -1.0688452682028293,
                -3.05622374301351
            ]
        },
        {
            "positions": [
                -0.10179297033818513,
                -2.195425419346397,
                -1.4939217340723143,
                -2.6637562231479524,
                -0.8898270246859348,
                -3.04561901857404
            ]
        },
        {
            "positions": [
                -0.11845695191253583,
                -2.2125843110969545,
                -1.4105140769210127,
                -2.7427496781457403,
                -0.7108087811690402,
                -3.03501429413457
            ]
        },
        {
            "positions": [
                -0.1351209334868865,
                -2.229743202847512,
                -1.3271064197697109,
                -2.821743133143528,
                -0.5317905376521455,
                -3.0244095696951003
            ]
        },
        {
            "positions": [
                -0.1517849150612372,
                -2.2469020945980698,
                -1.243698762618409,
                -2.900736588141316,
                -0.3527722941352509,
                -3.0138048452556303
            ]
        },
        {
            "positions": [
                -0.1684488966355879,
                -2.2640609863486274,
                -1.1602911054671075,
                -2.979730043139104,
                -0.1737540506183564,
                -3.0032001208161603
            ]
        }
    ]
}