{
    "goal": {
        "global_pose": {
            "orientation": {
                "w": -0.4816463035849501,
                "x": 0.5182115481033762,
                "y": 0.4908360881923453,
                "z": -0.5084816262002911
            },
            "position": {
                "x": -0.8240239810943604,
                "y": -0.300875300988555,
                "z": 0.16403168439865112
            }
        },
        "name": "move_to_storage_C"
    },
    "id": "PRM_move_to_storage_C_4",
    "joint_names": [
        "shoulder_pan_joint",
        "shoulder_lift_joint",
        "elbow_joint",
        "wrist_1_joint",
        "wrist_2_joint",
        "wrist_3_joint"
    ],
    "metrics": {
        "cart_traj_len": 0.5775073609411026,
        "distance_elbow_joint": 0.256930636014697,
        "distance_shoulder_lift_joint": 0.18982840981700355,
        "distance_shoulder_pan_joint": 0.49559033911998673,
        "distance_wrist_1_joint": 0.06743114350525203,
        "distance_wrist_2_joint": 1.063974424064765,
        "distance_wrist_3_joint": 0.06614759247303326,
        "smoothness": 2.5376526478085547e-16,
        "time": 0.014693723,
        "traj_len": 1.4628405740184873,
        "weighted_distance": 1.844885713942959
    },
    "planner": "PRM",
    "start": {
        "state": {
            "elbow_joint": 2.010868314990456,
            "shoulder_lift_joint": -1.1634956873337592,
            "shoulder_pan_joint": -2.4736205022346125,
            "wrist_1_joint": -0.8367026794202681,
            "wrist_2_joint": 0.6746043897044499,
            "wrist_3_joint": -3.1496632123970403
        }
    },
    "waypoints": [
        {
            "positions": [
                -2.4736205022346125,
                -1.1634956873337592,
                2.010868314990456,
                -0.8367026794202681,
                0.6746043897044499,
                -3.1496632123970403
            ]
        },
        {
            "positions": [
                -2.5562188920879434,
                -1.1318576190309253,
                1.9680465423213396,
                -0.8254641555027261,
                0.8519334603819108,
                -3.1386386136515347
            ]
        },
        {
            "positions": [
                -2.6388172819412747,
                -1.1002195507280914,
                1.9252247696522236,
                -0.8142256315851841,
                1.0292625310593717,
                -3.127614014906029
            ]
        },
        {
            "positions": [
                -2.721415671794606,
                -1.0685814824252575,
                1.8824029969831073,
                -0.802987107667642,
                1.2065916017368323,
                -3.1165894161605237
            ]
        },
        {
            "positions": [
                -2.804014061647937,
                -1.0369434141224234,
                1.839581224313991,
                -0.7917485837501,
                1.3839206724142934,
                -3.105564817415018
            ]
        },
        {
            "positions": [
                -2.886612451501268,
                -1.0053053458195895,
                1.796759451644875,
                -0.7805100598325581,
                1.561249743091754,
                -3.0945402186695126
            ]
        },
        {
            "positions": [
                -2.9692108413545992,
                -0.9736672775167556,
                1.7539376789757588,
                -0.7692715359150161,
                1.738578813769215,
                -3.083515619924007
            ]
        }
    ]
}