{
    "goal": {
        "global_pose": {
            "orientation": {
                "w": 0.7031023502349854,
                "x": -0.7110244035720825,
                "y": 0.007748599164187908,
                "z": 0.005598929710686207
            },
            "position": {
                "x": 0.11585023208521307,
                "y": 0.44412534475326537,
                "z": 0.3711530566215515
            }
        },
        "name": "move_to_auspresseinheit_A"
    },
    "id": "PRM_move_to_auspresseinheit_A_48",
    "joint_names": [
        "shoulder_pan_joint",
        "shoulder_lift_joint",
        "elbow_joint",
        "wrist_1_joint",
        "wrist_2_joint",
        "wrist_3_joint"
    ],
    "metrics": {
        "cart_traj_len": 1.5055834052719892,
        "distance_elbow_joint": 1.4903286313271922,
        "distance_shoulder_lift_joint": 0.7836053671233376,
        "distance_shoulder_pan_joint": 1.0453515917697038,
        "distance_wrist_1_joint": 1.503985173926897,
        "distance_wrist_2_joint": 1.192455902995281,
        "distance_wrist_3_joint": 0.35263344187736134,
        "smoothness": 0.6675362475816421,
        "time": 0.185439646,
        "traj_len": 2.5235609976816042,
        "weighted_distance": 3.12571081031126
    },
    "planner": "PRM",
    "start": {
        "state": {
            "elbow_joint": 2.4225746658250005,
            "shoulder_lift_joint": -1.3736534386056498,
            "shoulder_pan_joint": -0.3378633547517467,
            "wrist_1_joint": -1.0288598680537169,
            "wrist_2_joint": 1.233022673432363,
            "wrist_3_joint": -3.0940220416140027
        }
    },
    "waypoints": [
        {
            "positions": [
                -0.3378633547517467,
                -1.3736534386056498,
                2.4225746658250005,
                -1.0288598680537169,
                1.233022673432363,
                -3.0940220416140027
            ]
        },
        {
            "positions": [
                -0.3336947113843145,
                -1.4135460564941171,
                2.295500524096709,
                -0.9424760124047213,
                1.1520816777265814,
                -3.0782113282973107
            ]
        },
        {
            "positions": [
                -0.3295260680168823,
                -1.4534386743825845,
                2.1684263823684167,
                -0.8560921567557257,
                1.0711406820207998,
                -3.062400614980619
            ]
        },
        {
            "positions": [
                -0.32535742464945006,
                -1.4933312922710518,
                2.0413522406401245,
                -0.76970830110673,
                0.9901996863150182,
                -3.046589901663927
            ]
        },
        {
            "positions": [
                -0.3211887812820179,
                -1.533223910159519,
                1.9142780989118329,
                -0.6833244454577345,
                0.9092586906092366,
                -3.030779188347235
            ]
        },
        {
            "positions": [
                -0.31702013791458566,
                -1.5731165280479864,
                1.787203957183541,
                -0.596940589808739,
                0.828317694903455,
                -3.0149684750305434
            ]
        },
        {
            "positions": [
                -0.31285149454715344,
                -1.6130091459364537,
                1.660129815455249,
                -0.5105567341597433,
                0.7473766991976734,
                -2.9991577617138514
            ]
        },
        {
            "positions": [
                -0.20759341508652526,
                -1.6797036878854223,
                1.7080526381638486,
                -0.4234851499579012,
                0.6851503568074644,
                -2.989513484197936
            ]
        },
        {
            "positions": [
                -0.10233533562589708,
                -1.7463982298343912,
                1.755975460872448,
                -0.3364135657560591,
                0.6229240144172555,
                -2.9798692066820207
            ]
        },
        {
            "positions": [
                0.002922743834731123,
                -1.81309277178336,
                1.8038982835810475,
                -0.24934198155421694,
                0.5606976720270467,
                -2.970224929166106
            ]
        },
        {
            "positions": [
                0.10818082329535927,
                -1.8797873137323287,
                1.851821106289647,
                -0.1622703973523748,
                0.4984713296368377,
                -2.9605806516501905
            ]
        },
        {
            "positions": [
                0.21343890275598754,
                -1.9464818556812973,
                1.8997439289982465,
                -0.07519881315053267,
                0.4362449872466288,
                -2.950936374134275
            ]
        },
        {
            "positions": [
                0.31869698221661574,
                -2.013176397630266,
                1.947666751706846,
                0.01187277105130951,
                0.3740186448564199,
                -2.9412920966183598
            ]
        },
        {
            "positions": [
                0.412381300870179,
                -2.0220891388242466,
                2.0846952188131693,
                -0.02253017774408094,
                0.4095947416243418,
                -2.9609731827836336
            ]
        },
        {
            "positions": [
                0.5060656195237422,
                -2.0310018800182275,
                2.2217236859194927,
                -0.056933126539471385,
                0.4451708383922637,
                -2.9806542689489075
            ]
        },
        {
            "positions": [
                0.556421273897296,
                -1.9994376485905374,
                2.263296163542792,
                -0.15554478584724368,
                0.5107457586131372,
                -3.0207896000867
            ]
        },
        {
            "positions": [
                0.6067769282708497,
                -1.9678734171628474,
                2.3048686411660912,
                -0.254156445155016,
                0.5763206788340107,
                -3.060924931224493
            ]
        },
        {
            "positions": [
                0.6571325826444034,
                -1.9363091857351575,
                2.3464411187893903,
                -0.3527681044627883,
                0.6418955990548841,
                -3.1010602623622856
            ]
        },
        {
            "positions": [
                0.7074882370179573,
                -1.9047449543074675,
                2.38801359641269,
                -0.4513797637705606,
                0.7074705192757577,
                -3.141195593500078
            ]
        }
    ]
}