{
    "goal": {
        "global_pose": {
            "orientation": {
                "w": 0.5084816262002911,
                "x": -0.4908360881923452,
                "y": 0.5182115481033761,
                "z": -0.48164630358495003
            },
            "position": {
                "x": 0.5540239810943604,
                "y": -0.46912469901144505,
                "z": 0.16403168439865112
            }
        },
        "name": "move_to_storage_B"
    },
    "id": "PRM_move_to_storage_B_136",
    "joint_names": [
        "shoulder_pan_joint",
        "shoulder_lift_joint",
        "elbow_joint",
        "wrist_1_joint",
        "wrist_2_joint",
        "wrist_3_joint"
    ],
    "metrics": {
        "cart_traj_len": 2.232463132049472,
        "distance_elbow_joint": 2.5029446626874408,
        "distance_shoulder_lift_joint": 0.45867539005107916,
        "distance_shoulder_pan_joint": 1.6279999110057979,
        "distance_wrist_1_joint": 2.9828784705110336,
        "distance_wrist_2_joint": 2.7089815541987985,
        "distance_wrist_3_joint": 3.1440799802554267,
        "smoothness": 0.20846190253415448,
        "time": 0.134109464,
        "traj_len": 3.6640906059634464,
        "weighted_distance": 5.040394821234767
    },
    "planner": "PRM",
    "start": {
        "state": {
            "elbow_joint": 1.664937868594044,
            "shoulder_lift_joint": -0.661644460510453,
            "shoulder_pan_joint": -0.9139846352900073,
            "wrist_1_joint": 2.146753192139373,
            "wrist_2_joint": -2.2341966793290973,
            "wrist_3_joint": 0.005466555786416001
        }
    },
    "waypoints": [
        {
            "positions": [
                -0.9139846352900073,
                -0.661644460510453,
                1.664937868594044,
                2.146753192139373,
                -2.2341966793290973,
                0.005466555786416001
            ]
        },
        {
            "positions": [
                -0.8236281517626549,
                -0.6987137724603862,
                1.5304109248770417,
                2.1348896749651924,
                -2.138183697626599,
                -0.006646446273854411
            ]
        },
        {
            "positions": [
                -0.7332716682353025,
                -0.7357830844103195,
                1.3958839811600394,
                2.123026157791012,
                -2.042170715924101,
                -0.018759448334124823
            ]
        },
        {
            "positions": [
                -0.6429151847079502,
                -0.7728523963602527,
                1.261357037443037,
                2.111162640616832,
                -1.9461577342216025,
                -0.030872450394395234
            ]
        },
        {
            "positions": [
                -0.5525587011805977,
                -0.809921708310186,
                1.1268300937260347,
                2.099299123442651,
                -1.8501447525191042,
                -0.042985452454665646
            ]
        },
        {
            "positions": [
                -0.4622022176532454,
                -0.8469910202601192,
                0.9923031500090325,
                2.0874356062684702,
                -1.7541317708166058,
                -0.05509845451493606
            ]
        },
        {
            "positions": [
                -0.37184573412589295,
                -0.8840603322100525,
                0.8577762062920301,
                2.07557208909429,
                -1.6581187891141076,
                -0.06721145657520647
            ]
        },
        {
            "positions": [
                -0.2814892505985406,
                -0.9211296441599858,
                0.7232492625750278,
                2.0637085719201096,
                -1.5621058074116094,
                -0.07932445863547688
            ]
        },
        {
            "positions": [
                -0.1911327670711882,
                -0.958198956109919,
                0.5887223188580254,
                2.051845054745929,
                -1.466092825709111,
                -0.09143746069574729
            ]
        },
        {
            "positions": [
                -0.22465676865589113,
                -0.964203433682201,
                0.6415641378562262,
                1.9448831905563886,
                -1.3942084664284142,
                -0.20429582972438667
            ]
        },
        {
            "positions": [
                -0.25818077024059405,
                -0.9702079112544829,
                0.6944059568544271,
                1.8379213263668481,
                -1.3223241071477174,
                -0.3171541987530261
            ]
        },
        {
            "positions": [
                -0.29170477182529697,
                -0.9762123888267649,
                0.7472477758526279,
                1.730959462177308,
                -1.2504397478670206,
                -0.4300125677816654
            ]
        },
        {
            "positions": [
                -0.3252287734099999,
                -0.9822168663990469,
                0.8000895948508288,
                1.6239975979877674,
                -1.1785553885863238,
                -0.5428709368103048
            ]
        },
        {
            "positions": [
                -0.35875277499470276,
                -0.9882213439713289,
                0.8529314138490296,
                1.517035733798227,
                -1.1066710293056272,
                -0.6557293058389443
            ]
        },
        {
            "positions": [
                -0.3922767765794057,
                -0.9942258215436108,
                0.9057732328472304,
                1.410073869608687,
                -1.0347866700249304,
                -0.7685876748675836
            ]
        },
        {
            "positions": [
                -0.42580077816410855,
                -1.0002302991158927,
                0.9586150518454313,
                1.3031120054191465,
                -0.9629023107442336,
                -0.881446043896223
            ]
        },
        {
            "positions": [
                -0.45932477974881153,
                -1.0062347766881747,
                1.0114568708436322,
                1.196150141229606,
                -0.8910179514635368,
                -0.9943044129248624
            ]
        },
        {
            "positions": [
                -0.4928487813335144,
                -1.0122392542604568,
                1.064298689841833,
                1.0891882770400658,
                -0.81913359218284,
                -1.1071627819535017
            ]
        },
        {
            "positions": [
                -0.5263727829182173,
                -1.0182437318327386,
                1.1171405088400337,
                0.9822264128505254,
                -0.7472492329021433,
                -1.2200211509821413
            ]
        },
        {
            "positions": [
                -0.5598967845029202,
                -1.0242482094050207,
                1.1699823278382346,
                0.8752645486609851,
                -0.6753648736214465,
                -1.3328795200107806
            ]
        },
        {
            "positions": [
                -0.5934207860876232,
                -1.0302526869773025,
                1.2228241468364356,
                0.7683026844714449,
                -0.6034805143407497,
                -1.44573788903942
            ]
        },
        {
            "positions": [
                -0.6269447876723261,
                -1.0362571645495846,
                1.2756659658346363,
                0.6613408202819044,
                -0.5315961550600529,
                -1.5585962580680592
            ]
        },
        {
            "positions": [
                -0.6604687892570289,
                -1.0422616421218667,
                1.328507784832837,
                0.5543789560923642,
                -0.45971179577935617,
                -1.6714546270966988
            ]
        },
        {
            "positions": [
                -0.6939927908417319,
                -1.0482661196941485,
                1.3813496038310382,
                0.4474170919028235,
                -0.38782743649865914,
                -1.7843129961253383
            ]
        },
        {
            "positions": [
                -0.7275167924264349,
                -1.0542705972664306,
                1.434191422829239,
                0.3404552277132835,
                -0.31594307721796255,
                -1.8971713651539774
            ]
        },
        {
            "positions": [
                -0.7610407940111378,
                -1.0602750748387124,
                1.4870332418274397,
                0.23349336352374306,
                -0.24405871793726575,
                -2.0100297341826168
            ]
        },
        {
            "positions": [
                -0.7945647955958406,
                -1.0662795524109945,
                1.5398750608256404,
                0.12653149933420282,
                -0.17217435865656894,
                -2.122888103211256
            ]
        },
        {
            "positions": [
                -0.8280887971805436,
                -1.0722840299832763,
                1.5927168798238416,
                0.019569635144662367,
                -0.10028999937587213,
                -2.235746472239896
            ]
        },
        {
            "positions": [
                -0.8616127987652464,
                -1.0782885075555584,
                1.6455586988220423,
                -0.08739222904487809,
                -0.028405640095175544,
                -2.348604841268535
            ]
        },
        {
            "positions": [
                -0.8951368003499495,
                -1.0842929851278404,
                1.698400517820243,
                -0.19435409323441855,
                0.043478719185521486,
                -2.4614632102971745
            ]
        },
        {
            "positions": [
                -0.9286608019346523,
                -1.0902974627001223,
                1.7512423368184438,
                -0.30131595742395856,
                0.11536307846621807,
                -2.574321579325814
            ]
        },
        {
            "positions": [
                -0.9621848035193552,
                -1.0963019402724044,
                1.804084155816645,
                -0.408277821613499,
                0.1872474377469151,
                -2.687179948354453
            ]
        },
        {
            "positions": [
                -0.9957088051040581,
                -1.1023064178446862,
                1.8569259748148457,
                -0.515239685803039,
                0.2591317970276117,
                -2.8000383173830925
            ]
        },
        {
            "positions": [
                -1.029232806688761,
                -1.1083108954169683,
                1.9097677938130464,
                -0.6222015499925799,
                0.3310161563083085,
                -2.9128966864117323
            ]
        },
        {
            "positions": [
                -1.062756808273464,
                -1.11431537298925,
                1.9626096128112471,
                -0.7291634141821199,
                0.4029005155890053,
                -3.025755055440371
            ]
        },
        {
            "positions": [
                -1.096280809858167,
                -1.1203198505615322,
                2.0154514318094483,
                -0.8361252783716604,
                0.4747848748697021,
                -3.138613424469011
            ]
        }
    ]
}