{
    "goal": {
        "global_pose": {
            "orientation": {
                "w": -0.00223480608172531,
                "x": 0.0024358444001904467,
                "y": 0.7094548369677653,
                "z": -0.704743149386269
            },
            "position": {
                "x": 0.6205249238014221,
                "y": -0.6371506643295288,
                "z": 0.19426114857196808
            }
        },
        "name": "move_to_magneteinheit_B"
    },
    "id": "PRM_move_to_magneteinheit_B_9",
    "joint_names": [
        "shoulder_pan_joint",
        "shoulder_lift_joint",
        "elbow_joint",
        "wrist_1_joint",
        "wrist_2_joint",
        "wrist_3_joint"
    ],
    "metrics": {
        "cart_traj_len": 3.3226124416114224,
        "distance_elbow_joint": 5.674764098133048,
        "distance_shoulder_lift_joint": 1.9527377462808122,
        "distance_shoulder_pan_joint": 3.072458599931923,
        "distance_wrist_1_joint": 3.544217853758642,
        "distance_wrist_2_joint": 1.1773236630732913,
        "distance_wrist_3_joint": 2.385679643083424,
        "smoothness": 0.4530494067703148,
        "time": 0.646830848,
        "traj_len": 4.219855637846054,
        "weighted_distance": 5.224948076991764
    },
    "planner": "PRM",
    "start": {
        "state": {
            "elbow_joint": 2.6216224122426386,
            "shoulder_lift_joint": -1.4174107377796124,
            "shoulder_pan_joint": 0.7066234856936794,
            "wrist_1_joint": 1.9546482284002225,
            "wrist_2_joint": -0.7096286983471962,
            "wrist_3_joint": 0.005740856962016249
        }
    },
    "waypoints": [
        {
            "positions": [
                0.7066234856936794,
                -1.4174107377796124,
                2.6216224122426386,
                1.9546482284002225,
                -0.7096286983471962,
                0.005740856962016249
            ]
        },
        {
            "positions": [
                0.6602422406811831,
                -1.4877897292667703,
                2.5924550303471365,
                1.8312705318356572,
                -0.6415940386958994,
                0.019703560913558696
            ]
        },
        {
            "positions": [
                0.6399628681669369,
                -1.5918629116720566,
                2.593230291501498,
                1.6546542282852068,
                -0.5956346027483571,
                0.02549329463293549
            ]
        },
        {
            "positions": [
                0.6196834956526908,
                -1.695936094077343,
                2.5940055526558603,
                1.4780379247347564,
                -0.549675166800815,
                0.03128302835231228
            ]
        },
        {
            "positions": [
                0.5994041231384446,
                -1.8000092764826292,
                2.594780813810222,
                1.301421621184306,
                -0.5037157308532727,
                0.03707276207168908
            ]
        },
        {
            "positions": [
                0.6860709949573442,
                -1.78457702301161,
                2.4239099089842155,
                1.245908144547644,
                -0.4874856479022698,
                -0.003775087309477204
            ]
        },
        {
            "positions": [
                0.7727378667762438,
                -1.7691447695405909,
                2.2530390041582096,
                1.1903946679109825,
                -0.47125556495126686,
                -0.04462293669064349
            ]
        },
        {
            "positions": [
                0.8594047385951434,
                -1.7537125160695717,
                2.082168099332203,
                1.1348811912743206,
                -0.45502548200026394,
                -0.08547078607180977
            ]
        },
        {
            "positions": [
                0.946071610414043,
                -1.7382802625985525,
                1.9112971945061967,
                1.0793677146376588,
                -0.438795399049261,
                -0.12631863545297606
            ]
        },
        {
            "positions": [
                1.0327384822329426,
                -1.7228480091275333,
                1.7404262896801905,
                1.0238542380009972,
                -0.4225653160982581,
                -0.16716648483414234
            ]
        },
        {
            "positions": [
                1.1194053540518423,
                -1.7074157556565142,
                1.5695553848541843,
                0.9683407613643353,
                -0.40633523314725517,
                -0.20801433421530863
            ]
        },
        {
            "positions": [
                1.206072225870742,
                -1.691983502185495,
                1.398684480028178,
                0.9128272847276735,
                -0.39010515019625225,
                -0.24886218359647494
            ]
        },
        {
            "positions": [
                1.2927390976896413,
                -1.6765512487144758,
                1.2278135752021717,
                0.8573138080910119,
                -0.3738750672452493,
                -0.2897100329776412
            ]
        },
        {
            "positions": [
                1.3794059695085412,
                -1.6611189952434566,
                1.0569426703761653,
                0.80180033145435,
                -0.3576449842942464,
                -0.3305578823588075
            ]
        },
        {
            "positions": [
                1.4660728413274406,
                -1.6456867417724375,
                0.8860717655501591,
                0.7462868548176883,
                -0.3414149013432434,
                -0.37140573173997377
            ]
        },
        {
            "positions": [
                1.5527397131463403,
                -1.6302544883014183,
                0.7152008607241529,
                0.6907733781810266,
                -0.32518481839224056,
                -0.41225358112114
            ]
        },
        {
            "positions": [
                1.63940658496524,
                -1.614822234830399,
                0.5443299558981467,
                0.6352599015443647,
                -0.3089547354412376,
                -0.45310143050230633
            ]
        },
        {
            "positions": [
                1.7260734567841396,
                -1.59938998135938,
                0.3734590510721403,
                0.579746424907703,
                -0.29272465249023466,
                -0.4939492798834726
            ]
        },
        {
            "positions": [
                1.8127403286030392,
                -1.5839577278883605,
                0.20258814624613386,
                0.5242329482710412,
                -0.27649456953923174,
                -0.534797129264639
            ]
        },
        {
            "positions": [
                1.899407200421939,
                -1.5685254744173414,
                0.03171724142012744,
                0.46871947163437944,
                -0.26026448658822876,
                -0.5756449786458052
            ]
        },
        {
            "positions": [
                1.9860740722408383,
                -1.5530932209463222,
                -0.13915366340587854,
                0.4132059949977177,
                -0.2440344036372259,
                -0.6164928280269715
            ]
        },
        {
            "positions": [
                2.072740944059738,
                -1.5376609674753032,
                -0.3100245682318845,
                0.357692518361056,
                -0.22780432068622297,
                -0.6573406774081377
            ]
        },
        {
            "positions": [
                2.1594078158786374,
                -1.5222287140042838,
                -0.4808954730578914,
                0.30217904172439414,
                -0.21157423773522005,
                -0.6981885267893041
            ]
        },
        {
            "positions": [
                2.2460746876975373,
                -1.5067964605332649,
                -0.6517663778838974,
                0.24666556508773252,
                -0.19534415478421713,
                -0.7390363761704702
            ]
        },
        {
            "positions": [
                2.332741559516437,
                -1.4913642070622455,
                -0.8226372827099038,
                0.19115208845107068,
                -0.17911407183321415,
                -0.7798842255516366
            ]
        },
        {
            "positions": [
                2.419408431335336,
                -1.4759319535912263,
                -0.9935081875359102,
                0.13563861181440884,
                -0.16288398888221128,
                -0.8207320749328029
            ]
        },
        {
            "positions": [
                2.506075303154236,
                -1.4604997001202071,
                -1.1643790923619162,
                0.08012513517774722,
                -0.14665390593120836,
                -0.8615799243139691
            ]
        },
        {
            "positions": [
                2.592742174973136,
                -1.445067446649188,
                -1.3352499971879226,
                0.02461165854108538,
                -0.13042382298020538,
                -0.9024277736951355
            ]
        },
        {
            "positions": [
                2.6794090467920353,
                -1.4296351931781688,
                -1.5061209020139286,
                -0.03090181809557646,
                -0.11419374002920246,
                -0.9432756230763018
            ]
        },
        {
            "positions": [
                2.7660759186109347,
                -1.4142029397071496,
                -1.6769918068399345,
                -0.08641529473223808,
                -0.0979636570781996,
                -0.9841234724574679
            ]
        },
        {
            "positions": [
                2.8527427904298346,
                -1.3987706862361304,
                -1.8478627116659414,
                -0.14192877136889992,
                -0.08173357412719662,
                -1.0249713218386343
            ]
        },
        {
            "positions": [
                2.939409662248734,
                -1.3833384327651113,
                -2.0187336164919474,
                -0.19744224800556154,
                -0.0655034911761937,
                -1.0658191712198006
            ]
        },
        {
            "positions": [
                3.026076534067634,
                -1.367906179294092,
                -2.1896045213179542,
                -0.2529557246422236,
                -0.04927340822519077,
                -1.106667020600967
            ]
        },
        {
            "positions": [
                3.1127434058865333,
                -1.352473925823073,
                -2.36047542614396,
                -0.3084692012788853,
                -0.03304332527418785,
                -1.1475148699821331
            ]
        },
        {
            "positions": [
                3.080464837698776,
                -1.4326599156029471,
                -2.3113315195139403,
                -0.2169620281303471,
                0.0027236954401181276,
                -1.0639605767021383
            ]
        },
        {
            "positions": [
                3.048186269511019,
                -1.5128459053828214,
                -2.2621876128839205,
                -0.12545485498180892,
                0.03849071615442411,
                -0.9804062834221433
            ]
        },
        {
            "positions": [
                3.015907701323262,
                -1.5930318951626956,
                -2.2130437062539006,
                -0.03394768183327074,
                0.07425773686873008,
                -0.8968519901421483
            ]
        },
        {
            "positions": [
                2.983629133135505,
                -1.6732178849425698,
                -2.1638997996238807,
                0.05755949131526744,
                0.11002475758303606,
                -0.8132976968621535
            ]
        },
        {
            "positions": [
                2.951350564947748,
                -1.753403874722444,
                -2.114755892993861,
                0.14906666446380562,
                0.14579177829734205,
                -0.7297434035821585
            ]
        },
        {
            "positions": [
                2.9190719967599907,
                -1.833589864502318,
                -2.065611986363841,
                0.2405738376123438,
                0.181558799011648,
                -0.6461891103021636
            ]
        },
        {
            "positions": [
                2.8867934285722336,
                -1.9137758542821923,
                -2.016468079733821,
                0.332081010760882,
                0.217325819725954,
                -0.5626348170221687
            ]
        },
        {
            "positions": [
                2.8545148603844765,
                -1.9939618440620666,
                -1.9673241731038014,
                0.42358818390942016,
                0.25309284044026,
                -0.4790805237421738
            ]
        },
        {
            "positions": [
                2.8222362921967195,
                -2.074147833841941,
                -1.9181802664737813,
                0.5150953570579584,
                0.28885986115456597,
                -0.3955262304621787
            ]
        },
        {
            "positions": [
                2.7899577240089624,
                -2.154333823621815,
                -1.8690363598437616,
                0.6066025302064966,
                0.32462688186887195,
                -0.31197193718218386
            ]
        },
        {
            "positions": [
                2.7576791558212053,
                -2.2345198134016893,
                -1.8198924532137417,
                0.6981097033550347,
                0.3603939025831779,
                -0.228417643902189
            ]
        },
        {
            "positions": [
                2.725400587633448,
                -2.3147058031815635,
                -1.7707485465837218,
                0.7896168765035729,
                0.39616092329748387,
                -0.14486335062219413
            ]
        },
        {
            "positions": [
                2.693122019445691,
                -2.3948917929614377,
                -1.721604639953702,
                0.8811240496521111,
                0.43192794401178985,
                -0.06130905734219905
            ]
        },
        {
            "positions": [
                2.660843451257934,
                -2.475077782741312,
                -1.672460733323682,
                0.9726312228006492,
                0.4676949647260958,
                0.022245235937795725
            ]
        }
    ]
}