{
    "goal": {
        "global_pose": {
            "orientation": {
                "w": -0.00223480608172531,
                "x": 0.0024358444001904467,
                "y": 0.7094548369677653,
                "z": -0.704743149386269
            },
            "position": {
                "x": -0.37947507619857795,
                "y": -0.6371506643295288,
                "z": 0.19426114857196808
            }
        },
        "name": "move_to_magneteinheit_C"
    },
    "id": "PRM_move_to_magneteinheit_C_1",
    "joint_names": [
        "shoulder_pan_joint",
        "shoulder_lift_joint",
        "elbow_joint",
        "wrist_1_joint",
        "wrist_2_joint",
        "wrist_3_joint"
    ],
    "metrics": {
        "cart_traj_len": 0.9090170707804853,
        "distance_elbow_joint": 1.3041963708552067,
        "distance_shoulder_lift_joint": 1.4542727955799533,
        "distance_shoulder_pan_joint": 1.054360475849674,
        "distance_wrist_1_joint": 0.4730040864018997,
        "distance_wrist_2_joint": 1.5956470719380889,
        "distance_wrist_3_joint": 4.239203531687663,
        "smoothness": 0.9674741319656726,
        "time": 0.217269987,
        "traj_len": 3.1813023013087713,
        "weighted_distance": 4.546178895955129
    },
    "planner": "PRM",
    "start": {
        "state": {
            "elbow_joint": 1.9565354010623817,
            "shoulder_lift_joint": -1.4165861575791021,
            "shoulder_pan_joint": -1.6717766225146293,
            "wrist_1_joint": -0.5286633292919765,
            "wrist_2_joint": 1.472756589071564,
            "wrist_3_joint": -3.1238370188695823
        }
    },
    "waypoints": [
        {
            "positions": [
                -1.6717766225146293,
                -1.4165861575791021,
                1.9565354010623817,
                -0.5286633292919765,
                1.472756589071564,
                -3.1238370188695823
            ]
        },
        {
            "positions": [
                -1.7336247835746434,
                -1.4566290857965525,
                2.001911528861735,
                -0.5237663003820612,
                1.3931363991440329,
                -2.9829798892179396
            ]
        },
        {
            "positions": [
                -1.7954729446346576,
                -1.4966720140140028,
                2.0472876566610885,
                -0.5188692714721459,
                1.3135162092165018,
                -2.842122759566297
            ]
        },
        {
            "positions": [
                -1.8573211056946715,
                -1.5367149422314532,
                2.092663784460442,
                -0.5139722425622306,
                1.233896019288971,
                -2.701265629914654
            ]
        },
        {
            "positions": [
                -1.9191692667546856,
                -1.5767578704489034,
                2.1380399122597953,
                -0.5090752136523153,
                1.15427582936144,
                -2.5604085002630113
            ]
        },
        {
            "positions": [
                -1.9810174278146997,
                -1.6168007986663537,
                2.1834160400591487,
                -0.5041781847424001,
                1.0746556394339088,
                -2.419551370611369
            ]
        },
        {
            "positions": [
                -2.042865588874714,
                -1.656843726883804,
                2.228792167858502,
                -0.4992811558324848,
                0.9950354495063778,
                -2.278694240959726
            ]
        },
        {
            "positions": [
                -2.104713749934728,
                -1.6968866551012545,
                2.274168295657855,
                -0.4943841269225695,
                0.9154152595788468,
                -2.1378371113080834
            ]
        },
        {
            "positions": [
                -2.166561910994742,
                -1.7369295833187048,
                2.3195444234572085,
                -0.4894870980126542,
                0.8357950696513158,
                -1.9969799816564406
            ]
        },
        {
            "positions": [
                -2.228410072054756,
                -1.7769725115361552,
                2.364920551256562,
                -0.48459006910273894,
                0.7561748797237848,
                -1.856122852004798
            ]
        },
        {
            "positions": [
                -2.29025823311477,
                -1.8170154397536056,
                2.4102966790559153,
                -0.47969304019282366,
                0.6765546897962538,
                -1.7152657223531553
            ]
        },
        {
            "positions": [
                -2.352106394174784,
                -1.8570583679710557,
                2.4556728068552687,
                -0.4747960112829084,
                0.5969344998687228,
                -1.5744085927015126
            ]
        },
        {
            "positions": [
                -2.413954555234798,
                -1.8971012961885063,
                2.501048934654622,
                -0.4698989823729931,
                0.5173143099411917,
                -1.4335514630498698
            ]
        },
        {
            "positions": [
                -2.475802716294812,
                -1.9371442244059565,
                2.5464250624539755,
                -0.4650019534630778,
                0.4376941200136606,
                -1.292694333398227
            ]
        },
        {
            "positions": [
                -2.5376508773548263,
                -1.9771871526234068,
                2.591801190253329,
                -0.46010492455316254,
                0.35807393008612975,
                -1.1518372037465845
            ]
        },
        {
            "positions": [
                -2.5994990384148404,
                -2.017230080840857,
                2.6371773180526823,
                -0.45520789564324726,
                0.2784537401585987,
                -1.0109800740949417
            ]
        },
        {
            "positions": [
                -2.5889458667523852,
                -1.9460943414810075,
                2.5852144468972735,
                -0.4885036167060115,
                0.311899092077359,
                -1.18817562300436
            ]
        },
        {
            "positions": [
                -2.57839269508993,
                -1.8749586021211575,
                2.5332515757418648,
                -0.5217993377687757,
                0.3453444439961193,
                -1.3653711719137784
            ]
        },
        {
            "positions": [
                -2.567839523427475,
                -1.8038228627613075,
                2.481288704586456,
                -0.5550950588315399,
                0.3787897959148796,
                -1.5425667208231968
            ]
        },
        {
            "positions": [
                -2.5572863517650193,
                -1.7326871234014578,
                2.429325833431047,
                -0.5883907798943041,
                0.41223514783363985,
                -1.7197622697326151
            ]
        },
        {
            "positions": [
                -2.546733180102564,
                -1.661551384041608,
                2.377362962275638,
                -0.6216865009570683,
                0.4456804997524002,
                -1.8969578186420335
            ]
        },
        {
            "positions": [
                -2.536180008440109,
                -1.5904156446817581,
                2.3254000911202293,
                -0.6549822220198325,
                0.47912585167116045,
                -2.074153367551452
            ]
        },
        {
            "positions": [
                -2.5256268367776538,
                -1.5192799053219082,
                2.2734372199648205,
                -0.6882779430825967,
                0.5125712035899208,
                -2.25134891646087
            ]
        },
        {
            "positions": [
                -2.5150736651151986,
                -1.4481441659620584,
                2.2214743488094117,
                -0.721573664145361,
                0.546016555508681,
                -2.4285444653702886
            ]
        },
        {
            "positions": [
                -2.504520493452743,
                -1.3770084266022087,
                2.1695114776540025,
                -0.7548693852081252,
                0.5794619074274413,
                -2.605740014279707
            ]
        },
        {
            "positions": [
                -2.493967321790288,
                -1.3058726872423587,
                2.1175486064985938,
                -0.7881651062708894,
                0.6129072593462017,
                -2.7829355631891253
            ]
        },
        {
            "positions": [
                -2.4834141501278326,
                -1.2347369478825088,
                2.065585735343185,
                -0.8214608273336536,
                0.6463526112649619,
                -2.9601311120985434
            ]
        },
        {
            "positions": [
                -2.4728609784653774,
                -1.163601208522659,
                2.0136228641877763,
                -0.8547565483964178,
                0.6797979631837222,
                -3.137326661007962
            ]
        }
    ]
}