{
    "goal": {
        "global_pose": {
            "orientation": {
                "w": 0.7031023480610252,
                "x": -0.7110244013736278,
                "y": 0.0077485991402295624,
                "z": 0.005598929693374583
            },
            "position": {
                "x": -0.8841497679147869,
                "y": 0.44412534475326537,
                "z": 0.3711530566215515
            }
        },
        "name": "move_to_auspresseinheit_D"
    },
    "id": "PRM_move_to_auspresseinheit_D_59",
    "joint_names": [
        "shoulder_pan_joint",
        "shoulder_lift_joint",
        "elbow_joint",
        "wrist_1_joint",
        "wrist_2_joint",
        "wrist_3_joint"
    ],
    "metrics": {
        "cart_traj_len": 0.34231057435436407,
        "distance_elbow_joint": 0.6327830814308297,
        "distance_shoulder_lift_joint": 0.11874565603525111,
        "distance_shoulder_pan_joint": 0.13361012990030308,
        "distance_wrist_1_joint": 0.5163569697331774,
        "distance_wrist_2_joint": 1.4365534060272365,
        "distance_wrist_3_joint": 0.012921632772550762,
        "smoothness": 5.921189511553294e-16,
        "time": 0.034492797,
        "traj_len": 1.688481825753345,
        "weighted_distance": 2.1976634221838576
    },
    "planner": "PRM",
    "start": {
        "state": {
            "elbow_joint": -1.8275523626775212,
            "shoulder_lift_joint": -2.126789852344167,
            "shoulder_pan_joint": -0.03513704404078235,
            "wrist_1_joint": -2.347782403156801,
            "wrist_2_joint": -1.6058999987535132,
            "wrist_3_joint": -3.0880379163319196
        }
    },
    "waypoints": [
        {
            "positions": [
                -0.03513704404078235,
                -2.126789852344167,
                -1.8275523626775212,
                -2.347782403156801,
                -1.6058999987535132,
                -3.0880379163319196
            ]
        },
        {
            "positions": [
                -0.051838310278320233,
                -2.1416330593485733,
                -1.7484544774986674,
                -2.412327024373448,
                -1.4263308230001086,
                -3.0896531204284883
            ]
        },
        {
            "positions": [
                -0.06853957651585812,
                -2.1564762663529797,
                -1.6693565923198137,
                -2.476871645590095,
                -1.246761647246704,
                -3.0912683245250574
            ]
        },
        {
            "positions": [
                -0.085240842753396,
                -2.171319473357386,
                -1.59025870714096,
                -2.5414162668067424,
                -1.0671924714932994,
                -3.092883528621626
            ]
        },
        {
            "positions": [
                -0.1019421089909339,
                -2.186162680361792,
                -1.5111608219621062,
                -2.6059608880233895,
                -0.887623295739895,
                -3.094498732718195
            ]
        },
        {
            "positions": [
                -0.11864337522847176,
                -2.2010058873661986,
                -1.4320629367832525,
                -2.6705055092400367,
                -0.7080541199864904,
                -3.096113936814764
            ]
        },
        {
            "positions": [
                -0.13534464146600966,
                -2.215849094370605,
                -1.352965051604399,
                -2.735050130456684,
                -0.5284849442330859,
                -3.0977291409113326
            ]
        },
        {
            "positions": [
                -0.15204590770354753,
                -2.2306923013750115,
                -1.2738671664255452,
                -2.799594751673331,
                -0.3489157684796813,
                -3.0993443450079017
            ]
        },
        {
            "positions": [
                -0.16874717394108543,
                -2.245535508379418,
                -1.1947692812466915,
                -2.864139372889978,
                -0.16934659272627664,
                -3.1009595491044704
            ]
        }
    ]
}