{
    "goal": {
        "global_pose": {
            "orientation": {
                "w": 0.7047431468963623,
                "x": -0.7094548344612122,
                "y": 0.0024358443915843964,
                "z": -0.0022348060738295317
            },
            "position": {
                "x": 0.6094750761985779,
                "y": 0.3671506643295288,
                "z": 0.19426114857196808
            }
        },
        "name": "move_to_magneteinheit_A"
    },
    "id": "PRM_move_to_magneteinheit_A_33",
    "joint_names": [
        "shoulder_pan_joint",
        "shoulder_lift_joint",
        "elbow_joint",
        "wrist_1_joint",
        "wrist_2_joint",
        "wrist_3_joint"
    ],
    "metrics": {
        "cart_traj_len": 3.7200908039538954,
        "distance_elbow_joint": 3.8881867670561023,
        "distance_shoulder_lift_joint": 0.5686899595989876,
        "distance_shoulder_pan_joint": 3.672864149914546,
        "distance_wrist_1_joint": 2.6147704126701417,
        "distance_wrist_2_joint": 1.6936381714814717,
        "distance_wrist_3_joint": 2.63988375532732,
        "smoothness": 0.188560425555574,
        "time": 0.084002773,
        "traj_len": 3.8830443232145275,
        "weighted_distance": 4.966508764801972
    },
    "planner": "PRM",
    "start": {
        "state": {
            "elbow_joint": -1.9196185241190666,
            "shoulder_lift_joint": -1.2443396400964142,
            "shoulder_pan_joint": 2.6996025414629847,
            "wrist_1_joint": -1.5485510000780065,
            "wrist_2_joint": -1.5709468930060704,
            "wrist_3_joint": 0.4420197071253992
        }
    },
    "waypoints": [
        {
            "positions": [
                2.6996025414629847,
                -1.2443396400964142,
                -1.9196185241190666,
                -1.5485510000780065,
                -1.5709468930060704,
                0.4420197071253992
            ]
        },
        {
            "positions": [
                2.5575464696762493,
                -1.2290124818742771,
                -1.8749896767782486,
                -1.590294530663009,
                -1.515284984073844,
                0.5300236746747835
            ]
        },
        {
            "positions": [
                2.415490397889514,
                -1.2136853236521399,
                -1.8303608294374305,
                -1.6320380612480114,
                -1.459623075141618,
                0.6180276422241678
            ]
        },
        {
            "positions": [
                2.2734343261027785,
                -1.1983581654300028,
                -1.7857319820966122,
                -1.6737815918330137,
                -1.4039611662093916,
                0.7060316097735522
            ]
        },
        {
            "positions": [
                2.131378254316043,
                -1.1830310072078656,
                -1.7411031347557941,
                -1.7155251224180161,
                -1.3482992572771653,
                0.7940355773229364
            ]
        },
        {
            "positions": [
                1.9893221825293077,
                -1.1677038489857285,
                -1.696474287414976,
                -1.7572686530030186,
                -1.2926373483449392,
                0.8820395448723208
            ]
        },
        {
            "positions": [
                1.8472661107425723,
                -1.1523766907635913,
                -1.651845440074158,
                -1.799012183588021,
                -1.2369754394127128,
                0.9700435124217051
            ]
        },
        {
            "positions": [
                1.705210038955837,
                -1.1370495325414542,
                -1.60721659273334,
                -1.8407557141730235,
                -1.1813135304804865,
                1.0580474799710893
            ]
        },
        {
            "positions": [
                1.5631539671691015,
                -1.121722374319317,
                -1.5625877453925217,
                -1.882499244758026,
                -1.1256516215482604,
                1.1460514475204737
            ]
        },
        {
            "positions": [
                1.421097895382366,
                -1.10639521609718,
                -1.5179588980517036,
                -1.9242427753430285,
                -1.069989712616034,
                1.2340554150698582
            ]
        },
        {
            "positions": [
                1.2790418235956307,
                -1.091068057875043,
                -1.4733300507108855,
                -1.965986305928031,
                -1.0143278036838077,
                1.3220593826192424
            ]
        },
        {
            "positions": [
                1.1369857518088953,
                -1.0757408996529056,
                -1.4287012033700675,
                -2.0077298365130334,
                -0.9586658947515816,
                1.4100633501686266
            ]
        },
        {
            "positions": [
                0.9949296800221601,
                -1.0604137414307686,
                -1.3840723560292494,
                -2.0494733670980354,
                -0.9030039858193554,
                1.4980673177180108
            ]
        },
        {
            "positions": [
                0.8528736082354245,
                -1.0450865832086313,
                -1.339443508688431,
                -2.0912168976830383,
                -0.847342076887129,
                1.5860712852673955
            ]
        },
        {
            "positions": [
                0.7108175364486891,
                -1.0297594249864943,
                -1.2948146613476132,
                -2.1329604282680403,
                -0.7916801679549028,
                1.6740752528167797
            ]
        },
        {
            "positions": [
                0.5687614646619537,
                -1.014432266764357,
                -1.250185814006795,
                -2.174703958853043,
                -0.7360182590226766,
                1.762079220366164
            ]
        },
        {
            "positions": [
                0.42670539287521825,
                -0.99910510854222,
                -1.205556966665977,
                -2.2164474894380453,
                -0.6803563500904503,
                1.8500831879155482
            ]
        },
        {
            "positions": [
                0.28464932108848284,
                -0.9837779503200828,
                -1.1609281193251588,
                -2.2581910200230477,
                -0.6246944411582241,
                1.9380871554649328
            ]
        },
        {
            "positions": [
                0.14259324930174744,
                -0.9684507920979457,
                -1.1162992719843405,
                -2.29993455060805,
                -0.5690325322259977,
                2.026091123014317
            ]
        },
        {
            "positions": [
                0.0005371775150120328,
                -0.9531236338758085,
                -1.0716704246435227,
                -2.3416780811930527,
                -0.5133706232937716,
                2.1140950905637013
            ]
        },
        {
            "positions": [
                -0.14151889427172337,
                -0.9377964756536714,
                -1.0270415773027044,
                -2.383421611778055,
                -0.45770871436154525,
                2.2020990581130855
            ]
        },
        {
            "positions": [
                -0.2835749660584588,
                -0.9224693174315343,
                -0.9824127299618863,
                -2.4251651423630576,
                -0.4020468054293189,
                2.29010302566247
            ]
        },
        {
            "positions": [
                -0.4256310378451941,
                -0.9071421592093971,
                -0.9377838826210683,
                -2.46690867294806,
                -0.3463848964970928,
                2.3781069932118544
            ]
        },
        {
            "positions": [
                -0.39341747486834916,
                -0.9207593638395131,
                -0.7668219928823563,
                -2.367119688253937,
                -0.31879218032224027,
                2.4195067855201406
            ]
        },
        {
            "positions": [
                -0.3612039118915042,
                -0.9343765684696289,
                -0.5958601031436443,
                -2.2673307035598143,
                -0.29119946414738773,
                2.460906577828427
            ]
        },
        {
            "positions": [
                -0.3289903489146592,
                -0.9479937730997449,
                -0.4248982134049325,
                -2.1675417188656914,
                -0.2636067479725352,
                2.5023063701367128
            ]
        },
        {
            "positions": [
                -0.29677678593781426,
                -0.9616109777298608,
                -0.25393632366622054,
                -2.067752734171569,
                -0.23601403179768266,
                2.543706162444999
            ]
        },
        {
            "positions": [
                -0.2645632229609693,
                -0.9752281823599767,
                -0.0829744339275087,
                -1.967963749477446,
                -0.20842131562283012,
                2.5851059547532853
            ]
        },
        {
            "positions": [
                -0.23234965998412432,
                -0.9888453869900926,
                0.08798745581120326,
                -1.8681747647833231,
                -0.18082859944797758,
                2.6265057470615716
            ]
        },
        {
            "positions": [
                -0.20013609700727936,
                -1.0024625916202086,
                0.2589493455499152,
                -1.7683857800892002,
                -0.15323588327312507,
                2.6679055393698574
            ]
        },
        {
            "positions": [
                -0.1679225340304344,
                -1.0160797962503245,
                0.4299112352886272,
                -1.6685967953950775,
                -0.12564316709827253,
                2.7093053316781437
            ]
        },
        {
            "positions": [
                -0.13570897105358942,
                -1.0296970008804402,
                0.6008731250273389,
                -1.5688078107009547,
                -0.09805045092341999,
                2.75070512398643
            ]
        },
        {
            "positions": [
                -0.10349540807674446,
                -1.0433142055105562,
                0.7718350147660509,
                -1.469018826006832,
                -0.07045773474856742,
                2.7921049162947162
            ]
        },
        {
            "positions": [
                -0.07128184509989949,
                -1.0569314101406722,
                0.9427969045047628,
                -1.369229841312709,
                -0.042865018573714886,
                2.8335047086030025
            ]
        },
        {
            "positions": [
                -0.03906828212305452,
                -1.070548614770788,
                1.1137587942434748,
                -1.2694408566185862,
                -0.015272302398862347,
                2.8749045009112884
            ]
        },
        {
            "positions": [
                -0.006854719146209609,
                -1.084165819400904,
                1.2847206839821865,
                -1.1696518719244635,
                0.012320413775990136,
                2.9163042932195746
            ]
        },
        {
            "positions": [
                0.025358843830635414,
                -1.09778302403102,
                1.4556825737208987,
                -1.0698628872303406,
                0.039913129950842674,
                2.957704085527861
            ]
        },
        {
            "positions": [
                0.05757240680748038,
                -1.1114002286611357,
                1.6266444634596104,
                -0.9700739025362177,
                0.06750584612569521,
                2.9991038778361467
            ]
        },
        {
            "positions": [
                0.08978596978432535,
                -1.1250174332912517,
                1.7976063531983226,
                -0.870284917842095,
                0.09509856230054775,
                3.040503670144433
            ]
        },
        {
            "positions": [
                0.1219995327611703,
                -1.1386346379213677,
                1.9685682429370346,
                -0.7704959331479722,
                0.12269127847540026,
                3.0819034624527193
            ]
        }
    ]
}