{
    "goal": {
        "global_pose": {
            "orientation": {
                "w": 0.005598929693374612,
                "x": 0.007748599140229565,
                "y": 0.7110244013736278,
                "z": -0.7031023480610252
            },
            "position": {
                "x": -0.8858502320852131,
                "y": -0.7141253447532654,
                "z": 0.3711530566215515
            }
        },
        "name": "move_to_auspresseinheit_C"
    },
    "id": "PRM_move_to_auspresseinheit_C_116",
    "joint_names": [
        "shoulder_pan_joint",
        "shoulder_lift_joint",
        "elbow_joint",
        "wrist_1_joint",
        "wrist_2_joint",
        "wrist_3_joint"
    ],
    "metrics": {
        "cart_traj_len": 0.493227308331072,
        "distance_elbow_joint": 0.9943681087147596,
        "distance_shoulder_lift_joint": 0.32230912629062447,
        "distance_shoulder_pan_joint": 0.2559471431852991,
        "distance_wrist_1_joint": 0.6557319126471293,
        "distance_wrist_2_joint": 1.3158575569558661,
        "distance_wrist_3_joint": 0.049590501126060005,
        "smoothness": 8.074349282788172e-16,
        "time": 0.014993122,
        "traj_len": 1.895733195605262,
        "weighted_distance": 2.3800367267701676
    },
    "planner": "PRM",
    "start": {
        "state": {
            "elbow_joint": 1.7527959577737207,
            "shoulder_lift_joint": -0.9740617694225068,
            "shoulder_pan_joint": -2.967991417825858,
            "wrist_1_joint": -0.759517768980727,
            "wrist_2_joint": 1.7443932448377408,
            "wrist_3_joint": -3.0840537646736568
        }
    },
    "waypoints": [
        {
            "positions": [
                -2.967991417825858,
                -0.9740617694225068,
                1.7527959577737207,
                -0.759517768980727,
                1.7443932448377408,
                -3.0840537646736568
            ]
        },
        {
            "positions": [
                -2.942396703507328,
                -0.9418308567934444,
                1.6533591469022446,
                -0.693944577716014,
                1.6128074891421542,
                -3.0890128147862628
            ]
        },
        {
            "positions": [
                -2.916801989188798,
                -0.9095999441643818,
                1.5539223360307688,
                -0.6283713864513011,
                1.4812217334465676,
                -3.0939718648988688
            ]
        },
        {
            "positions": [
                -2.8912072748702684,
                -0.8773690315353194,
                1.4544855251592927,
                -0.5627981951865882,
                1.349635977750981,
                -3.0989309150114748
            ]
        },
        {
            "positions": [
                -2.8656125605517384,
                -0.845138118906257,
                1.355048714287817,
                -0.49722500392187524,
                1.2180502220553944,
                -3.1038899651240808
            ]
        },
        {
            "positions": [
                -2.8400178462332084,
                -0.8129072062771945,
                1.2556119034163409,
                -0.43165181265716235,
                1.0864644663598078,
                -3.1088490152366868
            ]
        },
        {
            "positions": [
                -2.8144231319146784,
                -0.7806762936481321,
                1.1561750925448648,
                -0.36607862139244945,
                0.9548787106642211,
                -3.1138080653492928
            ]
        },
        {
            "positions": [
                -2.7888284175961484,
                -0.7484453810190697,
                1.056738281673389,
                -0.3005054301277365,
                0.8232929549686346,
                -3.1187671154618988
            ]
        },
        {
            "positions": [
                -2.763233703277619,
                -0.7162144683900071,
                0.957301470801913,
                -0.2349322388630235,
                0.6917071992730479,
                -3.1237261655745048
            ]
        },
        {
            "positions": [
                -2.737638988959089,
                -0.6839835557609447,
                0.857864659930437,
                -0.16935904759831066,
                0.5601214435774613,
                -3.1286852156871108
            ]
        },
        {
            "positions": [
                -2.712044274640559,
                -0.6517526431318823,
                0.7584278490589611,
                -0.10378585633359766,
                0.4285356878818746,
                -3.1336442657997168
            ]
        }
    ]
}