{
    "goal": {
        "global_pose": {
            "orientation": {
                "w": 0.7047431468963623,
                "x": -0.7094548344612122,
                "y": 0.0024358443915843964,
                "z": -0.0022348060738295317
            },
            "position": {
                "x": 0.6094750761985779,
                "y": 0.3671506643295288,
                "z": 0.19426114857196808
            }
        },
        "name": "move_to_magneteinheit_A"
    },
    "id": "PRM_move_to_magneteinheit_A_114",
    "joint_names": [
        "shoulder_pan_joint",
        "shoulder_lift_joint",
        "elbow_joint",
        "wrist_1_joint",
        "wrist_2_joint",
        "wrist_3_joint"
    ],
    "metrics": {
        "cart_traj_len": 4.599275712219776,
        "distance_elbow_joint": 3.8731395109091546,
        "distance_shoulder_lift_joint": 0.9527004128908225,
        "distance_shoulder_pan_joint": 4.57733290881834,
        "distance_wrist_1_joint": 1.1426862885965914,
        "distance_wrist_2_joint": 1.6925527689254882,
        "distance_wrist_3_joint": 2.573526490677746,
        "smoothness": 0.18029093837177948,
        "time": 0.192039135,
        "traj_len": 3.8486281167213523,
        "weighted_distance": 4.774330363485094
    },
    "planner": "PRM",
    "start": {
        "state": {
            "elbow_joint": -1.9196185241190666,
            "shoulder_lift_joint": -1.2443396400964142,
            "shoulder_pan_joint": 2.6996025414629847,
            "wrist_1_joint": -1.5485510000780065,
            "wrist_2_joint": -1.5709468930060704,
            "wrist_3_joint": 0.4420197071253992
        }
    },
    "waypoints": [
        {
            "positions": [
                2.6996025414629847,
                -1.2443396400964142,
                -1.9196185241190666,
                -1.5485510000780065,
                -1.5709468930060704,
                0.4420197071253992
            ]
        },
        {
            "positions": [
                2.5113134011387084,
                -1.2162022284369869,
                -1.8204807653057171,
                -1.556474855485575,
                -1.5089375983694804,
                0.44923043109086663
            ]
        },
        {
            "positions": [
                2.3230242608144316,
                -1.1880648167775596,
                -1.7213430064923676,
                -1.5643987108931434,
                -1.4469283037328904,
                0.45644115505633404
            ]
        },
        {
            "positions": [
                2.1347351204901552,
                -1.1599274051181325,
                -1.6222052476790183,
                -1.5723225663007117,
                -1.3849190090963004,
                0.4636518790218015
            ]
        },
        {
            "positions": [
                1.9464459801658789,
                -1.1317899934587052,
                -1.5230674888656686,
                -1.5802464217082801,
                -1.3229097144597104,
                0.4708626029872689
            ]
        },
        {
            "positions": [
                1.7581568398416023,
                -1.103652581799278,
                -1.4239297300523193,
                -1.5881702771158486,
                -1.2609004198231204,
                0.47807332695273635
            ]
        },
        {
            "positions": [
                1.5698676995173257,
                -1.0755151701398507,
                -1.3247919712389697,
                -1.596094132523417,
                -1.1988911251865304,
                0.4852840509182038
            ]
        },
        {
            "positions": [
                1.3815785591930494,
                -1.0473777584804234,
                -1.2256542124256202,
                -1.6040179879309853,
                -1.1368818305499404,
                0.4924947748836712
            ]
        },
        {
            "positions": [
                1.1932894188687728,
                -1.0192403468209963,
                -1.1265164536122707,
                -1.6119418433385537,
                -1.0748725359133504,
                0.4997054988491387
            ]
        },
        {
            "positions": [
                1.0050002785444965,
                -0.991102935161569,
                -1.0273786947989212,
                -1.6198656987461222,
                -1.0128632412767604,
                0.5069162228146061
            ]
        },
        {
            "positions": [
                0.8167111382202199,
                -0.9629655235021417,
                -0.9282409359855718,
                -1.6277895541536906,
                -0.9508539466401704,
                0.5141269467800735
            ]
        },
        {
            "positions": [
                0.6284219978959431,
                -0.9348281118427144,
                -0.8291031771722221,
                -1.635713409561259,
                -0.8888446520035804,
                0.521337670745541
            ]
        },
        {
            "positions": [
                0.44013285757166676,
                -0.9066907001832871,
                -0.7299654183588729,
                -1.6436372649688273,
                -0.8268353573669904,
                0.5285483947110085
            ]
        },
        {
            "positions": [
                0.2518437172473904,
                -0.8785532885238598,
                -0.6308276595455231,
                -1.6515611203763958,
                -0.7648260627304004,
                0.5357591186764759
            ]
        },
        {
            "positions": [
                0.06355457692311406,
                -0.8504158768644328,
                -0.5316899007321738,
                -1.6594849757839643,
                -0.7028167680938104,
                0.5429698426419433
            ]
        },
        {
            "positions": [
                -0.12473456340116273,
                -0.8222784652050055,
                -0.4325521419188241,
                -1.6674088311915327,
                -0.6408074734572204,
                0.5501805666074108
            ]
        },
        {
            "positions": [
                -0.3130237037254391,
                -0.7941410535455782,
                -0.3334143831054748,
                -1.6753326865991012,
                -0.5787981788206304,
                0.5573912905728782
            ]
        },
        {
            "positions": [
                -0.5013128440497154,
                -0.7660036418861509,
                -0.23427662429212526,
                -1.6832565420066694,
                -0.5167888841840405,
                0.5646020145383456
            ]
        },
        {
            "positions": [
                -0.6896019843739918,
                -0.7378662302267237,
                -0.13513886547877574,
                -1.6911803974142379,
                -0.45477958954745046,
                0.571812738503813
            ]
        },
        {
            "positions": [
                -0.8778911246982686,
                -0.7097288185672964,
                -0.0360011066654263,
                -1.6991042528218063,
                -0.39277029491086046,
                0.5790234624692805
            ]
        },
        {
            "positions": [
                -0.825268006663685,
                -0.7317335339021229,
                0.06871058246381122,
                -1.6468867246190277,
                -0.3656978648671616,
                0.7072615011710628
            ]
        },
        {
            "positions": [
                -0.7726448886291015,
                -0.7537382492369495,
                0.17342227159304874,
                -1.5946691964162494,
                -0.3386254348234627,
                0.8354995398728452
            ]
        },
        {
            "positions": [
                -0.720021770594518,
                -0.7757429645717762,
                0.27813396072228624,
                -1.5424516682134708,
                -0.31155300477976383,
                0.9637375785746276
            ]
        },
        {
            "positions": [
                -0.6673986525599345,
                -0.7977476799066027,
                0.3828456498515238,
                -1.4902341400106922,
                -0.2844805747360649,
                1.09197561727641
            ]
        },
        {
            "positions": [
                -0.6147755345253509,
                -0.8197523952414293,
                0.48755733898076126,
                -1.4380166118079138,
                -0.25740814469236606,
                1.2202136559781924
            ]
        },
        {
            "positions": [
                -0.5621524164907674,
                -0.8417571105762558,
                0.5922690281099988,
                -1.3857990836051353,
                -0.23033571464866717,
                1.3484516946799747
            ]
        },
        {
            "positions": [
                -0.5095292984561839,
                -0.8637618259110824,
                0.6969807172392364,
                -1.3335815554023567,
                -0.2032632846049683,
                1.476689733381757
            ]
        },
        {
            "positions": [
                -0.4569061804216004,
                -0.8857665412459089,
                0.8016924063684738,
                -1.2813640271995783,
                -0.17619085456126943,
                1.6049277720835393
            ]
        },
        {
            "positions": [
                -0.4042830623870169,
                -0.9077712565807355,
                0.9064040954977114,
                -1.2291464989967997,
                -0.14911842451757054,
                1.7331658107853218
            ]
        },
        {
            "positions": [
                -0.3516599443524334,
                -0.929775971915562,
                1.011115784626949,
                -1.1769289707940214,
                -0.12204599447387166,
                1.8614038494871041
            ]
        },
        {
            "positions": [
                -0.2990368263178498,
                -0.9517806872503887,
                1.1158274737561866,
                -1.1247114425912428,
                -0.09497356443017274,
                1.9896418881888867
            ]
        },
        {
            "positions": [
                -0.24641370828326636,
                -0.9737854025852152,
                1.220539162885424,
                -1.0724939143884642,
                -0.06790113438647388,
                2.1178799268906685
            ]
        },
        {
            "positions": [
                -0.19379059024868284,
                -0.9957901179200418,
                1.3252508520146618,
                -1.0202763861856856,
                -0.04082870434277497,
                2.2461179655924512
            ]
        },
        {
            "positions": [
                -0.1411674722140993,
                -1.0177948332548683,
                1.4299625411438992,
                -0.9680588579829073,
                -0.01375627429907611,
                2.3743560042942335
            ]
        },
        {
            "positions": [
                -0.08854435417951578,
                -1.039799548589695,
                1.5346742302731369,
                -0.9158413297801287,
                0.013316155744622749,
                2.502594042996016
            ]
        },
        {
            "positions": [
                -0.035921236144932256,
                -1.0618042639245213,
                1.639385919402374,
                -0.8636238015773502,
                0.04038858578832161,
                2.630832081697798
            ]
        },
        {
            "positions": [
                0.01670188188965127,
                -1.0838089792593482,
                1.7440976085316118,
                -0.8114062733745717,
                0.06746101583202052,
                2.759070120399581
            ]
        },
        {
            "positions": [
                0.0693249999242348,
                -1.1058136945941746,
                1.8488092976608492,
                -0.7591887451717932,
                0.09453344587571938,
                2.887308159101363
            ]
        },
        {
            "positions": [
                0.12194811795881835,
                -1.1278184099290012,
                1.953520986790087,
                -0.7069712169690147,
                0.12160587591941832,
                3.0155461978031455
            ]
        }
    ]
}