{
    "goal": {
        "global_pose": {
            "orientation": {
                "w": 0.005598929693374612,
                "x": 0.007748599140229565,
                "y": 0.7110244013736278,
                "z": -0.7031023480610252
            },
            "position": {
                "x": -0.8858502320852131,
                "y": -0.7141253447532654,
                "z": 0.3711530566215515
            }
        },
        "name": "move_to_auspresseinheit_C"
    },
    "id": "PRM_move_to_auspresseinheit_C_127",
    "joint_names": [
        "shoulder_pan_joint",
        "shoulder_lift_joint",
        "elbow_joint",
        "wrist_1_joint",
        "wrist_2_joint",
        "wrist_3_joint"
    ],
    "metrics": {
        "cart_traj_len": 0.49375551586049554,
        "distance_elbow_joint": 1.0199003462118634,
        "distance_shoulder_lift_joint": 0.33462926681180993,
        "distance_shoulder_pan_joint": 0.2554003237604241,
        "distance_wrist_1_joint": 0.7161385827261271,
        "distance_wrist_2_joint": 1.31664258143458,
        "distance_wrist_3_joint": 0.09138815196349981,
        "smoothness": 4.844609600361787e-16,
        "time": 0.028730298,
        "traj_len": 1.9323817565140446,
        "weighted_distance": 2.4391918171796187
    },
    "planner": "PRM",
    "start": {
        "state": {
            "elbow_joint": 1.7527959577737207,
            "shoulder_lift_joint": -0.9740617694225068,
            "shoulder_pan_joint": -2.967991417825858,
            "wrist_1_joint": -0.759517768980727,
            "wrist_2_joint": 1.7443932448377408,
            "wrist_3_joint": -3.0840537646736568
        }
    },
    "waypoints": [
        {
            "positions": [
                -2.967991417825858,
                -0.9740617694225068,
                1.7527959577737207,
                -0.759517768980727,
                1.7443932448377408,
                -3.0840537646736568
            ]
        },
        {
            "positions": [
                -2.9424513854498153,
                -0.9405988427413258,
                1.6508059231525343,
                -0.6879039107081143,
                1.6127289866942829,
                -3.093192579870007
            ]
        },
        {
            "positions": [
                -2.916911353073773,
                -0.9071359160601448,
                1.5488158885313479,
                -0.6162900524355015,
                1.481064728550825,
                -3.102331395066357
            ]
        },
        {
            "positions": [
                -2.891371320697731,
                -0.8736729893789638,
                1.4468258539101617,
                -0.5446761941628888,
                1.349400470407367,
                -3.1114702102627065
            ]
        },
        {
            "positions": [
                -2.8658312883216883,
                -0.8402100626977828,
                1.3448358192889753,
                -0.47306233589027613,
                1.2177362122639088,
                -3.1206090254590566
            ]
        },
        {
            "positions": [
                -2.8402912559456457,
                -0.8067471360166019,
                1.242845784667789,
                -0.40144847761766345,
                1.0860719541204509,
                -3.1297478406554067
            ]
        },
        {
            "positions": [
                -2.8147512235696035,
                -0.7732842093354209,
                1.1408557500466028,
                -0.32983461934505076,
                0.9544076959769929,
                -3.1388866558517567
            ]
        },
        {
            "positions": [
                -2.7892111911935613,
                -0.7398212826542399,
                1.0388657154254162,
                -0.2582207610724381,
                0.822743437833535,
                -3.148025471048107
            ]
        },
        {
            "positions": [
                -2.7636711588175187,
                -0.7063583559730588,
                0.9368756808042299,
                -0.18660690279982528,
                0.6910791796900768,
                -3.1571642862444564
            ]
        },
        {
            "positions": [
                -2.738131126441476,
                -0.6728954292918778,
                0.8348856461830435,
                -0.1149930445272126,
                0.5594149215466189,
                -3.1663031014408065
            ]
        },
        {
            "positions": [
                -2.712591094065434,
                -0.6394325026106968,
                0.7328956115618571,
                -0.04337918625459987,
                0.4277506634031608,
                -3.1754419166371566
            ]
        }
    ]
}