{
    "goal": {
        "global_pose": {
            "orientation": {
                "w": 0.7047431468963623,
                "x": -0.7094548344612122,
                "y": 0.0024358443915843964,
                "z": -0.0022348060738295317
            },
            "position": {
                "x": 0.6094750761985779,
                "y": 0.3671506643295288,
                "z": 0.19426114857196808
            }
        },
        "name": "move_to_magneteinheit_A"
    },
    "id": "PRM_move_to_magneteinheit_A_59",
    "joint_names": [
        "shoulder_pan_joint",
        "shoulder_lift_joint",
        "elbow_joint",
        "wrist_1_joint",
        "wrist_2_joint",
        "wrist_3_joint"
    ],
    "metrics": {
        "cart_traj_len": 3.9528563345014156,
        "distance_elbow_joint": 3.8786972777781923,
        "distance_shoulder_lift_joint": 0.8572679928258433,
        "distance_shoulder_pan_joint": 4.525214032833162,
        "distance_wrist_1_joint": 0.9631875488955048,
        "distance_wrist_2_joint": 3.3724115512635224,
        "distance_wrist_3_joint": 3.6930338879483346,
        "smoothness": 0.2783485498492065,
        "time": 0.201630837,
        "traj_len": 4.158102005909013,
        "weighted_distance": 5.386230515638952
    },
    "planner": "PRM",
    "start": {
        "state": {
            "elbow_joint": -1.9196185241190666,
            "shoulder_lift_joint": -1.2443396400964142,
            "shoulder_pan_joint": 2.6996025414629847,
            "wrist_1_joint": -1.5485510000780065,
            "wrist_2_joint": -1.5709468930060704,
            "wrist_3_joint": 0.4420197071253992
        }
    },
    "waypoints": [
        {
            "positions": [
                2.6996025414629847,
                -1.2443396400964142,
                -1.9196185241190666,
                -1.5485510000780065,
                -1.5709468930060704,
                0.4420197071253992
            ]
        },
        {
            "positions": [
                2.5850475501621744,
                -1.2563476825538682,
                -1.8352421031096389,
                -1.5506262566369662,
                -1.4890438823580927,
                0.35030437334300313
            ]
        },
        {
            "positions": [
                2.4704925588613644,
                -1.2683557250113224,
                -1.750865682100211,
                -1.552701513195926,
                -1.4071408717101153,
                0.258589039560607
            ]
        },
        {
            "positions": [
                2.355937567560554,
                -1.2803637674687764,
                -1.6664892610907833,
                -1.5547767697548858,
                -1.3252378610621376,
                0.16687370577821098
            ]
        },
        {
            "positions": [
                2.241382576259744,
                -1.2923718099262307,
                -1.5821128400813556,
                -1.5568520263138457,
                -1.24333485041416,
                0.07515837199581488
            ]
        },
        {
            "positions": [
                2.1268275849589338,
                -1.3043798523836847,
                -1.4977364190719278,
                -1.5589272828728054,
                -1.1614318397661825,
                -0.01655696178658117
            ]
        },
        {
            "positions": [
                2.012272593658124,
                -1.316387894841139,
                -1.4133599980625,
                -1.5610025394317653,
                -1.079528829118205,
                -0.10827229556897722
            ]
        },
        {
            "positions": [
                1.8977176023573135,
                -1.328395937298593,
                -1.3289835770530725,
                -1.563077795990725,
                -0.9976258184702274,
                -0.19998762935137326
            ]
        },
        {
            "positions": [
                1.7831626110565035,
                -1.3404039797560472,
                -1.2446071560436445,
                -1.5651530525496848,
                -0.9157228078222497,
                -0.2917029631337694
            ]
        },
        {
            "positions": [
                1.6686076197556932,
                -1.3524120222135012,
                -1.1602307350342167,
                -1.5672283091086445,
                -0.8338197971742721,
                -0.3834182969161656
            ]
        },
        {
            "positions": [
                1.554052628454883,
                -1.3644200646709552,
                -1.075854314024789,
                -1.5693035656676044,
                -0.7519167865262946,
                -0.4751336306985615
            ]
        },
        {
            "positions": [
                1.4394976371540729,
                -1.3764281071284095,
                -0.9914778930153612,
                -1.571378822226564,
                -0.6700137758783169,
                -0.5668489644809577
            ]
        },
        {
            "positions": [
                1.3249426458532627,
                -1.3884361495858635,
                -0.9071014720059336,
                -1.5734540787855238,
                -0.5881107652303394,
                -0.6585642982633536
            ]
        },
        {
            "positions": [
                1.2103876545524523,
                -1.4004441920433177,
                -0.8227250509965056,
                -1.5755293353444837,
                -0.5062077545823618,
                -0.7502796320457498
            ]
        },
        {
            "positions": [
                1.0958326632516424,
                -1.4124522345007717,
                -0.7383486299870781,
                -1.5776045919034434,
                -0.42430474393438433,
                -0.8419949658281457
            ]
        },
        {
            "positions": [
                0.981277671950832,
                -1.424460276958226,
                -0.6539722089776501,
                -1.5796798484624033,
                -0.34240173328640666,
                -0.9337102996105419
            ]
        },
        {
            "positions": [
                0.8667226806500221,
                -1.43646831941568,
                -0.5695957879682225,
                -1.581755105021363,
                -0.260498722638429,
                -1.025425633392938
            ]
        },
        {
            "positions": [
                0.752167689349212,
                -1.4484763618731342,
                -0.48521936695879475,
                -1.5838303615803229,
                -0.17859571199045154,
                -1.117140967175334
            ]
        },
        {
            "positions": [
                0.6376126980484016,
                -1.4604844043305882,
                -0.40084294594936676,
                -1.5859056181392825,
                -0.09669270134247387,
                -1.2088563009577302
            ]
        },
        {
            "positions": [
                0.5230577067475912,
                -1.4724924467880425,
                -0.316466524939939,
                -1.5879808746982425,
                -0.014789690694496205,
                -1.3005716347401264
            ]
        },
        {
            "positions": [
                0.4085027154467813,
                -1.4845004892454965,
                -0.23209010393051144,
                -1.5900561312572021,
                0.06711331995348124,
                -1.392286968522522
            ]
        },
        {
            "positions": [
                0.29394772414597137,
                -1.4965085317029505,
                -0.14771368292108367,
                -1.5921313878161618,
                0.1490163306014587,
                -1.4840023023049183
            ]
        },
        {
            "positions": [
                0.179392732845161,
                -1.5085165741604047,
                -0.06333726191165567,
                -1.5942066443751217,
                0.23091934124943658,
                -1.5757176360873144
            ]
        },
        {
            "positions": [
                0.06483774154435062,
                -1.520524616617859,
                0.021039159097771876,
                -1.5962819009340814,
                0.31282235189741403,
                -1.6674329698697106
            ]
        },
        {
            "positions": [
                -0.0497172497564593,
                -1.532532659075313,
                0.10541558010719942,
                -1.5983571574930413,
                0.3947253625453915,
                -1.7591483036521063
            ]
        },
        {
            "positions": [
                -0.16427224105726923,
                -1.544540701532767,
                0.18979200111662742,
                -1.600432414052001,
                0.47662837319336915,
                -1.8508636374345024
            ]
        },
        {
            "positions": [
                -0.27882723235808005,
                -1.5565487439902213,
                0.2741684221260554,
                -1.6025076706109609,
                0.5585313838413468,
                -1.9425789712168986
            ]
        },
        {
            "positions": [
                -0.39338222365889,
                -1.5685567864476753,
                0.35854484313548296,
                -1.6045829271699206,
                0.6404343944893245,
                -2.0342943049992948
            ]
        },
        {
            "positions": [
                -0.5079372149596999,
                -1.5805648289051293,
                0.4429212641449105,
                -1.6066581837288805,
                0.7223374051373017,
                -2.1260096387816905
            ]
        },
        {
            "positions": [
                -0.6224922062605098,
                -1.5925728713625835,
                0.5272976851543385,
                -1.6087334402878402,
                0.8042404157852794,
                -2.2177249725640866
            ]
        },
        {
            "positions": [
                -0.7370471975613206,
                -1.6045809138200378,
                0.6116741061637665,
                -1.6108086968468,
                0.886143426433257,
                -2.309440306346483
            ]
        },
        {
            "positions": [
                -0.8516021888621308,
                -1.6165889562774918,
                0.6960505271731938,
                -1.6128839534057597,
                0.9680464370812346,
                -2.401155640128879
            ]
        },
        {
            "positions": [
                -0.7820300958258416,
                -1.5819447650885798,
                0.786266829065046,
                -1.5486800537223488,
                0.9085165641400763,
                -2.461859821607026
            ]
        },
        {
            "positions": [
                -0.7124580027895524,
                -1.5473005738996681,
                0.8764831309568982,
                -1.4844761540389382,
                0.8489866911989179,
                -2.5225640030851726
            ]
        },
        {
            "positions": [
                -0.6428859097532631,
                -1.5126563827107562,
                0.9666994328487504,
                -1.4202722543555273,
                0.7894568182577596,
                -2.5832681845633196
            ]
        },
        {
            "positions": [
                -0.573313816716974,
                -1.4780121915218445,
                1.0569157347406026,
                -1.3560683546721164,
                0.7299269453166013,
                -2.6439723660414667
            ]
        },
        {
            "positions": [
                -0.5037417236806847,
                -1.4433680003329326,
                1.1471320366324549,
                -1.2918644549887057,
                0.6703970723754429,
                -2.7046765475196133
            ]
        },
        {
            "positions": [
                -0.4341696306443955,
                -1.4087238091440208,
                1.237348338524307,
                -1.2276605553052948,
                0.6108671994342847,
                -2.7653807289977603
            ]
        },
        {
            "positions": [
                -0.36459753760810626,
                -1.374079617955109,
                1.3275646404161592,
                -1.163456655621884,
                0.5513373264931263,
                -2.826084910475907
            ]
        },
        {
            "positions": [
                -0.2950254445718171,
                -1.339435426766197,
                1.4177809423080112,
                -1.099252755938473,
                0.491807453551968,
                -2.886789091954054
            ]
        },
        {
            "positions": [
                -0.2254533515355278,
                -1.3047912355772853,
                1.5079972441998635,
                -1.0350488562550622,
                0.43227758061080956,
                -2.947493273432201
            ]
        },
        {
            "positions": [
                -0.15588125849923862,
                -1.2701470443883733,
                1.5982135460917157,
                -0.9708449565716515,
                0.37274770766965126,
                -3.0081974549103476
            ]
        },
        {
            "positions": [
                -0.08630916546294942,
                -1.2355028531994616,
                1.688429847983568,
                -0.9066410568882406,
                0.31321783472849296,
                -3.0689016363884947
            ]
        },
        {
            "positions": [
                -0.016737072426660227,
                -1.2008586620105497,
                1.77864614987542,
                -0.8424371572048298,
                0.25368796178733466,
                -3.1296058178666417
            ]
        },
        {
            "positions": [
                0.05283502060962908,
                -1.1662144708216378,
                1.8688624517672723,
                -0.7782332575214189,
                0.19415808884617625,
                -3.1903099993447883
            ]
        },
        {
            "positions": [
                0.12240711364591826,
                -1.131570279632726,
                1.9590787536591245,
                -0.7140293578380081,
                0.134628215905018,
                -3.2510141808229354
            ]
        }
    ]
}