{
    "goal": {
        "global_pose": {
            "orientation": {
                "w": 0.7047431493862688,
                "x": -0.7094548369677653,
                "y": 0.0024358444001904,
                "z": -0.0022348060817251984
            },
            "position": {
                "x": -0.39052492380142206,
                "y": 0.3671506643295288,
                "z": 0.19426114857196808
            }
        },
        "name": "move_to_magneteinheit_D"
    },
    "id": "PRM_move_to_magneteinheit_D_64",
    "joint_names": [
        "shoulder_pan_joint",
        "shoulder_lift_joint",
        "elbow_joint",
        "wrist_1_joint",
        "wrist_2_joint",
        "wrist_3_joint"
    ],
    "metrics": {
        "cart_traj_len": 8.123742979973693,
        "distance_elbow_joint": 6.973844487171515,
        "distance_shoulder_lift_joint": 2.383035360657412,
        "distance_shoulder_pan_joint": 8.262636923425992,
        "distance_wrist_1_joint": 9.763746687213294,
        "distance_wrist_2_joint": 3.7606972060627726,
        "distance_wrist_3_joint": 5.943400039431117,
        "smoothness": 0.5894093836279523,
        "time": 0.270596689,
        "traj_len": 6.089939302157462,
        "weighted_distance": 7.905605901896477
    },
    "planner": "PRM",
    "start": {
        "state": {
            "elbow_joint": 0.749534889911806,
            "shoulder_lift_joint": -0.6476975780787326,
            "shoulder_pan_joint": -2.711696901376241,
            "wrist_1_joint": -0.07506478083263063,
            "wrist_2_joint": 0.43296659715538205,
            "wrist_3_joint": -3.14703540197715
        }
    },
    "waypoints": [
        {
            "positions": [
                -2.711696901376241,
                -0.6476975780787326,
                0.749534889911806,
                -0.07506478083263063,
                0.43296659715538205,
                -3.14703540197715
            ]
        },
        {
            "positions": [
                -2.708485966037292,
                -0.6131429940101936,
                0.6550347342095191,
                0.08656458576893733,
                0.41501209575824827,
                -3.0781567420087153
            ]
        },
        {
            "positions": [
                -2.705275030698343,
                -0.5785884099416545,
                0.5605345785072323,
                0.2481939523705053,
                0.39705759436111443,
                -3.0092780820402805
            ]
        },
        {
            "positions": [
                -2.7020640953593933,
                -0.5440338258731154,
                0.46603442280494545,
                0.4098233189720733,
                0.3791030929639806,
                -2.940399422071846
            ]
        },
        {
            "positions": [
                -2.698853160020444,
                -0.5094792418045764,
                0.37153426710265863,
                0.5714526855736413,
                0.3611485915668468,
                -2.8715207621034113
            ]
        },
        {
            "positions": [
                -2.695642224681495,
                -0.4749246577360373,
                0.27703411140037176,
                0.7330820521752093,
                0.34319409016971303,
                -2.8026421021349766
            ]
        },
        {
            "positions": [
                -2.692431289342546,
                -0.44037007366749825,
                0.18253395569808495,
                0.8947114187767773,
                0.3252395887725792,
                -2.7337634421665418
            ]
        },
        {
            "positions": [
                -2.5977472755631377,
                -0.48982610085190287,
                0.09532929392870133,
                0.8757316569875209,
                0.34497609854648414,
                -2.6084201941439646
            ]
        },
        {
            "positions": [
                -2.503063261783729,
                -0.5392821280363075,
                0.008124632159317718,
                0.8567518951982644,
                0.3647126083203891,
                -2.483076946121387
            ]
        },
        {
            "positions": [
                -2.4083792480043207,
                -0.588738155220712,
                -0.07908002961006588,
                0.837772133409008,
                0.38444911809429405,
                -2.3577336980988095
            ]
        },
        {
            "positions": [
                -2.313695234224912,
                -0.6381941824051166,
                -0.1662846913794495,
                0.8187923716197517,
                0.404185627868199,
                -2.2323904500762324
            ]
        },
        {
            "positions": [
                -2.2190112204455037,
                -0.6876502095895212,
                -0.2534893531488331,
                0.7998126098304953,
                0.42392213764210396,
                -2.1070472020536553
            ]
        },
        {
            "positions": [
                -2.124327206666095,
                -0.7371062367739258,
                -0.3406940149182167,
                0.7808328480412389,
                0.44365864741600886,
                -1.9817039540310777
            ]
        },
        {
            "positions": [
                -2.0296431928866867,
                -0.7865622639583304,
                -0.4278986766876003,
                0.7618530862519824,
                0.4633951571899138,
                -1.8563607060085003
            ]
        },
        {
            "positions": [
                -1.9349591791072782,
                -0.836018291142735,
                -0.515103338456984,
                0.742873324462726,
                0.48313166696381876,
                -1.731017457985923
            ]
        },
        {
            "positions": [
                -1.8402751653278697,
                -0.8854743183271396,
                -0.6023080002263675,
                0.7238935626734696,
                0.5028681767377237,
                -1.6056742099633456
            ]
        },
        {
            "positions": [
                -1.7455911515484612,
                -0.9349303455115442,
                -0.6895126619957511,
                0.7049138008842133,
                0.5226046865116287,
                -1.4803309619407683
            ]
        },
        {
            "positions": [
                -1.6509071377690527,
                -0.9843863726959489,
                -0.7767173237651349,
                0.6859340390949569,
                0.5423411962855336,
                -1.3549877139181907
            ]
        },
        {
            "positions": [
                -1.5562231239896442,
                -1.0338423998803534,
                -0.8639219855345184,
                0.6669542773057004,
                0.5620777060594385,
                -1.2296444658956136
            ]
        },
        {
            "positions": [
                -1.4615391102102357,
                -1.083298427064758,
                -0.9511266473039022,
                0.647974515516444,
                0.5818142158333435,
                -1.104301217873036
            ]
        },
        {
            "positions": [
                -1.3668550964308275,
                -1.1327544542491625,
                -1.0383313090732855,
                0.6289947537271876,
                0.6015507256072484,
                -0.9789579698504589
            ]
        },
        {
            "positions": [
                -1.2721710826514188,
                -1.1822104814335672,
                -1.1255359708426693,
                0.6100149919379312,
                0.6212872353811534,
                -0.8536147218278813
            ]
        },
        {
            "positions": [
                -1.1774870688720105,
                -1.2316665086179719,
                -1.212740632612053,
                0.5910352301486748,
                0.6410237451550583,
                -0.7282714738053042
            ]
        },
        {
            "positions": [
                -1.082803055092602,
                -1.2811225358023766,
                -1.2999452943814365,
                0.5720554683594183,
                0.6607602549289633,
                -0.6029282257827266
            ]
        },
        {
            "positions": [
                -0.9881190413131935,
                -1.330578562986781,
                -1.38714995615082,
                0.5530757065701619,
                0.6804967647028682,
                -0.4775849777601495
            ]
        },
        {
            "positions": [
                -0.893435027533785,
                -1.3800345901711855,
                -1.4743546179202038,
                0.5340959447809055,
                0.7002332744767732,
                -0.35224172973757195
            ]
        },
        {
            "positions": [
                -0.7987510137543765,
                -1.4294906173555901,
                -1.5615592796895872,
                0.5151161829916492,
                0.7199697842506781,
                -0.22689848171499483
            ]
        },
        {
            "positions": [
                -0.704066999974968,
                -1.4789466445399948,
                -1.648763941458971,
                0.49613642120239276,
                0.7397062940245831,
                -0.10155523369241742
            ]
        },
        {
            "positions": [
                -0.5982356753889291,
                -1.4974957506435065,
                -1.5889000675756855,
                0.3799211476760951,
                0.6842497093401266,
                -0.13788668117163042
            ]
        },
        {
            "positions": [
                -0.49240435080289,
                -1.5160448567470182,
                -1.5290361936923997,
                0.26370587414979735,
                0.62879312465567,
                -0.1742181286508434
            ]
        },
        {
            "positions": [
                -0.386573026216851,
                -1.5345939628505298,
                -1.4691723198091142,
                0.1474906006234996,
                0.5733365399712136,
                -0.21054957613005643
            ]
        },
        {
            "positions": [
                -0.280741701630812,
                -1.5531430689540415,
                -1.4093084459258285,
                0.03127532709720193,
                0.517879955286757,
                -0.24688102360926942
            ]
        },
        {
            "positions": [
                -0.17491037704477308,
                -1.5716921750575532,
                -1.349444572042543,
                -0.08493994642909575,
                0.46242337060230054,
                -0.2832124710884824
            ]
        },
        {
            "positions": [
                -0.06907905245873402,
                -1.590241281161065,
                -1.2895806981592575,
                -0.20115521995539354,
                0.406966785917844,
                -0.31954391856769543
            ]
        },
        {
            "positions": [
                0.03675227212730503,
                -1.6087903872645768,
                -1.2297168242759717,
                -0.3173704934816912,
                0.3515102012333875,
                -0.3558753660469084
            ]
        },
        {
            "positions": [
                0.14258359671334397,
                -1.6273394933680883,
                -1.1698529503926862,
                -0.4335857670079889,
                0.296053616548931,
                -0.3922068135261214
            ]
        },
        {
            "positions": [
                0.24841492129938292,
                -1.6458885994716002,
                -1.1099890765094007,
                -0.5498010405342867,
                0.24059703186447445,
                -0.42853826100533443
            ]
        },
        {
            "positions": [
                0.35424624588542186,
                -1.6644377055751118,
                -1.050125202626115,
                -0.6660163140605843,
                0.185140447180018,
                -0.4648697084845474
            ]
        },
        {
            "positions": [
                0.46007757047146103,
                -1.6829868116786235,
                -0.9902613287428295,
                -0.782231587586882,
                0.1296838624955614,
                -0.5012011559637604
            ]
        },
        {
            "positions": [
                0.5659088950575,
                -1.7015359177821352,
                -0.9303974548595438,
                -0.8984468611131798,
                0.07422727781110494,
                -0.5375326034429735
            ]
        },
        {
            "positions": [
                0.6717402196435389,
                -1.7200850238856469,
                -0.8705335809762582,
                -1.0146621346394773,
                0.018770693126648363,
                -0.5738640509221864
            ]
        },
        {
            "positions": [
                0.7775715442295781,
                -1.7386341299891586,
                -0.8106697070929727,
                -1.1308774081657753,
                -0.036685891557808104,
                -0.6101954984013993
            ]
        },
        {
            "positions": [
                0.883402868815617,
                -1.7571832360926702,
                -0.7508058332096871,
                -1.2470926816920729,
                -0.09214247624226468,
                -0.6465269458806124
            ]
        },
        {
            "positions": [
                0.989234193401656,
                -1.775732342196182,
                -0.6909419593264015,
                -1.3633079552183704,
                -0.14759906092672115,
                -0.6828583933598253
            ]
        },
        {
            "positions": [
                1.095065517987695,
                -1.7942814482996936,
                -0.6310780854431159,
                -1.4795232287446685,
                -0.20305564561117762,
                -0.7191898408390385
            ]
        },
        {
            "positions": [
                1.2008968425737339,
                -1.8128305544032053,
                -0.5712142115598302,
                -1.595738502270966,
                -0.2585122302956342,
                -0.7555212883182514
            ]
        },
        {
            "positions": [
                1.306728167159773,
                -1.831379660506717,
                -0.5113503376765447,
                -1.7119537757972636,
                -0.31396881498009077,
                -0.7918527357974643
            ]
        },
        {
            "positions": [
                1.4125594917458117,
                -1.8499287666102286,
                -0.45148646379325896,
                -1.8281690493235612,
                -0.3694253996645471,
                -0.8281841832766774
            ]
        },
        {
            "positions": [
                1.518390816331851,
                -1.8684778727137403,
                -0.39162258990997345,
                -1.9443843228498592,
                -0.4248819843490037,
                -0.8645156307558903
            ]
        },
        {
            "positions": [
                1.62422214091789,
                -1.8870269788172522,
                -0.33175871602668794,
                -2.0605995963761568,
                -0.4803385690334603,
                -0.9008470782351035
            ]
        },
        {
            "positions": [
                1.7300534655039288,
                -1.9055760849207637,
                -0.2718948421434022,
                -2.1768148699024543,
                -0.5357951537179169,
                -0.9371785257143164
            ]
        },
        {
            "positions": [
                1.835884790089968,
                -1.9241251910242756,
                -0.2120309682601167,
                -2.2930301434287523,
                -0.5912517384023732,
                -0.9735099731935295
            ]
        },
        {
            "positions": [
                1.9417161146760071,
                -1.942674297127787,
                -0.15216709437683118,
                -2.40924541695505,
                -0.6467083230868298,
                -1.0098414206727424
            ]
        },
        {
            "positions": [
                2.047547439262046,
                -1.961223403231299,
                -0.09230322049354545,
                -2.5254606904813475,
                -0.7021649077712864,
                -1.0461728681519553
            ]
        },
        {
            "positions": [
                2.1533787638480852,
                -1.9797725093348104,
                -0.032439346610259934,
                -2.641675964007645,
                -0.7576214924557427,
                -1.0825043156311684
            ]
        },
        {
            "positions": [
                2.2592100884341244,
                -1.9983216154383223,
                0.02742452727302558,
                -2.757891237533943,
                -0.8130780771401993,
                -1.1188357631103814
            ]
        },
        {
            "positions": [
                2.3650414130201627,
                -2.016870721541834,
                0.08728840115631131,
                -2.8741065110602406,
                -0.8685346618246559,
                -1.1551672105895945
            ]
        },
        {
            "positions": [
                2.470872737606202,
                -2.0354198276453457,
                0.14715227503959682,
                -2.990321784586538,
                -0.9239912465091125,
                -1.1914986580688074
            ]
        },
        {
            "positions": [
                2.576704062192241,
                -2.053968933748857,
                0.20701614892288256,
                -3.106537058112836,
                -0.9794478311935688,
                -1.2278301055480205
            ]
        },
        {
            "positions": [
                2.68253538677828,
                -2.072518039852369,
                0.26688002280616807,
                -3.2227523316391338,
                -1.0349044158780254,
                -1.2641615530272334
            ]
        },
        {
            "positions": [
                2.6015339282285725,
                -2.0672248809059255,
                0.18991632488834978,
                -3.091359732518034,
                -0.9932556492341564,
                -1.2160803263216429
            ]
        },
        {
            "positions": [
                2.520532469678865,
                -2.061931721959482,
                0.11295262697053149,
                -2.959967133396934,
                -0.9516068825902876,
                -1.1679990996160523
            ]
        },
        {
            "positions": [
                2.4395310111291577,
                -2.0566385630130384,
                0.0359889290527132,
                -2.828574534275834,
                -0.9099581159464186,
                -1.1199178729104617
            ]
        },
        {
            "positions": [
                2.35852955257945,
                -2.051345404066595,
                -0.04097476886510509,
                -2.697181935154734,
                -0.8683093493025497,
                -1.0718366462048712
            ]
        },
        {
            "positions": [
                2.2775280940297424,
                -2.0460522451201513,
                -0.11793846678292341,
                -2.5657893360336343,
                -0.8266605826586808,
                -1.0237554194992808
            ]
        },
        {
            "positions": [
                2.196526635480035,
                -2.0407590861737077,
                -0.19490216470074168,
                -2.4343967369125346,
                -0.7850118160148118,
                -0.9756741927936903
            ]
        },
        {
            "positions": [
                2.115525176930327,
                -2.035465927227264,
                -0.27186586261855994,
                -2.3030041377914348,
                -0.7433630493709429,
                -0.9275929660880997
            ]
        },
        {
            "positions": [
                2.03452371838062,
                -2.0301727682808206,
                -0.34882956053637826,
                -2.1716115386703345,
                -0.7017142827270739,
                -0.8795117393825092
            ]
        },
        {
            "positions": [
                1.9535222598309123,
                -2.024879609334377,
                -0.4257932584541966,
                -2.040218939549235,
                -0.6600655160832051,
                -0.8314305126769186
            ]
        },
        {
            "positions": [
                1.8725208012812047,
                -2.0195864503879335,
                -0.5027569563720149,
                -1.908826340428135,
                -0.6184167494393361,
                -0.783349285971328
            ]
        },
        {
            "positions": [
                1.791519342731497,
                -2.01429329144149,
                -0.5797206542898331,
                -1.7774337413070351,
                -0.5767679827954673,
                -0.7352680592657376
            ]
        },
        {
            "positions": [
                1.7105178841817894,
                -2.0090001324950464,
                -0.6566843522076514,
                -1.6460411421859353,
                -0.5351192161515983,
                -0.687186832560147
            ]
        },
        {
            "positions": [
                1.629516425632082,
                -2.003706973548603,
                -0.7336480501254696,
                -1.5146485430648353,
                -0.49347044950772934,
                -0.6391056058545564
            ]
        },
        {
            "positions": [
                1.5485149670823743,
                -1.9984138146021593,
                -0.810611748043288,
                -1.3832559439437355,
                -0.4518216828638604,
                -0.591024379148966
            ]
        },
        {
            "positions": [
                1.467513508532667,
                -1.9931206556557157,
                -0.8875754459611063,
                -1.2518633448226355,
                -0.4101729162199915,
                -0.5429431524433754
            ]
        },
        {
            "positions": [
                1.3865120499829593,
                -1.9878274967092722,
                -0.9645391438789246,
                -1.1204707457015357,
                -0.36852414957612256,
                -0.49486192573778487
            ]
        },
        {
            "positions": [
                1.3055105914332517,
                -1.9825343377628286,
                -1.041502841796743,
                -0.9890781465804359,
                -0.3268753829322536,
                -0.4467806990321943
            ]
        },
        {
            "positions": [
                1.2245091328835442,
                -1.9772411788163848,
                -1.1184665397145612,
                -0.8576855474593361,
                -0.28522661628838475,
                -0.39869947232660374
            ]
        },
        {
            "positions": [
                1.1435076743338366,
                -1.9719480198699413,
                -1.1954302376323795,
                -0.7262929483382359,
                -0.2435778496445158,
                -0.3506182456210133
            ]
        },
        {
            "positions": [
                1.0625062157841292,
                -1.9666548609234977,
                -1.2723939355501979,
                -0.5949003492171361,
                -0.20192908300064683,
                -0.30253701891542273
            ]
        },
        {
            "positions": [
                0.9815047572344215,
                -1.9613617019770542,
                -1.349357633468016,
                -0.4635077500960363,
                -0.16028031635677797,
                -0.2544557922098323
            ]
        },
        {
            "positions": [
                0.9005032986847139,
                -1.9560685430306106,
                -1.4263213313858343,
                -0.3321151509749365,
                -0.11863154971290901,
                -0.2063745655042417
            ]
        },
        {
            "positions": [
                0.8195018401350065,
                -1.950775384084167,
                -1.5032850293036526,
                -0.2007225518538367,
                -0.07698278306904005,
                -0.15829333879865115
            ]
        },
        {
            "positions": [
                0.7385003815852988,
                -1.9454822251377235,
                -1.580248727221471,
                -0.0693299527327369,
                -0.0353340164251712,
                -0.11021211209306059
            ]
        },
        {
            "positions": [
                0.6574989230355914,
                -1.94018906619128,
                -1.6572124251392892,
                0.06206264638836334,
                0.006314750218697762,
                -0.062130885387470025
            ]
        },
        {
            "positions": [
                0.5764974644858838,
                -1.9348959072448364,
                -1.7341761230571073,
                0.19345524550946314,
                0.047963516862566724,
                -0.014049658681879462
            ]
        },
        {
            "positions": [
                0.49549600593617615,
                -1.9296027482983928,
                -1.8111398209749257,
                0.32484784463056293,
                0.08961228350643569,
                0.0340315680237111
            ]
        },
        {
            "positions": [
                0.4144945473864685,
                -1.9243095893519493,
                -1.888103518892744,
                0.4562404437516627,
                0.13126105015030465,
                0.08211279472930144
            ]
        },
        {
            "positions": [
                0.3334930888367609,
                -1.9190164304055057,
                -1.9650672168105623,
                0.5876330428727625,
                0.1729098167941734,
                0.130194021434892
            ]
        },
        {
            "positions": [
                0.2524916302870537,
                -1.9137232714590622,
                -2.0420309147283806,
                0.7190256419938628,
                0.21455858343804235,
                0.17827524814048257
            ]
        },
        {
            "positions": [
                0.17149017173734604,
                -1.9084301125126186,
                -2.118994612646199,
                0.8504182411149621,
                0.2562073500819113,
                0.22635647484607313
            ]
        },
        {
            "positions": [
                0.09048871318763832,
                -1.903136953566175,
                -2.1959583105640172,
                0.9818108402360626,
                0.2978561167257802,
                0.2744377015516637
            ]
        },
        {
            "positions": [
                0.05409496110674366,
                -1.9769015622163164,
                -2.237001554190155,
                1.0803461450830232,
                0.2672236599098966,
                0.2388651345703568
            ]
        },
        {
            "positions": [
                0.017701209025849,
                -2.050666170866458,
                -2.2780447978162925,
                1.178881449929984,
                0.23659120309401305,
                0.20329256758904993
            ]
        },
        {
            "positions": [
                -0.01869254305504567,
                -2.124430779516599,
                -2.31908804144243,
                1.2774167547769446,
                0.20595874627812946,
                0.16772000060774306
            ]
        },
        {
            "positions": [
                -0.05508629513594032,
                -2.1981953881667406,
                -2.360131285068568,
                1.3759520596239052,
                0.17532628946224588,
                0.13214743362643616
            ]
        },
        {
            "positions": [
                -0.18586924849320077,
                -2.2773157573412877,
                -2.393021668729424,
                1.453754405548849,
                0.183928712120268,
                0.07772340431899728
            ]
        }
    ]
}