{
    "goal": {
        "global_pose": {
            "orientation": {
                "w": -0.00223480608172531,
                "x": 0.0024358444001904467,
                "y": 0.7094548369677653,
                "z": -0.704743149386269
            },
            "position": {
                "x": -0.37947507619857795,
                "y": -0.6371506643295288,
                "z": 0.19426114857196808
            }
        },
        "name": "move_to_magneteinheit_C"
    },
    "id": "PRM_move_to_magneteinheit_C_150",
    "joint_names": [
        "shoulder_pan_joint",
        "shoulder_lift_joint",
        "elbow_joint",
        "wrist_1_joint",
        "wrist_2_joint",
        "wrist_3_joint"
    ],
    "metrics": {
        "cart_traj_len": 1.9302543971879405,
        "distance_elbow_joint": 0.3124660559689785,
        "distance_shoulder_lift_joint": 2.129373293919239,
        "distance_shoulder_pan_joint": 2.158150713765452,
        "distance_wrist_1_joint": 7.698102702882343,
        "distance_wrist_2_joint": 6.646376931598201,
        "distance_wrist_3_joint": 5.510788387517469,
        "smoothness": 0.5378131261520005,
        "time": 0.377377792,
        "traj_len": 4.9452257871255645,
        "weighted_distance": 7.058421529999975
    },
    "planner": "PRM",
    "start": {
        "state": {
            "elbow_joint": 1.9565354010623817,
            "shoulder_lift_joint": -1.4165861575791021,
            "shoulder_pan_joint": -1.6717766225146293,
            "wrist_1_joint": -0.5286633292919765,
            "wrist_2_joint": 1.472756589071564,
            "wrist_3_joint": -3.1238370188695823
        }
    },
    "waypoints": [
        {
            "positions": [
                -1.6717766225146293,
                -1.4165861575791021,
                1.9565354010623817,
                -0.5286633292919765,
                1.472756589071564,
                -3.1238370188695823
            ]
        },
        {
            "positions": [
                -1.7166328158830921,
                -1.444991662198308,
                1.9620663713489608,
                -0.4166580602371053,
                1.3598303222231887,
                -3.040618674769577
            ]
        },
        {
            "positions": [
                -1.761489009251555,
                -1.4733971668175139,
                1.9675973416355397,
                -0.3046527911822341,
                1.2469040553748136,
                -2.957400330669571
            ]
        },
        {
            "positions": [
                -1.8063452026200175,
                -1.5018026714367199,
                1.9731283119221188,
                -0.19264752212736286,
                1.1339777885264384,
                -2.8741819865695657
            ]
        },
        {
            "positions": [
                -1.8512013959884803,
                -1.5302081760559256,
                1.9786592822086977,
                -0.08064225307249168,
                1.0210515216780633,
                -2.79096364246956
            ]
        },
        {
            "positions": [
                -1.8960575893569431,
                -1.5586136806751316,
                1.9841902524952768,
                0.03136301598237956,
                0.9081252548296881,
                -2.7077452983695545
            ]
        },
        {
            "positions": [
                -1.940913782725406,
                -1.5870191852943374,
                1.989721222781856,
                0.14336828503725074,
                0.7951989879813129,
                -2.624526954269549
            ]
        },
        {
            "positions": [
                -1.9857699760938687,
                -1.6154246899135434,
                1.9952521930684348,
                0.2553735540921219,
                0.6822727211329378,
                -2.5413086101695432
            ]
        },
        {
            "positions": [
                -2.0306261694623315,
                -1.6438301945327491,
                2.0007831633550137,
                0.3673788231469931,
                0.5693464542845627,
                -2.458090266069538
            ]
        },
        {
            "positions": [
                -2.075482362830794,
                -1.6722356991519551,
                2.006314133641593,
                0.4793840922018642,
                0.4564201874361875,
                -2.3748719219695325
            ]
        },
        {
            "positions": [
                -2.1203385561992567,
                -1.700641203771161,
                2.011845103928172,
                0.5913893612567356,
                0.34349392058781225,
                -2.2916535778695266
            ]
        },
        {
            "positions": [
                -2.1651947495677195,
                -1.7290467083903667,
                2.017376074214751,
                0.7033946303116065,
                0.23056765373943722,
                -2.2084352337695212
            ]
        },
        {
            "positions": [
                -2.2100509429361823,
                -1.7574522130095727,
                2.02290704450133,
                0.8153998993664779,
                0.11764138689106196,
                -2.125216889669516
            ]
        },
        {
            "positions": [
                -2.254907136304645,
                -1.7858577176287787,
                2.028438014787909,
                0.9274051684213491,
                0.004715120042686927,
                -2.04199854556951
            ]
        },
        {
            "positions": [
                -2.299763329673108,
                -1.8142632222479844,
                2.033968985074488,
                1.0394104374762203,
                -0.10821114680568833,
                -1.9587802014695046
            ]
        },
        {
            "positions": [
                -2.3446195230415707,
                -1.8426687268671904,
                2.0394999553610673,
                1.1514157065310915,
                -0.22113741365406336,
                -1.875561857369499
            ]
        },
        {
            "positions": [
                -2.3894757164100335,
                -1.8710742314863962,
                2.045030925647646,
                1.2634209755859627,
                -0.3340636805024386,
                -1.7923435132694934
            ]
        },
        {
            "positions": [
                -2.4343319097784963,
                -1.8994797361056022,
                2.050561895934225,
                1.3754262446408339,
                -0.4469899473508139,
                -1.709125169169488
            ]
        },
        {
            "positions": [
                -2.479188103146959,
                -1.927885240724808,
                2.056092866220804,
                1.4874315136957048,
                -0.5599162141991889,
                -1.6259068250694824
            ]
        },
        {
            "positions": [
                -2.524044296515422,
                -1.956290745344014,
                2.0616238365073833,
                1.5994367827505764,
                -0.6728424810475642,
                -1.5426884809694767
            ]
        },
        {
            "positions": [
                -2.5689004898838848,
                -1.98469624996322,
                2.0671548067939622,
                1.7114420518054476,
                -0.7857687478959394,
                -1.4594701368694711
            ]
        },
        {
            "positions": [
                -2.613756683252347,
                -2.0131017545824257,
                2.072685777080541,
                1.8234473208603188,
                -0.8986950147443142,
                -1.3762517927694657
            ]
        },
        {
            "positions": [
                -2.65861287662081,
                -2.0415072592016315,
                2.0782167473671205,
                1.9354525899151895,
                -1.0116212815926895,
                -1.2930334486694601
            ]
        },
        {
            "positions": [
                -2.7034690699892727,
                -2.069912763820837,
                2.0837477176536994,
                2.047457858970061,
                -1.1245475484410652,
                -1.2098151045694545
            ]
        },
        {
            "positions": [
                -2.7483252633577355,
                -2.0983182684400434,
                2.0892786879402783,
                2.1594631280249326,
                -1.23747381528944,
                -1.126596760469449
            ]
        },
        {
            "positions": [
                -2.7931814567261983,
                -2.126723773059249,
                2.0948096582268576,
                2.2714683970798033,
                -1.3504000821378153,
                -1.0433784163694435
            ]
        },
        {
            "positions": [
                -2.8380376500946607,
                -2.155129277678455,
                2.1003406285134365,
                2.383473666134675,
                -1.46332634898619,
                -0.9601600722694381
            ]
        },
        {
            "positions": [
                -2.882893843463124,
                -2.183534782297661,
                2.1058715988000154,
                2.4954789351895457,
                -1.5762526158345658,
                -0.8769417281694323
            ]
        },
        {
            "positions": [
                -2.9277500368315863,
                -2.211940286916867,
                2.1114025690865947,
                2.6074842042444173,
                -1.6891788826829406,
                -0.7937233840694269
            ]
        },
        {
            "positions": [
                -2.972606230200049,
                -2.2403457915360727,
                2.1169335393731736,
                2.719489473299288,
                -1.8021051495313158,
                -0.710505039969421
            ]
        },
        {
            "positions": [
                -3.017462423568512,
                -2.2687512961552785,
                2.1224645096597525,
                2.8314947423541597,
                -1.9150314163796907,
                -0.6272866958694157
            ]
        },
        {
            "positions": [
                -3.0623186169369747,
                -2.2971568007744843,
                2.1279954799463314,
                2.9435000114090304,
                -2.0279576832280664,
                -0.5440683517694098
            ]
        },
        {
            "positions": [
                -3.1071748103054375,
                -2.3255623053936905,
                2.1335264502329108,
                3.055505280463902,
                -2.140883950076441,
                -0.4608500076694044
            ]
        },
        {
            "positions": [
                -3.1520310036739003,
                -2.3539678100128962,
                2.1390574205194897,
                3.167510549518773,
                -2.2538102169248164,
                -0.37763166356939903
            ]
        },
        {
            "positions": [
                -3.1294344592536945,
                -2.314234755296715,
                2.1347259526357605,
                3.03411292204972,
                -2.156483212738089,
                -0.4697844313099752
            ]
        },
        {
            "positions": [
                -3.106837914833488,
                -2.2745017005805335,
                2.1303944847520317,
                2.9007152945806673,
                -2.0591562085513617,
                -0.5619371990505514
            ]
        },
        {
            "positions": [
                -3.0842413704132823,
                -2.2347686458643516,
                2.1260630168683026,
                2.767317667111614,
                -1.9618292043646344,
                -0.6540899667911275
            ]
        },
        {
            "positions": [
                -3.0616448259930764,
                -2.1950355911481703,
                2.1217315489845734,
                2.633920039642561,
                -1.864502200177907,
                -0.7462427345317038
            ]
        },
        {
            "positions": [
                -3.03904828157287,
                -2.155302536431989,
                2.1174000811008447,
                2.500522412173508,
                -1.76717519599118,
                -0.8383955022722799
            ]
        },
        {
            "positions": [
                -3.0164517371526642,
                -2.1155694817158075,
                2.1130686132171155,
                2.3671247847044548,
                -1.6698481918044523,
                -0.9305482700128561
            ]
        },
        {
            "positions": [
                -2.993855192732458,
                -2.0758364269996257,
                2.1087371453333867,
                2.233727157235402,
                -1.5725211876177252,
                -1.0227010377534322
            ]
        },
        {
            "positions": [
                -2.971258648312252,
                -2.0361033722834443,
                2.1044056774496576,
                2.100329529766349,
                -1.4751941834309978,
                -1.1148538054940085
            ]
        },
        {
            "positions": [
                -2.948662103892046,
                -1.996370317567263,
                2.1000742095659284,
                1.966931902297296,
                -1.3778671792442707,
                -1.2070065732345845
            ]
        },
        {
            "positions": [
                -2.92606555947184,
                -1.9566372628510815,
                2.0957427416821997,
                1.833534274828243,
                -1.2805401750575434,
                -1.2991593409751607
            ]
        },
        {
            "positions": [
                -2.903469015051634,
                -1.9169042081349,
                2.0914112737984705,
                1.70013664735919,
                -1.183213170870816,
                -1.391312108715737
            ]
        },
        {
            "positions": [
                -2.880872470631428,
                -1.8771711534187183,
                2.0870798059147413,
                1.5667390198901368,
                -1.0858861666840884,
                -1.4834648764563132
            ]
        },
        {
            "positions": [
                -2.858275926211222,
                -1.837438098702537,
                2.0827483380310126,
                1.4333413924210838,
                -0.9885591624973613,
                -1.5756176441968894
            ]
        },
        {
            "positions": [
                -2.835679381791016,
                -1.7977050439863556,
                2.0784168701472834,
                1.2999437649520307,
                -0.891232158310634,
                -1.6677704119374654
            ]
        },
        {
            "positions": [
                -2.8130828373708097,
                -1.757971989270174,
                2.074085402263554,
                1.1665461374829778,
                -0.7939051541239066,
                -1.7599231796780417
            ]
        },
        {
            "positions": [
                -2.790486292950604,
                -1.7182389345539923,
                2.0697539343798255,
                1.0331485100139246,
                -0.6965781499371793,
                -1.852075947418618
            ]
        },
        {
            "positions": [
                -2.767889748530398,
                -1.678505879837811,
                2.0654224664960963,
                0.8997508825448719,
                -0.5992511457504519,
                -1.944228715159194
            ]
        },
        {
            "positions": [
                -2.7452932041101916,
                -1.6387728251216296,
                2.0610909986123676,
                0.7663532550758188,
                -0.5019241415637248,
                -2.0363814828997704
            ]
        },
        {
            "positions": [
                -2.7226966596899858,
                -1.5990397704054482,
                2.0567595307286384,
                0.6329556276067656,
                -0.40459713737699743,
                -2.1285342506403464
            ]
        },
        {
            "positions": [
                -2.70010011526978,
                -1.5593067156892666,
                2.052428062844909,
                0.4995580001377129,
                -0.3072701331902701,
                -2.2206870183809224
            ]
        },
        {
            "positions": [
                -2.6775035708495736,
                -1.519573660973085,
                2.0480965949611805,
                0.36616037266865975,
                -0.20994312900354295,
                -2.312839786121499
            ]
        },
        {
            "positions": [
                -2.6549070264293677,
                -1.4798406062569036,
                2.0437651270774513,
                0.2327627451996066,
                -0.1126161248168156,
                -2.404992553862075
            ]
        },
        {
            "positions": [
                -2.632310482009162,
                -1.440107551540722,
                2.039433659193722,
                0.09936511773055345,
                -0.015289120630087805,
                -2.4971453216026513
            ]
        },
        {
            "positions": [
                -2.6097139375889555,
                -1.4003744968245404,
                2.0351021913099934,
                -0.034032509738499694,
                0.08203788355663955,
                -2.5892980893432274
            ]
        },
        {
            "positions": [
                -2.5871173931687497,
                -1.360641442108359,
                2.030770723426264,
                -0.16743013720755284,
                0.1793648877433669,
                -2.6814508570838034
            ]
        },
        {
            "positions": [
                -2.5645208487485434,
                -1.3209083873921776,
                2.0264392555425355,
                -0.30082776467660555,
                0.2766918919300938,
                -2.77360362482438
            ]
        },
        {
            "positions": [
                -2.5419243043283375,
                -1.281175332675996,
                2.0221077876588063,
                -0.4342253921456587,
                0.37401889611682115,
                -2.865756392564956
            ]
        },
        {
            "positions": [
                -2.5193277599081316,
                -1.2414422779598147,
                2.017776319775077,
                -0.5676230196147118,
                0.4713459003035485,
                -2.957909160305532
            ]
        },
        {
            "positions": [
                -2.4967312154879253,
                -1.201709223243633,
                2.0134448518913484,
                -0.7010206470837645,
                0.5686729044902759,
                -3.0500619280461083
            ]
        },
        {
            "positions": [
                -2.4741346710677194,
                -1.1619761685274517,
                2.009113384007619,
                -0.8344182745528174,
                0.665999908677003,
                -3.1422146957866843
            ]
        }
    ]
}