{
    "goal": {
        "global_pose": {
            "orientation": {
                "w": 0.7047431493862688,
                "x": -0.7094548369677653,
                "y": 0.0024358444001904,
                "z": -0.0022348060817251984
            },
            "position": {
                "x": -0.39052492380142206,
                "y": 0.3671506643295288,
                "z": 0.19426114857196808
            }
        },
        "name": "move_to_magneteinheit_D"
    },
    "id": "PRM_move_to_magneteinheit_D_88",
    "joint_names": [
        "shoulder_pan_joint",
        "shoulder_lift_joint",
        "elbow_joint",
        "wrist_1_joint",
        "wrist_2_joint",
        "wrist_3_joint"
    ],
    "metrics": {
        "cart_traj_len": 6.345739864605068,
        "distance_elbow_joint": 3.095555066723504,
        "distance_shoulder_lift_joint": 1.4333648095635838,
        "distance_shoulder_pan_joint": 6.22935329906171,
        "distance_wrist_1_joint": 2.235430380156198,
        "distance_wrist_2_joint": 1.637802744792354,
        "distance_wrist_3_joint": 2.3305867776542692,
        "smoothness": 0.6400505017957936,
        "time": 0.518411429,
        "traj_len": 4.118506170682718,
        "weighted_distance": 5.0494058817061545
    },
    "planner": "PRM",
    "start": {
        "state": {
            "elbow_joint": 0.749534889911806,
            "shoulder_lift_joint": -0.6476975780787326,
            "shoulder_pan_joint": -2.711696901376241,
            "wrist_1_joint": -0.07506478083263063,
            "wrist_2_joint": 0.43296659715538205,
            "wrist_3_joint": -3.14703540197715
        }
    },
    "waypoints": [
        {
            "positions": [
                -2.711696901376241,
                -0.6476975780787326,
                0.749534889911806,
                -0.07506478083263063,
                0.43296659715538205,
                -3.14703540197715
            ]
        },
        {
            "positions": [
                -2.726103948484429,
                -0.5709338505702978,
                0.6831637923094579,
                -0.051803164146500394,
                0.4063644310469683,
                -2.9618419056395386
            ]
        },
        {
            "positions": [
                -2.7263403798060404,
                -0.5493317100922364,
                0.6343630523213103,
                -0.12017318598382579,
                0.5088375505857996,
                -2.8709368155520654
            ]
        },
        {
            "positions": [
                -2.7265768111276523,
                -0.527729569614175,
                0.5855623123331628,
                -0.1885432078211512,
                0.611310670124631,
                -2.7800317254645925
            ]
        },
        {
            "positions": [
                -2.726813242449264,
                -0.5061274291361136,
                0.5367615723450152,
                -0.25691322965847657,
                0.7137837896634625,
                -2.6891266353771193
            ]
        },
        {
            "positions": [
                -2.7270496737708756,
                -0.4845252886580523,
                0.48796083235686766,
                -0.32528325149580195,
                0.8162569092022938,
                -2.598221545289646
            ]
        },
        {
            "positions": [
                -2.710546242407151,
                -0.5433255282002292,
                0.46618516695600204,
                -0.4175624214688777,
                0.8502795654100614,
                -2.4669625019683106
            ]
        },
        {
            "positions": [
                -2.6940428110434262,
                -0.602125767742406,
                0.44440950155513637,
                -0.5098415914419534,
                0.8843022216178292,
                -2.3357034586469756
            ]
        },
        {
            "positions": [
                -2.677539379679702,
                -0.6609260072845828,
                0.42263383615427075,
                -0.6021207614150292,
                0.9183248778255969,
                -2.20444441532564
            ]
        },
        {
            "positions": [
                -2.6299043412442025,
                -0.716036131900703,
                0.42159485232130023,
                -0.6547398957491395,
                0.8746026159941944,
                -2.143016043269341
            ]
        },
        {
            "positions": [
                -2.4438190968020885,
                -0.7229552273285217,
                0.363049854136716,
                -0.7018782448542975,
                0.8345574215865497,
                -2.1919733396748367
            ]
        },
        {
            "positions": [
                -2.2577338523599746,
                -0.7298743227563403,
                0.3045048559521318,
                -0.7490165939594554,
                0.794512227178905,
                -2.240930636080332
            ]
        },
        {
            "positions": [
                -2.0716486079178607,
                -0.736793418184159,
                0.24595985776754756,
                -0.7961549430646134,
                0.7544670327712603,
                -2.289887932485828
            ]
        },
        {
            "positions": [
                -1.885563363475747,
                -0.7437125136119778,
                0.18741485958296333,
                -0.8432932921697713,
                0.7144218383636156,
                -2.3388452288913233
            ]
        },
        {
            "positions": [
                -1.699478119033633,
                -0.7506316090397964,
                0.12886986139837914,
                -0.8904316412749294,
                0.6743766439559709,
                -2.387802525296819
            ]
        },
        {
            "positions": [
                -1.513392874591519,
                -0.7575507044676151,
                0.07032486321379489,
                -0.9375699903800874,
                0.6343314495483262,
                -2.4367598217023145
            ]
        },
        {
            "positions": [
                -1.3273076301494051,
                -0.7644697998954337,
                0.011779865029210634,
                -0.9847083394852454,
                0.5942862551406815,
                -2.4857171181078104
            ]
        },
        {
            "positions": [
                -1.1412223857072914,
                -0.7713888953232524,
                -0.04676513315537356,
                -1.0318466885904032,
                0.5542410607330368,
                -2.534674414513306
            ]
        },
        {
            "positions": [
                -0.9551371412651772,
                -0.778307990751071,
                -0.10531013133995781,
                -1.0789850376955612,
                0.514195866325392,
                -2.5836317109188016
            ]
        },
        {
            "positions": [
                -0.7690518968230635,
                -0.7852270861788897,
                -0.16385512952454195,
                -1.1261233868007192,
                0.47415067191774735,
                -2.6325890073242975
            ]
        },
        {
            "positions": [
                -0.5829666523809496,
                -0.7921461816067084,
                -0.2224001277091262,
                -1.1732617359058772,
                0.4341054775101026,
                -2.681546303729793
            ]
        },
        {
            "positions": [
                -0.39688140793883564,
                -0.799065277034527,
                -0.28094512589371046,
                -1.2204000850110353,
                0.39406028310245794,
                -2.7305036001352887
            ]
        },
        {
            "positions": [
                -0.21079616349672214,
                -0.8059843724623458,
                -0.3394901240782946,
                -1.2675384341161933,
                0.35401508869481324,
                -2.779460896540784
            ]
        },
        {
            "positions": [
                -0.02471091905460776,
                -0.8129034678901644,
                -0.39803512226287896,
                -1.3146767832213513,
                0.3139698942871685,
                -2.82841819294628
            ]
        },
        {
            "positions": [
                0.16137432538750618,
                -0.8198225633179831,
                -0.4565801204474631,
                -1.3618151323265093,
                0.2739246998795237,
                -2.877375489351776
            ]
        },
        {
            "positions": [
                0.3474595698296197,
                -0.8267416587458017,
                -0.5151251186320474,
                -1.408953481431667,
                0.23387950547187908,
                -2.926332785757271
            ]
        },
        {
            "positions": [
                0.5335448142717336,
                -0.8336607541736204,
                -0.5736701168166315,
                -1.4560918305368251,
                0.19383431106423443,
                -2.9752900821627666
            ]
        },
        {
            "positions": [
                0.719630058713848,
                -0.840579849601439,
                -0.6322151150012159,
                -1.5032301796419831,
                0.15378911665658968,
                -3.0242473785682624
            ]
        },
        {
            "positions": [
                0.9057153031559615,
                -0.8474989450292578,
                -0.6907601131858001,
                -1.550368528747141,
                0.11374392224894492,
                -3.0732046749737583
            ]
        },
        {
            "positions": [
                1.0918005475980754,
                -0.8544180404570765,
                -0.7493051113703841,
                -1.597506877852299,
                0.07369872784130027,
                -3.1221619713792537
            ]
        },
        {
            "positions": [
                1.2778857920401894,
                -0.8613371358848951,
                -0.8078501095549684,
                -1.644645226957457,
                0.033653533433655625,
                -3.171119267784749
            ]
        },
        {
            "positions": [
                1.4639710364823033,
                -0.8682562313127138,
                -0.8663951077395526,
                -1.691783576062615,
                -0.006391660973989244,
                -3.2200765641902453
            ]
        },
        {
            "positions": [
                1.6500562809244168,
                -0.8751753267405324,
                -0.9249401059241369,
                -1.738921925167773,
                -0.04643685538163389,
                -3.2690338605957407
            ]
        },
        {
            "positions": [
                1.5087566984650487,
                -0.9428324407451804,
                -1.0342539575308725,
                -1.7793103868946034,
                -0.05678134758917857,
                -3.2536069681634285
            ]
        },
        {
            "positions": [
                1.3674571160056805,
                -1.0104895547498283,
                -1.1435678091376078,
                -1.8196988486214338,
                -0.06712583979672325,
                -3.2381800757311163
            ]
        },
        {
            "positions": [
                1.2261575335463124,
                -1.0781466687544763,
                -1.2528816607443434,
                -1.8600873103482642,
                -0.07747033200426792,
                -3.2227531832988037
            ]
        },
        {
            "positions": [
                1.0848579510869443,
                -1.145803782759124,
                -1.3621955123510787,
                -1.9004757720750947,
                -0.08781482421181261,
                -3.2073262908664915
            ]
        },
        {
            "positions": [
                0.9435583686275761,
                -1.2134608967637721,
                -1.4715093639578143,
                -1.940864233801925,
                -0.09815931641935728,
                -3.1918993984341792
            ]
        },
        {
            "positions": [
                0.802258786168208,
                -1.2811180107684201,
                -1.5808232155645499,
                -1.9812526955287555,
                -0.10850380862690195,
                -3.176472506001867
            ]
        },
        {
            "positions": [
                0.6609592037088401,
                -1.348775124773068,
                -1.690137067171285,
                -2.0216411572555857,
                -0.11884830083444663,
                -3.1610456135695544
            ]
        },
        {
            "positions": [
                0.5196596212494717,
                -1.416432238777716,
                -1.7994509187780205,
                -2.0620296189824163,
                -0.12919279304199133,
                -3.145618721137242
            ]
        },
        {
            "positions": [
                0.3783600387901038,
                -1.4840893527823638,
                -1.9087647703847561,
                -2.1024180807092465,
                -0.13953728524953599,
                -3.13019182870493
            ]
        },
        {
            "positions": [
                0.23706045633073547,
                -1.5517464667870118,
                -2.0180786219914917,
                -2.142806542436077,
                -0.14988177745708067,
                -3.1147649362726177
            ]
        },
        {
            "positions": [
                0.09576087387136756,
                -1.6194035807916598,
                -2.127392473598227,
                -2.1831950041629073,
                -0.16022626966462533,
                -3.099338043840305
            ]
        },
        {
            "positions": [
                -0.0455387085880008,
                -1.6870606947963078,
                -2.2367063252049624,
                -2.223583465889738,
                -0.17057076187217002,
                -3.083911151407993
            ]
        },
        {
            "positions": [
                -0.18683829104736865,
                -1.7547178088009556,
                -2.346020176811698,
                -2.263971927616568,
                -0.1809152540797147,
                -3.0684842589756807
            ]
        }
    ]
}