{
    "goal": {
        "global_pose": {
            "orientation": {
                "w": 0.005598929693374612,
                "x": 0.007748599140229565,
                "y": 0.7110244013736278,
                "z": -0.7031023480610252
            },
            "position": {
                "x": 0.1141497679147869,
                "y": -0.7141253447532654,
                "z": 0.3711530566215515
            }
        },
        "name": "move_to_auspresseinheit_B"
    },
    "id": "PRM_move_to_auspresseinheit_B_75",
    "joint_names": [
        "shoulder_pan_joint",
        "shoulder_lift_joint",
        "elbow_joint",
        "wrist_1_joint",
        "wrist_2_joint",
        "wrist_3_joint"
    ],
    "metrics": {
        "cart_traj_len": 0.5649226336095963,
        "distance_elbow_joint": 0.06014375968972607,
        "distance_shoulder_lift_joint": 0.2945594728486258,
        "distance_shoulder_pan_joint": 0.5768222288037301,
        "distance_wrist_1_joint": 0.31749172062188824,
        "distance_wrist_2_joint": 0.9986231832649217,
        "distance_wrist_3_joint": 0.009771902889615713,
        "smoothness": 0.0,
        "time": 0.026561079,
        "traj_len": 1.5024687245059405,
        "weighted_distance": 1.8955397589564162
    },
    "planner": "PRM",
    "start": {
        "state": {
            "elbow_joint": 2.0193083361928714,
            "shoulder_lift_joint": -1.1220246554650708,
            "shoulder_pan_joint": -1.0952077554168747,
            "wrist_1_joint": -0.8559753972642168,
            "wrist_2_joint": 0.4759566250798843,
            "wrist_3_joint": -3.1240929996934557
        }
    },
    "waypoints": [
        {
            "positions": [
                -1.0952077554168747,
                -1.1220246554650708,
                2.0193083361928714,
                -0.8559753972642168,
                0.4759566250798843,
                -3.1240929996934557
            ]
        },
        {
            "positions": [
                -1.1913447935508297,
                -1.1711179009398418,
                2.0092843762445836,
                -0.8030601104939021,
                0.6423938222907046,
                -3.122464349211853
            ]
        },
        {
            "positions": [
                -1.2874818316847847,
                -1.2202111464146128,
                1.9992604162962961,
                -0.7501448237235874,
                0.8088310195015249,
                -3.1208356987302506
            ]
        },
        {
            "positions": [
                -1.3836188698187397,
                -1.2693043918893836,
                1.9892364563480083,
                -0.6972295369532726,
                0.9752682167123452,
                -3.119207048248648
            ]
        },
        {
            "positions": [
                -1.4797559079526947,
                -1.3183976373641546,
                1.9792124963997206,
                -0.644314250182958,
                1.1417054139231655,
                -3.117578397767045
            ]
        },
        {
            "positions": [
                -1.5758929460866498,
                -1.3674908828389256,
                1.969188536451433,
                -0.5913989634126433,
                1.3081426111339858,
                -3.1159497472854425
            ]
        },
        {
            "positions": [
                -1.6720299842206048,
                -1.4165841283136966,
                1.9591645765031453,
                -0.5384836766423285,
                1.474579808344806,
                -3.11432109680384
            ]
        }
    ]
}