{
    "goal": {
        "global_pose": {
            "orientation": {
                "w": 0.7047431468963623,
                "x": -0.7094548344612122,
                "y": 0.0024358443915843964,
                "z": -0.0022348060738295317
            },
            "position": {
                "x": 0.6094750761985779,
                "y": 0.3671506643295288,
                "z": 0.19426114857196808
            }
        },
        "name": "move_to_magneteinheit_A"
    },
    "id": "PRM_move_to_magneteinheit_A_108",
    "joint_names": [
        "shoulder_pan_joint",
        "shoulder_lift_joint",
        "elbow_joint",
        "wrist_1_joint",
        "wrist_2_joint",
        "wrist_3_joint"
    ],
    "metrics": {
        "cart_traj_len": 3.2414886288851346,
        "distance_elbow_joint": 3.89810109138333,
        "distance_shoulder_lift_joint": 1.021300823098987,
        "distance_shoulder_pan_joint": 2.778091097159976,
        "distance_wrist_1_joint": 1.095533513535776,
        "distance_wrist_2_joint": 1.6918386799466825,
        "distance_wrist_3_joint": 2.679070391207667,
        "smoothness": 0.07220530212263077,
        "time": 0.154254327,
        "traj_len": 3.6282138300177973,
        "weighted_distance": 4.616215828168156
    },
    "planner": "PRM",
    "start": {
        "state": {
            "elbow_joint": -1.9196185241190666,
            "shoulder_lift_joint": -1.2443396400964142,
            "shoulder_pan_joint": 2.6996025414629847,
            "wrist_1_joint": -1.5485510000780065,
            "wrist_2_joint": -1.5709468930060704,
            "wrist_3_joint": 0.4420197071253992
        }
    },
    "waypoints": [
        {
            "positions": [
                2.6996025414629847,
                -1.2443396400964142,
                -1.9196185241190666,
                -1.5485510000780065,
                -1.5709468930060704,
                0.4420197071253992
            ]
        },
        {
            "positions": [
                2.5831649841752333,
                -1.264363327594589,
                -1.7734766255078804,
                -1.5564466399808081,
                -1.5245214763331658,
                0.49685234089983477
            ]
        },
        {
            "positions": [
                2.466727426887482,
                -1.2843870150927634,
                -1.6273347268966942,
                -1.5643422798836097,
                -1.478096059660261,
                0.5516849746742704
            ]
        },
        {
            "positions": [
                2.3502898695997305,
                -1.3044107025909382,
                -1.4811928282855082,
                -1.5722379197864114,
                -1.4316706429873565,
                0.606517608448706
            ]
        },
        {
            "positions": [
                2.233852312311979,
                -1.324434390089113,
                -1.3350509296743218,
                -1.580133559689213,
                -1.3852452263144517,
                0.6613502422231415
            ]
        },
        {
            "positions": [
                2.117414755024228,
                -1.3444580775872874,
                -1.1889090310631358,
                -1.5880291995920146,
                -1.3388198096415471,
                0.7161828759975772
            ]
        },
        {
            "positions": [
                2.0009771977364768,
                -1.3644817650854622,
                -1.0427671324519496,
                -1.5959248394948162,
                -1.2923943929686423,
                0.7710155097720128
            ]
        },
        {
            "positions": [
                1.8845396404487251,
                -1.3845054525836369,
                -0.8966252338407634,
                -1.6038204793976178,
                -1.2459689762957376,
                0.8258481435464484
            ]
        },
        {
            "positions": [
                1.768102083160974,
                -1.4045291400818114,
                -0.7504833352295772,
                -1.6117161193004195,
                -1.199543559622833,
                0.880680777320884
            ]
        },
        {
            "positions": [
                1.6516645258732223,
                -1.4245528275799861,
                -0.604341436618391,
                -1.619611759203221,
                -1.1531181429499284,
                0.9355134110953196
            ]
        },
        {
            "positions": [
                1.5352269685854711,
                -1.4445765150781607,
                -0.4581995380072048,
                -1.6275073991060227,
                -1.1066927262770236,
                0.9903460448697552
            ]
        },
        {
            "positions": [
                1.4187894112977197,
                -1.4646002025763354,
                -0.3120576393960186,
                -1.6354030390088243,
                -1.0602673096041189,
                1.0451786786441908
            ]
        },
        {
            "positions": [
                1.3023518540099683,
                -1.4846238900745101,
                -0.16591574078483262,
                -1.6432986789116262,
                -1.0138418929312145,
                1.1000113124186264
            ]
        },
        {
            "positions": [
                1.1859142967222172,
                -1.5046475775726846,
                -0.019773842173646416,
                -1.6511943188144276,
                -0.9674164762583097,
                1.154843946193062
            ]
        },
        {
            "positions": [
                1.0694767394344655,
                -1.5246712650708594,
                0.1263680564375398,
                -1.6590899587172294,
                -0.920991059585405,
                1.2096765799674976
            ]
        },
        {
            "positions": [
                0.9530391821467141,
                -1.544694952569034,
                0.2725099550487262,
                -1.666985598620031,
                -0.8745656429125004,
                1.2645092137419331
            ]
        },
        {
            "positions": [
                0.8366016248589629,
                -1.5647186400672086,
                0.4186518536599122,
                -1.6748812385228327,
                -0.8281402262395957,
                1.3193418475163687
            ]
        },
        {
            "positions": [
                0.7201640675712118,
                -1.5847423275653834,
                0.5647937522710982,
                -1.6827768784256343,
                -0.781714809566691,
                1.3741744812908043
            ]
        },
        {
            "positions": [
                0.6037265102834599,
                -1.604766015063558,
                0.7109356508822846,
                -1.690672518328436,
                -0.7352893928937863,
                1.42900711506524
            ]
        },
        {
            "positions": [
                0.48728895299570896,
                -1.6247897025617326,
                0.8570775494934706,
                -1.6985681582312375,
                -0.6888639762208817,
                1.4838397488396757
            ]
        },
        {
            "positions": [
                0.37085139570795755,
                -1.6448133900599073,
                1.003219448104657,
                -1.7064637981340391,
                -0.642438559547977,
                1.538672382614111
            ]
        },
        {
            "positions": [
                0.25441383842020615,
                -1.664837077558082,
                1.149361346715843,
                -1.7143594380368408,
                -0.5960131428750723,
                1.593505016388547
            ]
        },
        {
            "positions": [
                0.13797628113245475,
                -1.6848607650562566,
                1.2955032453270294,
                -1.7222550779396424,
                -0.5495877262021676,
                1.6483376501629823
            ]
        },
        {
            "positions": [
                0.02153872384470322,
                -1.7048844525544313,
                1.4416451439382154,
                -1.730150717842444,
                -0.5031623095292629,
                1.703170283937418
            ]
        },
        {
            "positions": [
                0.023725383397628134,
                -1.658006753522176,
                1.4955510094915099,
                -1.6523901633080988,
                -0.44723715557826155,
                1.8274370641658302
            ]
        },
        {
            "positions": [
                0.025912042950553046,
                -1.611129054489921,
                1.5494568750448046,
                -1.5746296087737535,
                -0.3913120016272602,
                1.9517038443942423
            ]
        },
        {
            "positions": [
                0.028098702503477957,
                -1.5642513554576658,
                1.603362740598099,
                -1.4968690542394083,
                -0.33538684767625887,
                2.0759706246226544
            ]
        },
        {
            "positions": [
                0.03028536205640287,
                -1.5173736564254106,
                1.6572686061513937,
                -1.4191084997050631,
                -0.27946169372525753,
                2.2002374048510664
            ]
        },
        {
            "positions": [
                0.032472021609327786,
                -1.4704959573931555,
                1.7111744717046882,
                -1.3413479451707178,
                -0.22353653977425614,
                2.3245041850794785
            ]
        },
        {
            "positions": [
                0.034658681162252694,
                -1.4236182583609003,
                1.7650803372579826,
                -1.2635873906363726,
                -0.16761138582325485,
                2.4487709653078906
            ]
        },
        {
            "positions": [
                0.036845340715177616,
                -1.376740559328645,
                1.8189862028112773,
                -1.1858268361020272,
                -0.11168623187225346,
                2.5730377455363027
            ]
        },
        {
            "positions": [
                0.039032000268102524,
                -1.32986286029639,
                1.872892068364572,
                -1.108066281567682,
                -0.05576107792125218,
                2.697304525764715
            ]
        },
        {
            "positions": [
                0.04121865982102744,
                -1.2829851612641348,
                1.9267979339178665,
                -1.030305727033337,
                0.0001640760297492022,
                2.821571305993127
            ]
        },
        {
            "positions": [
                0.06800110767615156,
                -1.2366995881472436,
                1.944026145033332,
                -0.9589427920459265,
                0.040406646333370266,
                2.9214109034397735
            ]
        },
        {
            "positions": [
                0.09478355553127567,
                -1.1904140150303526,
                1.9612543561487974,
                -0.887579857058516,
                0.08064921663699133,
                3.0212505008864197
            ]
        },
        {
            "positions": [
                0.12156600338639979,
                -1.1441284419134614,
                1.978482567264263,
                -0.8162169220711055,
                0.12089178694061241,
                3.1210900983330663
            ]
        }
    ]
}