{
    "goal": {
        "global_pose": {
            "orientation": {
                "w": 0.5084816217422485,
                "x": -0.49083608388900757,
                "y": 0.5182115435600281,
                "z": -0.4816462993621826
            },
            "position": {
                "x": 0.5540239810943604,
                "y": 0.030875300988554955,
                "z": 0.16403168439865112
            }
        },
        "name": "move_to_storage_A"
    },
    "id": "PRM_move_to_storage_A_150",
    "joint_names": [
        "shoulder_pan_joint",
        "shoulder_lift_joint",
        "elbow_joint",
        "wrist_1_joint",
        "wrist_2_joint",
        "wrist_3_joint"
    ],
    "metrics": {
        "cart_traj_len": 0.3526041317992304,
        "distance_elbow_joint": 0.4508604455090859,
        "distance_shoulder_lift_joint": 0.2345268944408081,
        "distance_shoulder_pan_joint": 0.4601796575777418,
        "distance_wrist_1_joint": 0.2471859944514455,
        "distance_wrist_2_joint": 1.1018942907879508,
        "distance_wrist_3_joint": 0.09622241344886229,
        "smoothness": 4.440892098500626e-16,
        "time": 0.029611843,
        "traj_len": 1.6096178727312562,
        "weighted_distance": 2.032829261977753
    },
    "planner": "PRM",
    "start": {
        "state": {
            "elbow_joint": 1.971548259319323,
            "shoulder_lift_joint": -1.1394851275133948,
            "shoulder_pan_joint": 0.1228115487234821,
            "wrist_1_joint": -0.7804723859257726,
            "wrist_2_joint": 0.12958671773740124,
            "wrist_3_joint": -3.192489227718131
        }
    },
    "waypoints": [
        {
            "positions": [
                0.1228115487234821,
                -1.1394851275133948,
                1.971548259319323,
                -0.7804723859257726,
                0.12958671773740124,
                -3.192489227718131
            ]
        },
        {
            "positions": [
                0.05707159764094756,
                -1.1729889695763673,
                2.0359568943920494,
                -0.8157846708474077,
                0.2870001878499656,
                -3.178743168654008
            ]
        },
        {
            "positions": [
                -0.008668353441586979,
                -1.20649281163934,
                2.100365529464776,
                -0.8510969557690428,
                0.44441365796252996,
                -3.164997109589885
            ]
        },
        {
            "positions": [
                -0.07440830452412153,
                -1.2399966537023126,
                2.1647741645375027,
                -0.8864092406906778,
                0.6018271280750944,
                -3.1512510505257616
            ]
        },
        {
            "positions": [
                -0.14014825560665606,
                -1.2735004957652851,
                2.2291827996102294,
                -0.9217215256123129,
                0.7592405981876588,
                -3.1375049914616384
            ]
        },
        {
            "positions": [
                -0.2058882066891906,
                -1.3070043378282579,
                2.2935914346829556,
                -0.957033810533948,
                0.9166540683002232,
                -3.1237589323975152
            ]
        },
        {
            "positions": [
                -0.27162815777172516,
                -1.3405081798912304,
                2.358000069755682,
                -0.992346095455583,
                1.0740675384127876,
                -3.110012873333392
            ]
        },
        {
            "positions": [
                -0.3373681088542597,
                -1.374012021954203,
                2.422408704828409,
                -1.0276583803772181,
                1.231481008525352,
                -3.096266814269269
            ]
        }
    ]
}{
    "goal": {
        "global_pose": {
            "orientation": {
                "w": 0.5084816217422485,
                "x": -0.49083608388900757,
                "y": 0.5182115435600281,
                "z": -0.4816462993621826
            },
            "position": {
                "x": 0.5540239810943604,
                "y": 0.030875300988554955,
                "z": 0.16403168439865112
            }
        },
        "name": "move_to_storage_A"
    },
    "id": "PRM_move_to_storage_A_150",
    "joint_names": [
        "shoulder_pan_joint",
        "shoulder_lift_joint",
        "elbow_joint",
        "wrist_1_joint",
        "wrist_2_joint",
        "wrist_3_joint"
    ],
    "metrics": {
        "cart_traj_len": 0.35280281828920657,
        "distance_elbow_joint": 0.44918234270274615,
        "distance_shoulder_lift_joint": 0.23288305567379752,
        "distance_shoulder_pan_joint": 0.4582308276138582,
        "distance_wrist_1_joint": 0.24372976057139395,
        "distance_wrist_2_joint": 1.1107092622940595,
        "distance_wrist_3_joint": 0.08806145816837807,
        "smoothness": 0.0,
        "time": 0.032287452,
        "traj_len": 1.6071081814937767,
        "weighted_distance": 2.0281416731151802
    },
    "planner": "PRM",
    "start": {
        "state": {
            "elbow_joint": 1.97154746011099,
            "shoulder_lift_joint": -1.13948474672311,
            "shoulder_pan_joint": 0.12281154466712228,
            "wrist_1_joint": -0.7804688027058302,
            "wrist_2_joint": 0.12958655903071145,
            "wrist_3_joint": 3.0906928834467795
        }
    },
    "waypoints": [
        {
            "positions": [
                0.12281154466712228,
                -1.13948474672311,
                1.97154746011099,
                -0.7804688027058302,
                0.12958655903071145,
                3.0906928834467795
            ]
        },
        {
            "positions": [
                0.05734999786514254,
                -1.1727537546765097,
                2.0357163662113824,
                -0.815287339930315,
                0.2882593107870057,
                3.103273091756548
            ]
        },
        {
            "positions": [
                -0.008111548936837201,
                -1.2060227626299092,
                2.0998852723117745,
                -0.8501058771547999,
                0.44693206254329987,
                3.1158533000663162
            ]
        },
        {
            "positions": [
                -0.07357309573881694,
                -1.2392917705833089,
                2.164054178412167,
                -0.8849244143792847,
                0.6056048142995941,
                3.1284335083760846
            ]
        },
        {
            "positions": [
                -0.13903464254079667,
                -1.2725607785367086,
                2.228223084512559,
                -0.9197429516037696,
                0.7642775660558884,
                3.1410137166858525
            ]
        },
        {
            "positions": [
                -0.2044961893427764,
                -1.3058297864901083,
                2.2923919906129515,
                -0.9545614888282544,
                0.9229503178121826,
                3.153593924995621
            ]
        },
        {
            "positions": [
                -0.26995773614475616,
                -1.3390987944435078,
                2.3565608967133436,
                -0.9893800260527392,
                1.0816230695684768,
                3.166174133305389
            ]
        },
        {
            "positions": [
                -0.3354192829467359,
                -1.3723678023969075,
                2.420729802813736,
                -1.0241985632772241,
                1.240295821324771,
                3.1787543416151576
            ]
        }
    ]
}{
    "goal": {
        "global_pose": {
            "orientation": {
                "w": 0.5084816217422485,
                "x": -0.49083608388900757,
                "y": 0.5182115435600281,
                "z": -0.4816462993621826
            },
            "position": {
                "x": 0.5540239810943604,
                "y": 0.030875300988554955,
                "z": 0.16403168439865112
            }
        },
        "name": "move_to_storage_A"
    },
    "id": "PRM_move_to_storage_A_150",
    "joint_names": [
        "shoulder_pan_joint",
        "shoulder_lift_joint",
        "elbow_joint",
        "wrist_1_joint",
        "wrist_2_joint",
        "wrist_3_joint"
    ],
    "metrics": {
        "cart_traj_len": 0.35395410506803365,
        "distance_elbow_joint": 0.4479777268837042,
        "distance_shoulder_lift_joint": 0.2333444234268418,
        "distance_shoulder_pan_joint": 0.46026719615896966,
        "distance_wrist_1_joint": 0.23658509263534833,
        "distance_wrist_2_joint": 1.1108082147273926,
        "distance_wrist_3_joint": 0.09945587370961162,
        "smoothness": 9.992007159366741e-16,
        "time": 0.032694129,
        "traj_len": 1.6088624949143007,
        "weighted_distance": 2.0334068904977753
    },
    "planner": "PRM",
    "start": {
        "state": {
            "elbow_joint": 1.9715472970024885,
            "shoulder_lift_joint": -1.1394870060712896,
            "shoulder_pan_joint": 0.12281152778156021,
            "wrist_1_joint": -0.780463741449964,
            "wrist_2_joint": 0.12958659822042276,
            "wrist_3_joint": 3.090690232415272
        }
    },
    "waypoints": [
        {
            "positions": [
                0.12281152778156021,
                -1.1394870060712896,
                1.9715472970024885,
                -0.780463741449964,
                0.12958659822042276,
                3.090690232415272
            ]
        },
        {
            "positions": [
                0.05705907118742169,
                -1.1728219237036956,
                2.035544115128732,
                -0.8142616118264423,
                0.2882734860386217,
                3.104898214373788
            ]
        },
        {
            "positions": [
                -0.008693385406716825,
                -1.2061568413361015,
                2.0995409332549753,
                -0.8480594822029206,
                0.44696037385682064,
                3.1191061963323037
            ]
        },
        {
            "positions": [
                -0.07444584200085533,
                -1.2394917589685075,
                2.163537751381219,
                -0.881857352579399,
                0.6056472616750196,
                3.13331417829082
            ]
        },
        {
            "positions": [
                -0.14019829859499386,
                -1.2728266766009135,
                2.2275345695074624,
                -0.9156552229558773,
                0.7643341494932184,
                3.1475221602493355
            ]
        },
        {
            "positions": [
                -0.2059507551891324,
                -1.3061615942333196,
                2.291531387633706,
                -0.9494530933323557,
                0.9230210373114174,
                3.1617301422078516
            ]
        },
        {
            "positions": [
                -0.27170321178327084,
                -1.3394965118657254,
                2.355528205759949,
                -0.983250963708834,
                1.0817079251296164,
                3.1759381241663673
            ]
        },
        {
            "positions": [
                -0.3374556683774094,
                -1.3728314294981314,
                2.4195250238861927,
                -1.0170488340853123,
                1.2403948129478153,
                3.1901461061248835
            ]
        }
    ]
}