{
    "goal": {
        "global_pose": {
            "orientation": {
                "w": -0.00223480608172531,
                "x": 0.0024358444001904467,
                "y": 0.7094548369677653,
                "z": -0.704743149386269
            },
            "position": {
                "x": -0.37947507619857795,
                "y": -0.6371506643295288,
                "z": 0.19426114857196808
            }
        },
        "name": "move_to_magneteinheit_C"
    },
    "id": "PRM_move_to_magneteinheit_C_66",
    "joint_names": [
        "shoulder_pan_joint",
        "shoulder_lift_joint",
        "elbow_joint",
        "wrist_1_joint",
        "wrist_2_joint",
        "wrist_3_joint"
    ],
    "metrics": {
        "cart_traj_len": 1.6227709263161065,
        "distance_elbow_joint": 1.6936844093056647,
        "distance_shoulder_lift_joint": 2.7561074167699813,
        "distance_shoulder_pan_joint": 1.1105001032773816,
        "distance_wrist_1_joint": 2.9810189796980007,
        "distance_wrist_2_joint": 1.8413872536167997,
        "distance_wrist_3_joint": 10.167779032164528,
        "smoothness": 0.6514909885033406,
        "time": 1.003600682,
        "traj_len": 4.533263415557532,
        "weighted_distance": 6.760801837983139
    },
    "planner": "PRM",
    "start": {
        "state": {
            "elbow_joint": 1.9565354010623817,
            "shoulder_lift_joint": -1.4165861575791021,
            "shoulder_pan_joint": -1.6717766225146293,
            "wrist_1_joint": -0.5286633292919765,
            "wrist_2_joint": 1.472756589071564,
            "wrist_3_joint": -3.1238370188695823
        }
    },
    "waypoints": [
        {
            "positions": [
                -1.6717766225146293,
                -1.4165861575791021,
                1.9565354010623817,
                -0.5286633292919765,
                1.472756589071564,
                -3.1238370188695823
            ]
        },
        {
            "positions": [
                -1.6498107080250088,
                -1.4201008846246015,
                1.912989842777272,
                -0.41163158637160224,
                1.5262847014221905,
                -2.9889142639214357
            ]
        },
        {
            "positions": [
                -1.6278447935353886,
                -1.4236156116701006,
                1.8694442844921622,
                -0.2945998434512281,
                1.5798128137728171,
                -2.853991508973289
            ]
        },
        {
            "positions": [
                -1.605878879045768,
                -1.4271303387156,
                1.8258987262070525,
                -0.17756810053085387,
                1.6333409261234437,
                -2.7190687540251424
            ]
        },
        {
            "positions": [
                -1.5839129645561476,
                -1.4306450657610992,
                1.7823531679219429,
                -0.06053635761047971,
                1.6868690384740703,
                -2.5841459990769957
            ]
        },
        {
            "positions": [
                -1.5619470500665271,
                -1.4341597928065986,
                1.738807609636833,
                0.05649538530989451,
                1.740397150824697,
                -2.4492232441288486
            ]
        },
        {
            "positions": [
                -1.5399811355769069,
                -1.4376745198520977,
                1.6952620513517234,
                0.17352712823026872,
                1.7939252631753235,
                -2.314300489180702
            ]
        },
        {
            "positions": [
                -1.5180152210872864,
                -1.441189246897597,
                1.6517164930666137,
                0.29055887115064294,
                1.8474533755259501,
                -2.1793777342325553
            ]
        },
        {
            "positions": [
                -1.5569750700166374,
                -1.50254716399924,
                1.695401711262539,
                0.31644196770486055,
                1.8545490230323713,
                -1.9727982380862823
            ]
        },
        {
            "positions": [
                -1.5959349189459886,
                -1.563905081100883,
                1.7390869294584643,
                0.3423250642590782,
                1.8616446705387926,
                -1.7662187419400095
            ]
        },
        {
            "positions": [
                -1.6348947678753396,
                -1.625262998202526,
                1.7827721476543896,
                0.3682081608132959,
                1.8687403180452138,
                -1.5596392457937367
            ]
        },
        {
            "positions": [
                -1.6738546168046908,
                -1.686620915304169,
                1.826457365850315,
                0.3940912573675135,
                1.875835965551635,
                -1.3530597496474637
            ]
        },
        {
            "positions": [
                -1.7128144657340418,
                -1.7479788324058119,
                1.8701425840462402,
                0.4199743539217311,
                1.8829316130580562,
                -1.1464802535011906
            ]
        },
        {
            "positions": [
                -1.7517743146633928,
                -1.8093367495074548,
                1.9138278022421655,
                0.44585745047594877,
                1.8900272605644775,
                -0.9399007573549178
            ]
        },
        {
            "positions": [
                -1.790734163592744,
                -1.8706946666090978,
                1.9575130204380908,
                0.47174054703016643,
                1.8971229080708987,
                -0.7333212612086448
            ]
        },
        {
            "positions": [
                -1.829694012522095,
                -1.9320525837107407,
                2.001198238634016,
                0.49762364358438405,
                1.90421855557732,
                -0.5267417650623718
            ]
        },
        {
            "positions": [
                -1.8686538614514463,
                -1.9934105008123837,
                2.0448834568299414,
                0.5235067401386017,
                1.9113142030837411,
                -0.3201622689160988
            ]
        },
        {
            "positions": [
                -1.9076137103807973,
                -2.0547684179140266,
                2.0885686750258667,
                0.5493898366928194,
                1.9184098505901623,
                -0.11358277276982598
            ]
        },
        {
            "positions": [
                -1.9465735593101483,
                -2.11612633501567,
                2.132253893221792,
                0.575272933247037,
                1.9255054980965836,
                0.09299672337644704
            ]
        },
        {
            "positions": [
                -1.9855334082394995,
                -2.1774842521173126,
                2.1759391114177173,
                0.6011560298012546,
                1.9326011456030048,
                0.2995762195227196
            ]
        },
        {
            "positions": [
                -2.0244932571688508,
                -2.2388421692189553,
                2.2196243296136426,
                0.6270391263554722,
                1.939696793109426,
                0.5061557156689931
            ]
        },
        {
            "positions": [
                -2.0634531060982018,
                -2.3002000863205985,
                2.263309547809568,
                0.6529222229096898,
                1.9467924406158472,
                0.7127352118152657
            ]
        },
        {
            "positions": [
                -2.1024129550275528,
                -2.3615580034222416,
                2.3069947660054932,
                0.6788053194639075,
                1.9538880881222684,
                0.9193147079615387
            ]
        },
        {
            "positions": [
                -2.1413728039569038,
                -2.4229159205238844,
                2.3506799842014185,
                0.7046884160181252,
                1.9609837356286897,
                1.1258942041078117
            ]
        },
        {
            "positions": [
                -2.1803326528862548,
                -2.484273837625527,
                2.394365202397344,
                0.7305715125723428,
                1.9680793831351109,
                1.3324737002540843
            ]
        },
        {
            "positions": [
                -2.2192925018156062,
                -2.5456317547271703,
                2.438050420593269,
                0.7564546091265605,
                1.975175030641532,
                1.5390531964003578
            ]
        },
        {
            "positions": [
                -2.2582523507449572,
                -2.6069896718288135,
                2.4817356387891945,
                0.7823377056807781,
                1.9822706781479533,
                1.7456326925466303
            ]
        },
        {
            "positions": [
                -2.2972121996743082,
                -2.668347588930456,
                2.5254208569851198,
                0.8082208022349957,
                1.9893663256543745,
                1.9522121886929038
            ]
        },
        {
            "positions": [
                -2.3040407274921164,
                -2.610488127952817,
                2.505606967085451,
                0.74498484653611,
                1.9384133442299905,
                1.75637642620821
            ]
        },
        {
            "positions": [
                -2.310869255309925,
                -2.552628666975177,
                2.485793077185782,
                0.6817488908372243,
                1.8874603628056061,
                1.5605406637235162
            ]
        },
        {
            "positions": [
                -2.3176977831277332,
                -2.494769205997538,
                2.465979187286113,
                0.6185129351383386,
                1.836507381381222,
                1.3647049012388224
            ]
        },
        {
            "positions": [
                -2.3245263109455414,
                -2.436909745019898,
                2.446165297386444,
                0.555276979439453,
                1.7855543999568377,
                1.1688691387541286
            ]
        },
        {
            "positions": [
                -2.33135483876335,
                -2.379050284042259,
                2.4263514074867754,
                0.49204102374056724,
                1.7346014185324536,
                0.9730333762694349
            ]
        },
        {
            "positions": [
                -2.338183366581158,
                -2.321190823064619,
                2.4065375175871067,
                0.42880506804168156,
                1.6836484371080693,
                0.7771976137847412
            ]
        },
        {
            "positions": [
                -2.3450118943989664,
                -2.26333136208698,
                2.3867236276874375,
                0.36556911234279593,
                1.6326954556836852,
                0.5813618513000474
            ]
        },
        {
            "positions": [
                -2.351840422216775,
                -2.20547190110934,
                2.366909737787769,
                0.30233315664391014,
                1.581742474259301,
                0.38552608881535355
            ]
        },
        {
            "positions": [
                -2.358668950034583,
                -2.147612440131701,
                2.3470958478881,
                0.2390972009450245,
                1.5307894928349168,
                0.18969032633065996
            ]
        },
        {
            "positions": [
                -2.3654974778523914,
                -2.0897529791540617,
                2.327281957988431,
                0.17586124524613878,
                1.4798365114105327,
                -0.006145436154034067
            ]
        },
        {
            "positions": [
                -2.3723260056702,
                -2.031893518176422,
                2.3074680680887623,
                0.11262528954725315,
                1.4288835299861484,
                -0.20198119863872765
            ]
        },
        {
            "positions": [
                -2.379154533488008,
                -1.9740340571987824,
                2.287654178189093,
                0.04938933384836741,
                1.3779305485617641,
                -0.39781696112342146
            ]
        },
        {
            "positions": [
                -2.385983061305817,
                -1.916174596221143,
                2.2678402882894244,
                -0.013846621850518215,
                1.32697756713738,
                -0.5936527236081153
            ]
        },
        {
            "positions": [
                -2.392811589123625,
                -1.8583151352435037,
                2.2480263983897557,
                -0.07708257754940384,
                1.276024585712996,
                -0.7894884860928091
            ]
        },
        {
            "positions": [
                -2.399640116941433,
                -1.8004556742658642,
                2.2282125084900866,
                -0.14031853324828947,
                1.2250716042886118,
                -0.9853242485775024
            ]
        },
        {
            "positions": [
                -2.406468644759242,
                -1.7425962132882247,
                2.208398618590418,
                -0.20355448894717543,
                1.1741186228642273,
                -1.1811600110621967
            ]
        },
        {
            "positions": [
                -2.41329717257705,
                -1.6847367523105852,
                2.188584728690749,
                -0.26679044464606094,
                1.1231656414398432,
                -1.3769957735468905
            ]
        },
        {
            "positions": [
                -2.420125700394858,
                -1.6268772913329457,
                2.16877083879108,
                -0.3300264003449467,
                1.0722126600154591,
                -1.5728315360315839
            ]
        },
        {
            "positions": [
                -2.426954228212667,
                -1.5690178303553062,
                2.1489569488914113,
                -0.3932623560438322,
                1.021259678591075,
                -1.7686672985162777
            ]
        },
        {
            "positions": [
                -2.433782756030475,
                -1.5111583693776667,
                2.129143058991742,
                -0.45649831174271815,
                0.9703066971666907,
                -1.964503061000972
            ]
        },
        {
            "positions": [
                -2.440611283848283,
                -1.4532989084000272,
                2.1093291690920735,
                -0.5197342674416037,
                0.9193537157423064,
                -2.1603388234856653
            ]
        },
        {
            "positions": [
                -2.447439811666092,
                -1.395439447422388,
                2.0895152791924048,
                -0.5829702231404894,
                0.8684007343179223,
                -2.356174585970359
            ]
        },
        {
            "positions": [
                -2.4542683394839,
                -1.3375799864447484,
                2.0697013892927356,
                -0.6462061788393749,
                0.8174477528935382,
                -2.552010348455053
            ]
        },
        {
            "positions": [
                -2.461096867301708,
                -1.2797205254671087,
                2.049887499393067,
                -0.7094421345382609,
                0.7664947714691539,
                -2.7478461109397467
            ]
        },
        {
            "positions": [
                -2.467925395119517,
                -1.2218610644894694,
                2.0300736094933978,
                -0.7726780902371464,
                0.7155417900447696,
                -2.9436818734244405
            ]
        },
        {
            "positions": [
                -2.474753922937325,
                -1.16400160351183,
                2.010259719593729,
                -0.8359140459360321,
                0.6645888086203856,
                -3.1395176359091344
            ]
        }
    ]
}