{
    "goal": {
        "global_pose": {
            "orientation": {
                "w": 0.5084816262002911,
                "x": -0.4908360881923452,
                "y": 0.5182115481033761,
                "z": -0.48164630358495003
            },
            "position": {
                "x": 0.5540239810943604,
                "y": -0.46912469901144505,
                "z": 0.16403168439865112
            }
        },
        "name": "move_to_storage_B"
    },
    "id": "PRM_move_to_storage_B_24",
    "joint_names": [
        "shoulder_pan_joint",
        "shoulder_lift_joint",
        "elbow_joint",
        "wrist_1_joint",
        "wrist_2_joint",
        "wrist_3_joint"
    ],
    "metrics": {
        "cart_traj_len": 4.474276278547786,
        "distance_elbow_joint": 4.241395828574682,
        "distance_shoulder_lift_joint": 0.459193905826518,
        "distance_shoulder_pan_joint": 3.80244409025275,
        "distance_wrist_1_joint": 2.9844692278345963,
        "distance_wrist_2_joint": 3.0565880371788183,
        "distance_wrist_3_joint": 3.147862613733526,
        "smoothness": 0.29063381877644817,
        "time": 0.262088004,
        "traj_len": 4.206180417362158,
        "weighted_distance": 5.479848190952132
    },
    "planner": "PRM",
    "start": {
        "state": {
            "elbow_joint": 1.664937868594044,
            "shoulder_lift_joint": -0.661644460510453,
            "shoulder_pan_joint": -0.9139846352900073,
            "wrist_1_joint": 2.146753192139373,
            "wrist_2_joint": -2.2341966793290973,
            "wrist_3_joint": 0.005466555786416001
        }
    },
    "waypoints": [
        {
            "positions": [
                -0.9139846352900073,
                -0.661644460510453,
                1.664937868594044,
                2.146753192139373,
                -2.2341966793290973,
                0.005466555786416001
            ]
        },
        {
            "positions": [
                -0.8443285668828302,
                -0.6780523013697227,
                1.590105972772055,
                2.070567681467362,
                -2.1231675097673257,
                0.039105959900131985
            ]
        },
        {
            "positions": [
                -0.774672498475653,
                -0.6944601422289923,
                1.5152740769500663,
                1.994382170795351,
                -2.0121383402055537,
                0.07274536401384797
            ]
        },
        {
            "positions": [
                -0.7050164300684759,
                -0.710867983088262,
                1.4404421811280774,
                1.91819666012334,
                -1.9011091706437822,
                0.10638476812756395
            ]
        },
        {
            "positions": [
                -0.6353603616612988,
                -0.7272758239475317,
                1.3656102853060885,
                1.842011149451329,
                -1.7900800010820102,
                0.14002417224127994
            ]
        },
        {
            "positions": [
                -0.5657042932541216,
                -0.7436836648068014,
                1.2907783894840998,
                1.7658256387793179,
                -1.6790508315202386,
                0.1736635763549959
            ]
        },
        {
            "positions": [
                -0.4960482248469445,
                -0.760091505666071,
                1.215946493662111,
                1.6896401281073068,
                -1.5680216619584668,
                0.2073029804687119
            ]
        },
        {
            "positions": [
                -0.4263921564397674,
                -0.7764993465253407,
                1.1411145978401223,
                1.6134546174352957,
                -1.456992492396695,
                0.24094238458242787
            ]
        },
        {
            "positions": [
                -0.35673608803259027,
                -0.7929071873846103,
                1.0662827020181331,
                1.5372691067632847,
                -1.3459633228349233,
                0.2745817886961439
            ]
        },
        {
            "positions": [
                -0.2870800196254132,
                -0.80931502824388,
                0.9914508061961445,
                1.4610835960912736,
                -1.2349341532731515,
                0.3082211928098599
            ]
        },
        {
            "positions": [
                -0.217423951218236,
                -0.8257228691031497,
                0.9166189103741557,
                1.3848980854192625,
                -1.1239049837113797,
                0.34186059692357584
            ]
        },
        {
            "positions": [
                -0.1477678828110589,
                -0.8421307099624193,
                0.8417870145521669,
                1.3087125747472514,
                -1.0128758141496081,
                0.3755000010372918
            ]
        },
        {
            "positions": [
                -0.07811181440388171,
                -0.858538550821689,
                0.766955118730178,
                1.2325270640752404,
                -0.9018466445878364,
                0.40913940515100783
            ]
        },
        {
            "positions": [
                -0.008455745996704622,
                -0.8749463916809587,
                0.6921232229081892,
                1.1563415534032293,
                -0.7908174750260646,
                0.4427788092647238
            ]
        },
        {
            "positions": [
                0.06120032241047246,
                -0.8913542325402284,
                0.6172913270862004,
                1.0801560427312185,
                -0.6797883054642928,
                0.47641821337843976
            ]
        },
        {
            "positions": [
                0.13085639081764955,
                -0.907762073399498,
                0.5424594312642117,
                1.0039705320592074,
                -0.5687591359025213,
                0.5100576174921556
            ]
        },
        {
            "positions": [
                0.20051245922482674,
                -0.9241699142587676,
                0.4676275354422226,
                0.9277850213871961,
                -0.45772996634074925,
                0.5436970216058717
            ]
        },
        {
            "positions": [
                0.27016852763200394,
                -0.9405777551180373,
                0.3927956396202339,
                0.8515995107151852,
                -0.3467007967789777,
                0.5773364257195877
            ]
        },
        {
            "positions": [
                0.3398245960391809,
                -0.956985595977307,
                0.317963743798245,
                0.7754140000431742,
                -0.23567162721720591,
                0.6109758298333037
            ]
        },
        {
            "positions": [
                0.4094806644463581,
                -0.9733934368365766,
                0.2431318479762563,
                0.6992284893711631,
                -0.12464245765543414,
                0.6446152339470196
            ]
        },
        {
            "positions": [
                0.4791367328535353,
                -0.9898012776958464,
                0.1682999521542674,
                0.6230429786991518,
                -0.013613288093662135,
                0.6782546380607356
            ]
        },
        {
            "positions": [
                0.5487928012607125,
                -1.006209118555116,
                0.0934680563322785,
                0.546857468027141,
                0.09741588146810942,
                0.7118940421744516
            ]
        },
        {
            "positions": [
                0.6184488696678895,
                -1.0226169594143857,
                0.018636160510289823,
                0.4706719573551299,
                0.20844505102988098,
                0.7455334462881675
            ]
        },
        {
            "positions": [
                0.6881049380750667,
                -1.0390248002736553,
                -0.05619573531169908,
                0.39448644668311883,
                0.319474220591653,
                0.7791728504018836
            ]
        },
        {
            "positions": [
                0.7577610064822439,
                -1.0554326411329251,
                -0.13102763113368798,
                0.31830093601110754,
                0.43050339015342454,
                0.8128122545155996
            ]
        },
        {
            "positions": [
                0.8274170748894211,
                -1.0718404819921947,
                -0.20585952695567689,
                0.2421154253390967,
                0.5415325597151965,
                0.8464516586293156
            ]
        },
        {
            "positions": [
                0.8970731432965982,
                -1.0882483228514643,
                -0.2806914227776656,
                0.16592991466708557,
                0.6525617292769681,
                0.8800910627430315
            ]
        },
        {
            "positions": [
                0.797503827713291,
                -1.0898778250257397,
                -0.165903095917517,
                0.11574761714897006,
                0.6440702478483304,
                0.9937529680818771
            ]
        },
        {
            "positions": [
                0.6979345121299838,
                -1.091507327200015,
                -0.05111476905736842,
                0.06556531963085453,
                0.6355787664196928,
                1.1074148734207225
            ]
        },
        {
            "positions": [
                0.5983651965466767,
                -1.0931368293742902,
                0.06367355780278017,
                0.015383022112739037,
                0.6270872849910551,
                1.221076778759568
            ]
        },
        {
            "positions": [
                0.49879588096336946,
                -1.0947663315485656,
                0.17846188466292878,
                -0.0347992754053765,
                0.6185958035624175,
                1.3347386840984137
            ]
        },
        {
            "positions": [
                0.39922656538006235,
                -1.096395833722841,
                0.29325021152307734,
                -0.08498157292349201,
                0.6101043221337799,
                1.4484005894372591
            ]
        },
        {
            "positions": [
                0.29965724979675523,
                -1.0980253358971164,
                0.40803853838322596,
                -0.1351638704416075,
                0.6016128407051422,
                1.5620624947761046
            ]
        },
        {
            "positions": [
                0.20008793421344806,
                -1.0996548380713917,
                0.5228268652433745,
                -0.18534616795972303,
                0.5931213592765046,
                1.6757244001149503
            ]
        },
        {
            "positions": [
                0.10051861863014078,
                -1.101284340245667,
                0.6376151921035231,
                -0.23552846547783857,
                0.5846298778478669,
                1.7893863054537957
            ]
        },
        {
            "positions": [
                0.000949303046833716,
                -1.1029138424199423,
                0.7524035189636717,
                -0.2857107629959541,
                0.5761383964192293,
                1.9030482107926412
            ]
        },
        {
            "positions": [
                -0.09862001253647346,
                -1.1045433445942177,
                0.8671918458238204,
                -0.3358930605140696,
                0.5676469149905916,
                2.016710116131487
            ]
        },
        {
            "positions": [
                -0.19818932811978063,
                -1.106172846768493,
                0.981980172683969,
                -0.3860753580321851,
                0.559155433561954,
                2.1303720214703326
            ]
        },
        {
            "positions": [
                -0.2977586437030877,
                -1.1078023489427684,
                1.0967684995441176,
                -0.43625765555030055,
                0.5506639521333163,
                2.244033926809178
            ]
        },
        {
            "positions": [
                -0.39732795928639497,
                -1.1094318511170436,
                1.2115568264042662,
                -0.4864399530684162,
                0.5421724707046787,
                2.3576958321480235
            ]
        },
        {
            "positions": [
                -0.49689727486970203,
                -1.111061353291319,
                1.3263451532644146,
                -0.5366222505865317,
                0.533680989276041,
                2.4713577374868687
            ]
        },
        {
            "positions": [
                -0.5964665904530093,
                -1.1126908554655943,
                1.4411334801245632,
                -0.5868045481046471,
                0.5251895078474034,
                2.5850196428257144
            ]
        },
        {
            "positions": [
                -0.6960359060363166,
                -1.1143203576398697,
                1.555921806984712,
                -0.6369868456227628,
                0.5166980264187657,
                2.69868154816456
            ]
        },
        {
            "positions": [
                -0.7956052216196234,
                -1.115949859814145,
                1.6707101338448604,
                -0.6871691431408782,
                0.5082065449901281,
                2.8123434535034053
            ]
        },
        {
            "positions": [
                -0.8951745372029307,
                -1.1175793619884202,
                1.785498460705009,
                -0.7373514406589938,
                0.4997150635614904,
                2.926005358842251
            ]
        },
        {
            "positions": [
                -0.9947438527862378,
                -1.1192088641626956,
                1.9002867875651577,
                -0.7875337381771093,
                0.4912235821328528,
                3.0396672641810962
            ]
        },
        {
            "positions": [
                -1.094313168369545,
                -1.120838366336971,
                2.015075114425306,
                -0.8377160356952247,
                0.48273210070421513,
                3.153329169519942
            ]
        }
    ]
}