{
    "goal": {
        "global_pose": {
            "orientation": {
                "w": 0.7031023480610252,
                "x": -0.7110244013736278,
                "y": 0.0077485991402295624,
                "z": 0.005598929693374583
            },
            "position": {
                "x": -0.8841497679147869,
                "y": 0.44412534475326537,
                "z": 0.3711530566215515
            }
        },
        "name": "move_to_auspresseinheit_D"
    },
    "id": "PRM_move_to_auspresseinheit_D_20",
    "joint_names": [
        "shoulder_pan_joint",
        "shoulder_lift_joint",
        "elbow_joint",
        "wrist_1_joint",
        "wrist_2_joint",
        "wrist_3_joint"
    ],
    "metrics": {
        "cart_traj_len": 0.3439079990995183,
        "distance_elbow_joint": 0.6439767121331301,
        "distance_shoulder_lift_joint": 0.12407151168340524,
        "distance_shoulder_pan_joint": 0.1341715754780469,
        "distance_wrist_1_joint": 0.5448772954011019,
        "distance_wrist_2_joint": 1.443487807870975,
        "distance_wrist_3_joint": 0.0041196403748182675,
        "smoothness": 0.0,
        "time": 0.01655054,
        "traj_len": 1.7013831264419772,
        "weighted_distance": 2.211630377563844
    },
    "planner": "PRM",
    "start": {
        "state": {
            "elbow_joint": -1.8275523626775212,
            "shoulder_lift_joint": -2.126789852344167,
            "shoulder_pan_joint": -0.03513704404078235,
            "wrist_1_joint": -2.347782403156801,
            "wrist_2_joint": -1.6058999987535132,
            "wrist_3_joint": -3.0880379163319196
        }
    },
    "waypoints": [
        {
            "positions": [
                -0.03513704404078235,
                -2.126789852344167,
                -1.8275523626775212,
                -2.347782403156801,
                -1.6058999987535132,
                -3.0880379163319196
            ]
        },
        {
            "positions": [
                -0.05190849097553821,
                -2.1422987913045923,
                -1.74705527366088,
                -2.4158920650819384,
                -1.4254640227696413,
                -3.0875229612850674
            ]
        },
        {
            "positions": [
                -0.06867993791029407,
                -2.1578077302650183,
                -1.6665581846442388,
                -2.4840017270070764,
                -1.2450280467857695,
                -3.0870080062382153
            ]
        },
        {
            "positions": [
                -0.08545138484504994,
                -2.1733166692254438,
                -1.5860610956275973,
                -2.552111388932214,
                -1.0645920708018974,
                -3.0864930511913626
            ]
        },
        {
            "positions": [
                -0.10222283177980579,
                -2.1888256081858692,
                -1.5055640066109561,
                -2.620221050857352,
                -0.8841560948180257,
                -3.0859780961445105
            ]
        },
        {
            "positions": [
                -0.11899427871456167,
                -2.204334547146295,
                -1.425066917594315,
                -2.6883307127824896,
                -0.7037201188341539,
                -3.0854631410976583
            ]
        },
        {
            "positions": [
                -0.13576572564931752,
                -2.2198434861067207,
                -1.3445698285776735,
                -2.756440374707627,
                -0.5232841428502819,
                -3.0849481860508057
            ]
        },
        {
            "positions": [
                -0.15253717258407337,
                -2.2353524250671466,
                -1.2640727395610323,
                -2.824550036632765,
                -0.34284816686641006,
                -3.0844332310039535
            ]
        },
        {
            "positions": [
                -0.16930861951882925,
                -2.250861364027572,
                -1.183575650544391,
                -2.8926596985579027,
                -0.16241219088253822,
                -3.0839182759571013
            ]
        }
    ]
}