{
    "goal": {
        "global_pose": {
            "orientation": {
                "w": 0.7047431468963623,
                "x": -0.7094548344612122,
                "y": 0.0024358443915843964,
                "z": -0.0022348060738295317
            },
            "position": {
                "x": 0.6094750761985779,
                "y": 0.3671506643295288,
                "z": 0.19426114857196808
            }
        },
        "name": "move_to_magneteinheit_A"
    },
    "id": "PRM_move_to_magneteinheit_A_72",
    "joint_names": [
        "shoulder_pan_joint",
        "shoulder_lift_joint",
        "elbow_joint",
        "wrist_1_joint",
        "wrist_2_joint",
        "wrist_3_joint"
    ],
    "metrics": {
        "cart_traj_len": 2.7410133518707824,
        "distance_elbow_joint": 4.527634093598579,
        "distance_shoulder_lift_joint": 1.0899670012102052,
        "distance_shoulder_pan_joint": 2.865676774110639,
        "distance_wrist_1_joint": 4.575817023952623,
        "distance_wrist_2_joint": 1.4432706436077034,
        "distance_wrist_3_joint": 1.6669317714816947,
        "smoothness": 0.43705870861343904,
        "time": 0.20384574500000002,
        "traj_len": 4.021106478068126,
        "weighted_distance": 5.051954920472386
    },
    "planner": "PRM",
    "start": {
        "state": {
            "elbow_joint": -1.9196185241190666,
            "shoulder_lift_joint": -1.2443396400964142,
            "shoulder_pan_joint": 2.6996025414629847,
            "wrist_1_joint": -1.5485510000780065,
            "wrist_2_joint": -1.5709468930060704,
            "wrist_3_joint": 0.4420197071253992
        }
    },
    "waypoints": [
        {
            "positions": [
                2.6996025414629847,
                -1.2443396400964142,
                -1.9196185241190666,
                -1.5485510000780065,
                -1.5709468930060704,
                0.4420197071253992
            ]
        },
        {
            "positions": [
                2.619198533002696,
                -1.2539950098415316,
                -1.7912573051830696,
                -1.4285933931589951,
                -1.5541748569916036,
                0.40982028005965376
            ]
        },
        {
            "positions": [
                2.5387945245424075,
                -1.263650379586649,
                -1.6628960862470725,
                -1.3086357862399838,
                -1.5374028209771367,
                0.3776208529939084
            ]
        },
        {
            "positions": [
                2.458390516082119,
                -1.2733057493317663,
                -1.5345348673110755,
                -1.1886781793209722,
                -1.52063078496267,
                0.34542142592816305
            ]
        },
        {
            "positions": [
                2.3779865076218303,
                -1.2829611190768837,
                -1.4061736483750784,
                -1.0687205724019608,
                -1.5038587489482032,
                0.31322199886241764
            ]
        },
        {
            "positions": [
                2.2975824991615417,
                -1.292616488822001,
                -1.2778124294390816,
                -0.9487629654829496,
                -1.4870867129337364,
                0.2810225717966722
            ]
        },
        {
            "positions": [
                2.217178490701253,
                -1.3022718585671185,
                -1.1494512105030843,
                -0.8288053585639381,
                -1.4703146769192694,
                0.24882314473092687
            ]
        },
        {
            "positions": [
                2.1367744822409644,
                -1.3119272283122358,
                -1.0210899915670875,
                -0.7088477516449267,
                -1.4535426409048027,
                0.2166237176651815
            ]
        },
        {
            "positions": [
                2.056370473780676,
                -1.3215825980573532,
                -0.8927287726310904,
                -0.5888901447259154,
                -1.436770604890336,
                0.1844242905994361
            ]
        },
        {
            "positions": [
                1.9759664653203872,
                -1.3312379678024706,
                -0.7643675536950933,
                -0.468932537806904,
                -1.4199985688758692,
                0.15222486353369075
            ]
        },
        {
            "positions": [
                1.8955624568600986,
                -1.340893337547588,
                -0.6360063347590963,
                -0.34897493088789266,
                -1.4032265328614022,
                0.12002543646794533
            ]
        },
        {
            "positions": [
                1.81515844839981,
                -1.3505487072927054,
                -0.5076451158230992,
                -0.2290173239688813,
                -1.3864544968469354,
                0.08782600940219998
            ]
        },
        {
            "positions": [
                1.7347544399395214,
                -1.3602040770378228,
                -0.3792838968871022,
                -0.10905971704986972,
                -1.3696824608324687,
                0.055626582336454566
            ]
        },
        {
            "positions": [
                1.6543504314792328,
                -1.3698594467829401,
                -0.25092267795110534,
                0.01089788986914142,
                -1.3529104248180017,
                0.02342715527070921
            ]
        },
        {
            "positions": [
                1.5739464230189442,
                -1.3795148165280575,
                -0.12256145901510807,
                0.130855496788153,
                -1.336138388803535,
                -0.008772271795036202
            ]
        },
        {
            "positions": [
                1.4935424145586556,
                -1.389170186273175,
                0.00579975992088877,
                0.25081310370716436,
                -1.3193663527890682,
                -0.04097169886078156
            ]
        },
        {
            "positions": [
                1.413138406098367,
                -1.3988255560182923,
                0.13416097885688583,
                0.3707707106261757,
                -1.3025943167746012,
                -0.07317112592652697
            ]
        },
        {
            "positions": [
                1.3327343976380783,
                -1.4084809257634099,
                0.2625221977928831,
                0.4907283175451871,
                -1.2858222807601347,
                -0.10537055299227227
            ]
        },
        {
            "positions": [
                1.2523303891777897,
                -1.418136295508527,
                0.39088341672887994,
                0.6106859244641984,
                -1.2690502447456677,
                -0.13756998005801768
            ]
        },
        {
            "positions": [
                1.1719263807175009,
                -1.4277916652536446,
                0.5192446356648772,
                0.7306435313832103,
                -1.252278208731201,
                -0.1697694071237631
            ]
        },
        {
            "positions": [
                1.0915223722572125,
                -1.437447034998762,
                0.647605854600874,
                0.8506011383022212,
                -1.2355061727167342,
                -0.2019688341895085
            ]
        },
        {
            "positions": [
                1.0111183637969239,
                -1.4471024047438794,
                0.7759670735368709,
                0.9705587452212325,
                -1.2187341367022673,
                -0.2341682612552538
            ]
        },
        {
            "positions": [
                0.9307143553366353,
                -1.4567577744889968,
                0.9043282924728682,
                1.090516352140244,
                -1.2019621006878005,
                -0.2663676883209992
            ]
        },
        {
            "positions": [
                0.8503103468763464,
                -1.4664131442341142,
                1.0326895114088654,
                1.2104739590592557,
                -1.1851900646733338,
                -0.29856711538674463
            ]
        },
        {
            "positions": [
                0.769906338416058,
                -1.4760685139792316,
                1.1610507303448623,
                1.330431565978267,
                -1.1684180286588668,
                -0.33076654245249004
            ]
        },
        {
            "positions": [
                0.6895023299557694,
                -1.485723883724349,
                1.2894119492808591,
                1.450389172897278,
                -1.1516459926444,
                -0.36296596951823534
            ]
        },
        {
            "positions": [
                0.6090983214954808,
                -1.4953792534694663,
                1.417773168216856,
                1.5703467798162893,
                -1.1348739566299333,
                -0.39516539658398075
            ]
        },
        {
            "positions": [
                0.5286943130351922,
                -1.5050346232145837,
                1.5461343871528537,
                1.6903043867353011,
                -1.1181019206154663,
                -0.42736482364972617
            ]
        },
        {
            "positions": [
                0.4482903045749036,
                -1.514689992959701,
                1.6744956060888505,
                1.8102619936543125,
                -1.1013298846009996,
                -0.4595642507154716
            ]
        },
        {
            "positions": [
                0.367886296114615,
                -1.5243453627048185,
                1.8028568250248473,
                1.9302196005733239,
                -1.0845578485865328,
                -0.4917636777812169
            ]
        },
        {
            "positions": [
                0.2874822876543264,
                -1.5340007324499358,
                1.9312180439608442,
                2.050177207492335,
                -1.067785812572066,
                -0.5239631048469623
            ]
        },
        {
            "positions": [
                0.20707827919403776,
                -1.5436561021950532,
                2.059579262896842,
                2.1701348144113464,
                -1.0510137765575993,
                -0.5561625319127077
            ]
        },
        {
            "positions": [
                0.12667427073374915,
                -1.5533114719401706,
                2.1879404818328383,
                2.2900924213303577,
                -1.0342417405431323,
                -0.5883619589784531
            ]
        },
        {
            "positions": [
                0.04627026227346055,
                -1.562966841685288,
                2.316301700768835,
                2.410050028249369,
                -1.0174697045286656,
                -0.6205613860441985
            ]
        },
        {
            "positions": [
                0.03666942854224898,
                -1.4964575862682432,
                2.2983890595248337,
                2.3394272264160736,
                -0.910547613980244,
                -0.5429199134513516
            ]
        },
        {
            "positions": [
                0.027068594811037402,
                -1.4299483308511987,
                2.280476418280832,
                2.268804424582778,
                -0.8036255234318225,
                -0.46527844085850467
            ]
        },
        {
            "positions": [
                0.017467761079825825,
                -1.3634390754341539,
                2.2625637770368305,
                2.1981816227494826,
                -0.6967034328834009,
                -0.38763696826565774
            ]
        },
        {
            "positions": [
                0.007866927348614251,
                -1.296929820017109,
                2.244651135792829,
                2.127558820916187,
                -0.5897813423349794,
                -0.3099954956728108
            ]
        },
        {
            "positions": [
                -0.0017339063825973292,
                -1.2304205646000645,
                2.2267384945488278,
                2.0569360190828916,
                -0.48285925178655764,
                -0.2323540230799639
            ]
        },
        {
            "positions": [
                -0.011334740113808903,
                -1.1639113091830198,
                2.208825853304826,
                1.9863132172495963,
                -0.37593716123813614,
                -0.15471255048711696
            ]
        },
        {
            "positions": [
                -0.020935573845020483,
                -1.097402053765975,
                2.1909132120608246,
                1.9156904154163008,
                -0.26901507068971453,
                -0.07707107789427003
            ]
        },
        {
            "positions": [
                0.027443979089190808,
                -0.9954770498653022,
                2.1354714187266026,
                1.9566425430136944,
                -0.2219021302592655,
                -0.09735786794832627
            ]
        },
        {
            "positions": [
                0.0758235320234021,
                -0.8935520459646294,
                2.0800296253923802,
                1.997594670611088,
                -0.17478918982881647,
                -0.1176446580023825
            ]
        },
        {
            "positions": [
                0.12420308495761341,
                -0.7916270420639566,
                2.0245878320581583,
                2.0385467982084817,
                -0.12767624939836744,
                -0.13793144805643873
            ]
        }
    ]
}