{
    "goal": {
        "global_pose": {
            "orientation": {
                "w": 0.7031023480610252,
                "x": -0.7110244013736278,
                "y": 0.0077485991402295624,
                "z": 0.005598929693374583
            },
            "position": {
                "x": -0.8841497679147869,
                "y": 0.44412534475326537,
                "z": 0.3711530566215515
            }
        },
        "name": "move_to_auspresseinheit_D"
    },
    "id": "PRM_move_to_auspresseinheit_D_19",
    "joint_names": [
        "shoulder_pan_joint",
        "shoulder_lift_joint",
        "elbow_joint",
        "wrist_1_joint",
        "wrist_2_joint",
        "wrist_3_joint"
    ],
    "metrics": {
        "cart_traj_len": 0.3436224713673503,
        "distance_elbow_joint": 0.6381856004242339,
        "distance_shoulder_lift_joint": 0.1212718699907942,
        "distance_shoulder_pan_joint": 0.13447276736278857,
        "distance_wrist_1_joint": 0.5247982637802471,
        "distance_wrist_2_joint": 1.4429879286709364,
        "distance_wrist_3_joint": 0.005926305565294943,
        "smoothness": 5.921189480296099e-16,
        "time": 0.021099865,
        "traj_len": 1.693411567160888,
        "weighted_distance": 2.2016542733535776
    },
    "planner": "PRM",
    "start": {
        "state": {
            "elbow_joint": -1.8275523626775212,
            "shoulder_lift_joint": -2.126789852344167,
            "shoulder_pan_joint": -0.03513704404078235,
            "wrist_1_joint": -2.347782403156801,
            "wrist_2_joint": -1.6058999987535132,
            "wrist_3_joint": -3.0880379163319196
        }
    },
    "waypoints": [
        {
            "positions": [
                -0.03513704404078235,
                -2.126789852344167,
                -1.8275523626775212,
                -2.347782403156801,
                -1.6058999987535132,
                -3.0880379163319196
            ]
        },
        {
            "positions": [
                -0.05194613996113092,
                -2.1419488360930163,
                -1.747779162624492,
                -2.413382186129332,
                -1.4255265076696462,
                -3.0887787045275816
            ]
        },
        {
            "positions": [
                -0.0687552358814795,
                -2.1571078198418654,
                -1.6680059625714627,
                -2.478981969101863,
                -1.2451530165857791,
                -3.089519492723243
            ]
        },
        {
            "positions": [
                -0.08556433180182807,
                -2.1722668035907144,
                -1.5882327625184334,
                -2.5445817520743934,
                -1.064779525501912,
                -3.0902602809189053
            ]
        },
        {
            "positions": [
                -0.10237342772217664,
                -2.187425787339564,
                -1.5084595624654042,
                -2.6101815350469244,
                -0.884406034418045,
                -3.091001069114567
            ]
        },
        {
            "positions": [
                -0.11918252364252521,
                -2.2025847710884134,
                -1.4286863624123751,
                -2.6757813180194554,
                -0.704032543334178,
                -3.091741857310229
            ]
        },
        {
            "positions": [
                -0.13599161956287378,
                -2.2177437548372625,
                -1.3489131623593458,
                -2.741381100991986,
                -0.5236590522503108,
                -3.092482645505891
            ]
        },
        {
            "positions": [
                -0.15280071548322235,
                -2.2329027385861115,
                -1.2691399623063164,
                -2.806980883964517,
                -0.3432855611664438,
                -3.0932234337015525
            ]
        },
        {
            "positions": [
                -0.16960981140357093,
                -2.248061722334961,
                -1.1893667622532873,
                -2.872580666937048,
                -0.16291207008257685,
                -3.0939642218972145
            ]
        }
    ]
}