{
    "goal": {
        "global_pose": {
            "orientation": {
                "w": 0.5084816262002911,
                "x": -0.4908360881923452,
                "y": 0.5182115481033761,
                "z": -0.48164630358495003
            },
            "position": {
                "x": 0.5540239810943604,
                "y": -0.46912469901144505,
                "z": 0.16403168439865112
            }
        },
        "name": "move_to_storage_B"
    },
    "id": "PRM_move_to_storage_B_128",
    "joint_names": [
        "shoulder_pan_joint",
        "shoulder_lift_joint",
        "elbow_joint",
        "wrist_1_joint",
        "wrist_2_joint",
        "wrist_3_joint"
    ],
    "metrics": {
        "cart_traj_len": 1.1789523518611513,
        "distance_elbow_joint": 0.49644069925999945,
        "distance_shoulder_lift_joint": 0.4594801402361086,
        "distance_shoulder_pan_joint": 1.0334569187532434,
        "distance_wrist_1_joint": 3.248553024624296,
        "distance_wrist_2_joint": 2.710185517846614,
        "distance_wrist_3_joint": 3.138445261633971,
        "smoothness": 0.19890162273554524,
        "time": 0.27764866,
        "traj_len": 3.3296488647234606,
        "weighted_distance": 4.829305398097441
    },
    "planner": "PRM",
    "start": {
        "state": {
            "elbow_joint": 1.664937868594044,
            "shoulder_lift_joint": -0.661644460510453,
            "shoulder_pan_joint": -0.9139846352900073,
            "wrist_1_joint": 2.146753192139373,
            "wrist_2_joint": -2.2341966793290973,
            "wrist_3_joint": 0.005466555786416001
        }
    },
    "waypoints": [
        {
            "positions": [
                -0.9139846352900073,
                -0.661644460510453,
                1.664937868594044,
                2.146753192139373,
                -2.2341966793290973,
                0.005466555786416001
            ]
        },
        {
            "positions": [
                -0.8287945526657416,
                -0.724004852275475,
                1.6502144447558276,
                2.1739466617897834,
                -2.1843969155907574,
                0.12401851259376778
            ]
        },
        {
            "positions": [
                -0.743604470041476,
                -0.7863652440404969,
                1.6354910209176112,
                2.2011401314401935,
                -2.134597151852417,
                0.24257046940111957
            ]
        },
        {
            "positions": [
                -0.6584143874172104,
                -0.8487256358055187,
                1.6207675970793949,
                2.228333601090604,
                -2.0847973881140773,
                0.36112242620847135
            ]
        },
        {
            "positions": [
                -0.5732243047929447,
                -0.9110860275705407,
                1.6060441732411785,
                2.255527070741014,
                -2.0349976243757375,
                0.47967438301582316
            ]
        },
        {
            "positions": [
                -0.4880342221686791,
                -0.9734464193355626,
                1.5913207494029622,
                2.2827205403914244,
                -1.9851978606373974,
                0.5982263398231749
            ]
        },
        {
            "positions": [
                -0.5133469932366755,
                -0.9795996768943542,
                1.6089383985725005,
                2.153029470542581,
                -1.882648414839276,
                0.704296568056392
            ]
        },
        {
            "positions": [
                -0.538659764304672,
                -0.9857529344531459,
                1.6265560477420387,
                2.023338400693737,
                -1.7800989690411546,
                0.8103667962896092
            ]
        },
        {
            "positions": [
                -0.5639725353726684,
                -0.9919061920119375,
                1.644173696911577,
                1.8936473308448938,
                -1.6775495232430333,
                0.9164370245228264
            ]
        },
        {
            "positions": [
                -0.5892853064406649,
                -0.9980594495707291,
                1.6617913460811151,
                1.7639562609960502,
                -1.5750000774449118,
                1.0225072527560435
            ]
        },
        {
            "positions": [
                -0.6145980775086615,
                -1.0042127071295208,
                1.6794089952506535,
                1.6342651911472066,
                -1.4724506316467902,
                1.1285774809892608
            ]
        },
        {
            "positions": [
                -0.6399108485766578,
                -1.0103659646883123,
                1.6970266444201916,
                1.5045741212983632,
                -1.369901185848669,
                1.234647709222478
            ]
        },
        {
            "positions": [
                -0.6652236196446544,
                -1.016519222247104,
                1.71464429358973,
                1.3748830514495194,
                -1.2673517400505476,
                1.340717937455695
            ]
        },
        {
            "positions": [
                -0.6905363907126507,
                -1.0226724798058957,
                1.732261942759268,
                1.245191981600676,
                -1.164802294252426,
                1.446788165688912
            ]
        },
        {
            "positions": [
                -0.7158491617806473,
                -1.0288257373646872,
                1.7498795919288064,
                1.1155009117518324,
                -1.0622528484543046,
                1.5528583939221292
            ]
        },
        {
            "positions": [
                -0.7411619328486437,
                -1.034978994923479,
                1.7674972410983445,
                0.9858098419029888,
                -0.9597034026561833,
                1.6589286221553465
            ]
        },
        {
            "positions": [
                -0.7664747039166402,
                -1.0411322524822706,
                1.7851148902678828,
                0.8561187720541454,
                -0.857153956858062,
                1.7649988503885636
            ]
        },
        {
            "positions": [
                -0.7917874749846366,
                -1.047285510041062,
                1.8027325394374212,
                0.7264277022053018,
                -0.7546045110599404,
                1.8710690786217807
            ]
        },
        {
            "positions": [
                -0.8171002460526331,
                -1.0534387675998538,
                1.8203501886069593,
                0.5967366323564585,
                -0.6520550652618191,
                1.9771393068549978
            ]
        },
        {
            "positions": [
                -0.8424130171206297,
                -1.0595920251586455,
                1.8379678377764976,
                0.46704556250761464,
                -0.5495056194636976,
                2.083209535088215
            ]
        },
        {
            "positions": [
                -0.867725788188626,
                -1.065745282717437,
                1.8555854869460358,
                0.33735449265877127,
                -0.44695617366557605,
                2.1892797633214323
            ]
        },
        {
            "positions": [
                -0.8930385592566225,
                -1.0718985402762287,
                1.873203136115574,
                0.20766342280992767,
                -0.34440672786745474,
                2.2953499915546494
            ]
        },
        {
            "positions": [
                -0.9183513303246189,
                -1.0780517978350201,
                1.8908207852851122,
                0.07797235296108385,
                -0.2418572820693332,
                2.401420219787867
            ]
        },
        {
            "positions": [
                -0.9436641013926155,
                -1.0842050553938118,
                1.9084384344546506,
                -0.05171871688775953,
                -0.1393078362712119,
                2.5074904480210836
            ]
        },
        {
            "positions": [
                -0.9689768724606118,
                -1.0903583129526035,
                1.9260560836241887,
                -0.1814097867366029,
                -0.036758390473090596,
                2.6135606762543007
            ]
        },
        {
            "positions": [
                -0.9942896435286084,
                -1.096511570511395,
                1.943673732793727,
                -0.31110085658544673,
                0.06579105532503093,
                2.719630904487518
            ]
        },
        {
            "positions": [
                -1.019602414596605,
                -1.1026648280701867,
                1.9612913819632651,
                -0.4407919264342901,
                0.16834050112315224,
                2.8257011327207353
            ]
        },
        {
            "positions": [
                -1.0449151856646013,
                -1.1088180856289784,
                1.9789090311328035,
                -0.5704829962831335,
                0.27088994692127355,
                2.9317713609539524
            ]
        },
        {
            "positions": [
                -1.0702279567325976,
                -1.11497134318777,
                1.9965266803023418,
                -0.7001740661319773,
                0.3734393927193953,
                3.0378415891871695
            ]
        },
        {
            "positions": [
                -1.0955407278005942,
                -1.1211246007465616,
                2.01414432947188,
                -0.8298651359808207,
                0.4759888385175166,
                3.1439118174203866
            ]
        }
    ]
}