{
    "goal": {
        "global_pose": {
            "orientation": {
                "w": 0.005598929693374612,
                "x": 0.007748599140229565,
                "y": 0.7110244013736278,
                "z": -0.7031023480610252
            },
            "position": {
                "x": -0.8858502320852131,
                "y": -0.7141253447532654,
                "z": 0.3711530566215515
            }
        },
        "name": "move_to_auspresseinheit_C"
    },
    "id": "PRM_move_to_auspresseinheit_C_79",
    "joint_names": [
        "shoulder_pan_joint",
        "shoulder_lift_joint",
        "elbow_joint",
        "wrist_1_joint",
        "wrist_2_joint",
        "wrist_3_joint"
    ],
    "metrics": {
        "cart_traj_len": 0.4925052659234091,
        "distance_elbow_joint": 0.9949775876367803,
        "distance_shoulder_lift_joint": 0.3233592567961495,
        "distance_shoulder_pan_joint": 0.2558330841285845,
        "distance_wrist_1_joint": 0.6618445551631739,
        "distance_wrist_2_joint": 1.3137720357332405,
        "distance_wrist_3_joint": 0.038045275972342196,
        "smoothness": 8.074349282788172e-16,
        "time": 0.032275994,
        "traj_len": 1.8941572784302445,
        "weighted_distance": 2.374771344418525
    },
    "planner": "PRM",
    "start": {
        "state": {
            "elbow_joint": 1.7527959577737207,
            "shoulder_lift_joint": -0.9740617694225068,
            "shoulder_pan_joint": -2.967991417825858,
            "wrist_1_joint": -0.759517768980727,
            "wrist_2_joint": 1.7443932448377408,
            "wrist_3_joint": -3.0840537646736568
        }
    },
    "waypoints": [
        {
            "positions": [
                -2.967991417825858,
                -0.9740617694225068,
                1.7527959577737207,
                -0.759517768980727,
                1.7443932448377408,
                -3.0840537646736568
            ]
        },
        {
            "positions": [
                -2.9424081094129995,
                -0.9417258437428918,
                1.6532981990100426,
                -0.6933333134644096,
                1.6130160412644168,
                -3.087858292270891
            ]
        },
        {
            "positions": [
                -2.916824801000141,
                -0.9093899180632768,
                1.5538004402463645,
                -0.6271488579480922,
                1.4816388376910927,
                -3.0916628198681253
            ]
        },
        {
            "positions": [
                -2.8912414925872825,
                -0.8770539923836619,
                1.4543026814826865,
                -0.5609644024317748,
                1.3502616341177687,
                -3.0954673474653593
            ]
        },
        {
            "positions": [
                -2.865658184174424,
                -0.8447180667040469,
                1.3548049227190084,
                -0.4947799469154574,
                1.2188844305444446,
                -3.099271875062594
            ]
        },
        {
            "positions": [
                -2.840074875761566,
                -0.8123821410244321,
                1.2553071639553304,
                -0.42859549139914005,
                1.0875072269711206,
                -3.103076402659828
            ]
        },
        {
            "positions": [
                -2.8144915673487074,
                -0.7800462153448171,
                1.1558094051916523,
                -0.3624110358828227,
                0.9561300233977965,
                -3.106880930257062
            ]
        },
        {
            "positions": [
                -2.788908258935849,
                -0.7477102896652021,
                1.0563116464279745,
                -0.2962265803665053,
                0.8247528198244726,
                -3.1106854578542964
            ]
        },
        {
            "positions": [
                -2.7633249505229904,
                -0.7153743639855872,
                0.9568138876642963,
                -0.23004212485018782,
                0.6933756162511484,
                -3.1144899854515304
            ]
        },
        {
            "positions": [
                -2.737741642110132,
                -0.6830384383059722,
                0.8573161289006184,
                -0.16385766933387047,
                0.5619984126778244,
                -3.118294513048765
            ]
        },
        {
            "positions": [
                -2.7121583336972734,
                -0.6507025126263573,
                0.7578183701369403,
                -0.09767321381755309,
                0.4306212091045002,
                -3.122099040645999
            ]
        }
    ]
}