{
    "goal": {
        "global_pose": {
            "orientation": {
                "w": -0.4816463035849501,
                "x": 0.5182115481033762,
                "y": 0.4908360881923453,
                "z": -0.5084816262002911
            },
            "position": {
                "x": -0.8240239810943604,
                "y": 0.19912469901144506,
                "z": 0.16403168439865112
            }
        },
        "name": "move_to_storage_D"
    },
    "id": "PRM_move_to_storage_D_109",
    "joint_names": [
        "shoulder_pan_joint",
        "shoulder_lift_joint",
        "elbow_joint",
        "wrist_1_joint",
        "wrist_2_joint",
        "wrist_3_joint"
    ],
    "metrics": {
        "cart_traj_len": 3.934694802908713,
        "distance_elbow_joint": 4.299730032358102,
        "distance_shoulder_lift_joint": 1.2651416490181682,
        "distance_shoulder_pan_joint": 2.813618452359783,
        "distance_wrist_1_joint": 2.2679939209872733,
        "distance_wrist_2_joint": 1.1155887575074814,
        "distance_wrist_3_joint": 3.131165566299983,
        "smoothness": 0.09525032836903258,
        "time": 0.26704702799999996,
        "traj_len": 3.859175867789753,
        "weighted_distance": 4.953700857906693
    },
    "planner": "PRM",
    "start": {
        "state": {
            "elbow_joint": -2.384821988534728,
            "shoulder_lift_joint": -2.2788054721415256,
            "shoulder_pan_joint": -0.1854694642142757,
            "wrist_1_joint": 1.4845938289331202,
            "wrist_2_joint": 0.17898776772866878,
            "wrist_3_joint": 0.037105688729662994
        }
    },
    "waypoints": [
        {
            "positions": [
                -0.1854694642142757,
                -2.2788054721415256,
                -2.384821988534728,
                1.4845938289331202,
                0.17898776772866878,
                0.037105688729662994
            ]
        },
        {
            "positions": [
                -0.14964038240587435,
                -2.2461786703255373,
                -2.3959653227609268,
                1.4036584967796302,
                0.14906627051125,
                -0.08126221593760224
            ]
        },
        {
            "positions": [
                -0.11381130059747296,
                -2.2135518685095485,
                -2.407108656987125,
                1.3227231646261401,
                0.11914477329383122,
                -0.19963012060486748
            ]
        },
        {
            "positions": [
                -0.07798221878907159,
                -2.1809250666935602,
                -2.4182519912133236,
                1.2417878324726501,
                0.08922327607641242,
                -0.3179980252721327
            ]
        },
        {
            "positions": [
                -0.04215313698067022,
                -2.148298264877572,
                -2.4293953254395224,
                1.16085250031916,
                0.05930177885899364,
                -0.43636592993939793
            ]
        },
        {
            "positions": [
                0.03570811634069873,
                -2.109512780969807,
                -2.3347758751609673,
                1.0955790775667507,
                0.0889665535110113,
                -0.512144012012094
            ]
        },
        {
            "positions": [
                0.11356936966206768,
                -2.070727297062042,
                -2.2401564248824126,
                1.0303056548143414,
                0.11863132816302896,
                -0.5879220940847901
            ]
        },
        {
            "positions": [
                0.19143062298343663,
                -2.031941813154277,
                -2.1455369746038575,
                0.9650322320619321,
                0.14829610281504663,
                -0.6637001761574862
            ]
        },
        {
            "positions": [
                0.26929187630480556,
                -1.993156329246512,
                -2.050917524325303,
                0.8997588093095228,
                0.1779608774670643,
                -0.7394782582301822
            ]
        },
        {
            "positions": [
                0.3471531296261745,
                -1.954370845338747,
                -1.9562980740467477,
                0.8344853865571135,
                0.20762565211908196,
                -0.8152563403028783
            ]
        },
        {
            "positions": [
                0.42501438294754346,
                -1.915585361430982,
                -1.861678623768193,
                0.7692119638047041,
                0.23729042677109963,
                -0.8910344223755744
            ]
        },
        {
            "positions": [
                0.5028756362689124,
                -1.876799877523217,
                -1.767059173489638,
                0.7039385410522949,
                0.2669552014231173,
                -0.9668125044482705
            ]
        },
        {
            "positions": [
                0.5807368895902814,
                -1.838014393615452,
                -1.672439723211083,
                0.6386651182998855,
                0.29661997607513496,
                -1.0425905865209666
            ]
        },
        {
            "positions": [
                0.6585981429116503,
                -1.799228909707687,
                -1.5778202729325281,
                0.5733916955474763,
                0.3262847507271526,
                -1.1183686685936625
            ]
        },
        {
            "positions": [
                0.7364593962330193,
                -1.760443425799922,
                -1.4832008226539732,
                0.5081182727950668,
                0.3559495253791703,
                -1.1941467506663588
            ]
        },
        {
            "positions": [
                0.8143206495543882,
                -1.7216579418921572,
                -1.3885813723754183,
                0.4428448500426576,
                0.3856143000311879,
                -1.2699248327390547
            ]
        },
        {
            "positions": [
                0.8921819028757572,
                -1.6828724579843921,
                -1.2939619220968634,
                0.3775714272902483,
                0.4152790746832056,
                -1.345702914811751
            ]
        },
        {
            "positions": [
                0.9700431561971261,
                -1.644086974076627,
                -1.1993424718183086,
                0.31229800453783896,
                0.44494384933522324,
                -1.4214809968844468
            ]
        },
        {
            "positions": [
                1.047904409518495,
                -1.6053014901688623,
                -1.1047230215397537,
                0.24702458178542963,
                0.4746086239872409,
                -1.4972590789571432
            ]
        },
        {
            "positions": [
                1.125765662839864,
                -1.566516006261097,
                -1.0101035712611988,
                0.18175115903302042,
                0.5042733986392586,
                -1.573037161029839
            ]
        },
        {
            "positions": [
                1.203626916161233,
                -1.5277305223533322,
                -0.9154841209826436,
                0.11647773628061087,
                0.5339381732912762,
                -1.6488152431025354
            ]
        },
        {
            "positions": [
                1.281488169482602,
                -1.4889450384455671,
                -0.820864670704089,
                0.05120431352820165,
                0.5636029479432939,
                -1.7245933251752312
            ]
        },
        {
            "positions": [
                1.3593494228039709,
                -1.450159554537802,
                -0.7262452204255341,
                -0.014069109224207565,
                0.5932677225953116,
                -1.800371407247927
            ]
        },
        {
            "positions": [
                1.4372106761253398,
                -1.4113740706300373,
                -0.6316257701469792,
                -0.07934253197661678,
                0.6229324972473292,
                -1.8761494893206234
            ]
        },
        {
            "positions": [
                1.5150719294467088,
                -1.372588586722272,
                -0.5370063198684241,
                -0.14461595472902644,
                0.652597271899347,
                -1.9519275713933197
            ]
        },
        {
            "positions": [
                1.5929331827680777,
                -1.3338031028145072,
                -0.44238686958986917,
                -0.20988937748143566,
                0.6822620465513646,
                -2.0277056534660156
            ]
        },
        {
            "positions": [
                1.6707944360894467,
                -1.2950176189067422,
                -0.3477674193113143,
                -0.2751628002338449,
                0.7119268212033822,
                -2.1034837355387115
            ]
        },
        {
            "positions": [
                1.7486556894108156,
                -1.2562321349989771,
                -0.2531479690327596,
                -0.3404362229862541,
                0.7415915958553999,
                -2.179261817611408
            ]
        },
        {
            "positions": [
                1.8265169427321846,
                -1.2174466510912123,
                -0.15852851875420448,
                -0.4057096457386635,
                0.7712563705074176,
                -2.255039899684104
            ]
        },
        {
            "positions": [
                1.9043781960535535,
                -1.178661167183447,
                -0.06390906847564937,
                -0.47098306849107296,
                0.8009211451594352,
                -2.3308179817568
            ]
        },
        {
            "positions": [
                1.9822394493749225,
                -1.1398756832756822,
                0.030710381802905112,
                -0.5362564912434823,
                0.8305859198114529,
                -2.406596063829496
            ]
        },
        {
            "positions": [
                2.046830403251981,
                -1.1272544972604497,
                0.21021548062399323,
                -0.5609708513245493,
                0.8530477825799876,
                -2.4753424452035784
            ]
        },
        {
            "positions": [
                2.1114213571290392,
                -1.1146333112452174,
                0.3897205794450813,
                -0.5856852114056161,
                0.8755096453485224,
                -2.544088826577661
            ]
        },
        {
            "positions": [
                2.176012311006098,
                -1.1020121252299848,
                0.5692256782661694,
                -0.6103995714866831,
                0.8979715081170571,
                -2.612835207951743
            ]
        },
        {
            "positions": [
                2.2406032648831564,
                -1.0893909392147523,
                0.7487307770872575,
                -0.6351139315677501,
                0.9204333708855919,
                -2.6815815893258255
            ]
        },
        {
            "positions": [
                2.3051942187602146,
                -1.0767697531995197,
                0.9282358759083457,
                -0.659828291648817,
                0.9428952336541265,
                -2.750327970699908
            ]
        },
        {
            "positions": [
                2.369785172637273,
                -1.0641485671842874,
                1.1077409747294338,
                -0.6845426517298839,
                0.9653570964226612,
                -2.8190743520739905
            ]
        },
        {
            "positions": [
                2.4343761265143318,
                -1.0515273811690549,
                1.2872460735505218,
                -0.7092570118109509,
                0.987818959191196,
                -2.8878207334480726
            ]
        },
        {
            "positions": [
                2.4989670803913904,
                -1.0389061951538223,
                1.46675117237161,
                -0.7339713718920179,
                1.0102808219597308,
                -2.956567114822155
            ]
        },
        {
            "positions": [
                2.5635580342684485,
                -1.02628500913859,
                1.6462562711926982,
                -0.7586857319730848,
                1.0327426847282655,
                -3.0253134961962376
            ]
        },
        {
            "positions": [
                2.628148988145507,
                -1.0136638231233575,
                1.8257613700137862,
                -0.7834000920541517,
                1.0552045474968001,
                -3.09405987757032
            ]
        }
    ]
}