{
    "goal": {
        "global_pose": {
            "orientation": {
                "w": -0.4816463035849501,
                "x": 0.5182115481033762,
                "y": 0.4908360881923453,
                "z": -0.5084816262002911
            },
            "position": {
                "x": -0.8240239810943604,
                "y": 0.19912469901144506,
                "z": 0.16403168439865112
            }
        },
        "name": "move_to_storage_D"
    },
    "id": "PRM_move_to_storage_D_73",
    "joint_names": [
        "shoulder_pan_joint",
        "shoulder_lift_joint",
        "elbow_joint",
        "wrist_1_joint",
        "wrist_2_joint",
        "wrist_3_joint"
    ],
    "metrics": {
        "cart_traj_len": 1.0770948647128578,
        "distance_elbow_joint": 0.5557051446351227,
        "distance_shoulder_lift_joint": 0.9529039324805044,
        "distance_shoulder_pan_joint": 1.431955079026967,
        "distance_wrist_1_joint": 3.828355271397124,
        "distance_wrist_2_joint": 1.983103838850948,
        "distance_wrist_3_joint": 3.1912648685152343,
        "smoothness": 0.1713931540205788,
        "time": 0.313123763,
        "traj_len": 3.455906268246566,
        "weighted_distance": 4.912970281019867
    },
    "planner": "PRM",
    "start": {
        "state": {
            "elbow_joint": -2.384821988534728,
            "shoulder_lift_joint": -2.2788054721415256,
            "shoulder_pan_joint": -0.1854694642142757,
            "wrist_1_joint": 1.4845938289331202,
            "wrist_2_joint": 0.17898776772866878,
            "wrist_3_joint": 0.037105688729662994
        }
    },
    "waypoints": [
        {
            "positions": [
                -0.1854694642142757,
                -2.2788054721415256,
                -2.384821988534728,
                1.4845938289331202,
                0.17898776772866878,
                0.037105688729662994
            ]
        },
        {
            "positions": [
                -0.05352174023997727,
                -2.186785860052186,
                -2.36991459553019,
                1.4135306270322399,
                0.19639566396321984,
                0.03367034395644335
            ]
        },
        {
            "positions": [
                0.07842598373432116,
                -2.0947662479628466,
                -2.3550072025256523,
                1.3424674251313595,
                0.21380356019777086,
                0.0302349991832237
            ]
        },
        {
            "positions": [
                0.2103737077086196,
                -2.002746635873507,
                -2.3400998095211145,
                1.271404223230479,
                0.23121145643232188,
                0.026799654410004047
            ]
        },
        {
            "positions": [
                0.34232143168291806,
                -1.9107270237841674,
                -2.3251924165165763,
                1.2003410213295989,
                0.24861935266687293,
                0.0233643096367844
            ]
        },
        {
            "positions": [
                0.4742691556572165,
                -1.8187074116948276,
                -2.3102850235120385,
                1.1292778194287183,
                0.266027248901424,
                0.019928964863564748
            ]
        },
        {
            "positions": [
                0.6062168796315149,
                -1.7266877996054881,
                -2.2953776305075007,
                1.058214617527838,
                0.283435145135975,
                0.0164936200903451
            ]
        },
        {
            "positions": [
                0.5815911590476235,
                -1.7421026557571984,
                -2.277444523330274,
                0.9273693844512287,
                0.2111791273881426,
                0.1384418047009573
            ]
        },
        {
            "positions": [
                0.5569654384637321,
                -1.7575175119089086,
                -2.259511416153047,
                0.7965241513746194,
                0.1389231096403102,
                0.2603899893115695
            ]
        },
        {
            "positions": [
                0.5323397178798407,
                -1.7729323680606188,
                -2.2415783089758206,
                0.6656789182980101,
                0.0666670918924778,
                0.38233817392218167
            ]
        },
        {
            "positions": [
                0.5077139972959492,
                -1.7883472242123293,
                -2.2236452017985937,
                0.5348336852214008,
                -0.005588925855354587,
                0.5042863585327938
            ]
        },
        {
            "positions": [
                0.48308827671205784,
                -1.8037620803640395,
                -2.205712094621367,
                0.4039884521447915,
                -0.077844943603187,
                0.626234543143406
            ]
        },
        {
            "positions": [
                0.45846255612816644,
                -1.8191769365157497,
                -2.18777898744414,
                0.2731432190681823,
                -0.1501009613510194,
                0.7481827277540182
            ]
        },
        {
            "positions": [
                0.433836835544275,
                -1.83459179266746,
                -2.1698458802669136,
                0.14229798599157306,
                -0.22235697909885177,
                0.8701309123646302
            ]
        },
        {
            "positions": [
                0.40921111496038354,
                -1.8500066488191702,
                -2.1519127730896868,
                0.011452752914963726,
                -0.2946129968466842,
                0.9920790969752425
            ]
        },
        {
            "positions": [
                0.3845853943764922,
                -1.8654215049708804,
                -2.13397966591246,
                -0.1193924801616455,
                -0.3668690145945165,
                1.1140272815858547
            ]
        },
        {
            "positions": [
                0.35995967379260074,
                -1.880836361122591,
                -2.116046558735233,
                -0.25023771323825494,
                -0.439125032342349,
                1.235975466196467
            ]
        },
        {
            "positions": [
                0.33533395320870935,
                -1.8962512172743011,
                -2.0981134515580067,
                -0.38108294631486395,
                -0.5113810500901813,
                1.357923650807079
            ]
        },
        {
            "positions": [
                0.3107082326248179,
                -1.9116660734260114,
                -2.08018034438078,
                -0.5119281793914734,
                -0.5836370678380138,
                1.4798718354176914
            ]
        },
        {
            "positions": [
                0.2860825120409265,
                -1.9270809295777216,
                -2.062247237203553,
                -0.6427734124680826,
                -0.6558930855858461,
                1.6018200200283035
            ]
        },
        {
            "positions": [
                0.2614567914570351,
                -1.9424957857294318,
                -2.044314130026326,
                -0.7736186455446918,
                -0.7281491033336785,
                1.7237682046389156
            ]
        },
        {
            "positions": [
                0.2368310708731437,
                -1.957910641881142,
                -2.0263810228490993,
                -0.9044638786213011,
                -0.8004051210815107,
                1.8457163892495276
            ]
        },
        {
            "positions": [
                0.2122053502892522,
                -1.9733254980328523,
                -2.008447915671873,
                -1.0353091116979105,
                -0.8726611388293434,
                1.9676645738601402
            ]
        },
        {
            "positions": [
                0.1875796297053608,
                -1.9887403541845627,
                -1.990514808494646,
                -1.16615434477452,
                -0.9449171565771758,
                2.089612758470752
            ]
        },
        {
            "positions": [
                0.1629539091214694,
                -2.0041552103362728,
                -1.9725817013174192,
                -1.296999577851129,
                -1.0171731743250079,
                2.211560943081364
            ]
        },
        {
            "positions": [
                0.138328188537578,
                -2.019570066487983,
                -1.9546485941401925,
                -1.427844810927738,
                -1.0894291920728403,
                2.3335091276919764
            ]
        },
        {
            "positions": [
                0.11370246795368655,
                -2.0349849226396937,
                -1.9367154869629657,
                -1.5586900440043479,
                -1.1616852098206731,
                2.4554573123025887
            ]
        },
        {
            "positions": [
                0.0890767473697951,
                -2.050399778791404,
                -1.918782379785739,
                -1.6895352770809569,
                -1.2339412275685055,
                2.5774054969132005
            ]
        },
        {
            "positions": [
                0.06445102678590375,
                -2.065814634943114,
                -1.9008492726085122,
                -1.8203805101575659,
                -1.3061972453163375,
                2.699353681523813
            ]
        },
        {
            "positions": [
                0.0398253062020123,
                -2.0812294910948244,
                -1.8829161654312856,
                -1.9512257432341753,
                -1.37845326306417,
                2.821301866134425
            ]
        },
        {
            "positions": [
                0.015199585618120848,
                -2.0966443472465346,
                -1.8649830582540587,
                -2.082070976310785,
                -1.4507092808120028,
                2.9432500507450374
            ]
        },
        {
            "positions": [
                -0.009426134965770494,
                -2.112059203398245,
                -1.8470499510768321,
                -2.2129162093873944,
                -1.5229652985598348,
                3.0651982353556493
            ]
        },
        {
            "positions": [
                -0.03405185554966195,
                -2.127474059549955,
                -1.8291168438996053,
                -2.3437614424640034,
                -1.5952213163076672,
                3.1871464199662616
            ]
        }
    ]
}