{
    "goal": {
        "global_pose": {
            "orientation": {
                "w": 0.7047431493862688,
                "x": -0.7094548369677653,
                "y": 0.0024358444001904,
                "z": -0.0022348060817251984
            },
            "position": {
                "x": -0.39052492380142206,
                "y": 0.3671506643295288,
                "z": 0.19426114857196808
            }
        },
        "name": "move_to_magneteinheit_D"
    },
    "id": "PRM_move_to_magneteinheit_D_35",
    "joint_names": [
        "shoulder_pan_joint",
        "shoulder_lift_joint",
        "elbow_joint",
        "wrist_1_joint",
        "wrist_2_joint",
        "wrist_3_joint"
    ],
    "metrics": {
        "cart_traj_len": 5.294368713446023,
        "distance_elbow_joint": 5.990698824400258,
        "distance_shoulder_lift_joint": 1.7144428898975612,
        "distance_shoulder_pan_joint": 3.1715464886018543,
        "distance_wrist_1_joint": 3.8617360716488562,
        "distance_wrist_2_joint": 0.8699699420489785,
        "distance_wrist_3_joint": 3.1408434383924453,
        "smoothness": 0.5278459295408685,
        "time": 0.415994345,
        "traj_len": 4.330038990008053,
        "weighted_distance": 5.455513774657039
    },
    "planner": "PRM",
    "start": {
        "state": {
            "elbow_joint": 0.749534889911806,
            "shoulder_lift_joint": -0.6476975780787326,
            "shoulder_pan_joint": -2.711696901376241,
            "wrist_1_joint": -0.07506478083263063,
            "wrist_2_joint": 0.43296659715538205,
            "wrist_3_joint": -3.14703540197715
        }
    },
    "waypoints": [
        {
            "positions": [
                -2.711696901376241,
                -0.6476975780787326,
                0.749534889911806,
                -0.07506478083263063,
                0.43296659715538205,
                -3.14703540197715
            ]
        },
        {
            "positions": [
                -2.6946569312375215,
                -0.7120238687783221,
                0.9206784048982698,
                -0.03500809052049607,
                0.3732392203068646,
                -3.1439997235636596
            ]
        },
        {
            "positions": [
                -2.6776169610988014,
                -0.7763501594779116,
                1.0918219198847336,
                0.005048599791638492,
                0.31351184345834715,
                -3.1409640451501697
            ]
        },
        {
            "positions": [
                -2.660576990960082,
                -0.840676450177501,
                1.2629654348711974,
                0.04510529010377305,
                0.25378446660982973,
                -3.1379283667366793
            ]
        },
        {
            "positions": [
                -2.6435370208213618,
                -0.9050027408770907,
                1.4341089498576611,
                0.08516198041590761,
                0.19405708976131228,
                -3.1348926883231893
            ]
        },
        {
            "positions": [
                -2.626497050682642,
                -0.96932903157668,
                1.605252464844125,
                0.1252186707280422,
                0.13432971291279483,
                -3.131857009909699
            ]
        },
        {
            "positions": [
                -2.609457080543922,
                -1.0336553222762697,
                1.7763959798305888,
                0.16527536104017673,
                0.07460233606427741,
                -3.128821331496209
            ]
        },
        {
            "positions": [
                -2.5924171104052025,
                -1.097981612975859,
                1.9475394948170528,
                0.2053320513523113,
                0.01487495921575993,
                -3.1257856530827186
            ]
        },
        {
            "positions": [
                -2.4627545607337336,
                -1.1115908426931194,
                1.9297331216693079,
                0.1187993535213779,
                -0.004992885922410803,
                -3.0505399497590435
            ]
        },
        {
            "positions": [
                -2.333092011062265,
                -1.1252000724103797,
                1.911926748521563,
                0.032266655690444485,
                -0.024860731060581537,
                -2.975294246435369
            ]
        },
        {
            "positions": [
                -2.203429461390796,
                -1.1388093021276402,
                1.894120375373818,
                -0.05426604214048891,
                -0.04472857619875226,
                -2.900048543111694
            ]
        },
        {
            "positions": [
                -2.0737669117193276,
                -1.1524185318449005,
                1.8763140022260731,
                -0.14079873997142234,
                -0.064596421336923,
                -2.8248028397880187
            ]
        },
        {
            "positions": [
                -1.9441043620478586,
                -1.1660277615621608,
                1.8585076290783282,
                -0.22733143780235568,
                -0.08446426647509372,
                -2.749557136464344
            ]
        },
        {
            "positions": [
                -1.8277386604826962,
                -1.167730531116286,
                1.7764610204708873,
                -0.3061342736572998,
                -0.07856199651923293,
                -2.6895256222565993
            ]
        },
        {
            "positions": [
                -1.7113729589175337,
                -1.1694333006704112,
                1.6944144118634463,
                -0.38493710951224386,
                -0.07265972656337213,
                -2.6294941080488545
            ]
        },
        {
            "positions": [
                -1.5950072573523713,
                -1.1711360702245361,
                1.6123678032560054,
                -0.463739945367188,
                -0.06675745660751134,
                -2.5694625938411098
            ]
        },
        {
            "positions": [
                -1.478641555787209,
                -1.1728388397786613,
                1.5303211946485644,
                -0.5425427812221321,
                -0.060855186651650545,
                -2.509431079633365
            ]
        },
        {
            "positions": [
                -1.3622758542220463,
                -1.1745416093327865,
                1.4482745860411235,
                -0.6213456170770761,
                -0.05495291669578975,
                -2.44939956542562
            ]
        },
        {
            "positions": [
                -1.245910152656884,
                -1.1762443788869117,
                1.3662279774336825,
                -0.7001484529320202,
                -0.049050646739928955,
                -2.3893680512178754
            ]
        },
        {
            "positions": [
                -1.1405129107236414,
                -1.1773211041953588,
                1.2849873746989309,
                -0.7703288795569619,
                -0.04123167485740814,
                -2.3358899448215307
            ]
        },
        {
            "positions": [
                -1.0351156687903986,
                -1.1783978295038058,
                1.2037467719641795,
                -0.8405093061819038,
                -0.033412702974887326,
                -2.2824118384251864
            ]
        },
        {
            "positions": [
                -0.929718426857156,
                -1.179474554812253,
                1.1225061692294278,
                -0.9106897328068455,
                -0.025593731092366512,
                -2.2289337320288416
            ]
        },
        {
            "positions": [
                -0.8902112596592815,
                -1.2217386056232533,
                0.9842336073505777,
                -0.8201963581054129,
                -0.016404956389051262,
                -2.1565112745524875
            ]
        },
        {
            "positions": [
                -0.850704092461407,
                -1.2640026564342537,
                0.8459610454717278,
                -0.7297029834039803,
                -0.007216181685736012,
                -2.084088817076134
            ]
        },
        {
            "positions": [
                -0.8111969252635325,
                -1.306266707245254,
                0.7076884835928778,
                -0.6392096087025477,
                0.0019725930175792383,
                -2.0116663595997797
            ]
        },
        {
            "positions": [
                -0.771689758065658,
                -1.3485307580562544,
                0.5694159217140278,
                -0.5487162340011151,
                0.011161367720894488,
                -1.9392439021234258
            ]
        },
        {
            "positions": [
                -0.7321825908677835,
                -1.3907948088672548,
                0.4311433598351778,
                -0.45822285929968254,
                0.02035014242420974,
                -1.866821444647072
            ]
        },
        {
            "positions": [
                -0.692675423669909,
                -1.4330588596782552,
                0.29287079795632787,
                -0.36772948459824994,
                0.02953891712752499,
                -1.7943989871707178
            ]
        },
        {
            "positions": [
                -0.6531682564720345,
                -1.4753229104892556,
                0.1545982360774778,
                -0.27723610989681735,
                0.03872769183084024,
                -1.7219765296943639
            ]
        },
        {
            "positions": [
                -0.6136610892741601,
                -1.517586961300256,
                0.016325674198627738,
                -0.18674273519538476,
                0.04791646653415549,
                -1.64955407221801
            ]
        },
        {
            "positions": [
                -0.5741539220762855,
                -1.559851012111256,
                -0.1219468876802221,
                -0.09624936049395216,
                0.05710524123747074,
                -1.5771316147416559
            ]
        },
        {
            "positions": [
                -0.5346467548784111,
                -1.6021150629222567,
                -0.26021944955907217,
                -0.005755985792519569,
                0.06629401594078599,
                -1.504709157265302
            ]
        },
        {
            "positions": [
                -0.4951395876805365,
                -1.6443791137332568,
                -0.39849201143792223,
                0.08473738890891302,
                0.07548279064410124,
                -1.432286699788948
            ]
        },
        {
            "positions": [
                -0.455632420482662,
                -1.6866431645442574,
                -0.5367645733167721,
                0.17523076361034562,
                0.08467156534741649,
                -1.359864242312594
            ]
        },
        {
            "positions": [
                -0.41612525328478756,
                -1.7289072153552576,
                -0.6750371351956221,
                0.2657241383117781,
                0.09386034005073174,
                -1.28744178483624
            ]
        },
        {
            "positions": [
                -0.37661808608691305,
                -1.7711712661662582,
                -0.8133096970744722,
                0.3562175130132108,
                0.10304911475404699,
                -1.2150193273598862
            ]
        },
        {
            "positions": [
                -0.33711091888903844,
                -1.8134353169772583,
                -0.9515822589533225,
                0.4467108877146435,
                0.11223788945736224,
                -1.142596869883532
            ]
        },
        {
            "positions": [
                -0.29760375169116404,
                -1.8556993677882587,
                -1.0898548208321723,
                0.537204262416076,
                0.12142666416067749,
                -1.0701744124071781
            ]
        },
        {
            "positions": [
                -0.2580965844932894,
                -1.897963418599259,
                -1.2281273827110222,
                0.6276976371175087,
                0.13061543886399274,
                -0.997751954930824
            ]
        },
        {
            "positions": [
                -0.21858941729541503,
                -1.9402274694102595,
                -1.366399944589872,
                0.7181910118189412,
                0.139804213567308,
                -0.9253294974544701
            ]
        },
        {
            "positions": [
                -0.17908225009754053,
                -1.9824915202212599,
                -1.5046725064687223,
                0.8086843865203739,
                0.14899298827062324,
                -0.8529070399781162
            ]
        },
        {
            "positions": [
                -0.13957508289966603,
                -2.0247555710322604,
                -1.6429450683475721,
                0.8991777612218064,
                0.1581817629739385,
                -0.7804845825017623
            ]
        },
        {
            "positions": [
                -0.10006791570179152,
                -2.0670196218432606,
                -1.7812176302264224,
                0.9896711359232391,
                0.16737053767725374,
                -0.7080621250254082
            ]
        },
        {
            "positions": [
                -0.06056074850391702,
                -2.1092836726542608,
                -1.9194901921052723,
                1.0801645106246716,
                0.176559312380569,
                -0.6356396675490543
            ]
        },
        {
            "positions": [
                -0.021053581306042513,
                -2.1515477234652614,
                -2.0577627539841226,
                1.1706578853261043,
                0.18574808708388424,
                -0.5632172100727002
            ]
        },
        {
            "positions": [
                0.01845358589183199,
                -2.193811774276262,
                -2.196035315862972,
                1.2611512600275367,
                0.1949368617871995,
                -0.4907947525963463
            ]
        },
        {
            "positions": [
                0.057960753089706496,
                -2.236075825087262,
                -2.3343078777418222,
                1.3516446347289697,
                0.20412563649051474,
                -0.4183722951199924
            ]
        },
        {
            "positions": [
                0.09746792028758089,
                -2.2783398758982623,
                -2.472580439620672,
                1.4421380094304017,
                0.21331441119383,
                -0.3459498376436385
            ]
        },
        {
            "positions": [
                0.1369750874854554,
                -2.320603926709263,
                -2.6108530014995224,
                1.5326313841318349,
                0.22250318589714524,
                -0.27352738016728434
            ]
        },
        {
            "positions": [
                0.029350254238737092,
                -2.306758412953586,
                -2.532752427106709,
                1.525299271343142,
                0.20731264388172413,
                -0.1844155746397582
            ]
        },
        {
            "positions": [
                -0.07827457900798121,
                -2.292912899197909,
                -2.454651852713896,
                1.5179671585544492,
                0.192122101866303,
                -0.09530376911223204
            ]
        },
        {
            "positions": [
                -0.1858994122546995,
                -2.279067385442232,
                -2.3765512783210827,
                1.5106350457657562,
                0.17693155985088188,
                -0.006191963584705839
            ]
        }
    ]
}