{
    "goal": {
        "global_pose": {
            "orientation": {
                "w": -0.4816463035849501,
                "x": 0.5182115481033762,
                "y": 0.4908360881923453,
                "z": -0.5084816262002911
            },
            "position": {
                "x": -0.8240239810943604,
                "y": -0.300875300988555,
                "z": 0.16403168439865112
            }
        },
        "name": "move_to_storage_C"
    },
    "id": "PRM_move_to_storage_C_93",
    "joint_names": [
        "shoulder_pan_joint",
        "shoulder_lift_joint",
        "elbow_joint",
        "wrist_1_joint",
        "wrist_2_joint",
        "wrist_3_joint"
    ],
    "metrics": {
        "cart_traj_len": 0.5763651508095955,
        "distance_elbow_joint": 0.25894634757820123,
        "distance_shoulder_lift_joint": 0.18883073039979759,
        "distance_shoulder_pan_joint": 0.49445534271424485,
        "distance_wrist_1_joint": 0.08136060784652066,
        "distance_wrist_2_joint": 1.066305196739005,
        "distance_wrist_3_joint": 0.07303568919623249,
        "smoothness": 0.0,
        "time": 0.015441597000000001,
        "traj_len": 1.470691644932411,
        "weighted_distance": 1.8592124938941197
    },
    "planner": "PRM",
    "start": {
        "state": {
            "elbow_joint": 2.010868314990456,
            "shoulder_lift_joint": -1.1634956873337592,
            "shoulder_pan_joint": -2.4736205022346125,
            "wrist_1_joint": -0.8367026794202681,
            "wrist_2_joint": 0.6746043897044499,
            "wrist_3_joint": -3.1496632123970403
        }
    },
    "waypoints": [
        {
            "positions": [
                -2.4736205022346125,
                -1.1634956873337592,
                2.010868314990456,
                -0.8367026794202681,
                0.6746043897044499,
                -3.1496632123970403
            ]
        },
        {
            "positions": [
                -2.55602972602032,
                -1.132023898933793,
                1.967710590394089,
                -0.8231425781125147,
                0.8523219224942841,
                -3.1374905975310017
            ]
        },
        {
            "positions": [
                -2.6384389498060274,
                -1.1005521105338267,
                1.924552865797722,
                -0.8095824768047613,
                1.0300394552841183,
                -3.1253179826649626
            ]
        },
        {
            "positions": [
                -2.720848173591735,
                -1.0690803221338605,
                1.8813951412013552,
                -0.7960223754970077,
                1.2077569880739523,
                -3.113145367798924
            ]
        },
        {
            "positions": [
                -2.8032573973774424,
                -1.037608533733894,
                1.8382374166049884,
                -0.7824622741892543,
                1.3854745208637866,
                -3.1009727529328854
            ]
        },
        {
            "positions": [
                -2.88566662116315,
                -1.0061367453339278,
                1.7950796920086214,
                -0.7689021728815009,
                1.5631920536536206,
                -3.0888001380668464
            ]
        },
        {
            "positions": [
                -2.9680758449488573,
                -0.9746649569339616,
                1.7519219674122546,
                -0.7553420715737474,
                1.7409095864434547,
                -3.076627523200808
            ]
        }
    ]
}