{
    "goal": {
        "global_pose": {
            "orientation": {
                "w": 0.7031023480610252,
                "x": -0.7110244013736278,
                "y": 0.0077485991402295624,
                "z": 0.005598929693374583
            },
            "position": {
                "x": -0.8841497679147869,
                "y": 0.44412534475326537,
                "z": 0.3711530566215515
            }
        },
        "name": "move_to_auspresseinheit_D"
    },
    "id": "PRM_move_to_auspresseinheit_D_7",
    "joint_names": [
        "shoulder_pan_joint",
        "shoulder_lift_joint",
        "elbow_joint",
        "wrist_1_joint",
        "wrist_2_joint",
        "wrist_3_joint"
    ],
    "metrics": {
        "cart_traj_len": 0.3453534107645984,
        "distance_elbow_joint": 0.6640359238779685,
        "distance_shoulder_lift_joint": 0.13499353471734388,
        "distance_shoulder_pan_joint": 0.134325199723373,
        "distance_wrist_1_joint": 0.6044976033842935,
        "distance_wrist_2_joint": 1.4465062812104463,
        "distance_wrist_3_joint": 0.05401602482655221,
        "smoothness": 9.868649130251064e-16,
        "time": 0.016154209,
        "traj_len": 1.7430933904240409,
        "weighted_distance": 2.279782994494832
    },
    "planner": "PRM",
    "start": {
        "state": {
            "elbow_joint": -1.8275523626775212,
            "shoulder_lift_joint": -2.126789852344167,
            "shoulder_pan_joint": -0.03513704404078235,
            "wrist_1_joint": -2.347782403156801,
            "wrist_2_joint": -1.6058999987535132,
            "wrist_3_joint": -3.0880379163319196
        }
    },
    "waypoints": [
        {
            "positions": [
                -0.03513704404078235,
                -2.126789852344167,
                -1.8275523626775212,
                -2.347782403156801,
                -1.6058999987535132,
                -3.0880379163319196
            ]
        },
        {
            "positions": [
                -0.05192769400620398,
                -2.1436640441838346,
                -1.7445478721927752,
                -2.4233446035798374,
                -1.4250867136022074,
                -3.0812859132286006
            ]
        },
        {
            "positions": [
                -0.0687183439716256,
                -2.160538236023503,
                -1.6615433817080292,
                -2.4989068040028743,
                -1.2442734284509016,
                -3.0745339101252815
            ]
        },
        {
            "positions": [
                -0.08550899393704722,
                -2.177412427863171,
                -1.578538891223283,
                -2.574469004425911,
                -1.0634601432995958,
                -3.0677819070219625
            ]
        },
        {
            "positions": [
                -0.10229964390246885,
                -2.194286619702839,
                -1.495534400738537,
                -2.650031204848948,
                -0.88264685814829,
                -3.0610299039186435
            ]
        },
        {
            "positions": [
                -0.11909029386789047,
                -2.2111608115425065,
                -1.412529910253791,
                -2.7255934052719843,
                -0.7018335729969842,
                -3.0542779008153245
            ]
        },
        {
            "positions": [
                -0.13588094383331212,
                -2.2280350033821748,
                -1.3295254197690447,
                -2.801155605695021,
                -0.5210202878456784,
                -3.0475258977120054
            ]
        },
        {
            "positions": [
                -0.15267159379873374,
                -2.244909195221843,
                -1.2465209292842987,
                -2.876717806118058,
                -0.34020700269437265,
                -3.0407738946086864
            ]
        },
        {
            "positions": [
                -0.16946224376415536,
                -2.2617833870615107,
                -1.1635164387995527,
                -2.9522800065410943,
                -0.15939371754306683,
                -3.0340218915053674
            ]
        }
    ]
}