{
    "goal": {
        "global_pose": {
            "orientation": {
                "w": -0.4816463035849501,
                "x": 0.5182115481033762,
                "y": 0.4908360881923453,
                "z": -0.5084816262002911
            },
            "position": {
                "x": -0.8240239810943604,
                "y": -0.300875300988555,
                "z": 0.16403168439865112
            }
        },
        "name": "move_to_storage_C"
    },
    "id": "PRM_move_to_storage_C_141",
    "joint_names": [
        "shoulder_pan_joint",
        "shoulder_lift_joint",
        "elbow_joint",
        "wrist_1_joint",
        "wrist_2_joint",
        "wrist_3_joint"
    ],
    "metrics": {
        "cart_traj_len": 0.5769482002650154,
        "distance_elbow_joint": 0.25566310000329007,
        "distance_shoulder_lift_joint": 0.18886836678186303,
        "distance_shoulder_pan_joint": 0.49530261910829454,
        "distance_wrist_1_joint": 0.0688710207277079,
        "distance_wrist_2_joint": 1.066815872681464,
        "distance_wrist_3_joint": 0.0646230126606464,
        "smoothness": 2.5376526478085547e-16,
        "time": 0.014914998,
        "traj_len": 1.462923098444777,
        "weighted_distance": 1.845285048629
    },
    "planner": "PRM",
    "start": {
        "state": {
            "elbow_joint": 2.010868314990456,
            "shoulder_lift_joint": -1.1634956873337592,
            "shoulder_pan_joint": -2.4736205022346125,
            "wrist_1_joint": -0.8367026794202681,
            "wrist_2_joint": 0.6746043897044499,
            "wrist_3_joint": -3.1496632123970403
        }
    },
    "waypoints": [
        {
            "positions": [
                -2.4736205022346125,
                -1.1634956873337592,
                2.010868314990456,
                -0.8367026794202681,
                0.6746043897044499,
                -3.1496632123970403
            ]
        },
        {
            "positions": [
                -2.5561709387526617,
                -1.1320176262034487,
                1.9682577983232408,
                -0.8252241759656501,
                0.8524070351513606,
                -3.1388927102869326
            ]
        },
        {
            "positions": [
                -2.638721375270711,
                -1.1005395650731382,
                1.9256472816560257,
                -0.8137456725110321,
                1.0302096805982712,
                -3.128122208176825
            ]
        },
        {
            "positions": [
                -2.7212718117887595,
                -1.0690615039428277,
                1.8830367649888107,
                -0.8022671690564142,
                1.208012326045182,
                -3.1173517060667173
            ]
        },
        {
            "positions": [
                -2.8038222483068087,
                -1.0375834428125172,
                1.8404262483215958,
                -0.7907886656017962,
                1.3858149714920924,
                -3.106581203956609
            ]
        },
        {
            "positions": [
                -2.886372684824858,
                -1.0061053816822065,
                1.7978157316543808,
                -0.7793101621471782,
                1.5636176169390033,
                -3.0958107018465015
            ]
        },
        {
            "positions": [
                -2.968923121342907,
                -0.9746273205518962,
                1.7552052149871658,
                -0.7678316586925602,
                1.741420262385914,
                -3.085040199736394
            ]
        }
    ]
}