{
    "goal": {
        "global_pose": {
            "orientation": {
                "w": 0.005598929693374612,
                "x": 0.007748599140229565,
                "y": 0.7110244013736278,
                "z": -0.7031023480610252
            },
            "position": {
                "x": -0.8858502320852131,
                "y": -0.7141253447532654,
                "z": 0.3711530566215515
            }
        },
        "name": "move_to_auspresseinheit_C"
    },
    "id": "PRM_move_to_auspresseinheit_C_68",
    "joint_names": [
        "shoulder_pan_joint",
        "shoulder_lift_joint",
        "elbow_joint",
        "wrist_1_joint",
        "wrist_2_joint",
        "wrist_3_joint"
    ],
    "metrics": {
        "cart_traj_len": 0.49403943062181227,
        "distance_elbow_joint": 1.0097681029158636,
        "distance_shoulder_lift_joint": 0.33011176826069266,
        "distance_shoulder_pan_joint": 0.25689989057749685,
        "distance_wrist_1_joint": 0.6961611678761087,
        "distance_wrist_2_joint": 1.3120222752983617,
        "distance_wrist_3_joint": 0.06183299386389152,
        "smoothness": 6.45947944157498e-16,
        "time": 0.039530991,
        "traj_len": 1.9148880381871978,
        "weighted_distance": 2.408037713511703
    },
    "planner": "PRM",
    "start": {
        "state": {
            "elbow_joint": 1.7527959577737207,
            "shoulder_lift_joint": -0.9740617694225068,
            "shoulder_pan_joint": -2.967991417825858,
            "wrist_1_joint": -0.759517768980727,
            "wrist_2_joint": 1.7443932448377408,
            "wrist_3_joint": -3.0840537646736568
        }
    },
    "waypoints": [
        {
            "positions": [
                -2.967991417825858,
                -0.9740617694225068,
                1.7527959577737207,
                -0.759517768980727,
                1.7443932448377408,
                -3.0840537646736568
            ]
        },
        {
            "positions": [
                -2.942301428768108,
                -0.9410505925964375,
                1.6518191474821342,
                -0.689901652193116,
                1.6131910173079047,
                -3.090237064060046
            ]
        },
        {
            "positions": [
                -2.9166114397103584,
                -0.9080394157703683,
                1.550842337190548,
                -0.6202855354055052,
                1.4819887897780686,
                -3.096420363446435
            ]
        },
        {
            "positions": [
                -2.890921450652609,
                -0.8750282389442989,
                1.4498655268989615,
                -0.5506694186178944,
                1.3507865622482322,
                -3.1026036628328244
            ]
        },
        {
            "positions": [
                -2.8652314615948593,
                -0.8420170621182297,
                1.3488887166073753,
                -0.4810533018302835,
                1.2195843347183961,
                -3.1087869622192135
            ]
        },
        {
            "positions": [
                -2.8395414725371095,
                -0.8090058852921604,
                1.2479119063157889,
                -0.4114371850426726,
                1.08838210718856,
                -3.1149702616056025
            ]
        },
        {
            "positions": [
                -2.8138514834793598,
                -0.7759947084660912,
                1.1469350960242024,
                -0.34182106825506176,
                0.9571798796587239,
                -3.1211535609919916
            ]
        },
        {
            "positions": [
                -2.78816149442161,
                -0.742983531640022,
                1.0459582857326162,
                -0.27220495146745094,
                0.8259776521288877,
                -3.1273368603783807
            ]
        },
        {
            "positions": [
                -2.7624715053638607,
                -0.7099723548139527,
                0.9449814754410297,
                -0.20258883467984,
                0.6947754245990514,
                -3.13352015976477
            ]
        },
        {
            "positions": [
                -2.736781516306111,
                -0.6769611779878834,
                0.8440046651494434,
                -0.1329727178922291,
                0.5635731970692153,
                -3.1397034591511592
            ]
        },
        {
            "positions": [
                -2.711091527248361,
                -0.6439500011618141,
                0.7430278548578569,
                -0.06335660110461831,
                0.43237096953937926,
                -3.1458867585375483
            ]
        }
    ]
}