{
    "goal": {
        "global_pose": {
            "orientation": {
                "w": 0.5084816262002911,
                "x": -0.4908360881923452,
                "y": 0.5182115481033761,
                "z": -0.48164630358495003
            },
            "position": {
                "x": 0.5540239810943604,
                "y": -0.46912469901144505,
                "z": 0.16403168439865112
            }
        },
        "name": "move_to_storage_B"
    },
    "id": "PRM_move_to_storage_B_129",
    "joint_names": [
        "shoulder_pan_joint",
        "shoulder_lift_joint",
        "elbow_joint",
        "wrist_1_joint",
        "wrist_2_joint",
        "wrist_3_joint"
    ],
    "metrics": {
        "cart_traj_len": 0.7508726075625544,
        "distance_elbow_joint": 0.34810293636799416,
        "distance_shoulder_lift_joint": 0.45832659795716957,
        "distance_shoulder_pan_joint": 0.2767240229230793,
        "distance_wrist_1_joint": 3.1613554923105207,
        "distance_wrist_2_joint": 2.707850988268603,
        "distance_wrist_3_joint": 3.13539955835479,
        "smoothness": 0.14108005545988614,
        "time": 0.224635621,
        "traj_len": 3.1761233597236362,
        "weighted_distance": 4.714633092136742
    },
    "planner": "PRM",
    "start": {
        "state": {
            "elbow_joint": 1.664937868594044,
            "shoulder_lift_joint": -0.661644460510453,
            "shoulder_pan_joint": -0.9139846352900073,
            "wrist_1_joint": 2.146753192139373,
            "wrist_2_joint": -2.2341966793290973,
            "wrist_3_joint": 0.005466555786416001
        }
    },
    "waypoints": [
        {
            "positions": [
                -0.9139846352900073,
                -0.661644460510453,
                1.664937868594044,
                2.146753192139373,
                -2.2341966793290973,
                0.005466555786416001
            ]
        },
        {
            "positions": [
                -0.9546221497984646,
                -0.672990600234999,
                1.6883413561860519,
                2.180782243845516,
                -2.1266984492077454,
                0.16011868014679362
            ]
        },
        {
            "positions": [
                -0.9386595945691132,
                -0.7392686789080006,
                1.7511405004179517,
                2.1995086077512735,
                -2.0111158292860885,
                0.23142806613312558
            ]
        },
        {
            "positions": [
                -0.9226970393397618,
                -0.8055467575810022,
                1.8139396446498512,
                2.218234971657031,
                -1.8955332093644317,
                0.3027374521194576
            ]
        },
        {
            "positions": [
                -0.9067344841104104,
                -0.871824836254004,
                1.876738788881751,
                2.2369613355627886,
                -1.779950589442775,
                0.37404683810578954
            ]
        },
        {
            "positions": [
                -0.9152889769616179,
                -0.8831042099909866,
                1.8829343350672187,
                2.0973637287951927,
                -1.6775140031526712,
                0.4998113506528539
            ]
        },
        {
            "positions": [
                -0.9238434698128256,
                -0.8943835837279693,
                1.8891298812526862,
                1.9577661220275973,
                -1.5750774168625676,
                0.6255758631999183
            ]
        },
        {
            "positions": [
                -0.9323979626640332,
                -0.905662957464952,
                1.895325427438154,
                1.8181685152600016,
                -1.4726408305724639,
                0.7513403757469828
            ]
        },
        {
            "positions": [
                -0.9409524555152409,
                -0.9169423312019346,
                1.9015209736236214,
                1.6785709084924059,
                -1.3702042442823603,
                0.8771048882940471
            ]
        },
        {
            "positions": [
                -0.9495069483664484,
                -0.9282217049389173,
                1.907716519809089,
                1.53897330172481,
                -1.2677676579922568,
                1.0028694008411114
            ]
        },
        {
            "positions": [
                -0.9580614412176561,
                -0.9395010786758999,
                1.9139120659945565,
                1.3993756949572145,
                -1.165331071702153,
                1.128633913388176
            ]
        },
        {
            "positions": [
                -0.9666159340688637,
                -0.9507804524128827,
                1.9201076121800242,
                1.2597780881896186,
                -1.0628944854120492,
                1.2543984259352403
            ]
        },
        {
            "positions": [
                -0.9751704269200714,
                -0.9620598261498653,
                1.9263031583654917,
                1.1201804814220229,
                -0.9604578991219456,
                1.3801629384823046
            ]
        },
        {
            "positions": [
                -0.983724919771279,
                -0.9733391998868479,
                1.9324987045509594,
                0.9805828746544272,
                -0.8580213128318419,
                1.5059274510293692
            ]
        },
        {
            "positions": [
                -0.9922794126224865,
                -0.9846185736238307,
                1.9386942507364269,
                0.8409852678868315,
                -0.7555847265417384,
                1.6316919635764335
            ]
        },
        {
            "positions": [
                -1.0008339054736943,
                -0.9958979473608133,
                1.9448897969218946,
                0.7013876611192358,
                -0.6531481402516346,
                1.7574564761234979
            ]
        },
        {
            "positions": [
                -1.009388398324902,
                -1.007177321097796,
                1.951085343107362,
                0.5617900543516401,
                -0.550711553961531,
                1.8832209886705622
            ]
        },
        {
            "positions": [
                -1.0179428911761095,
                -1.0184566948347786,
                1.9572808892928297,
                0.4221924475840442,
                -0.44827496767142727,
                2.0089855012176265
            ]
        },
        {
            "positions": [
                -1.026497384027317,
                -1.0297360685717614,
                1.9634764354782974,
                0.2825948408164487,
                -0.3458383813813235,
                2.134750013764691
            ]
        },
        {
            "positions": [
                -1.0350518768785246,
                -1.0410154423087439,
                1.969671981663765,
                0.142997234048853,
                -0.24340179509121995,
                2.260514526311755
            ]
        },
        {
            "positions": [
                -1.0436063697297324,
                -1.0522948160457266,
                1.9758675278492326,
                0.0033996272812570894,
                -0.14096520880111618,
                2.3862790388588198
            ]
        },
        {
            "positions": [
                -1.05216086258094,
                -1.0635741897827093,
                1.9820630740347,
                -0.13619797948633838,
                -0.038528622511012633,
                2.5120435514058843
            ]
        },
        {
            "positions": [
                -1.0607153554321476,
                -1.0748535635196919,
                1.9882586202201677,
                -0.2757955862539343,
                0.06390796377909114,
                2.637808063952949
            ]
        },
        {
            "positions": [
                -1.0692698482833551,
                -1.0861329372566746,
                1.9944541664056352,
                -0.41539319302152977,
                0.16634455006919469,
                2.763572576500013
            ]
        },
        {
            "positions": [
                -1.077824341134563,
                -1.0974123109936573,
                2.0006497125911027,
                -0.5549907997891257,
                0.26878113635929823,
                2.8893370890470775
            ]
        },
        {
            "positions": [
                -1.0863788339857705,
                -1.1086916847306398,
                2.0068452587765706,
                -0.6945884065567216,
                0.3712177226494022,
                3.015101601594142
            ]
        },
        {
            "positions": [
                -1.094933326836978,
                -1.1199710584676226,
                2.013040804962038,
                -0.8341860133243173,
                0.4736543089395057,
                3.140866114141206
            ]
        }
    ]
}