{
    "goal": {
        "global_pose": {
            "orientation": {
                "w": 0.7031023502349854,
                "x": -0.7110244035720825,
                "y": 0.007748599164187908,
                "z": 0.005598929710686207
            },
            "position": {
                "x": 0.11585023208521307,
                "y": 0.44412534475326537,
                "z": 0.3711530566215515
            }
        },
        "name": "move_to_auspresseinheit_A"
    },
    "id": "PRM_move_to_auspresseinheit_A_45",
    "joint_names": [
        "shoulder_pan_joint",
        "shoulder_lift_joint",
        "elbow_joint",
        "wrist_1_joint",
        "wrist_2_joint",
        "wrist_3_joint"
    ],
    "metrics": {
        "cart_traj_len": 3.240838849268462,
        "distance_elbow_joint": 3.7149514209779255,
        "distance_shoulder_lift_joint": 0.6589055441647684,
        "distance_shoulder_pan_joint": 4.857888233085957,
        "distance_wrist_1_joint": 2.029079943940816,
        "distance_wrist_2_joint": 2.0571828130042387,
        "distance_wrist_3_joint": 3.8643600564046534,
        "smoothness": 0.6996730585582026,
        "time": 0.310332604,
        "traj_len": 4.145162000643443,
        "weighted_distance": 5.384918837023704
    },
    "planner": "PRM",
    "start": {
        "state": {
            "elbow_joint": 2.4225746658250005,
            "shoulder_lift_joint": -1.3736534386056498,
            "shoulder_pan_joint": -0.3378633547517467,
            "wrist_1_joint": -1.0288598680537169,
            "wrist_2_joint": 1.233022673432363,
            "wrist_3_joint": -3.0940220416140027
        }
    },
    "waypoints": [
        {
            "positions": [
                -0.3378633547517467,
                -1.3736534386056498,
                2.4225746658250005,
                -1.0288598680537169,
                1.233022673432363,
                -3.0940220416140027
            ]
        },
        {
            "positions": [
                -0.42451375814333037,
                -1.3896158025926169,
                2.3375266060570707,
                -0.9713946653604605,
                1.174491225875967,
                -3.0070244564142206
            ]
        },
        {
            "positions": [
                -0.511164161534914,
                -1.4055781665795841,
                2.2524785462891415,
                -0.9139294626672041,
                1.115959778319571,
                -2.920026871214439
            ]
        },
        {
            "positions": [
                -0.5978145649264976,
                -1.4215405305665512,
                2.1674304865212117,
                -0.8564642599739478,
                1.0574283307631749,
                -2.833029286014657
            ]
        },
        {
            "positions": [
                -0.6844649683180812,
                -1.4375028945535184,
                2.0823824267532824,
                -0.7989990572806914,
                0.9988968832067788,
                -2.746031700814875
            ]
        },
        {
            "positions": [
                -0.7711153717096648,
                -1.4534652585404855,
                1.9973343669853527,
                -0.741533854587435,
                0.9403654356503828,
                -2.6590341156150927
            ]
        },
        {
            "positions": [
                -0.8577657751012484,
                -1.4694276225274525,
                1.9122863072174232,
                -0.6840686518941788,
                0.8818339880939868,
                -2.572036530415311
            ]
        },
        {
            "positions": [
                -0.944416178492832,
                -1.4853899865144198,
                1.8272382474494937,
                -0.6266034492009223,
                0.8233025405375907,
                -2.4850389452155293
            ]
        },
        {
            "positions": [
                -1.0310665818844158,
                -1.5013523505013868,
                1.742190187681564,
                -0.569138246507666,
                0.7647710929811946,
                -2.398041360015747
            ]
        },
        {
            "positions": [
                -1.1177169852759994,
                -1.517314714488354,
                1.6571421279136345,
                -0.5116730438144095,
                0.7062396454247987,
                -2.311043774815965
            ]
        },
        {
            "positions": [
                -1.204367388667583,
                -1.5332770784753211,
                1.572094068145705,
                -0.4542078411211532,
                0.6477081978684026,
                -2.224046189616183
            ]
        },
        {
            "positions": [
                -1.2910177920591666,
                -1.5492394424622882,
                1.4870460083777755,
                -0.3967426384278968,
                0.5891767503120066,
                -2.1370486044164014
            ]
        },
        {
            "positions": [
                -1.3776681954507501,
                -1.5652018064492554,
                1.401997948609846,
                -0.33927743573464053,
                0.5306453027556106,
                -2.0500510192166193
            ]
        },
        {
            "positions": [
                -1.464318598842334,
                -1.5811641704362225,
                1.3169498888419162,
                -0.28181223304138403,
                0.47211385519921445,
                -1.9630534340168373
            ]
        },
        {
            "positions": [
                -1.5509690022339173,
                -1.5971265344231897,
                1.231901829073987,
                -0.22434703034812775,
                0.4135824076428184,
                -1.8760558488170553
            ]
        },
        {
            "positions": [
                -1.637619405625501,
                -1.6130888984101568,
                1.1468537693060574,
                -0.16688182765487136,
                0.35505096008642245,
                -1.7890582636172734
            ]
        },
        {
            "positions": [
                -1.7242698090170847,
                -1.629051262397124,
                1.0618057095381277,
                -0.10941662496161497,
                0.2965195125300263,
                -1.7020606784174914
            ]
        },
        {
            "positions": [
                -1.8109202124086683,
                -1.645013626384091,
                0.9767576497701982,
                -0.05195142226835858,
                0.23798806497363034,
                -1.6150630932177095
            ]
        },
        {
            "positions": [
                -1.897570615800252,
                -1.6609759903710581,
                0.8917095900022685,
                0.005513780424897918,
                0.1794566174172343,
                -1.5280655080179275
            ]
        },
        {
            "positions": [
                -1.9842210191918357,
                -1.6769383543580254,
                0.806661530234339,
                0.0629789831181542,
                0.12092516986083823,
                -1.4410679228181456
            ]
        },
        {
            "positions": [
                -2.0708714225834193,
                -1.6929007183449925,
                0.7216134704664097,
                0.12044418581141048,
                0.06239372230444218,
                -1.3540703376183636
            ]
        },
        {
            "positions": [
                -2.157521825975003,
                -1.7088630823319597,
                0.6365654106984799,
                0.17790938850466698,
                0.003862274748046124,
                -1.2670727524185816
            ]
        },
        {
            "positions": [
                -2.2441722293665864,
                -1.7248254463189268,
                0.5515173509305504,
                0.23537459119792326,
                -0.05466917280834993,
                -1.1800751672187997
            ]
        },
        {
            "positions": [
                -2.1064736902923578,
                -1.7371610815405543,
                0.639390273224681,
                0.19843490502830388,
                -0.04026431185794057,
                -1.2700434041942783
            ]
        },
        {
            "positions": [
                -1.9687751512181295,
                -1.749496716762182,
                0.7272631955188116,
                0.1614952188586845,
                -0.02585945090753121,
                -1.360011641169757
            ]
        },
        {
            "positions": [
                -1.831076612143901,
                -1.7618323519838095,
                0.8151361178129422,
                0.12455553268906513,
                -0.011454589957121855,
                -1.4499798781452353
            ]
        },
        {
            "positions": [
                -1.6933780730696726,
                -1.774167987205437,
                0.9030090401070728,
                0.08761584651944576,
                0.0029502709932875126,
                -1.539948115120714
            ]
        },
        {
            "positions": [
                -1.555679533995444,
                -1.7865036224270647,
                0.9908819624012034,
                0.05067616034982639,
                0.017355131943696867,
                -1.6299163520961923
            ]
        },
        {
            "positions": [
                -1.4179809949212157,
                -1.7988392576486922,
                1.0787548846953339,
                0.013736474180207014,
                0.03175999289410622,
                -1.719884589071671
            ]
        },
        {
            "positions": [
                -1.280282455846987,
                -1.8111748928703197,
                1.1666278069894647,
                -0.02320321198941233,
                0.046164853844515574,
                -1.8098528260471496
            ]
        },
        {
            "positions": [
                -1.1425839167727585,
                -1.8235105280919472,
                1.2545007292835952,
                -0.06014289815903173,
                0.060569714794924956,
                -1.8998210630226282
            ]
        },
        {
            "positions": [
                -1.00488537769853,
                -1.835846163313575,
                1.3423736515777258,
                -0.09708258432865113,
                0.07497457574533431,
                -1.9897892999981068
            ]
        },
        {
            "positions": [
                -0.8671868386243016,
                -1.8481817985352025,
                1.4302465738718564,
                -0.13402227049827048,
                0.08937943669574366,
                -2.0797575369735855
            ]
        },
        {
            "positions": [
                -0.7294882995500729,
                -1.86051743375683,
                1.518119496165987,
                -0.17096195666788988,
                0.10378429764615305,
                -2.1697257739490636
            ]
        },
        {
            "positions": [
                -0.5917897604758446,
                -1.8728530689784577,
                1.6059924184601175,
                -0.20790164283750923,
                0.11818915859656237,
                -2.2596940109245423
            ]
        },
        {
            "positions": [
                -0.45409122140161595,
                -1.8851887042000852,
                1.693865340754248,
                -0.24484132900712863,
                0.13259401954697175,
                -2.349662247900021
            ]
        },
        {
            "positions": [
                -0.3163926823273877,
                -1.8975243394217127,
                1.7817382630483787,
                -0.2817810151767479,
                0.14699888049738108,
                -2.439630484875499
            ]
        },
        {
            "positions": [
                -0.17869414325315924,
                -1.9098599746433402,
                1.8696111853425093,
                -0.3187207013463673,
                0.16140374144779046,
                -2.529598721850978
            ]
        },
        {
            "positions": [
                -0.040995604178930556,
                -1.922195609864968,
                1.95748410763664,
                -0.3556603875159867,
                0.17580860239819984,
                -2.6195669588264567
            ]
        },
        {
            "positions": [
                0.09670293489529769,
                -1.9345312450865955,
                2.045357029930771,
                -0.3926000736856061,
                0.19021346334860917,
                -2.7095351958019354
            ]
        },
        {
            "positions": [
                0.23440147396952637,
                -1.946866880308223,
                2.133229952224901,
                -0.4295397598552255,
                0.20461832429901855,
                -2.7995034327774135
            ]
        },
        {
            "positions": [
                0.3721000130437546,
                -1.9592025155298507,
                2.2211028745190315,
                -0.4664794460248448,
                0.21902318524942788,
                -2.889471669752892
            ]
        },
        {
            "positions": [
                0.5097985521179832,
                -1.9715381507514782,
                2.3089757968131623,
                -0.5034191321944642,
                0.23342804619983726,
                -2.979439906728371
            ]
        },
        {
            "positions": [
                0.5756680777801662,
                -1.9511978734118316,
                2.337787683546783,
                -0.49473521176220153,
                0.39389262878495046,
                -3.0297893875616637
            ]
        },
        {
            "positions": [
                0.6415376034423492,
                -1.9308575960721848,
                2.3665995702804037,
                -0.4860512913299388,
                0.5543572113700637,
                -3.0801388683949567
            ]
        },
        {
            "positions": [
                0.7074071291045322,
                -1.9105173187325382,
                2.395411457014024,
                -0.4773673708976761,
                0.7148217939551769,
                -3.1304883492282496
            ]
        }
    ]
}