{
    "goal": {
        "global_pose": {
            "orientation": {
                "w": 0.005598929693374612,
                "x": 0.007748599140229565,
                "y": 0.7110244013736278,
                "z": -0.7031023480610252
            },
            "position": {
                "x": -0.8858502320852131,
                "y": -0.7141253447532654,
                "z": 0.3711530566215515
            }
        },
        "name": "move_to_auspresseinheit_C"
    },
    "id": "PRM_move_to_auspresseinheit_C_112",
    "joint_names": [
        "shoulder_pan_joint",
        "shoulder_lift_joint",
        "elbow_joint",
        "wrist_1_joint",
        "wrist_2_joint",
        "wrist_3_joint"
    ],
    "metrics": {
        "cart_traj_len": 0.49251268151762945,
        "distance_elbow_joint": 0.994156740927035,
        "distance_shoulder_lift_joint": 0.32174779488676997,
        "distance_shoulder_pan_joint": 0.25568405119687787,
        "distance_wrist_1_joint": 0.665210089857465,
        "distance_wrist_2_joint": 1.3121080976340003,
        "distance_wrist_3_joint": 0.04603201769144105,
        "smoothness": 8.074349282788172e-16,
        "time": 0.019283035,
        "traj_len": 1.8960323816310705,
        "weighted_distance": 2.379983406469032
    },
    "planner": "PRM",
    "start": {
        "state": {
            "elbow_joint": 1.7527959577737207,
            "shoulder_lift_joint": -0.9740617694225068,
            "shoulder_pan_joint": -2.967991417825858,
            "wrist_1_joint": -0.759517768980727,
            "wrist_2_joint": 1.7443932448377408,
            "wrist_3_joint": -3.0840537646736568
        }
    },
    "waypoints": [
        {
            "positions": [
                -2.967991417825858,
                -0.9740617694225068,
                1.7527959577737207,
                -0.759517768980727,
                1.7443932448377408,
                -3.0840537646736568
            ]
        },
        {
            "positions": [
                -2.94242301270617,
                -0.9418869899338298,
                1.6533802836810172,
                -0.6929967599949804,
                1.613182435074341,
                -3.0886569664428007
            ]
        },
        {
            "positions": [
                -2.9168546075864823,
                -0.9097122104451528,
                1.5539646095883137,
                -0.626475751009234,
                1.4819716253109407,
                -3.093260168211945
            ]
        },
        {
            "positions": [
                -2.8912862024667945,
                -0.8775374309564757,
                1.4545489354956103,
                -0.5599547420234875,
                1.3507608155475408,
                -3.097863369981089
            ]
        },
        {
            "positions": [
                -2.8657177973471066,
                -0.8453626514677988,
                1.3551332614029066,
                -0.49343373303774096,
                1.2195500057841406,
                -3.102466571750233
            ]
        },
        {
            "positions": [
                -2.840149392227419,
                -0.8131878719791218,
                1.255717587310203,
                -0.4269127240519945,
                1.0883391960207407,
                -3.1070697735193775
            ]
        },
        {
            "positions": [
                -2.8145809871077314,
                -0.7810130924904448,
                1.1563019132174996,
                -0.360391715066248,
                0.9571283862573406,
                -3.1116729752885215
            ]
        },
        {
            "positions": [
                -2.7890125819880436,
                -0.7488383130017678,
                1.0568862391247962,
                -0.29387070608050153,
                0.8259175764939407,
                -3.1162761770576655
            ]
        },
        {
            "positions": [
                -2.7634441768683558,
                -0.7166635335130909,
                0.9574705650320926,
                -0.22734969709475494,
                0.6947067667305407,
                -3.1208793788268094
            ]
        },
        {
            "positions": [
                -2.737875771748668,
                -0.6844887540244138,
                0.8580548909393891,
                -0.16082868810900852,
                0.5634959569671405,
                -3.125482580595954
            ]
        },
        {
            "positions": [
                -2.71230736662898,
                -0.6523139745357368,
                0.7586392168466857,
                -0.09430767912326199,
                0.4322851472037405,
                -3.130085782365098
            ]
        }
    ]
}