{
    "goal": {
        "global_pose": {
            "orientation": {
                "w": 0.7031023480610252,
                "x": -0.7110244013736278,
                "y": 0.0077485991402295624,
                "z": 0.005598929693374583
            },
            "position": {
                "x": -0.8841497679147869,
                "y": 0.44412534475326537,
                "z": 0.3711530566215515
            }
        },
        "name": "move_to_auspresseinheit_D"
    },
    "id": "PRM_move_to_auspresseinheit_D_95",
    "joint_names": [
        "shoulder_pan_joint",
        "shoulder_lift_joint",
        "elbow_joint",
        "wrist_1_joint",
        "wrist_2_joint",
        "wrist_3_joint"
    ],
    "metrics": {
        "cart_traj_len": 0.3450391604590675,
        "distance_elbow_joint": 0.6713604870900989,
        "distance_shoulder_lift_joint": 0.13910915073716623,
        "distance_shoulder_pan_joint": 0.13322962726057483,
        "distance_wrist_1_joint": 0.6303831195516527,
        "distance_wrist_2_joint": 1.4431244712778415,
        "distance_wrist_3_joint": 0.07412083700266425,
        "smoothness": 2.9605947279411004e-16,
        "time": 0.016481652,
        "traj_len": 1.7582171916233782,
        "weighted_distance": 2.305011270635096
    },
    "planner": "PRM",
    "start": {
        "state": {
            "elbow_joint": -1.8275523626775212,
            "shoulder_lift_joint": -2.126789852344167,
            "shoulder_pan_joint": -0.03513704404078235,
            "wrist_1_joint": -2.347782403156801,
            "wrist_2_joint": -1.6058999987535132,
            "wrist_3_joint": -3.0880379163319196
        }
    },
    "waypoints": [
        {
            "positions": [
                -0.03513704404078235,
                -2.126789852344167,
                -1.8275523626775212,
                -2.347782403156801,
                -1.6058999987535132,
                -3.0880379163319196
            ]
        },
        {
            "positions": [
                -0.0517907474483542,
                -2.1441784961863126,
                -1.743632301791259,
                -2.4265802931007574,
                -1.425509439843783,
                -3.0787728117065867
            ]
        },
        {
            "positions": [
                -0.06844445085592606,
                -2.1615671400284584,
                -1.6597122409049965,
                -2.505378183044714,
                -1.2451188809340528,
                -3.0695077070812538
            ]
        },
        {
            "positions": [
                -0.0850981542634979,
                -2.178955783870604,
                -1.575792180018734,
                -2.5841760729886705,
                -1.0647283220243227,
                -3.0602426024559204
            ]
        },
        {
            "positions": [
                -0.10175185767106976,
                -2.19634442771275,
                -1.4918721191324718,
                -2.662973962932627,
                -0.8843377631145924,
                -3.0509774978305875
            ]
        },
        {
            "positions": [
                -0.11840556107864161,
                -2.2137330715548957,
                -1.4079520582462095,
                -2.741771852876584,
                -0.7039472042048622,
                -3.0417123932052545
            ]
        },
        {
            "positions": [
                -0.13505926448621347,
                -2.2311217153970415,
                -1.324031997359947,
                -2.8205697428205405,
                -0.5235566452951321,
                -3.032447288579921
            ]
        },
        {
            "positions": [
                -0.15171296789378533,
                -2.2485103592391873,
                -1.2401119364736846,
                -2.899367632764497,
                -0.3431660863854018,
                -3.0231821839545883
            ]
        },
        {
            "positions": [
                -0.16836667130135718,
                -2.265899003081333,
                -1.1561918755874223,
                -2.9781655227084536,
                -0.16277552747567164,
                -3.0139170793292553
            ]
        }
    ]
}