{
    "goal": {
        "global_pose": {
            "orientation": {
                "w": 0.7031023502349854,
                "x": -0.7110244035720825,
                "y": 0.007748599164187908,
                "z": 0.005598929710686207
            },
            "position": {
                "x": 0.11585023208521307,
                "y": 0.44412534475326537,
                "z": 0.3711530566215515
            }
        },
        "name": "move_to_auspresseinheit_A"
    },
    "id": "PRM_move_to_auspresseinheit_A_2",
    "joint_names": [
        "shoulder_pan_joint",
        "shoulder_lift_joint",
        "elbow_joint",
        "wrist_1_joint",
        "wrist_2_joint",
        "wrist_3_joint"
    ],
    "metrics": {
        "cart_traj_len": 1.0172327875998632,
        "distance_elbow_joint": 0.7538488148518603,
        "distance_shoulder_lift_joint": 0.535735122046676,
        "distance_shoulder_pan_joint": 1.0402399967130875,
        "distance_wrist_1_joint": 0.560341096130851,
        "distance_wrist_2_joint": 0.570459379730931,
        "distance_wrist_3_joint": 0.06099080211918473,
        "smoothness": 0.557016784876184,
        "time": 0.16429069599999999,
        "traj_len": 1.8765967098960263,
        "weighted_distance": 2.185039425660952
    },
    "planner": "PRM",
    "start": {
        "state": {
            "elbow_joint": 2.4225746658250005,
            "shoulder_lift_joint": -1.3736534386056498,
            "shoulder_pan_joint": -0.3378633547517467,
            "wrist_1_joint": -1.0288598680537169,
            "wrist_2_joint": 1.233022673432363,
            "wrist_3_joint": -3.0940220416140027
        }
    },
    "waypoints": [
        {
            "positions": [
                -0.3378633547517467,
                -1.3736534386056498,
                2.4225746658250005,
                -1.0288598680537169,
                1.233022673432363,
                -3.0940220416140027
            ]
        },
        {
            "positions": [
                -0.2517902791931269,
                -1.4453172700469608,
                2.3666657570159257,
                -0.9837621942749867,
                1.1539991157400709,
                -3.100815632198843
            ]
        },
        {
            "positions": [
                -0.1657172036345071,
                -1.5169811014882717,
                2.3107568482068515,
                -0.9386645204962566,
                1.074975558047779,
                -3.107609222783683
            ]
        },
        {
            "positions": [
                -0.07964412807588728,
                -1.5886449329295826,
                2.2548479393977767,
                -0.8935668467175264,
                0.9959520003554868,
                -3.1144028133685233
            ]
        },
        {
            "positions": [
                0.006428947482732539,
                -1.6603087643708936,
                2.1989390305887024,
                -0.8484691729387962,
                0.9169284426631947,
                -3.121196403953363
            ]
        },
        {
            "positions": [
                0.09250202304135241,
                -1.7319725958122045,
                2.1430301217796277,
                -0.803371499160066,
                0.8379048849709025,
                -3.1279899945382033
            ]
        },
        {
            "positions": [
                0.17857509859997217,
                -1.8036364272535155,
                2.0871212129705534,
                -0.7582738253813359,
                0.7588813272786106,
                -3.1347835851230434
            ]
        },
        {
            "positions": [
                0.26464817415859204,
                -1.8753002586948264,
                2.0312123041614787,
                -0.7131761516026057,
                0.6798577695863184,
                -3.1415771757078836
            ]
        },
        {
            "positions": [
                0.41055766342617495,
                -1.886663026013993,
                2.152041121890925,
                -0.6316236917093592,
                0.6856225948812805,
                -3.137098619699449
            ]
        },
        {
            "positions": [
                0.5564671526937579,
                -1.8980257933331592,
                2.272869939620371,
                -0.5500712318161125,
                0.6913874201762426,
                -3.1326200636910144
            ]
        },
        {
            "positions": [
                0.7023766419613409,
                -1.9093885606523258,
                2.393698757349817,
                -0.4685187719228659,
                0.6971522454712047,
                -3.12814150768258
            ]
        }
    ]
}