{
    "goal": {
        "global_pose": {
            "orientation": {
                "w": 0.005598929693374612,
                "x": 0.007748599140229565,
                "y": 0.7110244013736278,
                "z": -0.7031023480610252
            },
            "position": {
                "x": -0.8858502320852131,
                "y": -0.7141253447532654,
                "z": 0.3711530566215515
            }
        },
        "name": "move_to_auspresseinheit_C"
    },
    "id": "PRM_move_to_auspresseinheit_C_86",
    "joint_names": [
        "shoulder_pan_joint",
        "shoulder_lift_joint",
        "elbow_joint",
        "wrist_1_joint",
        "wrist_2_joint",
        "wrist_3_joint"
    ],
    "metrics": {
        "cart_traj_len": 0.4931755134185563,
        "distance_elbow_joint": 1.0042725545312676,
        "distance_shoulder_lift_joint": 0.3275446746306695,
        "distance_shoulder_pan_joint": 0.2558425495254997,
        "distance_wrist_1_joint": 0.681200107896555,
        "distance_wrist_2_joint": 1.318775561786571,
        "distance_wrist_3_joint": 0.06049857951103821,
        "smoothness": 4.844609574787718e-16,
        "time": 0.017021007999999997,
        "traj_len": 1.910008907801637,
        "weighted_distance": 2.4018965124640164
    },
    "planner": "PRM",
    "start": {
        "state": {
            "elbow_joint": 1.7527959577737207,
            "shoulder_lift_joint": -0.9740617694225068,
            "shoulder_pan_joint": -2.967991417825858,
            "wrist_1_joint": -0.759517768980727,
            "wrist_2_joint": 1.7443932448377408,
            "wrist_3_joint": -3.0840537646736568
        }
    },
    "waypoints": [
        {
            "positions": [
                -2.967991417825858,
                -0.9740617694225068,
                1.7527959577737207,
                -0.759517768980727,
                1.7443932448377408,
                -3.0840537646736568
            ]
        },
        {
            "positions": [
                -2.942407162873308,
                -0.9413073019594398,
                1.652368702320594,
                -0.6913977581910715,
                1.6125156886590837,
                -3.0901036226247607
            ]
        },
        {
            "positions": [
                -2.916822907920758,
                -0.9085528344963729,
                1.551941446867467,
                -0.623277747401416,
                1.4806381324804265,
                -3.0961534805758646
            ]
        },
        {
            "positions": [
                -2.891238652968208,
                -0.8757983670333059,
                1.4515141914143403,
                -0.5551577366117605,
                1.3487605763017696,
                -3.102203338526968
            ]
        },
        {
            "positions": [
                -2.865654398015658,
                -0.843043899570239,
                1.3510869359612137,
                -0.48703772582210497,
                1.2168830201231122,
                -3.108253196478072
            ]
        },
        {
            "positions": [
                -2.840070143063108,
                -0.8102894321071721,
                1.250659680508087,
                -0.41891771503244946,
                1.0850054639444553,
                -3.114303054429176
            ]
        },
        {
            "positions": [
                -2.8144858881105583,
                -0.7775349646441051,
                1.15023242505496,
                -0.35079770424279394,
                0.9531279077657983,
                -3.12035291238028
            ]
        },
        {
            "positions": [
                -2.7889016331580083,
                -0.7447804971810381,
                1.0498051696018333,
                -0.2826776934531385,
                0.8212503515871411,
                -3.1264027703313837
            ]
        },
        {
            "positions": [
                -2.7633173782054583,
                -0.7120260297179712,
                0.9493779141487065,
                -0.21455768266348296,
                0.6893727954084838,
                -3.132452628282487
            ]
        },
        {
            "positions": [
                -2.7377331232529083,
                -0.6792715622549041,
                0.8489506586955797,
                -0.1464376718738274,
                0.5574952392298269,
                -3.138502486233591
            ]
        },
        {
            "positions": [
                -2.7121488683003583,
                -0.6465170947918373,
                0.748523403242453,
                -0.07831766108417189,
                0.4256176830511697,
                -3.144552344184695
            ]
        }
    ]
}