{
    "goal": {
        "global_pose": {
            "orientation": {
                "w": 0.7047431493862688,
                "x": -0.7094548369677653,
                "y": 0.0024358444001904,
                "z": -0.0022348060817251984
            },
            "position": {
                "x": -0.39052492380142206,
                "y": 0.3671506643295288,
                "z": 0.19426114857196808
            }
        },
        "name": "move_to_magneteinheit_D"
    },
    "id": "PRM_move_to_magneteinheit_D_142",
    "joint_names": [
        "shoulder_pan_joint",
        "shoulder_lift_joint",
        "elbow_joint",
        "wrist_1_joint",
        "wrist_2_joint",
        "wrist_3_joint"
    ],
    "metrics": {
        "cart_traj_len": 4.993101206489863,
        "distance_elbow_joint": 4.89775494575776,
        "distance_shoulder_lift_joint": 1.6312634776841264,
        "distance_shoulder_pan_joint": 4.315952792888734,
        "distance_wrist_1_joint": 1.8067665960153372,
        "distance_wrist_2_joint": 2.1038161000473643,
        "distance_wrist_3_joint": 3.832801149504663,
        "smoothness": 0.7606736294241316,
        "time": 0.20719726300000002,
        "traj_len": 4.31142146651171,
        "weighted_distance": 5.492225419351431
    },
    "planner": "PRM",
    "start": {
        "state": {
            "elbow_joint": 0.749534889911806,
            "shoulder_lift_joint": -0.6476975780787326,
            "shoulder_pan_joint": -2.711696901376241,
            "wrist_1_joint": -0.07506478083263063,
            "wrist_2_joint": 0.43296659715538205,
            "wrist_3_joint": -3.14703540197715
        }
    },
    "waypoints": [
        {
            "positions": [
                -2.711696901376241,
                -0.6476975780787326,
                0.749534889911806,
                -0.07506478083263063,
                0.43296659715538205,
                -3.14703540197715
            ]
        },
        {
            "positions": [
                -2.789316368035368,
                -0.6844855246497763,
                0.846334672393158,
                -0.0886476692217297,
                0.4837032044342218,
                -3.035704283288231
            ]
        },
        {
            "positions": [
                -2.866935834694495,
                -0.72127347122082,
                0.9431344548745099,
                -0.10223055761082878,
                0.5344398117130617,
                -2.924373164599312
            ]
        },
        {
            "positions": [
                -2.9445553013536223,
                -0.7580614177918636,
                1.0399342373558618,
                -0.11581344599992785,
                0.5851764189919014,
                -2.813042045910393
            ]
        },
        {
            "positions": [
                -3.022174768012749,
                -0.7948493643629073,
                1.1367340198372138,
                -0.12939633438902692,
                0.6359130262707412,
                -2.701710927221474
            ]
        },
        {
            "positions": [
                -3.099794234671876,
                -0.8316373109339511,
                1.2335338023185658,
                -0.142979222778126,
                0.686649633549581,
                -2.590379808532555
            ]
        },
        {
            "positions": [
                -3.177413701331003,
                -0.8684252575049948,
                1.3303335847999178,
                -0.15656211116722507,
                0.7373862408284207,
                -2.479048689843636
            ]
        },
        {
            "positions": [
                -3.070644706589397,
                -0.8945669084808588,
                1.2198477377238364,
                -0.13361220334391738,
                0.7065264025492148,
                -2.3871540360315424
            ]
        },
        {
            "positions": [
                -2.963875711847791,
                -0.9207085594567228,
                1.109361890647755,
                -0.11066229552060969,
                0.675666564270009,
                -2.2952593822194487
            ]
        },
        {
            "positions": [
                -2.857106717106185,
                -0.9468502104325869,
                0.9988760435716737,
                -0.08771238769730198,
                0.6448067259908031,
                -2.203364728407355
            ]
        },
        {
            "positions": [
                -2.750337722364579,
                -0.972991861408451,
                0.8883901964955923,
                -0.06476247987399429,
                0.6139468877115972,
                -2.1114700745952613
            ]
        },
        {
            "positions": [
                -2.6435687276229727,
                -0.999133512384315,
                0.7779043494195109,
                -0.0418125720506866,
                0.5830870494323914,
                -2.0195754207831675
            ]
        },
        {
            "positions": [
                -2.536799732881367,
                -1.025275163360179,
                0.6674185023434295,
                -0.018862664227378895,
                0.5522272111531854,
                -1.9276807669710736
            ]
        },
        {
            "positions": [
                -2.430030738139761,
                -1.0514168143360432,
                0.5569326552673481,
                0.004087243595928797,
                0.5213673728739796,
                -1.8357861131589799
            ]
        },
        {
            "positions": [
                -2.323261743398155,
                -1.077558465311907,
                0.4464468081912667,
                0.027037151419236488,
                0.4905075345947737,
                -1.7438914593468862
            ]
        },
        {
            "positions": [
                -2.216492748656549,
                -1.103700116287771,
                0.33596096111518536,
                0.04998705924254418,
                0.45964769631556784,
                -1.6519968055347924
            ]
        },
        {
            "positions": [
                -2.1097237539149427,
                -1.1298417672636352,
                0.22547511403910403,
                0.07293696706585187,
                0.428787858036362,
                -1.5601021517226987
            ]
        },
        {
            "positions": [
                -2.0029547591733365,
                -1.1559834182394992,
                0.11498926696302258,
                0.09588687488915953,
                0.3979280197571561,
                -1.468207497910605
            ]
        },
        {
            "positions": [
                -1.8961857644317306,
                -1.1821250692153633,
                0.00450341988694114,
                0.11883678271246728,
                0.3670681814779502,
                -1.376312844098511
            ]
        },
        {
            "positions": [
                -1.7894167696901246,
                -1.2082667201912274,
                -0.1059824271891403,
                0.14178669053577497,
                0.3362083431987443,
                -1.2844181902864173
            ]
        },
        {
            "positions": [
                -1.6826477749485185,
                -1.2344083711670915,
                -0.21646827426522153,
                0.16473659835908266,
                0.3053485049195384,
                -1.1925235364743236
            ]
        },
        {
            "positions": [
                -1.5758787802069125,
                -1.2605500221429555,
                -0.326954121341303,
                0.18768650618239036,
                0.27448866664033256,
                -1.10062888266223
            ]
        },
        {
            "positions": [
                -1.4691097854653066,
                -1.2866916731188196,
                -0.4374399684173844,
                0.21063641400569805,
                0.2436288283611267,
                -1.0087342288501362
            ]
        },
        {
            "positions": [
                -1.3623407907237004,
                -1.3128333240946835,
                -0.5479258154934656,
                0.23358632182900574,
                0.21276899008192085,
                -0.9168395750380425
            ]
        },
        {
            "positions": [
                -1.2555717959820945,
                -1.3389749750705475,
                -0.6584116625695471,
                0.25653622965231343,
                0.18190915180271494,
                -0.8249449212259488
            ]
        },
        {
            "positions": [
                -1.1488028012404885,
                -1.3651166260464116,
                -0.7688975096456283,
                0.2794861374756211,
                0.15104931352350903,
                -0.733050267413855
            ]
        },
        {
            "positions": [
                -1.0420338064988823,
                -1.3912582770222757,
                -0.8793833567217098,
                0.3024360452989288,
                0.12018947524430323,
                -0.6411556136017613
            ]
        },
        {
            "positions": [
                -0.9352648117572766,
                -1.4173999279981397,
                -0.9898692037977912,
                0.3253859531222365,
                0.08932963696509733,
                -0.5492609597896676
            ]
        },
        {
            "positions": [
                -0.8284958170156704,
                -1.4435415789740038,
                -1.1003550508738726,
                0.34833586094554414,
                0.058469798685891416,
                -0.4573663059775739
            ]
        },
        {
            "positions": [
                -0.7217268222740643,
                -1.4696832299498679,
                -1.210840897949954,
                0.371285768768852,
                0.027609960406685508,
                -0.3654716521654797
            ]
        },
        {
            "positions": [
                -0.6149578275324581,
                -1.495824880925732,
                -1.3213267450260355,
                0.39423567659215963,
                -0.0032498778725204014,
                -0.273576998353386
            ]
        },
        {
            "positions": [
                -0.5081888327908519,
                -1.521966531901596,
                -1.431812592102117,
                0.4171855844154674,
                -0.03410971615172631,
                -0.18168234454129228
            ]
        },
        {
            "positions": [
                -0.4014198380492462,
                -1.5481081828774599,
                -1.5422984391781984,
                0.440135492238775,
                -0.06496955443093211,
                -0.08978769072919857
            ]
        },
        {
            "positions": [
                -0.29465084330764,
                -1.5742498338533242,
                -1.6527842862542799,
                0.46308540006208276,
                -0.09582939271013802,
                0.0021069630828951524
            ]
        },
        {
            "positions": [
                -0.18788184856603385,
                -1.600391484829188,
                -1.7632701333303609,
                0.4860353078853904,
                -0.12668923098934393,
                0.09400161689498887
            ]
        },
        {
            "positions": [
                -0.08111285382442812,
                -1.626533135805052,
                -1.8737559804064423,
                0.5089852157086981,
                -0.15754906926854972,
                0.1858962707070826
            ]
        },
        {
            "positions": [
                0.02565614091717793,
                -1.6526747867809162,
                -1.984241827482524,
                0.5319351235320058,
                -0.1884089075477557,
                0.27779092451917625
            ]
        },
        {
            "positions": [
                0.05295978955390481,
                -1.6799043092874615,
                -2.0716591366153967,
                0.6571385998971314,
                -0.11148744171004532,
                0.286846226400639
            ]
        },
        {
            "positions": [
                0.0802634381906317,
                -1.7071338317940066,
                -2.159076445748269,
                0.782342076262257,
                -0.03456597587233495,
                0.2959015282821017
            ]
        },
        {
            "positions": [
                0.10756708682735858,
                -1.7343633543005517,
                -2.2464937548811417,
                0.9075455526273827,
                0.042355489965375415,
                0.30495683016356445
            ]
        },
        {
            "positions": [
                0.13487073546408546,
                -1.761592876807097,
                -2.333911064014014,
                1.0327490289925083,
                0.11927695580308578,
                0.3140121320450272
            ]
        },
        {
            "positions": [
                0.16217438410081234,
                -1.7888223993136423,
                -2.4213283731468866,
                1.1579525053576338,
                0.19619842164079615,
                0.3230674339264899
            ]
        },
        {
            "positions": [
                0.18947803273753921,
                -1.8160519218201874,
                -2.508745682279759,
                1.2831559817227596,
                0.2731198874785065,
                0.33212273580795265
            ]
        },
        {
            "positions": [
                0.2167816813742661,
                -1.8432814443267325,
                -2.596162991412632,
                1.4083594580878853,
                0.35004135331621683,
                0.34117803768941535
            ]
        },
        {
            "positions": [
                0.24408533001099297,
                -1.8705109668332778,
                -2.6835803005455046,
                1.5335629344530108,
                0.4269628191539272,
                0.3502333395708781
            ]
        },
        {
            "positions": [
                0.15833793769259796,
                -1.9522009846191941,
                -2.6229718274406593,
                1.5265340904409095,
                0.37531690289463415,
                0.28312685797955106
            ]
        },
        {
            "positions": [
                0.07259054537420295,
                -2.0338910024051104,
                -2.562363354335814,
                1.5195052464288081,
                0.3236709866353411,
                0.21602037638822408
            ]
        },
        {
            "positions": [
                -0.013156846944192058,
                -2.1155810201910263,
                -2.5017548812309687,
                1.5124764024167066,
                0.27202507037604806,
                0.1489138947968971
            ]
        },
        {
            "positions": [
                -0.09890423926258707,
                -2.1972710379769427,
                -2.4411464081261234,
                1.5054475584046052,
                0.22037915411675502,
                0.08180741320557006
            ]
        },
        {
            "positions": [
                -0.18465163158098205,
                -2.278961055762859,
                -2.380537935021278,
                1.4984187143925038,
                0.16873323785746197,
                0.014700931614243068
            ]
        }
    ]
}