{
    "goal": {
        "global_pose": {
            "orientation": {
                "w": 0.7031023502349854,
                "x": -0.7110244035720825,
                "y": 0.007748599164187908,
                "z": 0.005598929710686207
            },
            "position": {
                "x": 0.11585023208521307,
                "y": 0.44412534475326537,
                "z": 0.3711530566215515
            }
        },
        "name": "move_to_auspresseinheit_A"
    },
    "id": "PRM_move_to_auspresseinheit_A_79",
    "joint_names": [
        "shoulder_pan_joint",
        "shoulder_lift_joint",
        "elbow_joint",
        "wrist_1_joint",
        "wrist_2_joint",
        "wrist_3_joint"
    ],
    "metrics": {
        "cart_traj_len": 0.7257715538131452,
        "distance_elbow_joint": 0.026699926404268215,
        "distance_shoulder_lift_joint": 0.8215851142079598,
        "distance_shoulder_pan_joint": 1.0457222333790754,
        "distance_wrist_1_joint": 1.7614048927977515,
        "distance_wrist_2_joint": 1.7640149554400986,
        "distance_wrist_3_joint": 1.5975499824051806,
        "smoothness": 1.3201793139522457,
        "time": 0.233070047,
        "traj_len": 2.6489577393069776,
        "weighted_distance": 3.706412944840678
    },
    "planner": "PRM",
    "start": {
        "state": {
            "elbow_joint": 2.4225746658250005,
            "shoulder_lift_joint": -1.3736534386056498,
            "shoulder_pan_joint": -0.3378633547517467,
            "wrist_1_joint": -1.0288598680537169,
            "wrist_2_joint": 1.233022673432363,
            "wrist_3_joint": -3.0940220416140027
        }
    },
    "waypoints": [
        {
            "positions": [
                -0.3378633547517467,
                -1.3736534386056498,
                2.4225746658250005,
                -1.0288598680537169,
                1.233022673432363,
                -3.0940220416140027
            ]
        },
        {
            "positions": [
                -0.2912165334915645,
                -1.4354430707703432,
                2.4206413348133036,
                -0.9238604645103216,
                1.1292824632173426,
                -3.022405328278052
            ]
        },
        {
            "positions": [
                -0.2445697122313823,
                -1.4972327029350367,
                2.4187080038016067,
                -0.8188610609669262,
                1.025542253002322,
                -2.950788614942101
            ]
        },
        {
            "positions": [
                -0.1979228909712001,
                -1.55902233509973,
                2.4167746727899098,
                -0.7138616574235308,
                0.9218020427873015,
                -2.87917190160615
            ]
        },
        {
            "positions": [
                -0.1512760697110179,
                -1.6208119672644234,
                2.414841341778213,
                -0.6088622538801355,
                0.8180618325722809,
                -2.8075551882701992
            ]
        },
        {
            "positions": [
                -0.10462924845083568,
                -1.682601599429117,
                2.412908010766516,
                -0.5038628503367402,
                0.7143216223572605,
                -2.7359384749342484
            ]
        },
        {
            "positions": [
                -0.057982427190653496,
                -1.7443912315938104,
                2.4109746797548186,
                -0.39886344679334484,
                0.6105814121422399,
                -2.6643217615982975
            ]
        },
        {
            "positions": [
                -0.011335605930471282,
                -1.8061808637585037,
                2.4090413487431217,
                -0.2938640432499494,
                0.5068412019272194,
                -2.5927050482623466
            ]
        },
        {
            "positions": [
                0.03531121532971093,
                -1.8679704959231973,
                2.407108017731425,
                -0.1888646397065541,
                0.4031009917121988,
                -2.5210883349263957
            ]
        },
        {
            "positions": [
                0.0819580365898932,
                -1.9297601280878909,
                2.405174686719728,
                -0.08386523616315866,
                0.29936078149717826,
                -2.449471621590445
            ]
        },
        {
            "positions": [
                0.12860485785007536,
                -1.991549760252584,
                2.403241355708031,
                0.021134167380236546,
                0.19562057128215793,
                -2.377854908254494
            ]
        },
        {
            "positions": [
                0.17525167911025757,
                -2.0533393924172776,
                2.401308024696334,
                0.12613357092363198,
                0.09188036106713726,
                -2.306238194918543
            ]
        },
        {
            "positions": [
                0.2513384218984106,
                -2.0330680837892303,
                2.4005318410855336,
                0.03950336323500307,
                0.1808621672206906,
                -2.421919071448503
            ]
        },
        {
            "positions": [
                0.3274251646865636,
                -2.0127967751611826,
                2.3997556574747336,
                -0.04712684445362583,
                0.26984397337424393,
                -2.5375999479784634
            ]
        },
        {
            "positions": [
                0.40351190747471666,
                -1.9925254665331353,
                2.398979473863933,
                -0.13375705214225475,
                0.35882577952779726,
                -2.6532808245084234
            ]
        },
        {
            "positions": [
                0.47959865026286963,
                -1.9722541579050878,
                2.398203290253133,
                -0.22038725983088364,
                0.4478075856813506,
                -2.768961701038384
            ]
        },
        {
            "positions": [
                0.5556853930510226,
                -1.9519828492770404,
                2.3974271066423327,
                -0.3070174675195126,
                0.5367893918349039,
                -2.8846425775683437
            ]
        },
        {
            "positions": [
                0.6317721358391757,
                -1.931711540648993,
                2.3966509230315327,
                -0.3936476752081415,
                0.6257711979884573,
                -3.0003234540983037
            ]
        },
        {
            "positions": [
                0.7078588786273287,
                -1.9114402320209456,
                2.3958747394207323,
                -0.48027788289677037,
                0.7147530041420106,
                -3.116004330628264
            ]
        }
    ]
}