{
    "goal": {
        "global_pose": {
            "orientation": {
                "w": -0.4816463035849501,
                "x": 0.5182115481033762,
                "y": 0.4908360881923453,
                "z": -0.5084816262002911
            },
            "position": {
                "x": -0.8240239810943604,
                "y": -0.300875300988555,
                "z": 0.16403168439865112
            }
        },
        "name": "move_to_storage_C"
    },
    "id": "PRM_move_to_storage_C_85",
    "joint_names": [
        "shoulder_pan_joint",
        "shoulder_lift_joint",
        "elbow_joint",
        "wrist_1_joint",
        "wrist_2_joint",
        "wrist_3_joint"
    ],
    "metrics": {
        "cart_traj_len": 0.5770059608396368,
        "distance_elbow_joint": 0.2582151022614132,
        "distance_shoulder_lift_joint": 0.18887133246066767,
        "distance_shoulder_pan_joint": 0.49680826151103075,
        "distance_wrist_1_joint": 0.08466301545708221,
        "distance_wrist_2_joint": 1.0584625235034917,
        "distance_wrist_3_joint": 0.07240474092823179,
        "smoothness": 0.0,
        "time": 0.021668217,
        "traj_len": 1.469498205552466,
        "weighted_distance": 1.8567067611604573
    },
    "planner": "PRM",
    "start": {
        "state": {
            "elbow_joint": 2.010868314990456,
            "shoulder_lift_joint": -1.1634956873337592,
            "shoulder_pan_joint": -2.4736205022346125,
            "wrist_1_joint": -0.8367026794202681,
            "wrist_2_joint": 0.6746043897044499,
            "wrist_3_joint": -3.1496632123970403
        }
    },
    "waypoints": [
        {
            "positions": [
                -2.4736205022346125,
                -1.1634956873337592,
                2.010868314990456,
                -0.8367026794202681,
                0.6746043897044499,
                -3.1496632123970403
            ]
        },
        {
            "positions": [
                -2.5564218791531177,
                -1.1320171319236478,
                1.9678324646135537,
                -0.8225921768440877,
                0.8510148102883652,
                -3.1375957555756684
            ]
        },
        {
            "positions": [
                -2.639223256071623,
                -1.1005385765135367,
                1.9247966142366515,
                -0.8084816742679074,
                1.0274252308722804,
                -3.1255282987542965
            ]
        },
        {
            "positions": [
                -2.722024632990128,
                -1.0690600211034254,
                1.881760763859749,
                -0.794371171691727,
                1.2038356514561959,
                -3.113460841932924
            ]
        },
        {
            "positions": [
                -2.804826009908633,
                -1.037581465693314,
                1.838724913482847,
                -0.7802606691155466,
                1.3802460720401108,
                -3.1013933851115523
            ]
        },
        {
            "positions": [
                -2.887627386827138,
                -1.0061029102832029,
                1.7956890631059448,
                -0.7661501665393663,
                1.5566564926240263,
                -3.0893259282901804
            ]
        },
        {
            "positions": [
                -2.9704287637456432,
                -0.9746243548730915,
                1.7526532127290426,
                -0.7520396639631859,
                1.7330669132079415,
                -3.0772584714688085
            ]
        }
    ]
}