{
    "goal": {
        "global_pose": {
            "orientation": {
                "w": 0.5084816217422485,
                "x": -0.49083608388900757,
                "y": 0.5182115435600281,
                "z": -0.4816462993621826
            },
            "position": {
                "x": 0.5540239810943604,
                "y": 0.030875300988554955,
                "z": 0.16403168439865112
            }
        },
        "name": "move_to_storage_A"
    },
    "id": "PRM_move_to_storage_A_124",
    "joint_names": [
        "shoulder_pan_joint",
        "shoulder_lift_joint",
        "elbow_joint",
        "wrist_1_joint",
        "wrist_2_joint",
        "wrist_3_joint"
    ],
    "metrics": {
        "cart_traj_len": 0.3530221345233444,
        "distance_elbow_joint": 0.45172322363846473,
        "distance_shoulder_lift_joint": 0.23611850295752035,
        "distance_shoulder_pan_joint": 0.46198401853610255,
        "distance_wrist_1_joint": 0.24988383332650865,
        "distance_wrist_2_joint": 1.0979620991816643,
        "distance_wrist_3_joint": 0.10294255356628668,
        "smoothness": 8.881784197001252e-16,
        "time": 0.031228754,
        "traj_len": 1.6126420034237443,
        "weighted_distance": 2.0382211045044385
    },
    "planner": "PRM",
    "start": {
        "state": {
            "elbow_joint": 1.971548259319323,
            "shoulder_lift_joint": -1.1394851275133948,
            "shoulder_pan_joint": 0.1228115487234821,
            "wrist_1_joint": -0.7804723859257726,
            "wrist_2_joint": 0.12958671773740124,
            "wrist_3_joint": -3.192489227718131
        }
    },
    "waypoints": [
        {
            "positions": [
                0.1228115487234821,
                -1.1394851275133948,
                1.971548259319323,
                -0.7804723859257726,
                0.12958671773740124,
                -3.192489227718131
            ]
        },
        {
            "positions": [
                0.056813831789753175,
                -1.173216342221612,
                2.0360801484105324,
                -0.8161700764009882,
                0.2864384461919247,
                -3.177783148637233
            ]
        },
        {
            "positions": [
                -0.00918388514397575,
                -1.2069475569298291,
                2.1006120375017416,
                -0.8518677668762037,
                0.44329017464644815,
                -3.163077069556335
            ]
        },
        {
            "positions": [
                -0.07518160207770469,
                -1.2406787716380463,
                2.165143926592951,
                -0.8875654573514191,
                0.6001419031009716,
                -3.1483709904754367
            ]
        },
        {
            "positions": [
                -0.1411793190114336,
                -1.2744099863462637,
                2.22967581568416,
                -0.9232631478266347,
                0.7569936315554952,
                -3.133664911394539
            ]
        },
        {
            "positions": [
                -0.20717703594516257,
                -1.3081412010544808,
                2.2942077047753693,
                -0.9589608383018502,
                0.9138453600100187,
                -3.118958832313641
            ]
        },
        {
            "positions": [
                -0.2731747528788915,
                -1.341872415762698,
                2.3587395938665785,
                -0.9946585287770657,
                1.070697088464542,
                -3.1042527532327426
            ]
        },
        {
            "positions": [
                -0.33917246981262045,
                -1.3756036304709152,
                2.4232714829577877,
                -1.0303562192522813,
                1.2275488169190656,
                -3.0895466741518445
            ]
        }
    ]
}{
    "goal": {
        "global_pose": {
            "orientation": {
                "w": 0.5084816217422485,
                "x": -0.49083608388900757,
                "y": 0.5182115435600281,
                "z": -0.4816462993621826
            },
            "position": {
                "x": 0.5540239810943604,
                "y": 0.030875300988554955,
                "z": 0.16403168439865112
            }
        },
        "name": "move_to_storage_A"
    },
    "id": "PRM_move_to_storage_A_124",
    "joint_names": [
        "shoulder_pan_joint",
        "shoulder_lift_joint",
        "elbow_joint",
        "wrist_1_joint",
        "wrist_2_joint",
        "wrist_3_joint"
    ],
    "metrics": {
        "cart_traj_len": 0.3527010929950584,
        "distance_elbow_joint": 0.4509026056535519,
        "distance_shoulder_lift_joint": 0.23377752091867365,
        "distance_shoulder_pan_joint": 0.46043408655753726,
        "distance_wrist_1_joint": 0.248847402180987,
        "distance_wrist_2_joint": 1.1011250503800356,
        "distance_wrist_3_joint": 0.09235890919477763,
        "smoothness": 4.440892098500626e-16,
        "time": 0.024255603,
        "traj_len": 1.6085538768986145,
        "weighted_distance": 2.030304372707733
    },
    "planner": "PRM",
    "start": {
        "state": {
            "elbow_joint": 1.97154746011099,
            "shoulder_lift_joint": -1.13948474672311,
            "shoulder_pan_joint": 0.12281154466712228,
            "wrist_1_joint": -0.7804688027058302,
            "wrist_2_joint": 0.12958655903071145,
            "wrist_3_joint": 3.0906928834467795
        }
    },
    "waypoints": [
        {
            "positions": [
                0.12281154466712228,
                -1.13948474672311,
                1.97154746011099,
                -0.7804688027058302,
                0.12958655903071145,
                3.0906928834467795
            ]
        },
        {
            "positions": [
                0.05703524658747411,
                -1.1728815354257776,
                2.0359621180614975,
                -0.8160184315888284,
                0.2868901376564308,
                3.1038870133317475
            ]
        },
        {
            "positions": [
                -0.008741051492174065,
                -1.2062783241284454,
                2.1003767760120047,
                -0.8515680604718264,
                0.4441937162821502,
                3.117081143216716
            ]
        },
        {
            "positions": [
                -0.07451734957182225,
                -1.239675112831113,
                2.1647914339625123,
                -0.8871176893548246,
                0.6014972949078695,
                3.130275273101684
            ]
        },
        {
            "positions": [
                -0.1402936476514704,
                -1.2730719015337806,
                2.2292060919130194,
                -0.9226673182378228,
                0.7588008735335889,
                3.1434694029866526
            ]
        },
        {
            "positions": [
                -0.2060699457311186,
                -1.3064686902364482,
                2.293620749863527,
                -0.9582169471208208,
                0.9161044521593084,
                3.1566635328716206
            ]
        },
        {
            "positions": [
                -0.2718462438107668,
                -1.339865478939116,
                2.358035407814034,
                -0.993766576003819,
                1.0734080307850276,
                3.169857662756589
            ]
        },
        {
            "positions": [
                -0.33762254189041496,
                -1.3732622676417836,
                2.422450065764542,
                -1.0293162048868172,
                1.230711609410747,
                3.183051792641557
            ]
        }
    ]
}{
    "goal": {
        "global_pose": {
            "orientation": {
                "w": 0.5084816217422485,
                "x": -0.49083608388900757,
                "y": 0.5182115435600281,
                "z": -0.4816462993621826
            },
            "position": {
                "x": 0.5540239810943604,
                "y": 0.030875300988554955,
                "z": 0.16403168439865112
            }
        },
        "name": "move_to_storage_A"
    },
    "id": "PRM_move_to_storage_A_124",
    "joint_names": [
        "shoulder_pan_joint",
        "shoulder_lift_joint",
        "elbow_joint",
        "wrist_1_joint",
        "wrist_2_joint",
        "wrist_3_joint"
    ],
    "metrics": {
        "cart_traj_len": 0.353598843280105,
        "distance_elbow_joint": 0.4524087268849657,
        "distance_shoulder_lift_joint": 0.2321937000332317,
        "distance_shoulder_pan_joint": 0.46237404388951814,
        "distance_wrist_1_joint": 0.2599161148758915,
        "distance_wrist_2_joint": 1.098627792736112,
        "distance_wrist_3_joint": 0.09877347112767909,
        "smoothness": 2.2204460668324854e-16,
        "time": 0.040349405,
        "traj_len": 1.6137824666129565,
        "weighted_distance": 2.0397021104599466
    },
    "planner": "PRM",
    "start": {
        "state": {
            "elbow_joint": 1.9715472970024885,
            "shoulder_lift_joint": -1.1394870060712896,
            "shoulder_pan_joint": 0.12281152778156021,
            "wrist_1_joint": -0.780463741449964,
            "wrist_2_joint": 0.12958659822042276,
            "wrist_3_joint": 3.090690232415272
        }
    },
    "waypoints": [
        {
            "positions": [
                0.12281152778156021,
                -1.1394870060712896,
                1.9715472970024885,
                -0.780463741449964,
                0.12958659822042276,
                3.090690232415272
            ]
        },
        {
            "positions": [
                0.05675809294020048,
                -1.1726575346474655,
                2.036177115128912,
                -0.8175946150036628,
                0.2865334257541531,
                3.1048007282906545
            ]
        },
        {
            "positions": [
                -0.009295341901159243,
                -1.2058280632236416,
                2.100806933255336,
                -0.8547254885573615,
                0.4434802532878833,
                3.1189112241660375
            ]
        },
        {
            "positions": [
                -0.07534877674251897,
                -1.2389985917998174,
                2.1654367513817596,
                -0.8918563621110603,
                0.6004270808216137,
                3.13302172004142
            ]
        },
        {
            "positions": [
                -0.1414022115838787,
                -1.2721691203759935,
                2.230066569508183,
                -0.9289872356647592,
                0.7573739083553439,
                3.1471322159168027
            ]
        },
        {
            "positions": [
                -0.20745564642523842,
                -1.3053396489521694,
                2.294696387634607,
                -0.9661181092184579,
                0.9143207358890743,
                3.1612427117921853
            ]
        },
        {
            "positions": [
                -0.2735090812665981,
                -1.3385101775283452,
                2.3593262057610307,
                -1.0032489827721567,
                1.0712675634228046,
                3.1753532076675683
            ]
        },
        {
            "positions": [
                -0.3395625161079579,
                -1.3716807061045213,
                2.4239560238874542,
                -1.0403798563258555,
                1.2282143909565348,
                3.189463703542951
            ]
        }
    ]
}