{
    "goal": {
        "global_pose": {
            "orientation": {
                "w": 0.7047431493862688,
                "x": -0.7094548369677653,
                "y": 0.0024358444001904,
                "z": -0.0022348060817251984
            },
            "position": {
                "x": -0.39052492380142206,
                "y": 0.3671506643295288,
                "z": 0.19426114857196808
            }
        },
        "name": "move_to_magneteinheit_D"
    },
    "id": "PRM_move_to_magneteinheit_D_112",
    "joint_names": [
        "shoulder_pan_joint",
        "shoulder_lift_joint",
        "elbow_joint",
        "wrist_1_joint",
        "wrist_2_joint",
        "wrist_3_joint"
    ],
    "metrics": {
        "cart_traj_len": 4.035726713984876,
        "distance_elbow_joint": 3.1421939941372825,
        "distance_shoulder_lift_joint": 1.6279834055358304,
        "distance_shoulder_pan_joint": 3.0255001218033795,
        "distance_wrist_1_joint": 1.6707012514094417,
        "distance_wrist_2_joint": 1.8514810799189345,
        "distance_wrist_3_joint": 5.519643998944605,
        "smoothness": 0.407675836066044,
        "time": 0.306558437,
        "traj_len": 4.103352757410637,
        "weighted_distance": 5.603478757072883
    },
    "planner": "PRM",
    "start": {
        "state": {
            "elbow_joint": 0.749534889911806,
            "shoulder_lift_joint": -0.6476975780787326,
            "shoulder_pan_joint": -2.711696901376241,
            "wrist_1_joint": -0.07506478083263063,
            "wrist_2_joint": 0.43296659715538205,
            "wrist_3_joint": -3.14703540197715
        }
    },
    "waypoints": [
        {
            "positions": [
                -2.711696901376241,
                -0.6476975780787326,
                0.749534889911806,
                -0.07506478083263063,
                0.43296659715538205,
                -3.14703540197715
            ]
        },
        {
            "positions": [
                -2.7131852837552346,
                -0.7721157914556662,
                0.6830293881665945,
                -0.11376416252818328,
                0.47926616883531314,
                -3.1286745195889254
            ]
        },
        {
            "positions": [
                -2.714673666134228,
                -0.8965340048325997,
                0.6165238864213831,
                -0.15246354422373593,
                0.5255657405152442,
                -3.1103136372007008
            ]
        },
        {
            "positions": [
                -2.6251475816457033,
                -0.9189793222405443,
                0.5244104036041726,
                -0.14602898843367595,
                0.4914916942553987,
                -2.970326119429213
            ]
        },
        {
            "positions": [
                -2.5356214971571784,
                -0.941424639648489,
                0.43229692078696197,
                -0.13959443264361598,
                0.4574176479955532,
                -2.830338601657725
            ]
        },
        {
            "positions": [
                -2.4460954126686536,
                -0.9638699570564336,
                0.3401834379697514,
                -0.13315987685355601,
                0.4233436017357076,
                -2.6903510838862372
            ]
        },
        {
            "positions": [
                -2.3565693281801288,
                -0.9863152744643783,
                0.24806995515254082,
                -0.12672532106349602,
                0.3892695554758622,
                -2.5503635661147497
            ]
        },
        {
            "positions": [
                -2.267043243691604,
                -1.008760591872323,
                0.15595647233533028,
                -0.12029076527343605,
                0.3551955092160166,
                -2.410376048343262
            ]
        },
        {
            "positions": [
                -2.177517159203079,
                -1.0312059092802677,
                0.06384298951811973,
                -0.11385620948337608,
                0.3211214629561711,
                -2.270388530571774
            ]
        },
        {
            "positions": [
                -2.0879910747145543,
                -1.0536512266882123,
                -0.028270493299090926,
                -0.1074216536933161,
                0.2870474166963256,
                -2.130401012800286
            ]
        },
        {
            "positions": [
                -1.9984649902260294,
                -1.076096544096157,
                -0.12038397611630147,
                -0.10098709790325612,
                0.2529733704364801,
                -1.9904134950287986
            ]
        },
        {
            "positions": [
                -1.9089389057375046,
                -1.0985418615041016,
                -0.21249745893351213,
                -0.09455254211319614,
                0.21889932417663455,
                -1.8504259772573106
            ]
        },
        {
            "positions": [
                -1.8194128212489797,
                -1.1209871789120462,
                -0.30461094175072256,
                -0.08811798632313617,
                0.1848252779167891,
                -1.710438459485823
            ]
        },
        {
            "positions": [
                -1.729886736760455,
                -1.1434324963199909,
                -0.39672442456793333,
                -0.08168343053307618,
                0.15075123165694354,
                -1.570450941714335
            ]
        },
        {
            "positions": [
                -1.64036065227193,
                -1.1658778137279355,
                -0.48883790738514366,
                -0.07524887474301623,
                0.11667718539709804,
                -1.4304634239428475
            ]
        },
        {
            "positions": [
                -1.5508345677834052,
                -1.1883231311358802,
                -0.5809513902023544,
                -0.06881431895295624,
                0.08260313913725253,
                -1.2904759061713595
            ]
        },
        {
            "positions": [
                -1.4613084832948804,
                -1.2107684485438248,
                -0.673064873019565,
                -0.06237976316289627,
                0.04852909287740703,
                -1.150488388399872
            ]
        },
        {
            "positions": [
                -1.3717823988063556,
                -1.2332137659517695,
                -0.7651783558367755,
                -0.055945207372836286,
                0.014455046617561473,
                -1.010500870628384
            ]
        },
        {
            "positions": [
                -1.2822563143178307,
                -1.255659083359714,
                -0.8572918386539861,
                -0.049510651582776316,
                -0.019618999642283974,
                -0.8705133528568965
            ]
        },
        {
            "positions": [
                -1.192730229829306,
                -1.2781044007676587,
                -0.9494053214711966,
                -0.043076095792716346,
                -0.05369304590212942,
                -0.7305258350854089
            ]
        },
        {
            "positions": [
                -1.103204145340781,
                -1.3005497181756036,
                -1.0415188042884074,
                -0.03664154000265635,
                -0.08776709216197509,
                -0.5905383173139205
            ]
        },
        {
            "positions": [
                -1.0136780608522562,
                -1.3229950355835483,
                -1.133632287105618,
                -0.030206984212596377,
                -0.12184113842182054,
                -0.45055079954243293
            ]
        },
        {
            "positions": [
                -0.9241519763637314,
                -1.345440352991493,
                -1.2257457699228282,
                -0.023772428422536407,
                -0.15591518468166599,
                -0.3105632817709454
            ]
        },
        {
            "positions": [
                -0.8346258918752067,
                -1.3678856703994373,
                -1.3178592527400388,
                -0.017337872632476437,
                -0.18998923094151154,
                -0.17057576399945784
            ]
        },
        {
            "positions": [
                -0.7450998073866817,
                -1.3903309878073822,
                -1.4099727355572498,
                -0.010903316842416438,
                -0.2240632772013571,
                -0.030588246227969407
            ]
        },
        {
            "positions": [
                -0.6555737228981569,
                -1.4127763052153268,
                -1.5020862183744603,
                -0.004468761052356468,
                -0.25813732346120255,
                0.10939927154351814
            ]
        },
        {
            "positions": [
                -0.566047638409632,
                -1.4352216226232715,
                -1.5941997011916704,
                0.0019657947377034746,
                -0.2922113697210481,
                0.24938678931500569
            ]
        },
        {
            "positions": [
                -0.4765215539211072,
                -1.457666940031216,
                -1.686313184008881,
                0.008400350527763445,
                -0.32628541598089356,
                0.38937430708649323
            ]
        },
        {
            "positions": [
                -0.38699546943258234,
                -1.4801122574391608,
                -1.778426666826092,
                0.014834906317823443,
                -0.3603594622407391,
                0.5293618248579817
            ]
        },
        {
            "positions": [
                -0.2974693849440575,
                -1.5025575748471054,
                -1.8705401496433025,
                0.021269462107883413,
                -0.3944335085005847,
                0.6693493426294692
            ]
        },
        {
            "positions": [
                -0.20794330045553266,
                -1.52500289225505,
                -1.962653632460513,
                0.027704017897943384,
                -0.4285075547604301,
                0.8093368604009568
            ]
        },
        {
            "positions": [
                -0.11841721596700783,
                -1.5474482096629947,
                -2.0547671152777234,
                0.034138573688003354,
                -0.46258160102027557,
                0.9493243781724443
            ]
        },
        {
            "positions": [
                -0.02889113147848299,
                -1.5698935270709393,
                -2.146880598094934,
                0.04057312947806335,
                -0.49665564728012124,
                1.0893118959439327
            ]
        },
        {
            "positions": [
                0.0606349530100417,
                -1.592338844478884,
                -2.238994080912145,
                0.04700768526812331,
                -0.5307296935399668,
                1.2292994137154198
            ]
        },
        {
            "positions": [
                0.03816088592812157,
                -1.654460857127582,
                -2.2529636284860843,
                0.1737196178614394,
                -0.466858193312343,
                1.1253622152379619
            ]
        },
        {
            "positions": [
                0.01568681884620144,
                -1.7165828697762802,
                -2.2669331760600233,
                0.30043155045475556,
                -0.40298669308471924,
                1.021425016760504
            ]
        },
        {
            "positions": [
                -0.006787248235718683,
                -1.7787048824249783,
                -2.2809027236339627,
                0.4271434830480716,
                -0.33911519285709546,
                0.9174878182830462
            ]
        },
        {
            "positions": [
                -0.02926131531763882,
                -1.8408268950736764,
                -2.2948722712079017,
                0.5538554156413877,
                -0.2752436926294716,
                0.8135506198055882
            ]
        },
        {
            "positions": [
                -0.051735382399558945,
                -1.9029489077223745,
                -2.308841818781841,
                0.6805673482347038,
                -0.21137219240184785,
                0.7096134213281303
            ]
        },
        {
            "positions": [
                -0.07420944948147906,
                -1.9650709203710726,
                -2.32281136635578,
                0.8072792808280198,
                -0.14750069217422407,
                0.6056762228506725
            ]
        },
        {
            "positions": [
                -0.09668351656339921,
                -2.0271929330197707,
                -2.3367809139297195,
                0.933991213421336,
                -0.08362919194660029,
                0.5017390243732145
            ]
        },
        {
            "positions": [
                -0.11915758364531934,
                -2.0893149456684688,
                -2.3507504615036585,
                1.0607031460146523,
                -0.019757691718976456,
                0.3978018258957565
            ]
        },
        {
            "positions": [
                -0.1416316507272395,
                -2.151436958317167,
                -2.364720009077598,
                1.1874150786079685,
                0.04411380850864732,
                0.29386462741829855
            ]
        },
        {
            "positions": [
                -0.16410571780915958,
                -2.213558970965865,
                -2.378689556651537,
                1.3141270112012844,
                0.1079853087362711,
                0.1899274289408408
            ]
        },
        {
            "positions": [
                -0.18657978489107974,
                -2.275680983614563,
                -2.3926591042254763,
                1.4408389437946005,
                0.1718568089638949,
                0.08599023046338287
            ]
        }
    ]
}