{
    "goal": {
        "global_pose": {
            "orientation": {
                "w": -0.4816463035849501,
                "x": 0.5182115481033762,
                "y": 0.4908360881923453,
                "z": -0.5084816262002911
            },
            "position": {
                "x": -0.8240239810943604,
                "y": 0.19912469901144506,
                "z": 0.16403168439865112
            }
        },
        "name": "move_to_storage_D"
    },
    "id": "PRM_move_to_storage_D_115",
    "joint_names": [
        "shoulder_pan_joint",
        "shoulder_lift_joint",
        "elbow_joint",
        "wrist_1_joint",
        "wrist_2_joint",
        "wrist_3_joint"
    ],
    "metrics": {
        "cart_traj_len": 0.5866020375176184,
        "distance_elbow_joint": 0.5599988013899106,
        "distance_shoulder_lift_joint": 0.15271419234402472,
        "distance_shoulder_pan_joint": 0.15218602996202907,
        "distance_wrist_1_joint": 3.844589048478219,
        "distance_wrist_2_joint": 1.7757183098315958,
        "distance_wrist_3_joint": 3.1845092045667087,
        "smoothness": 0.15159017450143697,
        "time": 0.680729809,
        "traj_len": 3.1096166301607804,
        "weighted_distance": 4.653927519205227
    },
    "planner": "PRM",
    "start": {
        "state": {
            "elbow_joint": -2.384821988534728,
            "shoulder_lift_joint": -2.2788054721415256,
            "shoulder_pan_joint": -0.1854694642142757,
            "wrist_1_joint": 1.4845938289331202,
            "wrist_2_joint": 0.17898776772866878,
            "wrist_3_joint": 0.037105688729662994
        }
    },
    "waypoints": [
        {
            "positions": [
                -0.1854694642142757,
                -2.2788054721415256,
                -2.384821988534728,
                1.4845938289331202,
                0.17898776772866878,
                0.037105688729662994
            ]
        },
        {
            "positions": [
                -0.09622512829895355,
                -2.1432425359480995,
                -2.387454732602744,
                1.492804365843491,
                0.11133722965609821,
                0.0697426420337641
            ]
        },
        {
            "positions": [
                -0.0936025577136741,
                -2.142527900275158,
                -2.3642311468809987,
                1.3329552611948308,
                0.04016773916613883,
                -0.06158536843551124
            ]
        },
        {
            "positions": [
                -0.09097998712839464,
                -2.1418132646022165,
                -2.341007561159253,
                1.1731061565461705,
                -0.031001751323820548,
                -0.19291337890478658
            ]
        },
        {
            "positions": [
                -0.08835741654311519,
                -2.141098628929275,
                -2.3177839754375076,
                1.0132570518975101,
                -0.10217124181377993,
                -0.3242413893740619
            ]
        },
        {
            "positions": [
                -0.08573484595783573,
                -2.140383993256333,
                -2.2945603897157616,
                0.8534079472488498,
                -0.1733407323037393,
                -0.4555693998433372
            ]
        },
        {
            "positions": [
                -0.08311227537255628,
                -2.1396693575833914,
                -2.271336803994016,
                0.6935588426001894,
                -0.24451022279369872,
                -0.5868974103126126
            ]
        },
        {
            "positions": [
                -0.08048970478727682,
                -2.1389547219104497,
                -2.2481132182722705,
                0.5337097379515291,
                -0.31567971328365807,
                -0.7182254207818879
            ]
        },
        {
            "positions": [
                -0.07786713420199737,
                -2.1382400862375084,
                -2.224889632550525,
                0.3738606333028687,
                -0.3868492037736175,
                -0.8495534312511633
            ]
        },
        {
            "positions": [
                -0.07524456361671791,
                -2.1375254505645667,
                -2.2016660468287794,
                0.21401152865420858,
                -0.45801869426357683,
                -0.9808814417204386
            ]
        },
        {
            "positions": [
                -0.07262199303143846,
                -2.136810814891625,
                -2.178442461107034,
                0.05416242400554805,
                -0.5291881847535362,
                -1.112209452189714
            ]
        },
        {
            "positions": [
                -0.069999422446159,
                -2.1360961792186837,
                -2.1552188753852883,
                -0.10568668064311226,
                -0.6003576752434956,
                -1.2435374626589892
            ]
        },
        {
            "positions": [
                -0.06737685186087955,
                -2.135381543545742,
                -2.131995289663543,
                -0.2655357852917726,
                -0.671527165733455,
                -1.3748654731282646
            ]
        },
        {
            "positions": [
                -0.0647542812756001,
                -2.1346669078728002,
                -2.1087717039417972,
                -0.4253848899404329,
                -0.7426966562234143,
                -1.50619348359754
            ]
        },
        {
            "positions": [
                -0.062131710690320634,
                -2.1339522721998585,
                -2.0855481182200513,
                -0.585233994589093,
                -0.8138661467133737,
                -1.637521494066815
            ]
        },
        {
            "positions": [
                -0.05950914010504117,
                -2.133237636526917,
                -2.0623245324983057,
                -0.7450830992377537,
                -0.8850356372033332,
                -1.7688495045360908
            ]
        },
        {
            "positions": [
                -0.056886569519761725,
                -2.1325230008539755,
                -2.03910094677656,
                -0.904932203886414,
                -0.9562051276932926,
                -1.900177515005366
            ]
        },
        {
            "positions": [
                -0.05426399893448227,
                -2.131808365181034,
                -2.0158773610548146,
                -1.064781308535074,
                -1.027374618183252,
                -2.0315055254746412
            ]
        },
        {
            "positions": [
                -0.05164142834920281,
                -2.131093729508092,
                -1.992653775333069,
                -1.2246304131837347,
                -1.0985441086732113,
                -2.162833535943917
            ]
        },
        {
            "positions": [
                -0.049018857763923354,
                -2.130379093835151,
                -1.9694301896113235,
                -1.384479517832395,
                -1.1697135991631706,
                -2.294161546413192
            ]
        },
        {
            "positions": [
                -0.04639628717864391,
                -2.129664458162209,
                -1.9462066038895778,
                -1.5443286224810548,
                -1.24088308965313,
                -2.425489556882467
            ]
        },
        {
            "positions": [
                -0.043773716593364445,
                -2.1289498224892673,
                -1.9229830181678322,
                -1.7041777271297156,
                -1.3120525801430896,
                -2.5568175673517426
            ]
        },
        {
            "positions": [
                -0.04115114600808499,
                -2.1282351868163256,
                -1.8997594324460867,
                -1.864026831778376,
                -1.383222070633049,
                -2.6881455778210177
            ]
        },
        {
            "positions": [
                -0.03852857542280554,
                -2.127520551143384,
                -1.876535846724341,
                -2.0238759364270362,
                -1.454391561123008,
                -2.8194735882902933
            ]
        },
        {
            "positions": [
                -0.03590600483752608,
                -2.1268059154704426,
                -1.8533122610025954,
                -2.1837250410756965,
                -1.5255610516129676,
                -2.950801598759569
            ]
        },
        {
            "positions": [
                -0.03328343425224663,
                -2.126091279797501,
                -1.8300886752808498,
                -2.343574145724357,
                -1.596730542102927,
                -3.082129609228844
            ]
        }
    ]
}