{
    "goal": {
        "global_pose": {
            "orientation": {
                "w": -0.4816463035849501,
                "x": 0.5182115481033762,
                "y": 0.4908360881923453,
                "z": -0.5084816262002911
            },
            "position": {
                "x": -0.8240239810943604,
                "y": 0.19912469901144506,
                "z": 0.16403168439865112
            }
        },
        "name": "move_to_storage_D"
    },
    "id": "PRM_move_to_storage_D_126",
    "joint_names": [
        "shoulder_pan_joint",
        "shoulder_lift_joint",
        "elbow_joint",
        "wrist_1_joint",
        "wrist_2_joint",
        "wrist_3_joint"
    ],
    "metrics": {
        "cart_traj_len": 3.7289946858754446,
        "distance_elbow_joint": 4.207699730691187,
        "distance_shoulder_lift_joint": 1.265514331789497,
        "distance_shoulder_pan_joint": 2.8114413413578445,
        "distance_wrist_1_joint": 2.4720730460781777,
        "distance_wrist_2_joint": 1.1581078602289567,
        "distance_wrist_3_joint": 3.5487041679286553,
        "smoothness": 0.3773761767152846,
        "time": 0.210304127,
        "traj_len": 3.9323708469667915,
        "weighted_distance": 5.117727007201416
    },
    "planner": "PRM",
    "start": {
        "state": {
            "elbow_joint": -2.384821988534728,
            "shoulder_lift_joint": -2.2788054721415256,
            "shoulder_pan_joint": -0.1854694642142757,
            "wrist_1_joint": 1.4845938289331202,
            "wrist_2_joint": 0.17898776772866878,
            "wrist_3_joint": 0.037105688729662994
        }
    },
    "waypoints": [
        {
            "positions": [
                -0.1854694642142757,
                -2.2788054721415256,
                -2.384821988534728,
                1.4845938289331202,
                0.17898776772866878,
                0.037105688729662994
            ]
        },
        {
            "positions": [
                -0.15771544441926638,
                -2.2734912676362784,
                -2.3194126008238896,
                1.5363934736847047,
                0.10627517322676852,
                -0.06333293720790453
            ]
        },
        {
            "positions": [
                -0.12996142462425705,
                -2.2681770631310307,
                -2.254003213113051,
                1.5881931184362894,
                0.033562578724868244,
                -0.16377156314547206
            ]
        },
        {
            "positions": [
                -0.04931363853728034,
                -2.2337175787485424,
                -2.141126301708531,
                1.527554132582984,
                0.05981395593198545,
                -0.0839581658011511
            ]
        },
        {
            "positions": [
                0.03133414754969638,
                -2.199258094366054,
                -2.0282493903040106,
                1.4669151467296788,
                0.08606533313910265,
                -0.00414476845683015
            ]
        },
        {
            "positions": [
                0.11198193363667311,
                -2.1647986099835657,
                -1.9153724788994904,
                1.4062761608763734,
                0.11231671034621987,
                0.07566862888749082
            ]
        },
        {
            "positions": [
                0.1926297197236498,
                -2.1303391256010773,
                -1.8024955674949703,
                1.345637175023068,
                0.13856808755333705,
                0.15548202623181176
            ]
        },
        {
            "positions": [
                0.2732775058106266,
                -2.0958796412185885,
                -1.68961865609045,
                1.2849981891697628,
                0.16481946476045428,
                0.23529542357613273
            ]
        },
        {
            "positions": [
                0.35392529189760324,
                -2.0614201568361,
                -1.5767417446859298,
                1.2243592033164574,
                0.19107084196757151,
                0.31510882092045367
            ]
        },
        {
            "positions": [
                0.4345730779845799,
                -2.0269606724536118,
                -1.4638648332814097,
                1.163720217463152,
                0.2173222191746887,
                0.3949222182647746
            ]
        },
        {
            "positions": [
                0.5152208640715567,
                -1.9925011880711234,
                -1.3509879218768894,
                1.1030812316098468,
                0.24357359638180587,
                0.4747356156090956
            ]
        },
        {
            "positions": [
                0.5958686501585334,
                -1.958041703688635,
                -1.2381110104723692,
                1.0424422457565412,
                0.2698249735889231,
                0.5545490129534165
            ]
        },
        {
            "positions": [
                0.6765164362455102,
                -1.9235822193061467,
                -1.1252340990678489,
                0.981803259903236,
                0.2960763507960403,
                0.6343624102977375
            ]
        },
        {
            "positions": [
                0.7571642223324869,
                -1.8891227349236581,
                -1.0123571876633286,
                0.9211642740499306,
                0.3223277280031575,
                0.7141758076420585
            ]
        },
        {
            "positions": [
                0.8378120084194636,
                -1.8546632505411698,
                -0.8994802762588083,
                0.8605252881966253,
                0.34857910521027474,
                0.7939892049863795
            ]
        },
        {
            "positions": [
                0.9184597945064401,
                -1.8202037661586814,
                -0.7866033648542885,
                0.79988630234332,
                0.37483048241739186,
                0.8738026023307003
            ]
        },
        {
            "positions": [
                0.9991075805934169,
                -1.785744281776193,
                -0.6737264534497682,
                0.7392473164900147,
                0.4010818596245091,
                0.9536159996750212
            ]
        },
        {
            "positions": [
                1.0797553666803936,
                -1.7512847973937045,
                -0.560849542045248,
                0.6786083306367093,
                0.42733323683162633,
                1.033429397019342
            ]
        },
        {
            "positions": [
                1.1604031527673704,
                -1.716825313011216,
                -0.4479726306407277,
                0.617969344783404,
                0.4535846140387435,
                1.1132427943636631
            ]
        },
        {
            "positions": [
                1.2410509388543471,
                -1.6823658286287277,
                -0.3350957192362074,
                0.5573303589300986,
                0.47983599124586074,
                1.193056191707984
            ]
        },
        {
            "positions": [
                1.321698724941324,
                -1.6479063442462394,
                -0.22221880783168713,
                0.49669137307679323,
                0.506087368452978,
                1.272869589052305
            ]
        },
        {
            "positions": [
                1.4023465110283007,
                -1.613446859863751,
                -0.10934189642716685,
                0.4360523872234878,
                0.5323387456600952,
                1.352682986396626
            ]
        },
        {
            "positions": [
                1.4829942971152774,
                -1.5789873754812624,
                0.0035350149773534234,
                0.37541340137018264,
                0.5585901228672123,
                1.432496383740947
            ]
        },
        {
            "positions": [
                1.5636420832022542,
                -1.544527891098774,
                0.1164119263818737,
                0.31477441551687724,
                0.5848415000743296,
                1.512309781085268
            ]
        },
        {
            "positions": [
                1.644289869289231,
                -1.5100684067162855,
                0.22928883778639397,
                0.25413542966357183,
                0.6110928772814468,
                1.5921231784295888
            ]
        },
        {
            "positions": [
                1.7249376553762075,
                -1.4756089223337971,
                0.34216574919091425,
                0.19349644381026643,
                0.637344254488564,
                1.67193657577391
            ]
        },
        {
            "positions": [
                1.8055854414631842,
                -1.4411494379513088,
                0.4550426605954345,
                0.13285745795696124,
                0.6635956316956813,
                1.7517499731182309
            ]
        },
        {
            "positions": [
                1.886233227550161,
                -1.4066899535688204,
                0.5679195719999548,
                0.07221847210365584,
                0.6898470089027985,
                1.8315633704625518
            ]
        },
        {
            "positions": [
                1.9668810136371373,
                -1.372230469186332,
                0.6807964834044742,
                0.011579486250350657,
                0.7160983861099155,
                1.9113767678068725
            ]
        },
        {
            "positions": [
                2.0475287997241143,
                -1.3377709848038437,
                0.7936733948089945,
                -0.04905949960295475,
                0.7423497633170327,
                1.9911901651511936
            ]
        },
        {
            "positions": [
                2.128176585811091,
                -1.3033115004213554,
                0.9065503062135147,
                -0.10969848545625993,
                0.76860114052415,
                2.0710035624955143
            ]
        },
        {
            "positions": [
                2.208824371898068,
                -1.268852016038867,
                1.019427217618035,
                -0.17033747130956534,
                0.7948525177312672,
                2.1508169598398355
            ]
        },
        {
            "positions": [
                2.2894721579850446,
                -1.2343925316563784,
                1.1323041290225553,
                -0.23097645716287074,
                0.8211038949383844,
                2.230630357184156
            ]
        },
        {
            "positions": [
                2.3701199440720213,
                -1.19993304727389,
                1.2451810404270756,
                -0.29161544301617615,
                0.8473552721455017,
                2.3104437545284773
            ]
        },
        {
            "positions": [
                2.450767730158998,
                -1.1654735628914017,
                1.3580579518315958,
                -0.35225442886948133,
                0.8736066493526188,
                2.3902571518727984
            ]
        },
        {
            "positions": [
                2.531415516245975,
                -1.1310140785089131,
                1.470934863236116,
                -0.41289341472278696,
                0.899858026559736,
                2.470070549217119
            ]
        },
        {
            "positions": [
                2.6120633023329516,
                -1.0965545941264248,
                1.5838117746406362,
                -0.47353240057609214,
                0.9261094037668532,
                2.5498839465614402
            ]
        },
        {
            "positions": [
                2.615540446035606,
                -1.0757387306828257,
                1.6435782665195917,
                -0.5502194599667489,
                0.956143365312646,
                2.7084267981480923
            ]
        },
        {
            "positions": [
                2.6190175897382604,
                -1.0549228672392266,
                1.7033447583985475,
                -0.6269065193574057,
                0.9861773268584386,
                2.8669696497347443
            ]
        },
        {
            "positions": [
                2.6224947334409148,
                -1.0341070037956277,
                1.763111250277503,
                -0.7035935787480625,
                1.0162112884042314,
                3.0255125013213964
            ]
        },
        {
            "positions": [
                2.625971877143569,
                -1.0132911403520286,
                1.8228777421564586,
                -0.7802806381387193,
                1.046245249950024,
                3.1840553529080484
            ]
        }
    ]
}