{
    "goal": {
        "global_pose": {
            "orientation": {
                "w": 0.7031023480610252,
                "x": -0.7110244013736278,
                "y": 0.0077485991402295624,
                "z": 0.005598929693374583
            },
            "position": {
                "x": -0.8841497679147869,
                "y": 0.44412534475326537,
                "z": 0.3711530566215515
            }
        },
        "name": "move_to_auspresseinheit_D"
    },
    "id": "PRM_move_to_auspresseinheit_D_74",
    "joint_names": [
        "shoulder_pan_joint",
        "shoulder_lift_joint",
        "elbow_joint",
        "wrist_1_joint",
        "wrist_2_joint",
        "wrist_3_joint"
    ],
    "metrics": {
        "cart_traj_len": 0.3426460534793933,
        "distance_elbow_joint": 0.6421422036767985,
        "distance_shoulder_lift_joint": 0.12359867319051965,
        "distance_shoulder_pan_joint": 0.13349261220273778,
        "distance_wrist_1_joint": 0.5526354081448059,
        "distance_wrist_2_joint": 1.4303568236890207,
        "distance_wrist_3_joint": 0.008407474312391638,
        "smoothness": 0.0,
        "time": 0.024312074000000003,
        "traj_len": 1.7001862236873566,
        "weighted_distance": 2.2114340088899067
    },
    "planner": "PRM",
    "start": {
        "state": {
            "elbow_joint": -1.8275523626775212,
            "shoulder_lift_joint": -2.126789852344167,
            "shoulder_pan_joint": -0.03513704404078235,
            "wrist_1_joint": -2.347782403156801,
            "wrist_2_joint": -1.6058999987535132,
            "wrist_3_joint": -3.0880379163319196
        }
    },
    "waypoints": [
        {
            "positions": [
                -0.03513704404078235,
                -2.126789852344167,
                -1.8275523626775212,
                -2.347782403156801,
                -1.6058999987535132,
                -3.0880379163319196
            ]
        },
        {
            "positions": [
                -0.05182362056612457,
                -2.1422396864929816,
                -1.7472845872179215,
                -2.4168618291749016,
                -1.4271053957923856,
                -3.0869869820428706
            ]
        },
        {
            "positions": [
                -0.0685101970914668,
                -2.1576895206417968,
                -1.6670168117583215,
                -2.4859412551930022,
                -1.248310792831258,
                -3.0859360477538216
            ]
        },
        {
            "positions": [
                -0.08519677361680902,
                -2.173139354790612,
                -1.5867490362987218,
                -2.555020681211103,
                -1.0695161898701304,
                -3.0848851134647726
            ]
        },
        {
            "positions": [
                -0.10188335014215125,
                -2.1885891889394267,
                -1.5064812608391218,
                -2.6241001072292036,
                -0.8907215869090028,
                -3.0838341791757236
            ]
        },
        {
            "positions": [
                -0.11856992666749347,
                -2.2040390230882414,
                -1.426213485379522,
                -2.6931795332473047,
                -0.7119269839478752,
                -3.082783244886675
            ]
        },
        {
            "positions": [
                -0.1352565031928357,
                -2.2194888572370566,
                -1.3459457099199224,
                -2.7622589592654054,
                -0.5331323809867476,
                -3.081732310597626
            ]
        },
        {
            "positions": [
                -0.15194307971817791,
                -2.2349386913858718,
                -1.2656779344603226,
                -2.831338385283506,
                -0.35433777802562005,
                -3.080681376308577
            ]
        },
        {
            "positions": [
                -0.16862965624352014,
                -2.2503885255346865,
                -1.1854101590007227,
                -2.900417811301607,
                -0.1755431750644925,
                -3.079630442019528
            ]
        }
    ]
}