{
    "goal": {
        "global_pose": {
            "orientation": {
                "w": 0.7031023502349854,
                "x": -0.7110244035720825,
                "y": 0.007748599164187908,
                "z": 0.005598929710686207
            },
            "position": {
                "x": 0.11585023208521307,
                "y": 0.44412534475326537,
                "z": 0.3711530566215515
            }
        },
        "name": "move_to_auspresseinheit_A"
    },
    "id": "PRM_move_to_auspresseinheit_A_88",
    "joint_names": [
        "shoulder_pan_joint",
        "shoulder_lift_joint",
        "elbow_joint",
        "wrist_1_joint",
        "wrist_2_joint",
        "wrist_3_joint"
    ],
    "metrics": {
        "cart_traj_len": 1.7782675677753101,
        "distance_elbow_joint": 2.3123599000830604,
        "distance_shoulder_lift_joint": 0.8378556640994792,
        "distance_shoulder_pan_joint": 1.5360956374633394,
        "distance_wrist_1_joint": 3.9341681491925775,
        "distance_wrist_2_joint": 0.5549775719080855,
        "distance_wrist_3_joint": 4.62654391938472,
        "smoothness": 0.7827676901637147,
        "time": 0.309926503,
        "traj_len": 3.7151044187386253,
        "weighted_distance": 5.248260130938764
    },
    "planner": "PRM",
    "start": {
        "state": {
            "elbow_joint": 2.4225746658250005,
            "shoulder_lift_joint": -1.3736534386056498,
            "shoulder_pan_joint": -0.3378633547517467,
            "wrist_1_joint": -1.0288598680537169,
            "wrist_2_joint": 1.233022673432363,
            "wrist_3_joint": -3.0940220416140027
        }
    },
    "waypoints": [
        {
            "positions": [
                -0.3378633547517467,
                -1.3736534386056498,
                2.4225746658250005,
                -1.0288598680537169,
                1.233022673432363,
                -3.0940220416140027
            ]
        },
        {
            "positions": [
                -0.29745450830166253,
                -1.4018625926297257,
                2.360939339713436,
                -0.9103807063389179,
                1.215669291252174,
                -2.9734105982856494
            ]
        },
        {
            "positions": [
                -0.2570456618515784,
                -1.4300717466538015,
                2.2993040136018723,
                -0.791901544624119,
                1.1983159090719853,
                -2.8527991549572955
            ]
        },
        {
            "positions": [
                -0.2166368154014942,
                -1.4582809006778774,
                2.237668687490308,
                -0.67342238290932,
                1.1809625268917963,
                -2.732187711628942
            ]
        },
        {
            "positions": [
                -0.17622796895141002,
                -1.486490054701953,
                2.1760333613787437,
                -0.5549432211945211,
                1.1636091447116075,
                -2.6115762683005888
            ]
        },
        {
            "positions": [
                -0.13581912250132586,
                -1.514699208726029,
                2.1143980352671794,
                -0.4364640594797221,
                1.1462557625314185,
                -2.4909648249722354
            ]
        },
        {
            "positions": [
                -0.0954102760512417,
                -1.5429083627501048,
                2.0527627091556155,
                -0.3179848977649231,
                1.1289023803512297,
                -2.3703533816438815
            ]
        },
        {
            "positions": [
                -0.0550014296011575,
                -1.5711175167741807,
                1.9911273830440512,
                -0.19950573605012412,
                1.1115489981710407,
                -2.249741938315528
            ]
        },
        {
            "positions": [
                -0.014592583151073313,
                -1.5993266707982565,
                1.929492056932487,
                -0.08102657433532523,
                1.094195615990852,
                -2.1291304949871748
            ]
        },
        {
            "positions": [
                0.025816263299010822,
                -1.6275358248223322,
                1.8678567308209229,
                0.03745258737947377,
                1.076842233810663,
                -2.008519051658821
            ]
        },
        {
            "positions": [
                0.06622510974909501,
                -1.655744978846408,
                1.8062214047093588,
                0.15593174909427265,
                1.0594888516304741,
                -1.8879076083304676
            ]
        },
        {
            "positions": [
                0.1066339561991792,
                -1.683954132870484,
                1.7445860785977945,
                0.27441091080907176,
                1.0421354694502851,
                -1.767296165002114
            ]
        },
        {
            "positions": [
                0.14704280264926334,
                -1.7121632868945598,
                1.6829507524862302,
                0.39289007252387065,
                1.0247820872700963,
                -1.6466847216737606
            ]
        },
        {
            "positions": [
                0.18745164909934758,
                -1.7403724409186356,
                1.6213154263746659,
                0.5113692342386698,
                1.0074287050899073,
                -1.526073278345407
            ]
        },
        {
            "positions": [
                0.22786049554943172,
                -1.7685815949427115,
                1.559680100263102,
                0.6298483959534686,
                0.9900753229097186,
                -1.4054618350170536
            ]
        },
        {
            "positions": [
                0.26826934199951596,
                -1.7967907489667874,
                1.4980447741515377,
                0.7483275576682678,
                0.9727219407295296,
                -1.2848503916886997
            ]
        },
        {
            "positions": [
                0.3086781884496001,
                -1.824999902990863,
                1.4364094480399734,
                0.8668067193830664,
                0.9553685585493408,
                -1.1642389483603464
            ]
        },
        {
            "positions": [
                0.34908703489968423,
                -1.8532090570149389,
                1.3747741219284093,
                0.9852858810978657,
                0.9380151763691518,
                -1.043627505031993
            ]
        },
        {
            "positions": [
                0.38949588134976837,
                -1.8814182110390147,
                1.3131387958168452,
                1.1037650428126644,
                0.9206617941889629,
                -0.9230160617036396
            ]
        },
        {
            "positions": [
                0.42990472779985267,
                -1.9096273650630906,
                1.251503469705281,
                1.2222442045274635,
                0.903308412008774,
                -0.8024046183752859
            ]
        },
        {
            "positions": [
                0.47736405166534807,
                -1.9232554377221815,
                1.3279367342000126,
                1.1319293098344496,
                0.8847574002994787,
                -0.9342246388312171
            ]
        },
        {
            "positions": [
                0.5248233755308435,
                -1.9368835103812727,
                1.4043699986947442,
                1.0416144151414355,
                0.8662063885901835,
                -1.0660446592871482
            ]
        },
        {
            "positions": [
                0.5722826993963388,
                -1.9505115830403637,
                1.4808032631894759,
                0.9512995204484215,
                0.8476553768808882,
                -1.1978646797430794
            ]
        },
        {
            "positions": [
                0.6197420232618343,
                -1.9641396556994548,
                1.5572365276842075,
                0.8609846257554075,
                0.8291043651715929,
                -1.3296847001990106
            ]
        },
        {
            "positions": [
                0.6672013471273297,
                -1.9777677283585458,
                1.6336697921789392,
                0.7706697310623934,
                0.8105533534622977,
                -1.4615047206549419
            ]
        },
        {
            "positions": [
                0.714660670992825,
                -1.991395801017637,
                1.7101030566736708,
                0.6803548363693794,
                0.7920023417530024,
                -1.593324741110873
            ]
        },
        {
            "positions": [
                0.7621199948583205,
                -2.005023873676728,
                1.7865363211684024,
                0.5900399416763654,
                0.7734513300437071,
                -1.7251447615668043
            ]
        },
        {
            "positions": [
                0.8095793187238158,
                -2.018651946335819,
                1.862969585663134,
                0.4997250469833514,
                0.754900318334412,
                -1.8569647820227355
            ]
        },
        {
            "positions": [
                0.8570386425893113,
                -2.03228001899491,
                1.9394028501578657,
                0.4094101522903374,
                0.7363493066251167,
                -1.988784802478667
            ]
        },
        {
            "positions": [
                0.9044979664548067,
                -2.045908091654001,
                2.0158361146525974,
                0.3190952575973234,
                0.7177982949158215,
                -2.120604822934598
            ]
        },
        {
            "positions": [
                0.9519572903203021,
                -2.059536164313092,
                2.092269379147329,
                0.22878036290430936,
                0.6992472832065262,
                -2.252424843390529
            ]
        },
        {
            "positions": [
                0.9276825797206155,
                -2.041831565408925,
                2.14500575329796,
                0.12263589326349754,
                0.6984657637145869,
                -2.3866788570235986
            ]
        },
        {
            "positions": [
                0.903407869120929,
                -2.0241269665047583,
                2.197742127448591,
                0.016491423622685714,
                0.6976842442226476,
                -2.5209328706566687
            ]
        },
        {
            "positions": [
                0.8791331585212424,
                -2.0064223676005914,
                2.250478501599222,
                -0.08965304601812613,
                0.6969027247307084,
                -2.655186884289739
            ]
        },
        {
            "positions": [
                0.8548584479215559,
                -1.9887177686964246,
                2.3032148757498527,
                -0.19579751565893794,
                0.6961212052387691,
                -2.7894408979228085
            ]
        },
        {
            "positions": [
                0.8051330645907078,
                -1.9616662544379682,
                2.333073975056109,
                -0.284138301133936,
                0.7021465731435996,
                -2.905404303455635
            ]
        },
        {
            "positions": [
                0.7554076812598596,
                -1.9346147401795115,
                2.3629330743623655,
                -0.37247908660893414,
                0.7081719410484301,
                -3.021367708988462
            ]
        },
        {
            "positions": [
                0.7056822979290115,
                -1.907563225921055,
                2.3927921736686217,
                -0.4608198720839322,
                0.7141973089532606,
                -3.1373311145212885
            ]
        }
    ]
}