{
    "goal": {
        "global_pose": {
            "orientation": {
                "w": 0.7031023502349854,
                "x": -0.7110244035720825,
                "y": 0.007748599164187908,
                "z": 0.005598929710686207
            },
            "position": {
                "x": 0.11585023208521307,
                "y": 0.44412534475326537,
                "z": 0.3711530566215515
            }
        },
        "name": "move_to_auspresseinheit_A"
    },
    "id": "PRM_move_to_auspresseinheit_A_8",
    "joint_names": [
        "shoulder_pan_joint",
        "shoulder_lift_joint",
        "elbow_joint",
        "wrist_1_joint",
        "wrist_2_joint",
        "wrist_3_joint"
    ],
    "metrics": {
        "cart_traj_len": 0.9536515318567652,
        "distance_elbow_joint": 0.2416674836475181,
        "distance_shoulder_lift_joint": 1.0694108971197922,
        "distance_shoulder_pan_joint": 1.1054909639720485,
        "distance_wrist_1_joint": 1.939100155242516,
        "distance_wrist_2_joint": 0.5236002028266205,
        "distance_wrist_3_joint": 0.1914636051136216,
        "smoothness": 1.625569492167728,
        "time": 0.115475086,
        "traj_len": 2.2518288806927838,
        "weighted_distance": 2.8136028284422974
    },
    "planner": "PRM",
    "start": {
        "state": {
            "elbow_joint": 2.4225746658250005,
            "shoulder_lift_joint": -1.3736534386056498,
            "shoulder_pan_joint": -0.3378633547517467,
            "wrist_1_joint": -1.0288598680537169,
            "wrist_2_joint": 1.233022673432363,
            "wrist_3_joint": -3.0940220416140027
        }
    },
    "waypoints": [
        {
            "positions": [
                -0.3378633547517467,
                -1.3736534386056498,
                2.4225746658250005,
                -1.0288598680537169,
                1.233022673432363,
                -3.0940220416140027
            ]
        },
        {
            "positions": [
                -0.23033409465933774,
                -1.4538031141362568,
                2.4089158483797317,
                -0.903120608667718,
                1.188611069697598,
                -3.1063974498948257
            ]
        },
        {
            "positions": [
                -0.12280483456692876,
                -1.5339527896668639,
                2.395257030934463,
                -0.7773813492817192,
                1.144199465962833,
                -3.118772858175648
            ]
        },
        {
            "positions": [
                -0.015275574474519826,
                -1.614102465197471,
                2.381598213489194,
                -0.6516420898957203,
                1.099787862228068,
                -3.1311482664564707
            ]
        },
        {
            "positions": [
                0.09225368561788921,
                -1.694252140728078,
                2.3679393960439254,
                -0.5259028305097214,
                1.0553762584933029,
                -3.1435236747372937
            ]
        },
        {
            "positions": [
                0.19978294571029814,
                -1.7744018162586848,
                2.3542805785986567,
                -0.4001635711237226,
                1.0109646547585378,
                -3.1558990830181166
            ]
        },
        {
            "positions": [
                0.3073122058027071,
                -1.8545514917892918,
                2.340621761153388,
                -0.27442431173772375,
                0.9665530510237728,
                -3.168274491298939
            ]
        },
        {
            "positions": [
                0.414841465895116,
                -1.9347011673198988,
                2.326962943708119,
                -0.1486850523517249,
                0.9221414472890078,
                -3.1806498995797616
            ]
        },
        {
            "positions": [
                0.5223707259875252,
                -2.014850842850506,
                2.3133041262628504,
                -0.022945792965725964,
                0.8777298435542427,
                -3.1930253078605846
            ]
        },
        {
            "positions": [
                0.6298999860799341,
                -2.095000518381113,
                2.2996453088175817,
                0.10279346642027298,
                0.8333182398194777,
                -3.2054007161414075
            ]
        },
        {
            "positions": [
                0.7374292461723431,
                -2.17515019391172,
                2.285986491372313,
                0.22853272580627182,
                0.7889066360847127,
                -3.21777612442223
            ]
        },
        {
            "positions": [
                0.7298796554103534,
                -2.1081716584582892,
                2.3122563186710208,
                0.058105835460639965,
                0.7690355947149702,
                -3.2008487438458815
            ]
        },
        {
            "positions": [
                0.7223300646483637,
                -2.041193123004859,
                2.338526145969728,
                -0.11232105488499189,
                0.7491645533452276,
                -3.183921363269533
            ]
        },
        {
            "positions": [
                0.7147804738863739,
                -1.9742145875514283,
                2.3647959732684356,
                -0.28274794523062374,
                0.7292935119754851,
                -3.1669939826931843
            ]
        },
        {
            "positions": [
                0.7072308831243842,
                -1.9072360520979978,
                2.3910658005671435,
                -0.45317483557625554,
                0.7094224706057426,
                -3.1500666021168358
            ]
        }
    ]
}