{
    "goal": {
        "global_pose": {
            "orientation": {
                "w": 0.7031023480610252,
                "x": -0.7110244013736278,
                "y": 0.0077485991402295624,
                "z": 0.005598929693374583
            },
            "position": {
                "x": -0.8841497679147869,
                "y": 0.44412534475326537,
                "z": 0.3711530566215515
            }
        },
        "name": "move_to_auspresseinheit_D"
    },
    "id": "PRM_move_to_auspresseinheit_D_148",
    "joint_names": [
        "shoulder_pan_joint",
        "shoulder_lift_joint",
        "elbow_joint",
        "wrist_1_joint",
        "wrist_2_joint",
        "wrist_3_joint"
    ],
    "metrics": {
        "cart_traj_len": 0.3454590529314029,
        "distance_elbow_joint": 0.669427223863371,
        "distance_shoulder_lift_joint": 0.1380179186895818,
        "distance_shoulder_pan_joint": 0.1342878645923382,
        "distance_wrist_1_joint": 0.627416497793114,
        "distance_wrist_2_joint": 1.441342062270222,
        "distance_wrist_3_joint": 0.08841184712643724,
        "smoothness": 2.9605947279411004e-16,
        "time": 0.024686339999999998,
        "traj_len": 1.7603702492189148,
        "weighted_distance": 2.3118143672560034
    },
    "planner": "PRM",
    "start": {
        "state": {
            "elbow_joint": -1.8275523626775212,
            "shoulder_lift_joint": -2.126789852344167,
            "shoulder_pan_joint": -0.03513704404078235,
            "wrist_1_joint": -2.347782403156801,
            "wrist_2_joint": -1.6058999987535132,
            "wrist_3_joint": -3.0880379163319196
        }
    },
    "waypoints": [
        {
            "positions": [
                -0.03513704404078235,
                -2.126789852344167,
                -1.8275523626775212,
                -2.347782403156801,
                -1.6058999987535132,
                -3.0880379163319196
            ]
        },
        {
            "positions": [
                -0.051923027114824626,
                -2.1440420921803645,
                -1.7438739596945998,
                -2.42620946538094,
                -1.4257322409697355,
                -3.076986435441115
            ]
        },
        {
            "positions": [
                -0.06870901018886691,
                -2.1612943320165625,
                -1.6601955567116784,
                -2.5046365276050793,
                -1.2455644831859578,
                -3.0659349545503103
            ]
        },
        {
            "positions": [
                -0.08549499326290919,
                -2.17854657185276,
                -1.5765171537287572,
                -2.5830635898292185,
                -1.06539672540218,
                -3.0548834736595056
            ]
        },
        {
            "positions": [
                -0.10228097633695146,
                -2.1957988116889577,
                -1.4928387507458356,
                -2.6614906520533577,
                -0.8852289676184022,
                -3.043831992768701
            ]
        },
        {
            "positions": [
                -0.11906695941099374,
                -2.2130510515251554,
                -1.4091603477629144,
                -2.7399177142774973,
                -0.7050612098346245,
                -3.0327805118778963
            ]
        },
        {
            "positions": [
                -0.13585294248503602,
                -2.230303291361353,
                -1.325481944779993,
                -2.8183447765016365,
                -0.5248934520508466,
                -3.0217290309870917
            ]
        },
        {
            "positions": [
                -0.1526389255590783,
                -2.247555531197551,
                -1.2418035417970716,
                -2.8967718387257757,
                -0.3447256942670689,
                -3.010677550096287
            ]
        },
        {
            "positions": [
                -0.16942490863312057,
                -2.2648077710337486,
                -1.1581251388141502,
                -2.975198900949915,
                -0.16455793648329126,
                -2.9996260692054824
            ]
        }
    ]
}