{
    "goal": {
        "global_pose": {
            "orientation": {
                "w": 0.7047431493862688,
                "x": -0.7094548369677653,
                "y": 0.0024358444001904,
                "z": -0.0022348060817251984
            },
            "position": {
                "x": -0.39052492380142206,
                "y": 0.3671506643295288,
                "z": 0.19426114857196808
            }
        },
        "name": "move_to_magneteinheit_D"
    },
    "id": "PRM_move_to_magneteinheit_D_104",
    "joint_names": [
        "shoulder_pan_joint",
        "shoulder_lift_joint",
        "elbow_joint",
        "wrist_1_joint",
        "wrist_2_joint",
        "wrist_3_joint"
    ],
    "metrics": {
        "cart_traj_len": 4.648996591029575,
        "distance_elbow_joint": 3.3022851375327678,
        "distance_shoulder_lift_joint": 1.098585010894828,
        "distance_shoulder_pan_joint": 3.6319356868062482,
        "distance_wrist_1_joint": 2.512291435112126,
        "distance_wrist_2_joint": 0.6255171210499573,
        "distance_wrist_3_joint": 1.9460386987313179,
        "smoothness": 0.4682604476636518,
        "time": 0.16905674199999998,
        "traj_len": 3.621692020330724,
        "weighted_distance": 4.488489617204429
    },
    "planner": "PRM",
    "start": {
        "state": {
            "elbow_joint": 0.749534889911806,
            "shoulder_lift_joint": -0.6476975780787326,
            "shoulder_pan_joint": -2.711696901376241,
            "wrist_1_joint": -0.07506478083263063,
            "wrist_2_joint": 0.43296659715538205,
            "wrist_3_joint": -3.14703540197715
        }
    },
    "waypoints": [
        {
            "positions": [
                -2.711696901376241,
                -0.6476975780787326,
                0.749534889911806,
                -0.07506478083263063,
                0.43296659715538205,
                -3.14703540197715
            ]
        },
        {
            "positions": [
                -2.7396067518784757,
                -0.7876407119504876,
                0.843324542182423,
                -0.0241559452258951,
                0.4219172344018966,
                -3.0797270663691956
            ]
        },
        {
            "positions": [
                -2.596816000203361,
                -0.8506990807991481,
                0.7809381758238298,
                -0.01055212699877476,
                0.42293655064494384,
                -2.996318278227773
            ]
        },
        {
            "positions": [
                -2.4540252485282457,
                -0.9137574496478087,
                0.7185518094652368,
                0.0030516912283455808,
                0.4239558668879911,
                -2.91290949008635
            ]
        },
        {
            "positions": [
                -2.311234496853131,
                -0.9768158184964691,
                0.6561654431066437,
                0.01665550945546592,
                0.4249751831310384,
                -2.8295007019449274
            ]
        },
        {
            "positions": [
                -2.1684437451780156,
                -1.0398741873451298,
                0.5937790767480505,
                0.03025932768258626,
                0.4259944993740856,
                -2.7460919138035047
            ]
        },
        {
            "positions": [
                -2.025652993502901,
                -1.1029325561937902,
                0.5313927103894575,
                0.0438631459097066,
                0.42701381561713286,
                -2.662683125662082
            ]
        },
        {
            "positions": [
                -1.8828622418277858,
                -1.1659909250424507,
                0.46900634403086433,
                0.05746696413682694,
                0.4280331318601801,
                -2.5792743375206593
            ]
        },
        {
            "positions": [
                -1.7400714901526708,
                -1.2290492938911113,
                0.4066199776722712,
                0.07107078236394729,
                0.42905244810322735,
                -2.4958655493792365
            ]
        },
        {
            "positions": [
                -1.5972807384775558,
                -1.292107662739772,
                0.344233611313678,
                0.08467460059106763,
                0.4300717643462746,
                -2.4124567612378134
            ]
        },
        {
            "positions": [
                -1.4544899868024406,
                -1.3551660315884324,
                0.28184724495508495,
                0.09827841881818797,
                0.4310910805893219,
                -2.3290479730963907
            ]
        },
        {
            "positions": [
                -1.3116992351273258,
                -1.418224400437093,
                0.21946087859649188,
                0.11188223704530831,
                0.4321103968323691,
                -2.245639184954968
            ]
        },
        {
            "positions": [
                -1.1689084834522108,
                -1.4812827692857535,
                0.1570745122378987,
                0.12548605527242865,
                0.43312971307541637,
                -2.1622303968135452
            ]
        },
        {
            "positions": [
                -1.0746343831896061,
                -1.4849173917282759,
                0.018988333936012514,
                0.029707052046684015,
                0.412346010171222,
                -2.182583221690519
            ]
        },
        {
            "positions": [
                -0.9803602829270015,
                -1.4885520141707984,
                -0.11909784436587367,
                -0.06607195117906062,
                0.3915623072670277,
                -2.2029360465674928
            ]
        },
        {
            "positions": [
                -0.8860861826643968,
                -1.492186636613321,
                -0.25718402266775986,
                -0.16185095440480526,
                0.3707786043628333,
                -2.2232888714444665
            ]
        },
        {
            "positions": [
                -0.7918120824017921,
                -1.4958212590558433,
                -0.39527020096964605,
                -0.25762995763054986,
                0.34999490145863893,
                -2.2436416963214403
            ]
        },
        {
            "positions": [
                -0.6975379821391875,
                -1.4994558814983656,
                -0.5333563792715322,
                -0.3534089608562945,
                0.3292111985544446,
                -2.263994521198414
            ]
        },
        {
            "positions": [
                -0.6032638818765828,
                -1.5030905039408882,
                -0.6714425575734184,
                -0.4491879640820392,
                0.30842749565025024,
                -2.284347346075388
            ]
        },
        {
            "positions": [
                -0.5089897816139781,
                -1.5067251263834107,
                -0.8095287358753046,
                -0.5449669673077838,
                0.2876437927460559,
                -2.3047001709523616
            ]
        },
        {
            "positions": [
                -0.4147156813513735,
                -1.510359748825933,
                -0.9476149141771908,
                -0.6407459705335284,
                0.2668600898418615,
                -2.3250529958293358
            ]
        },
        {
            "positions": [
                -0.32044158108876886,
                -1.5139943712684554,
                -1.0857010924790769,
                -0.7365249737592731,
                0.24607638693766717,
                -2.3454058207063095
            ]
        },
        {
            "positions": [
                -0.22616748082616422,
                -1.517628993710978,
                -1.2237872707809632,
                -0.8323039769850177,
                0.2252926840334728,
                -2.3657586455832833
            ]
        },
        {
            "positions": [
                -0.1318933805635596,
                -1.5212636161535005,
                -1.3618734490828495,
                -0.9280829802107624,
                0.20450898112927846,
                -2.386111470460257
            ]
        },
        {
            "positions": [
                -0.03761928030095474,
                -1.5248982385960228,
                -1.4999596273847355,
                -1.023861983436507,
                0.1837252782250841,
                -2.406464295337231
            ]
        },
        {
            "positions": [
                0.056654819961649894,
                -1.5285328610385451,
                -1.6380458056866216,
                -1.1196409866622516,
                0.16294157532088976,
                -2.4268171202142046
            ]
        },
        {
            "positions": [
                0.15092892022425453,
                -1.5321674834810677,
                -1.776131983988508,
                -1.2154199898879963,
                0.14215787241669536,
                -2.4471699450911784
            ]
        },
        {
            "positions": [
                0.24520302048685916,
                -1.5358021059235902,
                -1.9142181622903942,
                -1.3111989931137409,
                0.12137416951250102,
                -2.467522769968152
            ]
        },
        {
            "positions": [
                0.3394771207494639,
                -1.5394367283661126,
                -2.05230434059228,
                -1.4069779963394855,
                0.10059046660830666,
                -2.487875594845126
            ]
        },
        {
            "positions": [
                0.2747414695367101,
                -1.565510458935844,
                -2.096577285215368,
                -1.5128825466614382,
                0.0637597472930023,
                -2.5697085353741413
            ]
        },
        {
            "positions": [
                0.21000581832395626,
                -1.5915841895055756,
                -2.1408502298384557,
                -1.6187870969833908,
                0.026929027977697917,
                -2.651541475903157
            ]
        },
        {
            "positions": [
                0.14527016711120244,
                -1.617657920075307,
                -2.185123174461544,
                -1.7246916473053435,
                -0.00990169133760646,
                -2.7333744164321723
            ]
        },
        {
            "positions": [
                0.08053451589844862,
                -1.6437316506450386,
                -2.2293961190846314,
                -1.8305961976272962,
                -0.046732410652910825,
                -2.8152073569611877
            ]
        },
        {
            "positions": [
                0.015798864685694802,
                -1.66980538121477,
                -2.2736690637077195,
                -1.9365007479492489,
                -0.0835631299682152,
                -2.8970402974902036
            ]
        },
        {
            "positions": [
                -0.04893678652705902,
                -1.6958791117845013,
                -2.317942008330807,
                -2.0424052982712015,
                -0.12039384928351958,
                -2.978873238019219
            ]
        },
        {
            "positions": [
                -0.11367243773981285,
                -1.721952842354233,
                -2.362214952953895,
                -2.148309848593154,
                -0.15722456859882394,
                -3.0607061785482346
            ]
        },
        {
            "positions": [
                -0.18546484292660864,
                -1.7462825889735607,
                -2.3592589628280622,
                -2.1862545437346386,
                -0.17012556654753583,
                -3.1234640903812583
            ]
        }
    ]
}