{
    "goal": {
        "global_pose": {
            "orientation": {
                "w": 0.5084816217422485,
                "x": -0.49083608388900757,
                "y": 0.5182115435600281,
                "z": -0.4816462993621826
            },
            "position": {
                "x": 0.5540239810943604,
                "y": 0.030875300988554955,
                "z": 0.16403168439865112
            }
        },
        "name": "move_to_storage_A"
    },
    "id": "PRM_move_to_storage_A_122",
    "joint_names": [
        "shoulder_pan_joint",
        "shoulder_lift_joint",
        "elbow_joint",
        "wrist_1_joint",
        "wrist_2_joint",
        "wrist_3_joint"
    ],
    "metrics": {
        "cart_traj_len": 0.35359538449900996,
        "distance_elbow_joint": 0.4519456963408415,
        "distance_shoulder_lift_joint": 0.23556732751904486,
        "distance_shoulder_pan_joint": 0.45931309287547906,
        "distance_wrist_1_joint": 0.24541938923167284,
        "distance_wrist_2_joint": 1.1141551036234256,
        "distance_wrist_3_joint": 0.09525972945664574,
        "smoothness": 6.661338165333112e-16,
        "time": 0.01586088,
        "traj_len": 1.6129663167738841,
        "weighted_distance": 2.0375854069990535
    },
    "planner": "PRM",
    "start": {
        "state": {
            "elbow_joint": 1.971548259319323,
            "shoulder_lift_joint": -1.1394851275133948,
            "shoulder_pan_joint": 0.1228115487234821,
            "wrist_1_joint": -0.7804723859257726,
            "wrist_2_joint": 0.12958671773740124,
            "wrist_3_joint": -3.192489227718131
        }
    },
    "waypoints": [
        {
            "positions": [
                0.1228115487234821,
                -1.1394851275133948,
                1.971548259319323,
                -0.7804723859257726,
                0.12958671773740124,
                -3.192489227718131
            ]
        },
        {
            "positions": [
                0.057195392598413664,
                -1.1731376028732583,
                2.0361119302251574,
                -0.8155322986731545,
                0.28875173254074776,
                -3.17888069493861
            ]
        },
        {
            "positions": [
                -0.008420763526654773,
                -1.206790078233122,
                2.100675601130992,
                -0.8505922114205363,
                0.44791674734409426,
                -3.1652721621590896
            ]
        },
        {
            "positions": [
                -0.07403691965172321,
                -1.2404425535929855,
                2.1652392720368265,
                -0.885652124167918,
                0.6070817621474408,
                -3.1516636293795686
            ]
        },
        {
            "positions": [
                -0.13965307577679165,
                -1.274095028952849,
                2.229802942942661,
                -0.9207120369152999,
                0.7662467769507874,
                -3.138055096600048
            ]
        },
        {
            "positions": [
                -0.20526923190186008,
                -1.3077475043127125,
                2.2943666138484957,
                -0.9557719496626818,
                0.9254117917541339,
                -3.124446563820527
            ]
        },
        {
            "positions": [
                -0.2708853880269285,
                -1.3413999796725762,
                2.35893028475433,
                -0.9908318624100636,
                1.0845768065574803,
                -3.1108380310410064
            ]
        },
        {
            "positions": [
                -0.33650154415199696,
                -1.3750524550324397,
                2.4234939556601645,
                -1.0258917751574455,
                1.243741821360827,
                -3.0972294982614854
            ]
        }
    ]
}{
    "goal": {
        "global_pose": {
            "orientation": {
                "w": 0.5084816217422485,
                "x": -0.49083608388900757,
                "y": 0.5182115435600281,
                "z": -0.4816462993621826
            },
            "position": {
                "x": 0.5540239810943604,
                "y": 0.030875300988554955,
                "z": 0.16403168439865112
            }
        },
        "name": "move_to_storage_A"
    },
    "id": "PRM_move_to_storage_A_122",
    "joint_names": [
        "shoulder_pan_joint",
        "shoulder_lift_joint",
        "elbow_joint",
        "wrist_1_joint",
        "wrist_2_joint",
        "wrist_3_joint"
    ],
    "metrics": {
        "cart_traj_len": 0.3528340530356257,
        "distance_elbow_joint": 0.4499997435398071,
        "distance_shoulder_lift_joint": 0.23513699575830893,
        "distance_shoulder_pan_joint": 0.457934569038338,
        "distance_wrist_1_joint": 0.24428036498642536,
        "distance_wrist_2_joint": 1.1133559174157903,
        "distance_wrist_3_joint": 0.093034430513522,
        "smoothness": 8.881784232165597e-16,
        "time": 0.030148880000000003,
        "traj_len": 1.6105098637550135,
        "weighted_distance": 2.0340715731461985
    },
    "planner": "PRM",
    "start": {
        "state": {
            "elbow_joint": 1.97154746011099,
            "shoulder_lift_joint": -1.13948474672311,
            "shoulder_pan_joint": 0.12281154466712228,
            "wrist_1_joint": -0.7804688027058302,
            "wrist_2_joint": 0.12958655903071145,
            "wrist_3_joint": 3.0906928834467795
        }
    },
    "waypoints": [
        {
            "positions": [
                0.12281154466712228,
                -1.13948474672311,
                1.97154746011099,
                -0.7804688027058302,
                0.12958655903071145,
                3.0906928834467795
            ]
        },
        {
            "positions": [
                0.05739232051878829,
                -1.1730757461171542,
                2.035833137759534,
                -0.815365997703891,
                0.28863740437582436,
                3.1039835163772826
            ]
        },
        {
            "positions": [
                -0.008026903629545709,
                -1.2066667455111981,
                2.1001188154080777,
                -0.8502631927019517,
                0.44768824972093724,
                3.117274149307786
            ]
        },
        {
            "positions": [
                -0.07344612777787972,
                -1.2402577449052423,
                2.1644044930566215,
                -0.8851603877000125,
                0.6067390950660502,
                3.130564782238289
            ]
        },
        {
            "positions": [
                -0.1388653519262137,
                -1.2738487442992865,
                2.2286901707051654,
                -0.9200575826980733,
                0.7657899404111631,
                3.143855415168792
            ]
        },
        {
            "positions": [
                -0.2042845760745477,
                -1.3074397436933307,
                2.2929758483537093,
                -0.954954777696134,
                0.924840785756276,
                3.157146048099295
            ]
        },
        {
            "positions": [
                -0.2697038002228817,
                -1.3410307430873747,
                2.357261526002253,
                -0.9898519726941948,
                1.0838916311013889,
                3.1704366810297984
            ]
        },
        {
            "positions": [
                -0.3351230243712157,
                -1.3746217424814189,
                2.421547203650797,
                -1.0247491676922555,
                1.2429424764465018,
                3.1837273139603015
            ]
        }
    ]
}{
    "goal": {
        "global_pose": {
            "orientation": {
                "w": 0.5084816217422485,
                "x": -0.49083608388900757,
                "y": 0.5182115435600281,
                "z": -0.4816462993621826
            },
            "position": {
                "x": 0.5540239810943604,
                "y": 0.030875300988554955,
                "z": 0.16403168439865112
            }
        },
        "name": "move_to_storage_A"
    },
    "id": "PRM_move_to_storage_A_122",
    "joint_names": [
        "shoulder_pan_joint",
        "shoulder_lift_joint",
        "elbow_joint",
        "wrist_1_joint",
        "wrist_2_joint",
        "wrist_3_joint"
    ],
    "metrics": {
        "cart_traj_len": 0.353291186759327,
        "distance_elbow_joint": 0.4522471430804136,
        "distance_shoulder_lift_joint": 0.23502173425869133,
        "distance_shoulder_pan_joint": 0.46180480686574765,
        "distance_wrist_1_joint": 0.24994788022572267,
        "distance_wrist_2_joint": 1.1006632159965337,
        "distance_wrist_3_joint": 0.08923682037625369,
        "smoothness": 0.0,
        "time": 0.034881112,
        "traj_len": 1.6090126167321879,
        "weighted_distance": 2.029287150153503
    },
    "planner": "PRM",
    "start": {
        "state": {
            "elbow_joint": 1.9715472970024885,
            "shoulder_lift_joint": -1.1394870060712896,
            "shoulder_pan_joint": 0.12281152778156021,
            "wrist_1_joint": -0.780463741449964,
            "wrist_2_joint": 0.12958659822042276,
            "wrist_3_joint": 3.090690232415272
        }
    },
    "waypoints": [
        {
            "positions": [
                0.12281152778156021,
                -1.1394870060712896,
                1.9715472970024885,
                -0.780463741449964,
                0.12958659822042276,
                3.090690232415272
            ]
        },
        {
            "positions": [
                0.056839412515024834,
                -1.173061539536817,
                2.036154031728262,
                -0.8161705814822101,
                0.28682420050564184,
                3.1034383496118796
            ]
        },
        {
            "positions": [
                -0.00913270275151054,
                -1.2066360730023442,
                2.100760766454035,
                -0.8518774215144562,
                0.44406180279086094,
                3.1161864668084873
            ]
        },
        {
            "positions": [
                -0.07510481801804592,
                -1.2402106064678715,
                2.1653675011798086,
                -0.8875842615467022,
                0.60129940507608,
                3.128934584005095
            ]
        },
        {
            "positions": [
                -0.1410769332845813,
                -1.2737851399333988,
                2.229974235905582,
                -0.9232911015789483,
                0.7585370073612991,
                3.1416827012017023
            ]
        },
        {
            "positions": [
                -0.2070490485511167,
                -1.3073596733989263,
                2.2945809706313556,
                -0.9589979416111944,
                0.9157746096465182,
                3.15443081839831
            ]
        },
        {
            "positions": [
                -0.27302116381765207,
                -1.3409342068644536,
                2.3591877053571286,
                -0.9947047816434406,
                1.0730122119317373,
                3.167178935594918
            ]
        },
        {
            "positions": [
                -0.3389932790841874,
                -1.374508740329981,
                2.423794440082902,
                -1.0304116216756867,
                1.2302498142169564,
                3.1799270527915255
            ]
        }
    ]
}