{
    "goal": {
        "global_pose": {
            "orientation": {
                "w": 0.005598929693374612,
                "x": 0.007748599140229565,
                "y": 0.7110244013736278,
                "z": -0.7031023480610252
            },
            "position": {
                "x": -0.8858502320852131,
                "y": -0.7141253447532654,
                "z": 0.3711530566215515
            }
        },
        "name": "move_to_auspresseinheit_C"
    },
    "id": "PRM_move_to_auspresseinheit_C_80",
    "joint_names": [
        "shoulder_pan_joint",
        "shoulder_lift_joint",
        "elbow_joint",
        "wrist_1_joint",
        "wrist_2_joint",
        "wrist_3_joint"
    ],
    "metrics": {
        "cart_traj_len": 0.4930941309396596,
        "distance_elbow_joint": 0.9922903010994942,
        "distance_shoulder_lift_joint": 0.32193221741891476,
        "distance_shoulder_pan_joint": 0.2565527412838722,
        "distance_wrist_1_joint": 0.6541550149530191,
        "distance_wrist_2_joint": 1.3132602995437932,
        "distance_wrist_3_joint": 0.04954081539581123,
        "smoothness": 3.2297397080004555e-16,
        "time": 0.022510198,
        "traj_len": 1.894130774179783,
        "weighted_distance": 2.377862135403005
    },
    "planner": "PRM",
    "start": {
        "state": {
            "elbow_joint": 1.7527959577737207,
            "shoulder_lift_joint": -0.9740617694225068,
            "shoulder_pan_joint": -2.967991417825858,
            "wrist_1_joint": -0.759517768980727,
            "wrist_2_joint": 1.7443932448377408,
            "wrist_3_joint": -3.0840537646736568
        }
    },
    "waypoints": [
        {
            "positions": [
                -2.967991417825858,
                -0.9740617694225068,
                1.7527959577737207,
                -0.759517768980727,
                1.7443932448377408,
                -3.0840537646736568
            ]
        },
        {
            "positions": [
                -2.942336143697471,
                -0.9418685476806153,
                1.6535669276637712,
                -0.694102267485425,
                1.6130672148833616,
                -3.0890078462132378
            ]
        },
        {
            "positions": [
                -2.9166808695690833,
                -0.9096753259387238,
                1.5543378975538218,
                -0.6286867659901232,
                1.481741184928982,
                -3.093961927752819
            ]
        },
        {
            "positions": [
                -2.8910255954406963,
                -0.8774821041968324,
                1.4551088674438724,
                -0.5632712644948212,
                1.3504151549746028,
                -3.0989160092924
            ]
        },
        {
            "positions": [
                -2.865370321312309,
                -0.8452888824549408,
                1.355879837333923,
                -0.49785576299951934,
                1.2190891250202234,
                -3.103870090831981
            ]
        },
        {
            "positions": [
                -2.8397150471839216,
                -0.8130956607130494,
                1.2566508072239735,
                -0.43244026150421744,
                1.0877630950658443,
                -3.1088241723715626
            ]
        },
        {
            "positions": [
                -2.8140597730555346,
                -0.780902438971158,
                1.157421777114024,
                -0.36702476000891554,
                0.956437065111465,
                -3.1137782539111436
            ]
        },
        {
            "positions": [
                -2.7884044989271475,
                -0.7487092172292664,
                1.0581927470040746,
                -0.30160925851361364,
                0.8251110351570856,
                -3.1187323354507246
            ]
        },
        {
            "positions": [
                -2.7627492247987604,
                -0.716515995487375,
                0.9589637168941252,
                -0.2361937570183117,
                0.6937850052027061,
                -3.1236864169903056
            ]
        },
        {
            "positions": [
                -2.737093950670373,
                -0.6843227737454836,
                0.8597346867841759,
                -0.17077825552300974,
                0.5624589752483269,
                -3.128640498529887
            ]
        },
        {
            "positions": [
                -2.711438676541986,
                -0.652129552003592,
                0.7605056566742264,
                -0.10536275402770788,
                0.43113294529394763,
                -3.133594580069468
            ]
        }
    ]
}