{
    "goal": {
        "global_pose": {
            "orientation": {
                "w": -0.00223480608172531,
                "x": 0.0024358444001904467,
                "y": 0.7094548369677653,
                "z": -0.704743149386269
            },
            "position": {
                "x": 0.6205249238014221,
                "y": -0.6371506643295288,
                "z": 0.19426114857196808
            }
        },
        "name": "move_to_magneteinheit_B"
    },
    "id": "PRM_move_to_magneteinheit_B_47",
    "joint_names": [
        "shoulder_pan_joint",
        "shoulder_lift_joint",
        "elbow_joint",
        "wrist_1_joint",
        "wrist_2_joint",
        "wrist_3_joint"
    ],
    "metrics": {
        "cart_traj_len": 3.139045926870734,
        "distance_elbow_joint": 4.670490105224905,
        "distance_shoulder_lift_joint": 1.2966383679153117,
        "distance_shoulder_pan_joint": 2.0945246579187065,
        "distance_wrist_1_joint": 1.064175559755529,
        "distance_wrist_2_joint": 1.998363164148664,
        "distance_wrist_3_joint": 0.21760641081900894,
        "smoothness": 0.9346982345032367,
        "time": 1.766474895,
        "traj_len": 3.3677586412601075,
        "weighted_distance": 3.852213624829799
    },
    "planner": "PRM",
    "start": {
        "state": {
            "elbow_joint": 2.6216224122426386,
            "shoulder_lift_joint": -1.4174107377796124,
            "shoulder_pan_joint": 0.7066234856936794,
            "wrist_1_joint": 1.9546482284002225,
            "wrist_2_joint": -0.7096286983471962,
            "wrist_3_joint": 0.005740856962016249
        }
    },
    "waypoints": [
        {
            "positions": [
                0.7066234856936794,
                -1.4174107377796124,
                2.6216224122426386,
                1.9546482284002225,
                -0.7096286983471962,
                0.005740856962016249
            ]
        },
        {
            "positions": [
                0.6922226598264533,
                -1.298253805650914,
                2.625873114896625,
                1.858047397754046,
                -0.8056403581203896,
                0.003375393354652964
            ]
        },
        {
            "positions": [
                0.7529140478874836,
                -1.4111241388523708,
                2.6658797813129036,
                1.8200630982609687,
                -0.8834986099458711,
                0.028906564636928162
            ]
        },
        {
            "positions": [
                0.8136054359485139,
                -1.5239944720538277,
                2.7058864477291817,
                1.7820787987678917,
                -0.9613568617713526,
                0.05443773591920336
            ]
        },
        {
            "positions": [
                0.8742968240095442,
                -1.6368648052552843,
                2.74589311414546,
                1.7440944992748144,
                -1.0392151135968342,
                0.07996890720147856
            ]
        },
        {
            "positions": [
                0.9349882120705746,
                -1.749735138456741,
                2.7858997805617385,
                1.7061101997817372,
                -1.1170733654223157,
                0.10550007848375376
            ]
        },
        {
            "positions": [
                1.0124314191080235,
                -1.762960788441341,
                2.5910330258678607,
                1.6724812445732422,
                -1.052069652206259,
                0.10118696428303374
            ]
        },
        {
            "positions": [
                1.0898746261454721,
                -1.776186438425941,
                2.396166271173983,
                1.638852289364747,
                -0.9870659389902023,
                0.09687385008231372
            ]
        },
        {
            "positions": [
                1.167317833182921,
                -1.7894120884105407,
                2.2012995164801055,
                1.605223334156252,
                -0.9220622257741456,
                0.0925607358815937
            ]
        },
        {
            "positions": [
                1.24476104022037,
                -1.8026377383951406,
                2.006432761786227,
                1.5715943789477569,
                -0.857058512558089,
                0.08824762168087369
            ]
        },
        {
            "positions": [
                1.3222042472578188,
                -1.8158633883797406,
                1.8115660070923498,
                1.537965423739262,
                -0.7920547993420322,
                0.08393450748015367
            ]
        },
        {
            "positions": [
                1.3996474542952675,
                -1.8290890383643406,
                1.616699252398472,
                1.504336468530767,
                -0.7270510861259756,
                0.07962139327943366
            ]
        },
        {
            "positions": [
                1.4770906613327164,
                -1.8423146883489405,
                1.421832497704594,
                1.4707075133222718,
                -0.6620473729099188,
                0.07530827907871364
            ]
        },
        {
            "positions": [
                1.5545338683701653,
                -1.8555403383335403,
                1.2269657430107164,
                1.4370785581137768,
                -0.5970436596938621,
                0.07099516487799362
            ]
        },
        {
            "positions": [
                1.631977075407614,
                -1.8687659883181402,
                1.0320989883168386,
                1.4034496029052819,
                -0.5320399464778054,
                0.0666820506772736
            ]
        },
        {
            "positions": [
                1.7094202824450628,
                -1.8819916383027402,
                0.837232233622961,
                1.3698206476967867,
                -0.4670362332617487,
                0.06236893647655359
            ]
        },
        {
            "positions": [
                1.7868634894825117,
                -1.8952172882873402,
                0.6423654789290829,
                1.3361916924882917,
                -0.4020325200456919,
                0.05805582227583357
            ]
        },
        {
            "positions": [
                1.8643066965199604,
                -1.90844293827194,
                0.44749872423520554,
                1.3025627372797968,
                -0.3370288068296353,
                0.053742708075113554
            ]
        },
        {
            "positions": [
                1.9417499035574093,
                -1.9216685882565399,
                0.2526319695413277,
                1.2689337820713016,
                -0.27202509361357863,
                0.049429593874393545
            ]
        },
        {
            "positions": [
                2.019193110594858,
                -1.9348942382411398,
                0.05776521484744945,
                1.2353048268628066,
                -0.20702138039752183,
                0.045116479673673514
            ]
        },
        {
            "positions": [
                2.0966363176323073,
                -1.9481198882257398,
                -0.13710153984642792,
                1.2016758716543117,
                -0.14201766718146513,
                0.040803365472953504
            ]
        },
        {
            "positions": [
                2.1740795246697555,
                -1.9613455382103395,
                -0.33196829454030574,
                1.1680469164458165,
                -0.07701395396540844,
                0.03649025127223349
            ]
        },
        {
            "positions": [
                2.2515227317072046,
                -1.9745711881949395,
                -0.5268350492341831,
                1.1344179612373215,
                -0.012010240749351864,
                0.03217713707151347
            ]
        },
        {
            "positions": [
                2.3289659387446537,
                -1.9877968381795394,
                -0.7217018039280614,
                1.1007890060288263,
                0.05299347246670494,
                0.027864022870793453
            ]
        },
        {
            "positions": [
                2.406409145782102,
                -2.001022488164139,
                -0.9165685586219392,
                1.0671600508203314,
                0.11799718568276174,
                0.023550908670073437
            ]
        },
        {
            "positions": [
                2.483852352819551,
                -2.0142481381487394,
                -1.1114353133158166,
                1.0335310956118362,
                0.18300089889881832,
                0.01923779446935342
            ]
        },
        {
            "positions": [
                2.5612955598569997,
                -2.027473788133339,
                -1.3063020680096944,
                0.9999021404033414,
                0.24800461211487512,
                0.014924680268633403
            ]
        },
        {
            "positions": [
                2.638738766894449,
                -2.0406994381179393,
                -1.5011688227035727,
                0.9662731851948463,
                0.3130083253309319,
                0.010611566067913386
            ]
        },
        {
            "positions": [
                2.7161819739318975,
                -2.053925088102539,
                -1.6960355773974503,
                0.9326442299863512,
                0.37801203854698845,
                0.0062984518671933675
            ]
        },
        {
            "positions": [
                2.68809971495888,
                -2.264830164770033,
                -1.6838968879241418,
                0.95373001065718,
                0.4259285850991086,
                0.01325576960018568
            ]
        },
        {
            "positions": [
                2.660017455985862,
                -2.4757352414375275,
                -1.6717581984508334,
                0.9748157913280089,
                0.47384513165122866,
                0.02021308733317799
            ]
        }
    ]
}