{
    "goal": {
        "global_pose": {
            "orientation": {
                "w": -0.4816463035849501,
                "x": 0.5182115481033762,
                "y": 0.4908360881923453,
                "z": -0.5084816262002911
            },
            "position": {
                "x": -0.8240239810943604,
                "y": -0.300875300988555,
                "z": 0.16403168439865112
            }
        },
        "name": "move_to_storage_C"
    },
    "id": "PRM_move_to_storage_C_16",
    "joint_names": [
        "shoulder_pan_joint",
        "shoulder_lift_joint",
        "elbow_joint",
        "wrist_1_joint",
        "wrist_2_joint",
        "wrist_3_joint"
    ],
    "metrics": {
        "cart_traj_len": 0.5759292586003601,
        "distance_elbow_joint": 0.2570027548256242,
        "distance_shoulder_lift_joint": 0.1890944111793429,
        "distance_shoulder_pan_joint": 0.4937643152112581,
        "distance_wrist_1_joint": 0.07604475168700986,
        "distance_wrist_2_joint": 1.0701488033497997,
        "distance_wrist_3_joint": 0.0741745387445123,
        "smoothness": 0.0,
        "time": 0.013616415,
        "traj_len": 1.469771946594963,
        "weighted_distance": 1.8587017532469756
    },
    "planner": "PRM",
    "start": {
        "state": {
            "elbow_joint": 2.010868314990456,
            "shoulder_lift_joint": -1.1634956873337592,
            "shoulder_pan_joint": -2.4736205022346125,
            "wrist_1_joint": -0.8367026794202681,
            "wrist_2_joint": 0.6746043897044499,
            "wrist_3_joint": -3.1496632123970403
        }
    },
    "waypoints": [
        {
            "positions": [
                -2.4736205022346125,
                -1.1634956873337592,
                2.010868314990456,
                -0.8367026794202681,
                0.6746043897044499,
                -3.1496632123970403
            ]
        },
        {
            "positions": [
                -2.555914554769822,
                -1.131979952137202,
                1.9680345225195184,
                -0.8240285541390998,
                0.8529625235960832,
                -3.1373007892729547
            ]
        },
        {
            "positions": [
                -2.6382086073050317,
                -1.100464216940645,
                1.9252007300485812,
                -0.8113544288579315,
                1.0313206574877165,
                -3.1249383661488697
            ]
        },
        {
            "positions": [
                -2.7205026598402418,
                -1.0689484817440877,
                1.8823669375776437,
                -0.7986803035767631,
                1.2096787913793499,
                -3.112575943024784
            ]
        },
        {
            "positions": [
                -2.8027967123754514,
                -1.0374327465475306,
                1.8395331451067063,
                -0.7860061782955948,
                1.388036925270983,
                -3.1002135199006986
            ]
        },
        {
            "positions": [
                -2.885090764910661,
                -1.0059170113509734,
                1.796699352635769,
                -0.7733320530144265,
                1.5663950591626163,
                -3.0878510967766135
            ]
        },
        {
            "positions": [
                -2.9673848174458706,
                -0.9744012761544163,
                1.7538655601648316,
                -0.7606579277332582,
                1.7447531930542495,
                -3.075488673652528
            ]
        }
    ]
}