{
    "goal": {
        "global_pose": {
            "orientation": {
                "w": -0.00223480608172531,
                "x": 0.0024358444001904467,
                "y": 0.7094548369677653,
                "z": -0.704743149386269
            },
            "position": {
                "x": -0.37947507619857795,
                "y": -0.6371506643295288,
                "z": 0.19426114857196808
            }
        },
        "name": "move_to_magneteinheit_C"
    },
    "id": "PRM_move_to_magneteinheit_C_74",
    "joint_names": [
        "shoulder_pan_joint",
        "shoulder_lift_joint",
        "elbow_joint",
        "wrist_1_joint",
        "wrist_2_joint",
        "wrist_3_joint"
    ],
    "metrics": {
        "cart_traj_len": 2.419241763033867,
        "distance_elbow_joint": 0.4660402708287581,
        "distance_shoulder_lift_joint": 0.5451331115067015,
        "distance_shoulder_pan_joint": 3.071435100347415,
        "distance_wrist_1_joint": 4.306357229207035,
        "distance_wrist_2_joint": 1.4778438416635584,
        "distance_wrist_3_joint": 1.743127517238078,
        "smoothness": 0.7829010395271379,
        "time": 0.295744832,
        "traj_len": 3.4073357731212144,
        "weighted_distance": 4.569506885445988
    },
    "planner": "PRM",
    "start": {
        "state": {
            "elbow_joint": 1.9565354010623817,
            "shoulder_lift_joint": -1.4165861575791021,
            "shoulder_pan_joint": -1.6717766225146293,
            "wrist_1_joint": -0.5286633292919765,
            "wrist_2_joint": 1.472756589071564,
            "wrist_3_joint": -3.1238370188695823
        }
    },
    "waypoints": [
        {
            "positions": [
                -1.6717766225146293,
                -1.4165861575791021,
                1.9565354010623817,
                -0.5286633292919765,
                1.472756589071564,
                -3.1238370188695823
            ]
        },
        {
            "positions": [
                -1.5554068310737248,
                -1.4381245894912278,
                1.9643164952208179,
                -0.4283519244416564,
                1.452547558144916,
                -3.0799682319671255
            ]
        },
        {
            "positions": [
                -1.4390370396328203,
                -1.4596630214033535,
                1.972097589379254,
                -0.32804051959133623,
                1.4323385272182685,
                -3.0360994450646688
            ]
        },
        {
            "positions": [
                -1.3226672481919157,
                -1.4812014533154791,
                1.9798786835376903,
                -0.22772911474101612,
                1.4121294962916207,
                -2.992230658162212
            ]
        },
        {
            "positions": [
                -1.299344262239659,
                -1.488647361421919,
                1.9684300793112273,
                -0.07384683201587261,
                1.3139090627088836,
                -2.9255192820089797
            ]
        },
        {
            "positions": [
                -1.2760212762874024,
                -1.4960932695283584,
                1.9569814750847643,
                0.0800354507092709,
                1.2156886291261464,
                -2.858807905855748
            ]
        },
        {
            "positions": [
                -1.2526982903351456,
                -1.5035391776347982,
                1.9455328708583013,
                0.23391773343441433,
                1.1174681955434094,
                -2.7920965297025155
            ]
        },
        {
            "positions": [
                -1.229375304382889,
                -1.510985085741238,
                1.9340842666318383,
                0.38780001615955795,
                1.0192477619606721,
                -2.7253851535492837
            ]
        },
        {
            "positions": [
                -1.2060523184306322,
                -1.5184309938476774,
                1.9226356624053753,
                0.5416822988847013,
                0.9210273283779351,
                -2.6586737773960514
            ]
        },
        {
            "positions": [
                -1.1827293324783756,
                -1.5258769019541172,
                1.9111870581789123,
                0.6955645816098448,
                0.822806894795198,
                -2.591962401242819
            ]
        },
        {
            "positions": [
                -1.1594063465261188,
                -1.5333228100605567,
                1.8997384539524491,
                0.8494468643349884,
                0.7245864612124608,
                -2.525251025089587
            ]
        },
        {
            "positions": [
                -1.1360833605738623,
                -1.5407687181669965,
                1.8882898497259861,
                1.003329147060132,
                0.6263660276297237,
                -2.458539648936355
            ]
        },
        {
            "positions": [
                -1.1127603746216055,
                -1.5482146262734362,
                1.8768412454995231,
                1.1572114297852754,
                0.5281455940469865,
                -2.3918282727831226
            ]
        },
        {
            "positions": [
                -1.089437388669349,
                -1.5556605343798757,
                1.8653926412730601,
                1.3110937125104187,
                0.42992516046424945,
                -2.3251168966298907
            ]
        },
        {
            "positions": [
                -1.0661144027170921,
                -1.5631064424863155,
                1.8539440370465972,
                1.4649759952355623,
                0.3317047268815122,
                -2.2584055204766584
            ]
        },
        {
            "positions": [
                -1.2598103624665529,
                -1.5504332318868381,
                1.8461251664536855,
                1.3272938364997044,
                0.34852930957477446,
                -2.260633142503095
            ]
        },
        {
            "positions": [
                -1.4535063222160138,
                -1.5377600212873608,
                1.8383062958607737,
                1.1896116777638466,
                0.3653538922680367,
                -2.262860764529532
            ]
        },
        {
            "positions": [
                -1.6472022819654746,
                -1.5250868106878832,
                1.830487425267862,
                1.051929519027989,
                0.382178474961299,
                -2.265088386555969
            ]
        },
        {
            "positions": [
                -1.8408982417149353,
                -1.5124136000884059,
                1.8226685546749501,
                0.914247360292131,
                0.39900305765456123,
                -2.2673160085824056
            ]
        },
        {
            "positions": [
                -2.034594201464396,
                -1.4997403894889285,
                1.8148496840820385,
                0.7765652015562733,
                0.4158276403478235,
                -2.269543630608842
            ]
        },
        {
            "positions": [
                -2.228290161213857,
                -1.4870671788894512,
                1.8070308134891269,
                0.6388830428204155,
                0.43265222304108575,
                -2.271771252635279
            ]
        },
        {
            "positions": [
                -2.421986120963318,
                -1.4743939682899738,
                1.799211942896215,
                0.5012008840845578,
                0.449476805734348,
                -2.2739988746617157
            ]
        },
        {
            "positions": [
                -2.6156820807127787,
                -1.4617207576904963,
                1.7913930723033034,
                0.3635187253486998,
                0.46630138842761026,
                -2.2762264966881527
            ]
        },
        {
            "positions": [
                -2.8093780404622395,
                -1.449047547091019,
                1.7835742017103915,
                0.22583656661284213,
                0.4831259711208725,
                -2.2784541187145892
            ]
        },
        {
            "positions": [
                -3.0030740002117002,
                -1.4363743364915416,
                1.7757553311174799,
                0.0881544078769842,
                0.4999505538141348,
                -2.2806817407410263
            ]
        },
        {
            "positions": [
                -2.9304008403099475,
                -1.3986859956293494,
                1.8058238585512305,
                -0.026078439486446947,
                0.5168280944086968,
                -2.3960945881961915
            ]
        },
        {
            "positions": [
                -2.8577276804081944,
                -1.360997654767157,
                1.8358923859849814,
                -0.1403112868498781,
                0.533705635003259,
                -2.5115074356513567
            ]
        },
        {
            "positions": [
                -2.7850545205064416,
                -1.3233093139049648,
                1.865960913418732,
                -0.25454413421330924,
                0.550583175597821,
                -2.626920283106522
            ]
        },
        {
            "positions": [
                -2.712381360604689,
                -1.2856209730427723,
                1.8960294408524827,
                -0.3687769815767404,
                0.567460716192383,
                -2.742333130561687
            ]
        },
        {
            "positions": [
                -2.6397082007029358,
                -1.2479326321805801,
                1.9260979682862334,
                -0.4830098289401716,
                0.5843382567869451,
                -2.857745978016853
            ]
        },
        {
            "positions": [
                -2.567035040801183,
                -1.210244291318388,
                1.9561664957199842,
                -0.5972426763036027,
                0.6012157973815072,
                -2.973158825472018
            ]
        },
        {
            "positions": [
                -2.4943618808994303,
                -1.1725559504561955,
                1.986235023153735,
                -0.7114755236670338,
                0.6180933379760692,
                -3.0885716729271833
            ]
        },
        {
            "positions": [
                -2.474260717156431,
                -1.1644936158868273,
                2.014328967050719,
                -0.8477419094439335,
                0.6684967063550189,
                -3.1361015393218126
            ]
        }
    ]
}