{
    "goal": {
        "global_pose": {
            "orientation": {
                "w": -0.4816463035849501,
                "x": 0.5182115481033762,
                "y": 0.4908360881923453,
                "z": -0.5084816262002911
            },
            "position": {
                "x": -0.8240239810943604,
                "y": 0.19912469901144506,
                "z": 0.16403168439865112
            }
        },
        "name": "move_to_storage_D"
    },
    "id": "PRM_move_to_storage_D_36",
    "joint_names": [
        "shoulder_pan_joint",
        "shoulder_lift_joint",
        "elbow_joint",
        "wrist_1_joint",
        "wrist_2_joint",
        "wrist_3_joint"
    ],
    "metrics": {
        "cart_traj_len": 0.6700720158978398,
        "distance_elbow_joint": 0.7134873648532354,
        "distance_shoulder_lift_joint": 0.33443908476178263,
        "distance_shoulder_pan_joint": 0.4042906075341039,
        "distance_wrist_1_joint": 4.2441195579988635,
        "distance_wrist_2_joint": 2.1196573912985066,
        "distance_wrist_3_joint": 3.125185253276834,
        "smoothness": 0.5777934923746617,
        "time": 0.298419685,
        "traj_len": 3.3077453438442515,
        "weighted_distance": 4.853383017604768
    },
    "planner": "PRM",
    "start": {
        "state": {
            "elbow_joint": -2.384821988534728,
            "shoulder_lift_joint": -2.2788054721415256,
            "shoulder_pan_joint": -0.1854694642142757,
            "wrist_1_joint": 1.4845938289331202,
            "wrist_2_joint": 0.17898776772866878,
            "wrist_3_joint": 0.037105688729662994
        }
    },
    "waypoints": [
        {
            "positions": [
                -0.1854694642142757,
                -2.2788054721415256,
                -2.384821988534728,
                1.4845938289331202,
                0.17898776772866878,
                0.037105688729662994
            ]
        },
        {
            "positions": [
                -0.18672309257606234,
                -2.1955537819513715,
                -2.424566334446248,
                1.5902272209466628,
                0.2656261458634506,
                -0.0066401935236187065
            ]
        },
        {
            "positions": [
                -0.18797672093784895,
                -2.112302091761217,
                -2.4643106803577677,
                1.6958606129602056,
                0.3522645239982325,
                -0.05038607577690041
            ]
        },
        {
            "positions": [
                -0.09527402271210748,
                -2.1426013663514216,
                -2.446142589033794,
                1.6015655349666926,
                0.3381723850527334,
                -0.1124260356330914
            ]
        },
        {
            "positions": [
                -0.0025713244863660167,
                -2.1729006409416267,
                -2.4279744977098194,
                1.5072704569731796,
                0.3240802461072343,
                -0.1744659954892824
            ]
        },
        {
            "positions": [
                0.09013137373937546,
                -2.2031999155318314,
                -2.4098064063858455,
                1.4129753789796666,
                0.3099881071617352,
                -0.23650595534547342
            ]
        },
        {
            "positions": [
                0.08497823806715435,
                -2.199990003839712,
                -2.385660806425084,
                1.2567267314800317,
                0.23065043140371666,
                -0.35532152239554415
            ]
        },
        {
            "positions": [
                0.07982510239493323,
                -2.196780092147593,
                -2.361515206464323,
                1.1004780839803967,
                0.15131275564569813,
                -0.47413708944561483
            ]
        },
        {
            "positions": [
                0.07467196672271213,
                -2.193570180455474,
                -2.3373696065035614,
                0.9442294364807617,
                0.07197507988767957,
                -0.5929526564956855
            ]
        },
        {
            "positions": [
                0.06951883105049102,
                -2.1903602687633548,
                -2.3132240065428,
                0.7879807889811268,
                -0.007362595870338939,
                -0.7117682235457563
            ]
        },
        {
            "positions": [
                0.0643656953782699,
                -2.1871503570712356,
                -2.2890784065820386,
                0.6317321414814917,
                -0.08670027162835753,
                -0.8305837905958271
            ]
        },
        {
            "positions": [
                0.05921255970604879,
                -2.1839404453791165,
                -2.2649328066212773,
                0.47548349398185674,
                -0.16603794738637606,
                -0.9493993576458977
            ]
        },
        {
            "positions": [
                0.05405942403382768,
                -2.1807305336869973,
                -2.240787206660516,
                0.31923484648222167,
                -0.24537562314439465,
                -1.0682149246959685
            ]
        },
        {
            "positions": [
                0.04890628836160657,
                -2.177520621994878,
                -2.2166416066997545,
                0.16298619898258693,
                -0.32471329890241307,
                -1.187030491746039
            ]
        },
        {
            "positions": [
                0.043753152689385455,
                -2.174310710302759,
                -2.192496006738993,
                0.0067375514829517424,
                -0.4040509746604317,
                -1.3058460587961098
            ]
        },
        {
            "positions": [
                0.03860001701716434,
                -2.17110079861064,
                -2.1683504067782318,
                -0.14951109601668322,
                -0.48338865041845025,
                -1.4246616258461806
            ]
        },
        {
            "positions": [
                0.03344688134494323,
                -2.1678908869185207,
                -2.1442048068174704,
                -0.3057597435163182,
                -0.5627263261764688,
                -1.5434771928962512
            ]
        },
        {
            "positions": [
                0.028293745672722116,
                -2.1646809752264016,
                -2.120059206856709,
                -0.46200839101595315,
                -0.6420640019344873,
                -1.662292759946322
            ]
        },
        {
            "positions": [
                0.023140610000501008,
                -2.1614710635342824,
                -2.095913606895947,
                -0.6182570385155879,
                -0.7214016776925058,
                -1.7811083269963925
            ]
        },
        {
            "positions": [
                0.017987474328279893,
                -2.1582611518421633,
                -2.071768006935186,
                -0.7745056860152233,
                -0.8007393534505245,
                -1.8999238940464636
            ]
        },
        {
            "positions": [
                0.012834338656058777,
                -2.155051240150044,
                -2.0476224069744244,
                -0.9307543335148583,
                -0.8800770292085429,
                -2.0187394610965343
            ]
        },
        {
            "positions": [
                0.007681202983837676,
                -2.151841328457925,
                -2.023476807013663,
                -1.0870029810144928,
                -0.9594147049665613,
                -2.137555028146605
            ]
        },
        {
            "positions": [
                0.002528067311616547,
                -2.148631416765806,
                -1.9993312070529017,
                -1.2432516285141282,
                -1.0387523807245802,
                -2.256370595196676
            ]
        },
        {
            "positions": [
                -0.0026250683606045544,
                -2.1454215050736867,
                -1.9751856070921403,
                -1.3995002760137631,
                -1.1180900564825986,
                -2.3751861622467465
            ]
        },
        {
            "positions": [
                -0.00777820403282567,
                -2.1422115933815675,
                -1.951040007131379,
                -1.5557489235133977,
                -1.197427732240617,
                -2.494001729296817
            ]
        },
        {
            "positions": [
                -0.012931339705046785,
                -2.1390016816894484,
                -1.9268944071706176,
                -1.711997571013033,
                -1.2767654079986357,
                -2.612817296346888
            ]
        },
        {
            "positions": [
                -0.0180844753772679,
                -2.1357917699973292,
                -1.9027488072098562,
                -1.868246218512668,
                -1.3561030837566541,
                -2.7316328633969587
            ]
        },
        {
            "positions": [
                -0.023237611049489,
                -2.13258185830521,
                -1.8786032072490948,
                -2.024494866012303,
                -1.4354407595146728,
                -2.8504484304470292
            ]
        },
        {
            "positions": [
                -0.02839074672171013,
                -2.129371946613091,
                -1.8544576072883334,
                -2.180743513511938,
                -1.5147784352726914,
                -2.9692639974971002
            ]
        },
        {
            "positions": [
                -0.03354388239393123,
                -2.1261620349209718,
                -1.830312007327572,
                -2.336992161011573,
                -1.5941161110307098,
                -3.088079564547171
            ]
        }
    ]
}