{
    "goal": {
        "global_pose": {
            "orientation": {
                "w": 0.7047431468963623,
                "x": -0.7094548344612122,
                "y": 0.0024358443915843964,
                "z": -0.0022348060738295317
            },
            "position": {
                "x": 0.6094750761985779,
                "y": 0.3671506643295288,
                "z": 0.19426114857196808
            }
        },
        "name": "move_to_magneteinheit_A"
    },
    "id": "PRM_move_to_magneteinheit_A_90",
    "joint_names": [
        "shoulder_pan_joint",
        "shoulder_lift_joint",
        "elbow_joint",
        "wrist_1_joint",
        "wrist_2_joint",
        "wrist_3_joint"
    ],
    "metrics": {
        "cart_traj_len": 3.243399306950449,
        "distance_elbow_joint": 4.063017971674691,
        "distance_shoulder_lift_joint": 1.8452059821939986,
        "distance_shoulder_pan_joint": 3.2131203023011907,
        "distance_wrist_1_joint": 1.3505019480468954,
        "distance_wrist_2_joint": 4.353469828170088,
        "distance_wrist_3_joint": 3.592559974330446,
        "smoothness": 0.2856260421962481,
        "time": 0.07674863,
        "traj_len": 4.2916052948421655,
        "weighted_distance": 5.595262972514802
    },
    "planner": "PRM",
    "start": {
        "state": {
            "elbow_joint": -1.9196185241190666,
            "shoulder_lift_joint": -1.2443396400964142,
            "shoulder_pan_joint": 2.6996025414629847,
            "wrist_1_joint": -1.5485510000780065,
            "wrist_2_joint": -1.5709468930060704,
            "wrist_3_joint": 0.4420197071253992
        }
    },
    "waypoints": [
        {
            "positions": [
                2.6996025414629847,
                -1.2443396400964142,
                -1.9196185241190666,
                -1.5485510000780065,
                -1.5709468930060704,
                0.4420197071253992
            ]
        },
        {
            "positions": [
                2.611877064935968,
                -1.2707408679220644,
                -1.8012723363180696,
                -1.517050760021778,
                -1.4793528240567448,
                0.4130968549434277
            ]
        },
        {
            "positions": [
                2.5241515884089507,
                -1.2971420957477144,
                -1.6829261485170726,
                -1.4855505199655492,
                -1.3877587551074195,
                0.3841740027614562
            ]
        },
        {
            "positions": [
                2.436426111881934,
                -1.3235433235733647,
                -1.5645799607160753,
                -1.4540502799093207,
                -1.296164686158094,
                0.35525115057948464
            ]
        },
        {
            "positions": [
                2.3487006353549167,
                -1.3499445513990147,
                -1.4462337729150783,
                -1.422550039853092,
                -1.2045706172087685,
                0.32632829839751315
            ]
        },
        {
            "positions": [
                2.2609751588279,
                -1.376345779224665,
                -1.3278875851140812,
                -1.3910497997968634,
                -1.1129765482594431,
                0.29740544621554166
            ]
        },
        {
            "positions": [
                2.1732496823008827,
                -1.4027470070503152,
                -1.2095413973130842,
                -1.3595495597406346,
                -1.0213824793101176,
                0.2684825940335701
            ]
        },
        {
            "positions": [
                2.085524205773866,
                -1.4291482348759652,
                -1.0911952095120871,
                -1.328049319684406,
                -0.9297884103607922,
                0.23955974185159865
            ]
        },
        {
            "positions": [
                1.9977987292468486,
                -1.4555494627016154,
                -0.97284902171109,
                -1.2965490796281776,
                -0.8381943414114668,
                0.21063688966962713
            ]
        },
        {
            "positions": [
                1.9100732527198319,
                -1.4819506905272655,
                -0.8545028339100931,
                -1.2650488395719488,
                -0.7466002724621413,
                0.18171403748765563
            ]
        },
        {
            "positions": [
                1.8223477761928148,
                -1.5083519183529157,
                -0.7361566461090958,
                -1.2335485995157203,
                -0.6550062035128158,
                0.15279118530568414
            ]
        },
        {
            "positions": [
                1.7346222996657978,
                -1.5347531461785657,
                -0.617810458308099,
                -1.2020483594594915,
                -0.5634121345634904,
                0.12386833312371265
            ]
        },
        {
            "positions": [
                1.6468968231387808,
                -1.561154374004216,
                -0.49946427050710174,
                -1.170548119403263,
                -0.47181806561416484,
                0.0949454809417411
            ]
        },
        {
            "positions": [
                1.5591713466117638,
                -1.587555601829866,
                -0.3811180827061047,
                -1.1390478793470344,
                -0.3802239966648395,
                0.06602262875976966
            ]
        },
        {
            "positions": [
                1.4714458700847468,
                -1.6139568296555162,
                -0.26277189490510766,
                -1.1075476392908057,
                -0.288629927715514,
                0.037099776577798116
            ]
        },
        {
            "positions": [
                1.38372039355773,
                -1.6403580574811665,
                -0.14442570710411062,
                -1.0760473992345772,
                -0.19703585876618868,
                0.008176924395826624
            ]
        },
        {
            "positions": [
                1.2959949170307128,
                -1.6667592853068165,
                -0.026079519303113363,
                -1.0445471591783484,
                -0.10544178981686314,
                -0.020745927786144924
            ]
        },
        {
            "positions": [
                1.208269440503696,
                -1.6931605131324667,
                0.09226666849788367,
                -1.0130469191221199,
                -0.013847720867537605,
                -0.04966877996811636
            ]
        },
        {
            "positions": [
                1.120543963976679,
                -1.7195617409581168,
                0.2106128562988805,
                -0.9815466790658912,
                0.07774634808178771,
                -0.07859163215008791
            ]
        },
        {
            "positions": [
                1.0328184874496618,
                -1.745962968783767,
                0.32895904409987775,
                -0.9500464390096625,
                0.16934041703111347,
                -0.10751448433205946
            ]
        },
        {
            "positions": [
                0.945093010922645,
                -1.7723641966094172,
                0.447305231900875,
                -0.9185461989534339,
                0.2609344859804388,
                -0.1364373365140309
            ]
        },
        {
            "positions": [
                0.857367534395628,
                -1.7987654244350673,
                0.5656514197018718,
                -0.8870459588972053,
                0.3525285549297641,
                -0.16536018869600244
            ]
        },
        {
            "positions": [
                0.769642057868611,
                -1.8251666522607173,
                0.6839976075028686,
                -0.8555457188409767,
                0.44412262387908963,
                -0.19428304087797388
            ]
        },
        {
            "positions": [
                0.6819165813415937,
                -1.8515678800863675,
                0.8023437953038663,
                -0.824045478784748,
                0.5357166928284152,
                -0.22320589305994543
            ]
        },
        {
            "positions": [
                0.5941911048145769,
                -1.8779691079120178,
                0.9206899831048632,
                -0.7925452387285193,
                0.6273107617777407,
                -0.252128745241917
            ]
        },
        {
            "positions": [
                0.5064656282875601,
                -1.904370335737668,
                1.03903617090586,
                -0.7610449986722908,
                0.7189048307270658,
                -0.2810515974238884
            ]
        },
        {
            "positions": [
                0.4187401517605429,
                -1.930771563563318,
                1.1573823587068572,
                -0.7295447586160622,
                0.8104988996763913,
                -0.30997444960585985
            ]
        },
        {
            "positions": [
                0.3310146752335257,
                -1.957172791388968,
                1.2757285465078545,
                -0.6980445185598335,
                0.9020929686257169,
                -0.3388973017878315
            ]
        },
        {
            "positions": [
                0.2432891987065089,
                -1.9835740192146183,
                1.3940747343088513,
                -0.6665442785036049,
                0.9936870375750424,
                -0.36782015396980294
            ]
        },
        {
            "positions": [
                0.1555637221794921,
                -2.0099752470402685,
                1.5124209221098486,
                -0.6350440384473762,
                1.085281106524368,
                -0.3967430061517745
            ]
        },
        {
            "positions": [
                0.06783824565247532,
                -2.0363764748659188,
                1.6307671099108454,
                -0.6035437983911477,
                1.176875175473693,
                -0.42566585833374593
            ]
        },
        {
            "positions": [
                -0.019887230874541917,
                -2.0627777026915686,
                1.7491132977118427,
                -0.5720435583349189,
                1.268469244423019,
                -0.4545887105157175
            ]
        },
        {
            "positions": [
                -0.10761270740155915,
                -2.089178930517219,
                1.86745948551284,
                -0.5405433182786903,
                1.360063313372344,
                -0.483511562697689
            ]
        },
        {
            "positions": [
                -0.19533818392857594,
                -2.115580158342869,
                1.9858056733138367,
                -0.5090430782224616,
                1.4516573823216696,
                -0.5124344148796605
            ]
        },
        {
            "positions": [
                -0.17834723232142186,
                -2.0496977970299626,
                1.992048426178487,
                -0.528758052888731,
                1.3648138160231276,
                -0.6966389564602204
            ]
        },
        {
            "positions": [
                -0.16135628071426775,
                -1.9838154357170559,
                1.9982911790431372,
                -0.5484730275550003,
                1.2779702497245857,
                -0.8808434980407804
            ]
        },
        {
            "positions": [
                -0.14436532910711364,
                -1.9179330744041492,
                2.0045339319077873,
                -0.5681880022212695,
                1.1911266834260437,
                -1.0650480396213404
            ]
        },
        {
            "positions": [
                -0.12737437749995956,
                -1.8520507130912427,
                2.0107766847724378,
                -0.5879029768875389,
                1.1042831171275016,
                -1.2492525812019004
            ]
        },
        {
            "positions": [
                -0.11038342589280546,
                -1.7861683517783358,
                2.017019437637088,
                -0.6076179515538083,
                1.0174395508289598,
                -1.4334571227824604
            ]
        },
        {
            "positions": [
                -0.09339247428565137,
                -1.7202859904654293,
                2.023262190501738,
                -0.6273329262200775,
                0.9305959845304177,
                -1.6176616643630204
            ]
        },
        {
            "positions": [
                -0.07640152267849726,
                -1.6544036291525226,
                2.0295049433663883,
                -0.6470479008863468,
                0.8437524182318756,
                -1.8018662059435804
            ]
        },
        {
            "positions": [
                -0.05941057107134318,
                -1.5885212678396161,
                2.0357476962310384,
                -0.6667628755526162,
                0.7569088519333338,
                -1.9860707475241404
            ]
        },
        {
            "positions": [
                -0.042419619464189096,
                -1.5226389065267094,
                2.041990449095689,
                -0.6864778502188855,
                0.6700652856347917,
                -2.1702752891047004
            ]
        },
        {
            "positions": [
                -0.025428667857034987,
                -1.4567565452138027,
                2.048233201960339,
                -0.7061928248851548,
                0.5832217193362497,
                -2.3544798306852606
            ]
        },
        {
            "positions": [
                -0.008437716249880906,
                -1.3908741839008962,
                2.0544759548249893,
                -0.725907799551424,
                0.4963781530377078,
                -2.53868437226582
            ]
        },
        {
            "positions": [
                0.00855323535727319,
                -1.3249918225879895,
                2.0607187076896394,
                -0.7456227742176934,
                0.40953458673916565,
                -2.7228889138463805
            ]
        },
        {
            "positions": [
                0.04664928789853284,
                -1.2638661131904347,
                2.0331584610676448,
                -0.7704275509497328,
                0.3132870009858838,
                -2.8654393649659355
            ]
        },
        {
            "positions": [
                0.0847453404397925,
                -1.2027404037928802,
                2.00559821444565,
                -0.7952323276817723,
                0.217039415232602,
                -3.007989816085491
            ]
        },
        {
            "positions": [
                0.12284139298105215,
                -1.1416146943953254,
                1.9780379678236553,
                -0.8200371044138117,
                0.12079182947932016,
                -3.150540267205046
            ]
        }
    ]
}