{
    "goal": {
        "global_pose": {
            "orientation": {
                "w": 0.5084816217422485,
                "x": -0.49083608388900757,
                "y": 0.5182115435600281,
                "z": -0.4816462993621826
            },
            "position": {
                "x": 0.5540239810943604,
                "y": 0.030875300988554955,
                "z": 0.16403168439865112
            }
        },
        "name": "move_to_storage_A"
    },
    "id": "PRM_move_to_storage_A_14",
    "joint_names": [
        "shoulder_pan_joint",
        "shoulder_lift_joint",
        "elbow_joint",
        "wrist_1_joint",
        "wrist_2_joint",
        "wrist_3_joint"
    ],
    "metrics": {
        "cart_traj_len": 0.3530855087271576,
        "distance_elbow_joint": 0.45190059687068573,
        "distance_shoulder_lift_joint": 0.23135089119606622,
        "distance_shoulder_pan_joint": 0.4581312043102519,
        "distance_wrist_1_joint": 0.2597888918603596,
        "distance_wrist_2_joint": 1.1125500125257897,
        "distance_wrist_3_joint": 0.10458086346433504,
        "smoothness": 8.881784197001252e-16,
        "time": 0.032928009,
        "traj_len": 1.6181169488722034,
        "weighted_distance": 2.0493421118842767
    },
    "planner": "PRM",
    "start": {
        "state": {
            "elbow_joint": 1.971548259319323,
            "shoulder_lift_joint": -1.1394851275133948,
            "shoulder_pan_joint": 0.1228115487234821,
            "wrist_1_joint": -0.7804723859257726,
            "wrist_2_joint": 0.12958671773740124,
            "wrist_3_joint": -3.192489227718131
        }
    },
    "waypoints": [
        {
            "positions": [
                0.1228115487234821,
                -1.1394851275133948,
                1.971548259319323,
                -0.7804723859257726,
                0.12958671773740124,
                -3.192489227718131
            ]
        },
        {
            "positions": [
                0.05736423382201755,
                -1.1725352548271186,
                2.036105487443707,
                -0.8175850847629669,
                0.2885224338125141,
                -3.1775491043660833
            ]
        },
        {
            "positions": [
                -0.008083081079446996,
                -1.2055853821408422,
                2.1006627155680904,
                -0.854697783600161,
                0.4474581498876269,
                -3.1626089810140354
            ]
        },
        {
            "positions": [
                -0.07353039598091154,
                -1.238635509454566,
                2.165219943692474,
                -0.8918104824373553,
                0.6063938659627397,
                -3.1476688576619876
            ]
        },
        {
            "positions": [
                -0.1389777108823761,
                -1.2716856367682898,
                2.2297771718168575,
                -0.9289231812745495,
                0.7653295820378525,
                -3.1327287343099397
            ]
        },
        {
            "positions": [
                -0.2044250257838407,
                -1.3047357640820136,
                2.2943343999412416,
                -0.9660358801117437,
                0.9242652981129653,
                -3.117788610957892
            ]
        },
        {
            "positions": [
                -0.2698723406853052,
                -1.3377858913957372,
                2.358891628065625,
                -1.003148578948938,
                1.0832010141880781,
                -3.102848487605844
            ]
        },
        {
            "positions": [
                -0.3353196555867698,
                -1.370836018709461,
                2.4234488561900087,
                -1.0402612777861322,
                1.242136730263191,
                -3.087908364253796
            ]
        }
    ]
}{
    "goal": {
        "global_pose": {
            "orientation": {
                "w": 0.5084816217422485,
                "x": -0.49083608388900757,
                "y": 0.5182115435600281,
                "z": -0.4816462993621826
            },
            "position": {
                "x": 0.5540239810943604,
                "y": 0.030875300988554955,
                "z": 0.16403168439865112
            }
        },
        "name": "move_to_storage_A"
    },
    "id": "PRM_move_to_storage_A_14",
    "joint_names": [
        "shoulder_pan_joint",
        "shoulder_lift_joint",
        "elbow_joint",
        "wrist_1_joint",
        "wrist_2_joint",
        "wrist_3_joint"
    ],
    "metrics": {
        "cart_traj_len": 0.3532199168065112,
        "distance_elbow_joint": 0.45110159064449373,
        "distance_shoulder_lift_joint": 0.23588087935509439,
        "distance_shoulder_pan_joint": 0.4607521889505536,
        "distance_wrist_1_joint": 0.24771255591025176,
        "distance_wrist_2_joint": 1.104583756467286,
        "distance_wrist_3_joint": 0.0921604539606049,
        "smoothness": 0.0,
        "time": 0.029086487,
        "traj_len": 1.6100283926963166,
        "weighted_distance": 2.0319470085578097
    },
    "planner": "PRM",
    "start": {
        "state": {
            "elbow_joint": 1.97154746011099,
            "shoulder_lift_joint": -1.13948474672311,
            "shoulder_pan_joint": 0.12281154466712228,
            "wrist_1_joint": -0.7804688027058302,
            "wrist_2_joint": 0.12958655903071145,
            "wrist_3_joint": 3.0906928834467795
        }
    },
    "waypoints": [
        {
            "positions": [
                0.12281154466712228,
                -1.13948474672311,
                1.97154746011099,
                -0.7804688027058302,
                0.12958655903071145,
                3.0906928834467795
            ]
        },
        {
            "positions": [
                0.056989803388471774,
                -1.173182015202409,
                2.035990544488775,
                -0.815856310693009,
                0.287384238526038,
                3.1038586625840088
            ]
        },
        {
            "positions": [
                -0.008831937890178734,
                -1.2068792836817084,
                2.1004336288665595,
                -0.8512438186801878,
                0.44518191802136453,
                3.117024441721238
            ]
        },
        {
            "positions": [
                -0.07465367916882924,
                -1.2405765521610075,
                2.1648767132443445,
                -0.8866313266673667,
                0.6029795975166912,
                3.1301902208584673
            ]
        },
        {
            "positions": [
                -0.14047542044747974,
                -1.2742738206403068,
                2.229319797622129,
                -0.9220188346545455,
                0.7607772770120177,
                3.1433559999956966
            ]
        },
        {
            "positions": [
                -0.20629716172613027,
                -1.307971089119606,
                2.293762881999914,
                -0.9574063426417243,
                0.9185749565073443,
                3.156521779132926
            ]
        },
        {
            "positions": [
                -0.27211890300478075,
                -1.341668357598905,
                2.3582059663776986,
                -0.9927938506289031,
                1.0763726360026709,
                3.169687558270155
            ]
        },
        {
            "positions": [
                -0.3379406442834313,
                -1.3753656260782043,
                2.4226490507554836,
                -1.028181358616082,
                1.2341703154979975,
                3.1828533374073844
            ]
        }
    ]
}{
    "goal": {
        "global_pose": {
            "orientation": {
                "w": 0.5084816217422485,
                "x": -0.49083608388900757,
                "y": 0.5182115435600281,
                "z": -0.4816462993621826
            },
            "position": {
                "x": 0.5540239810943604,
                "y": 0.030875300988554955,
                "z": 0.16403168439865112
            }
        },
        "name": "move_to_storage_A"
    },
    "id": "PRM_move_to_storage_A_14",
    "joint_names": [
        "shoulder_pan_joint",
        "shoulder_lift_joint",
        "elbow_joint",
        "wrist_1_joint",
        "wrist_2_joint",
        "wrist_3_joint"
    ],
    "metrics": {
        "cart_traj_len": 0.3527697897717318,
        "distance_elbow_joint": 0.45392435064348025,
        "distance_shoulder_lift_joint": 0.233821123072542,
        "distance_shoulder_pan_joint": 0.45767990921394897,
        "distance_wrist_1_joint": 0.25843225879349685,
        "distance_wrist_2_joint": 1.1141372938120946,
        "distance_wrist_3_joint": 0.10338344388369114,
        "smoothness": 2.2204460668324854e-16,
        "time": 0.029209026000000003,
        "traj_len": 1.6190671324621637,
        "weighted_distance": 2.049564543943964
    },
    "planner": "PRM",
    "start": {
        "state": {
            "elbow_joint": 1.9715472970024885,
            "shoulder_lift_joint": -1.1394870060712896,
            "shoulder_pan_joint": 0.12281152778156021,
            "wrist_1_joint": -0.780463741449964,
            "wrist_2_joint": 0.12958659822042276,
            "wrist_3_joint": 3.090690232415272
        }
    },
    "waypoints": [
        {
            "positions": [
                0.12281152778156021,
                -1.1394870060712896,
                1.9715472970024885,
                -0.780463741449964,
                0.12958659822042276,
                3.090690232415272
            ]
        },
        {
            "positions": [
                0.057428683608138936,
                -1.1728900236530813,
                2.0363936328087,
                -0.8173826355633207,
                0.2887490687650077,
                3.105459295827228
            ]
        },
        {
            "positions": [
                -0.007954160565282337,
                -1.2062930412348731,
                2.1012399686149115,
                -0.8543015296766774,
                0.4479115393095926,
                3.1202283592391837
            ]
        },
        {
            "positions": [
                -0.07333700473870361,
                -1.2396960588166648,
                2.166086304421123,
                -0.8912204237900341,
                0.6070740098541776,
                3.1349974226511397
            ]
        },
        {
            "positions": [
                -0.13871984891212488,
                -1.2730990763984564,
                2.2309326402273344,
                -0.9281393179033908,
                0.7662364803987625,
                3.149766486063095
            ]
        },
        {
            "positions": [
                -0.2041026930855462,
                -1.306502093980248,
                2.295778976033546,
                -0.9650582120167475,
                0.9253989509433475,
                3.164535549475051
            ]
        },
        {
            "positions": [
                -0.2694855372589674,
                -1.33990511156204,
                2.3606253118397573,
                -1.0019771061301042,
                1.0845614214879324,
                3.179304612887007
            ]
        },
        {
            "positions": [
                -0.33486838143238873,
                -1.3733081291438316,
                2.425471647645969,
                -1.0388960002434608,
                1.2437238920325173,
                3.194073676298963
            ]
        }
    ]
}