{
    "goal": {
        "global_pose": {
            "orientation": {
                "w": 0.005598929693374612,
                "x": 0.007748599140229565,
                "y": 0.7110244013736278,
                "z": -0.7031023480610252
            },
            "position": {
                "x": 0.1141497679147869,
                "y": -0.7141253447532654,
                "z": 0.3711530566215515
            }
        },
        "name": "move_to_auspresseinheit_B"
    },
    "id": "PRM_move_to_auspresseinheit_B_131",
    "joint_names": [
        "shoulder_pan_joint",
        "shoulder_lift_joint",
        "elbow_joint",
        "wrist_1_joint",
        "wrist_2_joint",
        "wrist_3_joint"
    ],
    "metrics": {
        "cart_traj_len": 0.5652302553618348,
        "distance_elbow_joint": 0.0618812489242444,
        "distance_shoulder_lift_joint": 0.2958082454439823,
        "distance_shoulder_pan_joint": 0.5756916742288836,
        "distance_wrist_1_joint": 0.32197370741029874,
        "distance_wrist_2_joint": 1.0030111815622709,
        "distance_wrist_3_joint": 0.007621962626868317,
        "smoothness": 0.0,
        "time": 0.028758515,
        "traj_len": 1.505319906264628,
        "weighted_distance": 1.8990041691430943
    },
    "planner": "PRM",
    "start": {
        "state": {
            "elbow_joint": 2.0193083361928714,
            "shoulder_lift_joint": -1.1220246554650708,
            "shoulder_pan_joint": -1.0952077554168747,
            "wrist_1_joint": -0.8559753972642168,
            "wrist_2_joint": 0.4759566250798843,
            "wrist_3_joint": -3.1240929996934557
        }
    },
    "waypoints": [
        {
            "positions": [
                -1.0952077554168747,
                -1.1220246554650708,
                2.0193083361928714,
                -0.8559753972642168,
                0.4759566250798843,
                -3.1240929996934557
            ]
        },
        {
            "positions": [
                -1.1911563677883552,
                -1.1713260297057344,
                2.0089947947054974,
                -0.8023131126958336,
                0.6431251553402628,
                -3.1228226725889776
            ]
        },
        {
            "positions": [
                -1.2871049801598358,
                -1.2206274039463982,
                1.9986812532181233,
                -0.7486508281274505,
                0.8102936856006413,
                -3.1215523454844996
            ]
        },
        {
            "positions": [
                -1.3830535925313163,
                -1.269928778187062,
                1.9883677117307492,
                -0.6949885435590675,
                0.9774622158610198,
                -3.1202820183800215
            ]
        },
        {
            "positions": [
                -1.4790022049027969,
                -1.3192301524277257,
                1.9780541702433752,
                -0.6413262589906843,
                1.1446307461213983,
                -3.1190116912755435
            ]
        },
        {
            "positions": [
                -1.5749508172742777,
                -1.3685315266683893,
                1.967740628756001,
                -0.5876639744223011,
                1.3117992763817767,
                -3.1177413641710654
            ]
        },
        {
            "positions": [
                -1.6708994296457582,
                -1.4178329009090531,
                1.957427087268627,
                -0.534001689853918,
                1.4789678066421552,
                -3.1164710370665873
            ]
        }
    ]
}