{
    "goal": {
        "global_pose": {
            "orientation": {
                "w": 0.5084816262002911,
                "x": -0.4908360881923452,
                "y": 0.5182115481033761,
                "z": -0.48164630358495003
            },
            "position": {
                "x": 0.5540239810943604,
                "y": -0.46912469901144505,
                "z": 0.16403168439865112
            }
        },
        "name": "move_to_storage_B"
    },
    "id": "PRM_move_to_storage_B_38",
    "joint_names": [
        "shoulder_pan_joint",
        "shoulder_lift_joint",
        "elbow_joint",
        "wrist_1_joint",
        "wrist_2_joint",
        "wrist_3_joint"
    ],
    "metrics": {
        "cart_traj_len": 2.027453405684718,
        "distance_elbow_joint": 1.872587250617237,
        "distance_shoulder_lift_joint": 0.46146851062622996,
        "distance_shoulder_pan_joint": 1.8189930440960436,
        "distance_wrist_1_joint": 3.00786960761919,
        "distance_wrist_2_joint": 2.7178062910596625,
        "distance_wrist_3_joint": 4.3299371240128695,
        "smoothness": 0.30950814842681124,
        "time": 0.166661761,
        "traj_len": 3.7694378663178982,
        "weighted_distance": 5.347355605786454
    },
    "planner": "PRM",
    "start": {
        "state": {
            "elbow_joint": 1.664937868594044,
            "shoulder_lift_joint": -0.661644460510453,
            "shoulder_pan_joint": -0.9139846352900073,
            "wrist_1_joint": 2.146753192139373,
            "wrist_2_joint": -2.2341966793290973,
            "wrist_3_joint": 0.005466555786416001
        }
    },
    "waypoints": [
        {
            "positions": [
                -0.9139846352900073,
                -0.661644460510453,
                1.664937868594044,
                2.146753192139373,
                -2.2341966793290973,
                0.005466555786416001
            ]
        },
        {
            "positions": [
                -0.8824977269542267,
                -0.6794058547905155,
                1.656481468374684,
                2.11957808219807,
                -2.2058254533505464,
                -0.015202483048857574
            ]
        },
        {
            "positions": [
                -0.8168785199191971,
                -0.712720860469992,
                1.5940358479359935,
                2.0177288325303326,
                -2.1240018680862964,
                -0.062290220693914745
            ]
        },
        {
            "positions": [
                -0.7512593128841676,
                -0.7460358661494684,
                1.531590227497303,
                1.9158795828625952,
                -2.0421782828220465,
                -0.10937795833897192
            ]
        },
        {
            "positions": [
                -0.6856401058491379,
                -0.7793508718289448,
                1.4691446070586125,
                1.814030333194858,
                -1.9603546975577961,
                -0.1564656959840291
            ]
        },
        {
            "positions": [
                -0.6200208988141084,
                -0.8126658775084212,
                1.406698986619922,
                1.7121810835271205,
                -1.8785311122935462,
                -0.20355343362908626
            ]
        },
        {
            "positions": [
                -0.5544016917790788,
                -0.8459808831878978,
                1.3442533661812315,
                1.6103318338593833,
                -1.7967075270292963,
                -0.2506411712741434
            ]
        },
        {
            "positions": [
                -0.48878248474404923,
                -0.8792958888673742,
                1.281807745742541,
                1.508482584191646,
                -1.714883941765046,
                -0.2977289089192006
            ]
        },
        {
            "positions": [
                -0.4231632777090196,
                -0.9126108945468506,
                1.2193621253038505,
                1.4066333345239086,
                -1.633060356500796,
                -0.3448166465642578
            ]
        },
        {
            "positions": [
                -0.3575440706739901,
                -0.945925900226327,
                1.15691650486516,
                1.3047840848561714,
                -1.551236771236546,
                -0.39190438420931495
            ]
        },
        {
            "positions": [
                -0.29192486363896053,
                -0.9792409059058036,
                1.0944708844264694,
                1.202934835188434,
                -1.469413185972296,
                -0.43899212185437214
            ]
        },
        {
            "positions": [
                -0.22630565660393087,
                -1.01255591158528,
                1.032025263987779,
                1.1010855855206967,
                -1.387589600708046,
                -0.48607985949942933
            ]
        },
        {
            "positions": [
                -0.16068644956890143,
                -1.0458709172647565,
                0.9695796435490884,
                0.9992363358529595,
                -1.3057660154437958,
                -0.5331675971444865
            ]
        },
        {
            "positions": [
                -0.09506724253387173,
                -1.0791859229442329,
                0.9071340231103979,
                0.897387086185222,
                -1.2239424301795458,
                -0.5802553347895437
            ]
        },
        {
            "positions": [
                -0.13673706133970115,
                -1.0810162166189183,
                0.9535833316576309,
                0.8241161069491787,
                -1.1527944284332912,
                -0.4242463667296725
            ]
        },
        {
            "positions": [
                -0.17840688014553058,
                -1.0828465102936038,
                1.0000326402048638,
                0.7508451277131354,
                -1.0816464266870367,
                -0.26823739866980123
            ]
        },
        {
            "positions": [
                -0.22007669895136,
                -1.0846768039682892,
                1.0464819487520969,
                0.6775741484770921,
                -1.010498424940782,
                -0.11222843060992999
            ]
        },
        {
            "positions": [
                -0.26174651775718943,
                -1.0865070976429745,
                1.0929312572993297,
                0.6043031692410489,
                -0.9393504231945273,
                0.04378053744994126
            ]
        },
        {
            "positions": [
                -0.30341633656301886,
                -1.08833739131766,
                1.1393805658465628,
                0.5310321900050055,
                -0.8682024214482728,
                0.19978950550981256
            ]
        },
        {
            "positions": [
                -0.3450861553688483,
                -1.0901676849923454,
                1.1858298743937956,
                0.45776121076896226,
                -0.7970544197020182,
                0.35579847356968375
            ]
        },
        {
            "positions": [
                -0.3867559741746777,
                -1.0919979786670309,
                1.2322791829410287,
                0.38449023153291895,
                -0.7259064179557635,
                0.5118074416295552
            ]
        },
        {
            "positions": [
                -0.42842579298050715,
                -1.0938282723417163,
                1.2787284914882615,
                0.31121925229687575,
                -0.6547584162095089,
                0.6678164096894262
            ]
        },
        {
            "positions": [
                -0.4700956117863366,
                -1.0956585660164015,
                1.3251778000354946,
                0.23794827306083244,
                -0.5836104144632542,
                0.8238253777492975
            ]
        },
        {
            "positions": [
                -0.5117654305921661,
                -1.097488859691087,
                1.3716271085827274,
                0.16467729382478902,
                -0.5124624127169997,
                0.9798343458091688
            ]
        },
        {
            "positions": [
                -0.5534352493979955,
                -1.0993191533657725,
                1.4180764171299605,
                0.09140631458874582,
                -0.4413144109707451,
                1.13584331386904
            ]
        },
        {
            "positions": [
                -0.5951050682038249,
                -1.101149447040458,
                1.4645257256771935,
                0.01813533535270251,
                -0.3701664092244904,
                1.2918522819289113
            ]
        },
        {
            "positions": [
                -0.6367748870096543,
                -1.1029797407151434,
                1.5109750342244264,
                -0.05513564388334069,
                -0.2990184074782358,
                1.4478612499887822
            ]
        },
        {
            "positions": [
                -0.6784447058154838,
                -1.1048100343898288,
                1.5574243427716594,
                -0.1284066231193841,
                -0.22787040573198114,
                1.603870218048654
            ]
        },
        {
            "positions": [
                -0.7201145246213132,
                -1.1066403280645143,
                1.6038736513188923,
                -0.20167760235542742,
                -0.15672240398572646,
                1.7598791861085248
            ]
        },
        {
            "positions": [
                -0.7617843434271426,
                -1.1084706217391995,
                1.6503229598661253,
                -0.2749485815914705,
                -0.08557440223947199,
                1.915888154168396
            ]
        },
        {
            "positions": [
                -0.8034541622329721,
                -1.110300915413885,
                1.6967722684133584,
                -0.34821956082751404,
                -0.014426400493217306,
                2.0718971222282674
            ]
        },
        {
            "positions": [
                -0.8451239810388015,
                -1.1121312090885704,
                1.7432215769605912,
                -0.42149054006355713,
                0.05672160125303738,
                2.2279060902881387
            ]
        },
        {
            "positions": [
                -0.8867937998446309,
                -1.113961502763256,
                1.789670885507824,
                -0.49476151929960044,
                0.12786960299929184,
                2.3839150583480095
            ]
        },
        {
            "positions": [
                -0.9284636186504603,
                -1.1157917964379414,
                1.836120194055057,
                -0.568032498535644,
                0.19901760474554653,
                2.5399240264078813
            ]
        },
        {
            "positions": [
                -0.9701334374562898,
                -1.1176220901126266,
                1.8825695026022902,
                -0.6413034777716871,
                0.2701656064918012,
                2.695932994467752
            ]
        },
        {
            "positions": [
                -1.011803256262119,
                -1.119452383787312,
                1.929018811149523,
                -0.7145744570077304,
                0.3413136082380557,
                2.8519419625276234
            ]
        },
        {
            "positions": [
                -1.0534730750679486,
                -1.1212826774619975,
                1.975468119696756,
                -0.7878454362437737,
                0.4124616099843106,
                3.0079509305874947
            ]
        },
        {
            "positions": [
                -1.095142893873778,
                -1.123112971136683,
                2.021917428243989,
                -0.8611164154798169,
                0.483609611730565,
                3.163959898647366
            ]
        }
    ]
}