{
    "goal": {
        "global_pose": {
            "orientation": {
                "w": -0.4816463035849501,
                "x": 0.5182115481033762,
                "y": 0.4908360881923453,
                "z": -0.5084816262002911
            },
            "position": {
                "x": -0.8240239810943604,
                "y": 0.19912469901144506,
                "z": 0.16403168439865112
            }
        },
        "name": "move_to_storage_D"
    },
    "id": "PRM_move_to_storage_D_25",
    "joint_names": [
        "shoulder_pan_joint",
        "shoulder_lift_joint",
        "elbow_joint",
        "wrist_1_joint",
        "wrist_2_joint",
        "wrist_3_joint"
    ],
    "metrics": {
        "cart_traj_len": 3.9594932293797047,
        "distance_elbow_joint": 4.213444349131178,
        "distance_shoulder_lift_joint": 1.3311926732116173,
        "distance_shoulder_pan_joint": 2.815234394266351,
        "distance_wrist_1_joint": 2.2779653213963984,
        "distance_wrist_2_joint": 1.2792723415832523,
        "distance_wrist_3_joint": 3.138247953148482,
        "smoothness": 0.021031728178752956,
        "time": 0.21082387000000002,
        "traj_len": 3.8801233270009963,
        "weighted_distance": 4.98889673194524
    },
    "planner": "PRM",
    "start": {
        "state": {
            "elbow_joint": -2.384821988534728,
            "shoulder_lift_joint": -2.2788054721415256,
            "shoulder_pan_joint": -0.1854694642142757,
            "wrist_1_joint": 1.4845938289331202,
            "wrist_2_joint": 0.17898776772866878,
            "wrist_3_joint": 0.037105688729662994
        }
    },
    "waypoints": [
        {
            "positions": [
                -0.1854694642142757,
                -2.2788054721415256,
                -2.384821988534728,
                1.4845938289331202,
                0.17898776772866878,
                0.037105688729662994
            ]
        },
        {
            "positions": [
                -0.0657807048689594,
                -2.2087481082869282,
                -2.3405537338488953,
                1.446423757751108,
                0.2774748346100331,
                0.031002950459147204
            ]
        },
        {
            "positions": [
                0.05390805447635691,
                -2.1386907444323304,
                -2.2962854791630627,
                1.4082536865690958,
                0.3759619014913974,
                0.024900212188631414
            ]
        },
        {
            "positions": [
                0.17359681382167316,
                -2.068633380577733,
                -2.25201722447723,
                1.3700836153870837,
                0.47444896837276174,
                0.018797473918115627
            ]
        },
        {
            "positions": [
                0.29328557316698955,
                -1.9985760167231357,
                -2.2077489697913975,
                1.3319135442050716,
                0.5729360352541261,
                0.012694735647599837
            ]
        },
        {
            "positions": [
                0.41297433251230575,
                -1.928518652868538,
                -2.163480715105565,
                1.2937434730230595,
                0.6714231021354904,
                0.00659199737708405
            ]
        },
        {
            "positions": [
                0.5326630918576221,
                -1.8584612890139407,
                -2.119212460419732,
                1.2555734018410472,
                0.7699101690168546,
                0.00048925910656826
            ]
        },
        {
            "positions": [
                0.6523518512029384,
                -1.788403925159343,
                -2.0749442057338996,
                1.217403330659035,
                0.8683972358982189,
                -0.005613479163947527
            ]
        },
        {
            "positions": [
                0.7720406105482548,
                -1.7183465613047457,
                -2.030675951048067,
                1.179233259477023,
                0.9668843027795833,
                -0.01171621743446332
            ]
        },
        {
            "positions": [
                0.891729369893571,
                -1.6482891974501481,
                -1.9864076963622344,
                1.1410631882950106,
                1.0653713696609477,
                -0.017818955704979114
            ]
        },
        {
            "positions": [
                1.011418129238887,
                -1.5782318335955505,
                -1.9421394416764017,
                1.1028931171129985,
                1.163858436542312,
                -0.023921693975494894
            ]
        },
        {
            "positions": [
                1.1311068885842035,
                -1.5081744697409531,
                -1.8978711869905691,
                1.0647230459309864,
                1.2623455034236764,
                -0.03002443224601069
            ]
        },
        {
            "positions": [
                1.1897000182449506,
                -1.4871177004064033,
                -1.7669854139449437,
                0.9985043028325049,
                1.2613014873405235,
                -0.13606033433983555
            ]
        },
        {
            "positions": [
                1.2482931479056978,
                -1.4660609310718533,
                -1.6360996408993185,
                0.9322855597340234,
                1.2602574712573709,
                -0.2420962364336604
            ]
        },
        {
            "positions": [
                1.306886277566445,
                -1.4450041617373035,
                -1.505213867853693,
                0.8660668166355419,
                1.259213455174218,
                -0.34813213852748526
            ]
        },
        {
            "positions": [
                1.3654794072271923,
                -1.4239473924027535,
                -1.3743280948080678,
                0.7998480735370603,
                1.2581694390910654,
                -0.4541680406213101
            ]
        },
        {
            "positions": [
                1.4240725368879394,
                -1.4028906230682037,
                -1.2434423217624424,
                0.7336293304385787,
                1.2571254230079125,
                -0.560203942715135
            ]
        },
        {
            "positions": [
                1.4826656665486866,
                -1.3818338537336536,
                -1.112556548716817,
                0.6674105873400972,
                1.2560814069247597,
                -0.6662398448089598
            ]
        },
        {
            "positions": [
                1.5412587962094337,
                -1.3607770843991038,
                -0.9816707756711917,
                0.6011918442416155,
                1.255037390841607,
                -0.7722757469027848
            ]
        },
        {
            "positions": [
                1.5998519258701809,
                -1.3397203150645538,
                -0.8507850026255663,
                0.5349731011431341,
                1.2539933747584542,
                -0.8783116489966095
            ]
        },
        {
            "positions": [
                1.6584450555309282,
                -1.318663545730004,
                -0.7198992295799411,
                0.4687543580446526,
                1.2529493586753015,
                -0.9843475510904344
            ]
        },
        {
            "positions": [
                1.7170381851916754,
                -1.297606776395454,
                -0.5890134565343157,
                0.40253561494617096,
                1.2519053425921487,
                -1.090383453184259
            ]
        },
        {
            "positions": [
                1.7756313148524225,
                -1.2765500070609042,
                -0.45812768348869026,
                0.33631687184768944,
                1.2508613265089958,
                -1.196419355278084
            ]
        },
        {
            "positions": [
                1.8342244445131697,
                -1.2554932377263541,
                -0.32724191044306505,
                0.2700981287492079,
                1.2498173104258432,
                -1.3024552573719088
            ]
        },
        {
            "positions": [
                1.8928175741739168,
                -1.2344364683918043,
                -0.19635613739743962,
                0.20387938565072639,
                1.2487732943426904,
                -1.4084911594657337
            ]
        },
        {
            "positions": [
                1.951410703834664,
                -1.2133796990572545,
                -0.06547036435181419,
                0.13766064255224475,
                1.2477292782595377,
                -1.5145270615595587
            ]
        },
        {
            "positions": [
                2.010003833495411,
                -1.1923229297227045,
                0.06541540869381102,
                0.07144189945376334,
                1.2466852621763849,
                -1.6205629636533834
            ]
        },
        {
            "positions": [
                2.0685969631561583,
                -1.1712661603881545,
                0.19630118173943645,
                0.0052231563552818105,
                1.245641246093232,
                -1.7265988657472082
            ]
        },
        {
            "positions": [
                2.127190092816906,
                -1.1502093910536046,
                0.3271869547850619,
                -0.06099558674319994,
                1.2445972300100794,
                -1.8326347678410333
            ]
        },
        {
            "positions": [
                2.185783222477653,
                -1.1291526217190548,
                0.45807272783068687,
                -0.12721432984168124,
                1.2435532139269265,
                -1.938670669934858
            ]
        },
        {
            "positions": [
                2.2443763521384,
                -1.1080958523845048,
                0.5889585008763123,
                -0.193433072940163,
                1.242509197843774,
                -2.044706572028683
            ]
        },
        {
            "positions": [
                2.3029694817991473,
                -1.087039083049955,
                0.7198442739219377,
                -0.2596518160386445,
                1.241465181760621,
                -2.1507424741225076
            ]
        },
        {
            "positions": [
                2.3615626114598944,
                -1.0659823137154052,
                0.8507300469675632,
                -0.3258705591371258,
                1.2404211656774682,
                -2.2567783762163325
            ]
        },
        {
            "positions": [
                2.4201557411206416,
                -1.0449255443808552,
                0.9816158200131886,
                -0.39208930223560756,
                1.2393771495943156,
                -2.3628142783101573
            ]
        },
        {
            "positions": [
                2.4787488707813887,
                -1.0238687750463051,
                1.112501593058814,
                -0.4583080453340891,
                1.2383331335111627,
                -2.468850180403982
            ]
        },
        {
            "positions": [
                2.537342000442136,
                -1.0028120057117553,
                1.243387366104439,
                -0.5245267884325706,
                1.23728911742801,
                -2.574886082497807
            ]
        },
        {
            "positions": [
                2.595935130102883,
                -0.9817552363772054,
                1.3742731391500647,
                -0.5907455315310522,
                1.2362451013448572,
                -2.680921984591632
            ]
        },
        {
            "positions": [
                2.604392580090181,
                -0.9902908457390297,
                1.487860444511661,
                -0.6414020217641089,
                1.1937915503925007,
                -2.785977054548429
            ]
        },
        {
            "positions": [
                2.612850030077479,
                -0.9988264551008541,
                1.6014477498732576,
                -0.6920585119971654,
                1.1513379994401443,
                -2.8910321245052257
            ]
        },
        {
            "positions": [
                2.621307480064777,
                -1.0073620644626784,
                1.7150350552348539,
                -0.742715002230222,
                1.108884448487788,
                -2.996087194462022
            ]
        },
        {
            "positions": [
                2.629764930052075,
                -1.0158976738245027,
                1.8286223605964502,
                -0.7933714924632786,
                1.0664308975354315,
                -3.101142264418819
            ]
        }
    ]
}