{
    "goal": {
        "global_pose": {
            "orientation": {
                "w": 0.7031023502349854,
                "x": -0.7110244035720825,
                "y": 0.007748599164187908,
                "z": 0.005598929710686207
            },
            "position": {
                "x": 0.11585023208521307,
                "y": 0.44412534475326537,
                "z": 0.3711530566215515
            }
        },
        "name": "move_to_auspresseinheit_A"
    },
    "id": "PRM_move_to_auspresseinheit_A_141",
    "joint_names": [
        "shoulder_pan_joint",
        "shoulder_lift_joint",
        "elbow_joint",
        "wrist_1_joint",
        "wrist_2_joint",
        "wrist_3_joint"
    ],
    "metrics": {
        "cart_traj_len": 0.6946115364569471,
        "distance_elbow_joint": 0.02974941619007243,
        "distance_shoulder_lift_joint": 0.7406204471816986,
        "distance_shoulder_pan_joint": 1.0451333959099864,
        "distance_wrist_1_joint": 0.8113634014756886,
        "distance_wrist_2_joint": 0.5144433608936391,
        "distance_wrist_3_joint": 0.5526468131669162,
        "smoothness": 1.2030510260349951,
        "time": 0.632945619,
        "traj_len": 1.9219669182423516,
        "weighted_distance": 2.4748852950230162
    },
    "planner": "PRM",
    "start": {
        "state": {
            "elbow_joint": 2.4225746658250005,
            "shoulder_lift_joint": -1.3736534386056498,
            "shoulder_pan_joint": -0.3378633547517467,
            "wrist_1_joint": -1.0288598680537169,
            "wrist_2_joint": 1.233022673432363,
            "wrist_3_joint": -3.0940220416140027
        }
    },
    "waypoints": [
        {
            "positions": [
                -0.3378633547517467,
                -1.3736534386056498,
                2.4225746658250005,
                -1.0288598680537169,
                1.233022673432363,
                -3.0940220416140027
            ]
        },
        {
            "positions": [
                -0.2300816411234471,
                -1.4534561501267884,
                2.4189590411977777,
                -0.9425982961740671,
                1.1758114673549611,
                -3.061827751012634
            ]
        },
        {
            "positions": [
                -0.12229992749514745,
                -1.5332588616479272,
                2.415343416570555,
                -0.8563367242944173,
                1.1186002612775594,
                -3.029633460411265
            ]
        },
        {
            "positions": [
                -0.014518213866847818,
                -1.6130615731690658,
                2.411727791943332,
                -0.7700751524147675,
                1.0613890552001575,
                -2.9974391698098968
            ]
        },
        {
            "positions": [
                0.09326349976145182,
                -1.6928642846902044,
                2.4081121673161094,
                -0.6838135805351178,
                1.0041778491227555,
                -2.965244879208528
            ]
        },
        {
            "positions": [
                0.2010452133897515,
                -1.7726669962113433,
                2.404496542688887,
                -0.597552008655468,
                0.9469666430453538,
                -2.933050588607159
            ]
        },
        {
            "positions": [
                0.3088269270180511,
                -1.8524697077324819,
                2.4008809180616644,
                -0.5112904367758183,
                0.8897554369679519,
                -2.900856298005791
            ]
        },
        {
            "positions": [
                0.41660864064635067,
                -1.9322724192536205,
                2.3972652934344416,
                -0.42502886489616853,
                0.8325442308905501,
                -2.868662007404422
            ]
        },
        {
            "positions": [
                0.5243903542746504,
                -2.0120751307747593,
                2.393649668807219,
                -0.33876729301651876,
                0.7753330248131483,
                -2.836467716803053
            ]
        },
        {
            "positions": [
                0.6158301977164451,
                -1.9609757532684648,
                2.3932374592210737,
                -0.399402706235764,
                0.7469561686759361,
                -2.9840139609810366
            ]
        },
        {
            "positions": [
                0.7072700411582398,
                -1.9098763757621702,
                2.392825249634928,
                -0.4600381194550093,
                0.718579312538724,
                -3.13156020515902
            ]
        }
    ]
}