{
    "goal": {
        "global_pose": {
            "orientation": {
                "w": 0.7031023480610252,
                "x": -0.7110244013736278,
                "y": 0.0077485991402295624,
                "z": 0.005598929693374583
            },
            "position": {
                "x": -0.8841497679147869,
                "y": 0.44412534475326537,
                "z": 0.3711530566215515
            }
        },
        "name": "move_to_auspresseinheit_D"
    },
    "id": "PRM_move_to_auspresseinheit_D_55",
    "joint_names": [
        "shoulder_pan_joint",
        "shoulder_lift_joint",
        "elbow_joint",
        "wrist_1_joint",
        "wrist_2_joint",
        "wrist_3_joint"
    ],
    "metrics": {
        "cart_traj_len": 0.34393395650830044,
        "distance_elbow_joint": 0.654312741050112,
        "distance_shoulder_lift_joint": 0.12971680037187783,
        "distance_shoulder_pan_joint": 0.13331090629629078,
        "distance_wrist_1_joint": 0.580242157613855,
        "distance_wrist_2_joint": 1.4453980266579918,
        "distance_wrist_3_joint": 0.03671104181799967,
        "smoothness": 7.894919286223335e-16,
        "time": 0.021670811,
        "traj_len": 1.7261783435694376,
        "weighted_distance": 2.2536090924816516
    },
    "planner": "PRM",
    "start": {
        "state": {
            "elbow_joint": -1.8275523626775212,
            "shoulder_lift_joint": -2.126789852344167,
            "shoulder_pan_joint": -0.03513704404078235,
            "wrist_1_joint": -2.347782403156801,
            "wrist_2_joint": -1.6058999987535132,
            "wrist_3_joint": -3.0880379163319196
        }
    },
    "waypoints": [
        {
            "positions": [
                -0.03513704404078235,
                -2.126789852344167,
                -1.8275523626775212,
                -2.347782403156801,
                -1.6058999987535132,
                -3.0880379163319196
            ]
        },
        {
            "positions": [
                -0.051800907327818696,
                -2.1430044523906515,
                -1.745763270046257,
                -2.420312672858533,
                -1.4252252454212642,
                -3.08344903610467
            ]
        },
        {
            "positions": [
                -0.06846477061485504,
                -2.159219052437136,
                -1.6639741774149932,
                -2.4928429425602645,
                -1.2445504920890151,
                -3.0788601558774196
            ]
        },
        {
            "positions": [
                -0.08512863390189139,
                -2.175433652483621,
                -1.5821850847837293,
                -2.5653732122619965,
                -1.0638757387567663,
                -3.0742712756501698
            ]
        },
        {
            "positions": [
                -0.10179249718892774,
                -2.191648252530106,
                -1.5003959921524652,
                -2.637903481963728,
                -0.8832009854245173,
                -3.0696823954229195
            ]
        },
        {
            "positions": [
                -0.11845636047596408,
                -2.2078628525765907,
                -1.4186068995212011,
                -2.71043375166546,
                -0.7025262320922683,
                -3.0650935151956697
            ]
        },
        {
            "positions": [
                -0.13512022376300042,
                -2.2240774526230753,
                -1.3368178068899372,
                -2.7829640213671922,
                -0.5218514787600195,
                -3.06050463496842
            ]
        },
        {
            "positions": [
                -0.1517840870500368,
                -2.24029205266956,
                -1.2550287142586734,
                -2.855494291068924,
                -0.34117672542777044,
                -3.0559157547411697
            ]
        },
        {
            "positions": [
                -0.16844795033707313,
                -2.2565066527160447,
                -1.1732396216274092,
                -2.928024560770656,
                -0.1605019720955215,
                -3.05132687451392
            ]
        }
    ]
}