{
    "goal": {
        "global_pose": {
            "orientation": {
                "w": 0.5084816262002911,
                "x": -0.4908360881923452,
                "y": 0.5182115481033761,
                "z": -0.48164630358495003
            },
            "position": {
                "x": 0.5540239810943604,
                "y": -0.46912469901144505,
                "z": 0.16403168439865112
            }
        },
        "name": "move_to_storage_B"
    },
    "id": "PRM_move_to_storage_B_149",
    "joint_names": [
        "shoulder_pan_joint",
        "shoulder_lift_joint",
        "elbow_joint",
        "wrist_1_joint",
        "wrist_2_joint",
        "wrist_3_joint"
    ],
    "metrics": {
        "cart_traj_len": 1.4798298584950844,
        "distance_elbow_joint": 1.619593051666837,
        "distance_shoulder_lift_joint": 0.46272488089964847,
        "distance_shoulder_pan_joint": 1.4544131258677397,
        "distance_wrist_1_joint": 3.0271135739850967,
        "distance_wrist_2_joint": 2.7185217645983073,
        "distance_wrist_3_joint": 3.9854706669853397,
        "smoothness": 0.2959094610375169,
        "time": 0.225510564,
        "traj_len": 3.6425042297851857,
        "weighted_distance": 5.194652417299647
    },
    "planner": "PRM",
    "start": {
        "state": {
            "elbow_joint": 1.664937868594044,
            "shoulder_lift_joint": -0.661644460510453,
            "shoulder_pan_joint": -0.9139846352900073,
            "wrist_1_joint": 2.146753192139373,
            "wrist_2_joint": -2.2341966793290973,
            "wrist_3_joint": 0.005466555786416001
        }
    },
    "waypoints": [
        {
            "positions": [
                -0.9139846352900073,
                -0.661644460510453,
                1.664937868594044,
                2.146753192139373,
                -2.2341966793290973,
                0.005466555786416001
            ]
        },
        {
            "positions": [
                -0.8503326958059159,
                -0.6703133401200578,
                1.6019843184294882,
                2.0500291560902544,
                -2.1232022286516408,
                0.04947224949133574
            ]
        },
        {
            "positions": [
                -0.7866807563218243,
                -0.6789822197296628,
                1.5390307682649322,
                1.9533051200411355,
                -2.012207777974184,
                0.09347794319625548
            ]
        },
        {
            "positions": [
                -0.7230288168377328,
                -0.6876510993392676,
                1.4760772181003765,
                1.8565810839920167,
                -1.9012133272967273,
                0.1374836369011752
            ]
        },
        {
            "positions": [
                -0.6593768773536414,
                -0.6963199789488725,
                1.4131236679358206,
                1.7598570479428979,
                -1.7902188766192708,
                0.18148933060609496
            ]
        },
        {
            "positions": [
                -0.5957249378695499,
                -0.7049888585584774,
                1.3501701177712648,
                1.663133011893779,
                -1.6792244259418143,
                0.22549502431101467
            ]
        },
        {
            "positions": [
                -0.5320729983854584,
                -0.7136577381680822,
                1.287216567606709,
                1.5664089758446602,
                -1.5682299752643576,
                0.26950071801593445
            ]
        },
        {
            "positions": [
                -0.468421058901367,
                -0.7223266177776871,
                1.2242630174421532,
                1.4696849397955416,
                -1.4572355245869009,
                0.31350641172085414
            ]
        },
        {
            "positions": [
                -0.40476911941727545,
                -0.730995497387292,
                1.1613094672775972,
                1.3729609037464225,
                -1.3462410739094444,
                0.35751210542577394
            ]
        },
        {
            "positions": [
                -0.3411171799331839,
                -0.7396643769968969,
                1.0983559171130417,
                1.276236867697304,
                -1.2352466232319879,
                0.40151779913069363
            ]
        },
        {
            "positions": [
                -0.2774652404490925,
                -0.7483332566065017,
                1.0354023669484858,
                1.179512831648185,
                -1.1242521725545311,
                0.4455234928356134
            ]
        },
        {
            "positions": [
                -0.3115441459085435,
                -0.7640014268066517,
                1.076654764866039,
                1.093684781085939,
                -1.0572281201452085,
                0.29779792075494077
            ]
        },
        {
            "positions": [
                -0.3456230513679946,
                -0.7796695970068017,
                1.1179071627835924,
                1.0078567305236927,
                -0.9902040677358861,
                0.15007234867426816
            ]
        },
        {
            "positions": [
                -0.3797019568274457,
                -0.7953377672069517,
                1.1591595607011456,
                0.9220286799614466,
                -0.9231800153265635,
                0.0023467765935955565
            ]
        },
        {
            "positions": [
                -0.4137808622868967,
                -0.8110059374071017,
                1.200411958618699,
                0.8362006293992004,
                -0.856155962917241,
                -0.14537879548707705
            ]
        },
        {
            "positions": [
                -0.4478597677463477,
                -0.8266741076072517,
                1.2416643565362522,
                0.7503725788369542,
                -0.7891319105079184,
                -0.29310436756774966
            ]
        },
        {
            "positions": [
                -0.4819386732057988,
                -0.8423422778074017,
                1.2829167544538054,
                0.664544528274708,
                -0.7221078580985959,
                -0.44082993964842226
            ]
        },
        {
            "positions": [
                -0.5160175786652499,
                -0.8580104480075517,
                1.3241691523713588,
                0.5787164777124618,
                -0.6550838056892734,
                -0.588555511729095
            ]
        },
        {
            "positions": [
                -0.5500964841247009,
                -0.8736786182077017,
                1.365421550288912,
                0.49288842715021564,
                -0.5880597532799509,
                -0.7362810838097675
            ]
        },
        {
            "positions": [
                -0.5841753895841519,
                -0.8893467884078516,
                1.4066739482064654,
                0.40706037658796945,
                -0.5210357008706283,
                -0.88400665589044
            ]
        },
        {
            "positions": [
                -0.618254295043603,
                -0.9050149586080016,
                1.4479263461240186,
                0.32123232602572327,
                -0.4540116484613057,
                -1.0317322279711127
            ]
        },
        {
            "positions": [
                -0.652333200503054,
                -0.9206831288081516,
                1.4891787440415718,
                0.2354042754634771,
                -0.3869875960519832,
                -1.1794578000517852
            ]
        },
        {
            "positions": [
                -0.6864121059625051,
                -0.9363512990083016,
                1.5304311419591252,
                0.1495762249012309,
                -0.31996354364266066,
                -1.327183372132458
            ]
        },
        {
            "positions": [
                -0.7204910114219562,
                -0.9520194692084516,
                1.5716835398766786,
                0.06374817433898472,
                -0.25293949123333814,
                -1.4749089442131305
            ]
        },
        {
            "positions": [
                -0.7545699168814073,
                -0.9676876394086016,
                1.6129359377942318,
                -0.022079876223261463,
                -0.1859154388240155,
                -1.6226345162938034
            ]
        },
        {
            "positions": [
                -0.7886488223408583,
                -0.9833558096087516,
                1.654188335711785,
                -0.10790792678550765,
                -0.11889138641469299,
                -1.770360088374476
            ]
        },
        {
            "positions": [
                -0.8227277278003093,
                -0.9990239798089016,
                1.6954407336293382,
                -0.19373597734775383,
                -0.05186733400537058,
                -1.9180856604551484
            ]
        },
        {
            "positions": [
                -0.8568066332597605,
                -1.0146921500090516,
                1.7366931315468916,
                -0.27956402791,
                0.015156718403952052,
                -2.0658112325358213
            ]
        },
        {
            "positions": [
                -0.8908855387192114,
                -1.0303603202092015,
                1.777945529464445,
                -0.3653920784722462,
                0.08218077081327446,
                -2.2135368046164934
            ]
        },
        {
            "positions": [
                -0.9249644441786624,
                -1.0460284904093515,
                1.8191979273819983,
                -0.4512201290344924,
                0.1492048232225971,
                -2.361262376697166
            ]
        },
        {
            "positions": [
                -0.9590433496381136,
                -1.0616966606095015,
                1.8604503252995515,
                -0.5370481795967386,
                0.21622887563191973,
                -2.508987948777839
            ]
        },
        {
            "positions": [
                -0.9931222550975646,
                -1.0773648308096515,
                1.9017027232171049,
                -0.6228762301589847,
                0.28325292804124214,
                -2.6567135208585113
            ]
        },
        {
            "positions": [
                -1.0272011605570155,
                -1.0930330010098015,
                1.942955121134658,
                -0.7087042807212309,
                0.35027698045056477,
                -2.804439092939184
            ]
        },
        {
            "positions": [
                -1.0612800660164667,
                -1.1087011712099515,
                1.9842075190522115,
                -0.7945323312834771,
                0.4173010328598874,
                -2.9521646650198567
            ]
        },
        {
            "positions": [
                -1.0953589714759178,
                -1.1243693414101015,
                2.0254599169697647,
                -0.8803603818457235,
                0.4843250852692098,
                -3.0998902371005292
            ]
        }
    ]
}