{
    "goal": {
        "global_pose": {
            "orientation": {
                "w": 0.7031023480610252,
                "x": -0.7110244013736278,
                "y": 0.0077485991402295624,
                "z": 0.005598929693374583
            },
            "position": {
                "x": -0.8841497679147869,
                "y": 0.44412534475326537,
                "z": 0.3711530566215515
            }
        },
        "name": "move_to_auspresseinheit_D"
    },
    "id": "PRM_move_to_auspresseinheit_D_51",
    "joint_names": [
        "shoulder_pan_joint",
        "shoulder_lift_joint",
        "elbow_joint",
        "wrist_1_joint",
        "wrist_2_joint",
        "wrist_3_joint"
    ],
    "metrics": {
        "cart_traj_len": 0.34388618216277367,
        "distance_elbow_joint": 0.6421413261274078,
        "distance_shoulder_lift_joint": 0.12286752102246057,
        "distance_shoulder_pan_joint": 0.13404934638633237,
        "distance_wrist_1_joint": 0.5380271729763484,
        "distance_wrist_2_joint": 1.4455689764844275,
        "distance_wrist_3_joint": 0.009826986042051011,
        "smoothness": 0.0,
        "time": 0.017935013,
        "traj_len": 1.7007296460751862,
        "weighted_distance": 2.212629985014192
    },
    "planner": "PRM",
    "start": {
        "state": {
            "elbow_joint": -1.8275523626775212,
            "shoulder_lift_joint": -2.126789852344167,
            "shoulder_pan_joint": -0.03513704404078235,
            "wrist_1_joint": -2.347782403156801,
            "wrist_2_joint": -1.6058999987535132,
            "wrist_3_joint": -3.0880379163319196
        }
    },
    "waypoints": [
        {
            "positions": [
                -0.03513704404078235,
                -2.126789852344167,
                -1.8275523626775212,
                -2.347782403156801,
                -1.6058999987535132,
                -3.0880379163319196
            ]
        },
        {
            "positions": [
                -0.051893212339073895,
                -2.1421482924719744,
                -1.7472846969115952,
                -2.4150357997788445,
                -1.4252038766929598,
                -3.0868095430766633
            ]
        },
        {
            "positions": [
                -0.06864938063736545,
                -2.157506732599782,
                -1.6670170311456691,
                -2.482289196400888,
                -1.2445077546324064,
                -3.085581169821407
            ]
        },
        {
            "positions": [
                -0.085405548935657,
                -2.1728651727275894,
                -1.5867493653797433,
                -2.5495425930229314,
                -1.063811632571853,
                -3.0843527965661504
            ]
        },
        {
            "positions": [
                -0.10216171723394854,
                -2.1882236128553973,
                -1.5064816996138173,
                -2.616795989644975,
                -0.8831155105112994,
                -3.083124423310894
            ]
        },
        {
            "positions": [
                -0.11891788553224009,
                -2.203582052983205,
                -1.4262140338478912,
                -2.6840493862670187,
                -0.702419388450746,
                -3.081896050055638
            ]
        },
        {
            "positions": [
                -0.13567405383053163,
                -2.2189404931110124,
                -1.3459463680819654,
                -2.751302782889062,
                -0.5217232663901925,
                -3.080667676800381
            ]
        },
        {
            "positions": [
                -0.15243022212882318,
                -2.23429893323882,
                -1.2656787023160394,
                -2.8185561795111056,
                -0.3410271443296391,
                -3.079439303545125
            ]
        },
        {
            "positions": [
                -0.16918639042711472,
                -2.2496573733666274,
                -1.1854110365501134,
                -2.8858095761331493,
                -0.16033102226908574,
                -3.0782109302898686
            ]
        }
    ]
}