{
    "goal": {
        "global_pose": {
            "orientation": {
                "w": -0.00223480608172531,
                "x": 0.0024358444001904467,
                "y": 0.7094548369677653,
                "z": -0.704743149386269
            },
            "position": {
                "x": 0.6205249238014221,
                "y": -0.6371506643295288,
                "z": 0.19426114857196808
            }
        },
        "name": "move_to_magneteinheit_B"
    },
    "id": "PRM_move_to_magneteinheit_B_23",
    "joint_names": [
        "shoulder_pan_joint",
        "shoulder_lift_joint",
        "elbow_joint",
        "wrist_1_joint",
        "wrist_2_joint",
        "wrist_3_joint"
    ],
    "metrics": {
        "cart_traj_len": 1.6342719712519491,
        "distance_elbow_joint": 0.9583803964411384,
        "distance_shoulder_lift_joint": 1.4327480187547312,
        "distance_shoulder_pan_joint": 1.6208445346698874,
        "distance_wrist_1_joint": 1.7766442320677518,
        "distance_wrist_2_joint": 1.5194997587729187,
        "distance_wrist_3_joint": 1.4677233577841493,
        "smoothness": 0.5942301298096159,
        "time": 0.317156284,
        "traj_len": 2.962404479217951,
        "weighted_distance": 3.873942566030057
    },
    "planner": "PRM",
    "start": {
        "state": {
            "elbow_joint": 2.6216224122426386,
            "shoulder_lift_joint": -1.4174107377796124,
            "shoulder_pan_joint": 0.7066234856936794,
            "wrist_1_joint": 1.9546482284002225,
            "wrist_2_joint": -0.7096286983471962,
            "wrist_3_joint": 0.005740856962016249
        }
    },
    "waypoints": [
        {
            "positions": [
                0.7066234856936794,
                -1.4174107377796124,
                2.6216224122426386,
                1.9546482284002225,
                -0.7096286983471962,
                0.005740856962016249
            ]
        },
        {
            "positions": [
                0.6703904133610454,
                -1.4735786828489106,
                2.605446102969858,
                1.82146865122133,
                -0.7243339553218093,
                0.12689049342795644
            ]
        },
        {
            "positions": [
                0.6341573410284114,
                -1.5297466279182088,
                2.5892697936970777,
                1.6882890740424377,
                -0.7390392122964223,
                0.24804012989389662
            ]
        },
        {
            "positions": [
                0.5979242686957774,
                -1.585914572987507,
                2.573093484424297,
                1.555109496863545,
                -0.7537444692710354,
                0.3691897663598368
            ]
        },
        {
            "positions": [
                0.5616911963631435,
                -1.6420825180568053,
                2.5569171751515163,
                1.4219299196846527,
                -0.7684497262456486,
                0.490339402825777
            ]
        },
        {
            "positions": [
                0.5254581240305094,
                -1.6982504631261035,
                2.540740865878736,
                1.28875034250576,
                -0.7831549832202616,
                0.6114890392917172
            ]
        },
        {
            "positions": [
                0.48922505169787545,
                -1.7544184081954017,
                2.5245645566059554,
                1.1555707653268676,
                -0.7978602401948747,
                0.7326386757576573
            ]
        },
        {
            "positions": [
                0.406669398717047,
                -1.6899630935872287,
                2.4738985247939285,
                1.2130746929147733,
                -0.8820524882493006,
                0.6890607028759803
            ]
        },
        {
            "positions": [
                0.32411374573621854,
                -1.6255077789790555,
                2.423232492981902,
                1.270578620502679,
                -0.9662447363037264,
                0.6454827299943033
            ]
        },
        {
            "positions": [
                0.24155809275539006,
                -1.5610524643708825,
                2.372566461169875,
                1.3280825480905847,
                -1.0504369843581522,
                0.6019047571126264
            ]
        },
        {
            "positions": [
                0.15900243977456163,
                -1.4965971497627095,
                2.3219004293578482,
                1.3855864756784904,
                -1.1346292324125782,
                0.5583267842309494
            ]
        },
        {
            "positions": [
                0.07644678679373318,
                -1.4321418351545363,
                2.2712343975458213,
                1.4430904032663963,
                -1.2188214804670041,
                0.5147488113492724
            ]
        },
        {
            "positions": [
                -0.00610886618709533,
                -1.3676865205463633,
                2.2205683657337945,
                1.500594330854302,
                -1.30301372852143,
                0.4711708384675955
            ]
        },
        {
            "positions": [
                -0.08866451916792373,
                -1.3032312059381903,
                2.169902333921768,
                1.5580982584422076,
                -1.387205976575856,
                0.4275928655859186
            ]
        },
        {
            "positions": [
                -0.17122017214875218,
                -1.2387758913300173,
                2.119236302109741,
                1.6156021860301133,
                -1.4713982246302817,
                0.3840148927042416
            ]
        },
        {
            "positions": [
                -0.25377582512958063,
                -1.1743205767218443,
                2.0685702702977142,
                1.673106113618019,
                -1.5555904726847078,
                0.34043691982256463
            ]
        },
        {
            "positions": [
                -0.3363314781104091,
                -1.109865262113671,
                2.017904238485688,
                1.7306100412059249,
                -1.6397827207391336,
                0.29685894694088766
            ]
        },
        {
            "positions": [
                -0.41888713109123754,
                -1.0454099475054979,
                1.967238206673661,
                1.7881139687938306,
                -1.7239749687935597,
                0.2532809740592107
            ]
        },
        {
            "positions": [
                -0.5014427840720661,
                -0.9809546328973249,
                1.916572174861634,
                1.8456178963817362,
                -1.8081672168479854,
                0.2097030011775337
            ]
        },
        {
            "positions": [
                -0.5839984370528944,
                -0.916499318289152,
                1.8659061430496073,
                1.903121823969642,
                -1.8923594649024111,
                0.16612502829585685
            ]
        },
        {
            "positions": [
                -0.6665540900337229,
                -0.8520440036809789,
                1.8152401112375807,
                1.9606257515575476,
                -1.976551712956837,
                0.12254705541417987
            ]
        },
        {
            "positions": [
                -0.7491097430145514,
                -0.7875886890728058,
                1.7645740794255538,
                2.0181296791454533,
                -2.060743961011263,
                0.0789690825325029
            ]
        },
        {
            "positions": [
                -0.8316653959953798,
                -0.7231333744646327,
                1.7139080476135269,
                2.075633606733359,
                -2.1449362090656887,
                0.035391109650825925
            ]
        },
        {
            "positions": [
                -0.9142210489762083,
                -0.6586780598564597,
                1.6632420158015002,
                2.1331375343212646,
                -2.229128457120115,
                -0.008186863230851051
            ]
        }
    ]
}