{
    "goal": {
        "global_pose": {
            "orientation": {
                "w": -0.4816463035849501,
                "x": 0.5182115481033762,
                "y": 0.4908360881923453,
                "z": -0.5084816262002911
            },
            "position": {
                "x": -0.8240239810943604,
                "y": -0.300875300988555,
                "z": 0.16403168439865112
            }
        },
        "name": "move_to_storage_C"
    },
    "id": "PRM_move_to_storage_C_32",
    "joint_names": [
        "shoulder_pan_joint",
        "shoulder_lift_joint",
        "elbow_joint",
        "wrist_1_joint",
        "wrist_2_joint",
        "wrist_3_joint"
    ],
    "metrics": {
        "cart_traj_len": 0.5766479081129324,
        "distance_elbow_joint": 0.25812768549934106,
        "distance_shoulder_lift_joint": 0.18876758066730215,
        "distance_shoulder_pan_joint": 0.4934867953853783,
        "distance_wrist_1_joint": 0.07451128887288494,
        "distance_wrist_2_joint": 1.075090992766838,
        "distance_wrist_3_joint": 0.07464145836383329,
        "smoothness": 2.5376526478085547e-16,
        "time": 0.015037475,
        "traj_len": 1.471266733653547,
        "weighted_distance": 1.8610510471029447
    },
    "planner": "PRM",
    "start": {
        "state": {
            "elbow_joint": 2.010868314990456,
            "shoulder_lift_joint": -1.1634956873337592,
            "shoulder_pan_joint": -2.4736205022346125,
            "wrist_1_joint": -0.8367026794202681,
            "wrist_2_joint": 0.6746043897044499,
            "wrist_3_joint": -3.1496632123970403
        }
    },
    "waypoints": [
        {
            "positions": [
                -2.4736205022346125,
                -1.1634956873337592,
                2.010868314990456,
                -0.8367026794202681,
                0.6746043897044499,
                -3.1496632123970403
            ]
        },
        {
            "positions": [
                -2.555868301465509,
                -1.1320344238892088,
                1.967847034073899,
                -0.8242841312747873,
                0.8537862218322563,
                -3.1372229693364013
            ]
        },
        {
            "positions": [
                -2.638116100696405,
                -1.1005731604446585,
                1.924825753157342,
                -0.8118655831293065,
                1.0329680539600625,
                -3.1247827262757624
            ]
        },
        {
            "positions": [
                -2.7203638999273014,
                -1.0691118970001081,
                1.8818044722407854,
                -0.7994470349838256,
                1.212149886087869,
                -3.112342483215124
            ]
        },
        {
            "positions": [
                -2.802611699158198,
                -1.0376506335555578,
                1.8387831913242285,
                -0.7870284868383448,
                1.391331718215675,
                -3.099902240154485
            ]
        },
        {
            "positions": [
                -2.8848594983890945,
                -1.0061893701110074,
                1.7957619104076716,
                -0.774609938692864,
                1.5705135503434815,
                -3.087461997093846
            ]
        },
        {
            "positions": [
                -2.967107297619991,
                -0.974728106666457,
                1.7527406294911148,
                -0.7621913905473832,
                1.749695382471288,
                -3.075021754033207
            ]
        }
    ]
}