{
    "goal": {
        "global_pose": {
            "orientation": {
                "w": 0.5084816217422485,
                "x": -0.49083608388900757,
                "y": 0.5182115435600281,
                "z": -0.4816462993621826
            },
            "position": {
                "x": 0.5540239810943604,
                "y": 0.030875300988554955,
                "z": 0.16403168439865112
            }
        },
        "name": "move_to_storage_A"
    },
    "id": "PRM_move_to_storage_A_129",
    "joint_names": [
        "shoulder_pan_joint",
        "shoulder_lift_joint",
        "elbow_joint",
        "wrist_1_joint",
        "wrist_2_joint",
        "wrist_3_joint"
    ],
    "metrics": {
        "cart_traj_len": 0.3529368803197924,
        "distance_elbow_joint": 0.44940610205450704,
        "distance_shoulder_lift_joint": 0.23569630462394753,
        "distance_shoulder_pan_joint": 0.4589462518054802,
        "distance_wrist_1_joint": 0.2386987348469719,
        "distance_wrist_2_joint": 1.110200950113926,
        "distance_wrist_3_joint": 0.10067532412821523,
        "smoothness": 0.0,
        "time": 0.037020023,
        "traj_len": 1.6104731191712105,
        "weighted_distance": 2.0356507560950567
    },
    "planner": "PRM",
    "start": {
        "state": {
            "elbow_joint": 1.971548259319323,
            "shoulder_lift_joint": -1.1394851275133948,
            "shoulder_pan_joint": 0.1228115487234821,
            "wrist_1_joint": -0.7804723859257726,
            "wrist_2_joint": 0.12958671773740124,
            "wrist_3_joint": -3.192489227718131
        }
    },
    "waypoints": [
        {
            "positions": [
                0.1228115487234821,
                -1.1394851275133948,
                1.971548259319323,
                -0.7804723859257726,
                0.12958671773740124,
                -3.192489227718131
            ]
        },
        {
            "positions": [
                0.05724779846555636,
                -1.1731560281739588,
                2.0357491310413955,
                -0.8145722051896257,
                0.28818685346796213,
                -3.1781070385569574
            ]
        },
        {
            "positions": [
                -0.00831595179236938,
                -1.2068269288345226,
                2.099950002763468,
                -0.8486720244534789,
                0.446786989198523,
                -3.163724849395784
            ]
        },
        {
            "positions": [
                -0.07387970205029512,
                -1.2404978294950866,
                2.16415087448554,
                -0.882771843717332,
                0.6053871249290839,
                -3.1493426602346104
            ]
        },
        {
            "positions": [
                -0.13944345230822086,
                -1.2741687301556506,
                2.2283517462076126,
                -0.9168716629811852,
                0.7639872606596447,
                -3.1349604710734367
            ]
        },
        {
            "positions": [
                -0.20500720256614663,
                -1.3078396308162146,
                2.2925526179296853,
                -0.9509714822450382,
                0.9225873963902056,
                -3.120578281912263
            ]
        },
        {
            "positions": [
                -0.27057095282407234,
                -1.3415105314767783,
                2.3567534896517577,
                -0.9850713015088914,
                1.0811875321207665,
                -3.1061960927510897
            ]
        },
        {
            "positions": [
                -0.3361347030819981,
                -1.3751814321373423,
                2.42095436137383,
                -1.0191711207727445,
                1.2397876678513273,
                -3.091813903589916
            ]
        }
    ]
}{
    "goal": {
        "global_pose": {
            "orientation": {
                "w": 0.5084816217422485,
                "x": -0.49083608388900757,
                "y": 0.5182115435600281,
                "z": -0.4816462993621826
            },
            "position": {
                "x": 0.5540239810943604,
                "y": 0.030875300988554955,
                "z": 0.16403168439865112
            }
        },
        "name": "move_to_storage_A"
    },
    "id": "PRM_move_to_storage_A_129",
    "joint_names": [
        "shoulder_pan_joint",
        "shoulder_lift_joint",
        "elbow_joint",
        "wrist_1_joint",
        "wrist_2_joint",
        "wrist_3_joint"
    ],
    "metrics": {
        "cart_traj_len": 0.35279427420827186,
        "distance_elbow_joint": 0.4541336151388591,
        "distance_shoulder_lift_joint": 0.23296433917027626,
        "distance_shoulder_pan_joint": 0.45809727096295183,
        "distance_wrist_1_joint": 0.26293336714797766,
        "distance_wrist_2_joint": 1.1119036715742658,
        "distance_wrist_3_joint": 0.09318999388190674,
        "smoothness": 6.661338165333112e-16,
        "time": 0.024072644,
        "traj_len": 1.6165463983060422,
        "weighted_distance": 2.0431444599837514
    },
    "planner": "PRM",
    "start": {
        "state": {
            "elbow_joint": 1.97154746011099,
            "shoulder_lift_joint": -1.13948474672311,
            "shoulder_pan_joint": 0.12281154466712228,
            "wrist_1_joint": -0.7804688027058302,
            "wrist_2_joint": 0.12958655903071145,
            "wrist_3_joint": 3.0906928834467795
        }
    },
    "waypoints": [
        {
            "positions": [
                0.12281154466712228,
                -1.13948474672311,
                1.97154746011099,
                -0.7804688027058302,
                0.12958655903071145,
                3.0906928834467795
            ]
        },
        {
            "positions": [
                0.05736907738670059,
                -1.172765366604578,
                2.0364236908451128,
                -0.8180307122983984,
                0.288429940684178,
                3.1040057397156233
            ]
        },
        {
            "positions": [
                -0.008073389893721097,
                -1.206045986486046,
                2.101299921579235,
                -0.8555926218909666,
                0.4472733223376445,
                3.117318595984467
            ]
        },
        {
            "positions": [
                -0.07351585717414279,
                -1.2393266063675141,
                2.166176152313358,
                -0.8931545314835349,
                0.6061167039911111,
                3.130631452253311
            ]
        },
        {
            "positions": [
                -0.13895832445456446,
                -1.272607226248982,
                2.231052383047481,
                -0.9307164410761031,
                0.7649600856445776,
                3.143944308522155
            ]
        },
        {
            "positions": [
                -0.20440079173498615,
                -1.3058878461304502,
                2.2959286137816037,
                -0.9682783506686714,
                0.9238034672980442,
                3.1572571647909986
            ]
        },
        {
            "positions": [
                -0.26984325901540784,
                -1.339168466011918,
                2.360804844515726,
                -1.0058402602612395,
                1.0826468489515106,
                3.1705700210598424
            ]
        },
        {
            "positions": [
                -0.33528572629582953,
                -1.3724490858933862,
                2.425681075249849,
                -1.0434021698538078,
                1.2414902306049773,
                3.1838828773286862
            ]
        }
    ]
}{
    "goal": {
        "global_pose": {
            "orientation": {
                "w": 0.5084816217422485,
                "x": -0.49083608388900757,
                "y": 0.5182115435600281,
                "z": -0.4816462993621826
            },
            "position": {
                "x": 0.5540239810943604,
                "y": 0.030875300988554955,
                "z": 0.16403168439865112
            }
        },
        "name": "move_to_storage_A"
    },
    "id": "PRM_move_to_storage_A_129",
    "joint_names": [
        "shoulder_pan_joint",
        "shoulder_lift_joint",
        "elbow_joint",
        "wrist_1_joint",
        "wrist_2_joint",
        "wrist_3_joint"
    ],
    "metrics": {
        "cart_traj_len": 0.35311308797740226,
        "distance_elbow_joint": 0.45473072313696017,
        "distance_shoulder_lift_joint": 0.2338068360774772,
        "distance_shoulder_pan_joint": 0.4603934702379888,
        "distance_wrist_1_joint": 0.2617814458910672,
        "distance_wrist_2_joint": 1.1051111920389887,
        "distance_wrist_3_joint": 0.11121917678763449,
        "smoothness": 0.0,
        "time": 0.033550663,
        "traj_len": 1.620815487392108,
        "weighted_distance": 2.053381074149521
    },
    "planner": "PRM",
    "start": {
        "state": {
            "elbow_joint": 1.9715472970024885,
            "shoulder_lift_joint": -1.1394870060712896,
            "shoulder_pan_joint": 0.12281152778156021,
            "wrist_1_joint": -0.780463741449964,
            "wrist_2_joint": 0.12958659822042276,
            "wrist_3_joint": 3.090690232415272
        }
    },
    "waypoints": [
        {
            "positions": [
                0.12281152778156021,
                -1.1394870060712896,
                1.9715472970024885,
                -0.780463741449964,
                0.12958659822042276,
                3.090690232415272
            ]
        },
        {
            "positions": [
                0.057041032033276096,
                -1.1728879826537864,
                2.0365088288791973,
                -0.8178610908629736,
                0.28745962565456395,
                3.106578686242077
            ]
        },
        {
            "positions": [
                -0.008729463715008018,
                -1.206288959236283,
                2.1014703607559055,
                -0.8552584402759832,
                0.4453326530887052,
                3.1224671400688817
            ]
        },
        {
            "positions": [
                -0.07449995946329213,
                -1.2396899358187798,
                2.1664318926326143,
                -0.8926557896889928,
                0.6032056805228464,
                3.1383555938956866
            ]
        },
        {
            "positions": [
                -0.14027045521157624,
                -1.2730909124012766,
                2.231393424509323,
                -0.9300531391020024,
                0.7610787079569876,
                3.1542440477224916
            ]
        },
        {
            "positions": [
                -0.20604095095986039,
                -1.3064918889837733,
                2.2963549563860317,
                -0.967450488515012,
                0.918951735391129,
                3.1701325015492965
            ]
        },
        {
            "positions": [
                -0.2718114467081445,
                -1.33989286556627,
                2.36131648826274,
                -1.0048478379280217,
                1.07682476282527,
                3.1860209553761014
            ]
        },
        {
            "positions": [
                -0.3375819424564286,
                -1.3732938421487668,
                2.4262780201394487,
                -1.0422451873410312,
                1.2346977902594114,
                3.2019094092029063
            ]
        }
    ]
}