{
    "goal": {
        "global_pose": {
            "orientation": {
                "w": 0.5084816217422485,
                "x": -0.49083608388900757,
                "y": 0.5182115435600281,
                "z": -0.4816462993621826
            },
            "position": {
                "x": 0.5540239810943604,
                "y": 0.030875300988554955,
                "z": 0.16403168439865112
            }
        },
        "name": "move_to_storage_A"
    },
    "id": "PRM_move_to_storage_A_82",
    "joint_names": [
        "shoulder_pan_joint",
        "shoulder_lift_joint",
        "elbow_joint",
        "wrist_1_joint",
        "wrist_2_joint",
        "wrist_3_joint"
    ],
    "metrics": {
        "cart_traj_len": 0.35259348346227426,
        "distance_elbow_joint": 0.4508985630911331,
        "distance_shoulder_lift_joint": 0.2321265050296688,
        "distance_shoulder_pan_joint": 0.4590293522662719,
        "distance_wrist_1_joint": 0.25300751973232705,
        "distance_wrist_2_joint": 1.105399832598937,
        "distance_wrist_3_joint": 0.09543159662616585,
        "smoothness": 0.0,
        "time": 0.037914276999999996,
        "traj_len": 1.6111776343235726,
        "weighted_distance": 2.0359675623467335
    },
    "planner": "PRM",
    "start": {
        "state": {
            "elbow_joint": 1.971548259319323,
            "shoulder_lift_joint": -1.1394851275133948,
            "shoulder_pan_joint": 0.1228115487234821,
            "wrist_1_joint": -0.7804723859257726,
            "wrist_2_joint": 0.12958671773740124,
            "wrist_3_joint": -3.192489227718131
        }
    },
    "waypoints": [
        {
            "positions": [
                0.1228115487234821,
                -1.1394851275133948,
                1.971548259319323,
                -0.7804723859257726,
                0.12958671773740124,
                -3.192489227718131
            ]
        },
        {
            "positions": [
                0.05723592697115755,
                -1.1726460568033474,
                2.0359623397609132,
                -0.8166163173161051,
                0.2875009795372494,
                -3.178856142485822
            ]
        },
        {
            "positions": [
                -0.008339694781167,
                -1.2058069860933003,
                2.1003764202025037,
                -0.8527602487064375,
                0.44541524133709753,
                -3.1652230572535123
            ]
        },
        {
            "positions": [
                -0.07391531653349157,
                -1.238967915383253,
                2.164790500644094,
                -0.8889041800967699,
                0.6033295031369457,
                -3.151589972021203
            ]
        },
        {
            "positions": [
                -0.1394909382858161,
                -1.2721288446732055,
                2.2292045810856846,
                -0.9250481114871023,
                0.7612437649367938,
                -3.1379568867888934
            ]
        },
        {
            "positions": [
                -0.20506656003814067,
                -1.3052897739631582,
                2.293618661527275,
                -0.9611920428774348,
                0.9191580267366419,
                -3.124323801556584
            ]
        },
        {
            "positions": [
                -0.27064218179046523,
                -1.338450703253111,
                2.3580327419688656,
                -0.9973359742677672,
                1.07707228853649,
                -3.1106907163242745
            ]
        },
        {
            "positions": [
                -0.3362178035427898,
                -1.3716116325430636,
                2.422446822410456,
                -1.0334799056580997,
                1.2349865503363382,
                -3.0970576310919653
            ]
        }
    ]
}{
    "goal": {
        "global_pose": {
            "orientation": {
                "w": 0.5084816217422485,
                "x": -0.49083608388900757,
                "y": 0.5182115435600281,
                "z": -0.4816462993621826
            },
            "position": {
                "x": 0.5540239810943604,
                "y": 0.030875300988554955,
                "z": 0.16403168439865112
            }
        },
        "name": "move_to_storage_A"
    },
    "id": "PRM_move_to_storage_A_82",
    "joint_names": [
        "shoulder_pan_joint",
        "shoulder_lift_joint",
        "elbow_joint",
        "wrist_1_joint",
        "wrist_2_joint",
        "wrist_3_joint"
    ],
    "metrics": {
        "cart_traj_len": 0.3536959820983549,
        "distance_elbow_joint": 0.4534504595193183,
        "distance_shoulder_lift_joint": 0.23365138806206254,
        "distance_shoulder_pan_joint": 0.4615244821339168,
        "distance_wrist_1_joint": 0.2550624304954312,
        "distance_wrist_2_joint": 1.1045624930370634,
        "distance_wrist_3_joint": 0.09928344543695511,
        "smoothness": 1.3322676295501878e-15,
        "time": 0.016189603,
        "traj_len": 1.6147862702799858,
        "weighted_distance": 2.0410111496734045
    },
    "planner": "PRM",
    "start": {
        "state": {
            "elbow_joint": 1.97154746011099,
            "shoulder_lift_joint": -1.13948474672311,
            "shoulder_pan_joint": 0.12281154466712228,
            "wrist_1_joint": -0.7804688027058302,
            "wrist_2_joint": 0.12958655903071145,
            "wrist_3_joint": 3.0906928834467795
        }
    },
    "waypoints": [
        {
            "positions": [
                0.12281154466712228,
                -1.13948474672311,
                1.97154746011099,
                -0.7804688027058302,
                0.12958655903071145,
                3.0906928834467795
            ]
        },
        {
            "positions": [
                0.056879475790848455,
                -1.1728635164462617,
                2.0363260971851784,
                -0.8169062927766061,
                0.2873812008931491,
                3.1048762327949158
            ]
        },
        {
            "positions": [
                -0.009052593085425373,
                -1.2062422861694135,
                2.1011047342593665,
                -0.853343782847382,
                0.44517584275558675,
                3.1190595821430525
            ]
        },
        {
            "positions": [
                -0.07498466196169919,
                -1.2396210558925653,
                2.165883371333555,
                -0.8897812729181578,
                0.6029704846180244,
                3.1332429314911887
            ]
        },
        {
            "positions": [
                -0.14091673083797301,
                -1.2729998256157171,
                2.230662008407743,
                -0.9262187629889337,
                0.760765126480462,
                3.1474262808393254
            ]
        },
        {
            "positions": [
                -0.20684879971424686,
                -1.306378595338869,
                2.2954406454819316,
                -0.9626562530597096,
                0.9185597683428997,
                3.1616096301874617
            ]
        },
        {
            "positions": [
                -0.27278086859052064,
                -1.3397573650620207,
                2.3602192825561197,
                -0.9990937431304855,
                1.0763544102053373,
                3.1757929795355984
            ]
        },
        {
            "positions": [
                -0.3387129374667945,
                -1.3731361347851725,
                2.424997919630308,
                -1.0355312332012614,
                1.234149052067775,
                3.1899763288837346
            ]
        }
    ]
}{
    "goal": {
        "global_pose": {
            "orientation": {
                "w": 0.5084816217422485,
                "x": -0.49083608388900757,
                "y": 0.5182115435600281,
                "z": -0.4816462993621826
            },
            "position": {
                "x": 0.5540239810943604,
                "y": 0.030875300988554955,
                "z": 0.16403168439865112
            }
        },
        "name": "move_to_storage_A"
    },
    "id": "PRM_move_to_storage_A_82",
    "joint_names": [
        "shoulder_pan_joint",
        "shoulder_lift_joint",
        "elbow_joint",
        "wrist_1_joint",
        "wrist_2_joint",
        "wrist_3_joint"
    ],
    "metrics": {
        "cart_traj_len": 0.35352509105450236,
        "distance_elbow_joint": 0.4499404562041467,
        "distance_shoulder_lift_joint": 0.23597676139969903,
        "distance_shoulder_pan_joint": 0.46290034887344994,
        "distance_wrist_1_joint": 0.24070886184244578,
        "distance_wrist_2_joint": 1.0977312351693145,
        "distance_wrist_3_joint": 0.09512465996802977,
        "smoothness": 2.2204460668324854e-16,
        "time": 0.032914748,
        "traj_len": 1.60697925420868,
        "weighted_distance": 2.0275778013198176
    },
    "planner": "PRM",
    "start": {
        "state": {
            "elbow_joint": 1.9715472970024885,
            "shoulder_lift_joint": -1.1394870060712896,
            "shoulder_pan_joint": 0.12281152778156021,
            "wrist_1_joint": -0.780463741449964,
            "wrist_2_joint": 0.12958659822042276,
            "wrist_3_joint": 3.090690232415272
        }
    },
    "waypoints": [
        {
            "positions": [
                0.12281152778156021,
                -1.1394870060712896,
                1.9715472970024885,
                -0.780463741449964,
                0.12958659822042276,
                3.090690232415272
            ]
        },
        {
            "positions": [
                0.05668290651392452,
                -1.1731979719855323,
                2.0358245050316524,
                -0.8148507217131705,
                0.2864053461017534,
                3.104279469553562
            ]
        },
        {
            "positions": [
                -0.00944571475371117,
                -1.206908937899775,
                2.100101713060816,
                -0.849237701976377,
                0.44322409398308404,
                3.117868706691852
            ]
        },
        {
            "positions": [
                -0.07557433602134686,
                -1.2406199038140178,
                2.16437892108998,
                -0.8836246822395836,
                0.6000428418644147,
                3.1314579438301418
            ]
        },
        {
            "positions": [
                -0.14170295728898255,
                -1.2743308697282605,
                2.228656129119144,
                -0.9180116625027901,
                0.7568615897457452,
                3.1450471809684317
            ]
        },
        {
            "positions": [
                -0.2078315785566183,
                -1.3080418356425032,
                2.2929333371483076,
                -0.9523986427659967,
                0.9136803376270759,
                3.1586364181067217
            ]
        },
        {
            "positions": [
                -0.2739601998242539,
                -1.341752801556746,
                2.3572105451774714,
                -0.9867856230292033,
                1.0704990855084067,
                3.1722256552450117
            ]
        },
        {
            "positions": [
                -0.3400888210918897,
                -1.3754637674709886,
                2.4214877532066352,
                -1.0211726032924098,
                1.2273178333897372,
                3.1858148923833016
            ]
        }
    ]
}