{
    "goal": {
        "global_pose": {
            "orientation": {
                "w": 0.005598929693374612,
                "x": 0.007748599140229565,
                "y": 0.7110244013736278,
                "z": -0.7031023480610252
            },
            "position": {
                "x": 0.1141497679147869,
                "y": -0.7141253447532654,
                "z": 0.3711530566215515
            }
        },
        "name": "move_to_auspresseinheit_B"
    },
    "id": "PRM_move_to_auspresseinheit_B_46",
    "joint_names": [
        "shoulder_pan_joint",
        "shoulder_lift_joint",
        "elbow_joint",
        "wrist_1_joint",
        "wrist_2_joint",
        "wrist_3_joint"
    ],
    "metrics": {
        "cart_traj_len": 0.5655169040129802,
        "distance_elbow_joint": 0.06287289070369995,
        "distance_shoulder_lift_joint": 0.294926079786044,
        "distance_shoulder_pan_joint": 0.5761014198385725,
        "distance_wrist_1_joint": 0.326683990559792,
        "distance_wrist_2_joint": 1.0048063752727154,
        "distance_wrist_3_joint": 0.007169931593538514,
        "smoothness": 0.0,
        "time": 0.017396652999999998,
        "traj_len": 1.5075014718912758,
        "weighted_distance": 1.9022068543599426
    },
    "planner": "PRM",
    "start": {
        "state": {
            "elbow_joint": 2.0193083361928714,
            "shoulder_lift_joint": -1.1220246554650708,
            "shoulder_pan_joint": -1.0952077554168747,
            "wrist_1_joint": -0.8559753972642168,
            "wrist_2_joint": 0.4759566250798843,
            "wrist_3_joint": -3.1240929996934557
        }
    },
    "waypoints": [
        {
            "positions": [
                -1.0952077554168747,
                -1.1220246554650708,
                2.0193083361928714,
                -0.8559753972642168,
                0.4759566250798843,
                -3.1240929996934557
            ]
        },
        {
            "positions": [
                -1.1912246587233035,
                -1.1711790020960782,
                2.008829521075588,
                -0.8015280655042515,
                0.6434243542920035,
                -3.1252879882923787
            ]
        },
        {
            "positions": [
                -1.2872415620297322,
                -1.2203333487270855,
                1.9983507059583048,
                -0.7470807337442861,
                0.8108920835041227,
                -3.126482976891302
            ]
        },
        {
            "positions": [
                -1.3832584653361608,
                -1.2694876953580927,
                1.9878718908410216,
                -0.6926334019843208,
                0.9783598127162421,
                -3.127677965490225
            ]
        },
        {
            "positions": [
                -1.4792753686425897,
                -1.3186420419891,
                1.9773930757237381,
                -0.6381860702243555,
                1.1458275419283612,
                -3.128872954089148
            ]
        },
        {
            "positions": [
                -1.5752922719490186,
                -1.3677963886201074,
                1.9669142606064547,
                -0.5837387384643901,
                1.3132952711404806,
                -3.130067942688071
            ]
        },
        {
            "positions": [
                -1.6713091752554472,
                -1.4169507352511148,
                1.9564354454891715,
                -0.5292914067044248,
                1.4807630003525998,
                -3.131262931286994
            ]
        }
    ]
}