{
    "goal": {
        "global_pose": {
            "orientation": {
                "w": 0.5084816262002911,
                "x": -0.4908360881923452,
                "y": 0.5182115481033761,
                "z": -0.48164630358495003
            },
            "position": {
                "x": 0.5540239810943604,
                "y": -0.46912469901144505,
                "z": 0.16403168439865112
            }
        },
        "name": "move_to_storage_B"
    },
    "id": "PRM_move_to_storage_B_6",
    "joint_names": [
        "shoulder_pan_joint",
        "shoulder_lift_joint",
        "elbow_joint",
        "wrist_1_joint",
        "wrist_2_joint",
        "wrist_3_joint"
    ],
    "metrics": {
        "cart_traj_len": 1.7824858252381517,
        "distance_elbow_joint": 0.3491867651334477,
        "distance_shoulder_lift_joint": 1.2234783565278256,
        "distance_shoulder_pan_joint": 1.5917249063588583,
        "distance_wrist_1_joint": 2.978711581528928,
        "distance_wrist_2_joint": 2.707125265917823,
        "distance_wrist_3_joint": 3.1459679984287705,
        "smoothness": 0.1832121813881142,
        "time": 0.39159021,
        "traj_len": 3.463552348946909,
        "weighted_distance": 4.896321856067056
    },
    "planner": "PRM",
    "start": {
        "state": {
            "elbow_joint": 1.664937868594044,
            "shoulder_lift_joint": -0.661644460510453,
            "shoulder_pan_joint": -0.9139846352900073,
            "wrist_1_joint": 2.146753192139373,
            "wrist_2_joint": -2.2341966793290973,
            "wrist_3_joint": 0.005466555786416001
        }
    },
    "waypoints": [
        {
            "positions": [
                -0.9139846352900073,
                -0.661644460510453,
                1.664937868594044,
                2.146753192139373,
                -2.2341966793290973,
                0.005466555786416001
            ]
        },
        {
            "positions": [
                -0.8725065236393925,
                -0.711153270205628,
                1.6814677239242486,
                2.071663055179627,
                -2.0922567665868623,
                -0.05738220932360498
            ]
        },
        {
            "positions": [
                -0.8310284119887777,
                -0.7606620799008029,
                1.697997579254453,
                1.9965729182198806,
                -1.9503168538446272,
                -0.12023097443362596
            ]
        },
        {
            "positions": [
                -0.789550300338163,
                -0.8101708895959779,
                1.7145274345846577,
                1.9214827812601345,
                -1.808376941102392,
                -0.18307973954364692
            ]
        },
        {
            "positions": [
                -0.7480721886875482,
                -0.8596796992911528,
                1.7310572899148624,
                1.8463926443003882,
                -1.666437028360157,
                -0.24592850465366792
            ]
        },
        {
            "positions": [
                -0.7065940770369334,
                -0.9091885089863279,
                1.7475871452450669,
                1.7713025073406419,
                -1.524497115617922,
                -0.30877726976368886
            ]
        },
        {
            "positions": [
                -0.6651159653863187,
                -0.9586973186815029,
                1.7641170005752715,
                1.6962123703808956,
                -1.3825572028756867,
                -0.3716260348737098
            ]
        },
        {
            "positions": [
                -0.6236378537357039,
                -1.0082061283766777,
                1.7806468559054762,
                1.6211222334211495,
                -1.2406172901334518,
                -0.4344747999837308
            ]
        },
        {
            "positions": [
                -0.5821597420850892,
                -1.0577149380718527,
                1.7971767112356807,
                1.5460320964614032,
                -1.0986773773912166,
                -0.4973235650937518
            ]
        },
        {
            "positions": [
                -0.5406816304344744,
                -1.1072237477670277,
                1.8137065665658854,
                1.4709419595016568,
                -0.9567374646489817,
                -0.5601723302037728
            ]
        },
        {
            "positions": [
                -0.49920351878385966,
                -1.1567325574622027,
                1.8302364218960898,
                1.3958518225419105,
                -0.8147975519067465,
                -0.6230210953137938
            ]
        },
        {
            "positions": [
                -0.4577254071332449,
                -1.2062413671573777,
                1.8467662772262945,
                1.3207616855821644,
                -0.6728576391645114,
                -0.6858698604238148
            ]
        },
        {
            "positions": [
                -0.4162472954826301,
                -1.2557501768525525,
                1.8632961325564992,
                1.245671548622418,
                -0.5309177264222762,
                -0.7487186255338357
            ]
        },
        {
            "positions": [
                -0.3747691838320154,
                -1.3052589865477273,
                1.8798259878867036,
                1.1705814116626718,
                -0.3889778136800415,
                -0.8115673906438566
            ]
        },
        {
            "positions": [
                -0.33329107218140064,
                -1.3547677962429026,
                1.8963558432169083,
                1.0954912747029257,
                -0.2470379009378063,
                -0.8744161557538777
            ]
        },
        {
            "positions": [
                -0.29181296053078587,
                -1.4042766059380773,
                1.912885698547113,
                1.0204011377431794,
                -0.10509798819557137,
                -0.9372649208638987
            ]
        },
        {
            "positions": [
                -0.2503348488801711,
                -1.4537854156332524,
                1.9294155538773174,
                0.9453110007834331,
                0.03684192454666402,
                -1.0001136859739197
            ]
        },
        {
            "positions": [
                -0.2088567372295563,
                -1.5032942253284274,
                1.9459454092075221,
                0.8702208638236868,
                0.17878183728889893,
                -1.0629624510839406
            ]
        },
        {
            "positions": [
                -0.2721850949651568,
                -1.4760207544920094,
                1.9508153538160913,
                0.7486366314513124,
                0.19979231938174383,
                -1.211358093338113
            ]
        },
        {
            "positions": [
                -0.33551345270075733,
                -1.4487472836555915,
                1.9556852984246607,
                0.6270523990789381,
                0.2208028014745887,
                -1.3597537355922853
            ]
        },
        {
            "positions": [
                -0.39884181043635786,
                -1.4214738128191735,
                1.9605552430332298,
                0.5054681667065637,
                0.2418132835674336,
                -1.5081493778464579
            ]
        },
        {
            "positions": [
                -0.46217016817195833,
                -1.3942003419827556,
                1.9654251876417992,
                0.38388393433418927,
                0.2628237656602785,
                -1.6565450201006302
            ]
        },
        {
            "positions": [
                -0.5254985259075589,
                -1.3669268711463376,
                1.9702951322503683,
                0.26229970196181485,
                0.2838342477531234,
                -1.8049406623548028
            ]
        },
        {
            "positions": [
                -0.5888268836431594,
                -1.3396534003099196,
                1.9751650768589377,
                0.1407154695894406,
                0.3048447298459682,
                -1.9533363046089751
            ]
        },
        {
            "positions": [
                -0.6521552413787599,
                -1.3123799294735017,
                1.9800350214675069,
                0.01913123721706611,
                0.32585521193881317,
                -2.1017319468631475
            ]
        },
        {
            "positions": [
                -0.7154835991143604,
                -1.285106458637084,
                1.984904966076076,
                -0.10245299515530826,
                0.346865694031658,
                -2.25012758911732
            ]
        },
        {
            "positions": [
                -0.7788119568499611,
                -1.2578329878006658,
                1.9897749106846454,
                -0.22403722752768274,
                0.36787617612450296,
                -2.3985232313714926
            ]
        },
        {
            "positions": [
                -0.8421403145855615,
                -1.230559516964248,
                1.9946448552932146,
                -0.3456214599000571,
                0.3888866582173478,
                -2.546918873625665
            ]
        },
        {
            "positions": [
                -0.905468672321162,
                -1.20328604612783,
                1.999514799901784,
                -0.46720569227243147,
                0.4098971403101927,
                -2.6953145158798373
            ]
        },
        {
            "positions": [
                -0.9687970300567625,
                -1.1760125752914121,
                2.0043847445103533,
                -0.5887899246448056,
                0.4309076224030376,
                -2.8437101581340096
            ]
        },
        {
            "positions": [
                -1.032125387792363,
                -1.1487391044549942,
                2.0092546891189222,
                -0.7103741570171802,
                0.45191810449588243,
                -2.992105800388182
            ]
        },
        {
            "positions": [
                -1.0954537455279636,
                -1.1214656336185762,
                2.0141246337274916,
                -0.8319583893895546,
                0.47292858658872733,
                -3.1405014426423543
            ]
        }
    ]
}