{
    "goal": {
        "global_pose": {
            "orientation": {
                "w": 0.7047431493862688,
                "x": -0.7094548369677653,
                "y": 0.0024358444001904,
                "z": -0.0022348060817251984
            },
            "position": {
                "x": -0.39052492380142206,
                "y": 0.3671506643295288,
                "z": 0.19426114857196808
            }
        },
        "name": "move_to_magneteinheit_D"
    },
    "id": "PRM_move_to_magneteinheit_D_130",
    "joint_names": [
        "shoulder_pan_joint",
        "shoulder_lift_joint",
        "elbow_joint",
        "wrist_1_joint",
        "wrist_2_joint",
        "wrist_3_joint"
    ],
    "metrics": {
        "cart_traj_len": 4.810047165181114,
        "distance_elbow_joint": 3.1124066845580196,
        "distance_shoulder_lift_joint": 1.47246520598596,
        "distance_shoulder_pan_joint": 4.7701209705236,
        "distance_wrist_1_joint": 2.11438597971961,
        "distance_wrist_2_joint": 3.9165700823483154,
        "distance_wrist_3_joint": 6.292243358528161,
        "smoothness": 0.3005056736026439,
        "time": 0.261982469,
        "traj_len": 4.655984566304282,
        "weighted_distance": 6.3477267632427194
    },
    "planner": "PRM",
    "start": {
        "state": {
            "elbow_joint": 0.749534889911806,
            "shoulder_lift_joint": -0.6476975780787326,
            "shoulder_pan_joint": -2.711696901376241,
            "wrist_1_joint": -0.07506478083263063,
            "wrist_2_joint": 0.43296659715538205,
            "wrist_3_joint": -3.14703540197715
        }
    },
    "waypoints": [
        {
            "positions": [
                -2.711696901376241,
                -0.6476975780787326,
                0.749534889911806,
                -0.07506478083263063,
                0.43296659715538205,
                -3.14703540197715
            ]
        },
        {
            "positions": [
                -2.7095016393134035,
                -0.6616634386517779,
                0.7160641135326162,
                -0.06692760924612563,
                0.4450401916432558,
                -3.143878915012308
            ]
        },
        {
            "positions": [
                -2.6970256593887587,
                -0.6961940621879292,
                0.6196094782701242,
                -0.07121049098991702,
                0.47747090630092975,
                -3.1039841149714125
            ]
        },
        {
            "positions": [
                -2.684549679464114,
                -0.7307246857240804,
                0.5231548430076322,
                -0.07549337273370843,
                0.5099016209586037,
                -3.0640893149305173
            ]
        },
        {
            "positions": [
                -2.642356041866555,
                -0.7659766671187682,
                0.4200621983261488,
                -0.14159914595023793,
                0.5335794613991088,
                -2.938648066739474
            ]
        },
        {
            "positions": [
                -2.6001624042689966,
                -0.801228648513456,
                0.3169695536446654,
                -0.20770491916676742,
                0.5572573018396141,
                -2.8132068185484314
            ]
        },
        {
            "positions": [
                -2.5579687666714377,
                -0.8364806299081438,
                0.21387690896318207,
                -0.2738106923832969,
                0.5809351422801192,
                -2.6877655703573886
            ]
        },
        {
            "positions": [
                -2.5157751290738792,
                -0.8717326113028316,
                0.11078426428169869,
                -0.3399164655998264,
                0.6046129827206244,
                -2.5623243221663454
            ]
        },
        {
            "positions": [
                -2.4735814914763203,
                -0.9069845926975193,
                0.00769161960021536,
                -0.4060222388163559,
                0.6282908231611296,
                -2.4368830739753022
            ]
        },
        {
            "positions": [
                -2.4313878538787614,
                -0.9422365740922072,
                -0.09540102508126802,
                -0.4721280120328854,
                0.6519686636016347,
                -2.3114418257842595
            ]
        },
        {
            "positions": [
                -2.389194216281203,
                -0.977488555486895,
                -0.1984936697627514,
                -0.5382337852494149,
                0.67564650404214,
                -2.1860005775932168
            ]
        },
        {
            "positions": [
                -2.347000578683644,
                -1.0127405368815827,
                -0.3015863144442348,
                -0.6043395584659444,
                0.6993243444826451,
                -2.0605593294021736
            ]
        },
        {
            "positions": [
                -2.2475250320532076,
                -1.007035575172972,
                -0.32505247261666453,
                -0.6450186154562295,
                0.6306397939038555,
                -1.9107322891789906
            ]
        },
        {
            "positions": [
                -2.148049485422771,
                -1.0013306134643611,
                -0.34851863078909434,
                -0.6856976724465146,
                0.5619552433250659,
                -1.760905248955808
            ]
        },
        {
            "positions": [
                -2.0485739387923343,
                -0.9956256517557505,
                -0.3719847889615241,
                -0.7263767294367997,
                0.4932706927462762,
                -1.611078208732625
            ]
        },
        {
            "positions": [
                -1.9490983921618978,
                -0.9899206900471398,
                -0.3954509471339539,
                -0.7670557864270847,
                0.4245861421674865,
                -1.4612511685094423
            ]
        },
        {
            "positions": [
                -1.8496228455314614,
                -0.984215728338529,
                -0.41891710530638365,
                -0.8077348434173698,
                0.3559015915886969,
                -1.3114241282862593
            ]
        },
        {
            "positions": [
                -1.750147298901025,
                -0.9785107666299182,
                -0.4423832634788134,
                -0.848413900407655,
                0.28721704100990725,
                -1.1615970880630764
            ]
        },
        {
            "positions": [
                -1.6506717522705883,
                -0.9728058049213075,
                -0.4658494216512432,
                -0.88909295739794,
                0.2185324904311176,
                -1.0117700478398937
            ]
        },
        {
            "positions": [
                -1.5511962056401516,
                -0.9671008432126967,
                -0.48931557982367296,
                -0.9297720143882251,
                0.14984793985232792,
                -0.8619430076167107
            ]
        },
        {
            "positions": [
                -1.4517206590097151,
                -0.9613958815040861,
                -0.5127817379961027,
                -0.9704510713785102,
                0.08116338927353839,
                -0.7121159673935282
            ]
        },
        {
            "positions": [
                -1.3522451123792787,
                -0.9556909197954753,
                -0.5362478961685325,
                -1.0111301283687952,
                0.01247883869474864,
                -0.5622889271703451
            ]
        },
        {
            "positions": [
                -1.2527695657488422,
                -0.9499859580868645,
                -0.5597140543409622,
                -1.0518091853590803,
                -0.05620571188404089,
                -0.41246188694716235
            ]
        },
        {
            "positions": [
                -1.1532940191184056,
                -0.9442809963782538,
                -0.583180212513392,
                -1.0924882423493654,
                -0.12489026246283064,
                -0.2626348467239794
            ]
        },
        {
            "positions": [
                -1.0538184724879691,
                -0.938576034669643,
                -0.6066463706858218,
                -1.1331672993396504,
                -0.19357481304162016,
                -0.11280780650079669
            ]
        },
        {
            "positions": [
                -0.9543429258575324,
                -0.9328710729610323,
                -0.6301125288582516,
                -1.1738463563299355,
                -0.2622593636204099,
                0.03701923372238625
            ]
        },
        {
            "positions": [
                -0.854867379227096,
                -0.9271661112524215,
                -0.6535786870306814,
                -1.2145254133202206,
                -0.33094391419919944,
                0.18684627394556896
            ]
        },
        {
            "positions": [
                -0.7553918325966593,
                -0.9214611495438108,
                -0.6770448452031111,
                -1.2552044703105056,
                -0.3996284647779893,
                0.3366733141687521
            ]
        },
        {
            "positions": [
                -0.6559162859662229,
                -0.9157561878352001,
                -0.700511003375541,
                -1.2958835273007907,
                -0.4683130153567787,
                0.4865003543919344
            ]
        },
        {
            "positions": [
                -0.5564407393357864,
                -0.9100512261265893,
                -0.7239771615479706,
                -1.3365625842910758,
                -0.5369975659355684,
                0.6363273946151171
            ]
        },
        {
            "positions": [
                -0.4569651927053495,
                -0.9043462644179785,
                -0.7474433197204005,
                -1.377241641281361,
                -0.6056821165143582,
                0.7861544348383007
            ]
        },
        {
            "positions": [
                -0.35748964607491307,
                -0.8986413027093678,
                -0.7709094778928303,
                -1.417920698271646,
                -0.6743666670931479,
                0.9359814750614834
            ]
        },
        {
            "positions": [
                -0.25801409944447684,
                -0.892936341000757,
                -0.7943756360652601,
                -1.458599755261931,
                -0.7430512176719375,
                1.0858085152846662
            ]
        },
        {
            "positions": [
                -0.1585385528140404,
                -0.8872313792921463,
                -0.8178417942376898,
                -1.499278812252216,
                -0.8117357682507269,
                1.2356355555078489
            ]
        },
        {
            "positions": [
                -0.059063006183603495,
                -0.8815264175835356,
                -0.8413079524101196,
                -1.5399578692425013,
                -0.8804203188295168,
                1.385462595731032
            ]
        },
        {
            "positions": [
                0.040412540446832956,
                -0.8758214558749249,
                -0.8647741105825494,
                -1.5806369262327862,
                -0.9491048694083064,
                1.5352896359542147
            ]
        },
        {
            "positions": [
                0.1398880870772694,
                -0.8701164941663141,
                -0.8882402687549791,
                -1.6213159832230715,
                -1.017789419987096,
                1.6851166761773975
            ]
        },
        {
            "positions": [
                0.23936363370770586,
                -0.8644115324577033,
                -0.9117064269274089,
                -1.6619950402133563,
                -1.0864739705658855,
                1.8349437164005802
            ]
        },
        {
            "positions": [
                0.33883918033814275,
                -0.8587065707490926,
                -0.9351725850998387,
                -1.7026740972036416,
                -1.1551585211446753,
                1.984770756623763
            ]
        },
        {
            "positions": [
                0.4383147269685792,
                -0.8530016090404818,
                -0.9586387432722685,
                -1.7433531541939264,
                -1.223843071723465,
                2.134597796846946
            ]
        },
        {
            "positions": [
                0.5377902735990157,
                -0.847296647331871,
                -0.9821049014446982,
                -1.7840322111842117,
                -1.2925276223022546,
                2.2844248370701283
            ]
        },
        {
            "positions": [
                0.6372658202294521,
                -0.8415916856232604,
                -1.005571059617128,
                -1.8247112681744966,
                -1.361212172881044,
                2.4342518772933115
            ]
        },
        {
            "positions": [
                0.736741366859889,
                -0.8358867239146496,
                -1.0290372177895577,
                -1.8653903251647819,
                -1.4298967234598339,
                2.5840789175164947
            ]
        },
        {
            "positions": [
                0.8362169134903255,
                -0.8301817622060388,
                -1.0525033759619875,
                -1.9060693821550667,
                -1.4985812740386237,
                2.733905957739678
            ]
        },
        {
            "positions": [
                0.9356924601207619,
                -0.8244768004974281,
                -1.0759695341344173,
                -1.9467484391453518,
                -1.5672658246174134,
                2.88373299796286
            ]
        },
        {
            "positions": [
                0.8554973451902907,
                -0.8901309798402106,
                -1.1678911241709742,
                -1.9629218661620573,
                -1.4684356699087708,
                2.902409780719157
            ]
        },
        {
            "positions": [
                0.7753022302598196,
                -0.9557851591829931,
                -1.259812714207531,
                -1.979095293178763,
                -1.3696055152001285,
                2.9210865634754537
            ]
        },
        {
            "positions": [
                0.6951071153293484,
                -1.0214393385257756,
                -1.3517343042440877,
                -1.9952687201954686,
                -1.270775360491486,
                2.9397633462317505
            ]
        },
        {
            "positions": [
                0.6149120003988773,
                -1.0870935178685581,
                -1.4436558942806446,
                -2.011442147212174,
                -1.1719452057828437,
                2.9584401289880473
            ]
        },
        {
            "positions": [
                0.534716885468406,
                -1.1527476972113408,
                -1.5355774843172014,
                -2.02761557422888,
                -1.0731150510742011,
                2.977116911744344
            ]
        },
        {
            "positions": [
                0.4545217705379349,
                -1.2184018765541231,
                -1.6274990743537583,
                -2.0437890012455857,
                -0.9742848963655587,
                2.995793694500641
            ]
        },
        {
            "positions": [
                0.3743266556074637,
                -1.2840560558969059,
                -1.7194206643903152,
                -2.059962428262291,
                -0.8754547416569163,
                3.0144704772569373
            ]
        },
        {
            "positions": [
                0.29413154067699254,
                -1.3497102352396881,
                -1.8113422544268718,
                -2.076135855278997,
                -0.7766245869482739,
                3.033147260013234
            ]
        },
        {
            "positions": [
                0.21393642574652127,
                -1.4153644145824709,
                -1.9032638444634289,
                -2.0923092822957026,
                -0.6777944322396313,
                3.051824042769531
            ]
        },
        {
            "positions": [
                0.13374131081605012,
                -1.4810185939252534,
                -1.9951854344999855,
                -2.108482709312408,
                -0.5789642775309889,
                3.0705008255258277
            ]
        },
        {
            "positions": [
                0.05354619588557907,
                -1.5466727732680359,
                -2.087107024536542,
                -2.1246561363291137,
                -0.4801341228223466,
                3.0891776082821245
            ]
        },
        {
            "positions": [
                -0.026648919044892083,
                -1.6123269526108182,
                -2.1790286145730993,
                -2.1408295633458194,
                -0.38130396811370404,
                3.1078543910384213
            ]
        },
        {
            "positions": [
                -0.10684403397536335,
                -1.6779811319536009,
                -2.2709502046096564,
                -2.1570029903625247,
                -0.2824738134050615,
                3.126531173794718
            ]
        },
        {
            "positions": [
                -0.18703914890583453,
                -1.7436353112963834,
                -2.362871794646213,
                -2.1731764173792305,
                -0.18364365869641924,
                3.145207956551015
            ]
        }
    ]
}