{
    "goal": {
        "global_pose": {
            "orientation": {
                "w": -0.00223480608172531,
                "x": 0.0024358444001904467,
                "y": 0.7094548369677653,
                "z": -0.704743149386269
            },
            "position": {
                "x": -0.37947507619857795,
                "y": -0.6371506643295288,
                "z": 0.19426114857196808
            }
        },
        "name": "move_to_magneteinheit_C"
    },
    "id": "PRM_move_to_magneteinheit_C_86",
    "joint_names": [
        "shoulder_pan_joint",
        "shoulder_lift_joint",
        "elbow_joint",
        "wrist_1_joint",
        "wrist_2_joint",
        "wrist_3_joint"
    ],
    "metrics": {
        "cart_traj_len": 3.847727452159936,
        "distance_elbow_joint": 0.43043953435674265,
        "distance_shoulder_lift_joint": 1.0587555788260556,
        "distance_shoulder_pan_joint": 5.247627505103779,
        "distance_wrist_1_joint": 0.29482716717343305,
        "distance_wrist_2_joint": 3.6045369271084544,
        "distance_wrist_3_joint": 3.3666545225302484,
        "smoothness": 0.8655253227622424,
        "time": 0.07959102800000001,
        "traj_len": 3.742037043523048,
        "weighted_distance": 4.963417610320644
    },
    "planner": "PRM",
    "start": {
        "state": {
            "elbow_joint": 1.9565354010623817,
            "shoulder_lift_joint": -1.4165861575791021,
            "shoulder_pan_joint": -1.6717766225146293,
            "wrist_1_joint": -0.5286633292919765,
            "wrist_2_joint": 1.472756589071564,
            "wrist_3_joint": -3.1238370188695823
        }
    },
    "waypoints": [
        {
            "positions": [
                -1.6717766225146293,
                -1.4165861575791021,
                1.9565354010623817,
                -0.5286633292919765,
                1.472756589071564,
                -3.1238370188695823
            ]
        },
        {
            "positions": [
                -1.541054341348419,
                -1.4402253784294183,
                1.9453753827080102,
                -0.5306619828312632,
                1.3430860922611991,
                -3.025594035110252
            ]
        },
        {
            "positions": [
                -1.4103320601822087,
                -1.4638645992797346,
                1.934215364353639,
                -0.5326606363705501,
                1.2134155954508345,
                -2.9273510513509216
            ]
        },
        {
            "positions": [
                -1.2796097790159981,
                -1.4875038201300508,
                1.9230553459992676,
                -0.5346592899098368,
                1.0837450986404698,
                -2.8291080675915907
            ]
        },
        {
            "positions": [
                -1.1488874978497878,
                -1.511143040980367,
                1.9118953276448962,
                -0.5366579434491235,
                0.9540746018301051,
                -2.7308650838322603
            ]
        },
        {
            "positions": [
                -1.0181652166835775,
                -1.5347822618306832,
                1.900735309290525,
                -0.5386565969884104,
                0.8244041050197403,
                -2.63262210007293
            ]
        },
        {
            "positions": [
                -0.8874429355173672,
                -1.5584214826809994,
                1.8895752909361536,
                -0.5406552505276971,
                0.6947336082093756,
                -2.534379116313599
            ]
        },
        {
            "positions": [
                -0.756720654351157,
                -1.5820607035313157,
                1.8784152725817824,
                -0.5426539040669839,
                0.5650631113990109,
                -2.436136132554269
            ]
        },
        {
            "positions": [
                -0.6259983731849466,
                -1.6056999243816321,
                1.867255254227411,
                -0.5446525576062707,
                0.4353926145886462,
                -2.3378931487949384
            ]
        },
        {
            "positions": [
                -0.49527609201873624,
                -1.6293391452319481,
                1.8560952358730396,
                -0.5466512111455575,
                0.3057221177782814,
                -2.239650165035608
            ]
        },
        {
            "positions": [
                -0.3645538108525259,
                -1.6529783660822646,
                1.8449352175186684,
                -0.5486498646848443,
                0.1760516209679166,
                -2.1414071812762776
            ]
        },
        {
            "positions": [
                -0.23383152968631538,
                -1.6766175869325808,
                1.833775199164297,
                -0.5506485182241311,
                0.04638112415755202,
                -2.043164197516947
            ]
        },
        {
            "positions": [
                -0.10310924852010506,
                -1.700256807782897,
                1.8226151808099256,
                -0.5526471717634178,
                -0.08328937265281278,
                -1.9449212137576164
            ]
        },
        {
            "positions": [
                0.02761303264610504,
                -1.7238960286332132,
                1.8114551624555544,
                -0.5546458253027047,
                -0.21295986946317735,
                -1.846678229998286
            ]
        },
        {
            "positions": [
                0.15833531381231536,
                -1.7475352494835295,
                1.800295144101183,
                -0.5566444788419914,
                -0.34263036627354215,
                -1.7484352462389556
            ]
        },
        {
            "positions": [
                0.2890575949785259,
                -1.7711744703338457,
                1.7891351257468115,
                -0.5586431323812782,
                -0.47230086308390673,
                -1.650192262479625
            ]
        },
        {
            "positions": [
                0.4197798761447362,
                -1.794813691184162,
                1.7779751073924404,
                -0.560641785920565,
                -0.6019713598942715,
                -1.5519492787202946
            ]
        },
        {
            "positions": [
                0.5505021573109468,
                -1.8184529120344781,
                1.766815089038069,
                -0.5626404394598518,
                -0.7316418567046363,
                -1.453706294960964
            ]
        },
        {
            "positions": [
                0.39127327703314657,
                -1.7838798160149687,
                1.7794845217924073,
                -0.5763693898285653,
                -0.6579503576871493,
                -1.5429970212042077
            ]
        },
        {
            "positions": [
                0.23204439675534638,
                -1.7493067199954593,
                1.7921539545467458,
                -0.5900983401972789,
                -0.5842588586696622,
                -1.6322877474474513
            ]
        },
        {
            "positions": [
                0.0728155164775462,
                -1.7147336239759499,
                1.8048233873010842,
                -0.6038272905659925,
                -0.5105673596521753,
                -1.7215784736906952
            ]
        },
        {
            "positions": [
                -0.086413363800254,
                -1.6801605279564402,
                1.8174928200554226,
                -0.6175562409347061,
                -0.4368758606346882,
                -1.8108691999339388
            ]
        },
        {
            "positions": [
                -0.24564224407805424,
                -1.6455874319369308,
                1.830162252809761,
                -0.6312851913034196,
                -0.36318436161720113,
                -1.9001599261771824
            ]
        },
        {
            "positions": [
                -0.4048711243558544,
                -1.6110143359174214,
                1.8428316855640994,
                -0.6450141416721331,
                -0.28949286259971413,
                -1.9894506524204263
            ]
        },
        {
            "positions": [
                -0.5641000046336546,
                -1.576441239897912,
                1.8555011183184378,
                -0.6587430920408467,
                -0.21580136358222712,
                -2.0787413786636697
            ]
        },
        {
            "positions": [
                -0.7233288849114548,
                -1.5418681438784025,
                1.8681705510727762,
                -0.6724720424095603,
                -0.14210986456474006,
                -2.1680321049069136
            ]
        },
        {
            "positions": [
                -0.8825577651892549,
                -1.5072950478588931,
                1.8808399838271146,
                -0.6862009927782738,
                -0.068418365547253,
                -2.257322831150157
            ]
        },
        {
            "positions": [
                -1.0417866454670552,
                -1.4727219518393837,
                1.8935094165814532,
                -0.6999299431469874,
                0.005273133470234059,
                -2.346613557393401
            ]
        },
        {
            "positions": [
                -1.2010155257448556,
                -1.438148855819874,
                1.9061788493357916,
                -0.713658893515701,
                0.07896463248772112,
                -2.4359042836366447
            ]
        },
        {
            "positions": [
                -1.3602444060226555,
                -1.4035757598003646,
                1.91884828209013,
                -0.7273878438844146,
                0.15265613150520807,
                -2.525195009879888
            ]
        },
        {
            "positions": [
                -1.5194732863004559,
                -1.3690026637808552,
                1.9315177148444684,
                -0.7411167942531282,
                0.22634763052269513,
                -2.6144857361231324
            ]
        },
        {
            "positions": [
                -1.678702166578256,
                -1.3344295677613458,
                1.9441871475988068,
                -0.7548457446218417,
                0.3000391295401821,
                -2.703776462366376
            ]
        },
        {
            "positions": [
                -1.8379310468560561,
                -1.2998564717418364,
                1.9568565803531452,
                -0.7685746949905552,
                0.37373062855766914,
                -2.7930671886096192
            ]
        },
        {
            "positions": [
                -1.9971599271338563,
                -1.2652833757223267,
                1.9695260131074837,
                -0.7823036453592688,
                0.4474221275751562,
                -2.882357914852863
            ]
        },
        {
            "positions": [
                -2.156388807411657,
                -1.2307102797028175,
                1.982195445861822,
                -0.7960325957279824,
                0.5211136265926433,
                -2.971648641096107
            ]
        },
        {
            "positions": [
                -2.3156176876894565,
                -1.196137183683308,
                1.9948648786161605,
                -0.8097615460966959,
                0.5948051256101303,
                -3.0609393673393503
            ]
        },
        {
            "positions": [
                -2.474846567967257,
                -1.1615640876637985,
                2.007534311370499,
                -0.8234904964654095,
                0.6684966246276175,
                -3.150230093582594
            ]
        }
    ]
}