{
    "goal": {
        "global_pose": {
            "orientation": {
                "w": 0.5084816262002911,
                "x": -0.4908360881923452,
                "y": 0.5182115481033761,
                "z": -0.48164630358495003
            },
            "position": {
                "x": 0.5540239810943604,
                "y": -0.46912469901144505,
                "z": 0.16403168439865112
            }
        },
        "name": "move_to_storage_B"
    },
    "id": "PRM_move_to_storage_B_107",
    "joint_names": [
        "shoulder_pan_joint",
        "shoulder_lift_joint",
        "elbow_joint",
        "wrist_1_joint",
        "wrist_2_joint",
        "wrist_3_joint"
    ],
    "metrics": {
        "cart_traj_len": 2.324969916522177,
        "distance_elbow_joint": 2.185022947670147,
        "distance_shoulder_lift_joint": 0.459076662847931,
        "distance_shoulder_pan_joint": 2.2638400630970574,
        "distance_wrist_1_joint": 2.9953730594553085,
        "distance_wrist_2_joint": 2.7106946376764163,
        "distance_wrist_3_joint": 3.734982833830551,
        "smoothness": 0.2821360567123649,
        "time": 0.334687026,
        "traj_len": 3.7880060988041464,
        "weighted_distance": 5.246429602059884
    },
    "planner": "PRM",
    "start": {
        "state": {
            "elbow_joint": 1.664937868594044,
            "shoulder_lift_joint": -0.661644460510453,
            "shoulder_pan_joint": -0.9139846352900073,
            "wrist_1_joint": 2.146753192139373,
            "wrist_2_joint": -2.2341966793290973,
            "wrist_3_joint": 0.005466555786416001
        }
    },
    "waypoints": [
        {
            "positions": [
                -0.9139846352900073,
                -0.661644460510453,
                1.664937868594044,
                2.146753192139373,
                -2.2341966793290973,
                0.005466555786416001
            ]
        },
        {
            "positions": [
                -0.7983076073299893,
                -0.6875649144722872,
                1.5630858410769455,
                2.1045390088294664,
                -2.1779472942879714,
                -0.02686098280005081
            ]
        },
        {
            "positions": [
                -0.6826305793699713,
                -0.7134853684341215,
                1.461233813559847,
                2.062324825519559,
                -2.1216979092468455,
                -0.05918852138651762
            ]
        },
        {
            "positions": [
                -0.5669535514099533,
                -0.7394058223959556,
                1.3593817860427486,
                2.0201106422096524,
                -2.0654485242057192,
                -0.09151605997298443
            ]
        },
        {
            "positions": [
                -0.4512765234499353,
                -0.7653262763577899,
                1.2575297585256502,
                1.9778964588997456,
                -2.0091991391645934,
                -0.12384359855945123
            ]
        },
        {
            "positions": [
                -0.3355994954899172,
                -0.7912467303196241,
                1.1556777310085518,
                1.9356822755898386,
                -1.9529497541234675,
                -0.15617113714591804
            ]
        },
        {
            "positions": [
                -0.2199224675298993,
                -0.8171671842814583,
                1.0538257034914535,
                1.8934680922799318,
                -1.8967003690823416,
                -0.18849867573238485
            ]
        },
        {
            "positions": [
                -0.1042454395698812,
                -0.8430876382432926,
                0.951973675974355,
                1.8512539089700248,
                -1.8404509840412155,
                -0.22082621431885166
            ]
        },
        {
            "positions": [
                0.011431588390136693,
                -0.8690080922051269,
                0.8501216484572567,
                1.809039725660118,
                -1.7842015990000895,
                -0.25315375290531844
            ]
        },
        {
            "positions": [
                0.1271086163501548,
                -0.894928546166961,
                0.7482696209401583,
                1.766825542350211,
                -1.7279522139589636,
                -0.28548129149178525
            ]
        },
        {
            "positions": [
                0.08343908736955138,
                -0.9029925667809404,
                0.7935680030835961,
                1.6734167777192772,
                -1.6492218506623106,
                -0.1624800419720585
            ]
        },
        {
            "positions": [
                0.03976955838894797,
                -0.9110565873949198,
                0.838866385227034,
                1.5800080130883436,
                -1.5704914873656577,
                -0.03947879245233177
            ]
        },
        {
            "positions": [
                -0.0038999705916554495,
                -0.9191206080088993,
                0.884164767370472,
                1.4865992484574098,
                -1.4917611240690047,
                0.08352245706739497
            ]
        },
        {
            "positions": [
                -0.047569499572258866,
                -0.9271846286228786,
                0.9294631495139098,
                1.393190483826476,
                -1.4130307607723518,
                0.2065237065871217
            ]
        },
        {
            "positions": [
                -0.09123902855286231,
                -0.935248649236858,
                0.9747615316573477,
                1.299781719195542,
                -1.3343003974756988,
                0.3295249561068485
            ]
        },
        {
            "positions": [
                -0.1349085575334657,
                -0.9433126698508374,
                1.0200599138007855,
                1.2063729545646082,
                -1.255570034179046,
                0.4525262056265752
            ]
        },
        {
            "positions": [
                -0.17857808651406915,
                -0.9513766904648168,
                1.0653582959442236,
                1.1129641899336744,
                -1.176839670882393,
                0.575527455146302
            ]
        },
        {
            "positions": [
                -0.22224761549467253,
                -0.9594407110787961,
                1.1106566780876614,
                1.0195554253027408,
                -1.09810930758574,
                0.6985287046660287
            ]
        },
        {
            "positions": [
                -0.26591714447527603,
                -0.9675047316927756,
                1.1559550602310993,
                0.9261466606718068,
                -1.0193789442890868,
                0.8215299541857555
            ]
        },
        {
            "positions": [
                -0.3095866734558794,
                -0.975568752306755,
                1.2012534423745374,
                0.8327378960408731,
                -0.9406485809924339,
                0.9445312037054823
            ]
        },
        {
            "positions": [
                -0.3532562024364828,
                -0.9836327729207344,
                1.2465518245179752,
                0.7393291314099393,
                -0.861918217695781,
                1.067532453225209
            ]
        },
        {
            "positions": [
                -0.3969257314170862,
                -0.9916967935347137,
                1.291850206661413,
                0.6459203667790057,
                -0.7831878543991281,
                1.1905337027449356
            ]
        },
        {
            "positions": [
                -0.4405952603976897,
                -0.9997608141486931,
                1.337148588804851,
                0.5525116021480718,
                -0.704457491102475,
                1.3135349522646624
            ]
        },
        {
            "positions": [
                -0.4842647893782931,
                -1.0078248347626726,
                1.3824469709482887,
                0.459102837517138,
                -0.6257271278058221,
                1.4365362017843892
            ]
        },
        {
            "positions": [
                -0.5279343183588965,
                -1.0158888553766519,
                1.4277453530917268,
                0.36569407288620415,
                -0.5469967645091691,
                1.559537451304116
            ]
        },
        {
            "positions": [
                -0.5716038473394999,
                -1.0239528759906313,
                1.4730437352351646,
                0.27228530825527053,
                -0.46826640121251617,
                1.6825387008238426
            ]
        },
        {
            "positions": [
                -0.6152733763201033,
                -1.0320168966046106,
                1.5183421173786025,
                0.1788765436243367,
                -0.3895360379158632,
                1.8055399503435692
            ]
        },
        {
            "positions": [
                -0.6589429053007069,
                -1.04008091721859,
                1.5636404995220405,
                0.08546777899340263,
                -0.31080567461921005,
                1.9285411998632962
            ]
        },
        {
            "positions": [
                -0.7026124342813103,
                -1.0481449378325696,
                1.6089388816654784,
                -0.007940985637530984,
                -0.2320753113225571,
                2.051542449383023
            ]
        },
        {
            "positions": [
                -0.7462819632619137,
                -1.0562089584465488,
                1.6542372638089162,
                -0.10134975026846482,
                -0.15334494802590415,
                2.17454369890275
            ]
        },
        {
            "positions": [
                -0.789951492242517,
                -1.0642729790605283,
                1.699535645952354,
                -0.19475851489939866,
                -0.0746145847292512,
                2.2975449484224764
            ]
        },
        {
            "positions": [
                -0.8336210212231204,
                -1.0723369996745076,
                1.744834028095792,
                -0.2881672795303325,
                0.004115778567401529,
                2.4205461979422034
            ]
        },
        {
            "positions": [
                -0.8772905502037239,
                -1.080401020288487,
                1.79013241023923,
                -0.3815760441612659,
                0.08284614186405448,
                2.54354744746193
            ]
        },
        {
            "positions": [
                -0.9209600791843272,
                -1.0884650409024665,
                1.8354307923826678,
                -0.47498480879219973,
                0.16157650516070743,
                2.6665486969816565
            ]
        },
        {
            "positions": [
                -0.9646296081649307,
                -1.0965290615164458,
                1.8807291745261059,
                -0.568393573423134,
                0.2403068684573606,
                2.7895499465013835
            ]
        },
        {
            "positions": [
                -1.008299137145534,
                -1.1045930821304253,
                1.9260275566695437,
                -0.6618023380540674,
                0.31903723175401355,
                2.91255119602111
            ]
        },
        {
            "positions": [
                -1.0519686661261374,
                -1.1126571027444045,
                1.9713259388129816,
                -0.7552111026850012,
                0.3977675950506665,
                3.035552445540837
            ]
        },
        {
            "positions": [
                -1.0956381951067409,
                -1.120721123358384,
                2.0166243209564194,
                -0.848619867315935,
                0.47649795834731934,
                3.1585536950605637
            ]
        }
    ]
}