{
    "goal": {
        "global_pose": {
            "orientation": {
                "w": 0.005598929693374612,
                "x": 0.007748599140229565,
                "y": 0.7110244013736278,
                "z": -0.7031023480610252
            },
            "position": {
                "x": -0.8858502320852131,
                "y": -0.7141253447532654,
                "z": 0.3711530566215515
            }
        },
        "name": "move_to_auspresseinheit_C"
    },
    "id": "PRM_move_to_auspresseinheit_C_77",
    "joint_names": [
        "shoulder_pan_joint",
        "shoulder_lift_joint",
        "elbow_joint",
        "wrist_1_joint",
        "wrist_2_joint",
        "wrist_3_joint"
    ],
    "metrics": {
        "cart_traj_len": 0.4923470423442006,
        "distance_elbow_joint": 0.9946084942021413,
        "distance_shoulder_lift_joint": 0.3220529303556138,
        "distance_shoulder_pan_joint": 0.255554611844091,
        "distance_wrist_1_joint": 0.667019571159873,
        "distance_wrist_2_joint": 1.313387684166741,
        "distance_wrist_3_joint": 0.04898854304816336,
        "smoothness": 8.074349268950106e-16,
        "time": 0.018112935,
        "traj_len": 1.8977913043263275,
        "weighted_distance": 2.3832742553469513
    },
    "planner": "PRM",
    "start": {
        "state": {
            "elbow_joint": 1.7527959577737207,
            "shoulder_lift_joint": -0.9740617694225068,
            "shoulder_pan_joint": -2.967991417825858,
            "wrist_1_joint": -0.759517768980727,
            "wrist_2_joint": 1.7443932448377408,
            "wrist_3_joint": -3.0840537646736568
        }
    },
    "waypoints": [
        {
            "positions": [
                -2.967991417825858,
                -0.9740617694225068,
                1.7527959577737207,
                -0.759517768980727,
                1.7443932448377408,
                -3.0840537646736568
            ]
        },
        {
            "positions": [
                -2.942435956641449,
                -0.9418564763869454,
                1.6533351083535066,
                -0.6928158118647397,
                1.6130544764210668,
                -3.0889526189784733
            ]
        },
        {
            "positions": [
                -2.9168804954570398,
                -0.9096511833513841,
                1.5538742589332923,
                -0.6261138547487524,
                1.4817157080043926,
                -3.0938514732832894
            ]
        },
        {
            "positions": [
                -2.8913250342726307,
                -0.8774458903158227,
                1.4544134095130783,
                -0.5594118976327651,
                1.3503769395877185,
                -3.098750327588106
            ]
        },
        {
            "positions": [
                -2.8657695730882216,
                -0.8452405972802612,
                1.354952560092864,
                -0.4927099405167778,
                1.2190381711710443,
                -3.103649181892922
            ]
        },
        {
            "positions": [
                -2.8402141119038125,
                -0.8130353042446998,
                1.25549171067265,
                -0.4260079834007905,
                1.0876994027543705,
                -3.1085480361977385
            ]
        },
        {
            "positions": [
                -2.8146586507194034,
                -0.7808300112091385,
                1.156030861252436,
                -0.3593060262848032,
                0.9563606343376964,
                -3.113446890502555
            ]
        },
        {
            "positions": [
                -2.7891031895349943,
                -0.7486247181735771,
                1.0565700118322217,
                -0.29260406916881593,
                0.8250218659210222,
                -3.118345744807371
            ]
        },
        {
            "positions": [
                -2.763547728350585,
                -0.7164194251380158,
                0.9571091624120076,
                -0.22590211205282862,
                0.693683097504348,
                -3.1232445991121875
            ]
        },
        {
            "positions": [
                -2.737992267166176,
                -0.6842141321024544,
                0.8576483129917936,
                -0.15920015493684125,
                0.562344329087674,
                -3.1281434534170036
            ]
        },
        {
            "positions": [
                -2.712436805981767,
                -0.652008839066893,
                0.7581874635715794,
                -0.09249819782085404,
                0.431005560671,
                -3.13304230772182
            ]
        }
    ]
}