{
    "goal": {
        "global_pose": {
            "orientation": {
                "w": 0.5084816217422485,
                "x": -0.49083608388900757,
                "y": 0.5182115435600281,
                "z": -0.4816462993621826
            },
            "position": {
                "x": 0.5540239810943604,
                "y": 0.030875300988554955,
                "z": 0.16403168439865112
            }
        },
        "name": "move_to_storage_A"
    },
    "id": "PRM_move_to_storage_A_131",
    "joint_names": [
        "shoulder_pan_joint",
        "shoulder_lift_joint",
        "elbow_joint",
        "wrist_1_joint",
        "wrist_2_joint",
        "wrist_3_joint"
    ],
    "metrics": {
        "cart_traj_len": 0.353507757909302,
        "distance_elbow_joint": 0.4509246648659875,
        "distance_shoulder_lift_joint": 0.23461753744540959,
        "distance_shoulder_pan_joint": 0.46422616731108507,
        "distance_wrist_1_joint": 0.24670426598683026,
        "distance_wrist_2_joint": 1.0913146203587045,
        "distance_wrist_3_joint": 0.09847449346255521,
        "smoothness": 0.0,
        "time": 0.035856148000000004,
        "traj_len": 1.6081858566193687,
        "weighted_distance": 2.030081186233993
    },
    "planner": "PRM",
    "start": {
        "state": {
            "elbow_joint": 1.971548259319323,
            "shoulder_lift_joint": -1.1394851275133948,
            "shoulder_pan_joint": 0.1228115487234821,
            "wrist_1_joint": -0.7804723859257726,
            "wrist_2_joint": 0.12958671773740124,
            "wrist_3_joint": -3.192489227718131
        }
    },
    "waypoints": [
        {
            "positions": [
                0.1228115487234821,
                -1.1394851275133948,
                1.971548259319323,
                -0.7804723859257726,
                0.12958671773740124,
                -3.192489227718131
            ]
        },
        {
            "positions": [
                0.056493524821898525,
                -1.1730019185770248,
                2.0359660685858927,
                -0.8157158524953197,
                0.28548880636007334,
                -3.178421442937766
            ]
        },
        {
            "positions": [
                -0.00982449907968505,
                -1.2065187096406547,
                2.100383877852462,
                -0.850959319064867,
                0.4413908949827454,
                -3.164353658157401
            ]
        },
        {
            "positions": [
                -0.07614252298126864,
                -1.2400355007042847,
                2.164801687119032,
                -0.8862027856344141,
                0.5972929836054175,
                -3.1502858733770362
            ]
        },
        {
            "positions": [
                -0.1424605468828522,
                -1.2735522917679145,
                2.2292194963856016,
                -0.9214462522039614,
                0.7531950722280896,
                -3.136218088596671
            ]
        },
        {
            "positions": [
                -0.2087785707844358,
                -1.3070690828315445,
                2.293637305652171,
                -0.9566897187735085,
                0.9090971608507616,
                -3.122150303816306
            ]
        },
        {
            "positions": [
                -0.2750965946860194,
                -1.3405858738951744,
                2.358055114918741,
                -0.9919331853430557,
                1.0649992494734337,
                -3.108082519035941
            ]
        },
        {
            "positions": [
                -0.34141461858760297,
                -1.3741026649588044,
                2.4224729241853105,
                -1.0271766519126029,
                1.2209013380961058,
                -3.094014734255576
            ]
        }
    ]
}{
    "goal": {
        "global_pose": {
            "orientation": {
                "w": 0.5084816217422485,
                "x": -0.49083608388900757,
                "y": 0.5182115435600281,
                "z": -0.4816462993621826
            },
            "position": {
                "x": 0.5540239810943604,
                "y": 0.030875300988554955,
                "z": 0.16403168439865112
            }
        },
        "name": "move_to_storage_A"
    },
    "id": "PRM_move_to_storage_A_131",
    "joint_names": [
        "shoulder_pan_joint",
        "shoulder_lift_joint",
        "elbow_joint",
        "wrist_1_joint",
        "wrist_2_joint",
        "wrist_3_joint"
    ],
    "metrics": {
        "cart_traj_len": 0.3531931002097801,
        "distance_elbow_joint": 0.45025990163001994,
        "distance_shoulder_lift_joint": 0.23404773904848497,
        "distance_shoulder_pan_joint": 0.4629357348226539,
        "distance_wrist_1_joint": 0.240115965837151,
        "distance_wrist_2_joint": 1.0946439445850833,
        "distance_wrist_3_joint": 0.09541170405379296,
        "smoothness": 2.2204460668324854e-16,
        "time": 0.025004254,
        "traj_len": 1.6054329602874067,
        "weighted_distance": 2.0255859173352797
    },
    "planner": "PRM",
    "start": {
        "state": {
            "elbow_joint": 1.97154746011099,
            "shoulder_lift_joint": -1.13948474672311,
            "shoulder_pan_joint": 0.12281154466712228,
            "wrist_1_joint": -0.7804688027058302,
            "wrist_2_joint": 0.12958655903071145,
            "wrist_3_joint": 3.0906928834467795
        }
    },
    "waypoints": [
        {
            "positions": [
                0.12281154466712228,
                -1.13948474672311,
                1.97154746011099,
                -0.7804688027058302,
                0.12958655903071145,
                3.0906928834467795
            ]
        },
        {
            "positions": [
                0.056677868263886017,
                -1.1729201380157506,
                2.035870303200993,
                -0.814771083539709,
                0.2859642654000091,
                3.1043231268830356
            ]
        },
        {
            "positions": [
                -0.00945580813935025,
                -1.2063555293083914,
                2.1001931462909957,
                -0.8490733643735876,
                0.4423419717693067,
                3.1179533703192917
            ]
        },
        {
            "positions": [
                -0.0755894845425865,
                -1.239790920601032,
                2.1645159893809987,
                -0.8833756452074664,
                0.5987196781386043,
                3.1315836137555477
            ]
        },
        {
            "positions": [
                -0.14172316094582277,
                -1.2732263118936729,
                2.228838832471001,
                -0.917677926041345,
                0.7550973845079019,
                3.1452138571918042
            ]
        },
        {
            "positions": [
                -0.20785683734905908,
                -1.3066617031863135,
                2.293161675561004,
                -0.9519802068752238,
                0.9114750908771996,
                3.1588441006280603
            ]
        },
        {
            "positions": [
                -0.2739905137522953,
                -1.340097094478954,
                2.357484518651007,
                -0.9862824877091024,
                1.067852797246497,
                3.1724743440643164
            ]
        },
        {
            "positions": [
                -0.3401241901555316,
                -1.373532485771595,
                2.42180736174101,
                -1.0205847685429812,
                1.2242305036157948,
                3.1861045875005725
            ]
        }
    ]
}{
    "goal": {
        "global_pose": {
            "orientation": {
                "w": 0.5084816217422485,
                "x": -0.49083608388900757,
                "y": 0.5182115435600281,
                "z": -0.4816462993621826
            },
            "position": {
                "x": 0.5540239810943604,
                "y": 0.030875300988554955,
                "z": 0.16403168439865112
            }
        },
        "name": "move_to_storage_A"
    },
    "id": "PRM_move_to_storage_A_131",
    "joint_names": [
        "shoulder_pan_joint",
        "shoulder_lift_joint",
        "elbow_joint",
        "wrist_1_joint",
        "wrist_2_joint",
        "wrist_3_joint"
    ],
    "metrics": {
        "cart_traj_len": 0.3534863777881708,
        "distance_elbow_joint": 0.4503052581898559,
        "distance_shoulder_lift_joint": 0.23269532085094857,
        "distance_shoulder_pan_joint": 0.46288736685019266,
        "distance_wrist_1_joint": 0.24737807603411355,
        "distance_wrist_2_joint": 1.0958887593083495,
        "distance_wrist_3_joint": 0.09088793169614062,
        "smoothness": 6.661338165333112e-16,
        "time": 0.020980238000000002,
        "traj_len": 1.6062511363200964,
        "weighted_distance": 2.026101036884475
    },
    "planner": "PRM",
    "start": {
        "state": {
            "elbow_joint": 1.9715472970024885,
            "shoulder_lift_joint": -1.1394870060712896,
            "shoulder_pan_joint": 0.12281152778156021,
            "wrist_1_joint": -0.780463741449964,
            "wrist_2_joint": 0.12958659822042276,
            "wrist_3_joint": 3.090690232415272
        }
    },
    "waypoints": [
        {
            "positions": [
                0.12281152778156021,
                -1.1394870060712896,
                1.9715472970024885,
                -0.780463741449964,
                0.12958659822042276,
                3.090690232415272
            ]
        },
        {
            "positions": [
                0.05668476108867555,
                -1.1727291947642822,
                2.0358766196010394,
                -0.8158034665976945,
                0.2861421352644727,
                3.1036742226575775
            ]
        },
        {
            "positions": [
                -0.009442005604209103,
                -1.205971383457275,
                2.1002059421995902,
                -0.851143191745425,
                0.44269767230852264,
                3.1166582128998837
            ]
        },
        {
            "positions": [
                -0.07556877229709374,
                -1.2392135721502675,
                2.164535264798141,
                -0.8864829168931555,
                0.5992532093525725,
                3.1296422031421893
            ]
        },
        {
            "positions": [
                -0.14169553898997841,
                -1.2724557608432603,
                2.228864587396692,
                -0.921822642040886,
                0.7558087463966224,
                3.142626193384495
            ]
        },
        {
            "positions": [
                -0.2078223056828631,
                -1.3056979495362528,
                2.2931939099952428,
                -0.9571623671886165,
                0.9123642834406724,
                3.1556101836268007
            ]
        },
        {
            "positions": [
                -0.2739490723757477,
                -1.3389401382292454,
                2.3575232325937936,
                -0.992502092336347,
                1.0689198204847223,
                3.168594173869107
            ]
        },
        {
            "positions": [
                -0.3400758390686324,
                -1.3721823269222382,
                2.4218525551923444,
                -1.0278418174840775,
                1.2254753575287722,
                3.1815781641114125
            ]
        }
    ]
}