{
    "goal": {
        "global_pose": {
            "orientation": {
                "w": 0.5084816217422485,
                "x": -0.49083608388900757,
                "y": 0.5182115435600281,
                "z": -0.4816462993621826
            },
            "position": {
                "x": 0.5540239810943604,
                "y": 0.030875300988554955,
                "z": 0.16403168439865112
            }
        },
        "name": "move_to_storage_A"
    },
    "id": "PRM_move_to_storage_A_78",
    "joint_names": [
        "shoulder_pan_joint",
        "shoulder_lift_joint",
        "elbow_joint",
        "wrist_1_joint",
        "wrist_2_joint",
        "wrist_3_joint"
    ],
    "metrics": {
        "cart_traj_len": 0.3533851275936604,
        "distance_elbow_joint": 0.45126599429488246,
        "distance_shoulder_lift_joint": 0.23298051275302378,
        "distance_shoulder_pan_joint": 0.4626696844368701,
        "distance_wrist_1_joint": 0.2506709865212805,
        "distance_wrist_2_joint": 1.0963421391772197,
        "distance_wrist_3_joint": 0.09066386709782304,
        "smoothness": 4.440892098500626e-16,
        "time": 0.035188433000000005,
        "traj_len": 1.6076670004329565,
        "weighted_distance": 2.0280369928024604
    },
    "planner": "PRM",
    "start": {
        "state": {
            "elbow_joint": 1.971548259319323,
            "shoulder_lift_joint": -1.1394851275133948,
            "shoulder_pan_joint": 0.1228115487234821,
            "wrist_1_joint": -0.7804723859257726,
            "wrist_2_joint": 0.12958671773740124,
            "wrist_3_joint": -3.192489227718131
        }
    },
    "waypoints": [
        {
            "positions": [
                0.1228115487234821,
                -1.1394851275133948,
                1.971548259319323,
                -0.7804723859257726,
                0.12958671773740124,
                -3.192489227718131
            ]
        },
        {
            "positions": [
                0.05671587951821494,
                -1.172768057906684,
                2.0360148299328777,
                -0.8162825268573841,
                0.28620702333414694,
                -3.1795372467041565
            ]
        },
        {
            "positions": [
                -0.00937978968705222,
                -1.206050988299973,
                2.1004814005464323,
                -0.8520926677889956,
                0.4428273289308926,
                -3.166585265690182
            ]
        },
        {
            "positions": [
                -0.07547545889231938,
                -1.2393339186932621,
                2.164947971159987,
                -0.8879028087206071,
                0.5994476345276383,
                -3.153633284676207
            ]
        },
        {
            "positions": [
                -0.14157112809758654,
                -1.2726168490865513,
                2.2294145417735414,
                -0.9237129496522186,
                0.7560679401243839,
                -3.140681303662232
            ]
        },
        {
            "positions": [
                -0.2076667973028537,
                -1.3058997794798404,
                2.2938811123870964,
                -0.9595230905838301,
                0.9126882457211296,
                -3.1277293226482574
            ]
        },
        {
            "positions": [
                -0.27376246650812086,
                -1.3391827098731295,
                2.358347683000651,
                -0.9953332315154416,
                1.0693085513178753,
                -3.1147773416342828
            ]
        },
        {
            "positions": [
                -0.339858135713388,
                -1.3724656402664186,
                2.4228142536142054,
                -1.0311433724470531,
                1.225928856914621,
                -3.101825360620308
            ]
        }
    ]
}{
    "goal": {
        "global_pose": {
            "orientation": {
                "w": 0.5084816217422485,
                "x": -0.49083608388900757,
                "y": 0.5182115435600281,
                "z": -0.4816462993621826
            },
            "position": {
                "x": 0.5540239810943604,
                "y": 0.030875300988554955,
                "z": 0.16403168439865112
            }
        },
        "name": "move_to_storage_A"
    },
    "id": "PRM_move_to_storage_A_78",
    "joint_names": [
        "shoulder_pan_joint",
        "shoulder_lift_joint",
        "elbow_joint",
        "wrist_1_joint",
        "wrist_2_joint",
        "wrist_3_joint"
    ],
    "metrics": {
        "cart_traj_len": 0.3529048663815432,
        "distance_elbow_joint": 0.4489521522848188,
        "distance_shoulder_lift_joint": 0.23343987373652486,
        "distance_shoulder_pan_joint": 0.46130143382091954,
        "distance_wrist_1_joint": 0.2377569818236287,
        "distance_wrist_2_joint": 1.0988799881007352,
        "distance_wrist_3_joint": 0.1043680508261895,
        "smoothness": 8.881784197001252e-16,
        "time": 0.036330864,
        "traj_len": 1.607699748271678,
        "weighted_distance": 2.03225774747436
    },
    "planner": "PRM",
    "start": {
        "state": {
            "elbow_joint": 1.97154746011099,
            "shoulder_lift_joint": -1.13948474672311,
            "shoulder_pan_joint": 0.12281154466712228,
            "wrist_1_joint": -0.7804688027058302,
            "wrist_2_joint": 0.12958655903071145,
            "wrist_3_joint": 3.0906928834467795
        }
    },
    "waypoints": [
        {
            "positions": [
                0.12281154466712228,
                -1.13948474672311,
                1.97154746011099,
                -0.7804688027058302,
                0.12958655903071145,
                3.0906928834467795
            ]
        },
        {
            "positions": [
                0.05691133983556235,
                -1.172833300114042,
                2.035683481865964,
                -0.8144340858234914,
                0.2865694144736736,
                3.105602604993378
            ]
        },
        {
            "positions": [
                -0.00898886499599759,
                -1.2061818535049742,
                2.099819503620938,
                -0.8483993689411526,
                0.44355226991663577,
                3.1205123265399766
            ]
        },
        {
            "positions": [
                -0.07488906982755751,
                -1.2395304068959063,
                2.163955525375912,
                -0.8823646520588139,
                0.600535125359598,
                3.135422048086575
            ]
        },
        {
            "positions": [
                -0.14078927465911745,
                -1.2728789602868384,
                2.2280915471308864,
                -0.9163299351764751,
                0.7575179808025602,
                3.1503317696331736
            ]
        },
        {
            "positions": [
                -0.2066894794906774,
                -1.3062275136777706,
                2.2922275688858607,
                -0.9502952182941364,
                0.9145008362455224,
                3.165241491179772
            ]
        },
        {
            "positions": [
                -0.2725896843222373,
                -1.3395760670687027,
                2.3563635906408344,
                -0.9842605014117977,
                1.0714836916884845,
                3.1801512127263707
            ]
        },
        {
            "positions": [
                -0.33848988915379724,
                -1.3729246204596348,
                2.4204996123958087,
                -1.0182257845294589,
                1.2284665471314467,
                3.195060934272969
            ]
        }
    ]
}{
    "goal": {
        "global_pose": {
            "orientation": {
                "w": 0.5084816217422485,
                "x": -0.49083608388900757,
                "y": 0.5182115435600281,
                "z": -0.4816462993621826
            },
            "position": {
                "x": 0.5540239810943604,
                "y": 0.030875300988554955,
                "z": 0.16403168439865112
            }
        },
        "name": "move_to_storage_A"
    },
    "id": "PRM_move_to_storage_A_78",
    "joint_names": [
        "shoulder_pan_joint",
        "shoulder_lift_joint",
        "elbow_joint",
        "wrist_1_joint",
        "wrist_2_joint",
        "wrist_3_joint"
    ],
    "metrics": {
        "cart_traj_len": 0.3529090660568737,
        "distance_elbow_joint": 0.45198563794200775,
        "distance_shoulder_lift_joint": 0.23518419413792446,
        "distance_shoulder_pan_joint": 0.4611140420118914,
        "distance_wrist_1_joint": 0.2535708764140949,
        "distance_wrist_2_joint": 1.1003245739076857,
        "distance_wrist_3_joint": 0.10864376601643988,
        "smoothness": 6.661338165333112e-16,
        "time": 0.029876741,
        "traj_len": 1.615804162152717,
        "weighted_distance": 2.0449953723137626
    },
    "planner": "PRM",
    "start": {
        "state": {
            "elbow_joint": 1.9715472970024885,
            "shoulder_lift_joint": -1.1394870060712896,
            "shoulder_pan_joint": 0.12281152778156021,
            "wrist_1_joint": -0.780463741449964,
            "wrist_2_joint": 0.12958659822042276,
            "wrist_3_joint": 3.090690232415272
        }
    },
    "waypoints": [
        {
            "positions": [
                0.12281152778156021,
                -1.1394870060712896,
                1.9715472970024885,
                -0.780463741449964,
                0.12958659822042276,
                3.090690232415272
            ]
        },
        {
            "positions": [
                0.05693809320843288,
                -1.1730847480909932,
                2.036116673851347,
                -0.8166881523662632,
                0.2867758230643779,
                3.1062107704176203
            ]
        },
        {
            "positions": [
                -0.008935341364694455,
                -1.2066824901106965,
                2.100686050700205,
                -0.8529125632825625,
                0.4439650479083329,
                3.121731308419969
            ]
        },
        {
            "positions": [
                -0.07480877593782179,
                -1.2402802321304,
                2.1652554275490634,
                -0.8891369741988618,
                0.601154272752288,
                3.1372518464223176
            ]
        },
        {
            "positions": [
                -0.14068221051094912,
                -1.2738779741501036,
                2.2298248043979214,
                -0.9253613851151611,
                0.7583434975962431,
                3.152772384424666
            ]
        },
        {
            "positions": [
                -0.20655564508407645,
                -1.3074757161698072,
                2.29439418124678,
                -0.9615857960314604,
                0.9155327224401982,
                3.1682929224270144
            ]
        },
        {
            "positions": [
                -0.27242907965720375,
                -1.3410734581895105,
                2.358963558095638,
                -0.9978102069477597,
                1.0727219472841534,
                3.1838134604293633
            ]
        },
        {
            "positions": [
                -0.33830251423033114,
                -1.374671200209214,
                2.4235329349444963,
                -1.034034617864059,
                1.2299111721281084,
                3.1993339984317117
            ]
        }
    ]
}