{
    "goal": {
        "global_pose": {
            "orientation": {
                "w": -0.4816463035849501,
                "x": 0.5182115481033762,
                "y": 0.4908360881923453,
                "z": -0.5084816262002911
            },
            "position": {
                "x": -0.8240239810943604,
                "y": -0.300875300988555,
                "z": 0.16403168439865112
            }
        },
        "name": "move_to_storage_C"
    },
    "id": "PRM_move_to_storage_C_11",
    "joint_names": [
        "shoulder_pan_joint",
        "shoulder_lift_joint",
        "elbow_joint",
        "wrist_1_joint",
        "wrist_2_joint",
        "wrist_3_joint"
    ],
    "metrics": {
        "cart_traj_len": 0.576413627619141,
        "distance_elbow_joint": 0.25603092338648037,
        "distance_shoulder_lift_joint": 0.18839658836239692,
        "distance_shoulder_pan_joint": 0.4937659330009545,
        "distance_wrist_1_joint": 0.06945916703996391,
        "distance_wrist_2_joint": 1.0737301324419999,
        "distance_wrist_3_joint": 0.05701967512431194,
        "smoothness": 2.5376526478085547e-16,
        "time": 0.014792271999999999,
        "traj_len": 1.4623277400624346,
        "weighted_distance": 1.8427238179083416
    },
    "planner": "PRM",
    "start": {
        "state": {
            "elbow_joint": 2.010868314990456,
            "shoulder_lift_joint": -1.1634956873337592,
            "shoulder_pan_joint": -2.4736205022346125,
            "wrist_1_joint": -0.8367026794202681,
            "wrist_2_joint": 0.6746043897044499,
            "wrist_3_joint": -3.1496632123970403
        }
    },
    "waypoints": [
        {
            "positions": [
                -2.4736205022346125,
                -1.1634956873337592,
                2.010868314990456,
                -0.8367026794202681,
                0.6746043897044499,
                -3.1496632123970403
            ]
        },
        {
            "positions": [
                -2.5559148244014382,
                -1.1320962559400263,
                1.9681964944260424,
                -0.8251261515802741,
                0.8535594117781166,
                -3.140159933209655
            ]
        },
        {
            "positions": [
                -2.638209146568264,
                -1.1006968245462936,
                1.925524673861629,
                -0.8135496237402802,
                1.0325144338517833,
                -3.13065665402227
            ]
        },
        {
            "positions": [
                -2.7205034687350897,
                -1.0692973931525607,
                1.8828528532972157,
                -0.8019730959002862,
                1.21146945592545,
                -3.1211533748348845
            ]
        },
        {
            "positions": [
                -2.8027977909019155,
                -1.037897961758828,
                1.8401810327328023,
                -0.7903965680602921,
                1.3904244779991166,
                -3.111650095647499
            ]
        },
        {
            "positions": [
                -2.8850921130687412,
                -1.006498530365095,
                1.7975092121683889,
                -0.7788200402202982,
                1.5693795000727833,
                -3.1021468164601136
            ]
        },
        {
            "positions": [
                -2.967386435235567,
                -0.9750990989713623,
                1.7548373916039754,
                -0.7672435123803042,
                1.7483345221464497,
                -3.0926435372727283
            ]
        }
    ]
}