{
    "goal": {
        "global_pose": {
            "orientation": {
                "w": 0.5084816217422485,
                "x": -0.49083608388900757,
                "y": 0.5182115435600281,
                "z": -0.4816462993621826
            },
            "position": {
                "x": 0.5540239810943604,
                "y": 0.030875300988554955,
                "z": 0.16403168439865112
            }
        },
        "name": "move_to_storage_A"
    },
    "id": "PRM_move_to_storage_A_67",
    "joint_names": [
        "shoulder_pan_joint",
        "shoulder_lift_joint",
        "elbow_joint",
        "wrist_1_joint",
        "wrist_2_joint",
        "wrist_3_joint"
    ],
    "metrics": {
        "cart_traj_len": 0.3526201140672023,
        "distance_elbow_joint": 0.4525711184994925,
        "distance_shoulder_lift_joint": 0.23536144935893777,
        "distance_shoulder_pan_joint": 0.459307485126188,
        "distance_wrist_1_joint": 0.2536619843361173,
        "distance_wrist_2_joint": 1.106305227073489,
        "distance_wrist_3_joint": 0.10130997506851847,
        "smoothness": 0.0,
        "time": 0.026837134,
        "traj_len": 1.6150904740796237,
        "weighted_distance": 2.04232818151476
    },
    "planner": "PRM",
    "start": {
        "state": {
            "elbow_joint": 1.971548259319323,
            "shoulder_lift_joint": -1.1394851275133948,
            "shoulder_pan_joint": 0.1228115487234821,
            "wrist_1_joint": -0.7804723859257726,
            "wrist_2_joint": 0.12958671773740124,
            "wrist_3_joint": -3.192489227718131
        }
    },
    "waypoints": [
        {
            "positions": [
                0.1228115487234821,
                -1.1394851275133948,
                1.971548259319323,
                -0.7804723859257726,
                0.12958671773740124,
                -3.192489227718131
            ]
        },
        {
            "positions": [
                0.05719619370545524,
                -1.1731081917075288,
                2.036201276247822,
                -0.8167098122595037,
                0.28763032160504254,
                -3.1780163741369143
            ]
        },
        {
            "positions": [
                -0.008419161312571616,
                -1.2067312559016627,
                2.100854293176321,
                -0.8529472385932347,
                0.4456739254726838,
                -3.1635435205556974
            ]
        },
        {
            "positions": [
                -0.07403451633059846,
                -1.2403543200957967,
                2.16550731010482,
                -0.8891846649269657,
                0.6037175293403251,
                -3.1490706669744806
            ]
        },
        {
            "positions": [
                -0.13964987134862533,
                -1.2739773842899307,
                2.230160327033319,
                -0.9254220912606967,
                0.7617611332079663,
                -3.1345978133932633
            ]
        },
        {
            "positions": [
                -0.20526522636665223,
                -1.3076004484840646,
                2.2948133439618177,
                -0.9616595175944278,
                0.9198047370756077,
                -3.1201249598120464
            ]
        },
        {
            "positions": [
                -0.270880581384679,
                -1.3412235126781986,
                2.3594663608903166,
                -0.9978969439281589,
                1.0778483409432489,
                -3.1056521062308295
            ]
        },
        {
            "positions": [
                -0.3364959364027059,
                -1.3748465768723326,
                2.4241193778188155,
                -1.03413437026189,
                1.2358919448108903,
                -3.0911792526496127
            ]
        }
    ]
}{
    "goal": {
        "global_pose": {
            "orientation": {
                "w": 0.5084816217422485,
                "x": -0.49083608388900757,
                "y": 0.5182115435600281,
                "z": -0.4816462993621826
            },
            "position": {
                "x": 0.5540239810943604,
                "y": 0.030875300988554955,
                "z": 0.16403168439865112
            }
        },
        "name": "move_to_storage_A"
    },
    "id": "PRM_move_to_storage_A_67",
    "joint_names": [
        "shoulder_pan_joint",
        "shoulder_lift_joint",
        "elbow_joint",
        "wrist_1_joint",
        "wrist_2_joint",
        "wrist_3_joint"
    ],
    "metrics": {
        "cart_traj_len": 0.3533054205584156,
        "distance_elbow_joint": 0.4543658771064232,
        "distance_shoulder_lift_joint": 0.23160919322982743,
        "distance_shoulder_pan_joint": 0.4616328569003837,
        "distance_wrist_1_joint": 0.26418355214975664,
        "distance_wrist_2_joint": 1.100019299889161,
        "distance_wrist_3_joint": 0.1035502133930355,
        "smoothness": 8.881784197001252e-16,
        "time": 0.030769825,
        "traj_len": 1.6172077765916746,
        "weighted_distance": 2.046133981804118
    },
    "planner": "PRM",
    "start": {
        "state": {
            "elbow_joint": 1.97154746011099,
            "shoulder_lift_joint": -1.13948474672311,
            "shoulder_pan_joint": 0.12281154466712228,
            "wrist_1_joint": -0.7804688027058302,
            "wrist_2_joint": 0.12958655903071145,
            "wrist_3_joint": 3.0906928834467795
        }
    },
    "waypoints": [
        {
            "positions": [
                0.12281154466712228,
                -1.13948474672311,
                1.97154746011099,
                -0.7804688027058302,
                0.12958655903071145,
                3.0906928834467795
            ]
        },
        {
            "positions": [
                0.056863993681353184,
                -1.172571774327371,
                2.0364568711261932,
                -0.8182093101557955,
                0.2867321733005916,
                3.105485771074356
            ]
        },
        {
            "positions": [
                -0.009083557304415915,
                -1.205658801931632,
                2.1013662821413965,
                -0.8559498176057606,
                0.4438777875704717,
                3.1202786587019324
            ]
        },
        {
            "positions": [
                -0.07503110829018501,
                -1.238745829535893,
                2.1662756931566,
                -0.8936903250557259,
                0.6010234018403519,
                3.135071546329509
            ]
        },
        {
            "positions": [
                -0.1409786592759541,
                -1.2718328571401543,
                2.231185104171803,
                -0.9314308325056911,
                0.758169016110232,
                3.1498644339570854
            ]
        },
        {
            "positions": [
                -0.2069262102617232,
                -1.3049198847444152,
                2.2960945151870065,
                -0.9691713399556563,
                0.9153146303801122,
                3.164657321584662
            ]
        },
        {
            "positions": [
                -0.2728737612474923,
                -1.3380069123486762,
                2.36100392620221,
                -1.0069118474056216,
                1.0724602446499922,
                3.1794502092122383
            ]
        },
        {
            "positions": [
                -0.3388213122332614,
                -1.3710939399529374,
                2.425913337217413,
                -1.0446523548555868,
                1.2296058589198724,
                3.194243096839815
            ]
        }
    ]
}{
    "goal": {
        "global_pose": {
            "orientation": {
                "w": 0.5084816217422485,
                "x": -0.49083608388900757,
                "y": 0.5182115435600281,
                "z": -0.4816462993621826
            },
            "position": {
                "x": 0.5540239810943604,
                "y": 0.030875300988554955,
                "z": 0.16403168439865112
            }
        },
        "name": "move_to_storage_A"
    },
    "id": "PRM_move_to_storage_A_67",
    "joint_names": [
        "shoulder_pan_joint",
        "shoulder_lift_joint",
        "elbow_joint",
        "wrist_1_joint",
        "wrist_2_joint",
        "wrist_3_joint"
    ],
    "metrics": {
        "cart_traj_len": 0.3534467778109983,
        "distance_elbow_joint": 0.44990205997102883,
        "distance_shoulder_lift_joint": 0.2358560899953217,
        "distance_shoulder_pan_joint": 0.45929301334673905,
        "distance_wrist_1_joint": 0.2414229286190157,
        "distance_wrist_2_joint": 1.1125741066820072,
        "distance_wrist_3_joint": 0.08970075545131895,
        "smoothness": 1.3322676295501878e-15,
        "time": 0.035820269,
        "traj_len": 1.6089589659358723,
        "weighted_distance": 2.030307242825354
    },
    "planner": "PRM",
    "start": {
        "state": {
            "elbow_joint": 1.9715472970024885,
            "shoulder_lift_joint": -1.1394870060712896,
            "shoulder_pan_joint": 0.12281152778156021,
            "wrist_1_joint": -0.780463741449964,
            "wrist_2_joint": 0.12958659822042276,
            "wrist_3_joint": 3.090690232415272
        }
    },
    "waypoints": [
        {
            "positions": [
                0.12281152778156021,
                -1.1394870060712896,
                1.9715472970024885,
                -0.780463741449964,
                0.12958659822042276,
                3.090690232415272
            ]
        },
        {
            "positions": [
                0.057198240160597505,
                -1.1731807332134785,
                2.035819019855493,
                -0.8149527312526805,
                0.2885257563178524,
                3.1035046260511745
            ]
        },
        {
            "positions": [
                -0.0084150474603652,
                -1.2068744603556671,
                2.1000907427084967,
                -0.8494417210553971,
                0.4474649144152819,
                3.116319019687077
            ]
        },
        {
            "positions": [
                -0.07402833508132792,
                -1.240568187497856,
                2.164362465561501,
                -0.8839307108581136,
                0.6064040725127116,
                3.12913341332298
            ]
        },
        {
            "positions": [
                -0.1396416227022906,
                -1.274261914640045,
                2.228634188414505,
                -0.9184197006608301,
                0.7653432306101411,
                3.141947806958883
            ]
        },
        {
            "positions": [
                -0.20525491032325335,
                -1.3079556417822338,
                2.292905911267509,
                -0.9529086904635466,
                0.9242823887075707,
                3.1547622005947855
            ]
        },
        {
            "positions": [
                -0.270868197944216,
                -1.3416493689244224,
                2.357177634120513,
                -0.9873976802662632,
                1.0832215468050004,
                3.167576594230688
            ]
        },
        {
            "positions": [
                -0.3364814855651788,
                -1.3753430960666113,
                2.4214493569735174,
                -1.0218866700689797,
                1.24216070490243,
                3.180390987866591
            ]
        }
    ]
}