{
    "goal": {
        "global_pose": {
            "orientation": {
                "w": 0.7047431468963623,
                "x": -0.7094548344612122,
                "y": 0.0024358443915843964,
                "z": -0.0022348060738295317
            },
            "position": {
                "x": 0.6094750761985779,
                "y": 0.3671506643295288,
                "z": 0.19426114857196808
            }
        },
        "name": "move_to_magneteinheit_A"
    },
    "id": "PRM_move_to_magneteinheit_A_102",
    "joint_names": [
        "shoulder_pan_joint",
        "shoulder_lift_joint",
        "elbow_joint",
        "wrist_1_joint",
        "wrist_2_joint",
        "wrist_3_joint"
    ],
    "metrics": {
        "cart_traj_len": 3.2343349465693447,
        "distance_elbow_joint": 3.8914870789093943,
        "distance_shoulder_lift_joint": 1.3838980648527037,
        "distance_shoulder_pan_joint": 4.054874811549868,
        "distance_wrist_1_joint": 1.3872941009601054,
        "distance_wrist_2_joint": 1.7055918978768632,
        "distance_wrist_3_joint": 3.6507162033878253,
        "smoothness": 0.17783930797066616,
        "time": 0.266643774,
        "traj_len": 4.009222138711792,
        "weighted_distance": 5.144723565280196
    },
    "planner": "PRM",
    "start": {
        "state": {
            "elbow_joint": -1.9196185241190666,
            "shoulder_lift_joint": -1.2443396400964142,
            "shoulder_pan_joint": 2.6996025414629847,
            "wrist_1_joint": -1.5485510000780065,
            "wrist_2_joint": -1.5709468930060704,
            "wrist_3_joint": 0.4420197071253992
        }
    },
    "waypoints": [
        {
            "positions": [
                2.6996025414629847,
                -1.2443396400964142,
                -1.9196185241190666,
                -1.5485510000780065,
                -1.5709468930060704,
                0.4420197071253992
            ]
        },
        {
            "positions": [
                2.5614345199743296,
                -1.270970318101116,
                -1.79884465301233,
                -1.5035079206707724,
                -1.5306019713497643,
                0.4232847894159022
            ]
        },
        {
            "positions": [
                2.423266498485675,
                -1.297600996105818,
                -1.6780707819055938,
                -1.4584648412635384,
                -1.490257049693458,
                0.40454987170640516
            ]
        },
        {
            "positions": [
                2.2850984769970197,
                -1.3242316741105196,
                -1.5572969107988572,
                -1.4134217618563043,
                -1.4499121280371519,
                0.3858149539969082
            ]
        },
        {
            "positions": [
                2.146930455508365,
                -1.3508623521152214,
                -1.436523039692121,
                -1.3683786824490702,
                -1.4095672063808458,
                0.36708003628741115
            ]
        },
        {
            "positions": [
                2.00876243401971,
                -1.3774930301199233,
                -1.3157491685853844,
                -1.3233356030418362,
                -1.3692222847245394,
                0.34834511857791417
            ]
        },
        {
            "positions": [
                1.870594412531055,
                -1.404123708124625,
                -1.1949752974786478,
                -1.278292523634602,
                -1.3288773630682333,
                0.32961020086841714
            ]
        },
        {
            "positions": [
                1.7324263910424,
                -1.4307543861293268,
                -1.0742014263719115,
                -1.233249444227368,
                -1.288532441411927,
                0.3108752831589201
            ]
        },
        {
            "positions": [
                1.5942583695537451,
                -1.4573850641340287,
                -0.9534275552651751,
                -1.188206364820134,
                -1.248187519755621,
                0.2921403654494231
            ]
        },
        {
            "positions": [
                1.4560903480650902,
                -1.4840157421387306,
                -0.8326536841584387,
                -1.1431632854129,
                -1.2078425980993148,
                0.27340544773992614
            ]
        },
        {
            "positions": [
                1.317922326576435,
                -1.5106464201434324,
                -0.7118798130517021,
                -1.0981202060056656,
                -1.1674976764430085,
                0.25467053003042917
            ]
        },
        {
            "positions": [
                1.1797543050877801,
                -1.537277098148134,
                -0.5911059419449658,
                -1.0530771265984318,
                -1.1271527547867024,
                0.23593561232093213
            ]
        },
        {
            "positions": [
                1.0415862835991252,
                -1.563907776152836,
                -0.47033207083822925,
                -1.0080340471911975,
                -1.086807833130396,
                0.21720069461143512
            ]
        },
        {
            "positions": [
                0.9034182621104703,
                -1.5905384541575378,
                -0.34955819973149294,
                -0.9629909677839635,
                -1.04646291147409,
                0.19846577690193815
            ]
        },
        {
            "positions": [
                0.7652502406218151,
                -1.6171691321622395,
                -0.22878432862475617,
                -0.9179478883767294,
                -1.0061179898177839,
                0.17973085919244108
            ]
        },
        {
            "positions": [
                0.6270822191331602,
                -1.6437998101669413,
                -0.10801045751801985,
                -0.8729048089694954,
                -0.9657730681614776,
                0.1609959414829441
            ]
        },
        {
            "positions": [
                0.4889141976445055,
                -1.6704304881716432,
                0.012763413588716466,
                -0.8278617295622613,
                -0.9254281465051715,
                0.14226102377344713
            ]
        },
        {
            "positions": [
                0.35074617615585035,
                -1.697061166176345,
                0.133537284695453,
                -0.7828186501550272,
                -0.8850832248488651,
                0.12352610606395009
            ]
        },
        {
            "positions": [
                0.21257815466719565,
                -1.723691844181047,
                0.2543111558021893,
                -0.7377755707477931,
                -0.844738303192559,
                0.10479118835445311
            ]
        },
        {
            "positions": [
                0.0744101331785405,
                -1.7503225221857486,
                0.37508502690892565,
                -0.6927324913405591,
                -0.8043933815362528,
                0.08605627064495613
            ]
        },
        {
            "positions": [
                -0.06375788831011464,
                -1.7769532001904504,
                0.4958588980156624,
                -0.647689411933325,
                -0.7640484598799466,
                0.0673213529354591
            ]
        },
        {
            "positions": [
                -0.20192590979876934,
                -1.8035838781951523,
                0.6166327691223987,
                -0.6026463325260909,
                -0.7237035382236404,
                0.048586435225962066
            ]
        },
        {
            "positions": [
                -0.3400939312874245,
                -1.830214556199854,
                0.737406640229135,
                -0.557603253118857,
                -0.6833586165673343,
                0.029851517516465087
            ]
        },
        {
            "positions": [
                -0.47826195277607964,
                -1.856845234204556,
                0.8581805113358718,
                -0.5125601737116228,
                -0.643013694911028,
                0.011116599806968053
            ]
        },
        {
            "positions": [
                -0.6164299742647346,
                -1.8834759122092577,
                0.9789543824426081,
                -0.46751709430438865,
                -0.6026687732547219,
                -0.007618317902528926
            ]
        },
        {
            "positions": [
                -0.5729686627457845,
                -1.839666394989266,
                1.0373610984630621,
                -0.48553239990359376,
                -0.5592973745414563,
                -0.19591703427664053
            ]
        },
        {
            "positions": [
                -0.5295073512268343,
                -1.795856877769274,
                1.0957678144835161,
                -0.5035477055027989,
                -0.5159259758281908,
                -0.38421575065075214
            ]
        },
        {
            "positions": [
                -0.4860460397078843,
                -1.7520473605492823,
                1.1541745305039701,
                -0.521563011102004,
                -0.4725545771149252,
                -0.5725144670248639
            ]
        },
        {
            "positions": [
                -0.44258472818893413,
                -1.7082378433292906,
                1.2125812465244241,
                -0.5395783167012091,
                -0.42918317840165965,
                -0.7608131833989753
            ]
        },
        {
            "positions": [
                -0.3991234166699841,
                -1.6644283261092987,
                1.2709879625448781,
                -0.5575936223004142,
                -0.3858117796883941,
                -0.949111899773087
            ]
        },
        {
            "positions": [
                -0.35566210515103397,
                -1.620618808889307,
                1.329394678565332,
                -0.5756089278996194,
                -0.3424403809751285,
                -1.1374106161471986
            ]
        },
        {
            "positions": [
                -0.31220079363208386,
                -1.5768092916693153,
                1.3878013945857859,
                -0.5936242334988244,
                -0.299068982261863,
                -1.32570933252131
            ]
        },
        {
            "positions": [
                -0.26873948211313375,
                -1.5329997744493236,
                1.44620811060624,
                -0.6116395390980296,
                -0.25569758354859745,
                -1.5140080488954217
            ]
        },
        {
            "positions": [
                -0.2252781705941837,
                -1.4891902572293316,
                1.5046148266266939,
                -0.6296548446972348,
                -0.2123261848353319,
                -1.7023067652695334
            ]
        },
        {
            "positions": [
                -0.1818168590752336,
                -1.44538074000934,
                1.563021542647148,
                -0.6476701502964398,
                -0.16895478612206632,
                -1.890605481643645
            ]
        },
        {
            "positions": [
                -0.1383555475562835,
                -1.4015712227893482,
                1.6214282586676019,
                -0.665685455895645,
                -0.12558338740880076,
                -2.078904198017757
            ]
        },
        {
            "positions": [
                -0.09489423603733338,
                -1.3577617055693563,
                1.679834974688056,
                -0.68370076149485,
                -0.08221198869553514,
                -2.2672029143918686
            ]
        },
        {
            "positions": [
                -0.05143292451838333,
                -1.3139521883493646,
                1.7382416907085099,
                -0.7017160670940552,
                -0.03884058998226969,
                -2.45550163076598
            ]
        },
        {
            "positions": [
                -0.007971612999433164,
                -1.2701426711293728,
                1.7966484067289639,
                -0.7197313726932603,
                0.004530808730995872,
                -2.6438003471400915
            ]
        },
        {
            "positions": [
                0.03548969851951689,
                -1.2263331539093811,
                1.8550551227494179,
                -0.7377466782924654,
                0.047902207444261435,
                -2.832099063514203
            ]
        },
        {
            "positions": [
                0.07895101003846705,
                -1.1825236366893894,
                1.9134618387698719,
                -0.7557619838916705,
                0.091273606157527,
                -3.020397779888315
            ]
        },
        {
            "positions": [
                0.12241232155741714,
                -1.1387141194693975,
                1.9718685547903259,
                -0.7737772894908757,
                0.13464500487079253,
                -3.2086964962624265
            ]
        }
    ]
}