{
    "goal": {
        "global_pose": {
            "orientation": {
                "w": 0.005598929693374612,
                "x": 0.007748599140229565,
                "y": 0.7110244013736278,
                "z": -0.7031023480610252
            },
            "position": {
                "x": -0.8858502320852131,
                "y": -0.7141253447532654,
                "z": 0.3711530566215515
            }
        },
        "name": "move_to_auspresseinheit_C"
    },
    "id": "PRM_move_to_auspresseinheit_C_21",
    "joint_names": [
        "shoulder_pan_joint",
        "shoulder_lift_joint",
        "elbow_joint",
        "wrist_1_joint",
        "wrist_2_joint",
        "wrist_3_joint"
    ],
    "metrics": {
        "cart_traj_len": 0.4942553304215607,
        "distance_elbow_joint": 1.01398261376192,
        "distance_shoulder_lift_joint": 0.33125044153009486,
        "distance_shoulder_pan_joint": 0.2560270113711467,
        "distance_wrist_1_joint": 0.7019134263672635,
        "distance_wrist_2_joint": 1.3197316972486763,
        "distance_wrist_3_joint": 0.08048050254584505,
        "smoothness": 4.844609574787718e-16,
        "time": 0.019758598,
        "traj_len": 1.924418273875237,
        "weighted_distance": 2.4261063087862773
    },
    "planner": "PRM",
    "start": {
        "state": {
            "elbow_joint": 1.7527959577737207,
            "shoulder_lift_joint": -0.9740617694225068,
            "shoulder_pan_joint": -2.967991417825858,
            "wrist_1_joint": -0.759517768980727,
            "wrist_2_joint": 1.7443932448377408,
            "wrist_3_joint": -3.0840537646736568
        }
    },
    "waypoints": [
        {
            "positions": [
                -2.967991417825858,
                -0.9740617694225068,
                1.7527959577737207,
                -0.759517768980727,
                1.7443932448377408,
                -3.0840537646736568
            ]
        },
        {
            "positions": [
                -2.9423887166887432,
                -0.9409367252694973,
                1.6513976963975288,
                -0.6893264263440007,
                1.6124200751128732,
                -3.0921018149282413
            ]
        },
        {
            "positions": [
                -2.9167860155516285,
                -0.9078116811164878,
                1.5499994350213366,
                -0.6191350837072742,
                1.4804469053880056,
                -3.100149865182826
            ]
        },
        {
            "positions": [
                -2.891183314414514,
                -0.8746866369634783,
                1.4486011736451447,
                -0.548943741070548,
                1.348473735663138,
                -3.1081979154374104
            ]
        },
        {
            "positions": [
                -2.865580613277399,
                -0.8415615928104688,
                1.3472029122689526,
                -0.47875239843382156,
                1.2165005659382704,
                -3.116245965691995
            ]
        },
        {
            "positions": [
                -2.8399779121402844,
                -0.8084365486574594,
                1.2458046508927607,
                -0.40856105579709523,
                1.0845273962134026,
                -3.124294015946579
            ]
        },
        {
            "positions": [
                -2.81437521100317,
                -0.7753115045044499,
                1.1444063895165688,
                -0.3383697131603689,
                0.952554226488535,
                -3.1323420662011636
            ]
        },
        {
            "positions": [
                -2.7887725098660554,
                -0.7421864603514404,
                1.043008128140377,
                -0.2681783705236426,
                0.8205810567636674,
                -3.140390116455748
            ]
        },
        {
            "positions": [
                -2.7631698087289407,
                -0.7090614161984309,
                0.9416098667641847,
                -0.19798702788691613,
                0.6886078870387997,
                -3.1484381667103327
            ]
        },
        {
            "positions": [
                -2.737567107591826,
                -0.6759363720454215,
                0.8402116053879928,
                -0.1277956852501898,
                0.5566347173139321,
                -3.1564862169649173
            ]
        },
        {
            "positions": [
                -2.7119644064547113,
                -0.6428113278924119,
                0.7388133440118008,
                -0.057604342613463436,
                0.4246615475890645,
                -3.164534267219502
            ]
        }
    ]
}