{
    "goal": {
        "global_pose": {
            "orientation": {
                "w": -0.4816463035849501,
                "x": 0.5182115481033762,
                "y": 0.4908360881923453,
                "z": -0.5084816262002911
            },
            "position": {
                "x": -0.8240239810943604,
                "y": -0.300875300988555,
                "z": 0.16403168439865112
            }
        },
        "name": "move_to_storage_C"
    },
    "id": "PRM_move_to_storage_C_44",
    "joint_names": [
        "shoulder_pan_joint",
        "shoulder_lift_joint",
        "elbow_joint",
        "wrist_1_joint",
        "wrist_2_joint",
        "wrist_3_joint"
    ],
    "metrics": {
        "cart_traj_len": 0.5758161770725438,
        "distance_elbow_joint": 0.25798430075320966,
        "distance_shoulder_lift_joint": 0.18883853181447974,
        "distance_shoulder_pan_joint": 0.49336122310660535,
        "distance_wrist_1_joint": 0.0823083020713894,
        "distance_wrist_2_joint": 1.0743645213075594,
        "distance_wrist_3_joint": 0.07525791620900124,
        "smoothness": 2.5376526478085547e-16,
        "time": 0.017328949,
        "traj_len": 1.4738096197481698,
        "weighted_distance": 1.8652891065620891
    },
    "planner": "PRM",
    "start": {
        "state": {
            "elbow_joint": 2.010868314990456,
            "shoulder_lift_joint": -1.1634956873337592,
            "shoulder_pan_joint": -2.4736205022346125,
            "wrist_1_joint": -0.8367026794202681,
            "wrist_2_joint": 0.6746043897044499,
            "wrist_3_joint": -3.1496632123970403
        }
    },
    "waypoints": [
        {
            "positions": [
                -2.4736205022346125,
                -1.1634956873337592,
                2.010868314990456,
                -0.8367026794202681,
                0.6746043897044499,
                -3.1496632123970403
            ]
        },
        {
            "positions": [
                -2.55584737275238,
                -1.1320225986980126,
                1.9678709315315874,
                -0.8229846290750366,
                0.8536651432557099,
                -3.1371202263622067
            ]
        },
        {
            "positions": [
                -2.6380742432701476,
                -1.100549510062266,
                1.9248735480727193,
                -0.809266578729805,
                1.0327258968069697,
                -3.124577240327373
            ]
        },
        {
            "positions": [
                -2.720301113787915,
                -1.0690764214265194,
                1.881876164613851,
                -0.7955485283845734,
                1.2117866503582295,
                -3.1120342542925394
            ]
        },
        {
            "positions": [
                -2.8025279843056827,
                -1.0376033327907728,
                1.8388787811549827,
                -0.7818304780393418,
                1.3908474039094894,
                -3.0994912682577063
            ]
        },
        {
            "positions": [
                -2.8847548548234503,
                -1.0061302441550262,
                1.7958813976961143,
                -0.7681124276941103,
                1.5699081574607496,
                -3.0869482822228727
            ]
        },
        {
            "positions": [
                -2.966981725341218,
                -0.9746571555192795,
                1.7528840142372462,
                -0.7543943773488787,
                1.7489689110120095,
                -3.074405296188039
            ]
        }
    ]
}