{
    "goal": {
        "global_pose": {
            "orientation": {
                "w": -0.4816463035849501,
                "x": 0.5182115481033762,
                "y": 0.4908360881923453,
                "z": -0.5084816262002911
            },
            "position": {
                "x": -0.8240239810943604,
                "y": 0.19912469901144506,
                "z": 0.16403168439865112
            }
        },
        "name": "move_to_storage_D"
    },
    "id": "PRM_move_to_storage_D_83",
    "joint_names": [
        "shoulder_pan_joint",
        "shoulder_lift_joint",
        "elbow_joint",
        "wrist_1_joint",
        "wrist_2_joint",
        "wrist_3_joint"
    ],
    "metrics": {
        "cart_traj_len": 3.7112956686815064,
        "distance_elbow_joint": 4.209210078951902,
        "distance_shoulder_lift_joint": 1.2634582953870515,
        "distance_shoulder_pan_joint": 2.8125581696460467,
        "distance_wrist_1_joint": 2.264012542688726,
        "distance_wrist_2_joint": 0.8733815010535314,
        "distance_wrist_3_joint": 3.1301383466936894,
        "smoothness": 3.643808917339467e-16,
        "time": 0.196037025,
        "traj_len": 3.814807850262048,
        "weighted_distance": 4.893917620020854
    },
    "planner": "PRM",
    "start": {
        "state": {
            "elbow_joint": -2.384821988534728,
            "shoulder_lift_joint": -2.2788054721415256,
            "shoulder_pan_joint": -0.1854694642142757,
            "wrist_1_joint": 1.4845938289331202,
            "wrist_2_joint": 0.17898776772866878,
            "wrist_3_joint": 0.037105688729662994
        }
    },
    "waypoints": [
        {
            "positions": [
                -0.1854694642142757,
                -2.2788054721415256,
                -2.384821988534728,
                1.4845938289331202,
                0.17898776772866878,
                0.037105688729662994
            ]
        },
        {
            "positions": [
                -0.07994718425500247,
                -2.2284030462418754,
                -2.275523752069447,
                1.4318939723335795,
                0.2069064462265533,
                0.0012347538992780668
            ]
        },
        {
            "positions": [
                0.025575095704270773,
                -2.178000620342225,
                -2.166225515604166,
                1.379194115734039,
                0.23482512472443778,
                -0.03463618093110686
            ]
        },
        {
            "positions": [
                0.13109737566354399,
                -2.127598194442575,
                -2.0569272791388844,
                1.3264942591344984,
                0.26274380322232227,
                -0.07050711576149178
            ]
        },
        {
            "positions": [
                0.23661965562281725,
                -2.0771957685429245,
                -1.9476290426736034,
                1.273794402534958,
                0.2906624817202068,
                -0.10637805059187672
            ]
        },
        {
            "positions": [
                0.3421419355820905,
                -2.0267933426432743,
                -1.8383308062083223,
                1.2210945459354172,
                0.3185811602180913,
                -0.14224898542226164
            ]
        },
        {
            "positions": [
                0.4476642155413637,
                -1.976390916743624,
                -1.7290325697430413,
                1.1683946893358768,
                0.3464998387159758,
                -0.17811992025264656
            ]
        },
        {
            "positions": [
                0.5531864955006369,
                -1.9259884908439737,
                -1.61973433327776,
                1.115694832736336,
                0.3744185172138603,
                -0.21399085508303148
            ]
        },
        {
            "positions": [
                0.6587087754599102,
                -1.8755860649443235,
                -1.5104360968124788,
                1.0629949761367956,
                0.40233719571174487,
                -0.24986178991341643
            ]
        },
        {
            "positions": [
                0.7642310554191835,
                -1.8251836390446732,
                -1.4011378603471978,
                1.010295119537255,
                0.4302558742096294,
                -0.2857327247438014
            ]
        },
        {
            "positions": [
                0.8697533353784567,
                -1.774781213145023,
                -1.2918396238819168,
                0.9575952629377144,
                0.45817455270751384,
                -0.32160365957418624
            ]
        },
        {
            "positions": [
                0.9752756153377299,
                -1.7243787872453726,
                -1.1825413874166355,
                0.9048954063381738,
                0.4860932312053984,
                -0.3574745944045712
            ]
        },
        {
            "positions": [
                1.080797895297003,
                -1.6739763613457224,
                -1.0732431509513545,
                0.8521955497386332,
                0.5140119097032828,
                -0.39334552923495614
            ]
        },
        {
            "positions": [
                1.1863201752562762,
                -1.623573935446072,
                -0.9639449144860732,
                0.7994956931390926,
                0.5419305882011674,
                -0.4292164640653411
            ]
        },
        {
            "positions": [
                1.2918424552155494,
                -1.5731715095464218,
                -0.8546466780207922,
                0.7467958365395521,
                0.5698492666990519,
                -0.4650873988957259
            ]
        },
        {
            "positions": [
                1.3973647351748226,
                -1.5227690836467715,
                -0.7453484415555112,
                0.6940959799400115,
                0.5977679451969363,
                -0.5009583337261109
            ]
        },
        {
            "positions": [
                1.502887015134096,
                -1.4723666577471213,
                -0.6360502050902299,
                0.6413961233404708,
                0.6256866236948209,
                -0.5368292685564958
            ]
        },
        {
            "positions": [
                1.608409295093369,
                -1.421964231847471,
                -0.5267519686249487,
                0.5886962667409303,
                0.6536053021927054,
                -0.5727002033868808
            ]
        },
        {
            "positions": [
                1.7139315750526425,
                -1.3715618059478207,
                -0.4174537321596674,
                0.5359964101413897,
                0.68152398069059,
                -0.6085711382172657
            ]
        },
        {
            "positions": [
                1.8194538550119157,
                -1.3211593800481705,
                -0.3081554956943866,
                0.4832965535418492,
                0.7094426591884744,
                -0.6444420730476507
            ]
        },
        {
            "positions": [
                1.924976134971189,
                -1.2707569541485202,
                -0.19885725922910558,
                0.4305966969423085,
                0.7373613376863588,
                -0.6803130078780355
            ]
        },
        {
            "positions": [
                2.030498414930462,
                -1.22035452824887,
                -0.0895590227638241,
                0.3778968403427678,
                0.7652800161842435,
                -0.7161839427084205
            ]
        },
        {
            "positions": [
                2.1360206948897353,
                -1.1699521023492196,
                0.019739213701456843,
                0.3251969837432275,
                0.7931986946821279,
                -0.7520548775388054
            ]
        },
        {
            "positions": [
                2.1667124455486126,
                -1.160289294499548,
                0.13252976849618908,
                0.25615850264955037,
                0.8093968555633824,
                -0.8983659888153817
            ]
        },
        {
            "positions": [
                2.19740419620749,
                -1.1506264866498765,
                0.24532032329092135,
                0.18712002155587326,
                0.825595016444637,
                -1.044677100091958
            ]
        },
        {
            "positions": [
                2.2280959468663672,
                -1.1409636788002049,
                0.35811087808565356,
                0.11808154046219616,
                0.8417931773258914,
                -1.1909882113685344
            ]
        },
        {
            "positions": [
                2.2587876975252446,
                -1.1313008709505332,
                0.4709014328803859,
                0.04904305936851905,
                0.857991338207146,
                -1.3372993226451106
            ]
        },
        {
            "positions": [
                2.2894794481841214,
                -1.1216380631008618,
                0.5836919876751181,
                -0.019995421725158058,
                0.8741894990884005,
                -1.483610433921687
            ]
        },
        {
            "positions": [
                2.3201711988429987,
                -1.1119752552511901,
                0.6964825424698503,
                -0.08903390281883516,
                0.890387659969655,
                -1.6299215451982634
            ]
        },
        {
            "positions": [
                2.350862949501876,
                -1.1023124474015185,
                0.8092730972645826,
                -0.15807238391251227,
                0.9065858208509096,
                -1.7762326564748396
            ]
        },
        {
            "positions": [
                2.3815547001607533,
                -1.0926496395518468,
                0.9220636520593148,
                -0.22711086500618938,
                0.922783981732164,
                -1.9225437677514159
            ]
        },
        {
            "positions": [
                2.4122464508196306,
                -1.0829868317021754,
                1.0348542068540472,
                -0.29614934609986643,
                0.9389821426134186,
                -2.068854879027992
            ]
        },
        {
            "positions": [
                2.442938201478508,
                -1.0733240238525037,
                1.1476447616487795,
                -0.3651878271935436,
                0.9551803034946731,
                -2.2151659903045684
            ]
        },
        {
            "positions": [
                2.4736299521373852,
                -1.063661216002832,
                1.2604353164435118,
                -0.43422630828722075,
                0.9713784643759276,
                -2.361477101581145
            ]
        },
        {
            "positions": [
                2.504321702796262,
                -1.0539984081531606,
                1.373225871238244,
                -0.5032647893808978,
                0.987576625257182,
                -2.5077882128577214
            ]
        },
        {
            "positions": [
                2.5350134534551394,
                -1.044335600303489,
                1.4860164260329762,
                -0.5723032704745749,
                1.0037747861384365,
                -2.6540993241342976
            ]
        },
        {
            "positions": [
                2.5657052041140167,
                -1.0346727924538173,
                1.5988069808277086,
                -0.641341751568252,
                1.0199729470196912,
                -2.800410435410874
            ]
        },
        {
            "positions": [
                2.596396954772894,
                -1.0250099846041458,
                1.7115975356224407,
                -0.7103802326619292,
                1.0361711079009457,
                -2.94672154668745
            ]
        },
        {
            "positions": [
                2.6270887054317713,
                -1.0153471767544742,
                1.824388090417173,
                -0.7794187137556062,
                1.0523692687822002,
                -3.0930326579640264
            ]
        }
    ]
}