{
    "goal": {
        "global_pose": {
            "orientation": {
                "w": 0.5084816217422485,
                "x": -0.49083608388900757,
                "y": 0.5182115435600281,
                "z": -0.4816462993621826
            },
            "position": {
                "x": 0.5540239810943604,
                "y": 0.030875300988554955,
                "z": 0.16403168439865112
            }
        },
        "name": "move_to_storage_A"
    },
    "id": "PRM_move_to_storage_A_114",
    "joint_names": [
        "shoulder_pan_joint",
        "shoulder_lift_joint",
        "elbow_joint",
        "wrist_1_joint",
        "wrist_2_joint",
        "wrist_3_joint"
    ],
    "metrics": {
        "cart_traj_len": 0.3526644616177473,
        "distance_elbow_joint": 0.45067041751184944,
        "distance_shoulder_lift_joint": 0.23541744757984473,
        "distance_shoulder_pan_joint": 0.4597745487617057,
        "distance_wrist_1_joint": 0.2405429051444018,
        "distance_wrist_2_joint": 1.1049528709547958,
        "distance_wrist_3_joint": 0.09733920585419131,
        "smoothness": 4.440892133664971e-16,
        "time": 0.024726468,
        "traj_len": 1.608942943614468,
        "weighted_distance": 2.0319624956219955
    },
    "planner": "PRM",
    "start": {
        "state": {
            "elbow_joint": 1.971548259319323,
            "shoulder_lift_joint": -1.1394851275133948,
            "shoulder_pan_joint": 0.1228115487234821,
            "wrist_1_joint": -0.7804723859257726,
            "wrist_2_joint": 0.12958671773740124,
            "wrist_3_joint": -3.192489227718131
        }
    },
    "waypoints": [
        {
            "positions": [
                0.1228115487234821,
                -1.1394851275133948,
                1.971548259319323,
                -0.7804723859257726,
                0.12958671773740124,
                -3.192489227718131
            ]
        },
        {
            "positions": [
                0.057129470328952714,
                -1.1731161914533725,
                2.0359297475353015,
                -0.8148356580892586,
                0.2874371278738006,
                -3.178583626881818
            ]
        },
        {
            "positions": [
                -0.008552608065576672,
                -1.2067472553933505,
                2.10031123575128,
                -0.8491989302527445,
                0.44528753801020005,
                -3.164678026045505
            ]
        },
        {
            "positions": [
                -0.07423468646010606,
                -1.2403783193333282,
                2.1646927239672586,
                -0.8835622024162305,
                0.6031379481465994,
                -3.150772425209192
            ]
        },
        {
            "positions": [
                -0.13991676485463544,
                -1.2740093832733062,
                2.229074212183237,
                -0.9179254745797165,
                0.7609883582829988,
                -3.136866824372879
            ]
        },
        {
            "positions": [
                -0.20559884324916483,
                -1.3076404472132839,
                2.2934557003992153,
                -0.9522887467432024,
                0.9188387684193983,
                -3.122961223536566
            ]
        },
        {
            "positions": [
                -0.2712809216436942,
                -1.3412715111532618,
                2.357837188615194,
                -0.9866520189066884,
                1.0766891785557975,
                -3.109055622700253
            ]
        },
        {
            "positions": [
                -0.3369630000382236,
                -1.3749025750932395,
                2.4222186768311724,
                -1.0210152910701744,
                1.234539588692197,
                -3.09515002186394
            ]
        }
    ]
}{
    "goal": {
        "global_pose": {
            "orientation": {
                "w": 0.5084816217422485,
                "x": -0.49083608388900757,
                "y": 0.5182115435600281,
                "z": -0.4816462993621826
            },
            "position": {
                "x": 0.5540239810943604,
                "y": 0.030875300988554955,
                "z": 0.16403168439865112
            }
        },
        "name": "move_to_storage_A"
    },
    "id": "PRM_move_to_storage_A_114",
    "joint_names": [
        "shoulder_pan_joint",
        "shoulder_lift_joint",
        "elbow_joint",
        "wrist_1_joint",
        "wrist_2_joint",
        "wrist_3_joint"
    ],
    "metrics": {
        "cart_traj_len": 0.352186170192097,
        "distance_elbow_joint": 0.45358179467180726,
        "distance_shoulder_lift_joint": 0.2346699209500689,
        "distance_shoulder_pan_joint": 0.460773972584374,
        "distance_wrist_1_joint": 0.258880737263393,
        "distance_wrist_2_joint": 1.0964768762726267,
        "distance_wrist_3_joint": 0.11119072380101613,
        "smoothness": 0.0,
        "time": 0.023390748,
        "traj_len": 1.617273639661293,
        "weighted_distance": 2.0477580635127137
    },
    "planner": "PRM",
    "start": {
        "state": {
            "elbow_joint": 1.97154746011099,
            "shoulder_lift_joint": -1.13948474672311,
            "shoulder_pan_joint": 0.12281154466712228,
            "wrist_1_joint": -0.7804688027058302,
            "wrist_2_joint": 0.12958655903071145,
            "wrist_3_joint": 3.0906928834467795
        }
    },
    "waypoints": [
        {
            "positions": [
                0.12281154466712228,
                -1.13948474672311,
                1.97154746011099,
                -0.7804688027058302,
                0.12958655903071145,
                3.0906928834467795
            ]
        },
        {
            "positions": [
                0.05698669144078314,
                -1.1730090211445483,
                2.0363448593498195,
                -0.8174517651720292,
                0.28622611278394383,
                3.10657727256121
            ]
        },
        {
            "positions": [
                -0.008838161785556006,
                -1.2065332955659869,
                2.101142258588649,
                -0.8544347276382281,
                0.4428656665371762,
                3.1224616616756413
            ]
        },
        {
            "positions": [
                -0.07466301501189514,
                -1.2400575699874252,
                2.1659396578274785,
                -0.8914176901044272,
                0.5995052202904085,
                3.138346050790072
            ]
        },
        {
            "positions": [
                -0.14048786823823428,
                -1.2735818444088636,
                2.2307370570663085,
                -0.9284006525706262,
                0.756144774043641,
                3.154230439904503
            ]
        },
        {
            "positions": [
                -0.20631272146457347,
                -1.3071061188303021,
                2.295534456305138,
                -0.9653836150368251,
                0.9127843277968735,
                3.170114829018934
            ]
        },
        {
            "positions": [
                -0.27213757469091254,
                -1.3406303932517405,
                2.3603318555439676,
                -1.0023665775030242,
                1.0694238815501056,
                3.185999218133365
            ]
        },
        {
            "positions": [
                -0.33796242791725173,
                -1.3741546676731788,
                2.425129254782797,
                -1.0393495399692232,
                1.2260634353033382,
                3.2018836072477956
            ]
        }
    ]
}{
    "goal": {
        "global_pose": {
            "orientation": {
                "w": 0.5084816217422485,
                "x": -0.49083608388900757,
                "y": 0.5182115435600281,
                "z": -0.4816462993621826
            },
            "position": {
                "x": 0.5540239810943604,
                "y": 0.030875300988554955,
                "z": 0.16403168439865112
            }
        },
        "name": "move_to_storage_A"
    },
    "id": "PRM_move_to_storage_A_114",
    "joint_names": [
        "shoulder_pan_joint",
        "shoulder_lift_joint",
        "elbow_joint",
        "wrist_1_joint",
        "wrist_2_joint",
        "wrist_3_joint"
    ],
    "metrics": {
        "cart_traj_len": 0.3527598372137133,
        "distance_elbow_joint": 0.45252904031310726,
        "distance_shoulder_lift_joint": 0.23299976008858314,
        "distance_shoulder_pan_joint": 0.4571192625243225,
        "distance_wrist_1_joint": 0.25793495700718383,
        "distance_wrist_2_joint": 1.115541627394858,
        "distance_wrist_3_joint": 0.10443073249333779,
        "smoothness": 1.1102230263833737e-15,
        "time": 0.03539595,
        "traj_len": 1.6188129539330331,
        "weighted_distance": 2.0500959560981795
    },
    "planner": "PRM",
    "start": {
        "state": {
            "elbow_joint": 1.9715472970024885,
            "shoulder_lift_joint": -1.1394870060712896,
            "shoulder_pan_joint": 0.12281152778156021,
            "wrist_1_joint": -0.780463741449964,
            "wrist_2_joint": 0.12958659822042276,
            "wrist_3_joint": 3.090690232415272
        }
    },
    "waypoints": [
        {
            "positions": [
                0.12281152778156021,
                -1.1394870060712896,
                1.9715472970024885,
                -0.780463741449964,
                0.12958659822042276,
                3.090690232415272
            ]
        },
        {
            "positions": [
                0.057508775992371294,
                -1.1727726860839442,
                2.036194302761504,
                -0.8173115924509903,
                0.2889496878482596,
                3.1056089084857486
            ]
        },
        {
            "positions": [
                -0.00779397579681762,
                -1.206058366096599,
                2.1008413085205193,
                -0.8541594434520166,
                0.44831277747609644,
                3.1205275845562257
            ]
        },
        {
            "positions": [
                -0.07309672758600655,
                -1.2393440461092537,
                2.1654883142795347,
                -0.8910072944530427,
                0.6076758671039333,
                3.1354462606267024
            ]
        },
        {
            "positions": [
                -0.13839947937519545,
                -1.2726297261219086,
                2.2301353200385496,
                -0.927855145454069,
                0.7670389567317701,
                3.150364936697179
            ]
        },
        {
            "positions": [
                -0.20370223116438438,
                -1.3059154061345633,
                2.294782325797565,
                -0.9647029964550953,
                0.926402046359607,
                3.165283612767656
            ]
        },
        {
            "positions": [
                -0.26900498295357334,
                -1.339201086147218,
                2.3594293315565804,
                -1.0015508474561217,
                1.0857651359874438,
                3.180202288838133
            ]
        },
        {
            "positions": [
                -0.33430773474276226,
                -1.3724867661598728,
                2.424076337315596,
                -1.0383986984571478,
                1.2451282256152807,
                3.1951209649086096
            ]
        }
    ]
}