{
    "goal": {
        "global_pose": {
            "orientation": {
                "w": 0.5084816262002911,
                "x": -0.4908360881923452,
                "y": 0.5182115481033761,
                "z": -0.48164630358495003
            },
            "position": {
                "x": 0.5540239810943604,
                "y": -0.46912469901144505,
                "z": 0.16403168439865112
            }
        },
        "name": "move_to_storage_B"
    },
    "id": "PRM_move_to_storage_B_58",
    "joint_names": [
        "shoulder_pan_joint",
        "shoulder_lift_joint",
        "elbow_joint",
        "wrist_1_joint",
        "wrist_2_joint",
        "wrist_3_joint"
    ],
    "metrics": {
        "cart_traj_len": 1.9937621411490547,
        "distance_elbow_joint": 0.7883559997919694,
        "distance_shoulder_lift_joint": 2.0733402257491846,
        "distance_shoulder_pan_joint": 1.322576246305866,
        "distance_wrist_1_joint": 3.0024849159672726,
        "distance_wrist_2_joint": 2.709372190114469,
        "distance_wrist_3_joint": 3.125344263085867,
        "smoothness": 0.263887675726127,
        "time": 0.161841188,
        "traj_len": 3.608527932691477,
        "weighted_distance": 4.9984016918679215
    },
    "planner": "PRM",
    "start": {
        "state": {
            "elbow_joint": 1.664937868594044,
            "shoulder_lift_joint": -0.661644460510453,
            "shoulder_pan_joint": -0.9139846352900073,
            "wrist_1_joint": 2.146753192139373,
            "wrist_2_joint": -2.2341966793290973,
            "wrist_3_joint": 0.005466555786416001
        }
    },
    "waypoints": [
        {
            "positions": [
                -0.9139846352900073,
                -0.661644460510453,
                1.664937868594044,
                2.146753192139373,
                -2.2341966793290973,
                0.005466555786416001
            ]
        },
        {
            "positions": [
                -0.886799980444001,
                -0.7219479226924275,
                1.6921540019793184,
                2.0793517909688335,
                -2.169383693037077,
                -0.14225361933791433
            ]
        },
        {
            "positions": [
                -0.8596153255979947,
                -0.782251384874402,
                1.719370135364593,
                2.0119503897982938,
                -2.104570706745057,
                -0.28997379446224464
            ]
        },
        {
            "positions": [
                -0.8324306707519884,
                -0.8425548470563765,
                1.7465862687498674,
                1.9445489886277543,
                -2.0397577204530366,
                -0.4376939695865749
            ]
        },
        {
            "positions": [
                -0.805246015905982,
                -0.9028583092383511,
                1.773802402135142,
                1.8771475874572146,
                -1.9749447341610162,
                -0.5854141447109054
            ]
        },
        {
            "positions": [
                -0.7780613610599757,
                -0.9631617714203256,
                1.8010185355204165,
                1.8097461862866748,
                -1.910131747868996,
                -0.7331343198352356
            ]
        },
        {
            "positions": [
                -0.7508767062139694,
                -1.0234652336023,
                1.828234668905691,
                1.742344785116135,
                -1.845318761576976,
                -0.8808544949595659
            ]
        },
        {
            "positions": [
                -0.7236920513679631,
                -1.0837686957842745,
                1.8554508022909657,
                1.6749433839455956,
                -1.7805057752849556,
                -1.0285746700838962
            ]
        },
        {
            "positions": [
                -0.6965073965219568,
                -1.144072157966249,
                1.8826669356762402,
                1.6075419827750559,
                -1.7156927889929352,
                -1.1762948452082267
            ]
        },
        {
            "positions": [
                -0.6693227416759504,
                -1.2043756201482236,
                1.9098830690615147,
                1.5401405816045162,
                -1.6508798027009153,
                -1.324015020332557
            ]
        },
        {
            "positions": [
                -0.6421380868299441,
                -1.264679082330198,
                1.9370992024467892,
                1.4727391804339764,
                -1.586066816408895,
                -1.4717351954568871
            ]
        },
        {
            "positions": [
                -0.6149534319839378,
                -1.3249825445121726,
                1.9643153358320637,
                1.4053377792634367,
                -1.5212538301168745,
                -1.6194553705812178
            ]
        },
        {
            "positions": [
                -0.5877687771379315,
                -1.385286006694147,
                1.9915314692173383,
                1.337936378092897,
                -1.4564408438248544,
                -1.7671755457055478
            ]
        },
        {
            "positions": [
                -0.5605841222919252,
                -1.4455894688761215,
                2.018747602602613,
                1.2705349769223573,
                -1.3916278575328342,
                -1.9148957208298782
            ]
        },
        {
            "positions": [
                -0.5333994674459188,
                -1.5058929310580962,
                2.0459637359878875,
                1.2031335757518178,
                -1.3268148712408139,
                -2.0626158959542082
            ]
        },
        {
            "positions": [
                -0.5062148125999125,
                -1.5661963932400707,
                2.073179869373162,
                1.135732174581278,
                -1.2620018849487935,
                -2.210336071078539
            ]
        },
        {
            "positions": [
                -0.4790301577539062,
                -1.6264998554220451,
                2.1003960027584365,
                1.0683307734107383,
                -1.1971888986567734,
                -2.358056246202869
            ]
        },
        {
            "positions": [
                -0.4518455029078999,
                -1.6868033176040196,
                2.127612136143711,
                1.0009293722401986,
                -1.1323759123647532,
                -2.5057764213271994
            ]
        },
        {
            "positions": [
                -0.42466084806189364,
                -1.747106779785994,
                2.1548282695289855,
                0.9335279710696591,
                -1.067562926072733,
                -2.6534965964515296
            ]
        },
        {
            "positions": [
                -0.39747619321588723,
                -1.8074102419679687,
                2.18204440291426,
                0.8661265698991194,
                -1.0027499397807127,
                -2.8012167715758602
            ]
        },
        {
            "positions": [
                -0.37029153836988093,
                -1.8677137041499432,
                2.2092605362995346,
                0.7987251687285797,
                -0.9379369534886925,
                -2.94893694670019
            ]
        },
        {
            "positions": [
                -0.34310688352387464,
                -1.9280171663319177,
                2.236476669684809,
                0.73132376755804,
                -0.8731239671966722,
                -3.0966571218245207
            ]
        },
        {
            "positions": [
                -0.4057484247355191,
                -1.8607698730046076,
                2.2184085697930422,
                0.5990691432758783,
                -0.7607656773648352,
                -3.0985921706140984
            ]
        },
        {
            "positions": [
                -0.46838996594716353,
                -1.7935225796772976,
                2.200340469901275,
                0.4668145189937166,
                -0.6484073875329983,
                -3.1005272194036757
            ]
        },
        {
            "positions": [
                -0.531031507158808,
                -1.7262752863499875,
                2.182272370009508,
                0.3345598947115549,
                -0.5360490977011614,
                -3.1024622681932534
            ]
        },
        {
            "positions": [
                -0.5936730483704524,
                -1.6590279930226777,
                2.164204270117741,
                0.20230527042939328,
                -0.4236908078693244,
                -3.1043973169828307
            ]
        },
        {
            "positions": [
                -0.6563145895820969,
                -1.5917806996953676,
                2.146136170225974,
                0.07005064614723144,
                -0.3113325180374874,
                -3.1063323657724085
            ]
        },
        {
            "positions": [
                -0.7189561307937413,
                -1.5245334063680576,
                2.1280680703342068,
                -0.06220397813493017,
                -0.19897422820565047,
                -3.108267414561986
            ]
        },
        {
            "positions": [
                -0.7815976720053859,
                -1.4572861130407475,
                2.10999997044244,
                -0.1944586024170919,
                -0.08661593837381343,
                -3.1102024633515635
            ]
        },
        {
            "positions": [
                -0.8442392132170302,
                -1.3900388197134377,
                2.091931870550673,
                -0.3267132266992534,
                0.025742351458023394,
                -3.112137512141141
            ]
        },
        {
            "positions": [
                -0.9068807544286747,
                -1.3227915263861276,
                2.073863770658906,
                -0.45896785098141524,
                0.13810064128986044,
                -3.1140725609307185
            ]
        },
        {
            "positions": [
                -0.9695222956403191,
                -1.2555442330588176,
                2.055795670767139,
                -0.5912224752635771,
                0.25045893112169737,
                -3.1160076097202962
            ]
        },
        {
            "positions": [
                -1.0321638368519634,
                -1.1882969397315075,
                2.0377275708753717,
                -0.7234770995457385,
                0.3628172209535343,
                -3.1179426585098735
            ]
        },
        {
            "positions": [
                -1.094805378063608,
                -1.1210496464041975,
                2.019659470983605,
                -0.8557317238279003,
                0.47517551078537124,
                -3.1198777072994512
            ]
        }
    ]
}