{
    "goal": {
        "global_pose": {
            "orientation": {
                "w": -0.00223480608172531,
                "x": 0.0024358444001904467,
                "y": 0.7094548369677653,
                "z": -0.704743149386269
            },
            "position": {
                "x": 0.6205249238014221,
                "y": -0.6371506643295288,
                "z": 0.19426114857196808
            }
        },
        "name": "move_to_magneteinheit_B"
    },
    "id": "PRM_move_to_magneteinheit_B_144",
    "joint_names": [
        "shoulder_pan_joint",
        "shoulder_lift_joint",
        "elbow_joint",
        "wrist_1_joint",
        "wrist_2_joint",
        "wrist_3_joint"
    ],
    "metrics": {
        "cart_traj_len": 1.495793966182796,
        "distance_elbow_joint": 1.2056571525682171,
        "distance_shoulder_lift_joint": 1.291607613017963,
        "distance_shoulder_pan_joint": 1.6202464650502553,
        "distance_wrist_1_joint": 1.7168290000112898,
        "distance_wrist_2_joint": 1.5286487140685503,
        "distance_wrist_3_joint": 0.3181727285785862,
        "smoothness": 0.781014379713589,
        "time": 0.44656420399999996,
        "traj_len": 2.771490875556848,
        "weighted_distance": 3.4004389193943587
    },
    "planner": "PRM",
    "start": {
        "state": {
            "elbow_joint": 2.6216224122426386,
            "shoulder_lift_joint": -1.4174107377796124,
            "shoulder_pan_joint": 0.7066234856936794,
            "wrist_1_joint": 1.9546482284002225,
            "wrist_2_joint": -0.7096286983471962,
            "wrist_3_joint": 0.005740856962016249
        }
    },
    "waypoints": [
        {
            "positions": [
                0.7066234856936794,
                -1.4174107377796124,
                2.6216224122426386,
                1.9546482284002225,
                -0.7096286983471962,
                0.005740856962016249
            ]
        },
        {
            "positions": [
                0.6870792376435029,
                -1.4383912260939145,
                2.6039461771410988,
                1.8306284752781483,
                -0.7252312548127298,
                -0.04190375951940582
            ]
        },
        {
            "positions": [
                0.6675349895933265,
                -1.4593717144082166,
                2.586269942039559,
                1.7066087221560742,
                -0.7408338112782633,
                -0.08954837600082789
            ]
        },
        {
            "positions": [
                0.5692428527863351,
                -1.5157053250301353,
                2.6173518750573184,
                1.5776072286550926,
                -0.7651464582117736,
                -0.10466662223795245
            ]
        },
        {
            "positions": [
                0.4709507159793438,
                -1.5720389356520539,
                2.6484338080750778,
                1.448605735154111,
                -0.789459105145284,
                -0.119784868475077
            ]
        },
        {
            "positions": [
                0.3726585791723525,
                -1.6283725462739724,
                2.6795157410928376,
                1.3196042416531297,
                -0.8137717520787943,
                -0.13490311471220157
            ]
        },
        {
            "positions": [
                0.2743664423653612,
                -1.6847061568958912,
                2.710597674110597,
                1.1906027481521482,
                -0.8380843990123046,
                -0.1500213609493261
            ]
        },
        {
            "positions": [
                0.19516714758389872,
                -1.6164186773024456,
                2.6408658774243237,
                1.2541216494696958,
                -0.9314305999058674,
                -0.13919399357150986
            ]
        },
        {
            "positions": [
                0.11596785280243627,
                -1.548131197709,
                2.5711340807380503,
                1.3176405507872435,
                -1.0247768007994302,
                -0.1283666261936936
            ]
        },
        {
            "positions": [
                0.036768558020973785,
                -1.4798437181155544,
                2.5014022840517773,
                1.3811594521047912,
                -1.118123001692993,
                -0.11753925881587735
            ]
        },
        {
            "positions": [
                -0.04243073676048864,
                -1.4115562385221088,
                2.431670487365504,
                1.444678353422339,
                -1.2114692025865557,
                -0.10671189143806109
            ]
        },
        {
            "positions": [
                -0.12163003154195112,
                -1.3432687589286632,
                2.3619386906792306,
                1.5081972547398865,
                -1.3048154034801185,
                -0.09588452406024484
            ]
        },
        {
            "positions": [
                -0.2008293263234136,
                -1.2749812793352175,
                2.292206893992957,
                1.5717161560574344,
                -1.3981616043736813,
                -0.08505715668242857
            ]
        },
        {
            "positions": [
                -0.2800286211048761,
                -1.206693799741772,
                2.222475097306684,
                1.635235057374982,
                -1.4915078052672441,
                -0.07422978930461231
            ]
        },
        {
            "positions": [
                -0.35922791588633846,
                -1.1384063201483263,
                2.1527433006204104,
                1.6987539586925298,
                -1.584854006160807,
                -0.06340242192679606
            ]
        },
        {
            "positions": [
                -0.43842721066780094,
                -1.0701188405548807,
                2.0830115039341375,
                1.7622728600100774,
                -1.6782002070543696,
                -0.0525750545489798
            ]
        },
        {
            "positions": [
                -0.5176265054492635,
                -1.001831360961435,
                2.013279707247864,
                1.825791761327625,
                -1.7715464079479326,
                -0.04174768717116355
            ]
        },
        {
            "positions": [
                -0.5968258002307258,
                -0.9335438813679895,
                1.9435479105615907,
                1.8893106626451728,
                -1.8648926088414952,
                -0.030920319793347292
            ]
        },
        {
            "positions": [
                -0.6760250950121884,
                -0.8652564017745439,
                1.8738161138753173,
                1.9528295639627207,
                -1.9582388097350583,
                -0.020092952415531024
            ]
        },
        {
            "positions": [
                -0.7552243897936508,
                -0.7969689221810983,
                1.8040843171890442,
                2.0163484652802683,
                -2.051585010628621,
                -0.009265585037714769
            ]
        },
        {
            "positions": [
                -0.8344236845751134,
                -0.7286814425876527,
                1.734352520502771,
                2.0798673665978162,
                -2.1449312115221835,
                0.0015617823401014863
            ]
        },
        {
            "positions": [
                -0.9136229793565758,
                -0.6603939629942069,
                1.6646207238164976,
                2.1433862679153637,
                -2.2382774124157465,
                0.012389149717917748
            ]
        }
    ]
}