{
    "goal": {
        "global_pose": {
            "orientation": {
                "w": 0.005598929693374612,
                "x": 0.007748599140229565,
                "y": 0.7110244013736278,
                "z": -0.7031023480610252
            },
            "position": {
                "x": -0.8858502320852131,
                "y": -0.7141253447532654,
                "z": 0.3711530566215515
            }
        },
        "name": "move_to_auspresseinheit_C"
    },
    "id": "PRM_move_to_auspresseinheit_C_133",
    "joint_names": [
        "shoulder_pan_joint",
        "shoulder_lift_joint",
        "elbow_joint",
        "wrist_1_joint",
        "wrist_2_joint",
        "wrist_3_joint"
    ],
    "metrics": {
        "cart_traj_len": 0.4936317726206778,
        "distance_elbow_joint": 0.9952579824397103,
        "distance_shoulder_lift_joint": 0.32230469550873053,
        "distance_shoulder_pan_joint": 0.2565119560152316,
        "distance_wrist_1_joint": 0.6611595998260923,
        "distance_wrist_2_joint": 1.3152416971407035,
        "distance_wrist_3_joint": 0.045101162072734624,
        "smoothness": 8.074349282788172e-16,
        "time": 0.01729609,
        "traj_len": 1.8962006995577243,
        "weighted_distance": 2.3795337177933553
    },
    "planner": "PRM",
    "start": {
        "state": {
            "elbow_joint": 1.7527959577737207,
            "shoulder_lift_joint": -0.9740617694225068,
            "shoulder_pan_joint": -2.967991417825858,
            "wrist_1_joint": -0.759517768980727,
            "wrist_2_joint": 1.7443932448377408,
            "wrist_3_joint": -3.0840537646736568
        }
    },
    "waypoints": [
        {
            "positions": [
                -2.967991417825858,
                -0.9740617694225068,
                1.7527959577737207,
                -0.759517768980727,
                1.7443932448377408,
                -3.0840537646736568
            ]
        },
        {
            "positions": [
                -2.9423402222243347,
                -0.9418312998716337,
                1.6532701595297496,
                -0.6934018089981178,
                1.6128690751236705,
                -3.08856388088093
            ]
        },
        {
            "positions": [
                -2.916689026622812,
                -0.9096008303207607,
                1.5537443612857786,
                -0.6272858490155085,
                1.4813449054096002,
                -3.0930739970882035
            ]
        },
        {
            "positions": [
                -2.8910378310212885,
                -0.8773703607698876,
                1.4542185630418076,
                -0.5611698890328993,
                1.3498207356955298,
                -3.0975841132954773
            ]
        },
        {
            "positions": [
                -2.8653866354197652,
                -0.8451398912190146,
                1.3546927647978366,
                -0.49505392905029005,
                1.2182965659814595,
                -3.1020942295027507
            ]
        },
        {
            "positions": [
                -2.8397354398182424,
                -0.8129094216681415,
                1.2551669665538654,
                -0.42893796906768084,
                1.086772396267389,
                -3.106604345710024
            ]
        },
        {
            "positions": [
                -2.814084244216719,
                -0.7806789521172685,
                1.1556411683098946,
                -0.3628220090850716,
                0.9552482265533188,
                -3.1111144619172975
            ]
        },
        {
            "positions": [
                -2.788433048615196,
                -0.7484484825663954,
                1.0561153700659234,
                -0.2967060491024624,
                0.8237240568392484,
                -3.115624578124571
            ]
        },
        {
            "positions": [
                -2.7627818530136725,
                -0.7162180130155223,
                0.9565895718219524,
                -0.23059008911985313,
                0.692199887125178,
                -3.1201346943318446
            ]
        },
        {
            "positions": [
                -2.7371306574121497,
                -0.6839875434646493,
                0.8570637735779814,
                -0.1644741291372439,
                0.5606757174111077,
                -3.124644810539118
            ]
        },
        {
            "positions": [
                -2.7114794618106264,
                -0.6517570739137762,
                0.7575379753340103,
                -0.09835816915463465,
                0.42915154769703734,
                -3.1291549267463914
            ]
        }
    ]
}