{
    "goal": {
        "global_pose": {
            "orientation": {
                "w": 0.005598929693374612,
                "x": 0.007748599140229565,
                "y": 0.7110244013736278,
                "z": -0.7031023480610252
            },
            "position": {
                "x": -0.8858502320852131,
                "y": -0.7141253447532654,
                "z": 0.3711530566215515
            }
        },
        "name": "move_to_auspresseinheit_C"
    },
    "id": "PRM_move_to_auspresseinheit_C_144",
    "joint_names": [
        "shoulder_pan_joint",
        "shoulder_lift_joint",
        "elbow_joint",
        "wrist_1_joint",
        "wrist_2_joint",
        "wrist_3_joint"
    ],
    "metrics": {
        "cart_traj_len": 0.4922152012307635,
        "distance_elbow_joint": 0.9878300850584276,
        "distance_shoulder_lift_joint": 0.31939122362633854,
        "distance_shoulder_pan_joint": 0.2566372004712232,
        "distance_wrist_1_joint": 0.6569291226435546,
        "distance_wrist_2_joint": 1.3087606491001207,
        "distance_wrist_3_joint": 0.0410525223143714,
        "smoothness": 0.0,
        "time": 0.023011280000000002,
        "traj_len": 1.8896033454706933,
        "weighted_distance": 2.370315510556866
    },
    "planner": "PRM",
    "start": {
        "state": {
            "elbow_joint": 1.7527959577737207,
            "shoulder_lift_joint": -0.9740617694225068,
            "shoulder_pan_joint": -2.967991417825858,
            "wrist_1_joint": -0.759517768980727,
            "wrist_2_joint": 1.7443932448377408,
            "wrist_3_joint": -3.0840537646736568
        }
    },
    "waypoints": [
        {
            "positions": [
                -2.967991417825858,
                -0.9740617694225068,
                1.7527959577737207,
                -0.759517768980727,
                1.7443932448377408,
                -3.0840537646736568
            ]
        },
        {
            "positions": [
                -2.942327697778736,
                -0.9421226470598729,
                1.654012949267878,
                -0.6938248567163715,
                1.6135171799277288,
                -3.088159016905094
            ]
        },
        {
            "positions": [
                -2.9166639777316132,
                -0.9101835246972391,
                1.5552299407620351,
                -0.628131944452016,
                1.4826411150177168,
                -3.092264269136531
            ]
        },
        {
            "positions": [
                -2.891000257684491,
                -0.8782444023346052,
                1.4564469322561924,
                -0.5624390321876606,
                1.3517650501077045,
                -3.096369521367968
            ]
        },
        {
            "positions": [
                -2.8653365376373685,
                -0.8463052799719714,
                1.3576639237503496,
                -0.49674611992330514,
                1.2208889851976925,
                -3.100474773599405
            ]
        },
        {
            "positions": [
                -2.8396728175902464,
                -0.8143661576093375,
                1.2588809152445068,
                -0.43105320765894967,
                1.0900129202876805,
                -3.1045800258308427
            ]
        },
        {
            "positions": [
                -2.8140090975431242,
                -0.7824270352467037,
                1.160097906738664,
                -0.3653602953945942,
                0.9591368553776685,
                -3.10868527806228
            ]
        },
        {
            "positions": [
                -2.7883453774960016,
                -0.7504879128840698,
                1.0613148982328213,
                -0.2996673831302388,
                0.8282607904676564,
                -3.112790530293717
            ]
        },
        {
            "positions": [
                -2.7626816574488795,
                -0.7185487905214359,
                0.9625318897269786,
                -0.2339744708658833,
                0.6973847255576442,
                -3.116895782525154
            ]
        },
        {
            "positions": [
                -2.737017937401757,
                -0.6866096681588021,
                0.8637488812211358,
                -0.16828155860152783,
                0.5665086606476322,
                -3.121001034756591
            ]
        },
        {
            "positions": [
                -2.7113542173546348,
                -0.6546705457961682,
                0.764965872715293,
                -0.10258864633717238,
                0.43563259573762014,
                -3.125106286988028
            ]
        }
    ]
}