{
    "goal": {
        "global_pose": {
            "orientation": {
                "w": 0.5084816217422485,
                "x": -0.49083608388900757,
                "y": 0.5182115435600281,
                "z": -0.4816462993621826
            },
            "position": {
                "x": 0.5540239810943604,
                "y": 0.030875300988554955,
                "z": 0.16403168439865112
            }
        },
        "name": "move_to_storage_A"
    },
    "id": "PRM_move_to_storage_A_94",
    "joint_names": [
        "shoulder_pan_joint",
        "shoulder_lift_joint",
        "elbow_joint",
        "wrist_1_joint",
        "wrist_2_joint",
        "wrist_3_joint"
    ],
    "metrics": {
        "cart_traj_len": 0.35347069198096936,
        "distance_elbow_joint": 0.45307462241904983,
        "distance_shoulder_lift_joint": 0.2346188299783627,
        "distance_shoulder_pan_joint": 0.46438420600096375,
        "distance_wrist_1_joint": 0.2587520489707703,
        "distance_wrist_2_joint": 1.0902642859784337,
        "distance_wrist_3_joint": 0.09946190143333311,
        "smoothness": 0.0,
        "time": 0.03540597,
        "traj_len": 1.6126239161009965,
        "weighted_distance": 2.0367857110154675
    },
    "planner": "PRM",
    "start": {
        "state": {
            "elbow_joint": 1.971548259319323,
            "shoulder_lift_joint": -1.1394851275133948,
            "shoulder_pan_joint": 0.1228115487234821,
            "wrist_1_joint": -0.7804723859257726,
            "wrist_2_joint": 0.12958671773740124,
            "wrist_3_joint": -3.192489227718131
        }
    },
    "waypoints": [
        {
            "positions": [
                0.1228115487234821,
                -1.1394851275133948,
                1.971548259319323,
                -0.7804723859257726,
                0.12958671773740124,
                -3.192489227718131
            ]
        },
        {
            "positions": [
                0.05647094786620156,
                -1.1730021032245894,
                2.0362732053791874,
                -0.8174369643501683,
                0.2853387585914632,
                -3.1782803846562264
            ]
        },
        {
            "positions": [
                -0.009869652991078975,
                -1.2065190789357843,
                2.1009981514390517,
                -0.8544015427745641,
                0.4410907994455251,
                -3.1640715415943217
            ]
        },
        {
            "positions": [
                -0.0762102538483595,
                -1.2400360546469789,
                2.165723097498916,
                -0.8913661211989599,
                0.5968428402995871,
                -3.149862698532417
            ]
        },
        {
            "positions": [
                -0.14255085470564005,
                -1.2735530303581735,
                2.23044804355878,
                -0.9283306996233557,
                0.752594881153649,
                -3.1356538554705122
            ]
        },
        {
            "positions": [
                -0.2088914555629206,
                -1.307070006069368,
                2.2951729896186444,
                -0.9652952780477514,
                0.908346922007711,
                -3.1214450124086075
            ]
        },
        {
            "positions": [
                -0.2752320564202011,
                -1.340586981780563,
                2.3598979356785086,
                -1.0022598564721472,
                1.064098962861773,
                -3.1072361693467028
            ]
        },
        {
            "positions": [
                -0.34157265727748165,
                -1.3741039574917575,
                2.424622881738373,
                -1.039224434896543,
                1.219851003715835,
                -3.093027326284798
            ]
        }
    ]
}{
    "goal": {
        "global_pose": {
            "orientation": {
                "w": 0.5084816217422485,
                "x": -0.49083608388900757,
                "y": 0.5182115435600281,
                "z": -0.4816462993621826
            },
            "position": {
                "x": 0.5540239810943604,
                "y": 0.030875300988554955,
                "z": 0.16403168439865112
            }
        },
        "name": "move_to_storage_A"
    },
    "id": "PRM_move_to_storage_A_94",
    "joint_names": [
        "shoulder_pan_joint",
        "shoulder_lift_joint",
        "elbow_joint",
        "wrist_1_joint",
        "wrist_2_joint",
        "wrist_3_joint"
    ],
    "metrics": {
        "cart_traj_len": 0.3538292218846319,
        "distance_elbow_joint": 0.4506807175379537,
        "distance_shoulder_lift_joint": 0.23313796341225412,
        "distance_shoulder_pan_joint": 0.4615438331071263,
        "distance_wrist_1_joint": 0.24650953619857363,
        "distance_wrist_2_joint": 1.1047124564420714,
        "distance_wrist_3_joint": 0.10469803381917231,
        "smoothness": 2.2204460668324854e-16,
        "time": 0.029282568999999998,
        "traj_len": 1.612849199558704,
        "weighted_distance": 2.0400736753353153
    },
    "planner": "PRM",
    "start": {
        "state": {
            "elbow_joint": 1.97154746011099,
            "shoulder_lift_joint": -1.13948474672311,
            "shoulder_pan_joint": 0.12281154466712228,
            "wrist_1_joint": -0.7804688027058302,
            "wrist_2_joint": 0.12958655903071145,
            "wrist_3_joint": 3.0906928834467795
        }
    },
    "waypoints": [
        {
            "positions": [
                0.12281154466712228,
                -1.13948474672311,
                1.97154746011099,
                -0.7804688027058302,
                0.12958655903071145,
                3.0906928834467795
            ]
        },
        {
            "positions": [
                0.05687671136610424,
                -1.1727901700677177,
                2.035930419759269,
                -0.8156844507341978,
                0.28740262423672164,
                3.105649745420947
            ]
        },
        {
            "positions": [
                -0.009058121934913801,
                -1.2060955934123254,
                2.100313379407548,
                -0.8509000987625654,
                0.4452186894427318,
                3.1206066073951146
            ]
        },
        {
            "positions": [
                -0.07499295523593184,
                -1.2394010167569331,
                2.164696339055827,
                -0.8861157467909332,
                0.603034754648742,
                3.135563469369282
            ]
        },
        {
            "positions": [
                -0.14092778853694987,
                -1.2727064401015409,
                2.2290792987041064,
                -0.9213313948193008,
                0.7608508198547522,
                3.1505203313434493
            ]
        },
        {
            "positions": [
                -0.20686262183796794,
                -1.3060118634461486,
                2.2934622583523856,
                -0.9565470428476686,
                0.9186668850607624,
                3.1654771933176167
            ]
        },
        {
            "positions": [
                -0.27279745513898596,
                -1.3393172867907563,
                2.3578452180006644,
                -0.9917626908760362,
                1.0764829502667725,
                3.1804340552917845
            ]
        },
        {
            "positions": [
                -0.338732288440004,
                -1.372622710135364,
                2.4222281776489436,
                -1.0269783389044038,
                1.2342990154727829,
                3.195390917265952
            ]
        }
    ]
}{
    "goal": {
        "global_pose": {
            "orientation": {
                "w": 0.5084816217422485,
                "x": -0.49083608388900757,
                "y": 0.5182115435600281,
                "z": -0.4816462993621826
            },
            "position": {
                "x": 0.5540239810943604,
                "y": 0.030875300988554955,
                "z": 0.16403168439865112
            }
        },
        "name": "move_to_storage_A"
    },
    "id": "PRM_move_to_storage_A_94",
    "joint_names": [
        "shoulder_pan_joint",
        "shoulder_lift_joint",
        "elbow_joint",
        "wrist_1_joint",
        "wrist_2_joint",
        "wrist_3_joint"
    ],
    "metrics": {
        "cart_traj_len": 0.35353597829669764,
        "distance_elbow_joint": 0.4528441863346435,
        "distance_shoulder_lift_joint": 0.23154729966077148,
        "distance_shoulder_pan_joint": 0.45951028070204625,
        "distance_wrist_1_joint": 0.261764791835982,
        "distance_wrist_2_joint": 1.1103437558551865,
        "distance_wrist_3_joint": 0.10775101647556395,
        "smoothness": 6.661338165333112e-16,
        "time": 0.026967974,
        "traj_len": 1.6198028679022005,
        "weighted_distance": 2.0521627400151505
    },
    "planner": "PRM",
    "start": {
        "state": {
            "elbow_joint": 1.9715472970024885,
            "shoulder_lift_joint": -1.1394870060712896,
            "shoulder_pan_joint": 0.12281152778156021,
            "wrist_1_joint": -0.780463741449964,
            "wrist_2_joint": 0.12958659822042276,
            "wrist_3_joint": 3.090690232415272
        }
    },
    "waypoints": [
        {
            "positions": [
                0.12281152778156021,
                -1.1394870060712896,
                1.9715472970024885,
                -0.780463741449964,
                0.12958659822042276,
                3.090690232415272
            ]
        },
        {
            "positions": [
                0.057167201966982176,
                -1.172565191737114,
                2.0362393236217233,
                -0.8178587117122471,
                0.28820713477116366,
                3.106083234768924
            ]
        },
        {
            "positions": [
                -0.008477123847595858,
                -1.2056433774029387,
                2.100931350240958,
                -0.8552536819745302,
                0.4468276713219046,
                3.1214762371225757
            ]
        },
        {
            "positions": [
                -0.07412144966217388,
                -1.2387215630687631,
                2.165623376860193,
                -0.8926486522368134,
                0.6054482078726455,
                3.1368692394762276
            ]
        },
        {
            "positions": [
                -0.13976577547675192,
                -1.2717997487345876,
                2.2303154034794277,
                -0.9300436224990966,
                0.7640687444233865,
                3.15226224182988
            ]
        },
        {
            "positions": [
                -0.20541010129133,
                -1.304877934400412,
                2.2950074300986625,
                -0.9674385927613798,
                0.9226892809741274,
                3.167655244183532
            ]
        },
        {
            "positions": [
                -0.271054427105908,
                -1.3379561200662367,
                2.3596994567178973,
                -1.004833563023663,
                1.0813098175248683,
                3.183048246537184
            ]
        },
        {
            "positions": [
                -0.336698752920486,
                -1.371034305732061,
                2.424391483337132,
                -1.042228533285946,
                1.2399303540756093,
                3.198441248890836
            ]
        }
    ]
}