{
    "goal": {
        "global_pose": {
            "orientation": {
                "w": -0.4816463035849501,
                "x": 0.5182115481033762,
                "y": 0.4908360881923453,
                "z": -0.5084816262002911
            },
            "position": {
                "x": -0.8240239810943604,
                "y": 0.19912469901144506,
                "z": 0.16403168439865112
            }
        },
        "name": "move_to_storage_D"
    },
    "id": "PRM_move_to_storage_D_134",
    "joint_names": [
        "shoulder_pan_joint",
        "shoulder_lift_joint",
        "elbow_joint",
        "wrist_1_joint",
        "wrist_2_joint",
        "wrist_3_joint"
    ],
    "metrics": {
        "cart_traj_len": 3.620735971767908,
        "distance_elbow_joint": 4.209681239341233,
        "distance_shoulder_lift_joint": 1.2678554360856127,
        "distance_shoulder_pan_joint": 2.8127037530157115,
        "distance_wrist_1_joint": 2.652416654378303,
        "distance_wrist_2_joint": 1.0739171136284467,
        "distance_wrist_3_joint": 3.4518158512792225,
        "smoothness": 0.16331521676480212,
        "time": 0.189654561,
        "traj_len": 3.9329874202352255,
        "weighted_distance": 5.10865496175791
    },
    "planner": "PRM",
    "start": {
        "state": {
            "elbow_joint": -2.384821988534728,
            "shoulder_lift_joint": -2.2788054721415256,
            "shoulder_pan_joint": -0.1854694642142757,
            "wrist_1_joint": 1.4845938289331202,
            "wrist_2_joint": 0.17898776772866878,
            "wrist_3_joint": 0.037105688729662994
        }
    },
    "waypoints": [
        {
            "positions": [
                -0.1854694642142757,
                -2.2788054721415256,
                -2.384821988534728,
                1.4845938289331202,
                0.17898776772866878,
                0.037105688729662994
            ]
        },
        {
            "positions": [
                -0.033648416824622246,
                -2.202784990163545,
                -2.323321225192072,
                1.5170560983015657,
                0.16245295779906838,
                0.010834958564784888
            ]
        },
        {
            "positions": [
                0.11817263056503122,
                -2.126764508185564,
                -2.2618204618494167,
                1.5495183676700115,
                0.145918147869468,
                -0.015435771600093219
            ]
        },
        {
            "positions": [
                0.26999367795468476,
                -2.0507440262075836,
                -2.2003196985067612,
                1.581980637038457,
                0.1293833379398676,
                -0.04170650176497133
            ]
        },
        {
            "positions": [
                0.42181472534433817,
                -1.9747235442296027,
                -2.1388189351641054,
                1.6144429064069026,
                0.1128485280102672,
                -0.06797723192984943
            ]
        },
        {
            "positions": [
                0.5736357727339918,
                -1.8987030622516219,
                -2.0773181718214495,
                1.6469051757753483,
                0.09631371808066679,
                -0.09424796209472755
            ]
        },
        {
            "positions": [
                0.7254568201236452,
                -1.822682580273641,
                -2.015817408478794,
                1.6793674451437939,
                0.07977890815106639,
                -0.12051869225960565
            ]
        },
        {
            "positions": [
                0.7813364989716788,
                -1.79885484026741,
                -1.9044533242240422,
                1.6085384983529087,
                0.10784531868607773,
                -0.02547003820085078
            ]
        },
        {
            "positions": [
                0.8372161778197122,
                -1.775027100261179,
                -1.7930892399692904,
                1.5377095515620236,
                0.13591172922108907,
                0.06957861585790409
            ]
        },
        {
            "positions": [
                0.8930958566677458,
                -1.751199360254948,
                -1.6817251557145385,
                1.4668806047711385,
                0.16397813975610043,
                0.164627269916659
            ]
        },
        {
            "positions": [
                0.9489755355157794,
                -1.727371620248717,
                -1.5703610714597867,
                1.3960516579802533,
                0.19204455029111173,
                0.25967592397541384
            ]
        },
        {
            "positions": [
                1.004855214363813,
                -1.7035438802424858,
                -1.4589969872050348,
                1.3252227111893682,
                0.22011096082612308,
                0.35472457803416874
            ]
        },
        {
            "positions": [
                1.0607348932118466,
                -1.6797161402362548,
                -1.347632902950283,
                1.254393764398483,
                0.24817737136113444,
                0.44977323209292364
            ]
        },
        {
            "positions": [
                1.1166145720598801,
                -1.6558884002300238,
                -1.2362688186955313,
                1.1835648176075981,
                0.27624378189614573,
                0.5448218861516785
            ]
        },
        {
            "positions": [
                1.1724942509079135,
                -1.6320606602237928,
                -1.1249047344407792,
                1.1127358708167128,
                0.3043101924311571,
                0.6398705402104333
            ]
        },
        {
            "positions": [
                1.2283739297559473,
                -1.6082329202175618,
                -1.0135406501860273,
                1.0419069240258279,
                0.33237660296616844,
                0.7349191942691883
            ]
        },
        {
            "positions": [
                1.2842536086039806,
                -1.5844051802113308,
                -0.9021765659312755,
                0.9710779772349426,
                0.3604430135011798,
                0.8299678483279431
            ]
        },
        {
            "positions": [
                1.3401332874520144,
                -1.5605774402050998,
                -0.7908124816765236,
                0.9002490304440575,
                0.38850942403619115,
                0.925016502386698
            ]
        },
        {
            "positions": [
                1.3960129663000478,
                -1.5367497001988686,
                -0.6794483974217718,
                0.8294200836531723,
                0.4165758345712025,
                1.0200651564454528
            ]
        },
        {
            "positions": [
                1.4518926451480811,
                -1.5129219601926378,
                -0.5680843131670201,
                0.7585911368622873,
                0.44464224510621375,
                1.1151138105042078
            ]
        },
        {
            "positions": [
                1.507772323996115,
                -1.4890942201864066,
                -0.45672022891226827,
                0.6877621900714022,
                0.4727086556412251,
                1.2101624645629627
            ]
        },
        {
            "positions": [
                1.5636520028441483,
                -1.4652664801801756,
                -0.3453561446575164,
                0.616933243280517,
                0.5007750661762365,
                1.3052111186217177
            ]
        },
        {
            "positions": [
                1.619531681692182,
                -1.4414387401739446,
                -0.23399206040276455,
                0.5461042964896319,
                0.5288414767112478,
                1.4002597726804722
            ]
        },
        {
            "positions": [
                1.6754113605402154,
                -1.4176110001677136,
                -0.12262797614801269,
                0.47527534969874674,
                0.5569078872462592,
                1.4953084267392271
            ]
        },
        {
            "positions": [
                1.7312910393882492,
                -1.3937832601614826,
                -0.011263891893260602,
                0.4044464029078616,
                0.5849742977812704,
                1.590357080797982
            ]
        },
        {
            "positions": [
                1.7871707182362826,
                -1.3699555201552516,
                0.10010019236149104,
                0.33361745611697646,
                0.6130407083162818,
                1.685405734856737
            ]
        },
        {
            "positions": [
                1.8430503970843164,
                -1.3461277801490206,
                0.21146427661624312,
                0.2627885093260913,
                0.6411071188512931,
                1.780454388915492
            ]
        },
        {
            "positions": [
                1.8989300759323497,
                -1.3223000401427893,
                0.32282836087099476,
                0.19195956253520619,
                0.6691735293863045,
                1.875503042974247
            ]
        },
        {
            "positions": [
                1.9548097547803835,
                -1.2984723001365586,
                0.43419244512574684,
                0.12113061574432105,
                0.6972399399213158,
                1.9705516970330015
            ]
        },
        {
            "positions": [
                2.010689433628417,
                -1.2746445601303273,
                0.5455565293804985,
                0.05030166895343591,
                0.7253063504563272,
                2.0656003510917564
            ]
        },
        {
            "positions": [
                2.0665691124764507,
                -1.2508168201240963,
                0.6569206136352506,
                -0.02052727783744923,
                0.7533727609913385,
                2.1606490051505114
            ]
        },
        {
            "positions": [
                2.122448791324484,
                -1.2269890801178653,
                0.7682846978900022,
                -0.09135622462833437,
                0.7814391715263499,
                2.2556976592092663
            ]
        },
        {
            "positions": [
                2.1783284701725174,
                -1.2031613401116343,
                0.8796487821447538,
                -0.1621851714192193,
                0.8095055820613611,
                2.350746313268021
            ]
        },
        {
            "positions": [
                2.2342081490205508,
                -1.1793336001054033,
                0.9910128663995055,
                -0.23301411821010443,
                0.8375719925963725,
                2.445794967326776
            ]
        },
        {
            "positions": [
                2.2900878278685846,
                -1.1555058600991723,
                1.1023769506542576,
                -0.30384306500098957,
                0.8656384031313838,
                2.5408436213855308
            ]
        },
        {
            "positions": [
                2.345967506716618,
                -1.1316781200929413,
                1.2137410349090092,
                -0.3746720117918745,
                0.8937048136663951,
                2.6358922754442857
            ]
        },
        {
            "positions": [
                2.4018471855646517,
                -1.10785038008671,
                1.3251051191637613,
                -0.44550095858275984,
                0.9217712242014064,
                2.7309409295030407
            ]
        },
        {
            "positions": [
                2.457726864412685,
                -1.0840226400804793,
                1.436469203418513,
                -0.5163299053736448,
                0.9498376347364178,
                2.825989583561795
            ]
        },
        {
            "positions": [
                2.513606543260719,
                -1.060194900074248,
                1.547833287673265,
                -0.5871588521645301,
                0.9779040452714292,
                2.92103823762055
            ]
        },
        {
            "positions": [
                2.569486222108752,
                -1.036367160068017,
                1.6591973719280166,
                -0.657987798955415,
                1.0059704558064406,
                3.016086891679305
            ]
        },
        {
            "positions": [
                2.625365900956786,
                -1.012539420061786,
                1.7705614561827687,
                -0.7288167457463004,
                1.0340368663414519,
                3.11113554573806
            ]
        },
        {
            "positions": [
                2.627234288801436,
                -1.0141288040676593,
                1.824859250806505,
                -0.7782755930238356,
                1.0544871622019107,
                3.173672778030348
            ]
        }
    ]
}