{
    "goal": {
        "global_pose": {
            "orientation": {
                "w": -0.00223480608172531,
                "x": 0.0024358444001904467,
                "y": 0.7094548369677653,
                "z": -0.704743149386269
            },
            "position": {
                "x": -0.37947507619857795,
                "y": -0.6371506643295288,
                "z": 0.19426114857196808
            }
        },
        "name": "move_to_magneteinheit_C"
    },
    "id": "PRM_move_to_magneteinheit_C_133",
    "joint_names": [
        "shoulder_pan_joint",
        "shoulder_lift_joint",
        "elbow_joint",
        "wrist_1_joint",
        "wrist_2_joint",
        "wrist_3_joint"
    ],
    "metrics": {
        "cart_traj_len": 2.3933646616974267,
        "distance_elbow_joint": 0.1984925404766016,
        "distance_shoulder_lift_joint": 0.25352212848857136,
        "distance_shoulder_pan_joint": 2.857293917164621,
        "distance_wrist_1_joint": 7.700428907211953,
        "distance_wrist_2_joint": 4.12229702646571,
        "distance_wrist_3_joint": 13.189572081411255,
        "smoothness": 0.6440704436621868,
        "time": 0.421010396,
        "traj_len": 5.321804825547318,
        "weighted_distance": 8.15619253682249
    },
    "planner": "PRM",
    "start": {
        "state": {
            "elbow_joint": 1.9565354010623817,
            "shoulder_lift_joint": -1.4165861575791021,
            "shoulder_pan_joint": -1.6717766225146293,
            "wrist_1_joint": -0.5286633292919765,
            "wrist_2_joint": 1.472756589071564,
            "wrist_3_joint": -3.1238370188695823
        }
    },
    "waypoints": [
        {
            "positions": [
                -1.6717766225146293,
                -1.4165861575791021,
                1.9565354010623817,
                -0.5286633292919765,
                1.472756589071564,
                -3.1238370188695823
            ]
        },
        {
            "positions": [
                -1.5642322654214424,
                -1.390699159633004,
                1.9461725508004448,
                -0.6437089569662862,
                1.4012859207159587,
                -3.0603935052891846
            ]
        },
        {
            "positions": [
                -1.4566879083282556,
                -1.3648121616869062,
                1.9358097005385082,
                -0.7587545846405959,
                1.3298152523603535,
                -2.9969499917087874
            ]
        },
        {
            "positions": [
                -1.3491435512350687,
                -1.3389251637408082,
                1.9254468502765714,
                -0.8738002123149056,
                1.2583445840047482,
                -2.9335064781283897
            ]
        },
        {
            "positions": [
                -1.3986057105242622,
                -1.3380158900981518,
                1.9288228023722915,
                -0.7736883319867752,
                1.1976068702270688,
                -2.760842983784114
            ]
        },
        {
            "positions": [
                -1.448067869813456,
                -1.3371066164554954,
                1.932198754468012,
                -0.6735764516586448,
                1.1368691564493894,
                -2.5881794894398387
            ]
        },
        {
            "positions": [
                -1.4975300291026494,
                -1.336197342812839,
                1.935574706563732,
                -0.5734645713305144,
                1.07613144267171,
                -2.415515995095563
            ]
        },
        {
            "positions": [
                -1.546992188391843,
                -1.3352880691701825,
                1.9389506586594523,
                -0.47335269100238403,
                1.0153937288940305,
                -2.242852500751287
            ]
        },
        {
            "positions": [
                -1.5964543476810364,
                -1.3343787955275261,
                1.9423266107551727,
                -0.37324081067425363,
                0.9546560151163509,
                -2.070189006407012
            ]
        },
        {
            "positions": [
                -1.6459165069702302,
                -1.3334695218848698,
                1.9457025628508928,
                -0.2731289303461233,
                0.8939183013386715,
                -1.8975255120627361
            ]
        },
        {
            "positions": [
                -1.6953786662594237,
                -1.3325602482422134,
                1.949078514946613,
                -0.17301705001799284,
                0.8331805875609919,
                -1.7248620177184604
            ]
        },
        {
            "positions": [
                -1.7448408255486174,
                -1.331650974599557,
                1.9524544670423334,
                -0.07290516968986249,
                0.7724428737833124,
                -1.5521985233741848
            ]
        },
        {
            "positions": [
                -1.794302984837811,
                -1.3307417009569007,
                1.9558304191380536,
                0.02720671063826796,
                0.711705160005633,
                -1.379535029029909
            ]
        },
        {
            "positions": [
                -1.8437651441270044,
                -1.3298324273142443,
                1.9592063712337737,
                0.1273185909663983,
                0.6509674462279536,
                -1.2068715346856336
            ]
        },
        {
            "positions": [
                -1.893227303416198,
                -1.328923153671588,
                1.9625823233294941,
                0.22743047129452876,
                0.5902297324502741,
                -1.034208040341358
            ]
        },
        {
            "positions": [
                -1.9426894627053914,
                -1.3280138800289314,
                1.9659582754252143,
                0.327542351622659,
                0.5294920186725947,
                -0.8615445459970825
            ]
        },
        {
            "positions": [
                -1.9921516219945852,
                -1.327104606386275,
                1.9693342275209345,
                0.42765423195078944,
                0.4687543048949151,
                -0.6888810516528068
            ]
        },
        {
            "positions": [
                -2.041613781283779,
                -1.3261953327436187,
                1.9727101796166548,
                0.5277661122789199,
                0.40801659111723565,
                -0.516217557308531
            ]
        },
        {
            "positions": [
                -2.0910759405729724,
                -1.3252860591009623,
                1.976086131712375,
                0.6278779926070504,
                0.3472788773395562,
                -0.3435540629642557
            ]
        },
        {
            "positions": [
                -2.140538099862166,
                -1.324376785458306,
                1.9794620838080952,
                0.7279898729351806,
                0.28654116356187675,
                -0.17089056861997998
            ]
        },
        {
            "positions": [
                -2.1900002591513594,
                -1.3234675118156496,
                1.9828380359038156,
                0.828101753263311,
                0.2258034497841972,
                0.0017729257242957708
            ]
        },
        {
            "positions": [
                -2.239462418440553,
                -1.3225582381729932,
                1.9862139879995357,
                0.9282136335914415,
                0.16506573600651775,
                0.17443642006857152
            ]
        },
        {
            "positions": [
                -2.2889245777297464,
                -1.3216489645303366,
                1.989589940095256,
                1.0283255139195715,
                0.10432802222883852,
                0.3470999144128464
            ]
        },
        {
            "positions": [
                -2.33838673701894,
                -1.3207396908876803,
                1.992965892190976,
                1.1284373942477022,
                0.043590308451158855,
                0.5197634087571226
            ]
        },
        {
            "positions": [
                -2.3878488963081335,
                -1.319830417245024,
                1.9963418442866965,
                1.2285492745758322,
                -0.01714740532652037,
                0.6924269031013979
            ]
        },
        {
            "positions": [
                -2.4373110555973274,
                -1.3189211436023676,
                1.9997177963824166,
                1.328661154903963,
                -0.07788511910420004,
                0.8650903974456736
            ]
        },
        {
            "positions": [
                -2.486773214886521,
                -1.3180118699597112,
                2.003093748478137,
                1.428773035232093,
                -0.1386228328818795,
                1.037753891789949
            ]
        },
        {
            "positions": [
                -2.5362353741757144,
                -1.3171025963170548,
                2.006469700573857,
                1.5288849155602235,
                -0.19936054665955893,
                1.2104173861342247
            ]
        },
        {
            "positions": [
                -2.585697533464908,
                -1.3161933226743985,
                2.0098456526695774,
                1.628996795888354,
                -0.2600982604372384,
                1.3830808804785004
            ]
        },
        {
            "positions": [
                -2.635159692754102,
                -1.315284049031742,
                2.0132216047652975,
                1.7291086762164845,
                -0.32083597421491805,
                1.5557443748227762
            ]
        },
        {
            "positions": [
                -2.6846218520432954,
                -1.3143747753890855,
                2.0165975568610177,
                1.8292205565446145,
                -0.3815736879925973,
                1.728407869167052
            ]
        },
        {
            "positions": [
                -2.734084011332489,
                -1.3134655017464292,
                2.0199735089567383,
                1.9293324368727454,
                -0.44231140177027695,
                1.9010713635113277
            ]
        },
        {
            "positions": [
                -2.7835461706216824,
                -1.3125562281037728,
                2.0233494610524585,
                2.029444317200875,
                -0.5030491155479562,
                2.0737348578556025
            ]
        },
        {
            "positions": [
                -2.833008329910876,
                -1.3116469544611165,
                2.0267254131481787,
                2.1295561975290065,
                -0.5637868293256358,
                2.2463983521998783
            ]
        },
        {
            "positions": [
                -2.8824704892000694,
                -1.31073768081846,
                2.030101365243899,
                2.229668077857136,
                -0.6245245431033151,
                2.419061846544154
            ]
        },
        {
            "positions": [
                -2.931932648489263,
                -1.3098284071758037,
                2.033477317339619,
                2.3297799581852665,
                -0.6852622568809947,
                2.5917253408884298
            ]
        },
        {
            "positions": [
                -2.9813948077784564,
                -1.3089191335331474,
                2.036853269435339,
                2.429891838513397,
                -0.7459999706586742,
                2.7643888352327055
            ]
        },
        {
            "positions": [
                -3.0308569670676504,
                -1.3080098598904908,
                2.04022922153106,
                2.5300037188415274,
                -0.8067376844363539,
                2.9370523295769813
            ]
        },
        {
            "positions": [
                -3.0803191263568435,
                -1.3071005862478344,
                2.04360517362678,
                2.630115599169658,
                -0.8674753982140331,
                3.109715823921256
            ]
        },
        {
            "positions": [
                -3.1297812856460374,
                -1.306191312605178,
                2.0469811257225,
                2.7302274794977883,
                -0.9282131119917127,
                3.2823793182655328
            ]
        },
        {
            "positions": [
                -3.179243444935231,
                -1.3052820389625217,
                2.0503570778182203,
                2.8303393598259183,
                -0.988950825769392,
                3.455042812609807
            ]
        },
        {
            "positions": [
                -3.15789311305084,
                -1.3009724022997342,
                2.0490693880561253,
                2.719698376430518,
                -0.9386299284474298,
                3.254718805036114
            ]
        },
        {
            "positions": [
                -3.1365427811664492,
                -1.2966627656369465,
                2.04778169829403,
                2.609057393035118,
                -0.8883090311254674,
                3.0543947974624213
            ]
        },
        {
            "positions": [
                -3.115192449282058,
                -1.292353128974159,
                2.0464940085319347,
                2.498416409639718,
                -0.8379881338035052,
                2.8540707898887283
            ]
        },
        {
            "positions": [
                -3.0938421173976676,
                -1.2880434923113713,
                2.0452063187698393,
                2.3877754262443176,
                -0.7876672364815429,
                2.653746782315036
            ]
        },
        {
            "positions": [
                -3.0724917855132765,
                -1.2837338556485838,
                2.0439186290077442,
                2.2771344428489178,
                -0.7373463391595807,
                2.453422774741343
            ]
        },
        {
            "positions": [
                -3.051141453628886,
                -1.279424218985796,
                2.0426309392456488,
                2.1664934594535175,
                -0.6870254418376185,
                2.25309876716765
            ]
        },
        {
            "positions": [
                -3.029791121744495,
                -1.2751145823230086,
                2.0413432494835537,
                2.0558524760581176,
                -0.6367045445156563,
                2.052774759593957
            ]
        },
        {
            "positions": [
                -3.008440789860104,
                -1.2708049456602208,
                2.0400555597214587,
                1.9452114926627173,
                -0.586383647193694,
                1.852450752020264
            ]
        },
        {
            "positions": [
                -2.987090457975713,
                -1.2664953089974333,
                2.038767869959363,
                1.8345705092673175,
                -0.5360627498717317,
                1.6521267444465713
            ]
        },
        {
            "positions": [
                -2.9657401260913225,
                -1.2621856723346456,
                2.037480180197268,
                1.7239295258719172,
                -0.4857418525497694,
                1.451802736872878
            ]
        },
        {
            "positions": [
                -2.9443897942069315,
                -1.2578760356718581,
                2.0361924904351727,
                1.613288542476517,
                -0.4354209552278072,
                1.2514787292991856
            ]
        },
        {
            "positions": [
                -2.923039462322541,
                -1.2535663990090704,
                2.0349048006730777,
                1.5026475590811168,
                -0.3851000579058449,
                1.0511547217254922
            ]
        },
        {
            "positions": [
                -2.90168913043815,
                -1.249256762346283,
                2.033617110910982,
                1.392006575685717,
                -0.3347791605838828,
                0.8508307141517997
            ]
        },
        {
            "positions": [
                -2.880338798553759,
                -1.2449471256834952,
                2.032329421148887,
                1.2813655922903167,
                -0.2844582632619205,
                0.6505067065781067
            ]
        },
        {
            "positions": [
                -2.858988466669368,
                -1.2406374890207077,
                2.031041731386792,
                1.1707246088949166,
                -0.23413736593995826,
                0.45018269900441377
            ]
        },
        {
            "positions": [
                -2.8376381347849775,
                -1.23632785235792,
                2.0297540416246966,
                1.0600836254995163,
                -0.18381646861799594,
                0.24985869143072081
            ]
        },
        {
            "positions": [
                -2.8162878029005864,
                -1.2320182156951325,
                2.0284663518626016,
                0.9494426421041164,
                -0.13349557129603373,
                0.04953468385702786
            ]
        },
        {
            "positions": [
                -2.794937471016196,
                -1.2277085790323448,
                2.027178662100506,
                0.8388016587087164,
                -0.08317467397407152,
                -0.15078932371666465
            ]
        },
        {
            "positions": [
                -2.7735871391318048,
                -1.2233989423695573,
                2.025890972338411,
                0.7281606753133159,
                -0.03285377665210909,
                -0.35111333129035804
            ]
        },
        {
            "positions": [
                -2.752236807247414,
                -1.2190893057067695,
                2.024603282576316,
                0.617519691917916,
                0.01746712066985312,
                -0.551437338864051
            ]
        },
        {
            "positions": [
                -2.730886475363023,
                -1.214779669043982,
                2.0233155928142206,
                0.5068787085225157,
                0.06778801799181533,
                -0.751761346437744
            ]
        },
        {
            "positions": [
                -2.7095361434786325,
                -1.2104700323811943,
                2.0220279030521255,
                0.39623772512711586,
                0.11810891531377754,
                -0.952085354011436
            ]
        },
        {
            "positions": [
                -2.6881858115942414,
                -1.2061603957184068,
                2.02074021329003,
                0.28559674173171556,
                0.16842981263573997,
                -1.1524093615851299
            ]
        },
        {
            "positions": [
                -2.6668354797098504,
                -1.2018507590556191,
                2.019452523527935,
                0.17495575833631527,
                0.21875070995770218,
                -1.3527333691588228
            ]
        },
        {
            "positions": [
                -2.6454851478254597,
                -1.1975411223928316,
                2.0181648337658395,
                0.06431477494091542,
                0.26907160727966417,
                -1.5530573767325149
            ]
        },
        {
            "positions": [
                -2.624134815941069,
                -1.193231485730044,
                2.0168771440037445,
                -0.04632620845448443,
                0.3193925046016264,
                -1.7533813843062078
            ]
        },
        {
            "positions": [
                -2.602784484056678,
                -1.1889218490672564,
                2.0155894542416495,
                -0.15696719184988517,
                0.3697134019235888,
                -1.9537053918799017
            ]
        },
        {
            "positions": [
                -2.581434152172287,
                -1.1846122124044687,
                2.014301764479554,
                -0.267608175245285,
                0.420034299245551,
                -2.1540293994535937
            ]
        },
        {
            "positions": [
                -2.5600838202878964,
                -1.1803025757416812,
                2.013014074717459,
                -0.3782491586406853,
                0.47035519656751323,
                -2.3543534070272867
            ]
        },
        {
            "positions": [
                -2.5387334884035058,
                -1.1759929390788937,
                2.0117263849553635,
                -0.48889014203608516,
                0.5206760938894754,
                -2.5546774146009796
            ]
        },
        {
            "positions": [
                -2.5173831565191147,
                -1.171683302416106,
                2.0104386951932685,
                -0.5995311254314855,
                0.5709969912114379,
                -2.7550014221746735
            ]
        },
        {
            "positions": [
                -2.4960328246347236,
                -1.1673736657533182,
                2.009151005431173,
                -0.7101721088268858,
                0.6213178885334001,
                -2.9553254297483655
            ]
        },
        {
            "positions": [
                -2.474682492750333,
                -1.1630640290905307,
                2.007863315669078,
                -0.8208130922222854,
                0.6716387858553624,
                -3.155649437322058
            ]
        }
    ]
}