{
    "goal": {
        "global_pose": {
            "orientation": {
                "w": -0.4816463035849501,
                "x": 0.5182115481033762,
                "y": 0.4908360881923453,
                "z": -0.5084816262002911
            },
            "position": {
                "x": -0.8240239810943604,
                "y": 0.19912469901144506,
                "z": 0.16403168439865112
            }
        },
        "name": "move_to_storage_D"
    },
    "id": "PRM_move_to_storage_D_92",
    "joint_names": [
        "shoulder_pan_joint",
        "shoulder_lift_joint",
        "elbow_joint",
        "wrist_1_joint",
        "wrist_2_joint",
        "wrist_3_joint"
    ],
    "metrics": {
        "cart_traj_len": 3.5875749852863716,
        "distance_elbow_joint": 4.207287879230494,
        "distance_shoulder_lift_joint": 1.2661891089482682,
        "distance_shoulder_pan_joint": 2.8124767992770807,
        "distance_wrist_1_joint": 2.2637952293570374,
        "distance_wrist_2_joint": 2.7128232829794774,
        "distance_wrist_3_joint": 3.1361004837664526,
        "smoothness": 0.060760900388550046,
        "time": 0.27775644099999997,
        "traj_len": 4.049527476577831,
        "weighted_distance": 5.258088270790843
    },
    "planner": "PRM",
    "start": {
        "state": {
            "elbow_joint": -2.384821988534728,
            "shoulder_lift_joint": -2.2788054721415256,
            "shoulder_pan_joint": -0.1854694642142757,
            "wrist_1_joint": 1.4845938289331202,
            "wrist_2_joint": 0.17898776772866878,
            "wrist_3_joint": 0.037105688729662994
        }
    },
    "waypoints": [
        {
            "positions": [
                -0.1854694642142757,
                -2.2788054721415256,
                -2.384821988534728,
                1.4845938289331202,
                0.17898776772866878,
                0.037105688729662994
            ]
        },
        {
            "positions": [
                -0.14790001310710693,
                -2.2425989174734213,
                -2.3774136719818895,
                1.4233765523227344,
                0.11675527193532571,
                0.060394067391322345
            ]
        },
        {
            "positions": [
                -0.11033056199993818,
                -2.206392362805317,
                -2.3700053554290514,
                1.3621592757123486,
                0.05452277614198264,
                0.0836824460529817
            ]
        },
        {
            "positions": [
                -0.02702451311696427,
                -2.1746109346735256,
                -2.268149092563314,
                1.2855944398298724,
                0.022619620139459277,
                0.1524514372860329
            ]
        },
        {
            "positions": [
                0.05628153576600964,
                -2.142829506541734,
                -2.1662928296975763,
                1.2090296039473962,
                -0.009283535863064088,
                0.22122042851908405
            ]
        },
        {
            "positions": [
                0.13958758464898352,
                -2.111048078409943,
                -2.064436566831839,
                1.1324647680649198,
                -0.04118669186558746,
                0.2899894197521352
            ]
        },
        {
            "positions": [
                0.22289363353195746,
                -2.0792666502781514,
                -1.9625803039661016,
                1.0558999321824436,
                -0.07308984786811082,
                0.3587584109851864
            ]
        },
        {
            "positions": [
                0.30619968241493134,
                -2.04748522214636,
                -1.860724041100364,
                0.9793350962999674,
                -0.1049930038706342,
                0.4275274022182376
            ]
        },
        {
            "positions": [
                0.3895057312979052,
                -2.0157037940145686,
                -1.7588677782346265,
                0.9027702604174912,
                -0.13689615987315756,
                0.4962963934512888
            ]
        },
        {
            "positions": [
                0.4728117801808792,
                -1.9839223658827772,
                -1.6570115153688891,
                0.8262054245350148,
                -0.16879931587568095,
                0.56506538468434
            ]
        },
        {
            "positions": [
                0.5561178290638531,
                -1.9521409377509857,
                -1.5551552525031518,
                0.7496405886525386,
                -0.20070247187820428,
                0.6338343759173911
            ]
        },
        {
            "positions": [
                0.639423877946827,
                -1.9203595096191943,
                -1.4532989896374142,
                0.6730757527700624,
                -0.23260562788072764,
                0.7026033671504422
            ]
        },
        {
            "positions": [
                0.7227299268298009,
                -1.888578081487403,
                -1.3514427267716767,
                0.5965109168875861,
                -0.26450878388325105,
                0.7713723583834935
            ]
        },
        {
            "positions": [
                0.8060359757127747,
                -1.8567966533556115,
                -1.2495864639059393,
                0.5199460810051099,
                -0.2964119398857744,
                0.8401413496165446
            ]
        },
        {
            "positions": [
                0.8893420245957486,
                -1.82501522522382,
                -1.1477302010402017,
                0.44338124512263366,
                -0.32831509588829777,
                0.9089103408495959
            ]
        },
        {
            "positions": [
                0.9726480734787226,
                -1.7932337970920287,
                -1.0458739381744644,
                0.36681640924015724,
                -0.36021825189082113,
                0.977679332082647
            ]
        },
        {
            "positions": [
                1.0559541223616966,
                -1.7614523689602373,
                -0.9440176753087268,
                0.2902515733576809,
                -0.39212140789334454,
                1.0464483233156983
            ]
        },
        {
            "positions": [
                1.1392601712446704,
                -1.7296709408284459,
                -0.8421614124429895,
                0.21368673747520495,
                -0.42402456389586785,
                1.1152173145487494
            ]
        },
        {
            "positions": [
                1.2225662201276444,
                -1.6978895126966544,
                -0.7403051495772519,
                0.13712190159272852,
                -0.4559277198983912,
                1.1839863057818005
            ]
        },
        {
            "positions": [
                1.3058722690106184,
                -1.666108084564863,
                -0.6384488867115143,
                0.0605570657102521,
                -0.4878308759009147,
                1.2527552970148519
            ]
        },
        {
            "positions": [
                1.3891783178935921,
                -1.6343266564330716,
                -0.536592623845777,
                -0.01600777017222388,
                -0.5197340319034379,
                1.3215242882479028
            ]
        },
        {
            "positions": [
                1.472484366776566,
                -1.6025452283012802,
                -0.4347363609800394,
                -0.0925726060547003,
                -0.5516371879059614,
                1.3902932794809542
            ]
        },
        {
            "positions": [
                1.55579041565954,
                -1.5707638001694888,
                -0.33288009811430186,
                -0.1691374419371765,
                -0.5835403439084847,
                1.4590622707140053
            ]
        },
        {
            "positions": [
                1.6390964645425137,
                -1.5389823720376974,
                -0.2310238352485645,
                -0.2457022778196527,
                -0.615443499911008,
                1.5278312619470564
            ]
        },
        {
            "positions": [
                1.7224025134254877,
                -1.507200943905906,
                -0.12916757238282717,
                -0.3222671137021289,
                -0.6473466559135315,
                1.5966002531801076
            ]
        },
        {
            "positions": [
                1.8057085623084617,
                -1.4754195157741146,
                -0.027311309517089377,
                -0.3988319495846053,
                -0.6792498119160548,
                1.665369244413159
            ]
        },
        {
            "positions": [
                1.8890146111914354,
                -1.4436380876423232,
                0.07454495334864797,
                -0.4753967854670813,
                -0.7111529679185782,
                1.73413823564621
            ]
        },
        {
            "positions": [
                1.9723206600744096,
                -1.4118566595105317,
                0.17640121621438545,
                -0.5519616213495577,
                -0.7430561239211015,
                1.8029072268792612
            ]
        },
        {
            "positions": [
                2.0132385772611845,
                -1.3869041409907021,
                0.27928025836947185,
                -0.5661641075417052,
                -0.6311324119629949,
                1.8885509109803147
            ]
        },
        {
            "positions": [
                2.054156494447959,
                -1.3619516224708725,
                0.38215930052455827,
                -0.5803665937338528,
                -0.5192087000048882,
                1.974194595081368
            ]
        },
        {
            "positions": [
                2.0950744116347337,
                -1.3369991039510427,
                0.48503834267964463,
                -0.5945690799260003,
                -0.40728498804678137,
                2.0598382791824212
            ]
        },
        {
            "positions": [
                2.1359923288215086,
                -1.312046585431213,
                0.5879173848347311,
                -0.6087715661181479,
                -0.2953612760886747,
                2.145481963283475
            ]
        },
        {
            "positions": [
                2.176910246008283,
                -1.2870940669113835,
                0.6907964269898175,
                -0.6229740523102953,
                -0.183437564130568,
                2.2311256473845282
            ]
        },
        {
            "positions": [
                2.217828163195058,
                -1.262141548391554,
                0.7936754691449038,
                -0.6371765385024428,
                -0.0715138521724612,
                2.3167693314855815
            ]
        },
        {
            "positions": [
                2.2587460803818327,
                -1.2371890298717243,
                0.8965545112999903,
                -0.6513790246945904,
                0.040409859785645486,
                2.4024130155866352
            ]
        },
        {
            "positions": [
                2.299663997568607,
                -1.2122365113518945,
                0.9994335534550767,
                -0.6655815108867379,
                0.15233357174375217,
                2.4880566996876885
            ]
        },
        {
            "positions": [
                2.340581914755382,
                -1.1872839928320649,
                1.1023125956101631,
                -0.6797839970788855,
                0.26425728370185886,
                2.5737003837887418
            ]
        },
        {
            "positions": [
                2.3814998319421568,
                -1.1623314743122353,
                1.2051916377652496,
                -0.693986483271033,
                0.37618099565996554,
                2.659344067889795
            ]
        },
        {
            "positions": [
                2.4224177491289316,
                -1.1373789557924057,
                1.308070679920336,
                -0.7081889694631804,
                0.48810470761807223,
                2.7449877519908483
            ]
        },
        {
            "positions": [
                2.463335666315706,
                -1.112426437272576,
                1.4109497220754224,
                -0.7223914556553279,
                0.6000284195761791,
                2.830631436091902
            ]
        },
        {
            "positions": [
                2.504253583502481,
                -1.0874739187527465,
                1.5138287642305088,
                -0.7365939418474755,
                0.7119521315342858,
                2.9162751201929553
            ]
        },
        {
            "positions": [
                2.5451715006892552,
                -1.0625214002329169,
                1.6167078063855953,
                -0.750796428039623,
                0.8238758434923925,
                3.001918804294009
            ]
        },
        {
            "positions": [
                2.58608941787603,
                -1.037568881713087,
                1.7195868485406816,
                -0.7649989142317706,
                0.9357995554504992,
                3.0875624883950623
            ]
        },
        {
            "positions": [
                2.627007335062805,
                -1.0126163631932574,
                1.822465890695768,
                -0.7792014004239181,
                1.0477232674086059,
                3.1732061724961156
            ]
        }
    ]
}