{
    "goal": {
        "global_pose": {
            "orientation": {
                "w": 0.7047431468963623,
                "x": -0.7094548344612122,
                "y": 0.0024358443915843964,
                "z": -0.0022348060738295317
            },
            "position": {
                "x": 0.6094750761985779,
                "y": 0.3671506643295288,
                "z": 0.19426114857196808
            }
        },
        "name": "move_to_magneteinheit_A"
    },
    "id": "PRM_move_to_magneteinheit_A_112",
    "joint_names": [
        "shoulder_pan_joint",
        "shoulder_lift_joint",
        "elbow_joint",
        "wrist_1_joint",
        "wrist_2_joint",
        "wrist_3_joint"
    ],
    "metrics": {
        "cart_traj_len": 3.613078604952262,
        "distance_elbow_joint": 4.2538702449754995,
        "distance_shoulder_lift_joint": 0.7318694108091782,
        "distance_shoulder_pan_joint": 2.5780623524593276,
        "distance_wrist_1_joint": 4.655861192042756,
        "distance_wrist_2_joint": 1.6853945518887516,
        "distance_wrist_3_joint": 4.305496532207973,
        "smoothness": 0.17435801077030616,
        "time": 0.20496204299999998,
        "traj_len": 4.267382603468254,
        "weighted_distance": 5.758715402998392
    },
    "planner": "PRM",
    "start": {
        "state": {
            "elbow_joint": -1.9196185241190666,
            "shoulder_lift_joint": -1.2443396400964142,
            "shoulder_pan_joint": 2.6996025414629847,
            "wrist_1_joint": -1.5485510000780065,
            "wrist_2_joint": -1.5709468930060704,
            "wrist_3_joint": 0.4420197071253992
        }
    },
    "waypoints": [
        {
            "positions": [
                2.6996025414629847,
                -1.2443396400964142,
                -1.9196185241190666,
                -1.5485510000780065,
                -1.5709468930060704,
                0.4420197071253992
            ]
        },
        {
            "positions": [
                2.6076559080006905,
                -1.2122144394745358,
                -1.9297189538533748,
                -1.5837375315320497,
                -1.5010406555983102,
                0.3026380709164147
            ]
        },
        {
            "positions": [
                2.515709274538396,
                -1.1800892388526574,
                -1.939819383587683,
                -1.6189240629860928,
                -1.43113441819055,
                0.1632564347074303
            ]
        },
        {
            "positions": [
                2.423762641076102,
                -1.1479640382307787,
                -1.9499198133219913,
                -1.654110594440136,
                -1.36122818078279,
                0.023874798498445815
            ]
        },
        {
            "positions": [
                2.331816007613808,
                -1.1158388376089003,
                -1.9600202430562994,
                -1.6892971258941794,
                -1.29132194337503,
                -0.1155068377105386
            ]
        },
        {
            "positions": [
                2.239869374151514,
                -1.083713636987022,
                -1.9701206727906075,
                -1.7244836573482225,
                -1.22141570596727,
                -0.2548884739195231
            ]
        },
        {
            "positions": [
                2.1479227406892196,
                -1.0515884363651433,
                -1.9802211025249157,
                -1.7596701888022657,
                -1.1515094685595098,
                -0.39427011012850754
            ]
        },
        {
            "positions": [
                2.0559761072269254,
                -1.019463235743265,
                -1.990321532259224,
                -1.7948567202563088,
                -1.0816032311517496,
                -0.5336517463374919
            ]
        },
        {
            "positions": [
                1.964029473764631,
                -0.9873380351213865,
                -2.000421961993532,
                -1.830043251710352,
                -1.0116969937439895,
                -0.6730333825464764
            ]
        },
        {
            "positions": [
                1.8720828403023368,
                -0.955212834499508,
                -2.0105223917278403,
                -1.8652297831643951,
                -0.9417907563362293,
                -0.8124150187554607
            ]
        },
        {
            "positions": [
                1.7801362068400426,
                -0.9230876338776295,
                -2.0206228214621484,
                -1.9004163146184383,
                -0.8718845189284692,
                -0.9517966549644453
            ]
        },
        {
            "positions": [
                1.6881895733777483,
                -0.8909624332557511,
                -2.0307232511964566,
                -1.9356028460724817,
                -0.801978281520709,
                -1.0911782911734296
            ]
        },
        {
            "positions": [
                1.5962429399154543,
                -0.8588372326338727,
                -2.0408236809307647,
                -1.9707893775265246,
                -0.7320720441129489,
                -1.2305599273824144
            ]
        },
        {
            "positions": [
                1.50429630645316,
                -0.8267120320119943,
                -2.050924110665073,
                -2.005975908980568,
                -0.662165806705189,
                -1.3699415635913983
            ]
        },
        {
            "positions": [
                1.412349672990866,
                -0.7945868313901158,
                -2.0610245403993814,
                -2.041162440434611,
                -0.5922595692974288,
                -1.509323199800383
            ]
        },
        {
            "positions": [
                1.3204030395285717,
                -0.7624616307682373,
                -2.0711249701336896,
                -2.0763489718886543,
                -0.5223533318896687,
                -1.6487048360093675
            ]
        },
        {
            "positions": [
                1.2284564060662775,
                -0.7303364301463589,
                -2.0812253998679977,
                -2.1115355033426972,
                -0.45244709448190856,
                -1.7880864722183518
            ]
        },
        {
            "positions": [
                1.1365097726039832,
                -0.6982112295244803,
                -2.091325829602306,
                -2.1467220347967406,
                -0.3825408570741484,
                -1.9274681084273362
            ]
        },
        {
            "positions": [
                1.0864883209849656,
                -0.6952295489037196,
                -1.956305569885185,
                -2.0164134864652303,
                -0.3616721941623018,
                -1.887341896895491
            ]
        },
        {
            "positions": [
                1.036466869365948,
                -0.6922478682829589,
                -1.8212853101680642,
                -1.8861049381337203,
                -0.3408035312504552,
                -1.8472156853636459
            ]
        },
        {
            "positions": [
                0.9864454177469305,
                -0.6892661876621982,
                -1.686265050450943,
                -1.75579638980221,
                -0.3199348683386086,
                -1.8070894738318006
            ]
        },
        {
            "positions": [
                0.9364239661279129,
                -0.6862845070414374,
                -1.5512447907338223,
                -1.6254878414707,
                -0.299066205426762,
                -1.7669632622999556
            ]
        },
        {
            "positions": [
                0.8864025145088953,
                -0.6833028264206767,
                -1.4162245310167014,
                -1.4951792931391896,
                -0.27819754251491535,
                -1.7268370507681103
            ]
        },
        {
            "positions": [
                0.8363810628898778,
                -0.680321145799916,
                -1.2812042712995806,
                -1.3648707448076793,
                -0.25732887960306877,
                -1.6867108392362653
            ]
        },
        {
            "positions": [
                0.7863596112708602,
                -0.6773394651791552,
                -1.1461840115824597,
                -1.234562196476169,
                -0.23646021669122214,
                -1.64658462770442
            ]
        },
        {
            "positions": [
                0.7363381596518426,
                -0.6743577845583946,
                -1.0111637518653387,
                -1.104253648144659,
                -0.21559155377937553,
                -1.606458416172575
            ]
        },
        {
            "positions": [
                0.686316708032825,
                -0.6713761039376338,
                -0.8761434921482179,
                -0.9739450998131487,
                -0.19472289086752892,
                -1.5663322046407298
            ]
        },
        {
            "positions": [
                0.6362952564138074,
                -0.668394423316873,
                -0.741123232431097,
                -0.8436365514816384,
                -0.1738542279556823,
                -1.5262059931088845
            ]
        },
        {
            "positions": [
                0.5862738047947897,
                -0.6654127426961124,
                -0.606102972713976,
                -0.7133280031501281,
                -0.15298556504383568,
                -1.4860797815770395
            ]
        },
        {
            "positions": [
                0.5362523531757722,
                -0.6624310620753516,
                -0.47108271299685534,
                -0.583019454818618,
                -0.13211690213198912,
                -1.4459535700451944
            ]
        },
        {
            "positions": [
                0.48623090155675464,
                -0.6594493814545909,
                -0.3360624532797343,
                -0.45271090648710777,
                -0.11124823922014249,
                -1.4058273585133492
            ]
        },
        {
            "positions": [
                0.436209449937737,
                -0.6564677008338302,
                -0.20104219356261344,
                -0.3224023581555977,
                -0.09037957630829585,
                -1.365701146981504
            ]
        },
        {
            "positions": [
                0.3861879983187194,
                -0.6534860202130695,
                -0.0660219338454926,
                -0.1920938098240874,
                -0.06951091339644921,
                -1.3255749354496587
            ]
        },
        {
            "positions": [
                0.3361665466997019,
                -0.6505043395923087,
                0.06899832587162846,
                -0.06178526149257735,
                -0.048642250484602634,
                -1.2854487239178138
            ]
        },
        {
            "positions": [
                0.2861450950806843,
                -0.647522658971548,
                0.20401858558874908,
                0.06852328683893294,
                -0.027773587572756053,
                -1.2453225123859686
            ]
        },
        {
            "positions": [
                0.23612364346166675,
                -0.6445409783507873,
                0.33903884530587014,
                0.19883183517044323,
                -0.006904924660909433,
                -1.2051963008541233
            ]
        },
        {
            "positions": [
                0.2273095315802814,
                -0.6547002667402912,
                0.4661002502738766,
                0.33053462650558463,
                -0.01623973877964715,
                -1.1118319232324292
            ]
        },
        {
            "positions": [
                0.218495419698896,
                -0.6648595551297952,
                0.593161655241883,
                0.4622374178407261,
                -0.02557455289838486,
                -1.0184675456107353
            ]
        },
        {
            "positions": [
                0.20968130781751063,
                -0.6750188435192991,
                0.7202230602098895,
                0.5939402091758674,
                -0.03490936701712258,
                -0.9251031679890411
            ]
        },
        {
            "positions": [
                0.20086719593612526,
                -0.6851781319088031,
                0.8472844651778959,
                0.7256430005110089,
                -0.04424418113586029,
                -0.8317387903673471
            ]
        },
        {
            "positions": [
                0.19205308405473986,
                -0.695337420298307,
                0.9743458701459023,
                0.8573457918461503,
                -0.05357899525459801,
                -0.7383744127456531
            ]
        },
        {
            "positions": [
                0.1832389721733545,
                -0.705496708687811,
                1.1014072751139088,
                0.9890485831812917,
                -0.06291380937333572,
                -0.6450100351239589
            ]
        },
        {
            "positions": [
                0.17442486029196913,
                -0.7156559970773149,
                1.2284686800819151,
                1.1207513745164333,
                -0.07224862349207342,
                -0.551645657502265
            ]
        },
        {
            "positions": [
                0.16561074841058376,
                -0.7258152854668188,
                1.3555300850499217,
                1.2524541658515747,
                -0.08158343761081115,
                -0.4582812798805709
            ]
        },
        {
            "positions": [
                0.1567966365291984,
                -0.7359745738563228,
                1.482591490017928,
                1.384156957186716,
                -0.09091825172954886,
                -0.36491690225887685
            ]
        },
        {
            "positions": [
                0.14798252464781297,
                -0.7461338622458268,
                1.6096528949859346,
                1.5158597485218575,
                -0.10025306584828658,
                -0.2715525246371827
            ]
        },
        {
            "positions": [
                0.1391684127664276,
                -0.7562931506353308,
                1.7367142999539409,
                1.6475625398569989,
                -0.10958787996702428,
                -0.17818814701548868
            ]
        },
        {
            "positions": [
                0.13035430088504224,
                -0.7664524390248346,
                1.8637757049219474,
                1.7792653311921403,
                -0.118922694085762,
                -0.08482376939379455
            ]
        },
        {
            "positions": [
                0.12154018900365687,
                -0.7766117274143386,
                1.9908371098899538,
                1.9109681225272817,
                -0.12825750820449972,
                0.008540608227899447
            ]
        }
    ]
}