{
    "goal": {
        "global_pose": {
            "orientation": {
                "w": -0.00223480608172531,
                "x": 0.0024358444001904467,
                "y": 0.7094548369677653,
                "z": -0.704743149386269
            },
            "position": {
                "x": 0.6205249238014221,
                "y": -0.6371506643295288,
                "z": 0.19426114857196808
            }
        },
        "name": "move_to_magneteinheit_B"
    },
    "id": "PRM_move_to_magneteinheit_B_69",
    "joint_names": [
        "shoulder_pan_joint",
        "shoulder_lift_joint",
        "elbow_joint",
        "wrist_1_joint",
        "wrist_2_joint",
        "wrist_3_joint"
    ],
    "metrics": {
        "cart_traj_len": 2.256839820103933,
        "distance_elbow_joint": 1.202710463875011,
        "distance_shoulder_lift_joint": 1.790883096944086,
        "distance_shoulder_pan_joint": 1.621365021313721,
        "distance_wrist_1_joint": 8.027134037004709,
        "distance_wrist_2_joint": 1.513859691669863,
        "distance_wrist_3_joint": 4.18950103082367,
        "smoothness": 0.5774869015681708,
        "time": 0.38588926,
        "traj_len": 4.283159271102472,
        "weighted_distance": 6.022080133305515
    },
    "planner": "PRM",
    "start": {
        "state": {
            "elbow_joint": 2.6216224122426386,
            "shoulder_lift_joint": -1.4174107377796124,
            "shoulder_pan_joint": 0.7066234856936794,
            "wrist_1_joint": 1.9546482284002225,
            "wrist_2_joint": -0.7096286983471962,
            "wrist_3_joint": 0.005740856962016249
        }
    },
    "waypoints": [
        {
            "positions": [
                0.7066234856936794,
                -1.4174107377796124,
                2.6216224122426386,
                1.9546482284002225,
                -0.7096286983471962,
                0.005740856962016249
            ]
        },
        {
            "positions": [
                0.6987017115076689,
                -1.4446577525003914,
                2.589690558681104,
                1.7482221327579885,
                -0.7147258450405131,
                -0.1047435888906295
            ]
        },
        {
            "positions": [
                0.6907799373216583,
                -1.4719047672211705,
                2.5577587051195696,
                1.5417960371157546,
                -0.7198229917338298,
                -0.21522803474327523
            ]
        },
        {
            "positions": [
                0.6828581631356478,
                -1.4991517819419495,
                2.525826851558035,
                1.3353699414735205,
                -0.7249201384271466,
                -0.325712480595921
            ]
        },
        {
            "positions": [
                0.6749363889496374,
                -1.5263987966627286,
                2.4938949979965006,
                1.1289438458312868,
                -0.7300172851204635,
                -0.4361969264485667
            ]
        },
        {
            "positions": [
                0.6670146147636268,
                -1.5536458113835077,
                2.461963144434966,
                0.9225177501890527,
                -0.7351144318137802,
                -0.5466813723012125
            ]
        },
        {
            "positions": [
                0.6590928405776163,
                -1.5808928261042867,
                2.4300312908734316,
                0.7160916545468188,
                -0.7402115785070971,
                -0.6571658181538583
            ]
        },
        {
            "positions": [
                0.6511710663916057,
                -1.6081398408250658,
                2.398099437311897,
                0.5096655589045849,
                -0.7453087252004139,
                -0.767650264006504
            ]
        },
        {
            "positions": [
                0.6432492922055952,
                -1.6353868555458448,
                2.3661675837503626,
                0.30323946326235096,
                -0.7504058718937306,
                -0.8781347098591498
            ]
        },
        {
            "positions": [
                0.6353275180195848,
                -1.662633870266624,
                2.334235730188828,
                0.09681336762011705,
                -0.7555030185870475,
                -0.9886191557117955
            ]
        },
        {
            "positions": [
                0.6274057438335742,
                -1.689880884987403,
                2.302303876627294,
                -0.10961272802211708,
                -0.7606001652803643,
                -1.099103601564441
            ]
        },
        {
            "positions": [
                0.6194839696475637,
                -1.717127899708182,
                2.270372023065759,
                -0.3160388236643512,
                -0.7656973119736812,
                -1.209588047417087
            ]
        },
        {
            "positions": [
                0.6115621954615532,
                -1.744374914428961,
                2.238440169504225,
                -0.5224649193065849,
                -0.7707944586669979,
                -1.3200724932697327
            ]
        },
        {
            "positions": [
                0.6036404212755426,
                -1.7716219291497401,
                2.2065083159426906,
                -0.728891014948819,
                -0.7758916053603148,
                -1.4305569391223785
            ]
        },
        {
            "positions": [
                0.5957186470895321,
                -1.7988689438705192,
                2.174576462381156,
                -0.9353171105910527,
                -0.7809887520536316,
                -1.5410413849750242
            ]
        },
        {
            "positions": [
                0.5877968729035217,
                -1.8261159585912983,
                2.1426446088196216,
                -1.1417432062332868,
                -0.7860858987469483,
                -1.65152583082767
            ]
        },
        {
            "positions": [
                0.5798750987175111,
                -1.8533629733120773,
                2.110712755258087,
                -1.3481693018755205,
                -0.7911830454402652,
                -1.7620102766803156
            ]
        },
        {
            "positions": [
                0.5719533245315006,
                -1.8806099880328564,
                2.0787809016965526,
                -1.5545953975177547,
                -0.796280192133582,
                -1.8724947225329616
            ]
        },
        {
            "positions": [
                0.56403155034549,
                -1.9078570027536355,
                2.046849048135018,
                -1.7610214931599883,
                -0.8013773388268988,
                -1.982979168385607
            ]
        },
        {
            "positions": [
                0.5561097761594795,
                -1.9351040174744145,
                2.0149171945734836,
                -1.9674475888022227,
                -0.8064744855202156,
                -2.093463614238253
            ]
        },
        {
            "positions": [
                0.5167861988480441,
                -1.8906734783099113,
                1.9934489989855029,
                -1.7910572142273373,
                -0.8437391317301915,
                -2.02039351022487
            ]
        },
        {
            "positions": [
                0.4774626215366088,
                -1.8462429391454078,
                1.971980803397522,
                -1.6146668396524522,
                -0.8810037779401676,
                -1.9473234062114861
            ]
        },
        {
            "positions": [
                0.4381390442251734,
                -1.8018123999809046,
                1.9505126078095412,
                -1.4382764650775668,
                -0.9182684241501435,
                -1.874253302198103
            ]
        },
        {
            "positions": [
                0.39881546691373804,
                -1.7573818608164011,
                1.9290444122215604,
                -1.2618860905026814,
                -0.9555330703601196,
                -1.8011831981847195
            ]
        },
        {
            "positions": [
                0.3594918896023026,
                -1.712951321651898,
                1.9075762166335795,
                -1.0854957159277963,
                -0.9927977165700955,
                -1.728113094171336
            ]
        },
        {
            "positions": [
                0.3201683122908673,
                -1.6685207824873944,
                1.8861080210455987,
                -0.9091053413529111,
                -1.0300623627800716,
                -1.6550429901579526
            ]
        },
        {
            "positions": [
                0.28084473497943185,
                -1.6240902433228912,
                1.864639825457618,
                -0.7327149667780257,
                -1.0673270089900475,
                -1.5819728861445692
            ]
        },
        {
            "positions": [
                0.24152115766799648,
                -1.5796597041583877,
                1.843171629869637,
                -0.5563245922031403,
                -1.1045916552000234,
                -1.508902782131186
            ]
        },
        {
            "positions": [
                0.2021975803565611,
                -1.5352291649938845,
                1.8217034342816563,
                -0.37993421762825497,
                -1.1418563014099994,
                -1.4358326781178024
            ]
        },
        {
            "positions": [
                0.16287400304512573,
                -1.490798625829381,
                1.8002352386936755,
                -0.2035438430533698,
                -1.1791209476199755,
                -1.3627625741044191
            ]
        },
        {
            "positions": [
                0.12355042573369035,
                -1.4463680866648778,
                1.7787670431056948,
                -0.027153468478484433,
                -1.2163855938299515,
                -1.2896924700910357
            ]
        },
        {
            "positions": [
                0.08422684842225503,
                -1.4019375475003746,
                1.7572988475177138,
                0.1492369060964005,
                -1.2536502400399274,
                -1.2166223660776523
            ]
        },
        {
            "positions": [
                0.0449032711108196,
                -1.3575070083358711,
                1.735830651929733,
                0.3256272806712863,
                -1.2909148862499034,
                -1.1435522620642689
            ]
        },
        {
            "positions": [
                0.005579693799384167,
                -1.3130764691713677,
                1.7143624563417523,
                0.5020176552461713,
                -1.3281795324598793,
                -1.0704821580508856
            ]
        },
        {
            "positions": [
                -0.033743883512051154,
                -1.2686459300068647,
                1.6928942607537714,
                0.6784080298210566,
                -1.3654441786698555,
                -0.9974120540375022
            ]
        },
        {
            "positions": [
                -0.07306746082348659,
                -1.2242153908423612,
                1.6714260651657906,
                0.854798404395942,
                -1.4027088248798314,
                -0.9243419500241188
            ]
        },
        {
            "positions": [
                -0.1123910381349219,
                -1.1797848516778577,
                1.6499578695778099,
                1.0311887789708274,
                -1.4399734710898073,
                -0.8512718460107354
            ]
        },
        {
            "positions": [
                -0.15171461544635734,
                -1.1353543125133543,
                1.628489673989829,
                1.2075791535457128,
                -1.4772381172997835,
                -0.7782017419973519
            ]
        },
        {
            "positions": [
                -0.19103819275779266,
                -1.0909237733488513,
                1.6070214784018482,
                1.3839695281205981,
                -1.5145027635097592,
                -0.7051316379839685
            ]
        },
        {
            "positions": [
                -0.2303617700692281,
                -1.0464932341843478,
                1.5855532828138674,
                1.560359902695483,
                -1.5517674097197354,
                -0.6320615339705853
            ]
        },
        {
            "positions": [
                -0.2696853473806635,
                -1.0020626950198444,
                1.5640850872258865,
                1.736750277270369,
                -1.5890320559297113,
                -0.5589914299572019
            ]
        },
        {
            "positions": [
                -0.30900892469209884,
                -0.9576321558553411,
                1.5426168916379057,
                1.913140651845254,
                -1.6262967021396872,
                -0.4859213259438185
            ]
        },
        {
            "positions": [
                -0.40996435984675594,
                -0.9083458299169728,
                1.563234382182952,
                1.9505489817043848,
                -1.7258286501192492,
                -0.4054622807223238
            ]
        },
        {
            "positions": [
                -0.510919795001413,
                -0.8590595039786043,
                1.5838518727279984,
                1.9879573115635154,
                -1.8253605980988112,
                -0.32500323550082916
            ]
        },
        {
            "positions": [
                -0.6118752301560703,
                -0.809773178040236,
                1.604469363273045,
                2.0253656414226464,
                -1.9248925460783732,
                -0.2445441902793345
            ]
        },
        {
            "positions": [
                -0.7128306653107274,
                -0.7604868521018676,
                1.6250868538180911,
                2.0627739712817768,
                -2.0244244940579352,
                -0.16408514505783983
            ]
        },
        {
            "positions": [
                -0.8137861004653846,
                -0.7112005261634992,
                1.6457043443631374,
                2.1001823011409075,
                -2.123956442037497,
                -0.08362609983634517
            ]
        },
        {
            "positions": [
                -0.9147415356200417,
                -0.6619142002251308,
                1.6663218349081839,
                2.1375906310000383,
                -2.2234883900170592,
                -0.0031670546148505224
            ]
        }
    ]
}