{
    "goal": {
        "global_pose": {
            "orientation": {
                "w": -0.4816463035849501,
                "x": 0.5182115481033762,
                "y": 0.4908360881923453,
                "z": -0.5084816262002911
            },
            "position": {
                "x": -0.8240239810943604,
                "y": -0.300875300988555,
                "z": 0.16403168439865112
            }
        },
        "name": "move_to_storage_C"
    },
    "id": "PRM_move_to_storage_C_92",
    "joint_names": [
        "shoulder_pan_joint",
        "shoulder_lift_joint",
        "elbow_joint",
        "wrist_1_joint",
        "wrist_2_joint",
        "wrist_3_joint"
    ],
    "metrics": {
        "cart_traj_len": 0.5769923558038028,
        "distance_elbow_joint": 0.26215689258445996,
        "distance_shoulder_lift_joint": 0.19054340334811104,
        "distance_shoulder_pan_joint": 0.49323348294613245,
        "distance_wrist_1_joint": 0.08841227205486046,
        "distance_wrist_2_joint": 1.0773709255000794,
        "distance_wrist_3_joint": 0.0694670851086916,
        "smoothness": 2.5376526478085547e-16,
        "time": 0.023214874,
        "traj_len": 1.4768832254251976,
        "weighted_distance": 1.867056889683509
    },
    "planner": "PRM",
    "start": {
        "state": {
            "elbow_joint": 2.010868314990456,
            "shoulder_lift_joint": -1.1634956873337592,
            "shoulder_pan_joint": -2.4736205022346125,
            "wrist_1_joint": -0.8367026794202681,
            "wrist_2_joint": 0.6746043897044499,
            "wrist_3_joint": -3.1496632123970403
        }
    },
    "waypoints": [
        {
            "positions": [
                -2.4736205022346125,
                -1.1634956873337592,
                2.010868314990456,
                -0.8367026794202681,
                0.6746043897044499,
                -3.1496632123970403
            ]
        },
        {
            "positions": [
                -2.5558260827256345,
                -1.1317384534424073,
                1.9671754995597124,
                -0.821967300744458,
                0.8541662106211299,
                -3.138085364878925
            ]
        },
        {
            "positions": [
                -2.6380316632166565,
                -1.0999812195510554,
                1.9234826841289692,
                -0.8072319220686479,
                1.0337280315378097,
                -3.12650751736081
            ]
        },
        {
            "positions": [
                -2.720237243707679,
                -1.0682239856597038,
                1.879789868698226,
                -0.7924965433928379,
                1.2132898524544897,
                -3.1149296698426943
            ]
        },
        {
            "positions": [
                -2.802442824198701,
                -1.036466751768352,
                1.8360970532674825,
                -0.7777611647170278,
                1.3928516733711693,
                -3.103351822324579
            ]
        },
        {
            "positions": [
                -2.884648404689723,
                -1.004709517877,
                1.792404237836739,
                -0.7630257860412177,
                1.5724134942878494,
                -3.091773974806464
            ]
        },
        {
            "positions": [
                -2.966853985180745,
                -0.9729522839856481,
                1.7487114224059959,
                -0.7482904073654076,
                1.7519753152045294,
                -3.0801961272883487
            ]
        }
    ]
}