{
    "goal": {
        "global_pose": {
            "orientation": {
                "w": -0.00223480608172531,
                "x": 0.0024358444001904467,
                "y": 0.7094548369677653,
                "z": -0.704743149386269
            },
            "position": {
                "x": -0.37947507619857795,
                "y": -0.6371506643295288,
                "z": 0.19426114857196808
            }
        },
        "name": "move_to_magneteinheit_C"
    },
    "id": "PRM_move_to_magneteinheit_C_103",
    "joint_names": [
        "shoulder_pan_joint",
        "shoulder_lift_joint",
        "elbow_joint",
        "wrist_1_joint",
        "wrist_2_joint",
        "wrist_3_joint"
    ],
    "metrics": {
        "cart_traj_len": 3.219240972029299,
        "distance_elbow_joint": 4.036690416518603,
        "distance_shoulder_lift_joint": 1.6359135974630263,
        "distance_shoulder_pan_joint": 1.040464935066381,
        "distance_wrist_1_joint": 2.8083730264434266,
        "distance_wrist_2_joint": 1.6166050508685283,
        "distance_wrist_3_joint": 2.100825956687471,
        "smoothness": 1.094057448623308,
        "time": 0.544685487,
        "traj_len": 3.638526210301011,
        "weighted_distance": 4.676056348434473
    },
    "planner": "PRM",
    "start": {
        "state": {
            "elbow_joint": 1.9565354010623817,
            "shoulder_lift_joint": -1.4165861575791021,
            "shoulder_pan_joint": -1.6717766225146293,
            "wrist_1_joint": -0.5286633292919765,
            "wrist_2_joint": 1.472756589071564,
            "wrist_3_joint": -3.1238370188695823
        }
    },
    "waypoints": [
        {
            "positions": [
                -1.6717766225146293,
                -1.4165861575791021,
                1.9565354010623817,
                -0.5286633292919765,
                1.472756589071564,
                -3.1238370188695823
            ]
        },
        {
            "positions": [
                -1.6426455312456452,
                -1.484495922310955,
                2.0238012281003943,
                -0.4555328153960624,
                1.4470934868133112,
                -3.079206143454409
            ]
        },
        {
            "positions": [
                -1.6135144399766608,
                -1.5524056870428082,
                2.0910670551384065,
                -0.3824023015001483,
                1.4214303845550582,
                -3.0345752680392355
            ]
        },
        {
            "positions": [
                -1.5843833487076766,
                -1.6203154517746612,
                2.158332882176419,
                -0.30927178760423424,
                1.3957672822968052,
                -2.9899443926240625
            ]
        },
        {
            "positions": [
                -1.5552522574386924,
                -1.6882252165065141,
                2.225598709214432,
                -0.23614127370832017,
                1.3701041800385525,
                -2.945313517208889
            ]
        },
        {
            "positions": [
                -1.615127008494267,
                -1.6875599329348032,
                2.092808832437941,
                -0.17200739682734054,
                1.2978516093591468,
                -2.8880205736572373
            ]
        },
        {
            "positions": [
                -1.6750017595498419,
                -1.686894649363092,
                1.9600189556614502,
                -0.10787351994636091,
                1.225599038679741,
                -2.8307276301055855
            ]
        },
        {
            "positions": [
                -1.7348765106054165,
                -1.6862293657913812,
                1.8272290788849592,
                -0.04373964306538125,
                1.1533464680003354,
                -2.7734346865539337
            ]
        },
        {
            "positions": [
                -1.794751261660991,
                -1.68556408221967,
                1.6944392021084684,
                0.02039423381559835,
                1.0810938973209296,
                -2.716141743002282
            ]
        },
        {
            "positions": [
                -1.8546260127165657,
                -1.684898798647959,
                1.5616493253319776,
                0.08452811069657795,
                1.008841326641524,
                -2.65884879945063
            ]
        },
        {
            "positions": [
                -1.9145007637721405,
                -1.684233515076248,
                1.4288594485554866,
                0.14866198757755766,
                0.9365887559621182,
                -2.6015558558989778
            ]
        },
        {
            "positions": [
                -1.9743755148277151,
                -1.683568231504537,
                1.2960695717789958,
                0.21279586445853726,
                0.8643361852827125,
                -2.5442629123473264
            ]
        },
        {
            "positions": [
                -2.0342502658832897,
                -1.682902947932826,
                1.163279695002505,
                0.27692974133951687,
                0.7920836146033068,
                -2.486969968795674
            ]
        },
        {
            "positions": [
                -2.0941250169388645,
                -1.682237664361115,
                1.0304898182260143,
                0.34106361822049647,
                0.7198310439239011,
                -2.4296770252440227
            ]
        },
        {
            "positions": [
                -2.1539997679944394,
                -1.6815723807894039,
                0.8976999414495235,
                0.40519749510147607,
                0.6475784732444954,
                -2.3723840816923705
            ]
        },
        {
            "positions": [
                -2.2138745190500138,
                -1.680907097217693,
                0.7649100646730327,
                0.46933137198245567,
                0.5753259025650898,
                -2.3150911381407187
            ]
        },
        {
            "positions": [
                -2.2737492701055886,
                -1.6802418136459818,
                0.6321201878965415,
                0.5334652488634355,
                0.5030733318856839,
                -2.257798194589067
            ]
        },
        {
            "positions": [
                -2.3336240211611634,
                -1.6795765300742709,
                0.49933031112005066,
                0.5975991257444151,
                0.4308207612062782,
                -2.200505251037415
            ]
        },
        {
            "positions": [
                -2.393498772216738,
                -1.6789112465025597,
                0.3665404343435599,
                0.6617330026253947,
                0.3585681905268725,
                -2.143212307485763
            ]
        },
        {
            "positions": [
                -2.4533735232723126,
                -1.6782459629308488,
                0.23375055756706917,
                0.7258668795063743,
                0.2863156198474668,
                -2.0859193639341114
            ]
        },
        {
            "positions": [
                -2.45589699882606,
                -1.5743489230678192,
                0.337186279978119,
                0.6720891017365338,
                0.33229879055570366,
                -2.1630699504619404
            ]
        },
        {
            "positions": [
                -2.4584204743798073,
                -1.4704518832047895,
                0.4406220023891688,
                0.6183113239666934,
                0.37828196126394054,
                -2.2402205369897694
            ]
        },
        {
            "positions": [
                -2.460943949933555,
                -1.36655484334176,
                0.5440577248002187,
                0.5645335461968529,
                0.4242651319721774,
                -2.3173711235175984
            ]
        },
        {
            "positions": [
                -2.463467425487302,
                -1.2626578034787304,
                0.6474934472112686,
                0.5107557684270125,
                0.4702483026804143,
                -2.3945217100454275
            ]
        },
        {
            "positions": [
                -2.4659909010410495,
                -1.1587607636157007,
                0.7509291696223185,
                0.456977990657172,
                0.5162314733886513,
                -2.4716722965732565
            ]
        },
        {
            "positions": [
                -2.4685143765947966,
                -1.0548637237526712,
                0.8543648920333683,
                0.40320021288733154,
                0.562214644096888,
                -2.5488228831010855
            ]
        },
        {
            "positions": [
                -2.471037852148544,
                -0.9509666838896415,
                0.9578006144444181,
                0.3494224351174911,
                0.608197814805125,
                -2.6259734696289145
            ]
        },
        {
            "positions": [
                -2.473561327702291,
                -0.8470696440266119,
                1.0612363368554678,
                0.29564465734765066,
                0.6541809855133618,
                -2.7031240561567436
            ]
        },
        {
            "positions": [
                -2.4760848032560387,
                -0.7431726041635822,
                1.1646720592665178,
                0.24186687957781017,
                0.7001641562215988,
                -2.7802746426845726
            ]
        },
        {
            "positions": [
                -2.475640799802739,
                -0.8030614507625368,
                1.2853659814121954,
                0.08903219133259413,
                0.6978333640401275,
                -2.832925074541935
            ]
        },
        {
            "positions": [
                -2.4751967963494392,
                -0.8629502973614914,
                1.406059903557873,
                -0.06380249691262191,
                0.6955025718586563,
                -2.885575506399298
            ]
        },
        {
            "positions": [
                -2.4747527928961395,
                -0.922839143960446,
                1.5267538257035502,
                -0.21663718515783792,
                0.693171779677185,
                -2.9382259382566605
            ]
        },
        {
            "positions": [
                -2.47430878944284,
                -0.9827279905594006,
                1.6474477478492278,
                -0.369471873403054,
                0.6908409874957137,
                -2.9908763701140235
            ]
        },
        {
            "positions": [
                -2.4738647859895404,
                -1.0426168371583553,
                1.7681416699949053,
                -0.52230656164827,
                0.6885101953142424,
                -3.043526801971386
            ]
        },
        {
            "positions": [
                -2.4734207825362406,
                -1.1025056837573097,
                1.8888355921405828,
                -0.675141249893486,
                0.6861794031327711,
                -3.0961772338287488
            ]
        },
        {
            "positions": [
                -2.472976779082941,
                -1.1623945303562644,
                2.0095295142862604,
                -0.8279759381387021,
                0.6838486109512999,
                -3.1488276656861114
            ]
        }
    ]
}