{
    "goal": {
        "global_pose": {
            "orientation": {
                "w": -0.4816463035849501,
                "x": 0.5182115481033762,
                "y": 0.4908360881923453,
                "z": -0.5084816262002911
            },
            "position": {
                "x": -0.8240239810943604,
                "y": -0.300875300988555,
                "z": 0.16403168439865112
            }
        },
        "name": "move_to_storage_C"
    },
    "id": "PRM_move_to_storage_C_5",
    "joint_names": [
        "shoulder_pan_joint",
        "shoulder_lift_joint",
        "elbow_joint",
        "wrist_1_joint",
        "wrist_2_joint",
        "wrist_3_joint"
    ],
    "metrics": {
        "cart_traj_len": 0.5769476552689738,
        "distance_elbow_joint": 0.2579725856177151,
        "distance_shoulder_lift_joint": 0.19065705473721728,
        "distance_shoulder_pan_joint": 0.49336343290014417,
        "distance_wrist_1_joint": 0.07324448889993973,
        "distance_wrist_2_joint": 1.0782032018417298,
        "distance_wrist_3_joint": 0.06096044460226269,
        "smoothness": 2.5376526478085547e-16,
        "time": 0.02159815,
        "traj_len": 1.4677878622604184,
        "weighted_distance": 1.8514237193428207
    },
    "planner": "PRM",
    "start": {
        "state": {
            "elbow_joint": 2.010868314990456,
            "shoulder_lift_joint": -1.1634956873337592,
            "shoulder_pan_joint": -2.4736205022346125,
            "wrist_1_joint": -0.8367026794202681,
            "wrist_2_joint": 0.6746043897044499,
            "wrist_3_joint": -3.1496632123970403
        }
    },
    "waypoints": [
        {
            "positions": [
                -2.4736205022346125,
                -1.1634956873337592,
                2.010868314990456,
                -0.8367026794202681,
                0.6746043897044499,
                -3.1496632123970403
            ]
        },
        {
            "positions": [
                -2.555847741051303,
                -1.131719511544223,
                1.96787288405417,
                -0.8244952646036114,
                0.8543049233447382,
                -3.1395031382966634
            ]
        },
        {
            "positions": [
                -2.638074979867994,
                -1.0999433357546868,
                1.924877453117884,
                -0.8122878497869549,
                1.0340054569850265,
                -3.129343064196286
            ]
        },
        {
            "positions": [
                -2.720302218684685,
                -1.0681671599651505,
                1.8818820221815984,
                -0.8000804349702982,
                1.2137059906253147,
                -3.1191829900959087
            ]
        },
        {
            "positions": [
                -2.8025294575013753,
                -1.0363909841756143,
                1.8388865912453125,
                -0.7878730201536416,
                1.393406524265603,
                -3.109022915995532
            ]
        },
        {
            "positions": [
                -2.8847566963180657,
                -1.0046148083860782,
                1.7958911603090266,
                -0.775665605336985,
                1.5731070579058914,
                -3.098862841895155
            ]
        },
        {
            "positions": [
                -2.9669839351347567,
                -0.9728386325965419,
                1.7528957293727407,
                -0.7634581905203284,
                1.7528075915461798,
                -3.0887027677947776
            ]
        }
    ]
}