{
    "goal": {
        "global_pose": {
            "orientation": {
                "w": 0.7047431493862688,
                "x": -0.7094548369677653,
                "y": 0.0024358444001904,
                "z": -0.0022348060817251984
            },
            "position": {
                "x": -0.39052492380142206,
                "y": 0.3671506643295288,
                "z": 0.19426114857196808
            }
        },
        "name": "move_to_magneteinheit_D"
    },
    "id": "PRM_move_to_magneteinheit_D_84",
    "joint_names": [
        "shoulder_pan_joint",
        "shoulder_lift_joint",
        "elbow_joint",
        "wrist_1_joint",
        "wrist_2_joint",
        "wrist_3_joint"
    ],
    "metrics": {
        "cart_traj_len": 4.950136622195048,
        "distance_elbow_joint": 3.4491161907601997,
        "distance_shoulder_lift_joint": 1.5449242932698022,
        "distance_shoulder_pan_joint": 3.4303895090664644,
        "distance_wrist_1_joint": 2.1596780689254405,
        "distance_wrist_2_joint": 1.5638433272277779,
        "distance_wrist_3_joint": 0.7553763450775466,
        "smoothness": 0.6986297286226871,
        "time": 2.132645288,
        "traj_len": 3.5921202282673157,
        "weighted_distance": 4.258826343094485
    },
    "planner": "PRM",
    "start": {
        "state": {
            "elbow_joint": 0.749534889911806,
            "shoulder_lift_joint": -0.6476975780787326,
            "shoulder_pan_joint": -2.711696901376241,
            "wrist_1_joint": -0.07506478083263063,
            "wrist_2_joint": 0.43296659715538205,
            "wrist_3_joint": -3.14703540197715
        }
    },
    "waypoints": [
        {
            "positions": [
                -2.711696901376241,
                -0.6476975780787326,
                0.749534889911806,
                -0.07506478083263063,
                0.43296659715538205,
                -3.14703540197715
            ]
        },
        {
            "positions": [
                -2.724217433876774,
                -0.8172128382457463,
                0.7681412873370175,
                -0.09406249000571892,
                0.5270571538024624,
                -3.1403689175781286
            ]
        },
        {
            "positions": [
                -2.5899297723947936,
                -0.8613611983183024,
                0.6495314601469911,
                -0.1596909366496227,
                0.5080345144191858,
                -3.12713631488281
            ]
        },
        {
            "positions": [
                -2.4556421109128133,
                -0.9055095583908584,
                0.5309216329569649,
                -0.2253193832935265,
                0.4890118750359091,
                -3.1139037121874917
            ]
        },
        {
            "positions": [
                -2.321354449430833,
                -0.9496579184634145,
                0.4123118057669386,
                -0.2909478299374303,
                0.4699892356526324,
                -3.1006711094921733
            ]
        },
        {
            "positions": [
                -2.1870667879488526,
                -0.9938062785359707,
                0.2937019785769123,
                -0.35657627658133406,
                0.45096659626935576,
                -3.087438506796855
            ]
        },
        {
            "positions": [
                -2.052779126466872,
                -1.0379546386085268,
                0.17509215138688605,
                -0.42220472322523783,
                0.4319439568860791,
                -3.0742059041015364
            ]
        },
        {
            "positions": [
                -1.9184914649848919,
                -1.0821029986810828,
                0.05648232419685972,
                -0.4878331698691416,
                0.4129213175028024,
                -3.060973301406218
            ]
        },
        {
            "positions": [
                -1.7842038035029115,
                -1.126251358753639,
                -0.062127502993166495,
                -0.5534616165130455,
                0.3938986781195257,
                -3.0477406987108995
            ]
        },
        {
            "positions": [
                -1.6499161420209312,
                -1.170399718826195,
                -0.18073733018319282,
                -0.6190900631569491,
                0.3748760387362491,
                -3.034508096015581
            ]
        },
        {
            "positions": [
                -1.5156284805389508,
                -1.214548078898751,
                -0.29934715737321915,
                -0.684718509800853,
                0.35585339935297244,
                -3.0212754933202626
            ]
        },
        {
            "positions": [
                -1.3813408190569705,
                -1.2586964389713071,
                -0.41795698456324537,
                -0.7503469564447567,
                0.33683075996969575,
                -3.008042890624944
            ]
        },
        {
            "positions": [
                -1.2470531575749901,
                -1.3028447990438634,
                -0.5365668117532718,
                -0.8159754030886606,
                0.31780812058641905,
                -2.9948102879296252
            ]
        },
        {
            "positions": [
                -1.1127654960930098,
                -1.3469931591164193,
                -0.655176638943298,
                -0.8816038497325642,
                0.2987854812031424,
                -2.9815776852343068
            ]
        },
        {
            "positions": [
                -0.9784778346110294,
                -1.3911415191889756,
                -0.7737864661333245,
                -0.9472322963764681,
                0.2797628418198657,
                -2.9683450825389883
            ]
        },
        {
            "positions": [
                -0.8441901731290491,
                -1.4352898792615316,
                -0.8923962933233505,
                -1.012860743020372,
                0.2607402024365891,
                -2.95511247984367
            ]
        },
        {
            "positions": [
                -0.7099025116470687,
                -1.4794382393340877,
                -1.011006120513377,
                -1.0784891896642756,
                0.24171756305331238,
                -2.9418798771483514
            ]
        },
        {
            "positions": [
                -0.5756148501650884,
                -1.5235865994066438,
                -1.1296159477034031,
                -1.1441176363081795,
                0.22269492367003574,
                -2.928647274453033
            ]
        },
        {
            "positions": [
                -0.44132718868310805,
                -1.5677349594791998,
                -1.2482257748934293,
                -1.2097460829520834,
                0.20367228428675904,
                -2.9154146717577145
            ]
        },
        {
            "positions": [
                -0.3070395272011277,
                -1.611883319551756,
                -1.3668356020834558,
                -1.275374529595987,
                0.1846496449034824,
                -2.902182069062396
            ]
        },
        {
            "positions": [
                -0.17275186571914736,
                -1.656031679624312,
                -1.4854454292734822,
                -1.341002976239891,
                0.1656270055202057,
                -2.8889494663670776
            ]
        },
        {
            "positions": [
                -0.03846420423716701,
                -1.700180039696868,
                -1.6040552564635082,
                -1.4066314228837946,
                0.14660436613692907,
                -2.875716863671759
            ]
        },
        {
            "positions": [
                0.09582345724481323,
                -1.744328399769424,
                -1.7226650836535344,
                -1.4722598695276985,
                0.12758172675365237,
                -2.8624842609764407
            ]
        },
        {
            "positions": [
                0.11839243209559017,
                -1.7768960584037647,
                -1.8346212622656428,
                -1.523998173739931,
                0.029127584003323853,
                -2.911635125050627
            ]
        },
        {
            "positions": [
                0.1409614069463671,
                -1.8094637170381054,
                -1.9465774408777512,
                -1.5757364779521639,
                -0.06932655874700466,
                -2.960785989124813
            ]
        },
        {
            "positions": [
                0.16353038179714408,
                -1.842031375672446,
                -2.0585336194898596,
                -1.6274747821643964,
                -0.16778070149733315,
                -3.0099368531989996
            ]
        },
        {
            "positions": [
                0.186099356647921,
                -1.8745990343067866,
                -2.170489798101968,
                -1.679213086376629,
                -0.2662348442476617,
                -3.0590877172731856
            ]
        },
        {
            "positions": [
                0.20866833149869796,
                -1.9071666929411273,
                -2.2824459767140763,
                -1.7309513905888618,
                -0.36468898699799024,
                -3.108238581347372
            ]
        },
        {
            "positions": [
                0.2312373063494749,
                -1.939734351575468,
                -2.3944021553261847,
                -1.7826896948010944,
                -0.46314312974831867,
                -3.157389445421558
            ]
        },
        {
            "positions": [
                0.25380628120025184,
                -1.9723020102098086,
                -2.506358333938293,
                -1.834427999013327,
                -0.5615972724986472,
                -3.2065403094957445
            ]
        },
        {
            "positions": [
                0.16583722890247082,
                -1.9282380379820634,
                -2.4751562995263576,
                -1.9144909691622758,
                -0.4853776036427296,
                -3.181186478384238
            ]
        },
        {
            "positions": [
                0.07786817660468978,
                -1.884174065754318,
                -2.443954265114422,
                -1.9945539393112246,
                -0.40915793478681195,
                -3.155832647272731
            ]
        },
        {
            "positions": [
                -0.010100875693091205,
                -1.8401100935265728,
                -2.4127522307024862,
                -2.0746169094601736,
                -0.3329382659308944,
                -3.1304788161612245
            ]
        },
        {
            "positions": [
                -0.09806992799087227,
                -1.7960461212988275,
                -2.3815501962905508,
                -2.154679879609122,
                -0.2567185970749767,
                -3.105124985049718
            ]
        },
        {
            "positions": [
                -0.1860389802886533,
                -1.7519821490710823,
                -2.3503481618786153,
                -2.2347428497580712,
                -0.18049892821905908,
                -3.079771153938211
            ]
        }
    ]
}