{
    "goal": {
        "global_pose": {
            "orientation": {
                "w": 0.7047431468963623,
                "x": -0.7094548344612122,
                "y": 0.0024358443915843964,
                "z": -0.0022348060738295317
            },
            "position": {
                "x": 0.6094750761985779,
                "y": 0.3671506643295288,
                "z": 0.19426114857196808
            }
        },
        "name": "move_to_magneteinheit_A"
    },
    "id": "PRM_move_to_magneteinheit_A_116",
    "joint_names": [
        "shoulder_pan_joint",
        "shoulder_lift_joint",
        "elbow_joint",
        "wrist_1_joint",
        "wrist_2_joint",
        "wrist_3_joint"
    ],
    "metrics": {
        "cart_traj_len": 3.3452844324946045,
        "distance_elbow_joint": 3.8783009111600286,
        "distance_shoulder_lift_joint": 0.19141125198503484,
        "distance_shoulder_pan_joint": 3.2082256572263903,
        "distance_wrist_1_joint": 2.3215987049680393,
        "distance_wrist_2_joint": 1.755340595830457,
        "distance_wrist_3_joint": 2.7390052272887737,
        "smoothness": 0.15333207961616357,
        "time": 0.17183384,
        "traj_len": 3.7541819812655226,
        "weighted_distance": 4.863006488154706
    },
    "planner": "PRM",
    "start": {
        "state": {
            "elbow_joint": -1.9196185241190666,
            "shoulder_lift_joint": -1.2443396400964142,
            "shoulder_pan_joint": 2.6996025414629847,
            "wrist_1_joint": -1.5485510000780065,
            "wrist_2_joint": -1.5709468930060704,
            "wrist_3_joint": 0.4420197071253992
        }
    },
    "waypoints": [
        {
            "positions": [
                2.6996025414629847,
                -1.2443396400964142,
                -1.9196185241190666,
                -1.5485510000780065,
                -1.5709468930060704,
                0.4420197071253992
            ]
        },
        {
            "positions": [
                2.597568220382842,
                -1.2312145869816673,
                -1.8500546745724382,
                -1.4325442927044674,
                -1.5253870680163224,
                0.43389985297201267
            ]
        },
        {
            "positions": [
                2.4955338993026994,
                -1.2180895338669204,
                -1.7804908250258098,
                -1.316537585330928,
                -1.4798272430265742,
                0.42577999881862616
            ]
        },
        {
            "positions": [
                2.393499578222557,
                -1.2049644807521733,
                -1.7109269754791814,
                -1.2005308779573889,
                -1.4342674180368262,
                0.41766014466523965
            ]
        },
        {
            "positions": [
                2.2914652571424146,
                -1.1918394276374265,
                -1.641363125932553,
                -1.0845241705838498,
                -1.388707593047078,
                0.40954029051185314
            ]
        },
        {
            "positions": [
                2.189430936062272,
                -1.1787143745226796,
                -1.5717992763859248,
                -0.9685174632103104,
                -1.34314776805733,
                0.4014204363584667
            ]
        },
        {
            "positions": [
                2.0873966149821293,
                -1.1655893214079327,
                -1.5022354268392963,
                -0.8525107558367713,
                -1.2975879430675819,
                0.3933005822050802
            ]
        },
        {
            "positions": [
                1.9853622939019866,
                -1.1524642682931856,
                -1.432671577292668,
                -0.736504048463232,
                -1.2520281180778339,
                0.3851807280516937
            ]
        },
        {
            "positions": [
                1.8833279728218442,
                -1.1393392151784387,
                -1.3631077277460395,
                -0.6204973410896929,
                -1.206468293088086,
                0.37706087389830717
            ]
        },
        {
            "positions": [
                1.7812936517417015,
                -1.1262141620636918,
                -1.293543878199411,
                -0.5044906337161537,
                -1.1609084680983377,
                0.36894101974492066
            ]
        },
        {
            "positions": [
                1.678035672209684,
                -1.128432495865177,
                -1.1562873836140664,
                -0.4750859403909142,
                -1.1116728355727055,
                0.439851789350305
            ]
        },
        {
            "positions": [
                1.5747776926776669,
                -1.130650829666662,
                -1.0190308890287216,
                -0.4456812470656747,
                -1.0624372030470735,
                0.5107625589556892
            ]
        },
        {
            "positions": [
                1.4715197131456494,
                -1.1328691634681471,
                -0.8817743944433767,
                -0.4162765537404352,
                -1.0132015705214412,
                0.5816733285610736
            ]
        },
        {
            "positions": [
                1.368261733613632,
                -1.135087497269632,
                -0.744517899858032,
                -0.3868718604151957,
                -0.9639659379958091,
                0.6525840981664579
            ]
        },
        {
            "positions": [
                1.2650037540816146,
                -1.1373058310711173,
                -0.607261405272687,
                -0.3574671670899562,
                -0.914730305470177,
                0.7234948677718422
            ]
        },
        {
            "positions": [
                1.1617457745495974,
                -1.1395241648726022,
                -0.4700049106873423,
                -0.32806247376471676,
                -0.8654946729445449,
                0.7944056373772266
            ]
        },
        {
            "positions": [
                1.0584877950175802,
                -1.1417424986740874,
                -0.33274841610199746,
                -0.2986577804394772,
                -0.8162590404189127,
                0.8653164069826109
            ]
        },
        {
            "positions": [
                0.9552298154855627,
                -1.1439608324755723,
                -0.19549192151665284,
                -0.2692530871142378,
                -0.7670234078932805,
                0.9362271765879951
            ]
        },
        {
            "positions": [
                0.8519718359535453,
                -1.1461791662770575,
                -0.0582354269313079,
                -0.23984839378899825,
                -0.7177877753676484,
                1.0071379461933794
            ]
        },
        {
            "positions": [
                0.7487138564215279,
                -1.1483975000785427,
                0.07902106765403705,
                -0.21044370046375876,
                -0.6685521428420163,
                1.0780487157987637
            ]
        },
        {
            "positions": [
                0.6454558768895104,
                -1.1506158338800276,
                0.21627756223938177,
                -0.18103900713851923,
                -0.619316510316384,
                1.148959485404148
            ]
        },
        {
            "positions": [
                0.5421978973574932,
                -1.1528341676815128,
                0.3535340568247265,
                -0.1516343138132798,
                -0.570080877790752,
                1.2198702550095324
            ]
        },
        {
            "positions": [
                0.4389399178254758,
                -1.1550525014829978,
                0.4907905514100712,
                -0.12222962048804031,
                -0.5208452452651198,
                1.2907810246149167
            ]
        },
        {
            "positions": [
                0.3356819382934586,
                -1.157270835284483,
                0.6280470459954162,
                -0.09282492716280077,
                -0.47160961273948765,
                1.361691794220301
            ]
        },
        {
            "positions": [
                0.23242395876144117,
                -1.1594891690859679,
                0.7653035405807609,
                -0.06342023383756129,
                -0.4223739802138554,
                1.4326025638256854
            ]
        },
        {
            "positions": [
                0.12916597922942397,
                -1.161707502887453,
                0.9025600351661054,
                -0.03401554051232186,
                -0.3731383476882234,
                1.5035133334310697
            ]
        },
        {
            "positions": [
                0.025907999697406536,
                -1.163925836688938,
                1.0398165297514503,
                -0.004610847187082323,
                -0.32390271516259117,
                1.574424103036454
            ]
        },
        {
            "positions": [
                -0.07734997983461094,
                -1.1661441704904232,
                1.1770730243367953,
                0.02479384613815716,
                -0.2746670826369591,
                1.6453348726418384
            ]
        },
        {
            "positions": [
                -0.0965338200896916,
                -1.1616906636321889,
                1.286259447957185,
                -0.0941371144423699,
                -0.2788348854402646,
                1.785195836206377
            ]
        },
        {
            "positions": [
                -0.11571766034477224,
                -1.1572371567739548,
                1.3954458715775748,
                -0.21306807502289696,
                -0.2830026882435701,
                1.9250567997709154
            ]
        },
        {
            "positions": [
                -0.1349015005998529,
                -1.1527836499157205,
                1.5046322951979647,
                -0.33199903560342403,
                -0.28717049104687564,
                2.064917763335454
            ]
        },
        {
            "positions": [
                -0.15408534085493356,
                -1.1483301430574862,
                1.6138187188183544,
                -0.4509299961839511,
                -0.2913382938501811,
                2.2047787268999928
            ]
        },
        {
            "positions": [
                -0.17326918111001421,
                -1.143876636199252,
                1.723005142438744,
                -0.5698609567644782,
                -0.2955060966534866,
                2.3446396904645312
            ]
        },
        {
            "positions": [
                -0.19245302136509487,
                -1.1394231293410177,
                1.832191566059134,
                -0.6887919173450052,
                -0.2996738994567921,
                2.4845006540290697
            ]
        },
        {
            "positions": [
                -0.11341049776551715,
                -1.1377644482469738,
                1.8638142713045909,
                -0.6974589411621839,
                -0.19116040729641373,
                2.6220923804351064
            ]
        },
        {
            "positions": [
                -0.034367974165939424,
                -1.1361057671529298,
                1.8954369765500476,
                -0.7061259649793625,
                -0.08264691513603534,
                2.759684106841143
            ]
        },
        {
            "positions": [
                0.0446745494336383,
                -1.134447086058886,
                1.9270596817955046,
                -0.7147929887965412,
                0.02586657702434303,
                2.8972758332471793
            ]
        },
        {
            "positions": [
                0.12371707303321601,
                -1.132788404964842,
                1.9586823870409615,
                -0.7234600126137198,
                0.13438006918472148,
                3.034867559653216
            ]
        }
    ]
}