{
    "goal": {
        "global_pose": {
            "orientation": {
                "w": 0.7047431468963623,
                "x": -0.7094548344612122,
                "y": 0.0024358443915843964,
                "z": -0.0022348060738295317
            },
            "position": {
                "x": 0.6094750761985779,
                "y": 0.3671506643295288,
                "z": 0.19426114857196808
            }
        },
        "name": "move_to_magneteinheit_A"
    },
    "id": "PRM_move_to_magneteinheit_A_70",
    "joint_names": [
        "shoulder_pan_joint",
        "shoulder_lift_joint",
        "elbow_joint",
        "wrist_1_joint",
        "wrist_2_joint",
        "wrist_3_joint"
    ],
    "metrics": {
        "cart_traj_len": 3.868077982963763,
        "distance_elbow_joint": 3.8759656090781336,
        "distance_shoulder_lift_joint": 0.4426387415046056,
        "distance_shoulder_pan_joint": 4.257529414506797,
        "distance_wrist_1_joint": 1.9164888434479226,
        "distance_wrist_2_joint": 1.703979884041788,
        "distance_wrist_3_joint": 3.709812008903064,
        "smoothness": 0.21651961201966924,
        "time": 0.125721556,
        "traj_len": 3.9882846565261993,
        "weighted_distance": 5.191002528103618
    },
    "planner": "PRM",
    "start": {
        "state": {
            "elbow_joint": -1.9196185241190666,
            "shoulder_lift_joint": -1.2443396400964142,
            "shoulder_pan_joint": 2.6996025414629847,
            "wrist_1_joint": -1.5485510000780065,
            "wrist_2_joint": -1.5709468930060704,
            "wrist_3_joint": 0.4420197071253992
        }
    },
    "waypoints": [
        {
            "positions": [
                2.6996025414629847,
                -1.2443396400964142,
                -1.9196185241190666,
                -1.5485510000780065,
                -1.5709468930060704,
                0.4420197071253992
            ]
        },
        {
            "positions": [
                2.5775665105309455,
                -1.2502064458552005,
                -1.7970143792476028,
                -1.4993129596479204,
                -1.5109309026115956,
                0.4187807670262054
            ]
        },
        {
            "positions": [
                2.455530479598906,
                -1.2560732516139868,
                -1.674410234376139,
                -1.4500749192178344,
                -1.4509149122171205,
                0.39554182692701173
            ]
        },
        {
            "positions": [
                2.3334944486668667,
                -1.261940057372773,
                -1.5518060895046748,
                -1.4008368787877483,
                -1.3908989218226457,
                0.372302886827818
            ]
        },
        {
            "positions": [
                2.2114584177348275,
                -1.267806863131559,
                -1.429201944633211,
                -1.3515988383576623,
                -1.330882931428171,
                0.34906394672862423
            ]
        },
        {
            "positions": [
                2.089422386802788,
                -1.2736736688903454,
                -1.306597799761747,
                -1.3023607979275762,
                -1.270866941033696,
                0.3258250066294305
            ]
        },
        {
            "positions": [
                1.967386355870749,
                -1.2795404746491317,
                -1.1839936548902832,
                -1.2531227574974901,
                -1.210850950639221,
                0.3025860665302368
            ]
        },
        {
            "positions": [
                1.8453503249387095,
                -1.285407280407918,
                -1.0613895100188193,
                -1.203884717067404,
                -1.1508349602447463,
                0.27934712643104304
            ]
        },
        {
            "positions": [
                1.7233142940066704,
                -1.2912740861667042,
                -0.9387853651473553,
                -1.154646676637318,
                -1.0908189698502713,
                0.2561081863318493
            ]
        },
        {
            "positions": [
                1.6012782630746307,
                -1.2971408919254905,
                -0.8161812202758914,
                -1.105408636207232,
                -1.0308029794557965,
                0.23286924623265556
            ]
        },
        {
            "positions": [
                1.4792422321425915,
                -1.3030076976842768,
                -0.6935770754044275,
                -1.056170595777146,
                -0.9707869890613215,
                0.20963030613346184
            ]
        },
        {
            "positions": [
                1.3572062012105524,
                -1.3088745034430629,
                -0.5709729305329636,
                -1.0069325553470598,
                -0.9107709986668467,
                0.1863913660342681
            ]
        },
        {
            "positions": [
                1.2351701702785132,
                -1.3147413092018492,
                -0.44836878566149974,
                -0.9576945149169738,
                -0.8507550082723719,
                0.1631524259350744
            ]
        },
        {
            "positions": [
                1.1131341393464735,
                -1.3206081149606355,
                -0.32576464079003564,
                -0.9084564744868877,
                -0.7907390178778969,
                0.13991348583588065
            ]
        },
        {
            "positions": [
                0.9910981084144344,
                -1.3264749207194217,
                -0.20316049591857177,
                -0.8592184340568016,
                -0.7307230274834221,
                0.1166745457366869
            ]
        },
        {
            "positions": [
                0.8690620774823952,
                -1.332341726478208,
                -0.0805563510471079,
                -0.8099803936267156,
                -0.6707070370889473,
                0.09343560563749315
            ]
        },
        {
            "positions": [
                0.7470260465503558,
                -1.3382085322369943,
                0.04204779382435597,
                -0.7607423531966295,
                -0.6106910466944724,
                0.07019666553829945
            ]
        },
        {
            "positions": [
                0.6249900156183168,
                -1.3440753379957806,
                0.16465193869581984,
                -0.7115043127665436,
                -0.5506750562999976,
                0.0469577254391057
            ]
        },
        {
            "positions": [
                0.5029539846862767,
                -1.3499421437545667,
                0.28725608356728394,
                -0.6622662723364573,
                -0.49065906590552255,
                0.023718785339911952
            ]
        },
        {
            "positions": [
                0.38091795375423754,
                -1.355808949513353,
                0.40986022843874803,
                -0.6130282319063713,
                -0.43064307551104775,
                0.0004798452407182019
            ]
        },
        {
            "positions": [
                0.25888192282219835,
                -1.3616757552721392,
                0.5324643733102117,
                -0.5637901914762853,
                -0.3706270851165727,
                -0.022759094858475493
            ]
        },
        {
            "positions": [
                0.13684589189015917,
                -1.3675425610309255,
                0.6550685181816758,
                -0.5145521510461992,
                -0.3106110947220979,
                -0.04599803495766924
            ]
        },
        {
            "positions": [
                0.01480986095811998,
                -1.3734093667897118,
                0.7776726630531394,
                -0.46531411061611316,
                -0.2505951043276231,
                -0.06923697505686299
            ]
        },
        {
            "positions": [
                -0.1072261699739192,
                -1.379276172548498,
                0.9002768079246035,
                -0.4160760701860271,
                -0.1905791139331483,
                -0.09247591515605669
            ]
        },
        {
            "positions": [
                -0.2292622009059584,
                -1.3851429783072842,
                1.0228809527960672,
                -0.36683802975594104,
                -0.1305631235386735,
                -0.11571485525525038
            ]
        },
        {
            "positions": [
                -0.35129823183799846,
                -1.3910097840660707,
                1.1454850976675317,
                -0.317599989325855,
                -0.07054713314419847,
                -0.1389537953544442
            ]
        },
        {
            "positions": [
                -0.47333426277003765,
                -1.3968765898248567,
                1.2680892425389954,
                -0.2683619488957689,
                -0.010531142749723443,
                -0.16219273545363788
            ]
        },
        {
            "positions": [
                -0.5953702937020768,
                -1.402743395583643,
                1.3906933874104594,
                -0.21912390846568286,
                0.04948484764475136,
                -0.1854316755528317
            ]
        },
        {
            "positions": [
                -0.7174063246341162,
                -1.4086102013424293,
                1.513297532281923,
                -0.1698858680355967,
                0.10950083803922615,
                -0.20867061565202533
            ]
        },
        {
            "positions": [
                -0.6573691426048524,
                -1.3887267598953872,
                1.544943928901719,
                -0.20830184742170474,
                0.11118170611040402,
                -0.42717930751814237
            ]
        },
        {
            "positions": [
                -0.5973319605755885,
                -1.368843318448345,
                1.576590325521515,
                -0.2467178268078128,
                0.11286257418158191,
                -0.6456879993842595
            ]
        },
        {
            "positions": [
                -0.5372947785463245,
                -1.3489598770013027,
                1.608236722141311,
                -0.2851338061939208,
                0.11454344225275978,
                -0.8641966912503765
            ]
        },
        {
            "positions": [
                -0.47725759651706057,
                -1.3290764355542606,
                1.639883118761107,
                -0.3235497855800289,
                0.11622431032393765,
                -1.0827053831164937
            ]
        },
        {
            "positions": [
                -0.4172204144877967,
                -1.3091929941072185,
                1.671529515380903,
                -0.36196576496613697,
                0.11790517839511554,
                -1.3012140749826107
            ]
        },
        {
            "positions": [
                -0.3571832324585328,
                -1.2893095526601763,
                1.703175912000699,
                -0.400381744352245,
                0.11958604646629341,
                -1.5197227668487276
            ]
        },
        {
            "positions": [
                -0.29714605042926884,
                -1.269426111213134,
                1.734822308620495,
                -0.4387977237383531,
                0.1212669145374713,
                -1.7382314587148449
            ]
        },
        {
            "positions": [
                -0.23710886840000495,
                -1.2495426697660919,
                1.766468705240291,
                -0.4772137031244611,
                0.12294778260864916,
                -1.9567401505809618
            ]
        },
        {
            "positions": [
                -0.177071686370741,
                -1.2296592283190497,
                1.7981151018600872,
                -0.5156296825105693,
                0.12462865067982704,
                -2.1752488424470795
            ]
        },
        {
            "positions": [
                -0.11703450434147711,
                -1.2097757868720076,
                1.8297614984798831,
                -0.5540456618966773,
                0.1263095187510049,
                -2.3937575343131963
            ]
        },
        {
            "positions": [
                -0.05699732231221322,
                -1.1898923454249655,
                1.861407895099679,
                -0.5924616412827852,
                0.12799038682218278,
                -2.6122662261793135
            ]
        },
        {
            "positions": [
                0.0030398597170506747,
                -1.1700089039779233,
                1.893054291719475,
                -0.6308776206688933,
                0.12967125489336068,
                -2.8307749180454302
            ]
        },
        {
            "positions": [
                0.06307704174631468,
                -1.150125462530881,
                1.924700688339271,
                -0.6692936000550014,
                0.13135212296453855,
                -3.049283609911548
            ]
        },
        {
            "positions": [
                0.12311422377557858,
                -1.1302420210838389,
                1.956347084959067,
                -0.7077095794411095,
                0.13303299103571642,
                -3.2677923017776647
            ]
        }
    ]
}