{
    "goal": {
        "global_pose": {
            "orientation": {
                "w": 0.7031023480610252,
                "x": -0.7110244013736278,
                "y": 0.0077485991402295624,
                "z": 0.005598929693374583
            },
            "position": {
                "x": -0.8841497679147869,
                "y": 0.44412534475326537,
                "z": 0.3711530566215515
            }
        },
        "name": "move_to_auspresseinheit_D"
    },
    "id": "PRM_move_to_auspresseinheit_D_84",
    "joint_names": [
        "shoulder_pan_joint",
        "shoulder_lift_joint",
        "elbow_joint",
        "wrist_1_joint",
        "wrist_2_joint",
        "wrist_3_joint"
    ],
    "metrics": {
        "cart_traj_len": 0.343279262695582,
        "distance_elbow_joint": 0.6529163738425601,
        "distance_shoulder_lift_joint": 0.13027208140666824,
        "distance_shoulder_pan_joint": 0.13336512429542657,
        "distance_wrist_1_joint": 0.5706746186101976,
        "distance_wrist_2_joint": 1.4479115418999298,
        "distance_wrist_3_joint": 0.022140036750397663,
        "smoothness": 1.1842378929335002e-15,
        "time": 0.015732694999999998,
        "traj_len": 1.7196743228894187,
        "weighted_distance": 2.240568233912126
    },
    "planner": "PRM",
    "start": {
        "state": {
            "elbow_joint": -1.8275523626775212,
            "shoulder_lift_joint": -2.126789852344167,
            "shoulder_pan_joint": -0.03513704404078235,
            "wrist_1_joint": -2.347782403156801,
            "wrist_2_joint": -1.6058999987535132,
            "wrist_3_joint": -3.0880379163319196
        }
    },
    "waypoints": [
        {
            "positions": [
                -0.03513704404078235,
                -2.126789852344167,
                -1.8275523626775212,
                -2.347782403156801,
                -1.6058999987535132,
                -3.0880379163319196
            ]
        },
        {
            "positions": [
                -0.05180768457771067,
                -2.1430738625200005,
                -1.7459378159472012,
                -2.4191167304830756,
                -1.4249110560160219,
                -3.08527041173812
            ]
        },
        {
            "positions": [
                -0.068478325114639,
                -2.159357872695834,
                -1.6643232692168812,
                -2.4904510578093504,
                -1.2439221132785307,
                -3.0825029071443204
            ]
        },
        {
            "positions": [
                -0.08514896565156732,
                -2.1756418828716675,
                -1.5827087224865612,
                -2.561785385135625,
                -1.0629331705410396,
                -3.0797354025505204
            ]
        },
        {
            "positions": [
                -0.10181960618849564,
                -2.191925893047501,
                -1.5010941757562413,
                -2.6331197124619,
                -0.8819442278035483,
                -3.0769678979567208
            ]
        },
        {
            "positions": [
                -0.11849024672542396,
                -2.2082099032233344,
                -1.419479629025921,
                -2.7044540397881742,
                -0.7009552850660571,
                -3.074200393362921
            ]
        },
        {
            "positions": [
                -0.13516088726235229,
                -2.224493913399168,
                -1.337865082295601,
                -2.775788367114449,
                -0.5199663423285659,
                -3.071432888769121
            ]
        },
        {
            "positions": [
                -0.1518315277992806,
                -2.2407779235750014,
                -1.256250535565281,
                -2.8471226944407237,
                -0.33897739959107476,
                -3.0686653841753215
            ]
        },
        {
            "positions": [
                -0.16850216833620893,
                -2.257061933750835,
                -1.1746359888349611,
                -2.9184570217669985,
                -0.15798845685358331,
                -3.065897879581522
            ]
        }
    ]
}