{
    "goal": {
        "global_pose": {
            "orientation": {
                "w": 0.7047431468963623,
                "x": -0.7094548344612122,
                "y": 0.0024358443915843964,
                "z": -0.0022348060738295317
            },
            "position": {
                "x": 0.6094750761985779,
                "y": 0.3671506643295288,
                "z": 0.19426114857196808
            }
        },
        "name": "move_to_magneteinheit_A"
    },
    "id": "PRM_move_to_magneteinheit_A_82",
    "joint_names": [
        "shoulder_pan_joint",
        "shoulder_lift_joint",
        "elbow_joint",
        "wrist_1_joint",
        "wrist_2_joint",
        "wrist_3_joint"
    ],
    "metrics": {
        "cart_traj_len": 3.249747233449473,
        "distance_elbow_joint": 4.117276350363156,
        "distance_shoulder_lift_joint": 0.7364415341516546,
        "distance_shoulder_pan_joint": 3.5946380595863054,
        "distance_wrist_1_joint": 4.070205874813579,
        "distance_wrist_2_joint": 2.055683880518664,
        "distance_wrist_3_joint": 0.45793588770423493,
        "smoothness": 0.5687045707510452,
        "time": 0.157396582,
        "traj_len": 3.877135745255458,
        "weighted_distance": 4.698291510525749
    },
    "planner": "PRM",
    "start": {
        "state": {
            "elbow_joint": -1.9196185241190666,
            "shoulder_lift_joint": -1.2443396400964142,
            "shoulder_pan_joint": 2.6996025414629847,
            "wrist_1_joint": -1.5485510000780065,
            "wrist_2_joint": -1.5709468930060704,
            "wrist_3_joint": 0.4420197071253992
        }
    },
    "waypoints": [
        {
            "positions": [
                2.6996025414629847,
                -1.2443396400964142,
                -1.9196185241190666,
                -1.5485510000780065,
                -1.5709468930060704,
                0.4420197071253992
            ]
        },
        {
            "positions": [
                2.6049889822419523,
                -1.2489390368306932,
                -1.7991550974311632,
                -1.4355432400792854,
                -1.5336931716190771,
                0.4284449473036363
            ]
        },
        {
            "positions": [
                2.5103754230209194,
                -1.253538433564972,
                -1.6786916707432598,
                -1.3225354800805642,
                -1.496439450232084,
                0.41487018748187343
            ]
        },
        {
            "positions": [
                2.415761863799887,
                -1.258137830299251,
                -1.5582282440553563,
                -1.209527720081843,
                -1.4591857288450907,
                0.4012954276601105
            ]
        },
        {
            "positions": [
                2.3211483045788546,
                -1.26273722703353,
                -1.4377648173674529,
                -1.0965199600831221,
                -1.4219320074580977,
                0.38772066783834763
            ]
        },
        {
            "positions": [
                2.2265347453578217,
                -1.2673366237678088,
                -1.3173013906795492,
                -0.9835122000844009,
                -1.3846782860711044,
                0.37414590801658476
            ]
        },
        {
            "positions": [
                2.1319211861367893,
                -1.2719360205020878,
                -1.196837963991646,
                -0.8705044400856798,
                -1.3474245646841112,
                0.3605711481948219
            ]
        },
        {
            "positions": [
                2.037307626915757,
                -1.2765354172363668,
                -1.0763745373037423,
                -0.7574966800869587,
                -1.310170843297118,
                0.346996388373059
            ]
        },
        {
            "positions": [
                1.9426940676947242,
                -1.2811348139706455,
                -0.9559111106158391,
                -0.6444889200882377,
                -1.2729171219101247,
                0.3334216285512961
            ]
        },
        {
            "positions": [
                1.8480805084736915,
                -1.2857342107049246,
                -0.8354476839279357,
                -0.5314811600895164,
                -1.2356634005231317,
                0.3198468687295332
            ]
        },
        {
            "positions": [
                1.7534669492526591,
                -1.2903336074392036,
                -0.714984257240032,
                -0.41847340009079526,
                -1.1984096791361383,
                0.30627210890777035
            ]
        },
        {
            "positions": [
                1.6588533900316265,
                -1.2949330041734823,
                -0.5945208305521288,
                -0.30546564009207433,
                -1.1611559577491453,
                0.2926973490860075
            ]
        },
        {
            "positions": [
                1.564239830810594,
                -1.2995324009077613,
                -0.47405740386422535,
                -0.19245788009335318,
                -1.123902236362152,
                0.2791225892642446
            ]
        },
        {
            "positions": [
                1.4696262715895614,
                -1.3041317976420403,
                -0.3535939771763217,
                -0.07945012009463204,
                -1.0866485149751588,
                0.2655478294424817
            ]
        },
        {
            "positions": [
                1.3750127123685287,
                -1.3087311943763191,
                -0.23313055048841824,
                0.03355763990408911,
                -1.0493947935881658,
                0.2519730696207188
            ]
        },
        {
            "positions": [
                1.280399153147496,
                -1.3133305911105981,
                -0.1126671238005148,
                0.14656539990281026,
                -1.0121410722011723,
                0.2383983097989559
            ]
        },
        {
            "positions": [
                1.1857855939264637,
                -1.317929987844877,
                0.007796302887388418,
                0.2595731599015312,
                -0.9748873508141793,
                0.22482354997719303
            ]
        },
        {
            "positions": [
                1.0911720347054312,
                -1.322529384579156,
                0.12825972957529164,
                0.3725809199002521,
                -0.9376336294271861,
                0.2112487901554302
            ]
        },
        {
            "positions": [
                0.9965584754843986,
                -1.327128781313435,
                0.2487231562631953,
                0.4855886798989737,
                -0.9003799080401929,
                0.19767403033366726
            ]
        },
        {
            "positions": [
                0.9019449162633659,
                -1.3317281780477137,
                0.36918658295109896,
                0.5985964398976946,
                -0.8631261866531997,
                0.1840992705119044
            ]
        },
        {
            "positions": [
                0.8073313570423333,
                -1.3363275747819927,
                0.4896500096390026,
                0.711604199896416,
                -0.8258724652662064,
                0.17052451069014152
            ]
        },
        {
            "positions": [
                0.7127177978213008,
                -1.3409269715162717,
                0.6101134363269058,
                0.8246119598951369,
                -0.7886187438792133,
                0.15694975086837865
            ]
        },
        {
            "positions": [
                0.6181042386002682,
                -1.3455263682505505,
                0.7305768630148091,
                0.9376197198938578,
                -0.7513650224922201,
                0.14337499104661577
            ]
        },
        {
            "positions": [
                0.5234906793792358,
                -1.3501257649848295,
                0.8510402897027127,
                1.0506274798925792,
                -0.7141113011052269,
                0.12980023122485285
            ]
        },
        {
            "positions": [
                0.42887712015820334,
                -1.3547251617191085,
                0.971503716390616,
                1.1636352398913001,
                -0.6768575797182337,
                0.11622547140308997
            ]
        },
        {
            "positions": [
                0.3342635609371709,
                -1.3593245584533873,
                1.0919671430785196,
                1.276642999890021,
                -0.6396038583312406,
                0.1026507115813271
            ]
        },
        {
            "positions": [
                0.23965000171613804,
                -1.3639239551876663,
                1.2124305697664233,
                1.3896507598887424,
                -0.6023501369442473,
                0.08907595175956423
            ]
        },
        {
            "positions": [
                0.1450364424951056,
                -1.3685233519219453,
                1.3328939964543265,
                1.5026585198874634,
                -0.5650964155572542,
                0.07550119193780136
            ]
        },
        {
            "positions": [
                0.05042288327407274,
                -1.373122748656224,
                1.4533574231422302,
                1.6156662798861847,
                -0.527842694170261,
                0.06192643211603843
            ]
        },
        {
            "positions": [
                -0.04419067594695954,
                -1.377722145390503,
                1.5738208498301336,
                1.7286740398849056,
                -0.49058897278326785,
                0.048351672294275574
            ]
        },
        {
            "positions": [
                -0.0929886520569955,
                -1.310312033807331,
                1.6479379598200519,
                1.7977479993724612,
                -0.3949098838484104,
                0.05095127731782708
            ]
        },
        {
            "positions": [
                -0.14178662816703144,
                -1.2429019222241593,
                1.7220550698099701,
                1.8668219588600168,
                -0.299230794913553,
                0.053550882341378586
            ]
        },
        {
            "positions": [
                -0.19058460427706742,
                -1.1754918106409873,
                1.7961721797998882,
                1.9358959183475724,
                -0.20355170597869554,
                0.056150487364930085
            ]
        },
        {
            "positions": [
                -0.23938258038710336,
                -1.1080816990578155,
                1.8702892897898065,
                2.004969877835128,
                -0.1078726170438381,
                0.05875009238848159
            ]
        },
        {
            "positions": [
                -0.2881805564971393,
                -1.0406715874746435,
                1.9444063997797247,
                2.0740438373226837,
                -0.012193528108980667,
                0.0613496974120331
            ]
        },
        {
            "positions": [
                -0.33697853260717525,
                -0.9732614758914717,
                2.018523509769643,
                2.1431177968102393,
                0.08348556082587677,
                0.06394930243558461
            ]
        },
        {
            "positions": [
                -0.3857765087172112,
                -0.9058513643082997,
                2.0926406197595613,
                2.212191756297795,
                0.1791646497607342,
                0.06654890745913611
            ]
        },
        {
            "positions": [
                -0.2584617563656837,
                -0.8730543023644591,
                2.0663863181384294,
                2.1348259766883504,
                0.10277156532276911,
                0.05503125303207338
            ]
        },
        {
            "positions": [
                -0.1311470040141562,
                -0.8402572404206186,
                2.0401320165172976,
                2.057460197078906,
                0.026378480884804018,
                0.04351359860501065
            ]
        },
        {
            "positions": [
                -0.003832251662628683,
                -0.807460178476778,
                2.0138777148961653,
                1.980094417469462,
                -0.05001460355316106,
                0.031995944177947926
            ]
        },
        {
            "positions": [
                0.12348250068889877,
                -0.7746631165329374,
                1.9876234132750334,
                1.9027286378600174,
                -0.12640768799112617,
                0.020478289750885198
            ]
        }
    ]
}