{
    "goal": {
        "global_pose": {
            "orientation": {
                "w": 0.7031023502349854,
                "x": -0.7110244035720825,
                "y": 0.007748599164187908,
                "z": 0.005598929710686207
            },
            "position": {
                "x": 0.11585023208521307,
                "y": 0.44412534475326537,
                "z": 0.3711530566215515
            }
        },
        "name": "move_to_auspresseinheit_A"
    },
    "id": "PRM_move_to_auspresseinheit_A_101",
    "joint_names": [
        "shoulder_pan_joint",
        "shoulder_lift_joint",
        "elbow_joint",
        "wrist_1_joint",
        "wrist_2_joint",
        "wrist_3_joint"
    ],
    "metrics": {
        "cart_traj_len": 1.0162636274517431,
        "distance_elbow_joint": 0.3707418308896089,
        "distance_shoulder_lift_joint": 0.7464816524063216,
        "distance_shoulder_pan_joint": 1.0433142277488527,
        "distance_wrist_1_joint": 2.3639664868169095,
        "distance_wrist_2_joint": 2.179801056265929,
        "distance_wrist_3_joint": 1.5920276733735252,
        "smoothness": 1.2260540337126082,
        "time": 0.181011699,
        "traj_len": 2.8803355581426877,
        "weighted_distance": 4.003018338370564
    },
    "planner": "PRM",
    "start": {
        "state": {
            "elbow_joint": 2.4225746658250005,
            "shoulder_lift_joint": -1.3736534386056498,
            "shoulder_pan_joint": -0.3378633547517467,
            "wrist_1_joint": -1.0288598680537169,
            "wrist_2_joint": 1.233022673432363,
            "wrist_3_joint": -3.0940220416140027
        }
    },
    "waypoints": [
        {
            "positions": [
                -0.3378633547517467,
                -1.3736534386056498,
                2.4225746658250005,
                -1.0288598680537169,
                1.233022673432363,
                -3.0940220416140027
            ]
        },
        {
            "positions": [
                -0.27190789733705856,
                -1.4194275583447888,
                2.408217220256317,
                -0.9240549035977377,
                1.1364830898947038,
                -3.038602792696681
            ]
        },
        {
            "positions": [
                -0.20595243992237042,
                -1.4652016780839279,
                2.3938597746876327,
                -0.8192499391417584,
                1.0399435063570446,
                -2.9831835437793597
            ]
        },
        {
            "positions": [
                -0.13999698250768225,
                -1.5109757978230671,
                2.379502329118949,
                -0.714444974685779,
                0.9434039228193855,
                -2.927764294862038
            ]
        },
        {
            "positions": [
                -0.07404152509299411,
                -1.5567499175622062,
                2.3651448835502653,
                -0.6096400102297999,
                0.8468643392817263,
                -2.872345045944716
            ]
        },
        {
            "positions": [
                -0.008086067678305942,
                -1.6025240373013452,
                2.350787437981581,
                -0.5048350457738205,
                0.7503247557440671,
                -2.8169257970273947
            ]
        },
        {
            "positions": [
                0.057869389736382226,
                -1.6482981570404842,
                2.3364299924128975,
                -0.40003008131784135,
                0.6537851722064079,
                -2.761506548110073
            ]
        },
        {
            "positions": [
                0.1238248471510704,
                -1.6940722767796235,
                2.322072546844214,
                -0.29522511686186204,
                0.5572455886687486,
                -2.7060872991927516
            ]
        },
        {
            "positions": [
                0.1897803045657585,
                -1.7398463965187623,
                2.3077151012755297,
                -0.19042015240588284,
                0.4607060051310895,
                -2.65066805027543
            ]
        },
        {
            "positions": [
                0.25573576198044673,
                -1.7856205162579015,
                2.293357655706846,
                -0.08561518794990342,
                0.36416642159343016,
                -2.5952488013581085
            ]
        },
        {
            "positions": [
                0.32169121939513484,
                -1.8313946359970406,
                2.279000210138162,
                0.019189776506075784,
                0.26762683805577103,
                -2.5398295524407866
            ]
        },
        {
            "positions": [
                0.38764667680982307,
                -1.8771687557361796,
                2.264642764569478,
                0.12399474096205498,
                0.1710872545181119,
                -2.4844103035234655
            ]
        },
        {
            "positions": [
                0.4536021342245112,
                -1.9229428754753188,
                2.2502853190007945,
                0.22879970541803418,
                0.07454767098045267,
                -2.4289910546061435
            ]
        },
        {
            "positions": [
                0.5195575916391995,
                -1.9687169952144579,
                2.2359278734321104,
                0.3336046698740136,
                -0.02199191255720656,
                -2.373571805688822
            ]
        },
        {
            "positions": [
                0.5855130490538875,
                -2.014491114953597,
                2.2215704278634267,
                0.4384096343299928,
                -0.1185314960948658,
                -2.3181525567715004
            ]
        },
        {
            "positions": [
                0.6005052770467898,
                -2.0012856179463,
                2.242787626979431,
                0.32632251127584283,
                -0.015000635252528163,
                -2.4201723303378784
            ]
        },
        {
            "positions": [
                0.6154975050396921,
                -1.9880801209390033,
                2.2640048260954355,
                0.21423538822169286,
                0.08853022558980947,
                -2.5221921039042563
            ]
        },
        {
            "positions": [
                0.6304897330325945,
                -1.9748746239317065,
                2.28522202521144,
                0.10214826516754288,
                0.1920610864321471,
                -2.6242118774706342
            ]
        },
        {
            "positions": [
                0.6454819610254969,
                -1.9616691269244098,
                2.3064392243274443,
                -0.009938857886607089,
                0.29559194727448473,
                -2.726231651037012
            ]
        },
        {
            "positions": [
                0.6604741890183993,
                -1.9484636299171127,
                2.3276564234434485,
                -0.12202598094075712,
                0.3991228081168223,
                -2.8282514246033896
            ]
        },
        {
            "positions": [
                0.6754664170113016,
                -1.935258132909816,
                2.348873622559453,
                -0.23411310399490703,
                0.50265366895916,
                -2.9302711981697676
            ]
        },
        {
            "positions": [
                0.690458645004204,
                -1.9220526359025192,
                2.3700908216754577,
                -0.34620022704905695,
                0.6061845298014976,
                -3.0322909717361455
            ]
        },
        {
            "positions": [
                0.7054508729971063,
                -1.9088471388952224,
                2.391308020791462,
                -0.45828735010320704,
                0.7097153906438353,
                -3.1343107453025234
            ]
        }
    ]
}