{
    "goal": {
        "global_pose": {
            "orientation": {
                "w": -0.00223480608172531,
                "x": 0.0024358444001904467,
                "y": 0.7094548369677653,
                "z": -0.704743149386269
            },
            "position": {
                "x": -0.37947507619857795,
                "y": -0.6371506643295288,
                "z": 0.19426114857196808
            }
        },
        "name": "move_to_magneteinheit_C"
    },
    "id": "PRM_move_to_magneteinheit_C_82",
    "joint_names": [
        "shoulder_pan_joint",
        "shoulder_lift_joint",
        "elbow_joint",
        "wrist_1_joint",
        "wrist_2_joint",
        "wrist_3_joint"
    ],
    "metrics": {
        "cart_traj_len": 3.4722325481979897,
        "distance_elbow_joint": 3.0886125508319657,
        "distance_shoulder_lift_joint": 1.5537322381968204,
        "distance_shoulder_pan_joint": 1.4413151694573154,
        "distance_wrist_1_joint": 0.9787125482153871,
        "distance_wrist_2_joint": 1.1358732983964503,
        "distance_wrist_3_joint": 2.7975187186479413,
        "smoothness": 0.9882555731872417,
        "time": 0.820637149,
        "traj_len": 3.3159862068087502,
        "weighted_distance": 4.324972578832565
    },
    "planner": "PRM",
    "start": {
        "state": {
            "elbow_joint": 1.9565354010623817,
            "shoulder_lift_joint": -1.4165861575791021,
            "shoulder_pan_joint": -1.6717766225146293,
            "wrist_1_joint": -0.5286633292919765,
            "wrist_2_joint": 1.472756589071564,
            "wrist_3_joint": -3.1238370188695823
        }
    },
    "waypoints": [
        {
            "positions": [
                -1.6717766225146293,
                -1.4165861575791021,
                1.9565354010623817,
                -0.5286633292919765,
                1.472756589071564,
                -3.1238370188695823
            ]
        },
        {
            "positions": [
                -1.6932618787266167,
                -1.4553966009118549,
                1.8322240395244744,
                -0.5378711216785821,
                1.411210068074558,
                -3.0083701367488036
            ]
        },
        {
            "positions": [
                -1.714747134938604,
                -1.4942070442446074,
                1.7079126779865674,
                -0.5470789140651877,
                1.3496635470775524,
                -2.8929032546280244
            ]
        },
        {
            "positions": [
                -1.7362323911505917,
                -1.53301748757736,
                1.5836013164486602,
                -0.5562867064517935,
                1.2881170260805468,
                -2.7774363725072457
            ]
        },
        {
            "positions": [
                -1.757717647362579,
                -1.5718279309101126,
                1.4592899549107532,
                -0.5654944988383991,
                1.226570505083541,
                -2.6619694903864666
            ]
        },
        {
            "positions": [
                -1.7792029035745665,
                -1.6106383742428654,
                1.334978593372846,
                -0.5747022912250047,
                1.165023984086535,
                -2.546502608265688
            ]
        },
        {
            "positions": [
                -1.8006881597865538,
                -1.649448817575618,
                1.2106672318349387,
                -0.5839100836116103,
                1.1034774630895294,
                -2.4310357261449087
            ]
        },
        {
            "positions": [
                -1.8221734159985412,
                -1.6882592609083704,
                1.0863558702970317,
                -0.593117875998216,
                1.0419309420925238,
                -2.31556884402413
            ]
        },
        {
            "positions": [
                -1.8436586722105288,
                -1.7270697042411232,
                0.9620445087591245,
                -0.6023256683848217,
                0.9803844210955179,
                -2.200101961903351
            ]
        },
        {
            "positions": [
                -1.8651439284225162,
                -1.765880147573876,
                0.8377331472212173,
                -0.6115334607714273,
                0.9188379000985122,
                -2.084635079782572
            ]
        },
        {
            "positions": [
                -1.8866291846345036,
                -1.8046905909066284,
                0.7134217856833103,
                -0.620741253158033,
                0.8572913791015064,
                -1.9691681976617932
            ]
        },
        {
            "positions": [
                -2.0677655155395707,
                -1.8362788419066036,
                0.6587801195993834,
                -0.6343911593600213,
                0.8800216520794131,
                -1.9301189776563568
            ]
        },
        {
            "positions": [
                -2.2489018464446375,
                -1.8678670929065788,
                0.6041384535154566,
                -0.6480410655620098,
                0.9027519250573198,
                -1.8910697576509203
            ]
        },
        {
            "positions": [
                -2.4300381773497044,
                -1.8994553439065538,
                0.5494967874315297,
                -0.6616909717639982,
                0.9254821980352265,
                -1.8520205376454837
            ]
        },
        {
            "positions": [
                -2.6111745082547717,
                -1.931043594906529,
                0.4948551213476028,
                -0.6753408779659866,
                0.9482124710131332,
                -1.8129713176400473
            ]
        },
        {
            "positions": [
                -2.7923108391598386,
                -1.9626318459065042,
                0.44021345526367595,
                -0.688990784167975,
                0.9709427439910399,
                -1.7739220976346108
            ]
        },
        {
            "positions": [
                -2.775655330268575,
                -1.8931543921765466,
                0.5525213719010996,
                -0.7264095369841316,
                0.9443141352301911,
                -1.882186570182963
            ]
        },
        {
            "positions": [
                -2.758999821377312,
                -1.8236769384465892,
                0.6648292885385232,
                -0.763828289800288,
                0.9176855264693425,
                -1.990451042731315
            ]
        },
        {
            "positions": [
                -2.7423443124860487,
                -1.7541994847166316,
                0.7771372051759469,
                -0.8012470426164446,
                0.8910569177084938,
                -2.098715515279667
            ]
        },
        {
            "positions": [
                -2.7256888035947853,
                -1.684722030986674,
                0.8894451218133705,
                -0.8386657954326011,
                0.8644283089476451,
                -2.206979987828019
            ]
        },
        {
            "positions": [
                -2.7090332947035223,
                -1.6152445772567166,
                1.0017530384507942,
                -0.8760845482487577,
                0.8377997001867965,
                -2.315244460376371
            ]
        },
        {
            "positions": [
                -2.692377785812259,
                -1.545767123526759,
                1.1140609550882177,
                -0.9135033010649143,
                0.8111710914259478,
                -2.4235089329247232
            ]
        },
        {
            "positions": [
                -2.6757222769209954,
                -1.4762896697968015,
                1.2263688717256414,
                -0.9509220538810708,
                0.7845424826650991,
                -2.531773405473075
            ]
        },
        {
            "positions": [
                -2.659066768029732,
                -1.406812216066844,
                1.338676788363065,
                -0.9883408066972273,
                0.7579138739042504,
                -2.640037878021427
            ]
        },
        {
            "positions": [
                -2.642411259138469,
                -1.3373347623368863,
                1.4509847050004887,
                -1.025759559513384,
                0.7312852651434018,
                -2.7483023505697792
            ]
        },
        {
            "positions": [
                -2.6257557502472055,
                -1.2678573086069287,
                1.5632926216379124,
                -1.0631783123295404,
                0.704656656382553,
                -2.8565668231181314
            ]
        },
        {
            "positions": [
                -2.609100241355942,
                -1.1983798548769715,
                1.675600538275336,
                -1.1005970651456969,
                0.6780280476217044,
                -2.9648312956664835
            ]
        },
        {
            "positions": [
                -2.592444732464679,
                -1.128902401147014,
                1.7879084549127597,
                -1.1380158179618536,
                0.6513994388608557,
                -3.073095768214835
            ]
        },
        {
            "positions": [
                -2.5757892235734157,
                -1.0594249474170563,
                1.9002163715501832,
                -1.17543457077801,
                0.624770830100007,
                -3.1813602407631874
            ]
        },
        {
            "positions": [
                -2.523659554960574,
                -1.1116647731070415,
                1.9563602159235596,
                -1.0094639174133333,
                0.6550632349229204,
                -3.161277413620991
            ]
        },
        {
            "positions": [
                -2.4715298863477324,
                -1.1639045987970267,
                2.012504060296936,
                -0.8434932640486565,
                0.6853556397458337,
                -3.141194586478794
            ]
        }
    ]
}