{
    "goal": {
        "global_pose": {
            "orientation": {
                "w": 0.5084816217422485,
                "x": -0.49083608388900757,
                "y": 0.5182115435600281,
                "z": -0.4816462993621826
            },
            "position": {
                "x": 0.5540239810943604,
                "y": 0.030875300988554955,
                "z": 0.16403168439865112
            }
        },
        "name": "move_to_storage_A"
    },
    "id": "PRM_move_to_storage_A_9",
    "joint_names": [
        "shoulder_pan_joint",
        "shoulder_lift_joint",
        "elbow_joint",
        "wrist_1_joint",
        "wrist_2_joint",
        "wrist_3_joint"
    ],
    "metrics": {
        "cart_traj_len": 0.3527570165068371,
        "distance_elbow_joint": 0.4511346197892643,
        "distance_shoulder_lift_joint": 0.23665104859464003,
        "distance_shoulder_pan_joint": 0.4607955887353563,
        "distance_wrist_1_joint": 0.2436704878733299,
        "distance_wrist_2_joint": 1.101593859848032,
        "distance_wrist_3_joint": 0.08892904087541309,
        "smoothness": 4.440892133664971e-16,
        "time": 0.022016837,
        "traj_len": 1.6071013178129234,
        "weighted_distance": 2.0263013288225973
    },
    "planner": "PRM",
    "start": {
        "state": {
            "elbow_joint": 1.971548259319323,
            "shoulder_lift_joint": -1.1394851275133948,
            "shoulder_pan_joint": 0.1228115487234821,
            "wrist_1_joint": -0.7804723859257726,
            "wrist_2_joint": 0.12958671773740124,
            "wrist_3_joint": -3.192489227718131
        }
    },
    "waypoints": [
        {
            "positions": [
                0.1228115487234821,
                -1.1394851275133948,
                1.971548259319323,
                -0.7804723859257726,
                0.12958671773740124,
                -3.192489227718131
            ]
        },
        {
            "positions": [
                0.05698360747557406,
                -1.1732924201697719,
                2.035996062146361,
                -0.8152824556219626,
                0.28695726914426295,
                -3.1797850790216438
            ]
        },
        {
            "positions": [
                -0.008844333772333984,
                -1.2070997128261491,
                2.1004438649733985,
                -0.8500925253181526,
                0.44432782055112463,
                -3.167080930325156
            ]
        },
        {
            "positions": [
                -0.07467227502024201,
                -1.2409070054825262,
                2.164891667800436,
                -0.8849025950143425,
                0.6016983719579864,
                -3.1543767816286685
            ]
        },
        {
            "positions": [
                -0.14050021626815007,
                -1.2747142981389035,
                2.229339470627474,
                -0.9197126647105326,
                0.7590689233648481,
                -3.1416726329321807
            ]
        },
        {
            "positions": [
                -0.20632815751605815,
                -1.3085215907952805,
                2.293787273454512,
                -0.9545227344067225,
                0.9164394747717098,
                -3.1289684842356933
            ]
        },
        {
            "positions": [
                -0.2721560987639661,
                -1.3423288834516578,
                2.3582350762815496,
                -0.9893328041029126,
                1.0738100261785715,
                -3.1162643355392055
            ]
        },
        {
            "positions": [
                -0.3379840400118742,
                -1.3761361761080348,
                2.4226828791085873,
                -1.0241428737991025,
                1.2311805775854332,
                -3.103560186842718
            ]
        }
    ]
}{
    "goal": {
        "global_pose": {
            "orientation": {
                "w": 0.5084816217422485,
                "x": -0.49083608388900757,
                "y": 0.5182115435600281,
                "z": -0.4816462993621826
            },
            "position": {
                "x": 0.5540239810943604,
                "y": 0.030875300988554955,
                "z": 0.16403168439865112
            }
        },
        "name": "move_to_storage_A"
    },
    "id": "PRM_move_to_storage_A_9",
    "joint_names": [
        "shoulder_pan_joint",
        "shoulder_lift_joint",
        "elbow_joint",
        "wrist_1_joint",
        "wrist_2_joint",
        "wrist_3_joint"
    ],
    "metrics": {
        "cart_traj_len": 0.3535280095144151,
        "distance_elbow_joint": 0.4542068282768619,
        "distance_shoulder_lift_joint": 0.23487670271344419,
        "distance_shoulder_pan_joint": 0.4633915228445021,
        "distance_wrist_1_joint": 0.26046448511935716,
        "distance_wrist_2_joint": 1.095513512983705,
        "distance_wrist_3_joint": 0.09660865202204594,
        "smoothness": 6.661338165333112e-16,
        "time": 0.023909082999999998,
        "traj_len": 1.6140203542582467,
        "weighted_distance": 2.038199451993614
    },
    "planner": "PRM",
    "start": {
        "state": {
            "elbow_joint": 1.97154746011099,
            "shoulder_lift_joint": -1.13948474672311,
            "shoulder_pan_joint": 0.12281154466712228,
            "wrist_1_joint": -0.7804688027058302,
            "wrist_2_joint": 0.12958655903071145,
            "wrist_3_joint": 3.0906928834467795
        }
    },
    "waypoints": [
        {
            "positions": [
                0.12281154466712228,
                -1.13948474672311,
                1.97154746011099,
                -0.7804688027058302,
                0.12958655903071145,
                3.0906928834467795
            ]
        },
        {
            "positions": [
                0.05661275568933627,
                -1.1730385613964591,
                2.0364341498648275,
                -0.8176780148657383,
                0.28608848945695503,
                3.104494119449929
            ]
        },
        {
            "positions": [
                -0.009586033288449744,
                -1.2065923760698083,
                2.1013208396186647,
                -0.8548872270256465,
                0.4425904198831986,
                3.1182953554530783
            ]
        },
        {
            "positions": [
                -0.07578482226623574,
                -1.2401461907431575,
                2.1662075293725023,
                -0.8920964391855547,
                0.5990923503094422,
                3.1320965914562278
            ]
        },
        {
            "positions": [
                -0.14198361124402176,
                -1.2737000054165066,
                2.2310942191263394,
                -0.9293056513454628,
                0.7555942807356858,
                3.145897827459377
            ]
        },
        {
            "positions": [
                -0.20818240022180778,
                -1.3072538200898558,
                2.295980908880177,
                -0.9665148635053711,
                0.9120962111619294,
                3.1596990634625266
            ]
        },
        {
            "positions": [
                -0.27438118919959376,
                -1.340807634763205,
                2.360867598634014,
                -1.0037240756652792,
                1.068598141588173,
                3.173500299465676
            ]
        },
        {
            "positions": [
                -0.3405799781773798,
                -1.3743614494365541,
                2.425754288387852,
                -1.0409332878251873,
                1.2251000720144165,
                3.1873015354688254
            ]
        }
    ]
}{
    "goal": {
        "global_pose": {
            "orientation": {
                "w": 0.5084816217422485,
                "x": -0.49083608388900757,
                "y": 0.5182115435600281,
                "z": -0.4816462993621826
            },
            "position": {
                "x": 0.5540239810943604,
                "y": 0.030875300988554955,
                "z": 0.16403168439865112
            }
        },
        "name": "move_to_storage_A"
    },
    "id": "PRM_move_to_storage_A_9",
    "joint_names": [
        "shoulder_pan_joint",
        "shoulder_lift_joint",
        "elbow_joint",
        "wrist_1_joint",
        "wrist_2_joint",
        "wrist_3_joint"
    ],
    "metrics": {
        "cart_traj_len": 0.35311359512419627,
        "distance_elbow_joint": 0.44911152309581226,
        "distance_shoulder_lift_joint": 0.23437538236266886,
        "distance_shoulder_pan_joint": 0.4620819912053289,
        "distance_wrist_1_joint": 0.23689693206617668,
        "distance_wrist_2_joint": 1.0975725926801376,
        "distance_wrist_3_joint": 0.10156539358213834,
        "smoothness": 6.661338165333112e-16,
        "time": 0.034548798000000006,
        "traj_len": 1.6067370086583126,
        "weighted_distance": 2.029582254283589
    },
    "planner": "PRM",
    "start": {
        "state": {
            "elbow_joint": 1.9715472970024885,
            "shoulder_lift_joint": -1.1394870060712896,
            "shoulder_pan_joint": 0.12281152778156021,
            "wrist_1_joint": -0.780463741449964,
            "wrist_2_joint": 0.12958659822042276,
            "wrist_3_joint": 3.090690232415272
        }
    },
    "waypoints": [
        {
            "positions": [
                0.12281152778156021,
                -1.1394870060712896,
                1.9715472970024885,
                -0.780463741449964,
                0.12958659822042276,
                3.090690232415272
            ]
        },
        {
            "positions": [
                0.05679981475222752,
                -1.1729692035516708,
                2.035706086016176,
                -0.8143061603165607,
                0.2863826828890138,
                3.105199574355577
            ]
        },
        {
            "positions": [
                -0.009211898277105168,
                -1.2064514010320522,
                2.0998648750298634,
                -0.8481485791831573,
                0.4431787675576049,
                3.119708916295883
            ]
        },
        {
            "positions": [
                -0.07522361130643787,
                -1.2399335985124333,
                2.164023664043551,
                -0.881990998049754,
                0.599974852226196,
                3.134218258236188
            ]
        },
        {
            "positions": [
                -0.14123532433577055,
                -1.2734157959928147,
                2.2281824530572383,
                -0.9158334169163507,
                0.756770936894787,
                3.148727600176494
            ]
        },
        {
            "positions": [
                -0.20724703736510328,
                -1.306897993473196,
                2.292341242070926,
                -0.9496758357829473,
                0.9135670215633782,
                3.163236942116799
            ]
        },
        {
            "positions": [
                -0.2732587503944359,
                -1.340380190953577,
                2.356500031084613,
                -0.983518254649544,
                1.0703631062319692,
                3.177746284057105
            ]
        },
        {
            "positions": [
                -0.33927046342376865,
                -1.3738623884339585,
                2.420658820098301,
                -1.0173606735161407,
                1.2271591909005604,
                3.19225562599741
            ]
        }
    ]
}