{
    "goal": {
        "global_pose": {
            "orientation": {
                "w": -0.4816463035849501,
                "x": 0.5182115481033762,
                "y": 0.4908360881923453,
                "z": -0.5084816262002911
            },
            "position": {
                "x": -0.8240239810943604,
                "y": -0.300875300988555,
                "z": 0.16403168439865112
            }
        },
        "name": "move_to_storage_C"
    },
    "id": "PRM_move_to_storage_C_135",
    "joint_names": [
        "shoulder_pan_joint",
        "shoulder_lift_joint",
        "elbow_joint",
        "wrist_1_joint",
        "wrist_2_joint",
        "wrist_3_joint"
    ],
    "metrics": {
        "cart_traj_len": 0.5770716256507724,
        "distance_elbow_joint": 0.25733335580594074,
        "distance_shoulder_lift_joint": 0.18951536448645756,
        "distance_shoulder_pan_joint": 0.4950056500541318,
        "distance_wrist_1_joint": 0.06935330611955126,
        "distance_wrist_2_joint": 1.0645636845582125,
        "distance_wrist_3_joint": 0.055436161912538306,
        "smoothness": 2.5376526478085547e-16,
        "time": 0.020478632,
        "traj_len": 1.4598655838592922,
        "weighted_distance": 1.8373885918443253
    },
    "planner": "PRM",
    "start": {
        "state": {
            "elbow_joint": 2.010868314990456,
            "shoulder_lift_joint": -1.1634956873337592,
            "shoulder_pan_joint": -2.4736205022346125,
            "wrist_1_joint": -0.8367026794202681,
            "wrist_2_joint": 0.6746043897044499,
            "wrist_3_joint": -3.1496632123970403
        }
    },
    "waypoints": [
        {
            "positions": [
                -2.4736205022346125,
                -1.1634956873337592,
                2.010868314990456,
                -0.8367026794202681,
                0.6746043897044499,
                -3.1496632123970403
            ]
        },
        {
            "positions": [
                -2.556121443910301,
                -1.131909793252683,
                1.9679794223561324,
                -0.8251437950670095,
                0.852031670464152,
                -3.1404238520782837
            ]
        },
        {
            "positions": [
                -2.6386223855859896,
                -1.1003238991716067,
                1.9250905297218088,
                -0.813584910713751,
                1.0294589512238541,
                -3.1311844917595275
            ]
        },
        {
            "positions": [
                -2.7211233272616786,
                -1.0687380050905304,
                1.8822016370874854,
                -0.8020260263604925,
                1.2068862319835563,
                -3.1219451314407713
            ]
        },
        {
            "positions": [
                -2.803624268937367,
                -1.0371521110094541,
                1.839312744453162,
                -0.7904671420072339,
                1.3843135127432582,
                -3.1127057711220147
            ]
        },
        {
            "positions": [
                -2.8861252106130557,
                -1.0055662169283779,
                1.7964238518188385,
                -0.7789082576539754,
                1.5617407935029604,
                -3.103466410803258
            ]
        },
        {
            "positions": [
                -2.9686261522887443,
                -0.9739803228473016,
                1.753534959184515,
                -0.7673493733007168,
                1.7391680742626625,
                -3.094227050484502
            ]
        }
    ]
}