{
    "goal": {
        "global_pose": {
            "orientation": {
                "w": 0.5084816217422485,
                "x": -0.49083608388900757,
                "y": 0.5182115435600281,
                "z": -0.4816462993621826
            },
            "position": {
                "x": 0.5540239810943604,
                "y": 0.030875300988554955,
                "z": 0.16403168439865112
            }
        },
        "name": "move_to_storage_A"
    },
    "id": "PRM_move_to_storage_A_86",
    "joint_names": [
        "shoulder_pan_joint",
        "shoulder_lift_joint",
        "elbow_joint",
        "wrist_1_joint",
        "wrist_2_joint",
        "wrist_3_joint"
    ],
    "metrics": {
        "cart_traj_len": 0.354109022973189,
        "distance_elbow_joint": 0.4525605644585926,
        "distance_shoulder_lift_joint": 0.23477942336017898,
        "distance_shoulder_pan_joint": 0.4614769365183581,
        "distance_wrist_1_joint": 0.25323054471485873,
        "distance_wrist_2_joint": 1.1079765952997982,
        "distance_wrist_3_joint": 0.10650826249922352,
        "smoothness": 6.661338200497456e-16,
        "time": 0.02949621,
        "traj_len": 1.6175698831429233,
        "weighted_distance": 2.047133603813907
    },
    "planner": "PRM",
    "start": {
        "state": {
            "elbow_joint": 1.971548259319323,
            "shoulder_lift_joint": -1.1394851275133948,
            "shoulder_pan_joint": 0.1228115487234821,
            "wrist_1_joint": -0.7804723859257726,
            "wrist_2_joint": 0.12958671773740124,
            "wrist_3_joint": -3.192489227718131
        }
    },
    "waypoints": [
        {
            "positions": [
                0.1228115487234821,
                -1.1394851275133948,
                1.971548259319323,
                -0.7804723859257726,
                0.12958671773740124,
                -3.192489227718131
            ]
        },
        {
            "positions": [
                0.056886272078002384,
                -1.1730250451362776,
                2.0361997685276934,
                -0.8166481780278952,
                0.28786908849451526,
                -3.1772737616468136
            ]
        },
        {
            "positions": [
                -0.009039004567477332,
                -1.2065649627591601,
                2.100851277736064,
                -0.852823970130018,
                0.44615145925162925,
                -3.1620582955754957
            ]
        },
        {
            "positions": [
                -0.07496428121295706,
                -1.240104880382043,
                2.165502786944434,
                -0.8889997622321406,
                0.6044338300087433,
                -3.146842829504178
            ]
        },
        {
            "positions": [
                -0.14088955785843676,
                -1.2736447980049257,
                2.2301542961528042,
                -0.9251755543342634,
                0.7627162007658573,
                -3.1316273634328606
            ]
        },
        {
            "positions": [
                -0.20681483450391652,
                -1.3071847156278085,
                2.294805805361175,
                -0.961351346436386,
                0.9209985715229714,
                -3.116411897361543
            ]
        },
        {
            "positions": [
                -0.2727401111493962,
                -1.340724633250691,
                2.3594573145695454,
                -0.9975271385385087,
                1.0792809422800853,
                -3.101196431290225
            ]
        },
        {
            "positions": [
                -0.338665387794876,
                -1.3742645508735738,
                2.4241088237779156,
                -1.0337029306406313,
                1.2375633130371995,
                -3.0859809652189076
            ]
        }
    ]
}{
    "goal": {
        "global_pose": {
            "orientation": {
                "w": 0.5084816217422485,
                "x": -0.49083608388900757,
                "y": 0.5182115435600281,
                "z": -0.4816462993621826
            },
            "position": {
                "x": 0.5540239810943604,
                "y": 0.030875300988554955,
                "z": 0.16403168439865112
            }
        },
        "name": "move_to_storage_A"
    },
    "id": "PRM_move_to_storage_A_86",
    "joint_names": [
        "shoulder_pan_joint",
        "shoulder_lift_joint",
        "elbow_joint",
        "wrist_1_joint",
        "wrist_2_joint",
        "wrist_3_joint"
    ],
    "metrics": {
        "cart_traj_len": 0.3539157323832828,
        "distance_elbow_joint": 0.4529571206362064,
        "distance_shoulder_lift_joint": 0.23498436643012588,
        "distance_shoulder_pan_joint": 0.4618252167190996,
        "distance_wrist_1_joint": 0.25516537120560545,
        "distance_wrist_2_joint": 1.1051065668740834,
        "distance_wrist_3_joint": 0.10309393382582188,
        "smoothness": 0.0,
        "time": 0.013947101,
        "traj_len": 1.6165186592461414,
        "weighted_distance": 2.0444051412140096
    },
    "planner": "PRM",
    "start": {
        "state": {
            "elbow_joint": 1.97154746011099,
            "shoulder_lift_joint": -1.13948474672311,
            "shoulder_pan_joint": 0.12281154466712228,
            "wrist_1_joint": -0.7804688027058302,
            "wrist_2_joint": 0.12958655903071145,
            "wrist_3_joint": 3.0906928834467795
        }
    },
    "waypoints": [
        {
            "positions": [
                0.12281154466712228,
                -1.13948474672311,
                1.97154746011099,
                -0.7804688027058302,
                0.12958655903071145,
                3.0906928834467795
            ]
        },
        {
            "positions": [
                0.056836513707250916,
                -1.1730539419274137,
                2.0362556202018767,
                -0.8169209985923452,
                0.28745892572700904,
                3.1054205882790398
            ]
        },
        {
            "positions": [
                -0.009138517252620451,
                -1.2066231371317173,
                2.100963780292763,
                -0.8533731944788603,
                0.4453312924233067,
                3.1201482931113
            ]
        },
        {
            "positions": [
                -0.07511354821249182,
                -1.240192332336021,
                2.1656719403836497,
                -0.8898253903653753,
                0.6032036591196043,
                3.1348759979435603
            ]
        },
        {
            "positions": [
                -0.14108857917236317,
                -1.2737615275403247,
                2.2303801004745365,
                -0.9262775862518904,
                0.761076025815902,
                3.1496037027758206
            ]
        },
        {
            "positions": [
                -0.20706361013223457,
                -1.3073307227446285,
                2.2950882605654233,
                -0.9627297821384055,
                0.9189483925121996,
                3.164331407608081
            ]
        },
        {
            "positions": [
                -0.2730386410921059,
                -1.340899917948932,
                2.3597964206563096,
                -0.9991819780249206,
                1.076820759208497,
                3.179059112440341
            ]
        },
        {
            "positions": [
                -0.3390136720519773,
                -1.3744691131532358,
                2.4245045807471963,
                -1.0356341739114356,
                1.2346931259047949,
                3.1937868172726014
            ]
        }
    ]
}{
    "goal": {
        "global_pose": {
            "orientation": {
                "w": 0.5084816217422485,
                "x": -0.49083608388900757,
                "y": 0.5182115435600281,
                "z": -0.4816462993621826
            },
            "position": {
                "x": 0.5540239810943604,
                "y": 0.030875300988554955,
                "z": 0.16403168439865112
            }
        },
        "name": "move_to_storage_A"
    },
    "id": "PRM_move_to_storage_A_86",
    "joint_names": [
        "shoulder_pan_joint",
        "shoulder_lift_joint",
        "elbow_joint",
        "wrist_1_joint",
        "wrist_2_joint",
        "wrist_3_joint"
    ],
    "metrics": {
        "cart_traj_len": 0.3539429844036302,
        "distance_elbow_joint": 0.4529086379078513,
        "distance_shoulder_lift_joint": 0.23409004427516367,
        "distance_shoulder_pan_joint": 0.4603688949633436,
        "distance_wrist_1_joint": 0.2569345259249751,
        "distance_wrist_2_joint": 1.1110840456877928,
        "distance_wrist_3_joint": 0.0910555154105599,
        "smoothness": 8.881784197001252e-16,
        "time": 0.027924130000000002,
        "traj_len": 1.6144477892362101,
        "weighted_distance": 2.0387670947422056
    },
    "planner": "PRM",
    "start": {
        "state": {
            "elbow_joint": 1.9715472970024885,
            "shoulder_lift_joint": -1.1394870060712896,
            "shoulder_pan_joint": 0.12281152778156021,
            "wrist_1_joint": -0.780463741449964,
            "wrist_2_joint": 0.12958659822042276,
            "wrist_3_joint": 3.090690232415272
        }
    },
    "waypoints": [
        {
            "positions": [
                0.12281152778156021,
                -1.1394870060712896,
                1.9715472970024885,
                -0.780463741449964,
                0.12958659822042276,
                3.090690232415272
            ]
        },
        {
            "positions": [
                0.057044542786796854,
                -1.1729284409677416,
                2.0362485309893246,
                -0.8171686737249605,
                0.288312890461536,
                3.103698163188209
            ]
        },
        {
            "positions": [
                -0.008722442207966502,
                -1.2063698758641934,
                2.10094976497616,
                -0.8538736059999569,
                0.4470391827026493,
                3.116706093961146
            ]
        },
        {
            "positions": [
                -0.07448942720272986,
                -1.2398113107606454,
                2.165650998962996,
                -0.8905785382749534,
                0.6057654749437625,
                3.129714024734083
            ]
        },
        {
            "positions": [
                -0.1402564121974932,
                -1.2732527456570975,
                2.230352232949832,
                -0.9272834705499498,
                0.7644917671848758,
                3.1427219555070205
            ]
        },
        {
            "positions": [
                -0.20602339719225662,
                -1.3066941805535495,
                2.2950534669366682,
                -0.9639884028249462,
                0.9232180594259891,
                3.1557298862799574
            ]
        },
        {
            "positions": [
                -0.2717903821870199,
                -1.3401356154500013,
                2.359754700923504,
                -1.0006933350999427,
                1.0819443516671023,
                3.168737817052895
            ]
        },
        {
            "positions": [
                -0.33755736718178336,
                -1.3735770503464533,
                2.42445593491034,
                -1.0373982673749391,
                1.2406706439082156,
                3.1817457478258317
            ]
        }
    ]
}