{
    "goal": {
        "global_pose": {
            "orientation": {
                "w": -0.00223480608172531,
                "x": 0.0024358444001904467,
                "y": 0.7094548369677653,
                "z": -0.704743149386269
            },
            "position": {
                "x": 0.6205249238014221,
                "y": -0.6371506643295288,
                "z": 0.19426114857196808
            }
        },
        "name": "move_to_magneteinheit_B"
    },
    "id": "PRM_move_to_magneteinheit_B_127",
    "joint_names": [
        "shoulder_pan_joint",
        "shoulder_lift_joint",
        "elbow_joint",
        "wrist_1_joint",
        "wrist_2_joint",
        "wrist_3_joint"
    ],
    "metrics": {
        "cart_traj_len": 2.1815450853072607,
        "distance_elbow_joint": 4.31406547737087,
        "distance_shoulder_lift_joint": 1.3909019477259665,
        "distance_shoulder_pan_joint": 1.622685280882668,
        "distance_wrist_1_joint": 4.081479865642322,
        "distance_wrist_2_joint": 1.5125922105579164,
        "distance_wrist_3_joint": 1.4786172144876764,
        "smoothness": 0.49358410186629065,
        "time": 1.250695125,
        "traj_len": 3.7947782539520576,
        "weighted_distance": 4.790787879028146
    },
    "planner": "PRM",
    "start": {
        "state": {
            "elbow_joint": 2.6216224122426386,
            "shoulder_lift_joint": -1.4174107377796124,
            "shoulder_pan_joint": 0.7066234856936794,
            "wrist_1_joint": 1.9546482284002225,
            "wrist_2_joint": -0.7096286983471962,
            "wrist_3_joint": 0.005740856962016249
        }
    },
    "waypoints": [
        {
            "positions": [
                0.7066234856936794,
                -1.4174107377796124,
                2.6216224122426386,
                1.9546482284002225,
                -0.7096286983471962,
                0.005740856962016249
            ]
        },
        {
            "positions": [
                0.6862070537042773,
                -1.4177162192731472,
                2.5682367478442854,
                1.7072741583267592,
                -0.7291292674118247,
                0.01139892486518849
            ]
        },
        {
            "positions": [
                0.665790621714875,
                -1.418021700766682,
                2.514851083445932,
                1.459900088253296,
                -0.7486298364764531,
                0.01705699276836073
            ]
        },
        {
            "positions": [
                0.6453741897254728,
                -1.4183271822602168,
                2.4614654190475793,
                1.2125260181798325,
                -0.7681304055410816,
                0.02271506067153297
            ]
        },
        {
            "positions": [
                0.6249577577360707,
                -1.4186326637537514,
                2.408079754649226,
                0.9651519481063693,
                -0.7876309746057101,
                0.02837312857470521
            ]
        },
        {
            "positions": [
                0.6045413257466685,
                -1.4189381452472862,
                2.354694090250873,
                0.7177778780329058,
                -0.8071315436703385,
                0.03403119647787745
            ]
        },
        {
            "positions": [
                0.5841248937572663,
                -1.419243626740821,
                2.3013084258525196,
                0.4704038079594426,
                -0.826632112734967,
                0.039689264381049694
            ]
        },
        {
            "positions": [
                0.5467884758567487,
                -1.376974288512472,
                2.180319714542883,
                0.3963005564929266,
                -0.8653551913007624,
                0.05950272617091555
            ]
        },
        {
            "positions": [
                0.5094520579562312,
                -1.334704950284123,
                2.0593310032332464,
                0.32219730502641064,
                -0.9040782698665579,
                0.07931618796078141
            ]
        },
        {
            "positions": [
                0.47211564005571355,
                -1.2924356120557743,
                1.9383422919236097,
                0.24809405355989467,
                -0.9428013484323534,
                0.09912964975064728
            ]
        },
        {
            "positions": [
                0.43477922215519593,
                -1.2501662738274253,
                1.8173535806139731,
                0.1739908020933787,
                -0.9815244269981489,
                0.11894311154051314
            ]
        },
        {
            "positions": [
                0.3974428042546784,
                -1.2078969355990763,
                1.6963648693043365,
                0.09988755062686272,
                -1.0202475055639444,
                0.138756573330379
            ]
        },
        {
            "positions": [
                0.3507941981329133,
                -1.1442676909506222,
                1.5313603593375276,
                0.06876532893607018,
                -1.0680392828965624,
                0.17067357015564405
            ]
        },
        {
            "positions": [
                0.3041455920111482,
                -1.0806384463021679,
                1.3663558493707186,
                0.03764310724527764,
                -1.1158310602291805,
                0.20259056698090913
            ]
        },
        {
            "positions": [
                0.25749698588938313,
                -1.0170092016537138,
                1.2013513394039097,
                0.006520885554485101,
                -1.1636228375617985,
                0.2345075638061742
            ]
        },
        {
            "positions": [
                0.2327022477278608,
                -0.9499290317081213,
                1.0798390983735777,
                0.13239873223959348,
                -1.168170237060219,
                0.2855543107596379
            ]
        },
        {
            "positions": [
                0.20790750956633847,
                -0.8828488617625287,
                0.9583268573432459,
                0.25827657892470185,
                -1.1727176365586394,
                0.3366010577131015
            ]
        },
        {
            "positions": [
                0.18311277140481613,
                -0.8157686918169362,
                0.836814616312914,
                0.3841544256098102,
                -1.17726503605706,
                0.3876478046665651
            ]
        },
        {
            "positions": [
                0.1583180332432938,
                -0.7486885218713437,
                0.715302375282582,
                0.5100322722949187,
                -1.1818124355554804,
                0.4386945516200288
            ]
        },
        {
            "positions": [
                0.13352329508177146,
                -0.6816083519257512,
                0.5937901342522501,
                0.6359101189800269,
                -1.1863598350539009,
                0.48974129857349247
            ]
        },
        {
            "positions": [
                0.10872855692024913,
                -0.6145281819801587,
                0.47227789322191827,
                0.7617879656651354,
                -1.1909072345523213,
                0.540788045526956
            ]
        },
        {
            "positions": [
                0.0839338187587268,
                -0.5474480120345662,
                0.3507656521915864,
                0.8876658123502437,
                -1.1954546340507417,
                0.5918347924804197
            ]
        },
        {
            "positions": [
                0.05913908059720446,
                -0.48036784208897354,
                0.2292534111612543,
                1.0135436590353522,
                -1.2000020335491624,
                0.6428815394338834
            ]
        },
        {
            "positions": [
                0.03434434243568213,
                -0.413287672143381,
                0.10774117013092255,
                1.1394215057204606,
                -1.2045494330475828,
                0.693928286387347
            ]
        },
        {
            "positions": [
                0.009549604274159788,
                -0.3462075021977885,
                -0.013771070899409488,
                1.265299352405569,
                -1.2090968325460032,
                0.7449750333408107
            ]
        },
        {
            "positions": [
                -0.05464667945960134,
                -0.3687575152565669,
                0.10383236883498402,
                1.3269155192723996,
                -1.2814324496643648,
                0.6933184879852696
            ]
        },
        {
            "positions": [
                -0.11884296319336246,
                -0.39130752831534527,
                0.22143580856937753,
                1.3885316861392303,
                -1.353768066782726,
                0.6416619426297285
            ]
        },
        {
            "positions": [
                -0.1830392469271236,
                -0.41385754137412367,
                0.339039248303771,
                1.450147853006061,
                -1.4261036839010877,
                0.5900053972741873
            ]
        },
        {
            "positions": [
                -0.24723553066088472,
                -0.4364075544329021,
                0.45664268803816455,
                1.5117640198728917,
                -1.4984393010194492,
                0.5383488519186462
            ]
        },
        {
            "positions": [
                -0.3114318143946459,
                -0.4589575674916805,
                0.5742461277725581,
                1.5733801867397226,
                -1.5707749181378108,
                0.4866923065631051
            ]
        },
        {
            "positions": [
                -0.375628098128407,
                -0.48150758055045884,
                0.6918495675069516,
                1.6349963536065533,
                -1.6431105352561723,
                0.435035761207564
            ]
        },
        {
            "positions": [
                -0.43982438186216816,
                -0.5040575936092373,
                0.8094530072413451,
                1.696612520473384,
                -1.715446152374534,
                0.38337921585202284
            ]
        },
        {
            "positions": [
                -0.5040206655959293,
                -0.5266076066680156,
                0.9270564469757385,
                1.7582286873402146,
                -1.7877817694928952,
                0.33172267049648174
            ]
        },
        {
            "positions": [
                -0.5682169493296906,
                -0.549157619726794,
                1.0446598867101322,
                1.8198448542070453,
                -1.860117386611257,
                0.28006612514094054
            ]
        },
        {
            "positions": [
                -0.6324132330634517,
                -0.5717076327855724,
                1.1622633264445257,
                1.8814610210738762,
                -1.9324530037296184,
                0.22840957978539944
            ]
        },
        {
            "positions": [
                -0.6966095167972127,
                -0.5942576458443508,
                1.2798667661789191,
                1.9430771879407067,
                -2.0047886208479797,
                0.17675303442985835
            ]
        },
        {
            "positions": [
                -0.7608058005309738,
                -0.6168076589031292,
                1.3974702059133126,
                2.0046933548075376,
                -2.0771242379663413,
                0.12509648907431725
            ]
        },
        {
            "positions": [
                -0.8250020842647351,
                -0.6393576719619076,
                1.5150736456477063,
                2.066309521674368,
                -2.149459855084703,
                0.07343994371877605
            ]
        },
        {
            "positions": [
                -0.8891983679984962,
                -0.661907685020686,
                1.6326770853820998,
                2.127925688541199,
                -2.2217954722030644,
                0.02178339836323496
            ]
        },
        {
            "positions": [
                -0.9160617951889889,
                -0.6615749336218578,
                1.6649009233294105,
                2.139873408351071,
                -2.2222209089051126,
                0.005591995231928856
            ]
        }
    ]
}