{
    "goal": {
        "global_pose": {
            "orientation": {
                "w": 0.005598929693374612,
                "x": 0.007748599140229565,
                "y": 0.7110244013736278,
                "z": -0.7031023480610252
            },
            "position": {
                "x": 0.1141497679147869,
                "y": -0.7141253447532654,
                "z": 0.3711530566215515
            }
        },
        "name": "move_to_auspresseinheit_B"
    },
    "id": "PRM_move_to_auspresseinheit_B_79",
    "joint_names": [
        "shoulder_pan_joint",
        "shoulder_lift_joint",
        "elbow_joint",
        "wrist_1_joint",
        "wrist_2_joint",
        "wrist_3_joint"
    ],
    "metrics": {
        "cart_traj_len": 0.5646968774524772,
        "distance_elbow_joint": 0.061977851646710436,
        "distance_shoulder_lift_joint": 0.29339161852774676,
        "distance_shoulder_pan_joint": 0.5751797361589661,
        "distance_wrist_1_joint": 0.31955874944310203,
        "distance_wrist_2_joint": 1.002563143936385,
        "distance_wrist_3_joint": 0.0026789656749262036,
        "smoothness": 7.612957943425664e-16,
        "time": 0.024516132,
        "traj_len": 1.5017822962692817,
        "weighted_distance": 1.8928364668182975
    },
    "planner": "PRM",
    "start": {
        "state": {
            "elbow_joint": 2.0193083361928714,
            "shoulder_lift_joint": -1.1220246554650708,
            "shoulder_pan_joint": -1.0952077554168747,
            "wrist_1_joint": -0.8559753972642168,
            "wrist_2_joint": 0.4759566250798843,
            "wrist_3_joint": -3.1240929996934557
        }
    },
    "waypoints": [
        {
            "positions": [
                -1.0952077554168747,
                -1.1220246554650708,
                2.0193083361928714,
                -0.8559753972642168,
                0.4759566250798843,
                -3.1240929996934557
            ]
        },
        {
            "positions": [
                -1.1910710447767023,
                -1.1709232585530285,
                2.008978694251753,
                -0.8027156056903665,
                0.6430504824026151,
                -3.1236465054143014
            ]
        },
        {
            "positions": [
                -1.28693433413653,
                -1.2198218616409864,
                1.9986490523106346,
                -0.7494558141165161,
                0.8101443397253458,
                -3.123200011135147
            ]
        },
        {
            "positions": [
                -1.3827976234963577,
                -1.2687204647289443,
                1.9883194103695163,
                -0.6961960225426658,
                0.9772381970480768,
                -3.1227535168559926
            ]
        },
        {
            "positions": [
                -1.4786609128561854,
                -1.317619067816902,
                1.9779897684283978,
                -0.6429362309688155,
                1.1443320543708075,
                -3.1223070225768383
            ]
        },
        {
            "positions": [
                -1.574524202216013,
                -1.3665176709048596,
                1.9676601264872793,
                -0.5896764393949651,
                1.3114259116935385,
                -3.1218605282976837
            ]
        },
        {
            "positions": [
                -1.6703874915758408,
                -1.4154162739928176,
                1.957330484546161,
                -0.5364166478211148,
                1.4785197690162692,
                -3.1214140340185295
            ]
        }
    ]
}