{
    "goal": {
        "global_pose": {
            "orientation": {
                "w": 0.7031023502349854,
                "x": -0.7110244035720825,
                "y": 0.007748599164187908,
                "z": 0.005598929710686207
            },
            "position": {
                "x": 0.11585023208521307,
                "y": 0.44412534475326537,
                "z": 0.3711530566215515
            }
        },
        "name": "move_to_auspresseinheit_A"
    },
    "id": "PRM_move_to_auspresseinheit_A_118",
    "joint_names": [
        "shoulder_pan_joint",
        "shoulder_lift_joint",
        "elbow_joint",
        "wrist_1_joint",
        "wrist_2_joint",
        "wrist_3_joint"
    ],
    "metrics": {
        "cart_traj_len": 1.8043168672143446,
        "distance_elbow_joint": 1.741165941221741,
        "distance_shoulder_lift_joint": 0.8639151413974768,
        "distance_shoulder_pan_joint": 3.077527695205054,
        "distance_wrist_1_joint": 2.5887715203508037,
        "distance_wrist_2_joint": 2.961931614515837,
        "distance_wrist_3_joint": 2.3884568769729633,
        "smoothness": 0.8765802365760107,
        "time": 0.259867866,
        "traj_len": 3.690768048748644,
        "weighted_distance": 4.893810956552822
    },
    "planner": "PRM",
    "start": {
        "state": {
            "elbow_joint": 2.4225746658250005,
            "shoulder_lift_joint": -1.3736534386056498,
            "shoulder_pan_joint": -0.3378633547517467,
            "wrist_1_joint": -1.0288598680537169,
            "wrist_2_joint": 1.233022673432363,
            "wrist_3_joint": -3.0940220416140027
        }
    },
    "waypoints": [
        {
            "positions": [
                -0.3378633547517467,
                -1.3736534386056498,
                2.4225746658250005,
                -1.0288598680537169,
                1.233022673432363,
                -3.0940220416140027
            ]
        },
        {
            "positions": [
                -0.31534028635303135,
                -1.4263005265606972,
                2.3507016285415587,
                -0.9338856398421946,
                1.1298513461802386,
                -3.0573227286786837
            ]
        },
        {
            "positions": [
                -0.37182577965117886,
                -1.4622500814266177,
                2.3054750316372967,
                -0.8513363025529814,
                1.0387545439463646,
                -2.9941966906362443
            ]
        },
        {
            "positions": [
                -0.4283112729493263,
                -1.4981996362925383,
                2.2602484347330347,
                -0.7687869652637682,
                0.9476577417124905,
                -2.9310706525938053
            ]
        },
        {
            "positions": [
                -0.4847967662474738,
                -1.534149191158459,
                2.2150218378287727,
                -0.6862376279745549,
                0.8565609394786163,
                -2.867944614551366
            ]
        },
        {
            "positions": [
                -0.5412822595456213,
                -1.5700987460243796,
                2.169795240924511,
                -0.6036882906853417,
                0.7654641372447423,
                -2.8048185765089264
            ]
        },
        {
            "positions": [
                -0.5977677528437688,
                -1.6060483008903002,
                2.124568644020249,
                -0.5211389533961284,
                0.6743673350108681,
                -2.741692538466487
            ]
        },
        {
            "positions": [
                -0.6542532461419163,
                -1.6419978557562207,
                2.079342047115987,
                -0.43858961610691516,
                0.583270532776994,
                -2.678566500424048
            ]
        },
        {
            "positions": [
                -0.7107387394400637,
                -1.6779474106221413,
                2.034115450211725,
                -0.35604027881770195,
                0.49217373054311997,
                -2.6154404623816085
            ]
        },
        {
            "positions": [
                -0.7672242327382113,
                -1.713896965488062,
                1.9888888533074633,
                -0.27349094152848874,
                0.4010769283092459,
                -2.552314424339169
            ]
        },
        {
            "positions": [
                -0.8237097260363587,
                -1.7498465203539826,
                1.9436622564032013,
                -0.19094160423927542,
                0.30998012607537173,
                -2.48918838629673
            ]
        },
        {
            "positions": [
                -0.8801952193345063,
                -1.7857960752199031,
                1.8984356594989393,
                -0.1083922669500621,
                0.21888332384149756,
                -2.4260623482542907
            ]
        },
        {
            "positions": [
                -0.9366807126326537,
                -1.821745630085824,
                1.8532090625946775,
                -0.02584292966084889,
                0.1277865216076235,
                -2.3629363102118512
            ]
        },
        {
            "positions": [
                -0.9931662059308012,
                -1.8576951849517442,
                1.8079824656904155,
                0.05670640762836432,
                0.03668971937374943,
                -2.2998102721694123
            ]
        },
        {
            "positions": [
                -1.0496516992289486,
                -1.893644739817665,
                1.7627558687861535,
                0.13925574491757753,
                -0.054407082860124634,
                -2.236684234126973
            ]
        },
        {
            "positions": [
                -1.1061371925270962,
                -1.9295942946835856,
                1.7175292718818915,
                0.22180508220679074,
                -0.1455038850939987,
                -2.1735581960845334
            ]
        },
        {
            "positions": [
                -1.1626226858252435,
                -1.9655438495495061,
                1.6723026749776297,
                0.30435441949600417,
                -0.23660068732787298,
                -2.1104321580420944
            ]
        },
        {
            "positions": [
                -1.219108179123391,
                -2.001493404415427,
                1.627076078073368,
                0.38690375678521716,
                -0.3276974895617468,
                -2.047306119999655
            ]
        },
        {
            "positions": [
                -1.2755936724215386,
                -2.037442959281347,
                1.581849481169106,
                0.4694530940744306,
                -0.4187942917956211,
                -1.9841800819572157
            ]
        },
        {
            "positions": [
                -1.3320791657196862,
                -2.073392514147268,
                1.536622884264844,
                0.5520024313636438,
                -0.5098910940294952,
                -1.9210540439147763
            ]
        },
        {
            "positions": [
                -1.2127733738581237,
                -2.063202697664509,
                1.5880174412339205,
                0.49175444786885286,
                -0.4371120464824036,
                -1.992723596954416
            ]
        },
        {
            "positions": [
                -1.093467581996561,
                -2.053012881181749,
                1.6394119982029973,
                0.4315064643740619,
                -0.364332998935312,
                -2.0643931499940553
            ]
        },
        {
            "positions": [
                -0.9741617901349984,
                -2.04282306469899,
                1.690806555172074,
                0.371258480879271,
                -0.29155395138822043,
                -2.1360627030336947
            ]
        },
        {
            "positions": [
                -0.8548559982734358,
                -2.0326332482162304,
                1.7422011121411507,
                0.31101049738448006,
                -0.21877490384112885,
                -2.2077322560733346
            ]
        },
        {
            "positions": [
                -0.7355502064118732,
                -2.022443431733471,
                1.7935956691102273,
                0.2507625138896891,
                -0.14599585629403727,
                -2.279401809112974
            ]
        },
        {
            "positions": [
                -0.6162444145503105,
                -2.0122536152507116,
                1.8449902260793039,
                0.19051453039489818,
                -0.0732168087469457,
                -2.3510713621526134
            ]
        },
        {
            "positions": [
                -0.496938622688748,
                -2.0020637987679524,
                1.8963847830483807,
                0.13026654690010725,
                -0.0004377611998540587,
                -2.4227409151922528
            ]
        },
        {
            "positions": [
                -0.37763283082718535,
                -1.991873982285193,
                1.9477793400174572,
                0.07001856340531631,
                0.07234128634723747,
                -2.4944104682318926
            ]
        },
        {
            "positions": [
                -0.2583270389656227,
                -1.9816841658024336,
                1.9991738969865338,
                0.009770579910525434,
                0.145120333894329,
                -2.566080021271532
            ]
        },
        {
            "positions": [
                -0.13902124710406016,
                -1.9714943493196742,
                2.0505684539556106,
                -0.05047740358426556,
                0.21789938144142063,
                -2.6377495743111714
            ]
        },
        {
            "positions": [
                -0.019715455242497626,
                -1.9613045328369147,
                2.1019630109246874,
                -0.11072538707905655,
                0.29067842898851226,
                -2.7094191273508113
            ]
        },
        {
            "positions": [
                0.09959033661906513,
                -1.9511147163541556,
                2.1533575678937638,
                -0.17097337057384743,
                0.3634574765356038,
                -2.7810886803904507
            ]
        },
        {
            "positions": [
                0.21889612848062767,
                -1.9409248998713962,
                2.2047521248628406,
                -0.2312213540686383,
                0.4362365240826953,
                -2.85275823343009
            ]
        },
        {
            "positions": [
                0.3382019203421902,
                -1.9307350833886368,
                2.2561466818319174,
                -0.2914693375634293,
                0.5090155716297871,
                -2.92442778646973
            ]
        },
        {
            "positions": [
                0.45750771220375297,
                -1.9205452669058773,
                2.3075412388009937,
                -0.3517173210582203,
                0.5817946191768786,
                -2.996097339509369
            ]
        },
        {
            "positions": [
                0.5768135040653155,
                -1.910355450423118,
                2.3589357957700705,
                -0.4119653045530111,
                0.6545736667239702,
                -3.0677668925490087
            ]
        },
        {
            "positions": [
                0.7061865817199962,
                -1.9092164482914094,
                2.3918370439264285,
                -0.4559067895697998,
                0.7091267530244834,
                -3.136542923188513
            ]
        }
    ]
}