{
    "goal": {
        "global_pose": {
            "orientation": {
                "w": 0.7031023480610252,
                "x": -0.7110244013736278,
                "y": 0.0077485991402295624,
                "z": 0.005598929693374583
            },
            "position": {
                "x": -0.8841497679147869,
                "y": 0.44412534475326537,
                "z": 0.3711530566215515
            }
        },
        "name": "move_to_auspresseinheit_D"
    },
    "id": "PRM_move_to_auspresseinheit_D_54",
    "joint_names": [
        "shoulder_pan_joint",
        "shoulder_lift_joint",
        "elbow_joint",
        "wrist_1_joint",
        "wrist_2_joint",
        "wrist_3_joint"
    ],
    "metrics": {
        "cart_traj_len": 0.34464184569999795,
        "distance_elbow_joint": 0.6672444017651824,
        "distance_shoulder_lift_joint": 0.13700684928253093,
        "distance_shoulder_pan_joint": 0.13333239359960905,
        "distance_wrist_1_joint": 0.6202834970034754,
        "distance_wrist_2_joint": 1.4407863683588045,
        "distance_wrist_3_joint": 0.08243034447681863,
        "smoothness": 5.921189511553294e-16,
        "time": 0.020508902,
        "traj_len": 1.755301642022368,
        "weighted_distance": 2.303695815163612
    },
    "planner": "PRM",
    "start": {
        "state": {
            "elbow_joint": -1.8275523626775212,
            "shoulder_lift_joint": -2.126789852344167,
            "shoulder_pan_joint": -0.03513704404078235,
            "wrist_1_joint": -2.347782403156801,
            "wrist_2_joint": -1.6058999987535132,
            "wrist_3_joint": -3.0880379163319196
        }
    },
    "waypoints": [
        {
            "positions": [
                -0.03513704404078235,
                -2.126789852344167,
                -1.8275523626775212,
                -2.347782403156801,
                -1.6058999987535132,
                -3.0880379163319196
            ]
        },
        {
            "positions": [
                -0.051803593240733484,
                -2.1439157085044833,
                -1.7441468124568733,
                -2.4253178402822355,
                -1.4258017027086627,
                -3.077734123272317
            ]
        },
        {
            "positions": [
                -0.06847014244068461,
                -2.1610415646647994,
                -1.6607412622362256,
                -2.5028532774076697,
                -1.2457034066638122,
                -3.067430330212715
            ]
        },
        {
            "positions": [
                -0.08513669164063575,
                -2.178167420825116,
                -1.5773357120155778,
                -2.580388714533104,
                -1.0656051106189615,
                -3.0571265371531124
            ]
        },
        {
            "positions": [
                -0.10180324084058687,
                -2.1952932769854323,
                -1.49393016179493,
                -2.6579241516585386,
                -0.885506814574111,
                -3.04682274409351
            ]
        },
        {
            "positions": [
                -0.11846979004053801,
                -2.212419133145749,
                -1.4105246115742822,
                -2.735459588783973,
                -0.7054085185292605,
                -3.036518951033908
            ]
        },
        {
            "positions": [
                -0.13513633924048915,
                -2.2295449893060653,
                -1.3271190613536343,
                -2.8129950259094074,
                -0.5253102224844097,
                -3.0262151579743057
            ]
        },
        {
            "positions": [
                -0.15180288844044026,
                -2.2466708454663813,
                -1.2437135111329867,
                -2.8905304630348416,
                -0.3452119264395592,
                -3.0159113649147034
            ]
        },
        {
            "positions": [
                -0.1684694376403914,
                -2.2637967016266978,
                -1.1603079609123388,
                -2.9680659001602763,
                -0.1651136303947086,
                -3.005607571855101
            ]
        }
    ]
}