{
    "goal": {
        "global_pose": {
            "orientation": {
                "w": -0.4816463035849501,
                "x": 0.5182115481033762,
                "y": 0.4908360881923453,
                "z": -0.5084816262002911
            },
            "position": {
                "x": -0.8240239810943604,
                "y": -0.300875300988555,
                "z": 0.16403168439865112
            }
        },
        "name": "move_to_storage_C"
    },
    "id": "PRM_move_to_storage_C_127",
    "joint_names": [
        "shoulder_pan_joint",
        "shoulder_lift_joint",
        "elbow_joint",
        "wrist_1_joint",
        "wrist_2_joint",
        "wrist_3_joint"
    ],
    "metrics": {
        "cart_traj_len": 0.5770639074366738,
        "distance_elbow_joint": 0.25958807610840573,
        "distance_shoulder_lift_joint": 0.18855464329356386,
        "distance_shoulder_pan_joint": 0.4957043150690472,
        "distance_wrist_1_joint": 0.08861048207116395,
        "distance_wrist_2_joint": 1.0671997476658945,
        "distance_wrist_3_joint": 0.07136405081342678,
        "smoothness": 2.5376526478085547e-16,
        "time": 0.020760507,
        "traj_len": 1.4734386023928863,
        "weighted_distance": 1.8626754001664954
    },
    "planner": "PRM",
    "start": {
        "state": {
            "elbow_joint": 2.010868314990456,
            "shoulder_lift_joint": -1.1634956873337592,
            "shoulder_pan_joint": -2.4736205022346125,
            "wrist_1_joint": -0.8367026794202681,
            "wrist_2_joint": 0.6746043897044499,
            "wrist_3_joint": -3.1496632123970403
        }
    },
    "waypoints": [
        {
            "positions": [
                -2.4736205022346125,
                -1.1634956873337592,
                2.010868314990456,
                -0.8367026794202681,
                0.6746043897044499,
                -3.1496632123970403
            ]
        },
        {
            "positions": [
                -2.556237888079454,
                -1.1320699134514984,
                1.967603635639055,
                -0.8219342657417408,
                0.8524710143154324,
                -3.1377692039281357
            ]
        },
        {
            "positions": [
                -2.6388552739242948,
                -1.100644139569238,
                1.9243389562876538,
                -0.8071658520632135,
                1.0303376389264147,
                -3.125875195459231
            ]
        },
        {
            "positions": [
                -2.721472659769136,
                -1.0692183656869774,
                1.881074276936253,
                -0.7923974383846861,
                1.208204263537397,
                -3.113981186990327
            ]
        },
        {
            "positions": [
                -2.8040900456139775,
                -1.0377925918047166,
                1.837809597584852,
                -0.7776290247061588,
                1.3860708881483794,
                -3.1020871785214226
            ]
        },
        {
            "positions": [
                -2.8867074314588184,
                -1.0063668179224559,
                1.794544918233451,
                -0.7628606110276315,
                1.5639375127593622,
                -3.090193170052518
            ]
        },
        {
            "positions": [
                -2.9693248173036597,
                -0.9749410440401953,
                1.75128023888205,
                -0.7480921973491041,
                1.7418041373703443,
                -3.0782991615836135
            ]
        }
    ]
}