{
    "goal": {
        "global_pose": {
            "orientation": {
                "w": 0.7047431468963623,
                "x": -0.7094548344612122,
                "y": 0.0024358443915843964,
                "z": -0.0022348060738295317
            },
            "position": {
                "x": 0.6094750761985779,
                "y": 0.3671506643295288,
                "z": 0.19426114857196808
            }
        },
        "name": "move_to_magneteinheit_A"
    },
    "id": "PRM_move_to_magneteinheit_A_32",
    "joint_names": [
        "shoulder_pan_joint",
        "shoulder_lift_joint",
        "elbow_joint",
        "wrist_1_joint",
        "wrist_2_joint",
        "wrist_3_joint"
    ],
    "metrics": {
        "cart_traj_len": 3.3723215936604474,
        "distance_elbow_joint": 3.8738552336055987,
        "distance_shoulder_lift_joint": 0.7148642596214592,
        "distance_shoulder_pan_joint": 2.6264605626986155,
        "distance_wrist_1_joint": 1.6280006550311286,
        "distance_wrist_2_joint": 1.7608923799986715,
        "distance_wrist_3_joint": 2.5904911688561483,
        "smoothness": 0.17244085498018763,
        "time": 0.088620514,
        "traj_len": 3.6324322787646866,
        "weighted_distance": 4.6652373607945945
    },
    "planner": "PRM",
    "start": {
        "state": {
            "elbow_joint": -1.9196185241190666,
            "shoulder_lift_joint": -1.2443396400964142,
            "shoulder_pan_joint": 2.6996025414629847,
            "wrist_1_joint": -1.5485510000780065,
            "wrist_2_joint": -1.5709468930060704,
            "wrist_3_joint": 0.4420197071253992
        }
    },
    "waypoints": [
        {
            "positions": [
                2.6996025414629847,
                -1.2443396400964142,
                -1.9196185241190666,
                -1.5485510000780065,
                -1.5709468930060704,
                0.4420197071253992
            ]
        },
        {
            "positions": [
                2.5916171289377834,
                -1.2254921157836625,
                -1.866814073780515,
                -1.4923613759647325,
                -1.4929736437107561,
                0.5137444751013389
            ]
        },
        {
            "positions": [
                2.483631716412582,
                -1.2066445914709107,
                -1.8140096234419634,
                -1.4361717518514583,
                -1.4150003944154421,
                0.5854692430772787
            ]
        },
        {
            "positions": [
                2.3756463038873803,
                -1.1877970671581588,
                -1.7612051731034117,
                -1.3799821277381843,
                -1.3370271451201279,
                0.6571940110532184
            ]
        },
        {
            "positions": [
                2.267660891362179,
                -1.168949542845407,
                -1.70840072276486,
                -1.3237925036249103,
                -1.2590538958248139,
                0.728918779029158
            ]
        },
        {
            "positions": [
                2.1596754788369776,
                -1.1501020185326554,
                -1.6555962724263087,
                -1.267602879511636,
                -1.1810806465294996,
                0.8006435470050979
            ]
        },
        {
            "positions": [
                2.0516900663117763,
                -1.1312544942199037,
                -1.602791822087757,
                -1.211413255398362,
                -1.1031073972341856,
                0.8723683149810375
            ]
        },
        {
            "positions": [
                1.9437046537865748,
                -1.112406969907152,
                -1.5499873717492054,
                -1.155223631285088,
                -1.0251341479388714,
                0.9440930829569772
            ]
        },
        {
            "positions": [
                1.8357192412613732,
                -1.0935594455944,
                -1.4971829214106538,
                -1.0990340071718139,
                -0.9471608986435572,
                1.015817850932917
            ]
        },
        {
            "positions": [
                1.7277338287361719,
                -1.0747119212816483,
                -1.4443784710721022,
                -1.0428443830585397,
                -0.8691876493482431,
                1.0875426189088568
            ]
        },
        {
            "positions": [
                1.6197484162109705,
                -1.0558643969688966,
                -1.3915740207335505,
                -0.9866547589452658,
                -0.791214400052929,
                1.1592673868847965
            ]
        },
        {
            "positions": [
                1.511763003685769,
                -1.0370168726561448,
                -1.3387695703949989,
                -0.9304651348319917,
                -0.7132411507576149,
                1.2309921548607363
            ]
        },
        {
            "positions": [
                1.4037775911605677,
                -1.0181693483433931,
                -1.2859651200564475,
                -0.8742755107187177,
                -0.6352679014623008,
                1.3027169228366757
            ]
        },
        {
            "positions": [
                1.295792178635366,
                -0.9993218240306413,
                -1.2331606697178956,
                -0.8180858866054435,
                -0.5572946521669866,
                1.3744416908126156
            ]
        },
        {
            "positions": [
                1.1878067661101648,
                -0.9804742997178896,
                -1.1803562193793442,
                -0.7618962624921695,
                -0.47932140287167235,
                1.4461664587885554
            ]
        },
        {
            "positions": [
                1.0798213535849635,
                -0.9616267754051377,
                -1.1275517690407924,
                -0.7057066383788955,
                -0.40134815357635834,
                1.5178912267644948
            ]
        },
        {
            "positions": [
                0.9718359410597619,
                -0.942779251092386,
                -1.074747318702241,
                -0.6495170142656213,
                -0.3233749042810441,
                1.5896159947404347
            ]
        },
        {
            "positions": [
                0.8638505285345603,
                -0.9239317267796343,
                -1.021942868363689,
                -0.5933273901523473,
                -0.24540165498573008,
                1.6613407627163745
            ]
        },
        {
            "positions": [
                0.7558651160093588,
                -0.9050842024668826,
                -0.9691384180251376,
                -0.537137766039073,
                -0.16742840569041584,
                1.7330655306923144
            ]
        },
        {
            "positions": [
                0.6478797034841577,
                -0.8862366781541308,
                -0.916333967686586,
                -0.48094814192579904,
                -0.08945515639510182,
                1.8047902986682542
            ]
        },
        {
            "positions": [
                0.5398942909589564,
                -0.867389153841379,
                -0.8635295173480344,
                -0.42475851781252505,
                -0.01148190709978758,
                1.8765150666441937
            ]
        },
        {
            "positions": [
                0.4319088784337546,
                -0.8485416295286272,
                -0.8107250670094828,
                -0.36856889369925083,
                0.06649134219552666,
                1.9482398346201335
            ]
        },
        {
            "positions": [
                0.32392346590855325,
                -0.8296941052158755,
                -0.7579206166709312,
                -0.31237926958597684,
                0.14446459149084068,
                2.0199646025960734
            ]
        },
        {
            "positions": [
                0.3033965462712943,
                -0.854122383752354,
                -0.5303163209780108,
                -0.3440495627217816,
                0.14563891687922512,
                2.1074818461528175
            ]
        },
        {
            "positions": [
                0.28286962663403536,
                -0.8785506622888327,
                -0.30271202528509056,
                -0.3757198558575864,
                0.14681324226760958,
                2.1949990897095613
            ]
        },
        {
            "positions": [
                0.26234270699677636,
                -0.9029789408253113,
                -0.07510772959217027,
                -0.4073901489933912,
                0.14798756765599402,
                2.2825163332663054
            ]
        },
        {
            "positions": [
                0.24181578735951742,
                -0.9274072193617898,
                0.15249656610075013,
                -0.439060442129196,
                0.14916189304437846,
                2.3700335768230496
            ]
        },
        {
            "positions": [
                0.22128886772225848,
                -0.9518354978982684,
                0.3801008617936704,
                -0.47073073526500075,
                0.1503362184327629,
                2.4575508203797938
            ]
        },
        {
            "positions": [
                0.20076194808499953,
                -0.976263776434747,
                0.6077051574865907,
                -0.5024010284008056,
                0.15151054382114737,
                2.5450680639365375
            ]
        },
        {
            "positions": [
                0.18023502844774056,
                -1.0006920549712257,
                0.835309453179511,
                -0.5340713215366104,
                0.1526848692095318,
                2.6325853074932817
            ]
        },
        {
            "positions": [
                0.15970810881048159,
                -1.0251203335077042,
                1.0629137488724316,
                -0.5657416146724151,
                0.15385919459791625,
                2.720102551050026
            ]
        },
        {
            "positions": [
                0.1391811891732226,
                -1.0495486120441828,
                1.290518044565352,
                -0.59741190780822,
                0.15503351998630072,
                2.80761979460677
            ]
        },
        {
            "positions": [
                0.1186542695359637,
                -1.0739768905806613,
                1.5181223402582722,
                -0.6290822009440247,
                0.15620784537468516,
                2.8951370381635138
            ]
        },
        {
            "positions": [
                0.09812734989870472,
                -1.09840516911714,
                1.7457266359511925,
                -0.6607524940798295,
                0.1573821707630696,
                2.982654281720258
            ]
        },
        {
            "positions": [
                0.12311272103303911,
                -1.129912829956796,
                1.9542367094865323,
                -0.7042081941250754,
                0.12481885453353833,
                3.0325108759815476
            ]
        }
    ]
}