{
    "goal": {
        "global_pose": {
            "orientation": {
                "w": -0.00223480608172531,
                "x": 0.0024358444001904467,
                "y": 0.7094548369677653,
                "z": -0.704743149386269
            },
            "position": {
                "x": -0.37947507619857795,
                "y": -0.6371506643295288,
                "z": 0.19426114857196808
            }
        },
        "name": "move_to_magneteinheit_C"
    },
    "id": "PRM_move_to_magneteinheit_C_70",
    "joint_names": [
        "shoulder_pan_joint",
        "shoulder_lift_joint",
        "elbow_joint",
        "wrist_1_joint",
        "wrist_2_joint",
        "wrist_3_joint"
    ],
    "metrics": {
        "cart_traj_len": 1.1823765526905468,
        "distance_elbow_joint": 0.6963359388615813,
        "distance_shoulder_lift_joint": 1.2351567946200108,
        "distance_shoulder_pan_joint": 0.8009531845970363,
        "distance_wrist_1_joint": 0.7942086948004167,
        "distance_wrist_2_joint": 0.8959676436891852,
        "distance_wrist_3_joint": 0.27796640310307463,
        "smoothness": 1.3611255405386045,
        "time": 2.2841989220000003,
        "traj_len": 2.168084098846561,
        "weighted_distance": 2.6356588937810326
    },
    "planner": "PRM",
    "start": {
        "state": {
            "elbow_joint": 1.9565354010623817,
            "shoulder_lift_joint": -1.4165861575791021,
            "shoulder_pan_joint": -1.6717766225146293,
            "wrist_1_joint": -0.5286633292919765,
            "wrist_2_joint": 1.472756589071564,
            "wrist_3_joint": -3.1238370188695823
        }
    },
    "waypoints": [
        {
            "positions": [
                -1.6717766225146293,
                -1.4165861575791021,
                1.9565354010623817,
                -0.5286633292919765,
                1.472756589071564,
                -3.1238370188695823
            ]
        },
        {
            "positions": [
                -1.6724387326712646,
                -1.4253180783914705,
                1.9391451283612091,
                -0.5154005170868922,
                1.4724064256471299,
                -3.1258487966096054
            ]
        },
        {
            "positions": [
                -1.6741565383675203,
                -1.5202040577292573,
                1.8099391180389517,
                -0.3965508369627848,
                1.4988340411144858,
                -3.110243425213674
            ]
        },
        {
            "positions": [
                -1.675874344063776,
                -1.615090037067044,
                1.6807331077166943,
                -0.27770115683867747,
                1.5252616565818418,
                -3.094638053817743
            ]
        },
        {
            "positions": [
                -1.816341967949381,
                -1.688273790291409,
                1.732748426345446,
                -0.29897594901640323,
                1.4734555964884628,
                -3.133360553455295
            ]
        },
        {
            "positions": [
                -1.9568095918349864,
                -1.761457543515774,
                1.7847637449741978,
                -0.32025074119412905,
                1.4216495363950838,
                -3.172083053092847
            ]
        },
        {
            "positions": [
                -2.0972772157205917,
                -1.834641296740139,
                1.8367790636029495,
                -0.3415255333718549,
                1.369843476301705,
                -3.210805552730399
            ]
        },
        {
            "positions": [
                -2.2377448396061967,
                -1.907825049964504,
                1.8887943822317013,
                -0.36280032554958064,
                1.3180374162083262,
                -3.249528052367951
            ]
        },
        {
            "positions": [
                -2.2809591111255885,
                -1.8088801006578739,
                1.9301812163857677,
                -0.4403350181426768,
                1.2321524799617236,
                -3.237515231196216
            ]
        },
        {
            "positions": [
                -2.3241733826449806,
                -1.7099351513512437,
                1.9715680505398339,
                -0.5178697107357729,
                1.146267543715121,
                -3.2255024100244807
            ]
        },
        {
            "positions": [
                -2.3673876541643724,
                -1.6109902020446136,
                2.0129548846939,
                -0.595404403328869,
                1.0603826074685185,
                -3.2134895888527457
            ]
        },
        {
            "positions": [
                -2.410601925683764,
                -1.5120452527379835,
                2.0543417188479665,
                -0.6729390959219652,
                0.974497671221916,
                -3.2014767676810107
            ]
        },
        {
            "positions": [
                -2.4313112194930646,
                -1.3959992177352873,
                2.038700040719759,
                -0.7222752903432419,
                0.8771649165652114,
                -3.187542567902997
            ]
        },
        {
            "positions": [
                -2.452020513302365,
                -1.2799531827325912,
                2.023058362591552,
                -0.7716114847645185,
                0.779832161908507,
                -3.1736083681249836
            ]
        },
        {
            "positions": [
                -2.4727298071116657,
                -1.163907147729895,
                2.0074166844633448,
                -0.8209476791857951,
                0.6824994072518025,
                -3.15967416834697
            ]
        }
    ]
}