{
    "goal": {
        "global_pose": {
            "orientation": {
                "w": 0.005598929693374612,
                "x": 0.007748599140229565,
                "y": 0.7110244013736278,
                "z": -0.7031023480610252
            },
            "position": {
                "x": 0.1141497679147869,
                "y": -0.7141253447532654,
                "z": 0.3711530566215515
            }
        },
        "name": "move_to_auspresseinheit_B"
    },
    "id": "PRM_move_to_auspresseinheit_B_36",
    "joint_names": [
        "shoulder_pan_joint",
        "shoulder_lift_joint",
        "elbow_joint",
        "wrist_1_joint",
        "wrist_2_joint",
        "wrist_3_joint"
    ],
    "metrics": {
        "cart_traj_len": 0.5644703260819243,
        "distance_elbow_joint": 0.0647298005869148,
        "distance_shoulder_lift_joint": 0.2931225685977208,
        "distance_shoulder_pan_joint": 0.5755349828861291,
        "distance_wrist_1_joint": 0.332530573197681,
        "distance_wrist_2_joint": 0.999912557942479,
        "distance_wrist_3_joint": 0.0018986682237822627,
        "smoothness": 5.075305255429287e-16,
        "time": 0.019027696,
        "traj_len": 1.5058981212003377,
        "weighted_distance": 1.8984123943501927
    },
    "planner": "PRM",
    "start": {
        "state": {
            "elbow_joint": 2.0193083361928714,
            "shoulder_lift_joint": -1.1220246554650708,
            "shoulder_pan_joint": -1.0952077554168747,
            "wrist_1_joint": -0.8559753972642168,
            "wrist_2_joint": 0.4759566250798843,
            "wrist_3_joint": -3.1240929996934557
        }
    },
    "waypoints": [
        {
            "positions": [
                -1.0952077554168747,
                -1.1220246554650708,
                2.0193083361928714,
                -0.8559753972642168,
                0.4759566250798843,
                -3.1240929996934557
            ]
        },
        {
            "positions": [
                -1.1911302525645628,
                -1.1708784168980242,
                2.008520036095052,
                -0.8005536350646033,
                0.6426087180702975,
                -3.1244094443974193
            ]
        },
        {
            "positions": [
                -1.287052749712251,
                -1.2197321783309778,
                1.997731735997233,
                -0.7451318728649898,
                0.8092608110607107,
                -3.124725889101383
            ]
        },
        {
            "positions": [
                -1.3829752468599392,
                -1.2685859397639312,
                1.986943435899414,
                -0.6897101106653762,
                0.9759129040511239,
                -3.1250423338053466
            ]
        },
        {
            "positions": [
                -1.4788977440076274,
                -1.3174397011968846,
                1.976155135801595,
                -0.6342883484657629,
                1.142564997041537,
                -3.1253587785093107
            ]
        },
        {
            "positions": [
                -1.5748202411553156,
                -1.3662934626298382,
                1.9653668357037757,
                -0.5788665862661493,
                1.3092170900319502,
                -3.1256752232132743
            ]
        },
        {
            "positions": [
                -1.6707427383030038,
                -1.4151472240627916,
                1.9545785356059566,
                -0.5234448240665358,
                1.4758691830223634,
                -3.125991667917238
            ]
        }
    ]
}