{
    "goal": {
        "global_pose": {
            "orientation": {
                "w": 0.005598929693374612,
                "x": 0.007748599140229565,
                "y": 0.7110244013736278,
                "z": -0.7031023480610252
            },
            "position": {
                "x": -0.8858502320852131,
                "y": -0.7141253447532654,
                "z": 0.3711530566215515
            }
        },
        "name": "move_to_auspresseinheit_C"
    },
    "id": "PRM_move_to_auspresseinheit_C_87",
    "joint_names": [
        "shoulder_pan_joint",
        "shoulder_lift_joint",
        "elbow_joint",
        "wrist_1_joint",
        "wrist_2_joint",
        "wrist_3_joint"
    ],
    "metrics": {
        "cart_traj_len": 0.49361472608671697,
        "distance_elbow_joint": 1.0052361626453594,
        "distance_shoulder_lift_joint": 0.3268676607758074,
        "distance_shoulder_pan_joint": 0.25624618115503583,
        "distance_wrist_1_joint": 0.6884696630144993,
        "distance_wrist_2_joint": 1.3075118463007644,
        "distance_wrist_3_joint": 0.062393795002546604,
        "smoothness": 3.2297397080004555e-16,
        "time": 0.016460058,
        "traj_len": 1.909640099310342,
        "weighted_distance": 2.4015608275066382
    },
    "planner": "PRM",
    "start": {
        "state": {
            "elbow_joint": 1.7527959577737207,
            "shoulder_lift_joint": -0.9740617694225068,
            "shoulder_pan_joint": -2.967991417825858,
            "wrist_1_joint": -0.759517768980727,
            "wrist_2_joint": 1.7443932448377408,
            "wrist_3_joint": -3.0840537646736568
        }
    },
    "waypoints": [
        {
            "positions": [
                -2.967991417825858,
                -0.9740617694225068,
                1.7527959577737207,
                -0.759517768980727,
                1.7443932448377408,
                -3.0840537646736568
            ]
        },
        {
            "positions": [
                -2.942366799710354,
                -0.9413750033449261,
                1.6522723415091847,
                -0.690670802679277,
                1.6136420602076644,
                -3.0902931441739114
            ]
        },
        {
            "positions": [
                -2.916742181594851,
                -0.9086882372673453,
                1.5517487252446487,
                -0.6218238363778271,
                1.482890875577588,
                -3.096532523674166
            ]
        },
        {
            "positions": [
                -2.891117563479347,
                -0.8760014711897646,
                1.451225108980113,
                -0.5529768700763772,
                1.3521396909475114,
                -3.1027719031744208
            ]
        },
        {
            "positions": [
                -2.865492945363844,
                -0.8433147051121838,
                1.350701492715577,
                -0.48412990377492726,
                1.221388506317435,
                -3.1090112826746754
            ]
        },
        {
            "positions": [
                -2.83986832724834,
                -0.8106279390346031,
                1.250177876451041,
                -0.41528293747347733,
                1.0906373216873586,
                -3.11525066217493
            ]
        },
        {
            "positions": [
                -2.8142437091328363,
                -0.7779411729570224,
                1.1496542601865052,
                -0.3464359711720274,
                0.9598861370572822,
                -3.1214900416751847
            ]
        },
        {
            "positions": [
                -2.788619091017333,
                -0.7452544068794416,
                1.049130643921969,
                -0.2775890048705775,
                0.8291349524272058,
                -3.1277294211754394
            ]
        },
        {
            "positions": [
                -2.762994472901829,
                -0.7125676408018609,
                0.9486070276574331,
                -0.20874203856912754,
                0.6983837677971292,
                -3.133968800675694
            ]
        },
        {
            "positions": [
                -2.737369854786326,
                -0.6798808747242802,
                0.8480834113928971,
                -0.1398950722676776,
                0.5676325831670528,
                -3.1402081801759487
            ]
        },
        {
            "positions": [
                -2.711745236670822,
                -0.6471941086466994,
                0.7475597951283613,
                -0.07104810596622771,
                0.43688139853697633,
                -3.1464475596762034
            ]
        }
    ]
}