{
    "goal": {
        "global_pose": {
            "orientation": {
                "w": 0.7031023502349854,
                "x": -0.7110244035720825,
                "y": 0.007748599164187908,
                "z": 0.005598929710686207
            },
            "position": {
                "x": 0.11585023208521307,
                "y": 0.44412534475326537,
                "z": 0.3711530566215515
            }
        },
        "name": "move_to_auspresseinheit_A"
    },
    "id": "PRM_move_to_auspresseinheit_A_67",
    "joint_names": [
        "shoulder_pan_joint",
        "shoulder_lift_joint",
        "elbow_joint",
        "wrist_1_joint",
        "wrist_2_joint",
        "wrist_3_joint"
    ],
    "metrics": {
        "cart_traj_len": 2.613801394713837,
        "distance_elbow_joint": 1.1757266289390604,
        "distance_shoulder_lift_joint": 1.0146149240705646,
        "distance_shoulder_pan_joint": 3.891163736151427,
        "distance_wrist_1_joint": 1.237270671834787,
        "distance_wrist_2_joint": 0.9431554861993937,
        "distance_wrist_3_joint": 2.5914845173070784,
        "smoothness": 0.9850096159995296,
        "time": 0.128980438,
        "traj_len": 3.2944523011423783,
        "weighted_distance": 4.268115644772368
    },
    "planner": "PRM",
    "start": {
        "state": {
            "elbow_joint": 2.4225746658250005,
            "shoulder_lift_joint": -1.3736534386056498,
            "shoulder_pan_joint": -0.3378633547517467,
            "wrist_1_joint": -1.0288598680537169,
            "wrist_2_joint": 1.233022673432363,
            "wrist_3_joint": -3.0940220416140027
        }
    },
    "waypoints": [
        {
            "positions": [
                -0.3378633547517467,
                -1.3736534386056498,
                2.4225746658250005,
                -1.0288598680537169,
                1.233022673432363,
                -3.0940220416140027
            ]
        },
        {
            "positions": [
                -0.45642512739447805,
                -1.438322569269115,
                2.3724503986675205,
                -1.0574858260187117,
                1.2506693900480212,
                -2.9870829841957565
            ]
        },
        {
            "positions": [
                -0.5749869000372094,
                -1.50299169993258,
                2.3223261315100405,
                -1.0861117839837067,
                1.2683161066636792,
                -2.88014392677751
            ]
        },
        {
            "positions": [
                -0.6935486726799407,
                -1.5676608305960453,
                2.27220186435256,
                -1.1147377419487015,
                1.2859628232793374,
                -2.773204869359264
            ]
        },
        {
            "positions": [
                -0.8121104453226721,
                -1.6323299612595104,
                2.22207759719508,
                -1.1433636999136965,
                1.3036095398949956,
                -2.6662658119410176
            ]
        },
        {
            "positions": [
                -0.9306722179654034,
                -1.6969990919229756,
                2.1719533300376,
                -1.1719896578786912,
                1.3212562565106538,
                -2.5593267545227714
            ]
        },
        {
            "positions": [
                -1.0492339906081347,
                -1.7616682225864406,
                2.12182906288012,
                -1.2006156158436863,
                1.338902973126312,
                -2.452387697104525
            ]
        },
        {
            "positions": [
                -1.1677957632508662,
                -1.8263373532499059,
                2.07170479572264,
                -1.229241573808681,
                1.35654968974197,
                -2.345448639686279
            ]
        },
        {
            "positions": [
                -1.2863575358935975,
                -1.8910064839133711,
                2.02158052856516,
                -1.2578675317736758,
                1.3741964063576282,
                -2.2385095822680325
            ]
        },
        {
            "positions": [
                -1.4049193085363287,
                -1.9556756145768361,
                1.9714562614076798,
                -1.2864934897386708,
                1.3918431229732864,
                -2.1315705248497863
            ]
        },
        {
            "positions": [
                -1.5234810811790602,
                -2.020344745240301,
                1.9213319942501998,
                -1.3151194477036656,
                1.4094898395889444,
                -2.02463146743154
            ]
        },
        {
            "positions": [
                -1.6420428538217913,
                -2.0850138759037664,
                1.8712077270927199,
                -1.3437454056686606,
                1.4271365562046026,
                -1.9176924100132937
            ]
        },
        {
            "positions": [
                -1.7606046264645228,
                -2.1496830065672317,
                1.8210834599352397,
                -1.3723713636336554,
                1.4447832728202608,
                -1.8107533525950474
            ]
        },
        {
            "positions": [
                -1.6063282224371072,
                -2.13477142181042,
                1.8569731738758208,
                -1.3165114151177273,
                1.3990710923945422,
                -1.8925168418630551
            ]
        },
        {
            "positions": [
                -1.4520518184096913,
                -2.1198598370536086,
                1.8928628878164022,
                -1.2606514666017994,
                1.3533589119688239,
                -1.9742803311310628
            ]
        },
        {
            "positions": [
                -1.2977754143822757,
                -2.1049482522967975,
                1.9287526017569834,
                -1.2047915180858713,
                1.3076467315431053,
                -2.0560438203990703
            ]
        },
        {
            "positions": [
                -1.14349901035486,
                -2.090036667539986,
                1.9646423156975645,
                -1.1489315695699434,
                1.2619345511173867,
                -2.137807309667078
            ]
        },
        {
            "positions": [
                -0.9892226063274443,
                -2.0751250827831744,
                2.000532029638146,
                -1.0930716210540152,
                1.2162223706916682,
                -2.219570798935086
            ]
        },
        {
            "positions": [
                -0.8349462023000287,
                -2.0602134980263633,
                2.036421743578727,
                -1.037211672538087,
                1.1705101902659498,
                -2.3013342882030936
            ]
        },
        {
            "positions": [
                -0.6806697982726129,
                -2.045301913269552,
                2.0723114575193082,
                -0.9813517240221591,
                1.1247980098402313,
                -2.383097777471101
            ]
        },
        {
            "positions": [
                -0.5263933942451973,
                -2.0303903285127403,
                2.1082011714598896,
                -0.9254917755062311,
                1.0790858294145127,
                -2.464861266739109
            ]
        },
        {
            "positions": [
                -0.37211699021778166,
                -2.0154787437559287,
                2.1440908854004705,
                -0.8696318269903031,
                1.0333736489887944,
                -2.546624756007117
            ]
        },
        {
            "positions": [
                -0.21784058619036584,
                -2.000567158999117,
                2.179980599341052,
                -0.813771878474375,
                0.9876614685630758,
                -2.6283882452751244
            ]
        },
        {
            "positions": [
                -0.06356418216295023,
                -1.985655574242306,
                2.2158703132816333,
                -0.7579119299584469,
                0.9419492881373572,
                -2.710151734543132
            ]
        },
        {
            "positions": [
                0.09071222186446537,
                -1.9707439894854946,
                2.2517600272222142,
                -0.7020519814425189,
                0.8962371077116388,
                -2.7919152238111398
            ]
        },
        {
            "positions": [
                0.2449886258918812,
                -1.955832404728683,
                2.2876497411627956,
                -0.6461920329265909,
                0.8505249272859202,
                -2.8736787130791477
            ]
        },
        {
            "positions": [
                0.399265029919297,
                -1.9409208199718717,
                2.323539455103377,
                -0.5903320844106628,
                0.8048127468602018,
                -2.955442202347155
            ]
        },
        {
            "positions": [
                0.5535414339467124,
                -1.9260092352150604,
                2.359429169043958,
                -0.5344721358947347,
                0.7591005664344832,
                -3.0372056916151626
            ]
        },
        {
            "positions": [
                0.7078178379741281,
                -1.9110976504582489,
                2.3953188829845393,
                -0.47861218737880673,
                0.7133883860087648,
                -3.1189691808831705
            ]
        }
    ]
}