{
    "goal": {
        "global_pose": {
            "orientation": {
                "w": 0.7031023480610252,
                "x": -0.7110244013736278,
                "y": 0.0077485991402295624,
                "z": 0.005598929693374583
            },
            "position": {
                "x": -0.8841497679147869,
                "y": 0.44412534475326537,
                "z": 0.3711530566215515
            }
        },
        "name": "move_to_auspresseinheit_D"
    },
    "id": "PRM_move_to_auspresseinheit_D_14",
    "joint_names": [
        "shoulder_pan_joint",
        "shoulder_lift_joint",
        "elbow_joint",
        "wrist_1_joint",
        "wrist_2_joint",
        "wrist_3_joint"
    ],
    "metrics": {
        "cart_traj_len": 0.34370125711521926,
        "distance_elbow_joint": 0.654257612285698,
        "distance_shoulder_lift_joint": 0.13084329909395187,
        "distance_shoulder_pan_joint": 0.13423424937308395,
        "distance_wrist_1_joint": 0.5823584622608444,
        "distance_wrist_2_joint": 1.4362016216344178,
        "distance_wrist_3_joint": 0.032977161008739486,
        "smoothness": 0.0,
        "time": 0.022186382,
        "traj_len": 1.7236218859299552,
        "weighted_distance": 2.248418735816235
    },
    "planner": "PRM",
    "start": {
        "state": {
            "elbow_joint": -1.8275523626775212,
            "shoulder_lift_joint": -2.126789852344167,
            "shoulder_pan_joint": -0.03513704404078235,
            "wrist_1_joint": -2.347782403156801,
            "wrist_2_joint": -1.6058999987535132,
            "wrist_3_joint": -3.0880379163319196
        }
    },
    "waypoints": [
        {
            "positions": [
                -0.03513704404078235,
                -2.126789852344167,
                -1.8275523626775212,
                -2.347782403156801,
                -1.6058999987535132,
                -3.0880379163319196
            ]
        },
        {
            "positions": [
                -0.051916325212417846,
                -2.1431452647309106,
                -1.745770161141809,
                -2.4205772109394066,
                -1.426374796049211,
                -3.0839157712058274
            ]
        },
        {
            "positions": [
                -0.06869560638405334,
                -2.159500677117655,
                -1.6639879596060967,
                -2.493372018722012,
                -1.2468495933449089,
                -3.0797936260797347
            ]
        },
        {
            "positions": [
                -0.08547488755568883,
                -2.175856089504399,
                -1.5822057580703843,
                -2.5661668265046176,
                -1.0673243906406065,
                -3.075671480953642
            ]
        },
        {
            "positions": [
                -0.10225416872732432,
                -2.1922115018911428,
                -1.5004235565346722,
                -2.638961634287223,
                -0.8877991879363043,
                -3.07154933582755
            ]
        },
        {
            "positions": [
                -0.11903344989895981,
                -2.2085669142778865,
                -1.41864135499896,
                -2.7117564420698286,
                -0.7082739852320021,
                -3.0674271907014576
            ]
        },
        {
            "positions": [
                -0.13581273107059533,
                -2.2249223266646307,
                -1.3368591534632477,
                -2.7845512498524343,
                -0.5287487825276997,
                -3.063305045575365
            ]
        },
        {
            "positions": [
                -0.15259201224223082,
                -2.241277739051375,
                -1.2550769519275353,
                -2.8573460576350396,
                -0.3492235798233976,
                -3.0591829004492723
            ]
        },
        {
            "positions": [
                -0.1693712934138663,
                -2.2576331514381187,
                -1.1732947503918232,
                -2.9301408654176453,
                -0.1696983771190954,
                -3.05506075532318
            ]
        }
    ]
}