{
    "goal": {
        "global_pose": {
            "orientation": {
                "w": 0.005598929693374612,
                "x": 0.007748599140229565,
                "y": 0.7110244013736278,
                "z": -0.7031023480610252
            },
            "position": {
                "x": 0.1141497679147869,
                "y": -0.7141253447532654,
                "z": 0.3711530566215515
            }
        },
        "name": "move_to_auspresseinheit_B"
    },
    "id": "PRM_move_to_auspresseinheit_B_89",
    "joint_names": [
        "shoulder_pan_joint",
        "shoulder_lift_joint",
        "elbow_joint",
        "wrist_1_joint",
        "wrist_2_joint",
        "wrist_3_joint"
    ],
    "metrics": {
        "cart_traj_len": 0.5653609681088949,
        "distance_elbow_joint": 0.06621642618779622,
        "distance_shoulder_lift_joint": 0.29230646554771944,
        "distance_shoulder_pan_joint": 0.5755796174693337,
        "distance_wrist_1_joint": 0.3337743959775711,
        "distance_wrist_2_joint": 1.003650046996993,
        "distance_wrist_3_joint": 0.006765514653764626,
        "smoothness": 1.1419436882086193e-15,
        "time": 0.014453875,
        "traj_len": 1.5094013604184866,
        "weighted_distance": 1.9050585133048463
    },
    "planner": "PRM",
    "start": {
        "state": {
            "elbow_joint": 2.0193083361928714,
            "shoulder_lift_joint": -1.1220246554650708,
            "shoulder_pan_joint": -1.0952077554168747,
            "wrist_1_joint": -0.8559753972642168,
            "wrist_2_joint": 0.4759566250798843,
            "wrist_3_joint": -3.1240929996934557
        }
    },
    "waypoints": [
        {
            "positions": [
                -1.0952077554168747,
                -1.1220246554650708,
                2.0193083361928714,
                -0.8559753972642168,
                0.4759566250798843,
                -3.1240929996934557
            ]
        },
        {
            "positions": [
                -1.1911376916617635,
                -1.170742399723024,
                2.008272265161572,
                -0.800346331267955,
                0.6432316329127165,
                -3.1229654139178282
            ]
        },
        {
            "positions": [
                -1.2870676279066526,
                -1.2194601439809774,
                1.9972361941302728,
                -0.7447172652716931,
                0.8105066407455486,
                -3.121837828142201
            ]
        },
        {
            "positions": [
                -1.3829975641515415,
                -1.2681778882389305,
                1.9862001230989734,
                -0.6890881992754312,
                0.9777816485783808,
                -3.1207102423665734
            ]
        },
        {
            "positions": [
                -1.4789275003964304,
                -1.3168956324968837,
                1.9751640520676739,
                -0.6334591332791695,
                1.1450566564112128,
                -3.119582656590946
            ]
        },
        {
            "positions": [
                -1.5748574366413195,
                -1.365613376754837,
                1.9641279810363745,
                -0.5778300672829075,
                1.312331664244045,
                -3.1184550708153185
            ]
        },
        {
            "positions": [
                -1.6707873728862084,
                -1.4143311210127902,
                1.9530919100050752,
                -0.5222010012866457,
                1.4796066720768772,
                -3.117327485039691
            ]
        }
    ]
}