{
    "goal": {
        "global_pose": {
            "orientation": {
                "w": -0.00223480608172531,
                "x": 0.0024358444001904467,
                "y": 0.7094548369677653,
                "z": -0.704743149386269
            },
            "position": {
                "x": -0.37947507619857795,
                "y": -0.6371506643295288,
                "z": 0.19426114857196808
            }
        },
        "name": "move_to_magneteinheit_C"
    },
    "id": "PRM_move_to_magneteinheit_C_42",
    "joint_names": [
        "shoulder_pan_joint",
        "shoulder_lift_joint",
        "elbow_joint",
        "wrist_1_joint",
        "wrist_2_joint",
        "wrist_3_joint"
    ],
    "metrics": {
        "cart_traj_len": 1.3173314348730003,
        "distance_elbow_joint": 0.5627172071504458,
        "distance_shoulder_lift_joint": 0.5479094862774989,
        "distance_shoulder_pan_joint": 1.5124314869437792,
        "distance_wrist_1_joint": 1.072188954759274,
        "distance_wrist_2_joint": 2.080495120163255,
        "distance_wrist_3_joint": 2.732293202201346,
        "smoothness": 1.316183314679039,
        "time": 0.535789973,
        "traj_len": 2.9168536914791594,
        "weighted_distance": 4.138273303785145
    },
    "planner": "PRM",
    "start": {
        "state": {
            "elbow_joint": 1.9565354010623817,
            "shoulder_lift_joint": -1.4165861575791021,
            "shoulder_pan_joint": -1.6717766225146293,
            "wrist_1_joint": -0.5286633292919765,
            "wrist_2_joint": 1.472756589071564,
            "wrist_3_joint": -3.1238370188695823
        }
    },
    "waypoints": [
        {
            "positions": [
                -1.6717766225146293,
                -1.4165861575791021,
                1.9565354010623817,
                -0.5286633292919765,
                1.472756589071564,
                -3.1238370188695823
            ]
        },
        {
            "positions": [
                -1.6254650285107421,
                -1.4283616804205477,
                1.9390461060645818,
                -0.5354038900595993,
                1.3018654764123987,
                -3.0121685763422468
            ]
        },
        {
            "positions": [
                -1.5791534345068547,
                -1.4401372032619932,
                1.9215568110667818,
                -0.5421444508272222,
                1.1309743637532335,
                -2.900500133814911
            ]
        },
        {
            "positions": [
                -1.5328418405029676,
                -1.4519127261034388,
                1.904067516068982,
                -0.548885011594845,
                0.9600832510940681,
                -2.788831691287575
            ]
        },
        {
            "positions": [
                -1.4865302464990804,
                -1.4636882489448846,
                1.8865782210711821,
                -0.5556255723624679,
                0.7891921384349029,
                -2.6771632487602393
            ]
        },
        {
            "positions": [
                -1.440218652495193,
                -1.4754637717863301,
                1.869088926073382,
                -0.5623661331300908,
                0.6183010257757375,
                -2.5654948062329037
            ]
        },
        {
            "positions": [
                -1.3939070584913058,
                -1.4872392946277757,
                1.8515996310755822,
                -0.5691066938977136,
                0.44740991311657224,
                -2.4538263637055677
            ]
        },
        {
            "positions": [
                -1.5217476292105885,
                -1.4666699468545985,
                1.8859740583264437,
                -0.641957170008119,
                0.4011338240474601,
                -2.377905823424896
            ]
        },
        {
            "positions": [
                -1.649588199929871,
                -1.4461005990814213,
                1.9203484855773054,
                -0.7148076461185244,
                0.35485773497834805,
                -2.3019852831442242
            ]
        },
        {
            "positions": [
                -1.7774287706491534,
                -1.425531251308244,
                1.954722912828167,
                -0.7876581222289298,
                0.3085816459092359,
                -2.226064742863552
            ]
        },
        {
            "positions": [
                -1.905269341368436,
                -1.404961903535067,
                1.9890973400790286,
                -0.8605085983393352,
                0.2623055568401238,
                -2.1501442025828803
            ]
        },
        {
            "positions": [
                -2.0331099120877187,
                -1.3843925557618895,
                2.02347176732989,
                -0.9333590744497409,
                0.2160294677710117,
                -2.0742236623022086
            ]
        },
        {
            "positions": [
                -2.160950482807001,
                -1.3638232079887123,
                2.0578461945807516,
                -1.006209550560146,
                0.1697533787018996,
                -1.9983031220215368
            ]
        },
        {
            "positions": [
                -2.2887910535262836,
                -1.343253860215535,
                2.0922206218316135,
                -1.0790600266705517,
                0.12347728963278748,
                -1.9223825817408648
            ]
        },
        {
            "positions": [
                -2.416631624245566,
                -1.3226845124423579,
                2.126595049082475,
                -1.1519105027809569,
                0.07720120056367541,
                -1.8464620414601929
            ]
        },
        {
            "positions": [
                -2.544472194964849,
                -1.3021151646691806,
                2.1609694763333365,
                -1.2247609788913625,
                0.03092511149456327,
                -1.7705415011795211
            ]
        },
        {
            "positions": [
                -2.5467770758375434,
                -1.327820327636377,
                2.1473007136457767,
                -1.1638892540007744,
                0.12488681535230893,
                -1.881336204585885
            ]
        },
        {
            "positions": [
                -2.5490819567102374,
                -1.3535254906035734,
                2.1336319509582173,
                -1.1030175291101865,
                0.2188485192100546,
                -1.9921309079922487
            ]
        },
        {
            "positions": [
                -2.551386837582932,
                -1.3792306535707697,
                2.1199631882706576,
                -1.0421458042195983,
                0.31281022306780026,
                -2.1029256113986126
            ]
        },
        {
            "positions": [
                -2.5405145349188896,
                -1.3411005264500024,
                2.1020127213817776,
                -1.0018201276409018,
                0.38410091315639705,
                -2.291306101086859
            ]
        },
        {
            "positions": [
                -2.529642232254847,
                -1.3029703993292352,
                2.0840622544928973,
                -0.9614944510622054,
                0.4553916032449939,
                -2.479686590775106
            ]
        },
        {
            "positions": [
                -2.5187699295908046,
                -1.264840272208468,
                2.0661117876040174,
                -0.921168774483509,
                0.5266822933335907,
                -2.668067080463352
            ]
        },
        {
            "positions": [
                -2.503948184311904,
                -1.2312981558730214,
                2.0482604865451597,
                -0.8970024075661642,
                0.5743177802493332,
                -2.828557782205837
            ]
        },
        {
            "positions": [
                -2.489126439033003,
                -1.197756039537575,
                2.030409185486302,
                -0.8728360406488194,
                0.6219532671650756,
                -2.9890484839483213
            ]
        },
        {
            "positions": [
                -2.4743046937541022,
                -1.1642139232021285,
                2.0125578844274443,
                -0.8486696737314746,
                0.6695887540808181,
                -3.149539185690806
            ]
        }
    ]
}