{
    "goal": {
        "global_pose": {
            "orientation": {
                "w": -0.4816463035849501,
                "x": 0.5182115481033762,
                "y": 0.4908360881923453,
                "z": -0.5084816262002911
            },
            "position": {
                "x": -0.8240239810943604,
                "y": 0.19912469901144506,
                "z": 0.16403168439865112
            }
        },
        "name": "move_to_storage_D"
    },
    "id": "PRM_move_to_storage_D_114",
    "joint_names": [
        "shoulder_pan_joint",
        "shoulder_lift_joint",
        "elbow_joint",
        "wrist_1_joint",
        "wrist_2_joint",
        "wrist_3_joint"
    ],
    "metrics": {
        "cart_traj_len": 1.2951355301813428,
        "distance_elbow_joint": 0.5827142803715255,
        "distance_shoulder_lift_joint": 1.0171512416772321,
        "distance_shoulder_pan_joint": 1.9710249783819396,
        "distance_wrist_1_joint": 3.8322590755351036,
        "distance_wrist_2_joint": 1.8628434752694294,
        "distance_wrist_3_joint": 3.1517637581964304,
        "smoothness": 0.2662689003532914,
        "time": 0.180454536,
        "traj_len": 3.52388376786631,
        "weighted_distance": 4.941294048792184
    },
    "planner": "PRM",
    "start": {
        "state": {
            "elbow_joint": -2.384821988534728,
            "shoulder_lift_joint": -2.2788054721415256,
            "shoulder_pan_joint": -0.1854694642142757,
            "wrist_1_joint": 1.4845938289331202,
            "wrist_2_joint": 0.17898776772866878,
            "wrist_3_joint": 0.037105688729662994
        }
    },
    "waypoints": [
        {
            "positions": [
                -0.1854694642142757,
                -2.2788054721415256,
                -2.384821988534728,
                1.4845938289331202,
                0.17898776772866878,
                0.037105688729662994
            ]
        },
        {
            "positions": [
                -0.07096101426767214,
                -2.218274430893741,
                -2.3977055961739393,
                1.3628013165558153,
                0.2209759694307441,
                0.0736571694369609
            ]
        },
        {
            "positions": [
                -0.003359573511695954,
                -2.1808413568932,
                -2.3919034379570863,
                1.2052418353842398,
                0.20267438648220285,
                0.1679850263173597
            ]
        },
        {
            "positions": [
                0.06424186724428023,
                -2.1434082828926586,
                -2.3861012797402337,
                1.0476823542126643,
                0.18437280353366156,
                0.2623128831977585
            ]
        },
        {
            "positions": [
                0.1318433080002564,
                -2.1059752088921173,
                -2.3802991215233806,
                0.8901228730410888,
                0.1660712205851203,
                0.35664074007815727
            ]
        },
        {
            "positions": [
                0.19944474875623258,
                -2.068542134891576,
                -2.3744969633065276,
                0.7325633918695132,
                0.14776963763657902,
                0.45096859695855607
            ]
        },
        {
            "positions": [
                0.2670461895122088,
                -2.0311090608910347,
                -2.3686948050896746,
                0.5750039106979377,
                0.12946805468803776,
                0.5452964538389549
            ]
        },
        {
            "positions": [
                0.33464763026818495,
                -1.9936759868904932,
                -2.362892646872822,
                0.4174444295263623,
                0.1111664717394965,
                0.6396243107193537
            ]
        },
        {
            "positions": [
                0.4022490710241612,
                -1.956242912889952,
                -2.357090488655969,
                0.2598849483547867,
                0.09286488879095522,
                0.7339521675997525
            ]
        },
        {
            "positions": [
                0.4698505117801373,
                -1.9188098388894106,
                -2.351288330439116,
                0.10232546718321123,
                0.07456330584241397,
                0.8282800244801513
            ]
        },
        {
            "positions": [
                0.5374519525361137,
                -1.881376764888869,
                -2.3454861722222633,
                -0.05523401398836447,
                0.056261722893872684,
                0.9226078813605502
            ]
        },
        {
            "positions": [
                0.6050533932920898,
                -1.8439436908883278,
                -2.3396840140054103,
                -0.21279349515993995,
                0.03796013994533143,
                1.016935738240949
            ]
        },
        {
            "positions": [
                0.672654834048066,
                -1.8065106168877865,
                -2.3338818557885572,
                -0.3703529763315152,
                0.019658556996790144,
                1.1112635951213476
            ]
        },
        {
            "positions": [
                0.7402562748040421,
                -1.7690775428872452,
                -2.328079697571704,
                -0.5279124575030907,
                0.001356974048248888,
                1.2055914520017466
            ]
        },
        {
            "positions": [
                0.8078577155600184,
                -1.7316444688867039,
                -2.3222775393548516,
                -0.6854719386746664,
                -0.016944608900292396,
                1.2999193088821455
            ]
        },
        {
            "positions": [
                0.8754591563159946,
                -1.6942113948861626,
                -2.3164753811379986,
                -0.8430314198462419,
                -0.035246191848833666,
                1.3942471657625441
            ]
        },
        {
            "positions": [
                0.821924076442367,
                -1.7196559339698019,
                -2.287734177744094,
                -0.9315392920083443,
                -0.12728343374811463,
                1.4998131823015766
            ]
        },
        {
            "positions": [
                0.7683889965687394,
                -1.7451004730534412,
                -2.25899297435019,
                -1.0200471641704467,
                -0.2193206756473956,
                1.6053791988406088
            ]
        },
        {
            "positions": [
                0.7148539166951118,
                -1.7705450121370807,
                -2.2302517709562855,
                -1.1085550363325494,
                -0.3113579175466766,
                1.7109452153796412
            ]
        },
        {
            "positions": [
                0.6613188368214841,
                -1.79598955122072,
                -2.2015105675623814,
                -1.1970629084946518,
                -0.4033951594459575,
                1.8165112319186734
            ]
        },
        {
            "positions": [
                0.6077837569478565,
                -1.8214340903043593,
                -2.172769364168477,
                -1.2855707806567542,
                -0.49543240134523847,
                1.9220772484577058
            ]
        },
        {
            "positions": [
                0.5542486770742289,
                -1.8468786293879988,
                -2.144028160774573,
                -1.3740786528188567,
                -0.5874696432445196,
                2.027643264996738
            ]
        },
        {
            "positions": [
                0.5007135972006013,
                -1.8723231684716382,
                -2.1152869573806683,
                -1.462586524980959,
                -0.6795068851438004,
                2.13320928153577
            ]
        },
        {
            "positions": [
                0.4471785173269736,
                -1.8977677075552775,
                -2.0865457539867642,
                -1.5510943971430615,
                -0.7715441270430814,
                2.2387752980748026
            ]
        },
        {
            "positions": [
                0.393643437453346,
                -1.9232122466389168,
                -2.0578045505928597,
                -1.639602269305164,
                -0.8635813689423624,
                2.344341314613835
            ]
        },
        {
            "positions": [
                0.34010835757971836,
                -1.948656785722556,
                -2.029063347198955,
                -1.7281101414672666,
                -0.9556186108416433,
                2.4499073311528674
            ]
        },
        {
            "positions": [
                0.28657327770609076,
                -1.9741013248061956,
                -2.000322143805051,
                -1.816618013629369,
                -1.0476558527409243,
                2.5554733476918994
            ]
        },
        {
            "positions": [
                0.23303819783246316,
                -1.999545863889835,
                -1.9715809404111466,
                -1.9051258857914715,
                -1.1396930946402053,
                2.6610393642309322
            ]
        },
        {
            "positions": [
                0.17950311795883556,
                -2.024990402973474,
                -1.9428397370172426,
                -1.993633757953574,
                -1.231730336539486,
                2.766605380769964
            ]
        },
        {
            "positions": [
                0.12596803808520796,
                -2.0504349420571137,
                -1.914098533623338,
                -2.082141630115676,
                -1.323767578438767,
                2.872171397308996
            ]
        },
        {
            "positions": [
                0.07243295821158036,
                -2.075879481140753,
                -1.8853573302294337,
                -2.1706495022777785,
                -1.415804820338048,
                2.977737413848029
            ]
        },
        {
            "positions": [
                0.018897878337952645,
                -2.1013240202243924,
                -1.8566161268355295,
                -2.2591573744398814,
                -1.507842062237329,
                3.083303430387061
            ]
        },
        {
            "positions": [
                -0.03463720153567496,
                -2.1267685593080317,
                -1.8278749234416252,
                -2.347665246601984,
                -1.59987930413661,
                3.1888694469260934
            ]
        }
    ]
}