{
    "goal": {
        "global_pose": {
            "orientation": {
                "w": 0.7031023480610252,
                "x": -0.7110244013736278,
                "y": 0.0077485991402295624,
                "z": 0.005598929693374583
            },
            "position": {
                "x": -0.8841497679147869,
                "y": 0.44412534475326537,
                "z": 0.3711530566215515
            }
        },
        "name": "move_to_auspresseinheit_D"
    },
    "id": "PRM_move_to_auspresseinheit_D_77",
    "joint_names": [
        "shoulder_pan_joint",
        "shoulder_lift_joint",
        "elbow_joint",
        "wrist_1_joint",
        "wrist_2_joint",
        "wrist_3_joint"
    ],
    "metrics": {
        "cart_traj_len": 0.3439243012603906,
        "distance_elbow_joint": 0.6577161160053697,
        "distance_shoulder_lift_joint": 0.13240493856194124,
        "distance_shoulder_pan_joint": 0.13412761810969753,
        "distance_wrist_1_joint": 0.5973401405347061,
        "distance_wrist_2_joint": 1.4359943087332196,
        "distance_wrist_3_joint": 0.061009907230734406,
        "smoothness": 1.9737298371844314e-16,
        "time": 0.016521543,
        "traj_len": 1.7374098621729037,
        "weighted_distance": 2.2746312432799
    },
    "planner": "PRM",
    "start": {
        "state": {
            "elbow_joint": -1.8275523626775212,
            "shoulder_lift_joint": -2.126789852344167,
            "shoulder_pan_joint": -0.03513704404078235,
            "wrist_1_joint": -2.347782403156801,
            "wrist_2_joint": -1.6058999987535132,
            "wrist_3_joint": -3.0880379163319196
        }
    },
    "waypoints": [
        {
            "positions": [
                -0.03513704404078235,
                -2.126789852344167,
                -1.8275523626775212,
                -2.347782403156801,
                -1.6058999987535132,
                -3.0880379163319196
            ]
        },
        {
            "positions": [
                -0.05190299630449454,
                -2.1433404696644094,
                -1.74533784817685,
                -2.422449920723639,
                -1.4264007101618608,
                -3.080411677928078
            ]
        },
        {
            "positions": [
                -0.06866894856820674,
                -2.1598910869846524,
                -1.6631233336761788,
                -2.4971174382904775,
                -1.2469014215702083,
                -3.072785439524236
            ]
        },
        {
            "positions": [
                -0.08543490083191893,
                -2.176441704304895,
                -1.5809088191755076,
                -2.5717849558573156,
                -1.0674021329785557,
                -3.065159201120394
            ]
        },
        {
            "positions": [
                -0.10220085309563112,
                -2.1929923216251375,
                -1.4986943046748364,
                -2.646452473424154,
                -0.8879028443869034,
                -3.0575329627165524
            ]
        },
        {
            "positions": [
                -0.11896680535934331,
                -2.20954293894538,
                -1.416479790174165,
                -2.721119990990992,
                -0.7084035557952509,
                -3.0499067243127107
            ]
        },
        {
            "positions": [
                -0.1357327576230555,
                -2.2260935562656226,
                -1.3342652756734938,
                -2.7957875085578303,
                -0.5289042672035984,
                -3.0422804859088686
            ]
        },
        {
            "positions": [
                -0.1524987098867677,
                -2.2426441735858655,
                -1.2520507611728227,
                -2.8704550261246684,
                -0.34940497861194597,
                -3.034654247505027
            ]
        },
        {
            "positions": [
                -0.1692646621504799,
                -2.259194790906108,
                -1.1698362466721515,
                -2.945122543691507,
                -0.16990569002029354,
                -3.027028009101185
            ]
        }
    ]
}