{
    "goal": {
        "global_pose": {
            "orientation": {
                "w": -0.4816463035849501,
                "x": 0.5182115481033762,
                "y": 0.4908360881923453,
                "z": -0.5084816262002911
            },
            "position": {
                "x": -0.8240239810943604,
                "y": -0.300875300988555,
                "z": 0.16403168439865112
            }
        },
        "name": "move_to_storage_C"
    },
    "id": "PRM_move_to_storage_C_73",
    "joint_names": [
        "shoulder_pan_joint",
        "shoulder_lift_joint",
        "elbow_joint",
        "wrist_1_joint",
        "wrist_2_joint",
        "wrist_3_joint"
    ],
    "metrics": {
        "cart_traj_len": 0.5769505213436321,
        "distance_elbow_joint": 0.2594190265950347,
        "distance_shoulder_lift_joint": 0.18858501477680056,
        "distance_shoulder_pan_joint": 0.4957695473803656,
        "distance_wrist_1_joint": 0.08389543609220262,
        "distance_wrist_2_joint": 1.061800897381631,
        "distance_wrist_3_joint": 0.0635051774889881,
        "smoothness": 0.0,
        "time": 0.018746984,
        "traj_len": 1.467301979728448,
        "weighted_distance": 1.8508597429753646
    },
    "planner": "PRM",
    "start": {
        "state": {
            "elbow_joint": 2.010868314990456,
            "shoulder_lift_joint": -1.1634956873337592,
            "shoulder_pan_joint": -2.4736205022346125,
            "wrist_1_joint": -0.8367026794202681,
            "wrist_2_joint": 0.6746043897044499,
            "wrist_3_joint": -3.1496632123970403
        }
    },
    "waypoints": [
        {
            "positions": [
                -2.4736205022346125,
                -1.1634956873337592,
                2.010868314990456,
                -0.8367026794202681,
                0.6746043897044499,
                -3.1496632123970403
            ]
        },
        {
            "positions": [
                -2.55624876013134,
                -1.1320648515376257,
                1.96763181055795,
                -0.8227201067382344,
                0.8515712059347218,
                -3.1390790161488757
            ]
        },
        {
            "positions": [
                -2.638877018028068,
                -1.1006340157414924,
                1.9243953061254442,
                -0.8087375340562005,
                1.0285380221649936,
                -3.1284948199007108
            ]
        },
        {
            "positions": [
                -2.7215052759247955,
                -1.069203179945359,
                1.8811588016929384,
                -0.7947549613741668,
                1.2055048383952656,
                -3.1179106236525462
            ]
        },
        {
            "positions": [
                -2.8041335338215228,
                -1.0377723441492255,
                1.8379222972604328,
                -0.7807723886921331,
                1.3824716546255371,
                -3.1073264274043817
            ]
        },
        {
            "positions": [
                -2.8867617917182504,
                -1.006341508353092,
                1.794685792827927,
                -0.7667898160100992,
                1.5594384708558091,
                -3.0967422311562167
            ]
        },
        {
            "positions": [
                -2.969390049614978,
                -0.9749106725569586,
                1.7514492883954211,
                -0.7528072433280655,
                1.7364052870860809,
                -3.086158034908052
            ]
        }
    ]
}