{
    "goal": {
        "global_pose": {
            "orientation": {
                "w": 0.005598929693374612,
                "x": 0.007748599140229565,
                "y": 0.7110244013736278,
                "z": -0.7031023480610252
            },
            "position": {
                "x": 0.1141497679147869,
                "y": -0.7141253447532654,
                "z": 0.3711530566215515
            }
        },
        "name": "move_to_auspresseinheit_B"
    },
    "id": "PRM_move_to_auspresseinheit_B_141",
    "joint_names": [
        "shoulder_pan_joint",
        "shoulder_lift_joint",
        "elbow_joint",
        "wrist_1_joint",
        "wrist_2_joint",
        "wrist_3_joint"
    ],
    "metrics": {
        "cart_traj_len": 0.5641475245994265,
        "distance_elbow_joint": 0.06310686116274944,
        "distance_shoulder_lift_joint": 0.2941769897679376,
        "distance_shoulder_pan_joint": 0.5762408943343038,
        "distance_wrist_1_joint": 0.3273854027389905,
        "distance_wrist_2_joint": 0.9932188370509996,
        "distance_wrist_3_joint": 0.008717730355930264,
        "smoothness": 5.075305255429287e-16,
        "time": 0.014893168,
        "traj_len": 1.5042761433363594,
        "weighted_distance": 1.8976001728269214
    },
    "planner": "PRM",
    "start": {
        "state": {
            "elbow_joint": 2.0193083361928714,
            "shoulder_lift_joint": -1.1220246554650708,
            "shoulder_pan_joint": -1.0952077554168747,
            "wrist_1_joint": -0.8559753972642168,
            "wrist_2_joint": 0.4759566250798843,
            "wrist_3_joint": -3.1240929996934557
        }
    },
    "waypoints": [
        {
            "positions": [
                -1.0952077554168747,
                -1.1220246554650708,
                2.0193083361928714,
                -0.8559753972642168,
                0.4759566250798843,
                -3.1240929996934557
            ]
        },
        {
            "positions": [
                -1.1912479044725919,
                -1.171054153759727,
                2.0087905259990797,
                -0.801411163474385,
                0.6414930979217175,
                -3.122640044634134
            ]
        },
        {
            "positions": [
                -1.2872880535283093,
                -1.2200836520543834,
                1.9982727158052882,
                -0.7468469296845532,
                0.8070295707635509,
                -3.1211870895748124
            ]
        },
        {
            "positions": [
                -1.3833282025840266,
                -1.2691131503490396,
                1.9877549056114967,
                -0.6922826958947215,
                0.972566043605384,
                -3.1197341345154905
            ]
        },
        {
            "positions": [
                -1.4793683516397438,
                -1.3181426486436958,
                1.9772370954177052,
                -0.6377184621048898,
                1.1381025164472174,
                -3.1182811794561687
            ]
        },
        {
            "positions": [
                -1.5754085006954612,
                -1.3671721469383522,
                1.9667192852239135,
                -0.5831542283150579,
                1.3036389892890505,
                -3.1168282243968473
            ]
        },
        {
            "positions": [
                -1.6714486497511785,
                -1.4162016452330084,
                1.956201475030122,
                -0.5285899945252263,
                1.469175462130884,
                -3.1153752693375254
            ]
        }
    ]
}