{
    "goal": {
        "global_pose": {
            "orientation": {
                "w": 0.5084816262002911,
                "x": -0.4908360881923452,
                "y": 0.5182115481033761,
                "z": -0.48164630358495003
            },
            "position": {
                "x": 0.5540239810943604,
                "y": -0.46912469901144505,
                "z": 0.16403168439865112
            }
        },
        "name": "move_to_storage_B"
    },
    "id": "PRM_move_to_storage_B_64",
    "joint_names": [
        "shoulder_pan_joint",
        "shoulder_lift_joint",
        "elbow_joint",
        "wrist_1_joint",
        "wrist_2_joint",
        "wrist_3_joint"
    ],
    "metrics": {
        "cart_traj_len": 4.766354869203694,
        "distance_elbow_joint": 3.0565224009408736,
        "distance_shoulder_lift_joint": 1.030810362094405,
        "distance_shoulder_pan_joint": 4.577390662605282,
        "distance_wrist_1_joint": 2.992203133340998,
        "distance_wrist_2_joint": 3.235358578962275,
        "distance_wrist_3_joint": 3.8383934044418253,
        "smoothness": 0.3268920732501611,
        "time": 0.188984098,
        "traj_len": 4.327895394113132,
        "weighted_distance": 5.712707507265938
    },
    "planner": "PRM",
    "start": {
        "state": {
            "elbow_joint": 1.664937868594044,
            "shoulder_lift_joint": -0.661644460510453,
            "shoulder_pan_joint": -0.9139846352900073,
            "wrist_1_joint": 2.146753192139373,
            "wrist_2_joint": -2.2341966793290973,
            "wrist_3_joint": 0.005466555786416001
        }
    },
    "waypoints": [
        {
            "positions": [
                -0.9139846352900073,
                -0.661644460510453,
                1.664937868594044,
                2.146753192139373,
                -2.2341966793290973,
                0.005466555786416001
            ]
        },
        {
            "positions": [
                -0.8260489316680484,
                -0.6914614301838017,
                1.6108824497060157,
                2.0644545890095527,
                -2.115109023341048,
                -0.008519586390108112
            ]
        },
        {
            "positions": [
                -0.7381132280460896,
                -0.7212783998571504,
                1.5568270308179875,
                1.9821559858797324,
                -1.9960213673529994,
                -0.022505728566632226
            ]
        },
        {
            "positions": [
                -0.6501775244241308,
                -0.7510953695304992,
                1.5027716119299592,
                1.8998573827499121,
                -1.8769337113649505,
                -0.03649187074315634
            ]
        },
        {
            "positions": [
                -0.5622418208021719,
                -0.7809123392038478,
                1.4487161930419308,
                1.8175587796200916,
                -1.7578460553769015,
                -0.05047801291968045
            ]
        },
        {
            "positions": [
                -0.47430611718021304,
                -0.8107293088771965,
                1.3946607741539025,
                1.7352601764902713,
                -1.6387583993888524,
                -0.06446415509620457
            ]
        },
        {
            "positions": [
                -0.3863704135582542,
                -0.8405462785505452,
                1.3406053552658743,
                1.652961573360451,
                -1.5196707434008037,
                -0.07845029727272868
            ]
        },
        {
            "positions": [
                -0.2984347099362953,
                -0.8703632482238939,
                1.286549936377846,
                1.5706629702306305,
                -1.4005830874127545,
                -0.0924364394492528
            ]
        },
        {
            "positions": [
                -0.2104990063143365,
                -0.9001802178972427,
                1.2324945174898179,
                1.4883643671008102,
                -1.2814954314247058,
                -0.1064225816257769
            ]
        },
        {
            "positions": [
                -0.1225633026923777,
                -0.9299971875705912,
                1.1784390986017896,
                1.40606576397099,
                -1.1624077754366569,
                -0.120408723802301
            ]
        },
        {
            "positions": [
                -0.03462759907041879,
                -0.95981415724394,
                1.1243836797137612,
                1.3237671608411694,
                -1.0433201194486077,
                -0.13439486597882513
            ]
        },
        {
            "positions": [
                0.05330810455154,
                -0.9896311269172887,
                1.070328260825733,
                1.2414685577113491,
                -0.924232463460559,
                -0.14838100815534924
            ]
        },
        {
            "positions": [
                0.1412438081734989,
                -1.0194480965906374,
                1.0162728419377047,
                1.1591699545815288,
                -0.80514480747251,
                -0.16236715033187335
            ]
        },
        {
            "positions": [
                0.2291795117954577,
                -1.0492650662639862,
                0.9622174230496765,
                1.0768713514517083,
                -0.6860571514844609,
                -0.17635329250839746
            ]
        },
        {
            "positions": [
                0.3171152154174167,
                -1.079082035937335,
                0.9081620041616482,
                0.9945727483218878,
                -0.566969495496412,
                -0.1903394346849216
            ]
        },
        {
            "positions": [
                0.4050509190393753,
                -1.1088990056106836,
                0.8541065852736199,
                0.9122741451920677,
                -0.44788183950836324,
                -0.20432557686144567
            ]
        },
        {
            "positions": [
                0.4929866226613343,
                -1.1387159752840323,
                0.8000511663855917,
                0.8299755420622472,
                -0.3287941835203141,
                -0.2183117190379698
            ]
        },
        {
            "positions": [
                0.5809223262832933,
                -1.1685329449573811,
                0.7459957474975634,
                0.7476769389324267,
                -0.20970652753226515,
                -0.23229786121449392
            ]
        },
        {
            "positions": [
                0.6688580299052519,
                -1.1983499146307297,
                0.6919403286095352,
                0.6653783358026066,
                -0.09061887154421644,
                -0.246284003391018
            ]
        },
        {
            "positions": [
                0.7567937335272109,
                -1.2281668843040783,
                0.6378849097215069,
                0.5830797326727861,
                0.028468784443832718,
                -0.26027014556754213
            ]
        },
        {
            "positions": [
                0.8447294371491697,
                -1.257983853977427,
                0.5838294908334787,
                0.5007811295429656,
                0.14755644043188187,
                -0.27425628774406624
            ]
        },
        {
            "positions": [
                0.9326651407711285,
                -1.2878008236507759,
                0.5297740719454505,
                0.41848252641314554,
                0.2666440964199306,
                -0.2882424299205903
            ]
        },
        {
            "positions": [
                1.0206008443930874,
                -1.3176177933241244,
                0.475718653057422,
                0.336183923283325,
                0.3857317524079793,
                -0.30222857209711446
            ]
        },
        {
            "positions": [
                1.1085365480150462,
                -1.3474347629974732,
                0.4216632341693938,
                0.2538853201535045,
                0.5048194083960285,
                -0.31621471427363856
            ]
        },
        {
            "positions": [
                1.196472251637005,
                -1.377251732670822,
                0.36760781528136555,
                0.17158671702368444,
                0.6239070643840772,
                -0.33020085645016267
            ]
        },
        {
            "positions": [
                1.284407955258964,
                -1.4070687023441706,
                0.31355239639333726,
                0.08928811389386372,
                0.7429947203721265,
                -0.3441869986266868
            ]
        },
        {
            "positions": [
                1.180973256473907,
                -1.3946606101589234,
                0.38768878459943157,
                0.048647328889712065,
                0.7317700604042546,
                -0.19250265732109015
            ]
        },
        {
            "positions": [
                1.0775385576888499,
                -1.382252517973676,
                0.4618251728055259,
                0.008006543885560408,
                0.7205454004363827,
                -0.040818316015493517
            ]
        },
        {
            "positions": [
                0.9741038589037929,
                -1.3698444257884288,
                0.5359615610116202,
                -0.03263424111859124,
                0.7093207404685108,
                0.11086602529010309
            ]
        },
        {
            "positions": [
                0.8706691601187357,
                -1.3574363336031814,
                0.6100979492177145,
                -0.0732750261227429,
                0.6980960805006389,
                0.26255036659569975
            ]
        },
        {
            "positions": [
                0.7672344613336788,
                -1.3450282414179342,
                0.6842343374238088,
                -0.11391581112689457,
                0.686871420532767,
                0.41423470790129635
            ]
        },
        {
            "positions": [
                0.6637997625486217,
                -1.332620149232687,
                0.7583707256299032,
                -0.15455659613104622,
                0.675646760564895,
                0.565919049206893
            ]
        },
        {
            "positions": [
                0.5603650637635645,
                -1.3202120570474396,
                0.8325071138359974,
                -0.1951973811351979,
                0.664422100597023,
                0.7176033905124897
            ]
        },
        {
            "positions": [
                0.4569303649785076,
                -1.3078039648621924,
                0.9066435020420918,
                -0.23583816613934955,
                0.6531974406291511,
                0.8692877318180863
            ]
        },
        {
            "positions": [
                0.3534956661934505,
                -1.295395872676945,
                0.9807798902481861,
                -0.27647895114350124,
                0.6419727806612792,
                1.0209720731236829
            ]
        },
        {
            "positions": [
                0.25006096740839356,
                -1.2829877804916978,
                1.0549162784542803,
                -0.3171197361476529,
                0.6307481206934072,
                1.1726564144292795
            ]
        },
        {
            "positions": [
                0.1466262686233364,
                -1.2705796883064506,
                1.1290526666603746,
                -0.35776052115180457,
                0.6195234607255353,
                1.324340755734876
            ]
        },
        {
            "positions": [
                0.04319156983827943,
                -1.2581715961212032,
                1.203189054866469,
                -0.39840130615595615,
                0.6082988007576634,
                1.4760250970404727
            ]
        },
        {
            "positions": [
                -0.060243128946777524,
                -1.245763503935956,
                1.2773254430725633,
                -0.43904209116010784,
                0.5970741407897915,
                1.627709438346069
            ]
        },
        {
            "positions": [
                -0.16367782773183492,
                -1.2333554117507086,
                1.3514618312786577,
                -0.47968287616425953,
                0.5858494808219196,
                1.7793937796516661
            ]
        },
        {
            "positions": [
                -0.2671125265168919,
                -1.2209473195654614,
                1.425598219484752,
                -0.5203236611684112,
                0.5746248208540476,
                1.9310781209572627
            ]
        },
        {
            "positions": [
                -0.37054722530194883,
                -1.2085392273802142,
                1.4997346076908462,
                -0.5609644461725628,
                0.5634001608861757,
                2.0827624622628593
            ]
        },
        {
            "positions": [
                -0.4739819240870058,
                -1.1961311351949668,
                1.5738709958969406,
                -0.6016052311767144,
                0.5521755009183038,
                2.2344468035684555
            ]
        },
        {
            "positions": [
                -0.577416622872063,
                -1.1837230430097196,
                1.648007384103035,
                -0.6422460161808662,
                0.5409508409504318,
                2.3861311448740525
            ]
        },
        {
            "positions": [
                -0.6808513216571199,
                -1.1713149508244722,
                1.7221437723091293,
                -0.6828868011850178,
                0.5297261809825599,
                2.537815486179649
            ]
        },
        {
            "positions": [
                -0.7842860204421769,
                -1.158906858639225,
                1.7962801605152234,
                -0.7235275861891695,
                0.5185015210146879,
                2.6894998274852457
            ]
        },
        {
            "positions": [
                -0.8877207192272338,
                -1.1464987664539779,
                1.8704165487213178,
                -0.764168371193321,
                0.507276861046816,
                2.841184168790842
            ]
        },
        {
            "positions": [
                -0.9911554180122912,
                -1.1340906742687304,
                1.9445529369274122,
                -0.8048091561974728,
                0.4960522010789441,
                2.992868510096439
            ]
        },
        {
            "positions": [
                -1.0945901167973482,
                -1.1216825820834833,
                2.0186893251335065,
                -0.8454499412016244,
                0.4848275411110722,
                3.1445528514020356
            ]
        }
    ]
}