{
    "goal": {
        "global_pose": {
            "orientation": {
                "w": 0.5084816262002911,
                "x": -0.4908360881923452,
                "y": 0.5182115481033761,
                "z": -0.48164630358495003
            },
            "position": {
                "x": 0.5540239810943604,
                "y": -0.46912469901144505,
                "z": 0.16403168439865112
            }
        },
        "name": "move_to_storage_B"
    },
    "id": "PRM_move_to_storage_B_20",
    "joint_names": [
        "shoulder_pan_joint",
        "shoulder_lift_joint",
        "elbow_joint",
        "wrist_1_joint",
        "wrist_2_joint",
        "wrist_3_joint"
    ],
    "metrics": {
        "cart_traj_len": 1.745439739626112,
        "distance_elbow_joint": 1.8415151933760865,
        "distance_shoulder_lift_joint": 0.45843044528124643,
        "distance_shoulder_pan_joint": 1.4790579026826698,
        "distance_wrist_1_joint": 2.9843623534002353,
        "distance_wrist_2_joint": 2.7120104734986934,
        "distance_wrist_3_joint": 3.132571757938491,
        "smoothness": 0.229272076349393,
        "time": 0.094991971,
        "traj_len": 3.5507672588015993,
        "weighted_distance": 4.956759472574126
    },
    "planner": "PRM",
    "start": {
        "state": {
            "elbow_joint": 1.664937868594044,
            "shoulder_lift_joint": -0.661644460510453,
            "shoulder_pan_joint": -0.9139846352900073,
            "wrist_1_joint": 2.146753192139373,
            "wrist_2_joint": -2.2341966793290973,
            "wrist_3_joint": 0.005466555786416001
        }
    },
    "waypoints": [
        {
            "positions": [
                -0.9139846352900073,
                -0.661644460510453,
                1.664937868594044,
                2.146753192139373,
                -2.2341966793290973,
                0.005466555786416001
            ]
        },
        {
            "positions": [
                -0.8265594535647718,
                -0.686167230685727,
                1.56188286071521,
                2.105623692791238,
                -2.165812492286518,
                0.03881449441940038
            ]
        },
        {
            "positions": [
                -0.7391342718395363,
                -0.7106900008610011,
                1.4588278528363758,
                2.064494193443103,
                -2.097428305243939,
                0.07216243305238476
            ]
        },
        {
            "positions": [
                -0.68649531986818,
                -0.732981817914076,
                1.3988820139356162,
                1.993965027863756,
                -2.014255793175247,
                0.1398561604838131
            ]
        },
        {
            "positions": [
                -0.6338563678968238,
                -0.755273634967151,
                1.3389361750348565,
                1.9234358622844088,
                -1.9310832811065555,
                0.20754988791524145
            ]
        },
        {
            "positions": [
                -0.5812174159254675,
                -0.777565452020226,
                1.2789903361340969,
                1.8529066967050614,
                -1.847910769037864,
                0.27524361534666975
            ]
        },
        {
            "positions": [
                -0.5285784639541113,
                -0.7998572690733009,
                1.2190444972333372,
                1.7823775311257142,
                -1.7647382569691723,
                0.3429373427780982
            ]
        },
        {
            "positions": [
                -0.475939511982755,
                -0.8221490861263759,
                1.1590986583325775,
                1.711848365546367,
                -1.6815657449004806,
                0.4106310702095265
            ]
        },
        {
            "positions": [
                -0.4233005600113988,
                -0.8444409031794509,
                1.0991528194318176,
                1.6413191999670198,
                -1.5983932328317891,
                0.4783247976409548
            ]
        },
        {
            "positions": [
                -0.37066160804004256,
                -0.8667327202325258,
                1.039206980531058,
                1.5707900343876724,
                -1.5152207207630974,
                0.5460185250723831
            ]
        },
        {
            "positions": [
                -0.31802265606868635,
                -0.8890245372856007,
                0.9792611416302983,
                1.5002608688083252,
                -1.4320482086944057,
                0.6137122525038116
            ]
        },
        {
            "positions": [
                -0.2653837040973301,
                -0.9113163543386757,
                0.9193153027295387,
                1.429731703228978,
                -1.348875696625714,
                0.6814059799352399
            ]
        },
        {
            "positions": [
                -0.3031317482559661,
                -0.9208053794047223,
                0.9691286039800651,
                1.3266707548430763,
                -1.2658443561350181,
                0.7930710860165884
            ]
        },
        {
            "positions": [
                -0.34087979241460215,
                -0.9302944044707688,
                1.0189419052305915,
                1.2236098064571743,
                -1.1828130156443222,
                0.9047361920979369
            ]
        },
        {
            "positions": [
                -0.3786278365732382,
                -0.9397834295368154,
                1.0687552064811179,
                1.1205488580712726,
                -1.0997816751536262,
                1.0164012981792854
            ]
        },
        {
            "positions": [
                -0.41637588073187415,
                -0.9492724546028619,
                1.1185685077316443,
                1.0174879096853706,
                -1.0167503346629303,
                1.1280664042606339
            ]
        },
        {
            "positions": [
                -0.45412392489051023,
                -0.9587614796689083,
                1.1683818089821707,
                0.9144269612994689,
                -0.9337189941722345,
                1.2397315103419824
            ]
        },
        {
            "positions": [
                -0.4918719690491462,
                -0.9682505047349549,
                1.218195110232697,
                0.811366012913567,
                -0.8506876536815386,
                1.3513966164233309
            ]
        },
        {
            "positions": [
                -0.5296200132077822,
                -0.9777395298010014,
                1.2680084114832235,
                0.7083050645276652,
                -0.7676563131908426,
                1.4630617225046794
            ]
        },
        {
            "positions": [
                -0.5673680573664183,
                -0.987228554867048,
                1.3178217127337502,
                0.6052441161417633,
                -0.6846249727001467,
                1.5747268285860279
            ]
        },
        {
            "positions": [
                -0.6051161015250544,
                -0.9967175799330945,
                1.3676350139842763,
                0.5021831677558614,
                -0.6015936322094507,
                1.6863919346673764
            ]
        },
        {
            "positions": [
                -0.6428641456836903,
                -1.0062066049991412,
                1.417448315234803,
                0.39912221936995973,
                -0.5185622917187549,
                1.7980570407487249
            ]
        },
        {
            "positions": [
                -0.6806121898423263,
                -1.0156956300651876,
                1.4672616164853292,
                0.29606127098405777,
                -0.43553095122805896,
                1.9097221468300734
            ]
        },
        {
            "positions": [
                -0.7183602340009623,
                -1.025184655131234,
                1.5170749177358558,
                0.19300032259815603,
                -0.35249961073736313,
                2.021387252911422
            ]
        },
        {
            "positions": [
                -0.7561082781595985,
                -1.0346736801972807,
                1.566888218986382,
                0.08993937421225406,
                -0.2694682702466671,
                2.1330523589927703
            ]
        },
        {
            "positions": [
                -0.7938563223182344,
                -1.044162705263327,
                1.6167015202369086,
                -0.013121574173647677,
                -0.18643692975597115,
                2.244717465074119
            ]
        },
        {
            "positions": [
                -0.8316043664768704,
                -1.0536517303293738,
                1.6665148214874348,
                -0.11618252255954942,
                -0.10340558926527543,
                2.356382571155467
            ]
        },
        {
            "positions": [
                -0.8693524106355064,
                -1.0631407553954202,
                1.7163281227379614,
                -0.21924347094545138,
                -0.020374248774579273,
                2.468047677236816
            ]
        },
        {
            "positions": [
                -0.9071004547941426,
                -1.0726297804614668,
                1.7661414239884876,
                -0.32230441933135334,
                0.06265709171611644,
                2.5797127833181643
            ]
        },
        {
            "positions": [
                -0.9448484989527786,
                -1.0821188055275133,
                1.8159547252390142,
                -0.4253653677172553,
                0.1456884322068126,
                2.691377889399513
            ]
        },
        {
            "positions": [
                -0.9825965431114145,
                -1.09160783059356,
                1.8657680264895407,
                -0.528426316103157,
                0.22871977269750832,
                2.8030429954808613
            ]
        },
        {
            "positions": [
                -1.0203445872700505,
                -1.1010968556596064,
                1.915581327740067,
                -0.6314872644890586,
                0.31175111318820425,
                2.91470810156221
            ]
        },
        {
            "positions": [
                -1.0580926314286867,
                -1.110585880725653,
                1.9653946289905935,
                -0.7345482128749605,
                0.3947824536789002,
                3.0263732076435583
            ]
        },
        {
            "positions": [
                -1.0958406755873227,
                -1.1200749057916994,
                2.01520793024112,
                -0.8376091612608624,
                0.477813794169596,
                3.138038313724907
            ]
        }
    ]
}