{
    "goal": {
        "global_pose": {
            "orientation": {
                "w": 0.5084816262002911,
                "x": -0.4908360881923452,
                "y": 0.5182115481033761,
                "z": -0.48164630358495003
            },
            "position": {
                "x": 0.5540239810943604,
                "y": -0.46912469901144505,
                "z": 0.16403168439865112
            }
        },
        "name": "move_to_storage_B"
    },
    "id": "PRM_move_to_storage_B_106",
    "joint_names": [
        "shoulder_pan_joint",
        "shoulder_lift_joint",
        "elbow_joint",
        "wrist_1_joint",
        "wrist_2_joint",
        "wrist_3_joint"
    ],
    "metrics": {
        "cart_traj_len": 1.2112071984438366,
        "distance_elbow_joint": 0.36196030620352015,
        "distance_shoulder_lift_joint": 0.7210904758626966,
        "distance_shoulder_pan_joint": 1.1901080269862367,
        "distance_wrist_1_joint": 4.160791243664816,
        "distance_wrist_2_joint": 3.094480873907992,
        "distance_wrist_3_joint": 4.223368912345967,
        "smoothness": 0.5074420245863989,
        "time": 0.472661788,
        "traj_len": 3.708341925843844,
        "weighted_distance": 5.427136425522761
    },
    "planner": "PRM",
    "start": {
        "state": {
            "elbow_joint": 1.664937868594044,
            "shoulder_lift_joint": -0.661644460510453,
            "shoulder_pan_joint": -0.9139846352900073,
            "wrist_1_joint": 2.146753192139373,
            "wrist_2_joint": -2.2341966793290973,
            "wrist_3_joint": 0.005466555786416001
        }
    },
    "waypoints": [
        {
            "positions": [
                -0.9139846352900073,
                -0.661644460510453,
                1.664937868594044,
                2.146753192139373,
                -2.2341966793290973,
                0.005466555786416001
            ]
        },
        {
            "positions": [
                -0.850984748519014,
                -0.7354464444492437,
                1.7094504615654664,
                2.219790679536203,
                -2.2586704101880684,
                0.07391442242944074
            ]
        },
        {
            "positions": [
                -0.7879848617480207,
                -0.8092484283880342,
                1.753963054536889,
                2.2928281669330333,
                -2.2831441410470394,
                0.14236228907246548
            ]
        },
        {
            "positions": [
                -0.7249849749770274,
                -0.8830504123268248,
                1.7984756475083117,
                2.365865654329863,
                -2.3076178719060105,
                0.21081015571549022
            ]
        },
        {
            "positions": [
                -0.6619850882060341,
                -0.9568523962656155,
                1.8429882404797342,
                2.4389031417266933,
                -2.332091602764981,
                0.279258022358515
            ]
        },
        {
            "positions": [
                -0.5989852014350409,
                -1.0306543802044061,
                1.8875008334511567,
                2.511940629123523,
                -2.3565653336239523,
                0.3477058890015397
            ]
        },
        {
            "positions": [
                -0.5359853146640475,
                -1.1044563641431968,
                1.9320134264225794,
                2.584978116520353,
                -2.3810390644829234,
                0.41615375564456447
            ]
        },
        {
            "positions": [
                -0.47298542789305426,
                -1.1782583480819873,
                1.976526019394002,
                2.6580156039171827,
                -2.4055127953418944,
                0.48460162228758924
            ]
        },
        {
            "positions": [
                -0.409985541122061,
                -1.252060332020778,
                2.0210386123654245,
                2.731053091314013,
                -2.4299865262008655,
                0.5530494889306139
            ]
        },
        {
            "positions": [
                -0.4344894315798571,
                -1.247393381865336,
                2.0208293422785624,
                2.603321257582221,
                -2.3264618466638574,
                0.4217714182448364
            ]
        },
        {
            "positions": [
                -0.45899332203765314,
                -1.2427264317098943,
                2.0206200721917003,
                2.475589423850429,
                -2.2229371671268496,
                0.29049334755905887
            ]
        },
        {
            "positions": [
                -0.48349721249544925,
                -1.2380594815544523,
                2.020410802104838,
                2.347857590118637,
                -2.1194124875898415,
                0.15921527687328135
            ]
        },
        {
            "positions": [
                -0.5080011029532453,
                -1.2333925313990106,
                2.020201532017976,
                2.220125756386845,
                -2.0158878080528337,
                0.027937206187503838
            ]
        },
        {
            "positions": [
                -0.5325049934110414,
                -1.2287255812435687,
                2.019992261931114,
                2.0923939226550528,
                -1.9123631285158256,
                -0.10334086449827373
            ]
        },
        {
            "positions": [
                -0.5570088838688375,
                -1.224058631088127,
                2.019782991844252,
                1.9646620889232609,
                -1.8088384489788178,
                -0.2346189351840512
            ]
        },
        {
            "positions": [
                -0.5815127743266335,
                -1.219391680932685,
                2.0195737217573897,
                1.8369302551914688,
                -1.7053137694418097,
                -0.36589700586982876
            ]
        },
        {
            "positions": [
                -0.6060166647844296,
                -1.214724730777243,
                2.0193644516705276,
                1.709198421459677,
                -1.6017890899048017,
                -0.4971750765556062
            ]
        },
        {
            "positions": [
                -0.6305205552422257,
                -1.2100577806218014,
                2.0191551815836655,
                1.5814665877278846,
                -1.4982644103677938,
                -0.6284531472413839
            ]
        },
        {
            "positions": [
                -0.6550244457000218,
                -1.2053908304663594,
                2.0189459114968034,
                1.4537347539960928,
                -1.3947397308307856,
                -0.7597312179271614
            ]
        },
        {
            "positions": [
                -0.6795283361578179,
                -1.2007238803109177,
                2.0187366414099412,
                1.3260029202643007,
                -1.291215051293778,
                -0.8910092886129388
            ]
        },
        {
            "positions": [
                -0.704032226615614,
                -1.1960569301554758,
                2.018527371323079,
                1.1982710865325088,
                -1.18769037175677,
                -1.0222873592987163
            ]
        },
        {
            "positions": [
                -0.7285361170734101,
                -1.191389980000034,
                2.018318101236217,
                1.0705392528007165,
                -1.0841656922197618,
                -1.153565429984494
            ]
        },
        {
            "positions": [
                -0.7530400075312061,
                -1.186723029844592,
                2.0181088311493545,
                0.9428074190689246,
                -0.9806410126827538,
                -1.2848435006702714
            ]
        },
        {
            "positions": [
                -0.7775438979890021,
                -1.1820560796891502,
                2.0178995610624924,
                0.8150755853371328,
                -0.8771163331457459,
                -1.4161215713560489
            ]
        },
        {
            "positions": [
                -0.8020477884467982,
                -1.1773891295337084,
                2.0176902909756302,
                0.6873437516053409,
                -0.7735916536087379,
                -1.5473996420418263
            ]
        },
        {
            "positions": [
                -0.8265516789045944,
                -1.1727221793782665,
                2.017481020888768,
                0.5596119178735486,
                -0.67006697407173,
                -1.678677712727604
            ]
        },
        {
            "positions": [
                -0.8510555693623905,
                -1.1680552292228248,
                2.017271750801906,
                0.43188008414175627,
                -0.5665422945347218,
                -1.8099557834133817
            ]
        },
        {
            "positions": [
                -0.8755594598201866,
                -1.1633882790673828,
                2.017062480715044,
                0.3041482504099644,
                -0.4630176149977139,
                -1.941233854099159
            ]
        },
        {
            "positions": [
                -0.9000633502779827,
                -1.1587213289119411,
                2.016853210628182,
                0.17641641667817254,
                -0.3594929354607057,
                -2.0725119247849366
            ]
        },
        {
            "positions": [
                -0.9245672407357788,
                -1.1540543787564992,
                2.0166439405413197,
                0.04868458294638023,
                -0.255968255923698,
                -2.2037899954707143
            ]
        },
        {
            "positions": [
                -0.9490711311935748,
                -1.1493874286010572,
                2.0164346704544576,
                -0.07904725078541164,
                -0.15244357638669026,
                -2.3350680661564915
            ]
        },
        {
            "positions": [
                -0.9735750216513709,
                -1.1447204784456155,
                2.0162254003675955,
                -0.2067790845172035,
                -0.04891889684968209,
                -2.466346136842269
            ]
        },
        {
            "positions": [
                -0.998078912109167,
                -1.1400535282901736,
                2.0160161302807333,
                -0.33451091824899537,
                0.05460578268732563,
                -2.5976242075280465
            ]
        },
        {
            "positions": [
                -1.022582802566963,
                -1.1353865781347319,
                2.0158068601938712,
                -0.4622427519807877,
                0.15813046222433425,
                -2.728902278213824
            ]
        },
        {
            "positions": [
                -1.047086693024759,
                -1.13071962797929,
                2.015597590107009,
                -0.58997458571258,
                0.26165514176134197,
                -2.860180348899602
            ]
        },
        {
            "positions": [
                -1.0715905834825552,
                -1.1260526778238482,
                2.015388320020147,
                -0.7177064194443719,
                0.36517982129835014,
                -2.991458419585379
            ]
        },
        {
            "positions": [
                -1.0960944739403513,
                -1.1213857276684063,
                2.015179049933285,
                -0.8454382531761638,
                0.46870450083535803,
                -3.1227364902711567
            ]
        }
    ]
}