{
    "goal": {
        "global_pose": {
            "orientation": {
                "w": -0.00223480608172531,
                "x": 0.0024358444001904467,
                "y": 0.7094548369677653,
                "z": -0.704743149386269
            },
            "position": {
                "x": 0.6205249238014221,
                "y": -0.6371506643295288,
                "z": 0.19426114857196808
            }
        },
        "name": "move_to_magneteinheit_B"
    },
    "id": "PRM_move_to_magneteinheit_B_18",
    "joint_names": [
        "shoulder_pan_joint",
        "shoulder_lift_joint",
        "elbow_joint",
        "wrist_1_joint",
        "wrist_2_joint",
        "wrist_3_joint"
    ],
    "metrics": {
        "cart_traj_len": 3.4480398084920916,
        "distance_elbow_joint": 5.659480089293654,
        "distance_shoulder_lift_joint": 3.314978914586117,
        "distance_shoulder_pan_joint": 2.7161811766018666,
        "distance_wrist_1_joint": 3.1325068727524688,
        "distance_wrist_2_joint": 1.6952825069324153,
        "distance_wrist_3_joint": 1.843390431134886,
        "smoothness": 0.6946910820315441,
        "time": 0.824795232,
        "traj_len": 4.285069426660602,
        "weighted_distance": 5.184244422599699
    },
    "planner": "PRM",
    "start": {
        "state": {
            "elbow_joint": 2.6216224122426386,
            "shoulder_lift_joint": -1.4174107377796124,
            "shoulder_pan_joint": 0.7066234856936794,
            "wrist_1_joint": 1.9546482284002225,
            "wrist_2_joint": -0.7096286983471962,
            "wrist_3_joint": 0.005740856962016249
        }
    },
    "waypoints": [
        {
            "positions": [
                0.7066234856936794,
                -1.4174107377796124,
                2.6216224122426386,
                1.9546482284002225,
                -0.7096286983471962,
                0.005740856962016249
            ]
        },
        {
            "positions": [
                0.7004532243485311,
                -1.3968874611596604,
                2.598929998535428,
                1.8083294476460932,
                -0.7247365468745982,
                0.08703143554298022
            ]
        },
        {
            "positions": [
                0.6942829630033828,
                -1.3763641845397083,
                2.5762375848282177,
                1.6620106668919639,
                -0.7398443954020003,
                0.1683220141239442
            ]
        },
        {
            "positions": [
                0.6881127016582345,
                -1.3558409079197564,
                2.5535451711210073,
                1.5156918861378346,
                -0.7549522439294023,
                0.2496125927049082
            ]
        },
        {
            "positions": [
                0.7329480414568658,
                -1.4646913491791296,
                2.558473986048299,
                1.4380493753839398,
                -0.6856507888715841,
                0.2082530783831273
            ]
        },
        {
            "positions": [
                0.7777833812554971,
                -1.5735417904385025,
                2.5634028009755903,
                1.360406864630045,
                -0.6163493338137659,
                0.16689356406134637
            ]
        },
        {
            "positions": [
                0.8226187210541283,
                -1.6823922316978757,
                2.5683316159028817,
                1.2827643538761502,
                -0.5470478787559476,
                0.12553404973956547
            ]
        },
        {
            "positions": [
                0.8674540608527596,
                -1.7912426729572486,
                2.5732604308301736,
                1.2051218431222552,
                -0.4777464236981295,
                0.08417453541778455
            ]
        },
        {
            "positions": [
                0.9122894006513909,
                -1.9000931142166217,
                2.578189245757465,
                1.1274793323683605,
                -0.4084449686403112,
                0.04281502109600363
            ]
        },
        {
            "positions": [
                0.9571247404500222,
                -2.008943555475995,
                2.5831180606847566,
                1.0498368216144658,
                -0.33914351358249306,
                0.0014555067742227368
            ]
        },
        {
            "positions": [
                1.0019600802486535,
                -2.117793996735368,
                2.588046875612048,
                0.9721943108605708,
                -0.2698420585246748,
                -0.039904007547558185
            ]
        },
        {
            "positions": [
                1.0741450759191906,
                -2.079730948273756,
                2.412806692647476,
                0.9339976118904992,
                -0.2356859613731862,
                -0.015574629666388624
            ]
        },
        {
            "positions": [
                1.1463300715897278,
                -2.0416678998121447,
                2.237566509682904,
                0.8958009129204277,
                -0.20152986422169758,
                0.008754748214780936
            ]
        },
        {
            "positions": [
                1.2185150672602652,
                -2.003604851350533,
                2.062326326718332,
                0.8576042139503561,
                -0.16737376707020896,
                0.0330841260959505
            ]
        },
        {
            "positions": [
                1.2907000629308023,
                -1.9655418028889213,
                1.88708614375376,
                0.8194075149802846,
                -0.13321766991872036,
                0.057413503977120056
            ]
        },
        {
            "positions": [
                1.3628850586013397,
                -1.9274787544273095,
                1.711845960789188,
                0.781210816010213,
                -0.09906157276723174,
                0.08174288185828964
            ]
        },
        {
            "positions": [
                1.4350700542718768,
                -1.889415705965698,
                1.5366057778246163,
                0.7430141170401414,
                -0.06490547561574314,
                0.10607225973945919
            ]
        },
        {
            "positions": [
                1.507255049942414,
                -1.8513526575040862,
                1.3613655948600443,
                0.7048174180700699,
                -0.030749378464254518,
                0.13040163762062876
            ]
        },
        {
            "positions": [
                1.5794400456129511,
                -1.8132896090424746,
                1.1861254118954723,
                0.6666207190999983,
                0.0034067186872340782,
                0.1547310155017983
            ]
        },
        {
            "positions": [
                1.6516250412834885,
                -1.775226560580863,
                1.0108852289309003,
                0.6284240201299267,
                0.03756281583872273,
                0.1790603933829679
            ]
        },
        {
            "positions": [
                1.7238100369540257,
                -1.7371635121192512,
                0.8356450459663283,
                0.5902273211598552,
                0.07171891299021133,
                0.20338977126413746
            ]
        },
        {
            "positions": [
                1.7959950326245628,
                -1.6991004636576397,
                0.6604048630017565,
                0.5520306221897836,
                0.10587501014169992,
                0.227719149145307
            ]
        },
        {
            "positions": [
                1.8681800282951,
                -1.661037415196028,
                0.4851646800371845,
                0.513833923219712,
                0.14003110729318852,
                0.25204852702647657
            ]
        },
        {
            "positions": [
                1.9403650239656374,
                -1.6229743667344163,
                0.3099244970726125,
                0.47563722424964044,
                0.17418720444467717,
                0.27637790490764613
            ]
        },
        {
            "positions": [
                2.0125500196361745,
                -1.5849113182728047,
                0.1346843141080405,
                0.4374405252795689,
                0.20834330159616576,
                0.3007072827888157
            ]
        },
        {
            "positions": [
                2.0847350153067117,
                -1.5468482698111932,
                -0.04055586885653151,
                0.3992438263094974,
                0.24249939874765436,
                0.32503666066998527
            ]
        },
        {
            "positions": [
                2.156920010977249,
                -1.5087852213495814,
                -0.2157960518211035,
                0.3610471273394258,
                0.27665549589914296,
                0.3493660385511548
            ]
        },
        {
            "positions": [
                2.229105006647786,
                -1.4707221728879698,
                -0.39103623478567506,
                0.3228504283693543,
                0.31081159305063155,
                0.37369541643232435
            ]
        },
        {
            "positions": [
                2.3012900023183236,
                -1.4326591244263582,
                -0.5662764177502475,
                0.2846537293992826,
                0.34496769020212026,
                0.39802479431349397
            ]
        },
        {
            "positions": [
                2.3734749979888607,
                -1.3945960759647464,
                -0.7415166007148195,
                0.24645703042921097,
                0.37912378735360885,
                0.42235417219466354
            ]
        },
        {
            "positions": [
                2.445659993659398,
                -1.3565330275031349,
                -0.9167567836793915,
                0.20826033145913947,
                0.41327988450509745,
                0.4466835500758331
            ]
        },
        {
            "positions": [
                2.517844989329935,
                -1.3184699790415233,
                -1.091996966643963,
                0.17006363248906786,
                0.44743598165658605,
                0.47101292795700267
            ]
        },
        {
            "positions": [
                2.590029985000472,
                -1.2804069305799115,
                -1.267237149608535,
                0.13186693351899637,
                0.48159207880807464,
                0.4953423058381722
            ]
        },
        {
            "positions": [
                2.6622149806710094,
                -1.2423438821183,
                -1.442477332573107,
                0.09367023454892487,
                0.5157481759595632,
                0.5196716837193417
            ]
        },
        {
            "positions": [
                2.7343999763415465,
                -1.2042808336566884,
                -1.617717515537679,
                0.05547353557885326,
                0.5499042731110518,
                0.5440010616005113
            ]
        },
        {
            "positions": [
                2.806584972012084,
                -1.1662177851950766,
                -1.792957698502251,
                0.017276836608781543,
                0.5840603702625405,
                0.5683304394816809
            ]
        },
        {
            "positions": [
                2.8787699676826213,
                -1.1281547367334648,
                -1.968197881466823,
                -0.020919862361289954,
                0.6182164674140291,
                0.5926598173628504
            ]
        },
        {
            "positions": [
                2.9509549633531584,
                -1.0900916882718532,
                -2.143438064431395,
                -0.05911656133136156,
                0.6523725645655177,
                0.6169891952440201
            ]
        },
        {
            "positions": [
                3.0231399590236956,
                -1.0520286398102416,
                -2.318678247395967,
                -0.09731326030143306,
                0.6865286617170063,
                0.6413185731251896
            ]
        },
        {
            "positions": [
                2.9901724012781536,
                -1.1816368797180166,
                -2.2595713364256973,
                0.000918138248640954,
                0.6675761111984789,
                0.584156799082755
            ]
        },
        {
            "positions": [
                2.9572048435326117,
                -1.3112451196257915,
                -2.200464425455428,
                0.09914953679871497,
                0.6486235606799514,
                0.5269950250403205
            ]
        },
        {
            "positions": [
                2.9242372857870698,
                -1.4408533595335664,
                -2.141357514485158,
                0.19738093534878898,
                0.629671010161424,
                0.4698332509978859
            ]
        },
        {
            "positions": [
                2.891269728041528,
                -1.5704615994413413,
                -2.082250603514889,
                0.295612333898863,
                0.6107184596428966,
                0.41267147695545137
            ]
        },
        {
            "positions": [
                2.858302170295986,
                -1.7000698393491165,
                -2.023143692544619,
                0.393843732448937,
                0.5917659091243692,
                0.3555097029130168
            ]
        },
        {
            "positions": [
                2.8253346125504444,
                -1.8296780792568912,
                -1.9640367815743496,
                0.492075130999011,
                0.5728133586058417,
                0.29834792887058226
            ]
        },
        {
            "positions": [
                2.7923670548049024,
                -1.9592863191646663,
                -1.90492987060408,
                0.590306529549085,
                0.5538608080873143,
                0.24118615482814765
            ]
        },
        {
            "positions": [
                2.7593994970593605,
                -2.0888945590724415,
                -1.8458229596338103,
                0.688537928099159,
                0.5349082575687869,
                0.1840243807857131
            ]
        },
        {
            "positions": [
                2.7264319393138186,
                -2.218502798980216,
                -1.7867160486635407,
                0.786769326649233,
                0.5159557070502594,
                0.12686260674327854
            ]
        },
        {
            "positions": [
                2.6934643815682766,
                -2.348111038887991,
                -1.7276091376932712,
                0.8850007251993071,
                0.497003156531732,
                0.06970083270084404
            ]
        },
        {
            "positions": [
                2.6604968238227347,
                -2.477719278795766,
                -1.6685022267230016,
                0.983232123749381,
                0.4780506060132046,
                0.012539058658409407
            ]
        }
    ]
}