{
    "goal": {
        "global_pose": {
            "orientation": {
                "w": 0.5084816262002911,
                "x": -0.4908360881923452,
                "y": 0.5182115481033761,
                "z": -0.48164630358495003
            },
            "position": {
                "x": 0.5540239810943604,
                "y": -0.46912469901144505,
                "z": 0.16403168439865112
            }
        },
        "name": "move_to_storage_B"
    },
    "id": "PRM_move_to_storage_B_59",
    "joint_names": [
        "shoulder_pan_joint",
        "shoulder_lift_joint",
        "elbow_joint",
        "wrist_1_joint",
        "wrist_2_joint",
        "wrist_3_joint"
    ],
    "metrics": {
        "cart_traj_len": 3.113573407810514,
        "distance_elbow_joint": 0.779880907025372,
        "distance_shoulder_lift_joint": 2.5021013412048014,
        "distance_shoulder_pan_joint": 3.7081896382783164,
        "distance_wrist_1_joint": 4.491246202975097,
        "distance_wrist_2_joint": 2.7810940442140586,
        "distance_wrist_3_joint": 3.1336145733666583,
        "smoothness": 0.22636041852623165,
        "time": 0.134859865,
        "traj_len": 4.170866421628042,
        "weighted_distance": 5.561986704495687
    },
    "planner": "PRM",
    "start": {
        "state": {
            "elbow_joint": 1.664937868594044,
            "shoulder_lift_joint": -0.661644460510453,
            "shoulder_pan_joint": -0.9139846352900073,
            "wrist_1_joint": 2.146753192139373,
            "wrist_2_joint": -2.2341966793290973,
            "wrist_3_joint": 0.005466555786416001
        }
    },
    "waypoints": [
        {
            "positions": [
                -0.9139846352900073,
                -0.661644460510453,
                1.664937868594044,
                2.146753192139373,
                -2.2341966793290973,
                0.005466555786416001
            ]
        },
        {
            "positions": [
                -0.8526007297645843,
                -0.7118139244399528,
                1.6832315100984943,
                2.0302878627835366,
                -2.1519474462149013,
                -0.05150662445752735
            ]
        },
        {
            "positions": [
                -0.7912168242391613,
                -0.7619833883694527,
                1.7015251516029444,
                1.9138225334277004,
                -2.069698213100705,
                -0.1084798047014707
            ]
        },
        {
            "positions": [
                -0.7298329187137383,
                -0.8121528522989525,
                1.7198187931073947,
                1.797357204071864,
                -1.9874489799865087,
                -0.16545298494541402
            ]
        },
        {
            "positions": [
                -0.6684490131883153,
                -0.8623223162284523,
                1.738112434611845,
                1.6808918747160275,
                -1.9051997468723125,
                -0.2224261651893574
            ]
        },
        {
            "positions": [
                -0.6070651076628923,
                -0.9124917801579522,
                1.7564060761162952,
                1.5644265453601909,
                -1.8229505137581166,
                -0.2793993454333007
            ]
        },
        {
            "positions": [
                -0.5456812021374693,
                -0.962661244087452,
                1.7746997176207455,
                1.4479612160043547,
                -1.7407012806439204,
                -0.336372525677244
            ]
        },
        {
            "positions": [
                -0.4842972966120463,
                -1.0128307080169519,
                1.7929933591251959,
                1.331495886648518,
                -1.6584520475297242,
                -0.39334570592118745
            ]
        },
        {
            "positions": [
                -0.42291339108662335,
                -1.0630001719464517,
                1.8112870006296462,
                1.2150305572926818,
                -1.576202814415528,
                -0.45031888616513077
            ]
        },
        {
            "positions": [
                -0.36152948556120035,
                -1.1131696358759515,
                1.8295806421340963,
                1.0985652279368454,
                -1.4939535813013318,
                -0.5072920664090741
            ]
        },
        {
            "positions": [
                -0.3001455800357773,
                -1.1633390998054511,
                1.8478742836385467,
                0.9820998985810088,
                -1.4117043481871356,
                -0.5642652466530175
            ]
        },
        {
            "positions": [
                -0.23876167451035435,
                -1.2135085637349512,
                1.8661679251429968,
                0.8656345692251726,
                -1.3294551150729395,
                -0.6212384268969608
            ]
        },
        {
            "positions": [
                -0.1773777689849314,
                -1.2636780276644508,
                1.8844615666474471,
                0.7491692398693361,
                -1.2472058819587435,
                -0.6782116071409041
            ]
        },
        {
            "positions": [
                -0.11599386345950835,
                -1.3138474915939509,
                1.9027552081518975,
                0.6327039105134995,
                -1.164956648844547,
                -0.7351847873848476
            ]
        },
        {
            "positions": [
                -0.054609957934085296,
                -1.3640169555234505,
                1.9210488496563478,
                0.5162385811576631,
                -1.082707415730351,
                -0.792157967628791
            ]
        },
        {
            "positions": [
                0.006773947591337537,
                -1.4141864194529505,
                1.939342491160798,
                0.3997732518018269,
                -1.000458182616155,
                -0.8491311478727342
            ]
        },
        {
            "positions": [
                0.06815785311676059,
                -1.4643558833824502,
                1.9576361326652483,
                0.28330792244599023,
                -0.9182089495019587,
                -0.9061043281166776
            ]
        },
        {
            "positions": [
                0.12954175864218376,
                -1.5145253473119502,
                1.9759297741696986,
                0.1668425930901538,
                -0.8359597163877626,
                -0.963077508360621
            ]
        },
        {
            "positions": [
                0.1909256641676066,
                -1.5646948112414498,
                1.9942234156741487,
                0.05037726373431761,
                -0.7537104832735664,
                -1.0200506886045642
            ]
        },
        {
            "positions": [
                0.25230956969302964,
                -1.6148642751709499,
                2.012517057178599,
                -0.06608806562151903,
                -0.6714612501593702,
                -1.0770238688485076
            ]
        },
        {
            "positions": [
                0.3136934752184527,
                -1.6650337391004495,
                2.0308106986830494,
                -0.18255339497735568,
                -0.589212017045174,
                -1.133997049092451
            ]
        },
        {
            "positions": [
                0.37507738074387553,
                -1.7152032030299493,
                2.0491043401874998,
                -0.2990187243331919,
                -0.506962783930978,
                -1.1909702293363942
            ]
        },
        {
            "positions": [
                0.4364612862692986,
                -1.7653726669594492,
                2.0673979816919497,
                -0.4154840536890281,
                -0.42471355081678186,
                -1.2479434095803377
            ]
        },
        {
            "positions": [
                0.49784519179472164,
                -1.815542130888949,
                2.0856916231964,
                -0.5319493830448647,
                -0.34246431770258545,
                -1.3049165898242812
            ]
        },
        {
            "positions": [
                0.5592290973201445,
                -1.8657115948184488,
                2.1039852647008503,
                -0.6484147124007009,
                -0.2602150845883895,
                -1.3618897700682242
            ]
        },
        {
            "positions": [
                0.6206130028455674,
                -1.9158810587479487,
                2.1222789062053007,
                -0.7648800417565376,
                -0.17796585147419322,
                -1.4188629503121677
            ]
        },
        {
            "positions": [
                0.6775396712863451,
                -1.9635042088069974,
                2.139978040896609,
                -0.8789056265715942,
                -0.09634702837964808,
                -1.477656842997717
            ]
        },
        {
            "positions": [
                0.7344663397271227,
                -2.0111273588660463,
                2.157677175587917,
                -0.992931211386651,
                -0.014728205285102935,
                -1.5364507356832662
            ]
        },
        {
            "positions": [
                0.763293207628276,
                -2.0439912538048444,
                2.172496932451029,
                -1.098691079953555,
                0.06921006292663102,
                -1.6137222538026461
            ]
        },
        {
            "positions": [
                0.7921200755294293,
                -2.0768551487436424,
                2.1873166893141414,
                -1.204450948520459,
                0.15314833113836498,
                -1.6909937719220263
            ]
        },
        {
            "positions": [
                0.8209469434305825,
                -2.10971904368244,
                2.2021364461772537,
                -1.3102108170873632,
                0.23708659935009896,
                -1.7682652900414064
            ]
        },
        {
            "positions": [
                0.8497738113317358,
                -2.142582938621238,
                2.2169562030403656,
                -1.4159706856542673,
                0.3210248675618329,
                -1.8455368081607864
            ]
        },
        {
            "positions": [
                0.8126492085941138,
                -2.1357981462134243,
                2.221716362284399,
                -1.4751482749634548,
                0.3858910826972935,
                -1.938502245111266
            ]
        },
        {
            "positions": [
                0.7755246058564917,
                -2.12901335380561,
                2.2264765215284332,
                -1.5343258642726423,
                0.4507572978327541,
                -2.0314676820617454
            ]
        },
        {
            "positions": [
                0.7384000031188698,
                -2.1222285613977965,
                2.231236680772467,
                -1.5935034535818298,
                0.5156235129682147,
                -2.124433119012225
            ]
        },
        {
            "positions": [
                0.5973955890078155,
                -2.045243293253906,
                2.214807288861163,
                -1.535735026100761,
                0.5132178320515417,
                -2.201641957363611
            ]
        },
        {
            "positions": [
                0.45639117489676123,
                -1.968258025110016,
                2.198377896949859,
                -1.477966598619692,
                0.5108121511348688,
                -2.2788507957149973
            ]
        },
        {
            "positions": [
                0.315386760785707,
                -1.8912727569661254,
                2.1819485050385556,
                -1.4201981711386231,
                0.5084064702181957,
                -2.356059634066383
            ]
        },
        {
            "positions": [
                0.1743823466746527,
                -1.8142874888222351,
                2.1655191131272518,
                -1.362429743657554,
                0.5060007893015227,
                -2.433268472417769
            ]
        },
        {
            "positions": [
                0.033377932563598445,
                -1.7373022206783448,
                2.149089721215948,
                -1.3046613161764853,
                0.5035951083848498,
                -2.510477310769155
            ]
        },
        {
            "positions": [
                -0.1076264815474558,
                -1.6603169525344543,
                2.132660329304644,
                -1.2468928886954163,
                0.5011894274681767,
                -2.587686149120541
            ]
        },
        {
            "positions": [
                -0.24863089565851004,
                -1.583331684390564,
                2.1162309373933406,
                -1.1891244612143475,
                0.4987837465515037,
                -2.6648949874719268
            ]
        },
        {
            "positions": [
                -0.3896353097695644,
                -1.5063464162466738,
                2.0998015454820367,
                -1.1313560337332786,
                0.4963780656348307,
                -2.742103825823313
            ]
        },
        {
            "positions": [
                -0.5306397238806186,
                -1.4293611481027835,
                2.083372153570733,
                -1.0735876062522096,
                0.49397238471815774,
                -2.819312664174699
            ]
        },
        {
            "positions": [
                -0.6716441379916729,
                -1.3523758799588932,
                2.066942761659429,
                -1.0158191787711406,
                0.4915667038014847,
                -2.8965215025260846
            ]
        },
        {
            "positions": [
                -0.8126485521027271,
                -1.275390611815003,
                2.0505133697481255,
                -0.9580507512900719,
                0.4891610228848117,
                -2.9737303408774705
            ]
        },
        {
            "positions": [
                -0.9536529662137814,
                -1.1984053436711124,
                2.0340839778368216,
                -0.9002823238090029,
                0.4867553419681387,
                -3.0509391792288567
            ]
        },
        {
            "positions": [
                -1.0946573803248356,
                -1.1214200755272221,
                2.0176545859255177,
                -0.842513896327934,
                0.4843496610514657,
                -3.1281480175802425
            ]
        }
    ]
}