{
    "goal": {
        "global_pose": {
            "orientation": {
                "w": 0.005598929693374612,
                "x": 0.007748599140229565,
                "y": 0.7110244013736278,
                "z": -0.7031023480610252
            },
            "position": {
                "x": 0.1141497679147869,
                "y": -0.7141253447532654,
                "z": 0.3711530566215515
            }
        },
        "name": "move_to_auspresseinheit_B"
    },
    "id": "PRM_move_to_auspresseinheit_B_134",
    "joint_names": [
        "shoulder_pan_joint",
        "shoulder_lift_joint",
        "elbow_joint",
        "wrist_1_joint",
        "wrist_2_joint",
        "wrist_3_joint"
    ],
    "metrics": {
        "cart_traj_len": 0.5641932463570087,
        "distance_elbow_joint": 0.06317290471934411,
        "distance_shoulder_lift_joint": 0.2932149622284721,
        "distance_shoulder_pan_joint": 0.5747192716165226,
        "distance_wrist_1_joint": 0.32526759852228493,
        "distance_wrist_2_joint": 1.0016982503425624,
        "distance_wrist_3_joint": 0.00017485100037806234,
        "smoothness": 0.0,
        "time": 0.028656665,
        "traj_len": 1.502746764571318,
        "weighted_distance": 1.893558393421013
    },
    "planner": "PRM",
    "start": {
        "state": {
            "elbow_joint": 2.0193083361928714,
            "shoulder_lift_joint": -1.1220246554650708,
            "shoulder_pan_joint": -1.0952077554168747,
            "wrist_1_joint": -0.8559753972642168,
            "wrist_2_joint": 0.4759566250798843,
            "wrist_3_joint": -3.1240929996934557
        }
    },
    "waypoints": [
        {
            "positions": [
                -1.0952077554168747,
                -1.1220246554650708,
                2.0193083361928714,
                -0.8559753972642168,
                0.4759566250798843,
                -3.1240929996934557
            ]
        },
        {
            "positions": [
                -1.190994300686295,
                -1.1708938158364828,
                2.0087795187396473,
                -0.8017641308438359,
                0.6429063334703113,
                -3.1240638578600595
            ]
        },
        {
            "positions": [
                -1.2867808459557155,
                -1.2197629762078948,
                1.9982507012864235,
                -0.7475528644234551,
                0.8098560418607383,
                -3.124034716026663
            ]
        },
        {
            "positions": [
                -1.382567391225136,
                -1.2686321365793067,
                1.9877218838331994,
                -0.6933415980030744,
                0.9768057502511656,
                -3.1240055741932666
            ]
        },
        {
            "positions": [
                -1.4783539364945564,
                -1.317501296950719,
                1.9771930663799753,
                -0.6391303315826935,
                1.1437554586415926,
                -3.1239764323598704
            ]
        },
        {
            "positions": [
                -1.5741404817639768,
                -1.366370457322131,
                1.9666642489267514,
                -0.5849190651623126,
                1.3107051670320198,
                -3.123947290526474
            ]
        },
        {
            "positions": [
                -1.6699270270333972,
                -1.415239617693543,
                1.9561354314735273,
                -0.5307077987419319,
                1.4776548754224468,
                -3.1239181486930776
            ]
        }
    ]
}