{
    "goal": {
        "global_pose": {
            "orientation": {
                "w": -0.00223480608172531,
                "x": 0.0024358444001904467,
                "y": 0.7094548369677653,
                "z": -0.704743149386269
            },
            "position": {
                "x": 0.6205249238014221,
                "y": -0.6371506643295288,
                "z": 0.19426114857196808
            }
        },
        "name": "move_to_magneteinheit_B"
    },
    "id": "PRM_move_to_magneteinheit_B_93",
    "joint_names": [
        "shoulder_pan_joint",
        "shoulder_lift_joint",
        "elbow_joint",
        "wrist_1_joint",
        "wrist_2_joint",
        "wrist_3_joint"
    ],
    "metrics": {
        "cart_traj_len": 1.470226796573114,
        "distance_elbow_joint": 0.9541214477447912,
        "distance_shoulder_lift_joint": 0.7541583993388387,
        "distance_shoulder_pan_joint": 1.6214191493040349,
        "distance_wrist_1_joint": 0.2616854820388843,
        "distance_wrist_2_joint": 3.170842598251585,
        "distance_wrist_3_joint": 0.8102103254413359,
        "smoothness": 0.7402282497853064,
        "time": 0.651393784,
        "traj_len": 2.7518062072245337,
        "weighted_distance": 3.5532219369598366
    },
    "planner": "PRM",
    "start": {
        "state": {
            "elbow_joint": 2.6216224122426386,
            "shoulder_lift_joint": -1.4174107377796124,
            "shoulder_pan_joint": 0.7066234856936794,
            "wrist_1_joint": 1.9546482284002225,
            "wrist_2_joint": -0.7096286983471962,
            "wrist_3_joint": 0.005740856962016249
        }
    },
    "waypoints": [
        {
            "positions": [
                0.7066234856936794,
                -1.4174107377796124,
                2.6216224122426386,
                1.9546482284002225,
                -0.7096286983471962,
                0.005740856962016249
            ]
        },
        {
            "positions": [
                0.5916816892778423,
                -1.3854623805853779,
                2.5843900724129316,
                1.9494272830758954,
                -0.5719263271846955,
                0.07425080986053195
            ]
        },
        {
            "positions": [
                0.47673989286200524,
                -1.3535140233911434,
                2.5471577325832246,
                1.9442063377515686,
                -0.4342239560221949,
                0.14276076275904767
            ]
        },
        {
            "positions": [
                0.3617980964461681,
                -1.3215656661969089,
                2.5099253927535177,
                1.9389853924272415,
                -0.2965215848596942,
                0.2112707156575634
            ]
        },
        {
            "positions": [
                0.24685630003033104,
                -1.2896173090026746,
                2.4726930529238103,
                1.9337644471029145,
                -0.15881921369719354,
                0.2797806685560791
            ]
        },
        {
            "positions": [
                0.13191450361449386,
                -1.25766895180844,
                2.4354607130941033,
                1.9285435017785877,
                -0.021116842534692815,
                0.34829062145459483
            ]
        },
        {
            "positions": [
                0.0169727071986569,
                -1.2257205946142056,
                2.3982283732643963,
                1.9233225564542606,
                0.11658552862780781,
                0.4168005743531105
            ]
        },
        {
            "positions": [
                -0.04958217643055829,
                -1.1855442906018177,
                2.3460335583525,
                1.939776828603755,
                -0.050887926463376545,
                0.3882898166352361
            ]
        },
        {
            "positions": [
                -0.11613706005977348,
                -1.1453679865894295,
                2.293838743440604,
                1.9562311007532496,
                -0.21836138155456092,
                0.3597790589173617
            ]
        },
        {
            "positions": [
                -0.18269194368898867,
                -1.1051916825770416,
                2.241643928528707,
                1.972685372902744,
                -0.38583483664574525,
                0.3312683011994873
            ]
        },
        {
            "positions": [
                -0.24924682731820386,
                -1.0650153785646537,
                2.189449113616811,
                1.9891396450522385,
                -0.5533082917369296,
                0.30275754348161293
            ]
        },
        {
            "positions": [
                -0.3158017109474191,
                -1.0248390745522655,
                2.1372542987049146,
                2.005593917201733,
                -0.720781746828114,
                0.2742467857637385
            ]
        },
        {
            "positions": [
                -0.38235659457663423,
                -0.9846627705398776,
                2.0850594837930183,
                2.0220481893512274,
                -0.8882552019192983,
                0.2457360280458641
            ]
        },
        {
            "positions": [
                -0.4489114782058495,
                -0.9444864665274897,
                2.032864668881122,
                2.038502461500722,
                -1.0557286570104827,
                0.21722527032798972
            ]
        },
        {
            "positions": [
                -0.5154663618350646,
                -0.9043101625151017,
                1.9806698539692256,
                2.0549567336502164,
                -1.223202112101667,
                0.18871451261011532
            ]
        },
        {
            "positions": [
                -0.5820212454642799,
                -0.8641338585027136,
                1.928475039057329,
                2.071411005799711,
                -1.3906755671928515,
                0.16020375489224092
            ]
        },
        {
            "positions": [
                -0.648576129093495,
                -0.8239575544903257,
                1.8762802241454328,
                2.0878652779492053,
                -1.5581490222840357,
                0.1316929971743665
            ]
        },
        {
            "positions": [
                -0.7151310127227102,
                -0.7837812504779377,
                1.8240854092335366,
                2.1043195500986998,
                -1.7256224773752202,
                0.10318223945649213
            ]
        },
        {
            "positions": [
                -0.7816858963519253,
                -0.7436049464655496,
                1.77189059432164,
                2.120773822248194,
                -1.8930959324664043,
                0.0746714817386177
            ]
        },
        {
            "positions": [
                -0.8482407799811407,
                -0.7034286424531616,
                1.7196957794097436,
                2.1372280943976887,
                -2.060569387557589,
                0.04616072402074328
            ]
        },
        {
            "positions": [
                -0.9147956636103558,
                -0.6632523384407737,
                1.6675009644978473,
                2.153682366547183,
                -2.2280428426487733,
                0.017649966302868934
            ]
        }
    ]
}