{
    "goal": {
        "global_pose": {
            "orientation": {
                "w": 0.5084816217422485,
                "x": -0.49083608388900757,
                "y": 0.5182115435600281,
                "z": -0.4816462993621826
            },
            "position": {
                "x": 0.5540239810943604,
                "y": 0.030875300988554955,
                "z": 0.16403168439865112
            }
        },
        "name": "move_to_storage_A"
    },
    "id": "PRM_move_to_storage_A_120",
    "joint_names": [
        "shoulder_pan_joint",
        "shoulder_lift_joint",
        "elbow_joint",
        "wrist_1_joint",
        "wrist_2_joint",
        "wrist_3_joint"
    ],
    "metrics": {
        "cart_traj_len": 0.35355799417925576,
        "distance_elbow_joint": 0.4545225427236883,
        "distance_shoulder_lift_joint": 0.2347660959504243,
        "distance_shoulder_pan_joint": 0.4620144108260801,
        "distance_wrist_1_joint": 0.26179951505695176,
        "distance_wrist_2_joint": 1.1016827767344066,
        "distance_wrist_3_joint": 0.10798151538777834,
        "smoothness": 8.881784197001252e-16,
        "time": 0.029279813000000002,
        "traj_len": 1.6194958649775335,
        "weighted_distance": 2.0499297986141487
    },
    "planner": "PRM",
    "start": {
        "state": {
            "elbow_joint": 1.971548259319323,
            "shoulder_lift_joint": -1.1394851275133948,
            "shoulder_pan_joint": 0.1228115487234821,
            "wrist_1_joint": -0.7804723859257726,
            "wrist_2_joint": 0.12958671773740124,
            "wrist_3_joint": -3.192489227718131
        }
    },
    "waypoints": [
        {
            "positions": [
                0.1228115487234821,
                -1.1394851275133948,
                1.971548259319323,
                -0.7804723859257726,
                0.12958671773740124,
                -3.192489227718131
            ]
        },
        {
            "positions": [
                0.05680949003404209,
                -1.1730231412205983,
                2.036480051136993,
                -0.8178723166481943,
                0.2869699715566022,
                -3.1770632969484485
            ]
        },
        {
            "positions": [
                -0.009192568655397915,
                -1.2065611549278017,
                2.1014118429546627,
                -0.855272247370616,
                0.44435322537580313,
                -3.161637366178766
            ]
        },
        {
            "positions": [
                -0.07519462734483792,
                -1.2400991686350051,
                2.1663436347723324,
                -0.8926721780930377,
                0.6017364791950041,
                -3.146211435409083
            ]
        },
        {
            "positions": [
                -0.14119668603427793,
                -1.2736371823422088,
                2.231275426590002,
                -0.9300721088154593,
                0.759119733014205,
                -3.130785504639401
            ]
        },
        {
            "positions": [
                -0.20719874472371796,
                -1.3071751960494122,
                2.296207218407672,
                -0.9674720395378811,
                0.916502986833406,
                -3.115359573869718
            ]
        },
        {
            "positions": [
                -0.27320080341315794,
                -1.3407132097566157,
                2.3611390102253416,
                -1.0048719702603026,
                1.0738862406526068,
                -3.0999336431000355
            ]
        },
        {
            "positions": [
                -0.339202862102598,
                -1.3742512234638191,
                2.4260708020430113,
                -1.0422719009827244,
                1.231269494471808,
                -3.084507712330353
            ]
        }
    ]
}{
    "goal": {
        "global_pose": {
            "orientation": {
                "w": 0.5084816217422485,
                "x": -0.49083608388900757,
                "y": 0.5182115435600281,
                "z": -0.4816462993621826
            },
            "position": {
                "x": 0.5540239810943604,
                "y": 0.030875300988554955,
                "z": 0.16403168439865112
            }
        },
        "name": "move_to_storage_A"
    },
    "id": "PRM_move_to_storage_A_120",
    "joint_names": [
        "shoulder_pan_joint",
        "shoulder_lift_joint",
        "elbow_joint",
        "wrist_1_joint",
        "wrist_2_joint",
        "wrist_3_joint"
    ],
    "metrics": {
        "cart_traj_len": 0.3536874063995526,
        "distance_elbow_joint": 0.45112892980579034,
        "distance_shoulder_lift_joint": 0.23277921529782475,
        "distance_shoulder_pan_joint": 0.4638938395719906,
        "distance_wrist_1_joint": 0.2534008388225053,
        "distance_wrist_2_joint": 1.0928964287246297,
        "distance_wrist_3_joint": 0.09280484849088166,
        "smoothness": 8.881784197001252e-16,
        "time": 0.032762469,
        "traj_len": 1.6083855572323518,
        "weighted_distance": 2.029485418829739
    },
    "planner": "PRM",
    "start": {
        "state": {
            "elbow_joint": 1.97154746011099,
            "shoulder_lift_joint": -1.13948474672311,
            "shoulder_pan_joint": 0.12281154466712228,
            "wrist_1_joint": -0.7804688027058302,
            "wrist_2_joint": 0.12958655903071145,
            "wrist_3_joint": 3.0906928834467795
        }
    },
    "waypoints": [
        {
            "positions": [
                0.12281154466712228,
                -1.13948474672311,
                1.97154746011099,
                -0.7804688027058302,
                0.12958655903071145,
                3.0906928834467795
            ]
        },
        {
            "positions": [
                0.056540996156837914,
                -1.1727389203370848,
                2.035994450083246,
                -0.8166689225376167,
                0.2857146202770871,
                3.1039507189454767
            ]
        },
        {
            "positions": [
                -0.009729552353446455,
                -1.20599309395106,
                2.1004414400555014,
                -0.8528690423694031,
                0.44184268152346273,
                3.1172085544441743
            ]
        },
        {
            "positions": [
                -0.07600010086373081,
                -1.2392472675650348,
                2.1648884300277573,
                -0.8890691622011896,
                0.5979707427698384,
                3.1304663899428715
            ]
        },
        {
            "positions": [
                -0.14227064937401518,
                -1.2725014411790099,
                2.229335420000013,
                -0.9252692820329761,
                0.7540988040162141,
                3.143724225441569
            ]
        },
        {
            "positions": [
                -0.2085411978842996,
                -1.3057556147929847,
                2.293782409972269,
                -0.9614694018647625,
                0.9102268652625898,
                3.1569820609402663
            ]
        },
        {
            "positions": [
                -0.2748117463945839,
                -1.3390097884069596,
                2.3582293999445243,
                -0.997669521696549,
                1.0663549265089654,
                3.170239896438964
            ]
        },
        {
            "positions": [
                -0.3410822949048683,
                -1.3722639620209347,
                2.4226763899167802,
                -1.0338696415283355,
                1.2224829877553411,
                3.183497731937661
            ]
        }
    ]
}{
    "goal": {
        "global_pose": {
            "orientation": {
                "w": 0.5084816217422485,
                "x": -0.49083608388900757,
                "y": 0.5182115435600281,
                "z": -0.4816462993621826
            },
            "position": {
                "x": 0.5540239810943604,
                "y": 0.030875300988554955,
                "z": 0.16403168439865112
            }
        },
        "name": "move_to_storage_A"
    },
    "id": "PRM_move_to_storage_A_120",
    "joint_names": [
        "shoulder_pan_joint",
        "shoulder_lift_joint",
        "elbow_joint",
        "wrist_1_joint",
        "wrist_2_joint",
        "wrist_3_joint"
    ],
    "metrics": {
        "cart_traj_len": 0.35400311924565697,
        "distance_elbow_joint": 0.44936317486068855,
        "distance_shoulder_lift_joint": 0.23510639934131938,
        "distance_shoulder_pan_joint": 0.4607205056537072,
        "distance_wrist_1_joint": 0.2402402665314971,
        "distance_wrist_2_joint": 1.1101819199223775,
        "distance_wrist_3_joint": 0.0885588898773566,
        "smoothness": 2.2204460668324854e-16,
        "time": 0.032423505,
        "traj_len": 1.6075357402518136,
        "weighted_distance": 2.027735466572387
    },
    "planner": "PRM",
    "start": {
        "state": {
            "elbow_joint": 1.9715472970024885,
            "shoulder_lift_joint": -1.1394870060712896,
            "shoulder_pan_joint": 0.12281152778156021,
            "wrist_1_joint": -0.780463741449964,
            "wrist_2_joint": 0.12958659822042276,
            "wrist_3_joint": 3.090690232415272
        }
    },
    "waypoints": [
        {
            "positions": [
                0.12281152778156021,
                -1.1394870060712896,
                1.9715472970024885,
                -0.780463741449964,
                0.12958659822042276,
                3.090690232415272
            ]
        },
        {
            "positions": [
                0.05699431268817348,
                -1.173073634548621,
                2.035742036268301,
                -0.8147837795258922,
                0.28818401535219096,
                3.1033415023977513
            ]
        },
        {
            "positions": [
                -0.008822902405213245,
                -1.2066602630259522,
                2.099936775534114,
                -0.8491038176018203,
                0.4467814324839592,
                3.1159927723802308
            ]
        },
        {
            "positions": [
                -0.07464011749859997,
                -1.2402468915032836,
                2.1641315147999265,
                -0.8834238556777485,
                0.6053788496157274,
                3.12864404236271
            ]
        },
        {
            "positions": [
                -0.1404573325919867,
                -1.273833519980615,
                2.228326254065739,
                -0.9177438937536766,
                0.7639762667474955,
                3.14129531234519
            ]
        },
        {
            "positions": [
                -0.20627454768537348,
                -1.3074201484579464,
                2.292520993331552,
                -0.9520639318296048,
                0.9225736838792638,
                3.1539465823276696
            ]
        },
        {
            "positions": [
                -0.2720917627787601,
                -1.3410067769352776,
                2.3567157325973644,
                -0.9863839699055329,
                1.081171101011032,
                3.166597852310149
            ]
        },
        {
            "positions": [
                -0.33790897787214697,
                -1.374593405412609,
                2.420910471863177,
                -1.020704007981461,
                1.2397685181428002,
                3.1792491222926285
            ]
        }
    ]
}