{
    "goal": {
        "global_pose": {
            "orientation": {
                "w": 0.7031023480610252,
                "x": -0.7110244013736278,
                "y": 0.0077485991402295624,
                "z": 0.005598929693374583
            },
            "position": {
                "x": -0.8841497679147869,
                "y": 0.44412534475326537,
                "z": 0.3711530566215515
            }
        },
        "name": "move_to_auspresseinheit_D"
    },
    "id": "PRM_move_to_auspresseinheit_D_105",
    "joint_names": [
        "shoulder_pan_joint",
        "shoulder_lift_joint",
        "elbow_joint",
        "wrist_1_joint",
        "wrist_2_joint",
        "wrist_3_joint"
    ],
    "metrics": {
        "cart_traj_len": 0.34335281316088123,
        "distance_elbow_joint": 0.6543503881420878,
        "distance_shoulder_lift_joint": 0.13088228919781741,
        "distance_shoulder_pan_joint": 0.13361906652077207,
        "distance_wrist_1_joint": 0.5834133385392479,
        "distance_wrist_2_joint": 1.4405648334194403,
        "distance_wrist_3_joint": 0.041685507346507666,
        "smoothness": 1.578983857244667e-15,
        "time": 0.0188505,
        "traj_len": 1.7275750123123086,
        "weighted_distance": 2.2565160335830936
    },
    "planner": "PRM",
    "start": {
        "state": {
            "elbow_joint": -1.8275523626775212,
            "shoulder_lift_joint": -2.126789852344167,
            "shoulder_pan_joint": -0.03513704404078235,
            "wrist_1_joint": -2.347782403156801,
            "wrist_2_joint": -1.6058999987535132,
            "wrist_3_joint": -3.0880379163319196
        }
    },
    "waypoints": [
        {
            "positions": [
                -0.03513704404078235,
                -2.126789852344167,
                -1.8275523626775212,
                -2.347782403156801,
                -1.6058999987535132,
                -3.0880379163319196
            ]
        },
        {
            "positions": [
                -0.05183942735587886,
                -2.143150138493894,
                -1.7457585641597602,
                -2.420709070474207,
                -1.4258293945760832,
                -3.082827227913606
            ]
        },
        {
            "positions": [
                -0.06854181067097537,
                -2.159510424643621,
                -1.6639647656419991,
                -2.493635737791613,
                -1.2457587903986531,
                -3.077616539495293
            ]
        },
        {
            "positions": [
                -0.08524419398607189,
                -2.1758707107933484,
                -1.5821709671242383,
                -2.566562405109019,
                -1.065688186221223,
                -3.0724058510769794
            ]
        },
        {
            "positions": [
                -0.10194657730116838,
                -2.1922309969430755,
                -1.5003771686064773,
                -2.639489072426425,
                -0.885617582043793,
                -3.067195162658666
            ]
        },
        {
            "positions": [
                -0.1186489606162649,
                -2.2085912830928027,
                -1.4185833700887163,
                -2.7124157397438307,
                -0.705546977866363,
                -3.061984474240352
            ]
        },
        {
            "positions": [
                -0.13535134393136142,
                -2.22495156924253,
                -1.3367895715709555,
                -2.7853424070612367,
                -0.525476373688933,
                -3.0567737858220387
            ]
        },
        {
            "positions": [
                -0.1520537272464579,
                -2.241311855392257,
                -1.2549957730531944,
                -2.8582690743786427,
                -0.3454057695115029,
                -3.0515630974037253
            ]
        },
        {
            "positions": [
                -0.16875611056155443,
                -2.2576721415419843,
                -1.1732019745354334,
                -2.931195741696049,
                -0.1653351653340728,
                -3.046352408985412
            ]
        }
    ]
}