{
    "goal": {
        "global_pose": {
            "orientation": {
                "w": 0.5084816262002911,
                "x": -0.4908360881923452,
                "y": 0.5182115481033761,
                "z": -0.48164630358495003
            },
            "position": {
                "x": 0.5540239810943604,
                "y": -0.46912469901144505,
                "z": 0.16403168439865112
            }
        },
        "name": "move_to_storage_B"
    },
    "id": "PRM_move_to_storage_B_43",
    "joint_names": [
        "shoulder_pan_joint",
        "shoulder_lift_joint",
        "elbow_joint",
        "wrist_1_joint",
        "wrist_2_joint",
        "wrist_3_joint"
    ],
    "metrics": {
        "cart_traj_len": 0.9298482165966697,
        "distance_elbow_joint": 1.3749720611528473,
        "distance_shoulder_lift_joint": 0.6612570613414763,
        "distance_shoulder_pan_joint": 0.8171729968763691,
        "distance_wrist_1_joint": 2.9848387504570635,
        "distance_wrist_2_joint": 2.8119134792078135,
        "distance_wrist_3_joint": 3.2813097346488074,
        "smoothness": 0.30825560671412816,
        "time": 0.37044549000000004,
        "traj_len": 3.454195142675697,
        "weighted_distance": 4.928573402379929
    },
    "planner": "PRM",
    "start": {
        "state": {
            "elbow_joint": 1.664937868594044,
            "shoulder_lift_joint": -0.661644460510453,
            "shoulder_pan_joint": -0.9139846352900073,
            "wrist_1_joint": 2.146753192139373,
            "wrist_2_joint": -2.2341966793290973,
            "wrist_3_joint": 0.005466555786416001
        }
    },
    "waypoints": [
        {
            "positions": [
                -0.9139846352900073,
                -0.661644460510453,
                1.664937868594044,
                2.146753192139373,
                -2.2341966793290973,
                0.005466555786416001
            ]
        },
        {
            "positions": [
                -0.8082602751798807,
                -0.6276399250803023,
                1.493845638337258,
                2.1317574055734236,
                -2.2527373766781493,
                0.028637801145412495
            ]
        },
        {
            "positions": [
                -0.7025359150697542,
                -0.5936353896501516,
                1.3227534080804724,
                2.1167616190074736,
                -2.271278074027202,
                0.05180904650440899
            ]
        },
        {
            "positions": [
                -0.5968115549596277,
                -0.5596308542200009,
                1.1516611778236865,
                2.101765832441524,
                -2.289818771376254,
                0.07498029186340549
            ]
        },
        {
            "positions": [
                -0.6146686948362702,
                -0.5796038347575375,
                1.182436012480204,
                1.9967711399144092,
                -2.191379793263373,
                -0.03972670808558801
            ]
        },
        {
            "positions": [
                -0.6325258347129127,
                -0.5995768152950741,
                1.2132108471367216,
                1.8917764473872944,
                -2.0929408151504925,
                -0.1544337080345815
            ]
        },
        {
            "positions": [
                -0.6503829745895551,
                -0.6195497958326106,
                1.2439856817932389,
                1.7867817548601796,
                -1.9945018370376122,
                -0.269140707983575
            ]
        },
        {
            "positions": [
                -0.6682401144661976,
                -0.6395227763701472,
                1.2747605164497564,
                1.6817870623330649,
                -1.8960628589247315,
                -0.3838477079325685
            ]
        },
        {
            "positions": [
                -0.6860972543428401,
                -0.6594957569076838,
                1.305535351106274,
                1.57679236980595,
                -1.7976238808118508,
                -0.4985547078815621
            ]
        },
        {
            "positions": [
                -0.7039543942194826,
                -0.6794687374452204,
                1.3363101857627915,
                1.4717976772788353,
                -1.6991849026989703,
                -0.6132617078305554
            ]
        },
        {
            "positions": [
                -0.7218115340961251,
                -0.699441717982757,
                1.367085020419309,
                1.3668029847517205,
                -1.6007459245860898,
                -0.727968707779549
            ]
        },
        {
            "positions": [
                -0.7396686739727676,
                -0.7194146985202936,
                1.3978598550758266,
                1.2618082922246057,
                -1.502306946473209,
                -0.8426757077285425
            ]
        },
        {
            "positions": [
                -0.7575258138494101,
                -0.7393876790578302,
                1.4286346897323439,
                1.1568135996974909,
                -1.4038679683603283,
                -0.9573827076775361
            ]
        },
        {
            "positions": [
                -0.7753829537260525,
                -0.7593606595953667,
                1.4594095243888614,
                1.051818907170376,
                -1.3054289902474479,
                -1.0720897076265297
            ]
        },
        {
            "positions": [
                -0.793240093602695,
                -0.7793336401329033,
                1.490184359045379,
                0.9468242146432613,
                -1.2069900121345674,
                -1.186796707575523
            ]
        },
        {
            "positions": [
                -0.8110972334793375,
                -0.7993066206704399,
                1.5209591937018965,
                0.8418295221161465,
                -1.1085510340216866,
                -1.3015037075245164
            ]
        },
        {
            "positions": [
                -0.82895437335598,
                -0.8192796012079765,
                1.551734028358414,
                0.7368348295890317,
                -1.010112055908806,
                -1.4162107074735102
            ]
        },
        {
            "positions": [
                -0.8468115132326224,
                -0.839252581745513,
                1.5825088630149313,
                0.6318401370619169,
                -0.9116730777959254,
                -1.5309177074225035
            ]
        },
        {
            "positions": [
                -0.8646686531092649,
                -0.8592255622830496,
                1.6132836976714489,
                0.5268454445348021,
                -0.8132340996830449,
                -1.645624707371497
            ]
        },
        {
            "positions": [
                -0.8825257929859074,
                -0.8791985428205862,
                1.6440585323279664,
                0.4218507520076873,
                -0.7147951215701642,
                -1.7603317073204905
            ]
        },
        {
            "positions": [
                -0.9003829328625499,
                -0.8991715233581228,
                1.674833366984484,
                0.3168560594805727,
                -0.6163561434572837,
                -1.8750387072694839
            ]
        },
        {
            "positions": [
                -0.9182400727391924,
                -0.9191445038956594,
                1.7056082016410015,
                0.21186136695345748,
                -0.5179171653444028,
                -1.9897457072184777
            ]
        },
        {
            "positions": [
                -0.9360972126158349,
                -0.939117484433196,
                1.7363830362975188,
                0.1068666744263429,
                -0.4194781872315223,
                -2.104452707167471
            ]
        },
        {
            "positions": [
                -0.9539543524924774,
                -0.9590904649707326,
                1.7671578709540365,
                0.0018719818992281034,
                -0.3210392091186418,
                -2.219159707116465
            ]
        },
        {
            "positions": [
                -0.9718114923691198,
                -0.9790634455082691,
                1.7979327056105538,
                -0.1031227106278867,
                -0.2226002310057611,
                -2.333866707065458
            ]
        },
        {
            "positions": [
                -0.9896686322457623,
                -0.9990364260458057,
                1.8287075402670714,
                -0.2081174031550015,
                -0.12416125289288082,
                -2.4485737070144515
            ]
        },
        {
            "positions": [
                -1.007525772122405,
                -1.0190094065833422,
                1.859482374923589,
                -0.3131120956821163,
                -0.02572227478000011,
                -2.563280706963445
            ]
        },
        {
            "positions": [
                -1.0253829119990472,
                -1.0389823871208788,
                1.8902572095801062,
                -0.4181067882092311,
                0.0727167033328806,
                -2.6779877069124383
            ]
        },
        {
            "positions": [
                -1.0432400518756897,
                -1.0589553676584154,
                1.921032044236624,
                -0.5231014807363459,
                0.17115568144576132,
                -2.792694706861432
            ]
        },
        {
            "positions": [
                -1.0610971917523322,
                -1.078928348195952,
                1.9518068788931413,
                -0.6280961732634607,
                0.26959465955864204,
                -2.907401706810426
            ]
        },
        {
            "positions": [
                -1.0789543316289747,
                -1.0989013287334886,
                1.9825817135496588,
                -0.7330908657905755,
                0.3680336376715223,
                -3.0221087067594192
            ]
        },
        {
            "positions": [
                -1.0968114715056172,
                -1.1188743092710252,
                2.0133565482061764,
                -0.8380855583176905,
                0.466472615784403,
                -3.1368157067084126
            ]
        }
    ]
}