{
    "goal": {
        "global_pose": {
            "orientation": {
                "w": 0.7047431493862688,
                "x": -0.7094548369677653,
                "y": 0.0024358444001904,
                "z": -0.0022348060817251984
            },
            "position": {
                "x": -0.39052492380142206,
                "y": 0.3671506643295288,
                "z": 0.19426114857196808
            }
        },
        "name": "move_to_magneteinheit_D"
    },
    "id": "PRM_move_to_magneteinheit_D_96",
    "joint_names": [
        "shoulder_pan_joint",
        "shoulder_lift_joint",
        "elbow_joint",
        "wrist_1_joint",
        "wrist_2_joint",
        "wrist_3_joint"
    ],
    "metrics": {
        "cart_traj_len": 3.6669327531287217,
        "distance_elbow_joint": 3.838929299367927,
        "distance_shoulder_lift_joint": 1.6262379144562245,
        "distance_shoulder_pan_joint": 2.996851854398972,
        "distance_wrist_1_joint": 1.5192724548994165,
        "distance_wrist_2_joint": 1.24468338460914,
        "distance_wrist_3_joint": 3.255969951032754,
        "smoothness": 0.22288058062501023,
        "time": 0.389315012,
        "traj_len": 3.805515058275875,
        "weighted_distance": 4.874201534645291
    },
    "planner": "PRM",
    "start": {
        "state": {
            "elbow_joint": 0.749534889911806,
            "shoulder_lift_joint": -0.6476975780787326,
            "shoulder_pan_joint": -2.711696901376241,
            "wrist_1_joint": -0.07506478083263063,
            "wrist_2_joint": 0.43296659715538205,
            "wrist_3_joint": -3.14703540197715
        }
    },
    "waypoints": [
        {
            "positions": [
                -2.711696901376241,
                -0.6476975780787326,
                0.749534889911806,
                -0.07506478083263063,
                0.43296659715538205,
                -3.14703540197715
            ]
        },
        {
            "positions": [
                -2.703179048800783,
                -0.6993026428043435,
                0.7882721496321798,
                0.023288509824655343,
                0.3492112961271765,
                -3.038469565657239
            ]
        },
        {
            "positions": [
                -2.6946611962253244,
                -0.7509077075299543,
                0.8270094093525537,
                0.12164180048194131,
                0.265455995098971,
                -2.9299037293373282
            ]
        },
        {
            "positions": [
                -2.6861433436498663,
                -0.8025127722555652,
                0.8657466690729276,
                0.21999509113922727,
                0.18170069407076544,
                -2.821337893017417
            ]
        },
        {
            "positions": [
                -2.6776254910744077,
                -0.8541178369811759,
                0.9044839287933015,
                0.31834838179651326,
                0.09794539304255989,
                -2.712772056697506
            ]
        },
        {
            "positions": [
                -2.6691076384989496,
                -0.9057229017067869,
                0.9432211885136754,
                0.4167016724537993,
                0.014190092014354283,
                -2.604206220377595
            ]
        },
        {
            "positions": [
                -2.660589785923491,
                -0.9573279664323977,
                0.9819584482340493,
                0.5150549631110852,
                -0.06956520901385116,
                -2.495640384057684
            ]
        },
        {
            "positions": [
                -2.652071933348033,
                -1.0089330311580085,
                1.0206957079544232,
                0.6134082537683712,
                -0.15332051004205677,
                -2.387074547737773
            ]
        },
        {
            "positions": [
                -2.6435540807725744,
                -1.0605380958836195,
                1.059432967674797,
                0.7117615444256571,
                -0.23707581107026227,
                -2.2785087114178624
            ]
        },
        {
            "positions": [
                -2.6350362281971162,
                -1.1121431606092302,
                1.098170227395171,
                0.8101148350829432,
                -0.32083111209846793,
                -2.1699428750979513
            ]
        },
        {
            "positions": [
                -2.5198108130239545,
                -1.1306881991836784,
                0.9596538434522185,
                0.8121384635508468,
                -0.3091336675024573,
                -2.070256465098652
            ]
        },
        {
            "positions": [
                -2.4045853978507927,
                -1.1492332377581267,
                0.821137459509266,
                0.8141620920187506,
                -0.2974362229064467,
                -1.9705700550993526
            ]
        },
        {
            "positions": [
                -2.289359982677631,
                -1.1677782763325748,
                0.6826210755663134,
                0.8161857204866542,
                -0.2857387783104361,
                -1.8708836451000534
            ]
        },
        {
            "positions": [
                -2.1741345675044688,
                -1.186323314907023,
                0.5441046916233608,
                0.8182093489545578,
                -0.27404133371442546,
                -1.771197235100754
            ]
        },
        {
            "positions": [
                -2.058909152331307,
                -1.204868353481471,
                0.4055883076804083,
                0.8202329774224615,
                -0.2623438891184149,
                -1.6715108251014548
            ]
        },
        {
            "positions": [
                -1.9436837371581452,
                -1.2234133920559194,
                0.2670719237374558,
                0.8222566058903651,
                -0.25064644452240425,
                -1.5718244151021556
            ]
        },
        {
            "positions": [
                -1.8284583219849835,
                -1.2419584306303675,
                0.12855553979450318,
                0.8242802343582688,
                -0.23894899992639365,
                -1.4721380051028563
            ]
        },
        {
            "positions": [
                -1.7132329068118217,
                -1.2605034692048156,
                -0.009960844148449333,
                0.8263038628261724,
                -0.22725155533038305,
                -1.372451595103557
            ]
        },
        {
            "positions": [
                -1.5980074916386597,
                -1.279048507779264,
                -0.14847722809140196,
                0.828327491294076,
                -0.21555411073437242,
                -1.2727651851042576
            ]
        },
        {
            "positions": [
                -1.482782076465498,
                -1.297593546353712,
                -0.28699361203435436,
                0.8303511197619797,
                -0.20385666613836184,
                -1.1730787751049585
            ]
        },
        {
            "positions": [
                -1.3675566612923362,
                -1.3161385849281602,
                -0.425509995977307,
                0.8323747482298833,
                -0.1921592215423512,
                -1.0733923651056592
            ]
        },
        {
            "positions": [
                -1.2523312461191745,
                -1.3346836235026083,
                -0.5640263799202594,
                0.8343983766977869,
                -0.1804617769463406,
                -0.97370595510636
            ]
        },
        {
            "positions": [
                -1.1371058309460125,
                -1.3532286620770566,
                -0.7025427638632122,
                0.8364220051656907,
                -0.16876433235032998,
                -0.8740195451070605
            ]
        },
        {
            "positions": [
                -1.0218804157728507,
                -1.3717737006515047,
                -0.8410591478061646,
                0.8384456336335943,
                -0.15706688775431937,
                -0.7743331351077614
            ]
        },
        {
            "positions": [
                -0.906655000599689,
                -1.3903187392259528,
                -0.979575531749117,
                0.8404692621014979,
                -0.14536944315830877,
                -0.6746467251084622
            ]
        },
        {
            "positions": [
                -0.791429585426527,
                -1.4088637778004012,
                -1.1180919156920697,
                0.8424928905694016,
                -0.13367199856229814,
                -0.5749603151091627
            ]
        },
        {
            "positions": [
                -0.6762041702533654,
                -1.4274088163748493,
                -1.2566082996350223,
                0.8445165190373052,
                -0.12197455396628756,
                -0.47527390510986356
            ]
        },
        {
            "positions": [
                -0.5609787550802032,
                -1.4459538549492974,
                -1.395124683577975,
                0.8465401475052089,
                -0.11027710937027693,
                -0.375587495110564
            ]
        },
        {
            "positions": [
                -0.44575333990704147,
                -1.4644988935237455,
                -1.5336410675209275,
                0.8485637759731125,
                -0.09857966477426633,
                -0.2759010851112649
            ]
        },
        {
            "positions": [
                -0.3305279247338797,
                -1.4830439320981936,
                -1.6721574514638797,
                0.8505874044410161,
                -0.08688222017825573,
                -0.17621467511196576
            ]
        },
        {
            "positions": [
                -0.21530250956071795,
                -1.501588970672642,
                -1.8106738354068324,
                0.8526110329089198,
                -0.0751847755822451,
                -0.0765282651126662
            ]
        },
        {
            "positions": [
                -0.10007709438755619,
                -1.52013400924709,
                -1.9491902193497852,
                0.8546346613768234,
                -0.06348733098623449,
                0.023158144886632995
            ]
        },
        {
            "positions": [
                -0.06263298106443273,
                -1.6267817839451395,
                -2.0581160354750376,
                0.931199200865514,
                -0.026229784424700406,
                0.03651047138007109
            ]
        },
        {
            "positions": [
                -0.025188867741309268,
                -1.7334295586431892,
                -2.16704185160029,
                1.0077637403542046,
                0.01102776213683368,
                0.04986279787350918
            ]
        },
        {
            "positions": [
                0.012255245581814192,
                -1.8400773333412386,
                -2.2759676677255425,
                1.0843282798428953,
                0.048285308698367765,
                0.06321512436694728
            ]
        },
        {
            "positions": [
                0.04969935890493765,
                -1.946725108039288,
                -2.384893483850795,
                1.1608928193315857,
                0.08554285525990186,
                0.07656745086038537
            ]
        },
        {
            "positions": [
                -0.04954692365777166,
                -2.0495661696985206,
                -2.386097915915515,
                1.2513506363383358,
                0.10075059139148464,
                0.08579141393821507
            ]
        },
        {
            "positions": [
                -0.14879320622048098,
                -2.1524072313577536,
                -2.387302347980235,
                1.3418084533450858,
                0.11595832752306741,
                0.09501537701604476
            ]
        },
        {
            "positions": [
                -0.18575623521285514,
                -2.273935492534957,
                -2.3921237344893918,
                1.444207674066786,
                0.17005456325682206,
                0.08109620497648479
            ]
        }
    ]
}