{
    "goal": {
        "global_pose": {
            "orientation": {
                "w": 0.5084816262002911,
                "x": -0.4908360881923452,
                "y": 0.5182115481033761,
                "z": -0.48164630358495003
            },
            "position": {
                "x": 0.5540239810943604,
                "y": -0.46912469901144505,
                "z": 0.16403168439865112
            }
        },
        "name": "move_to_storage_B"
    },
    "id": "PRM_move_to_storage_B_124",
    "joint_names": [
        "shoulder_pan_joint",
        "shoulder_lift_joint",
        "elbow_joint",
        "wrist_1_joint",
        "wrist_2_joint",
        "wrist_3_joint"
    ],
    "metrics": {
        "cart_traj_len": 1.6422230980733825,
        "distance_elbow_joint": 0.47333031547073334,
        "distance_shoulder_lift_joint": 0.45984990132094405,
        "distance_shoulder_pan_joint": 1.7760236038078223,
        "distance_wrist_1_joint": 3.0095438539520663,
        "distance_wrist_2_joint": 2.698152838171334,
        "distance_wrist_3_joint": 3.1148045644967093,
        "smoothness": 0.14439312469605217,
        "time": 0.39921103300000005,
        "traj_len": 3.395836432636237,
        "weighted_distance": 4.84448252121281
    },
    "planner": "PRM",
    "start": {
        "state": {
            "elbow_joint": 1.664937868594044,
            "shoulder_lift_joint": -0.661644460510453,
            "shoulder_pan_joint": -0.9139846352900073,
            "wrist_1_joint": 2.146753192139373,
            "wrist_2_joint": -2.2341966793290973,
            "wrist_3_joint": 0.005466555786416001
        }
    },
    "waypoints": [
        {
            "positions": [
                -0.9139846352900073,
                -0.661644460510453,
                1.664937868594044,
                2.146753192139373,
                -2.2341966793290973,
                0.005466555786416001
            ]
        },
        {
            "positions": [
                -0.7812583484754055,
                -0.7243448237187323,
                1.6550785421306202,
                2.104753512642017,
                -2.141031481543473,
                -0.005658589251059126
            ]
        },
        {
            "positions": [
                -0.6485320616608037,
                -0.7870451869270116,
                1.6452192156671965,
                2.06275383314466,
                -2.0478662837578487,
                -0.016783734288534254
            ]
        },
        {
            "positions": [
                -0.5158057748462019,
                -0.849745550135291,
                1.6353598892037726,
                2.020754153647304,
                -1.9547010859722247,
                -0.027908879326009384
            ]
        },
        {
            "positions": [
                -0.3830794880316002,
                -0.9124459133435703,
                1.625500562740349,
                1.9787544741499474,
                -1.8615358881866007,
                -0.03903402436348451
            ]
        },
        {
            "positions": [
                -0.25035320121699833,
                -0.9751462765518496,
                1.6156412362769252,
                1.936754794652591,
                -1.7683706904009764,
                -0.050159169400959644
            ]
        },
        {
            "positions": [
                -0.11762691440239659,
                -1.037846639760129,
                1.6057819098135016,
                1.8947551151552344,
                -1.6752054926153521,
                -0.06128431443843476
            ]
        },
        {
            "positions": [
                -0.15844632619073876,
                -1.0413319615130985,
                1.6230391746755928,
                1.7798573744482376,
                -1.5860737571379526,
                -0.1882865516997622
            ]
        },
        {
            "positions": [
                -0.19926573797908093,
                -1.044817283266068,
                1.6402964395376842,
                1.6649596337412405,
                -1.4969420216605531,
                -0.3152887889610896
            ]
        },
        {
            "positions": [
                -0.24008514976742307,
                -1.0483026050190374,
                1.6575537043997755,
                1.5500618930342434,
                -1.4078102861831536,
                -0.442291026222417
            ]
        },
        {
            "positions": [
                -0.28090456155576526,
                -1.051787926772007,
                1.6748109692618667,
                1.4351641523272465,
                -1.3186785507057541,
                -0.5692932634837444
            ]
        },
        {
            "positions": [
                -0.3217239733441074,
                -1.0552732485249765,
                1.692068234123958,
                1.3202664116202496,
                -1.2295468152283546,
                -0.6962955007450718
            ]
        },
        {
            "positions": [
                -0.36254338513244955,
                -1.0587585702779458,
                1.7093254989860494,
                1.2053686709132525,
                -1.1404150797509551,
                -0.8232977380063993
            ]
        },
        {
            "positions": [
                -0.40336279692079174,
                -1.0622438920309154,
                1.7265827638481406,
                1.0904709302062554,
                -1.0512833442735554,
                -0.9502999752677268
            ]
        },
        {
            "positions": [
                -0.4441822087091339,
                -1.065729213783885,
                1.7438400287102318,
                0.9755731894992585,
                -0.962151608796156,
                -1.0773022125290541
            ]
        },
        {
            "positions": [
                -0.4850016204974761,
                -1.0692145355368545,
                1.7610972935723233,
                0.8606754487922614,
                -0.8730198733187564,
                -1.2043044497903816
            ]
        },
        {
            "positions": [
                -0.5258210322858182,
                -1.072699857289824,
                1.7783545584344145,
                0.7457777080852646,
                -0.7838881378413569,
                -1.331306687051709
            ]
        },
        {
            "positions": [
                -0.5666404440741604,
                -1.0761851790427934,
                1.7956118232965057,
                0.6308799673782677,
                -0.6947564023639575,
                -1.4583089243130363
            ]
        },
        {
            "positions": [
                -0.6074598558625026,
                -1.079670500795763,
                1.812869088158597,
                0.5159822266712706,
                -0.6056246668865579,
                -1.5853111615743638
            ]
        },
        {
            "positions": [
                -0.6482792676508446,
                -1.0831558225487325,
                1.8301263530206884,
                0.4010844859642737,
                -0.5164929314091584,
                -1.7123133988356911
            ]
        },
        {
            "positions": [
                -0.6890986794391869,
                -1.0866411443017019,
                1.8473836178827796,
                0.2861867452572766,
                -0.4273611959317587,
                -1.8393156360970189
            ]
        },
        {
            "positions": [
                -0.729918091227529,
                -1.0901264660546715,
                1.864640882744871,
                0.17128900455027973,
                -0.3382294604543594,
                -1.966317873358346
            ]
        },
        {
            "positions": [
                -0.7707375030158712,
                -1.093611787807641,
                1.8818981476069623,
                0.056391263843282635,
                -0.24909772497695992,
                -2.0933201106196737
            ]
        },
        {
            "positions": [
                -0.8115569148042134,
                -1.0970971095606106,
                1.8991554124690535,
                -0.05850647686371446,
                -0.1599659894995602,
                -2.2203223478810012
            ]
        },
        {
            "positions": [
                -0.8523763265925556,
                -1.1005824313135801,
                1.9164126773311447,
                -0.17340421757071156,
                -0.0708342540221607,
                -2.347324585142329
            ]
        },
        {
            "positions": [
                -0.8931957383808977,
                -1.1040677530665495,
                1.933669942193236,
                -0.2883019582777082,
                0.018297481455238573,
                -2.474326822403656
            ]
        },
        {
            "positions": [
                -0.9340151501692399,
                -1.107553074819519,
                1.9509272070553274,
                -0.4031996989847053,
                0.1074292169326383,
                -2.6013290596649834
            ]
        },
        {
            "positions": [
                -0.974834561957582,
                -1.1110383965724886,
                1.9681844719174186,
                -0.5180974396917024,
                0.1965609524100378,
                -2.728331296926311
            ]
        },
        {
            "positions": [
                -1.0156539737459243,
                -1.114523718325458,
                1.9854417367795099,
                -0.6329951803986991,
                0.28569268788743707,
                -2.855333534187638
            ]
        },
        {
            "positions": [
                -1.0564733855342663,
                -1.1180090400784275,
                2.0026990016416013,
                -0.7478929211056962,
                0.3748244233648368,
                -2.982335771448966
            ]
        },
        {
            "positions": [
                -1.0972927973226085,
                -1.121494361831397,
                2.0199562665036925,
                -0.8627906618126934,
                0.4639561588422361,
                -3.109338008710293
            ]
        }
    ]
}