{
    "goal": {
        "global_pose": {
            "orientation": {
                "w": 0.5084816217422485,
                "x": -0.49083608388900757,
                "y": 0.5182115435600281,
                "z": -0.4816462993621826
            },
            "position": {
                "x": 0.5540239810943604,
                "y": 0.030875300988554955,
                "z": 0.16403168439865112
            }
        },
        "name": "move_to_storage_A"
    },
    "id": "PRM_move_to_storage_A_44",
    "joint_names": [
        "shoulder_pan_joint",
        "shoulder_lift_joint",
        "elbow_joint",
        "wrist_1_joint",
        "wrist_2_joint",
        "wrist_3_joint"
    ],
    "metrics": {
        "cart_traj_len": 0.3529408419922522,
        "distance_elbow_joint": 0.45397055308975065,
        "distance_shoulder_lift_joint": 0.23249009345662852,
        "distance_shoulder_pan_joint": 0.45926025230970396,
        "distance_wrist_1_joint": 0.2624458941411786,
        "distance_wrist_2_joint": 1.107792748177991,
        "distance_wrist_3_joint": 0.09809217773323509,
        "smoothness": 4.440892098500626e-16,
        "time": 0.023904288,
        "traj_len": 1.6168029313767611,
        "weighted_distance": 2.0446209224925114
    },
    "planner": "PRM",
    "start": {
        "state": {
            "elbow_joint": 1.971548259319323,
            "shoulder_lift_joint": -1.1394851275133948,
            "shoulder_pan_joint": 0.1228115487234821,
            "wrist_1_joint": -0.7804723859257726,
            "wrist_2_joint": 0.12958671773740124,
            "wrist_3_joint": -3.192489227718131
        }
    },
    "waypoints": [
        {
            "positions": [
                0.1228115487234821,
                -1.1394851275133948,
                1.971548259319323,
                -0.7804723859257726,
                0.12958671773740124,
                -3.192489227718131
            ]
        },
        {
            "positions": [
                0.05720294125066726,
                -1.172697998007199,
                2.0364011954750016,
                -0.8179646565173696,
                0.28784282461997135,
                -3.178476059470526
            ]
        },
        {
            "positions": [
                -0.008405666222147584,
                -1.205910868501003,
                2.1012541316306805,
                -0.8554569271089665,
                0.44609893150254154,
                -3.164462891222921
            ]
        },
        {
            "positions": [
                -0.07401427369496244,
                -1.239123738994807,
                2.166107067786359,
                -0.8929491977005635,
                0.6043550383851116,
                -3.150449722975316
            ]
        },
        {
            "positions": [
                -0.13962288116777727,
                -1.272336609488611,
                2.2309600039420374,
                -0.9304414682921603,
                0.7626111452676818,
                -3.136436554727711
            ]
        },
        {
            "positions": [
                -0.20523148864059215,
                -1.3055494799824152,
                2.2958129400977163,
                -0.9679337388837573,
                0.920867252150252,
                -3.122423386480106
            ]
        },
        {
            "positions": [
                -0.270840096113407,
                -1.3387623504762192,
                2.360665876253395,
                -1.0054260094753542,
                1.079123359032822,
                -3.108410218232501
            ]
        },
        {
            "positions": [
                -0.33644870358622186,
                -1.3719752209700233,
                2.4255188124090736,
                -1.0429182800669512,
                1.2373794659153923,
                -3.094397049984896
            ]
        }
    ]
}{
    "goal": {
        "global_pose": {
            "orientation": {
                "w": 0.5084816217422485,
                "x": -0.49083608388900757,
                "y": 0.5182115435600281,
                "z": -0.4816462993621826
            },
            "position": {
                "x": 0.5540239810943604,
                "y": 0.030875300988554955,
                "z": 0.16403168439865112
            }
        },
        "name": "move_to_storage_A"
    },
    "id": "PRM_move_to_storage_A_44",
    "joint_names": [
        "shoulder_pan_joint",
        "shoulder_lift_joint",
        "elbow_joint",
        "wrist_1_joint",
        "wrist_2_joint",
        "wrist_3_joint"
    ],
    "metrics": {
        "cart_traj_len": 0.35333785986849475,
        "distance_elbow_joint": 0.4508158031544882,
        "distance_shoulder_lift_joint": 0.23488122711106296,
        "distance_shoulder_pan_joint": 0.4587429989133547,
        "distance_wrist_1_joint": 0.24374261696016108,
        "distance_wrist_2_joint": 1.1140335691810768,
        "distance_wrist_3_joint": 0.09060618970426848,
        "smoothness": 4.440892098500626e-16,
        "time": 0.030536004000000002,
        "traj_len": 1.6102243337573843,
        "weighted_distance": 2.032685654638756
    },
    "planner": "PRM",
    "start": {
        "state": {
            "elbow_joint": 1.97154746011099,
            "shoulder_lift_joint": -1.13948474672311,
            "shoulder_pan_joint": 0.12281154466712228,
            "wrist_1_joint": -0.7804688027058302,
            "wrist_2_joint": 0.12958655903071145,
            "wrist_3_joint": 3.0906928834467795
        }
    },
    "waypoints": [
        {
            "positions": [
                0.12281154466712228,
                -1.13948474672311,
                1.97154746011099,
                -0.7804688027058302,
                0.12958655903071145,
                3.0906928834467795
            ]
        },
        {
            "positions": [
                0.05727683053664305,
                -1.1730392077389762,
                2.0359497177044883,
                -0.8152891765572817,
                0.2887342117708653,
                3.1036366248331038
            ]
        },
        {
            "positions": [
                -0.008257883593836182,
                -1.2065936687548422,
                2.1003519752979867,
                -0.8501095504087334,
                0.4478818645110191,
                3.1165803662194276
            ]
        },
        {
            "positions": [
                -0.07379259772431541,
                -1.2401481297707084,
                2.164754232891485,
                -0.8849299242601849,
                0.6070295172511729,
                3.129524107605752
            ]
        },
        {
            "positions": [
                -0.13932731185479463,
                -1.2737025907865744,
                2.229156490484983,
                -0.9197502981116366,
                0.7661771699913268,
                3.1424678489920757
            ]
        },
        {
            "positions": [
                -0.20486202598527392,
                -1.3072570518024407,
                2.2935587480784814,
                -0.9545706719630881,
                0.9253248227314806,
                3.1554115903784
            ]
        },
        {
            "positions": [
                -0.2703967401157531,
                -1.3408115128183067,
                2.3579610056719797,
                -0.9893910458145396,
                1.0844724754716344,
                3.1683553317647237
            ]
        },
        {
            "positions": [
                -0.3359314542462324,
                -1.374365973834173,
                2.422363263265478,
                -1.0242114196659913,
                1.2436201282117882,
                3.181299073151048
            ]
        }
    ]
}{
    "goal": {
        "global_pose": {
            "orientation": {
                "w": 0.5084816217422485,
                "x": -0.49083608388900757,
                "y": 0.5182115435600281,
                "z": -0.4816462993621826
            },
            "position": {
                "x": 0.5540239810943604,
                "y": 0.030875300988554955,
                "z": 0.16403168439865112
            }
        },
        "name": "move_to_storage_A"
    },
    "id": "PRM_move_to_storage_A_44",
    "joint_names": [
        "shoulder_pan_joint",
        "shoulder_lift_joint",
        "elbow_joint",
        "wrist_1_joint",
        "wrist_2_joint",
        "wrist_3_joint"
    ],
    "metrics": {
        "cart_traj_len": 0.3527136638332421,
        "distance_elbow_joint": 0.45315461184722716,
        "distance_shoulder_lift_joint": 0.233859869825366,
        "distance_shoulder_pan_joint": 0.4604632940948639,
        "distance_wrist_1_joint": 0.25325568203625215,
        "distance_wrist_2_joint": 1.1018469504045856,
        "distance_wrist_3_joint": 0.09961645053172097,
        "smoothness": 4.440892098500626e-16,
        "time": 0.025021281,
        "traj_len": 1.6131326227995066,
        "weighted_distance": 2.0387575609287865
    },
    "planner": "PRM",
    "start": {
        "state": {
            "elbow_joint": 1.9715472970024885,
            "shoulder_lift_joint": -1.1394870060712896,
            "shoulder_pan_joint": 0.12281152778156021,
            "wrist_1_joint": -0.780463741449964,
            "wrist_2_joint": 0.12958659822042276,
            "wrist_3_joint": 3.090690232415272
        }
    },
    "waypoints": [
        {
            "positions": [
                0.12281152778156021,
                -1.1394870060712896,
                1.9715472970024885,
                -0.780463741449964,
                0.12958659822042276,
                3.090690232415272
            ]
        },
        {
            "positions": [
                0.057031057196579665,
                -1.1728955589034848,
                2.036283670123521,
                -0.816643124598,
                0.2869933054210778,
                3.1049211539198036
            ]
        },
        {
            "positions": [
                -0.008749413388400878,
                -1.2063041117356799,
                2.1010200432445534,
                -0.8528225077460361,
                0.4444000126217329,
                3.119152075424335
            ]
        },
        {
            "positions": [
                -0.07452988397338142,
                -1.239712664567875,
                2.165756416365586,
                -0.889001890894072,
                0.601806719822388,
                3.1333829969288667
            ]
        },
        {
            "positions": [
                -0.14031035455836197,
                -1.2731212174000701,
                2.230492789486618,
                -0.925181274042108,
                0.7592134270230431,
                3.147613918433398
            ]
        },
        {
            "positions": [
                -0.20609082514334257,
                -1.3065297702322654,
                2.295229162607651,
                -0.9613606571901441,
                0.9166201342236981,
                3.1618448399379298
            ]
        },
        {
            "positions": [
                -0.271871295728323,
                -1.3399383230644604,
                2.359965535728683,
                -0.9975400403381801,
                1.0740268414243532,
                3.176075761442461
            ]
        },
        {
            "positions": [
                -0.3376517663133037,
                -1.3733468758966556,
                2.4247019088497157,
                -1.0337194234862161,
                1.2314335486250083,
                3.190306682946993
            ]
        }
    ]
}