{
    "goal": {
        "global_pose": {
            "orientation": {
                "w": 0.005598929693374612,
                "x": 0.007748599140229565,
                "y": 0.7110244013736278,
                "z": -0.7031023480610252
            },
            "position": {
                "x": -0.8858502320852131,
                "y": -0.7141253447532654,
                "z": 0.3711530566215515
            }
        },
        "name": "move_to_auspresseinheit_C"
    },
    "id": "PRM_move_to_auspresseinheit_C_117",
    "joint_names": [
        "shoulder_pan_joint",
        "shoulder_lift_joint",
        "elbow_joint",
        "wrist_1_joint",
        "wrist_2_joint",
        "wrist_3_joint"
    ],
    "metrics": {
        "cart_traj_len": 0.49326054191980456,
        "distance_elbow_joint": 1.0118013931194132,
        "distance_shoulder_lift_joint": 0.33054756001670804,
        "distance_shoulder_pan_joint": 0.2556966989595342,
        "distance_wrist_1_joint": 0.7038996295641321,
        "distance_wrist_2_joint": 1.3136731764979535,
        "distance_wrist_3_joint": 0.08141349447903501,
        "smoothness": 3.2297397335745243e-16,
        "time": 0.025575425,
        "traj_len": 1.9227667442091814,
        "weighted_distance": 2.424341508050574
    },
    "planner": "PRM",
    "start": {
        "state": {
            "elbow_joint": 1.7527959577737207,
            "shoulder_lift_joint": -0.9740617694225068,
            "shoulder_pan_joint": -2.967991417825858,
            "wrist_1_joint": -0.759517768980727,
            "wrist_2_joint": 1.7443932448377408,
            "wrist_3_joint": -3.0840537646736568
        }
    },
    "waypoints": [
        {
            "positions": [
                -2.967991417825858,
                -0.9740617694225068,
                1.7527959577737207,
                -0.759517768980727,
                1.7443932448377408,
                -3.0840537646736568
            ]
        },
        {
            "positions": [
                -2.9424217479299046,
                -0.9410070134208359,
                1.6516158184617793,
                -0.6891278060243138,
                1.6130259271879455,
                -3.0921951141215605
            ]
        },
        {
            "positions": [
                -2.9168520780339513,
                -0.9079522574191652,
                1.550435679149838,
                -0.6187378430679006,
                1.48165860953815,
                -3.1003364635694637
            ]
        },
        {
            "positions": [
                -2.8912824081379975,
                -0.8748975014174943,
                1.4492555398378968,
                -0.5483478801114874,
                1.3502912918883547,
                -3.1084778130173674
            ]
        },
        {
            "positions": [
                -2.865712738242044,
                -0.8418427454158235,
                1.3480754005259554,
                -0.47795791715507413,
                1.2189239742385594,
                -3.1166191624652706
            ]
        },
        {
            "positions": [
                -2.840143068346091,
                -0.8087879894141528,
                1.246895261214014,
                -0.40756795419866093,
                1.087556656588764,
                -3.1247605119131743
            ]
        },
        {
            "positions": [
                -2.8145733984501375,
                -0.775733233412482,
                1.145715121902073,
                -0.33717799124224773,
                0.9561893389389687,
                -3.132901861361078
            ]
        },
        {
            "positions": [
                -2.789003728554184,
                -0.7426784774108112,
                1.0445349825901316,
                -0.26678802828583453,
                0.8248220212891735,
                -3.141043210808981
            ]
        },
        {
            "positions": [
                -2.7634340586582304,
                -0.7096237214091403,
                0.9433548432781901,
                -0.19639806532942128,
                0.6934547036393781,
                -3.149184560256885
            ]
        },
        {
            "positions": [
                -2.737864388762277,
                -0.6765689654074696,
                0.8421747039662487,
                -0.12600810237300808,
                0.5620873859895827,
                -3.157325909704788
            ]
        },
        {
            "positions": [
                -2.712294718866324,
                -0.6435142094057987,
                0.7409945646543074,
                -0.055618139416594915,
                0.4307200683397874,
                -3.165467259152692
            ]
        }
    ]
}