{
    "goal": {
        "global_pose": {
            "orientation": {
                "w": 0.005598929693374612,
                "x": 0.007748599140229565,
                "y": 0.7110244013736278,
                "z": -0.7031023480610252
            },
            "position": {
                "x": -0.8858502320852131,
                "y": -0.7141253447532654,
                "z": 0.3711530566215515
            }
        },
        "name": "move_to_auspresseinheit_C"
    },
    "id": "PRM_move_to_auspresseinheit_C_60",
    "joint_names": [
        "shoulder_pan_joint",
        "shoulder_lift_joint",
        "elbow_joint",
        "wrist_1_joint",
        "wrist_2_joint",
        "wrist_3_joint"
    ],
    "metrics": {
        "cart_traj_len": 0.4930066660539198,
        "distance_elbow_joint": 0.9984875352173184,
        "distance_shoulder_lift_joint": 0.32497670228437037,
        "distance_shoulder_pan_joint": 0.2564211361077757,
        "distance_wrist_1_joint": 0.6715718930902942,
        "distance_wrist_2_joint": 1.3153025409589958,
        "distance_wrist_3_joint": 0.04499501014217744,
        "smoothness": 1.6148698667872622e-16,
        "time": 0.028256336,
        "traj_len": 1.9004617380523428,
        "weighted_distance": 2.385082655199726
    },
    "planner": "PRM",
    "start": {
        "state": {
            "elbow_joint": 1.7527959577737207,
            "shoulder_lift_joint": -0.9740617694225068,
            "shoulder_pan_joint": -2.967991417825858,
            "wrist_1_joint": -0.759517768980727,
            "wrist_2_joint": 1.7443932448377408,
            "wrist_3_joint": -3.0840537646736568
        }
    },
    "waypoints": [
        {
            "positions": [
                -2.967991417825858,
                -0.9740617694225068,
                1.7527959577737207,
                -0.759517768980727,
                1.7443932448377408,
                -3.0840537646736568
            ]
        },
        {
            "positions": [
                -2.9423493042150803,
                -0.9415640991940697,
                1.6529472042519888,
                -0.6923605796716976,
                1.6128629907418413,
                -3.0885532656878745
            ]
        },
        {
            "positions": [
                -2.9167071906043027,
                -0.9090664289656327,
                1.553098450730257,
                -0.6252033903626681,
                1.4813327366459417,
                -3.093052766702092
            ]
        },
        {
            "positions": [
                -2.891065076993525,
                -0.8765687587371956,
                1.4532496972085251,
                -0.5580462010536387,
                1.349802482550042,
                -3.09755226771631
            ]
        },
        {
            "positions": [
                -2.8654229633827475,
                -0.8440710885087586,
                1.3534009436867933,
                -0.4908890117446093,
                1.2182722284541425,
                -3.1020517687305276
            ]
        },
        {
            "positions": [
                -2.8397808497719703,
                -0.8115734182803216,
                1.2535521901650615,
                -0.4237318224355799,
                1.086741974358243,
                -3.1065512697447453
            ]
        },
        {
            "positions": [
                -2.8141387361611927,
                -0.7790757480518846,
                1.1537034366433296,
                -0.35657463312655047,
                0.9552117202623434,
                -3.1110507707589634
            ]
        },
        {
            "positions": [
                -2.788496622550415,
                -0.7465780778234475,
                1.0538546831215978,
                -0.2894174438175211,
                0.8236814661664439,
                -3.115550271773181
            ]
        },
        {
            "positions": [
                -2.7628545089396375,
                -0.7140804075950105,
                0.954005929599866,
                -0.22226025450849163,
                0.6921512120705442,
                -3.120049772787399
            ]
        },
        {
            "positions": [
                -2.73721239532886,
                -0.6815827373665735,
                0.8541571760781341,
                -0.15510306519946215,
                0.5606209579746446,
                -3.1245492738016165
            ]
        },
        {
            "positions": [
                -2.7115702817180822,
                -0.6490850671381364,
                0.7543084225564023,
                -0.08794587589043278,
                0.42909070387874515,
                -3.129048774815834
            ]
        }
    ]
}