{
    "goal": {
        "global_pose": {
            "orientation": {
                "w": 0.7047431468963623,
                "x": -0.7094548344612122,
                "y": 0.0024358443915843964,
                "z": -0.0022348060738295317
            },
            "position": {
                "x": 0.6094750761985779,
                "y": 0.3671506643295288,
                "z": 0.19426114857196808
            }
        },
        "name": "move_to_magneteinheit_A"
    },
    "id": "PRM_move_to_magneteinheit_A_60",
    "joint_names": [
        "shoulder_pan_joint",
        "shoulder_lift_joint",
        "elbow_joint",
        "wrist_1_joint",
        "wrist_2_joint",
        "wrist_3_joint"
    ],
    "metrics": {
        "cart_traj_len": 3.350475848481738,
        "distance_elbow_joint": 3.872388021967728,
        "distance_shoulder_lift_joint": 0.24360922719975253,
        "distance_shoulder_pan_joint": 3.3943421548801247,
        "distance_wrist_1_joint": 1.0198076015141355,
        "distance_wrist_2_joint": 2.1579108290300115,
        "distance_wrist_3_joint": 3.6963119267554467,
        "smoothness": 0.20002840813910985,
        "time": 0.206506356,
        "traj_len": 3.7926731682742187,
        "weighted_distance": 4.995469151681577
    },
    "planner": "PRM",
    "start": {
        "state": {
            "elbow_joint": -1.9196185241190666,
            "shoulder_lift_joint": -1.2443396400964142,
            "shoulder_pan_joint": 2.6996025414629847,
            "wrist_1_joint": -1.5485510000780065,
            "wrist_2_joint": -1.5709468930060704,
            "wrist_3_joint": 0.4420197071253992
        }
    },
    "waypoints": [
        {
            "positions": [
                2.6996025414629847,
                -1.2443396400964142,
                -1.9196185241190666,
                -1.5485510000780065,
                -1.5709468930060704,
                0.4420197071253992
            ]
        },
        {
            "positions": [
                2.535391430487953,
                -1.2305600215288979,
                -1.8349172378753715,
                -1.4984269379675932,
                -1.5903661901476756,
                0.3863754003383651
            ]
        },
        {
            "positions": [
                2.3711803195129217,
                -1.2167804029613816,
                -1.7502159516316764,
                -1.44830287585718,
                -1.6097854872892807,
                0.330731093551331
            ]
        },
        {
            "positions": [
                2.20696920853789,
                -1.203000784393865,
                -1.665514665387981,
                -1.3981788137467668,
                -1.629204784430886,
                0.27508678676429693
            ]
        },
        {
            "positions": [
                2.0427580975628583,
                -1.1892211658263487,
                -1.580813379144286,
                -1.3480547516363535,
                -1.648624081572491,
                0.21944247997726285
            ]
        },
        {
            "positions": [
                1.8785469865878266,
                -1.1754415472588324,
                -1.4961120929005909,
                -1.2979306895259404,
                -1.6680433787140962,
                0.16379817319022877
            ]
        },
        {
            "positions": [
                1.7143358756127949,
                -1.161661928691316,
                -1.4114108066568956,
                -1.247806627415527,
                -1.6874626758557014,
                0.10815386640319469
            ]
        },
        {
            "positions": [
                1.5501247646377634,
                -1.1478823101237996,
                -1.3267095204132004,
                -1.1976825653051137,
                -1.7068819729973066,
                0.052509559616160606
            ]
        },
        {
            "positions": [
                1.385913653662732,
                -1.1341026915562833,
                -1.2420082341695053,
                -1.1475585031947007,
                -1.7263012701389118,
                -0.0031347471708734753
            ]
        },
        {
            "positions": [
                1.2217025426877002,
                -1.120323072988767,
                -1.1573069479258102,
                -1.0974344410842873,
                -1.745720567280517,
                -0.0587790539579075
            ]
        },
        {
            "positions": [
                1.0574914317126685,
                -1.1065434544212507,
                -1.0726056616821151,
                -1.047310378973874,
                -1.7651398644221221,
                -0.11442336074494164
            ]
        },
        {
            "positions": [
                0.893280320737637,
                -1.0927638358537342,
                -0.9879043754384199,
                -0.9971863168634609,
                -1.7845591615637273,
                -0.17006766753197566
            ]
        },
        {
            "positions": [
                0.7290692097626053,
                -1.0789842172862179,
                -0.9032030891947247,
                -0.9470622547530476,
                -1.8039784587053325,
                -0.22571197431900986
            ]
        },
        {
            "positions": [
                0.6726765850525929,
                -1.0781544058393104,
                -0.7774898433720245,
                -0.9286844741723119,
                -1.734916087357892,
                -0.35113168537887696
            ]
        },
        {
            "positions": [
                0.6162839603425805,
                -1.077324594392403,
                -0.6517765975493244,
                -0.9103066935915762,
                -1.6658537160104514,
                -0.47655139643874406
            ]
        },
        {
            "positions": [
                0.5598913356325681,
                -1.0764947829454954,
                -0.5260633517266242,
                -0.8919289130108405,
                -1.5967913446630109,
                -0.6019711074986112
            ]
        },
        {
            "positions": [
                0.5034987109225557,
                -1.075664971498588,
                -0.40035010590392406,
                -0.8735511324301048,
                -1.5277289733155706,
                -0.7273908185584783
            ]
        },
        {
            "positions": [
                0.4471060862125433,
                -1.0748351600516806,
                -0.2746368600812239,
                -0.855173351849369,
                -1.45866660196813,
                -0.8528105296183455
            ]
        },
        {
            "positions": [
                0.3907134615025309,
                -1.0740053486047731,
                -0.14892361425852374,
                -0.8367955712686334,
                -1.3896042306206895,
                -0.9782302406782124
            ]
        },
        {
            "positions": [
                0.33432083679251845,
                -1.0731755371578655,
                -0.02321036843582358,
                -0.8184177906878977,
                -1.320541859273249,
                -1.1036499517380796
            ]
        },
        {
            "positions": [
                0.2779282120825061,
                -1.072345725710958,
                0.10250287738687658,
                -0.800040010107162,
                -1.2514794879258084,
                -1.2290696627979467
            ]
        },
        {
            "positions": [
                0.22153558737249368,
                -1.0715159142640507,
                0.22821612320957674,
                -0.7816622295264263,
                -1.182417116578368,
                -1.3544893738578139
            ]
        },
        {
            "positions": [
                0.1651429626624813,
                -1.0706861028171433,
                0.3539293690322769,
                -0.7632844489456906,
                -1.1133547452309274,
                -1.479909084917681
            ]
        },
        {
            "positions": [
                0.1087503379524688,
                -1.0698562913702359,
                0.4796426148549773,
                -0.7449066683649549,
                -1.0442923738834868,
                -1.6053287959775482
            ]
        },
        {
            "positions": [
                0.05235771324245653,
                -1.0690264799233282,
                0.6053558606776772,
                -0.7265288877842192,
                -0.9752300025360464,
                -1.7307485070374151
            ]
        },
        {
            "positions": [
                -0.004034911467555857,
                -1.0681966684764208,
                0.7310691065003774,
                -0.7081511072034834,
                -0.9061676311886059,
                -1.8561682180972823
            ]
        },
        {
            "positions": [
                -0.06042753617756835,
                -1.0673668570295134,
                0.8567823523230775,
                -0.6897733266227477,
                -0.8371052598411654,
                -1.9815879291571494
            ]
        },
        {
            "positions": [
                -0.11682016088758074,
                -1.066537045582606,
                0.9824955981457777,
                -0.671395546042012,
                -0.7680428884937247,
                -2.1070076402170166
            ]
        },
        {
            "positions": [
                -0.173212785597593,
                -1.0657072341356983,
                1.1082088439684779,
                -0.6530177654612763,
                -0.6989805171462844,
                -2.2324273512768835
            ]
        },
        {
            "positions": [
                -0.2296054103076055,
                -1.064877422688791,
                1.233922089791178,
                -0.6346399848805406,
                -0.6299181457988439,
                -2.3578470623367505
            ]
        },
        {
            "positions": [
                -0.28599803501761784,
                -1.0640476112418835,
                1.3596353356138784,
                -0.6162622042998049,
                -0.5608557744514034,
                -2.483266773396618
            ]
        },
        {
            "positions": [
                -0.2276063809605432,
                -1.073092925291201,
                1.4443687873617046,
                -0.6287648908335098,
                -0.46346197744042905,
                -2.593413265715679
            ]
        },
        {
            "positions": [
                -0.16921472690346856,
                -1.0821382393405183,
                1.5291022391095306,
                -0.6412675773672146,
                -0.3660681804294546,
                -2.703559758034741
            ]
        },
        {
            "positions": [
                -0.1108230728463939,
                -1.0911835533898357,
                1.6138356908573568,
                -0.6537702639009195,
                -0.2686743834184802,
                -2.8137062503538024
            ]
        },
        {
            "positions": [
                -0.052431418789319256,
                -1.1002288674391532,
                1.6985691426051828,
                -0.6662729504346243,
                -0.17128058640750576,
                -2.9238527426728638
            ]
        },
        {
            "positions": [
                0.005960235267755409,
                -1.1092741814884706,
                1.783302594353009,
                -0.6787756369683292,
                -0.07388678939653132,
                -3.033999234991925
            ]
        },
        {
            "positions": [
                0.06435188932483005,
                -1.118319495537788,
                1.8680360461008352,
                -0.691278323502034,
                0.02350700761444302,
                -3.144145727310987
            ]
        },
        {
            "positions": [
                0.12274354338190467,
                -1.1273648095871054,
                1.9527694978486612,
                -0.7037810100357389,
                0.12090080462541757,
                -3.2542922196300483
            ]
        }
    ]
}