{
    "goal": {
        "global_pose": {
            "orientation": {
                "w": 0.7031023480610252,
                "x": -0.7110244013736278,
                "y": 0.0077485991402295624,
                "z": 0.005598929693374583
            },
            "position": {
                "x": -0.8841497679147869,
                "y": 0.44412534475326537,
                "z": 0.3711530566215515
            }
        },
        "name": "move_to_auspresseinheit_D"
    },
    "id": "PRM_move_to_auspresseinheit_D_99",
    "joint_names": [
        "shoulder_pan_joint",
        "shoulder_lift_joint",
        "elbow_joint",
        "wrist_1_joint",
        "wrist_2_joint",
        "wrist_3_joint"
    ],
    "metrics": {
        "cart_traj_len": 0.34387493700505756,
        "distance_elbow_joint": 0.6625253208524056,
        "distance_shoulder_lift_joint": 0.13430909684458214,
        "distance_shoulder_pan_joint": 0.1331738019270216,
        "distance_wrist_1_joint": 0.619015255909038,
        "distance_wrist_2_joint": 1.4318185182112688,
        "distance_wrist_3_joint": 0.08147244749815519,
        "smoothness": 8.881784183823303e-16,
        "time": 0.022046603,
        "traj_len": 1.7499469824090306,
        "weighted_distance": 2.2969747735574044
    },
    "planner": "PRM",
    "start": {
        "state": {
            "elbow_joint": -1.8275523626775212,
            "shoulder_lift_joint": -2.126789852344167,
            "shoulder_pan_joint": -0.03513704404078235,
            "wrist_1_joint": -2.347782403156801,
            "wrist_2_joint": -1.6058999987535132,
            "wrist_3_joint": -3.0880379163319196
        }
    },
    "waypoints": [
        {
            "positions": [
                -0.03513704404078235,
                -2.126789852344167,
                -1.8275523626775212,
                -2.347782403156801,
                -1.6058999987535132,
                -3.0880379163319196
            ]
        },
        {
            "positions": [
                -0.05178376928166005,
                -2.1435784894497396,
                -1.7447366975709704,
                -2.4251593101454305,
                -1.4269226839771045,
                -3.0778538603946504
            ]
        },
        {
            "positions": [
                -0.06843049452253774,
                -2.1603671265553124,
                -1.6619210324644198,
                -2.50253621713406,
                -1.2479453692006959,
                -3.0676698044573807
            ]
        },
        {
            "positions": [
                -0.08507721976341545,
                -2.177155763660885,
                -1.5791053673578692,
                -2.5799131241226902,
                -1.0689680544242874,
                -3.0574857485201115
            ]
        },
        {
            "positions": [
                -0.10172394500429316,
                -2.193944400766458,
                -1.4962897022513184,
                -2.65729003111132,
                -0.8899907396478788,
                -3.047301692582842
            ]
        },
        {
            "positions": [
                -0.11837067024517087,
                -2.2107330378720307,
                -1.4134740371447676,
                -2.7346669380999495,
                -0.7110134248714701,
                -3.0371176366455725
            ]
        },
        {
            "positions": [
                -0.13501739548604855,
                -2.2275216749776034,
                -1.330658372038217,
                -2.8120438450885796,
                -0.5320361100950617,
                -3.0269335807083033
            ]
        },
        {
            "positions": [
                -0.15166412072692625,
                -2.244310312083176,
                -1.2478427069316664,
                -2.8894207520772093,
                -0.35305879531865303,
                -3.0167495247710336
            ]
        },
        {
            "positions": [
                -0.16831084596780396,
                -2.261098949188749,
                -1.1650270418251156,
                -2.966797659065839,
                -0.17408148054224437,
                -3.0065654688337644
            ]
        }
    ]
}