{
    "goal": {
        "global_pose": {
            "orientation": {
                "w": -0.4816463035849501,
                "x": 0.5182115481033762,
                "y": 0.4908360881923453,
                "z": -0.5084816262002911
            },
            "position": {
                "x": -0.8240239810943604,
                "y": 0.19912469901144506,
                "z": 0.16403168439865112
            }
        },
        "name": "move_to_storage_D"
    },
    "id": "PRM_move_to_storage_D_52",
    "joint_names": [
        "shoulder_pan_joint",
        "shoulder_lift_joint",
        "elbow_joint",
        "wrist_1_joint",
        "wrist_2_joint",
        "wrist_3_joint"
    ],
    "metrics": {
        "cart_traj_len": 3.324747596958831,
        "distance_elbow_joint": 4.2126315384966,
        "distance_shoulder_lift_joint": 1.263732949324407,
        "distance_shoulder_pan_joint": 2.8142130919980617,
        "distance_wrist_1_joint": 2.7254186827934603,
        "distance_wrist_2_joint": 3.6249953070290117,
        "distance_wrist_3_joint": 3.1248520492424596,
        "smoothness": 0.1100544367507266,
        "time": 0.374528039,
        "traj_len": 4.214954758818178,
        "weighted_distance": 5.510531889681013
    },
    "planner": "PRM",
    "start": {
        "state": {
            "elbow_joint": -2.384821988534728,
            "shoulder_lift_joint": -2.2788054721415256,
            "shoulder_pan_joint": -0.1854694642142757,
            "wrist_1_joint": 1.4845938289331202,
            "wrist_2_joint": 0.17898776772866878,
            "wrist_3_joint": 0.037105688729662994
        }
    },
    "waypoints": [
        {
            "positions": [
                -0.1854694642142757,
                -2.2788054721415256,
                -2.384821988534728,
                1.4845938289331202,
                0.17898776772866878,
                0.037105688729662994
            ]
        },
        {
            "positions": [
                -0.09060765032089876,
                -2.2420981002781817,
                -2.350072302312679,
                1.5217644369526395,
                0.08188761996038271,
                -0.0035783133647075416
            ]
        },
        {
            "positions": [
                0.004254163572478181,
                -2.205390728414838,
                -2.3153226160906297,
                1.5589350449721586,
                -0.015212527807903359,
                -0.04426231545907808
            ]
        },
        {
            "positions": [
                0.09911597746585513,
                -2.1686833565514947,
                -2.2805729298685806,
                1.596105652991678,
                -0.11231267557618943,
                -0.08494631755344861
            ]
        },
        {
            "positions": [
                0.19397779135923207,
                -2.1319759846881507,
                -2.245823243646531,
                1.6332762610111973,
                -0.2094128233444755,
                -0.12563031964781915
            ]
        },
        {
            "positions": [
                0.288839605252609,
                -2.095268612824807,
                -2.211073557424482,
                1.6704468690307164,
                -0.30651297111276155,
                -0.16631432174218969
            ]
        },
        {
            "positions": [
                0.383701419145986,
                -2.0585612409614633,
                -2.176323871202433,
                1.7076174770502357,
                -0.40361311888104767,
                -0.20699832383656022
            ]
        },
        {
            "positions": [
                0.49117426922061685,
                -2.013766323860885,
                -2.0789830908229194,
                1.6881158937599527,
                -0.44516886981120446,
                -0.28805072756879446
            ]
        },
        {
            "positions": [
                0.5986471192952477,
                -1.9689714067603072,
                -1.9816423104434058,
                1.6686143104696696,
                -0.4867246207413612,
                -0.36910313130102873
            ]
        },
        {
            "positions": [
                0.7061199693698786,
                -1.9241764896597293,
                -1.8843015300638921,
                1.6491127271793866,
                -0.528280371671518,
                -0.450155535033263
            ]
        },
        {
            "positions": [
                0.8135928194445095,
                -1.8793815725591514,
                -1.7869607496843787,
                1.6296111438891034,
                -0.5698361226016747,
                -0.5312079387654972
            ]
        },
        {
            "positions": [
                0.9210656695191404,
                -1.8345866554585732,
                -1.6896199693048652,
                1.6101095605988205,
                -0.6113918735318316,
                -0.6122603424977315
            ]
        },
        {
            "positions": [
                1.0285385195937713,
                -1.7897917383579953,
                -1.5922791889253516,
                1.5906079773085373,
                -0.6529476244619883,
                -0.6933127462299657
            ]
        },
        {
            "positions": [
                1.136011369668402,
                -1.7449968212574172,
                -1.494938408545838,
                1.5711063940182544,
                -0.694503375392145,
                -0.7743651499622001
            ]
        },
        {
            "positions": [
                1.2434842197430331,
                -1.7002019041568392,
                -1.3975976281663245,
                1.5516048107279712,
                -0.7360591263223017,
                -0.8554175536944343
            ]
        },
        {
            "positions": [
                1.3509570698176638,
                -1.6554069870562613,
                -1.300256847786811,
                1.5321032274376882,
                -0.7776148772524585,
                -0.9364699574266685
            ]
        },
        {
            "positions": [
                1.4584299198922948,
                -1.6106120699556832,
                -1.2029160674072974,
                1.512601644147405,
                -0.8191706281826153,
                -1.0175223611589028
            ]
        },
        {
            "positions": [
                1.5659027699669257,
                -1.5658171528551053,
                -1.1055752870277837,
                1.493100060857122,
                -0.8607263791127722,
                -1.098574764891137
            ]
        },
        {
            "positions": [
                1.6733756200415566,
                -1.5210222357545273,
                -1.0082345066482703,
                1.473598477566839,
                -0.9022821300429289,
                -1.1796271686233712
            ]
        },
        {
            "positions": [
                1.7808484701161875,
                -1.4762273186539492,
                -0.9108937262687566,
                1.454096894276556,
                -0.9438378809730856,
                -1.2606795723556057
            ]
        },
        {
            "positions": [
                1.8883213201908182,
                -1.4314324015533713,
                -0.8135529458892432,
                1.434595310986273,
                -0.9853936319032424,
                -1.34173197608784
            ]
        },
        {
            "positions": [
                1.9957941702654494,
                -1.3866374844527933,
                -0.7162121655097295,
                1.4150937276959898,
                -1.0269493828333993,
                -1.422784379820074
            ]
        },
        {
            "positions": [
                2.10326702034008,
                -1.3418425673522152,
                -0.6188713851302161,
                1.3955921444057067,
                -1.0685051337635558,
                -1.5038367835523083
            ]
        },
        {
            "positions": [
                2.210739870414711,
                -1.297047650251637,
                -0.5215306047507025,
                1.3760905611154237,
                -1.1100608846937128,
                -1.5848891872845428
            ]
        },
        {
            "positions": [
                2.318212720489342,
                -1.2522527331510593,
                -0.424189824371189,
                1.3565889778251408,
                -1.1516166356238693,
                -1.6659415910167767
            ]
        },
        {
            "positions": [
                2.425685570563973,
                -1.2074578160504812,
                -0.32684904399167525,
                1.3370873945348576,
                -1.1931723865540262,
                -1.7469939947490112
            ]
        },
        {
            "positions": [
                2.4353550018601546,
                -1.1982966116107974,
                -0.22424625380341115,
                1.2355700158605258,
                -1.085894522137535,
                -1.8108393454996676
            ]
        },
        {
            "positions": [
                2.445024433156336,
                -1.1891354071711133,
                -0.12164346361514705,
                1.134052637186194,
                -0.9786166577210437,
                -1.874684696250324
            ]
        },
        {
            "positions": [
                2.454693864452518,
                -1.1799742027314295,
                -0.019040673426882926,
                1.0325352585118623,
                -0.8713387933045524,
                -1.9385300470009805
            ]
        },
        {
            "positions": [
                2.4643632957486994,
                -1.1708129982917455,
                0.08356211676138114,
                0.9310178798375306,
                -0.7640609288880611,
                -2.0023753977516368
            ]
        },
        {
            "positions": [
                2.474032727044881,
                -1.1616517938520616,
                0.18616490694964527,
                0.8295005011631987,
                -0.6567830644715699,
                -2.0662207485022934
            ]
        },
        {
            "positions": [
                2.4837021583410626,
                -1.1524905894123776,
                0.2887676971379094,
                0.727983122488867,
                -0.5495052000550785,
                -2.13006609925295
            ]
        },
        {
            "positions": [
                2.493371589637244,
                -1.1433293849726938,
                0.3913704873261735,
                0.6264657438145352,
                -0.4422273356385873,
                -2.1939114500036063
            ]
        },
        {
            "positions": [
                2.5030410209334257,
                -1.1341681805330097,
                0.49397327751443754,
                0.5249483651402035,
                -0.33494947122209595,
                -2.2577568007542625
            ]
        },
        {
            "positions": [
                2.5127104522296073,
                -1.125006976093326,
                0.5965760677027017,
                0.42343098646587174,
                -0.22767160680560472,
                -2.321602151504919
            ]
        },
        {
            "positions": [
                2.522379883525789,
                -1.1158457716536418,
                0.6991788578909658,
                0.3219136077915399,
                -0.12039374238911349,
                -2.385447502255576
            ]
        },
        {
            "positions": [
                2.5320493148219705,
                -1.106684567213958,
                0.80178164807923,
                0.22039622911720813,
                -0.013115877972621925,
                -2.449292853006232
            ]
        },
        {
            "positions": [
                2.541718746118152,
                -1.097523362774274,
                0.904384438267494,
                0.11887885044287638,
                0.0941619864438692,
                -2.5131382037568883
            ]
        },
        {
            "positions": [
                2.5513881774143337,
                -1.0883621583345902,
                1.0069872284557584,
                0.017361471768544634,
                0.20143985086036054,
                -2.576983554507545
            ]
        },
        {
            "positions": [
                2.5610576087105152,
                -1.0792009538949061,
                1.1095900186440222,
                -0.08415590690578711,
                0.30871771527685166,
                -2.6408289052582017
            ]
        },
        {
            "positions": [
                2.570727040006697,
                -1.0700397494552223,
                1.2121928088322864,
                -0.18567328558011909,
                0.4159955796933432,
                -2.704674256008858
            ]
        },
        {
            "positions": [
                2.5803964713028784,
                -1.0608785450155382,
                1.3147955990205502,
                -0.2871906642544506,
                0.5232734441098343,
                -2.768519606759514
            ]
        },
        {
            "positions": [
                2.59006590259906,
                -1.0517173405758544,
                1.4173983892088144,
                -0.3887080429287826,
                0.6305513085263257,
                -2.832364957510171
            ]
        },
        {
            "positions": [
                2.5997353338952416,
                -1.0425561361361706,
                1.5200011793970787,
                -0.4902254216031141,
                0.7378291729428168,
                -2.8962103082608275
            ]
        },
        {
            "positions": [
                2.609404765191423,
                -1.0333949316964866,
                1.622603969585343,
                -0.5917428002774461,
                0.8451070373593081,
                -2.9600556590114837
            ]
        },
        {
            "positions": [
                2.6190741964876048,
                -1.0242337272568025,
                1.7252067597736067,
                -0.6932601789517778,
                0.9523849017757993,
                -3.02390100976214
            ]
        },
        {
            "positions": [
                2.6287436277837863,
                -1.0150725228171187,
                1.8278095499618712,
                -0.7947775576261098,
                1.0596627661922908,
                -3.0877463605127966
            ]
        }
    ]
}