{
    "goal": {
        "global_pose": {
            "orientation": {
                "w": 0.7047431493862688,
                "x": -0.7094548369677653,
                "y": 0.0024358444001904,
                "z": -0.0022348060817251984
            },
            "position": {
                "x": -0.39052492380142206,
                "y": 0.3671506643295288,
                "z": 0.19426114857196808
            }
        },
        "name": "move_to_magneteinheit_D"
    },
    "id": "PRM_move_to_magneteinheit_D_72",
    "joint_names": [
        "shoulder_pan_joint",
        "shoulder_lift_joint",
        "elbow_joint",
        "wrist_1_joint",
        "wrist_2_joint",
        "wrist_3_joint"
    ],
    "metrics": {
        "cart_traj_len": 4.908471584709632,
        "distance_elbow_joint": 3.1647629111160818,
        "distance_shoulder_lift_joint": 2.0162512688905814,
        "distance_shoulder_pan_joint": 4.014607440190183,
        "distance_wrist_1_joint": 3.9809695929835,
        "distance_wrist_2_joint": 1.817414819991141,
        "distance_wrist_3_joint": 2.172886778626474,
        "smoothness": 0.47375889046757036,
        "time": 0.294793313,
        "traj_len": 4.1432949221360005,
        "weighted_distance": 5.225997587257916
    },
    "planner": "PRM",
    "start": {
        "state": {
            "elbow_joint": 0.749534889911806,
            "shoulder_lift_joint": -0.6476975780787326,
            "shoulder_pan_joint": -2.711696901376241,
            "wrist_1_joint": -0.07506478083263063,
            "wrist_2_joint": 0.43296659715538205,
            "wrist_3_joint": -3.14703540197715
        }
    },
    "waypoints": [
        {
            "positions": [
                -2.711696901376241,
                -0.6476975780787326,
                0.749534889911806,
                -0.07506478083263063,
                0.43296659715538205,
                -3.14703540197715
            ]
        },
        {
            "positions": [
                -2.736317676724945,
                -0.6065041065773455,
                0.6537804507115763,
                -0.04729671643479401,
                0.33705612984907984,
                -3.0611061440760916
            ]
        },
        {
            "positions": [
                -2.7609384520736495,
                -0.5653106350759585,
                0.5580260115113467,
                -0.019528652036957382,
                0.2411456625427776,
                -2.9751768861750336
            ]
        },
        {
            "positions": [
                -2.7855592274223535,
                -0.5241171635745714,
                0.4622715723111171,
                0.008239412360879245,
                0.14523519523647538,
                -2.889247628273975
            ]
        },
        {
            "positions": [
                -2.785046076573685,
                -0.4955933694025733,
                0.35385669060228153,
                0.06259280015705818,
                0.05252156240028974,
                -2.803255029769574
            ]
        },
        {
            "positions": [
                -2.784532925725017,
                -0.46706957523057524,
                0.24544180889344594,
                0.11694618795323712,
                -0.0401920704358959,
                -2.7172624312651723
            ]
        },
        {
            "positions": [
                -2.7840197748763487,
                -0.43854578105857717,
                0.13702692718461032,
                0.17129957574941607,
                -0.13290570327208157,
                -2.631269832760771
            ]
        },
        {
            "positions": [
                -2.7700765387268484,
                -0.4156542887963595,
                0.026806430474122372,
                0.2364578176861677,
                -0.2251358723520296,
                -2.5456738952408915
            ]
        },
        {
            "positions": [
                -2.7561333025773482,
                -0.39276279653414187,
                -0.08341406623636557,
                0.3016160596229193,
                -0.31736604143197755,
                -2.4600779577210123
            ]
        },
        {
            "positions": [
                -2.742190066427848,
                -0.3698713042719242,
                -0.19363456294685352,
                0.36677430155967095,
                -0.4095962105119256,
                -2.3744820202011327
            ]
        },
        {
            "positions": [
                -2.7282468302783474,
                -0.34697981200970657,
                -0.3038550596573415,
                0.43193254349642257,
                -0.5018263795918736,
                -2.288886082681253
            ]
        },
        {
            "positions": [
                -2.714303594128847,
                -0.3240883197474889,
                -0.41407555636782944,
                0.4970907854331742,
                -0.5940565486718217,
                -2.2032901451613736
            ]
        },
        {
            "positions": [
                -2.700360357979347,
                -0.30119682748527127,
                -0.5242960530783174,
                0.5622490273699259,
                -0.6862867177517695,
                -2.1176942076414944
            ]
        },
        {
            "positions": [
                -2.6864171218298467,
                -0.2783053352230536,
                -0.6345165497888053,
                0.6274072693066775,
                -0.7785168868317177,
                -2.032098270121615
            ]
        },
        {
            "positions": [
                -2.500343868851087,
                -0.3505006936081164,
                -0.6163502945049493,
                0.7202060016390156,
                -0.7737706629206658,
                -2.051850861533458
            ]
        },
        {
            "positions": [
                -2.314270615872327,
                -0.42269605199317917,
                -0.5981840392210931,
                0.8130047339713538,
                -0.7690244390096137,
                -2.0716034529453005
            ]
        },
        {
            "positions": [
                -2.180971758815133,
                -0.49022182963044414,
                -0.6265814966382272,
                0.731000341988513,
                -0.7436317256653364,
                -2.118935558876101
            ]
        },
        {
            "positions": [
                -2.0476729017579394,
                -0.5577476072677091,
                -0.6549789540553612,
                0.6489959500056723,
                -0.7182390123210591,
                -2.1662676648069015
            ]
        },
        {
            "positions": [
                -1.9143740447007456,
                -0.6252733849049741,
                -0.6833764114724953,
                0.5669915580228317,
                -0.6928462989767818,
                -2.213599770737702
            ]
        },
        {
            "positions": [
                -1.7810751876435518,
                -0.692799162542239,
                -0.7117738688896293,
                0.48498716603999104,
                -0.6674535856325046,
                -2.260931876668503
            ]
        },
        {
            "positions": [
                -1.6477763305863578,
                -0.760324940179504,
                -0.7401713263067634,
                0.4029827740571504,
                -0.6420608722882273,
                -2.3082639825993034
            ]
        },
        {
            "positions": [
                -1.5144774735291642,
                -0.827850717816769,
                -0.7685687837238975,
                0.3209783820743097,
                -0.61666815894395,
                -2.355596088530104
            ]
        },
        {
            "positions": [
                -1.3811786164719702,
                -0.895376495454034,
                -0.7969662411410314,
                0.23897399009146902,
                -0.5912754455996727,
                -2.4029281944609044
            ]
        },
        {
            "positions": [
                -1.2478797594147764,
                -0.9629022730912989,
                -0.8253636985581656,
                0.15696959810862832,
                -0.5658827322553954,
                -2.450260300391705
            ]
        },
        {
            "positions": [
                -1.1145809023575826,
                -1.030428050728564,
                -0.8537611559752996,
                0.07496520612578772,
                -0.5404900189111181,
                -2.4975924063225055
            ]
        },
        {
            "positions": [
                -0.9812820453003888,
                -1.0979538283658288,
                -0.8821586133924337,
                -0.0070391858570529875,
                -0.5150973055668409,
                -2.544924512253306
            ]
        },
        {
            "positions": [
                -0.8479831882431947,
                -1.1654796060030939,
                -0.9105560708095677,
                -0.0890435778398938,
                -0.4897045922225636,
                -2.592256618184107
            ]
        },
        {
            "positions": [
                -0.7146843311860012,
                -1.233005383640359,
                -0.9389535282267019,
                -0.1710479698227344,
                -0.4643118788782863,
                -2.6395887241149074
            ]
        },
        {
            "positions": [
                -0.5813854741288071,
                -1.300531161277624,
                -0.9673509856438358,
                -0.2530523618055751,
                -0.438919165534009,
                -2.686920830045708
            ]
        },
        {
            "positions": [
                -0.44808661707161335,
                -1.3680569389148887,
                -0.9957484430609699,
                -0.3350567537884157,
                -0.4135264521897317,
                -2.7342529359765084
            ]
        },
        {
            "positions": [
                -0.31478776001441955,
                -1.4355827165521537,
                -1.024145900478104,
                -0.4170611457712565,
                -0.38813373884545443,
                -2.781585041907309
            ]
        },
        {
            "positions": [
                -0.18148890295722575,
                -1.5031084941894188,
                -1.052543357895238,
                -0.4990655377540971,
                -0.36274102550117715,
                -2.8289171478381094
            ]
        },
        {
            "positions": [
                -0.04819004590003173,
                -1.570634271826684,
                -1.080940815312372,
                -0.5810699297369379,
                -0.33734831215689987,
                -2.8762492537689104
            ]
        },
        {
            "positions": [
                0.08510881115716185,
                -1.6381600494639486,
                -1.1093382727295062,
                -0.6630743217197783,
                -0.3119555988126226,
                -2.9235813596997104
            ]
        },
        {
            "positions": [
                0.21840766821435587,
                -1.7056858271012136,
                -1.1377357301466402,
                -0.7450787137026191,
                -0.2865628854683453,
                -2.9709134656305114
            ]
        },
        {
            "positions": [
                0.35170652527154944,
                -1.7732116047384787,
                -1.1661331875637742,
                -0.8270831056854597,
                -0.261170172124068,
                -3.018245571561312
            ]
        },
        {
            "positions": [
                0.48500538232874346,
                -1.8407373823757438,
                -1.1945306449809083,
                -0.9090874976683005,
                -0.23577745877979078,
                -3.0655776774921124
            ]
        },
        {
            "positions": [
                0.41054088184063536,
                -1.831356606944387,
                -1.3220897955462354,
                -1.0613994806171743,
                -0.2287561356740002,
                -3.0628587620031746
            ]
        },
        {
            "positions": [
                0.33607638135252726,
                -1.8219758315130299,
                -1.4496489461115623,
                -1.213711463566048,
                -0.22173481256820962,
                -3.0601398465142364
            ]
        },
        {
            "positions": [
                0.26161188086441917,
                -1.812595056081673,
                -1.5772080966768893,
                -1.3660234465149217,
                -0.21471348946241903,
                -3.0574209310252987
            ]
        },
        {
            "positions": [
                0.18714738037631107,
                -1.803214280650316,
                -1.7047672472422164,
                -1.5183354294637954,
                -0.20769216635662843,
                -3.054702015536361
            ]
        },
        {
            "positions": [
                0.11268287988820291,
                -1.7938335052189591,
                -1.8323263978075435,
                -1.6706474124126691,
                -0.20067084325083784,
                -3.0519831000474227
            ]
        },
        {
            "positions": [
                0.03821837940009487,
                -1.784452729787602,
                -1.9598855483728703,
                -1.8229593953615428,
                -0.19364952014504727,
                -3.049264184558485
            ]
        },
        {
            "positions": [
                -0.03624612108801328,
                -1.7750719543562452,
                -2.087444698938197,
                -1.9752713783104165,
                -0.18662819703925668,
                -3.046545269069547
            ]
        },
        {
            "positions": [
                -0.11071062157612133,
                -1.7656911789248881,
                -2.2150038495035242,
                -2.1275833612592905,
                -0.1796068739334661,
                -3.043826353580609
            ]
        },
        {
            "positions": [
                -0.18517512206422945,
                -1.7563104034935313,
                -2.3425630000688513,
                -2.279895344208164,
                -0.17258555082767552,
                -3.041107438091671
            ]
        }
    ]
}