{
    "goal": {
        "global_pose": {
            "orientation": {
                "w": 0.7047431493862688,
                "x": -0.7094548369677653,
                "y": 0.0024358444001904,
                "z": -0.0022348060817251984
            },
            "position": {
                "x": -0.39052492380142206,
                "y": 0.3671506643295288,
                "z": 0.19426114857196808
            }
        },
        "name": "move_to_magneteinheit_D"
    },
    "id": "PRM_move_to_magneteinheit_D_17",
    "joint_names": [
        "shoulder_pan_joint",
        "shoulder_lift_joint",
        "elbow_joint",
        "wrist_1_joint",
        "wrist_2_joint",
        "wrist_3_joint"
    ],
    "metrics": {
        "cart_traj_len": 4.389311755178826,
        "distance_elbow_joint": 3.2910322977033024,
        "distance_shoulder_lift_joint": 2.602900632501138,
        "distance_shoulder_pan_joint": 6.837436159159217,
        "distance_wrist_1_joint": 5.683663893509124,
        "distance_wrist_2_joint": 5.0686505794895504,
        "distance_wrist_3_joint": 5.377054449655366,
        "smoothness": 0.6416556491213123,
        "time": 0.387579597,
        "traj_len": 5.372219095682685,
        "weighted_distance": 7.096982554883949
    },
    "planner": "PRM",
    "start": {
        "state": {
            "elbow_joint": 0.749534889911806,
            "shoulder_lift_joint": -0.6476975780787326,
            "shoulder_pan_joint": -2.711696901376241,
            "wrist_1_joint": -0.07506478083263063,
            "wrist_2_joint": 0.43296659715538205,
            "wrist_3_joint": -3.14703540197715
        }
    },
    "waypoints": [
        {
            "positions": [
                -2.711696901376241,
                -0.6476975780787326,
                0.749534889911806,
                -0.07506478083263063,
                0.43296659715538205,
                -3.14703540197715
            ]
        },
        {
            "positions": [
                -2.7140638304815647,
                -0.6628500673727895,
                0.7616835101769934,
                -0.13160994693367423,
                0.3710518915434541,
                -2.918066398355944
            ]
        },
        {
            "positions": [
                -2.716430759586889,
                -0.6780025566668463,
                0.7738321304421809,
                -0.1881551130347178,
                0.3091371859315261,
                -2.6890973947347376
            ]
        },
        {
            "positions": [
                -2.7155575046526903,
                -0.6969102094694094,
                0.782529619339368,
                -0.2471928043448744,
                0.24624662942744888,
                -2.4573442101090297
            ]
        },
        {
            "positions": [
                -2.7146842497184918,
                -0.7158178622719724,
                0.7912271082365552,
                -0.306230495655031,
                0.18335607292337164,
                -2.2255910254833218
            ]
        },
        {
            "positions": [
                -2.713810994784293,
                -0.7347255150745355,
                0.7999245971337423,
                -0.3652681869651876,
                0.1204655164192944,
                -1.9938378408576134
            ]
        },
        {
            "positions": [
                -2.7129377398500947,
                -0.7536331678770987,
                0.8086220860309293,
                -0.42430587827534416,
                0.05757495991521716,
                -1.7620846562319055
            ]
        },
        {
            "positions": [
                -2.712064484915896,
                -0.7725408206796618,
                0.8173195749281165,
                -0.48334356958550084,
                -0.005315596588860105,
                -1.5303314716061973
            ]
        },
        {
            "positions": [
                -2.7111912299816976,
                -0.7914484734822248,
                0.8260170638253036,
                -0.5423812608956574,
                -0.06820615309293732,
                -1.2985782869804894
            ]
        },
        {
            "positions": [
                -2.710317975047499,
                -0.8103561262847879,
                0.8347145527224907,
                -0.601418952205814,
                -0.13109670959701458,
                -1.0668251023547812
            ]
        },
        {
            "positions": [
                -2.6734402175055623,
                -0.8254467968272885,
                0.7291408111323034,
                -0.5650816712467384,
                -0.0762244393839103,
                -0.9233597349821789
            ]
        },
        {
            "positions": [
                -2.6365624599636255,
                -0.8405374673697892,
                0.6235670695421163,
                -0.5287443902876626,
                -0.021352169170806026,
                -0.7798943676095765
            ]
        },
        {
            "positions": [
                -2.5996847024216887,
                -0.8556281379122898,
                0.517993327951929,
                -0.49240710932858694,
                0.03352010104229827,
                -0.6364290002369741
            ]
        },
        {
            "positions": [
                -2.562806944879752,
                -0.8707188084547903,
                0.4124195863617418,
                -0.45606982836951127,
                0.08839237125540253,
                -0.49296363286437184
            ]
        },
        {
            "positions": [
                -2.525929187337815,
                -0.8858094789972909,
                0.30684584477155463,
                -0.4197325474104356,
                0.14326464146850681,
                -0.34949826549176954
            ]
        },
        {
            "positions": [
                -2.4890514297958783,
                -0.9009001495397916,
                0.20127210318136723,
                -0.3833952664513599,
                0.19813691168161113,
                -0.20603289811916714
            ]
        },
        {
            "positions": [
                -2.4521736722539416,
                -0.9159908200822922,
                0.09569836159118006,
                -0.34705798549228417,
                0.2530091818947154,
                -0.06256753074656496
            ]
        },
        {
            "positions": [
                -2.4152959147120048,
                -0.9310814906247927,
                -0.009875379999007117,
                -0.31072070453320855,
                0.30788145210781964,
                0.08089783662603756
            ]
        },
        {
            "positions": [
                -2.378418157170068,
                -0.9461721611672933,
                -0.11544912158919429,
                -0.27438342357413287,
                0.3627537223209239,
                0.22436320399863985
            ]
        },
        {
            "positions": [
                -2.341540399628131,
                -0.961262831709794,
                -0.22102286317938147,
                -0.2380461426150572,
                0.4176259925340282,
                0.36782857137124214
            ]
        },
        {
            "positions": [
                -2.3046626420861944,
                -0.9763535022522946,
                -0.32659660476956887,
                -0.2017088616559815,
                0.47249826274713247,
                0.5112939387438444
            ]
        },
        {
            "positions": [
                -2.2677848845442576,
                -0.9914441727947951,
                -0.43217034635975626,
                -0.16537158069690577,
                0.5273705329602368,
                0.654759306116447
            ]
        },
        {
            "positions": [
                -2.230907127002321,
                -1.0065348433372958,
                -0.5377440879499434,
                -0.1290342997378301,
                0.5822428031733411,
                0.7982246734890492
            ]
        },
        {
            "positions": [
                -2.194029369460384,
                -1.0216255138797963,
                -0.6433178295401306,
                -0.09269701877875436,
                0.6371150733864454,
                0.9416900408616513
            ]
        },
        {
            "positions": [
                -2.1571516119184473,
                -1.036716184422297,
                -0.7488915711303178,
                -0.056359737819678735,
                0.6919873435995496,
                1.0851554082342538
            ]
        },
        {
            "positions": [
                -1.998561279875327,
                -1.0180716785301376,
                -0.802180889015264,
                -0.10965278593376815,
                0.6111414082107031,
                1.0566981919786693
            ]
        },
        {
            "positions": [
                -1.8399709478322068,
                -0.9994271726379781,
                -0.8554702069002103,
                -0.16294583404785756,
                0.5302954728218565,
                1.0282409757230848
            ]
        },
        {
            "positions": [
                -1.6813806157890865,
                -0.9807826667458187,
                -0.9087595247851564,
                -0.21623888216194698,
                0.44944953743300986,
                0.9997837594675004
            ]
        },
        {
            "positions": [
                -1.5227902837459664,
                -0.9621381608536592,
                -0.9620488426701027,
                -0.2695319302760364,
                0.3686036020441633,
                0.971326543211916
            ]
        },
        {
            "positions": [
                -1.364199951702846,
                -0.9434936549614998,
                -1.0153381605550489,
                -0.3228249783901258,
                0.2877576666553167,
                0.9428693269563315
            ]
        },
        {
            "positions": [
                -1.2056096196597257,
                -0.9248491490693405,
                -1.0686274784399952,
                -0.3761180265042152,
                0.20691173126647017,
                0.9144121107007471
            ]
        },
        {
            "positions": [
                -1.0470192876166056,
                -0.906204643177181,
                -1.1219167963249412,
                -0.42941107461830463,
                0.12606579587762368,
                0.8859548944451626
            ]
        },
        {
            "positions": [
                -0.8884289555734852,
                -0.8875601372850216,
                -1.1752061142098875,
                -0.48270412273239405,
                0.04521986048877702,
                0.8574976781895782
            ]
        },
        {
            "positions": [
                -0.7298386235303651,
                -0.8689156313928621,
                -1.2284954320948338,
                -0.5359971708464835,
                -0.035626074900069526,
                0.8290404619339937
            ]
        },
        {
            "positions": [
                -0.5712482914872448,
                -0.8502711255007027,
                -1.28178474997978,
                -0.5892902189605729,
                -0.11647201028891618,
                0.8005832456784092
            ]
        },
        {
            "positions": [
                -0.41265795944412464,
                -0.8316266196085433,
                -1.3350740678647262,
                -0.6425832670746623,
                -0.19731794567776262,
                0.7721260294228248
            ]
        },
        {
            "positions": [
                -0.2540676274010043,
                -0.8129821137163838,
                -1.3883633857496724,
                -0.6958763151887517,
                -0.2781638810666093,
                0.7436688131672404
            ]
        },
        {
            "positions": [
                -0.09547729535788418,
                -0.7943376078242245,
                -1.4416527036346185,
                -0.7491693633028411,
                -0.3590098164554558,
                0.7152115969116559
            ]
        },
        {
            "positions": [
                0.06311303668523616,
                -0.775693101932065,
                -1.4949420215195648,
                -0.8024624114169305,
                -0.43985575184430226,
                0.6867543806560714
            ]
        },
        {
            "positions": [
                0.22170336872835605,
                -0.7570485960399056,
                -1.548231339404511,
                -0.8557554595310198,
                -0.5207016872331489,
                0.6582971644004871
            ]
        },
        {
            "positions": [
                0.38029370077147684,
                -0.7384040901477462,
                -1.6015206572894574,
                -0.9090485076451094,
                -0.6015476226219956,
                0.6298399481449025
            ]
        },
        {
            "positions": [
                0.5388840328145967,
                -0.7197595842555868,
                -1.6548099751744036,
                -0.9623415557591988,
                -0.6823935580108422,
                0.6013827318893181
            ]
        },
        {
            "positions": [
                0.6974743648577171,
                -0.7011150783634273,
                -1.7080992930593497,
                -1.0156346038732882,
                -0.7632394933996887,
                0.5729255156337336
            ]
        },
        {
            "positions": [
                0.856064696900837,
                -0.682470572471268,
                -1.7613886109442958,
                -1.0689276519873776,
                -0.8440854287885351,
                0.5444682993781492
            ]
        },
        {
            "positions": [
                1.0146550289439578,
                -0.6638260665791085,
                -1.814677928829242,
                -1.122220700101467,
                -0.924931364177382,
                0.5160110831225647
            ]
        },
        {
            "positions": [
                1.1732453609870777,
                -0.6451815606869491,
                -1.8679672467141883,
                -1.1755137482155564,
                -1.0057772995662284,
                0.4875538668669803
            ]
        },
        {
            "positions": [
                1.331835693030198,
                -0.6265370547947897,
                -1.9212565645991346,
                -1.2288067963296458,
                -1.0866232349550748,
                0.4590966506113958
            ]
        },
        {
            "positions": [
                1.490426025073318,
                -0.6078925489026303,
                -1.974545882484081,
                -1.2820998444437353,
                -1.1674691703439215,
                0.4306394343558114
            ]
        },
        {
            "positions": [
                1.6490163571164387,
                -0.5892480430104707,
                -2.027835200369027,
                -1.3353928925578247,
                -1.2483151057327682,
                0.4021822181002269
            ]
        },
        {
            "positions": [
                1.8076066891595586,
                -0.5706035371183114,
                -2.081124518253973,
                -1.388685940671914,
                -1.3291610411216148,
                0.3737250018446424
            ]
        },
        {
            "positions": [
                1.966197021202679,
                -0.551959031226152,
                -2.1344138361389193,
                -1.4419789887860035,
                -1.4100069765104613,
                0.345267785589058
            ]
        },
        {
            "positions": [
                1.8775526466086718,
                -0.6253699727065144,
                -2.1412051060918467,
                -1.307306433622752,
                -1.3483653500801833,
                0.3285903142341524
            ]
        },
        {
            "positions": [
                1.7889082720146647,
                -0.6987809141868768,
                -2.147996376044774,
                -1.1726338784595005,
                -1.2867237236499054,
                0.3119128428792468
            ]
        },
        {
            "positions": [
                1.7002638974206579,
                -0.7721918556672392,
                -2.154787645997701,
                -1.037961323296249,
                -1.2250820972196275,
                0.2952353715243412
            ]
        },
        {
            "positions": [
                1.6116195228266506,
                -0.8456027971476017,
                -2.1615789159506282,
                -0.9032887681329974,
                -1.1634404707893495,
                0.2785579001694356
            ]
        },
        {
            "positions": [
                1.5229751482326437,
                -0.919013738627964,
                -2.1683701859035556,
                -0.7686162129697458,
                -1.1017988443590716,
                0.26188042881453
            ]
        },
        {
            "positions": [
                1.4343307736386366,
                -0.9924246801083265,
                -2.175161455856483,
                -0.6339436578064943,
                -1.0401572179287937,
                0.2452029574596244
            ]
        },
        {
            "positions": [
                1.3456863990446295,
                -1.0658356215886888,
                -2.18195272580941,
                -0.4992711026432427,
                -0.9785155914985157,
                0.2285254861047188
            ]
        },
        {
            "positions": [
                1.2570420244506224,
                -1.1392465630690514,
                -2.188743995762337,
                -0.3645985474799913,
                -0.9168739650682379,
                0.21184801474981318
            ]
        },
        {
            "positions": [
                1.1683976498566153,
                -1.212657504549414,
                -2.1955352657152645,
                -0.2299259923167396,
                -0.85523233863796,
                0.19517054339490758
            ]
        },
        {
            "positions": [
                1.0797532752626084,
                -1.286068446029776,
                -2.202326535668192,
                -0.09525343715348811,
                -0.7935907122076821,
                0.17849307204000198
            ]
        },
        {
            "positions": [
                0.9911089006686012,
                -1.3594793875101385,
                -2.209117805621119,
                0.03941911800976339,
                -0.7319490857774041,
                0.16181560068509637
            ]
        },
        {
            "positions": [
                0.9024645260745943,
                -1.432890328990501,
                -2.215909075574046,
                0.17409167317301488,
                -0.6703074593471262,
                0.14513812933019077
            ]
        },
        {
            "positions": [
                0.8138201514805872,
                -1.5063012704708634,
                -2.2227003455269734,
                0.3087642283362664,
                -0.6086658329168484,
                0.1284606579752852
            ]
        },
        {
            "positions": [
                0.7251757768865799,
                -1.579712211951226,
                -2.2294916154799007,
                0.4434367834995181,
                -0.5470242064865704,
                0.11178318662037953
            ]
        },
        {
            "positions": [
                0.636531402292573,
                -1.6531231534315882,
                -2.236282885432828,
                0.5781093386627694,
                -0.4853825800562924,
                0.09510571526547396
            ]
        },
        {
            "positions": [
                0.5478870276985659,
                -1.7265340949119508,
                -2.243074155385755,
                0.7127818938260209,
                -0.4237409536260146,
                0.07842824391056835
            ]
        },
        {
            "positions": [
                0.45924265310455903,
                -1.799945036392313,
                -2.2498654253386823,
                0.8474544489892724,
                -0.3620993271957367,
                0.06175077255566275
            ]
        },
        {
            "positions": [
                0.3705982785105517,
                -1.8733559778726756,
                -2.2566566952916096,
                0.9821270041525243,
                -0.30045770076545875,
                0.04507330120075714
            ]
        },
        {
            "positions": [
                0.2819539039165446,
                -1.946766919353038,
                -2.263447965244537,
                1.1167995593157758,
                -0.23881607433518082,
                0.02839582984585154
            ]
        },
        {
            "positions": [
                0.19330952932253775,
                -2.0201778608334005,
                -2.2702392351974643,
                1.2514721144790273,
                -0.1771744479049029,
                0.011718358490945935
            ]
        },
        {
            "positions": [
                0.10466515472853066,
                -2.0935888023137625,
                -2.277030505150391,
                1.3861446696422783,
                -0.11553282147462496,
                -0.004959112863959669
            ]
        },
        {
            "positions": [
                0.01602078013452357,
                -2.1669997437941255,
                -2.2838217751033185,
                1.5208172248055303,
                -0.05389119504434703,
                -0.021636584218865273
            ]
        },
        {
            "positions": [
                -0.07262359445948363,
                -2.2404106852744876,
                -2.290613045056246,
                1.655489779968782,
                0.0077504313859308276,
                -0.03831405557377085
            ]
        },
        {
            "positions": [
                -0.12825054670790537,
                -2.260747294731034,
                -2.3308755636131857,
                1.5909085359544346,
                0.08862617715302216,
                -0.02761696775580642
            ]
        },
        {
            "positions": [
                -0.18387749895632713,
                -2.2810839041875806,
                -2.3711380821701256,
                1.5263272919400872,
                0.16950192292011348,
                -0.01691987993784199
            ]
        }
    ]
}