{
    "goal": {
        "global_pose": {
            "orientation": {
                "w": 0.005598929693374612,
                "x": 0.007748599140229565,
                "y": 0.7110244013736278,
                "z": -0.7031023480610252
            },
            "position": {
                "x": 0.1141497679147869,
                "y": -0.7141253447532654,
                "z": 0.3711530566215515
            }
        },
        "name": "move_to_auspresseinheit_B"
    },
    "id": "PRM_move_to_auspresseinheit_B_102",
    "joint_names": [
        "shoulder_pan_joint",
        "shoulder_lift_joint",
        "elbow_joint",
        "wrist_1_joint",
        "wrist_2_joint",
        "wrist_3_joint"
    ],
    "metrics": {
        "cart_traj_len": 0.5649012276898504,
        "distance_elbow_joint": 0.0660292733826684,
        "distance_shoulder_lift_joint": 0.29381461680403764,
        "distance_shoulder_pan_joint": 0.5783232898963031,
        "distance_wrist_1_joint": 0.3384689675215605,
        "distance_wrist_2_joint": 0.9865997638453412,
        "distance_wrist_3_joint": 0.002525218293263798,
        "smoothness": 5.075305295617109e-16,
        "time": 0.025189953,
        "traj_len": 1.5052445415091777,
        "weighted_distance": 1.8962806484528087
    },
    "planner": "PRM",
    "start": {
        "state": {
            "elbow_joint": 2.0193083361928714,
            "shoulder_lift_joint": -1.1220246554650708,
            "shoulder_pan_joint": -1.0952077554168747,
            "wrist_1_joint": -0.8559753972642168,
            "wrist_2_joint": 0.4759566250798843,
            "wrist_3_joint": -3.1240929996934557
        }
    },
    "waypoints": [
        {
            "positions": [
                -1.0952077554168747,
                -1.1220246554650708,
                2.0193083361928714,
                -0.8559753972642168,
                0.4759566250798843,
                -3.1240929996934557
            ]
        },
        {
            "positions": [
                -1.1915949703995918,
                -1.1709937582657437,
                2.00830345729576,
                -0.79956390267729,
                0.6403899190541078,
                -3.1245138694089998
            ]
        },
        {
            "positions": [
                -1.287982185382309,
                -1.2199628610664166,
                1.9972985783986485,
                -0.7431524080903633,
                0.8048232130283313,
                -3.1249347391245434
            ]
        },
        {
            "positions": [
                -1.3843694003650262,
                -1.2689319638670895,
                1.9862936995015372,
                -0.6867409135034366,
                0.969256507002555,
                -3.1253556088400876
            ]
        },
        {
            "positions": [
                -1.4807566153477434,
                -1.3179010666677626,
                1.975288820604426,
                -0.6303294189165098,
                1.1336898009767784,
                -3.1257764785556317
            ]
        },
        {
            "positions": [
                -1.5771438303304606,
                -1.3668701694684355,
                1.9642839417073144,
                -0.573917924329583,
                1.298123094951002,
                -3.1261973482711753
            ]
        },
        {
            "positions": [
                -1.6735310453131778,
                -1.4158392722691084,
                1.953279062810203,
                -0.5175064297426563,
                1.4625563889252255,
                -3.1266182179867195
            ]
        }
    ]
}