{
    "goal": {
        "global_pose": {
            "orientation": {
                "w": 0.7031023502349854,
                "x": -0.7110244035720825,
                "y": 0.007748599164187908,
                "z": 0.005598929710686207
            },
            "position": {
                "x": 0.11585023208521307,
                "y": 0.44412534475326537,
                "z": 0.3711530566215515
            }
        },
        "name": "move_to_auspresseinheit_A"
    },
    "id": "PRM_move_to_auspresseinheit_A_4",
    "joint_names": [
        "shoulder_pan_joint",
        "shoulder_lift_joint",
        "elbow_joint",
        "wrist_1_joint",
        "wrist_2_joint",
        "wrist_3_joint"
    ],
    "metrics": {
        "cart_traj_len": 1.9718831891718358,
        "distance_elbow_joint": 2.3226675364181335,
        "distance_shoulder_lift_joint": 0.5331673540568211,
        "distance_shoulder_pan_joint": 1.146124962435347,
        "distance_wrist_1_joint": 0.7800206648683403,
        "distance_wrist_2_joint": 0.517211870366152,
        "distance_wrist_3_joint": 0.18882193178073514,
        "smoothness": 1.0614908348820995,
        "time": 0.141927483,
        "traj_len": 2.342651130647824,
        "weighted_distance": 2.6763577336973263
    },
    "planner": "PRM",
    "start": {
        "state": {
            "elbow_joint": 2.4225746658250005,
            "shoulder_lift_joint": -1.3736534386056498,
            "shoulder_pan_joint": -0.3378633547517467,
            "wrist_1_joint": -1.0288598680537169,
            "wrist_2_joint": 1.233022673432363,
            "wrist_3_joint": -3.0940220416140027
        }
    },
    "waypoints": [
        {
            "positions": [
                -0.3378633547517467,
                -1.3736534386056498,
                2.4225746658250005,
                -1.0288598680537169,
                1.233022673432363,
                -3.0940220416140027
            ]
        },
        {
            "positions": [
                -0.3441544878166591,
                -1.4228261219190181,
                2.275442726710639,
                -0.9443980045311792,
                1.1754348082691808,
                -3.1093984920888973
            ]
        },
        {
            "positions": [
                -0.35044562088157144,
                -1.4719988052323867,
                2.128310787596278,
                -0.8599361410086415,
                1.1178469431059987,
                -3.1247749425637914
            ]
        },
        {
            "positions": [
                -0.3567367539464838,
                -1.521171488545755,
                1.9811788484819164,
                -0.7754742774861038,
                1.0602590779428165,
                -3.1401513930386855
            ]
        },
        {
            "positions": [
                -0.3630278870113961,
                -1.5703441718591233,
                1.834046909367555,
                -0.691012413963566,
                1.0026712127796342,
                -3.15552784351358
            ]
        },
        {
            "positions": [
                -0.36931902007630846,
                -1.6195168551724919,
                1.6869149702531938,
                -0.6065505504410283,
                0.9450833476164522,
                -3.1709042939884746
            ]
        },
        {
            "positions": [
                -0.3756101531412208,
                -1.6686895384858602,
                1.5397830311388323,
                -0.5220886869184906,
                0.8874954824532699,
                -3.1862807444633687
            ]
        },
        {
            "positions": [
                -0.3819012862061332,
                -1.7178622217992285,
                1.392651092024471,
                -0.43762682339595294,
                0.8299076172900878,
                -3.201657194938263
            ]
        },
        {
            "positions": [
                -0.38819241927104553,
                -1.767034905112597,
                1.2455191529101097,
                -0.35316495987341523,
                0.7723197521269056,
                -3.2170336454131574
            ]
        },
        {
            "positions": [
                -0.23165014814018153,
                -1.787004317619722,
                1.409178013410573,
                -0.36806863940027784,
                0.7642470451182349,
                -3.2076321699872175
            ]
        },
        {
            "positions": [
                -0.07510787700931754,
                -1.8069737301268467,
                1.572836873911036,
                -0.38297231892714045,
                0.7561743381095644,
                -3.198230694561277
            ]
        },
        {
            "positions": [
                0.08143439412154646,
                -1.8269431426339715,
                1.7364957344114995,
                -0.39787599845400307,
                0.7481016311008937,
                -3.188829219135337
            ]
        },
        {
            "positions": [
                0.23797666525241046,
                -1.8469125551410965,
                1.9001545949119627,
                -0.4127796779808657,
                0.740028924092223,
                -3.179427743709397
            ]
        },
        {
            "positions": [
                0.3945189363832745,
                -1.8668819676482213,
                2.063813455412426,
                -0.42768335750772835,
                0.7319562170835523,
                -3.1700262682834572
            ]
        },
        {
            "positions": [
                0.5510612075141385,
                -1.8868513801553461,
                2.2274723159128893,
                -0.44258703703459096,
                0.7238835100748817,
                -3.160624792857517
            ]
        },
        {
            "positions": [
                0.7076034786450025,
                -1.906820792662471,
                2.3911311764133525,
                -0.45749071656145357,
                0.715810803066211,
                -3.151223317431577
            ]
        }
    ]
}