{
    "goal": {
        "global_pose": {
            "orientation": {
                "w": -0.00223480608172531,
                "x": 0.0024358444001904467,
                "y": 0.7094548369677653,
                "z": -0.704743149386269
            },
            "position": {
                "x": 0.6205249238014221,
                "y": -0.6371506643295288,
                "z": 0.19426114857196808
            }
        },
        "name": "move_to_magneteinheit_B"
    },
    "id": "PRM_move_to_magneteinheit_B_87",
    "joint_names": [
        "shoulder_pan_joint",
        "shoulder_lift_joint",
        "elbow_joint",
        "wrist_1_joint",
        "wrist_2_joint",
        "wrist_3_joint"
    ],
    "metrics": {
        "cart_traj_len": 4.745679355723191,
        "distance_elbow_joint": 6.727853743128797,
        "distance_shoulder_lift_joint": 1.8309992573648977,
        "distance_shoulder_pan_joint": 3.801515889580845,
        "distance_wrist_1_joint": 6.783827979118346,
        "distance_wrist_2_joint": 6.617234688224193,
        "distance_wrist_3_joint": 2.3910015384151797,
        "smoothness": 0.5461498240193482,
        "time": 0.8411496519999999,
        "traj_len": 5.305886645588298,
        "weighted_distance": 6.807018351672422
    },
    "planner": "PRM",
    "start": {
        "state": {
            "elbow_joint": 2.6216224122426386,
            "shoulder_lift_joint": -1.4174107377796124,
            "shoulder_pan_joint": 0.7066234856936794,
            "wrist_1_joint": 1.9546482284002225,
            "wrist_2_joint": -0.7096286983471962,
            "wrist_3_joint": 0.005740856962016249
        }
    },
    "waypoints": [
        {
            "positions": [
                0.7066234856936794,
                -1.4174107377796124,
                2.6216224122426386,
                1.9546482284002225,
                -0.7096286983471962,
                0.005740856962016249
            ]
        },
        {
            "positions": [
                0.6386449259478285,
                -1.357402608026821,
                2.5999475132357732,
                1.8719740348682932,
                -0.6957852653575218,
                0.05306771261968562
            ]
        },
        {
            "positions": [
                0.5706663662019776,
                -1.2973944782740292,
                2.5782726142289074,
                1.7892998413363639,
                -0.6819418323678474,
                0.10039456827735499
            ]
        },
        {
            "positions": [
                0.5050647337808478,
                -1.3289234720961858,
                2.499564844431056,
                1.6694210636787545,
                -0.6275225062310863,
                0.07595433318757289
            ]
        },
        {
            "positions": [
                0.439463101359718,
                -1.3604524659183426,
                2.4208570746332048,
                1.5495422860211452,
                -0.5731031800943251,
                0.051514098097790784
            ]
        },
        {
            "positions": [
                0.3738614689385882,
                -1.3919814597404991,
                2.3421493048353534,
                1.4296635083635358,
                -0.518683853957564,
                0.02707386300800868
            ]
        },
        {
            "positions": [
                0.30825983651745836,
                -1.423510453562656,
                2.263441535037502,
                1.3097847307059265,
                -0.46426452782080285,
                0.0026336279182265776
            ]
        },
        {
            "positions": [
                0.24265820409632854,
                -1.4550394473848125,
                2.184733765239651,
                1.189905953048317,
                -0.4098452016840417,
                -0.021806607171555525
            ]
        },
        {
            "positions": [
                0.17705657167519873,
                -1.4865684412069693,
                2.1060259954417995,
                1.0700271753907076,
                -0.35542587554728056,
                -0.04624684226133763
            ]
        },
        {
            "positions": [
                0.11145493925406885,
                -1.5180974350291259,
                2.027318225643948,
                0.9501483977330981,
                -0.3010065494105194,
                -0.07068707735111973
            ]
        },
        {
            "positions": [
                0.04585330683293909,
                -1.5496264288512824,
                1.9486104558460968,
                0.8302696200754889,
                -0.24658722327375826,
                -0.09512731244090183
            ]
        },
        {
            "positions": [
                -0.01974832558819073,
                -1.5811554226734392,
                1.8699026860482453,
                0.7103908424178793,
                -0.1921678971369971,
                -0.11956754753068394
            ]
        },
        {
            "positions": [
                -0.08534995800932055,
                -1.6126844164955958,
                1.791194916250394,
                0.59051206476027,
                -0.13774857100023596,
                -0.14400778262046604
            ]
        },
        {
            "positions": [
                -0.15095159043045037,
                -1.6442134103177524,
                1.7124871464525426,
                0.4706332871026606,
                -0.08332924486347482,
                -0.16844801771024814
            ]
        },
        {
            "positions": [
                -0.21655322285158024,
                -1.6757424041399092,
                1.6337793766546913,
                0.35075450944505115,
                -0.028909918726713668,
                -0.19288825280003025
            ]
        },
        {
            "positions": [
                -0.1640367518165033,
                -1.6674229867210764,
                1.4924738818638308,
                0.27956835134095925,
                -0.11395152046716056,
                -0.1581995492251361
            ]
        },
        {
            "positions": [
                -0.11152028078142633,
                -1.6591035693022433,
                1.3511683870729703,
                0.20838219323686738,
                -0.19899312220760745,
                -0.12351084565024195
            ]
        },
        {
            "positions": [
                -0.05900380974634936,
                -1.6507841518834105,
                1.2098628922821097,
                0.1371960351327755,
                -0.28403472394805435,
                -0.0888221420753478
            ]
        },
        {
            "positions": [
                -0.006487338711272411,
                -1.6424647344645775,
                1.0685573974912492,
                0.0660098770286836,
                -0.36907632568850124,
                -0.05413343850045366
            ]
        },
        {
            "positions": [
                0.04602913232380457,
                -1.6341453170457447,
                0.9272519027003887,
                -0.0051762810754082955,
                -0.45411792742894813,
                -0.01944473492555951
            ]
        },
        {
            "positions": [
                0.09854560335888152,
                -1.625825899626912,
                0.7859464079095282,
                -0.07636243917950014,
                -0.539159529169395,
                0.015243968649334638
            ]
        },
        {
            "positions": [
                0.15106207439395847,
                -1.617506482208079,
                0.6446409131186677,
                -0.14754859728359204,
                -0.6242011309098419,
                0.049932672224228786
            ]
        },
        {
            "positions": [
                0.20357854542903542,
                -1.6091870647892461,
                0.5033354183278071,
                -0.21873475538768394,
                -0.7092427326502888,
                0.08462137579912293
            ]
        },
        {
            "positions": [
                0.25609501646411237,
                -1.600867647370413,
                0.36202992353694663,
                -0.28992091349177584,
                -0.7942843343907358,
                0.11931007937401711
            ]
        },
        {
            "positions": [
                0.3086114874991894,
                -1.5925482299515803,
                0.2207244287460861,
                -0.36110707159586775,
                -0.8793259361311826,
                0.15399878294891123
            ]
        },
        {
            "positions": [
                0.3611279585342663,
                -1.5842288125327473,
                0.07941893395522559,
                -0.43229322969995965,
                -0.9643675378716294,
                0.18868748652380535
            ]
        },
        {
            "positions": [
                0.4136444295693433,
                -1.5759093951139145,
                -0.06188656083563493,
                -0.5034793878040514,
                -1.0494091396120764,
                0.22337619009869952
            ]
        },
        {
            "positions": [
                0.4661609006044202,
                -1.5675899776950817,
                -0.20319205562649545,
                -0.5746655459081433,
                -1.1344507413525233,
                0.2580648936735937
            ]
        },
        {
            "positions": [
                0.5186773716394972,
                -1.5592705602762487,
                -0.34449755041735597,
                -0.6458517040122352,
                -1.21949234309297,
                0.2927535972484878
            ]
        },
        {
            "positions": [
                0.5711938426745742,
                -1.5509511428574159,
                -0.48580304520821627,
                -0.7170378621163273,
                -1.304533944833417,
                0.32744230082338194
            ]
        },
        {
            "positions": [
                0.6237103137096511,
                -1.542631725438583,
                -0.627108539999077,
                -0.788224020220419,
                -1.389575546573864,
                0.3621310043982761
            ]
        },
        {
            "positions": [
                0.6762267847447281,
                -1.53431230801975,
                -0.7684140347899377,
                -0.8594101783245108,
                -1.474617148314311,
                0.3968197079731703
            ]
        },
        {
            "positions": [
                0.728743255779805,
                -1.5259928906009173,
                -0.909719529580798,
                -0.9305963364286028,
                -1.5596587500547578,
                0.43150841154806446
            ]
        },
        {
            "positions": [
                0.781259726814882,
                -1.5176734731820842,
                -1.0510250243716583,
                -1.0017824945326947,
                -1.6447003517952046,
                0.4661971151229585
            ]
        },
        {
            "positions": [
                0.8337761978499589,
                -1.5093540557632514,
                -1.192330519162519,
                -1.0729686526367868,
                -1.7297419535356515,
                0.5008858186978526
            ]
        },
        {
            "positions": [
                0.8862926688850359,
                -1.5010346383444184,
                -1.3336360139533798,
                -1.1441548107408783,
                -1.8147835552760985,
                0.5355745222727468
            ]
        },
        {
            "positions": [
                0.9388091399201128,
                -1.4927152209255856,
                -1.4749415087442401,
                -1.2153409688449703,
                -1.8998251570165452,
                0.570263225847641
            ]
        },
        {
            "positions": [
                0.9913256109551898,
                -1.4843958035067528,
                -1.6162470035351004,
                -1.2865271269490623,
                -1.9848667587569921,
                0.6049519294225352
            ]
        },
        {
            "positions": [
                1.0438420819902667,
                -1.4760763860879198,
                -1.7575524983259612,
                -1.357713285053154,
                -2.069908360497439,
                0.6396406329974293
            ]
        },
        {
            "positions": [
                1.0963585530253437,
                -1.467756968669087,
                -1.898857993116822,
                -1.428899443157246,
                -2.154949962237886,
                0.6743293365723235
            ]
        },
        {
            "positions": [
                1.1488750240604206,
                -1.4594375512502542,
                -2.040163487907682,
                -1.500085601261338,
                -2.239991563978333,
                0.7090180401472177
            ]
        },
        {
            "positions": [
                1.2013914950954976,
                -1.4511181338314212,
                -2.1814689826985427,
                -1.57127175936543,
                -2.3250331657187795,
                0.7437067437221117
            ]
        },
        {
            "positions": [
                1.2539079661305745,
                -1.4427987164125884,
                -2.3227744774894035,
                -1.6424579174695215,
                -2.4100747674592267,
                0.7783954472970058
            ]
        },
        {
            "positions": [
                1.3064244371656515,
                -1.4344792989937554,
                -2.464079972280264,
                -1.7136440755736135,
                -2.495116369199674,
                0.8130841508719
            ]
        },
        {
            "positions": [
                1.3589409082007284,
                -1.4261598815749226,
                -2.605385467071124,
                -1.7848302336777055,
                -2.58015797094012,
                0.8477728544467942
            ]
        },
        {
            "positions": [
                1.4114573792358054,
                -1.4178404641560896,
                -2.746690961861985,
                -1.8560163917817971,
                -2.6651995726805673,
                0.8824615580216884
            ]
        },
        {
            "positions": [
                1.4639738502708823,
                -1.4095210467372568,
                -2.887996456652845,
                -1.9272025498858891,
                -2.7502411744210145,
                0.9171502615965825
            ]
        },
        {
            "positions": [
                1.508337261675072,
                -1.4490178509813598,
                -2.8428766464960558,
                -1.8197219128180289,
                -2.6311602613502956,
                0.884075206351181
            ]
        },
        {
            "positions": [
                1.5527006730792619,
                -1.488514655225463,
                -2.797756836339266,
                -1.7122412757501686,
                -2.5120793482795767,
                0.8510001511057794
            ]
        },
        {
            "positions": [
                1.5970640844834518,
                -1.528011459469566,
                -2.7526370261824766,
                -1.6047606386823081,
                -2.392998435208858,
                0.8179250958603778
            ]
        },
        {
            "positions": [
                1.6414274958876416,
                -1.5675082637136688,
                -2.707517216025687,
                -1.4972800016144479,
                -2.273917522138139,
                0.7848500406149762
            ]
        },
        {
            "positions": [
                1.6857909072918313,
                -1.6070050679577719,
                -2.6623974058688975,
                -1.3897993645465876,
                -2.1548366090674205,
                0.7517749853695745
            ]
        },
        {
            "positions": [
                1.730154318696021,
                -1.646501872201875,
                -2.617277595712108,
                -1.282318727478727,
                -2.0357556959967016,
                0.718699930124173
            ]
        },
        {
            "positions": [
                1.7745177301002109,
                -1.685998676445978,
                -2.5721577855553184,
                -1.174838090410867,
                -1.9166747829259827,
                0.6856248748787714
            ]
        },
        {
            "positions": [
                1.8188811415044008,
                -1.725495480690081,
                -2.527037975398529,
                -1.0673574533430066,
                -1.7975938698552638,
                0.6525498196333699
            ]
        },
        {
            "positions": [
                1.8632445529085904,
                -1.7649922849341841,
                -2.4819181652417392,
                -0.9598768162751463,
                -1.678512956784545,
                0.6194747643879683
            ]
        },
        {
            "positions": [
                1.9076079643127803,
                -1.8044890891782872,
                -2.43679835508495,
                -0.852396179207286,
                -1.5594320437138263,
                0.5863997091425667
            ]
        },
        {
            "positions": [
                1.95197137571697,
                -1.8439858934223903,
                -2.3916785449281606,
                -0.7449155421394256,
                -1.4403511306431074,
                0.5533246538971651
            ]
        },
        {
            "positions": [
                1.9963347871211599,
                -1.8834826976664933,
                -2.346558734771371,
                -0.6374349050715653,
                -1.3212702175723885,
                0.5202495986517635
            ]
        },
        {
            "positions": [
                2.04069819852535,
                -1.9229795019105964,
                -2.3014389246145814,
                -0.529954268003705,
                -1.2021893045016696,
                0.48717454340636196
            ]
        },
        {
            "positions": [
                2.0850616099295394,
                -1.9624763061546995,
                -2.256319114457792,
                -0.4224736309358448,
                -1.083108391430951,
                0.45409948816096035
            ]
        },
        {
            "positions": [
                2.1294250213337294,
                -2.0019731103988025,
                -2.2111993043010023,
                -0.3149929938679843,
                -0.9640274783602318,
                0.42102443291555874
            ]
        },
        {
            "positions": [
                2.1737884327379193,
                -2.0414699146429056,
                -2.1660794941442125,
                -0.20751235680012403,
                -0.8449465652895132,
                0.38794937767015725
            ]
        },
        {
            "positions": [
                2.218151844142109,
                -2.0809667188870087,
                -2.120959683987423,
                -0.10003171973226355,
                -0.7258656522187943,
                0.3548743224247556
            ]
        },
        {
            "positions": [
                2.2625152555462984,
                -2.1204635231311117,
                -2.075839873830634,
                0.007448917335596494,
                -0.6067847391480754,
                0.32179926717935403
            ]
        },
        {
            "positions": [
                2.3068786669504884,
                -2.159960327375215,
                -2.030720063673844,
                0.11492955440345698,
                -0.4877038260773565,
                0.28872421193395237
            ]
        },
        {
            "positions": [
                2.3512420783546784,
                -2.1994571316193174,
                -1.9856002535170547,
                0.22241019147131702,
                -0.3686229130066381,
                0.2556491566885508
            ]
        },
        {
            "positions": [
                2.395605489758868,
                -2.2389539358634205,
                -1.9404804433602652,
                0.3298908285391775,
                -0.24954199993591875,
                0.22257410144314926
            ]
        },
        {
            "positions": [
                2.439968901163058,
                -2.2784507401075236,
                -1.8953606332034756,
                0.437371465607038,
                -0.1304610868652003,
                0.1894990461977477
            ]
        },
        {
            "positions": [
                2.484332312567248,
                -2.3179475443516266,
                -1.850240823046686,
                0.5448521026748985,
                -0.011380173794480974,
                0.15642399095234605
            ]
        },
        {
            "positions": [
                2.5286957239714374,
                -2.3574443485957297,
                -1.8051210128898967,
                0.6523327397427585,
                0.10770073927623747,
                0.1233489357069445
            ]
        },
        {
            "positions": [
                2.5730591353756274,
                -2.3969411528398328,
                -1.7600012027331071,
                0.759813376810619,
                0.22678165234695635,
                0.09027388046154294
            ]
        },
        {
            "positions": [
                2.6174225467798173,
                -2.436437957083936,
                -1.7148813925763176,
                0.867294013878479,
                0.34586256541767524,
                0.05719882521614139
            ]
        },
        {
            "positions": [
                2.661785958184007,
                -2.475934761328039,
                -1.669761582419528,
                0.9747746509463395,
                0.464943478488394,
                0.024123769970739728
            ]
        }
    ]
}