{
    "goal": {
        "global_pose": {
            "orientation": {
                "w": 0.5084816217422485,
                "x": -0.49083608388900757,
                "y": 0.5182115435600281,
                "z": -0.4816462993621826
            },
            "position": {
                "x": 0.5540239810943604,
                "y": 0.030875300988554955,
                "z": 0.16403168439865112
            }
        },
        "name": "move_to_storage_A"
    },
    "id": "PRM_move_to_storage_A_101",
    "joint_names": [
        "shoulder_pan_joint",
        "shoulder_lift_joint",
        "elbow_joint",
        "wrist_1_joint",
        "wrist_2_joint",
        "wrist_3_joint"
    ],
    "metrics": {
        "cart_traj_len": 0.35353481985185964,
        "distance_elbow_joint": 0.4531308801049121,
        "distance_shoulder_lift_joint": 0.2355060918620293,
        "distance_shoulder_pan_joint": 0.46317846034979215,
        "distance_wrist_1_joint": 0.2567916912132141,
        "distance_wrist_2_joint": 1.096498737928766,
        "distance_wrist_3_joint": 0.10498000326591006,
        "smoothness": 4.440892133664971e-16,
        "time": 0.034503692,
        "traj_len": 1.6155760163869182,
        "weighted_distance": 2.0428745190046365
    },
    "planner": "PRM",
    "start": {
        "state": {
            "elbow_joint": 1.971548259319323,
            "shoulder_lift_joint": -1.1394851275133948,
            "shoulder_pan_joint": 0.1228115487234821,
            "wrist_1_joint": -0.7804723859257726,
            "wrist_2_joint": 0.12958671773740124,
            "wrist_3_joint": -3.192489227718131
        }
    },
    "waypoints": [
        {
            "positions": [
                0.1228115487234821,
                -1.1394851275133948,
                1.971548259319323,
                -0.7804723859257726,
                0.12958671773740124,
                -3.192489227718131
            ]
        },
        {
            "positions": [
                0.056643197244940366,
                -1.173128854922256,
                2.0362812421914533,
                -0.8171569132419461,
                0.2862293945843678,
                -3.1774920843944297
            ]
        },
        {
            "positions": [
                -0.009525154233601368,
                -1.2067725823311175,
                2.1010142250635835,
                -0.8538414405581195,
                0.44287207143133434,
                -3.162494941070728
            ]
        },
        {
            "positions": [
                -0.07569350571214309,
                -1.2404163097399787,
                2.165747207935714,
                -0.890525967874293,
                0.599514748278301,
                -3.1474977977470266
            ]
        },
        {
            "positions": [
                -0.14186185719068484,
                -1.2740600371488402,
                2.230480190807844,
                -0.9272104951904664,
                0.7561574251252675,
                -3.1325006544233256
            ]
        },
        {
            "positions": [
                -0.2080302086692266,
                -1.3077037645577014,
                2.2952131736799743,
                -0.9638950225066398,
                0.9128001019722342,
                -3.117503511099624
            ]
        },
        {
            "positions": [
                -0.2741985601477683,
                -1.3413474919665629,
                2.359946156552105,
                -1.0005795498228132,
                1.0694427788192007,
                -3.1025063677759226
            ]
        },
        {
            "positions": [
                -0.34036691162631005,
                -1.3749912193754241,
                2.424679139424235,
                -1.0372640771389867,
                1.2260854556661673,
                -3.087509224452221
            ]
        }
    ]
}{
    "goal": {
        "global_pose": {
            "orientation": {
                "w": 0.5084816217422485,
                "x": -0.49083608388900757,
                "y": 0.5182115435600281,
                "z": -0.4816462993621826
            },
            "position": {
                "x": 0.5540239810943604,
                "y": 0.030875300988554955,
                "z": 0.16403168439865112
            }
        },
        "name": "move_to_storage_A"
    },
    "id": "PRM_move_to_storage_A_101",
    "joint_names": [
        "shoulder_pan_joint",
        "shoulder_lift_joint",
        "elbow_joint",
        "wrist_1_joint",
        "wrist_2_joint",
        "wrist_3_joint"
    ],
    "metrics": {
        "cart_traj_len": 0.3539311620163849,
        "distance_elbow_joint": 0.451176168073935,
        "distance_shoulder_lift_joint": 0.23353181749416807,
        "distance_shoulder_pan_joint": 0.46256060929282755,
        "distance_wrist_1_joint": 0.2496775304541916,
        "distance_wrist_2_joint": 1.1011671276543913,
        "distance_wrist_3_joint": 0.10137173884233208,
        "smoothness": 2.2204460668324854e-16,
        "time": 0.032170682,
        "traj_len": 1.612291844490893,
        "weighted_distance": 2.0379090086667495
    },
    "planner": "PRM",
    "start": {
        "state": {
            "elbow_joint": 1.97154746011099,
            "shoulder_lift_joint": -1.13948474672311,
            "shoulder_pan_joint": 0.12281154466712228,
            "wrist_1_joint": -0.7804688027058302,
            "wrist_2_joint": 0.12958655903071145,
            "wrist_3_joint": 3.0906928834467795
        }
    },
    "waypoints": [
        {
            "positions": [
                0.12281154466712228,
                -1.13948474672311,
                1.97154746011099,
                -0.7804688027058302,
                0.12958655903071145,
                3.0906928834467795
            ]
        },
        {
            "positions": [
                0.05673145762528978,
                -1.1728464349365626,
                2.0360011984072663,
                -0.8161370213421433,
                0.2868961486956245,
                3.1051745604242553
            ]
        },
        {
            "positions": [
                -0.009348629416542728,
                -1.206208123150015,
                2.1004549367035428,
                -0.8518052399784564,
                0.44420573836053756,
                3.1196562374017316
            ]
        },
        {
            "positions": [
                -0.07542871645837522,
                -1.2395698113634677,
                2.164908674999819,
                -0.8874734586147695,
                0.6015153280254506,
                3.1341379143792074
            ]
        },
        {
            "positions": [
                -0.14150880350020772,
                -1.2729314995769203,
                2.2293624132960956,
                -0.9231416772510825,
                0.7588249176903636,
                3.1486195913566837
            ]
        },
        {
            "positions": [
                -0.20758889054204027,
                -1.306293187790373,
                2.293816151592372,
                -0.9588098958873956,
                0.9161345073552767,
                3.1631012683341595
            ]
        },
        {
            "positions": [
                -0.2736689775838727,
                -1.3396548760038254,
                2.3582698898886485,
                -0.9944781145237087,
                1.0734440970201897,
                3.1775829453116358
            ]
        },
        {
            "positions": [
                -0.33974906462570525,
                -1.373016564217278,
                2.422723628184925,
                -1.0301463331600218,
                1.2307536866851028,
                3.1920646222891116
            ]
        }
    ]
}{
    "goal": {
        "global_pose": {
            "orientation": {
                "w": 0.5084816217422485,
                "x": -0.49083608388900757,
                "y": 0.5182115435600281,
                "z": -0.4816462993621826
            },
            "position": {
                "x": 0.5540239810943604,
                "y": 0.030875300988554955,
                "z": 0.16403168439865112
            }
        },
        "name": "move_to_storage_A"
    },
    "id": "PRM_move_to_storage_A_101",
    "joint_names": [
        "shoulder_pan_joint",
        "shoulder_lift_joint",
        "elbow_joint",
        "wrist_1_joint",
        "wrist_2_joint",
        "wrist_3_joint"
    ],
    "metrics": {
        "cart_traj_len": 0.3534359502794612,
        "distance_elbow_joint": 0.44984468935056654,
        "distance_shoulder_lift_joint": 0.23298068626958424,
        "distance_shoulder_pan_joint": 0.4612453560907507,
        "distance_wrist_1_joint": 0.24516047388713003,
        "distance_wrist_2_joint": 1.1026893940579447,
        "distance_wrist_3_joint": 0.08861787938914922,
        "smoothness": 0.0,
        "time": 0.019176927,
        "traj_len": 1.6064054528807865,
        "weighted_distance": 2.0262339711317887
    },
    "planner": "PRM",
    "start": {
        "state": {
            "elbow_joint": 1.9715472970024885,
            "shoulder_lift_joint": -1.1394870060712896,
            "shoulder_pan_joint": 0.12281152778156021,
            "wrist_1_joint": -0.780463741449964,
            "wrist_2_joint": 0.12958659822042276,
            "wrist_3_joint": 3.090690232415272
        }
    },
    "waypoints": [
        {
            "positions": [
                0.12281152778156021,
                -1.1394870060712896,
                1.9715472970024885,
                -0.780463741449964,
                0.12958659822042276,
                3.090690232415272
            ]
        },
        {
            "positions": [
                0.056919334054310114,
                -1.1727699612526588,
                2.0358108240525694,
                -0.8154866662909825,
                0.28711365451441484,
                3.1033499294708644
            ]
        },
        {
            "positions": [
                -0.008972859672939981,
                -1.206052916434028,
                2.1000743511026503,
                -0.8505095911320011,
                0.44464071080840695,
                3.1160096265264574
            ]
        },
        {
            "positions": [
                -0.07486505340019006,
                -1.239335871615397,
                2.164337878152731,
                -0.8855325159730197,
                0.602167767102399,
                3.12866932358205
            ]
        },
        {
            "positions": [
                -0.14075724712744017,
                -1.2726188267967662,
                2.228601405202812,
                -0.9205554408140383,
                0.7596948233963912,
                3.141329020637643
            ]
        },
        {
            "positions": [
                -0.2066494408546903,
                -1.3059017819781356,
                2.2928649322528933,
                -0.9555783656550569,
                0.9172218796903833,
                3.1539887176932355
            ]
        },
        {
            "positions": [
                -0.27254163458194036,
                -1.3391847371595047,
                2.357128459302974,
                -0.9906012904960755,
                1.0747489359843754,
                3.1666484147488285
            ]
        },
        {
            "positions": [
                -0.33843382830919044,
                -1.3724676923408738,
                2.421391986353055,
                -1.025624215337094,
                1.2322759922783675,
                3.179308111804421
            ]
        }
    ]
}