{
    "goal": {
        "global_pose": {
            "orientation": {
                "w": 0.5084816217422485,
                "x": -0.49083608388900757,
                "y": 0.5182115435600281,
                "z": -0.4816462993621826
            },
            "position": {
                "x": 0.5540239810943604,
                "y": 0.030875300988554955,
                "z": 0.16403168439865112
            }
        },
        "name": "move_to_storage_A"
    },
    "id": "PRM_move_to_storage_A_148",
    "joint_names": [
        "shoulder_pan_joint",
        "shoulder_lift_joint",
        "elbow_joint",
        "wrist_1_joint",
        "wrist_2_joint",
        "wrist_3_joint"
    ],
    "metrics": {
        "cart_traj_len": 0.35282269120484466,
        "distance_elbow_joint": 0.4501397454579015,
        "distance_shoulder_lift_joint": 0.23289800468202593,
        "distance_shoulder_pan_joint": 0.4624599948264002,
        "distance_wrist_1_joint": 0.25181389868588566,
        "distance_wrist_2_joint": 1.0922618998077094,
        "distance_wrist_3_joint": 0.1037477599912977,
        "smoothness": 0.0,
        "time": 0.038707405,
        "traj_len": 1.6103792421200729,
        "weighted_distance": 2.035900936177252
    },
    "planner": "PRM",
    "start": {
        "state": {
            "elbow_joint": 1.971548259319323,
            "shoulder_lift_joint": -1.1394851275133948,
            "shoulder_pan_joint": 0.1228115487234821,
            "wrist_1_joint": -0.7804723859257726,
            "wrist_2_joint": 0.12958671773740124,
            "wrist_3_joint": -3.192489227718131
        }
    },
    "waypoints": [
        {
            "positions": [
                0.1228115487234821,
                -1.1394851275133948,
                1.971548259319323,
                -0.7804723859257726,
                0.12958671773740124,
                -3.192489227718131
            ]
        },
        {
            "positions": [
                0.0567458351768535,
                -1.1727562710393986,
                2.0358539372418805,
                -0.8164458000237563,
                0.2856241319956454,
                -3.177668119147946
            ]
        },
        {
            "positions": [
                -0.009319878369775103,
                -1.2060274145654022,
                2.1001596151644377,
                -0.8524192141217399,
                0.44166154625388965,
                -3.16284701057776
            ]
        },
        {
            "positions": [
                -0.0753855919164037,
                -1.239298558091406,
                2.164465293086995,
                -0.8883926282197236,
                0.5976989605121338,
                -3.148025902007575
            ]
        },
        {
            "positions": [
                -0.1414513054630323,
                -1.2725697016174096,
                2.2287709710095522,
                -0.9243660423177072,
                0.753736374770378,
                -3.1332047934373897
            ]
        },
        {
            "positions": [
                -0.2075170190096609,
                -1.3058408451434134,
                2.29307664893211,
                -0.960339456415691,
                0.9097737890286223,
                -3.1183836848672044
            ]
        },
        {
            "positions": [
                -0.2735827325562895,
                -1.339111988669417,
                2.357382326854667,
                -0.9963128705136746,
                1.0658112032868663,
                -3.1035625762970187
            ]
        },
        {
            "positions": [
                -0.3396484461029181,
                -1.3723831321954207,
                2.4216880047772245,
                -1.0322862846116583,
                1.2218486175451106,
                -3.0887414677268334
            ]
        }
    ]
}{
    "goal": {
        "global_pose": {
            "orientation": {
                "w": 0.5084816217422485,
                "x": -0.49083608388900757,
                "y": 0.5182115435600281,
                "z": -0.4816462993621826
            },
            "position": {
                "x": 0.5540239810943604,
                "y": 0.030875300988554955,
                "z": 0.16403168439865112
            }
        },
        "name": "move_to_storage_A"
    },
    "id": "PRM_move_to_storage_A_148",
    "joint_names": [
        "shoulder_pan_joint",
        "shoulder_lift_joint",
        "elbow_joint",
        "wrist_1_joint",
        "wrist_2_joint",
        "wrist_3_joint"
    ],
    "metrics": {
        "cart_traj_len": 0.35288823979282713,
        "distance_elbow_joint": 0.4495005129527607,
        "distance_shoulder_lift_joint": 0.23578225234497618,
        "distance_shoulder_pan_joint": 0.46218740170891554,
        "distance_wrist_1_joint": 0.242064085719373,
        "distance_wrist_2_joint": 1.0955767979874116,
        "distance_wrist_3_joint": 0.09420774363035722,
        "smoothness": 2.2204460668324854e-16,
        "time": 0.031665899000000004,
        "traj_len": 1.6060257763634413,
        "weighted_distance": 2.026172540854133
    },
    "planner": "PRM",
    "start": {
        "state": {
            "elbow_joint": 1.97154746011099,
            "shoulder_lift_joint": -1.13948474672311,
            "shoulder_pan_joint": 0.12281154466712228,
            "wrist_1_joint": -0.7804688027058302,
            "wrist_2_joint": 0.12958655903071145,
            "wrist_3_joint": 3.0906928834467795
        }
    },
    "waypoints": [
        {
            "positions": [
                0.12281154466712228,
                -1.13948474672311,
                1.97154746011099,
                -0.7804688027058302,
                0.12958655903071145,
                3.0906928834467795
            ]
        },
        {
            "positions": [
                0.05678477299442007,
                -1.173167925629535,
                2.0357618191042413,
                -0.8150493863800263,
                0.28609753017177025,
                3.1041511325368307
            ]
        },
        {
            "positions": [
                -0.00924199867828214,
                -1.2068511045359602,
                2.099976178097493,
                -0.8496299700542225,
                0.44260850131282903,
                3.1176093816268815
            ]
        },
        {
            "positions": [
                -0.07526877035098435,
                -1.2405342834423854,
                2.1641905370907444,
                -0.8842105537284186,
                0.5991194724538879,
                3.1310676307169327
            ]
        },
        {
            "positions": [
                -0.14129554202368655,
                -1.2742174623488105,
                2.228404896083996,
                -0.9187911374026148,
                0.7556304435949467,
                3.1445258798069835
            ]
        },
        {
            "positions": [
                -0.20732231369638882,
                -1.3079006412552359,
                2.2926192550772475,
                -0.9533717210768109,
                0.9121414147360055,
                3.1579841288970347
            ]
        },
        {
            "positions": [
                -0.27334908536909097,
                -1.341583820161661,
                2.3568336140704993,
                -0.987952304751007,
                1.0686523858770642,
                3.1714423779870855
            ]
        },
        {
            "positions": [
                -0.33937585704179324,
                -1.3752669990680861,
                2.4210479730637506,
                -1.0225328884252032,
                1.225163357018123,
                3.1849006270771367
            ]
        }
    ]
}{
    "goal": {
        "global_pose": {
            "orientation": {
                "w": 0.5084816217422485,
                "x": -0.49083608388900757,
                "y": 0.5182115435600281,
                "z": -0.4816462993621826
            },
            "position": {
                "x": 0.5540239810943604,
                "y": 0.030875300988554955,
                "z": 0.16403168439865112
            }
        },
        "name": "move_to_storage_A"
    },
    "id": "PRM_move_to_storage_A_148",
    "joint_names": [
        "shoulder_pan_joint",
        "shoulder_lift_joint",
        "elbow_joint",
        "wrist_1_joint",
        "wrist_2_joint",
        "wrist_3_joint"
    ],
    "metrics": {
        "cart_traj_len": 0.3535147707804248,
        "distance_elbow_joint": 0.45354662464778395,
        "distance_shoulder_lift_joint": 0.23569076277562107,
        "distance_shoulder_pan_joint": 0.4618887777849778,
        "distance_wrist_1_joint": 0.2580992374686122,
        "distance_wrist_2_joint": 1.1020707999917976,
        "distance_wrist_3_joint": 0.11038413734398311,
        "smoothness": 0.0,
        "time": 0.013375680000000001,
        "traj_len": 1.6191603811892061,
        "weighted_distance": 2.0500289393472357
    },
    "planner": "PRM",
    "start": {
        "state": {
            "elbow_joint": 1.9715472970024885,
            "shoulder_lift_joint": -1.1394870060712896,
            "shoulder_pan_joint": 0.12281152778156021,
            "wrist_1_joint": -0.780463741449964,
            "wrist_2_joint": 0.12958659822042276,
            "wrist_3_joint": 3.090690232415272
        }
    },
    "waypoints": [
        {
            "positions": [
                0.12281152778156021,
                -1.1394870060712896,
                1.9715472970024885,
                -0.780463741449964,
                0.12958659822042276,
                3.090690232415272
            ]
        },
        {
            "positions": [
                0.05682741666942054,
                -1.1731571150392355,
                2.036339671952172,
                -0.8173350610883372,
                0.28702528393353666,
                3.1064593948929837
            ]
        },
        {
            "positions": [
                -0.009156694442719132,
                -1.2068272240071813,
                2.1011320469018555,
                -0.8542063807267103,
                0.4444639696466506,
                3.1222285573706956
            ]
        },
        {
            "positions": [
                -0.0751408055548588,
                -1.2404973329751272,
                2.165924421851539,
                -0.8910777003650835,
                0.6019026553597645,
                3.1379977198484075
            ]
        },
        {
            "positions": [
                -0.14112491666699847,
                -1.274167441943073,
                2.230716796801222,
                -0.9279490200034567,
                0.7593413410728784,
                3.1537668823261193
            ]
        },
        {
            "positions": [
                -0.20710902777913817,
                -1.307837550911019,
                2.2955091717509055,
                -0.9648203396418298,
                0.9167800267859925,
                3.169536044803831
            ]
        },
        {
            "positions": [
                -0.27309313889127784,
                -1.3415076598789648,
                2.360301546700589,
                -1.001691659280203,
                1.0742187124991063,
                3.185305207281543
            ]
        },
        {
            "positions": [
                -0.33907725000341754,
                -1.3751777688469107,
                2.4250939216502725,
                -1.0385629789185762,
                1.2316573982122203,
                3.201074369759255
            ]
        }
    ]
}