{
    "goal": {
        "global_pose": {
            "orientation": {
                "w": 0.005598929693374612,
                "x": 0.007748599140229565,
                "y": 0.7110244013736278,
                "z": -0.7031023480610252
            },
            "position": {
                "x": 0.1141497679147869,
                "y": -0.7141253447532654,
                "z": 0.3711530566215515
            }
        },
        "name": "move_to_auspresseinheit_B"
    },
    "id": "PRM_move_to_auspresseinheit_B_18",
    "joint_names": [
        "shoulder_pan_joint",
        "shoulder_lift_joint",
        "elbow_joint",
        "wrist_1_joint",
        "wrist_2_joint",
        "wrist_3_joint"
    ],
    "metrics": {
        "cart_traj_len": 0.5645065814582116,
        "distance_elbow_joint": 0.06550652351566133,
        "distance_shoulder_lift_joint": 0.2934277824526923,
        "distance_shoulder_pan_joint": 0.5741650615693823,
        "distance_wrist_1_joint": 0.3369075969204933,
        "distance_wrist_2_joint": 1.008633433487293,
        "distance_wrist_3_joint": 0.0005062865804994487,
        "smoothness": 2.5376526478085547e-16,
        "time": 0.024991957999999998,
        "traj_len": 1.5096842996222826,
        "weighted_distance": 1.9041271722484312
    },
    "planner": "PRM",
    "start": {
        "state": {
            "elbow_joint": 2.0193083361928714,
            "shoulder_lift_joint": -1.1220246554650708,
            "shoulder_pan_joint": -1.0952077554168747,
            "wrist_1_joint": -0.8559753972642168,
            "wrist_2_joint": 0.4759566250798843,
            "wrist_3_joint": -3.1240929996934557
        }
    },
    "waypoints": [
        {
            "positions": [
                -1.0952077554168747,
                -1.1220246554650708,
                2.0193083361928714,
                -0.8559753972642168,
                0.4759566250798843,
                -3.1240929996934557
            ]
        },
        {
            "positions": [
                -1.190901932345105,
                -1.170929285873853,
                2.0083905822735946,
                -0.7998241311108012,
                0.6440621973277665,
                -3.1240086185967058
            ]
        },
        {
            "positions": [
                -1.2865961092733353,
                -1.2198339162826348,
                1.9974728283543177,
                -0.7436728649573857,
                0.8121677695756486,
                -3.123924237499956
            ]
        },
        {
            "positions": [
                -1.3822902862015658,
                -1.268738546691417,
                1.9865550744350409,
                -0.6875215988039701,
                0.9802733418235308,
                -3.123839856403206
            ]
        },
        {
            "positions": [
                -1.477984463129796,
                -1.317643177100199,
                1.9756373205157638,
                -0.6313703326505546,
                1.148378914071413,
                -3.123755475306456
            ]
        },
        {
            "positions": [
                -1.5736786400580267,
                -1.366547807508981,
                1.964719566596487,
                -0.575219066497139,
                1.3164844863192953,
                -3.123671094209706
            ]
        },
        {
            "positions": [
                -1.669372816986257,
                -1.415452437917763,
                1.95380181267721,
                -0.5190678003437235,
                1.4845900585671774,
                -3.123586713112956
            ]
        }
    ]
}