{
    "goal": {
        "global_pose": {
            "orientation": {
                "w": 0.005598929693374612,
                "x": 0.007748599140229565,
                "y": 0.7110244013736278,
                "z": -0.7031023480610252
            },
            "position": {
                "x": -0.8858502320852131,
                "y": -0.7141253447532654,
                "z": 0.3711530566215515
            }
        },
        "name": "move_to_auspresseinheit_C"
    },
    "id": "PRM_move_to_auspresseinheit_C_49",
    "joint_names": [
        "shoulder_pan_joint",
        "shoulder_lift_joint",
        "elbow_joint",
        "wrist_1_joint",
        "wrist_2_joint",
        "wrist_3_joint"
    ],
    "metrics": {
        "cart_traj_len": 0.49433627327165097,
        "distance_elbow_joint": 1.0145072049602772,
        "distance_shoulder_lift_joint": 0.330704443962767,
        "distance_shoulder_pan_joint": 0.25665128822129235,
        "distance_wrist_1_joint": 0.7130986286410176,
        "distance_wrist_2_joint": 1.3064590338937951,
        "distance_wrist_3_joint": 0.07301916349357462,
        "smoothness": 0.0,
        "time": 0.030217012,
        "traj_len": 1.9220925480248665,
        "weighted_distance": 2.4207510720217984
    },
    "planner": "PRM",
    "start": {
        "state": {
            "elbow_joint": 1.7527959577737207,
            "shoulder_lift_joint": -0.9740617694225068,
            "shoulder_pan_joint": -2.967991417825858,
            "wrist_1_joint": -0.759517768980727,
            "wrist_2_joint": 1.7443932448377408,
            "wrist_3_joint": -3.0840537646736568
        }
    },
    "waypoints": [
        {
            "positions": [
                -2.967991417825858,
                -0.9740617694225068,
                1.7527959577737207,
                -0.759517768980727,
                1.7443932448377408,
                -3.0840537646736568
            ]
        },
        {
            "positions": [
                -2.942326289003729,
                -0.9409913250262301,
                1.651345237277693,
                -0.6882079061166252,
                1.6137473414483614,
                -3.091355681023014
            ]
        },
        {
            "positions": [
                -2.9166611601815995,
                -0.9079208806299534,
                1.5498945167816651,
                -0.6168980432525235,
                1.4831014380589818,
                -3.098657597372372
            ]
        },
        {
            "positions": [
                -2.89099603135947,
                -0.8748504362336766,
                1.4484437962856376,
                -0.5455881803884217,
                1.3524555346696023,
                -3.105959513721729
            ]
        },
        {
            "positions": [
                -2.865330902537341,
                -0.8417799918373999,
                1.3469930757896098,
                -0.4742783175243199,
                1.2218096312802227,
                -3.113261430071087
            ]
        },
        {
            "positions": [
                -2.839665773715212,
                -0.8087095474411232,
                1.245542355293582,
                -0.4029684546602182,
                1.0911637278908433,
                -3.120563346420444
            ]
        },
        {
            "positions": [
                -2.8140006448930825,
                -0.7756391030448466,
                1.1440916347975545,
                -0.33165859179611645,
                0.9605178245014637,
                -3.1278652627698014
            ]
        },
        {
            "positions": [
                -2.788335516070953,
                -0.7425686586485699,
                1.0426409143015265,
                -0.2603487289320147,
                0.8298719211120843,
                -3.135167179119159
            ]
        },
        {
            "positions": [
                -2.762670387248824,
                -0.7094982142522932,
                0.9411901938054988,
                -0.18903886606791287,
                0.6992260177227048,
                -3.1424690954685164
            ]
        },
        {
            "positions": [
                -2.737005258426695,
                -0.6764277698560165,
                0.8397394733094711,
                -0.11772900320381119,
                0.5685801143333251,
                -3.149771011817874
            ]
        },
        {
            "positions": [
                -2.7113401296045656,
                -0.6433573254597398,
                0.7382887528134433,
                -0.046419140339709404,
                0.4379342109439457,
                -3.1570729281672314
            ]
        }
    ]
}