{
    "goal": {
        "global_pose": {
            "orientation": {
                "w": 0.7031023502349854,
                "x": -0.7110244035720825,
                "y": 0.007748599164187908,
                "z": 0.005598929710686207
            },
            "position": {
                "x": 0.11585023208521307,
                "y": 0.44412534475326537,
                "z": 0.3711530566215515
            }
        },
        "name": "move_to_auspresseinheit_A"
    },
    "id": "PRM_move_to_auspresseinheit_A_130",
    "joint_names": [
        "shoulder_pan_joint",
        "shoulder_lift_joint",
        "elbow_joint",
        "wrist_1_joint",
        "wrist_2_joint",
        "wrist_3_joint"
    ],
    "metrics": {
        "cart_traj_len": 1.74404421887801,
        "distance_elbow_joint": 0.4310249280585645,
        "distance_shoulder_lift_joint": 1.132023585040138,
        "distance_shoulder_pan_joint": 3.822040244338893,
        "distance_wrist_1_joint": 0.6312106279500185,
        "distance_wrist_2_joint": 0.9019138478870238,
        "distance_wrist_3_joint": 2.127792540230202,
        "smoothness": 1.0882006001562166,
        "time": 0.167213433,
        "traj_len": 3.007657855126616,
        "weighted_distance": 3.851586079760166
    },
    "planner": "PRM",
    "start": {
        "state": {
            "elbow_joint": 2.4225746658250005,
            "shoulder_lift_joint": -1.3736534386056498,
            "shoulder_pan_joint": -0.3378633547517467,
            "wrist_1_joint": -1.0288598680537169,
            "wrist_2_joint": 1.233022673432363,
            "wrist_3_joint": -3.0940220416140027
        }
    },
    "waypoints": [
        {
            "positions": [
                -0.3378633547517467,
                -1.3736534386056498,
                2.4225746658250005,
                -1.0288598680537169,
                1.233022673432363,
                -3.0940220416140027
            ]
        },
        {
            "positions": [
                -0.47659504032434397,
                -1.4570564546022422,
                2.4428146898915264,
                -1.0331130329827762,
                1.2524427514495446,
                -2.988777150036728
            ]
        },
        {
            "positions": [
                -0.6153267258969412,
                -1.5404594705988344,
                2.4630547139580528,
                -1.0373661979118356,
                1.2718628294667262,
                -2.8835322584594536
            ]
        },
        {
            "positions": [
                -0.7540584114695383,
                -1.6238624865954268,
                2.4832947380245787,
                -1.041619362840895,
                1.2912829074839078,
                -2.7782873668821795
            ]
        },
        {
            "positions": [
                -0.8927900970421356,
                -1.7072655025920191,
                2.503534762091105,
                -1.0458725277699543,
                1.3107029855010894,
                -2.673042475304905
            ]
        },
        {
            "positions": [
                -1.0315217826147327,
                -1.7906685185886113,
                2.523774786157631,
                -1.0501256926990137,
                1.330123063518271,
                -2.5677975837276303
            ]
        },
        {
            "positions": [
                -1.17025346818733,
                -1.8740715345852037,
                2.544014810224157,
                -1.0543788576280728,
                1.3495431415354526,
                -2.4625526921503558
            ]
        },
        {
            "positions": [
                -1.308985153759927,
                -1.957474550581796,
                2.5642548342906832,
                -1.0586320225571322,
                1.3689632195526342,
                -2.357307800573081
            ]
        },
        {
            "positions": [
                -1.4477168393325244,
                -2.0408775665783887,
                2.584494858357209,
                -1.0628851874861915,
                1.3883832975698158,
                -2.252062908995807
            ]
        },
        {
            "positions": [
                -1.5864485249051217,
                -2.124280582574981,
                2.6047348824237355,
                -1.067138352415251,
                1.4078033755869974,
                -2.1468180174185325
            ]
        },
        {
            "positions": [
                -1.7251802104777187,
                -2.207683598571573,
                2.6249749064902614,
                -1.0713915173443103,
                1.427223453604179,
                -2.041573125841258
            ]
        },
        {
            "positions": [
                -1.5512713970053673,
                -2.1863983539234146,
                2.608644571676454,
                -1.029343018868637,
                1.37667252019595,
                -2.1183833847310765
            ]
        },
        {
            "positions": [
                -1.3773625835330159,
                -2.1651131092752567,
                2.592314236862647,
                -0.9872945203929638,
                1.3261215867877207,
                -2.1951936436208945
            ]
        },
        {
            "positions": [
                -1.2034537700606645,
                -2.1438278646270983,
                2.575983902048839,
                -0.9452460219172906,
                1.2755706533794917,
                -2.272003902510713
            ]
        },
        {
            "positions": [
                -1.029544956588313,
                -2.1225426199789403,
                2.559653567235032,
                -0.9031975234416174,
                1.2250197199712625,
                -2.348814161400531
            ]
        },
        {
            "positions": [
                -0.8556361431159616,
                -2.101257375330782,
                2.5433232324212245,
                -0.8611490249659441,
                1.1744687865630334,
                -2.4256244202903496
            ]
        },
        {
            "positions": [
                -0.6817273296436102,
                -2.079972130682624,
                2.526992897607417,
                -0.8191005264902709,
                1.1239178531548042,
                -2.502434679180168
            ]
        },
        {
            "positions": [
                -0.5078185161712587,
                -2.0586868860344656,
                2.51066256279361,
                -0.7770520280145977,
                1.0733669197465752,
                -2.5792449380699862
            ]
        },
        {
            "positions": [
                -0.3339097026989073,
                -2.0374016413863076,
                2.494332227979802,
                -0.7350035295389246,
                1.0228159863383461,
                -2.6560551969598047
            ]
        },
        {
            "positions": [
                -0.16000088922655564,
                -2.0161163967381492,
                2.478001893165995,
                -0.6929550310632513,
                0.9722650529301169,
                -2.7328654558496233
            ]
        },
        {
            "positions": [
                0.013907924245795567,
                -1.994831152089991,
                2.4616715583521875,
                -0.650906532587578,
                0.9217141195218878,
                -2.8096757147394413
            ]
        },
        {
            "positions": [
                0.187816737718147,
                -1.973545907441833,
                2.4453412235383802,
                -0.6088580341119049,
                0.8711631861136586,
                -2.88648597362926
            ]
        },
        {
            "positions": [
                0.36172555119049843,
                -1.9522606627936747,
                2.4290108887245725,
                -0.5668095356362316,
                0.8206122527054295,
                -2.9632962325190784
            ]
        },
        {
            "positions": [
                0.5356343646628501,
                -1.9309754181455165,
                2.412680553910765,
                -0.5247610371605583,
                0.7700613192972003,
                -3.0401064914088964
            ]
        },
        {
            "positions": [
                0.7095431781352014,
                -1.9096901734973584,
                2.396350219096958,
                -0.48271253868488523,
                0.7195103858889712,
                -3.116916750298715
            ]
        }
    ]
}