{
    "goal": {
        "global_pose": {
            "orientation": {
                "w": -0.4816463035849501,
                "x": 0.5182115481033762,
                "y": 0.4908360881923453,
                "z": -0.5084816262002911
            },
            "position": {
                "x": -0.8240239810943604,
                "y": 0.19912469901144506,
                "z": 0.16403168439865112
            }
        },
        "name": "move_to_storage_D"
    },
    "id": "PRM_move_to_storage_D_119",
    "joint_names": [
        "shoulder_pan_joint",
        "shoulder_lift_joint",
        "elbow_joint",
        "wrist_1_joint",
        "wrist_2_joint",
        "wrist_3_joint"
    ],
    "metrics": {
        "cart_traj_len": 3.270559365784139,
        "distance_elbow_joint": 4.208913086626595,
        "distance_shoulder_lift_joint": 1.2939490354541925,
        "distance_shoulder_pan_joint": 2.812406162672314,
        "distance_wrist_1_joint": 2.260616776816528,
        "distance_wrist_2_joint": 0.9372002251156601,
        "distance_wrist_3_joint": 3.1547284518376855,
        "smoothness": 0.06930437258935683,
        "time": 0.5185711669999999,
        "traj_len": 3.8298581877822806,
        "weighted_distance": 4.916816820274123
    },
    "planner": "PRM",
    "start": {
        "state": {
            "elbow_joint": -2.384821988534728,
            "shoulder_lift_joint": -2.2788054721415256,
            "shoulder_pan_joint": -0.1854694642142757,
            "wrist_1_joint": 1.4845938289331202,
            "wrist_2_joint": 0.17898776772866878,
            "wrist_3_joint": 0.037105688729662994
        }
    },
    "waypoints": [
        {
            "positions": [
                -0.1854694642142757,
                -2.2788054721415256,
                -2.384821988534728,
                1.4845938289331202,
                0.17898776772866878,
                0.037105688729662994
            ]
        },
        {
            "positions": [
                -0.16220838521582978,
                -2.25587157207792,
                -2.3711870023994743,
                1.4775709528390992,
                0.14564807361110527,
                0.027775189465870376
            ]
        },
        {
            "positions": [
                -0.06616907906367168,
                -2.1976225214111587,
                -2.269164494861835,
                1.4676176922229633,
                0.149867593631815,
                0.1351207405752119
            ]
        },
        {
            "positions": [
                0.029870227088486412,
                -2.139373470744397,
                -2.167141987324196,
                1.4576644316068275,
                0.15408711365252475,
                0.2424662916845534
            ]
        },
        {
            "positions": [
                0.1259095332406445,
                -2.0811244200776353,
                -2.065119479786557,
                1.4477111709906916,
                0.1583066336732345,
                0.3498118427938949
            ]
        },
        {
            "positions": [
                0.2219488393928026,
                -2.022875369410874,
                -1.9630969722489178,
                1.4377579103745557,
                0.16252615369394424,
                0.4571573939032364
            ]
        },
        {
            "positions": [
                0.3179881455449607,
                -1.9646263187441124,
                -1.8610744647112787,
                1.4278046497584198,
                0.16674567371465399,
                0.5645029450125778
            ]
        },
        {
            "positions": [
                0.41402745169711874,
                -1.9063772680773508,
                -1.7590519571736394,
                1.417851389142284,
                0.17096519373536373,
                0.6718484961219193
            ]
        },
        {
            "positions": [
                0.5100667578492768,
                -1.8481282174105893,
                -1.6570294496360003,
                1.407898128526148,
                0.1751847137560735,
                0.7791940472312608
            ]
        },
        {
            "positions": [
                0.606106064001435,
                -1.7898791667438276,
                -1.5550069420983612,
                1.3979448679100122,
                0.17940423377678325,
                0.8865395983406024
            ]
        },
        {
            "positions": [
                0.702145370153593,
                -1.7316301160770662,
                -1.452984434560722,
                1.3879916072938763,
                0.183623753797493,
                0.9938851494499439
            ]
        },
        {
            "positions": [
                0.7981846763057511,
                -1.6733810654103047,
                -1.3509619270230828,
                1.3780383466777404,
                0.18784327381820273,
                1.1012307005592854
            ]
        },
        {
            "positions": [
                0.8942239824579092,
                -1.6151320147435428,
                -1.2489394194854435,
                1.3680850860616047,
                0.19206279383891248,
                1.2085762516686271
            ]
        },
        {
            "positions": [
                0.9902632886100673,
                -1.5568829640767814,
                -1.1469169119478044,
                1.3581318254454688,
                0.19628231385962222,
                1.3159218027779684
            ]
        },
        {
            "positions": [
                1.0863025947622256,
                -1.49863391341002,
                -1.0448944044101651,
                1.348178564829333,
                0.20050183388033196,
                1.4232673538873102
            ]
        },
        {
            "positions": [
                1.1823419009143834,
                -1.4403848627432585,
                -0.9428718968725263,
                1.338225304213197,
                0.2047213539010417,
                1.5306129049966515
            ]
        },
        {
            "positions": [
                1.2783812070665417,
                -1.3821358120764968,
                -0.840849389334887,
                1.3282720435970612,
                0.20894087392175148,
                1.637958456105993
            ]
        },
        {
            "positions": [
                1.3744205132186997,
                -1.3238867614097352,
                -0.7388268817972479,
                1.3183187829809253,
                0.21316039394246122,
                1.7453040072153345
            ]
        },
        {
            "positions": [
                1.4704598193708578,
                -1.2656377107429737,
                -0.6368043742596086,
                1.3083655223647894,
                0.21737991396317097,
                1.852649558324676
            ]
        },
        {
            "positions": [
                1.5664991255230158,
                -1.2073886600762123,
                -0.5347818667219695,
                1.2984122617486535,
                0.2215994339838807,
                1.9599951094340176
            ]
        },
        {
            "positions": [
                1.6625384316751741,
                -1.1491396094094506,
                -0.4327593591843304,
                1.2884590011325177,
                0.22581895400459046,
                2.067340660543359
            ]
        },
        {
            "positions": [
                1.758577737827332,
                -1.0908905587426891,
                -0.3307368516466913,
                1.2785057405163818,
                0.2300384740253002,
                2.1746862116527
            ]
        },
        {
            "positions": [
                1.8546170439794905,
                -1.0326415080759275,
                -0.2287143441090522,
                1.2685524799002459,
                0.23425799404600994,
                2.282031762762042
            ]
        },
        {
            "positions": [
                1.9013262205577661,
                -1.0303205611637423,
                -0.10840217405745503,
                1.1537105329614048,
                0.28127444848172567,
                2.337478697658396
            ]
        },
        {
            "positions": [
                1.9480353971360418,
                -1.0279996142515568,
                0.011909995994142136,
                1.0388685860225635,
                0.32829090291744134,
                2.3929256325547494
            ]
        },
        {
            "positions": [
                1.9947445737143172,
                -1.0256786673393716,
                0.1322221660457393,
                0.9240266390837224,
                0.375307357353157,
                2.4483725674511034
            ]
        },
        {
            "positions": [
                2.041453750292593,
                -1.0233577204271862,
                0.25253433609733644,
                0.8091846921448812,
                0.42232381178887274,
                2.503819502347457
            ]
        },
        {
            "positions": [
                2.0881629268708686,
                -1.021036773515001,
                0.37284650614893367,
                0.69434274520604,
                0.46934026622458846,
                2.559266437243811
            ]
        },
        {
            "positions": [
                2.134872103449144,
                -1.0187158266028156,
                0.4931586762005308,
                0.5795007982671988,
                0.5163567206603041,
                2.6147133721401645
            ]
        },
        {
            "positions": [
                2.18158128002742,
                -1.0163948796906304,
                0.613470846252128,
                0.4646588513283576,
                0.5633731750960198,
                2.6701603070365185
            ]
        },
        {
            "positions": [
                2.2282904566056954,
                -1.0140739327784452,
                0.7337830163037251,
                0.3498169043895165,
                0.6103896295317355,
                2.725607241932872
            ]
        },
        {
            "positions": [
                2.2749996331839712,
                -1.0117529858662597,
                0.8540951863553223,
                0.2349749574506752,
                0.6574060839674514,
                2.781054176829226
            ]
        },
        {
            "positions": [
                2.3217088097622467,
                -1.0094320389540745,
                0.9744073564069196,
                0.12013301051183412,
                0.704422538403167,
                2.83650111172558
            ]
        },
        {
            "positions": [
                2.3684179863405226,
                -1.007111092041889,
                1.0947195264585168,
                0.005291063572992805,
                0.7514389928388827,
                2.8919480466219336
            ]
        },
        {
            "positions": [
                2.415127162918798,
                -1.0047901451297039,
                1.2150316965101138,
                -0.10955088336584828,
                0.7984554472745984,
                2.9473949815182876
            ]
        },
        {
            "positions": [
                2.461836339497074,
                -1.0024691982175185,
                1.335343866561711,
                -0.2243928303046896,
                0.8454719017103141,
                3.002841916414641
            ]
        },
        {
            "positions": [
                2.5085455160753494,
                -1.0001482513053332,
                1.4556560366133082,
                -0.33923477724353057,
                0.8924883561460297,
                3.058288851310995
            ]
        },
        {
            "positions": [
                2.5381433116710217,
                -1.0039712049598333,
                1.5477648019829484,
                -0.4484318199034998,
                0.9317434182618227,
                3.087009923993187
            ]
        },
        {
            "positions": [
                2.567741107266694,
                -1.0077941586143333,
                1.6398735673525886,
                -0.5576288625634689,
                0.9709984803776158,
                3.1157309966753792
            ]
        },
        {
            "positions": [
                2.597338902862367,
                -1.0116171122688333,
                1.731982332722229,
                -0.6668259052234381,
                1.010253542493409,
                3.1444520693575715
            ]
        },
        {
            "positions": [
                2.626936698458039,
                -1.0154400659233334,
                1.8240910980918692,
                -0.7760229478834073,
                1.049508604609202,
                3.1731731420397633
            ]
        }
    ]
}