{
    "goal": {
        "global_pose": {
            "orientation": {
                "w": 0.5084816262002911,
                "x": -0.4908360881923452,
                "y": 0.5182115481033761,
                "z": -0.48164630358495003
            },
            "position": {
                "x": 0.5540239810943604,
                "y": -0.46912469901144505,
                "z": 0.16403168439865112
            }
        },
        "name": "move_to_storage_B"
    },
    "id": "PRM_move_to_storage_B_113",
    "joint_names": [
        "shoulder_pan_joint",
        "shoulder_lift_joint",
        "elbow_joint",
        "wrist_1_joint",
        "wrist_2_joint",
        "wrist_3_joint"
    ],
    "metrics": {
        "cart_traj_len": 0.8401832232851785,
        "distance_elbow_joint": 0.3781052842712511,
        "distance_shoulder_lift_joint": 0.4573883137775352,
        "distance_shoulder_pan_joint": 0.45615776170275446,
        "distance_wrist_1_joint": 2.9863624206781507,
        "distance_wrist_2_joint": 2.7009563064218156,
        "distance_wrist_3_joint": 3.1429903476965118,
        "smoothness": 0.046222685125280126,
        "time": 0.183671973,
        "traj_len": 3.181502857856334,
        "weighted_distance": 4.7005595259544375
    },
    "planner": "PRM",
    "start": {
        "state": {
            "elbow_joint": 1.664937868594044,
            "shoulder_lift_joint": -0.661644460510453,
            "shoulder_pan_joint": -0.9139846352900073,
            "wrist_1_joint": 2.146753192139373,
            "wrist_2_joint": -2.2341966793290973,
            "wrist_3_joint": 0.005466555786416001
        }
    },
    "waypoints": [
        {
            "positions": [
                -0.9139846352900073,
                -0.661644460510453,
                1.664937868594044,
                2.146753192139373,
                -2.2341966793290973,
                0.005466555786416001
            ]
        },
        {
            "positions": [
                -0.8797471586011651,
                -0.7499497201457445,
                1.7557784692129619,
                2.107420513642514,
                -2.1856341237815102,
                -0.03772825048833952
            ]
        },
        {
            "positions": [
                -0.845509681912323,
                -0.8382549797810359,
                1.8466190698318798,
                2.0680878351456555,
                -2.1370715682339227,
                -0.08092305676309504
            ]
        },
        {
            "positions": [
                -0.8112722052234809,
                -0.9265602394163274,
                1.9374596704507978,
                2.0287551566487965,
                -2.0885090126863357,
                -0.12411786303785055
            ]
        },
        {
            "positions": [
                -0.7770347285346387,
                -1.0148654990516188,
                2.0283002710697158,
                1.9894224781519376,
                -2.0399464571387487,
                -0.16731266931260608
            ]
        },
        {
            "positions": [
                -0.7909133309236555,
                -1.0193945110184175,
                2.0276592762090386,
                1.8664210996001673,
                -1.9309592360852066,
                -0.29645228333858387
            ]
        },
        {
            "positions": [
                -0.8047919333126723,
                -1.0239235229852162,
                2.027018281348361,
                1.7434197210483973,
                -1.8219720150316645,
                -0.4255918973645617
            ]
        },
        {
            "positions": [
                -0.818670535701689,
                -1.0284525349520148,
                2.026377286487684,
                1.620418342496627,
                -1.7129847939781224,
                -0.5547315113905396
            ]
        },
        {
            "positions": [
                -0.8325491380907059,
                -1.0329815469188135,
                2.0257362916270063,
                1.4974169639448567,
                -1.6039975729245803,
                -0.6838711254165173
            ]
        },
        {
            "positions": [
                -0.8464277404797226,
                -1.0375105588856122,
                2.025095296766329,
                1.3744155853930866,
                -1.4950103518710383,
                -0.8130107394424952
            ]
        },
        {
            "positions": [
                -0.8603063428687394,
                -1.0420395708524108,
                2.0244543019056516,
                1.2514142068413163,
                -1.3860231308174962,
                -0.942150353468473
            ]
        },
        {
            "positions": [
                -0.8741849452577561,
                -1.0465685828192095,
                2.0238133070449744,
                1.128412828289546,
                -1.277035909763954,
                -1.071289967494451
            ]
        },
        {
            "positions": [
                -0.888063547646773,
                -1.0510975947860082,
                2.023172312184297,
                1.005411449737776,
                -1.1680486887104122,
                -1.2004295815204287
            ]
        },
        {
            "positions": [
                -0.9019421500357897,
                -1.0556266067528068,
                2.0225313173236197,
                0.8824100711860057,
                -1.05906146765687,
                -1.3295691955464066
            ]
        },
        {
            "positions": [
                -0.9158207524248065,
                -1.0601556187196055,
                2.021890322462942,
                0.7594086926342356,
                -0.9500742466033281,
                -1.4587088095723844
            ]
        },
        {
            "positions": [
                -0.9296993548138233,
                -1.0646846306864042,
                2.021249327602265,
                0.6364073140824653,
                -0.841087025549786,
                -1.587848423598362
            ]
        },
        {
            "positions": [
                -0.9435779572028401,
                -1.0692136426532028,
                2.0206083327415874,
                0.513405935530695,
                -0.7320998044962439,
                -1.71698803762434
            ]
        },
        {
            "positions": [
                -0.9574565595918568,
                -1.0737426546200015,
                2.01996733788091,
                0.39040455697892495,
                -0.623112583442702,
                -1.8461276516503178
            ]
        },
        {
            "positions": [
                -0.9713351619808737,
                -1.0782716665868002,
                2.0193263430202326,
                0.26740317842715444,
                -0.5141253623891597,
                -1.9752672656762957
            ]
        },
        {
            "positions": [
                -0.9852137643698904,
                -1.0828006785535988,
                2.0186853481595555,
                0.14440179987538437,
                -0.40513814133561765,
                -2.1044068797022732
            ]
        },
        {
            "positions": [
                -0.9990923667589071,
                -1.0873296905203975,
                2.018044353298878,
                0.021400421323614305,
                -0.2961509202820758,
                -2.233546493728251
            ]
        },
        {
            "positions": [
                -1.0129709691479238,
                -1.0918587024871962,
                2.0174033584382007,
                -0.10160095722815599,
                -0.1871636992285337,
                -2.362686107754229
            ]
        },
        {
            "positions": [
                -1.0268495715369408,
                -1.0963877144539949,
                2.016762363577523,
                -0.22460233577992628,
                -0.0781764781749914,
                -2.491825721780207
            ]
        },
        {
            "positions": [
                -1.0407281739259575,
                -1.1009167264207935,
                2.016121368716846,
                -0.34760371433169657,
                0.030810742878550457,
                -2.6209653358061846
            ]
        },
        {
            "positions": [
                -1.0546067763149742,
                -1.1054457383875922,
                2.0154803738561684,
                -0.4706050928834664,
                0.13979796393209254,
                -2.7501049498321626
            ]
        },
        {
            "positions": [
                -1.0684853787039912,
                -1.1099747503543909,
                2.0148393789954913,
                -0.5936064714352367,
                0.24878518498563462,
                -2.87924456385814
            ]
        },
        {
            "positions": [
                -1.082363981093008,
                -1.1145037623211895,
                2.0141983841348137,
                -0.716607849987007,
                0.3577724060391767,
                -3.008384177884118
            ]
        },
        {
            "positions": [
                -1.0962425834820246,
                -1.1190327742879882,
                2.0135573892741365,
                -0.8396092285387773,
                0.466759627092719,
                -3.137523791910096
            ]
        }
    ]
}