{
    "goal": {
        "global_pose": {
            "orientation": {
                "w": 0.5084816262002911,
                "x": -0.4908360881923452,
                "y": 0.5182115481033761,
                "z": -0.48164630358495003
            },
            "position": {
                "x": 0.5540239810943604,
                "y": -0.46912469901144505,
                "z": 0.16403168439865112
            }
        },
        "name": "move_to_storage_B"
    },
    "id": "PRM_move_to_storage_B_101",
    "joint_names": [
        "shoulder_pan_joint",
        "shoulder_lift_joint",
        "elbow_joint",
        "wrist_1_joint",
        "wrist_2_joint",
        "wrist_3_joint"
    ],
    "metrics": {
        "cart_traj_len": 0.8623985853931598,
        "distance_elbow_joint": 0.5019509418713457,
        "distance_shoulder_lift_joint": 0.458013753401765,
        "distance_shoulder_pan_joint": 0.5547850600427618,
        "distance_wrist_1_joint": 2.9790659013494745,
        "distance_wrist_2_joint": 2.704998392746969,
        "distance_wrist_3_joint": 3.174738678059675,
        "smoothness": 0.2685181589739851,
        "time": 0.33169565900000003,
        "traj_len": 3.220800013579234,
        "weighted_distance": 4.7336132475824195
    },
    "planner": "PRM",
    "start": {
        "state": {
            "elbow_joint": 1.664937868594044,
            "shoulder_lift_joint": -0.661644460510453,
            "shoulder_pan_joint": -0.9139846352900073,
            "wrist_1_joint": 2.146753192139373,
            "wrist_2_joint": -2.2341966793290973,
            "wrist_3_joint": 0.005466555786416001
        }
    },
    "waypoints": [
        {
            "positions": [
                -0.9139846352900073,
                -0.661644460510453,
                1.664937868594044,
                2.146753192139373,
                -2.2341966793290973,
                0.005466555786416001
            ]
        },
        {
            "positions": [
                -0.8958657169890827,
                -0.6821517891899933,
                1.6807466983634896,
                2.102938426602595,
                -2.1629097932919503,
                0.18423128396816169
            ]
        },
        {
            "positions": [
                -0.811881008798466,
                -0.7741070695003929,
                1.6426117971461864,
                2.092613294017172,
                -2.1259425368709275,
                0.17223098128382058
            ]
        },
        {
            "positions": [
                -0.7278963006078494,
                -0.8660623498107923,
                1.604476895928883,
                2.082288161431749,
                -2.088975280449904,
                0.16023067859947948
            ]
        },
        {
            "positions": [
                -0.7385603554403415,
                -0.8677507836447341,
                1.6275342046556054,
                2.0018329466305635,
                -2.004852420480559,
                0.3205278839419837
            ]
        },
        {
            "positions": [
                -0.7492244102728336,
                -0.8694392174786758,
                1.6505915133823277,
                1.9213777318293777,
                -1.9207295605112136,
                0.4808250892844879
            ]
        },
        {
            "positions": [
                -0.7598884651053257,
                -0.8711276513126176,
                1.6736488221090497,
                1.840922517028192,
                -1.8366067005418685,
                0.6411222946269921
            ]
        },
        {
            "positions": [
                -0.7705525199378178,
                -0.8728160851465593,
                1.696706130835772,
                1.7604673022270063,
                -1.7524838405725232,
                0.8014194999694964
            ]
        },
        {
            "positions": [
                -0.7812165747703099,
                -0.8745045189805011,
                1.7197634395624943,
                1.6800120874258209,
                -1.668360980603178,
                0.9617167053120005
            ]
        },
        {
            "positions": [
                -0.791880629602802,
                -0.8761929528144429,
                1.7428207482892166,
                1.5995568726246352,
                -1.5842381206338327,
                1.1220139106545046
            ]
        },
        {
            "positions": [
                -0.8025446844352941,
                -0.8778813866483846,
                1.765878057015939,
                1.5191016578234495,
                -1.5001152606644874,
                1.2823111159970089
            ]
        },
        {
            "positions": [
                -0.8132087392677863,
                -0.8795698204823263,
                1.788935365742661,
                1.4386464430222636,
                -1.415992400695142,
                1.4426083213395131
            ]
        },
        {
            "positions": [
                -0.8238727941002784,
                -0.881258254316268,
                1.8119926744693833,
                1.3581912282210782,
                -1.3318695407257968,
                1.6029055266820174
            ]
        },
        {
            "positions": [
                -0.8345368489327705,
                -0.8829466881502098,
                1.8350499831961056,
                1.2777360134198925,
                -1.2477466807564517,
                1.7632027320245216
            ]
        },
        {
            "positions": [
                -0.8520072607351493,
                -0.8987274565343437,
                1.8470032646894436,
                1.1370660985778929,
                -1.1331767878114967,
                1.8544694847634686
            ]
        },
        {
            "positions": [
                -0.8694776725375282,
                -0.9145082249184776,
                1.8589565461827817,
                0.9963961837358934,
                -1.0186068948665419,
                1.9457362375024156
            ]
        },
        {
            "positions": [
                -0.886948084339907,
                -0.9302889933026115,
                1.8709098276761198,
                0.8557262688938938,
                -0.9040370019215869,
                2.0370029902413624
            ]
        },
        {
            "positions": [
                -0.9044184961422859,
                -0.9460697616867453,
                1.8828631091694579,
                0.7150563540518944,
                -0.7894671089766319,
                2.1282697429803097
            ]
        },
        {
            "positions": [
                -0.9218889079446647,
                -0.9618505300708792,
                1.894816390662796,
                0.5743864392098949,
                -0.6748972160316771,
                2.2195364957192565
            ]
        },
        {
            "positions": [
                -0.9393593197470436,
                -0.9776312984550131,
                1.906769672156134,
                0.4337165243678952,
                -0.5603273230867221,
                2.3108032484582037
            ]
        },
        {
            "positions": [
                -0.9568297315494225,
                -0.993412066839147,
                1.918722953649472,
                0.2930466095258957,
                -0.44575743014176716,
                2.4020700011971505
            ]
        },
        {
            "positions": [
                -0.9743001433518013,
                -1.0091928352232808,
                1.9306762351428102,
                0.15237669468389625,
                -0.33118753719681215,
                2.4933367539360978
            ]
        },
        {
            "positions": [
                -0.9917705551541802,
                -1.0249736036074146,
                1.9426295166361482,
                0.011706779841896608,
                -0.21661764425185726,
                2.5846035066750446
            ]
        },
        {
            "positions": [
                -1.009240966956559,
                -1.0407543719915486,
                1.9545827981294863,
                -0.1289631350001028,
                -0.10204775130690247,
                2.6758702594139914
            ]
        },
        {
            "positions": [
                -1.026711378758938,
                -1.0565351403756824,
                1.9665360796228244,
                -0.26963304984210223,
                0.012522141638052542,
                2.7671370121529386
            ]
        },
        {
            "positions": [
                -1.0441817905613169,
                -1.0723159087598164,
                1.9784893611161625,
                -0.4103029646841021,
                0.12709203458300755,
                2.858403764891886
            ]
        },
        {
            "positions": [
                -1.0616522023636956,
                -1.0880966771439502,
                1.9904426426095005,
                -0.5509728795261015,
                0.24166192752796256,
                2.9496705176308327
            ]
        },
        {
            "positions": [
                -1.0791226141660744,
                -1.1038774455280842,
                2.0023959241028386,
                -0.6916427943681012,
                0.35623182047291735,
                3.0409372703697795
            ]
        },
        {
            "positions": [
                -1.0965930259684533,
                -1.119658213912218,
                2.0143492055961767,
                -0.8323127092101007,
                0.47080171341787236,
                3.1322040231087267
            ]
        }
    ]
}