{
    "goal": {
        "global_pose": {
            "orientation": {
                "w": -0.00223480608172531,
                "x": 0.0024358444001904467,
                "y": 0.7094548369677653,
                "z": -0.704743149386269
            },
            "position": {
                "x": 0.6205249238014221,
                "y": -0.6371506643295288,
                "z": 0.19426114857196808
            }
        },
        "name": "move_to_magneteinheit_B"
    },
    "id": "PRM_move_to_magneteinheit_B_110",
    "joint_names": [
        "shoulder_pan_joint",
        "shoulder_lift_joint",
        "elbow_joint",
        "wrist_1_joint",
        "wrist_2_joint",
        "wrist_3_joint"
    ],
    "metrics": {
        "cart_traj_len": 1.6264179359917665,
        "distance_elbow_joint": 1.32445731766412,
        "distance_shoulder_lift_joint": 0.935740558257924,
        "distance_shoulder_pan_joint": 1.6205819247578304,
        "distance_wrist_1_joint": 0.8424367527819232,
        "distance_wrist_2_joint": 1.6386161529329382,
        "distance_wrist_3_joint": 0.062218240196676544,
        "smoothness": 0.9488114207155055,
        "time": 0.181698315,
        "traj_len": 2.534571156348034,
        "weighted_distance": 3.00491935544028
    },
    "planner": "PRM",
    "start": {
        "state": {
            "elbow_joint": 2.6216224122426386,
            "shoulder_lift_joint": -1.4174107377796124,
            "shoulder_pan_joint": 0.7066234856936794,
            "wrist_1_joint": 1.9546482284002225,
            "wrist_2_joint": -0.7096286983471962,
            "wrist_3_joint": 0.005740856962016249
        }
    },
    "waypoints": [
        {
            "positions": [
                0.7066234856936794,
                -1.4174107377796124,
                2.6216224122426386,
                1.9546482284002225,
                -0.7096286983471962,
                0.005740856962016249
            ]
        },
        {
            "positions": [
                0.6732304317631279,
                -1.4621378950404265,
                2.713032314560383,
                1.790477461810811,
                -0.6819603102709664,
                -0.011812625057378462
            ]
        },
        {
            "positions": [
                0.6398373778325763,
                -1.5068650523012406,
                2.8044422168781273,
                1.6263066952213994,
                -0.6542919221947366,
                -0.029366107076773174
            ]
        },
        {
            "positions": [
                0.5362509900394612,
                -1.4504459693854874,
                2.7283330493428855,
                1.660579709861606,
                -0.7598438806467686,
                -0.027558688666247364
            ]
        },
        {
            "positions": [
                0.43266460224634606,
                -1.3940268864697345,
                2.652223881807643,
                1.6948527245018128,
                -0.8653958390988005,
                -0.025751270255721558
            ]
        },
        {
            "positions": [
                0.3290782144532309,
                -1.3376078035539813,
                2.5761147142724012,
                1.7291257391420194,
                -0.9709477975508324,
                -0.02394385184519575
            ]
        },
        {
            "positions": [
                0.22549182666011575,
                -1.2811887206382284,
                2.500005546737159,
                1.763398753782226,
                -1.0764997560028642,
                -0.02213643343466994
            ]
        },
        {
            "positions": [
                0.12190543886700067,
                -1.2247696377224753,
                2.423896379201917,
                1.7976717684224328,
                -1.182051714454896,
                -0.020329015024144133
            ]
        },
        {
            "positions": [
                0.01831905107388543,
                -1.1683505548067221,
                2.3477872116666747,
                1.8319447830626394,
                -1.2876036729069282,
                -0.018521596613618324
            ]
        },
        {
            "positions": [
                -0.0852673367192297,
                -1.1119314718909692,
                2.271678044131433,
                1.866217797702846,
                -1.39315563135896,
                -0.016714178203092518
            ]
        },
        {
            "positions": [
                -0.18885372451234483,
                -1.0555123889752163,
                2.195568876596191,
                1.9004908123430528,
                -1.4987075898109918,
                -0.014906759792566707
            ]
        },
        {
            "positions": [
                -0.29244011230545996,
                -0.9990933060594631,
                2.1194597090609486,
                1.9347638269832594,
                -1.6042595482630237,
                -0.0130993413820409
            ]
        },
        {
            "positions": [
                -0.396026500098575,
                -0.9426742231437101,
                2.0433505415257067,
                1.969036841623466,
                -1.7098115067150554,
                -0.011291922971515093
            ]
        },
        {
            "positions": [
                -0.4996128878916901,
                -0.886255140227957,
                1.9672413739904644,
                2.0033098562636726,
                -1.8153634651670876,
                -0.009484504560989284
            ]
        },
        {
            "positions": [
                -0.6031992756848055,
                -0.8298360573122039,
                1.8911322064552225,
                2.0375828709038792,
                -1.9209154236191197,
                -0.007677086150463475
            ]
        },
        {
            "positions": [
                -0.7067856634779206,
                -0.7734169743964509,
                1.8150230389199802,
                2.0718558855440863,
                -2.0264673820711514,
                -0.005869667739937665
            ]
        },
        {
            "positions": [
                -0.8103720512710357,
                -0.7169978914806978,
                1.7389138713847383,
                2.106128900184293,
                -2.132019340523183,
                -0.004062249329411859
            ]
        },
        {
            "positions": [
                -0.9139584390641509,
                -0.6605788085649448,
                1.6628047038494962,
                2.1404019148244995,
                -2.2375712989752152,
                -0.00225483091888605
            ]
        }
    ]
}