{
    "goal": {
        "global_pose": {
            "orientation": {
                "w": -0.4816463035849501,
                "x": 0.5182115481033762,
                "y": 0.4908360881923453,
                "z": -0.5084816262002911
            },
            "position": {
                "x": -0.8240239810943604,
                "y": 0.19912469901144506,
                "z": 0.16403168439865112
            }
        },
        "name": "move_to_storage_D"
    },
    "id": "PRM_move_to_storage_D_95",
    "joint_names": [
        "shoulder_pan_joint",
        "shoulder_lift_joint",
        "elbow_joint",
        "wrist_1_joint",
        "wrist_2_joint",
        "wrist_3_joint"
    ],
    "metrics": {
        "cart_traj_len": 3.3165836715429324,
        "distance_elbow_joint": 4.209499404354588,
        "distance_shoulder_lift_joint": 1.2642920960241608,
        "distance_shoulder_pan_joint": 2.814424704092572,
        "distance_wrist_1_joint": 2.267722528395147,
        "distance_wrist_2_joint": 1.0761103378292605,
        "distance_wrist_3_joint": 3.144060309690324,
        "smoothness": 0.00971487881785201,
        "time": 0.234110914,
        "traj_len": 3.8439705228300145,
        "weighted_distance": 4.940451686434258
    },
    "planner": "PRM",
    "start": {
        "state": {
            "elbow_joint": -2.384821988534728,
            "shoulder_lift_joint": -2.2788054721415256,
            "shoulder_pan_joint": -0.1854694642142757,
            "wrist_1_joint": 1.4845938289331202,
            "wrist_2_joint": 0.17898776772866878,
            "wrist_3_joint": 0.037105688729662994
        }
    },
    "waypoints": [
        {
            "positions": [
                -0.1854694642142757,
                -2.2788054721415256,
                -2.384821988534728,
                1.4845938289331202,
                0.17898776772866878,
                0.037105688729662994
            ]
        },
        {
            "positions": [
                -0.07970254455405146,
                -2.2628402060150186,
                -2.211772330592659,
                1.454300881539001,
                0.17439205582473447,
                0.09564925886300363
            ]
        },
        {
            "positions": [
                0.026064375106172794,
                -2.2468749398885115,
                -2.0387226726505894,
                1.424007934144882,
                0.16979634392080015,
                0.15419282899634426
            ]
        },
        {
            "positions": [
                0.13183129476639702,
                -2.2309096737620044,
                -1.8656730147085203,
                1.393714986750763,
                0.1652006320168658,
                0.2127363991296849
            ]
        },
        {
            "positions": [
                0.2375982144266213,
                -2.2149444076354974,
                -1.6926233567664513,
                1.3634220393566439,
                0.16060492011293148,
                0.27127996926302556
            ]
        },
        {
            "positions": [
                0.34336513408684555,
                -2.1989791415089903,
                -1.5195736988243822,
                1.3331290919625247,
                0.15600920820899716,
                0.3298235393963661
            ]
        },
        {
            "positions": [
                0.44913205374706977,
                -2.183013875382483,
                -1.346524040882313,
                1.3028361445684056,
                0.15141349630506284,
                0.38836710952970677
            ]
        },
        {
            "positions": [
                0.5548989734072941,
                -2.1670486092559758,
                -1.1734743829402436,
                1.2725431971742864,
                0.14681778440112853,
                0.4469106796630474
            ]
        },
        {
            "positions": [
                0.6606658930675183,
                -2.1510833431294687,
                -1.0004247249981746,
                1.2422502497801675,
                0.1422220724971942,
                0.5054542497963881
            ]
        },
        {
            "positions": [
                0.7664328127277426,
                -2.1351180770029616,
                -0.8273750670561053,
                1.2119573023860484,
                0.13762636059325986,
                0.5639978199297287
            ]
        },
        {
            "positions": [
                0.8721997323879668,
                -2.1191528108764546,
                -0.6543254091140362,
                1.1816643549919292,
                0.13303064868932554,
                0.6225413900630693
            ]
        },
        {
            "positions": [
                0.9779666520481912,
                -2.1031875447499475,
                -0.48127575117196675,
                1.15137140759781,
                0.12843493678539122,
                0.6810849601964101
            ]
        },
        {
            "positions": [
                1.0837335717084151,
                -2.0872222786234405,
                -0.3082260932298979,
                1.121078460203691,
                0.1238392248814569,
                0.7396285303297506
            ]
        },
        {
            "positions": [
                1.1895004913686396,
                -2.0712570124969334,
                -0.1351764352878284,
                1.090785512809572,
                0.11924351297752257,
                0.7981721004630913
            ]
        },
        {
            "positions": [
                1.2952674110288638,
                -2.0552917463704263,
                0.037873222654240646,
                1.060492565415453,
                0.11464780107358825,
                0.8567156705964318
            ]
        },
        {
            "positions": [
                1.401034330689088,
                -2.0393264802439193,
                0.2109228805963097,
                1.0301996180213338,
                0.11005208916965392,
                0.9152592407297726
            ]
        },
        {
            "positions": [
                1.5068012503493122,
                -2.023361214117412,
                0.38397253853837876,
                0.9999066706272146,
                0.1054563772657196,
                0.9738028108631132
            ]
        },
        {
            "positions": [
                1.6125681700095367,
                -2.0073959479909047,
                0.5570221964804483,
                0.9696137232330955,
                0.10086066536178527,
                1.0323463809964537
            ]
        },
        {
            "positions": [
                1.7183350896697607,
                -1.9914306818643979,
                0.7300718544225173,
                0.9393207758389764,
                0.09626495345785095,
                1.0908899511297945
            ]
        },
        {
            "positions": [
                1.8241020093299851,
                -1.9754654157378906,
                0.9031215123645864,
                0.9090278284448573,
                0.09166924155391663,
                1.149433521263135
            ]
        },
        {
            "positions": [
                1.9298689289902091,
                -1.9595001496113835,
                1.0761711703066554,
                0.8787348810507383,
                0.08707352964998231,
                1.2079770913964756
            ]
        },
        {
            "positions": [
                2.0356358486504336,
                -1.9435348834848765,
                1.249220828248725,
                0.8484419336566191,
                0.08247781774604798,
                1.2665206615298163
            ]
        },
        {
            "positions": [
                2.070536989310896,
                -1.8888865595220816,
                1.2830712157529094,
                0.7524671905319928,
                0.1401013699723209,
                1.3791468578174735
            ]
        },
        {
            "positions": [
                2.1054381299713585,
                -1.8342382355592868,
                1.3169216032570936,
                0.6564924474073667,
                0.19772492219859383,
                1.4917730541051306
            ]
        },
        {
            "positions": [
                2.140339270631821,
                -1.7795899115964922,
                1.350771990761278,
                0.5605177042827404,
                0.25534847442486674,
                1.6043992503927877
            ]
        },
        {
            "positions": [
                2.1752404112922834,
                -1.7249415876336973,
                1.3846223782654623,
                0.4645429611581142,
                0.31297202665113966,
                1.7170254466804447
            ]
        },
        {
            "positions": [
                2.2101415519527463,
                -1.6702932636709025,
                1.4184727657696468,
                0.36856821803348794,
                0.37059557887741257,
                1.829651642968102
            ]
        },
        {
            "positions": [
                2.2450426926132088,
                -1.6156449397081076,
                1.452323153273831,
                0.27259347490886165,
                0.4282191311036855,
                1.942277839255759
            ]
        },
        {
            "positions": [
                2.2799438332736712,
                -1.5609966157453128,
                1.4861735407780154,
                0.1766187317842356,
                0.4858426833299584,
                2.054904035543416
            ]
        },
        {
            "positions": [
                2.3148449739341337,
                -1.5063482917825182,
                1.5200239282821997,
                0.08064398865960931,
                0.5434662355562313,
                2.167530231831073
            ]
        },
        {
            "positions": [
                2.349746114594596,
                -1.451699967819723,
                1.5538743157863841,
                -0.015330754465016971,
                0.6010897877825043,
                2.2801564281187305
            ]
        },
        {
            "positions": [
                2.3846472552550586,
                -1.3970516438569285,
                1.5877247032905684,
                -0.11130549758964325,
                0.6587133400087772,
                2.3927826244063874
            ]
        },
        {
            "positions": [
                2.419548395915521,
                -1.3424033198941336,
                1.6215750907947528,
                -0.20728024071426954,
                0.7163368922350501,
                2.5054088206940444
            ]
        },
        {
            "positions": [
                2.454449536575984,
                -1.2877549959313388,
                1.655425478298937,
                -0.3032549838388958,
                0.7739604444613231,
                2.6180350169817017
            ]
        },
        {
            "positions": [
                2.4893506772364464,
                -1.2331066719685442,
                1.6892758658031215,
                -0.3992297269635219,
                0.8315839966875959,
                2.7306612132693586
            ]
        },
        {
            "positions": [
                2.524251817896909,
                -1.1784583480057491,
                1.7231262533073057,
                -0.49520447008814794,
                0.8892075489138688,
                2.843287409557016
            ]
        },
        {
            "positions": [
                2.5591529585573713,
                -1.1238100240429545,
                1.7569766408114902,
                -0.5911792132127742,
                0.9468311011401418,
                2.955913605844673
            ]
        },
        {
            "positions": [
                2.594054099217834,
                -1.0691617000801596,
                1.7908270283156744,
                -0.6871539563374005,
                1.0044546533664147,
                3.06853980213233
            ]
        },
        {
            "positions": [
                2.6289552398782963,
                -1.0145133761173648,
                1.8246774158198589,
                -0.7831286994620269,
                1.0620782055926876,
                3.181165998419987
            ]
        }
    ]
}