{
    "goal": {
        "global_pose": {
            "orientation": {
                "w": 0.7047431493862688,
                "x": -0.7094548369677653,
                "y": 0.0024358444001904,
                "z": -0.0022348060817251984
            },
            "position": {
                "x": -0.39052492380142206,
                "y": 0.3671506643295288,
                "z": 0.19426114857196808
            }
        },
        "name": "move_to_magneteinheit_D"
    },
    "id": "PRM_move_to_magneteinheit_D_111",
    "joint_names": [
        "shoulder_pan_joint",
        "shoulder_lift_joint",
        "elbow_joint",
        "wrist_1_joint",
        "wrist_2_joint",
        "wrist_3_joint"
    ],
    "metrics": {
        "cart_traj_len": 9.032622217509745,
        "distance_elbow_joint": 5.8358080988892045,
        "distance_shoulder_lift_joint": 4.220314119204076,
        "distance_shoulder_pan_joint": 9.03142466039937,
        "distance_wrist_1_joint": 5.203843172244305,
        "distance_wrist_2_joint": 4.744433230167224,
        "distance_wrist_3_joint": 11.664235265559654,
        "smoothness": 0.492054272565296,
        "time": 0.244425587,
        "traj_len": 6.379659751621856,
        "weighted_distance": 8.60097700729368
    },
    "planner": "PRM",
    "start": {
        "state": {
            "elbow_joint": 0.749534889911806,
            "shoulder_lift_joint": -0.6476975780787326,
            "shoulder_pan_joint": -2.711696901376241,
            "wrist_1_joint": -0.07506478083263063,
            "wrist_2_joint": 0.43296659715538205,
            "wrist_3_joint": -3.14703540197715
        }
    },
    "waypoints": [
        {
            "positions": [
                -2.711696901376241,
                -0.6476975780787326,
                0.749534889911806,
                -0.07506478083263063,
                0.43296659715538205,
                -3.14703540197715
            ]
        },
        {
            "positions": [
                -2.743496620195146,
                -0.689083235069052,
                0.7906955047701666,
                -0.21366249982687424,
                0.3574981137569703,
                -3.1329003136795723
            ]
        },
        {
            "positions": [
                -2.77529633901405,
                -0.7304688920593715,
                0.8318561196285271,
                -0.35226021882111785,
                0.28202963035855855,
                -3.118765225381995
            ]
        },
        {
            "positions": [
                -2.807096057832955,
                -0.7718545490496909,
                0.8730167344868878,
                -0.49085793781536147,
                0.20656114696014682,
                -3.1046301370844174
            ]
        },
        {
            "positions": [
                -2.8170205651431828,
                -0.8187997540732883,
                0.8242475334158215,
                -0.5444602805423095,
                0.14460500948799251,
                -2.932738651855714
            ]
        },
        {
            "positions": [
                -2.8269450724534106,
                -0.8657449590968858,
                0.7754783323447552,
                -0.5980626232692575,
                0.08264887201583819,
                -2.76084716662701
            ]
        },
        {
            "positions": [
                -2.8368695797636385,
                -0.9126901641204832,
                0.7267091312736889,
                -0.6516649659962055,
                0.020692734543683866,
                -2.5889556813983066
            ]
        },
        {
            "positions": [
                -2.8467940870738664,
                -0.9596353691440807,
                0.6779399302026226,
                -0.7052673087231536,
                -0.041263402928470444,
                -2.4170641961696027
            ]
        },
        {
            "positions": [
                -2.8567185943840943,
                -1.006580574167678,
                0.6291707291315563,
                -0.7588696514501017,
                -0.10321954040062475,
                -2.245172710940899
            ]
        },
        {
            "positions": [
                -2.8666431016943226,
                -1.0535257791912755,
                0.58040152806049,
                -0.8124719941770496,
                -0.1651756778727791,
                -2.0732812257121953
            ]
        },
        {
            "positions": [
                -2.8765676090045504,
                -1.100470984214873,
                0.5316323269894235,
                -0.8660743369039976,
                -0.22713181534493343,
                -1.9013897404834919
            ]
        },
        {
            "positions": [
                -2.8864921163147783,
                -1.1474161892384704,
                0.48286312591835723,
                -0.9196766796309457,
                -0.2890879528170877,
                -1.7294982552547882
            ]
        },
        {
            "positions": [
                -2.896416623625006,
                -1.1943613942620679,
                0.434093924847291,
                -0.9732790223578937,
                -0.351044090289242,
                -1.5576067700260847
            ]
        },
        {
            "positions": [
                -2.906341130935234,
                -1.2413065992856653,
                0.3853247237762246,
                -1.0268813650848418,
                -0.41300022776139633,
                -1.385715284797381
            ]
        },
        {
            "positions": [
                -2.916265638245462,
                -1.288251804309263,
                0.3365555227051583,
                -1.0804837078117897,
                -0.47495636523355067,
                -1.2138237995686774
            ]
        },
        {
            "positions": [
                -2.92619014555569,
                -1.3351970093328602,
                0.287786321634092,
                -1.1340860505387378,
                -0.536912502705705,
                -1.0419323143399737
            ]
        },
        {
            "positions": [
                -2.9361146528659177,
                -1.382142214356458,
                0.2390171205630256,
                -1.1876883932656859,
                -0.5988686401778593,
                -0.8700408291112698
            ]
        },
        {
            "positions": [
                -2.9460391601761455,
                -1.4290874193800551,
                0.1902479194919593,
                -1.2412907359926337,
                -0.6608247776500137,
                -0.6981493438825663
            ]
        },
        {
            "positions": [
                -2.9559636674863734,
                -1.4760326244036528,
                0.1414787184208931,
                -1.2948930787195818,
                -0.7227809151221679,
                -0.5262578586538629
            ]
        },
        {
            "positions": [
                -2.9658881747966013,
                -1.52297782942725,
                0.09270951734982669,
                -1.34849542144653,
                -0.7847370525943222,
                -0.354366373425159
            ]
        },
        {
            "positions": [
                -2.975812682106829,
                -1.5699230344508477,
                0.04394031627876038,
                -1.4020977641734778,
                -0.8466931900664766,
                -0.18247488819645552
            ]
        },
        {
            "positions": [
                -2.9857371894170575,
                -1.616868239474445,
                -0.00482888479230581,
                -1.4557001069004258,
                -0.9086493275386308,
                -0.010583402967752065
            ]
        },
        {
            "positions": [
                -2.9956616967272853,
                -1.6638134444980424,
                -0.053598085863372225,
                -1.509302449627374,
                -0.9706054650107853,
                0.16130808226095183
            ]
        },
        {
            "positions": [
                -3.005586204037513,
                -1.7107586495216398,
                -0.10236728693443853,
                -1.562904792354322,
                -1.0325616024829394,
                0.3331995674896553
            ]
        },
        {
            "positions": [
                -3.015510711347741,
                -1.7577038545452375,
                -0.15113648800550483,
                -1.6165071350812699,
                -1.0945177399550938,
                0.5050910527183592
            ]
        },
        {
            "positions": [
                -3.025435218657969,
                -1.804649059568835,
                -0.19990568907657114,
                -1.670109477808218,
                -1.1564738774272483,
                0.6769825379470626
            ]
        },
        {
            "positions": [
                -3.035359725968197,
                -1.8515942645924324,
                -0.24867489014763744,
                -1.723711820535166,
                -1.2184300148994027,
                0.8488740231757665
            ]
        },
        {
            "positions": [
                -3.0452842332784247,
                -1.8985394696160298,
                -0.29744409121870374,
                -1.777314163262114,
                -1.2803861523715567,
                1.02076550840447
            ]
        },
        {
            "positions": [
                -3.0552087405886525,
                -1.9454846746396273,
                -0.34621329228977027,
                -1.8309165059890622,
                -1.3423422898437112,
                1.192656993633174
            ]
        },
        {
            "positions": [
                -3.0651332478988804,
                -1.9924298796632247,
                -0.3949824933608366,
                -1.8845188487160103,
                -1.4042984273158656,
                1.3645484788618778
            ]
        },
        {
            "positions": [
                -3.0750577552091083,
                -2.039375084686822,
                -0.4437516944319029,
                -1.9381211914429581,
                -1.46625456478802,
                1.5364399640905817
            ]
        },
        {
            "positions": [
                -3.084982262519336,
                -2.08632028971042,
                -0.4925208955029692,
                -1.9917235341699062,
                -1.528210702260174,
                1.7083314493192847
            ]
        },
        {
            "positions": [
                -3.0949067698295645,
                -2.133265494734017,
                -0.5412900965740355,
                -2.0453258768968543,
                -1.5901668397323285,
                1.8802229345479886
            ]
        },
        {
            "positions": [
                -3.104831277139792,
                -2.1802106997576143,
                -0.5900592976451016,
                -2.098928219623802,
                -1.6521229772044825,
                2.0521144197766916
            ]
        },
        {
            "positions": [
                -3.11475578445002,
                -2.227155904781212,
                -0.6388284987161679,
                -2.1525305623507505,
                -1.714079114676637,
                2.2240059050053955
            ]
        },
        {
            "positions": [
                -3.124680291760248,
                -2.2741011098048096,
                -0.6875976997872344,
                -2.2061329050776983,
                -1.7760352521487914,
                2.3958973902340994
            ]
        },
        {
            "positions": [
                -3.134604799070476,
                -2.321046314828407,
                -0.7363669008583007,
                -2.259735247804646,
                -1.8379913896209454,
                2.5677888754628024
            ]
        },
        {
            "positions": [
                -3.144529306380704,
                -2.367991519852004,
                -0.785136101929367,
                -2.313337590531594,
                -1.8999475270930999,
                2.7396803606915063
            ]
        },
        {
            "positions": [
                -3.1544538136909317,
                -2.4149367248756017,
                -0.8339053030004333,
                -2.3669399332585424,
                -1.9619036645652546,
                2.9115718459202107
            ]
        },
        {
            "positions": [
                -3.0239205437584458,
                -2.3886928691884424,
                -0.7777094891447841,
                -2.318860229499184,
                -1.9747768025268155,
                2.796119143422559
            ]
        },
        {
            "positions": [
                -2.89338727382596,
                -2.362449013501283,
                -0.7215136752891349,
                -2.270780525739826,
                -1.9876499404883765,
                2.6806664409249072
            ]
        },
        {
            "positions": [
                -2.762854003893474,
                -2.3362051578141236,
                -0.6653178614334858,
                -2.222700821980468,
                -2.0005230784499375,
                2.5652137384272558
            ]
        },
        {
            "positions": [
                -2.632320733960988,
                -2.3099613021269643,
                -0.6091220475778365,
                -2.1746211182211095,
                -2.0133962164114982,
                2.4497610359296043
            ]
        },
        {
            "positions": [
                -2.5017874640285016,
                -2.283717446439805,
                -0.5529262337221874,
                -2.1265414144617516,
                -2.026269354373059,
                2.3343083334319528
            ]
        },
        {
            "positions": [
                -2.3712541940960157,
                -2.2574735907526455,
                -0.4967304198665382,
                -2.0784617107023933,
                -2.03914249233462,
                2.218855630934301
            ]
        },
        {
            "positions": [
                -2.2407209241635297,
                -2.231229735065486,
                -0.44053460601088895,
                -2.030382006943035,
                -2.052015630296181,
                2.1034029284366493
            ]
        },
        {
            "positions": [
                -2.110187654231044,
                -2.204985879378327,
                -0.38433879215523975,
                -1.982302303183677,
                -2.064888768257742,
                1.9879502259389978
            ]
        },
        {
            "positions": [
                -1.9796543842985577,
                -2.1787420236911674,
                -0.3281429782995906,
                -1.9342225994243187,
                -2.077761906219303,
                1.8724975234413461
            ]
        },
        {
            "positions": [
                -1.8491211143660717,
                -2.152498168004008,
                -0.2719471644439414,
                -1.8861428956649606,
                -2.0906350441808637,
                1.7570448209436946
            ]
        },
        {
            "positions": [
                -1.7185878444335858,
                -2.1262543123168487,
                -0.2157513505882922,
                -1.8380631919056025,
                -2.103508182142425,
                1.641592118446043
            ]
        },
        {
            "positions": [
                -1.5880545745010999,
                -2.1000104566296893,
                -0.1595555367326431,
                -1.7899834881462444,
                -2.1163813201039856,
                1.5261394159483914
            ]
        },
        {
            "positions": [
                -1.4575213045686137,
                -2.07376660094253,
                -0.1033597228769938,
                -1.7419037843868863,
                -2.129254458065547,
                1.4106867134507397
            ]
        },
        {
            "positions": [
                -1.3269880346361278,
                -2.0475227452553706,
                -0.0471639090213446,
                -1.693824080627528,
                -2.1421275960271076,
                1.295234010953088
            ]
        },
        {
            "positions": [
                -1.196454764703642,
                -2.0212788895682112,
                0.009031904834304494,
                -1.6457443768681699,
                -2.1550007339886683,
                1.1797813084554365
            ]
        },
        {
            "positions": [
                -1.065921494771156,
                -1.9950350338810516,
                0.0652277186899538,
                -1.5976646731088118,
                -2.1678738719502295,
                1.0643286059577848
            ]
        },
        {
            "positions": [
                -0.93538822483867,
                -1.9687911781938923,
                0.1214235325456029,
                -1.5495849693494534,
                -2.1807470099117903,
                0.9488759034601333
            ]
        },
        {
            "positions": [
                -0.8048549549061836,
                -1.942547322506733,
                0.1776193464012521,
                -1.5015052655900953,
                -2.193620147873351,
                0.8334232009624816
            ]
        },
        {
            "positions": [
                -0.6743216849736977,
                -1.9163034668195735,
                0.2338151602569014,
                -1.4534255618307372,
                -2.206493285834912,
                0.7179704984648301
            ]
        },
        {
            "positions": [
                -0.5437884150412118,
                -1.8900596111324142,
                0.2900109741125505,
                -1.405345858071379,
                -2.219366423796473,
                0.6025177959671786
            ]
        },
        {
            "positions": [
                -0.41325514510872585,
                -1.8638157554452548,
                0.3462067879681998,
                -1.3572661543120208,
                -2.232239561758034,
                0.48706509346952664
            ]
        },
        {
            "positions": [
                -0.2827218751762399,
                -1.8375718997580954,
                0.4024026018238489,
                -1.3091864505526627,
                -2.245112699719595,
                0.37161239097187515
            ]
        },
        {
            "positions": [
                -0.12120556392393275,
                -1.7828670213513904,
                0.33997068520615686,
                -1.3843039942583313,
                -2.213792321176867,
                0.3627798554475185
            ]
        },
        {
            "positions": [
                0.04031074732837442,
                -1.7281621429446852,
                0.2775387685884648,
                -1.4594215379639999,
                -2.1824719426341397,
                0.3539473199231618
            ]
        },
        {
            "positions": [
                0.20182705858068162,
                -1.67345726453798,
                0.21510685197077278,
                -1.5345390816696685,
                -2.151151564091412,
                0.34511478439880516
            ]
        },
        {
            "positions": [
                0.36334336983298876,
                -1.618752386131275,
                0.15267493535308074,
                -1.609656625375337,
                -2.119831185548684,
                0.3362822488744485
            ]
        },
        {
            "positions": [
                0.524859681085296,
                -1.56404750772457,
                0.09024301873538865,
                -1.6847741690810059,
                -2.0885108070059566,
                0.3274497133500918
            ]
        },
        {
            "positions": [
                0.6863759923376032,
                -1.5093426293178647,
                0.027811102117696662,
                -1.7598917127866742,
                -2.0571904284632287,
                0.3186171778257352
            ]
        },
        {
            "positions": [
                0.8478923035899104,
                -1.4546377509111594,
                -0.034620814499995434,
                -1.835009256492343,
                -2.025870049920501,
                0.30978464230137853
            ]
        },
        {
            "positions": [
                1.0094086148422174,
                -1.3999328725044544,
                -0.09705273111768742,
                -1.9101268001980114,
                -1.9945496713777735,
                0.3009521067770219
            ]
        },
        {
            "positions": [
                1.1709249260945247,
                -1.3452279940977494,
                -0.15948464773537951,
                -1.9852443439036802,
                -1.9632292928350457,
                0.2921195712526652
            ]
        },
        {
            "positions": [
                1.332441237346832,
                -1.2905231156910442,
                -0.2219165643530716,
                -2.060361887609349,
                -1.931908914292318,
                0.2832870357283085
            ]
        },
        {
            "positions": [
                1.4939575485991392,
                -1.235818237284339,
                -0.2843484809707637,
                -2.1354794313150176,
                -1.9005885357495904,
                0.27445450020395185
            ]
        },
        {
            "positions": [
                1.6554738598514462,
                -1.181113358877634,
                -0.3467803975884556,
                -2.210596975020686,
                -1.8692681572068628,
                0.2656219646795952
            ]
        },
        {
            "positions": [
                1.8169901711037535,
                -1.126408480470929,
                -0.4092123142061477,
                -2.285714518726355,
                -1.8379477786641352,
                0.25678942915523856
            ]
        },
        {
            "positions": [
                1.9785064823560607,
                -1.0717036020642237,
                -0.47164423082383977,
                -2.3608320624320234,
                -1.8066274001214073,
                0.24795689363088186
            ]
        },
        {
            "positions": [
                2.140022793608368,
                -1.0169987236575184,
                -0.5340761474415319,
                -2.435949606137692,
                -1.7753070215786797,
                0.23912435810652521
            ]
        },
        {
            "positions": [
                2.301539104860675,
                -0.9622938452508134,
                -0.5965080640592237,
                -2.5110671498433605,
                -1.743986643035952,
                0.23029182258216857
            ]
        },
        {
            "positions": [
                2.463055416112982,
                -0.9075889668441083,
                -0.6589399806769158,
                -2.586184693549029,
                -1.7126662644932242,
                0.2214592870578119
            ]
        },
        {
            "positions": [
                2.6245717273652893,
                -0.8528840884374032,
                -0.7213718972946079,
                -2.6613022372546977,
                -1.6813458859504966,
                0.21262675153345523
            ]
        },
        {
            "positions": [
                2.516508565556502,
                -0.8871541782823652,
                -0.7846535054824564,
                -2.6419907468542947,
                -1.623554073661145,
                0.32442224858251417
            ]
        },
        {
            "positions": [
                2.408445403747715,
                -0.9214242681273271,
                -0.8479351136703047,
                -2.622679256453891,
                -1.5657622613717932,
                0.4362177456315731
            ]
        },
        {
            "positions": [
                2.3003822419389284,
                -0.9556943579722892,
                -0.9112167218581532,
                -2.603367766053488,
                -1.5079704490824415,
                0.548013242680632
            ]
        },
        {
            "positions": [
                2.192319080130141,
                -0.9899644478172511,
                -0.9744983300460015,
                -2.584056275653085,
                -1.4501786367930898,
                0.659808739729691
            ]
        },
        {
            "positions": [
                2.084255918321354,
                -1.0242345376622133,
                -1.03777993823385,
                -2.564744785252682,
                -1.3923868245037379,
                0.7716042367787499
            ]
        },
        {
            "positions": [
                1.976192756512567,
                -1.0585046275071752,
                -1.1010615464216984,
                -2.5454332948522786,
                -1.3345950122143861,
                0.8833997338278088
            ]
        },
        {
            "positions": [
                1.86812959470378,
                -1.0927747173521372,
                -1.1643431546095466,
                -2.5261218044518756,
                -1.2768031999250344,
                0.9951952308768677
            ]
        },
        {
            "positions": [
                1.7600664328949929,
                -1.127044807197099,
                -1.227624762797395,
                -2.5068103140514726,
                -1.2190113876356827,
                1.1069907279259268
            ]
        },
        {
            "positions": [
                1.6520032710862058,
                -1.1613148970420613,
                -1.2909063709852435,
                -2.4874988236510696,
                -1.161219575346331,
                1.2187862249749855
            ]
        },
        {
            "positions": [
                1.5439401092774188,
                -1.1955849868870232,
                -1.354187979173092,
                -2.468187333250666,
                -1.1034277630569793,
                1.3305817220240446
            ]
        },
        {
            "positions": [
                1.4358769474686317,
                -1.2298550767319851,
                -1.4174695873609404,
                -2.448875842850263,
                -1.0456359507676276,
                1.4423772190731035
            ]
        },
        {
            "positions": [
                1.3278137856598446,
                -1.2641251665769473,
                -1.4807511955487889,
                -2.42956435244986,
                -0.9878441384782759,
                1.5541727161221623
            ]
        },
        {
            "positions": [
                1.2197506238510576,
                -1.2983952564219092,
                -1.544032803736637,
                -2.4102528620494565,
                -0.9300523261889242,
                1.6659682131712212
            ]
        },
        {
            "positions": [
                1.1116874620422705,
                -1.3326653462668712,
                -1.6073144119244853,
                -2.3909413716490535,
                -0.8722605138995725,
                1.7777637102202801
            ]
        },
        {
            "positions": [
                1.0036243002334837,
                -1.366935436111833,
                -1.6705960201123338,
                -2.3716298812486505,
                -0.8144687016102208,
                1.889559207269339
            ]
        },
        {
            "positions": [
                0.8955611384246964,
                -1.4012055259567953,
                -1.7338776283001824,
                -2.3523183908482475,
                -0.756676889320869,
                2.0013547043183983
            ]
        },
        {
            "positions": [
                0.7874979766159094,
                -1.4354756158017574,
                -1.7971592364880307,
                -2.333006900447844,
                -0.6988850770315173,
                2.113150201367457
            ]
        },
        {
            "positions": [
                0.6794348148071223,
                -1.4697457056467194,
                -1.8604408446758791,
                -2.313695410047441,
                -0.6410932647421657,
                2.2249456984165157
            ]
        },
        {
            "positions": [
                0.5713716529983355,
                -1.5040157954916813,
                -1.9237224528637273,
                -2.294383919647038,
                -0.583301452452814,
                2.336741195465575
            ]
        },
        {
            "positions": [
                0.4633084911895482,
                -1.5382858853366432,
                -1.987004061051576,
                -2.275072429246635,
                -0.525509640163462,
                2.448536692514634
            ]
        },
        {
            "positions": [
                0.3552453293807609,
                -1.5725559751816052,
                -2.0502856692394245,
                -2.2557609388462314,
                -0.4677178278741103,
                2.5603321895636926
            ]
        },
        {
            "positions": [
                0.2471821675719741,
                -1.606826065026567,
                -2.113567277427273,
                -2.2364494484458284,
                -0.4099260155847586,
                2.6721276866127517
            ]
        },
        {
            "positions": [
                0.13911900576318725,
                -1.6410961548715293,
                -2.176848885615121,
                -2.2171379580454253,
                -0.3521342032954069,
                2.7839231836618104
            ]
        },
        {
            "positions": [
                0.031055843954399975,
                -1.6753662447164914,
                -2.24013049380297,
                -2.1978264676450223,
                -0.2943423910060552,
                2.8957186807108695
            ]
        },
        {
            "positions": [
                -0.0770073178543873,
                -1.7096363345614534,
                -2.303412101990818,
                -2.178514977244619,
                -0.23655057871670349,
                3.0075141777599286
            ]
        },
        {
            "positions": [
                -0.1850704796631741,
                -1.7439064244064153,
                -2.3666937101786663,
                -2.159203486844216,
                -0.1787587664273519,
                3.1193096748089872
            ]
        }
    ]
}