{
    "goal": {
        "global_pose": {
            "orientation": {
                "w": 0.5084816262002911,
                "x": -0.4908360881923452,
                "y": 0.5182115481033761,
                "z": -0.48164630358495003
            },
            "position": {
                "x": 0.5540239810943604,
                "y": -0.46912469901144505,
                "z": 0.16403168439865112
            }
        },
        "name": "move_to_storage_B"
    },
    "id": "PRM_move_to_storage_B_17",
    "joint_names": [
        "shoulder_pan_joint",
        "shoulder_lift_joint",
        "elbow_joint",
        "wrist_1_joint",
        "wrist_2_joint",
        "wrist_3_joint"
    ],
    "metrics": {
        "cart_traj_len": 0.5798081152932829,
        "distance_elbow_joint": 0.3552191055640903,
        "distance_shoulder_lift_joint": 0.46068686829926864,
        "distance_shoulder_pan_joint": 0.2284246540754954,
        "distance_wrist_1_joint": 3.0009281240827077,
        "distance_wrist_2_joint": 2.7136983010142286,
        "distance_wrist_3_joint": 3.122005972393851,
        "smoothness": 0.027332773507816713,
        "time": 0.618614659,
        "traj_len": 3.143399914969402,
        "weighted_distance": 4.6732859312601756
    },
    "planner": "PRM",
    "start": {
        "state": {
            "elbow_joint": 1.664937868594044,
            "shoulder_lift_joint": -0.661644460510453,
            "shoulder_pan_joint": -0.9139846352900073,
            "wrist_1_joint": 2.146753192139373,
            "wrist_2_joint": -2.2341966793290973,
            "wrist_3_joint": 0.005466555786416001
        }
    },
    "waypoints": [
        {
            "positions": [
                -0.9139846352900073,
                -0.661644460510453,
                1.664937868594044,
                2.146753192139373,
                -2.2341966793290973,
                0.005466555786416001
            ]
        },
        {
            "positions": [
                -0.9024186303760842,
                -0.6715360792849276,
                1.6796537567662093,
                1.9529978010888065,
                -2.1504520553558217,
                -0.04455797291333841
            ]
        },
        {
            "positions": [
                -0.8908526254621612,
                -0.6814276980594024,
                1.694369644938375,
                1.7592424100382398,
                -2.066707431382546,
                -0.09458250161309283
            ]
        },
        {
            "positions": [
                -0.8994064856391465,
                -0.699798682673999,
                1.7079441169891982,
                1.6503500207890074,
                -1.9606153875047263,
                -0.22049737307119038
            ]
        },
        {
            "positions": [
                -0.9079603458161319,
                -0.7181696672885957,
                1.7215185890400215,
                1.5414576315397752,
                -1.8545233436269064,
                -0.346412244529288
            ]
        },
        {
            "positions": [
                -0.9165142059931173,
                -0.7365406519031923,
                1.7350930610908448,
                1.432565242290543,
                -1.7484312997490865,
                -0.4723271159873856
            ]
        },
        {
            "positions": [
                -0.9250680661701027,
                -0.7549116365177889,
                1.7486675331416681,
                1.3236728530413107,
                -1.6423392558712666,
                -0.5982419874454831
            ]
        },
        {
            "positions": [
                -0.9336219263470881,
                -0.7732826211323856,
                1.7622420051924914,
                1.2147804637920783,
                -1.5362472119934467,
                -0.7241568589035807
            ]
        },
        {
            "positions": [
                -0.9421757865240734,
                -0.7916536057469822,
                1.7758164772433147,
                1.105888074542846,
                -1.4301551681156268,
                -0.8500717303616783
            ]
        },
        {
            "positions": [
                -0.9507296467010589,
                -0.8100245903615788,
                1.789390949294138,
                0.9969956852936138,
                -1.324063124237807,
                -0.9759866018197759
            ]
        },
        {
            "positions": [
                -0.9592835068780442,
                -0.8283955749761754,
                1.8029654213449613,
                0.8881032960443815,
                -1.217971080359987,
                -1.1019014732778734
            ]
        },
        {
            "positions": [
                -0.9678373670550297,
                -0.8467665595907721,
                1.8165398933957846,
                0.7792109067951493,
                -1.1118790364821671,
                -1.2278163447359711
            ]
        },
        {
            "positions": [
                -0.976391227232015,
                -0.8651375442053688,
                1.830114365446608,
                0.670318517545917,
                -1.0057869926043472,
                -1.3537312161940687
            ]
        },
        {
            "positions": [
                -0.9849450874090004,
                -0.8835085288199653,
                1.8436888374974312,
                0.5614261282966848,
                -0.8996949487265273,
                -1.4796460876521662
            ]
        },
        {
            "positions": [
                -0.9934989475859858,
                -0.9018795134345621,
                1.8572633095482547,
                0.4525337390474524,
                -0.7936029048487074,
                -1.6055609591102638
            ]
        },
        {
            "positions": [
                -1.0020528077629711,
                -0.9202504980491586,
                1.8708377815990778,
                0.34364134979822025,
                -0.6875108609708875,
                -1.7314758305683613
            ]
        },
        {
            "positions": [
                -1.0106066679399566,
                -0.9386214826637553,
                1.8844122536499013,
                0.23474896054898786,
                -0.5814188170930676,
                -1.857390702026459
            ]
        },
        {
            "positions": [
                -1.019160528116942,
                -0.9569924672783519,
                1.8979867257007246,
                0.1258565712997557,
                -0.47532677321524774,
                -1.9833055734845564
            ]
        },
        {
            "positions": [
                -1.0277143882939273,
                -0.9753634518929486,
                1.9115611977515479,
                0.016964182050523302,
                -0.36923472933742785,
                -2.109220444942654
            ]
        },
        {
            "positions": [
                -1.0362682484709127,
                -0.9937344365075452,
                1.9251356698023712,
                -0.09192820719870909,
                -0.26314268545960795,
                -2.235135316400752
            ]
        },
        {
            "positions": [
                -1.0448221086478982,
                -1.0121054211221419,
                1.9387101418531945,
                -0.20082059644794126,
                -0.15705064158178805,
                -2.3610501878588495
            ]
        },
        {
            "positions": [
                -1.0533759688248834,
                -1.0304764057367384,
                1.9522846139040178,
                -0.3097129856971734,
                -0.050958597703968156,
                -2.4869650593169466
            ]
        },
        {
            "positions": [
                -1.0619298290018688,
                -1.0488473903513351,
                1.965859085954841,
                -0.4186053749464058,
                0.05513344617385174,
                -2.6128799307750445
            ]
        },
        {
            "positions": [
                -1.0704836891788543,
                -1.0672183749659316,
                1.9794335580056643,
                -0.5274977641956382,
                0.16122549005167164,
                -2.738794802233142
            ]
        },
        {
            "positions": [
                -1.0790375493558395,
                -1.0855893595805284,
                1.9930080300564876,
                -0.6363901534448702,
                0.26731753392949154,
                -2.8647096736912396
            ]
        },
        {
            "positions": [
                -1.087591409532825,
                -1.1039603441951251,
                2.006582502107311,
                -0.7452825426941025,
                0.37340957780731143,
                -2.990624545149337
            ]
        },
        {
            "positions": [
                -1.0961452697098104,
                -1.1223313288097216,
                2.0201569741581342,
                -0.8541749319433352,
                0.47950162168513144,
                -3.1165394166074347
            ]
        }
    ]
}