{
    "goal": {
        "global_pose": {
            "orientation": {
                "w": -0.4816463035849501,
                "x": 0.5182115481033762,
                "y": 0.4908360881923453,
                "z": -0.5084816262002911
            },
            "position": {
                "x": -0.8240239810943604,
                "y": 0.19912469901144506,
                "z": 0.16403168439865112
            }
        },
        "name": "move_to_storage_D"
    },
    "id": "PRM_move_to_storage_D_17",
    "joint_names": [
        "shoulder_pan_joint",
        "shoulder_lift_joint",
        "elbow_joint",
        "wrist_1_joint",
        "wrist_2_joint",
        "wrist_3_joint"
    ],
    "metrics": {
        "cart_traj_len": 1.4901986060252694,
        "distance_elbow_joint": 0.8651560829862668,
        "distance_shoulder_lift_joint": 1.164125193575813,
        "distance_shoulder_pan_joint": 2.457317309660154,
        "distance_wrist_1_joint": 3.831110905700312,
        "distance_wrist_2_joint": 1.7729491447297945,
        "distance_wrist_3_joint": 3.154033696209748,
        "smoothness": 0.22840698753879454,
        "time": 0.37664445300000005,
        "traj_len": 3.6393258074624324,
        "weighted_distance": 5.015657461959667
    },
    "planner": "PRM",
    "start": {
        "state": {
            "elbow_joint": -2.384821988534728,
            "shoulder_lift_joint": -2.2788054721415256,
            "shoulder_pan_joint": -0.1854694642142757,
            "wrist_1_joint": 1.4845938289331202,
            "wrist_2_joint": 0.17898776772866878,
            "wrist_3_joint": 0.037105688729662994
        }
    },
    "waypoints": [
        {
            "positions": [
                -0.1854694642142757,
                -2.2788054721415256,
                -2.384821988534728,
                1.4845938289331202,
                0.17898776772866878,
                0.037105688729662994
            ]
        },
        {
            "positions": [
                -0.09845541013800425,
                -2.234904300283185,
                -2.395127890846622,
                1.353305736179616,
                0.11900930922774422,
                0.08462328288483795
            ]
        },
        {
            "positions": [
                -0.0114413560617328,
                -2.1910031284248443,
                -2.4054337931585152,
                1.2220176434261119,
                0.05903085072681964,
                0.13214087704001287
            ]
        },
        {
            "positions": [
                0.07557269801453867,
                -2.147101956566504,
                -2.415739695470409,
                1.0907295506726076,
                -0.000947607774104936,
                0.17965847119518782
            ]
        },
        {
            "positions": [
                0.1625867520908101,
                -2.1032007847081635,
                -2.426045597782303,
                0.9594414579191034,
                -0.0609260662750295,
                0.22717606535036278
            ]
        },
        {
            "positions": [
                0.24960080616708155,
                -2.0592996128498227,
                -2.436351500094197,
                0.8281533651655992,
                -0.12090452477595406,
                0.2746936595055377
            ]
        },
        {
            "positions": [
                0.3366148602433531,
                -2.0153984409914822,
                -2.4466574024060903,
                0.696865272412095,
                -0.18088298327687866,
                0.3222112536607127
            ]
        },
        {
            "positions": [
                0.42362891431962457,
                -1.9714972691331416,
                -2.456963304717984,
                0.5655771796585908,
                -0.24086144177780325,
                0.36972884781588755
            ]
        },
        {
            "positions": [
                0.510642968395896,
                -1.9275960972748012,
                -2.467269207029878,
                0.4342890869050866,
                -0.30083990027872776,
                0.41724644197106253
            ]
        },
        {
            "positions": [
                0.5976570224721675,
                -1.8836949254164606,
                -2.477575109341772,
                0.3030009941515823,
                -0.3608183587796524,
                0.4647640361262375
            ]
        },
        {
            "positions": [
                0.6846710765484388,
                -1.8397937535581201,
                -2.4878810116536654,
                0.17171290139807827,
                -0.42079681728057694,
                0.5122816302814124
            ]
        },
        {
            "positions": [
                0.7716851306247103,
                -1.7958925816997795,
                -2.4981869139655593,
                0.040424808644573984,
                -0.4807752757815015,
                0.5597992244365874
            ]
        },
        {
            "positions": [
                0.8586991847009818,
                -1.7519914098414389,
                -2.508492816277453,
                -0.0908632841089303,
                -0.5407537342824261,
                0.6073168185917623
            ]
        },
        {
            "positions": [
                0.9457132387772534,
                -1.7080902379830982,
                -2.518798718589347,
                -0.22215137686243458,
                -0.6007321927833508,
                0.6548344127469373
            ]
        },
        {
            "positions": [
                1.0327272928535247,
                -1.6641890661247576,
                -2.5291046209012404,
                -0.35343946961593864,
                -0.6607106512842753,
                0.7023520069021122
            ]
        },
        {
            "positions": [
                1.119741346929796,
                -1.6202878942664172,
                -2.5394105232131343,
                -0.4847275623694428,
                -0.7206891097851998,
                0.7498696010572872
            ]
        },
        {
            "positions": [
                1.062136022003992,
                -1.6455682750514524,
                -2.5038821457977414,
                -0.5778170380893303,
                -0.7643527231459961,
                0.8719330902513933
            ]
        },
        {
            "positions": [
                1.004530697078188,
                -1.6708486558364877,
                -2.4683537683823484,
                -0.6709065138092176,
                -0.8080163365067924,
                0.9939965794454996
            ]
        },
        {
            "positions": [
                0.9469253721523839,
                -1.696129036621523,
                -2.432825390966955,
                -0.7639959895291051,
                -0.8516799498675887,
                1.1160600686396056
            ]
        },
        {
            "positions": [
                0.8893200472265799,
                -1.7214094174065582,
                -2.397297013551562,
                -0.8570854652489925,
                -0.895343563228385,
                1.238123557833712
            ]
        },
        {
            "positions": [
                0.8317147223007757,
                -1.7466897981915932,
                -2.361768636136169,
                -0.9501749409688799,
                -0.9390071765891813,
                1.3601870470278181
            ]
        },
        {
            "positions": [
                0.7741093973749718,
                -1.7719701789766285,
                -2.326240258720776,
                -1.0432644166887672,
                -0.9826707899499776,
                1.4822505362219243
            ]
        },
        {
            "positions": [
                0.7165040724491676,
                -1.7972505597616637,
                -2.2907118813053833,
                -1.1363538924086547,
                -1.026334403310774,
                1.6043140254160304
            ]
        },
        {
            "positions": [
                0.6588987475233635,
                -1.822530940546699,
                -2.2551835038899903,
                -1.2294433681285422,
                -1.0699980166715701,
                1.7263775146101368
            ]
        },
        {
            "positions": [
                0.6012934225975595,
                -1.8478113213317342,
                -2.219655126474597,
                -1.3225328438484296,
                -1.1136616300323665,
                1.848441003804243
            ]
        },
        {
            "positions": [
                0.5436880976717554,
                -1.8730917021167695,
                -2.184126749059204,
                -1.415622319568317,
                -1.1573252433931627,
                1.970504492998349
            ]
        },
        {
            "positions": [
                0.48608277274595124,
                -1.8983720829018047,
                -2.148598371643811,
                -1.5087117952882045,
                -1.200988856753959,
                2.092567982192455
            ]
        },
        {
            "positions": [
                0.4284774478201473,
                -1.92365246368684,
                -2.113069994228418,
                -1.6018012710080916,
                -1.2446524701147554,
                2.2146314713865616
            ]
        },
        {
            "positions": [
                0.3708721228943431,
                -1.9489328444718752,
                -2.077541616813025,
                -1.6948907467279795,
                -1.2883160834755516,
                2.336694960580668
            ]
        },
        {
            "positions": [
                0.3132667979685392,
                -1.9742132252569102,
                -2.0420132393976322,
                -1.7879802224478665,
                -1.3319796968363478,
                2.4587584497747734
            ]
        },
        {
            "positions": [
                0.2556614730427351,
                -1.9994936060419457,
                -2.006484861982239,
                -1.881069698167754,
                -1.3756433101971441,
                2.58082193896888
            ]
        },
        {
            "positions": [
                0.19805614811693095,
                -2.0247739868269807,
                -1.970956484566846,
                -1.9741591738876414,
                -1.4193069235579405,
                2.702885428162986
            ]
        },
        {
            "positions": [
                0.140450823191127,
                -2.050054367612016,
                -1.935428107151453,
                -2.067248649607529,
                -1.4629705369187367,
                2.8249489173570925
            ]
        },
        {
            "positions": [
                0.08284549826532284,
                -2.0753347483970512,
                -1.89989972973606,
                -2.1603381253274163,
                -1.506634150279533,
                2.947012406551199
            ]
        },
        {
            "positions": [
                0.02524017333951889,
                -2.1006151291820867,
                -1.864371352320667,
                -2.2534276010473038,
                -1.5502977636403292,
                3.0690758957453044
            ]
        },
        {
            "positions": [
                -0.03236515158628533,
                -2.1258955099671217,
                -1.828842974905274,
                -2.3465170767671912,
                -1.5939613770011256,
                3.191139384939411
            ]
        }
    ]
}