{
    "goal": {
        "global_pose": {
            "orientation": {
                "w": -0.00223480608172531,
                "x": 0.0024358444001904467,
                "y": 0.7094548369677653,
                "z": -0.704743149386269
            },
            "position": {
                "x": 0.6205249238014221,
                "y": -0.6371506643295288,
                "z": 0.19426114857196808
            }
        },
        "name": "move_to_magneteinheit_B"
    },
    "id": "PRM_move_to_magneteinheit_B_117",
    "joint_names": [
        "shoulder_pan_joint",
        "shoulder_lift_joint",
        "elbow_joint",
        "wrist_1_joint",
        "wrist_2_joint",
        "wrist_3_joint"
    ],
    "metrics": {
        "cart_traj_len": 3.687458669387952,
        "distance_elbow_joint": 6.140080785636593,
        "distance_shoulder_lift_joint": 1.790268928823354,
        "distance_shoulder_pan_joint": 2.469663457820269,
        "distance_wrist_1_joint": 5.051988409807773,
        "distance_wrist_2_joint": 2.088581571775962,
        "distance_wrist_3_joint": 3.1166670629028954,
        "smoothness": 0.3912352727734571,
        "time": 0.6396307539999999,
        "traj_len": 4.545024776254453,
        "weighted_distance": 5.833622744415033
    },
    "planner": "PRM",
    "start": {
        "state": {
            "elbow_joint": 2.6216224122426386,
            "shoulder_lift_joint": -1.4174107377796124,
            "shoulder_pan_joint": 0.7066234856936794,
            "wrist_1_joint": 1.9546482284002225,
            "wrist_2_joint": -0.7096286983471962,
            "wrist_3_joint": 0.005740856962016249
        }
    },
    "waypoints": [
        {
            "positions": [
                0.7066234856936794,
                -1.4174107377796124,
                2.6216224122426386,
                1.9546482284002225,
                -0.7096286983471962,
                0.005740856962016249
            ]
        },
        {
            "positions": [
                0.6667486288629808,
                -1.478780409880707,
                2.5977422825738725,
                1.8986129323230179,
                -0.6574730314220175,
                -0.08524433262487231
            ]
        },
        {
            "positions": [
                0.6268737720322823,
                -1.5401500819818017,
                2.573862152905107,
                1.842577636245813,
                -0.6053173644968388,
                -0.17622952221176086
            ]
        },
        {
            "positions": [
                0.5869989152015838,
                -1.6015197540828963,
                2.549982023236341,
                1.7865423401686085,
                -0.5531616975716601,
                -0.2672147117986494
            ]
        },
        {
            "positions": [
                0.59517241083171,
                -1.6209935119358867,
                2.4523323235105003,
                1.7084581289769316,
                -0.5253752184527101,
                -0.3544411757792204
            ]
        },
        {
            "positions": [
                0.6033459064618364,
                -1.6404672697888771,
                2.35468262378466,
                1.6303739177852545,
                -0.4975887393337601,
                -0.44166763975979145
            ]
        },
        {
            "positions": [
                0.6115194020919628,
                -1.6599410276418678,
                2.257032924058819,
                1.5522897065935777,
                -0.4698022602148101,
                -0.5288941037403625
            ]
        },
        {
            "positions": [
                0.619692897722089,
                -1.6794147854948582,
                2.1593832243329785,
                1.4742054954019008,
                -0.44201578109586004,
                -0.6161205677209335
            ]
        },
        {
            "positions": [
                0.6770348354339448,
                -1.6659871191895552,
                2.034600824949241,
                1.3620537470051919,
                -0.4664617997214539,
                -0.6763626052938412
            ]
        },
        {
            "positions": [
                0.7343767731458006,
                -1.6525594528842522,
                1.9098184255655035,
                1.249901998608483,
                -0.4909078183470478,
                -0.7366046428667489
            ]
        },
        {
            "positions": [
                0.7917187108576564,
                -1.6391317865789494,
                1.785036026181766,
                1.137750250211774,
                -0.5153538369726416,
                -0.7968466804396566
            ]
        },
        {
            "positions": [
                0.8490606485695124,
                -1.6257041202736464,
                1.6602536267980286,
                1.0255985018150648,
                -0.5397998555982355,
                -0.8570887180125643
            ]
        },
        {
            "positions": [
                0.9064025862813682,
                -1.6122764539683434,
                1.535471227414291,
                0.9134467534183559,
                -0.5642458742238293,
                -0.917330755585472
            ]
        },
        {
            "positions": [
                0.963744523993224,
                -1.5988487876630404,
                1.4106888280305534,
                0.801295005021647,
                -0.5886918928494231,
                -0.9775727931583795
            ]
        },
        {
            "positions": [
                1.0210864617050799,
                -1.5854211213577374,
                1.285906428646816,
                0.6891432566249379,
                -0.6131379114750171,
                -1.0378148307312873
            ]
        },
        {
            "positions": [
                1.0784283994169357,
                -1.5719934550524344,
                1.1611240292630784,
                0.576991508228229,
                -0.6375839301006109,
                -1.098056868304195
            ]
        },
        {
            "positions": [
                1.1357703371287915,
                -1.5585657887471316,
                1.036341629879341,
                0.4648397598315199,
                -0.6620299487262048,
                -1.1582989058771025
            ]
        },
        {
            "positions": [
                1.1931122748406473,
                -1.5451381224418286,
                0.9115592304956035,
                0.352688011434811,
                -0.6864759673517986,
                -1.2185409434500103
            ]
        },
        {
            "positions": [
                1.250454212552503,
                -1.5317104561365256,
                0.7867768311118659,
                0.24053626303810183,
                -0.7109219859773925,
                -1.278782981022918
            ]
        },
        {
            "positions": [
                1.307796150264359,
                -1.5182827898312226,
                0.6619944317281286,
                0.1283845146413931,
                -0.7353680046029863,
                -1.3390250185958257
            ]
        },
        {
            "positions": [
                1.3651380879762147,
                -1.5048551235259195,
                0.537212032344391,
                0.01623276624468395,
                -0.7598140232285802,
                -1.3992670561687333
            ]
        },
        {
            "positions": [
                1.4224800256880705,
                -1.4914274572206168,
                0.4124296329606536,
                -0.09591898215202499,
                -0.7842600418541741,
                -1.459509093741641
            ]
        },
        {
            "positions": [
                1.4798219633999263,
                -1.4779997909153137,
                0.2876472335769158,
                -0.20807073054873393,
                -0.808706060479768,
                -1.5197511313145489
            ]
        },
        {
            "positions": [
                1.5371639011117821,
                -1.4645721246100107,
                0.16286483419317843,
                -0.32022247894544287,
                -0.8331520791053617,
                -1.5799931688874564
            ]
        },
        {
            "positions": [
                1.5945058388236382,
                -1.4511444583047077,
                0.03808243480944107,
                -0.43237422734215203,
                -0.8575980977309556,
                -1.640235206460364
            ]
        },
        {
            "positions": [
                1.651847776535494,
                -1.4377167919994047,
                -0.0866999645742963,
                -0.544525975738861,
                -0.8820441163565496,
                -1.7004772440332716
            ]
        },
        {
            "positions": [
                1.7091897142473498,
                -1.4242891256941017,
                -0.2114823639580341,
                -0.6566777241355699,
                -0.9064901349821434,
                -1.7607192816061796
            ]
        },
        {
            "positions": [
                1.7665316519592056,
                -1.410861459388799,
                -0.33626476334177147,
                -0.7688294725322788,
                -0.9309361536077372,
                -1.8209613191790872
            ]
        },
        {
            "positions": [
                1.8238735896710616,
                -1.397433793083496,
                -0.4610471627255093,
                -0.8809812209289882,
                -0.9553821722333311,
                -1.8812033567519948
            ]
        },
        {
            "positions": [
                1.8812155273829174,
                -1.384006126778193,
                -0.5858295621092466,
                -0.9931329693256972,
                -0.9798281908589249,
                -1.9414453943249028
            ]
        },
        {
            "positions": [
                1.938557465094773,
                -1.37057846047289,
                -0.710611961492984,
                -1.1052847177224057,
                -1.0042742094845187,
                -2.0016874318978104
            ]
        },
        {
            "positions": [
                1.9958994028066288,
                -1.357150794167587,
                -0.8353943608767214,
                -1.2174364661191146,
                -1.0287202281101127,
                -2.061929469470718
            ]
        },
        {
            "positions": [
                2.053241340518485,
                -1.343723127862284,
                -0.9601767602604592,
                -1.329588214515824,
                -1.0531662467357066,
                -2.1221715070436256
            ]
        },
        {
            "positions": [
                2.1105832782303406,
                -1.330295461556981,
                -1.0849591596441965,
                -1.441739962912533,
                -1.0776122653613003,
                -2.182413544616533
            ]
        },
        {
            "positions": [
                2.1679252159421964,
                -1.316867795251678,
                -1.209741559027934,
                -1.5538917113092419,
                -1.1020582839868942,
                -2.242655582189441
            ]
        },
        {
            "positions": [
                2.2252671536540523,
                -1.303440128946375,
                -1.3345239584116713,
                -1.6660434597059508,
                -1.1265043026124881,
                -2.3028976197623487
            ]
        },
        {
            "positions": [
                2.282609091365908,
                -1.290012462641072,
                -1.4593063577954095,
                -1.7781952081026597,
                -1.150950321238082,
                -2.3631396573352563
            ]
        },
        {
            "positions": [
                2.339951029077764,
                -1.276584796335769,
                -1.5840887571791469,
                -1.8903469564993687,
                -1.175396339863676,
                -2.423381694908164
            ]
        },
        {
            "positions": [
                2.3972929667896197,
                -1.2631571300304663,
                -1.7088711565628842,
                -2.0024987048960776,
                -1.1998423584892697,
                -2.483623732481072
            ]
        },
        {
            "positions": [
                2.4546349045014755,
                -1.2497294637251632,
                -1.8336535559466216,
                -2.1146504532927866,
                -1.2242883771148634,
                -2.5438657700539795
            ]
        },
        {
            "positions": [
                2.5119768422133317,
                -1.2363017974198602,
                -1.958435955330359,
                -2.226802201689496,
                -1.2487343957404575,
                -2.604107807626887
            ]
        },
        {
            "positions": [
                2.5693187799251875,
                -1.2228741311145572,
                -2.0832183547140963,
                -2.338953950086205,
                -1.2731804143660512,
                -2.6643498451997947
            ]
        },
        {
            "positions": [
                2.6266607176370433,
                -1.2094464648092544,
                -2.2080007540978337,
                -2.4511056984829134,
                -1.2976264329916452,
                -2.7245918827727023
            ]
        },
        {
            "positions": [
                2.684002655348899,
                -1.1960187985039514,
                -2.332783153481571,
                -2.5632574468796228,
                -1.322072451617239,
                -2.78483392034561
            ]
        },
        {
            "positions": [
                2.741344593060755,
                -1.1825911321986484,
                -2.4575655528653093,
                -2.6754091952763317,
                -1.3465184702428328,
                -2.845075957918518
            ]
        },
        {
            "positions": [
                2.7986865307726108,
                -1.1691634658933454,
                -2.582347952249047,
                -2.78756094367304,
                -1.3709644888684267,
                -2.9053179954914254
            ]
        },
        {
            "positions": [
                2.783314167244039,
                -1.2822760838385228,
                -2.4783356832329457,
                -2.7531410283692055,
                -1.271851161451531,
                -2.9281633522080313
            ]
        },
        {
            "positions": [
                2.767941803715467,
                -1.3953887017837,
                -2.374323414216845,
                -2.718721113065371,
                -1.1727378340346357,
                -2.9510087089246375
            ]
        },
        {
            "positions": [
                2.752569440186895,
                -1.508501319728877,
                -2.2703111452007434,
                -2.684301197761536,
                -1.0736245066177403,
                -2.9738540656412433
            ]
        },
        {
            "positions": [
                2.7371970766583233,
                -1.6216139376740544,
                -2.166298876184642,
                -2.6498812824577014,
                -0.9745111792008447,
                -2.996699422357849
            ]
        },
        {
            "positions": [
                2.721824713129752,
                -1.7347265556192317,
                -2.0622866071685406,
                -2.6154613671538662,
                -0.8753978517839491,
                -3.0195447790744554
            ]
        },
        {
            "positions": [
                2.70645234960118,
                -1.8478391735644089,
                -1.9582743381524397,
                -2.5810414518500315,
                -0.7762845243670538,
                -3.042390135791061
            ]
        },
        {
            "positions": [
                2.6910799860726082,
                -1.9609517915095862,
                -1.8542620691363383,
                -2.546621536546197,
                -0.6771711969501581,
                -3.065235492507667
            ]
        },
        {
            "positions": [
                2.6757076225440364,
                -2.0740644094547633,
                -1.750249800120237,
                -2.512201621242362,
                -0.5780578695332628,
                -3.0880808492242733
            ]
        },
        {
            "positions": [
                2.6603352590154645,
                -2.1871770273999407,
                -1.6462375311041357,
                -2.4777817059385274,
                -0.4789445421163672,
                -3.110926205940879
            ]
        }
    ]
}