{
    "goal": {
        "global_pose": {
            "orientation": {
                "w": -0.4816463035849501,
                "x": 0.5182115481033762,
                "y": 0.4908360881923453,
                "z": -0.5084816262002911
            },
            "position": {
                "x": -0.8240239810943604,
                "y": -0.300875300988555,
                "z": 0.16403168439865112
            }
        },
        "name": "move_to_storage_C"
    },
    "id": "PRM_move_to_storage_C_90",
    "joint_names": [
        "shoulder_pan_joint",
        "shoulder_lift_joint",
        "elbow_joint",
        "wrist_1_joint",
        "wrist_2_joint",
        "wrist_3_joint"
    ],
    "metrics": {
        "cart_traj_len": 0.576344326043441,
        "distance_elbow_joint": 0.26182433902428426,
        "distance_shoulder_lift_joint": 0.18970686912086576,
        "distance_shoulder_pan_joint": 0.49253588417746785,
        "distance_wrist_1_joint": 0.09059650577539269,
        "distance_wrist_2_joint": 1.079904953165479,
        "distance_wrist_3_joint": 0.06809933446868177,
        "smoothness": 5.075305295617109e-16,
        "time": 0.013274712000000001,
        "traj_len": 1.4773854898881915,
        "weighted_distance": 1.8679850142895704
    },
    "planner": "PRM",
    "start": {
        "state": {
            "elbow_joint": 2.010868314990456,
            "shoulder_lift_joint": -1.1634956873337592,
            "shoulder_pan_joint": -2.4736205022346125,
            "wrist_1_joint": -0.8367026794202681,
            "wrist_2_joint": 0.6746043897044499,
            "wrist_3_joint": -3.1496632123970403
        }
    },
    "waypoints": [
        {
            "positions": [
                -2.4736205022346125,
                -1.1634956873337592,
                2.010868314990456,
                -0.8367026794202681,
                0.6746043897044499,
                -3.1496632123970403
            ]
        },
        {
            "positions": [
                -2.5557098162641907,
                -1.131877875813615,
                1.967230925153075,
                -0.821603261791036,
                0.854588548565363,
                -3.1383133233189264
            ]
        },
        {
            "positions": [
                -2.6377991302937684,
                -1.1002600642934706,
                1.9235935353156943,
                -0.8065038441618039,
                1.0345727074262763,
                -3.126963434240813
            ]
        },
        {
            "positions": [
                -2.719888444323346,
                -1.0686422527733264,
                1.8799561454783138,
                -0.7914044265325717,
                1.2145568662871895,
                -3.1156135451626996
            ]
        },
        {
            "positions": [
                -2.8019777583529244,
                -1.037024441253182,
                1.836318755640933,
                -0.7763050089033396,
                1.3945410251481025,
                -3.1042636560845858
            ]
        },
        {
            "positions": [
                -2.8840670723825026,
                -1.0054066297330377,
                1.7926813658035523,
                -0.7612055912741076,
                1.5745251840090158,
                -3.092913767006472
            ]
        },
        {
            "positions": [
                -2.9661563864120803,
                -0.9737888182128934,
                1.7490439759661716,
                -0.7461061736448754,
                1.754509342869929,
                -3.0815638779283585
            ]
        }
    ]
}