{
    "goal": {
        "global_pose": {
            "orientation": {
                "w": -0.4816463035849501,
                "x": 0.5182115481033762,
                "y": 0.4908360881923453,
                "z": -0.5084816262002911
            },
            "position": {
                "x": -0.8240239810943604,
                "y": 0.19912469901144506,
                "z": 0.16403168439865112
            }
        },
        "name": "move_to_storage_D"
    },
    "id": "PRM_move_to_storage_D_97",
    "joint_names": [
        "shoulder_pan_joint",
        "shoulder_lift_joint",
        "elbow_joint",
        "wrist_1_joint",
        "wrist_2_joint",
        "wrist_3_joint"
    ],
    "metrics": {
        "cart_traj_len": 4.3699318784152315,
        "distance_elbow_joint": 4.207154140837304,
        "distance_shoulder_lift_joint": 1.4427616168053883,
        "distance_shoulder_pan_joint": 2.814064373824839,
        "distance_wrist_1_joint": 2.2615736034552345,
        "distance_wrist_2_joint": 0.8809814869888536,
        "distance_wrist_3_joint": 3.1412697871462534,
        "smoothness": 0.013404964442974648,
        "time": 0.11749741699999999,
        "traj_len": 3.8402870998218184,
        "weighted_distance": 4.916594316576717
    },
    "planner": "PRM",
    "start": {
        "state": {
            "elbow_joint": -2.384821988534728,
            "shoulder_lift_joint": -2.2788054721415256,
            "shoulder_pan_joint": -0.1854694642142757,
            "wrist_1_joint": 1.4845938289331202,
            "wrist_2_joint": 0.17898776772866878,
            "wrist_3_joint": 0.037105688729662994
        }
    },
    "waypoints": [
        {
            "positions": [
                -0.1854694642142757,
                -2.2788054721415256,
                -2.384821988534728,
                1.4845938289331202,
                0.17898776772866878,
                0.037105688729662994
            ]
        },
        {
            "positions": [
                -0.09859961780531976,
                -2.285118954798617,
                -2.225178885870602,
                1.3965936386125046,
                0.21756001159902097,
                0.042987866362130006
            ]
        },
        {
            "positions": [
                -0.011729771396363803,
                -2.2914324374557076,
                -2.065535783206476,
                1.3085934482918893,
                0.2561322554693732,
                0.048870043994597025
            ]
        },
        {
            "positions": [
                0.07514007501259215,
                -2.2977459201127983,
                -1.9058926805423495,
                1.2205932579712737,
                0.29470449933972537,
                0.05475222162706404
            ]
        },
        {
            "positions": [
                0.1620099214215481,
                -2.3040594027698895,
                -1.7462495778782234,
                1.1325930676506581,
                0.33327674321007755,
                0.060634399259531055
            ]
        },
        {
            "positions": [
                0.2488797678305041,
                -2.3103728854269807,
                -1.5866064752140971,
                1.0445928773300426,
                0.3718489870804298,
                0.06651657689199808
            ]
        },
        {
            "positions": [
                0.33574961423946004,
                -2.3166863680840715,
                -1.426963372549971,
                0.9565926870094272,
                0.4104212309507819,
                0.07239875452446509
            ]
        },
        {
            "positions": [
                0.42261946064841605,
                -2.322999850741162,
                -1.267320269885845,
                0.8685924966888117,
                0.44899347482113416,
                0.0782809321569321
            ]
        },
        {
            "positions": [
                0.5094893070573719,
                -2.3293133333982534,
                -1.107677167221719,
                0.7805923063681962,
                0.48756571869148635,
                0.08416310978939912
            ]
        },
        {
            "positions": [
                0.5963591534663281,
                -2.3356268160553446,
                -0.9480340645575926,
                0.6925921160475806,
                0.5261379625618385,
                0.09004528742186614
            ]
        },
        {
            "positions": [
                0.683228999875284,
                -2.3419402987124354,
                -0.7883909618934666,
                0.6045919257269652,
                0.5647102064321907,
                0.09592746505433315
            ]
        },
        {
            "positions": [
                0.7700988462842399,
                -2.348253781369526,
                -0.6287478592293405,
                0.5165917354063496,
                0.6032824503025429,
                0.10180964268680016
            ]
        },
        {
            "positions": [
                0.8569686926931958,
                -2.3545672640266173,
                -0.46910475656521444,
                0.42859154508573427,
                0.6418546941728951,
                0.10769182031926718
            ]
        },
        {
            "positions": [
                0.9438385391021519,
                -2.3608807466837085,
                -0.30946165390108815,
                0.3405913547651187,
                0.6804269380432473,
                0.1135739979517342
            ]
        },
        {
            "positions": [
                1.0307083855111077,
                -2.3671942293407993,
                -0.14981855123696186,
                0.25259116444450325,
                0.7189991819135995,
                0.11945617558420121
            ]
        },
        {
            "positions": [
                1.0972869906819183,
                -2.310762026857211,
                -0.0676456052561478,
                0.20969237532089421,
                0.7332062682804296,
                0.24691114642968934
            ]
        },
        {
            "positions": [
                1.163865595852729,
                -2.254329824373623,
                0.014527340724666271,
                0.16679358619728518,
                0.7474133546472597,
                0.37436611727517743
            ]
        },
        {
            "positions": [
                1.2304442010235397,
                -2.197897621890035,
                0.09670028670548034,
                0.12389479707367612,
                0.7616204410140899,
                0.5018210881206656
            ]
        },
        {
            "positions": [
                1.2970228061943503,
                -2.1414654194064466,
                0.1788732326862944,
                0.08099600795006709,
                0.77582752738092,
                0.6292760589661537
            ]
        },
        {
            "positions": [
                1.363601411365161,
                -2.0850332169228585,
                0.2610461786671085,
                0.03809721882645803,
                0.7900346137477501,
                0.7567310298116419
            ]
        },
        {
            "positions": [
                1.4301800165359717,
                -2.0286010144392708,
                0.34321912464792254,
                -0.004801570297151003,
                0.8042417001145802,
                0.8841860006571299
            ]
        },
        {
            "positions": [
                1.4967586217067823,
                -1.9721688119556824,
                0.42539207062873663,
                -0.04770035942076006,
                0.8184487864814103,
                1.0116409715026182
            ]
        },
        {
            "positions": [
                1.563337226877593,
                -1.9157366094720945,
                0.5075650166095507,
                -0.09059914854436907,
                0.8326558728482404,
                1.1390959423481062
            ]
        },
        {
            "positions": [
                1.6299158320484037,
                -1.8593044069885063,
                0.5897379625903647,
                -0.13349793766797813,
                0.8468629592150705,
                1.2665509131935944
            ]
        },
        {
            "positions": [
                1.6964944372192146,
                -1.8028722045049181,
                0.6719109085711789,
                -0.1763967267915872,
                0.8610700455819007,
                1.3940058840390825
            ]
        },
        {
            "positions": [
                1.7630730423900252,
                -1.74644000202133,
                0.7540838545519928,
                -0.2192955159151962,
                0.8752771319487308,
                1.5214608548845705
            ]
        },
        {
            "positions": [
                1.8296516475608358,
                -1.6900077995377418,
                0.8362568005328069,
                -0.26219430503880525,
                0.8894842183155609,
                1.6489158257300587
            ]
        },
        {
            "positions": [
                1.8962302527316464,
                -1.633575597054154,
                0.9184297465136209,
                -0.30509309416241426,
                0.903691304682391,
                1.7763707965755466
            ]
        },
        {
            "positions": [
                1.9628088579024572,
                -1.5771433945705655,
                1.0006026924944351,
                -0.3479918832860234,
                0.9178983910492211,
                1.903825767421035
            ]
        },
        {
            "positions": [
                2.0293874630732676,
                -1.5207111920869776,
                1.0827756384752492,
                -0.3908906724096324,
                0.9321054774160513,
                2.0312807382665232
            ]
        },
        {
            "positions": [
                2.0959660682440786,
                -1.4642789896033896,
                1.1649485844560632,
                -0.4337894615332414,
                0.9463125637828813,
                2.1587357091120114
            ]
        },
        {
            "positions": [
                2.162544673414889,
                -1.4078467871198015,
                1.2471215304368772,
                -0.4766882506568505,
                0.9605196501497115,
                2.2861906799574996
            ]
        },
        {
            "positions": [
                2.2291232785857,
                -1.3514145846362133,
                1.3292944764176913,
                -0.5195870397804595,
                0.9747267365165416,
                2.4136456508029878
            ]
        },
        {
            "positions": [
                2.2957018837565104,
                -1.2949823821526252,
                1.4114674223985053,
                -0.5624858289040685,
                0.9889338228833717,
                2.5411006216484755
            ]
        },
        {
            "positions": [
                2.362280488927321,
                -1.238550179669037,
                1.4936403683793196,
                -0.6053846180276776,
                1.003140909250202,
                2.668555592493964
            ]
        },
        {
            "positions": [
                2.428859094098132,
                -1.1821179771854489,
                1.5758133143601336,
                -0.6482834071512866,
                1.017347995617032,
                2.796010563339452
            ]
        },
        {
            "positions": [
                2.495437699268942,
                -1.125685774701861,
                1.6579862603409474,
                -0.6911821962748956,
                1.0315550819838621,
                2.92346553418494
            ]
        },
        {
            "positions": [
                2.5620163044397533,
                -1.0692535722182728,
                1.7401592063217617,
                -0.7340809853985047,
                1.0457621683506924,
                3.050920505030428
            ]
        },
        {
            "positions": [
                2.628594909610564,
                -1.0128213697346846,
                1.8223321523025757,
                -0.7769797745221139,
                1.0599692547175223,
                3.1783754758759164
            ]
        }
    ]
}