{
    "goal": {
        "global_pose": {
            "orientation": {
                "w": 0.5084816217422485,
                "x": -0.49083608388900757,
                "y": 0.5182115435600281,
                "z": -0.4816462993621826
            },
            "position": {
                "x": 0.5540239810943604,
                "y": 0.030875300988554955,
                "z": 0.16403168439865112
            }
        },
        "name": "move_to_storage_A"
    },
    "id": "PRM_move_to_storage_A_136",
    "joint_names": [
        "shoulder_pan_joint",
        "shoulder_lift_joint",
        "elbow_joint",
        "wrist_1_joint",
        "wrist_2_joint",
        "wrist_3_joint"
    ],
    "metrics": {
        "cart_traj_len": 0.35358234999938937,
        "distance_elbow_joint": 0.4525473257896049,
        "distance_shoulder_lift_joint": 0.2350390677175478,
        "distance_shoulder_pan_joint": 0.4593993270818133,
        "distance_wrist_1_joint": 0.2534006092402986,
        "distance_wrist_2_joint": 1.1130378156639875,
        "distance_wrist_3_joint": 0.09261563945710627,
        "smoothness": 8.881784232165597e-16,
        "time": 0.024326267,
        "traj_len": 1.6143233210699643,
        "weighted_distance": 2.0390462203610924
    },
    "planner": "PRM",
    "start": {
        "state": {
            "elbow_joint": 1.971548259319323,
            "shoulder_lift_joint": -1.1394851275133948,
            "shoulder_pan_joint": 0.1228115487234821,
            "wrist_1_joint": -0.7804723859257726,
            "wrist_2_joint": 0.12958671773740124,
            "wrist_3_joint": -3.192489227718131
        }
    },
    "waypoints": [
        {
            "positions": [
                0.1228115487234821,
                -1.1394851275133948,
                1.971548259319323,
                -0.7804723859257726,
                0.12958671773740124,
                -3.192489227718131
            ]
        },
        {
            "positions": [
                0.0571830734260802,
                -1.1730621371873302,
                2.0361978772892666,
                -0.816672472960101,
                0.28859211997511375,
                -3.1792584220814017
            ]
        },
        {
            "positions": [
                -0.0084454018713217,
                -1.2066391468612656,
                2.10084749525921,
                -0.8528725599944293,
                0.4475975222128262,
                -3.1660276164446723
            ]
        },
        {
            "positions": [
                -0.0740738771687236,
                -1.240216156535201,
                2.165497113229154,
                -0.8890726470287578,
                0.6066029244505388,
                -3.152796810807943
            ]
        },
        {
            "positions": [
                -0.1397023524661255,
                -1.2737931662091364,
                2.2301467311990972,
                -0.9252727340630861,
                0.7656083266882513,
                -3.139566005171213
            ]
        },
        {
            "positions": [
                -0.2053308277635274,
                -1.3073701758830718,
                2.2947963491690406,
                -0.9614728210974145,
                0.9246137289259638,
                -3.1263351995344837
            ]
        },
        {
            "positions": [
                -0.2709593030609293,
                -1.3409471855570072,
                2.3594459671389845,
                -0.9976729081317428,
                1.0836191311636763,
                -3.1131043938977543
            ]
        },
        {
            "positions": [
                -0.3365877783583312,
                -1.3745241952309426,
                2.424095585108928,
                -1.0338729951660712,
                1.2426245334013888,
                -3.099873588261025
            ]
        }
    ]
}{
    "goal": {
        "global_pose": {
            "orientation": {
                "w": 0.5084816217422485,
                "x": -0.49083608388900757,
                "y": 0.5182115435600281,
                "z": -0.4816462993621826
            },
            "position": {
                "x": 0.5540239810943604,
                "y": 0.030875300988554955,
                "z": 0.16403168439865112
            }
        },
        "name": "move_to_storage_A"
    },
    "id": "PRM_move_to_storage_A_136",
    "joint_names": [
        "shoulder_pan_joint",
        "shoulder_lift_joint",
        "elbow_joint",
        "wrist_1_joint",
        "wrist_2_joint",
        "wrist_3_joint"
    ],
    "metrics": {
        "cart_traj_len": 0.3530226414785137,
        "distance_elbow_joint": 0.44908203271285396,
        "distance_shoulder_lift_joint": 0.2338901805202056,
        "distance_shoulder_pan_joint": 0.45759334313818384,
        "distance_wrist_1_joint": 0.24215849380035248,
        "distance_wrist_2_joint": 1.1155543183120369,
        "distance_wrist_3_joint": 0.10302360806100674,
        "smoothness": 8.881784197001252e-16,
        "time": 0.020275555,
        "traj_len": 1.6128552249177974,
        "weighted_distance": 2.040848354184858
    },
    "planner": "PRM",
    "start": {
        "state": {
            "elbow_joint": 1.97154746011099,
            "shoulder_lift_joint": -1.13948474672311,
            "shoulder_pan_joint": 0.12281154466712228,
            "wrist_1_joint": -0.7804688027058302,
            "wrist_2_joint": 0.12958655903071145,
            "wrist_3_joint": 3.0906928834467795
        }
    },
    "waypoints": [
        {
            "positions": [
                0.12281154466712228,
                -1.13948474672311,
                1.97154746011099,
                -0.7804688027058302,
                0.12958655903071145,
                3.0906928834467795
            ]
        },
        {
            "positions": [
                0.05744106707595317,
                -1.172897629654568,
                2.035702036212826,
                -0.8150628732487377,
                0.2889514616467167,
                3.1054105417412092
            ]
        },
        {
            "positions": [
                -0.007929410515215937,
                -1.2063105125860258,
                2.0998566123146625,
                -0.8496569437916451,
                0.4483163642627219,
                3.1201282000356385
            ]
        },
        {
            "positions": [
                -0.07329988810638506,
                -1.2397233955174838,
                2.1640111884164988,
                -0.8842510143345527,
                0.6076812668787273,
                3.1348458583300682
            ]
        },
        {
            "positions": [
                -0.13867036569755414,
                -1.2731362784489417,
                2.228165764518335,
                -0.9188450848774602,
                0.7670461694947325,
                3.1495635166244975
            ]
        },
        {
            "positions": [
                -0.2040408432887233,
                -1.3065491613803997,
                2.2923203406201713,
                -0.9534391554203676,
                0.9264110721107378,
                3.1642811749189272
            ]
        },
        {
            "positions": [
                -0.2694113208798924,
                -1.3399620443118576,
                2.3564749167220076,
                -0.9880332259632751,
                1.085775974726743,
                3.1789988332133565
            ]
        },
        {
            "positions": [
                -0.33478179847106154,
                -1.3733749272433156,
                2.420629492823844,
                -1.0226272965061827,
                1.2451408773427484,
                3.1937164915077862
            ]
        }
    ]
}{
    "goal": {
        "global_pose": {
            "orientation": {
                "w": 0.5084816217422485,
                "x": -0.49083608388900757,
                "y": 0.5182115435600281,
                "z": -0.4816462993621826
            },
            "position": {
                "x": 0.5540239810943604,
                "y": 0.030875300988554955,
                "z": 0.16403168439865112
            }
        },
        "name": "move_to_storage_A"
    },
    "id": "PRM_move_to_storage_A_136",
    "joint_names": [
        "shoulder_pan_joint",
        "shoulder_lift_joint",
        "elbow_joint",
        "wrist_1_joint",
        "wrist_2_joint",
        "wrist_3_joint"
    ],
    "metrics": {
        "cart_traj_len": 0.3522236405903041,
        "distance_elbow_joint": 0.44989598694802035,
        "distance_shoulder_lift_joint": 0.2340869309987761,
        "distance_shoulder_pan_joint": 0.4568601432585285,
        "distance_wrist_1_joint": 0.243344166418751,
        "distance_wrist_2_joint": 1.1130857325258459,
        "distance_wrist_3_joint": 0.10336010952553254,
        "smoothness": 1.554312239749871e-15,
        "time": 0.035697628,
        "traj_len": 1.612647844284503,
        "weighted_distance": 2.040535024857725
    },
    "planner": "PRM",
    "start": {
        "state": {
            "elbow_joint": 1.9715472970024885,
            "shoulder_lift_joint": -1.1394870060712896,
            "shoulder_pan_joint": 0.12281152778156021,
            "wrist_1_joint": -0.780463741449964,
            "wrist_2_joint": 0.12958659822042276,
            "wrist_3_joint": 3.090690232415272
        }
    },
    "waypoints": [
        {
            "positions": [
                0.12281152778156021,
                -1.1394870060712896,
                1.9715472970024885,
                -0.780463741449964,
                0.12958659822042276,
                3.090690232415272
            ]
        },
        {
            "positions": [
                0.057545793030341866,
                -1.1729279962139718,
                2.0358181522807772,
                -0.8152271937954999,
                0.288598845724115,
                3.1054559623474907
            ]
        },
        {
            "positions": [
                -0.0077199417208764776,
                -1.2063689863566542,
                2.100089007559066,
                -0.8499906461410357,
                0.44761109322780723,
                3.12022169227971
            ]
        },
        {
            "positions": [
                -0.07298567647209481,
                -1.2398099764993364,
                2.1643598628373546,
                -0.8847540984865716,
                0.6066233407314995,
                3.1349874222119287
            ]
        },
        {
            "positions": [
                -0.13825141122331316,
                -1.2732509666420189,
                2.228630718115643,
                -0.9195175508321074,
                0.7656355882351917,
                3.1497531521441475
            ]
        },
        {
            "positions": [
                -0.20351714597453155,
                -1.306691956784701,
                2.2929015733939315,
                -0.9542810031776433,
                0.9246478357388841,
                3.1645188820763663
            ]
        },
        {
            "positions": [
                -0.26878288072574985,
                -1.3401329469273833,
                2.35717242867222,
                -0.9890444555231791,
                1.0836600832425762,
                3.1792846120085856
            ]
        },
        {
            "positions": [
                -0.33404861547696824,
                -1.3735739370700657,
                2.421443283950509,
                -1.023807907868715,
                1.2426723307462686,
                3.1940503419408044
            ]
        }
    ]
}