{
    "goal": {
        "global_pose": {
            "orientation": {
                "w": 0.5084816217422485,
                "x": -0.49083608388900757,
                "y": 0.5182115435600281,
                "z": -0.4816462993621826
            },
            "position": {
                "x": 0.5540239810943604,
                "y": 0.030875300988554955,
                "z": 0.16403168439865112
            }
        },
        "name": "move_to_storage_A"
    },
    "id": "PRM_move_to_storage_A_123",
    "joint_names": [
        "shoulder_pan_joint",
        "shoulder_lift_joint",
        "elbow_joint",
        "wrist_1_joint",
        "wrist_2_joint",
        "wrist_3_joint"
    ],
    "metrics": {
        "cart_traj_len": 0.3525355621895718,
        "distance_elbow_joint": 0.449364072357324,
        "distance_shoulder_lift_joint": 0.23524335012850317,
        "distance_shoulder_pan_joint": 0.4582713286654671,
        "distance_wrist_1_joint": 0.23683850304937792,
        "distance_wrist_2_joint": 1.1101003955219917,
        "distance_wrist_3_joint": 0.10515018364320561,
        "smoothness": 6.661338200497456e-16,
        "time": 0.037309312,
        "traj_len": 1.6108903852732714,
        "weighted_distance": 2.0376965179397177
    },
    "planner": "PRM",
    "start": {
        "state": {
            "elbow_joint": 1.971548259319323,
            "shoulder_lift_joint": -1.1394851275133948,
            "shoulder_pan_joint": 0.1228115487234821,
            "wrist_1_joint": -0.7804723859257726,
            "wrist_2_joint": 0.12958671773740124,
            "wrist_3_joint": -3.192489227718131
        }
    },
    "waypoints": [
        {
            "positions": [
                0.1228115487234821,
                -1.1394851275133948,
                1.971548259319323,
                -0.7804723859257726,
                0.12958671773740124,
                -3.192489227718131
            ]
        },
        {
            "positions": [
                0.05734421605698681,
                -1.1730913203888953,
                2.0357431267989408,
                -0.8143064577899695,
                0.2881724885262572,
                -3.177467772911959
            ]
        },
        {
            "positions": [
                -0.008123116609508485,
                -1.2066975132643958,
                2.0999379942785583,
                -0.8481405296541663,
                0.44675825931511315,
                -3.1624463181057867
            ]
        },
        {
            "positions": [
                -0.07359044927600378,
                -1.2403037061398963,
                2.1641328617581763,
                -0.8819746015183632,
                0.6053440301039691,
                -3.1474248632996145
            ]
        },
        {
            "positions": [
                -0.13905778194249907,
                -1.2739098990153965,
                2.228327729237794,
                -0.91580867338256,
                0.763929800892825,
                -3.1324034084934422
            ]
        },
        {
            "positions": [
                -0.20452511460899442,
                -1.307516091890897,
                2.2925225967174114,
                -0.9496427452467568,
                0.9225155716816811,
                -3.11738195368727
            ]
        },
        {
            "positions": [
                -0.26999244727548966,
                -1.3411222847663975,
                2.3567174641970294,
                -0.9834768171109537,
                1.081101342470537,
                -3.1023604988810978
            ]
        },
        {
            "positions": [
                -0.335459779941985,
                -1.374728477641898,
                2.420912331676647,
                -1.0173108889751505,
                1.239687113259393,
                -3.0873390440749255
            ]
        }
    ]
}{
    "goal": {
        "global_pose": {
            "orientation": {
                "w": 0.5084816217422485,
                "x": -0.49083608388900757,
                "y": 0.5182115435600281,
                "z": -0.4816462993621826
            },
            "position": {
                "x": 0.5540239810943604,
                "y": 0.030875300988554955,
                "z": 0.16403168439865112
            }
        },
        "name": "move_to_storage_A"
    },
    "id": "PRM_move_to_storage_A_123",
    "joint_names": [
        "shoulder_pan_joint",
        "shoulder_lift_joint",
        "elbow_joint",
        "wrist_1_joint",
        "wrist_2_joint",
        "wrist_3_joint"
    ],
    "metrics": {
        "cart_traj_len": 0.3526727344530132,
        "distance_elbow_joint": 0.4493159667292481,
        "distance_shoulder_lift_joint": 0.23483092370674208,
        "distance_shoulder_pan_joint": 0.457151239278593,
        "distance_wrist_1_joint": 0.24537479521779026,
        "distance_wrist_2_joint": 1.1149597431366898,
        "distance_wrist_3_joint": 0.09367597989597432,
        "smoothness": 0.0,
        "time": 0.035866741,
        "traj_len": 1.6109961663408878,
        "weighted_distance": 2.035434878867773
    },
    "planner": "PRM",
    "start": {
        "state": {
            "elbow_joint": 1.97154746011099,
            "shoulder_lift_joint": -1.13948474672311,
            "shoulder_pan_joint": 0.12281154466712228,
            "wrist_1_joint": -0.7804688027058302,
            "wrist_2_joint": 0.12958655903071145,
            "wrist_3_joint": 3.0906928834467795
        }
    },
    "waypoints": [
        {
            "positions": [
                0.12281154466712228,
                -1.13948474672311,
                1.97154746011099,
                -0.7804688027058302,
                0.12958655903071145,
                3.0906928834467795
            ]
        },
        {
            "positions": [
                0.057504224770180426,
                -1.1730320215383587,
                2.0357354553580254,
                -0.8155223448798002,
                0.28886652233595284,
                3.1040751662890615
            ]
        },
        {
            "positions": [
                -0.007803095126761431,
                -1.2065792963536077,
                2.099923450605061,
                -0.8505758870537703,
                0.4481464856411942,
                3.1174574491313436
            ]
        },
        {
            "positions": [
                -0.07311041502370329,
                -1.2401265711688565,
                2.1641114458520962,
                -0.8856294292277402,
                0.6074264489464356,
                3.1308397319736256
            ]
        },
        {
            "positions": [
                -0.13841773492064513,
                -1.2736738459841055,
                2.2282994410991317,
                -0.9206829714017103,
                0.766706412251677,
                3.1442220148159077
            ]
        },
        {
            "positions": [
                -0.20372505481758701,
                -1.3072211207993543,
                2.292487436346167,
                -0.9557365135756803,
                0.9259863755569184,
                3.1576042976581897
            ]
        },
        {
            "positions": [
                -0.26903237471452884,
                -1.340768395614603,
                2.3566754315932026,
                -0.9907900557496504,
                1.0852663388621597,
                3.1709865805004718
            ]
        },
        {
            "positions": [
                -0.33433969461147073,
                -1.374315670429852,
                2.420863426840238,
                -1.0258435979236205,
                1.2445463021674013,
                3.184368863342754
            ]
        }
    ]
}{
    "goal": {
        "global_pose": {
            "orientation": {
                "w": 0.5084816217422485,
                "x": -0.49083608388900757,
                "y": 0.5182115435600281,
                "z": -0.4816462993621826
            },
            "position": {
                "x": 0.5540239810943604,
                "y": 0.030875300988554955,
                "z": 0.16403168439865112
            }
        },
        "name": "move_to_storage_A"
    },
    "id": "PRM_move_to_storage_A_123",
    "joint_names": [
        "shoulder_pan_joint",
        "shoulder_lift_joint",
        "elbow_joint",
        "wrist_1_joint",
        "wrist_2_joint",
        "wrist_3_joint"
    ],
    "metrics": {
        "cart_traj_len": 0.3529420437181809,
        "distance_elbow_joint": 0.45384403922521077,
        "distance_shoulder_lift_joint": 0.23295220955836493,
        "distance_shoulder_pan_joint": 0.4576737004981604,
        "distance_wrist_1_joint": 0.26143396137503694,
        "distance_wrist_2_joint": 1.114830298347277,
        "distance_wrist_3_joint": 0.09661171829295467,
        "smoothness": 6.661338165333112e-16,
        "time": 0.034264389,
        "traj_len": 1.617821352095776,
        "weighted_distance": 2.0461753648221914
    },
    "planner": "PRM",
    "start": {
        "state": {
            "elbow_joint": 1.9715472970024885,
            "shoulder_lift_joint": -1.1394870060712896,
            "shoulder_pan_joint": 0.12281152778156021,
            "wrist_1_joint": -0.780463741449964,
            "wrist_2_joint": 0.12958659822042276,
            "wrist_3_joint": 3.090690232415272
        }
    },
    "waypoints": [
        {
            "positions": [
                0.12281152778156021,
                -1.1394870060712896,
                1.9715472970024885,
                -0.780463741449964,
                0.12958659822042276,
                3.090690232415272
            ]
        },
        {
            "positions": [
                0.05742957056753731,
                -1.172765893151056,
                2.036382159748947,
                -0.8178114502178264,
                0.2888480694128909,
                3.1044919064571226
            ]
        },
        {
            "positions": [
                -0.007952386646485593,
                -1.2060447802308225,
                2.101217022495406,
                -0.8551591589856888,
                0.448109540605359,
                3.1182935804989733
            ]
        },
        {
            "positions": [
                -0.0733343438605085,
                -1.239323667310589,
                2.1660518852418646,
                -0.8925068677535513,
                0.6073710117978272,
                3.132095254540824
            ]
        },
        {
            "positions": [
                -0.1387163010745314,
                -1.2726025543903552,
                2.230886747988323,
                -0.9298545765214137,
                0.7666324829902953,
                3.1458969285826743
            ]
        },
        {
            "positions": [
                -0.20409825828855435,
                -1.3058814414701216,
                2.295721610734782,
                -0.9672022852892761,
                0.9258939541827635,
                3.159698602624525
            ]
        },
        {
            "positions": [
                -0.26948021550257717,
                -1.339160328549888,
                2.3605564734812408,
                -1.0045499940571385,
                1.0851554253752316,
                3.173500276666376
            ]
        },
        {
            "positions": [
                -0.3348621727166002,
                -1.3724392156296545,
                2.4253913362276993,
                -1.041897702825001,
                1.2444168965676998,
                3.1873019507082265
            ]
        }
    ]
}