{
    "goal": {
        "global_pose": {
            "orientation": {
                "w": -0.4816463035849501,
                "x": 0.5182115481033762,
                "y": 0.4908360881923453,
                "z": -0.5084816262002911
            },
            "position": {
                "x": -0.8240239810943604,
                "y": -0.300875300988555,
                "z": 0.16403168439865112
            }
        },
        "name": "move_to_storage_C"
    },
    "id": "PRM_move_to_storage_C_103",
    "joint_names": [
        "shoulder_pan_joint",
        "shoulder_lift_joint",
        "elbow_joint",
        "wrist_1_joint",
        "wrist_2_joint",
        "wrist_3_joint"
    ],
    "metrics": {
        "cart_traj_len": 0.5772022319413166,
        "distance_elbow_joint": 0.26127958154874875,
        "distance_shoulder_lift_joint": 0.19088551971973466,
        "distance_shoulder_pan_joint": 0.4929244104389734,
        "distance_wrist_1_joint": 0.07985274731955871,
        "distance_wrist_2_joint": 1.0780280156595134,
        "distance_wrist_3_joint": 0.07307907595446217,
        "smoothness": 2.5376526478085547e-16,
        "time": 0.018406822,
        "traj_len": 1.4751438406613067,
        "weighted_distance": 1.8654994681127592
    },
    "planner": "PRM",
    "start": {
        "state": {
            "elbow_joint": 2.010868314990456,
            "shoulder_lift_joint": -1.1634956873337592,
            "shoulder_pan_joint": -2.4736205022346125,
            "wrist_1_joint": -0.8367026794202681,
            "wrist_2_joint": 0.6746043897044499,
            "wrist_3_joint": -3.1496632123970403
        }
    },
    "waypoints": [
        {
            "positions": [
                -2.4736205022346125,
                -1.1634956873337592,
                2.010868314990456,
                -0.8367026794202681,
                0.6746043897044499,
                -3.1496632123970403
            ]
        },
        {
            "positions": [
                -2.555774570641108,
                -1.1316814340471368,
                1.9673217180656644,
                -0.8233938882003417,
                0.8542757256477022,
                -3.1374833664046298
            ]
        },
        {
            "positions": [
                -2.6379286390476038,
                -1.0998671807605143,
                1.923775121140873,
                -0.8100850969804152,
                1.0339470615909545,
                -3.1253035204122197
            ]
        },
        {
            "positions": [
                -2.7200827074540994,
                -1.068052927473892,
                1.8802285242160814,
                -0.7967763057604887,
                1.2136183975342067,
                -3.113123674419809
            ]
        },
        {
            "positions": [
                -2.8022367758605946,
                -1.0362386741872693,
                1.83668192729129,
                -0.7834675145405623,
                1.393289733477459,
                -3.1009438284273987
            ]
        },
        {
            "positions": [
                -2.8843908442670902,
                -1.004424420900647,
                1.7931353303664985,
                -0.7701587233206358,
                1.5729610694207112,
                -3.0887639824349886
            ]
        },
        {
            "positions": [
                -2.966544912673586,
                -0.9726101676140245,
                1.749588733441707,
                -0.7568499321007094,
                1.7526324053639633,
                -3.076584136442578
            ]
        }
    ]
}