{
    "goal": {
        "global_pose": {
            "orientation": {
                "w": 0.7031023480610252,
                "x": -0.7110244013736278,
                "y": 0.0077485991402295624,
                "z": 0.005598929693374583
            },
            "position": {
                "x": -0.8841497679147869,
                "y": 0.44412534475326537,
                "z": 0.3711530566215515
            }
        },
        "name": "move_to_auspresseinheit_D"
    },
    "id": "PRM_move_to_auspresseinheit_D_79",
    "joint_names": [
        "shoulder_pan_joint",
        "shoulder_lift_joint",
        "elbow_joint",
        "wrist_1_joint",
        "wrist_2_joint",
        "wrist_3_joint"
    ],
    "metrics": {
        "cart_traj_len": 0.3443716278171453,
        "distance_elbow_joint": 0.6698084452688104,
        "distance_shoulder_lift_joint": 0.13888011208929862,
        "distance_shoulder_pan_joint": 0.13346863048821273,
        "distance_wrist_1_joint": 0.6370311917022553,
        "distance_wrist_2_joint": 1.4362318280695399,
        "distance_wrist_3_joint": 0.09036908183382364,
        "smoothness": 4.934324565125532e-16,
        "time": 0.028972124000000002,
        "traj_len": 1.7623249670398307,
        "weighted_distance": 2.315122129152452
    },
    "planner": "PRM",
    "start": {
        "state": {
            "elbow_joint": -1.8275523626775212,
            "shoulder_lift_joint": -2.126789852344167,
            "shoulder_pan_joint": -0.03513704404078235,
            "wrist_1_joint": -2.347782403156801,
            "wrist_2_joint": -1.6058999987535132,
            "wrist_3_joint": -3.0880379163319196
        }
    },
    "waypoints": [
        {
            "positions": [
                -0.03513704404078235,
                -2.126789852344167,
                -1.8275523626775212,
                -2.347782403156801,
                -1.6058999987535132,
                -3.0880379163319196
            ]
        },
        {
            "positions": [
                -0.05182062285180894,
                -2.1441498663553293,
                -1.74382630701892,
                -2.427411302119583,
                -1.4263710202448208,
                -3.0767417811026916
            ]
        },
        {
            "positions": [
                -0.06850420166283552,
                -2.1615098803664914,
                -1.6601002513603187,
                -2.507040201082365,
                -1.2468420417361283,
                -3.0654456458734636
            ]
        },
        {
            "positions": [
                -0.08518778047386212,
                -2.178869894377654,
                -1.5763741957017172,
                -2.5866691000451465,
                -1.0673130632274357,
                -3.0541495106442356
            ]
        },
        {
            "positions": [
                -0.10187135928488872,
                -2.1962299083888164,
                -1.492648140043116,
                -2.6662979990079285,
                -0.8877840847187433,
                -3.0428533754150076
            ]
        },
        {
            "positions": [
                -0.1185549380959153,
                -2.2135899223999784,
                -1.4089220843845147,
                -2.7459268979707105,
                -0.7082551062100508,
                -3.03155724018578
            ]
        },
        {
            "positions": [
                -0.13523851690694189,
                -2.230949936411141,
                -1.3251960287259132,
                -2.825555796933492,
                -0.5287261277013582,
                -3.020261104956552
            ]
        },
        {
            "positions": [
                -0.1519220957179685,
                -2.248309950422303,
                -1.241469973067312,
                -2.905184695896274,
                -0.34919714919266576,
                -3.008964969727324
            ]
        },
        {
            "positions": [
                -0.16860567452899508,
                -2.2656699644334655,
                -1.1577439174087107,
                -2.984813594859056,
                -0.16966817068397344,
                -2.997668834498096
            ]
        }
    ]
}