{
    "goal": {
        "global_pose": {
            "orientation": {
                "w": -0.4816463035849501,
                "x": 0.5182115481033762,
                "y": 0.4908360881923453,
                "z": -0.5084816262002911
            },
            "position": {
                "x": -0.8240239810943604,
                "y": 0.19912469901144506,
                "z": 0.16403168439865112
            }
        },
        "name": "move_to_storage_D"
    },
    "id": "PRM_move_to_storage_D_72",
    "joint_names": [
        "shoulder_pan_joint",
        "shoulder_lift_joint",
        "elbow_joint",
        "wrist_1_joint",
        "wrist_2_joint",
        "wrist_3_joint"
    ],
    "metrics": {
        "cart_traj_len": 3.3646250184160262,
        "distance_elbow_joint": 4.20811784136678,
        "distance_shoulder_lift_joint": 1.2636565388799952,
        "distance_shoulder_pan_joint": 2.814797017000255,
        "distance_wrist_1_joint": 2.260245732827672,
        "distance_wrist_2_joint": 1.2404436968780577,
        "distance_wrist_3_joint": 3.147737189167727,
        "smoothness": 0.0321622050153149,
        "time": 0.273953962,
        "traj_len": 3.864582515113436,
        "weighted_distance": 4.973043517219779
    },
    "planner": "PRM",
    "start": {
        "state": {
            "elbow_joint": -2.384821988534728,
            "shoulder_lift_joint": -2.2788054721415256,
            "shoulder_pan_joint": -0.1854694642142757,
            "wrist_1_joint": 1.4845938289331202,
            "wrist_2_joint": 0.17898776772866878,
            "wrist_3_joint": 0.037105688729662994
        }
    },
    "waypoints": [
        {
            "positions": [
                -0.1854694642142757,
                -2.2788054721415256,
                -2.384821988534728,
                1.4845938289331202,
                0.17898776772866878,
                0.037105688729662994
            ]
        },
        {
            "positions": [
                -0.14339309046679694,
                -2.1789966753784804,
                -2.347907805460578,
                1.4763252725569882,
                0.09105161186373091,
                0.054935313725795396
            ]
        },
        {
            "positions": [
                -0.10131671671931818,
                -2.079187878615435,
                -2.310993622386428,
                1.4680567161808562,
                0.0031154559987930375,
                0.0727649387219278
            ]
        },
        {
            "positions": [
                -0.005419730104308726,
                -2.034477257257772,
                -2.2028235669536698,
                1.423916019173428,
                0.016416177230599703,
                0.15301575351859042
            ]
        },
        {
            "positions": [
                0.09047725651070072,
                -1.9897666359001083,
                -2.094653511520912,
                1.3797753221659999,
                0.02971689846240637,
                0.23326656831525303
            ]
        },
        {
            "positions": [
                0.18637424312571016,
                -1.9450560145424447,
                -1.9864834560881537,
                1.3356346251585716,
                0.04301761969421303,
                0.3135173831119156
            ]
        },
        {
            "positions": [
                0.2822712297407196,
                -1.9003453931847811,
                -1.8783134006553954,
                1.2914939281511435,
                0.0563183409260197,
                0.39376819790857825
            ]
        },
        {
            "positions": [
                0.37816821635572906,
                -1.8556347718271176,
                -1.7701433452226376,
                1.2473532311437152,
                0.06961906215782636,
                0.4740190127052409
            ]
        },
        {
            "positions": [
                0.4740652029707385,
                -1.8109241504694542,
                -1.6619732897898793,
                1.203212534136287,
                0.08291978338963302,
                0.5542698275019035
            ]
        },
        {
            "positions": [
                0.569962189585748,
                -1.7662135291117906,
                -1.553803234357121,
                1.1590718371288589,
                0.09622050462143969,
                0.6345206422985661
            ]
        },
        {
            "positions": [
                0.6658591762007574,
                -1.721502907754127,
                -1.445633178924363,
                1.1149311401214306,
                0.10952122585324636,
                0.7147714570952287
            ]
        },
        {
            "positions": [
                0.7617561628157669,
                -1.6767922863964635,
                -1.337463123491605,
                1.0707904431140023,
                0.12282194708505303,
                0.7950222718918915
            ]
        },
        {
            "positions": [
                0.8576531494307763,
                -1.6320816650388001,
                -1.229293068058847,
                1.0266497461065742,
                0.13612266831685968,
                0.875273086688554
            ]
        },
        {
            "positions": [
                0.9535501360457858,
                -1.5873710436811366,
                -1.1211230126260887,
                0.9825090490991459,
                0.14942338954866635,
                0.9555239014852166
            ]
        },
        {
            "positions": [
                1.0494471226607953,
                -1.5426604223234732,
                -1.0129529571933307,
                0.9383683520917179,
                0.162724110780473,
                1.0357747162818791
            ]
        },
        {
            "positions": [
                1.1453441092758048,
                -1.4979498009658094,
                -0.9047829017605724,
                0.8942276550842896,
                0.1760248320122797,
                1.1160255310785419
            ]
        },
        {
            "positions": [
                1.2412410958908142,
                -1.453239179608146,
                -0.7966128463278144,
                0.8500869580768614,
                0.18932555324408634,
                1.1962763458752044
            ]
        },
        {
            "positions": [
                1.3371380825058237,
                -1.4085285582504827,
                -0.6884427908950563,
                0.8059462610694332,
                0.202626274475893,
                1.276527160671867
            ]
        },
        {
            "positions": [
                1.4330350691208331,
                -1.363817936892819,
                -0.5802727354622981,
                0.761805564062005,
                0.2159269957076997,
                1.3567779754685296
            ]
        },
        {
            "positions": [
                1.5289320557358426,
                -1.3191073155351556,
                -0.47210268002954003,
                0.7176648670545768,
                0.22922771693950633,
                1.4370287902651924
            ]
        },
        {
            "positions": [
                1.624829042350852,
                -1.2743966941774918,
                -0.3639326245967818,
                0.6735241700471485,
                0.24252843817131303,
                1.517279605061855
            ]
        },
        {
            "positions": [
                1.7207260289658615,
                -1.2296860728198284,
                -0.25576256916402373,
                0.6293834730397204,
                0.2558291594031197,
                1.5975304198585176
            ]
        },
        {
            "positions": [
                1.816623015580871,
                -1.184975451462165,
                -0.14759251373126592,
                0.5852427760322922,
                0.2691298806349263,
                1.6777812346551801
            ]
        },
        {
            "positions": [
                1.9125200021958804,
                -1.1402648301045013,
                -0.03942245829850721,
                0.541102079024864,
                0.282430601866733,
                1.7580320494518429
            ]
        },
        {
            "positions": [
                2.0084169888108896,
                -1.095554208746838,
                0.0687475971342505,
                0.4969613820174358,
                0.29573132309853967,
                1.8382828642485054
            ]
        },
        {
            "positions": [
                2.049811026409229,
                -1.0901938570478173,
                0.18571748084743728,
                0.41212049628996994,
                0.3471950243017687,
                1.9280535318250978
            ]
        },
        {
            "positions": [
                2.091205064007568,
                -1.084833505348797,
                0.30268736456062406,
                0.3272796105625041,
                0.3986587255049977,
                2.01782419940169
            ]
        },
        {
            "positions": [
                2.1325991016059076,
                -1.0794731536497764,
                0.4196572482738109,
                0.24243872483503826,
                0.4501224267082268,
                2.1075948669782822
            ]
        },
        {
            "positions": [
                2.173993139204247,
                -1.074112801950756,
                0.5366271319869976,
                0.1575978391075724,
                0.5015861279114557,
                2.1973655345548746
            ]
        },
        {
            "positions": [
                2.215387176802586,
                -1.0687524502517354,
                0.6535970157001844,
                0.07275695338010657,
                0.5530498291146848,
                2.287136202131467
            ]
        },
        {
            "positions": [
                2.2567812144009256,
                -1.063392098552715,
                0.7705668994133713,
                -0.012083932347359272,
                0.6045135303179139,
                2.3769068697080593
            ]
        },
        {
            "positions": [
                2.298175251999265,
                -1.0580317468536944,
                0.887536783126558,
                -0.09692481807482511,
                0.655977231521143,
                2.4666775372846512
            ]
        },
        {
            "positions": [
                2.339569289597604,
                -1.052671395154674,
                1.0045066668397449,
                -0.18176570380229096,
                0.7074409327243718,
                2.5564482048612436
            ]
        },
        {
            "positions": [
                2.3809633271959436,
                -1.0473110434556534,
                1.1214765505529316,
                -0.2666065895297568,
                0.7589046339276009,
                2.646218872437836
            ]
        },
        {
            "positions": [
                2.422357364794283,
                -1.041950691756633,
                1.2384464342661183,
                -0.35144747525722264,
                0.81036833513083,
                2.7359895400144283
            ]
        },
        {
            "positions": [
                2.463751402392622,
                -1.0365903400576124,
                1.355416317979305,
                -0.4362883609846884,
                0.8618320363340589,
                2.8257602075910206
            ]
        },
        {
            "positions": [
                2.5051454399909616,
                -1.031229988358592,
                1.4723862016924922,
                -0.5211292467121543,
                0.9132957375372881,
                2.9155308751676126
            ]
        },
        {
            "positions": [
                2.546539477589301,
                -1.0258696366595714,
                1.589356085405679,
                -0.6059701324396202,
                0.9647594387405171,
                3.0053015427442054
            ]
        },
        {
            "positions": [
                2.58793351518764,
                -1.0205092849605508,
                1.7063259691188657,
                -0.690811018167086,
                1.016223139943746,
                3.0950722103207973
            ]
        },
        {
            "positions": [
                2.6293275527859796,
                -1.0151489332615304,
                1.8232958528320524,
                -0.7756519038945519,
                1.067686841146975,
                3.1848428778973896
            ]
        }
    ]
}