{
    "goal": {
        "global_pose": {
            "orientation": {
                "w": -0.00223480608172531,
                "x": 0.0024358444001904467,
                "y": 0.7094548369677653,
                "z": -0.704743149386269
            },
            "position": {
                "x": -0.37947507619857795,
                "y": -0.6371506643295288,
                "z": 0.19426114857196808
            }
        },
        "name": "move_to_magneteinheit_C"
    },
    "id": "PRM_move_to_magneteinheit_C_45",
    "joint_names": [
        "shoulder_pan_joint",
        "shoulder_lift_joint",
        "elbow_joint",
        "wrist_1_joint",
        "wrist_2_joint",
        "wrist_3_joint"
    ],
    "metrics": {
        "cart_traj_len": 1.8916721735991657,
        "distance_elbow_joint": 1.0073016309967344,
        "distance_shoulder_lift_joint": 1.3821762797303863,
        "distance_shoulder_pan_joint": 1.236003679869366,
        "distance_wrist_1_joint": 2.801298655449675,
        "distance_wrist_2_joint": 0.8344004318909671,
        "distance_wrist_3_joint": 1.6596444283638099,
        "smoothness": 0.9820762476394894,
        "time": 1.390075477,
        "traj_len": 2.986775034431107,
        "weighted_distance": 3.984446391955751
    },
    "planner": "PRM",
    "start": {
        "state": {
            "elbow_joint": 1.9565354010623817,
            "shoulder_lift_joint": -1.4165861575791021,
            "shoulder_pan_joint": -1.6717766225146293,
            "wrist_1_joint": -0.5286633292919765,
            "wrist_2_joint": 1.472756589071564,
            "wrist_3_joint": -3.1238370188695823
        }
    },
    "waypoints": [
        {
            "positions": [
                -1.6717766225146293,
                -1.4165861575791021,
                1.9565354010623817,
                -0.5286633292919765,
                1.472756589071564,
                -3.1238370188695823
            ]
        },
        {
            "positions": [
                -1.6088082588908392,
                -1.4441534955870563,
                1.9087410487760847,
                -0.4275007326621886,
                1.3909957688497392,
                -3.0592356937082026
            ]
        },
        {
            "positions": [
                -1.5458398952670493,
                -1.4717208335950105,
                1.8609466964897878,
                -0.3263381360324007,
                1.3092349486279145,
                -2.994634368546823
            ]
        },
        {
            "positions": [
                -1.5416328539674757,
                -1.5283661010201783,
                1.8186846854867493,
                -0.21065520335371157,
                1.2430267913333535,
                -2.9177305153021966
            ]
        },
        {
            "positions": [
                -1.5374258126679021,
                -1.5850113684453462,
                1.7764226744837108,
                -0.09497227067502248,
                1.1768186340387925,
                -2.8408266620575704
            ]
        },
        {
            "positions": [
                -1.5332187713683285,
                -1.6416566358705142,
                1.734160663480672,
                0.020710662003666613,
                1.1106104767442315,
                -2.763922808812944
            ]
        },
        {
            "positions": [
                -1.529011730068755,
                -1.698301903295682,
                1.6918986524776336,
                0.13639359468235573,
                1.0444023194496705,
                -2.687018955568318
            ]
        },
        {
            "positions": [
                -1.5248046887691813,
                -1.75494717072085,
                1.649636641474595,
                0.2520765273610449,
                0.9781941621551095,
                -2.610115102323692
            ]
        },
        {
            "positions": [
                -1.5205976474696077,
                -1.8115924381460178,
                1.6073746304715566,
                0.3677594600397339,
                0.9119860048605485,
                -2.533211249079066
            ]
        },
        {
            "positions": [
                -1.516390606170034,
                -1.8682377055711856,
                1.5651126194685179,
                0.48344239271842304,
                0.8457778475659874,
                -2.4563073958344397
            ]
        },
        {
            "positions": [
                -1.5121835648704605,
                -1.9248829729963537,
                1.5228506084654794,
                0.5991253253971122,
                0.7795696902714264,
                -2.3794035425898135
            ]
        },
        {
            "positions": [
                -1.5079765235708869,
                -1.9815282404215215,
                1.4805885974624409,
                0.7148082580758013,
                0.7133615329768654,
                -2.3024996893451872
            ]
        },
        {
            "positions": [
                -1.6212345162625472,
                -1.9454382984587986,
                1.5290170388363282,
                0.616265249025297,
                0.7069629494088767,
                -2.3627524831451043
            ]
        },
        {
            "positions": [
                -1.7344925089542076,
                -1.9093483564960758,
                1.5774454802102156,
                0.5177222399747927,
                0.700564365840888,
                -2.423005276945021
            ]
        },
        {
            "positions": [
                -1.847750501645868,
                -1.8732584145333528,
                1.6258739215841032,
                0.4191792309242883,
                0.6941657822728992,
                -2.483258070744938
            ]
        },
        {
            "positions": [
                -1.9610084943375286,
                -1.8371684725706299,
                1.6743023629579905,
                0.32063622187378404,
                0.6877671987049104,
                -2.5435108645448548
            ]
        },
        {
            "positions": [
                -2.074266487029189,
                -1.8010785306079071,
                1.7227308043318779,
                0.22209321282327965,
                0.6813686151369217,
                -2.603763658344772
            ]
        },
        {
            "positions": [
                -2.1875244797208495,
                -1.7649885886451842,
                1.7711592457057652,
                0.12355020377277537,
                0.674970031568933,
                -2.6640164521446885
            ]
        },
        {
            "positions": [
                -2.30078247241251,
                -1.7288986466824612,
                1.8195876870796526,
                0.025007194722271087,
                0.6685714480009441,
                -2.7242692459446056
            ]
        },
        {
            "positions": [
                -2.4140404651041703,
                -1.6928087047197384,
                1.8680161284535401,
                -0.0735358143282332,
                0.6621728644329554,
                -2.7845220397445223
            ]
        },
        {
            "positions": [
                -2.5272984577958306,
                -1.6567187627570155,
                1.9164445698274275,
                -0.1720788233787376,
                0.6557742808649667,
                -2.8447748335444394
            ]
        },
        {
            "positions": [
                -2.5167221284556947,
                -1.5582338189123233,
                1.935544340833789,
                -0.30626682070420963,
                0.6592579056018407,
                -2.903981224472472
            ]
        },
        {
            "positions": [
                -2.5061457991155587,
                -1.459748875067631,
                1.9546441118401503,
                -0.44045481802968167,
                0.6627415303387146,
                -2.9631876154005043
            ]
        },
        {
            "positions": [
                -2.4955694697754227,
                -1.361263931222939,
                1.9737438828465117,
                -0.5746428153551537,
                0.6662251550755887,
                -3.022394006328537
            ]
        },
        {
            "positions": [
                -2.4849931404352867,
                -1.262778987378247,
                1.992843653852873,
                -0.7088308126806258,
                0.6697087798124626,
                -3.0816003972565693
            ]
        },
        {
            "positions": [
                -2.4744168110951508,
                -1.1642940435335547,
                2.0119434248592345,
                -0.8430188100060978,
                0.6731924045493366,
                -3.140806788184602
            ]
        }
    ]
}