{
    "goal": {
        "global_pose": {
            "orientation": {
                "w": 0.5084816262002911,
                "x": -0.4908360881923452,
                "y": 0.5182115481033761,
                "z": -0.48164630358495003
            },
            "position": {
                "x": 0.5540239810943604,
                "y": -0.46912469901144505,
                "z": 0.16403168439865112
            }
        },
        "name": "move_to_storage_B"
    },
    "id": "PRM_move_to_storage_B_26",
    "joint_names": [
        "shoulder_pan_joint",
        "shoulder_lift_joint",
        "elbow_joint",
        "wrist_1_joint",
        "wrist_2_joint",
        "wrist_3_joint"
    ],
    "metrics": {
        "cart_traj_len": 0.943612175820173,
        "distance_elbow_joint": 0.5764011136535481,
        "distance_shoulder_lift_joint": 0.4589015872285007,
        "distance_shoulder_pan_joint": 0.7439496181206894,
        "distance_wrist_1_joint": 2.9878971812160984,
        "distance_wrist_2_joint": 2.720411938012164,
        "distance_wrist_3_joint": 4.270540482582174,
        "smoothness": 0.5082054204782331,
        "time": 0.273856178,
        "traj_len": 3.4290088831633505,
        "weighted_distance": 5.099754112229901
    },
    "planner": "PRM",
    "start": {
        "state": {
            "elbow_joint": 1.664937868594044,
            "shoulder_lift_joint": -0.661644460510453,
            "shoulder_pan_joint": -0.9139846352900073,
            "wrist_1_joint": 2.146753192139373,
            "wrist_2_joint": -2.2341966793290973,
            "wrist_3_joint": 0.005466555786416001
        }
    },
    "waypoints": [
        {
            "positions": [
                -0.9139846352900073,
                -0.661644460510453,
                1.664937868594044,
                2.146753192139373,
                -2.2341966793290973,
                0.005466555786416001
            ]
        },
        {
            "positions": [
                -0.8434682700658751,
                -0.7069398561446327,
                1.6369179951385184,
                2.1097833533573427,
                -2.1650314050550787,
                -0.13655796212717097
            ]
        },
        {
            "positions": [
                -0.7729519048417428,
                -0.7522352517788123,
                1.608898121682993,
                2.0728135145753117,
                -2.0958661307810598,
                -0.2785824800407579
            ]
        },
        {
            "positions": [
                -0.7024355396176106,
                -0.797530647412992,
                1.5808782482274675,
                2.0358436757932807,
                -2.0267008565070412,
                -0.4206069979543449
            ]
        },
        {
            "positions": [
                -0.6319191743934784,
                -0.8428260430471717,
                1.552858374771942,
                1.9988738370112502,
                -1.9575355822330227,
                -0.5626315158679319
            ]
        },
        {
            "positions": [
                -0.6496839496713308,
                -0.8535075816891633,
                1.570716898611613,
                1.8896423821617128,
                -1.8635451652747115,
                -0.42022988467840017
            ]
        },
        {
            "positions": [
                -0.6674487249491831,
                -0.8641891203311549,
                1.588575422451284,
                1.780410927312175,
                -1.7695547483164005,
                -0.2778282534888684
            ]
        },
        {
            "positions": [
                -0.6852135002270354,
                -0.8748706589731465,
                1.606433946290955,
                1.6711794724626376,
                -1.6755643313580895,
                -0.13542662229933666
            ]
        },
        {
            "positions": [
                -0.7029782755048878,
                -0.8855521976151381,
                1.624292470130626,
                1.5619480176131002,
                -1.5815739143997782,
                0.006975008890195089
            ]
        },
        {
            "positions": [
                -0.7207430507827401,
                -0.8962337362571298,
                1.642150993970297,
                1.4527165627635625,
                -1.487583497441467,
                0.14937664007972684
            ]
        },
        {
            "positions": [
                -0.7385078260605924,
                -0.9069152748991214,
                1.660009517809968,
                1.343485107914025,
                -1.393593080483156,
                0.2917782712692586
            ]
        },
        {
            "positions": [
                -0.7562726013384448,
                -0.917596813541113,
                1.677868041649639,
                1.2342536530644876,
                -1.299602663524845,
                0.43417990245879035
            ]
        },
        {
            "positions": [
                -0.7740373766162971,
                -0.9282783521831046,
                1.6957265654893101,
                1.1250221982149502,
                -1.2056122465665338,
                0.5765815336483221
            ]
        },
        {
            "positions": [
                -0.7918021518941494,
                -0.9389598908250962,
                1.713585089328981,
                1.0157907433654128,
                -1.1116218296082228,
                0.7189831648378538
            ]
        },
        {
            "positions": [
                -0.8095669271720017,
                -0.9496414294670878,
                1.7314436131686521,
                0.9065592885158751,
                -1.0176314126499115,
                0.8613847960273856
            ]
        },
        {
            "positions": [
                -0.8273317024498541,
                -0.9603229681090795,
                1.749302137008323,
                0.7973278336663376,
                -0.9236409956916005,
                1.0037864272169172
            ]
        },
        {
            "positions": [
                -0.8450964777277064,
                -0.9710045067510711,
                1.7671606608479942,
                0.6880963788168,
                -0.8296505787332893,
                1.146188058406449
            ]
        },
        {
            "positions": [
                -0.8628612530055587,
                -0.9816860453930627,
                1.785019184687665,
                0.5788649239672625,
                -0.7356601617749783,
                1.2885896895959807
            ]
        },
        {
            "positions": [
                -0.8806260282834111,
                -0.9923675840350543,
                1.802877708527336,
                0.4696334691177251,
                -0.6416697448166673,
                1.4309913207855125
            ]
        },
        {
            "positions": [
                -0.8983908035612633,
                -1.003049122677046,
                1.820736232367007,
                0.36040201426818763,
                -0.5476793278583563,
                1.5733929519750443
            ]
        },
        {
            "positions": [
                -0.9161555788391157,
                -1.0137306613190376,
                1.8385947562066782,
                0.25117055941864996,
                -0.4536889109000448,
                1.715794583164576
            ]
        },
        {
            "positions": [
                -0.933920354116968,
                -1.0244121999610292,
                1.8564532800463491,
                0.14193910456911252,
                -0.3596984939417338,
                1.8581962143541078
            ]
        },
        {
            "positions": [
                -0.9516851293948203,
                -1.0350937386030208,
                1.87431180388602,
                0.03270764971957507,
                -0.2657080769834228,
                2.0005978455436395
            ]
        },
        {
            "positions": [
                -0.9694499046726727,
                -1.0457752772450124,
                1.8921703277256912,
                -0.0765238051299626,
                -0.1717176600251118,
                2.1429994767331713
            ]
        },
        {
            "positions": [
                -0.987214679950525,
                -1.056456815887004,
                1.910028851565362,
                -0.18575525997950004,
                -0.07772724306680034,
                2.285401107922703
            ]
        },
        {
            "positions": [
                -1.0049794552283773,
                -1.0671383545289956,
                1.9278873754050332,
                -0.2949867148290375,
                0.016263173891510663,
                2.4278027391122348
            ]
        },
        {
            "positions": [
                -1.0227442305062295,
                -1.0778198931709873,
                1.945745899244704,
                -0.40421816967857493,
                0.11025359084982167,
                2.5702043703017665
            ]
        },
        {
            "positions": [
                -1.040509005784082,
                -1.0885014318129789,
                1.9636044230843752,
                -0.5134496245281124,
                0.2042440078081329,
                2.7126060014912983
            ]
        },
        {
            "positions": [
                -1.0582737810619345,
                -1.0991829704549705,
                1.9814629469240461,
                -0.6226810793776503,
                0.29823442476644413,
                2.85500763268083
            ]
        },
        {
            "positions": [
                -1.0760385563397867,
                -1.109864509096962,
                1.999321470763717,
                -0.7319125342271877,
                0.3922248417247549,
                2.9974092638703618
            ]
        },
        {
            "positions": [
                -1.093803331617639,
                -1.1205460477389537,
                2.017179994603388,
                -0.841143989076725,
                0.48621525868306625,
                3.1398108950598935
            ]
        }
    ]
}