{
    "goal": {
        "global_pose": {
            "orientation": {
                "w": -0.00223480608172531,
                "x": 0.0024358444001904467,
                "y": 0.7094548369677653,
                "z": -0.704743149386269
            },
            "position": {
                "x": 0.6205249238014221,
                "y": -0.6371506643295288,
                "z": 0.19426114857196808
            }
        },
        "name": "move_to_magneteinheit_B"
    },
    "id": "PRM_move_to_magneteinheit_B_7",
    "joint_names": [
        "shoulder_pan_joint",
        "shoulder_lift_joint",
        "elbow_joint",
        "wrist_1_joint",
        "wrist_2_joint",
        "wrist_3_joint"
    ],
    "metrics": {
        "cart_traj_len": 1.5784804954277951,
        "distance_elbow_joint": 0.9578261702971591,
        "distance_shoulder_lift_joint": 1.2775471367778466,
        "distance_shoulder_pan_joint": 1.6210950948056886,
        "distance_wrist_1_joint": 0.8893995347217905,
        "distance_wrist_2_joint": 1.5813268808490484,
        "distance_wrist_3_joint": 0.797002493864468,
        "smoothness": 0.6590994788232128,
        "time": 0.21967150000000002,
        "traj_len": 2.669119201406337,
        "weighted_distance": 3.3449856075349227
    },
    "planner": "PRM",
    "start": {
        "state": {
            "elbow_joint": 2.6216224122426386,
            "shoulder_lift_joint": -1.4174107377796124,
            "shoulder_pan_joint": 0.7066234856936794,
            "wrist_1_joint": 1.9546482284002225,
            "wrist_2_joint": -0.7096286983471962,
            "wrist_3_joint": 0.005740856962016249
        }
    },
    "waypoints": [
        {
            "positions": [
                0.7066234856936794,
                -1.4174107377796124,
                2.6216224122426386,
                1.9546482284002225,
                -0.7096286983471962,
                0.005740856962016249
            ]
        },
        {
            "positions": [
                0.6552045701085756,
                -1.482365332808677,
                2.61027485980245,
                1.8666787622296046,
                -0.701683803273788,
                0.1052812039565025
            ]
        },
        {
            "positions": [
                0.6037856545234719,
                -1.5473199278377416,
                2.5989273073622616,
                1.7787092960589865,
                -0.6937389082003799,
                0.20482155095098878
            ]
        },
        {
            "positions": [
                0.5523667389383682,
                -1.6122745228668063,
                2.587579754922073,
                1.6907398298883685,
                -0.6857940131269717,
                0.304361897945475
            ]
        },
        {
            "positions": [
                0.5009478233532644,
                -1.677229117895871,
                2.5762322024818847,
                1.6027703637177506,
                -0.6778491180535635,
                0.4039022449399613
            ]
        },
        {
            "positions": [
                0.40658652785557947,
                -1.6093805341184317,
                2.5154031384461244,
                1.6386051417203717,
                -0.7811522714239245,
                0.3773128378808598
            ]
        },
        {
            "positions": [
                0.31222523235789457,
                -1.5415319503409926,
                2.454574074410364,
                1.674439919722993,
                -0.8844554247942856,
                0.3507234308217582
            ]
        },
        {
            "positions": [
                0.21786393686020966,
                -1.4736833665635531,
                2.3937450103746034,
                1.7102746977256142,
                -0.9877585781646467,
                0.32413402376265665
            ]
        },
        {
            "positions": [
                0.12350264136252476,
                -1.405834782786114,
                2.332915946338843,
                1.7461094757282356,
                -1.0910617315350077,
                0.29754461670355514
            ]
        },
        {
            "positions": [
                0.02914134586483985,
                -1.3379861990086748,
                2.272086882303083,
                1.7819442537308567,
                -1.1943648849053687,
                0.27095520964445363
            ]
        },
        {
            "positions": [
                -0.06521994963284505,
                -1.2701376152312356,
                2.2112578182673226,
                1.817779031733478,
                -1.29766803827573,
                0.24436580258535204
            ]
        },
        {
            "positions": [
                -0.15958124513052996,
                -1.2022890314537964,
                2.1504287542315623,
                1.8536138097360992,
                -1.4009711916460907,
                0.2177763955262505
            ]
        },
        {
            "positions": [
                -0.25394254062821486,
                -1.134440447676357,
                2.089599690195802,
                1.8894485877387206,
                -1.504274345016452,
                0.191186988467149
            ]
        },
        {
            "positions": [
                -0.34830383612589977,
                -1.066591863898918,
                2.028770626160042,
                1.9252833657413417,
                -1.6075774983868127,
                0.16459758140804745
            ]
        },
        {
            "positions": [
                -0.4426651316235847,
                -0.9987432801214786,
                1.9679415621242813,
                1.9611181437439629,
                -1.710880651757174,
                0.1380081743489459
            ]
        },
        {
            "positions": [
                -0.5370264271212696,
                -0.9308946963440394,
                1.9071124980885208,
                1.9969529217465842,
                -1.814183805127535,
                0.1114187672898444
            ]
        },
        {
            "positions": [
                -0.6313877226189545,
                -0.8630461125666001,
                1.8462834340527605,
                2.0327876997492056,
                -1.9174869584978962,
                0.08482936023074278
            ]
        },
        {
            "positions": [
                -0.7257490181166394,
                -0.795197528789161,
                1.7854543700170002,
                2.068622477751827,
                -2.020790111868257,
                0.05823995317164127
            ]
        },
        {
            "positions": [
                -0.8201103136143243,
                -0.7273489450117216,
                1.72462530598124,
                2.104457255754448,
                -2.124093265238618,
                0.0316505461125397
            ]
        },
        {
            "positions": [
                -0.9144716091120092,
                -0.6595003612342826,
                1.6637962419454795,
                2.1402920337570692,
                -2.227396418608979,
                0.0050611390534381975
            ]
        }
    ]
}