{
    "goal": {
        "global_pose": {
            "orientation": {
                "w": 0.7031023480610252,
                "x": -0.7110244013736278,
                "y": 0.0077485991402295624,
                "z": 0.005598929693374583
            },
            "position": {
                "x": -0.8841497679147869,
                "y": 0.44412534475326537,
                "z": 0.3711530566215515
            }
        },
        "name": "move_to_auspresseinheit_D"
    },
    "id": "PRM_move_to_auspresseinheit_D_81",
    "joint_names": [
        "shoulder_pan_joint",
        "shoulder_lift_joint",
        "elbow_joint",
        "wrist_1_joint",
        "wrist_2_joint",
        "wrist_3_joint"
    ],
    "metrics": {
        "cart_traj_len": 0.3446585121346774,
        "distance_elbow_joint": 0.6555162371359848,
        "distance_shoulder_lift_joint": 0.13045927556616244,
        "distance_shoulder_pan_joint": 0.13456664982428632,
        "distance_wrist_1_joint": 0.5848679619695103,
        "distance_wrist_2_joint": 1.4412201574500163,
        "distance_wrist_3_joint": 0.039877029988960366,
        "smoothness": 0.0,
        "time": 0.034123699,
        "traj_len": 1.7281514146436707,
        "weighted_distance": 2.2566234713244406
    },
    "planner": "PRM",
    "start": {
        "state": {
            "elbow_joint": -1.8275523626775212,
            "shoulder_lift_joint": -2.126789852344167,
            "shoulder_pan_joint": -0.03513704404078235,
            "wrist_1_joint": -2.347782403156801,
            "wrist_2_joint": -1.6058999987535132,
            "wrist_3_joint": -3.0880379163319196
        }
    },
    "waypoints": [
        {
            "positions": [
                -0.03513704404078235,
                -2.126789852344167,
                -1.8275523626775212,
                -2.347782403156801,
                -1.6058999987535132,
                -3.0880379163319196
            ]
        },
        {
            "positions": [
                -0.051957875268818135,
                -2.1430972617899373,
                -1.7456128330355232,
                -2.4208908984029898,
                -1.425747479072261,
                -3.0830532875832994
            ]
        },
        {
            "positions": [
                -0.06877870649685393,
                -2.1594046712357073,
                -1.663673303393525,
                -2.4939993936491787,
                -1.2455949593910092,
                -3.0780686588346793
            ]
        },
        {
            "positions": [
                -0.08559953772488971,
                -2.175712080681478,
                -1.581733773751527,
                -2.567107888895367,
                -1.065442439709757,
                -3.0730840300860596
            ]
        },
        {
            "positions": [
                -0.1024203689529255,
                -2.1920194901272483,
                -1.4997942441095287,
                -2.640216384141556,
                -0.885289920028505,
                -3.0680994013374394
            ]
        },
        {
            "positions": [
                -0.1192412001809613,
                -2.2083268995730183,
                -1.4178547144675306,
                -2.713324879387745,
                -0.705137400347253,
                -3.0631147725888193
            ]
        },
        {
            "positions": [
                -0.1360620314089971,
                -2.224634309018789,
                -1.3359151848255326,
                -2.7864333746339334,
                -0.5249848806660009,
                -3.0581301438401995
            ]
        },
        {
            "positions": [
                -0.15288286263703288,
                -2.240941718464559,
                -1.2539756551835346,
                -2.8595418698801223,
                -0.344832360984749,
                -3.0531455150915794
            ]
        },
        {
            "positions": [
                -0.16970369386506867,
                -2.2572491279103293,
                -1.1720361255415364,
                -2.932650365126311,
                -0.16467984130349694,
                -3.0481608863429592
            ]
        }
    ]
}