{
    "goal": {
        "global_pose": {
            "orientation": {
                "w": -0.4816463035849501,
                "x": 0.5182115481033762,
                "y": 0.4908360881923453,
                "z": -0.5084816262002911
            },
            "position": {
                "x": -0.8240239810943604,
                "y": 0.19912469901144506,
                "z": 0.16403168439865112
            }
        },
        "name": "move_to_storage_D"
    },
    "id": "PRM_move_to_storage_D_20",
    "joint_names": [
        "shoulder_pan_joint",
        "shoulder_lift_joint",
        "elbow_joint",
        "wrist_1_joint",
        "wrist_2_joint",
        "wrist_3_joint"
    ],
    "metrics": {
        "cart_traj_len": 4.2588273768064395,
        "distance_elbow_joint": 4.255916819164609,
        "distance_shoulder_lift_joint": 1.2641864231590123,
        "distance_shoulder_pan_joint": 2.813995130876034,
        "distance_wrist_1_joint": 2.262172737404674,
        "distance_wrist_2_joint": 1.7211748449424615,
        "distance_wrist_3_joint": 3.1341827172821306,
        "smoothness": 0.03854233701716366,
        "time": 0.19000125699999998,
        "traj_len": 3.930855972028093,
        "weighted_distance": 5.069846318158009
    },
    "planner": "PRM",
    "start": {
        "state": {
            "elbow_joint": -2.384821988534728,
            "shoulder_lift_joint": -2.2788054721415256,
            "shoulder_pan_joint": -0.1854694642142757,
            "wrist_1_joint": 1.4845938289331202,
            "wrist_2_joint": 0.17898776772866878,
            "wrist_3_joint": 0.037105688729662994
        }
    },
    "waypoints": [
        {
            "positions": [
                -0.1854694642142757,
                -2.2788054721415256,
                -2.384821988534728,
                1.4845938289331202,
                0.17898776772866878,
                0.037105688729662994
            ]
        },
        {
            "positions": [
                -0.06306712068749112,
                -2.2103166770352574,
                -2.386317713189707,
                1.406940678209134,
                0.26035923629664126,
                -0.0035621960484512605
            ]
        },
        {
            "positions": [
                0.05933522283929346,
                -2.141827881928989,
                -2.3878134378446862,
                1.329287527485148,
                0.34173070486461377,
                -0.044230080826565515
            ]
        },
        {
            "positions": [
                0.18173756636607805,
                -2.0733390868227213,
                -2.389309162499665,
                1.2516343767611615,
                0.42310217343258627,
                -0.08489796560467977
            ]
        },
        {
            "positions": [
                0.30413990989286266,
                -2.004850291716453,
                -2.390804887154644,
                1.1739812260371754,
                0.5044736420005588,
                -0.12556585038279403
            ]
        },
        {
            "positions": [
                0.42654225341964724,
                -1.9363614966101848,
                -2.3923006118096235,
                1.0963280753131892,
                0.5858451105685313,
                -0.16623373516090828
            ]
        },
        {
            "positions": [
                0.5489445969464318,
                -1.8678727015039165,
                -2.3937963364646024,
                1.018674924589203,
                0.6672165791365038,
                -0.20690161993902254
            ]
        },
        {
            "positions": [
                0.6713469404732164,
                -1.7993839063976482,
                -2.3952920611195814,
                0.9410217738652168,
                0.7485880477044763,
                -0.24756950471713682
            ]
        },
        {
            "positions": [
                0.793749284000001,
                -1.7308951112913802,
                -2.3967877857745608,
                0.8633686231412306,
                0.8299595162724488,
                -0.288237389495251
            ]
        },
        {
            "positions": [
                0.9161516275267855,
                -1.6624063161851121,
                -2.3982835104295397,
                0.7857154724172445,
                0.9113309848404213,
                -0.32890527427336524
            ]
        },
        {
            "positions": [
                1.03855397105357,
                -1.5939175210788439,
                -2.3997792350845186,
                0.7080623216932582,
                0.9927024534083938,
                -0.3695731590514796
            ]
        },
        {
            "positions": [
                1.1609563145803548,
                -1.5254287259725756,
                -2.4012749597394976,
                0.6304091709692721,
                1.0740739219763664,
                -0.4102410438295938
            ]
        },
        {
            "positions": [
                1.2833586581071392,
                -1.4569399308663074,
                -2.402770684394477,
                0.5527560202452859,
                1.155445390544339,
                -0.45090892860770804
            ]
        },
        {
            "positions": [
                1.4057610016339237,
                -1.3884511357600393,
                -2.404266409049456,
                0.47510286952129976,
                1.2368168591123114,
                -0.49157681338582226
            ]
        },
        {
            "positions": [
                1.5281633451607084,
                -1.319962340653771,
                -2.405762133704435,
                0.3974497187973134,
                1.318188327680284,
                -0.5322446981639366
            ]
        },
        {
            "positions": [
                1.650565688687493,
                -1.251473545547503,
                -2.407257858359414,
                0.31979656807332724,
                1.3995597962482564,
                -0.5729125829420508
            ]
        },
        {
            "positions": [
                1.7729680322142776,
                -1.1829847504412347,
                -2.408753583014393,
                0.24214341734934103,
                1.480931264816229,
                -0.6135804677201651
            ]
        },
        {
            "positions": [
                1.8086162669829227,
                -1.1759695128804546,
                -2.2324208653191873,
                0.19965498710680374,
                1.4634632919889414,
                -0.7170594910881777
            ]
        },
        {
            "positions": [
                1.8442645017515678,
                -1.1689542753196747,
                -2.056088147623981,
                0.15716655686426642,
                1.445995319161654,
                -0.8205385144561903
            ]
        },
        {
            "positions": [
                1.8799127365202126,
                -1.1619390377588945,
                -1.879755429928775,
                0.1146781266217291,
                1.4285273463343664,
                -0.9240175378242028
            ]
        },
        {
            "positions": [
                1.9155609712888577,
                -1.1549238001981146,
                -1.7034227122335692,
                0.07218969637919181,
                1.4110593735070787,
                -1.0274965611922156
            ]
        },
        {
            "positions": [
                1.9512092060575028,
                -1.1479085626373344,
                -1.527089994538363,
                0.02970126613665447,
                1.3935914006797911,
                -1.130975584560228
            ]
        },
        {
            "positions": [
                1.9868574408261477,
                -1.1408933250765543,
                -1.350757276843157,
                -0.01278716410588282,
                1.3761234278525036,
                -1.2344546079282406
            ]
        },
        {
            "positions": [
                2.0225056755947928,
                -1.1338780875157743,
                -1.174424559147951,
                -0.055275594348420165,
                1.3586554550252161,
                -1.3379336312962533
            ]
        },
        {
            "positions": [
                2.058153910363438,
                -1.1268628499549942,
                -0.9980918414527451,
                -0.0977640245909574,
                1.3411874821979286,
                -1.4414126546642658
            ]
        },
        {
            "positions": [
                2.093802145132083,
                -1.1198476123942143,
                -0.821759123757539,
                -0.14025245483349474,
                1.3237195093706409,
                -1.5448916780322786
            ]
        },
        {
            "positions": [
                2.129450379900728,
                -1.1128323748334341,
                -0.6454264060623329,
                -0.1827408850760321,
                1.3062515365433534,
                -1.648370701400291
            ]
        },
        {
            "positions": [
                2.165098614669373,
                -1.1058171372726542,
                -0.46909368836712706,
                -0.22522931531856932,
                1.2887835637160658,
                -1.7518497247683036
            ]
        },
        {
            "positions": [
                2.2007468494380182,
                -1.098801899711874,
                -0.292760970671921,
                -0.26771774556110667,
                1.2713155908887783,
                -1.8553287481363163
            ]
        },
        {
            "positions": [
                2.236395084206663,
                -1.0917866621510939,
                -0.11642825297671511,
                -0.3102061758036439,
                1.2538476180614908,
                -1.9588077715043288
            ]
        },
        {
            "positions": [
                2.272043318975308,
                -1.084771424590314,
                0.0599044647184912,
                -0.35269460604618136,
                1.2363796452342033,
                -2.0622867948723416
            ]
        },
        {
            "positions": [
                2.307691553743953,
                -1.0777561870295338,
                0.23623718241369707,
                -0.3951830362887186,
                1.2189116724069158,
                -2.165765818240354
            ]
        },
        {
            "positions": [
                2.343339788512598,
                -1.0707409494687539,
                0.41256990010890293,
                -0.4376714665312558,
                1.2014436995796283,
                -2.2692448416083666
            ]
        },
        {
            "positions": [
                2.3789880232812433,
                -1.0637257119079737,
                0.5889026178041092,
                -0.4801598967737933,
                1.1839757267523405,
                -2.372723864976379
            ]
        },
        {
            "positions": [
                2.4146362580498884,
                -1.0567104743471938,
                0.7652353354993151,
                -0.5226483270163305,
                1.166507753925053,
                -2.476202888344392
            ]
        },
        {
            "positions": [
                2.4502844928185334,
                -1.0496952367864136,
                0.941568053194521,
                -0.5651367572588677,
                1.1490397810977655,
                -2.5796819117124046
            ]
        },
        {
            "positions": [
                2.485932727587178,
                -1.0426799992256335,
                1.1179007708897273,
                -0.6076251875014052,
                1.1315718082704778,
                -2.683160935080417
            ]
        },
        {
            "positions": [
                2.5215809623558236,
                -1.0356647616648536,
                1.2942334885849331,
                -0.6501136177439424,
                1.1141038354431902,
                -2.7866399584484296
            ]
        },
        {
            "positions": [
                2.5572291971244683,
                -1.0286495241040734,
                1.470566206280139,
                -0.6926020479864796,
                1.0966358626159027,
                -2.890118981816442
            ]
        },
        {
            "positions": [
                2.5928774318931134,
                -1.0216342865432932,
                1.6468989239753453,
                -0.7350904782290171,
                1.0791678897886152,
                -2.993598005184455
            ]
        },
        {
            "positions": [
                2.6285256666617585,
                -1.0146190489825133,
                1.8232316416705507,
                -0.7775789084715543,
                1.0616999169613277,
                -3.0970770285524676
            ]
        }
    ]
}