{
    "goal": {
        "global_pose": {
            "orientation": {
                "w": 0.005598929693374612,
                "x": 0.007748599140229565,
                "y": 0.7110244013736278,
                "z": -0.7031023480610252
            },
            "position": {
                "x": -0.8858502320852131,
                "y": -0.7141253447532654,
                "z": 0.3711530566215515
            }
        },
        "name": "move_to_auspresseinheit_C"
    },
    "id": "PRM_move_to_auspresseinheit_C_107",
    "joint_names": [
        "shoulder_pan_joint",
        "shoulder_lift_joint",
        "elbow_joint",
        "wrist_1_joint",
        "wrist_2_joint",
        "wrist_3_joint"
    ],
    "metrics": {
        "cart_traj_len": 0.49364223503767635,
        "distance_elbow_joint": 1.003672720490182,
        "distance_shoulder_lift_joint": 0.3265260653396198,
        "distance_shoulder_pan_joint": 0.2566169429284413,
        "distance_wrist_1_joint": 0.6854462100334395,
        "distance_wrist_2_joint": 1.3156306427498756,
        "distance_wrist_3_joint": 0.05404249758739921,
        "smoothness": 3.2297397335745243e-16,
        "time": 0.017935971000000002,
        "traj_len": 1.908385463979685,
        "weighted_distance": 2.3981444758577557
    },
    "planner": "PRM",
    "start": {
        "state": {
            "elbow_joint": 1.7527959577737207,
            "shoulder_lift_joint": -0.9740617694225068,
            "shoulder_pan_joint": -2.967991417825858,
            "wrist_1_joint": -0.759517768980727,
            "wrist_2_joint": 1.7443932448377408,
            "wrist_3_joint": -3.0840537646736568
        }
    },
    "waypoints": [
        {
            "positions": [
                -2.967991417825858,
                -0.9740617694225068,
                1.7527959577737207,
                -0.759517768980727,
                1.7443932448377408,
                -3.0840537646736568
            ]
        },
        {
            "positions": [
                -2.942329723533014,
                -0.9414091628885448,
                1.6524286857247024,
                -0.6909731479773831,
                1.6128301805627532,
                -3.0894580144323966
            ]
        },
        {
            "positions": [
                -2.91666802924017,
                -0.9087565563545829,
                1.5520614136756843,
                -0.622428526974039,
                1.4812671162877658,
                -3.0948622641911365
            ]
        },
        {
            "positions": [
                -2.8910063349473254,
                -0.8761039498206208,
                1.451694141626666,
                -0.5538839059706951,
                1.349704052012778,
                -3.1002665139498764
            ]
        },
        {
            "positions": [
                -2.8653446406544814,
                -0.8434513432866588,
                1.351326869577648,
                -0.4853392849673512,
                1.2181409877377907,
                -3.1056707637086163
            ]
        },
        {
            "positions": [
                -2.8396829463616373,
                -0.8107987367526969,
                1.2509595975286296,
                -0.4167946639640072,
                1.086577923462803,
                -3.1110750134673566
            ]
        },
        {
            "positions": [
                -2.8140212520687933,
                -0.7781461302187349,
                1.1505923254796113,
                -0.34825004296066325,
                0.9550148591878155,
                -3.1164792632260965
            ]
        },
        {
            "positions": [
                -2.7883595577759492,
                -0.745493523684773,
                1.0502250534305932,
                -0.27970542195731934,
                0.8234517949128279,
                -3.1218835129848364
            ]
        },
        {
            "positions": [
                -2.7626978634831048,
                -0.712840917150811,
                0.949857781381575,
                -0.21116080095397538,
                0.6918887306378403,
                -3.1272877627435762
            ]
        },
        {
            "positions": [
                -2.7370361691902607,
                -0.6801883106168489,
                0.8494905093325568,
                -0.14261617995063136,
                0.5603256663628526,
                -3.132692012502316
            ]
        },
        {
            "positions": [
                -2.7113744748974167,
                -0.647535704082887,
                0.7491232372835387,
                -0.07407155894728747,
                0.4287626020878653,
                -3.138096262261056
            ]
        }
    ]
}