{
    "goal": {
        "global_pose": {
            "orientation": {
                "w": -0.4816463035849501,
                "x": 0.5182115481033762,
                "y": 0.4908360881923453,
                "z": -0.5084816262002911
            },
            "position": {
                "x": -0.8240239810943604,
                "y": -0.300875300988555,
                "z": 0.16403168439865112
            }
        },
        "name": "move_to_storage_C"
    },
    "id": "PRM_move_to_storage_C_45",
    "joint_names": [
        "shoulder_pan_joint",
        "shoulder_lift_joint",
        "elbow_joint",
        "wrist_1_joint",
        "wrist_2_joint",
        "wrist_3_joint"
    ],
    "metrics": {
        "cart_traj_len": 0.5768607149969317,
        "distance_elbow_joint": 0.25889451372498695,
        "distance_shoulder_lift_joint": 0.1891520653218729,
        "distance_shoulder_pan_joint": 0.495668159561542,
        "distance_wrist_1_joint": 0.07993924101086824,
        "distance_wrist_2_joint": 1.0599490358868784,
        "distance_wrist_3_joint": 0.06442153626551761,
        "smoothness": 2.5376526478085547e-16,
        "time": 0.023794045,
        "traj_len": 1.4656140528023283,
        "weighted_distance": 1.8484468889314747
    },
    "planner": "PRM",
    "start": {
        "state": {
            "elbow_joint": 2.010868314990456,
            "shoulder_lift_joint": -1.1634956873337592,
            "shoulder_pan_joint": -2.4736205022346125,
            "wrist_1_joint": -0.8367026794202681,
            "wrist_2_joint": 0.6746043897044499,
            "wrist_3_joint": -3.1496632123970403
        }
    },
    "waypoints": [
        {
            "positions": [
                -2.4736205022346125,
                -1.1634956873337592,
                2.010868314990456,
                -0.8367026794202681,
                0.6746043897044499,
                -3.1496632123970403
            ]
        },
        {
            "positions": [
                -2.5562318621615363,
                -1.1319703431134471,
                1.9677192293696246,
                -0.8233794725851233,
                0.8512625623522629,
                -3.1389262896861205
            ]
        },
        {
            "positions": [
                -2.6388432220884597,
                -1.1004449988931349,
                1.9245701437487934,
                -0.8100562657499787,
                1.027920735000076,
                -3.1281893669752012
            ]
        },
        {
            "positions": [
                -2.7214545820153835,
                -1.0689196546728228,
                1.8814210581279625,
                -0.796733058914834,
                1.204578907647889,
                -3.1174524442642815
            ]
        },
        {
            "positions": [
                -2.8040659419423073,
                -1.0373943104525105,
                1.8382719725071313,
                -0.7834098520796893,
                1.3812370802957021,
                -3.1067155215533617
            ]
        },
        {
            "positions": [
                -2.8866773018692307,
                -1.0058689662321985,
                1.7951228868863,
                -0.7700866452445445,
                1.5578952529435153,
                -3.0959785988424424
            ]
        },
        {
            "positions": [
                -2.9692886617961545,
                -0.9743436220118863,
                1.7519738012654689,
                -0.7567634384093999,
                1.7345534255913282,
                -3.0852416761315227
            ]
        }
    ]
}