{
    "goal": {
        "global_pose": {
            "orientation": {
                "w": -0.00223480608172531,
                "x": 0.0024358444001904467,
                "y": 0.7094548369677653,
                "z": -0.704743149386269
            },
            "position": {
                "x": 0.6205249238014221,
                "y": -0.6371506643295288,
                "z": 0.19426114857196808
            }
        },
        "name": "move_to_magneteinheit_B"
    },
    "id": "PRM_move_to_magneteinheit_B_55",
    "joint_names": [
        "shoulder_pan_joint",
        "shoulder_lift_joint",
        "elbow_joint",
        "wrist_1_joint",
        "wrist_2_joint",
        "wrist_3_joint"
    ],
    "metrics": {
        "cart_traj_len": 1.5323813555959596,
        "distance_elbow_joint": 0.9560849614081355,
        "distance_shoulder_lift_joint": 0.7560679307201265,
        "distance_shoulder_pan_joint": 1.6208895651194366,
        "distance_wrist_1_joint": 2.0931882273441986,
        "distance_wrist_2_joint": 2.148453868308861,
        "distance_wrist_3_joint": 0.8146128318874502,
        "smoothness": 0.5900695754859052,
        "time": 0.518017251,
        "traj_len": 2.896428384198064,
        "weighted_distance": 3.776263383851313
    },
    "planner": "PRM",
    "start": {
        "state": {
            "elbow_joint": 2.6216224122426386,
            "shoulder_lift_joint": -1.4174107377796124,
            "shoulder_pan_joint": 0.7066234856936794,
            "wrist_1_joint": 1.9546482284002225,
            "wrist_2_joint": -0.7096286983471962,
            "wrist_3_joint": 0.005740856962016249
        }
    },
    "waypoints": [
        {
            "positions": [
                0.7066234856936794,
                -1.4174107377796124,
                2.6216224122426386,
                1.9546482284002225,
                -0.7096286983471962,
                0.005740856962016249
            ]
        },
        {
            "positions": [
                0.6531531913411316,
                -1.3492854613159846,
                2.582251353858819,
                1.835434517004531,
                -0.6703019057058704,
                0.0569838447807268
            ]
        },
        {
            "positions": [
                0.5996828969885838,
                -1.281160184852357,
                2.5428802954749994,
                1.7162208056088395,
                -0.6309751130645447,
                0.10822683259943736
            ]
        },
        {
            "positions": [
                0.5462126026360361,
                -1.2130349083887293,
                2.50350923709118,
                1.5970070942131478,
                -0.5916483204232188,
                0.15946982041814792
            ]
        },
        {
            "positions": [
                0.49274230828348825,
                -1.1449096319251018,
                2.46413817870736,
                1.4777933828174563,
                -0.552321527781893,
                0.21071280823685848
            ]
        },
        {
            "positions": [
                0.43927201393094045,
                -1.076784355461474,
                2.42476712032354,
                1.3585796714217648,
                -0.5129947351405673,
                0.261955796055569
            ]
        },
        {
            "positions": [
                0.3858017195783927,
                -1.0086590789978462,
                2.3853960619397205,
                1.2393659600260731,
                -0.47366794249924143,
                0.3131987838742796
            ]
        },
        {
            "positions": [
                0.3323314252258449,
                -0.9405338025342187,
                2.346025003555901,
                1.1201522486303817,
                -0.4343411498579156,
                0.36444177169299014
            ]
        },
        {
            "positions": [
                0.2788611308732971,
                -0.872408526070591,
                2.3066539451720813,
                1.0009385372346902,
                -0.39501435721658984,
                0.4156847595117007
            ]
        },
        {
            "positions": [
                0.19363775870907896,
                -0.8573324032840836,
                2.2608599098622544,
                1.0823298612474521,
                -0.5260028948721794,
                0.38677983598757454
            ]
        },
        {
            "positions": [
                0.1084143865448608,
                -0.8422562804975761,
                2.2150658745524274,
                1.1637211852602138,
                -0.656991432527769,
                0.3578749124634484
            ]
        },
        {
            "positions": [
                0.02319101438064264,
                -0.8271801577110686,
                2.1692718392426005,
                1.2451125092729758,
                -0.7879799701833586,
                0.3289699889393222
            ]
        },
        {
            "positions": [
                -0.06203235778357552,
                -0.812104034924561,
                2.123477803932773,
                1.3265038332857377,
                -0.9189685078389482,
                0.30006506541519606
            ]
        },
        {
            "positions": [
                -0.14725572994779368,
                -0.7970279121380535,
                2.077683768622946,
                1.4078951572984995,
                -1.049957045494538,
                0.2711601418910699
            ]
        },
        {
            "positions": [
                -0.23247910211201184,
                -0.781951789351546,
                2.031889733313119,
                1.4892864813112614,
                -1.1809455831501274,
                0.24225521836694375
            ]
        },
        {
            "positions": [
                -0.31770247427623,
                -0.7668756665650385,
                1.9860956980032922,
                1.5706778053240233,
                -1.3119341208057171,
                0.2133502948428176
            ]
        },
        {
            "positions": [
                -0.40292584644044815,
                -0.751799543778531,
                1.9403016626934653,
                1.6520691293367853,
                -1.4429226584613066,
                0.18444537131869143
            ]
        },
        {
            "positions": [
                -0.4881492186046664,
                -0.7367234209920235,
                1.894507627383638,
                1.7334604533495472,
                -1.5739111961168966,
                0.15554044779456527
            ]
        },
        {
            "positions": [
                -0.5733725907688845,
                -0.721647298205516,
                1.8487135920738111,
                1.814851777362309,
                -1.704899733772486,
                0.12663552427043911
            ]
        },
        {
            "positions": [
                -0.6585959629331026,
                -0.7065711754190085,
                1.8029195567639842,
                1.896243101375071,
                -1.8358882714280755,
                0.09773060074631296
            ]
        },
        {
            "positions": [
                -0.7438193350973208,
                -0.691495052632501,
                1.757125521454157,
                1.9776344253878326,
                -1.966876809083665,
                0.0688256772221868
            ]
        },
        {
            "positions": [
                -0.829042707261539,
                -0.6764189298459934,
                1.71133148614433,
                2.0590257494005946,
                -2.0978653467392547,
                0.03992075369806064
            ]
        },
        {
            "positions": [
                -0.9142660794257571,
                -0.6613428070594859,
                1.665537450834503,
                2.1404170734133565,
                -2.2288538843948444,
                0.011015830173934503
            ]
        }
    ]
}