{
    "goal": {
        "global_pose": {
            "orientation": {
                "w": 0.005598929693374612,
                "x": 0.007748599140229565,
                "y": 0.7110244013736278,
                "z": -0.7031023480610252
            },
            "position": {
                "x": 0.1141497679147869,
                "y": -0.7141253447532654,
                "z": 0.3711530566215515
            }
        },
        "name": "move_to_auspresseinheit_B"
    },
    "id": "PRM_move_to_auspresseinheit_B_70",
    "joint_names": [
        "shoulder_pan_joint",
        "shoulder_lift_joint",
        "elbow_joint",
        "wrist_1_joint",
        "wrist_2_joint",
        "wrist_3_joint"
    ],
    "metrics": {
        "cart_traj_len": 0.5645873047048169,
        "distance_elbow_joint": 0.0627473193462944,
        "distance_shoulder_lift_joint": 0.29541773491863,
        "distance_shoulder_pan_joint": 0.5767894854620443,
        "distance_wrist_1_joint": 0.33213499509441946,
        "distance_wrist_2_joint": 0.9977049597871712,
        "distance_wrist_3_joint": 0.006790095333064183,
        "smoothness": 0.0,
        "time": 0.030695062999999998,
        "traj_len": 1.5071776902348386,
        "weighted_distance": 1.9013165795020415
    },
    "planner": "PRM",
    "start": {
        "state": {
            "elbow_joint": 2.0193083361928714,
            "shoulder_lift_joint": -1.1220246554650708,
            "shoulder_pan_joint": -1.0952077554168747,
            "wrist_1_joint": -0.8559753972642168,
            "wrist_2_joint": 0.4759566250798843,
            "wrist_3_joint": -3.1240929996934557
        }
    },
    "waypoints": [
        {
            "positions": [
                -1.0952077554168747,
                -1.1220246554650708,
                2.0193083361928714,
                -0.8559753972642168,
                0.4759566250798843,
                -3.1240929996934557
            ]
        },
        {
            "positions": [
                -1.1913393363272153,
                -1.1712609446181759,
                2.0088504496351556,
                -0.8006195647484802,
                0.6422407850444128,
                -3.122961317137945
            ]
        },
        {
            "positions": [
                -1.287470917237556,
                -1.2204972337712807,
                1.99839256307744,
                -0.7452637322327437,
                0.8085249450089413,
                -3.121829634582434
            ]
        },
        {
            "positions": [
                -1.383602498147897,
                -1.2697335229243858,
                1.9879346765197243,
                -0.6899078997170071,
                0.97480910497347,
                -3.120697952026924
            ]
        },
        {
            "positions": [
                -1.4797340790582374,
                -1.3189698120774909,
                1.9774767899620085,
                -0.6345520672012706,
                1.1410932649379983,
                -3.119566269471413
            ]
        },
        {
            "positions": [
                -1.5758656599685783,
                -1.3682061012305957,
                1.9670189034042926,
                -0.5791962346855339,
                1.307377424902527,
                -3.1184345869159023
            ]
        },
        {
            "positions": [
                -1.671997240878919,
                -1.4174423903837008,
                1.956561016846577,
                -0.5238404021697973,
                1.4736615848670556,
                -3.1173029043603915
            ]
        }
    ]
}