{
    "goal": {
        "global_pose": {
            "orientation": {
                "w": 0.5084816217422485,
                "x": -0.49083608388900757,
                "y": 0.5182115435600281,
                "z": -0.4816462993621826
            },
            "position": {
                "x": 0.5540239810943604,
                "y": 0.030875300988554955,
                "z": 0.16403168439865112
            }
        },
        "name": "move_to_storage_A"
    },
    "id": "PRM_move_to_storage_A_26",
    "joint_names": [
        "shoulder_pan_joint",
        "shoulder_lift_joint",
        "elbow_joint",
        "wrist_1_joint",
        "wrist_2_joint",
        "wrist_3_joint"
    ],
    "metrics": {
        "cart_traj_len": 0.35302238313850853,
        "distance_elbow_joint": 0.45150486063848105,
        "distance_shoulder_lift_joint": 0.23435255031962265,
        "distance_shoulder_pan_joint": 0.4608031443203872,
        "distance_wrist_1_joint": 0.25526318798394987,
        "distance_wrist_2_joint": 1.1018132605772541,
        "distance_wrist_3_joint": 0.10310417410997008,
        "smoothness": 4.440892098500626e-16,
        "time": 0.035330172,
        "traj_len": 1.6145715152787952,
        "weighted_distance": 2.042088630478807
    },
    "planner": "PRM",
    "start": {
        "state": {
            "elbow_joint": 1.971548259319323,
            "shoulder_lift_joint": -1.1394851275133948,
            "shoulder_pan_joint": 0.1228115487234821,
            "wrist_1_joint": -0.7804723859257726,
            "wrist_2_joint": 0.12958671773740124,
            "wrist_3_joint": -3.192489227718131
        }
    },
    "waypoints": [
        {
            "positions": [
                0.1228115487234821,
                -1.1394851275133948,
                1.971548259319323,
                -0.7804723859257726,
                0.12958671773740124,
                -3.192489227718131
            ]
        },
        {
            "positions": [
                0.05698252810628393,
                -1.172964063273341,
                2.0360489536962487,
                -0.8169385556377654,
                0.2869886121055804,
                -3.1777600599881355
            ]
        },
        {
            "positions": [
                -0.008846492510914239,
                -1.206442999033287,
                2.1005496480731747,
                -0.8534047253497583,
                0.44439050647375955,
                -3.16303089225814
            ]
        },
        {
            "positions": [
                -0.07467551312811241,
                -1.239921934793233,
                2.1650503424501006,
                -0.8898708950617511,
                0.6017924008419387,
                -3.148301724528144
            ]
        },
        {
            "positions": [
                -0.14050453374531058,
                -1.2734008705531792,
                2.2295510368270266,
                -0.926337064773744,
                0.7591942952101179,
                -3.133572556798148
            ]
        },
        {
            "positions": [
                -0.20633355436250878,
                -1.3068798063131253,
                2.294051731203952,
                -0.9628032344857368,
                0.9165961895782971,
                -3.1188433890681524
            ]
        },
        {
            "positions": [
                -0.2721625749797069,
                -1.3403587420730714,
                2.358552425580878,
                -0.9992694041977297,
                1.0739980839464762,
                -3.1041142213381567
            ]
        },
        {
            "positions": [
                -0.3379915955969051,
                -1.3738376778330175,
                2.423053119957804,
                -1.0357355739097225,
                1.2313999783146554,
                -3.089385053608161
            ]
        }
    ]
}{
    "goal": {
        "global_pose": {
            "orientation": {
                "w": 0.5084816217422485,
                "x": -0.49083608388900757,
                "y": 0.5182115435600281,
                "z": -0.4816462993621826
            },
            "position": {
                "x": 0.5540239810943604,
                "y": 0.030875300988554955,
                "z": 0.16403168439865112
            }
        },
        "name": "move_to_storage_A"
    },
    "id": "PRM_move_to_storage_A_26",
    "joint_names": [
        "shoulder_pan_joint",
        "shoulder_lift_joint",
        "elbow_joint",
        "wrist_1_joint",
        "wrist_2_joint",
        "wrist_3_joint"
    ],
    "metrics": {
        "cart_traj_len": 0.35250101522138555,
        "distance_elbow_joint": 0.451698272418656,
        "distance_shoulder_lift_joint": 0.23314136307245126,
        "distance_shoulder_pan_joint": 0.4613089148002096,
        "distance_wrist_1_joint": 0.2555041040699575,
        "distance_wrist_2_joint": 1.0953647051024085,
        "distance_wrist_3_joint": 0.09741956617900183,
        "smoothness": 6.661338165333112e-16,
        "time": 0.031802530999999995,
        "traj_len": 1.610725589801902,
        "weighted_distance": 2.0347345937917933
    },
    "planner": "PRM",
    "start": {
        "state": {
            "elbow_joint": 1.97154746011099,
            "shoulder_lift_joint": -1.13948474672311,
            "shoulder_pan_joint": 0.12281154466712228,
            "wrist_1_joint": -0.7804688027058302,
            "wrist_2_joint": 0.12958655903071145,
            "wrist_3_joint": 3.0906928834467795
        }
    },
    "waypoints": [
        {
            "positions": [
                0.12281154466712228,
                -1.13948474672311,
                1.97154746011099,
                -0.7804688027058302,
                0.12958655903071145,
                3.0906928834467795
            ]
        },
        {
            "positions": [
                0.056910271124235204,
                -1.1727906557334602,
                2.0360757847422266,
                -0.8169693890015384,
                0.2860672311881984,
                3.104609964329494
            ]
        },
        {
            "positions": [
                -0.008991002418651875,
                -1.2060965647438102,
                2.100604109373463,
                -0.8534699752972466,
                0.4425479033456853,
                3.1185270452122085
            ]
        },
        {
            "positions": [
                -0.07489227596153895,
                -1.2394024737541605,
                2.1651324340046996,
                -0.8899705615929548,
                0.5990285755031722,
                3.132444126094923
            ]
        },
        {
            "positions": [
                -0.14079354950442602,
                -1.2727083827645107,
                2.2296607586359363,
                -0.926471147888663,
                0.7555092476606592,
                3.146361206977638
            ]
        },
        {
            "positions": [
                -0.20669482304731313,
                -1.306014291774861,
                2.294189083267173,
                -0.9629717341843713,
                0.9119899198181461,
                3.1602782878603524
            ]
        },
        {
            "positions": [
                -0.2725960965902002,
                -1.339320200785211,
                2.3587174078984092,
                -0.9994723204800795,
                1.068470591975633,
                3.174195368743067
            ]
        },
        {
            "positions": [
                -0.3384973701330873,
                -1.3726261097955612,
                2.423245732529646,
                -1.0359729067757877,
                1.22495126413312,
                3.1881124496257813
            ]
        }
    ]
}{
    "goal": {
        "global_pose": {
            "orientation": {
                "w": 0.5084816217422485,
                "x": -0.49083608388900757,
                "y": 0.5182115435600281,
                "z": -0.4816462993621826
            },
            "position": {
                "x": 0.5540239810943604,
                "y": 0.030875300988554955,
                "z": 0.16403168439865112
            }
        },
        "name": "move_to_storage_A"
    },
    "id": "PRM_move_to_storage_A_26",
    "joint_names": [
        "shoulder_pan_joint",
        "shoulder_lift_joint",
        "elbow_joint",
        "wrist_1_joint",
        "wrist_2_joint",
        "wrist_3_joint"
    ],
    "metrics": {
        "cart_traj_len": 0.3529241741876507,
        "distance_elbow_joint": 0.44836059058939615,
        "distance_shoulder_lift_joint": 0.2354933640156034,
        "distance_shoulder_pan_joint": 0.4626193483392712,
        "distance_wrist_1_joint": 0.23504691715865955,
        "distance_wrist_2_joint": 1.0939930474548167,
        "distance_wrist_3_joint": 0.0940895401442643,
        "smoothness": 4.440892098500626e-16,
        "time": 0.014523488999999999,
        "traj_len": 1.602998068527224,
        "weighted_distance": 2.0215889425409945
    },
    "planner": "PRM",
    "start": {
        "state": {
            "elbow_joint": 1.9715472970024885,
            "shoulder_lift_joint": -1.1394870060712896,
            "shoulder_pan_joint": 0.12281152778156021,
            "wrist_1_joint": -0.780463741449964,
            "wrist_2_joint": 0.12958659822042276,
            "wrist_3_joint": 3.090690232415272
        }
    },
    "waypoints": [
        {
            "positions": [
                0.12281152778156021,
                -1.1394870060712896,
                1.9715472970024885,
                -0.780463741449964,
                0.12958659822042276,
                3.090690232415272
            ]
        },
        {
            "positions": [
                0.05672304944737862,
                -1.1731289152163757,
                2.035598809943831,
                -0.8140418724726296,
                0.28587131928539655,
                3.104131595293024
            ]
        },
        {
            "positions": [
                -0.009365428886802973,
                -1.206770824361462,
                2.0996503228851733,
                -0.8476200034952953,
                0.44215604035037037,
                3.117572958170776
            ]
        },
        {
            "positions": [
                -0.07545390722098458,
                -1.2404127335065482,
                2.1637018358265157,
                -0.8811981345179609,
                0.5984407614153442,
                3.131014321048528
            ]
        },
        {
            "positions": [
                -0.14154238555516616,
                -1.2740546426516344,
                2.2277533487678576,
                -0.9147762655406266,
                0.754725482480318,
                3.14445568392628
            ]
        },
        {
            "positions": [
                -0.2076308638893478,
                -1.3076965517967207,
                2.2918048617092,
                -0.9483543965632922,
                0.9110102035452918,
                3.157897046804032
            ]
        },
        {
            "positions": [
                -0.27371934222352934,
                -1.3413384609418069,
                2.3558563746505423,
                -0.9819325275859578,
                1.0672949246102656,
                3.171338409681784
            ]
        },
        {
            "positions": [
                -0.33980782055771097,
                -1.374980370086893,
                2.4199078875918847,
                -1.0155106586086236,
                1.2235796456752395,
                3.184779772559536
            ]
        }
    ]
}