{
    "goal": {
        "global_pose": {
            "orientation": {
                "w": -0.00223480608172531,
                "x": 0.0024358444001904467,
                "y": 0.7094548369677653,
                "z": -0.704743149386269
            },
            "position": {
                "x": 0.6205249238014221,
                "y": -0.6371506643295288,
                "z": 0.19426114857196808
            }
        },
        "name": "move_to_magneteinheit_B"
    },
    "id": "PRM_move_to_magneteinheit_B_145",
    "joint_names": [
        "shoulder_pan_joint",
        "shoulder_lift_joint",
        "elbow_joint",
        "wrist_1_joint",
        "wrist_2_joint",
        "wrist_3_joint"
    ],
    "metrics": {
        "cart_traj_len": 1.3845197300831882,
        "distance_elbow_joint": 0.9524443411764076,
        "distance_shoulder_lift_joint": 0.7531195519139022,
        "distance_shoulder_pan_joint": 1.6209229515226453,
        "distance_wrist_1_joint": 0.8387411068172139,
        "distance_wrist_2_joint": 1.5231483169432252,
        "distance_wrist_3_joint": 0.1625946704676702,
        "smoothness": 0.29202759798766653,
        "time": 0.549628445,
        "traj_len": 2.41887803306431,
        "weighted_distance": 2.9219941313316906
    },
    "planner": "PRM",
    "start": {
        "state": {
            "elbow_joint": 2.6216224122426386,
            "shoulder_lift_joint": -1.4174107377796124,
            "shoulder_pan_joint": 0.7066234856936794,
            "wrist_1_joint": 1.9546482284002225,
            "wrist_2_joint": -0.7096286983471962,
            "wrist_3_joint": 0.005740856962016249
        }
    },
    "waypoints": [
        {
            "positions": [
                0.7066234856936794,
                -1.4174107377796124,
                2.6216224122426386,
                1.9546482284002225,
                -0.7096286983471962,
                0.005740856962016249
            ]
        },
        {
            "positions": [
                0.5340568642173338,
                -1.3981732551528687,
                2.6026616083577427,
                1.8746902247840225,
                -0.7782301646107075,
                -0.013311084041794161
            ]
        },
        {
            "positions": [
                0.3614902427409883,
                -1.378935772526125,
                2.583700804472847,
                1.7947322211678225,
                -0.8468316308742186,
                -0.03236302504560457
            ]
        },
        {
            "positions": [
                0.18892362126464268,
                -1.3596982898993815,
                2.564740000587951,
                1.7147742175516225,
                -0.9154330971377298,
                -0.05141496604941498
            ]
        },
        {
            "positions": [
                0.01635699978829723,
                -1.3404608072726378,
                2.545779196703055,
                1.6348162139354225,
                -0.9840345634012411,
                -0.07046690705322539
            ]
        },
        {
            "positions": [
                -0.06824813344963579,
                -1.2789908416901898,
                2.4660881852815257,
                1.681989767785642,
                -1.0975566044820757,
                -0.06261355192118644
            ]
        },
        {
            "positions": [
                -0.15285326668756882,
                -1.2175208761077418,
                2.3863971738599963,
                1.7291633216358615,
                -1.2110786455629103,
                -0.054760196789147474
            ]
        },
        {
            "positions": [
                -0.23745839992550177,
                -1.1560509105252939,
                2.306706162438467,
                1.7763368754860809,
                -1.3246006866437448,
                -0.04690684165710852
            ]
        },
        {
            "positions": [
                -0.32206353316343483,
                -1.0945809449428459,
                2.2270151510169374,
                1.8235104293363005,
                -1.4381227277245794,
                -0.039053486525069556
            ]
        },
        {
            "positions": [
                -0.4066686664013678,
                -1.0331109793603979,
                2.147324139595408,
                1.8706839831865198,
                -1.551644768805414,
                -0.0312001313930306
            ]
        },
        {
            "positions": [
                -0.4912737996393008,
                -0.9716410137779501,
                2.0676331281738785,
                1.9178575370367392,
                -1.6651668098862484,
                -0.023346776260991645
            ]
        },
        {
            "positions": [
                -0.5758789328772339,
                -0.9101710481955021,
                1.987942116752349,
                1.9650310908869586,
                -1.778688850967083,
                -0.015493421128952689
            ]
        },
        {
            "positions": [
                -0.660484066115167,
                -0.8487010826130541,
                1.9082511053308193,
                2.012204644737178,
                -1.8922108920479177,
                -0.00764006599691372
            ]
        },
        {
            "positions": [
                -0.7450891993530999,
                -0.787231117030606,
                1.8285600939092899,
                2.059378198587398,
                -2.005732933128752,
                0.00021328913512523584
            ]
        },
        {
            "positions": [
                -0.8296943325910329,
                -0.7257611514481581,
                1.7488690824877604,
                2.106551752437617,
                -2.1192549742095865,
                0.008066644267164191
            ]
        },
        {
            "positions": [
                -0.9142994658289659,
                -0.6642911858657101,
                1.669178071066231,
                2.1537253062878365,
                -2.2327770152904214,
                0.01591999939920315
            ]
        }
    ]
}