{
    "goal": {
        "global_pose": {
            "orientation": {
                "w": 0.5084816217422485,
                "x": -0.49083608388900757,
                "y": 0.5182115435600281,
                "z": -0.4816462993621826
            },
            "position": {
                "x": 0.5540239810943604,
                "y": 0.030875300988554955,
                "z": 0.16403168439865112
            }
        },
        "name": "move_to_storage_A"
    },
    "id": "PRM_move_to_storage_A_95",
    "joint_names": [
        "shoulder_pan_joint",
        "shoulder_lift_joint",
        "elbow_joint",
        "wrist_1_joint",
        "wrist_2_joint",
        "wrist_3_joint"
    ],
    "metrics": {
        "cart_traj_len": 0.35309078925157505,
        "distance_elbow_joint": 0.45181109554994303,
        "distance_shoulder_lift_joint": 0.234761760211462,
        "distance_shoulder_pan_joint": 0.461385238075802,
        "distance_wrist_1_joint": 0.2458293921243827,
        "distance_wrist_2_joint": 1.1010561242135444,
        "distance_wrist_3_joint": 0.09604873443214412,
        "smoothness": 1.3322676295501878e-15,
        "time": 0.033740216,
        "traj_len": 1.6096249080476104,
        "weighted_distance": 2.0322094699635405
    },
    "planner": "PRM",
    "start": {
        "state": {
            "elbow_joint": 1.971548259319323,
            "shoulder_lift_joint": -1.1394851275133948,
            "shoulder_pan_joint": 0.1228115487234821,
            "wrist_1_joint": -0.7804723859257726,
            "wrist_2_joint": 0.12958671773740124,
            "wrist_3_joint": -3.192489227718131
        }
    },
    "waypoints": [
        {
            "positions": [
                0.1228115487234821,
                -1.1394851275133948,
                1.971548259319323,
                -0.7804723859257726,
                0.12958671773740124,
                -3.192489227718131
            ]
        },
        {
            "positions": [
                0.05689937185551039,
                -1.173022521829318,
                2.0360927015407433,
                -0.8155908705149701,
                0.2868804497679076,
                -3.1787679799421107
            ]
        },
        {
            "positions": [
                -0.009012805012461322,
                -1.2065599161452412,
                2.100637143762164,
                -0.8507093551041677,
                0.44417418179841395,
                -3.16504673216609
            ]
        },
        {
            "positions": [
                -0.07492498188043303,
                -1.2400973104611643,
                2.1651815859835843,
                -0.8858278396933652,
                0.6014679138289203,
                -3.1513254843900693
            ]
        },
        {
            "positions": [
                -0.14083715874840474,
                -1.2736347047770873,
                2.229726028205005,
                -0.9209463242825627,
                0.7587616458594266,
                -3.137604236614049
            ]
        },
        {
            "positions": [
                -0.20674933561637648,
                -1.3071720990930105,
                2.294270470426425,
                -0.9560648088717603,
                0.916055377889933,
                -3.1238829888380284
            ]
        },
        {
            "positions": [
                -0.27266151248434817,
                -1.3407094934089336,
                2.3588149126478455,
                -0.9911832934609578,
                1.0733491099204393,
                -3.1101617410620075
            ]
        },
        {
            "positions": [
                -0.3385736893523199,
                -1.3742468877248568,
                2.423359354869266,
                -1.0263017780501553,
                1.2306428419509456,
                -3.096440493285987
            ]
        }
    ]
}{
    "goal": {
        "global_pose": {
            "orientation": {
                "w": 0.5084816217422485,
                "x": -0.49083608388900757,
                "y": 0.5182115435600281,
                "z": -0.4816462993621826
            },
            "position": {
                "x": 0.5540239810943604,
                "y": 0.030875300988554955,
                "z": 0.16403168439865112
            }
        },
        "name": "move_to_storage_A"
    },
    "id": "PRM_move_to_storage_A_95",
    "joint_names": [
        "shoulder_pan_joint",
        "shoulder_lift_joint",
        "elbow_joint",
        "wrist_1_joint",
        "wrist_2_joint",
        "wrist_3_joint"
    ],
    "metrics": {
        "cart_traj_len": 0.35277110433902215,
        "distance_elbow_joint": 0.45317959354241033,
        "distance_shoulder_lift_joint": 0.23454122889407936,
        "distance_shoulder_pan_joint": 0.45708156544619993,
        "distance_wrist_1_joint": 0.2538558433779463,
        "distance_wrist_2_joint": 1.117028978184151,
        "distance_wrist_3_joint": 0.10793488130307516,
        "smoothness": 4.440892133664971e-16,
        "time": 0.024633464,
        "traj_len": 1.6197598867572507,
        "weighted_distance": 2.051920240875875
    },
    "planner": "PRM",
    "start": {
        "state": {
            "elbow_joint": 1.97154746011099,
            "shoulder_lift_joint": -1.13948474672311,
            "shoulder_pan_joint": 0.12281154466712228,
            "wrist_1_joint": -0.7804688027058302,
            "wrist_2_joint": 0.12958655903071145,
            "wrist_3_joint": 3.0906928834467795
        }
    },
    "waypoints": [
        {
            "positions": [
                0.12281154466712228,
                -1.13948474672311,
                1.97154746011099,
                -0.7804688027058302,
                0.12958655903071145,
                3.0906928834467795
            ]
        },
        {
            "positions": [
                0.057514178174808014,
                -1.1729906365651213,
                2.03628740204562,
                -0.816733923188394,
                0.289162127342733,
                3.1061121522043615
            ]
        },
        {
            "positions": [
                -0.007783188317506254,
                -1.2064965264071326,
                2.10102734398025,
                -0.8529990436709577,
                0.4487376956547545,
                3.121531420961944
            ]
        },
        {
            "positions": [
                -0.07308055480982052,
                -1.2400024162491439,
                2.16576728591488,
                -0.8892641641535215,
                0.6083132639667761,
                3.136950689719526
            ]
        },
        {
            "positions": [
                -0.13837792130213478,
                -1.2735083060911552,
                2.23050722784951,
                -0.9255292846360852,
                0.7678888322787977,
                3.152369958477108
            ]
        },
        {
            "positions": [
                -0.2036752877944491,
                -1.3070141959331667,
                2.2952471697841403,
                -0.961794405118649,
                0.9274644005908192,
                3.16778922723469
            ]
        },
        {
            "positions": [
                -0.2689726542867633,
                -1.340520085775178,
                2.35998711171877,
                -0.9980595256012127,
                1.0870399689028407,
                3.1832084959922726
            ]
        },
        {
            "positions": [
                -0.33427002077907764,
                -1.3740259756171893,
                2.4247270536534002,
                -1.0343246460837765,
                1.2466155372148624,
                3.1986277647498547
            ]
        }
    ]
}{
    "goal": {
        "global_pose": {
            "orientation": {
                "w": 0.5084816217422485,
                "x": -0.49083608388900757,
                "y": 0.5182115435600281,
                "z": -0.4816462993621826
            },
            "position": {
                "x": 0.5540239810943604,
                "y": 0.030875300988554955,
                "z": 0.16403168439865112
            }
        },
        "name": "move_to_storage_A"
    },
    "id": "PRM_move_to_storage_A_95",
    "joint_names": [
        "shoulder_pan_joint",
        "shoulder_lift_joint",
        "elbow_joint",
        "wrist_1_joint",
        "wrist_2_joint",
        "wrist_3_joint"
    ],
    "metrics": {
        "cart_traj_len": 0.3525874984927125,
        "distance_elbow_joint": 0.4528501904904303,
        "distance_shoulder_lift_joint": 0.23449209129854665,
        "distance_shoulder_pan_joint": 0.4588342553613904,
        "distance_wrist_1_joint": 0.2545179673589657,
        "distance_wrist_2_joint": 1.1078651378016962,
        "distance_wrist_3_joint": 0.09833670239926073,
        "smoothness": 2.2204460668324854e-16,
        "time": 0.023695398,
        "traj_len": 1.614588599213524,
        "weighted_distance": 2.0410665973136384
    },
    "planner": "PRM",
    "start": {
        "state": {
            "elbow_joint": 1.9715472970024885,
            "shoulder_lift_joint": -1.1394870060712896,
            "shoulder_pan_joint": 0.12281152778156021,
            "wrist_1_joint": -0.780463741449964,
            "wrist_2_joint": 0.12958659822042276,
            "wrist_3_joint": 3.090690232415272
        }
    },
    "waypoints": [
        {
            "positions": [
                0.12281152778156021,
                -1.1394870060712896,
                1.9715472970024885,
                -0.780463741449964,
                0.12958659822042276,
                3.090690232415272
            ]
        },
        {
            "positions": [
                0.057263777015647305,
                -1.1729858762567962,
                2.0362401813582642,
                -0.8168234510726734,
                0.2878530464778079,
                3.1047383327580236
            ]
        },
        {
            "positions": [
                -0.0082839737502656,
                -1.206484746442303,
                2.10093306571404,
                -0.8531831606953828,
                0.4461194947351931,
                3.118786433100775
            ]
        },
        {
            "positions": [
                -0.0738317245161785,
                -1.2399836166278095,
                2.1656259500698156,
                -0.8895428703180921,
                0.6043859429925782,
                3.1328345334435266
            ]
        },
        {
            "positions": [
                -0.1393794752820914,
                -1.2734824868133163,
                2.2303188344255913,
                -0.9259025799408015,
                0.7626523912499633,
                3.146882633786278
            ]
        },
        {
            "positions": [
                -0.2049272260480043,
                -1.306981356998823,
                2.2950117187813674,
                -0.9622622895635109,
                0.9209188395073485,
                3.1609307341290296
            ]
        },
        {
            "positions": [
                -0.2704749768139172,
                -1.3404802271843295,
                2.359704603137143,
                -0.9986219991862203,
                1.0791852877647337,
                3.174978834471781
            ]
        },
        {
            "positions": [
                -0.33602272757983015,
                -1.3739790973698363,
                2.424397487492919,
                -1.0349817088089297,
                1.2374517360221189,
                3.1890269348145326
            ]
        }
    ]
}