{
    "goal": {
        "global_pose": {
            "orientation": {
                "w": 0.5084816217422485,
                "x": -0.49083608388900757,
                "y": 0.5182115435600281,
                "z": -0.4816462993621826
            },
            "position": {
                "x": 0.5540239810943604,
                "y": 0.030875300988554955,
                "z": 0.16403168439865112
            }
        },
        "name": "move_to_storage_A"
    },
    "id": "PRM_move_to_storage_A_59",
    "joint_names": [
        "shoulder_pan_joint",
        "shoulder_lift_joint",
        "elbow_joint",
        "wrist_1_joint",
        "wrist_2_joint",
        "wrist_3_joint"
    ],
    "metrics": {
        "cart_traj_len": 0.35254332144186995,
        "distance_elbow_joint": 0.45067638466908755,
        "distance_shoulder_lift_joint": 0.23566481834735975,
        "distance_shoulder_pan_joint": 0.45804013617104933,
        "distance_wrist_1_joint": 0.24499158044029368,
        "distance_wrist_2_joint": 1.111173199008888,
        "distance_wrist_3_joint": 0.10339744417623331,
        "smoothness": 6.661338200497456e-16,
        "time": 0.029812101,
        "traj_len": 1.6136739332383452,
        "weighted_distance": 2.0412993975932485
    },
    "planner": "PRM",
    "start": {
        "state": {
            "elbow_joint": 1.971548259319323,
            "shoulder_lift_joint": -1.1394851275133948,
            "shoulder_pan_joint": 0.1228115487234821,
            "wrist_1_joint": -0.7804723859257726,
            "wrist_2_joint": 0.12958671773740124,
            "wrist_3_joint": -3.192489227718131
        }
    },
    "waypoints": [
        {
            "positions": [
                0.1228115487234821,
                -1.1394851275133948,
                1.971548259319323,
                -0.7804723859257726,
                0.12958671773740124,
                -3.192489227718131
            ]
        },
        {
            "positions": [
                0.05737724355618934,
                -1.1731515301344462,
                2.0359305999863353,
                -0.8154711831315289,
                0.2883257461672424,
                -3.1777181642643835
            ]
        },
        {
            "positions": [
                -0.008057061611103422,
                -1.2068179327554975,
                2.100312940653348,
                -0.850469980337285,
                0.4470647745970835,
                -3.162947100810636
            ]
        },
        {
            "positions": [
                -0.07349136677839618,
                -1.240484335376549,
                2.1646952813203604,
                -0.8854687775430413,
                0.6058038030269246,
                -3.148176037356888
            ]
        },
        {
            "positions": [
                -0.13892567194568894,
                -1.2741507379976005,
                2.229077621987373,
                -0.9204675747487976,
                0.7645428314567658,
                -3.133404973903141
            ]
        },
        {
            "positions": [
                -0.2043599771129817,
                -1.3078171406186518,
                2.2934599626543855,
                -0.9554663719545538,
                0.923281859886607,
                -3.118633910449393
            ]
        },
        {
            "positions": [
                -0.26979428228027447,
                -1.3414835432397032,
                2.357842303321398,
                -0.99046516916031,
                1.082020888316448,
                -3.1038628469956455
            ]
        },
        {
            "positions": [
                -0.33522858744756723,
                -1.3751499458607546,
                2.4222246439884105,
                -1.0254639663660663,
                1.2407599167462893,
                -3.089091783541898
            ]
        }
    ]
}{
    "goal": {
        "global_pose": {
            "orientation": {
                "w": 0.5084816217422485,
                "x": -0.49083608388900757,
                "y": 0.5182115435600281,
                "z": -0.4816462993621826
            },
            "position": {
                "x": 0.5540239810943604,
                "y": 0.030875300988554955,
                "z": 0.16403168439865112
            }
        },
        "name": "move_to_storage_A"
    },
    "id": "PRM_move_to_storage_A_59",
    "joint_names": [
        "shoulder_pan_joint",
        "shoulder_lift_joint",
        "elbow_joint",
        "wrist_1_joint",
        "wrist_2_joint",
        "wrist_3_joint"
    ],
    "metrics": {
        "cart_traj_len": 0.35383236323388767,
        "distance_elbow_joint": 0.4519480881118345,
        "distance_shoulder_lift_joint": 0.23414728871862645,
        "distance_shoulder_pan_joint": 0.4610880413134301,
        "distance_wrist_1_joint": 0.2560493321221058,
        "distance_wrist_2_joint": 1.1067552015088673,
        "distance_wrist_3_joint": 0.10435037479116449,
        "smoothness": 0.0,
        "time": 0.017687828000000003,
        "traj_len": 1.6168915630202383,
        "weighted_distance": 2.0459334323920046
    },
    "planner": "PRM",
    "start": {
        "state": {
            "elbow_joint": 1.97154746011099,
            "shoulder_lift_joint": -1.13948474672311,
            "shoulder_pan_joint": 0.12281154466712228,
            "wrist_1_joint": -0.7804688027058302,
            "wrist_2_joint": 0.12958655903071145,
            "wrist_3_joint": 3.0906928834467795
        }
    },
    "waypoints": [
        {
            "positions": [
                0.12281154466712228,
                -1.13948474672311,
                1.97154746011099,
                -0.7804688027058302,
                0.12958655903071145,
                3.0906928834467795
            ]
        },
        {
            "positions": [
                0.05694182447948941,
                -1.1729343593971995,
                2.0361114726983947,
                -0.8170472787232739,
                0.28769444496054963,
                3.1056000798455172
            ]
        },
        {
            "positions": [
                -0.008927895708143466,
                -1.206383972071289,
                2.1006754852858,
                -0.8536257547407176,
                0.4458023308903878,
                3.120507276244255
            ]
        },
        {
            "positions": [
                -0.07479761589577634,
                -1.2398335847453785,
                2.1652394978732046,
                -0.8902042307581612,
                0.6039102168202259,
                3.1354144726429927
            ]
        },
        {
            "positions": [
                -0.1406673360834092,
                -1.2732831974194678,
                2.2298035104606098,
                -0.9267827067756049,
                0.7620181027500642,
                3.150321669041731
            ]
        },
        {
            "positions": [
                -0.20653705627104207,
                -1.3067328100935574,
                2.2943675230480145,
                -0.9633611827930486,
                0.9201259886799025,
                3.1652288654404686
            ]
        },
        {
            "positions": [
                -0.27240677645867495,
                -1.3401824227676469,
                2.3589315356354197,
                -0.9999396588104923,
                1.0782338746097404,
                3.1801360618392063
            ]
        },
        {
            "positions": [
                -0.3382764966463078,
                -1.3736320354417364,
                2.4234955482228244,
                -1.036518134827936,
                1.2363417605395788,
                3.195043258237944
            ]
        }
    ]
}{
    "goal": {
        "global_pose": {
            "orientation": {
                "w": 0.5084816217422485,
                "x": -0.49083608388900757,
                "y": 0.5182115435600281,
                "z": -0.4816462993621826
            },
            "position": {
                "x": 0.5540239810943604,
                "y": 0.030875300988554955,
                "z": 0.16403168439865112
            }
        },
        "name": "move_to_storage_A"
    },
    "id": "PRM_move_to_storage_A_59",
    "joint_names": [
        "shoulder_pan_joint",
        "shoulder_lift_joint",
        "elbow_joint",
        "wrist_1_joint",
        "wrist_2_joint",
        "wrist_3_joint"
    ],
    "metrics": {
        "cart_traj_len": 0.3534578522121317,
        "distance_elbow_joint": 0.4484140967878161,
        "distance_shoulder_lift_joint": 0.23710114269766946,
        "distance_shoulder_pan_joint": 0.45991917744594774,
        "distance_wrist_1_joint": 0.23225785002938681,
        "distance_wrist_2_joint": 1.1105157309795333,
        "distance_wrist_3_joint": 0.09923983140316395,
        "smoothness": 7.771561204992932e-16,
        "time": 0.01260972,
        "traj_len": 1.6085545776701258,
        "weighted_distance": 2.031920538101519
    },
    "planner": "PRM",
    "start": {
        "state": {
            "elbow_joint": 1.9715472970024885,
            "shoulder_lift_joint": -1.1394870060712896,
            "shoulder_pan_joint": 0.12281152778156021,
            "wrist_1_joint": -0.780463741449964,
            "wrist_2_joint": 0.12958659822042276,
            "wrist_3_joint": 3.090690232415272
        }
    },
    "waypoints": [
        {
            "positions": [
                0.12281152778156021,
                -1.1394870060712896,
                1.9715472970024885,
                -0.780463741449964,
                0.12958659822042276,
                3.090690232415272
            ]
        },
        {
            "positions": [
                0.057108788146424824,
                -1.1733585978852423,
                2.035606453686462,
                -0.8136434343113049,
                0.28823170264607034,
                3.1048673511871523
            ]
        },
        {
            "positions": [
                -0.00859395148871056,
                -1.2072301896991953,
                2.099665610370436,
                -0.846823127172646,
                0.44687680707171795,
                3.119044469959033
            ]
        },
        {
            "positions": [
                -0.07429669112384593,
                -1.241101781513148,
                2.1637247670544095,
                -0.8800028200339869,
                0.6055219114973656,
                3.1332215887309136
            ]
        },
        {
            "positions": [
                -0.13999943075898133,
                -1.2749733733271007,
                2.227783923738383,
                -0.9131825128953279,
                0.7641670159230132,
                3.147398707502794
            ]
        },
        {
            "positions": [
                -0.20570217039411673,
                -1.3088449651410534,
                2.2918430804223573,
                -0.9463622057566689,
                0.9228121203486608,
                3.1615758262746745
            ]
        },
        {
            "positions": [
                -0.27140491002925204,
                -1.3427165569550064,
                2.355902237106331,
                -0.9795418986180098,
                1.0814572247743084,
                3.1757529450465554
            ]
        },
        {
            "positions": [
                -0.3371076496643875,
                -1.376588148768959,
                2.4199613937903046,
                -1.0127215914793508,
                1.240102329199956,
                3.189930063818436
            ]
        }
    ]
}