{
    "goal": {
        "global_pose": {
            "orientation": {
                "w": 0.005598929693374612,
                "x": 0.007748599140229565,
                "y": 0.7110244013736278,
                "z": -0.7031023480610252
            },
            "position": {
                "x": 0.1141497679147869,
                "y": -0.7141253447532654,
                "z": 0.3711530566215515
            }
        },
        "name": "move_to_auspresseinheit_B"
    },
    "id": "PRM_move_to_auspresseinheit_B_108",
    "joint_names": [
        "shoulder_pan_joint",
        "shoulder_lift_joint",
        "elbow_joint",
        "wrist_1_joint",
        "wrist_2_joint",
        "wrist_3_joint"
    ],
    "metrics": {
        "cart_traj_len": 0.5650040326961102,
        "distance_elbow_joint": 0.06629046105923853,
        "distance_shoulder_lift_joint": 0.2938463721501581,
        "distance_shoulder_pan_joint": 0.5778345488978411,
        "distance_wrist_1_joint": 0.33794374700093566,
        "distance_wrist_2_joint": 0.9887144658401925,
        "distance_wrist_3_joint": 0.00020733302664943665,
        "smoothness": 2.5376526478085547e-16,
        "time": 0.024165635999999997,
        "traj_len": 1.5049375163025924,
        "weighted_distance": 1.8952334438979919
    },
    "planner": "PRM",
    "start": {
        "state": {
            "elbow_joint": 2.0193083361928714,
            "shoulder_lift_joint": -1.1220246554650708,
            "shoulder_pan_joint": -1.0952077554168747,
            "wrist_1_joint": -0.8559753972642168,
            "wrist_2_joint": 0.4759566250798843,
            "wrist_3_joint": -3.1240929996934557
        }
    },
    "waypoints": [
        {
            "positions": [
                -1.0952077554168747,
                -1.1220246554650708,
                2.0193083361928714,
                -0.8559753972642168,
                0.4759566250798843,
                -3.1240929996934557
            ]
        },
        {
            "positions": [
                -1.191513513566515,
                -1.1709990508234305,
                2.008259926016332,
                -0.7996514394307275,
                0.640742369386583,
                -3.124127555197897
            ]
        },
        {
            "positions": [
                -1.287819271716155,
                -1.2199734461817902,
                1.9972115158397918,
                -0.7433274815972383,
                0.8055281136932817,
                -3.124162110702339
            ]
        },
        {
            "positions": [
                -1.3841250298657952,
                -1.2689478415401498,
                1.9861631056632523,
                -0.687003523763749,
                0.9703138579999806,
                -3.1241966662067804
            ]
        },
        {
            "positions": [
                -1.4804307880154353,
                -1.3179222368985095,
                1.9751146954867125,
                -0.6306795659302598,
                1.1350996023066793,
                -3.124231221711222
            ]
        },
        {
            "positions": [
                -1.5767365461650757,
                -1.3668966322568692,
                1.9640662853101727,
                -0.5743556080967704,
                1.2998853466133782,
                -3.1242657772156637
            ]
        },
        {
            "positions": [
                -1.6730423043147158,
                -1.4158710276152289,
                1.953017875133633,
                -0.5180316502632811,
                1.4646710909200769,
                -3.124300332720105
            ]
        }
    ]
}