{
    "goal": {
        "global_pose": {
            "orientation": {
                "w": 0.7047431493862688,
                "x": -0.7094548369677653,
                "y": 0.0024358444001904,
                "z": -0.0022348060817251984
            },
            "position": {
                "x": -0.39052492380142206,
                "y": 0.3671506643295288,
                "z": 0.19426114857196808
            }
        },
        "name": "move_to_magneteinheit_D"
    },
    "id": "PRM_move_to_magneteinheit_D_25",
    "joint_names": [
        "shoulder_pan_joint",
        "shoulder_lift_joint",
        "elbow_joint",
        "wrist_1_joint",
        "wrist_2_joint",
        "wrist_3_joint"
    ],
    "metrics": {
        "cart_traj_len": 4.730258288920121,
        "distance_elbow_joint": 3.127511509296223,
        "distance_shoulder_lift_joint": 1.094197599481326,
        "distance_shoulder_pan_joint": 4.436618881583423,
        "distance_wrist_1_joint": 2.626144578171632,
        "distance_wrist_2_joint": 2.438977542821675,
        "distance_wrist_3_joint": 6.579562242381831,
        "smoothness": 0.4193156180514966,
        "time": 0.297850023,
        "traj_len": 4.5058864115439174,
        "weighted_distance": 6.2070330238764715
    },
    "planner": "PRM",
    "start": {
        "state": {
            "elbow_joint": 0.749534889911806,
            "shoulder_lift_joint": -0.6476975780787326,
            "shoulder_pan_joint": -2.711696901376241,
            "wrist_1_joint": -0.07506478083263063,
            "wrist_2_joint": 0.43296659715538205,
            "wrist_3_joint": -3.14703540197715
        }
    },
    "waypoints": [
        {
            "positions": [
                -2.711696901376241,
                -0.6476975780787326,
                0.749534889911806,
                -0.07506478083263063,
                0.43296659715538205,
                -3.14703540197715
            ]
        },
        {
            "positions": [
                -2.7577443184761257,
                -0.7104002133938936,
                0.6280849664494377,
                0.014536068004873809,
                0.4097771288858941,
                -3.1797458506740552
            ]
        },
        {
            "positions": [
                -2.8037917355760107,
                -0.7731028487090545,
                0.5066350429870694,
                0.10413691684237825,
                0.3865876606164062,
                -3.21245629937096
            ]
        },
        {
            "positions": [
                -2.8498391526758953,
                -0.8358054840242156,
                0.385185119524701,
                0.19373776567988268,
                0.3633981923469183,
                -3.245166748067865
            ]
        },
        {
            "positions": [
                -2.7688720302091783,
                -0.849745238488023,
                0.32106066412439893,
                0.14630118384149737,
                0.32949501575569295,
                -3.095646712191372
            ]
        },
        {
            "positions": [
                -2.6879049077424617,
                -0.8636849929518304,
                0.2569362087240969,
                0.09886460200311208,
                0.29559183916446763,
                -2.946126676314879
            ]
        },
        {
            "positions": [
                -2.606937785275745,
                -0.8776247474156378,
                0.19281175332379483,
                0.05142802016472678,
                0.2616886625732423,
                -2.7966066404383856
            ]
        },
        {
            "positions": [
                -2.525970662809028,
                -0.8915645018794452,
                0.12868729792349276,
                0.003991438326341468,
                0.22778548598201695,
                -2.6470866045618924
            ]
        },
        {
            "positions": [
                -2.445003540342311,
                -0.9055042563432526,
                0.06456284252319072,
                -0.04344514351204384,
                0.19388230939079162,
                -2.497566568685399
            ]
        },
        {
            "positions": [
                -2.3640364178755946,
                -0.91944401080706,
                0.00043838712288862824,
                -0.09088172535042913,
                0.15997913279956627,
                -2.348046532808906
            ]
        },
        {
            "positions": [
                -2.2830692954088776,
                -0.9333837652708674,
                -0.06368606827741347,
                -0.13831830718881447,
                0.12607595620834092,
                -2.1985264969324128
            ]
        },
        {
            "positions": [
                -2.202102172942161,
                -0.9473235197346748,
                -0.1278105236777155,
                -0.18575488902719975,
                0.09217277961711562,
                -2.0490064610559195
            ]
        },
        {
            "positions": [
                -2.121135050475444,
                -0.9612632741984821,
                -0.1919349790780176,
                -0.2331914708655851,
                0.05826960302589024,
                -1.8994864251794263
            ]
        },
        {
            "positions": [
                -2.0401679280087275,
                -0.9752030286622896,
                -0.2560594344783196,
                -0.2806280527039704,
                0.024366426434664967,
                -1.7499663893029334
            ]
        },
        {
            "positions": [
                -1.9592008055420105,
                -0.989142783126097,
                -0.3201838898786217,
                -0.3280646345423557,
                -0.009536750156560414,
                -1.60044635342644
            ]
        },
        {
            "positions": [
                -1.878233683075294,
                -1.0030825375899044,
                -0.38430834527892377,
                -0.37550121638074097,
                -0.04343992674778574,
                -1.450926317549947
            ]
        },
        {
            "positions": [
                -1.7972665606085771,
                -1.0170222920537118,
                -0.44843280067922575,
                -0.42293779821912625,
                -0.07734310333901101,
                -1.3014062816734537
            ]
        },
        {
            "positions": [
                -1.7162994381418601,
                -1.030962046517519,
                -0.512557256079528,
                -0.47037438005751164,
                -0.11124627993023645,
                -1.1518862457969603
            ]
        },
        {
            "positions": [
                -1.6353323156751436,
                -1.0449018009813265,
                -0.5766817114798299,
                -0.5178109618958969,
                -0.14514945652146172,
                -1.002366209920467
            ]
        },
        {
            "positions": [
                -1.5543651932084268,
                -1.058841555445134,
                -0.640806166880132,
                -0.5652475437342822,
                -0.17905263311268704,
                -0.8528461740439739
            ]
        },
        {
            "positions": [
                -1.47339807074171,
                -1.0727813099089414,
                -0.704930622280434,
                -0.6126841255726675,
                -0.21295580970391237,
                -0.7033261381674811
            ]
        },
        {
            "positions": [
                -1.392430948274993,
                -1.0867210643727487,
                -0.7690550776807362,
                -0.6601207074110529,
                -0.2468589862951378,
                -0.5538061022909875
            ]
        },
        {
            "positions": [
                -1.3114638258082763,
                -1.100660818836556,
                -0.8331795330810382,
                -0.7075572892494382,
                -0.280762162886363,
                -0.40428606641449427
            ]
        },
        {
            "positions": [
                -1.2304967033415597,
                -1.1146005733003634,
                -0.8973039884813402,
                -0.7549938710878235,
                -0.31466533947758835,
                -0.2547660305380015
            ]
        },
        {
            "positions": [
                -1.149529580874843,
                -1.128540327764171,
                -0.9614284438816424,
                -0.8024304529262087,
                -0.34856851606881367,
                -0.1052459946615083
            ]
        },
        {
            "positions": [
                -1.068562458408126,
                -1.1424800822279784,
                -1.0255528992819443,
                -0.849867034764594,
                -0.3824716926600391,
                0.04427404121498535
            ]
        },
        {
            "positions": [
                -0.9875953359414094,
                -1.1564198366917857,
                -1.0896773546822462,
                -0.8973036166029793,
                -0.4163748692512643,
                0.1937940770914781
            ]
        },
        {
            "positions": [
                -0.9066282134746926,
                -1.170359591155593,
                -1.1538018100825487,
                -0.9447401984413646,
                -0.45027804584248976,
                0.3433141129679713
            ]
        },
        {
            "positions": [
                -0.8256610910079756,
                -1.1842993456194004,
                -1.2179262654828507,
                -0.9921767802797501,
                -0.4841812224337151,
                0.49283414884446497
            ]
        },
        {
            "positions": [
                -0.744693968541259,
                -1.198239100083208,
                -1.2820507208831526,
                -1.0396133621181352,
                -0.5180843990249403,
                0.6423541847209577
            ]
        },
        {
            "positions": [
                -0.663726846074542,
                -1.2121788545470153,
                -1.3461751762834546,
                -1.0870499439565207,
                -0.5519875756161657,
                0.7918742205974509
            ]
        },
        {
            "positions": [
                -0.582759723607825,
                -1.2261186090108227,
                -1.410299631683757,
                -1.134486525794906,
                -0.5858907522073912,
                0.9413942564739446
            ]
        },
        {
            "positions": [
                -0.5017926011411085,
                -1.24005836347463,
                -1.474424087084059,
                -1.181923107633291,
                -0.6197939287986164,
                1.0909142923504374
            ]
        },
        {
            "positions": [
                -0.4208254786743919,
                -1.2539981179384374,
                -1.538548542484361,
                -1.2293596894716765,
                -0.6536971053898417,
                1.240434328226931
            ]
        },
        {
            "positions": [
                -0.33985835620767535,
                -1.267937872402245,
                -1.602672997884663,
                -1.2767962713100616,
                -0.6876002819810669,
                1.3899543641034238
            ]
        },
        {
            "positions": [
                -0.25889123374095835,
                -1.2818776268660523,
                -1.666797453284965,
                -1.324232853148447,
                -0.7215034585722924,
                1.5394743999799174
            ]
        },
        {
            "positions": [
                -0.17792411127424135,
                -1.2958173813298597,
                -1.730921908685267,
                -1.3716694349868324,
                -0.7554066351635178,
                1.6889944358564102
            ]
        },
        {
            "positions": [
                -0.09695698880752479,
                -1.309757135793667,
                -1.795046364085569,
                -1.4191060168252176,
                -0.789309811754743,
                1.838514471732903
            ]
        },
        {
            "positions": [
                -0.01598986634080779,
                -1.3236968902574744,
                -1.8591708194858714,
                -1.466542598663603,
                -0.8232129883459685,
                1.9880345076093966
            ]
        },
        {
            "positions": [
                0.06497725612590921,
                -1.337636644721282,
                -1.9232952748861734,
                -1.5139791805019884,
                -0.8571161649371939,
                2.1375545434858902
            ]
        },
        {
            "positions": [
                0.14594437859262577,
                -1.351576399185089,
                -1.9874197302864753,
                -1.5614157623403735,
                -0.8910193415284191,
                2.287074579362383
            ]
        },
        {
            "positions": [
                0.22691150105934277,
                -1.3655161536488967,
                -2.0515441856867773,
                -1.608852344178759,
                -0.9249225181196443,
                2.4365946152388767
            ]
        },
        {
            "positions": [
                0.3078786235260593,
                -1.379455908112704,
                -2.1156686410870793,
                -1.656288926017144,
                -0.9588256947108698,
                2.5861146511153694
            ]
        },
        {
            "positions": [
                0.3888457459927759,
                -1.3933956625765114,
                -2.1797930964873813,
                -1.7037255078555296,
                -0.992728871302095,
                2.735634686991862
            ]
        },
        {
            "positions": [
                0.4698128684594929,
                -1.407335417040319,
                -2.2439175518876837,
                -1.7511620896939148,
                -1.0266320478933204,
                2.885154722868356
            ]
        },
        {
            "positions": [
                0.5507799909262094,
                -1.421275171504126,
                -2.3080420072879857,
                -1.7985986715323001,
                -1.0605352244845456,
                3.0346747587448486
            ]
        },
        {
            "positions": [
                0.6317471133929264,
                -1.4352149259679337,
                -2.3721664626882877,
                -1.8460352533706854,
                -1.094438401075771,
                3.184194794621342
            ]
        },
        {
            "positions": [
                0.5150484899336483,
                -1.4790263904810943,
                -2.3713364403031263,
                -1.8914022551719067,
                -0.9642137518485535,
                3.176756315535355
            ]
        },
        {
            "positions": [
                0.39834986647437015,
                -1.5228378549942552,
                -2.370506417917965,
                -1.9367692569731283,
                -0.833989102621336,
                3.1693178364493684
            ]
        },
        {
            "positions": [
                0.281651243015092,
                -1.5666493195074158,
                -2.3696763955328035,
                -1.9821362587743496,
                -0.7037644533941185,
                3.1618793573633814
            ]
        },
        {
            "positions": [
                0.16495261955581386,
                -1.6104607840205765,
                -2.368846373147642,
                -2.027503260575571,
                -0.573539804166901,
                3.1544408782773945
            ]
        },
        {
            "positions": [
                0.04825399609653569,
                -1.6542722485337373,
                -2.3680163507624807,
                -2.0728702623767927,
                -0.44331515493968343,
                3.1470023991914076
            ]
        },
        {
            "positions": [
                -0.06844462736274248,
                -1.698083713046898,
                -2.3671863283773193,
                -2.118237264178014,
                -0.3130905057124659,
                3.139563920105421
            ]
        },
        {
            "positions": [
                -0.18514325082202068,
                -1.7418951775600586,
                -2.366356305992158,
                -2.1636042659792354,
                -0.18286585648524836,
                3.132125441019434
            ]
        }
    ]
}