{
    "goal": {
        "global_pose": {
            "orientation": {
                "w": 0.005598929693374612,
                "x": 0.007748599140229565,
                "y": 0.7110244013736278,
                "z": -0.7031023480610252
            },
            "position": {
                "x": 0.1141497679147869,
                "y": -0.7141253447532654,
                "z": 0.3711530566215515
            }
        },
        "name": "move_to_auspresseinheit_B"
    },
    "id": "PRM_move_to_auspresseinheit_B_103",
    "joint_names": [
        "shoulder_pan_joint",
        "shoulder_lift_joint",
        "elbow_joint",
        "wrist_1_joint",
        "wrist_2_joint",
        "wrist_3_joint"
    ],
    "metrics": {
        "cart_traj_len": 0.5643092988065544,
        "distance_elbow_joint": 0.06410709143145366,
        "distance_shoulder_lift_joint": 0.2939485187732971,
        "distance_shoulder_pan_joint": 0.5767265277090072,
        "distance_wrist_1_joint": 0.33155506012449376,
        "distance_wrist_2_joint": 0.9919612950929342,
        "distance_wrist_3_joint": 0.00938039954479919,
        "smoothness": 5.075305255429287e-16,
        "time": 0.029007092,
        "traj_len": 1.5058814338041309,
        "weighted_distance": 1.899988433381375
    },
    "planner": "PRM",
    "start": {
        "state": {
            "elbow_joint": 2.0193083361928714,
            "shoulder_lift_joint": -1.1220246554650708,
            "shoulder_pan_joint": -1.0952077554168747,
            "wrist_1_joint": -0.8559753972642168,
            "wrist_2_joint": 0.4759566250798843,
            "wrist_3_joint": -3.1240929996934557
        }
    },
    "waypoints": [
        {
            "positions": [
                -1.0952077554168747,
                -1.1220246554650708,
                2.0193083361928714,
                -0.8559753972642168,
                0.4759566250798843,
                -3.1240929996934557
            ]
        },
        {
            "positions": [
                -1.191328843368376,
                -1.1710160752606202,
                2.0086238209542957,
                -0.8007162205768011,
                0.6412835075953733,
                -3.1225295997693223
            ]
        },
        {
            "positions": [
                -1.287449931319877,
                -1.22000749505617,
                1.9979393057157202,
                -0.7454570438893855,
                0.8066103901108623,
                -3.1209661998451894
            ]
        },
        {
            "positions": [
                -1.3835710192713782,
                -1.2689989148517193,
                1.9872547904771447,
                -0.69019786720197,
                0.9719372726263513,
                -3.119402799921056
            ]
        },
        {
            "positions": [
                -1.4796921072228795,
                -1.3179903346472688,
                1.976570275238569,
                -0.6349386905145543,
                1.1372641551418403,
                -3.1178393999969227
            ]
        },
        {
            "positions": [
                -1.5758131951743808,
                -1.3669817544428184,
                1.9658857599999933,
                -0.5796795138271387,
                1.3025910376573295,
                -3.11627600007279
            ]
        },
        {
            "positions": [
                -1.6719342831258819,
                -1.4159731742383679,
                1.9552012447614178,
                -0.524420337139723,
                1.4679179201728185,
                -3.1147126001486565
            ]
        }
    ]
}