{
    "goal": {
        "global_pose": {
            "orientation": {
                "w": -0.00223480608172531,
                "x": 0.0024358444001904467,
                "y": 0.7094548369677653,
                "z": -0.704743149386269
            },
            "position": {
                "x": -0.37947507619857795,
                "y": -0.6371506643295288,
                "z": 0.19426114857196808
            }
        },
        "name": "move_to_magneteinheit_C"
    },
    "id": "PRM_move_to_magneteinheit_C_59",
    "joint_names": [
        "shoulder_pan_joint",
        "shoulder_lift_joint",
        "elbow_joint",
        "wrist_1_joint",
        "wrist_2_joint",
        "wrist_3_joint"
    ],
    "metrics": {
        "cart_traj_len": 4.1737868586797475,
        "distance_elbow_joint": 3.575791830908435,
        "distance_shoulder_lift_joint": 1.905812104806651,
        "distance_shoulder_pan_joint": 3.901474872323572,
        "distance_wrist_1_joint": 4.634591879473188,
        "distance_wrist_2_joint": 4.5437437988819545,
        "distance_wrist_3_joint": 1.730109392885757,
        "smoothness": 1.002428236979689,
        "time": 0.42891484599999996,
        "traj_len": 4.504611401583889,
        "weighted_distance": 5.738473520319336
    },
    "planner": "PRM",
    "start": {
        "state": {
            "elbow_joint": 1.9565354010623817,
            "shoulder_lift_joint": -1.4165861575791021,
            "shoulder_pan_joint": -1.6717766225146293,
            "wrist_1_joint": -0.5286633292919765,
            "wrist_2_joint": 1.472756589071564,
            "wrist_3_joint": -3.1238370188695823
        }
    },
    "waypoints": [
        {
            "positions": [
                -1.6717766225146293,
                -1.4165861575791021,
                1.9565354010623817,
                -0.5286633292919765,
                1.472756589071564,
                -3.1238370188695823
            ]
        },
        {
            "positions": [
                -1.5905489882317845,
                -1.424502112948935,
                1.932029666507999,
                -0.5083076369333588,
                1.440584258160173,
                -3.1270055541883464
            ]
        },
        {
            "positions": [
                -1.5060646894815737,
                -1.4636003563815434,
                1.813535108329984,
                -0.5705559372154544,
                1.427153159067933,
                -3.0867429725896063
            ]
        },
        {
            "positions": [
                -1.4215803907313627,
                -1.5026985998141518,
                1.6950405501519688,
                -0.6328042374975501,
                1.413722059975693,
                -3.046480390990866
            ]
        },
        {
            "positions": [
                -1.3370960919811519,
                -1.5417968432467601,
                1.5765459919739537,
                -0.6950525377796457,
                1.4002909608834528,
                -3.0062178093921266
            ]
        },
        {
            "positions": [
                -1.2526117932309409,
                -1.5808950866793685,
                1.4580514337959385,
                -0.7573008380617413,
                1.3868598617912127,
                -2.9659552277933865
            ]
        },
        {
            "positions": [
                -1.16812749448073,
                -1.619993330111977,
                1.3395568756179235,
                -0.819549138343837,
                1.3734287626989727,
                -2.9256926461946464
            ]
        },
        {
            "positions": [
                -1.0836431957305193,
                -1.6590915735445855,
                1.2210623174399085,
                -0.8817974386259326,
                1.3599976636067326,
                -2.8854300645959063
            ]
        },
        {
            "positions": [
                -0.9991588969803082,
                -1.6981898169771938,
                1.1025677592618932,
                -0.9440457389080283,
                1.3465665645144924,
                -2.8451674829971667
            ]
        },
        {
            "positions": [
                -0.9146745982300973,
                -1.7372880604098022,
                0.9840732010838781,
                -1.0062940391901238,
                1.3331354654222525,
                -2.8049049013984266
            ]
        },
        {
            "positions": [
                -0.8301902994798864,
                -1.7763863038424106,
                0.8655786429058628,
                -1.0685423394722195,
                1.3197043663300123,
                -2.7646423197996866
            ]
        },
        {
            "positions": [
                -1.045717263319834,
                -1.775249610801272,
                0.943962465307147,
                -1.1093991510313665,
                1.3236810258482044,
                -2.7148289804939427
            ]
        },
        {
            "positions": [
                -1.2612442271597812,
                -1.7741129177601336,
                1.022346287708431,
                -1.1502559625905135,
                1.3276576853663962,
                -2.665015641188199
            ]
        },
        {
            "positions": [
                -1.4767711909997288,
                -1.7729762247189953,
                1.100730110109715,
                -1.1911127741496605,
                1.3316343448845882,
                -2.6152023018824555
            ]
        },
        {
            "positions": [
                -1.6922981548396763,
                -1.7718395316778568,
                1.1791139325109992,
                -1.2319695857088075,
                1.33561100440278,
                -2.5653889625767117
            ]
        },
        {
            "positions": [
                -1.9078251186796236,
                -1.7707028386367183,
                1.2574977549122834,
                -1.2728263972679548,
                1.339587663920972,
                -2.515575623270968
            ]
        },
        {
            "positions": [
                -2.123352082519571,
                -1.7695661455955798,
                1.3358815773135675,
                -1.3136832088271015,
                1.343564323439164,
                -2.465762283965224
            ]
        },
        {
            "positions": [
                -2.3388790463595184,
                -1.7684294525544413,
                1.4142653997148515,
                -1.3545400203862488,
                1.347540982957356,
                -2.4159489446594806
            ]
        },
        {
            "positions": [
                -2.554406010199466,
                -1.767292759513303,
                1.4926492221161358,
                -1.3953968319453958,
                1.351517642475548,
                -2.366135605353737
            ]
        },
        {
            "positions": [
                -2.7699329740394134,
                -1.7661560664721645,
                1.5710330445174199,
                -1.4362536435045428,
                1.3554943019937398,
                -2.316322266047993
            ]
        },
        {
            "positions": [
                -2.985459937879361,
                -1.765019373431026,
                1.649416866918704,
                -1.4771104550636898,
                1.3594709615119318,
                -2.266508926742249
            ]
        },
        {
            "positions": [
                -2.9964039654665764,
                -1.7056838570016053,
                1.6123146749777142,
                -1.3585515091535991,
                1.2195737272704352,
                -2.281400051965877
            ]
        },
        {
            "positions": [
                -3.0073479930537914,
                -1.6463483405721846,
                1.5752124830367245,
                -1.2399925632435083,
                1.0796764930289386,
                -2.2962911771895045
            ]
        },
        {
            "positions": [
                -3.018292020641007,
                -1.587012824142764,
                1.538110291095735,
                -1.1214336173334176,
                0.9397792587874418,
                -2.3111823024131324
            ]
        },
        {
            "positions": [
                -3.0292360482282223,
                -1.5276773077133432,
                1.5010080991547452,
                -1.002874671423327,
                0.7998820245459453,
                -2.32607342763676
            ]
        },
        {
            "positions": [
                -3.0401800758154374,
                -1.4683417912839225,
                1.4639059072137555,
                -0.8843157255132361,
                0.6599847903044485,
                -2.3409645528603877
            ]
        },
        {
            "positions": [
                -3.051124103402653,
                -1.4090062748545018,
                1.4268037152727657,
                -0.7657567796031455,
                0.5200875560629519,
                -2.3558556780840156
            ]
        },
        {
            "positions": [
                -3.0620681309898683,
                -1.349670758425081,
                1.3897015233317762,
                -0.6471978336930547,
                0.3801903218214552,
                -2.370746803307643
            ]
        },
        {
            "positions": [
                -3.0730121585770833,
                -1.2903352419956604,
                1.3525993313907865,
                -0.5286388877829641,
                0.2402930875799587,
                -2.385637928531271
            ]
        },
        {
            "positions": [
                -3.083956186164299,
                -1.2309997255662397,
                1.3154971394497967,
                -0.41007994187287333,
                0.1003958533384619,
                -2.400529053754899
            ]
        },
        {
            "positions": [
                -3.0949002137515143,
                -1.1716642091368188,
                1.278394947508807,
                -0.29152099596278247,
                -0.0395013809030349,
                -2.4154201789785263
            ]
        },
        {
            "positions": [
                -3.1058442413387293,
                -1.112328692707398,
                1.2412927555678173,
                -0.17296205005269183,
                -0.17939861514453148,
                -2.4303113042021542
            ]
        },
        {
            "positions": [
                -3.1167882689259447,
                -1.0529931762779774,
                1.2041905636268277,
                -0.05440310414260119,
                -0.31929584938602806,
                -2.4452024294257817
            ]
        },
        {
            "positions": [
                -3.12773229651316,
                -0.9936576598485568,
                1.167088371685838,
                0.06415584176748945,
                -0.45919308362752465,
                -2.4600935546494096
            ]
        },
        {
            "positions": [
                -3.1386763241003752,
                -0.934322143419136,
                1.1299861797448483,
                0.18271478767758031,
                -0.5990903178690214,
                -2.4749846798730375
            ]
        },
        {
            "positions": [
                -3.1496203516875907,
                -0.8749866269897153,
                1.0928839878038585,
                0.30127373358767096,
                -0.738987552110518,
                -2.489875805096665
            ]
        },
        {
            "positions": [
                -3.160564379274806,
                -0.8156511105602947,
                1.055781795862869,
                0.4198326794977616,
                -0.8788847863520144,
                -2.504766930320293
            ]
        },
        {
            "positions": [
                -3.171508406862021,
                -0.7563155941308739,
                1.0186796039218793,
                0.5383916254078522,
                -1.0187820205935112,
                -2.5196580555439203
            ]
        },
        {
            "positions": [
                -3.1824524344492366,
                -0.6969800777014532,
                0.9815774119808895,
                0.6569505713179433,
                -1.1586792548350082,
                -2.534549180767548
            ]
        },
        {
            "positions": [
                -3.1382257835542693,
                -0.7261429359766022,
                1.0461497490934686,
                0.5624897999052806,
                -1.0441308320467868,
                -2.571949429273523
            ]
        },
        {
            "positions": [
                -3.093999132659302,
                -0.7553057942517512,
                1.1107220862060476,
                0.46802902849261785,
                -0.9295824092585656,
                -2.6093496777794978
            ]
        },
        {
            "positions": [
                -3.0497724817643346,
                -0.7844686525269001,
                1.1752944233186264,
                0.3735682570799551,
                -0.8150339864703442,
                -2.6467499262854726
            ]
        },
        {
            "positions": [
                -3.0055458308693668,
                -0.8136315108020491,
                1.2398667604312055,
                0.2791074856672924,
                -0.7004855636821229,
                -2.6841501747914474
            ]
        },
        {
            "positions": [
                -2.9613191799743994,
                -0.8427943690771982,
                1.3044390975437845,
                0.18464671425462964,
                -0.5859371408939016,
                -2.721550423297422
            ]
        },
        {
            "positions": [
                -2.917092529079432,
                -0.8719572273523472,
                1.3690114346563633,
                0.0901859428419669,
                -0.47138871810568017,
                -2.758950671803397
            ]
        },
        {
            "positions": [
                -2.8728658781844647,
                -0.9011200856274961,
                1.4335837717689424,
                -0.004274828570695832,
                -0.35684029531745887,
                -2.7963509203093717
            ]
        },
        {
            "positions": [
                -2.8286392272894973,
                -0.9302829439026451,
                1.4981561088815214,
                -0.09873559998335857,
                -0.24229187252923756,
                -2.8337511688153465
            ]
        },
        {
            "positions": [
                -2.78441257639453,
                -0.9594458021777941,
                1.5627284459941004,
                -0.1931963713960213,
                -0.12774344974101615,
                -2.8711514173213213
            ]
        },
        {
            "positions": [
                -2.7401859254995626,
                -0.988608660452943,
                1.6273007831066795,
                -0.28765714280868404,
                -0.013195026952794953,
                -2.908551665827296
            ]
        },
        {
            "positions": [
                -2.6959592746045953,
                -1.017771518728092,
                1.6918731202192583,
                -0.38211791422134667,
                0.10135339583542646,
                -2.945951914333271
            ]
        },
        {
            "positions": [
                -2.651732623709628,
                -1.046934377003241,
                1.7564454573318373,
                -0.4765786856340095,
                0.21590181862364788,
                -2.9833521628392456
            ]
        },
        {
            "positions": [
                -2.6075059728146606,
                -1.07609723527839,
                1.8210177944444164,
                -0.5710394570466724,
                0.3304502414118691,
                -3.0207524113452204
            ]
        },
        {
            "positions": [
                -2.5632793219196928,
                -1.105260093553539,
                1.8855901315569952,
                -0.665500228459335,
                0.4449986642000905,
                -3.058152659851195
            ]
        },
        {
            "positions": [
                -2.5190526710247254,
                -1.1344229518286881,
                1.9501624686695742,
                -0.7599609998719976,
                0.5595470869883117,
                -3.09555290835717
            ]
        },
        {
            "positions": [
                -2.474826020129758,
                -1.163585810103837,
                2.0147348057821532,
                -0.8544217712846605,
                0.6740955097765332,
                -3.132953156863145
            ]
        }
    ]
}