{
    "goal": {
        "global_pose": {
            "orientation": {
                "w": -0.4816463035849501,
                "x": 0.5182115481033762,
                "y": 0.4908360881923453,
                "z": -0.5084816262002911
            },
            "position": {
                "x": -0.8240239810943604,
                "y": -0.300875300988555,
                "z": 0.16403168439865112
            }
        },
        "name": "move_to_storage_C"
    },
    "id": "PRM_move_to_storage_C_20",
    "joint_names": [
        "shoulder_pan_joint",
        "shoulder_lift_joint",
        "elbow_joint",
        "wrist_1_joint",
        "wrist_2_joint",
        "wrist_3_joint"
    ],
    "metrics": {
        "cart_traj_len": 0.5765430980060029,
        "distance_elbow_joint": 0.25988453689572255,
        "distance_shoulder_lift_joint": 0.18940681010576244,
        "distance_shoulder_pan_joint": 0.4929425203144078,
        "distance_wrist_1_joint": 0.08458819084847014,
        "distance_wrist_2_joint": 1.0807175526811434,
        "distance_wrist_3_joint": 0.06216574087591242,
        "smoothness": 2.5376526478085547e-16,
        "time": 0.021881264999999997,
        "traj_len": 1.4729919727280996,
        "weighted_distance": 1.8599307989822786
    },
    "planner": "PRM",
    "start": {
        "state": {
            "elbow_joint": 2.010868314990456,
            "shoulder_lift_joint": -1.1634956873337592,
            "shoulder_pan_joint": -2.4736205022346125,
            "wrist_1_joint": -0.8367026794202681,
            "wrist_2_joint": 0.6746043897044499,
            "wrist_3_joint": -3.1496632123970403
        }
    },
    "waypoints": [
        {
            "positions": [
                -2.4736205022346125,
                -1.1634956873337592,
                2.010868314990456,
                -0.8367026794202681,
                0.6746043897044499,
                -3.1496632123970403
            ]
        },
        {
            "positions": [
                -2.5557775889536805,
                -1.1319278856494654,
                1.9675542255078353,
                -0.8226046476121898,
                0.8547239818179738,
                -3.139302255584388
            ]
        },
        {
            "positions": [
                -2.6379346756727484,
                -1.1003600839651717,
                1.924240136025215,
                -0.8085066158041114,
                1.0348435739314978,
                -3.128941298771736
            ]
        },
        {
            "positions": [
                -2.7200917623918164,
                -1.068792282280878,
                1.8809260465425945,
                -0.7944085839960331,
                1.2149631660450217,
                -3.118580341959084
            ]
        },
        {
            "positions": [
                -2.8022488491108843,
                -1.0372244805965842,
                1.837611957059974,
                -0.7803105521879546,
                1.3950827581585457,
                -3.108219385146432
            ]
        },
        {
            "positions": [
                -2.8844059358299523,
                -1.0056566789122905,
                1.7942978675773538,
                -0.7662125203798763,
                1.5752023502720696,
                -3.09785842833378
            ]
        },
        {
            "positions": [
                -2.9665630225490203,
                -0.9740888772279968,
                1.7509837780947333,
                -0.752114488571798,
                1.7553219423855935,
                -3.087497471521128
            ]
        }
    ]
}