{
    "goal": {
        "global_pose": {
            "orientation": {
                "w": -0.4816463035849501,
                "x": 0.5182115481033762,
                "y": 0.4908360881923453,
                "z": -0.5084816262002911
            },
            "position": {
                "x": -0.8240239810943604,
                "y": -0.300875300988555,
                "z": 0.16403168439865112
            }
        },
        "name": "move_to_storage_C"
    },
    "id": "PRM_move_to_storage_C_84",
    "joint_names": [
        "shoulder_pan_joint",
        "shoulder_lift_joint",
        "elbow_joint",
        "wrist_1_joint",
        "wrist_2_joint",
        "wrist_3_joint"
    ],
    "metrics": {
        "cart_traj_len": 0.5765004645672788,
        "distance_elbow_joint": 0.25678239195813357,
        "distance_shoulder_lift_joint": 0.1894688056834768,
        "distance_shoulder_pan_joint": 0.4923339426157658,
        "distance_wrist_1_joint": 0.06721864515823484,
        "distance_wrist_2_joint": 1.0820854306160248,
        "distance_wrist_3_joint": 0.05469007809397075,
        "smoothness": 2.5376526478085547e-16,
        "time": 0.016598739,
        "traj_len": 1.46375520293716,
        "weighted_distance": 1.8442514812486412
    },
    "planner": "PRM",
    "start": {
        "state": {
            "elbow_joint": 2.010868314990456,
            "shoulder_lift_joint": -1.1634956873337592,
            "shoulder_pan_joint": -2.4736205022346125,
            "wrist_1_joint": -0.8367026794202681,
            "wrist_2_joint": 0.6746043897044499,
            "wrist_3_joint": -3.1496632123970403
        }
    },
    "waypoints": [
        {
            "positions": [
                -2.4736205022346125,
                -1.1634956873337592,
                2.010868314990456,
                -0.8367026794202681,
                0.6746043897044499,
                -3.1496632123970403
            ]
        },
        {
            "positions": [
                -2.5556761593372403,
                -1.1319175530531798,
                1.9680712496641002,
                -0.8254995718938957,
                0.8549519614737874,
                -3.1405481993813784
            ]
        },
        {
            "positions": [
                -2.6377318164398678,
                -1.1003394187726003,
                1.9252741843377446,
                -0.8142964643675231,
                1.035299533243125,
                -3.1314331863657165
            ]
        },
        {
            "positions": [
                -2.719787473542495,
                -1.068761284492021,
                1.882477119011389,
                -0.8030933568411507,
                1.2156471050124624,
                -3.122318173350055
            ]
        },
        {
            "positions": [
                -2.801843130645123,
                -1.0371831502114413,
                1.8396800536850335,
                -0.7918902493147782,
                1.3959946767818,
                -3.1132031603343933
            ]
        },
        {
            "positions": [
                -2.883898787747751,
                -1.0056050159308618,
                1.7968829883586779,
                -0.7806871417884057,
                1.5763422485511374,
                -3.1040881473187314
            ]
        },
        {
            "positions": [
                -2.9659544448503783,
                -0.9740268816502824,
                1.7540859230323222,
                -0.7694840342620333,
                1.7566898203204748,
                -3.0949731343030695
            ]
        }
    ]
}