{
    "goal": {
        "global_pose": {
            "orientation": {
                "w": -0.4816463035849501,
                "x": 0.5182115481033762,
                "y": 0.4908360881923453,
                "z": -0.5084816262002911
            },
            "position": {
                "x": -0.8240239810943604,
                "y": -0.300875300988555,
                "z": 0.16403168439865112
            }
        },
        "name": "move_to_storage_C"
    },
    "id": "PRM_move_to_storage_C_97",
    "joint_names": [
        "shoulder_pan_joint",
        "shoulder_lift_joint",
        "elbow_joint",
        "wrist_1_joint",
        "wrist_2_joint",
        "wrist_3_joint"
    ],
    "metrics": {
        "cart_traj_len": 0.5766831090212542,
        "distance_elbow_joint": 0.2586379973485431,
        "distance_shoulder_lift_joint": 0.1900892771232665,
        "distance_shoulder_pan_joint": 0.4954649369474735,
        "distance_wrist_1_joint": 0.0783335390063602,
        "distance_wrist_2_joint": 1.0589236726285098,
        "distance_wrist_3_joint": 0.07466921164448781,
        "smoothness": 0.0,
        "time": 0.01462182,
        "traj_len": 1.4683727846492665,
        "weighted_distance": 1.8554552728703775
    },
    "planner": "PRM",
    "start": {
        "state": {
            "elbow_joint": 2.010868314990456,
            "shoulder_lift_joint": -1.1634956873337592,
            "shoulder_pan_joint": -2.4736205022346125,
            "wrist_1_joint": -0.8367026794202681,
            "wrist_2_joint": 0.6746043897044499,
            "wrist_3_joint": -3.1496632123970403
        }
    },
    "waypoints": [
        {
            "positions": [
                -2.4736205022346125,
                -1.1634956873337592,
                2.010868314990456,
                -0.8367026794202681,
                0.6746043897044499,
                -3.1496632123970403
            ]
        },
        {
            "positions": [
                -2.556197991725858,
                -1.131814141146548,
                1.967761982099032,
                -0.8236470895858747,
                0.8510916684758683,
                -3.1372183437896255
            ]
        },
        {
            "positions": [
                -2.638775481217104,
                -1.100132594959337,
                1.9246556492076081,
                -0.8105914997514814,
                1.0275789472472865,
                -3.124773475182211
            ]
        },
        {
            "positions": [
                -2.7213529707083493,
                -1.068451048772126,
                1.8815493163161843,
                -0.797535909917088,
                1.2040662260187047,
                -3.1123286065747964
            ]
        },
        {
            "positions": [
                -2.8039304601995947,
                -1.0367695025849148,
                1.8384429834247604,
                -0.7844803200826946,
                1.380553504790123,
                -3.0998837379673816
            ]
        },
        {
            "positions": [
                -2.8865079496908406,
                -1.0050879563977038,
                1.7953366505333366,
                -0.7714247302483013,
                1.5570407835615416,
                -3.0874388693599673
            ]
        },
        {
            "positions": [
                -2.969085439182086,
                -0.9734064102104927,
                1.7522303176419127,
                -0.7583691404139079,
                1.7335280623329599,
                -3.0749940007525525
            ]
        }
    ]
}