{
    "goal": {
        "global_pose": {
            "orientation": {
                "w": 0.5084816217422485,
                "x": -0.49083608388900757,
                "y": 0.5182115435600281,
                "z": -0.4816462993621826
            },
            "position": {
                "x": 0.5540239810943604,
                "y": 0.030875300988554955,
                "z": 0.16403168439865112
            }
        },
        "name": "move_to_storage_A"
    },
    "id": "PRM_move_to_storage_A_106",
    "joint_names": [
        "shoulder_pan_joint",
        "shoulder_lift_joint",
        "elbow_joint",
        "wrist_1_joint",
        "wrist_2_joint",
        "wrist_3_joint"
    ],
    "metrics": {
        "cart_traj_len": 0.3528849794116483,
        "distance_elbow_joint": 0.45329040458879954,
        "distance_shoulder_lift_joint": 0.23489204566822153,
        "distance_shoulder_pan_joint": 0.4616756900371762,
        "distance_wrist_1_joint": 0.255993628393978,
        "distance_wrist_2_joint": 1.0980578356686828,
        "distance_wrist_3_joint": 0.09794192459525775,
        "smoothness": 0.0,
        "time": 0.034657757000000004,
        "traj_len": 1.6130255822373418,
        "weighted_distance": 2.0375933947196856
    },
    "planner": "PRM",
    "start": {
        "state": {
            "elbow_joint": 1.971548259319323,
            "shoulder_lift_joint": -1.1394851275133948,
            "shoulder_pan_joint": 0.1228115487234821,
            "wrist_1_joint": -0.7804723859257726,
            "wrist_2_joint": 0.12958671773740124,
            "wrist_3_joint": -3.192489227718131
        }
    },
    "waypoints": [
        {
            "positions": [
                0.1228115487234821,
                -1.1394851275133948,
                1.971548259319323,
                -0.7804723859257726,
                0.12958671773740124,
                -3.192489227718131
            ]
        },
        {
            "positions": [
                0.05685787871817122,
                -1.1730411340374265,
                2.036304031403437,
                -0.8170429042677695,
                0.2864521228329273,
                -3.178497524204523
            ]
        },
        {
            "positions": [
                -0.009095791287139665,
                -1.2065971405614582,
                2.1010598034875514,
                -0.8536134226097664,
                0.44331752792845347,
                -3.1645058206909145
            ]
        },
        {
            "positions": [
                -0.07504946129245055,
                -1.2401531470854898,
                2.1658155755716657,
                -0.8901839409517631,
                0.6001829330239795,
                -3.1505141171773063
            ]
        },
        {
            "positions": [
                -0.14100313129776143,
                -1.2737091536095213,
                2.23057134765578,
                -0.92675445929376,
                0.7570483381195057,
                -3.136522413663698
            ]
        },
        {
            "positions": [
                -0.2069568013030723,
                -1.307265160133553,
                2.295327119739894,
                -0.9633249776357569,
                0.9139137432150318,
                -3.12253071015009
            ]
        },
        {
            "positions": [
                -0.2729104713083832,
                -1.3408211666575847,
                2.360082891824008,
                -0.9998954959777537,
                1.0707791483105578,
                -3.1085390066364815
            ]
        },
        {
            "positions": [
                -0.3388641413136941,
                -1.3743771731816163,
                2.4248386639081225,
                -1.0364660143197506,
                1.227644553406084,
                -3.0945473031228734
            ]
        }
    ]
}{
    "goal": {
        "global_pose": {
            "orientation": {
                "w": 0.5084816217422485,
                "x": -0.49083608388900757,
                "y": 0.5182115435600281,
                "z": -0.4816462993621826
            },
            "position": {
                "x": 0.5540239810943604,
                "y": 0.030875300988554955,
                "z": 0.16403168439865112
            }
        },
        "name": "move_to_storage_A"
    },
    "id": "PRM_move_to_storage_A_106",
    "joint_names": [
        "shoulder_pan_joint",
        "shoulder_lift_joint",
        "elbow_joint",
        "wrist_1_joint",
        "wrist_2_joint",
        "wrist_3_joint"
    ],
    "metrics": {
        "cart_traj_len": 0.3538608974810971,
        "distance_elbow_joint": 0.45493853646566507,
        "distance_shoulder_lift_joint": 0.23500578435041852,
        "distance_shoulder_pan_joint": 0.464013749914082,
        "distance_wrist_1_joint": 0.2620117635539585,
        "distance_wrist_2_joint": 1.0956079199315472,
        "distance_wrist_3_joint": 0.10101632470324251,
        "smoothness": 4.440892098500626e-16,
        "time": 0.036470001,
        "traj_len": 1.6163520900221318,
        "weighted_distance": 2.0426077479072937
    },
    "planner": "PRM",
    "start": {
        "state": {
            "elbow_joint": 1.97154746011099,
            "shoulder_lift_joint": -1.13948474672311,
            "shoulder_pan_joint": 0.12281154466712228,
            "wrist_1_joint": -0.7804688027058302,
            "wrist_2_joint": 0.12958655903071145,
            "wrist_3_joint": 3.0906928834467795
        }
    },
    "waypoints": [
        {
            "positions": [
                0.12281154466712228,
                -1.13948474672311,
                1.97154746011099,
                -0.7804688027058302,
                0.12958655903071145,
                3.0906928834467795
            ]
        },
        {
            "positions": [
                0.05652386610796771,
                -1.1730570016303126,
                2.036538679606085,
                -0.81789905464211,
                0.28610197616378963,
                3.105123786975814
            ]
        },
        {
            "positions": [
                -0.009763812451186862,
                -1.2066292565375152,
                2.10152989910118,
                -0.8553293065783898,
                0.4426173932968678,
                3.119554690504849
            ]
        },
        {
            "positions": [
                -0.07605149101034143,
                -1.2402015114447178,
                2.166521118596275,
                -0.8927595585146695,
                0.5991328104299459,
                3.1339855940338834
            ]
        },
        {
            "positions": [
                -0.142339169569496,
                -1.2737737663519204,
                2.23151233809137,
                -0.9301898104509493,
                0.7556482275630241,
                3.148416497562918
            ]
        },
        {
            "positions": [
                -0.20862684812865057,
                -1.3073460212591232,
                2.296503557586465,
                -0.9676200623872291,
                0.9121636446961023,
                3.1628474010919527
            ]
        },
        {
            "positions": [
                -0.27491452668780514,
                -1.3409182761663259,
                2.36149477708156,
                -1.0050503143235088,
                1.0686790618291804,
                3.1772783046209874
            ]
        },
        {
            "positions": [
                -0.3412022052469597,
                -1.3744905310735285,
                2.426485996576655,
                -1.0424805662597887,
                1.2251944789622586,
                3.191709208150022
            ]
        }
    ]
}{
    "goal": {
        "global_pose": {
            "orientation": {
                "w": 0.5084816217422485,
                "x": -0.49083608388900757,
                "y": 0.5182115435600281,
                "z": -0.4816462993621826
            },
            "position": {
                "x": 0.5540239810943604,
                "y": 0.030875300988554955,
                "z": 0.16403168439865112
            }
        },
        "name": "move_to_storage_A"
    },
    "id": "PRM_move_to_storage_A_106",
    "joint_names": [
        "shoulder_pan_joint",
        "shoulder_lift_joint",
        "elbow_joint",
        "wrist_1_joint",
        "wrist_2_joint",
        "wrist_3_joint"
    ],
    "metrics": {
        "cart_traj_len": 0.35319622328408473,
        "distance_elbow_joint": 0.4492059787297653,
        "distance_shoulder_lift_joint": 0.233367366118993,
        "distance_shoulder_pan_joint": 0.46062188422624945,
        "distance_wrist_1_joint": 0.23805695527815862,
        "distance_wrist_2_joint": 1.1040847700788123,
        "distance_wrist_3_joint": 0.0989879896195025,
        "smoothness": 4.440892133664971e-16,
        "time": 0.026621868000000003,
        "traj_len": 1.6075835729601995,
        "weighted_distance": 2.030872386105896
    },
    "planner": "PRM",
    "start": {
        "state": {
            "elbow_joint": 1.9715472970024885,
            "shoulder_lift_joint": -1.1394870060712896,
            "shoulder_pan_joint": 0.12281152778156021,
            "wrist_1_joint": -0.780463741449964,
            "wrist_2_joint": 0.12958659822042276,
            "wrist_3_joint": 3.090690232415272
        }
    },
    "waypoints": [
        {
            "positions": [
                0.12281152778156021,
                -1.1394870060712896,
                1.9715472970024885,
                -0.780463741449964,
                0.12958659822042276,
                3.090690232415272
            ]
        },
        {
            "positions": [
                0.05700840146352458,
                -1.1728252012311458,
                2.0357195796781693,
                -0.8144718779182724,
                0.2873129939459674,
                3.1048313737894864
            ]
        },
        {
            "positions": [
                -0.008794724854511049,
                -1.206163396391002,
                2.09989186235385,
                -0.8484800143865807,
                0.445039389671512,
                3.1189725151637013
            ]
        },
        {
            "positions": [
                -0.07459785117254666,
                -1.239501591550858,
                2.164064145029531,
                -0.8824881508548891,
                0.6027657853970566,
                3.133113656537916
            ]
        },
        {
            "positions": [
                -0.1404009774905823,
                -1.2728397867107142,
                2.2282364277052116,
                -0.9164962873231974,
                0.7604921811226012,
                3.1472547979121304
            ]
        },
        {
            "positions": [
                -0.20620410380861795,
                -1.3061779818705703,
                2.2924087103808923,
                -0.9505044237915059,
                0.9182185768481459,
                3.161395939286345
            ]
        },
        {
            "positions": [
                -0.2720072301266535,
                -1.3395161770304265,
                2.356580993056573,
                -0.9845125602598143,
                1.0759449725736905,
                3.17553708066056
            ]
        },
        {
            "positions": [
                -0.3378103564446892,
                -1.3728543721902826,
                2.420753275732254,
                -1.0185206967281226,
                1.233671368299235,
                3.1896782220347744
            ]
        }
    ]
}