{
    "goal": {
        "global_pose": {
            "orientation": {
                "w": -0.4816463035849501,
                "x": 0.5182115481033762,
                "y": 0.4908360881923453,
                "z": -0.5084816262002911
            },
            "position": {
                "x": -0.8240239810943604,
                "y": 0.19912469901144506,
                "z": 0.16403168439865112
            }
        },
        "name": "move_to_storage_D"
    },
    "id": "PRM_move_to_storage_D_63",
    "joint_names": [
        "shoulder_pan_joint",
        "shoulder_lift_joint",
        "elbow_joint",
        "wrist_1_joint",
        "wrist_2_joint",
        "wrist_3_joint"
    ],
    "metrics": {
        "cart_traj_len": 3.127584696262539,
        "distance_elbow_joint": 4.209381220233336,
        "distance_shoulder_lift_joint": 1.8335566694891883,
        "distance_shoulder_pan_joint": 2.8134701270178355,
        "distance_wrist_1_joint": 2.2638027014249973,
        "distance_wrist_2_joint": 0.9635774629711928,
        "distance_wrist_3_joint": 3.1477312099323727,
        "smoothness": 0.04069276427903332,
        "time": 0.399507357,
        "traj_len": 3.9027579211461383,
        "weighted_distance": 4.975375561234535
    },
    "planner": "PRM",
    "start": {
        "state": {
            "elbow_joint": -2.384821988534728,
            "shoulder_lift_joint": -2.2788054721415256,
            "shoulder_pan_joint": -0.1854694642142757,
            "wrist_1_joint": 1.4845938289331202,
            "wrist_2_joint": 0.17898776772866878,
            "wrist_3_joint": 0.037105688729662994
        }
    },
    "waypoints": [
        {
            "positions": [
                -0.1854694642142757,
                -2.2788054721415256,
                -2.384821988534728,
                1.4845938289331202,
                0.17898776772866878,
                0.037105688729662994
            ]
        },
        {
            "positions": [
                -0.06570884538282047,
                -2.211438862089069,
                -2.3285843586958537,
                1.4704334010731355,
                0.1770766430371123,
                -0.09652753926843535
            ]
        },
        {
            "positions": [
                0.054051773448634766,
                -2.144072252036612,
                -2.2723467288569794,
                1.456272973213151,
                0.1751655183455558,
                -0.2301607672665337
            ]
        },
        {
            "positions": [
                0.17381239228009002,
                -2.0767056419841556,
                -2.216109099018105,
                1.4421125453531662,
                0.1732543936539993,
                -0.3637939952646321
            ]
        },
        {
            "positions": [
                0.2935730111115452,
                -2.009339031931699,
                -2.1598714691792313,
                1.4279521174931815,
                0.1713432689624428,
                -0.49742722326273037
            ]
        },
        {
            "positions": [
                0.4133336299430005,
                -1.941972421879242,
                -2.103633839340357,
                1.4137916896331968,
                0.16943214427088632,
                -0.6310604512608287
            ]
        },
        {
            "positions": [
                0.5330942487744558,
                -1.8746058118267854,
                -2.047396209501483,
                1.3996312617732123,
                0.1675210195793298,
                -0.7646936792589271
            ]
        },
        {
            "positions": [
                0.652854867605911,
                -1.8072392017743286,
                -1.9911585796626086,
                1.3854708339132276,
                0.1656098948877733,
                -0.8983269072570255
            ]
        },
        {
            "positions": [
                0.7726154864373662,
                -1.739872591721872,
                -1.9349209498237343,
                1.3713104060532428,
                0.16369877019621681,
                -1.0319601352551238
            ]
        },
        {
            "positions": [
                0.8923761052688216,
                -1.6725059816694152,
                -1.87868331998486,
                1.357149978193258,
                0.16178764550466032,
                -1.1655933632532223
            ]
        },
        {
            "positions": [
                1.0121367241002766,
                -1.6051393716169584,
                -1.822445690145986,
                1.3429895503332736,
                0.15987652081310383,
                -1.2992265912513203
            ]
        },
        {
            "positions": [
                1.1318973429317318,
                -1.5377727615645016,
                -1.766208060307112,
                1.3288291224732889,
                0.15796539612154734,
                -1.4328598192494189
            ]
        },
        {
            "positions": [
                1.251657961763187,
                -1.4704061515120452,
                -1.7099704304682377,
                1.3146686946133042,
                0.15605427142999084,
                -1.5664930472475171
            ]
        },
        {
            "positions": [
                1.3714185805946422,
                -1.4030395414595884,
                -1.6537328006293635,
                1.3005082667533197,
                0.15414314673843435,
                -1.7001262752456154
            ]
        },
        {
            "positions": [
                1.4911791994260977,
                -1.3356729314071316,
                -1.5974951707904892,
                1.286347838893335,
                0.15223202204687786,
                -1.833759503243714
            ]
        },
        {
            "positions": [
                1.610939818257553,
                -1.2683063213546748,
                -1.541257540951615,
                1.2721874110333502,
                0.15032089735532136,
                -1.9673927312418122
            ]
        },
        {
            "positions": [
                1.730700437089008,
                -1.2009397113022182,
                -1.485019911112741,
                1.2580269831733655,
                0.14840977266376487,
                -2.1010259592399105
            ]
        },
        {
            "positions": [
                1.850461055920463,
                -1.1335731012497616,
                -1.4287822812738669,
                1.2438665553133808,
                0.14649864797220835,
                -2.234659187238009
            ]
        },
        {
            "positions": [
                1.9702216747519188,
                -1.0662064911973048,
                -1.3725446514349924,
                1.2297061274533962,
                0.1445875232806519,
                -2.3682924152361076
            ]
        },
        {
            "positions": [
                2.0899822935833736,
                -0.998839881144848,
                -1.3163070215961183,
                1.2155456995934115,
                0.14267639858909537,
                -2.501925643234206
            ]
        },
        {
            "positions": [
                2.209742912414829,
                -0.9314732710923914,
                -1.260069391757244,
                1.2013852717334268,
                0.14076527389753887,
                -2.6355588712323037
            ]
        },
        {
            "positions": [
                2.329503531246284,
                -0.8641066610399348,
                -1.20383176191837,
                1.1872248438734423,
                0.13885414920598238,
                -2.769192099230402
            ]
        },
        {
            "positions": [
                2.4492641500777395,
                -0.7967400509874778,
                -1.1475941320794958,
                1.1730644160134576,
                0.1369430245144259,
                -2.9028253272285007
            ]
        },
        {
            "positions": [
                2.5690247689091947,
                -0.7293734409350212,
                -1.0913565022406215,
                1.1589039881534728,
                0.1350318998228694,
                -3.036458555226599
            ]
        },
        {
            "positions": [
                2.5727107622775924,
                -0.747131230827689,
                -0.9091117688694197,
                1.0377719343631384,
                0.1925082495144565,
                -3.041093990600106
            ]
        },
        {
            "positions": [
                2.57639675564599,
                -0.7648890207203566,
                -0.7268670354982179,
                0.9166398805728041,
                0.24998459920604357,
                -3.045729425973613
            ]
        },
        {
            "positions": [
                2.5800827490143883,
                -0.7826468106130242,
                -0.544622302127016,
                0.7955078267824698,
                0.30746094889763065,
                -3.05036486134712
            ]
        },
        {
            "positions": [
                2.583768742382786,
                -0.800404600505692,
                -0.36237756875581417,
                0.6743757729921354,
                0.36493729858921775,
                -3.0550002967206265
            ]
        },
        {
            "positions": [
                2.5874547357511837,
                -0.8181623903983597,
                -0.18013283538461233,
                0.553243719201801,
                0.42241364828080485,
                -3.0596357320941334
            ]
        },
        {
            "positions": [
                2.591140729119582,
                -0.8359201802910273,
                0.002111897986589506,
                0.4321116654114667,
                0.4798899979723919,
                -3.0642711674676404
            ]
        },
        {
            "positions": [
                2.5948267224879795,
                -0.853677970183695,
                0.18435663135779135,
                0.3109796116211323,
                0.537366347663979,
                -3.0689066028411474
            ]
        },
        {
            "positions": [
                2.598512715856377,
                -0.8714357600763627,
                0.3666013647289932,
                0.18984755783079799,
                0.594842697355566,
                -3.0735420382146543
            ]
        },
        {
            "positions": [
                2.602198709224775,
                -0.8891935499690304,
                0.548846098100195,
                0.06871550404046367,
                0.6523190470471532,
                -3.0781774735881613
            ]
        },
        {
            "positions": [
                2.6058847025931726,
                -0.9069513398616981,
                0.7310908314713969,
                -0.052416549749870756,
                0.7097953967387403,
                -3.0828129089616683
            ]
        },
        {
            "positions": [
                2.6095706959615708,
                -0.9247091297543657,
                0.9133355648425987,
                -0.17354860354020518,
                0.7672717464303274,
                -3.0874483443351752
            ]
        },
        {
            "positions": [
                2.6132566893299685,
                -0.9424669196470334,
                1.0955802982138005,
                -0.2946806573305394,
                0.8247480961219145,
                -3.092083779708682
            ]
        },
        {
            "positions": [
                2.616942682698366,
                -0.9602247095397012,
                1.2778250315850024,
                -0.4158127111208738,
                0.8822244458135016,
                -3.0967192150821887
            ]
        },
        {
            "positions": [
                2.6206286760667643,
                -0.9779824994323688,
                1.4600697649562042,
                -0.5369447649112082,
                0.9397007955050887,
                -3.1013546504556957
            ]
        },
        {
            "positions": [
                2.624314669435162,
                -0.9957402893250364,
                1.642314498327406,
                -0.6580768187015424,
                0.9971771451966758,
                -3.1059900858292027
            ]
        },
        {
            "positions": [
                2.6280006628035597,
                -1.0134980792177042,
                1.8245592316986077,
                -0.7792088724918769,
                1.0546534948882629,
                -3.1106255212027096
            ]
        }
    ]
}