{
    "goal": {
        "global_pose": {
            "orientation": {
                "w": 0.005598929693374612,
                "x": 0.007748599140229565,
                "y": 0.7110244013736278,
                "z": -0.7031023480610252
            },
            "position": {
                "x": -0.8858502320852131,
                "y": -0.7141253447532654,
                "z": 0.3711530566215515
            }
        },
        "name": "move_to_auspresseinheit_C"
    },
    "id": "PRM_move_to_auspresseinheit_C_101",
    "joint_names": [
        "shoulder_pan_joint",
        "shoulder_lift_joint",
        "elbow_joint",
        "wrist_1_joint",
        "wrist_2_joint",
        "wrist_3_joint"
    ],
    "metrics": {
        "cart_traj_len": 0.49338977732345546,
        "distance_elbow_joint": 1.0019339260880515,
        "distance_shoulder_lift_joint": 0.3265568469767306,
        "distance_shoulder_pan_joint": 0.2566722735021121,
        "distance_wrist_1_joint": 0.6791667515120069,
        "distance_wrist_2_joint": 1.3142415471461004,
        "distance_wrist_3_joint": 0.051554728979759545,
        "smoothness": 1.6148698667872622e-16,
        "time": 0.024918252,
        "traj_len": 1.9052889739366996,
        "weighted_distance": 2.3930407081415033
    },
    "planner": "PRM",
    "start": {
        "state": {
            "elbow_joint": 1.7527959577737207,
            "shoulder_lift_joint": -0.9740617694225068,
            "shoulder_pan_joint": -2.967991417825858,
            "wrist_1_joint": -0.759517768980727,
            "wrist_2_joint": 1.7443932448377408,
            "wrist_3_joint": -3.0840537646736568
        }
    },
    "waypoints": [
        {
            "positions": [
                -2.967991417825858,
                -0.9740617694225068,
                1.7527959577737207,
                -0.759517768980727,
                1.7443932448377408,
                -3.0840537646736568
            ]
        },
        {
            "positions": [
                -2.942324190475647,
                -0.9414060847248337,
                1.6526025651649154,
                -0.6916010938295263,
                1.6129690901231308,
                -3.089209237571633
            ]
        },
        {
            "positions": [
                -2.9166569631254355,
                -0.9087504000271607,
                1.5524091725561102,
                -0.6236844186783256,
                1.4815449354085208,
                -3.0943647104696086
            ]
        },
        {
            "positions": [
                -2.890989735775224,
                -0.8760947153294876,
                1.4522157799473052,
                -0.5557677435271249,
                1.3501207806939108,
                -3.0995201833675847
            ]
        },
        {
            "positions": [
                -2.865322508425013,
                -0.8434390306318145,
                1.3520223873385,
                -0.48785106837592424,
                1.2186966259793006,
                -3.1046756562655604
            ]
        },
        {
            "positions": [
                -2.839655281074802,
                -0.8107833459341415,
                1.2518289947296948,
                -0.41993439322472353,
                1.0872724712646906,
                -3.1098311291635365
            ]
        },
        {
            "positions": [
                -2.8139880537245907,
                -0.7781276612364685,
                1.1516356021208898,
                -0.35201771807352283,
                0.9558483165500806,
                -3.1149866020615127
            ]
        },
        {
            "positions": [
                -2.7883208263743793,
                -0.7454719765387954,
                1.0514422095120848,
                -0.2841010429223222,
                0.8244241618354706,
                -3.1201420749594884
            ]
        },
        {
            "positions": [
                -2.7626535990241683,
                -0.7128162918411223,
                0.9512488169032793,
                -0.2161843677711215,
                0.6930000071208604,
                -3.1252975478574645
            ]
        },
        {
            "positions": [
                -2.7369863716739573,
                -0.6801606071434492,
                0.8510554242944742,
                -0.1482676926199208,
                0.5615758524062504,
                -3.13045302075544
            ]
        },
        {
            "positions": [
                -2.711319144323746,
                -0.6475049224457762,
                0.7508620316856691,
                -0.08035101746872005,
                0.4301516976916404,
                -3.1356084936534163
            ]
        }
    ]
}