{
    "goal": {
        "global_pose": {
            "orientation": {
                "w": 0.7047431493862688,
                "x": -0.7094548369677653,
                "y": 0.0024358444001904,
                "z": -0.0022348060817251984
            },
            "position": {
                "x": -0.39052492380142206,
                "y": 0.3671506643295288,
                "z": 0.19426114857196808
            }
        },
        "name": "move_to_magneteinheit_D"
    },
    "id": "PRM_move_to_magneteinheit_D_70",
    "joint_names": [
        "shoulder_pan_joint",
        "shoulder_lift_joint",
        "elbow_joint",
        "wrist_1_joint",
        "wrist_2_joint",
        "wrist_3_joint"
    ],
    "metrics": {
        "cart_traj_len": 5.051549556870876,
        "distance_elbow_joint": 3.481099544439919,
        "distance_shoulder_lift_joint": 1.6322535679000383,
        "distance_shoulder_pan_joint": 4.441387147898434,
        "distance_wrist_1_joint": 1.6802747159727736,
        "distance_wrist_2_joint": 1.7905017388728521,
        "distance_wrist_3_joint": 3.8212011233506464,
        "smoothness": 0.7154768718280938,
        "time": 0.35539446500000005,
        "traj_len": 4.104475342651562,
        "weighted_distance": 5.287711843508645
    },
    "planner": "PRM",
    "start": {
        "state": {
            "elbow_joint": 0.749534889911806,
            "shoulder_lift_joint": -0.6476975780787326,
            "shoulder_pan_joint": -2.711696901376241,
            "wrist_1_joint": -0.07506478083263063,
            "wrist_2_joint": 0.43296659715538205,
            "wrist_3_joint": -3.14703540197715
        }
    },
    "waypoints": [
        {
            "positions": [
                -2.711696901376241,
                -0.6476975780787326,
                0.749534889911806,
                -0.07506478083263063,
                0.43296659715538205,
                -3.14703540197715
            ]
        },
        {
            "positions": [
                -2.775250652801876,
                -0.6998515490337789,
                0.7800080018874294,
                -0.0033940659775814064,
                0.40220721820490263,
                -3.2172269418613046
            ]
        },
        {
            "positions": [
                -2.8388044042275107,
                -0.7520055199888251,
                0.8104811138630527,
                0.06827664887746782,
                0.37144783925442326,
                -3.2874184817454593
            ]
        },
        {
            "positions": [
                -2.902358155653146,
                -0.8041594909438713,
                0.840954225838676,
                0.13994736373251704,
                0.34068846030394384,
                -3.3576100216296134
            ]
        },
        {
            "positions": [
                -2.9659119070787807,
                -0.8563134618989175,
                0.8714273378142994,
                0.21161807858756626,
                0.3099290813534644,
                -3.427801561513768
            ]
        },
        {
            "positions": [
                -2.8075819233817167,
                -0.8776841050629094,
                0.7882434591804209,
                0.22894236367855866,
                0.34474200747735395,
                -3.350049909574026
            ]
        },
        {
            "positions": [
                -2.649251939684653,
                -0.8990547482269012,
                0.7050595805465426,
                0.24626664876955107,
                0.3795549336012435,
                -3.2722982576342843
            ]
        },
        {
            "positions": [
                -2.490921955987589,
                -0.9204253913908931,
                0.6218757019126642,
                0.2635909338605435,
                0.414367859725133,
                -3.1945466056945424
            ]
        },
        {
            "positions": [
                -2.3325919722905244,
                -0.9417960345548848,
                0.5386918232787858,
                0.2809152189515359,
                0.44918078584902255,
                -3.116794953754801
            ]
        },
        {
            "positions": [
                -2.174261988593461,
                -0.9631666777188767,
                0.45550794464490746,
                0.2982395040425283,
                0.4839937119729121,
                -3.039043301815059
            ]
        },
        {
            "positions": [
                -2.0159320048963965,
                -0.9845373208828685,
                0.3723240660110291,
                0.3155637891335207,
                0.5188066380968016,
                -2.9612916498753172
            ]
        },
        {
            "positions": [
                -1.8576020211993327,
                -1.0059079640468602,
                0.28914018737715064,
                0.3328880742245131,
                0.5536195642206911,
                -2.8835399979355754
            ]
        },
        {
            "positions": [
                -1.6992720375022685,
                -1.0272786072108522,
                0.2059563087432722,
                0.35021235931550554,
                0.5884324903445808,
                -2.8057883459958335
            ]
        },
        {
            "positions": [
                -1.5409420538052045,
                -1.0486492503748441,
                0.12277243010939387,
                0.3675366444064979,
                0.6232454164684702,
                -2.7280366940560916
            ]
        },
        {
            "positions": [
                -1.3826120701081406,
                -1.0700198935388359,
                0.03958855147551554,
                0.38486092949749034,
                0.6580583425923598,
                -2.65028504211635
            ]
        },
        {
            "positions": [
                -1.2242820864110766,
                -1.0913905367028276,
                -0.043595327158362895,
                0.4021852145884828,
                0.6928712687162493,
                -2.5725333901766083
            ]
        },
        {
            "positions": [
                -1.0659521027140126,
                -1.1127611798668195,
                -0.12677920579224122,
                0.41950949967947515,
                0.7276841948401389,
                -2.4947817382368664
            ]
        },
        {
            "positions": [
                -0.9076221190169487,
                -1.1341318230308113,
                -0.20996308442611977,
                0.4368337847704676,
                0.7624971209640284,
                -2.4170300862971246
            ]
        },
        {
            "positions": [
                -0.7492921353198847,
                -1.155502466194803,
                -0.2931469630599981,
                0.45415806986145996,
                0.797310047087918,
                -2.339278434357383
            ]
        },
        {
            "positions": [
                -0.5909621516228207,
                -1.176873109358795,
                -0.37633084169387643,
                0.4714823549524524,
                0.8321229732118074,
                -2.261526782417641
            ]
        },
        {
            "positions": [
                -0.4326321679257563,
                -1.198243752522787,
                -0.459514720327755,
                0.4888066400434448,
                0.866935899335697,
                -2.1837751304778994
            ]
        },
        {
            "positions": [
                -0.2743021842286928,
                -1.2196143956867787,
                -0.5426985989616331,
                0.5061309251344372,
                0.9017488254595866,
                -2.1060234785381575
            ]
        },
        {
            "positions": [
                -0.11597220053162838,
                -1.2409850388507704,
                -0.6258824775955116,
                0.5234552102254296,
                0.9365617515834761,
                -2.0282718265984157
            ]
        },
        {
            "positions": [
                0.04235778316543559,
                -1.2623556820147623,
                -0.70906635622939,
                0.540779495316422,
                0.9713746777073656,
                -1.9505201746586738
            ]
        },
        {
            "positions": [
                0.20068776686249956,
                -1.283726325178754,
                -0.7922502348632683,
                0.5581037804074145,
                1.0061876038312552,
                -1.8727685227189321
            ]
        },
        {
            "positions": [
                0.35901775055956353,
                -1.305096968342746,
                -0.8754341134971468,
                0.5754280654984069,
                1.0410005299551446,
                -1.79501687077919
            ]
        },
        {
            "positions": [
                0.5173477342566275,
                -1.3264676115067378,
                -0.9586179921310253,
                0.5927523505893992,
                1.0758134560790342,
                -1.7172652188394484
            ]
        },
        {
            "positions": [
                0.490265753746567,
                -1.3773345466484574,
                -1.0507419875067734,
                0.6529204346916818,
                1.0277398280807932,
                -1.606310705053228
            ]
        },
        {
            "positions": [
                0.46318377323650656,
                -1.4282014817901771,
                -1.1428659828825214,
                0.7130885187939644,
                0.979666200082552,
                -1.4953561912670073
            ]
        },
        {
            "positions": [
                0.43610179272644606,
                -1.4790684169318968,
                -1.2349899782582694,
                0.7732566028962469,
                0.9315925720843109,
                -1.3844016774807868
            ]
        },
        {
            "positions": [
                0.40901981221638556,
                -1.5299353520736165,
                -1.3271139736340176,
                0.8334246869985296,
                0.8835189440860698,
                -1.2734471636945663
            ]
        },
        {
            "positions": [
                0.3819378317063251,
                -1.5808022872153362,
                -1.4192379690097656,
                0.893592771100812,
                0.8354453160878287,
                -1.1624926499083459
            ]
        },
        {
            "positions": [
                0.3548558511962646,
                -1.631669222357056,
                -1.5113619643855136,
                0.9537608552030946,
                0.7873716880895876,
                -1.0515381361221254
            ]
        },
        {
            "positions": [
                0.3277738706862041,
                -1.6825361574987756,
                -1.6034859597612616,
                1.0139289393053772,
                0.7392980600913466,
                -0.9405836223359048
            ]
        },
        {
            "positions": [
                0.3006918901761436,
                -1.7334030926404953,
                -1.6956099551370096,
                1.07409702340766,
                0.6912244320931054,
                -0.8296291085496843
            ]
        },
        {
            "positions": [
                0.2736099096660832,
                -1.784270027782215,
                -1.7877339505127576,
                1.1342651075099424,
                0.6431508040948644,
                -0.7186745947634638
            ]
        },
        {
            "positions": [
                0.24652792915602267,
                -1.8351369629239347,
                -1.8798579458885059,
                1.1944331916122248,
                0.5950771760966231,
                -0.6077200809772434
            ]
        },
        {
            "positions": [
                0.21944594864596217,
                -1.8860038980656544,
                -1.971981941264254,
                1.2546012757145075,
                0.5470035480983821,
                -0.4967655671910227
            ]
        },
        {
            "positions": [
                0.19236396813590173,
                -1.936870833207374,
                -2.064105936640002,
                1.31476935981679,
                0.49892992010014103,
                -0.38581105340480226
            ]
        },
        {
            "positions": [
                0.16528198762584123,
                -1.9877377683490938,
                -2.15622993201575,
                1.3749374439190727,
                0.4508562921018999,
                -0.2748565396185818
            ]
        },
        {
            "positions": [
                0.13820000711578073,
                -2.0386047034908135,
                -2.248353927391498,
                1.4351055280213552,
                0.4027826641036588,
                -0.16390202583236113
            ]
        },
        {
            "positions": [
                0.11111802660572029,
                -2.089471638632533,
                -2.340477922767246,
                1.4952736121236376,
                0.3547090361054177,
                -0.05294751204614068
            ]
        },
        {
            "positions": [
                0.08403604609565979,
                -2.140338573774253,
                -2.432601918142994,
                1.5554416962259203,
                0.3066354081071766,
                0.05800700174007978
            ]
        },
        {
            "positions": [
                -0.05126436025409842,
                -2.210144859876512,
                -2.4050129978529275,
                1.530557576768809,
                0.24043450792042248,
                0.03069380145998932
            ]
        },
        {
            "positions": [
                -0.18656476660385662,
                -2.279951145978771,
                -2.3774240775628614,
                1.5056734573116977,
                0.17423360773366833,
                0.0033806011798988614
            ]
        }
    ]
}