{
    "goal": {
        "global_pose": {
            "orientation": {
                "w": -0.4816463035849501,
                "x": 0.5182115481033762,
                "y": 0.4908360881923453,
                "z": -0.5084816262002911
            },
            "position": {
                "x": -0.8240239810943604,
                "y": 0.19912469901144506,
                "z": 0.16403168439865112
            }
        },
        "name": "move_to_storage_D"
    },
    "id": "PRM_move_to_storage_D_118",
    "joint_names": [
        "shoulder_pan_joint",
        "shoulder_lift_joint",
        "elbow_joint",
        "wrist_1_joint",
        "wrist_2_joint",
        "wrist_3_joint"
    ],
    "metrics": {
        "cart_traj_len": 3.5238589432046488,
        "distance_elbow_joint": 4.270236387789318,
        "distance_shoulder_lift_joint": 1.2648660694787144,
        "distance_shoulder_pan_joint": 2.8140712592423647,
        "distance_wrist_1_joint": 2.266407255475243,
        "distance_wrist_2_joint": 0.8805012572019238,
        "distance_wrist_3_joint": 3.1410532732607974,
        "smoothness": 0.018070669212581717,
        "time": 0.505238078,
        "traj_len": 3.8258509514156924,
        "weighted_distance": 4.905726303173376
    },
    "planner": "PRM",
    "start": {
        "state": {
            "elbow_joint": -2.384821988534728,
            "shoulder_lift_joint": -2.2788054721415256,
            "shoulder_pan_joint": -0.1854694642142757,
            "wrist_1_joint": 1.4845938289331202,
            "wrist_2_joint": 0.17898776772866878,
            "wrist_3_joint": 0.037105688729662994
        }
    },
    "waypoints": [
        {
            "positions": [
                -0.1854694642142757,
                -2.2788054721415256,
                -2.384821988534728,
                1.4845938289331202,
                0.17898776772866878,
                0.037105688729662994
            ]
        },
        {
            "positions": [
                -0.0658173547911165,
                -2.178786933872907,
                -2.392569898860848,
                1.461712862426468,
                0.2279932257910368,
                0.04880849561453913
            ]
        },
        {
            "positions": [
                0.05383475463204271,
                -2.078768395604289,
                -2.4003178091869675,
                1.4388318959198156,
                0.27699868385340487,
                0.06051130249941526
            ]
        },
        {
            "positions": [
                0.17348686405520194,
                -1.9787498573356705,
                -2.408065719513087,
                1.4159509294131634,
                0.32600414191577287,
                0.0722141093842914
            ]
        },
        {
            "positions": [
                0.29313897347836115,
                -1.878731319067052,
                -2.415813629839207,
                1.393069962906511,
                0.37500959997814093,
                0.08391691626916753
            ]
        },
        {
            "positions": [
                0.3646007584414109,
                -1.8527014781836597,
                -2.289299292362762,
                1.3417879298824185,
                0.38547743257274486,
                0.18384744346414322
            ]
        },
        {
            "positions": [
                0.4360625434044606,
                -1.8266716373002676,
                -2.1627849548863174,
                1.290505896858326,
                0.3959452651673488,
                0.2837779706591189
            ]
        },
        {
            "positions": [
                0.5075243283675104,
                -1.8006417964168753,
                -2.036270617409872,
                1.2392238638342334,
                0.40641309776195267,
                0.3837084978540946
            ]
        },
        {
            "positions": [
                0.57898611333056,
                -1.774611955533483,
                -1.9097562799334273,
                1.187941830810141,
                0.4168809303565566,
                0.4836390250490703
            ]
        },
        {
            "positions": [
                0.6504478982936098,
                -1.7485821146500906,
                -1.7832419424569825,
                1.1366597977860486,
                0.42734876295116053,
                0.5835695522440459
            ]
        },
        {
            "positions": [
                0.7219096832566596,
                -1.7225522737666985,
                -1.6567276049805377,
                1.085377764761956,
                0.43781659554576446,
                0.6835000794390217
            ]
        },
        {
            "positions": [
                0.7933714682197094,
                -1.6965224328833062,
                -1.5302132675040927,
                1.0340957317378634,
                0.4482844281403684,
                0.7834306066339973
            ]
        },
        {
            "positions": [
                0.864833253182759,
                -1.6704925919999138,
                -1.403698930027648,
                0.982813698713771,
                0.45875226073497233,
                0.8833611338289731
            ]
        },
        {
            "positions": [
                0.9362950381458088,
                -1.6444627511165217,
                -1.277184592551203,
                0.9315316656896784,
                0.46922009332957626,
                0.9832916610239487
            ]
        },
        {
            "positions": [
                1.0077568231088585,
                -1.6184329102331294,
                -1.150670255074758,
                0.880249632665586,
                0.47968792592418014,
                1.0832221882189244
            ]
        },
        {
            "positions": [
                1.0792186080719084,
                -1.592403069349737,
                -1.0241559175983133,
                0.8289675996414935,
                0.49015575851878407,
                1.1831527154139
            ]
        },
        {
            "positions": [
                1.150680393034958,
                -1.566373228466345,
                -0.8976415801218682,
                0.7776855666174008,
                0.5006235911133881,
                1.2830832426088759
            ]
        },
        {
            "positions": [
                1.2221421779980077,
                -1.5403433875829526,
                -0.7711272426454234,
                0.7264035335933083,
                0.511091423707992,
                1.3830137698038516
            ]
        },
        {
            "positions": [
                1.2936039629610576,
                -1.5143135466995603,
                -0.6446129051689784,
                0.6751215005692158,
                0.5215592563025958,
                1.4829442969988271
            ]
        },
        {
            "positions": [
                1.3650657479241073,
                -1.4882837058161682,
                -0.5180985676925336,
                0.6238394675451233,
                0.5320270888971997,
                1.5828748241938029
            ]
        },
        {
            "positions": [
                1.436527532887157,
                -1.4622538649327759,
                -0.3915842302160888,
                0.5725574345210308,
                0.5424949214918037,
                1.6828053513887786
            ]
        },
        {
            "positions": [
                1.5079893178502068,
                -1.4362240240493835,
                -0.265069892739644,
                0.5212754014969383,
                0.5529627540864076,
                1.7827358785837542
            ]
        },
        {
            "positions": [
                1.5794511028132565,
                -1.4101941831659914,
                -0.13855555526319918,
                0.4699933684728458,
                0.5634305866810115,
                1.88266640577873
            ]
        },
        {
            "positions": [
                1.6509128877763062,
                -1.384164342282599,
                -0.012041217786753933,
                0.4187113354487533,
                0.5738984192756155,
                1.9825969329737057
            ]
        },
        {
            "positions": [
                1.7223746727393558,
                -1.3581345013992068,
                0.11447311968969087,
                0.3674293024246609,
                0.5843662518702194,
                2.082527460168681
            ]
        },
        {
            "positions": [
                1.7938364577024057,
                -1.3321046605158147,
                0.24098745716613568,
                0.31614726940056825,
                0.5948340844648232,
                2.182457987363657
            ]
        },
        {
            "positions": [
                1.8652982426654554,
                -1.3060748196324223,
                0.3675017946425805,
                0.26486523637647585,
                0.6053019170594272,
                2.2823885145586327
            ]
        },
        {
            "positions": [
                1.9367600276285053,
                -1.28004497874903,
                0.49401613211902573,
                0.213583203352383,
                0.6157697496540312,
                2.3823190417536084
            ]
        },
        {
            "positions": [
                2.0082218125915547,
                -1.2540151378656377,
                0.6205304695954705,
                0.1623011703282906,
                0.626237582248635,
                2.482249568948584
            ]
        },
        {
            "positions": [
                2.079683597554605,
                -1.2279852969822453,
                0.7470448070719153,
                0.11101913730419799,
                0.636705414843239,
                2.58218009614356
            ]
        },
        {
            "positions": [
                2.1511453825176545,
                -1.2019554560988532,
                0.8735591445483601,
                0.05973710428010559,
                0.6471732474378429,
                2.6821106233385357
            ]
        },
        {
            "positions": [
                2.222607167480704,
                -1.175925615215461,
                1.0000734820248054,
                0.00845507125601297,
                0.6576410800324468,
                2.7820411505335114
            ]
        },
        {
            "positions": [
                2.2940689524437543,
                -1.1498957743320686,
                1.1265878195012502,
                -0.04282696176807943,
                0.6681089126270507,
                2.8819716777284867
            ]
        },
        {
            "positions": [
                2.3655307374068038,
                -1.1238659334486765,
                1.253102156977695,
                -0.09410899479217205,
                0.6785767452216547,
                2.9819022049234625
            ]
        },
        {
            "positions": [
                2.436992522369853,
                -1.0978360925652841,
                1.3796164944541398,
                -0.14539102781626445,
                0.6890445778162586,
                3.0818327321184382
            ]
        },
        {
            "positions": [
                2.4753143769015002,
                -1.0810567545847896,
                1.4683794188924384,
                -0.2726755075614361,
                0.7631334672391255,
                3.1010979780928425
            ]
        },
        {
            "positions": [
                2.5136362314331473,
                -1.064277416604295,
                1.5571423433307368,
                -0.3999599873066078,
                0.8372223566619922,
                3.1203632240672468
            ]
        },
        {
            "positions": [
                2.551958085964795,
                -1.0474980786238004,
                1.6459052677690353,
                -0.5272444670517795,
                0.911311246084859,
                3.1396284700416515
            ]
        },
        {
            "positions": [
                2.590279940496442,
                -1.0307187406433058,
                1.7346681922073337,
                -0.6545289467969512,
                0.9854001355077258,
                3.1588937160160557
            ]
        },
        {
            "positions": [
                2.628601795028089,
                -1.0139394026628112,
                1.8234311166456323,
                -0.7818134265421228,
                1.0594890249305926,
                3.17815896199046
            ]
        }
    ]
}