{
    "goal": {
        "global_pose": {
            "orientation": {
                "w": -0.00223480608172531,
                "x": 0.0024358444001904467,
                "y": 0.7094548369677653,
                "z": -0.704743149386269
            },
            "position": {
                "x": -0.37947507619857795,
                "y": -0.6371506643295288,
                "z": 0.19426114857196808
            }
        },
        "name": "move_to_magneteinheit_C"
    },
    "id": "PRM_move_to_magneteinheit_C_48",
    "joint_names": [
        "shoulder_pan_joint",
        "shoulder_lift_joint",
        "elbow_joint",
        "wrist_1_joint",
        "wrist_2_joint",
        "wrist_3_joint"
    ],
    "metrics": {
        "cart_traj_len": 1.1410071866200022,
        "distance_elbow_joint": 0.534893321867242,
        "distance_shoulder_lift_joint": 0.7482650428358042,
        "distance_shoulder_pan_joint": 1.1258985345518624,
        "distance_wrist_1_joint": 1.977344710964248,
        "distance_wrist_2_joint": 0.8113590005691124,
        "distance_wrist_3_joint": 0.847848606428331,
        "smoothness": 1.425910612751877,
        "time": 0.477866685,
        "traj_len": 2.458782059723187,
        "weighted_distance": 3.2449977105703205
    },
    "planner": "PRM",
    "start": {
        "state": {
            "elbow_joint": 1.9565354010623817,
            "shoulder_lift_joint": -1.4165861575791021,
            "shoulder_pan_joint": -1.6717766225146293,
            "wrist_1_joint": -0.5286633292919765,
            "wrist_2_joint": 1.472756589071564,
            "wrist_3_joint": -3.1238370188695823
        }
    },
    "waypoints": [
        {
            "positions": [
                -1.6717766225146293,
                -1.4165861575791021,
                1.9565354010623817,
                -0.5286633292919765,
                1.472756589071564,
                -3.1238370188695823
            ]
        },
        {
            "positions": [
                -1.6474715141956298,
                -1.4102554698219956,
                1.954133564607436,
                -0.5213218909959665,
                1.4392643116643082,
                -3.0795798148932594
            ]
        },
        {
            "positions": [
                -1.5783914824030838,
                -1.3933105387187805,
                1.9449439103384512,
                -0.4973993959200232,
                1.3426550806443307,
                -2.9518213913816598
            ]
        },
        {
            "positions": [
                -1.5093114506105378,
                -1.3763656076155655,
                1.9357542560694663,
                -0.4734769008440799,
                1.2460458496243532,
                -2.82406296787006
            ]
        },
        {
            "positions": [
                -1.6203105357210985,
                -1.4117407192186955,
                1.9042282794461112,
                -0.3611024832288973,
                1.1768581174970318,
                -2.808210000822027
            ]
        },
        {
            "positions": [
                -1.7313096208316592,
                -1.4471158308218253,
                1.8727023028227558,
                -0.24872806561371472,
                1.1076703853697103,
                -2.792357033773994
            ]
        },
        {
            "positions": [
                -1.8423087059422198,
                -1.4824909424249553,
                1.8411763261994007,
                -0.1363536479985321,
                1.038482653242389,
                -2.776504066725961
            ]
        },
        {
            "positions": [
                -1.9533077910527805,
                -1.517866054028085,
                1.8096503495760454,
                -0.023979230383349537,
                0.9692949211150674,
                -2.7606510996779274
            ]
        },
        {
            "positions": [
                -2.064306876163341,
                -1.553241165631215,
                1.7781243729526903,
                0.08839518723183315,
                0.9001071889877461,
                -2.7447981326298945
            ]
        },
        {
            "positions": [
                -2.175305961273902,
                -1.5886162772343448,
                1.7465983963293352,
                0.20076960484701567,
                0.8309194568604247,
                -2.728945165581861
            ]
        },
        {
            "positions": [
                -2.2863050463844625,
                -1.6239913888374748,
                1.71507241970598,
                0.3131440224621983,
                0.7617317247331032,
                -2.713092198533828
            ]
        },
        {
            "positions": [
                -2.3478992303364965,
                -1.5840532917565564,
                1.7692086867586578,
                0.20822866470856305,
                0.7640044927267335,
                -2.789371684047159
            ]
        },
        {
            "positions": [
                -2.4094934142885305,
                -1.5441151946756382,
                1.8233449538113355,
                0.1033133069549278,
                0.7662772607203637,
                -2.86565116956049
            ]
        },
        {
            "positions": [
                -2.4710875982405645,
                -1.5041770975947197,
                1.8774812208640135,
                -0.0016020507987074828,
                0.768550028713994,
                -2.9419306550738207
            ]
        },
        {
            "positions": [
                -2.4714190412441135,
                -1.4360562135131991,
                1.9036855287345749,
                -0.1657603079885409,
                0.7498468622640418,
                -2.9835837209843374
            ]
        },
        {
            "positions": [
                -2.471750484247662,
                -1.3679353294316785,
                1.9298898366051362,
                -0.32991856517837437,
                0.7311436958140897,
                -3.025236786894854
            ]
        },
        {
            "positions": [
                -2.472081927251211,
                -1.2998144453501579,
                1.9560941444756974,
                -0.4940768223682077,
                0.7124405293641375,
                -3.0668898528053714
            ]
        },
        {
            "positions": [
                -2.4724133702547597,
                -1.2316935612686373,
                1.9822984523462588,
                -0.6582350795580412,
                0.6937373629141853,
                -3.108542918715888
            ]
        },
        {
            "positions": [
                -2.4727448132583087,
                -1.1635726771871167,
                2.00850276021682,
                -0.8223933367478745,
                0.6750341964642331,
                -3.150195984626405
            ]
        }
    ]
}