{
    "goal": {
        "global_pose": {
            "orientation": {
                "w": 0.7031023480610252,
                "x": -0.7110244013736278,
                "y": 0.0077485991402295624,
                "z": 0.005598929693374583
            },
            "position": {
                "x": -0.8841497679147869,
                "y": 0.44412534475326537,
                "z": 0.3711530566215515
            }
        },
        "name": "move_to_auspresseinheit_D"
    },
    "id": "PRM_move_to_auspresseinheit_D_115",
    "joint_names": [
        "shoulder_pan_joint",
        "shoulder_lift_joint",
        "elbow_joint",
        "wrist_1_joint",
        "wrist_2_joint",
        "wrist_3_joint"
    ],
    "metrics": {
        "cart_traj_len": 0.34461302809046757,
        "distance_elbow_joint": 0.6566198380133208,
        "distance_shoulder_lift_joint": 0.13130848124213657,
        "distance_shoulder_pan_joint": 0.13463951019881926,
        "distance_wrist_1_joint": 0.5870746533644082,
        "distance_wrist_2_joint": 1.4330931181984667,
        "distance_wrist_3_joint": 0.042474598074790926,
        "smoothness": 1.9737298371844314e-16,
        "time": 0.018943716000000003,
        "traj_len": 1.7277760847667565,
        "weighted_distance": 2.2561753404388587
    },
    "planner": "PRM",
    "start": {
        "state": {
            "elbow_joint": -1.8275523626775212,
            "shoulder_lift_joint": -2.126789852344167,
            "shoulder_pan_joint": -0.03513704404078235,
            "wrist_1_joint": -2.347782403156801,
            "wrist_2_joint": -1.6058999987535132,
            "wrist_3_joint": -3.0880379163319196
        }
    },
    "waypoints": [
        {
            "positions": [
                -0.03513704404078235,
                -2.126789852344167,
                -1.8275523626775212,
                -2.347782403156801,
                -1.6058999987535132,
                -3.0880379163319196
            ]
        },
        {
            "positions": [
                -0.051966982815634756,
                -2.143203412499434,
                -1.7454748829258562,
                -2.421166734827352,
                -1.4267633589787048,
                -3.082728591572571
            ]
        },
        {
            "positions": [
                -0.06879692159048717,
                -2.159616972654701,
                -1.663397403174191,
                -2.4945510664979027,
                -1.2476267192038966,
                -3.077419266813222
            ]
        },
        {
            "positions": [
                -0.08562686036533956,
                -2.176030532809968,
                -1.581319923422526,
                -2.567935398168454,
                -1.0684900794290881,
                -3.072109942053873
            ]
        },
        {
            "positions": [
                -0.10245679914019198,
                -2.192444092965235,
                -1.4992424436708607,
                -2.641319729839005,
                -0.8893534396542798,
                -3.066800617294524
            ]
        },
        {
            "positions": [
                -0.11928673791504438,
                -2.208857653120502,
                -1.4171649639191957,
                -2.714704061509556,
                -0.7102167998794715,
                -3.0614912925351754
            ]
        },
        {
            "positions": [
                -0.1361166766898968,
                -2.2252712132757693,
                -1.3350874841675306,
                -2.7880883931801073,
                -0.5310801601046631,
                -3.056181967775826
            ]
        },
        {
            "positions": [
                -0.1529466154647492,
                -2.2416847734310363,
                -1.2530100044158656,
                -2.861472724850658,
                -0.3519435203298549,
                -3.0508726430164774
            ]
        },
        {
            "positions": [
                -0.1697765542396016,
                -2.2580983335863034,
                -1.1709325246642004,
                -2.934857056521209,
                -0.17280688055504648,
                -3.0455633182571287
            ]
        }
    ]
}