{
    "goal": {
        "global_pose": {
            "orientation": {
                "w": -0.4816463035849501,
                "x": 0.5182115481033762,
                "y": 0.4908360881923453,
                "z": -0.5084816262002911
            },
            "position": {
                "x": -0.8240239810943604,
                "y": -0.300875300988555,
                "z": 0.16403168439865112
            }
        },
        "name": "move_to_storage_C"
    },
    "id": "PRM_move_to_storage_C_48",
    "joint_names": [
        "shoulder_pan_joint",
        "shoulder_lift_joint",
        "elbow_joint",
        "wrist_1_joint",
        "wrist_2_joint",
        "wrist_3_joint"
    ],
    "metrics": {
        "cart_traj_len": 0.5766511257608731,
        "distance_elbow_joint": 0.2594789394690449,
        "distance_shoulder_lift_joint": 0.1886027843579582,
        "distance_shoulder_pan_joint": 0.4943440546128808,
        "distance_wrist_1_joint": 0.08501765250837012,
        "distance_wrist_2_joint": 1.0717873463001126,
        "distance_wrist_3_joint": 0.06318227266474441,
        "smoothness": 2.5376526478085547e-16,
        "time": 0.017452447,
        "traj_len": 1.4705145527716177,
        "weighted_distance": 1.856228055506942
    },
    "planner": "PRM",
    "start": {
        "state": {
            "elbow_joint": 2.010868314990456,
            "shoulder_lift_joint": -1.1634956873337592,
            "shoulder_pan_joint": -2.4736205022346125,
            "wrist_1_joint": -0.8367026794202681,
            "wrist_2_joint": 0.6746043897044499,
            "wrist_3_joint": -3.1496632123970403
        }
    },
    "waypoints": [
        {
            "positions": [
                -2.4736205022346125,
                -1.1634956873337592,
                2.010868314990456,
                -0.8367026794202681,
                0.6746043897044499,
                -3.1496632123970403
            ]
        },
        {
            "positions": [
                -2.556011178003426,
                -1.1320618899407662,
                1.9676218250789483,
                -0.822533070668873,
                0.853235614087802,
                -3.1391328336195827
            ]
        },
        {
            "positions": [
                -2.6384018537722396,
                -1.1006280925477732,
                1.9243753351674409,
                -0.8083634619174781,
                1.0318668384711542,
                -3.1286024548421256
            ]
        },
        {
            "positions": [
                -2.720792529541053,
                -1.0691942951547801,
                1.8811288452559334,
                -0.794193853166083,
                1.2104980628545063,
                -3.118072076064668
            ]
        },
        {
            "positions": [
                -2.803183205309866,
                -1.0377604977617871,
                1.837882355344426,
                -0.780024244414688,
                1.3891292872378584,
                -3.1075416972872105
            ]
        },
        {
            "positions": [
                -2.8855738810786797,
                -1.0063267003687941,
                1.7946358654329184,
                -0.765854635663293,
                1.5677605116212106,
                -3.0970113185097534
            ]
        },
        {
            "positions": [
                -2.9679645568474933,
                -0.974892902975801,
                1.751389375521411,
                -0.751685026911898,
                1.7463917360045624,
                -3.086480939732296
            ]
        }
    ]
}