{
    "goal": {
        "global_pose": {
            "orientation": {
                "w": 0.7031023480610252,
                "x": -0.7110244013736278,
                "y": 0.0077485991402295624,
                "z": 0.005598929693374583
            },
            "position": {
                "x": -0.8841497679147869,
                "y": 0.44412534475326537,
                "z": 0.3711530566215515
            }
        },
        "name": "move_to_auspresseinheit_D"
    },
    "id": "PRM_move_to_auspresseinheit_D_11",
    "joint_names": [
        "shoulder_pan_joint",
        "shoulder_lift_joint",
        "elbow_joint",
        "wrist_1_joint",
        "wrist_2_joint",
        "wrist_3_joint"
    ],
    "metrics": {
        "cart_traj_len": 0.3450550149102836,
        "distance_elbow_joint": 0.6604870854242666,
        "distance_shoulder_lift_joint": 0.1331444696162789,
        "distance_shoulder_pan_joint": 0.1344644843573554,
        "distance_wrist_1_joint": 0.5967985158266922,
        "distance_wrist_2_joint": 1.4453185095145078,
        "distance_wrist_3_joint": 0.04308281394064606,
        "smoothness": 0.0,
        "time": 0.026543891,
        "traj_len": 1.7358847538588922,
        "weighted_distance": 2.2675049133138034
    },
    "planner": "PRM",
    "start": {
        "state": {
            "elbow_joint": -1.8275523626775212,
            "shoulder_lift_joint": -2.126789852344167,
            "shoulder_pan_joint": -0.03513704404078235,
            "wrist_1_joint": -2.347782403156801,
            "wrist_2_joint": -1.6058999987535132,
            "wrist_3_joint": -3.0880379163319196
        }
    },
    "waypoints": [
        {
            "positions": [
                -0.03513704404078235,
                -2.126789852344167,
                -1.8275523626775212,
                -2.347782403156801,
                -1.6058999987535132,
                -3.0880379163319196
            ]
        },
        {
            "positions": [
                -0.051945104585451776,
                -2.143432911046202,
                -1.7449914769994879,
                -2.4223822176351373,
                -1.4252351850641998,
                -3.082652564589339
            ]
        },
        {
            "positions": [
                -0.0687531651301212,
                -2.1600759697482363,
                -1.6624305913214545,
                -2.4969820321134737,
                -1.2445703713748864,
                -3.077267212846758
            ]
        },
        {
            "positions": [
                -0.08556122567479063,
                -2.1767190284502713,
                -1.5798697056434212,
                -2.5715818465918105,
                -1.0639055576855727,
                -3.071881861104177
            ]
        },
        {
            "positions": [
                -0.10236928621946004,
                -2.1933620871523063,
                -1.497308819965388,
                -2.646181661070147,
                -0.8832407439962593,
                -3.0664965093615963
            ]
        },
        {
            "positions": [
                -0.11917734676412947,
                -2.2100051458543413,
                -1.4147479342873546,
                -2.7207814755484834,
                -0.7025759303069459,
                -3.061111157619016
            ]
        },
        {
            "positions": [
                -0.1359854073087989,
                -2.2266482045563762,
                -1.3321870486093212,
                -2.7953812900268202,
                -0.5219111166176322,
                -3.055725805876435
            ]
        },
        {
            "positions": [
                -0.1527934678534683,
                -2.2432912632584108,
                -1.249626162931288,
                -2.8699811045051566,
                -0.3412463029283188,
                -3.0503404541338544
            ]
        },
        {
            "positions": [
                -0.16960152839813775,
                -2.2599343219604457,
                -1.1670652772532546,
                -2.944580918983493,
                -0.16058148923900528,
                -3.0449551023912735
            ]
        }
    ]
}