{
    "goal": {
        "global_pose": {
            "orientation": {
                "w": 0.7031023480610252,
                "x": -0.7110244013736278,
                "y": 0.0077485991402295624,
                "z": 0.005598929693374583
            },
            "position": {
                "x": -0.8841497679147869,
                "y": 0.44412534475326537,
                "z": 0.3711530566215515
            }
        },
        "name": "move_to_auspresseinheit_D"
    },
    "id": "PRM_move_to_auspresseinheit_D_9",
    "joint_names": [
        "shoulder_pan_joint",
        "shoulder_lift_joint",
        "elbow_joint",
        "wrist_1_joint",
        "wrist_2_joint",
        "wrist_3_joint"
    ],
    "metrics": {
        "cart_traj_len": 0.3439324805962694,
        "distance_elbow_joint": 0.6599945396500151,
        "distance_shoulder_lift_joint": 0.1341881036608874,
        "distance_shoulder_pan_joint": 0.13364383969436658,
        "distance_wrist_1_joint": 0.5903955022498302,
        "distance_wrist_2_joint": 1.4485510741996366,
        "distance_wrist_3_joint": 0.0550189463145081,
        "smoothness": 0.0,
        "time": 0.015614844999999999,
        "traj_len": 1.7383302349580312,
        "weighted_distance": 2.2739341403936324
    },
    "planner": "PRM",
    "start": {
        "state": {
            "elbow_joint": -1.8275523626775212,
            "shoulder_lift_joint": -2.126789852344167,
            "shoulder_pan_joint": -0.03513704404078235,
            "wrist_1_joint": -2.347782403156801,
            "wrist_2_joint": -1.6058999987535132,
            "wrist_3_joint": -3.0880379163319196
        }
    },
    "waypoints": [
        {
            "positions": [
                -0.03513704404078235,
                -2.126789852344167,
                -1.8275523626775212,
                -2.347782403156801,
                -1.6058999987535132,
                -3.0880379163319196
            ]
        },
        {
            "positions": [
                -0.051842524002578175,
                -2.1435633653017776,
                -1.7450530452212694,
                -2.4215818409380296,
                -1.4248311144785586,
                -3.081160548042606
            ]
        },
        {
            "positions": [
                -0.068548003964374,
                -2.160336878259389,
                -1.6625537277650175,
                -2.4953812787192584,
                -1.243762230203604,
                -3.0742831797532926
            ]
        },
        {
            "positions": [
                -0.08525348392616983,
                -2.1771103912169996,
                -1.5800544103087655,
                -2.569180716500487,
                -1.0626933459286496,
                -3.067405811463979
            ]
        },
        {
            "positions": [
                -0.10195896388796563,
                -2.1938839041746103,
                -1.4975550928525136,
                -2.642980154281716,
                -0.8816244616536949,
                -3.0605284431746655
            ]
        },
        {
            "positions": [
                -0.11866444384976146,
                -2.2106574171322215,
                -1.4150557753962618,
                -2.7167795920629447,
                -0.7005555773787403,
                -3.053651074885352
            ]
        },
        {
            "positions": [
                -0.1353699238115573,
                -2.2274309300898323,
                -1.3325564579400098,
                -2.7905790298441735,
                -0.5194866931037858,
                -3.0467737065960385
            ]
        },
        {
            "positions": [
                -0.1520754037733531,
                -2.2442044430474435,
                -1.250057140483758,
                -2.8643784676254023,
                -0.3384178088288312,
                -3.039896338306725
            ]
        },
        {
            "positions": [
                -0.16878088373514893,
                -2.2609779560050542,
                -1.167557823027506,
                -2.938177905406631,
                -0.1573489245538766,
                -3.0330189700174115
            ]
        }
    ]
}