{
    "goal": {
        "global_pose": {
            "orientation": {
                "w": 0.7047431493862688,
                "x": -0.7094548369677653,
                "y": 0.0024358444001904,
                "z": -0.0022348060817251984
            },
            "position": {
                "x": -0.39052492380142206,
                "y": 0.3671506643295288,
                "z": 0.19426114857196808
            }
        },
        "name": "move_to_magneteinheit_D"
    },
    "id": "PRM_move_to_magneteinheit_D_66",
    "joint_names": [
        "shoulder_pan_joint",
        "shoulder_lift_joint",
        "elbow_joint",
        "wrist_1_joint",
        "wrist_2_joint",
        "wrist_3_joint"
    ],
    "metrics": {
        "cart_traj_len": 5.094859696178807,
        "distance_elbow_joint": 3.5651478480545276,
        "distance_shoulder_lift_joint": 1.663932837476901,
        "distance_shoulder_pan_joint": 3.19263681488546,
        "distance_wrist_1_joint": 2.271810260069497,
        "distance_wrist_2_joint": 1.7552294499279018,
        "distance_wrist_3_joint": 3.5036775745730253,
        "smoothness": 1.0563529757457288,
        "time": 0.778348823,
        "traj_len": 3.9940499226959245,
        "weighted_distance": 5.194884950037949
    },
    "planner": "PRM",
    "start": {
        "state": {
            "elbow_joint": 0.749534889911806,
            "shoulder_lift_joint": -0.6476975780787326,
            "shoulder_pan_joint": -2.711696901376241,
            "wrist_1_joint": -0.07506478083263063,
            "wrist_2_joint": 0.43296659715538205,
            "wrist_3_joint": -3.14703540197715
        }
    },
    "waypoints": [
        {
            "positions": [
                -2.711696901376241,
                -0.6476975780787326,
                0.749534889911806,
                -0.07506478083263063,
                0.43296659715538205,
                -3.14703540197715
            ]
        },
        {
            "positions": [
                -2.7624278264661486,
                -0.7543681963548958,
                0.8223143710196938,
                -0.16257819474387963,
                0.4081961044895318,
                -3.1769785280650393
            ]
        },
        {
            "positions": [
                -2.813158751556056,
                -0.8610388146310589,
                0.8950938521275817,
                -0.2500916086551287,
                0.3834256118236815,
                -3.2069216541529286
            ]
        },
        {
            "positions": [
                -2.8638896766459636,
                -0.9677094329072221,
                0.9678733332354698,
                -0.3376050225663777,
                0.35865511915783127,
                -3.236864780240818
            ]
        },
        {
            "positions": [
                -2.80158393864078,
                -1.0022519854582619,
                0.9655122337231064,
                -0.34614929130822336,
                0.5147135967892111,
                -3.15503313072416
            ]
        },
        {
            "positions": [
                -2.7392782006355967,
                -1.0367945380093015,
                0.9631511342107428,
                -0.354693560050069,
                0.670772074420591,
                -3.0732014812075024
            ]
        },
        {
            "positions": [
                -2.676972462630413,
                -1.0713370905603412,
                0.9607900346983794,
                -0.3632378287919147,
                0.8268305520519708,
                -2.9913698316908444
            ]
        },
        {
            "positions": [
                -2.6146667246252298,
                -1.1058796431113809,
                0.958428935186016,
                -0.37178209753376035,
                0.9828890296833506,
                -2.9095381821741864
            ]
        },
        {
            "positions": [
                -2.475503936929321,
                -1.1257941777209752,
                0.9248002060548279,
                -0.33223541096188103,
                0.943669660799054,
                -2.7998200902097694
            ]
        },
        {
            "positions": [
                -2.3363411492334127,
                -1.1457087123305694,
                0.8911714769236397,
                -0.29268872439000165,
                0.9044502919147575,
                -2.690101998245352
            ]
        },
        {
            "positions": [
                -2.197178361537504,
                -1.1656232469401637,
                0.8575427477924517,
                -0.25314203781812233,
                0.8652309230304609,
                -2.580383906280935
            ]
        },
        {
            "positions": [
                -2.0580155738415957,
                -1.185537781549758,
                0.8239140186612635,
                -0.213595351246243,
                0.8260115541461643,
                -2.470665814316518
            ]
        },
        {
            "positions": [
                -1.918852786145687,
                -1.2054523161593524,
                0.7902852895300754,
                -0.17404866467436364,
                0.7867921852618678,
                -2.360947722352101
            ]
        },
        {
            "positions": [
                -1.7796899984497783,
                -1.2253668507689466,
                0.7566565603988873,
                -0.1345019781024843,
                0.7475728163775712,
                -2.2512296303876838
            ]
        },
        {
            "positions": [
                -1.6405272107538698,
                -1.245281385378541,
                0.7230278312676992,
                -0.094955291530605,
                0.7083534474932748,
                -2.141511538423267
            ]
        },
        {
            "positions": [
                -1.5013644230579613,
                -1.2651959199881353,
                0.689399102136511,
                -0.05540860495872563,
                0.6691340786089782,
                -2.03179344645885
            ]
        },
        {
            "positions": [
                -1.3622016353620525,
                -1.2851104545977294,
                0.6557703730053229,
                -0.015861918386846308,
                0.6299147097246817,
                -1.9220753544944325
            ]
        },
        {
            "positions": [
                -1.223038847666144,
                -1.3050249892073238,
                0.6221416438741347,
                0.023684768185033067,
                0.5906953408403851,
                -1.8123572625300155
            ]
        },
        {
            "positions": [
                -1.0838760599702353,
                -1.3249395238169182,
                0.5885129147429466,
                0.06323145475691239,
                0.5514759719560886,
                -1.7026391705655983
            ]
        },
        {
            "positions": [
                -0.9447132722743268,
                -1.3448540584265123,
                0.5548841856117586,
                0.10277814132879176,
                0.512256603071792,
                -1.5929210786011814
            ]
        },
        {
            "positions": [
                -0.8055504845784185,
                -1.3647685930361066,
                0.5212554564805705,
                0.14232482790067102,
                0.47303723418749555,
                -1.4832029866367644
            ]
        },
        {
            "positions": [
                -0.6663876968825098,
                -1.384683127645701,
                0.48762672734938234,
                0.18187151447255034,
                0.433817865303199,
                -1.3734848946723472
            ]
        },
        {
            "positions": [
                -0.527224909186601,
                -1.4045976622552954,
                0.4539979982181942,
                0.22141820104442966,
                0.39459849641890243,
                -1.26376680270793
            ]
        },
        {
            "positions": [
                -0.38806212149069275,
                -1.4245121968648895,
                0.420369269087006,
                0.2609648876163091,
                0.3553791275346059,
                -1.1540487107435131
            ]
        },
        {
            "positions": [
                -0.24889933379478388,
                -1.4444267314744839,
                0.3867405399558179,
                0.3005115741881884,
                0.3161597586503093,
                -1.044330618779096
            ]
        },
        {
            "positions": [
                -0.23263302212359127,
                -1.4963412187077658,
                0.22721895686044868,
                0.372937230122893,
                0.3023418008719979,
                -0.9779785952316157
            ]
        },
        {
            "positions": [
                -0.21636671045239866,
                -1.5482557059410478,
                0.06769737376507945,
                0.44536288605759755,
                0.2885238430936865,
                -0.9116265716841355
            ]
        },
        {
            "positions": [
                -0.20010039878120606,
                -1.6001701931743297,
                -0.09182420933028984,
                0.5177885419923022,
                0.2747058853153751,
                -0.8452745481366553
            ]
        },
        {
            "positions": [
                -0.18383408711001345,
                -1.652084680407612,
                -0.251345792425659,
                0.5902141979270068,
                0.2608879275370637,
                -0.7789225245891751
            ]
        },
        {
            "positions": [
                -0.16756777543882084,
                -1.7039991676408937,
                -0.41086737552102826,
                0.6626398538617113,
                0.24706996975875228,
                -0.7125705010416948
            ]
        },
        {
            "positions": [
                -0.1513014637676282,
                -1.7559136548741758,
                -0.5703889586163976,
                0.7350655097964159,
                0.23325201198044088,
                -0.6462184774942146
            ]
        },
        {
            "positions": [
                -0.13503515209643563,
                -1.8078281421074578,
                -0.7299105417117668,
                0.8074911657311206,
                0.21943405420212947,
                -0.5798664539467344
            ]
        },
        {
            "positions": [
                -0.11876884042524302,
                -1.8597426293407398,
                -0.889432124807136,
                0.8799168216658251,
                0.20561609642381806,
                -0.5135144303992542
            ]
        },
        {
            "positions": [
                -0.10250252875405041,
                -1.9116571165740217,
                -1.0489537079025053,
                0.9523424776005297,
                0.19179813864550668,
                -0.447162406851774
            ]
        },
        {
            "positions": [
                -0.08623621708285781,
                -1.9635716038073037,
                -1.2084752909978744,
                1.0247681335352343,
                0.17798018086719528,
                -0.38081038330429373
            ]
        },
        {
            "positions": [
                -0.0699699054116652,
                -2.015486091040586,
                -1.3679968740932436,
                1.0971937894699388,
                0.16416222308888387,
                -0.3144583597568136
            ]
        },
        {
            "positions": [
                -0.053703593740472566,
                -2.067400578273868,
                -1.5275184571886131,
                1.1696194454046434,
                0.15034426531057243,
                -0.2481063362093332
            ]
        },
        {
            "positions": [
                -0.03743728206927996,
                -2.1193150655071498,
                -1.6870400402839825,
                1.242045101339348,
                0.13652630753226105,
                -0.18175431266185305
            ]
        },
        {
            "positions": [
                -0.021170970398087352,
                -2.1712295527404315,
                -1.8465616233793516,
                1.3144707572740528,
                0.12270834975394965,
                -0.11540228911437278
            ]
        },
        {
            "positions": [
                -0.0049046587268947416,
                -2.2231440399737137,
                -2.0060832064747207,
                1.3868964132087571,
                0.10889039197563824,
                -0.04905026556689262
            ]
        },
        {
            "positions": [
                -0.03600317189449334,
                -2.2707843562155228,
                -2.1054185734316313,
                1.3375257938300855,
                0.05077214996194661,
                -0.1315787011949091
            ]
        },
        {
            "positions": [
                -0.06898920986457627,
                -2.2630441836661457,
                -2.1561686144666954,
                1.3972245673696448,
                0.09907590469953767,
                -0.0772809100978703
            ]
        },
        {
            "positions": [
                -0.10197524783465918,
                -2.2553040111167686,
                -2.2069186555017595,
                1.4569233409092042,
                0.14737965943712875,
                -0.022983119000831487
            ]
        },
        {
            "positions": [
                -0.18636368042356152,
                -2.280669725358125,
                -2.3789360714953935,
                1.5045696070772638,
                0.17533933164537543,
                0.01192654481250717
            ]
        }
    ]
}