{
    "goal": {
        "global_pose": {
            "orientation": {
                "w": 0.5084816217422485,
                "x": -0.49083608388900757,
                "y": 0.5182115435600281,
                "z": -0.4816462993621826
            },
            "position": {
                "x": 0.5540239810943604,
                "y": 0.030875300988554955,
                "z": 0.16403168439865112
            }
        },
        "name": "move_to_storage_A"
    },
    "id": "PRM_move_to_storage_A_107",
    "joint_names": [
        "shoulder_pan_joint",
        "shoulder_lift_joint",
        "elbow_joint",
        "wrist_1_joint",
        "wrist_2_joint",
        "wrist_3_joint"
    ],
    "metrics": {
        "cart_traj_len": 0.3522475043424798,
        "distance_elbow_joint": 0.4498727438615322,
        "distance_shoulder_lift_joint": 0.23518320413327154,
        "distance_shoulder_pan_joint": 0.45871171026271523,
        "distance_wrist_1_joint": 0.24006529591469972,
        "distance_wrist_2_joint": 1.105962522765673,
        "distance_wrist_3_joint": 0.09819806668208964,
        "smoothness": 0.0,
        "time": 0.023113964,
        "traj_len": 1.6087241974993667,
        "weighted_distance": 2.0323428587874965
    },
    "planner": "PRM",
    "start": {
        "state": {
            "elbow_joint": 1.971548259319323,
            "shoulder_lift_joint": -1.1394851275133948,
            "shoulder_pan_joint": 0.1228115487234821,
            "wrist_1_joint": -0.7804723859257726,
            "wrist_2_joint": 0.12958671773740124,
            "wrist_3_joint": -3.192489227718131
        }
    },
    "waypoints": [
        {
            "positions": [
                0.1228115487234821,
                -1.1394851275133948,
                1.971548259319323,
                -0.7804723859257726,
                0.12958671773740124,
                -3.192489227718131
            ]
        },
        {
            "positions": [
                0.05728130440023707,
                -1.1730827281038623,
                2.035815794156685,
                -0.8147674281993011,
                0.2875813638467831,
                -3.1784609324778326
            ]
        },
        {
            "positions": [
                -0.008248939923007959,
                -1.2066803286943295,
                2.1000833289940464,
                -0.8490624704728297,
                0.445576009956165,
                -3.164432637237534
            ]
        },
        {
            "positions": [
                -0.07377918424625299,
                -1.240277929284797,
                2.1643508638314084,
                -0.8833575127463582,
                0.6035706560655468,
                -3.1504043419972354
            ]
        },
        {
            "positions": [
                -0.13930942856949802,
                -1.2738755298752642,
                2.22861839866877,
                -0.9176525550198867,
                0.7615653021749287,
                -3.1363760467569373
            ]
        },
        {
            "positions": [
                -0.20483967289274307,
                -1.3074731304657317,
                2.2928859335061316,
                -0.9519475972934153,
                0.9195599482843106,
                -3.1223477515166387
            ]
        },
        {
            "positions": [
                -0.2703699172159881,
                -1.341070731056199,
                2.3571534683434936,
                -0.9862426395669438,
                1.0775545943936924,
                -3.10831945627634
            ]
        },
        {
            "positions": [
                -0.33590016153923313,
                -1.3746683316466664,
                2.421421003180855,
                -1.0205376818404723,
                1.2355492405030744,
                -3.0942911610360415
            ]
        }
    ]
}{
    "goal": {
        "global_pose": {
            "orientation": {
                "w": 0.5084816217422485,
                "x": -0.49083608388900757,
                "y": 0.5182115435600281,
                "z": -0.4816462993621826
            },
            "position": {
                "x": 0.5540239810943604,
                "y": 0.030875300988554955,
                "z": 0.16403168439865112
            }
        },
        "name": "move_to_storage_A"
    },
    "id": "PRM_move_to_storage_A_107",
    "joint_names": [
        "shoulder_pan_joint",
        "shoulder_lift_joint",
        "elbow_joint",
        "wrist_1_joint",
        "wrist_2_joint",
        "wrist_3_joint"
    ],
    "metrics": {
        "cart_traj_len": 0.35386472442431116,
        "distance_elbow_joint": 0.44756555802917886,
        "distance_shoulder_lift_joint": 0.2337214090581341,
        "distance_shoulder_pan_joint": 0.4604512243126862,
        "distance_wrist_1_joint": 0.23479483495233167,
        "distance_wrist_2_joint": 1.10943655270219,
        "distance_wrist_3_joint": 0.09865005059798948,
        "smoothness": 6.661338165333112e-16,
        "time": 0.023456956,
        "traj_len": 1.6076752251784285,
        "weighted_distance": 2.0312929671770665
    },
    "planner": "PRM",
    "start": {
        "state": {
            "elbow_joint": 1.97154746011099,
            "shoulder_lift_joint": -1.13948474672311,
            "shoulder_pan_joint": 0.12281154466712228,
            "wrist_1_joint": -0.7804688027058302,
            "wrist_2_joint": 0.12958655903071145,
            "wrist_3_joint": 3.0906928834467795
        }
    },
    "waypoints": [
        {
            "positions": [
                0.12281154466712228,
                -1.13948474672311,
                1.97154746011099,
                -0.7804688027058302,
                0.12958655903071145,
                3.0906928834467795
            ]
        },
        {
            "positions": [
                0.05703279833673855,
                -1.1728735194457005,
                2.0354853969723012,
                -0.8140109219847347,
                0.2880774951310243,
                3.104785747817921
            ]
        },
        {
            "positions": [
                -0.008745947993645184,
                -1.206262292168291,
                2.0994233338336126,
                -0.8475530412636392,
                0.44656843123133716,
                3.118878612189062
            ]
        },
        {
            "positions": [
                -0.07452469432402893,
                -1.2396510648908816,
                2.163361270694924,
                -0.8810951605425438,
                0.60505936733165,
                3.1329714765602037
            ]
        },
        {
            "positions": [
                -0.14030344065441264,
                -1.2730398376134722,
                2.227299207556235,
                -0.9146372798214483,
                0.763550303431963,
                3.147064340931345
            ]
        },
        {
            "positions": [
                -0.2060821869847964,
                -1.306428610336063,
                2.291237144417546,
                -0.9481793991003529,
                0.9220412395322759,
                3.1611572053024863
            ]
        },
        {
            "positions": [
                -0.27186093331518013,
                -1.3398173830586535,
                2.3551750812788574,
                -0.9817215183792574,
                1.0805321756325885,
                3.1752500696736274
            ]
        },
        {
            "positions": [
                -0.3376396796455639,
                -1.373206155781244,
                2.4191130181401688,
                -1.0152636376581619,
                1.2390231117329016,
                3.189342934044769
            ]
        }
    ]
}{
    "goal": {
        "global_pose": {
            "orientation": {
                "w": 0.5084816217422485,
                "x": -0.49083608388900757,
                "y": 0.5182115435600281,
                "z": -0.4816462993621826
            },
            "position": {
                "x": 0.5540239810943604,
                "y": 0.030875300988554955,
                "z": 0.16403168439865112
            }
        },
        "name": "move_to_storage_A"
    },
    "id": "PRM_move_to_storage_A_107",
    "joint_names": [
        "shoulder_pan_joint",
        "shoulder_lift_joint",
        "elbow_joint",
        "wrist_1_joint",
        "wrist_2_joint",
        "wrist_3_joint"
    ],
    "metrics": {
        "cart_traj_len": 0.35334486373003426,
        "distance_elbow_joint": 0.44879913406974703,
        "distance_shoulder_lift_joint": 0.2326767608975988,
        "distance_shoulder_pan_joint": 0.4581808995136982,
        "distance_wrist_1_joint": 0.2433390333447074,
        "distance_wrist_2_joint": 1.1147605597529209,
        "distance_wrist_3_joint": 0.09245124360284862,
        "smoothness": 0.0,
        "time": 0.024033561,
        "traj_len": 1.6094122005196558,
        "weighted_distance": 2.0330296878021348
    },
    "planner": "PRM",
    "start": {
        "state": {
            "elbow_joint": 1.9715472970024885,
            "shoulder_lift_joint": -1.1394870060712896,
            "shoulder_pan_joint": 0.12281152778156021,
            "wrist_1_joint": -0.780463741449964,
            "wrist_2_joint": 0.12958659822042276,
            "wrist_3_joint": 3.090690232415272
        }
    },
    "waypoints": [
        {
            "positions": [
                0.12281152778156021,
                -1.1394870060712896,
                1.9715472970024885,
                -0.780463741449964,
                0.12958659822042276,
                3.090690232415272
            ]
        },
        {
            "positions": [
                0.05735711356531761,
                -1.1727265433423752,
                2.035661459012452,
                -0.8152264604992079,
                0.2888381067565543,
                3.1038975529299644
            ]
        },
        {
            "positions": [
                -0.008097300650924982,
                -1.2059660806134607,
                2.0997756210224163,
                -0.8499891795484518,
                0.44808961529268587,
                3.1171048734446574
            ]
        },
        {
            "positions": [
                -0.07355171486716758,
                -1.2392056178845463,
                2.16388978303238,
                -0.8847518985976958,
                0.6073411238288174,
                3.13031219395935
            ]
        },
        {
            "positions": [
                -0.13900612908341017,
                -1.2724451551556317,
                2.228003945042344,
                -0.9195146176469396,
                0.7665926323649489,
                3.1435195144740424
            ]
        },
        {
            "positions": [
                -0.20446054329965282,
                -1.3056846924267174,
                2.292118107052308,
                -0.9542773366961836,
                0.9258441409010805,
                3.156726834988735
            ]
        },
        {
            "positions": [
                -0.26991495751589534,
                -1.3389242296978028,
                2.3562322690622715,
                -0.9890400557454275,
                1.0850956494372122,
                3.169934155503428
            ]
        },
        {
            "positions": [
                -0.335369371732138,
                -1.3721637669688884,
                2.4203464310722356,
                -1.0238027747946714,
                1.2443471579733436,
                3.1831414760181205
            ]
        }
    ]
}