{
    "goal": {
        "global_pose": {
            "orientation": {
                "w": 0.5084816262002911,
                "x": -0.4908360881923452,
                "y": 0.5182115481033761,
                "z": -0.48164630358495003
            },
            "position": {
                "x": 0.5540239810943604,
                "y": -0.46912469901144505,
                "z": 0.16403168439865112
            }
        },
        "name": "move_to_storage_B"
    },
    "id": "PRM_move_to_storage_B_99",
    "joint_names": [
        "shoulder_pan_joint",
        "shoulder_lift_joint",
        "elbow_joint",
        "wrist_1_joint",
        "wrist_2_joint",
        "wrist_3_joint"
    ],
    "metrics": {
        "cart_traj_len": 0.9408871041373345,
        "distance_elbow_joint": 0.6969250007091965,
        "distance_shoulder_lift_joint": 0.46189212427179416,
        "distance_shoulder_pan_joint": 0.7344242583447075,
        "distance_wrist_1_joint": 2.9996033035544407,
        "distance_wrist_2_joint": 2.721556779471174,
        "distance_wrist_3_joint": 3.1284801313148463,
        "smoothness": 0.1158791770099367,
        "time": 0.147421521,
        "traj_len": 3.2776335362065967,
        "weighted_distance": 4.766655215486166
    },
    "planner": "PRM",
    "start": {
        "state": {
            "elbow_joint": 1.664937868594044,
            "shoulder_lift_joint": -0.661644460510453,
            "shoulder_pan_joint": -0.9139846352900073,
            "wrist_1_joint": 2.146753192139373,
            "wrist_2_joint": -2.2341966793290973,
            "wrist_3_joint": 0.005466555786416001
        }
    },
    "waypoints": [
        {
            "positions": [
                -0.9139846352900073,
                -0.661644460510453,
                1.664937868594044,
                2.146753192139373,
                -2.2341966793290973,
                0.005466555786416001
            ]
        },
        {
            "positions": [
                -0.8215231420047362,
                -0.701425754535235,
                1.6081684300233472,
                2.1060929669631165,
                -2.0858358031943487,
                0.005169635484359134
            ]
        },
        {
            "positions": [
                -0.7290616487194652,
                -0.7412070485600172,
                1.5513989914526503,
                2.0654327417868594,
                -1.9374749270596003,
                0.0048727151823022685
            ]
        },
        {
            "positions": [
                -0.6366001554341941,
                -0.7809883425847992,
                1.4946295528819535,
                2.0247725166106028,
                -1.7891140509248518,
                0.004575794880245402
            ]
        },
        {
            "positions": [
                -0.6548817465737499,
                -0.7946902722726972,
                1.5156942202818378,
                1.9096676114895759,
                -1.6980550848821747,
                -0.12052777993610164
            ]
        },
        {
            "positions": [
                -0.6731633377133057,
                -0.808392201960595,
                1.536758887681722,
                1.7945627063685492,
                -1.6069961188394977,
                -0.24563135475244868
            ]
        },
        {
            "positions": [
                -0.6914449288528615,
                -0.822094131648493,
                1.5578235550816062,
                1.6794578012475223,
                -1.5159371527968206,
                -0.37073492956879567
            ]
        },
        {
            "positions": [
                -0.7097265199924172,
                -0.8357960613363908,
                1.5788882224814906,
                1.5643528961264956,
                -1.4248781867541433,
                -0.49583850438514276
            ]
        },
        {
            "positions": [
                -0.728008111131973,
                -0.8494979910242888,
                1.5999528898813749,
                1.4492479910054685,
                -1.3338192207114663,
                -0.6209420792014898
            ]
        },
        {
            "positions": [
                -0.7462897022715288,
                -0.8631999207121868,
                1.621017557281259,
                1.3341430858844419,
                -1.2427602546687893,
                -0.7460456540178367
            ]
        },
        {
            "positions": [
                -0.7645712934110845,
                -0.8769018504000846,
                1.6420822246811433,
                1.219038180763415,
                -1.151701288626112,
                -0.8711492288341839
            ]
        },
        {
            "positions": [
                -0.7828528845506403,
                -0.8906037800879826,
                1.6631468920810275,
                1.1039332756423883,
                -1.0606423225834352,
                -0.9962528036505309
            ]
        },
        {
            "positions": [
                -0.8011344756901961,
                -0.9043057097758804,
                1.6842115594809117,
                0.9888283705213614,
                -0.969583356540758,
                -1.1213563784668779
            ]
        },
        {
            "positions": [
                -0.8194160668297519,
                -0.9180076394637784,
                1.705276226880796,
                0.8737234654003345,
                -0.8785243904980808,
                -1.246459953283225
            ]
        },
        {
            "positions": [
                -0.8376976579693076,
                -0.9317095691516764,
                1.7263408942806802,
                0.7586185602793079,
                -0.7874654244554038,
                -1.371563528099572
            ]
        },
        {
            "positions": [
                -0.8559792491088634,
                -0.9454114988395742,
                1.7474055616805644,
                0.6435136551582812,
                -0.6964064584127267,
                -1.4966671029159189
            ]
        },
        {
            "positions": [
                -0.8742608402484192,
                -0.9591134285274722,
                1.7684702290804486,
                0.5284087500372541,
                -0.6053474923700495,
                -1.621770677732266
            ]
        },
        {
            "positions": [
                -0.892542431387975,
                -0.97281535821537,
                1.789534896480333,
                0.4133038449162272,
                -0.5142885263273724,
                -1.7468742525486132
            ]
        },
        {
            "positions": [
                -0.9108240225275307,
                -0.986517287903268,
                1.8105995638802173,
                0.29819893979520073,
                -0.4232295602846954,
                -1.8719778273649599
            ]
        },
        {
            "positions": [
                -0.9291056136670865,
                -1.000219217591166,
                1.8316642312801015,
                0.18309403467417384,
                -0.33217059424201834,
                -1.9970814021813073
            ]
        },
        {
            "positions": [
                -0.9473872048066423,
                -1.013921147279064,
                1.8527288986799857,
                0.06798912955314673,
                -0.24111162819934107,
                -2.122184976997654
            ]
        },
        {
            "positions": [
                -0.965668795946198,
                -1.0276230769669616,
                1.87379356607987,
                -0.047115775567879936,
                -0.15005266215666424,
                -2.247288551814001
            ]
        },
        {
            "positions": [
                -0.9839503870857538,
                -1.0413250066548596,
                1.8948582334797541,
                -0.1622206806889066,
                -0.05899369611398697,
                -2.372392126630348
            ]
        },
        {
            "positions": [
                -1.0022319782253097,
                -1.0550269363427576,
                1.9159229008796386,
                -0.2773255858099337,
                0.03206526992869008,
                -2.497495701446695
            ]
        },
        {
            "positions": [
                -1.0205135693648653,
                -1.0687288660306555,
                1.9369875682795228,
                -0.3924304909309604,
                0.12312423597136712,
                -2.622599276263042
            ]
        },
        {
            "positions": [
                -1.0387951605044212,
                -1.0824307957185533,
                1.958052235679407,
                -0.507535396051987,
                0.21418320201404417,
                -2.747702851079389
            ]
        },
        {
            "positions": [
                -1.057076751643977,
                -1.0961327254064512,
                1.9791169030792912,
                -0.6226403011730142,
                0.30524216805672144,
                -2.872806425895736
            ]
        },
        {
            "positions": [
                -1.0753583427835327,
                -1.1098346550943492,
                2.0001815704791754,
                -0.7377452062940404,
                0.39630113409939827,
                -2.997910000712083
            ]
        },
        {
            "positions": [
                -1.0936399339230884,
                -1.1235365847822472,
                2.0212462378790597,
                -0.8528501114150676,
                0.4873601001420754,
                -3.12301357552843
            ]
        }
    ]
}