{
    "goal": {
        "global_pose": {
            "orientation": {
                "w": -0.4816463035849501,
                "x": 0.5182115481033762,
                "y": 0.4908360881923453,
                "z": -0.5084816262002911
            },
            "position": {
                "x": -0.8240239810943604,
                "y": 0.19912469901144506,
                "z": 0.16403168439865112
            }
        },
        "name": "move_to_storage_D"
    },
    "id": "PRM_move_to_storage_D_132",
    "joint_names": [
        "shoulder_pan_joint",
        "shoulder_lift_joint",
        "elbow_joint",
        "wrist_1_joint",
        "wrist_2_joint",
        "wrist_3_joint"
    ],
    "metrics": {
        "cart_traj_len": 3.9477642390491687,
        "distance_elbow_joint": 4.210994202702024,
        "distance_shoulder_lift_joint": 1.263597710072596,
        "distance_shoulder_pan_joint": 2.8114004110047177,
        "distance_wrist_1_joint": 2.2690425388338946,
        "distance_wrist_2_joint": 0.8684885375630732,
        "distance_wrist_3_joint": 3.139729820882986,
        "smoothness": 4.674623298594706e-17,
        "time": 0.31793370000000004,
        "traj_len": 3.816183069646854,
        "weighted_distance": 4.896962725937602
    },
    "planner": "PRM",
    "start": {
        "state": {
            "elbow_joint": -2.384821988534728,
            "shoulder_lift_joint": -2.2788054721415256,
            "shoulder_pan_joint": -0.1854694642142757,
            "wrist_1_joint": 1.4845938289331202,
            "wrist_2_joint": 0.17898776772866878,
            "wrist_3_joint": 0.037105688729662994
        }
    },
    "waypoints": [
        {
            "positions": [
                -0.1854694642142757,
                -2.2788054721415256,
                -2.384821988534728,
                1.4845938289331202,
                0.17898776772866878,
                0.037105688729662994
            ]
        },
        {
            "positions": [
                -0.06563298827798739,
                -2.228041628758964,
                -2.2787395015384857,
                1.3969948352763122,
                0.20401458168810346,
                0.041532995100674576
            ]
        },
        {
            "positions": [
                0.054203487658300936,
                -2.1772777853764027,
                -2.1726570145422435,
                1.3093958416195042,
                0.22904139564753814,
                0.045960301471686164
            ]
        },
        {
            "positions": [
                0.17403996359458926,
                -2.1265139419938413,
                -2.0665745275460012,
                1.2217968479626962,
                0.2540682096069728,
                0.050387607842697746
            ]
        },
        {
            "positions": [
                0.2938764395308776,
                -2.07575009861128,
                -1.960492040549759,
                1.1341978543058882,
                0.2790950235664075,
                0.054814914213709334
            ]
        },
        {
            "positions": [
                0.41371291546716593,
                -2.0249862552287183,
                -1.8544095535535168,
                1.04659886064908,
                0.30412183752584215,
                0.059242220584720916
            ]
        },
        {
            "positions": [
                0.5335493914034543,
                -1.974222411846157,
                -1.7483270665572745,
                0.958999866992272,
                0.32914865148527683,
                0.0636695269557325
            ]
        },
        {
            "positions": [
                0.6533858673397426,
                -1.9234585684635956,
                -1.6422445795610325,
                0.871400873335464,
                0.35417546544471146,
                0.06809683332674409
            ]
        },
        {
            "positions": [
                0.7732223432760309,
                -1.8726947250810342,
                -1.53616209256479,
                0.7838018796786559,
                0.3792022794041462,
                0.07252413969775567
            ]
        },
        {
            "positions": [
                0.8930588192123193,
                -1.8219308816984727,
                -1.430079605568548,
                0.6962028860218479,
                0.4042290933635808,
                0.07695144606876725
            ]
        },
        {
            "positions": [
                1.0128952951486074,
                -1.7711670383159113,
                -1.3239971185723058,
                0.6086038923650399,
                0.42925590732301555,
                0.08137875243977884
            ]
        },
        {
            "positions": [
                1.1327317710848959,
                -1.7204031949333498,
                -1.2179146315760636,
                0.5210048987082317,
                0.4542827212824502,
                0.08580605881079043
            ]
        },
        {
            "positions": [
                1.252568247021184,
                -1.6696393515507886,
                -1.1118321445798214,
                0.43340590505142385,
                0.4793095352418849,
                0.090233365181802
            ]
        },
        {
            "positions": [
                1.3724047229574725,
                -1.618875508168227,
                -1.0057496575835791,
                0.34580691139461583,
                0.5043363492013195,
                0.09466067155281359
            ]
        },
        {
            "positions": [
                1.4922411988937607,
                -1.5681116647856657,
                -0.8996671705873371,
                0.2582079177378078,
                0.5293631631607542,
                0.09908797792382518
            ]
        },
        {
            "positions": [
                1.612077674830049,
                -1.5173478214031042,
                -0.7935846835910949,
                0.1706089240809998,
                0.5543899771201889,
                0.10351528429483675
            ]
        },
        {
            "positions": [
                1.7319141507663374,
                -1.4665839780205427,
                -0.6875021965948525,
                0.08300993042419158,
                0.5794167910796236,
                0.10794259066584834
            ]
        },
        {
            "positions": [
                1.8517506267026258,
                -1.4158201346379813,
                -0.5814197095986104,
                -0.0045890632326164305,
                0.6044436050390583,
                0.11236989703685993
            ]
        },
        {
            "positions": [
                1.9715871026389142,
                -1.3650562912554198,
                -0.4753372226023682,
                -0.09218805688942444,
                0.6294704189984929,
                0.11679720340787152
            ]
        },
        {
            "positions": [
                2.0914235785752022,
                -1.3142924478728584,
                -0.369254735606126,
                -0.17978705054623245,
                0.6544972329579276,
                0.12122450977888309
            ]
        },
        {
            "positions": [
                2.2112600545114907,
                -1.263528604490297,
                -0.26317224860988386,
                -0.2673860442030405,
                0.6795240469173622,
                0.12565181614989468
            ]
        },
        {
            "positions": [
                2.235652459939664,
                -1.2489214961125694,
                -0.14026963315240265,
                -0.29780149512643667,
                0.7011682974099728,
                0.30513320988299786
            ]
        },
        {
            "positions": [
                2.260044865367838,
                -1.234314387734842,
                -0.01736701769492144,
                -0.32821694604983287,
                0.7228125479025834,
                0.48461460361610104
            ]
        },
        {
            "positions": [
                2.2844372707960114,
                -1.2197072793571144,
                0.10553559776255983,
                -0.358632396973229,
                0.744456798395194,
                0.6640959973492042
            ]
        },
        {
            "positions": [
                2.3088296762241853,
                -1.205100170979387,
                0.228438213220041,
                -0.38904784789662517,
                0.7661010488878045,
                0.8435773910823074
            ]
        },
        {
            "positions": [
                2.333222081652359,
                -1.1904930626016594,
                0.35134082867752225,
                -0.41946329882002137,
                0.787745299380415,
                1.0230587848154107
            ]
        },
        {
            "positions": [
                2.3576144870805322,
                -1.175885954223932,
                0.4742434441350035,
                -0.44987874974341757,
                0.8093895498730257,
                1.202540178548514
            ]
        },
        {
            "positions": [
                2.382006892508706,
                -1.1612788458462044,
                0.5971460595924846,
                -0.4802942006668137,
                0.8310338003656362,
                1.382021572281617
            ]
        },
        {
            "positions": [
                2.4063992979368796,
                -1.146671737468477,
                0.7200486750499658,
                -0.5107096515902099,
                0.8526780508582468,
                1.5615029660147202
            ]
        },
        {
            "positions": [
                2.4307917033650535,
                -1.1320646290907495,
                0.8429512905074471,
                -0.541125102513606,
                0.8743223013508574,
                1.7409843597478236
            ]
        },
        {
            "positions": [
                2.455184108793227,
                -1.1174575207130222,
                0.9658539059649284,
                -0.5715405534370022,
                0.895966551843468,
                1.9204657534809269
            ]
        },
        {
            "positions": [
                2.4795765142214004,
                -1.1028504123352947,
                1.0887565214224098,
                -0.6019560043603984,
                0.9176108023360785,
                2.09994714721403
            ]
        },
        {
            "positions": [
                2.5039689196495742,
                -1.0882433039575672,
                1.211659136879891,
                -0.6323714552837946,
                0.9392550528286892,
                2.279428540947133
            ]
        },
        {
            "positions": [
                2.5283613250777477,
                -1.0736361955798397,
                1.3345617523373718,
                -0.6627869062071907,
                0.9608993033212996,
                2.458909934680236
            ]
        },
        {
            "positions": [
                2.5527537305059216,
                -1.0590290872021122,
                1.457464367794853,
                -0.6932023571305869,
                0.9825435538139102,
                2.638391328413339
            ]
        },
        {
            "positions": [
                2.577146135934095,
                -1.0444219788243847,
                1.5803669832523344,
                -0.723617808053983,
                1.0041878043065209,
                2.8178727221464426
            ]
        },
        {
            "positions": [
                2.601538541362269,
                -1.0298148704466572,
                1.7032695987098156,
                -0.7540332589773793,
                1.0258320547991313,
                2.9973541158795456
            ]
        },
        {
            "positions": [
                2.6259309467904424,
                -1.0152077620689297,
                1.826172214167297,
                -0.7844487099007754,
                1.047476305291742,
                3.176835509612649
            ]
        }
    ]
}