{
    "goal": {
        "global_pose": {
            "orientation": {
                "w": -0.00223480608172531,
                "x": 0.0024358444001904467,
                "y": 0.7094548369677653,
                "z": -0.704743149386269
            },
            "position": {
                "x": 0.6205249238014221,
                "y": -0.6371506643295288,
                "z": 0.19426114857196808
            }
        },
        "name": "move_to_magneteinheit_B"
    },
    "id": "PRM_move_to_magneteinheit_B_96",
    "joint_names": [
        "shoulder_pan_joint",
        "shoulder_lift_joint",
        "elbow_joint",
        "wrist_1_joint",
        "wrist_2_joint",
        "wrist_3_joint"
    ],
    "metrics": {
        "cart_traj_len": 1.6389576473009322,
        "distance_elbow_joint": 0.9956068037384127,
        "distance_shoulder_lift_joint": 1.2264138731512846,
        "distance_shoulder_pan_joint": 1.6205460594676564,
        "distance_wrist_1_joint": 0.6332586630535202,
        "distance_wrist_2_joint": 2.1022171967324557,
        "distance_wrist_3_joint": 0.12417979651675524,
        "smoothness": 1.1318363227563637,
        "time": 0.268192151,
        "traj_len": 2.5888650781104996,
        "weighted_distance": 3.1122432175971673
    },
    "planner": "PRM",
    "start": {
        "state": {
            "elbow_joint": 2.6216224122426386,
            "shoulder_lift_joint": -1.4174107377796124,
            "shoulder_pan_joint": 0.7066234856936794,
            "wrist_1_joint": 1.9546482284002225,
            "wrist_2_joint": -0.7096286983471962,
            "wrist_3_joint": 0.005740856962016249
        }
    },
    "waypoints": [
        {
            "positions": [
                0.7066234856936794,
                -1.4174107377796124,
                2.6216224122426386,
                1.9546482284002225,
                -0.7096286983471962,
                0.005740856962016249
            ]
        },
        {
            "positions": [
                0.6507588349820697,
                -1.4416295721486008,
                2.6080154796220913,
                1.9172402363353798,
                -0.6438889336245341,
                0.015352322064356617
            ]
        },
        {
            "positions": [
                0.59489418427046,
                -1.4658484065175892,
                2.594408547001544,
                1.8798322442705373,
                -0.5781491689018721,
                0.024963787166696984
            ]
        },
        {
            "positions": [
                0.5748157819439299,
                -1.5601955889002745,
                2.60533921472442,
                1.8096669577431919,
                -0.49956538041396925,
                -0.0024526633141949243
            ]
        },
        {
            "positions": [
                0.5547373796173999,
                -1.6545427712829597,
                2.6162698824472956,
                1.7395016712158464,
                -0.4209815919260665,
                -0.029869113795086832
            ]
        },
        {
            "positions": [
                0.45682671605797476,
                -1.5885906486397638,
                2.553167775577191,
                1.7673758116071228,
                -0.5418862646134882,
                -0.02652751610506745
            ]
        },
        {
            "positions": [
                0.35891605249854963,
                -1.522638525996568,
                2.4900656687070866,
                1.7952499519983989,
                -0.6627909373009099,
                -0.02318591841504807
            ]
        },
        {
            "positions": [
                0.26100538893912445,
                -1.4566864033533722,
                2.4269635618369825,
                1.8231240923896752,
                -0.7836956099883317,
                -0.019844320725028685
            ]
        },
        {
            "positions": [
                0.16309472537969932,
                -1.3907342807101766,
                2.363861454966878,
                1.8509982327809515,
                -0.9046002826757533,
                -0.016502723035009305
            ]
        },
        {
            "positions": [
                0.0651840618202742,
                -1.3247821580669807,
                2.3007593480967734,
                1.8788723731722279,
                -1.025504955363175,
                -0.013161125344989921
            ]
        },
        {
            "positions": [
                -0.032726601739150984,
                -1.258830035423785,
                2.237657241226669,
                1.9067465135635042,
                -1.1464096280505969,
                -0.009819527654970538
            ]
        },
        {
            "positions": [
                -0.1306372652985761,
                -1.192877912780589,
                2.1745551343565643,
                1.9346206539547803,
                -1.2673143007380185,
                -0.0064779299649511575
            ]
        },
        {
            "positions": [
                -0.22854792885800124,
                -1.1269257901373932,
                2.1114530274864602,
                1.9624947943460567,
                -1.3882189734254402,
                -0.003136332274931774
            ]
        },
        {
            "positions": [
                -0.32645859241742636,
                -1.0609736674941974,
                2.0483509206163557,
                1.990368934737333,
                -1.5091236461128619,
                0.00020526541508760626
            ]
        },
        {
            "positions": [
                -0.4243692559768515,
                -0.9950215448510016,
                1.9852488137462512,
                2.018243075128609,
                -1.6300283188002835,
                0.00354686310510699
            ]
        },
        {
            "positions": [
                -0.5222799195362765,
                -0.9290694222078059,
                1.9221467068761466,
                2.0461172155198852,
                -1.7509329914877052,
                0.0068884607951263666
            ]
        },
        {
            "positions": [
                -0.6201905830957019,
                -0.8631172995646099,
                1.859044600006042,
                2.073991355911162,
                -1.871837664175127,
                0.010230058485145757
            ]
        },
        {
            "positions": [
                -0.718101246655127,
                -0.7971651769214141,
                1.7959424931359378,
                2.101865496302438,
                -1.9927423368625488,
                0.01357165617516514
            ]
        },
        {
            "positions": [
                -0.8160119102145521,
                -0.7312130542782184,
                1.7328403862658335,
                2.1297396366937145,
                -2.1136470095499704,
                0.016913253865184517
            ]
        },
        {
            "positions": [
                -0.9139225737739772,
                -0.6652609316350225,
                1.669738279395729,
                2.1576137770849906,
                -2.234551682237392,
                0.020254851555203904
            ]
        }
    ]
}