{
    "goal": {
        "global_pose": {
            "orientation": {
                "w": 0.5084816217422485,
                "x": -0.49083608388900757,
                "y": 0.5182115435600281,
                "z": -0.4816462993621826
            },
            "position": {
                "x": 0.5540239810943604,
                "y": 0.030875300988554955,
                "z": 0.16403168439865112
            }
        },
        "name": "move_to_storage_A"
    },
    "id": "PRM_move_to_storage_A_41",
    "joint_names": [
        "shoulder_pan_joint",
        "shoulder_lift_joint",
        "elbow_joint",
        "wrist_1_joint",
        "wrist_2_joint",
        "wrist_3_joint"
    ],
    "metrics": {
        "cart_traj_len": 0.3525779497517001,
        "distance_elbow_joint": 0.45033461806286,
        "distance_shoulder_lift_joint": 0.23552511066499027,
        "distance_shoulder_pan_joint": 0.46168413901804134,
        "distance_wrist_1_joint": 0.2442714053953038,
        "distance_wrist_2_joint": 1.0955480855253092,
        "distance_wrist_3_joint": 0.10096794249074703,
        "smoothness": 6.661338165333112e-16,
        "time": 0.036910928,
        "traj_len": 1.60882917090574,
        "weighted_distance": 2.0322614686745797
    },
    "planner": "PRM",
    "start": {
        "state": {
            "elbow_joint": 1.971548259319323,
            "shoulder_lift_joint": -1.1394851275133948,
            "shoulder_pan_joint": 0.1228115487234821,
            "wrist_1_joint": -0.7804723859257726,
            "wrist_2_joint": 0.12958671773740124,
            "wrist_3_joint": -3.192489227718131
        }
    },
    "waypoints": [
        {
            "positions": [
                0.1228115487234821,
                -1.1394851275133948,
                1.971548259319323,
                -0.7804723859257726,
                0.12958671773740124,
                -3.192489227718131
            ]
        },
        {
            "positions": [
                0.056856671720904764,
                -1.1731315718941078,
                2.035881776185446,
                -0.8153683009822446,
                0.2860935870981597,
                -3.178065235933739
            ]
        },
        {
            "positions": [
                -0.009098205281672572,
                -1.2067780162748205,
                2.1002152930515687,
                -0.8502642160387166,
                0.4426004564589181,
                -3.163641244149346
            ]
        },
        {
            "positions": [
                -0.0750530822842499,
                -1.2404244606555335,
                2.1645488099176915,
                -0.8851601310951885,
                0.5991073258196766,
                -3.149217252364954
            ]
        },
        {
            "positions": [
                -0.14100795928682724,
                -1.2740709050362464,
                2.2288823267838143,
                -0.9200560461516605,
                0.755614195180435,
                -3.1347932605805613
            ]
        },
        {
            "positions": [
                -0.2069628362894046,
                -1.3077173494169594,
                2.2932158436499375,
                -0.9549519612081325,
                0.9121210645411936,
                -3.120369268796169
            ]
        },
        {
            "positions": [
                -0.2729177132919819,
                -1.3413637937976721,
                2.3575493605160602,
                -0.9898478762646044,
                1.068627933901952,
                -3.1059452770117764
            ]
        },
        {
            "positions": [
                -0.33887259029455924,
                -1.375010238178385,
                2.421882877382183,
                -1.0247437913210764,
                1.2251348032627105,
                -3.091521285227384
            ]
        }
    ]
}{
    "goal": {
        "global_pose": {
            "orientation": {
                "w": 0.5084816217422485,
                "x": -0.49083608388900757,
                "y": 0.5182115435600281,
                "z": -0.4816462993621826
            },
            "position": {
                "x": 0.5540239810943604,
                "y": 0.030875300988554955,
                "z": 0.16403168439865112
            }
        },
        "name": "move_to_storage_A"
    },
    "id": "PRM_move_to_storage_A_41",
    "joint_names": [
        "shoulder_pan_joint",
        "shoulder_lift_joint",
        "elbow_joint",
        "wrist_1_joint",
        "wrist_2_joint",
        "wrist_3_joint"
    ],
    "metrics": {
        "cart_traj_len": 0.3538481176479852,
        "distance_elbow_joint": 0.4490050683033999,
        "distance_shoulder_lift_joint": 0.23519811329109164,
        "distance_shoulder_pan_joint": 0.46498617293399896,
        "distance_wrist_1_joint": 0.23517983305700274,
        "distance_wrist_2_joint": 1.0909447713735825,
        "distance_wrist_3_joint": 0.09708964589677782,
        "smoothness": 8.881784232165597e-16,
        "time": 0.03037948,
        "traj_len": 1.6038714427459122,
        "weighted_distance": 2.023044117432933
    },
    "planner": "PRM",
    "start": {
        "state": {
            "elbow_joint": 1.97154746011099,
            "shoulder_lift_joint": -1.13948474672311,
            "shoulder_pan_joint": 0.12281154466712228,
            "wrist_1_joint": -0.7804688027058302,
            "wrist_2_joint": 0.12958655903071145,
            "wrist_3_joint": 3.0906928834467795
        }
    },
    "waypoints": [
        {
            "positions": [
                0.12281154466712228,
                -1.13948474672311,
                1.97154746011099,
                -0.7804688027058302,
                0.12958655903071145,
                3.0906928834467795
            ]
        },
        {
            "positions": [
                0.05638494853369386,
                -1.1730844771932658,
                2.03569104129719,
                -0.8140659217139734,
                0.28543581208408036,
                3.104562832860605
            ]
        },
        {
            "positions": [
                -0.010041647599734568,
                -1.2066842076634219,
                2.0998346224833897,
                -0.8476630407221166,
                0.44128506513744925,
                3.1184327822744304
            ]
        },
        {
            "positions": [
                -0.07646824373316298,
                -1.2402839381335777,
                2.16397820366959,
                -0.88126015973026,
                0.5971343181908182,
                3.132302731688256
            ]
        },
        {
            "positions": [
                -0.1428948398665914,
                -1.2738836686037338,
                2.22812178485579,
                -0.9148572787384032,
                0.7529835712441871,
                3.146172681102081
            ]
        },
        {
            "positions": [
                -0.20932143600001984,
                -1.3074833990738897,
                2.29226536604199,
                -0.9484543977465465,
                0.9088328242975561,
                3.1600426305159064
            ]
        },
        {
            "positions": [
                -0.27574803213344823,
                -1.3410831295440455,
                2.3564089472281897,
                -0.9820515167546897,
                1.064682077350925,
                3.173912579929732
            ]
        },
        {
            "positions": [
                -0.34217462826687667,
                -1.3746828600142016,
                2.42055252841439,
                -1.015648635762833,
                1.220531330404294,
                3.1877825293435573
            ]
        }
    ]
}{
    "goal": {
        "global_pose": {
            "orientation": {
                "w": 0.5084816217422485,
                "x": -0.49083608388900757,
                "y": 0.5182115435600281,
                "z": -0.4816462993621826
            },
            "position": {
                "x": 0.5540239810943604,
                "y": 0.030875300988554955,
                "z": 0.16403168439865112
            }
        },
        "name": "move_to_storage_A"
    },
    "id": "PRM_move_to_storage_A_41",
    "joint_names": [
        "shoulder_pan_joint",
        "shoulder_lift_joint",
        "elbow_joint",
        "wrist_1_joint",
        "wrist_2_joint",
        "wrist_3_joint"
    ],
    "metrics": {
        "cart_traj_len": 0.35286425228987306,
        "distance_elbow_joint": 0.44930984711992306,
        "distance_shoulder_lift_joint": 0.23314881857186331,
        "distance_shoulder_pan_joint": 0.46130528047954666,
        "distance_wrist_1_joint": 0.24302896153786935,
        "distance_wrist_2_joint": 1.098119228244098,
        "distance_wrist_3_joint": 0.0996001832468223,
        "smoothness": 4.440892098500626e-16,
        "time": 0.037142419,
        "traj_len": 1.607641850413245,
        "weighted_distance": 2.0309753507799484
    },
    "planner": "PRM",
    "start": {
        "state": {
            "elbow_joint": 1.9715472970024885,
            "shoulder_lift_joint": -1.1394870060712896,
            "shoulder_pan_joint": 0.12281152778156021,
            "wrist_1_joint": -0.780463741449964,
            "wrist_2_joint": 0.12958659822042276,
            "wrist_3_joint": 3.090690232415272
        }
    },
    "waypoints": [
        {
            "positions": [
                0.12281152778156021,
                -1.1394870060712896,
                1.9715472970024885,
                -0.780463741449964,
                0.12958659822042276,
                3.090690232415272
            ]
        },
        {
            "positions": [
                0.05691077342733926,
                -1.1727939801529843,
                2.0357344180196204,
                -0.8151821645268025,
                0.2864607736838653,
                3.1049188300219606
            ]
        },
        {
            "positions": [
                -0.008989980926881691,
                -1.2061009542346792,
                2.0999215390367523,
                -0.849900587603641,
                0.44333494914730787,
                3.1191474276286497
            ]
        },
        {
            "positions": [
                -0.07489073528110263,
                -1.239407928316374,
                2.164108660053884,
                -0.8846190106804794,
                0.6002091246107504,
                3.1333760252353384
            ]
        },
        {
            "positions": [
                -0.1407914896353236,
                -1.2727149023980686,
                2.228295781071016,
                -0.9193374337573179,
                0.7570833000741929,
                3.1476046228420276
            ]
        },
        {
            "positions": [
                -0.20669224398954458,
                -1.3060218764797633,
                2.292482902088148,
                -0.9540558568341564,
                0.9139574755376355,
                3.1618332204487163
            ]
        },
        {
            "positions": [
                -0.2725929983437655,
                -1.3393288505614582,
                2.3566700231052797,
                -0.9887742799109949,
                1.070831651001078,
                3.1760618180554054
            ]
        },
        {
            "positions": [
                -0.3384937526979864,
                -1.372635824643153,
                2.4208571441224116,
                -1.0234927029878333,
                1.2277058264645206,
                3.190290415662094
            ]
        }
    ]
}