{
    "goal": {
        "global_pose": {
            "orientation": {
                "w": 0.7047431468963623,
                "x": -0.7094548344612122,
                "y": 0.0024358443915843964,
                "z": -0.0022348060738295317
            },
            "position": {
                "x": 0.6094750761985779,
                "y": 0.3671506643295288,
                "z": 0.19426114857196808
            }
        },
        "name": "move_to_magneteinheit_A"
    },
    "id": "PRM_move_to_magneteinheit_A_20",
    "joint_names": [
        "shoulder_pan_joint",
        "shoulder_lift_joint",
        "elbow_joint",
        "wrist_1_joint",
        "wrist_2_joint",
        "wrist_3_joint"
    ],
    "metrics": {
        "cart_traj_len": 3.566404664206909,
        "distance_elbow_joint": 3.933876357855236,
        "distance_shoulder_lift_joint": 0.9050770043443374,
        "distance_shoulder_pan_joint": 3.625629332690354,
        "distance_wrist_1_joint": 3.5450352143326813,
        "distance_wrist_2_joint": 2.468322741708548,
        "distance_wrist_3_joint": 3.2109838715498116,
        "smoothness": 0.20197139747899664,
        "time": 0.09777345,
        "traj_len": 4.20582031504925,
        "weighted_distance": 5.4885562966614305
    },
    "planner": "PRM",
    "start": {
        "state": {
            "elbow_joint": -1.9196185241190666,
            "shoulder_lift_joint": -1.2443396400964142,
            "shoulder_pan_joint": 2.6996025414629847,
            "wrist_1_joint": -1.5485510000780065,
            "wrist_2_joint": -1.5709468930060704,
            "wrist_3_joint": 0.4420197071253992
        }
    },
    "waypoints": [
        {
            "positions": [
                2.6996025414629847,
                -1.2443396400964142,
                -1.9196185241190666,
                -1.5485510000780065,
                -1.5709468930060704,
                0.4420197071253992
            ]
        },
        {
            "positions": [
                2.564782433154125,
                -1.2540599017042358,
                -1.7817304673012153,
                -1.5430008782326337,
                -1.5934647792069896,
                0.3607819931026616
            ]
        },
        {
            "positions": [
                2.429962324845266,
                -1.2637801633120573,
                -1.643842410483364,
                -1.537450756387261,
                -1.6159826654079086,
                0.2795442790799241
            ]
        },
        {
            "positions": [
                2.2951422165364064,
                -1.273500424919879,
                -1.5059543536655127,
                -1.5319006345418882,
                -1.6385005516088278,
                0.19830656505718655
            ]
        },
        {
            "positions": [
                2.1603221082275468,
                -1.2832206865277005,
                -1.3680662968476613,
                -1.5263505126965156,
                -1.661018437809747,
                0.11706885103444897
            ]
        },
        {
            "positions": [
                2.0255019999186876,
                -1.292940948135522,
                -1.2301782400298102,
                -1.5208003908511427,
                -1.6835363240106662,
                0.03583113701171142
            ]
        },
        {
            "positions": [
                1.8906818916098282,
                -1.3026612097433437,
                -1.0922901832119587,
                -1.51525026900577,
                -1.7060542102115852,
                -0.04540657701102607
            ]
        },
        {
            "positions": [
                1.7558617833009686,
                -1.3123814713511652,
                -0.9544021263941074,
                -1.5097001471603972,
                -1.7285720964125044,
                -0.12664429103376373
            ]
        },
        {
            "positions": [
                1.6210416749921093,
                -1.3221017329589868,
                -0.816514069576256,
                -1.5041500253150246,
                -1.7510899826134236,
                -0.20788200505650123
            ]
        },
        {
            "positions": [
                1.48622156668325,
                -1.3318219945668084,
                -0.6786260127584047,
                -1.4985999034696518,
                -1.7736078688143428,
                -0.28911971907923883
            ]
        },
        {
            "positions": [
                1.3514014583743905,
                -1.34154225617463,
                -0.5407379559405536,
                -1.4930497816242791,
                -1.7961257550152618,
                -0.37035743310197633
            ]
        },
        {
            "positions": [
                1.216581350065531,
                -1.3512625177824518,
                -0.4028498991227021,
                -1.4874996597789063,
                -1.818643641216181,
                -0.45159514712471394
            ]
        },
        {
            "positions": [
                1.0817612417566718,
                -1.3609827793902731,
                -0.264961842304851,
                -1.4819495379335337,
                -1.8411615274171003,
                -0.5328328611474513
            ]
        },
        {
            "positions": [
                0.9469411334478124,
                -1.370703040998095,
                -0.12707378548699966,
                -1.4763994160881608,
                -1.8636794136180193,
                -0.6140705751701888
            ]
        },
        {
            "positions": [
                0.8121210251389526,
                -1.3804233026059165,
                0.010814271330851888,
                -1.4708492942427882,
                -1.8861972998189387,
                -0.6953082891929266
            ]
        },
        {
            "positions": [
                0.6773009168300934,
                -1.390143564213738,
                0.148702328148703,
                -1.4652991723974154,
                -1.9087151860198577,
                -0.776546003215664
            ]
        },
        {
            "positions": [
                0.5424808085212338,
                -1.3998638258215597,
                0.28659038496655453,
                -1.4597490505520427,
                -1.931233072220777,
                -0.8577837172384016
            ]
        },
        {
            "positions": [
                0.40766070021237466,
                -1.4095840874293812,
                0.42447844178440564,
                -1.45419892870667,
                -1.953750958421696,
                -0.939021431261139
            ]
        },
        {
            "positions": [
                0.27284059190351506,
                -1.4193043490372028,
                0.5623664986022572,
                -1.4486488068612973,
                -1.976268844622615,
                -1.0202591452838767
            ]
        },
        {
            "positions": [
                0.13802048359465546,
                -1.4290246106450244,
                0.7002545554201083,
                -1.4430986850159244,
                -1.9987867308235343,
                -1.1014968593066143
            ]
        },
        {
            "positions": [
                0.0032003752857963086,
                -1.438744872252846,
                0.8381426122379594,
                -1.4375485631705518,
                -2.0213046170244535,
                -1.182734573329352
            ]
        },
        {
            "positions": [
                -0.13161973302306285,
                -1.4484651338606676,
                0.9760306690558109,
                -1.431998441325179,
                -2.0438225032253725,
                -1.263972287352089
            ]
        },
        {
            "positions": [
                -0.2664398413319229,
                -1.4581853954684891,
                1.1139187258736625,
                -1.4264483194798063,
                -2.066340389426292,
                -1.3452100013748272
            ]
        },
        {
            "positions": [
                -0.40125994964078204,
                -1.4679056570763107,
                1.2518067826915136,
                -1.4208981976344335,
                -2.088858275627211,
                -1.4264477153975643
            ]
        },
        {
            "positions": [
                -0.3817261289382551,
                -1.4383667154478927,
                1.2886056267374304,
                -1.2714083382149213,
                -2.0041873186242287,
                -1.3698244670703665
            ]
        },
        {
            "positions": [
                -0.3621923082357281,
                -1.408827773819475,
                1.3254044707833474,
                -1.121918478795409,
                -1.9195163616212465,
                -1.313201218743169
            ]
        },
        {
            "positions": [
                -0.34265848753320116,
                -1.379288832191057,
                1.3622033148292643,
                -0.9724286193758969,
                -1.834845404618264,
                -1.2565779704159712
            ]
        },
        {
            "positions": [
                -0.3231246668306742,
                -1.3497498905626393,
                1.3990021588751813,
                -0.8229387599563845,
                -1.7501744476152818,
                -1.1999547220887736
            ]
        },
        {
            "positions": [
                -0.3035908461281472,
                -1.3202109489342213,
                1.4358010029210981,
                -0.6734489005368723,
                -1.6655034906122996,
                -1.1433314737615758
            ]
        },
        {
            "positions": [
                -0.2840570254256202,
                -1.2906720073058036,
                1.472599846967015,
                -0.5239590411173601,
                -1.5808325336093172,
                -1.086708225434378
            ]
        },
        {
            "positions": [
                -0.26452320472309326,
                -1.2611330656773856,
                1.509398691012932,
                -0.3744691816978478,
                -1.496161576606335,
                -1.0300849771071805
            ]
        },
        {
            "positions": [
                -0.2449893840205663,
                -1.2315941240489676,
                1.5461975350588488,
                -0.22497932227833561,
                -1.4114906196033528,
                -0.9734617287799827
            ]
        },
        {
            "positions": [
                -0.22545556331803934,
                -1.2020551824205499,
                1.5829963791047659,
                -0.07548946285882341,
                -1.3268196626003705,
                -0.916838480452785
            ]
        },
        {
            "positions": [
                -0.20592174261551235,
                -1.172516240792132,
                1.6197952231506827,
                0.0740003965606888,
                -1.2421487055973883,
                -0.8602152321255874
            ]
        },
        {
            "positions": [
                -0.18638792191298537,
                -1.142977299163714,
                1.6565940671965997,
                0.22349025598020122,
                -1.1574777485944059,
                -0.8035919837983896
            ]
        },
        {
            "positions": [
                -0.16685410121045843,
                -1.1134383575352962,
                1.6933929112425166,
                0.3729801153997132,
                -1.0728067915914237,
                -0.7469687354711919
            ]
        },
        {
            "positions": [
                -0.14732028050793144,
                -1.0838994159068784,
                1.7301917552884336,
                0.5224699748192256,
                -0.9881358345884412,
                -0.6903454871439941
            ]
        },
        {
            "positions": [
                -0.12778645980540448,
                -1.0543604742784605,
                1.7669905993343504,
                0.6719598342387378,
                -0.9034648775854592,
                -0.6337222388167966
            ]
        },
        {
            "positions": [
                -0.10825263910287752,
                -1.0248215326500425,
                1.8037894433802673,
                0.8214496936582503,
                -0.8187939205824768,
                -0.5770989904895988
            ]
        },
        {
            "positions": [
                -0.08871881840035056,
                -0.9952825910216248,
                1.840588287426184,
                0.9709395530777623,
                -0.7341229635794946,
                -0.5204757421624011
            ]
        },
        {
            "positions": [
                -0.06918499769782355,
                -0.9657436493932068,
                1.8773871314721011,
                1.1204294124972747,
                -0.6494520065765121,
                -0.46385249383520333
            ]
        },
        {
            "positions": [
                -0.04965117699529664,
                -0.9362047077647889,
                1.9141859755180182,
                1.2699192719167867,
                -0.5647810495735301,
                -0.40722924550800577
            ]
        },
        {
            "positions": [
                -0.030117356292769626,
                -0.9066657661363711,
                1.950984819563935,
                1.419409131336299,
                -0.48011009257054776,
                -0.3506059971808081
            ]
        },
        {
            "positions": [
                0.008288705766874703,
                -0.8765979920302458,
                1.966803073106994,
                1.5636779020658929,
                -0.3946942985628616,
                -0.28393731447828496
            ]
        },
        {
            "positions": [
                0.04669476782651903,
                -0.8465302179241205,
                1.9826213266500532,
                1.7079466727954868,
                -0.30927850455517536,
                -0.2172686317757618
            ]
        },
        {
            "positions": [
                0.08510082988616335,
                -0.8164624438179952,
                1.9984395801931123,
                1.8522154435250808,
                -0.22386271054748919,
                -0.15059994907323865
            ]
        },
        {
            "positions": [
                0.12350689194580769,
                -0.7863946697118699,
                2.0142578337361714,
                1.9964842142546746,
                -0.138446916539803,
                -0.08393126637071552
            ]
        }
    ]
}