{
    "goal": {
        "global_pose": {
            "orientation": {
                "w": -0.00223480608172531,
                "x": 0.0024358444001904467,
                "y": 0.7094548369677653,
                "z": -0.704743149386269
            },
            "position": {
                "x": 0.6205249238014221,
                "y": -0.6371506643295288,
                "z": 0.19426114857196808
            }
        },
        "name": "move_to_magneteinheit_B"
    },
    "id": "PRM_move_to_magneteinheit_B_48",
    "joint_names": [
        "shoulder_pan_joint",
        "shoulder_lift_joint",
        "elbow_joint",
        "wrist_1_joint",
        "wrist_2_joint",
        "wrist_3_joint"
    ],
    "metrics": {
        "cart_traj_len": 4.296646639879783,
        "distance_elbow_joint": 6.353059719567396,
        "distance_shoulder_lift_joint": 1.4201447851423104,
        "distance_shoulder_pan_joint": 3.629372408630514,
        "distance_wrist_1_joint": 4.928037343918279,
        "distance_wrist_2_joint": 3.4192958715219746,
        "distance_wrist_3_joint": 3.134961652268506,
        "smoothness": 0.4326801542541328,
        "time": 3.0333476640000003,
        "traj_len": 4.783813518632283,
        "weighted_distance": 6.123898129543487
    },
    "planner": "PRM",
    "start": {
        "state": {
            "elbow_joint": 2.6216224122426386,
            "shoulder_lift_joint": -1.4174107377796124,
            "shoulder_pan_joint": 0.7066234856936794,
            "wrist_1_joint": 1.9546482284002225,
            "wrist_2_joint": -0.7096286983471962,
            "wrist_3_joint": 0.005740856962016249
        }
    },
    "waypoints": [
        {
            "positions": [
                0.7066234856936794,
                -1.4174107377796124,
                2.6216224122426386,
                1.9546482284002225,
                -0.7096286983471962,
                0.005740856962016249
            ]
        },
        {
            "positions": [
                0.601720437955936,
                -1.4203953044506568,
                2.572854162224573,
                1.8618955175629728,
                -0.7338865218780999,
                -0.10235078756652721
            ]
        },
        {
            "positions": [
                0.4968173902181927,
                -1.4233798711217014,
                2.524085912206507,
                1.769142806725723,
                -0.7581443454090036,
                -0.21044243209507066
            ]
        },
        {
            "positions": [
                0.39191434248044943,
                -1.4263644377927458,
                2.475317662188441,
                1.6763900958884737,
                -0.7824021689399072,
                -0.3185340766236141
            ]
        },
        {
            "positions": [
                0.28701129474270604,
                -1.4293490044637904,
                2.4265494121703752,
                1.583637385051224,
                -0.8066599924708109,
                -0.4266257211521576
            ]
        },
        {
            "positions": [
                0.18210824700496275,
                -1.4323335711348348,
                2.3777811621523095,
                1.4908846742139743,
                -0.8309178160017145,
                -0.534717365680701
            ]
        },
        {
            "positions": [
                0.2019970291365005,
                -1.4307149865317825,
                2.243106618908348,
                1.338596605704498,
                -0.8537389044865241,
                -0.5911807828889326
            ]
        },
        {
            "positions": [
                0.22188581126803825,
                -1.4290964019287304,
                2.108432075664387,
                1.1863085371950217,
                -0.8765599929713338,
                -0.6476442000971643
            ]
        },
        {
            "positions": [
                0.24177459339957602,
                -1.4274778173256784,
                1.9737575324204257,
                1.0340204686855456,
                -0.8993810814561434,
                -0.7041076173053958
            ]
        },
        {
            "positions": [
                0.26166337553111374,
                -1.425859232722626,
                1.8390829891764644,
                0.8817324001760694,
                -0.922202169940953,
                -0.7605710345136275
            ]
        },
        {
            "positions": [
                0.2815521576626515,
                -1.4242406481195737,
                1.7044084459325033,
                0.7294443316665932,
                -0.9450232584257626,
                -0.8170344517218591
            ]
        },
        {
            "positions": [
                0.3014409397941893,
                -1.4226220635165217,
                1.569733902688542,
                0.577156263157117,
                -0.9678443469105722,
                -0.8734978689300907
            ]
        },
        {
            "positions": [
                0.321329721925727,
                -1.4210034789134696,
                1.4350593594445806,
                0.4248681946476407,
                -0.9906654353953819,
                -0.9299612861383222
            ]
        },
        {
            "positions": [
                0.3412185040572648,
                -1.4193848943104173,
                1.3003848162006193,
                0.2725801261381644,
                -1.0134865238801916,
                -0.9864247033465539
            ]
        },
        {
            "positions": [
                0.3611072861888025,
                -1.417766309707365,
                1.1657102729566582,
                0.12029205762868833,
                -1.036307612365001,
                -1.0428881205547855
            ]
        },
        {
            "positions": [
                0.3809960683203403,
                -1.4161477251043129,
                1.0310357297126969,
                -0.03199601088078796,
                -1.0591287008498107,
                -1.0993515377630172
            ]
        },
        {
            "positions": [
                0.40088485045187805,
                -1.4145291405012608,
                0.8963611864687355,
                -0.18428407939026425,
                -1.0819497893346204,
                -1.1558149549712486
            ]
        },
        {
            "positions": [
                0.42077363258341577,
                -1.4129105558982085,
                0.7616866432247744,
                -0.3365721478997403,
                -1.1047708778194298,
                -1.2122783721794803
            ]
        },
        {
            "positions": [
                0.44066241471495354,
                -1.4112919712951562,
                0.6270120999808131,
                -0.4888602164092166,
                -1.1275919663042395,
                -1.268741789387712
            ]
        },
        {
            "positions": [
                0.46055119684649126,
                -1.409673386692104,
                0.492337556736852,
                -0.6411482849186929,
                -1.1504130547890492,
                -1.3252052065959434
            ]
        },
        {
            "positions": [
                0.48043997897802904,
                -1.408054802089052,
                0.3576630134928904,
                -0.7934363534281692,
                -1.1732341432738589,
                -1.381668623804175
            ]
        },
        {
            "positions": [
                0.5003287611095668,
                -1.4064362174859997,
                0.2229884702489291,
                -0.9457244219376455,
                -1.1960552317586683,
                -1.4381320410124068
            ]
        },
        {
            "positions": [
                0.5202175432411045,
                -1.4048176328829474,
                0.0883139270049682,
                -1.0980124904471213,
                -1.218876320243478,
                -1.4945954582206382
            ]
        },
        {
            "positions": [
                0.5401063253726424,
                -1.4031990482798953,
                -0.046360616238993124,
                -1.2503005589565976,
                -1.2416974087282877,
                -1.55105887542887
            ]
        },
        {
            "positions": [
                0.55999510750418,
                -1.4015804636768432,
                -0.18103515948295446,
                -1.402588627466074,
                -1.2645184972130972,
                -1.6075222926371016
            ]
        },
        {
            "positions": [
                0.5798838896357178,
                -1.3999618790737909,
                -0.3157097027269158,
                -1.5548766959755502,
                -1.2873395856979069,
                -1.6639857098453332
            ]
        },
        {
            "positions": [
                0.6796194898670536,
                -1.3877708231718224,
                -0.4146706247030938,
                -1.603101709147774,
                -1.2112265983176995,
                -1.712192789952495
            ]
        },
        {
            "positions": [
                0.7793550900983892,
                -1.3755797672698538,
                -0.5136315466792718,
                -1.6513267223199977,
                -1.135113610937492,
                -1.7603998700596564
            ]
        },
        {
            "positions": [
                0.8790906903297251,
                -1.363388711367885,
                -0.6125924686554499,
                -1.6995517354922214,
                -1.0590006235572846,
                -1.808606950166818
            ]
        },
        {
            "positions": [
                0.9788262905610607,
                -1.3511976554659166,
                -0.7115533906316279,
                -1.7477767486644449,
                -0.9828876361770773,
                -1.8568140302739797
            ]
        },
        {
            "positions": [
                1.0785618907923966,
                -1.3390065995639482,
                -0.810514312607806,
                -1.7960017618366686,
                -0.9067746487968698,
                -1.9050211103811414
            ]
        },
        {
            "positions": [
                1.1782974910237323,
                -1.3268155436619795,
                -0.909475234583984,
                -1.8442267750088923,
                -0.8306616614166624,
                -1.9532281904883029
            ]
        },
        {
            "positions": [
                1.2780330912550681,
                -1.3146244877600108,
                -1.0084361565601623,
                -1.892451788181116,
                -0.754548674036455,
                -2.0014352705954646
            ]
        },
        {
            "positions": [
                1.3777686914864038,
                -1.3024334318580424,
                -1.10739707853634,
                -1.9406768013533395,
                -0.6784356866562476,
                -2.049642350702626
            ]
        },
        {
            "positions": [
                1.4775042917177394,
                -1.290242375956074,
                -1.2063580005125183,
                -1.9889018145255632,
                -0.6023226992760402,
                -2.097849430809788
            ]
        },
        {
            "positions": [
                1.5772398919490753,
                -1.2780513200541053,
                -1.3053189224886963,
                -2.037126827697787,
                -0.5262097118958328,
                -2.1460565109169494
            ]
        },
        {
            "positions": [
                1.6769754921804108,
                -1.2658602641521366,
                -1.4042798444648743,
                -2.0853518408700107,
                -0.45009672451562543,
                -2.194263591024111
            ]
        },
        {
            "positions": [
                1.7767110924117469,
                -1.2536692082501681,
                -1.5032407664410523,
                -2.1335768540422344,
                -0.373983737135418,
                -2.2424706711312727
            ]
        },
        {
            "positions": [
                1.8764466926430825,
                -1.2414781523481997,
                -1.6022016884172303,
                -2.181801867214458,
                -0.29787074975521066,
                -2.290677751238434
            ]
        },
        {
            "positions": [
                1.9761822928744182,
                -1.229287096446231,
                -1.7011626103934085,
                -2.230026880386682,
                -0.2217577623750031,
                -2.338884831345596
            ]
        },
        {
            "positions": [
                2.075917893105754,
                -1.2170960405442623,
                -1.8001235323695863,
                -2.2782518935589056,
                -0.14564477499479578,
                -2.3870919114527576
            ]
        },
        {
            "positions": [
                2.1756534933370895,
                -1.204904984642294,
                -1.8990844543457643,
                -2.326476906731129,
                -0.06953178761458845,
                -2.435298991559919
            ]
        },
        {
            "positions": [
                2.2753890935684256,
                -1.1927139287403254,
                -1.9980453763219426,
                -2.374701919903353,
                0.006581199765619106,
                -2.4835060716670805
            ]
        },
        {
            "positions": [
                2.375124693799761,
                -1.1805228728383568,
                -2.097006298298121,
                -2.4229269330755763,
                0.08269418714582644,
                -2.5317131517742424
            ]
        },
        {
            "positions": [
                2.474860294031097,
                -1.168331816936388,
                -2.195967220274299,
                -2.4711519462478,
                0.15880717452603377,
                -2.579920231881404
            ]
        },
        {
            "positions": [
                2.574595894262433,
                -1.1561407610344197,
                -2.294928142250477,
                -2.5193769594200237,
                0.23492016190624132,
                -2.6281273119885658
            ]
        },
        {
            "positions": [
                2.674331494493768,
                -1.1439497051324512,
                -2.393889064226655,
                -2.5676019725922474,
                0.31103314928644865,
                -2.676334392095727
            ]
        },
        {
            "positions": [
                2.774067094725104,
                -1.1317586492304825,
                -2.492849986202833,
                -2.615826985764471,
                0.387146136666656,
                -2.7245414722028887
            ]
        },
        {
            "positions": [
                2.87380269495644,
                -1.1195675933285139,
                -2.591810908179011,
                -2.664051998936695,
                0.46325912404686354,
                -2.77274855231005
            ]
        },
        {
            "positions": [
                2.9735382951877756,
                -1.1073765374265454,
                -2.690771830155189,
                -2.7122770121089186,
                0.5393721114270709,
                -2.820955632417212
            ]
        },
        {
            "positions": [
                2.945044920482413,
                -1.2055824390700725,
                -2.596165877685228,
                -2.6885395481626335,
                0.44711090351377203,
                -2.8489797381344193
            ]
        },
        {
            "positions": [
                2.9165515457770512,
                -1.3037883407135997,
                -2.501559925215267,
                -2.664802084216348,
                0.3548496956004732,
                -2.877003843851626
            ]
        },
        {
            "positions": [
                2.888058171071689,
                -1.4019942423571268,
                -2.406953972745306,
                -2.641064620270063,
                0.2625884876871744,
                -2.9050279495688334
            ]
        },
        {
            "positions": [
                2.859564796366327,
                -1.500200144000654,
                -2.3123480202753455,
                -2.6173271563237774,
                0.17032727977387557,
                -2.9330520552860406
            ]
        },
        {
            "positions": [
                2.8310714216609645,
                -1.598406045644181,
                -2.2177420678053847,
                -2.5935896923774924,
                0.07806607186057674,
                -2.9610761610032474
            ]
        },
        {
            "positions": [
                2.8025780469556025,
                -1.6966119472877081,
                -2.1231361153354236,
                -2.569852228431207,
                -0.014195136052722046,
                -2.9891002667204547
            ]
        },
        {
            "positions": [
                2.77408467225024,
                -1.7948178489312352,
                -2.028530162865463,
                -2.546114764484922,
                -0.10645634396602088,
                -3.0171243724376615
            ]
        },
        {
            "positions": [
                2.745591297544878,
                -1.8930237505747625,
                -1.933924210395502,
                -2.5223773005386363,
                -0.19871755187931972,
                -3.0451484781548688
            ]
        },
        {
            "positions": [
                2.717097922839516,
                -1.9912296522182897,
                -1.8393182579255412,
                -2.4986398365923512,
                -0.29097875979261867,
                -3.073172583872076
            ]
        },
        {
            "positions": [
                2.688604548134154,
                -2.089435553861817,
                -1.7447123054555802,
                -2.474902372646066,
                -0.3832399677059174,
                -3.101196689589283
            ]
        },
        {
            "positions": [
                2.6601111734287914,
                -2.187641455505344,
                -1.6501063529856195,
                -2.4511649086997807,
                -0.47550117561921623,
                -3.12922079530649
            ]
        }
    ]
}