{
    "goal": {
        "global_pose": {
            "orientation": {
                "w": -0.00223480608172531,
                "x": 0.0024358444001904467,
                "y": 0.7094548369677653,
                "z": -0.704743149386269
            },
            "position": {
                "x": 0.6205249238014221,
                "y": -0.6371506643295288,
                "z": 0.19426114857196808
            }
        },
        "name": "move_to_magneteinheit_B"
    },
    "id": "PRM_move_to_magneteinheit_B_66",
    "joint_names": [
        "shoulder_pan_joint",
        "shoulder_lift_joint",
        "elbow_joint",
        "wrist_1_joint",
        "wrist_2_joint",
        "wrist_3_joint"
    ],
    "metrics": {
        "cart_traj_len": 1.585214484401992,
        "distance_elbow_joint": 0.9550336011608473,
        "distance_shoulder_lift_joint": 1.3974719410062888,
        "distance_shoulder_pan_joint": 1.6216961592757198,
        "distance_wrist_1_joint": 1.9793317819901048,
        "distance_wrist_2_joint": 2.1778888173394444,
        "distance_wrist_3_joint": 0.2971480610314855,
        "smoothness": 0.6897199330160896,
        "time": 0.46232608599999997,
        "traj_len": 2.9032000209775233,
        "weighted_distance": 3.6304389656343776
    },
    "planner": "PRM",
    "start": {
        "state": {
            "elbow_joint": 2.6216224122426386,
            "shoulder_lift_joint": -1.4174107377796124,
            "shoulder_pan_joint": 0.7066234856936794,
            "wrist_1_joint": 1.9546482284002225,
            "wrist_2_joint": -0.7096286983471962,
            "wrist_3_joint": 0.005740856962016249
        }
    },
    "waypoints": [
        {
            "positions": [
                0.7066234856936794,
                -1.4174107377796124,
                2.6216224122426386,
                1.9546482284002225,
                -0.7096286983471962,
                0.005740856962016249
            ]
        },
        {
            "positions": [
                0.6516261801098756,
                -1.4632769265303065,
                2.5763971980214153,
                1.8270676893173619,
                -0.6624262046654252,
                0.02745952646058522
            ]
        },
        {
            "positions": [
                0.5966288745260718,
                -1.5091431152810006,
                2.531171983800192,
                1.6994871502345015,
                -0.6152237109836542,
                0.04917819595915419
            ]
        },
        {
            "positions": [
                0.541631568942268,
                -1.5550093040316948,
                2.4859467695789688,
                1.571906611151641,
                -0.5680212173018833,
                0.07089686545772315
            ]
        },
        {
            "positions": [
                0.4866342633584642,
                -1.600875492782389,
                2.4407215553577455,
                1.4443260720687805,
                -0.5208187236201123,
                0.09261553495629213
            ]
        },
        {
            "positions": [
                0.4316369577746604,
                -1.6467416815330833,
                2.395496341136522,
                1.31674553298592,
                -0.4736162299383413,
                0.1143342044548611
            ]
        },
        {
            "positions": [
                0.37663965219085666,
                -1.6926078702837775,
                2.350271126915299,
                1.1891649939030595,
                -0.4264137362565703,
                0.13605287395343008
            ]
        },
        {
            "positions": [
                0.3216423466070528,
                -1.7384740590344716,
                2.3050459126940757,
                1.061584454820199,
                -0.3792112425747993,
                0.15777154345199906
            ]
        },
        {
            "positions": [
                0.24434765784523452,
                -1.6711985203000073,
                2.265142343843308,
                1.129476205345829,
                -0.4946782026727398,
                0.14870170754315515
            ]
        },
        {
            "positions": [
                0.16705296908341621,
                -1.603922981565543,
                2.22523877499254,
                1.1973679558714592,
                -0.6101451627706803,
                0.1396318716343112
            ]
        },
        {
            "positions": [
                0.08975828032159791,
                -1.5366474428310786,
                2.1853352061417723,
                1.2652597063970892,
                -0.7256121228686208,
                0.1305620357254673
            ]
        },
        {
            "positions": [
                0.012463591559779608,
                -1.4693719040966142,
                2.1454316372910047,
                1.3331514569227192,
                -0.8410790829665613,
                0.12149219981662338
            ]
        },
        {
            "positions": [
                -0.06483109720203872,
                -1.4020963653621499,
                2.1055280684402367,
                1.4010432074483492,
                -0.9565460430645017,
                0.11242236390777945
            ]
        },
        {
            "positions": [
                -0.142125785963857,
                -1.3348208266276855,
                2.065624499589469,
                1.4689349579739794,
                -1.0720130031624422,
                0.10335252799893552
            ]
        },
        {
            "positions": [
                -0.21942047472567527,
                -1.2675452878932212,
                2.0257209307387014,
                1.5368267084996095,
                -1.1874799632603827,
                0.0942826920900916
            ]
        },
        {
            "positions": [
                -0.2967151634874936,
                -1.2002697491587568,
                1.9858173618879333,
                1.6047184590252397,
                -1.302946923358323,
                0.08521285618124767
            ]
        },
        {
            "positions": [
                -0.37400985224931194,
                -1.1329942104242925,
                1.9459137930371657,
                1.6726102095508697,
                -1.4184138834562636,
                0.07614302027240374
            ]
        },
        {
            "positions": [
                -0.45130454101113027,
                -1.0657186716898281,
                1.9060102241863979,
                1.7405019600764997,
                -1.5338808435542042,
                0.06707318436355983
            ]
        },
        {
            "positions": [
                -0.5285992297729485,
                -0.9984431329553638,
                1.86610665533563,
                1.8083937106021297,
                -1.6493478036521447,
                0.0580033484547159
            ]
        },
        {
            "positions": [
                -0.6058939185347668,
                -0.9311675942208995,
                1.8262030864848624,
                1.87628546112776,
                -1.764814763750085,
                0.04893351254587197
            ]
        },
        {
            "positions": [
                -0.6831886072965851,
                -0.8638920554864351,
                1.7862995176340946,
                1.94417721165339,
                -1.8802817238480256,
                0.039863676637028056
            ]
        },
        {
            "positions": [
                -0.7604832960584034,
                -0.7966165167519708,
                1.7463959487833267,
                2.01206896217902,
                -1.9957486839459662,
                0.03079384072818414
            ]
        },
        {
            "positions": [
                -0.8377779848202218,
                -0.7293409780175064,
                1.706492379932559,
                2.07996071270465,
                -2.1112156440439067,
                0.021724004819340198
            ]
        },
        {
            "positions": [
                -0.91507267358204,
                -0.662065439283042,
                1.6665888110817912,
                2.1478524632302802,
                -2.226682604141847,
                0.012654168910496295
            ]
        }
    ]
}