{
    "goal": {
        "global_pose": {
            "orientation": {
                "w": 0.7047431468963623,
                "x": -0.7094548344612122,
                "y": 0.0024358443915843964,
                "z": -0.0022348060738295317
            },
            "position": {
                "x": 0.6094750761985779,
                "y": 0.3671506643295288,
                "z": 0.19426114857196808
            }
        },
        "name": "move_to_magneteinheit_A"
    },
    "id": "PRM_move_to_magneteinheit_A_62",
    "joint_names": [
        "shoulder_pan_joint",
        "shoulder_lift_joint",
        "elbow_joint",
        "wrist_1_joint",
        "wrist_2_joint",
        "wrist_3_joint"
    ],
    "metrics": {
        "cart_traj_len": 3.1217725217848473,
        "distance_elbow_joint": 3.930222081767348,
        "distance_shoulder_lift_joint": 0.46063904219934015,
        "distance_shoulder_pan_joint": 2.9591298808624873,
        "distance_wrist_1_joint": 3.7351848192521038,
        "distance_wrist_2_joint": 1.9118876142468748,
        "distance_wrist_3_joint": 2.245046056618186,
        "smoothness": 0.31355332014274145,
        "time": 0.15244400800000002,
        "traj_len": 3.9041144315896195,
        "weighted_distance": 5.03778463629418
    },
    "planner": "PRM",
    "start": {
        "state": {
            "elbow_joint": -1.9196185241190666,
            "shoulder_lift_joint": -1.2443396400964142,
            "shoulder_pan_joint": 2.6996025414629847,
            "wrist_1_joint": -1.5485510000780065,
            "wrist_2_joint": -1.5709468930060704,
            "wrist_3_joint": 0.4420197071253992
        }
    },
    "waypoints": [
        {
            "positions": [
                2.6996025414629847,
                -1.2443396400964142,
                -1.9196185241190666,
                -1.5485510000780065,
                -1.5709468930060704,
                0.4420197071253992
            ]
        },
        {
            "positions": [
                2.614449636245155,
                -1.241395287294425,
                -1.8253032777023386,
                -1.4427104812867548,
                -1.5158118814065875,
                0.3962483387210315
            ]
        },
        {
            "positions": [
                2.5292967310273244,
                -1.238450934492436,
                -1.7309880312856105,
                -1.3368699624955032,
                -1.4606768698071046,
                0.3504769703166638
            ]
        },
        {
            "positions": [
                2.4441438258094945,
                -1.235506581690447,
                -1.6366727848688825,
                -1.2310294437042515,
                -1.4055418582076218,
                0.3047056019122961
            ]
        },
        {
            "positions": [
                2.358990920591664,
                -1.2325622288884577,
                -1.5423575384521544,
                -1.1251889249129998,
                -1.3504068466081391,
                0.2589342335079285
            ]
        },
        {
            "positions": [
                2.2738380153738342,
                -1.2296178760864684,
                -1.4480422920354266,
                -1.0193484061217482,
                -1.2952718350086563,
                0.21316286510356083
            ]
        },
        {
            "positions": [
                2.188685110156004,
                -1.2266735232844794,
                -1.3537270456186983,
                -0.9135078873304965,
                -1.2401368234091734,
                0.16739149669919312
            ]
        },
        {
            "positions": [
                2.103532204938174,
                -1.2237291704824904,
                -1.2594117992019704,
                -0.8076673685392449,
                -1.1850018118096906,
                0.12162012829482549
            ]
        },
        {
            "positions": [
                2.018379299720344,
                -1.2207848176805012,
                -1.1650965527852422,
                -0.7018268497479933,
                -1.129866800210208,
                0.0758487598904578
            ]
        },
        {
            "positions": [
                1.9332263945025139,
                -1.217840464878512,
                -1.0707813063685143,
                -0.5959863309567417,
                -1.074731788610725,
                0.030077391486090177
            ]
        },
        {
            "positions": [
                1.8480734892846837,
                -1.214896112076523,
                -0.9764660599517863,
                -0.49014581216549,
                -1.0195967770112422,
                -0.015693976918277508
            ]
        },
        {
            "positions": [
                1.7629205840668538,
                -1.211951759274534,
                -0.8821508135350582,
                -0.38430529337423835,
                -0.9644617654117594,
                -0.06146534532264514
            ]
        },
        {
            "positions": [
                1.6777676788490234,
                -1.2090074064725447,
                -0.7878355671183301,
                -0.27846477458298646,
                -0.9093267538122765,
                -0.10723671372701293
            ]
        },
        {
            "positions": [
                1.5926147736311933,
                -1.2060630536705554,
                -0.6935203207016021,
                -0.17262425579173502,
                -0.8541917422127937,
                -0.1530080821313805
            ]
        },
        {
            "positions": [
                1.5074618684133634,
                -1.2031187008685664,
                -0.599205074284874,
                -0.06678373700048335,
                -0.7990567306133108,
                -0.1987794505357482
            ]
        },
        {
            "positions": [
                1.4223089631955332,
                -1.2001743480665774,
                -0.504889827868146,
                0.039056781790768325,
                -0.7439217190138281,
                -0.24455081894011588
            ]
        },
        {
            "positions": [
                1.337156057977703,
                -1.1972299952645882,
                -0.4105745814514179,
                0.14489730058202,
                -0.6887867074143453,
                -0.29032218734448356
            ]
        },
        {
            "positions": [
                1.2520031527598732,
                -1.194285642462599,
                -0.31625933503468984,
                0.25073781937327166,
                -0.6336516958148625,
                -0.33609355574885125
            ]
        },
        {
            "positions": [
                1.166850247542043,
                -1.19134128966061,
                -0.22194408861796178,
                0.3565783381645231,
                -0.5785166842153797,
                -0.3818649241532188
            ]
        },
        {
            "positions": [
                1.0816973423242129,
                -1.188396936858621,
                -0.12762884220123394,
                0.462418856955775,
                -0.5233816726158969,
                -0.4276362925575865
            ]
        },
        {
            "positions": [
                0.9965444371063827,
                -1.1854525840566317,
                -0.03331359578450588,
                0.5682593757470265,
                -0.468246661016414,
                -0.4734076609619542
            ]
        },
        {
            "positions": [
                0.9113915318885528,
                -1.1825082312546427,
                0.06100165063222218,
                0.6740998945382779,
                -0.41311164941693135,
                -0.5191790293663219
            ]
        },
        {
            "positions": [
                0.8262386266707227,
                -1.1795638784526534,
                0.15531689704895024,
                0.7799404133295298,
                -0.3579766378174485,
                -0.5649503977706894
            ]
        },
        {
            "positions": [
                0.7410857214528923,
                -1.1766195256506644,
                0.24963214346567852,
                0.8857809321207817,
                -0.3028416262179654,
                -0.6107217661750574
            ]
        },
        {
            "positions": [
                0.6559328162350622,
                -1.1736751728486752,
                0.34394738988240636,
                0.9916214509120336,
                -0.24770661461848253,
                -0.656493134579425
            ]
        },
        {
            "positions": [
                0.5707799110172322,
                -1.170730820046686,
                0.43826263629913464,
                1.097461969703285,
                -0.1925716030189999,
                -0.7022645029837927
            ]
        },
        {
            "positions": [
                0.4856270057994019,
                -1.167786467244697,
                0.5325778827158625,
                1.2033024884945365,
                -0.13743659141951703,
                -0.7480358713881602
            ]
        },
        {
            "positions": [
                0.40047410058157196,
                -1.164842114442708,
                0.6268931291325908,
                1.3091430072857884,
                -0.08230157982003417,
                -0.7938072397925279
            ]
        },
        {
            "positions": [
                0.31532119536374204,
                -1.1618977616407187,
                0.7212083755493186,
                1.4149835260770398,
                -0.0271665682205513,
                -0.8395786081968956
            ]
        },
        {
            "positions": [
                0.23016829014591167,
                -1.1589534088387294,
                0.8155236219660469,
                1.5208240448682917,
                0.02796844337893134,
                -0.8853499766012632
            ]
        },
        {
            "positions": [
                0.14501538492808172,
                -1.1560090560367404,
                0.9098388683827747,
                1.6266645636595434,
                0.08310345497841429,
                -0.9311213450056309
            ]
        },
        {
            "positions": [
                0.10787107395358164,
                -1.1255798444783718,
                1.0329623756159036,
                1.6943329472031816,
                0.08987123087967958,
                -0.8784417889820234
            ]
        },
        {
            "positions": [
                0.07072676297908158,
                -1.095150632920003,
                1.1560858828490326,
                1.7620013307468199,
                0.09663900678094486,
                -0.825762232958416
            ]
        },
        {
            "positions": [
                0.033582452004581514,
                -1.0647214213616343,
                1.2792093900821613,
                1.8296697142904583,
                0.10340678268221015,
                -0.7730826769348085
            ]
        },
        {
            "positions": [
                -0.003561858969918563,
                -1.0342922098032656,
                1.4023328973152902,
                1.8973380978340966,
                0.11017455858347544,
                -0.720403120911201
            ]
        },
        {
            "positions": [
                -0.025215871380078393,
                -1.0228135198970696,
                1.5314169192826028,
                1.8636465888251215,
                0.0975771683206219,
                -0.5508432532837522
            ]
        },
        {
            "positions": [
                -0.04686988379023822,
                -1.0113348299908733,
                1.6605009412499152,
                1.8299550798161464,
                0.08497977805776835,
                -0.3812833856563033
            ]
        },
        {
            "positions": [
                -0.06852389620039806,
                -0.9998561400846772,
                1.7895849632172278,
                1.7962635708071713,
                0.0723823877949148,
                -0.2117235180288545
            ]
        },
        {
            "positions": [
                -0.004856081800696577,
                -0.9278042926888095,
                1.863257828027579,
                1.8590039689115296,
                0.00805772383865866,
                -0.16088779219206165
            ]
        },
        {
            "positions": [
                0.05881173259900491,
                -0.8557524452929417,
                1.9369306928379302,
                1.9217443670158882,
                -0.056266940117597475,
                -0.11005206635526878
            ]
        },
        {
            "positions": [
                0.12247954699870642,
                -0.783700597897074,
                2.0106035576482815,
                1.9844847651202466,
                -0.12059160407385362,
                -0.059216340518475914
            ]
        }
    ]
}