{
    "goal": {
        "global_pose": {
            "orientation": {
                "w": 0.7047431493862688,
                "x": -0.7094548369677653,
                "y": 0.0024358444001904,
                "z": -0.0022348060817251984
            },
            "position": {
                "x": -0.39052492380142206,
                "y": 0.3671506643295288,
                "z": 0.19426114857196808
            }
        },
        "name": "move_to_magneteinheit_D"
    },
    "id": "PRM_move_to_magneteinheit_D_12",
    "joint_names": [
        "shoulder_pan_joint",
        "shoulder_lift_joint",
        "elbow_joint",
        "wrist_1_joint",
        "wrist_2_joint",
        "wrist_3_joint"
    ],
    "metrics": {
        "cart_traj_len": 4.418048324749641,
        "distance_elbow_joint": 4.830107020284428,
        "distance_shoulder_lift_joint": 1.63459052477393,
        "distance_shoulder_pan_joint": 4.588463687453869,
        "distance_wrist_1_joint": 2.3353166210171272,
        "distance_wrist_2_joint": 2.1616932800813147,
        "distance_wrist_3_joint": 4.111592756209023,
        "smoothness": 0.4528459517673744,
        "time": 0.356734142,
        "traj_len": 4.434158757850207,
        "weighted_distance": 5.690514853977292
    },
    "planner": "PRM",
    "start": {
        "state": {
            "elbow_joint": 0.749534889911806,
            "shoulder_lift_joint": -0.6476975780787326,
            "shoulder_pan_joint": -2.711696901376241,
            "wrist_1_joint": -0.07506478083263063,
            "wrist_2_joint": 0.43296659715538205,
            "wrist_3_joint": -3.14703540197715
        }
    },
    "waypoints": [
        {
            "positions": [
                -2.711696901376241,
                -0.6476975780787326,
                0.749534889911806,
                -0.07506478083263063,
                0.43296659715538205,
                -3.14703540197715
            ]
        },
        {
            "positions": [
                -2.7074408723545247,
                -0.7274213557116844,
                0.8312011670231352,
                0.025460901331819566,
                0.320681524380406,
                -3.129476013346831
            ]
        },
        {
            "positions": [
                -2.7031848433328083,
                -0.8071451333446361,
                0.9128674441344643,
                0.12598658349626976,
                0.20839645160542986,
                -3.1119166247165126
            ]
        },
        {
            "positions": [
                -2.698928814311092,
                -0.8868689109775879,
                0.9945337212457935,
                0.22651226566071997,
                0.09611137883045373,
                -3.0943572360861937
            ]
        },
        {
            "positions": [
                -2.6946727852893755,
                -0.9665926886105396,
                1.0761999983571227,
                0.32703794782517015,
                -0.016173693944522338,
                -3.076797847455875
            ]
        },
        {
            "positions": [
                -2.690416756267659,
                -1.0463164662434914,
                1.1578662754684519,
                0.42756362998962044,
                -0.12845876671949846,
                -3.0592384588255563
            ]
        },
        {
            "positions": [
                -2.6861607272459427,
                -1.1260402438764432,
                1.2395325525797811,
                0.5280893121540705,
                -0.24074383949447456,
                -3.0416790701952374
            ]
        },
        {
            "positions": [
                -2.6209134074542018,
                -1.1841724694468003,
                1.2915726511637695,
                0.6076975743183343,
                -0.3172586779438556,
                -2.980120794180811
            ]
        },
        {
            "positions": [
                -2.5556660876624604,
                -1.2423046950171575,
                1.343612749747758,
                0.687305836482598,
                -0.3937735163932366,
                -2.918562518166385
            ]
        },
        {
            "positions": [
                -2.4904187678707195,
                -1.3004369205875146,
                1.3956528483317463,
                0.7669140986468617,
                -0.4702883548426176,
                -2.857004242151959
            ]
        },
        {
            "positions": [
                -2.4251714480789786,
                -1.3585691461578717,
                1.4476929469157347,
                0.8465223608111254,
                -0.5468031932919987,
                -2.795445966137532
            ]
        },
        {
            "positions": [
                -2.359924128287237,
                -1.416701371728229,
                1.4997330454997233,
                0.9261306229753892,
                -0.6233180317413797,
                -2.733887690123106
            ]
        },
        {
            "positions": [
                -2.2946768084954963,
                -1.4748335972985862,
                1.5517731440837117,
                1.005738885139653,
                -0.6998328701907607,
                -2.6723294141086797
            ]
        },
        {
            "positions": [
                -2.2294294887037553,
                -1.5329658228689433,
                1.6038132426677,
                1.0853471473039167,
                -0.7763477086401417,
                -2.6107711380942535
            ]
        },
        {
            "positions": [
                -2.1269422751015807,
                -1.5522499476061145,
                1.473650017767491,
                1.1122338255334352,
                -0.7649067076989965,
                -2.5076927575560832
            ]
        },
        {
            "positions": [
                -2.0244550614994057,
                -1.5715340723432856,
                1.3434867928672816,
                1.1391205037629535,
                -0.7534657067578513,
                -2.4046143770179134
            ]
        },
        {
            "positions": [
                -1.9219678478972309,
                -1.5908181970804565,
                1.2133235679670724,
                1.166007181992472,
                -0.742024705816706,
                -2.301535996479743
            ]
        },
        {
            "positions": [
                -1.819480634295056,
                -1.6101023218176276,
                1.0831603430668633,
                1.1928938602219903,
                -0.7305837048755608,
                -2.198457615941573
            ]
        },
        {
            "positions": [
                -1.7169934206928814,
                -1.6293864465547987,
                0.9529971181666539,
                1.2197805384515088,
                -0.7191427039344156,
                -2.095379235403403
            ]
        },
        {
            "positions": [
                -1.6145062070907064,
                -1.6486705712919698,
                0.8228338932664446,
                1.246667216681027,
                -0.7077017029932704,
                -1.9923008548652328
            ]
        },
        {
            "positions": [
                -1.5120189934885317,
                -1.6679546960291407,
                0.6926706683662354,
                1.2735538949105456,
                -0.6962607020521252,
                -1.8892224743270627
            ]
        },
        {
            "positions": [
                -1.4095317798863567,
                -1.6872388207663118,
                0.5625074434660262,
                1.300440573140064,
                -0.6848197011109799,
                -1.7861440937888926
            ]
        },
        {
            "positions": [
                -1.307044566284182,
                -1.706522945503483,
                0.43234421856581706,
                1.3273272513695824,
                -0.6733787001698347,
                -1.6830657132507225
            ]
        },
        {
            "positions": [
                -1.2045573526820073,
                -1.725807070240654,
                0.3021809936656077,
                1.3542139295991007,
                -0.6619376992286895,
                -1.5799873327125524
            ]
        },
        {
            "positions": [
                -1.1020701390798324,
                -1.745091194977825,
                0.17201776876539854,
                1.3811006078286192,
                -0.6504966982875443,
                -1.4769089521743823
            ]
        },
        {
            "positions": [
                -0.9995829254776574,
                -1.764375319714996,
                0.041854543865189164,
                1.4079872860581375,
                -0.639055697346399,
                -1.373830571636212
            ]
        },
        {
            "positions": [
                -0.8970957118754828,
                -1.7836594444521672,
                -0.08830868103501999,
                1.434873964287656,
                -0.6276146964052538,
                -1.270752191098042
            ]
        },
        {
            "positions": [
                -0.7946084982733079,
                -1.8029435691893383,
                -0.21847190593522936,
                1.4617606425171745,
                -0.6161736954641086,
                -1.1676738105598718
            ]
        },
        {
            "positions": [
                -0.6921212846711331,
                -1.8222276939265094,
                -0.3486351308354385,
                1.4886473207466928,
                -0.6047326945229634,
                -1.0645954300217018
            ]
        },
        {
            "positions": [
                -0.5896340710689583,
                -1.8415118186636803,
                -0.47879835573564766,
                1.515533998976211,
                -0.5932916935818182,
                -0.9615170494835317
            ]
        },
        {
            "positions": [
                -0.48714685746678343,
                -1.8607959434008514,
                -0.6089615806358568,
                1.5424206772057296,
                -0.5818506926406729,
                -0.8584386689453616
            ]
        },
        {
            "positions": [
                -0.3846596438646088,
                -1.8800800681380225,
                -0.739124805536066,
                1.5693073554352481,
                -0.5704096916995277,
                -0.7553602884071915
            ]
        },
        {
            "positions": [
                -0.282172430262434,
                -1.8993641928751934,
                -0.8692880304362756,
                1.5961940336647664,
                -0.5589686907583825,
                -0.6522819078690214
            ]
        },
        {
            "positions": [
                -0.17968521666025916,
                -1.9186483176123645,
                -0.9994512553364847,
                1.6230807118942847,
                -0.5475276898172373,
                -0.5492035273308513
            ]
        },
        {
            "positions": [
                -0.07719800305808455,
                -1.9379324423495357,
                -1.1296144802366939,
                1.6499673901238032,
                -0.536086688876092,
                -0.446125146792681
            ]
        },
        {
            "positions": [
                0.0252892105440905,
                -1.9572165670867068,
                -1.259777705136903,
                1.6768540683533217,
                -0.5246456879349468,
                -0.34304676625451114
            ]
        },
        {
            "positions": [
                0.12777642414626555,
                -1.9765006918238779,
                -1.3899409300371126,
                1.7037407465828402,
                -0.5132046869938016,
                -0.23996838571634083
            ]
        },
        {
            "positions": [
                0.2302636377484406,
                -1.995784816561049,
                -1.5201041549373218,
                1.7306274248123585,
                -0.5017636860526564,
                -0.13689000517817052
            ]
        },
        {
            "positions": [
                0.3327508513506152,
                -2.01506894129822,
                -1.650267379837531,
                1.7575141030418768,
                -0.49032268511151117,
                -0.03381162464000065
            ]
        },
        {
            "positions": [
                0.4352380649527898,
                -2.034353066035391,
                -1.78043060473774,
                1.7844007812713953,
                -0.478881684170366,
                0.06926675589816966
            ]
        },
        {
            "positions": [
                0.5377252785549649,
                -2.0536371907725623,
                -1.9105938296379497,
                1.8112874595009139,
                -0.4674406832292207,
                0.17234513643633953
            ]
        },
        {
            "positions": [
                0.6402124921571395,
                -2.072921315509733,
                -2.040757054538159,
                1.8381741377304321,
                -0.4559996822880755,
                0.27542351697450984
            ]
        },
        {
            "positions": [
                0.7426997057593145,
                -2.092205440246904,
                -2.170920279438368,
                1.8650608159599504,
                -0.4445586813469303,
                0.3785018975126797
            ]
        },
        {
            "positions": [
                0.8451869193614889,
                -2.1114895649840753,
                -2.3010835043385773,
                1.891947494189469,
                -0.4331176804057851,
                0.48158027805085013
            ]
        },
        {
            "positions": [
                0.6978183669734693,
                -2.135889356108159,
                -2.311216635841757,
                1.839332587618751,
                -0.3460964023984372,
                0.4125835528821325
            ]
        },
        {
            "positions": [
                0.5504498145854497,
                -2.160289147232243,
                -2.321349767344937,
                1.7867176810480327,
                -0.2590751243910894,
                0.34358682771341487
            ]
        },
        {
            "positions": [
                0.40308126219743,
                -2.184688938356327,
                -2.3314828988481167,
                1.7341027744773148,
                -0.17205384638374155,
                0.2745901025446972
            ]
        },
        {
            "positions": [
                0.2557127098094104,
                -2.209088729480411,
                -2.3416160303512967,
                1.6814878679065968,
                -0.08503256837639367,
                0.20559337737597955
            ]
        },
        {
            "positions": [
                0.1083441574213907,
                -2.233488520604495,
                -2.3517491618544764,
                1.6288729613358788,
                0.0019887096309542107,
                0.13659665220726186
            ]
        },
        {
            "positions": [
                -0.039024394966628906,
                -2.257888311728579,
                -2.3618822933576564,
                1.5762580547651606,
                0.08900998763830198,
                0.06759992703854423
            ]
        },
        {
            "positions": [
                -0.18639294735464865,
                -2.2822881028526627,
                -2.372015424860836,
                1.5236431481944426,
                0.17603126564564997,
                -0.0013967981301734565
            ]
        }
    ]
}