{
    "goal": {
        "global_pose": {
            "orientation": {
                "w": 0.005598929693374612,
                "x": 0.007748599140229565,
                "y": 0.7110244013736278,
                "z": -0.7031023480610252
            },
            "position": {
                "x": 0.1141497679147869,
                "y": -0.7141253447532654,
                "z": 0.3711530566215515
            }
        },
        "name": "move_to_auspresseinheit_B"
    },
    "id": "PRM_move_to_auspresseinheit_B_44",
    "joint_names": [
        "shoulder_pan_joint",
        "shoulder_lift_joint",
        "elbow_joint",
        "wrist_1_joint",
        "wrist_2_joint",
        "wrist_3_joint"
    ],
    "metrics": {
        "cart_traj_len": 0.5645135123179275,
        "distance_elbow_joint": 0.05776857273522307,
        "distance_shoulder_lift_joint": 0.29682208277693234,
        "distance_shoulder_pan_joint": 0.5790778954538962,
        "distance_wrist_1_joint": 0.31552211971496524,
        "distance_wrist_2_joint": 0.9863537239781748,
        "distance_wrist_3_joint": 0.004608225923587117,
        "smoothness": 0.0,
        "time": 0.014426901999999998,
        "traj_len": 1.4967139407992358,
        "weighted_distance": 1.8844747056204
    },
    "planner": "PRM",
    "start": {
        "state": {
            "elbow_joint": 2.0193083361928714,
            "shoulder_lift_joint": -1.1220246554650708,
            "shoulder_pan_joint": -1.0952077554168747,
            "wrist_1_joint": -0.8559753972642168,
            "wrist_2_joint": 0.4759566250798843,
            "wrist_3_joint": -3.1240929996934557
        }
    },
    "waypoints": [
        {
            "positions": [
                -1.0952077554168747,
                -1.1220246554650708,
                2.0193083361928714,
                -0.8559753972642168,
                0.4759566250798843,
                -3.1240929996934557
            ]
        },
        {
            "positions": [
                -1.191720737992524,
                -1.1714950025945594,
                2.009680240737001,
                -0.8033883773117225,
                0.64034891240958,
                -3.1233249620395247
            ]
        },
        {
            "positions": [
                -1.2882337205681733,
                -1.2209653497240482,
                2.0000521452811304,
                -0.7508013573592284,
                0.8047411997392759,
                -3.1225569243855933
            ]
        },
        {
            "positions": [
                -1.3847467031438228,
                -1.270435696853537,
                1.9904240498252599,
                -0.6982143374067342,
                0.9691334870689716,
                -3.121788886731662
            ]
        },
        {
            "positions": [
                -1.481259685719472,
                -1.3199060439830257,
                1.9807959543693894,
                -0.64562731745424,
                1.1335257743986675,
                -3.121020849077731
            ]
        },
        {
            "positions": [
                -1.5777726682951214,
                -1.3693763911125143,
                1.9711678589135189,
                -0.5930402975017457,
                1.2979180617283632,
                -3.1202528114238
            ]
        },
        {
            "positions": [
                -1.6742856508707709,
                -1.4188467382420031,
                1.9615397634576484,
                -0.5404532775492515,
                1.4623103490580591,
                -3.1194847737698685
            ]
        }
    ]
}