{
    "goal": {
        "global_pose": {
            "orientation": {
                "w": 0.005598929693374612,
                "x": 0.007748599140229565,
                "y": 0.7110244013736278,
                "z": -0.7031023480610252
            },
            "position": {
                "x": 0.1141497679147869,
                "y": -0.7141253447532654,
                "z": 0.3711530566215515
            }
        },
        "name": "move_to_auspresseinheit_B"
    },
    "id": "PRM_move_to_auspresseinheit_B_30",
    "joint_names": [
        "shoulder_pan_joint",
        "shoulder_lift_joint",
        "elbow_joint",
        "wrist_1_joint",
        "wrist_2_joint",
        "wrist_3_joint"
    ],
    "metrics": {
        "cart_traj_len": 0.5653327609677403,
        "distance_elbow_joint": 0.06401765237475443,
        "distance_shoulder_lift_joint": 0.2932734530497443,
        "distance_shoulder_pan_joint": 0.5749622471212565,
        "distance_wrist_1_joint": 0.32655244033884145,
        "distance_wrist_2_joint": 1.0076788579125207,
        "distance_wrist_3_joint": 0.006671868286854732,
        "smoothness": 3.806478935924272e-16,
        "time": 0.029634107,
        "traj_len": 1.5076990810781747,
        "weighted_distance": 1.9028219974314582
    },
    "planner": "PRM",
    "start": {
        "state": {
            "elbow_joint": 2.0193083361928714,
            "shoulder_lift_joint": -1.1220246554650708,
            "shoulder_pan_joint": -1.0952077554168747,
            "wrist_1_joint": -0.8559753972642168,
            "wrist_2_joint": 0.4759566250798843,
            "wrist_3_joint": -3.1240929996934557
        }
    },
    "waypoints": [
        {
            "positions": [
                -1.0952077554168747,
                -1.1220246554650708,
                2.0193083361928714,
                -0.8559753972642168,
                0.4759566250798843,
                -3.1240929996934557
            ]
        },
        {
            "positions": [
                -1.1910347966037507,
                -1.1709035643066947,
                2.0086387274637456,
                -0.8015499905410766,
                0.6439031013986377,
                -3.1229810216456464
            ]
        },
        {
            "positions": [
                -1.286861837790627,
                -1.219782473148319,
                1.99796911873462,
                -0.7471245838179363,
                0.8118495777173911,
                -3.1218690435978376
            ]
        },
        {
            "positions": [
                -1.382688878977503,
                -1.268661381989943,
                1.9872995100054942,
                -0.6926991770947961,
                0.9797960540361446,
                -3.1207570655500283
            ]
        },
        {
            "positions": [
                -1.478515920164379,
                -1.317540290831567,
                1.9766299012763684,
                -0.6382737703716559,
                1.147742530354898,
                -3.119645087502219
            ]
        },
        {
            "positions": [
                -1.5743429613512552,
                -1.366419199673191,
                1.9659602925472428,
                -0.5838483636485156,
                1.3156890066736515,
                -3.11853310945441
            ]
        },
        {
            "positions": [
                -1.6701700025381312,
                -1.415298108514815,
                1.955290683818117,
                -0.5294229569253753,
                1.483635482992405,
                -3.117421131406601
            ]
        }
    ]
}