{
    "goal": {
        "global_pose": {
            "orientation": {
                "w": 0.5084816217422485,
                "x": -0.49083608388900757,
                "y": 0.5182115435600281,
                "z": -0.4816462993621826
            },
            "position": {
                "x": 0.5540239810943604,
                "y": 0.030875300988554955,
                "z": 0.16403168439865112
            }
        },
        "name": "move_to_storage_A"
    },
    "id": "PRM_move_to_storage_A_81",
    "joint_names": [
        "shoulder_pan_joint",
        "shoulder_lift_joint",
        "elbow_joint",
        "wrist_1_joint",
        "wrist_2_joint",
        "wrist_3_joint"
    ],
    "metrics": {
        "cart_traj_len": 0.35306839039805105,
        "distance_elbow_joint": 0.4505409705674499,
        "distance_shoulder_lift_joint": 0.23515750579558636,
        "distance_shoulder_pan_joint": 0.461201431382841,
        "distance_wrist_1_joint": 0.24438250702037723,
        "distance_wrist_2_joint": 1.1013022662306764,
        "distance_wrist_3_joint": 0.10674735190092433,
        "smoothness": 1.3322676295501878e-15,
        "time": 0.023892444,
        "traj_len": 1.6122444085491054,
        "weighted_distance": 2.0392428766458295
    },
    "planner": "PRM",
    "start": {
        "state": {
            "elbow_joint": 1.971548259319323,
            "shoulder_lift_joint": -1.1394851275133948,
            "shoulder_pan_joint": 0.1228115487234821,
            "wrist_1_joint": -0.7804723859257726,
            "wrist_2_joint": 0.12958671773740124,
            "wrist_3_joint": -3.192489227718131
        }
    },
    "waypoints": [
        {
            "positions": [
                0.1228115487234821,
                -1.1394851275133948,
                1.971548259319323,
                -0.7804723859257726,
                0.12958671773740124,
                -3.192489227718131
            ]
        },
        {
            "positions": [
                0.05692562995450483,
                -1.1730790569127643,
                2.035911255114673,
                -0.8153841726429694,
                0.28691561291321216,
                -3.177239606017999
            ]
        },
        {
            "positions": [
                -0.008960288814472445,
                -1.2066729863121337,
                2.100274250910023,
                -0.8502959593601661,
                0.44424450808902305,
                -3.161989984317867
            ]
        },
        {
            "positions": [
                -0.07484620758344973,
                -1.2402669157115032,
                2.164637246705373,
                -0.8852077460773629,
                0.601573403264834,
                -3.146740362617735
            ]
        },
        {
            "positions": [
                -0.140732126352427,
                -1.2738608451108728,
                2.2290002425007227,
                -0.9201195327945596,
                0.7589022984406449,
                -3.131490740917603
            ]
        },
        {
            "positions": [
                -0.2066180451214043,
                -1.3074547745102423,
                2.293363238296073,
                -0.9550313195117563,
                0.9162311936164559,
                -3.116241119217471
            ]
        },
        {
            "positions": [
                -0.27250396389038156,
                -1.3410487039096117,
                2.357726234091423,
                -0.9899431062289531,
                1.0735600887922667,
                -3.100991497517339
            ]
        },
        {
            "positions": [
                -0.3383898826593589,
                -1.3746426333089812,
                2.422089229886773,
                -1.0248548929461498,
                1.2308889839680777,
                -3.085741875817207
            ]
        }
    ]
}{
    "goal": {
        "global_pose": {
            "orientation": {
                "w": 0.5084816217422485,
                "x": -0.49083608388900757,
                "y": 0.5182115435600281,
                "z": -0.4816462993621826
            },
            "position": {
                "x": 0.5540239810943604,
                "y": 0.030875300988554955,
                "z": 0.16403168439865112
            }
        },
        "name": "move_to_storage_A"
    },
    "id": "PRM_move_to_storage_A_81",
    "joint_names": [
        "shoulder_pan_joint",
        "shoulder_lift_joint",
        "elbow_joint",
        "wrist_1_joint",
        "wrist_2_joint",
        "wrist_3_joint"
    ],
    "metrics": {
        "cart_traj_len": 0.3532775802621467,
        "distance_elbow_joint": 0.44993402069253374,
        "distance_shoulder_lift_joint": 0.2335674129954599,
        "distance_shoulder_pan_joint": 0.46324590867545395,
        "distance_wrist_1_joint": 0.2491020022301853,
        "distance_wrist_2_joint": 1.0926830899854676,
        "distance_wrist_3_joint": 0.09887379399496776,
        "smoothness": 1.4432899335161698e-15,
        "time": 0.032179644,
        "traj_len": 1.6085416465152738,
        "weighted_distance": 2.0314868714268512
    },
    "planner": "PRM",
    "start": {
        "state": {
            "elbow_joint": 1.97154746011099,
            "shoulder_lift_joint": -1.13948474672311,
            "shoulder_pan_joint": 0.12281154466712228,
            "wrist_1_joint": -0.7804688027058302,
            "wrist_2_joint": 0.12958655903071145,
            "wrist_3_joint": 3.0906928834467795
        }
    },
    "waypoints": [
        {
            "positions": [
                0.12281154466712228,
                -1.13948474672311,
                1.97154746011099,
                -0.7804688027058302,
                0.12958655903071145,
                3.0906928834467795
            ]
        },
        {
            "positions": [
                0.05663355771348601,
                -1.1728515200081757,
                2.0358237487813517,
                -0.8160548030244281,
                0.28568414331434966,
                3.1048177111603463
            ]
        },
        {
            "positions": [
                -0.009544429240150268,
                -1.2062182932932413,
                2.100100037451714,
                -0.8516408033430259,
                0.44178172759798784,
                3.118942538873913
            ]
        },
        {
            "positions": [
                -0.07572241619378654,
                -1.239585066578307,
                2.164376326122076,
                -0.8872268036616239,
                0.5978793118816261,
                3.13306736658748
            ]
        },
        {
            "positions": [
                -0.1419004031474228,
                -1.2729518398633728,
                2.2286526147924377,
                -0.9228128039802218,
                0.7539768961652643,
                3.147192194301047
            ]
        },
        {
            "positions": [
                -0.2080783901010591,
                -1.3063186131484386,
                2.2929289034627995,
                -0.9583988042988196,
                0.9100744804489026,
                3.1613170220146136
            ]
        },
        {
            "positions": [
                -0.27425637705469535,
                -1.339685386433504,
                2.357205192133162,
                -0.9939848046174176,
                1.0661720647325408,
                3.1754418497281804
            ]
        },
        {
            "positions": [
                -0.34043436400833166,
                -1.3730521597185699,
                2.4214814808035237,
                -1.0295708049360155,
                1.222269649016179,
                3.1895666774417473
            ]
        }
    ]
}{
    "goal": {
        "global_pose": {
            "orientation": {
                "w": 0.5084816217422485,
                "x": -0.49083608388900757,
                "y": 0.5182115435600281,
                "z": -0.4816462993621826
            },
            "position": {
                "x": 0.5540239810943604,
                "y": 0.030875300988554955,
                "z": 0.16403168439865112
            }
        },
        "name": "move_to_storage_A"
    },
    "id": "PRM_move_to_storage_A_81",
    "joint_names": [
        "shoulder_pan_joint",
        "shoulder_lift_joint",
        "elbow_joint",
        "wrist_1_joint",
        "wrist_2_joint",
        "wrist_3_joint"
    ],
    "metrics": {
        "cart_traj_len": 0.3533263814496163,
        "distance_elbow_joint": 0.44998951247447794,
        "distance_shoulder_lift_joint": 0.23387619816965732,
        "distance_shoulder_pan_joint": 0.4609569468407999,
        "distance_wrist_1_joint": 0.24627474122391724,
        "distance_wrist_2_joint": 1.1033841071775086,
        "distance_wrist_3_joint": 0.08943018168870642,
        "smoothness": 8.881784197001252e-16,
        "time": 0.023321944,
        "traj_len": 1.6074550343866751,
        "weighted_distance": 2.0279129417590656
    },
    "planner": "PRM",
    "start": {
        "state": {
            "elbow_joint": 1.9715472970024885,
            "shoulder_lift_joint": -1.1394870060712896,
            "shoulder_pan_joint": 0.12281152778156021,
            "wrist_1_joint": -0.780463741449964,
            "wrist_2_joint": 0.12958659822042276,
            "wrist_3_joint": 3.090690232415272
        }
    },
    "waypoints": [
        {
            "positions": [
                0.12281152778156021,
                -1.1394870060712896,
                1.9715472970024885,
                -0.780463741449964,
                0.12958659822042276,
                3.090690232415272
            ]
        },
        {
            "positions": [
                0.05696053537573166,
                -1.1728978915240977,
                2.035831513070271,
                -0.8156458473390951,
                0.2872128992457811,
                3.1034659726565157
            ]
        },
        {
            "positions": [
                -0.008890457030096888,
                -1.206308776976906,
                2.1001157291380537,
                -0.850827953228226,
                0.44483920027113943,
                3.1162417128977595
            ]
        },
        {
            "positions": [
                -0.07474144943592545,
                -1.2397196624297142,
                2.1643999452058362,
                -0.8860100591173571,
                0.6024655012964978,
                3.1290174531390034
            ]
        },
        {
            "positions": [
                -0.14059244184175398,
                -1.2731305478825223,
                2.228684161273619,
                -0.9211921650064882,
                0.7600918023218561,
                3.1417931933802468
            ]
        },
        {
            "positions": [
                -0.20644343424758257,
                -1.3065414333353305,
                2.2929683773414014,
                -0.9563742708956191,
                0.9177181033472146,
                3.1545689336214906
            ]
        },
        {
            "positions": [
                -0.2722944266534111,
                -1.3399523187881388,
                2.357252593409184,
                -0.9915563767847502,
                1.0753444043725728,
                3.1673446738627344
            ]
        },
        {
            "positions": [
                -0.33814541905923967,
                -1.373363204240947,
                2.4215368094769665,
                -1.0267384826738812,
                1.2329707053979313,
                3.1801204141039783
            ]
        }
    ]
}