{
    "goal": {
        "global_pose": {
            "orientation": {
                "w": -0.00223480608172531,
                "x": 0.0024358444001904467,
                "y": 0.7094548369677653,
                "z": -0.704743149386269
            },
            "position": {
                "x": -0.37947507619857795,
                "y": -0.6371506643295288,
                "z": 0.19426114857196808
            }
        },
        "name": "move_to_magneteinheit_C"
    },
    "id": "PRM_move_to_magneteinheit_C_20",
    "joint_names": [
        "shoulder_pan_joint",
        "shoulder_lift_joint",
        "elbow_joint",
        "wrist_1_joint",
        "wrist_2_joint",
        "wrist_3_joint"
    ],
    "metrics": {
        "cart_traj_len": 5.1838930278411,
        "distance_elbow_joint": 1.114897447263111,
        "distance_shoulder_lift_joint": 2.271690177500373,
        "distance_shoulder_pan_joint": 9.326338647190465,
        "distance_wrist_1_joint": 1.8797160878105483,
        "distance_wrist_2_joint": 5.895633696374185,
        "distance_wrist_3_joint": 6.0544352803181365,
        "smoothness": 0.5409291524061823,
        "time": 0.685772733,
        "traj_len": 5.151961891984141,
        "weighted_distance": 6.813731113074378
    },
    "planner": "PRM",
    "start": {
        "state": {
            "elbow_joint": 1.9565354010623817,
            "shoulder_lift_joint": -1.4165861575791021,
            "shoulder_pan_joint": -1.6717766225146293,
            "wrist_1_joint": -0.5286633292919765,
            "wrist_2_joint": 1.472756589071564,
            "wrist_3_joint": -3.1238370188695823
        }
    },
    "waypoints": [
        {
            "positions": [
                -1.6717766225146293,
                -1.4165861575791021,
                1.9565354010623817,
                -0.5286633292919765,
                1.472756589071564,
                -3.1238370188695823
            ]
        },
        {
            "positions": [
                -1.688171861597149,
                -1.4707166196999126,
                2.0187597669302155,
                -0.655065460155093,
                1.4212457348186531,
                -3.075484270057893
            ]
        },
        {
            "positions": [
                -1.704567100679669,
                -1.5248470818207231,
                2.0809841327980494,
                -0.7814675910182096,
                1.3697348805657423,
                -3.0271315212462038
            ]
        },
        {
            "positions": [
                -1.7209623397621887,
                -1.5789775439415337,
                2.1432084986658833,
                -0.9078697218813261,
                1.3182240263128313,
                -2.9787787724345147
            ]
        },
        {
            "positions": [
                -1.7373575788447084,
                -1.6331080060623444,
                2.2054328645337167,
                -1.0342718527444426,
                1.2667131720599205,
                -2.9304260236228252
            ]
        },
        {
            "positions": [
                -1.7537528179272284,
                -1.6872384681831547,
                2.2676572304015505,
                -1.1606739836075592,
                1.2152023178070097,
                -2.8820732748111357
            ]
        },
        {
            "positions": [
                -1.770148057009748,
                -1.7413689303039654,
                2.3298815962693844,
                -1.2870761144706757,
                1.1636914635540987,
                -2.8337205259994467
            ]
        },
        {
            "positions": [
                -1.786543296092268,
                -1.795499392424776,
                2.3921059621372183,
                -1.4134782453337924,
                1.112180609301188,
                -2.7853677771877576
            ]
        },
        {
            "positions": [
                -1.8029385351747877,
                -1.8496298545455865,
                2.454330328005052,
                -1.5398803761969089,
                1.060669755048277,
                -2.737015028376068
            ]
        },
        {
            "positions": [
                -1.6507311234791437,
                -1.8702401295885904,
                2.4354386466089153,
                -1.5430736409335954,
                0.9557254187359349,
                -2.643103505412097
            ]
        },
        {
            "positions": [
                -1.4985237117835,
                -1.8908504046315942,
                2.416546965212779,
                -1.546266905670282,
                0.8507810824235926,
                -2.5491919824481264
            ]
        },
        {
            "positions": [
                -1.346316300087856,
                -1.9114606796745979,
                2.397655283816642,
                -1.5494601704069686,
                0.7458367461112505,
                -2.4552804594841553
            ]
        },
        {
            "positions": [
                -1.1941088883922122,
                -1.9320709547176018,
                2.3787636024205057,
                -1.5526534351436554,
                0.6408924097989083,
                -2.361368936520184
            ]
        },
        {
            "positions": [
                -1.0419014766965682,
                -1.9526812297606058,
                2.359871921024369,
                -1.555846699880342,
                0.535948073486566,
                -2.267457413556213
            ]
        },
        {
            "positions": [
                -0.8896940650009242,
                -1.9732915048036095,
                2.3409802396282324,
                -1.5590399646170285,
                0.4310037371742238,
                -2.1735458905922425
            ]
        },
        {
            "positions": [
                -0.7374866533052802,
                -1.9939017798466132,
                2.3220885582320956,
                -1.5622332293537151,
                0.32605940086188157,
                -2.0796343676282714
            ]
        },
        {
            "positions": [
                -0.5852792416096364,
                -2.014512054889617,
                2.3031968768359588,
                -1.5654264940904017,
                0.22111506454953944,
                -1.9857228446643005
            ]
        },
        {
            "positions": [
                -0.4330718299139922,
                -2.035122329932621,
                2.2843051954398224,
                -1.5686197588270883,
                0.1161707282371971,
                -1.8918113217003294
            ]
        },
        {
            "positions": [
                -0.2808644182183484,
                -2.055732604975625,
                2.2654135140436855,
                -1.5718130235637748,
                0.011226391924854973,
                -1.7978997987363585
            ]
        },
        {
            "positions": [
                -0.1286570065227044,
                -2.0763428800186285,
                2.246521832647549,
                -1.5750062883004616,
                -0.09371794438748737,
                -1.7039882757723874
            ]
        },
        {
            "positions": [
                0.02355040517293938,
                -2.0969531550616325,
                2.2276301512514123,
                -1.5781995530371482,
                -0.1986622806998295,
                -1.6100767528084166
            ]
        },
        {
            "positions": [
                0.1757578168685836,
                -2.1175634301046364,
                2.208738469855276,
                -1.5813928177738348,
                -0.30360661701217184,
                -1.5161652298444455
            ]
        },
        {
            "positions": [
                0.3279652285642274,
                -2.13817370514764,
                2.189846788459139,
                -1.5845860825105214,
                -0.40855095332451397,
                -1.4222537068804746
            ]
        },
        {
            "positions": [
                0.4801726402598714,
                -2.158783980190644,
                2.170955107063002,
                -1.587779347247208,
                -0.5134952896368561,
                -1.3283421839165037
            ]
        },
        {
            "positions": [
                0.6323800519555149,
                -2.179394255233648,
                2.152063425666866,
                -1.5909726119838945,
                -0.6184396259491982,
                -1.2344306609525328
            ]
        },
        {
            "positions": [
                0.784587463651159,
                -2.2000045302766518,
                2.133171744270729,
                -1.594165876720581,
                -0.7233839622615406,
                -1.1405191379885617
            ]
        },
        {
            "positions": [
                0.9367948753468034,
                -2.2206148053196557,
                2.1142800628745926,
                -1.5973591414572679,
                -0.8283282985738829,
                -1.0466076150245907
            ]
        },
        {
            "positions": [
                1.0890022870424474,
                -2.241225080362659,
                2.0953883814784557,
                -1.6005524061939544,
                -0.9332726348862252,
                -0.9526960920606196
            ]
        },
        {
            "positions": [
                1.241209698738091,
                -2.261835355405663,
                2.076496700082319,
                -1.603745670930641,
                -1.0382169711985672,
                -0.8587845690966487
            ]
        },
        {
            "positions": [
                1.393417110433735,
                -2.282445630448667,
                2.0576050186861825,
                -1.6069389356673276,
                -1.1431613075109093,
                -0.7648730461326778
            ]
        },
        {
            "positions": [
                1.545624522129379,
                -2.3030559054916706,
                2.038713337290046,
                -1.6101322004040142,
                -1.2481056438232518,
                -0.6709615231687067
            ]
        },
        {
            "positions": [
                1.6978319338250225,
                -2.3236661805346746,
                2.0198216558939093,
                -1.6133254651407007,
                -1.353049980135594,
                -0.5770500002047361
            ]
        },
        {
            "positions": [
                1.8500393455206665,
                -2.3442764555776785,
                2.0009299744977724,
                -1.6165187298773873,
                -1.457994316447936,
                -0.483138477240765
            ]
        },
        {
            "positions": [
                2.002246757216311,
                -2.3648867306206824,
                1.9820382931016358,
                -1.6197119946140741,
                -1.5629386527602787,
                -0.3892269542767939
            ]
        },
        {
            "positions": [
                2.154454168911955,
                -2.3854970056636864,
                1.9631466117054992,
                -1.6229052593507607,
                -1.6678829890726208,
                -0.2953154313128228
            ]
        },
        {
            "positions": [
                2.306661580607599,
                -2.40610728070669,
                1.9442549303093626,
                -1.6260985240874473,
                -1.772827325384963,
                -0.20140390834885213
            ]
        },
        {
            "positions": [
                2.458868992303242,
                -2.426717555749694,
                1.925363248913226,
                -1.6292917888241338,
                -1.8777716616973048,
                -0.10749238538488104
            ]
        },
        {
            "positions": [
                2.3047012045828583,
                -2.3872938438956384,
                1.9281174814516202,
                -1.6049453004404342,
                -1.7982371165221385,
                -0.20243271809842572
            ]
        },
        {
            "positions": [
                2.150533416862475,
                -2.3478701320415825,
                1.9308717139900144,
                -1.5805988120567345,
                -1.7187025713469721,
                -0.2973730508119704
            ]
        },
        {
            "positions": [
                1.9963656291420913,
                -2.308446420187527,
                1.9336259465284085,
                -1.5562523236730346,
                -1.6391680261718058,
                -0.3923133835255151
            ]
        },
        {
            "positions": [
                1.8421978414217075,
                -2.269022708333471,
                1.9363801790668027,
                -1.5319058352893349,
                -1.5596334809966392,
                -0.4872537162390598
            ]
        },
        {
            "positions": [
                1.688030053701324,
                -2.2295989964794156,
                1.939134411605197,
                -1.5075593469056352,
                -1.4800989358214731,
                -0.5821940489526045
            ]
        },
        {
            "positions": [
                1.5338622659809404,
                -2.19017528462536,
                1.9418886441435912,
                -1.4832128585219355,
                -1.4005643906463066,
                -0.6771343816661491
            ]
        },
        {
            "positions": [
                1.3796944782605567,
                -2.1507515727713042,
                1.9446428766819854,
                -1.4588663701382358,
                -1.3210298454711402,
                -0.7720747143796938
            ]
        },
        {
            "positions": [
                1.2255266905401732,
                -2.1113278609172488,
                1.9473971092203795,
                -1.434519881754536,
                -1.2414953002959739,
                -0.8670150470932385
            ]
        },
        {
            "positions": [
                1.0713589028197896,
                -2.071904149063193,
                1.9501513417587737,
                -1.4101733933708362,
                -1.1619607551208075,
                -0.9619553798067833
            ]
        },
        {
            "positions": [
                0.9171911150994059,
                -2.0324804372091374,
                1.952905574297168,
                -1.3858269049871366,
                -1.0824262099456412,
                -1.056895712520328
            ]
        },
        {
            "positions": [
                0.7630233273790223,
                -1.993056725355082,
                1.9556598068355622,
                -1.3614804166034369,
                -1.0028916647704746,
                -1.1518360452338725
            ]
        },
        {
            "positions": [
                0.6088555396586388,
                -1.953633013501026,
                1.9584140393739564,
                -1.3371339282197372,
                -0.9233571195953084,
                -1.2467763779474172
            ]
        },
        {
            "positions": [
                0.45468775193825506,
                -1.9142093016469706,
                1.9611682719123507,
                -1.3127874398360373,
                -0.843822574420142,
                -1.341716710660962
            ]
        },
        {
            "positions": [
                0.3005199642178713,
                -1.8747855897929149,
                1.9639225044507447,
                -1.2884409514523376,
                -0.7642880292449756,
                -1.4366570433745065
            ]
        },
        {
            "positions": [
                0.146352176497488,
                -1.8353618779388592,
                1.966676736989139,
                -1.264094463068638,
                -0.6847534840698093,
                -1.5315973760880512
            ]
        },
        {
            "positions": [
                -0.007815611222895757,
                -1.7959381660848037,
                1.9694309695275332,
                -1.2397479746849382,
                -0.605218938894643,
                -1.626537708801596
            ]
        },
        {
            "positions": [
                -0.1619833989432795,
                -1.7565144542307478,
                1.9721852020659274,
                -1.2154014863012383,
                -0.5256843937194766,
                -1.7214780415151407
            ]
        },
        {
            "positions": [
                -0.3161511866636628,
                -1.7170907423766923,
                1.9749394346043216,
                -1.1910549979175387,
                -0.4461498485443103,
                -1.8164183742286855
            ]
        },
        {
            "positions": [
                -0.4703189743840466,
                -1.6776670305226367,
                1.9776936671427157,
                -1.166708509533839,
                -0.36661530336914394,
                -1.91135870694223
            ]
        },
        {
            "positions": [
                -0.6244867621044303,
                -1.638243318668581,
                1.98044789968111,
                -1.1423620211501393,
                -0.2870807581939776,
                -2.006299039655775
            ]
        },
        {
            "positions": [
                -0.7786545498248136,
                -1.5988196068145255,
                1.9832021322195041,
                -1.1180155327664396,
                -0.20754621301881104,
                -2.1012393723693195
            ]
        },
        {
            "positions": [
                -0.9328223375451974,
                -1.5593958949604698,
                1.9859563647578984,
                -1.09366904438274,
                -0.1280116678436447,
                -2.196179705082864
            ]
        },
        {
            "positions": [
                -1.0869901252655811,
                -1.5199721831064141,
                1.9887105972962926,
                -1.0693225559990402,
                -0.04847712266847837,
                -2.291120037796409
            ]
        },
        {
            "positions": [
                -1.2411579129859645,
                -1.4805484712523584,
                1.9914648298346869,
                -1.0449760676153403,
                0.03105742250668797,
                -2.3860603705099535
            ]
        },
        {
            "positions": [
                -1.3953257007063482,
                -1.4411247593983028,
                1.9942190623730809,
                -1.0206295792316407,
                0.11059196768185431,
                -2.481000703223498
            ]
        },
        {
            "positions": [
                -1.549493488426732,
                -1.4017010475442473,
                1.9969732949114751,
                -0.9962830908479409,
                0.19012651285702087,
                -2.575941035937043
            ]
        },
        {
            "positions": [
                -1.7036612761471153,
                -1.3622773356901916,
                1.9997275274498694,
                -0.9719366024642412,
                0.269661058032187,
                -2.6708813686505875
            ]
        },
        {
            "positions": [
                -1.8578290638674995,
                -1.322853623836136,
                2.0024817599882634,
                -0.9475901140805415,
                0.34919560320735354,
                -2.765821701364132
            ]
        },
        {
            "positions": [
                -2.0119968515878828,
                -1.2834299119820802,
                2.0052359925266576,
                -0.9232436256968417,
                0.42873014838251966,
                -2.860762034077677
            ]
        },
        {
            "positions": [
                -2.166164639308266,
                -1.2440062001280248,
                2.007990225065052,
                -0.898897137313142,
                0.5082646935576862,
                -2.9557023667912214
            ]
        },
        {
            "positions": [
                -2.3203324270286503,
                -1.204582488273969,
                2.010744457603446,
                -0.8745506489294422,
                0.5877992387328523,
                -3.0506426995047664
            ]
        },
        {
            "positions": [
                -2.4745002147490336,
                -1.1651587764199134,
                2.0134986901418404,
                -0.8502041605457425,
                0.6673337839080187,
                -3.145583032218311
            ]
        }
    ]
}