{
    "goal": {
        "global_pose": {
            "orientation": {
                "w": -0.00223480608172531,
                "x": 0.0024358444001904467,
                "y": 0.7094548369677653,
                "z": -0.704743149386269
            },
            "position": {
                "x": -0.37947507619857795,
                "y": -0.6371506643295288,
                "z": 0.19426114857196808
            }
        },
        "name": "move_to_magneteinheit_C"
    },
    "id": "PRM_move_to_magneteinheit_C_122",
    "joint_names": [
        "shoulder_pan_joint",
        "shoulder_lift_joint",
        "elbow_joint",
        "wrist_1_joint",
        "wrist_2_joint",
        "wrist_3_joint"
    ],
    "metrics": {
        "cart_traj_len": 1.6930531351646707,
        "distance_elbow_joint": 1.2948848788279403,
        "distance_shoulder_lift_joint": 0.7095497696275856,
        "distance_shoulder_pan_joint": 1.7250751900665067,
        "distance_wrist_1_joint": 3.0864360428845528,
        "distance_wrist_2_joint": 1.553080801371089,
        "distance_wrist_3_joint": 4.82269022827734,
        "smoothness": 0.7380301781583719,
        "time": 0.431167611,
        "traj_len": 3.6320403234346132,
        "weighted_distance": 5.241814019198443
    },
    "planner": "PRM",
    "start": {
        "state": {
            "elbow_joint": 1.9565354010623817,
            "shoulder_lift_joint": -1.4165861575791021,
            "shoulder_pan_joint": -1.6717766225146293,
            "wrist_1_joint": -0.5286633292919765,
            "wrist_2_joint": 1.472756589071564,
            "wrist_3_joint": -3.1238370188695823
        }
    },
    "waypoints": [
        {
            "positions": [
                -1.6717766225146293,
                -1.4165861575791021,
                1.9565354010623817,
                -0.5286633292919765,
                1.472756589071564,
                -3.1238370188695823
            ]
        },
        {
            "positions": [
                -1.5638467072406426,
                -1.4345218553925208,
                1.9302459231538602,
                -0.5205561802947491,
                1.4763034408258262,
                -2.981431564881544
            ]
        },
        {
            "positions": [
                -1.4559167919666556,
                -1.4524575532059392,
                1.9039564452453388,
                -0.5124490312975218,
                1.4798502925800885,
                -2.8390261108935055
            ]
        },
        {
            "positions": [
                -1.3479868766926688,
                -1.4703932510193578,
                1.8776669673368174,
                -0.5043418823002945,
                1.4833971443343508,
                -2.696620656905467
            ]
        },
        {
            "positions": [
                -1.378572853118625,
                -1.4827922637596869,
                1.8388909798020616,
                -0.4065855708473669,
                1.4215012466726626,
                -2.5559101370384583
            ]
        },
        {
            "positions": [
                -1.4091588295445814,
                -1.495191276500016,
                1.8001149922673059,
                -0.3088292593944393,
                1.3596053490109743,
                -2.4151996171714494
            ]
        },
        {
            "positions": [
                -1.4397448059705376,
                -1.507590289240345,
                1.7613390047325503,
                -0.21107294794151166,
                1.2977094513492862,
                -2.274489097304441
            ]
        },
        {
            "positions": [
                -1.4703307823964937,
                -1.519989301980674,
                1.7225630171977946,
                -0.11331663648858403,
                1.235813553687598,
                -2.133778577437432
            ]
        },
        {
            "positions": [
                -1.50091675882245,
                -1.5323883147210031,
                1.6837870296630388,
                -0.015560325035656408,
                1.17391765602591,
                -1.9930680575704232
            ]
        },
        {
            "positions": [
                -1.5315027352484063,
                -1.5447873274613322,
                1.645011042128283,
                0.08219598641727122,
                1.1120217583642216,
                -1.8523575377034145
            ]
        },
        {
            "positions": [
                -1.5620887116743625,
                -1.5571863402016612,
                1.6062350545935273,
                0.17995229787019884,
                1.0501258607025334,
                -1.7116470178364056
            ]
        },
        {
            "positions": [
                -1.5926746881003186,
                -1.56958535294199,
                1.5674590670587718,
                0.27770860932312647,
                0.9882299630408453,
                -1.570936497969397
            ]
        },
        {
            "positions": [
                -1.623260664526275,
                -1.5819843656823191,
                1.528683079524016,
                0.3754649207760542,
                0.926334065379157,
                -1.4302259781023878
            ]
        },
        {
            "positions": [
                -1.6538466409522312,
                -1.5943833784226482,
                1.4899070919892603,
                0.4732212322289817,
                0.8644381677174688,
                -1.2895154582353792
            ]
        },
        {
            "positions": [
                -1.6844326173781874,
                -1.6067823911629773,
                1.4511311044545048,
                0.5709775436819093,
                0.8025422700557807,
                -1.1488049383683705
            ]
        },
        {
            "positions": [
                -1.7150185938041436,
                -1.6191814039033063,
                1.412355116919749,
                0.668733855134837,
                0.7406463723940926,
                -1.0080944185013618
            ]
        },
        {
            "positions": [
                -1.7456045702301,
                -1.6315804166436354,
                1.3735791293849933,
                0.7664901665877646,
                0.6787504747324042,
                -0.8673838986343527
            ]
        },
        {
            "positions": [
                -1.7761905466560561,
                -1.6439794293839645,
                1.3348031418502375,
                0.8642464780406921,
                0.6168545770707161,
                -0.7266733787673441
            ]
        },
        {
            "positions": [
                -1.8629387926800125,
                -1.6134147255142328,
                1.3640195624180858,
                0.8219670805912496,
                0.5820854090965104,
                -0.8668182093822463
            ]
        },
        {
            "positions": [
                -1.9496870387039686,
                -1.582850021644501,
                1.393235982985934,
                0.7796876831418069,
                0.5473162411223046,
                -1.0069630399971485
            ]
        },
        {
            "positions": [
                -2.036435284727925,
                -1.5522853177747693,
                1.422452403553782,
                0.7374082856923643,
                0.5125470731480989,
                -1.147107870612051
            ]
        },
        {
            "positions": [
                -2.123183530751881,
                -1.5217206139050377,
                1.4516688241216302,
                0.6951288882429217,
                0.4777779051738932,
                -1.2872527012269532
            ]
        },
        {
            "positions": [
                -2.2099317767758375,
                -1.4911559100353058,
                1.4808852446894785,
                0.6528494907934792,
                0.44300873719968736,
                -1.4273975318418557
            ]
        },
        {
            "positions": [
                -2.2966800227997934,
                -1.4605912061655741,
                1.5101016652573267,
                0.6105700933440366,
                0.40823956922548166,
                -1.567542362456758
            ]
        },
        {
            "positions": [
                -2.3834282688237503,
                -1.4300265022958425,
                1.5393180858251747,
                0.5682906958945939,
                0.37347040125127595,
                -1.7076871930716604
            ]
        },
        {
            "positions": [
                -2.470176514847706,
                -1.3994617984261106,
                1.568534506393023,
                0.5260112984451514,
                0.3387012332770702,
                -1.8478320236865624
            ]
        },
        {
            "positions": [
                -2.5569247608716625,
                -1.368897094556379,
                1.5977509269608712,
                0.4837319009957088,
                0.30393206530286443,
                -1.9879768543014649
            ]
        },
        {
            "positions": [
                -2.5706849300108385,
                -1.343032745329904,
                1.6373742354740541,
                0.37561985985423096,
                0.31739996295640427,
                -2.1234619210936447
            ]
        },
        {
            "positions": [
                -2.584445099150015,
                -1.3171683961034288,
                1.676997543987237,
                0.2675078187127532,
                0.3308678606099441,
                -2.258946987885825
            ]
        },
        {
            "positions": [
                -2.598205268289191,
                -1.2913040468769537,
                1.7166208525004203,
                0.15939577757127538,
                0.34433575826348395,
                -2.3944320546780054
            ]
        },
        {
            "positions": [
                -2.611965437428367,
                -1.2654396976504787,
                1.7562441610136033,
                0.051283736429797555,
                0.3578036559170238,
                -2.529917121470185
            ]
        },
        {
            "positions": [
                -2.589080956843559,
                -1.2481702366356058,
                1.7981960944223416,
                -0.09547684589370084,
                0.4093209186607998,
                -2.633630929048895
            ]
        },
        {
            "positions": [
                -2.566196476258751,
                -1.2309007756207329,
                1.84014802783108,
                -0.24223742821719924,
                0.4608381814045758,
                -2.737344736627605
            ]
        },
        {
            "positions": [
                -2.543311995673943,
                -1.21363131460586,
                1.8820999612398186,
                -0.38899801054069766,
                0.5123554441483518,
                -2.841058544206315
            ]
        },
        {
            "positions": [
                -2.520427515089135,
                -1.196361853590987,
                1.924051894648557,
                -0.535758592864196,
                0.5638727068921279,
                -2.9447723517850246
            ]
        },
        {
            "positions": [
                -2.497543034504327,
                -1.179092392576114,
                1.9660038280572953,
                -0.6825191751876944,
                0.6153899696359039,
                -3.0484861593637342
            ]
        },
        {
            "positions": [
                -2.474658553919519,
                -1.1618229315612412,
                2.0079557614660337,
                -0.8292797575111929,
                0.6669072323796799,
                -3.1521999669424443
            ]
        }
    ]
}