{
    "goal": {
        "global_pose": {
            "orientation": {
                "w": -0.00223480608172531,
                "x": 0.0024358444001904467,
                "y": 0.7094548369677653,
                "z": -0.704743149386269
            },
            "position": {
                "x": -0.37947507619857795,
                "y": -0.6371506643295288,
                "z": 0.19426114857196808
            }
        },
        "name": "move_to_magneteinheit_C"
    },
    "id": "PRM_move_to_magneteinheit_C_5",
    "joint_names": [
        "shoulder_pan_joint",
        "shoulder_lift_joint",
        "elbow_joint",
        "wrist_1_joint",
        "wrist_2_joint",
        "wrist_3_joint"
    ],
    "metrics": {
        "cart_traj_len": 1.6633445489628274,
        "distance_elbow_joint": 0.8585048041181214,
        "distance_shoulder_lift_joint": 0.6119898897761635,
        "distance_shoulder_pan_joint": 2.0756550315053945,
        "distance_wrist_1_joint": 1.675546298975295,
        "distance_wrist_2_joint": 4.116027349469972,
        "distance_wrist_3_joint": 7.056464612853081,
        "smoothness": 0.7329127605640925,
        "time": 0.965660355,
        "traj_len": 4.048973695481118,
        "weighted_distance": 6.024839488388836
    },
    "planner": "PRM",
    "start": {
        "state": {
            "elbow_joint": 1.9565354010623817,
            "shoulder_lift_joint": -1.4165861575791021,
            "shoulder_pan_joint": -1.6717766225146293,
            "wrist_1_joint": -0.5286633292919765,
            "wrist_2_joint": 1.472756589071564,
            "wrist_3_joint": -3.1238370188695823
        }
    },
    "waypoints": [
        {
            "positions": [
                -1.6717766225146293,
                -1.4165861575791021,
                1.9565354010623817,
                -0.5286633292919765,
                1.472756589071564,
                -3.1238370188695823
            ]
        },
        {
            "positions": [
                -1.6649686849279903,
                -1.458800837557997,
                1.9404513353805437,
                -0.3854605419071892,
                1.3647117804830013,
                -3.0453375114808545
            ]
        },
        {
            "positions": [
                -1.6581607473413515,
                -1.5010155175368922,
                1.9243672696987055,
                -0.24225775452240195,
                1.2566669718944388,
                -2.9668380040921267
            ]
        },
        {
            "positions": [
                -1.6513528097547128,
                -1.5432301975157872,
                1.9082832040168674,
                -0.09905496713761469,
                1.148622163305876,
                -2.8883384967033985
            ]
        },
        {
            "positions": [
                -1.6445448721680738,
                -1.585444877494682,
                1.8921991383350294,
                0.04414782024717251,
                1.0405773547173134,
                -2.8098389893146707
            ]
        },
        {
            "positions": [
                -1.7164821955891891,
                -1.5637813508271714,
                1.8751998864542894,
                0.049980728954226686,
                0.9391689688657284,
                -2.6497544131097954
            ]
        },
        {
            "positions": [
                -1.7884195190103047,
                -1.5421178241596607,
                1.8582006345735493,
                0.05581363766128086,
                0.8377605830141435,
                -2.48966983690492
            ]
        },
        {
            "positions": [
                -1.86035684243142,
                -1.52045429749215,
                1.8412013826928095,
                0.06164654636833504,
                0.7363521971625584,
                -2.3295852607000453
            ]
        },
        {
            "positions": [
                -1.9322941658525354,
                -1.4987907708246393,
                1.8242021308120695,
                0.06747945507538922,
                0.6349438113109734,
                -2.16950068449517
            ]
        },
        {
            "positions": [
                -2.004231489273651,
                -1.4771272441571286,
                1.8072028789313295,
                0.0733123637824434,
                0.5335354254593885,
                -2.009416108290295
            ]
        },
        {
            "positions": [
                -2.0761688126947666,
                -1.4554637174896177,
                1.7902036270505894,
                0.07914527248949757,
                0.4321270396078035,
                -1.8493315320854196
            ]
        },
        {
            "positions": [
                -2.148106136115882,
                -1.433800190822107,
                1.7732043751698494,
                0.08497818119655175,
                0.33071865375621856,
                -1.6892469558805445
            ]
        },
        {
            "positions": [
                -2.2200434595369973,
                -1.4121366641545963,
                1.7562051232891096,
                0.09081108990360592,
                0.2293102679046335,
                -1.5291623796756693
            ]
        },
        {
            "positions": [
                -2.2919807829581127,
                -1.3904731374870856,
                1.7392058714083696,
                0.0966439986106601,
                0.12790188205304853,
                -1.369077803470794
            ]
        },
        {
            "positions": [
                -2.363918106379228,
                -1.3688096108195749,
                1.7222066195276295,
                0.10247690731771428,
                0.026493496201463573,
                -1.208993227265919
            ]
        },
        {
            "positions": [
                -2.435855429800344,
                -1.3471460841520642,
                1.7052073676468895,
                0.10830981602476845,
                -0.0749148896501215,
                -1.0489086510610437
            ]
        },
        {
            "positions": [
                -2.507792753221459,
                -1.3254825574845535,
                1.6882081157661495,
                0.11414272473182263,
                -0.17632327550170634,
                -0.8888240748561687
            ]
        },
        {
            "positions": [
                -2.5797300766425746,
                -1.3038190308170428,
                1.6712088638854097,
                0.11997563343887681,
                -0.2777316613532914,
                -0.7287394986512932
            ]
        },
        {
            "positions": [
                -2.65166740006369,
                -1.282155504149532,
                1.6542096120046696,
                0.12580854214593098,
                -0.37914004720487626,
                -0.5686549224464184
            ]
        },
        {
            "positions": [
                -2.7236047234848053,
                -1.2604919774820211,
                1.6372103601239296,
                0.13164145085298518,
                -0.48054843305646133,
                -0.4085703462415431
            ]
        },
        {
            "positions": [
                -2.795542046905921,
                -1.2388284508145104,
                1.6202111082431896,
                0.13747435956003934,
                -0.5819568189080464,
                -0.24848577003666783
            ]
        },
        {
            "positions": [
                -2.867479370327036,
                -1.2171649241469997,
                1.6032118563624498,
                0.1433072682670935,
                -0.6833652047596313,
                -0.08840119383179301
            ]
        },
        {
            "positions": [
                -2.939416693748152,
                -1.195501397479489,
                1.5862126044817098,
                0.1491401769741477,
                -0.7847735906112163,
                0.0716833823730827
            ]
        },
        {
            "positions": [
                -3.0113540171692668,
                -1.1738378708119783,
                1.5692133526009697,
                0.15497308568120188,
                -0.8861819764628012,
                0.2317679585779575
            ]
        },
        {
            "positions": [
                -3.0832913405903826,
                -1.1521743441444676,
                1.5522141007202297,
                0.16080599438825605,
                -0.9875903623143865,
                0.3918525347828328
            ]
        },
        {
            "positions": [
                -3.05120308728846,
                -1.1526933250134344,
                1.576118495655807,
                0.10890720621483171,
                -0.9004492887310172,
                0.20549595271963988
            ]
        },
        {
            "positions": [
                -3.0191148339865372,
                -1.1532123058824013,
                1.6000228905913843,
                0.0570084180414074,
                -0.8133082151476478,
                0.019139370656446997
            ]
        },
        {
            "positions": [
                -2.987026580684615,
                -1.153731286751368,
                1.6239272855269618,
                0.005109629867983079,
                -0.7261671415642784,
                -0.16721721140674584
            ]
        },
        {
            "positions": [
                -2.954938327382692,
                -1.1542502676203348,
                1.647831680462539,
                -0.04678915830544125,
                -0.6390260679809091,
                -0.3535737934699388
            ]
        },
        {
            "positions": [
                -2.9228500740807695,
                -1.1547692484893015,
                1.6717360753981163,
                -0.09868794647886558,
                -0.5518849943975397,
                -0.5399303755331316
            ]
        },
        {
            "positions": [
                -2.8907618207788466,
                -1.1552882293582685,
                1.6956404703336938,
                -0.1505867346522899,
                -0.4647439208141704,
                -0.7262869575963244
            ]
        },
        {
            "positions": [
                -2.858673567476924,
                -1.1558072102272352,
                1.719544865269271,
                -0.20248552282571425,
                -0.37760284723080106,
                -0.9126435396595174
            ]
        },
        {
            "positions": [
                -2.8265853141750013,
                -1.156326191096202,
                1.7434492602048484,
                -0.25438431099913855,
                -0.29046177364743175,
                -1.0990001217227103
            ]
        },
        {
            "positions": [
                -2.794497060873079,
                -1.1568451719651687,
                1.7673536551404256,
                -0.30628309917256286,
                -0.20332070006406244,
                -1.285356703785903
            ]
        },
        {
            "positions": [
                -2.762408807571156,
                -1.1573641528341356,
                1.7912580500760031,
                -0.3581818873459872,
                -0.11617962648069302,
                -1.471713285849096
            ]
        },
        {
            "positions": [
                -2.7303205542692335,
                -1.1578831337031024,
                1.8151624450115804,
                -0.41008067551941163,
                -0.0290385528973236,
                -1.658069867912289
            ]
        },
        {
            "positions": [
                -2.6982323009673106,
                -1.158402114572069,
                1.8390668399471577,
                -0.4619794636928358,
                0.05810252068604571,
                -1.8444264499754817
            ]
        },
        {
            "positions": [
                -2.666144047665388,
                -1.1589210954410358,
                1.862971234882735,
                -0.5138782518662602,
                0.14524359426941502,
                -2.030783032038675
            ]
        },
        {
            "positions": [
                -2.6340557943634653,
                -1.1594400763100028,
                1.8868756298183125,
                -0.5657770400396845,
                0.23238466785278433,
                -2.2171396141018676
            ]
        },
        {
            "positions": [
                -2.601967541061543,
                -1.1599590571789695,
                1.9107800247538897,
                -0.6176758282131088,
                0.31952574143615364,
                -2.4034961961650607
            ]
        },
        {
            "positions": [
                -2.56987928775962,
                -1.1604780380479363,
                1.934684419689467,
                -0.6695746163865332,
                0.40666681501952295,
                -2.5898527782282534
            ]
        },
        {
            "positions": [
                -2.5377910344576975,
                -1.160997018916903,
                1.9585888146250445,
                -0.7214734045599576,
                0.4938078886028925,
                -2.776209360291446
            ]
        },
        {
            "positions": [
                -2.505702781155775,
                -1.16151599978587,
                1.9824932095606218,
                -0.7733721927333818,
                0.5809489621862616,
                -2.962565942354639
            ]
        },
        {
            "positions": [
                -2.473614527853852,
                -1.1620349806548367,
                2.006397604496199,
                -0.8252709809068062,
                0.6680900357696312,
                -3.148922524417832
            ]
        }
    ]
}