{
    "goal": {
        "global_pose": {
            "orientation": {
                "w": 0.7047431468963623,
                "x": -0.7094548344612122,
                "y": 0.0024358443915843964,
                "z": -0.0022348060738295317
            },
            "position": {
                "x": 0.6094750761985779,
                "y": 0.3671506643295288,
                "z": 0.19426114857196808
            }
        },
        "name": "move_to_magneteinheit_A"
    },
    "id": "PRM_move_to_magneteinheit_A_115",
    "joint_names": [
        "shoulder_pan_joint",
        "shoulder_lift_joint",
        "elbow_joint",
        "wrist_1_joint",
        "wrist_2_joint",
        "wrist_3_joint"
    ],
    "metrics": {
        "cart_traj_len": 3.3623220394364686,
        "distance_elbow_joint": 3.922270747362448,
        "distance_shoulder_lift_joint": 0.5130391280840868,
        "distance_shoulder_pan_joint": 3.258353058234745,
        "distance_wrist_1_joint": 3.5071029142639283,
        "distance_wrist_2_joint": 1.9373719357877393,
        "distance_wrist_3_joint": 0.7398271267091957,
        "smoothness": 0.14997212695949724,
        "time": 0.21538405,
        "traj_len": 3.7253140686983888,
        "weighted_distance": 4.560931266080669
    },
    "planner": "PRM",
    "start": {
        "state": {
            "elbow_joint": -1.9196185241190666,
            "shoulder_lift_joint": -1.2443396400964142,
            "shoulder_pan_joint": 2.6996025414629847,
            "wrist_1_joint": -1.5485510000780065,
            "wrist_2_joint": -1.5709468930060704,
            "wrist_3_joint": 0.4420197071253992
        }
    },
    "waypoints": [
        {
            "positions": [
                2.6996025414629847,
                -1.2443396400964142,
                -1.9196185241190666,
                -1.5485510000780065,
                -1.5709468930060704,
                0.4420197071253992
            ]
        },
        {
            "positions": [
                2.5873669819970853,
                -1.245315709334855,
                -1.7911328317504247,
                -1.4718587833713956,
                -1.5059098551820682,
                0.4469235613137001
            ]
        },
        {
            "positions": [
                2.475131422531186,
                -1.246291778573296,
                -1.6626471393817828,
                -1.3951665666647848,
                -1.440872817358066,
                0.45182741550200106
            ]
        },
        {
            "positions": [
                2.3628958630652868,
                -1.247267847811737,
                -1.5341614470131408,
                -1.318474349958174,
                -1.3758357795340639,
                0.456731269690302
            ]
        },
        {
            "positions": [
                2.2506603035993873,
                -1.248243917050178,
                -1.405675754644499,
                -1.241782133251563,
                -1.310798741710062,
                0.4616351238786029
            ]
        },
        {
            "positions": [
                2.138424744133488,
                -1.2492199862886189,
                -1.2771900622758567,
                -1.1650899165449522,
                -1.2457617038860598,
                0.46653897806690386
            ]
        },
        {
            "positions": [
                2.0261891846675883,
                -1.25019605552706,
                -1.1487043699072148,
                -1.0883976998383413,
                -1.1807246660620576,
                0.4714428322552048
            ]
        },
        {
            "positions": [
                1.913953625201689,
                -1.2511721247655008,
                -1.0202186775385729,
                -1.0117054831317305,
                -1.1156876282380555,
                0.4763466864435057
            ]
        },
        {
            "positions": [
                1.8017180657357896,
                -1.2521481940039418,
                -0.8917329851699309,
                -0.9350132664251196,
                -1.0506505904140533,
                0.4812505406318066
            ]
        },
        {
            "positions": [
                1.6894825062698904,
                -1.2531242632423827,
                -0.763247292801289,
                -0.8583210497185088,
                -0.9856135525900512,
                0.4861543948201076
            ]
        },
        {
            "positions": [
                1.577246946803991,
                -1.2541003324808238,
                -0.6347616004326468,
                -0.7816288330118979,
                -0.9205765147660491,
                0.4910582490084085
            ]
        },
        {
            "positions": [
                1.4650113873380914,
                -1.2550764017192646,
                -0.5062759080640049,
                -0.704936616305287,
                -0.8555394769420469,
                0.4959621031967094
            ]
        },
        {
            "positions": [
                1.352775827872192,
                -1.2560524709577057,
                -0.377790215695363,
                -0.6282443995986762,
                -0.7905024391180447,
                0.5008659573850104
            ]
        },
        {
            "positions": [
                1.2405402684062927,
                -1.2570285401961465,
                -0.24930452332672104,
                -0.5515521828920653,
                -0.7254654012940427,
                0.5057698115733114
            ]
        },
        {
            "positions": [
                1.1283047089403935,
                -1.2580046094345874,
                -0.1208188309580791,
                -0.47485996618545445,
                -0.6604283634700406,
                0.5106736657616122
            ]
        },
        {
            "positions": [
                1.016069149474494,
                -1.2589806786730284,
                0.007666861410562831,
                -0.3981677494788436,
                -0.5953913256460385,
                0.5155775199499132
            ]
        },
        {
            "positions": [
                0.9038335900085945,
                -1.2599567479114693,
                0.13615255377920477,
                -0.32147553277223273,
                -0.5303542878220362,
                0.5204813741382142
            ]
        },
        {
            "positions": [
                0.7915980305426951,
                -1.2609328171499103,
                0.2646382461478467,
                -0.24478331606562187,
                -0.46531724999803425,
                0.525385228326515
            ]
        },
        {
            "positions": [
                0.679362471076796,
                -1.2619088863883512,
                0.39312393851648864,
                -0.168091099359011,
                -0.4002802121740321,
                0.530289082514816
            ]
        },
        {
            "positions": [
                0.5671269116108966,
                -1.2628849556267923,
                0.5216096308851306,
                -0.09139888265240015,
                -0.3352431743500299,
                0.5351929367031169
            ]
        },
        {
            "positions": [
                0.4548913521449971,
                -1.263861024865233,
                0.650095323253773,
                -0.014706665945789288,
                -0.27020613652602776,
                0.5400967908914178
            ]
        },
        {
            "positions": [
                0.3426557926790976,
                -1.2648370941036742,
                0.7785810156224149,
                0.06198555076082157,
                -0.2051690987020256,
                0.5450006450797188
            ]
        },
        {
            "positions": [
                0.23042023321319816,
                -1.265813163342115,
                0.9070667079910568,
                0.13867776746743243,
                -0.14013206087802343,
                0.5499044992680197
            ]
        },
        {
            "positions": [
                0.11818467374729913,
                -1.266789232580556,
                1.0355524003596988,
                0.2153699841740433,
                -0.07509502305402149,
                0.5548083534563206
            ]
        },
        {
            "positions": [
                0.005949114281399215,
                -1.267765301818997,
                1.1640380927283407,
                0.29206220088065415,
                -0.010057985230019106,
                0.5597122076446216
            ]
        },
        {
            "positions": [
                -0.10628644518449981,
                -1.268741371057438,
                1.2925237850969826,
                0.368754417587265,
                0.054979052593982836,
                0.5646160618329225
            ]
        },
        {
            "positions": [
                -0.21852200465039925,
                -1.2697174402958789,
                1.4210094774656246,
                0.44544663429387593,
                0.12001609041798506,
                0.5695199160212234
            ]
        },
        {
            "positions": [
                -0.18449915343826306,
                -1.2209513075074165,
                1.4791737520434003,
                0.5967571622830805,
                0.09537519518161659,
                0.5082872242398863
            ]
        },
        {
            "positions": [
                -0.15047630222612685,
                -1.1721851747189544,
                1.537338026621176,
                0.7480676902722851,
                0.07073429994524813,
                0.44705453245854915
            ]
        },
        {
            "positions": [
                -0.11645345101399066,
                -1.1234190419304921,
                1.5955023011989515,
                0.8993782182614897,
                0.04609340470887968,
                0.38582184067721204
            ]
        },
        {
            "positions": [
                -0.08243059980185444,
                -1.07465290914203,
                1.6536665757767273,
                1.0506887462506944,
                0.021452509472511205,
                0.32458914889587487
            ]
        },
        {
            "positions": [
                -0.04840774858971825,
                -1.0258867763535677,
                1.711830850354503,
                1.2019992742398988,
                -0.0031883857638572433,
                0.2633564571145377
            ]
        },
        {
            "positions": [
                -0.014384897377582057,
                -0.9771206435651056,
                1.7699951249322787,
                1.3533098022291035,
                -0.027829281000225692,
                0.2021237653332006
            ]
        },
        {
            "positions": [
                0.019637953834554134,
                -0.9283545107766433,
                1.8281593995100542,
                1.5046203302183079,
                -0.05247017623659414,
                0.14089107355186342
            ]
        },
        {
            "positions": [
                0.05366080504669038,
                -0.8795883779881811,
                1.88632367408783,
                1.6559308582075127,
                -0.07711107147296264,
                0.07965838177052625
            ]
        },
        {
            "positions": [
                0.08768365625882654,
                -0.8308222451997189,
                1.9444879486656057,
                1.8072413861967171,
                -0.1017519667093311,
                0.018425689989189142
            ]
        },
        {
            "positions": [
                0.12170650747096276,
                -0.7820561124112567,
                2.0026522232433814,
                1.9585519141859218,
                -0.12639286194569954,
                -0.04280700179214806
            ]
        }
    ]
}