{
    "goal": {
        "global_pose": {
            "orientation": {
                "w": 0.7047431468963623,
                "x": -0.7094548344612122,
                "y": 0.0024358443915843964,
                "z": -0.0022348060738295317
            },
            "position": {
                "x": 0.6094750761985779,
                "y": 0.3671506643295288,
                "z": 0.19426114857196808
            }
        },
        "name": "move_to_magneteinheit_A"
    },
    "id": "PRM_move_to_magneteinheit_A_105",
    "joint_names": [
        "shoulder_pan_joint",
        "shoulder_lift_joint",
        "elbow_joint",
        "wrist_1_joint",
        "wrist_2_joint",
        "wrist_3_joint"
    ],
    "metrics": {
        "cart_traj_len": 3.2249487907643877,
        "distance_elbow_joint": 3.8697450039273367,
        "distance_shoulder_lift_joint": 0.5295763119951318,
        "distance_shoulder_pan_joint": 3.2399578370618114,
        "distance_wrist_1_joint": 2.427696983481424,
        "distance_wrist_2_joint": 1.6974630607791896,
        "distance_wrist_3_joint": 2.578237276449473,
        "smoothness": 0.24024696161686843,
        "time": 0.11451242,
        "traj_len": 3.787172622642697,
        "weighted_distance": 4.860484653905814
    },
    "planner": "PRM",
    "start": {
        "state": {
            "elbow_joint": -1.9196185241190666,
            "shoulder_lift_joint": -1.2443396400964142,
            "shoulder_pan_joint": 2.6996025414629847,
            "wrist_1_joint": -1.5485510000780065,
            "wrist_2_joint": -1.5709468930060704,
            "wrist_3_joint": 0.4420197071253992
        }
    },
    "waypoints": [
        {
            "positions": [
                2.6996025414629847,
                -1.2443396400964142,
                -1.9196185241190666,
                -1.5485510000780065,
                -1.5709468930060704,
                0.4420197071253992
            ]
        },
        {
            "positions": [
                2.5957496090070595,
                -1.251696071446296,
                -1.790951184613024,
                -1.489919109965197,
                -1.520063163507659,
                0.4883225950870281
            ]
        },
        {
            "positions": [
                2.4918966765511343,
                -1.2590525027961774,
                -1.6622838451069815,
                -1.4312872198523874,
                -1.4691794340092477,
                0.534625483048657
            ]
        },
        {
            "positions": [
                2.388043744095209,
                -1.266408934146059,
                -1.5336165056009388,
                -1.3726553297395778,
                -1.4182957045108362,
                0.5809283710102858
            ]
        },
        {
            "positions": [
                2.284190811639284,
                -1.2737653654959407,
                -1.4049491660948963,
                -1.3140234396267683,
                -1.3674119750124247,
                0.6272312589719147
            ]
        },
        {
            "positions": [
                2.1803378791833588,
                -1.2811217968458224,
                -1.2762818265888534,
                -1.2553915495139587,
                -1.3165282455140135,
                0.6735341469335436
            ]
        },
        {
            "positions": [
                2.0764849467274336,
                -1.288478228195704,
                -1.1476144870828109,
                -1.196759659401149,
                -1.265644516015602,
                0.7198370348951726
            ]
        },
        {
            "positions": [
                1.9726320142715084,
                -1.2958346595455854,
                -1.0189471475767682,
                -1.1381277692883394,
                -1.2147607865171905,
                0.7661399228568014
            ]
        },
        {
            "positions": [
                1.8687790818155834,
                -1.3031910908954671,
                -0.8902798080707257,
                -1.0794958791755298,
                -1.1638770570187793,
                0.8124428108184303
            ]
        },
        {
            "positions": [
                1.764926149359658,
                -1.3105475222453489,
                -0.7616124685646828,
                -1.0208639890627202,
                -1.1129933275203676,
                0.8587456987800592
            ]
        },
        {
            "positions": [
                1.661073216903733,
                -1.3179039535952304,
                -0.6329451290586403,
                -0.9622320989499107,
                -1.0621095980219564,
                0.9050485867416882
            ]
        },
        {
            "positions": [
                1.5572202844478078,
                -1.325260384945112,
                -0.5042777895525976,
                -0.9036002088371011,
                -1.011225868523545,
                0.951351474703317
            ]
        },
        {
            "positions": [
                1.4533673519918826,
                -1.3326168162949936,
                -0.37561045004655513,
                -0.8449683187242916,
                -0.9603421390251335,
                0.9976543626649459
            ]
        },
        {
            "positions": [
                1.3495144195359574,
                -1.3399732476448754,
                -0.2469431105405122,
                -0.7863364286114819,
                -0.9094584095267221,
                1.0439572506265749
            ]
        },
        {
            "positions": [
                1.2456614870800322,
                -1.3473296789947569,
                -0.11827577103446973,
                -0.7277045384986723,
                -0.8585746800283107,
                1.0902601385882038
            ]
        },
        {
            "positions": [
                1.141808554624107,
                -1.3546861103446384,
                0.010391568471572743,
                -0.6690726483858628,
                -0.8076909505298994,
                1.1365630265498325
            ]
        },
        {
            "positions": [
                1.037955622168182,
                -1.36204254169452,
                0.13905890797761522,
                -0.6104407582730532,
                -0.756807221031488,
                1.1828659145114613
            ]
        },
        {
            "positions": [
                0.9341026897122569,
                -1.3693989730444018,
                0.26772624748365814,
                -0.5518088681602437,
                -0.7059234915330765,
                1.2291688024730902
            ]
        },
        {
            "positions": [
                0.8302497572563314,
                -1.3767554043942833,
                0.39639358698970106,
                -0.493176978047434,
                -0.6550397620346651,
                1.2754716904347192
            ]
        },
        {
            "positions": [
                0.7263968248004062,
                -1.3841118357441649,
                0.5250609264957435,
                -0.43454508793462443,
                -0.6041560325362536,
                1.3217745783963482
            ]
        },
        {
            "positions": [
                0.6225438923444813,
                -1.3914682670940466,
                0.653728266001786,
                -0.37591319782181487,
                -0.5532723030378424,
                1.3680774663579771
            ]
        },
        {
            "positions": [
                0.5186909598885561,
                -1.3988246984439283,
                0.7823956055078285,
                -0.3172813077090053,
                -0.5023885735394309,
                1.414380354319606
            ]
        },
        {
            "positions": [
                0.4148380274326309,
                -1.4061811297938098,
                0.9110629450138714,
                -0.25864941759619575,
                -0.4515048440410194,
                1.460683242281235
            ]
        },
        {
            "positions": [
                0.3109850949767057,
                -1.4135375611436913,
                1.039730284519914,
                -0.2000175274833862,
                -0.4006211145426082,
                1.5069861302428635
            ]
        },
        {
            "positions": [
                0.20713216252078048,
                -1.420893992493573,
                1.1683976240259564,
                -0.14138563737057663,
                -0.3497373850441967,
                1.5532890182044925
            ]
        },
        {
            "positions": [
                0.10327923006485529,
                -1.4282504238434548,
                1.2970649635319993,
                -0.08275374725776685,
                -0.29885365554578525,
                1.5995919061661215
            ]
        },
        {
            "positions": [
                -0.000573702391069908,
                -1.4356068551933363,
                1.4257323030380422,
                -0.024121857144957293,
                -0.24796992604737378,
                1.6458947941277504
            ]
        },
        {
            "positions": [
                -0.1044266348469951,
                -1.4429632865432178,
                1.5543996425440847,
                0.03451003296785227,
                -0.19708619654896253,
                1.6921976820893794
            ]
        },
        {
            "positions": [
                -0.20827956730292022,
                -1.4503197178930995,
                1.6830669820501272,
                0.09314192308066174,
                -0.14620246705055095,
                1.7385005700510083
            ]
        },
        {
            "positions": [
                -0.17138226415893074,
                -1.4143645807599388,
                1.7127402595788097,
                0.005808138600355547,
                -0.11590039651458753,
                1.8809179493314376
            ]
        },
        {
            "positions": [
                -0.13448496101494123,
                -1.3784094436267782,
                1.742413537107492,
                -0.08152564587995065,
                -0.0855983259786241,
                2.023335328611867
            ]
        },
        {
            "positions": [
                -0.09758765787095175,
                -1.3424543064936174,
                1.7720868146361746,
                -0.16885943036025683,
                -0.055296255442660674,
                2.1657527078922962
            ]
        },
        {
            "positions": [
                -0.06069035472696227,
                -1.3064991693604566,
                1.801760092164857,
                -0.256193214840563,
                -0.024994184906697248,
                2.3081700871727255
            ]
        },
        {
            "positions": [
                -0.023793051582972735,
                -1.270544032227296,
                1.8314333696935394,
                -0.3435269993208693,
                0.005307885629266207,
                2.4505874664531553
            ]
        },
        {
            "positions": [
                0.013104251561016717,
                -1.2345888950941353,
                1.861106647222222,
                -0.43086078380117543,
                0.035609956165229606,
                2.593004845733584
            ]
        },
        {
            "positions": [
                0.05000155470500625,
                -1.1986337579609745,
                1.8907799247509045,
                -0.5181945682814817,
                0.06591202670119306,
                2.735422225014014
            ]
        },
        {
            "positions": [
                0.08689885784899568,
                -1.162678620827814,
                1.9204532022795868,
                -0.6055283527617878,
                0.09621409723715646,
                2.8778396042944427
            ]
        },
        {
            "positions": [
                0.12379616099298522,
                -1.1267234836946531,
                1.9501264798082694,
                -0.6928621372420941,
                0.1265161677731199,
                3.0202569835748725
            ]
        }
    ]
}