{
    "goal": {
        "global_pose": {
            "orientation": {
                "w": 0.7031023480610252,
                "x": -0.7110244013736278,
                "y": 0.0077485991402295624,
                "z": 0.005598929693374583
            },
            "position": {
                "x": -0.8841497679147869,
                "y": 0.44412534475326537,
                "z": 0.3711530566215515
            }
        },
        "name": "move_to_auspresseinheit_D"
    },
    "id": "PRM_move_to_auspresseinheit_D_1",
    "joint_names": [
        "shoulder_pan_joint",
        "shoulder_lift_joint",
        "elbow_joint",
        "wrist_1_joint",
        "wrist_2_joint",
        "wrist_3_joint"
    ],
    "metrics": {
        "cart_traj_len": 0.3430005141210681,
        "distance_elbow_joint": 0.6387119260805554,
        "distance_shoulder_lift_joint": 0.12155232584394904,
        "distance_shoulder_pan_joint": 0.13407130587767613,
        "distance_wrist_1_joint": 0.5388364970810269,
        "distance_wrist_2_joint": 1.430669648922706,
        "distance_wrist_3_joint": 0.0005048895189960767,
        "smoothness": 0.0,
        "time": 0.026124264999999997,
        "traj_len": 1.6924380618873205,
        "weighted_distance": 2.198832080529715
    },
    "planner": "PRM",
    "start": {
        "state": {
            "elbow_joint": -1.8275523626775212,
            "shoulder_lift_joint": -2.126789852344167,
            "shoulder_pan_joint": -0.03513704404078235,
            "wrist_1_joint": -2.347782403156801,
            "wrist_2_joint": -1.6058999987535132,
            "wrist_3_joint": -3.0880379163319196
        }
    },
    "waypoints": [
        {
            "positions": [
                -0.03513704404078235,
                -2.126789852344167,
                -1.8275523626775212,
                -2.347782403156801,
                -1.6058999987535132,
                -3.0880379163319196
            ]
        },
        {
            "positions": [
                -0.051895957275491865,
                -2.1419838930746606,
                -1.7477133719174518,
                -2.4151369652919294,
                -1.427066292638175,
                -3.087974805142045
            ]
        },
        {
            "positions": [
                -0.06865487051020139,
                -2.157177933805154,
                -1.6678743811573824,
                -2.4824915274270576,
                -1.2482325865228368,
                -3.0879116939521705
            ]
        },
        {
            "positions": [
                -0.0854137837449109,
                -2.172371974535648,
                -1.588035390397313,
                -2.5498460895621857,
                -1.0693988804074985,
                -3.087848582762296
            ]
        },
        {
            "positions": [
                -0.10217269697962042,
                -2.1875660152661416,
                -1.5081963996372436,
                -2.6172006516973143,
                -0.8905651742921602,
                -3.0877854715724213
            ]
        },
        {
            "positions": [
                -0.11893161021432994,
                -2.202760055996635,
                -1.428357408877174,
                -2.684555213832443,
                -0.711731468176822,
                -3.087722360382547
            ]
        },
        {
            "positions": [
                -0.13569052344903945,
                -2.2179540967271287,
                -1.3485184181171046,
                -2.751909775967571,
                -0.5328977620614836,
                -3.0876592491926727
            ]
        },
        {
            "positions": [
                -0.15244943668374897,
                -2.233148137457622,
                -1.2686794273570352,
                -2.819264338102699,
                -0.35406405594614543,
                -3.087596138002798
            ]
        },
        {
            "positions": [
                -0.16920834991845848,
                -2.248342178188116,
                -1.1888404365969658,
                -2.8866189002378277,
                -0.17523034983080724,
                -3.0875330268129235
            ]
        }
    ]
}