{
    "goal": {
        "global_pose": {
            "orientation": {
                "w": 0.5084816262002911,
                "x": -0.4908360881923452,
                "y": 0.5182115481033761,
                "z": -0.48164630358495003
            },
            "position": {
                "x": 0.5540239810943604,
                "y": -0.46912469901144505,
                "z": 0.16403168439865112
            }
        },
        "name": "move_to_storage_B"
    },
    "id": "PRM_move_to_storage_B_55",
    "joint_names": [
        "shoulder_pan_joint",
        "shoulder_lift_joint",
        "elbow_joint",
        "wrist_1_joint",
        "wrist_2_joint",
        "wrist_3_joint"
    ],
    "metrics": {
        "cart_traj_len": 2.2597315225584356,
        "distance_elbow_joint": 0.6829492785192697,
        "distance_shoulder_lift_joint": 1.1379791628487577,
        "distance_shoulder_pan_joint": 1.8740489698622635,
        "distance_wrist_1_joint": 2.9917942100488304,
        "distance_wrist_2_joint": 2.703121737559572,
        "distance_wrist_3_joint": 3.128458882953892,
        "smoothness": 0.20359273194624644,
        "time": 0.369451454,
        "traj_len": 3.5381283529279406,
        "weighted_distance": 4.946734878210957
    },
    "planner": "PRM",
    "start": {
        "state": {
            "elbow_joint": 1.664937868594044,
            "shoulder_lift_joint": -0.661644460510453,
            "shoulder_pan_joint": -0.9139846352900073,
            "wrist_1_joint": 2.146753192139373,
            "wrist_2_joint": -2.2341966793290973,
            "wrist_3_joint": 0.005466555786416001
        }
    },
    "waypoints": [
        {
            "positions": [
                -0.9139846352900073,
                -0.661644460510453,
                1.664937868594044,
                2.146753192139373,
                -2.2341966793290973,
                0.005466555786416001
            ]
        },
        {
            "positions": [
                -0.8434141277002482,
                -0.7281642184254424,
                1.6510780340984075,
                2.1289092269300958,
                -2.1067721950975296,
                -0.07355209094332167
            ]
        },
        {
            "positions": [
                -0.772843620110489,
                -0.794683976340432,
                1.6372181996027708,
                2.1110652617208183,
                -1.9793477108659618,
                -0.15257073767305934
            ]
        },
        {
            "positions": [
                -0.7022731125207299,
                -0.8612037342554215,
                1.6233583651071344,
                2.0932212965115413,
                -1.8519232266343941,
                -0.23158938440279703
            ]
        },
        {
            "positions": [
                -0.6317026049309707,
                -0.927723492170411,
                1.609498530611498,
                2.075377331302264,
                -1.7244987424028264,
                -0.31060803113253466
            ]
        },
        {
            "positions": [
                -0.5611320973412115,
                -0.9942432500854004,
                1.5956386961158613,
                2.0575333660929864,
                -1.5970742581712587,
                -0.38962667786227234
            ]
        },
        {
            "positions": [
                -0.4905615897514524,
                -1.0607630080003898,
                1.5817788616202249,
                2.039689400883709,
                -1.469649773939691,
                -0.46864532459201
            ]
        },
        {
            "positions": [
                -0.41999108216169323,
                -1.1272827659153795,
                1.5679190271245884,
                2.0218454356744315,
                -1.3422252897081233,
                -0.5476639713217478
            ]
        },
        {
            "positions": [
                -0.3494205745719342,
                -1.1938025238303689,
                1.5540591926289518,
                2.004001470465154,
                -1.2148008054765556,
                -0.6266826180514854
            ]
        },
        {
            "positions": [
                -0.27885006698217496,
                -1.2603222817453583,
                1.5401993581333153,
                1.9861575052558769,
                -1.0873763212449878,
                -0.7057012647812231
            ]
        },
        {
            "positions": [
                -0.20827955939241583,
                -1.326842039660348,
                1.5263395236376789,
                1.9683135400465994,
                -0.9599518370134201,
                -0.7847199115109608
            ]
        },
        {
            "positions": [
                -0.1377090518026567,
                -1.3933617975753374,
                1.5124796891420422,
                1.9504695748373222,
                -0.8325273527818524,
                -0.8637385582406985
            ]
        },
        {
            "positions": [
                -0.06713854421289757,
                -1.4598815554903268,
                1.4986198546464058,
                1.9326256096280447,
                -0.7051028685502848,
                -0.9427572049704361
            ]
        },
        {
            "positions": [
                -0.11605296701219062,
                -1.4437033617822848,
                1.523221343435531,
                1.800355770221497,
                -0.6491967767988202,
                -1.046577925075057
            ]
        },
        {
            "positions": [
                -0.16496738981148365,
                -1.4275251680742427,
                1.5478228322246563,
                1.6680859308149494,
                -0.5932906850473554,
                -1.150398645179678
            ]
        },
        {
            "positions": [
                -0.2138818126107767,
                -1.4113469743662006,
                1.5724243210137818,
                1.5358160914084016,
                -0.5373845932958907,
                -1.254219365284299
            ]
        },
        {
            "positions": [
                -0.26279623541006975,
                -1.3951687806581585,
                1.597025809802907,
                1.403546252001854,
                -0.48147850154442595,
                -1.3580400853889198
            ]
        },
        {
            "positions": [
                -0.3117106582093628,
                -1.3789905869501164,
                1.6216272985920324,
                1.2712764125953062,
                -0.4255724097929613,
                -1.461860805493541
            ]
        },
        {
            "positions": [
                -0.3606250810086558,
                -1.3628123932420744,
                1.6462287873811576,
                1.1390065731887584,
                -0.3696663180414966,
                -1.5656815255981618
            ]
        },
        {
            "positions": [
                -0.40953950380794885,
                -1.3466341995340323,
                1.670830276170283,
                1.0067367337822108,
                -0.31376022629003186,
                -1.6695022457027826
            ]
        },
        {
            "positions": [
                -0.4584539266072419,
                -1.3304560058259902,
                1.6954317649594084,
                0.874466894375663,
                -0.25785413453856715,
                -1.7733229658074037
            ]
        },
        {
            "positions": [
                -0.507368349406535,
                -1.3142778121179481,
                1.7200332537485337,
                0.7421970549691155,
                -0.20194804278710243,
                -1.8771436859120245
            ]
        },
        {
            "positions": [
                -0.556282772205828,
                -1.298099618409906,
                1.744634742537659,
                0.6099272155625677,
                -0.14604195103563777,
                -1.9809644060166454
            ]
        },
        {
            "positions": [
                -0.605197195005121,
                -1.2819214247018638,
                1.7692362313267842,
                0.4776573761560199,
                -0.09013585928417289,
                -2.0847851261212664
            ]
        },
        {
            "positions": [
                -0.6541116178044141,
                -1.265743230993822,
                1.7938377201159095,
                0.3453875367494723,
                -0.034229767532708344,
                -2.1886058462258875
            ]
        },
        {
            "positions": [
                -0.7030260406037071,
                -1.2495650372857796,
                1.8184392089050347,
                0.21311769734292452,
                0.021676324218756426,
                -2.2924265663305086
            ]
        },
        {
            "positions": [
                -0.7519404634030001,
                -1.2333868435777375,
                1.84304069769416,
                0.08084785793637694,
                0.07758241597022109,
                -2.396247286435129
            ]
        },
        {
            "positions": [
                -0.8008548862022933,
                -1.2172086498696955,
                1.8676421864832855,
                -0.05142198147017085,
                0.13348850772168586,
                -2.5000680065397503
            ]
        },
        {
            "positions": [
                -0.8497693090015862,
                -1.2010304561616534,
                1.8922436752724108,
                -0.18369182087671865,
                0.18939459947315052,
                -2.603888726644371
            ]
        },
        {
            "positions": [
                -0.8986837318008793,
                -1.1848522624536113,
                1.916845164061536,
                -0.31596166028326644,
                0.24530069122461529,
                -2.707709446748992
            ]
        },
        {
            "positions": [
                -0.9475981546001723,
                -1.1686740687455692,
                1.9414466528506613,
                -0.4482314996898138,
                0.30120678297607995,
                -2.811530166853613
            ]
        },
        {
            "positions": [
                -0.9965125773994654,
                -1.1524958750375272,
                1.9660481416397868,
                -0.5805013390963616,
                0.3571128747275448,
                -2.915350886958234
            ]
        },
        {
            "positions": [
                -1.0454270001987584,
                -1.136317681329485,
                1.990649630428912,
                -0.7127711785029094,
                0.41301896647900926,
                -3.0191716070628547
            ]
        },
        {
            "positions": [
                -1.0943414229980515,
                -1.120139487621443,
                2.0152511192180373,
                -0.8450410179094572,
                0.46892505823047403,
                -3.1229923271674758
            ]
        }
    ]
}