{
    "goal": {
        "global_pose": {
            "orientation": {
                "w": 0.005598929693374612,
                "x": 0.007748599140229565,
                "y": 0.7110244013736278,
                "z": -0.7031023480610252
            },
            "position": {
                "x": 0.1141497679147869,
                "y": -0.7141253447532654,
                "z": 0.3711530566215515
            }
        },
        "name": "move_to_auspresseinheit_B"
    },
    "id": "PRM_move_to_auspresseinheit_B_6",
    "joint_names": [
        "shoulder_pan_joint",
        "shoulder_lift_joint",
        "elbow_joint",
        "wrist_1_joint",
        "wrist_2_joint",
        "wrist_3_joint"
    ],
    "metrics": {
        "cart_traj_len": 0.5654548232756287,
        "distance_elbow_joint": 0.060867402460891284,
        "distance_shoulder_lift_joint": 0.2954386291315152,
        "distance_shoulder_pan_joint": 0.5772536803190338,
        "distance_wrist_1_joint": 0.31949149674656874,
        "distance_wrist_2_joint": 0.9982216817023182,
        "distance_wrist_3_joint": 0.001411984465748084,
        "smoothness": 5.075305255429287e-16,
        "time": 0.024499296,
        "traj_len": 1.500894691451094,
        "weighted_distance": 1.8902968079660025
    },
    "planner": "PRM",
    "start": {
        "state": {
            "elbow_joint": 2.0193083361928714,
            "shoulder_lift_joint": -1.1220246554650708,
            "shoulder_pan_joint": -1.0952077554168747,
            "wrist_1_joint": -0.8559753972642168,
            "wrist_2_joint": 0.4759566250798843,
            "wrist_3_joint": -3.1240929996934557
        }
    },
    "waypoints": [
        {
            "positions": [
                -1.0952077554168747,
                -1.1220246554650708,
                2.0193083361928714,
                -0.8559753972642168,
                0.4759566250798843,
                -3.1240929996934557
            ]
        },
        {
            "positions": [
                -1.1914167021367137,
                -1.17126442698699,
                2.009163769116056,
                -0.802726814473122,
                0.642326905363604,
                -3.123857668949164
            ]
        },
        {
            "positions": [
                -1.2876256488565525,
                -1.2205041985089091,
                1.999019202039241,
                -0.7494782316820272,
                0.8086971856473237,
                -3.123622338204873
            ]
        },
        {
            "positions": [
                -1.3838345955763915,
                -1.2697439700308284,
                1.9888746349624258,
                -0.6962296488909324,
                0.9750674659310434,
                -3.1233870074605816
            ]
        },
        {
            "positions": [
                -1.4800435422962304,
                -1.3189837415527477,
                1.9787300678856106,
                -0.6429810660998376,
                1.1414377462147631,
                -3.12315167671629
            ]
        },
        {
            "positions": [
                -1.5762524890160696,
                -1.3682235130746667,
                1.9685855008087954,
                -0.5897324833087428,
                1.3078080264984828,
                -3.122916345971999
            ]
        },
        {
            "positions": [
                -1.6724614357359084,
                -1.417463284596586,
                1.9584409337319801,
                -0.536483900517648,
                1.4741783067822025,
                -3.1226810152277076
            ]
        }
    ]
}