{
    "goal": {
        "global_pose": {
            "orientation": {
                "w": -0.00223480608172531,
                "x": 0.0024358444001904467,
                "y": 0.7094548369677653,
                "z": -0.704743149386269
            },
            "position": {
                "x": -0.37947507619857795,
                "y": -0.6371506643295288,
                "z": 0.19426114857196808
            }
        },
        "name": "move_to_magneteinheit_C"
    },
    "id": "PRM_move_to_magneteinheit_C_127",
    "joint_names": [
        "shoulder_pan_joint",
        "shoulder_lift_joint",
        "elbow_joint",
        "wrist_1_joint",
        "wrist_2_joint",
        "wrist_3_joint"
    ],
    "metrics": {
        "cart_traj_len": 1.3829214131586853,
        "distance_elbow_joint": 0.3630501531838708,
        "distance_shoulder_lift_joint": 0.5093914149879648,
        "distance_shoulder_pan_joint": 1.611419533618281,
        "distance_wrist_1_joint": 2.084780202343365,
        "distance_wrist_2_joint": 1.76144862675417,
        "distance_wrist_3_joint": 0.19614686142734605,
        "smoothness": 1.4734675312220715,
        "time": 0.436088317,
        "traj_len": 2.5546500332364506,
        "weighted_distance": 3.280969269022071
    },
    "planner": "PRM",
    "start": {
        "state": {
            "elbow_joint": 1.9565354010623817,
            "shoulder_lift_joint": -1.4165861575791021,
            "shoulder_pan_joint": -1.6717766225146293,
            "wrist_1_joint": -0.5286633292919765,
            "wrist_2_joint": 1.472756589071564,
            "wrist_3_joint": -3.1238370188695823
        }
    },
    "waypoints": [
        {
            "positions": [
                -1.6717766225146293,
                -1.4165861575791021,
                1.9565354010623817,
                -0.5286633292919765,
                1.472756589071564,
                -3.1238370188695823
            ]
        },
        {
            "positions": [
                -1.6348340926951366,
                -1.4255639056898195,
                1.9587312686995721,
                -0.4452462992311925,
                1.4109142062993167,
                -3.1188127697926324
            ]
        },
        {
            "positions": [
                -1.6018724184520834,
                -1.4478194516937486,
                1.958668555415555,
                -0.2824585030363178,
                1.2689703141881392,
                -3.1150983210010743
            ]
        },
        {
            "positions": [
                -1.5689107442090302,
                -1.470074997697678,
                1.9586058421315378,
                -0.11967070684144315,
                1.1270264220769615,
                -3.1113838722095166
            ]
        },
        {
            "positions": [
                -1.5359490699659772,
                -1.492330543701607,
                1.9585431288475208,
                0.04311708935343145,
                0.9850825299657839,
                -3.1076694234179585
            ]
        },
        {
            "positions": [
                -1.502987395722924,
                -1.5145860897055363,
                1.9584804155635036,
                0.20590488554830622,
                0.8431386378546063,
                -3.103954974626401
            ]
        },
        {
            "positions": [
                -1.4700257214798709,
                -1.5368416357094654,
                1.9584177022794864,
                0.36869268174318076,
                0.7011947457434287,
                -3.1002405258348427
            ]
        },
        {
            "positions": [
                -1.6239020058602087,
                -1.510676624927778,
                1.9571260007239821,
                0.28812340497010425,
                0.6285926542585202,
                -3.1152645479632706
            ]
        },
        {
            "positions": [
                -1.7777782902405466,
                -1.4845116141460906,
                1.9558342991684776,
                0.2075541281970277,
                0.5559905627736117,
                -3.1302885700916985
            ]
        },
        {
            "positions": [
                -1.9316545746208842,
                -1.4583466033644032,
                1.9545425976129733,
                0.12698485142395116,
                0.48338847128870327,
                -3.1453125922201264
            ]
        },
        {
            "positions": [
                -2.085530859001222,
                -1.432181592582716,
                1.9532508960574688,
                0.04641557465087465,
                0.4107863798037948,
                -3.160336614348554
            ]
        },
        {
            "positions": [
                -2.23940714338156,
                -1.4060165818010284,
                1.9519591945019645,
                -0.03415370212220192,
                0.3381842883188863,
                -3.1753606364769817
            ]
        },
        {
            "positions": [
                -2.3932834277618977,
                -1.379851571019341,
                1.95066749294646,
                -0.11472297889527844,
                0.2655821968339779,
                -3.1903846586054097
            ]
        },
        {
            "positions": [
                -2.5471597121422356,
                -1.3536865602376538,
                1.9493757913909557,
                -0.195292255668355,
                0.1929801053490694,
                -3.2054086807338376
            ]
        },
        {
            "positions": [
                -2.579629482180043,
                -1.3041386861908837,
                2.000522042487737,
                -0.3185583242218395,
                0.2812323086475233,
                -3.209382526503597
            ]
        },
        {
            "positions": [
                -2.6120992522178508,
                -1.2545908121441134,
                2.051668293584518,
                -0.44182439277532404,
                0.3694845119459772,
                -3.2133563722733562
            ]
        },
        {
            "positions": [
                -2.6445690222556584,
                -1.205042938097343,
                2.1028145446812987,
                -0.5650904613288086,
                0.4577367152444311,
                -3.217330218043116
            ]
        },
        {
            "positions": [
                -2.677038792293466,
                -1.155495064050573,
                2.15396079577808,
                -0.688356529882293,
                0.545988918542885,
                -3.2213040638128754
            ]
        },
        {
            "positions": [
                -2.5757110114085022,
                -1.1593897466499277,
                2.08050389385261,
                -0.7535440197236598,
                0.6103205834618153,
                -3.1955606486055883
            ]
        },
        {
            "positions": [
                -2.4743832305235385,
                -1.163284429249282,
                2.0070469919271403,
                -0.8187315095650267,
                0.6746522483807454,
                -3.1698172333983017
            ]
        }
    ]
}