{
    "goal": {
        "global_pose": {
            "orientation": {
                "w": 0.5084816262002911,
                "x": -0.4908360881923452,
                "y": 0.5182115481033761,
                "z": -0.48164630358495003
            },
            "position": {
                "x": 0.5540239810943604,
                "y": -0.46912469901144505,
                "z": 0.16403168439865112
            }
        },
        "name": "move_to_storage_B"
    },
    "id": "PRM_move_to_storage_B_115",
    "joint_names": [
        "shoulder_pan_joint",
        "shoulder_lift_joint",
        "elbow_joint",
        "wrist_1_joint",
        "wrist_2_joint",
        "wrist_3_joint"
    ],
    "metrics": {
        "cart_traj_len": 0.7763320309597114,
        "distance_elbow_joint": 0.3494292906282248,
        "distance_shoulder_lift_joint": 0.4595690796318168,
        "distance_shoulder_pan_joint": 0.5676137272721585,
        "distance_wrist_1_joint": 2.9792867836266725,
        "distance_wrist_2_joint": 2.7151297736591,
        "distance_wrist_3_joint": 3.4958304316209645,
        "smoothness": 0.16155246417519795,
        "time": 0.125039484,
        "traj_len": 3.2506705595059824,
        "weighted_distance": 4.822129872469907
    },
    "planner": "PRM",
    "start": {
        "state": {
            "elbow_joint": 1.664937868594044,
            "shoulder_lift_joint": -0.661644460510453,
            "shoulder_pan_joint": -0.9139846352900073,
            "wrist_1_joint": 2.146753192139373,
            "wrist_2_joint": -2.2341966793290973,
            "wrist_3_joint": 0.005466555786416001
        }
    },
    "waypoints": [
        {
            "positions": [
                -0.9139846352900073,
                -0.661644460510453,
                1.664937868594044,
                2.146753192139373,
                -2.2341966793290973,
                0.005466555786416001
            ]
        },
        {
            "positions": [
                -0.9095796453596285,
                -0.6645809393931582,
                1.6654299150732652,
                2.136527368402493,
                -2.2215233792271243,
                0.0004274074107548879
            ]
        },
        {
            "positions": [
                -0.8716731548715633,
                -0.6913991617711432,
                1.670650943107869,
                2.0394522645040345,
                -2.1038249123811585,
                -0.03511618922388568
            ]
        },
        {
            "positions": [
                -0.833766664383498,
                -0.7182173841491283,
                1.675871971142473,
                1.9423771606055764,
                -1.9861264455351932,
                -0.07065978585852624
            ]
        },
        {
            "positions": [
                -0.7958601738954327,
                -0.7450356065271132,
                1.681092999177077,
                1.8453020567071179,
                -1.8684279786892275,
                -0.10620338249316681
            ]
        },
        {
            "positions": [
                -0.7579536834073674,
                -0.7718538289050982,
                1.686314027211681,
                1.7482269528086596,
                -1.750729511843262,
                -0.14174697912780737
            ]
        },
        {
            "positions": [
                -0.7200471929193021,
                -0.7986720512830833,
                1.691535055246285,
                1.6511518489102013,
                -1.6330310449972965,
                -0.17729057576244794
            ]
        },
        {
            "positions": [
                -0.7362939879150174,
                -0.8126955942769609,
                1.7055712336800233,
                1.543165525414658,
                -1.5411195606787182,
                -0.0332439105419218
            ]
        },
        {
            "positions": [
                -0.7525407829107328,
                -0.8267191372708387,
                1.7196074121137617,
                1.4351792019191143,
                -1.44920807636014,
                0.11080275467860434
            ]
        },
        {
            "positions": [
                -0.7687875779064481,
                -0.8407426802647163,
                1.7336435905475003,
                1.327192878423571,
                -1.3572965920415618,
                0.25484941989913046
            ]
        },
        {
            "positions": [
                -0.7850343729021635,
                -0.854766223258594,
                1.7476797689812387,
                1.2192065549280273,
                -1.2653851077229834,
                0.39889608511965663
            ]
        },
        {
            "positions": [
                -0.8012811678978788,
                -0.8687897662524716,
                1.761715947414977,
                1.111220231432484,
                -1.1734736234044052,
                0.5429427503401827
            ]
        },
        {
            "positions": [
                -0.8175279628935943,
                -0.8828133092463493,
                1.7757521258487154,
                1.0032339079369406,
                -1.081562139085827,
                0.6869894155607088
            ]
        },
        {
            "positions": [
                -0.8337747578893097,
                -0.896836852240227,
                1.7897883042824538,
                0.895247584441397,
                -0.9896506547672487,
                0.8310360807812351
            ]
        },
        {
            "positions": [
                -0.850021552885025,
                -0.9108603952341047,
                1.8038244827161922,
                0.7872612609458536,
                -0.8977391704486705,
                0.9750827460017613
            ]
        },
        {
            "positions": [
                -0.8662683478807404,
                -0.9248839382279823,
                1.8178606611499308,
                0.6792749374503101,
                -0.8058276861300923,
                1.1191294112222874
            ]
        },
        {
            "positions": [
                -0.8825151428764557,
                -0.9389074812218601,
                1.8318968395836692,
                0.5712886139547666,
                -0.713916201811514,
                1.2631760764428135
            ]
        },
        {
            "positions": [
                -0.8987619378721711,
                -0.9529310242157377,
                1.8459330180174076,
                0.4633022904592232,
                -0.6220047174929357,
                1.4072227416633396
            ]
        },
        {
            "positions": [
                -0.9150087328678864,
                -0.9669545672096154,
                1.859969196451146,
                0.3553159669636796,
                -0.5300932331743575,
                1.5512694068838657
            ]
        },
        {
            "positions": [
                -0.9312555278636018,
                -0.980978110203493,
                1.8740053748848844,
                0.24732964346813624,
                -0.4381817488557793,
                1.6953160721043916
            ]
        },
        {
            "positions": [
                -0.9475023228593171,
                -0.9950016531973708,
                1.8880415533186228,
                0.13934331997259264,
                -0.3462702645372009,
                1.8393627373249182
            ]
        },
        {
            "positions": [
                -0.9637491178550325,
                -1.0090251961912484,
                1.9020777317523614,
                0.03135699647704926,
                -0.2543587802186227,
                1.9834094025454443
            ]
        },
        {
            "positions": [
                -0.9799959128507478,
                -1.0230487391851262,
                1.9161139101860998,
                -0.07662932701849412,
                -0.16244729590004447,
                2.12745606776597
            ]
        },
        {
            "positions": [
                -0.9962427078464633,
                -1.0370722821790037,
                1.9301500886198382,
                -0.1846156505140375,
                -0.07053581158146649,
                2.271502732986496
            ]
        },
        {
            "positions": [
                -1.0124895028421785,
                -1.0510958251728815,
                1.9441862670535766,
                -0.2926019740095811,
                0.02137567273711194,
                2.4155493982070224
            ]
        },
        {
            "positions": [
                -1.028736297837894,
                -1.065119368166759,
                1.958222445487315,
                -0.4005882975051245,
                0.11328715705569015,
                2.5595960634275485
            ]
        },
        {
            "positions": [
                -1.0449830928336092,
                -1.0791429111606368,
                1.9722586239210536,
                -0.5085746210006681,
                0.20519864137426835,
                2.7036427286480746
            ]
        },
        {
            "positions": [
                -1.0612298878293247,
                -1.0931664541545145,
                1.986294802354792,
                -0.6165609444962112,
                0.29711012569284656,
                2.8476893938686008
            ]
        },
        {
            "positions": [
                -1.07747668282504,
                -1.1071899971483923,
                2.0003309807885303,
                -0.7245472679917548,
                0.389021610011425,
                2.991736059089127
            ]
        },
        {
            "positions": [
                -1.0937234778207554,
                -1.1212135401422698,
                2.0143671592222687,
                -0.8325335914872986,
                0.4809330943300031,
                3.135782724309653
            ]
        }
    ]
}