{
    "goal": {
        "global_pose": {
            "orientation": {
                "w": 0.7047431493862688,
                "x": -0.7094548369677653,
                "y": 0.0024358444001904,
                "z": -0.0022348060817251984
            },
            "position": {
                "x": -0.39052492380142206,
                "y": 0.3671506643295288,
                "z": 0.19426114857196808
            }
        },
        "name": "move_to_magneteinheit_D"
    },
    "id": "PRM_move_to_magneteinheit_D_22",
    "joint_names": [
        "shoulder_pan_joint",
        "shoulder_lift_joint",
        "elbow_joint",
        "wrist_1_joint",
        "wrist_2_joint",
        "wrist_3_joint"
    ],
    "metrics": {
        "cart_traj_len": 3.597829633023689,
        "distance_elbow_joint": 3.1971529323651424,
        "distance_shoulder_lift_joint": 2.2381094075179346,
        "distance_shoulder_pan_joint": 3.1274105736590063,
        "distance_wrist_1_joint": 3.24740957153215,
        "distance_wrist_2_joint": 2.9751626707117027,
        "distance_wrist_3_joint": 3.168799262449536,
        "smoothness": 0.293712614922571,
        "time": 0.38107527399999996,
        "traj_len": 4.237221308621425,
        "weighted_distance": 5.5239673410854255
    },
    "planner": "PRM",
    "start": {
        "state": {
            "elbow_joint": 0.749534889911806,
            "shoulder_lift_joint": -0.6476975780787326,
            "shoulder_pan_joint": -2.711696901376241,
            "wrist_1_joint": -0.07506478083263063,
            "wrist_2_joint": 0.43296659715538205,
            "wrist_3_joint": -3.14703540197715
        }
    },
    "waypoints": [
        {
            "positions": [
                -2.711696901376241,
                -0.6476975780787326,
                0.749534889911806,
                -0.07506478083263063,
                0.43296659715538205,
                -3.14703540197715
            ]
        },
        {
            "positions": [
                -2.7300842879024256,
                -0.5970801169848032,
                0.6309685306591853,
                -0.03788868629715549,
                0.3390810882486114,
                -3.1040691561462617
            ]
        },
        {
            "positions": [
                -2.74847167442861,
                -0.546462655890874,
                0.5124021714065647,
                -0.0007125917616803562,
                0.2451955793418407,
                -3.061102910315373
            ]
        },
        {
            "positions": [
                -2.7668590609547947,
                -0.4958451947969446,
                0.3938358121539442,
                0.03646350277379479,
                0.15131007043507,
                -3.0181366644844845
            ]
        },
        {
            "positions": [
                -2.7852464474809793,
                -0.44522773370301527,
                0.27526945290132365,
                0.07363959730926992,
                0.057424561528299334,
                -2.975170418653596
            ]
        },
        {
            "positions": [
                -2.803633834007164,
                -0.39461027260908593,
                0.15670309364870305,
                0.11081569184474507,
                -0.03646094737847139,
                -2.9322041728227073
            ]
        },
        {
            "positions": [
                -2.8220212205333484,
                -0.3439928115151566,
                0.03813673439608245,
                0.1479917863802202,
                -0.13034645628524205,
                -2.889237926991819
            ]
        },
        {
            "positions": [
                -2.7797592911126277,
                -0.36652031753559206,
                -0.035021216708984254,
                0.08795784746518258,
                -0.21499092890551735,
                -2.791027496450469
            ]
        },
        {
            "positions": [
                -2.737497361691907,
                -0.3890478235560275,
                -0.10817916781405096,
                0.027923908550144955,
                -0.29963540152579266,
                -2.692817065909119
            ]
        },
        {
            "positions": [
                -2.6952354322711862,
                -0.41157532957646303,
                -0.18133711891911766,
                -0.03211003036489268,
                -0.38427987414606796,
                -2.594606635367769
            ]
        },
        {
            "positions": [
                -2.6529735028504655,
                -0.4341028355968985,
                -0.25449507002418437,
                -0.0921439692799303,
                -0.46892434676634326,
                -2.4963962048264188
            ]
        },
        {
            "positions": [
                -2.610711573429745,
                -0.45663034161733396,
                -0.3276530211292511,
                -0.1521779081949679,
                -0.5535688193866186,
                -2.3981857742850683
            ]
        },
        {
            "positions": [
                -2.568449644009024,
                -0.4791578476377695,
                -0.4008109722343178,
                -0.21221184711000557,
                -0.6382132920068939,
                -2.2999753437437183
            ]
        },
        {
            "positions": [
                -2.5261877145883034,
                -0.5016853536582049,
                -0.47396892333938445,
                -0.2722457860250432,
                -0.7228577646271692,
                -2.2017649132023682
            ]
        },
        {
            "positions": [
                -2.4839257851675827,
                -0.5242128596786404,
                -0.5471268744444512,
                -0.3322797249400808,
                -0.8075022372474445,
                -2.103554482661018
            ]
        },
        {
            "positions": [
                -2.376593344303286,
                -0.5617656350853367,
                -0.6400750107048138,
                -0.35999279679811064,
                -0.8359828870913558,
                -2.004365646154638
            ]
        },
        {
            "positions": [
                -2.2692609034389895,
                -0.599318410492033,
                -0.7330231469651762,
                -0.3877058686561405,
                -0.8644635369352671,
                -1.9051768096482582
            ]
        },
        {
            "positions": [
                -2.161928462574693,
                -0.6368711858987294,
                -0.8259712832255388,
                -0.41541894051417033,
                -0.8929441867791785,
                -1.8059879731418782
            ]
        },
        {
            "positions": [
                -2.0545960217103962,
                -0.6744239613054257,
                -0.9189194194859014,
                -0.44313201237220023,
                -0.9214248366230898,
                -1.7067991366354982
            ]
        },
        {
            "positions": [
                -1.9472635808460992,
                -0.7119767367121221,
                -1.0118675557462637,
                -0.4708450842302301,
                -0.9499054864670011,
                -1.6076103001291182
            ]
        },
        {
            "positions": [
                -1.8399311399818026,
                -0.7495295121188184,
                -1.1048156920066265,
                -0.49855815608825993,
                -0.9783861363109125,
                -1.5084214636227382
            ]
        },
        {
            "positions": [
                -1.732598699117506,
                -0.7870822875255148,
                -1.197763828266989,
                -0.5262712279462898,
                -1.0068667861548237,
                -1.4092326271163582
            ]
        },
        {
            "positions": [
                -1.6252662582532094,
                -0.8246350629322111,
                -1.2907119645273515,
                -0.5539842998043196,
                -1.0353474359987351,
                -1.3100437906099782
            ]
        },
        {
            "positions": [
                -1.5179338173889128,
                -0.8621878383389074,
                -1.383660100787714,
                -0.5816973716623495,
                -1.0638280858426463,
                -1.2108549541035984
            ]
        },
        {
            "positions": [
                -1.410601376524616,
                -0.8997406137456038,
                -1.4766082370480764,
                -0.6094104435203793,
                -1.0923087356865577,
                -1.1116661175972182
            ]
        },
        {
            "positions": [
                -1.3032689356603195,
                -0.9372933891523001,
                -1.5695563733084388,
                -0.6371235153784092,
                -1.1207893855304691,
                -1.0124772810908385
            ]
        },
        {
            "positions": [
                -1.1959364947960227,
                -0.9748461645589964,
                -1.6625045095688016,
                -0.664836587236439,
                -1.1492700353743803,
                -0.9132884445844585
            ]
        },
        {
            "positions": [
                -1.088604053931726,
                -1.0123989399656927,
                -1.7554526458291642,
                -0.6925496590944689,
                -1.1777506852182917,
                -0.8140996080780785
            ]
        },
        {
            "positions": [
                -0.9975209946492556,
                -1.065609496072725,
                -1.810523971852152,
                -0.6215776450564368,
                -1.1167989014656698,
                -0.7624000613182579
            ]
        },
        {
            "positions": [
                -0.9064379353667851,
                -1.118820052179757,
                -1.8655952978751398,
                -0.5506056310184047,
                -1.0558471177130482,
                -0.7107005145584373
            ]
        },
        {
            "positions": [
                -0.8153548760843145,
                -1.1720306082867893,
                -1.9206666238981276,
                -0.47963361698037243,
                -0.9948953339604264,
                -0.6590009677986167
            ]
        },
        {
            "positions": [
                -0.7242718168018439,
                -1.2252411643938215,
                -1.9757379499211154,
                -0.40866160294234033,
                -0.9339435502078046,
                -0.6073014210387961
            ]
        },
        {
            "positions": [
                -0.6331887575193733,
                -1.2784517205008537,
                -2.030809275944103,
                -0.3376895889043081,
                -0.8729917664551827,
                -0.5556018742789754
            ]
        },
        {
            "positions": [
                -0.5421056982369028,
                -1.3316622766078858,
                -2.0858806019670912,
                -0.266717574866276,
                -0.8120399827025611,
                -0.503902327519155
            ]
        },
        {
            "positions": [
                -0.4510226389544322,
                -1.384872832714918,
                -2.140951927990079,
                -0.19574556082824385,
                -0.7510881989499392,
                -0.4522027807593343
            ]
        },
        {
            "positions": [
                -0.3599395796719618,
                -1.4380833888219502,
                -2.196023254013067,
                -0.1247735467902118,
                -0.6901364151973175,
                -0.40050323399951376
            ]
        },
        {
            "positions": [
                -0.26885652038949115,
                -1.4912939449289824,
                -2.2510945800360544,
                -0.05380153275217958,
                -0.6291846314446956,
                -0.3488036872396931
            ]
        },
        {
            "positions": [
                -0.17777346110702053,
                -1.5445045010360146,
                -2.3061659060590425,
                0.017170481285852635,
                -0.5682328476920738,
                -0.29710414047987255
            ]
        },
        {
            "positions": [
                -0.08669040182455001,
                -1.5977150571430467,
                -2.36123723208203,
                0.08814249532388463,
                -0.507281063939452,
                -0.24540459372005197
            ]
        },
        {
            "positions": [
                0.004392657457920397,
                -1.650925613250079,
                -2.416308558105018,
                0.15911450936191684,
                -0.44632928018683027,
                -0.19370504696023141
            ]
        },
        {
            "positions": [
                -0.019441389605908247,
                -1.7293595931525085,
                -2.4123948725614786,
                0.3256329331604449,
                -0.3672012822735094,
                -0.1667714335311546
            ]
        },
        {
            "positions": [
                -0.04327543666973689,
                -1.807793573054938,
                -2.408481187017939,
                0.49215135695897294,
                -0.28807328436018853,
                -0.1398378201020778
            ]
        },
        {
            "positions": [
                -0.06710948373356554,
                -1.8862275529573675,
                -2.4045675014743995,
                0.658669780757501,
                -0.2089452864468676,
                -0.11290420667300097
            ]
        },
        {
            "positions": [
                -0.09094353079739417,
                -1.9646615328597972,
                -2.40065381593086,
                0.825188204556029,
                -0.12981728853354674,
                -0.08597059324392416
            ]
        },
        {
            "positions": [
                -0.11477757786122283,
                -2.0430955127622266,
                -2.39674013038732,
                0.991706628354557,
                -0.05068929062022587,
                -0.059036979814847346
            ]
        },
        {
            "positions": [
                -0.13861162492505147,
                -2.121529492664656,
                -2.3928264448437804,
                1.1582250521530852,
                0.028438707293095056,
                -0.03210336638577052
            ]
        },
        {
            "positions": [
                -0.16244567198888013,
                -2.199963472567086,
                -2.388912759300241,
                1.3247434759516132,
                0.10756670520641587,
                -0.005169752956693724
            ]
        },
        {
            "positions": [
                -0.18627971905270876,
                -2.278397452469515,
                -2.3849990737567013,
                1.4912618997501412,
                0.1866947031197368,
                0.021763860472383104
            ]
        }
    ]
}