{
    "goal": {
        "global_pose": {
            "orientation": {
                "w": -0.00223480608172531,
                "x": 0.0024358444001904467,
                "y": 0.7094548369677653,
                "z": -0.704743149386269
            },
            "position": {
                "x": -0.37947507619857795,
                "y": -0.6371506643295288,
                "z": 0.19426114857196808
            }
        },
        "name": "move_to_magneteinheit_C"
    },
    "id": "PRM_move_to_magneteinheit_C_134",
    "joint_names": [
        "shoulder_pan_joint",
        "shoulder_lift_joint",
        "elbow_joint",
        "wrist_1_joint",
        "wrist_2_joint",
        "wrist_3_joint"
    ],
    "metrics": {
        "cart_traj_len": 1.6727460384764297,
        "distance_elbow_joint": 0.8608484865672135,
        "distance_shoulder_lift_joint": 1.209988947349039,
        "distance_shoulder_pan_joint": 2.1188166963555615,
        "distance_wrist_1_joint": 1.317885688985995,
        "distance_wrist_2_joint": 0.7906294931198856,
        "distance_wrist_3_joint": 0.28870706764721055,
        "smoothness": 1.759647874909751,
        "time": 0.668252318,
        "traj_len": 2.5664910636947296,
        "weighted_distance": 3.045128190639141
    },
    "planner": "PRM",
    "start": {
        "state": {
            "elbow_joint": 1.9565354010623817,
            "shoulder_lift_joint": -1.4165861575791021,
            "shoulder_pan_joint": -1.6717766225146293,
            "wrist_1_joint": -0.5286633292919765,
            "wrist_2_joint": 1.472756589071564,
            "wrist_3_joint": -3.1238370188695823
        }
    },
    "waypoints": [
        {
            "positions": [
                -1.6717766225146293,
                -1.4165861575791021,
                1.9565354010623817,
                -0.5286633292919765,
                1.472756589071564,
                -3.1238370188695823
            ]
        },
        {
            "positions": [
                -1.641925042244339,
                -1.411862873257519,
                1.952893659473946,
                -0.4909607074954272,
                1.417745163344187,
                -3.0863561364975247
            ]
        },
        {
            "positions": [
                -1.5632866470209608,
                -1.4716887238122913,
                2.0099420423788756,
                -0.5919059462819293,
                1.3591640113202286,
                -3.1061894323234944
            ]
        },
        {
            "positions": [
                -1.4846482517975823,
                -1.5315145743670637,
                2.0669904252838056,
                -0.6928511850684314,
                1.3005828592962698,
                -3.1260227281494646
            ]
        },
        {
            "positions": [
                -1.406009856574204,
                -1.5913404249218361,
                2.124038808188735,
                -0.7937964238549334,
                1.2420017072723113,
                -3.1458560239754343
            ]
        },
        {
            "positions": [
                -1.3273714613508258,
                -1.6511662754766085,
                2.181087191093665,
                -0.8947416626414355,
                1.1834205552483525,
                -3.1656893198014044
            ]
        },
        {
            "positions": [
                -1.2487330661274474,
                -1.710992126031381,
                2.2381355739985946,
                -0.9956869014279376,
                1.124839403224394,
                -3.185522615627374
            ]
        },
        {
            "positions": [
                -1.1700946709040692,
                -1.7708179765861534,
                2.295183956903524,
                -1.0966321402144397,
                1.0662582512004355,
                -3.205355911453344
            ]
        },
        {
            "positions": [
                -1.0914562756806907,
                -1.8306438271409258,
                2.352232339808454,
                -1.1975773790009416,
                1.0076770991764767,
                -3.225189207279314
            ]
        },
        {
            "positions": [
                -1.0128178804573125,
                -1.8904696776956982,
                2.4092807227133837,
                -1.2985226177874438,
                0.9490959471525181,
                -3.2450225031052837
            ]
        },
        {
            "positions": [
                -1.1750243198237842,
                -1.809729804519112,
                2.3647452025201234,
                -1.2460091559099518,
                0.9194327414635359,
                -3.2347380788089066
            ]
        },
        {
            "positions": [
                -1.3372307591902557,
                -1.7289899313425257,
                2.3202096823268636,
                -1.1934956940324597,
                0.8897695357745538,
                -3.2244536545125295
            ]
        },
        {
            "positions": [
                -1.4994371985567274,
                -1.6482500581659394,
                2.2756741621336034,
                -1.1409822321549674,
                0.8601063300855715,
                -3.2141692302161524
            ]
        },
        {
            "positions": [
                -1.661643637923199,
                -1.5675101849893531,
                2.2311386419403436,
                -1.0884687702774754,
                0.8304431243965893,
                -3.2038848059197753
            ]
        },
        {
            "positions": [
                -1.8238500772896709,
                -1.4867703118127666,
                2.1866031217470834,
                -1.0359553083999833,
                0.8007799187076071,
                -3.193600381623398
            ]
        },
        {
            "positions": [
                -1.9860565166561424,
                -1.4060304386361806,
                2.1420676015538236,
                -0.9834418465224912,
                0.7711167130186249,
                -3.183315957327021
            ]
        },
        {
            "positions": [
                -2.148262956022614,
                -1.3252905654595941,
                2.0975320813605633,
                -0.9309283846449992,
                0.7414535073296427,
                -3.173031533030644
            ]
        },
        {
            "positions": [
                -2.3104693953890854,
                -1.244550692283008,
                2.0529965611673036,
                -0.8784149227675071,
                0.7117903016406605,
                -3.162747108734267
            ]
        },
        {
            "positions": [
                -2.4726758347555573,
                -1.1638108191064216,
                2.0084610409740433,
                -0.8259014608900149,
                0.6821270959516783,
                -3.15246268443789
            ]
        }
    ]
}