{
    "goal": {
        "global_pose": {
            "orientation": {
                "w": -0.4816463035849501,
                "x": 0.5182115481033762,
                "y": 0.4908360881923453,
                "z": -0.5084816262002911
            },
            "position": {
                "x": -0.8240239810943604,
                "y": 0.19912469901144506,
                "z": 0.16403168439865112
            }
        },
        "name": "move_to_storage_D"
    },
    "id": "PRM_move_to_storage_D_26",
    "joint_names": [
        "shoulder_pan_joint",
        "shoulder_lift_joint",
        "elbow_joint",
        "wrist_1_joint",
        "wrist_2_joint",
        "wrist_3_joint"
    ],
    "metrics": {
        "cart_traj_len": 4.198203956248693,
        "distance_elbow_joint": 4.210526979090761,
        "distance_shoulder_lift_joint": 1.2657852291566138,
        "distance_shoulder_pan_joint": 2.812283538360989,
        "distance_wrist_1_joint": 2.272452294693495,
        "distance_wrist_2_joint": 0.8691142414094987,
        "distance_wrist_3_joint": 3.1390491534840947,
        "smoothness": 9.547918012371147e-16,
        "time": 0.278413008,
        "traj_len": 3.816963640931814,
        "weighted_distance": 4.897844043991869
    },
    "planner": "PRM",
    "start": {
        "state": {
            "elbow_joint": -2.384821988534728,
            "shoulder_lift_joint": -2.2788054721415256,
            "shoulder_pan_joint": -0.1854694642142757,
            "wrist_1_joint": 1.4845938289331202,
            "wrist_2_joint": 0.17898776772866878,
            "wrist_3_joint": 0.037105688729662994
        }
    },
    "waypoints": [
        {
            "positions": [
                -0.1854694642142757,
                -2.2788054721415256,
                -2.384821988534728,
                1.4845938289331202,
                0.17898776772866878,
                0.037105688729662994
            ]
        },
        {
            "positions": [
                -0.17340131805488218,
                -2.272942318750393,
                -2.3806715725141023,
                1.4695675076741743,
                0.179597967287547,
                0.036640258259653766
            ]
        },
        {
            "positions": [
                -0.06954425141041534,
                -2.223353541791245,
                -2.3173679805101366,
                1.350732689256335,
                0.1910156115741995,
                0.006799041315011387
            ]
        },
        {
            "positions": [
                0.0343128152340515,
                -2.1737647648320966,
                -2.254064388506171,
                1.2318978708384956,
                0.202433255860852,
                -0.02304217562963099
            ]
        },
        {
            "positions": [
                0.13816988187851836,
                -2.1241759878729485,
                -2.1907607965022056,
                1.1130630524206564,
                0.2138509001475045,
                -0.052883392574273366
            ]
        },
        {
            "positions": [
                0.24202694852298517,
                -2.0745872109138004,
                -2.12745720449824,
                0.994228234002817,
                0.225268544434157,
                -0.08272460951891575
            ]
        },
        {
            "positions": [
                0.3458840151674521,
                -2.0249984339546523,
                -2.064153612494274,
                0.8753934155849776,
                0.2366861887208095,
                -0.11256582646355813
            ]
        },
        {
            "positions": [
                0.4497410818119189,
                -1.975409656995504,
                -2.0008500204903084,
                0.7565585971671384,
                0.24810383300746197,
                -0.14240704340820048
            ]
        },
        {
            "positions": [
                0.5535981484563857,
                -1.9258208800363557,
                -1.9375464284863428,
                0.637723778749299,
                0.25952147729411446,
                -0.1722482603528429
            ]
        },
        {
            "positions": [
                0.6574552151008526,
                -1.8762321030772076,
                -1.874242836482377,
                0.5188889603314597,
                0.270939121580767,
                -0.20208947729748528
            ]
        },
        {
            "positions": [
                0.7613122817453195,
                -1.8266433261180592,
                -1.8109392444784116,
                0.4000541419136203,
                0.2823567658674195,
                -0.23193069424212764
            ]
        },
        {
            "positions": [
                0.8651693483897864,
                -1.777054549158911,
                -1.7476356524744459,
                0.28121932349578094,
                0.29377441015407196,
                -0.26177191118677
            ]
        },
        {
            "positions": [
                0.9690264150342534,
                -1.7274657721997628,
                -1.6843320604704801,
                0.16238450507794155,
                0.3051920544407245,
                -0.29161312813141244
            ]
        },
        {
            "positions": [
                1.07288348167872,
                -1.6778769952406147,
                -1.6210284684665146,
                0.043549686660102394,
                0.316609698727377,
                -0.32145434507605475
            ]
        },
        {
            "positions": [
                1.176740548323187,
                -1.6282882182814664,
                -1.5577248764625489,
                -0.07528513175773699,
                0.32802734301402947,
                -0.35129556202069717
            ]
        },
        {
            "positions": [
                1.2805976149676537,
                -1.578699441322318,
                -1.4944212844585834,
                -0.19411995017557637,
                0.33944498730068196,
                -0.38113677896533954
            ]
        },
        {
            "positions": [
                1.3844546816121206,
                -1.52911066436317,
                -1.4311176924546176,
                -0.31295476859341576,
                0.35086263158733444,
                -0.41097799590998196
            ]
        },
        {
            "positions": [
                1.4883117482565873,
                -1.479521887404022,
                -1.3678141004506519,
                -0.4317895870112549,
                0.3622802758739869,
                -0.4408192128546243
            ]
        },
        {
            "positions": [
                1.5921688149010542,
                -1.4299331104448734,
                -1.3045105084466864,
                -0.5506244054290943,
                0.3736979201606394,
                -0.4706604297992667
            ]
        },
        {
            "positions": [
                1.6960258815455211,
                -1.3803443334857253,
                -1.2412069164427206,
                -0.6694592238469339,
                0.38511556444729195,
                -0.5005016467439091
            ]
        },
        {
            "positions": [
                1.7425652911755807,
                -1.3619781289606845,
                -1.0878613210927828,
                -0.6753791859426058,
                0.4182648866818357,
                -0.6305737376444353
            ]
        },
        {
            "positions": [
                1.7891047008056404,
                -1.343611924435644,
                -0.9345157257428451,
                -0.6812991480382777,
                0.4514142089163795,
                -0.7606458285449613
            ]
        },
        {
            "positions": [
                1.8356441104357,
                -1.3252457199106034,
                -0.7811701303929075,
                -0.6872191101339497,
                0.48456353115092327,
                -0.8907179194454875
            ]
        },
        {
            "positions": [
                1.8821835200657595,
                -1.3068795153855626,
                -0.6278245350429696,
                -0.6931390722296216,
                0.517712853385467,
                -1.0207900103460137
            ]
        },
        {
            "positions": [
                1.928722929695819,
                -1.2885133108605218,
                -0.474478939693032,
                -0.6990590343252934,
                0.5508621756200108,
                -1.1508621012465396
            ]
        },
        {
            "positions": [
                1.9752623393258788,
                -1.2701471063354812,
                -0.3211333443430944,
                -0.7049789964209653,
                0.5840114978545546,
                -1.2809341921470658
            ]
        },
        {
            "positions": [
                2.021801748955938,
                -1.2517809018104407,
                -0.16778774899315674,
                -0.7108989585166372,
                0.6171608200890983,
                -1.411006283047592
            ]
        },
        {
            "positions": [
                2.068341158585998,
                -1.2334146972853999,
                -0.014442153643218658,
                -0.7168189206123091,
                0.6503101423236421,
                -1.5410783739481184
            ]
        },
        {
            "positions": [
                2.1148805682160576,
                -1.215048492760359,
                0.13890344170671898,
                -0.722738882707981,
                0.683459464558186,
                -1.6711504648486444
            ]
        },
        {
            "positions": [
                2.1614199778461174,
                -1.1966822882353185,
                0.2922490370566566,
                -0.728658844803653,
                0.7166087867927298,
                -1.8012225557491703
            ]
        },
        {
            "positions": [
                2.2079593874761767,
                -1.1783160837102777,
                0.44559463240659447,
                -0.7345788068993249,
                0.7497581090272736,
                -1.9312946466496967
            ]
        },
        {
            "positions": [
                2.2544987971062365,
                -1.1599498791852372,
                0.5989402277565319,
                -0.7404987689949968,
                0.7829074312618173,
                -2.0613667375502227
            ]
        },
        {
            "positions": [
                2.3010382067362958,
                -1.1415836746601964,
                0.75228582310647,
                -0.7464187310906687,
                0.816056753496361,
                -2.191438828450749
            ]
        },
        {
            "positions": [
                2.3475776163663555,
                -1.1232174701351558,
                0.9056314184564072,
                -0.7523386931863405,
                0.8492060757309048,
                -2.321510919351275
            ]
        },
        {
            "positions": [
                2.3941170259964153,
                -1.1048512656101153,
                1.0589770138063452,
                -0.7582586552820125,
                0.8823553979654486,
                -2.451583010251801
            ]
        },
        {
            "positions": [
                2.440656435626475,
                -1.0864850610850745,
                1.2123226091562833,
                -0.7641786173776843,
                0.9155047201999924,
                -2.5816551011523274
            ]
        },
        {
            "positions": [
                2.4871958452565344,
                -1.0681188565600337,
                1.3656682045062205,
                -0.7700985794733562,
                0.9486540424345362,
                -2.7117271920528534
            ]
        },
        {
            "positions": [
                2.533735254886594,
                -1.0497526520349931,
                1.5190137998561586,
                -0.7760185415690282,
                0.98180336466908,
                -2.8417992829533794
            ]
        },
        {
            "positions": [
                2.5802746645166534,
                -1.0313864475099526,
                1.6723593952060958,
                -0.7819385036647001,
                1.0149526869036236,
                -2.9718713738539053
            ]
        },
        {
            "positions": [
                2.626814074146713,
                -1.0130202429849118,
                1.825704990556034,
                -0.787858465760372,
                1.0481020091381674,
                -3.1019434647544317
            ]
        }
    ]
}