{
    "goal": {
        "global_pose": {
            "orientation": {
                "w": -0.4816463035849501,
                "x": 0.5182115481033762,
                "y": 0.4908360881923453,
                "z": -0.5084816262002911
            },
            "position": {
                "x": -0.8240239810943604,
                "y": 0.19912469901144506,
                "z": 0.16403168439865112
            }
        },
        "name": "move_to_storage_D"
    },
    "id": "PRM_move_to_storage_D_75",
    "joint_names": [
        "shoulder_pan_joint",
        "shoulder_lift_joint",
        "elbow_joint",
        "wrist_1_joint",
        "wrist_2_joint",
        "wrist_3_joint"
    ],
    "metrics": {
        "cart_traj_len": 3.37292044819829,
        "distance_elbow_joint": 4.213640013637731,
        "distance_shoulder_lift_joint": 1.2635182459677823,
        "distance_shoulder_pan_joint": 2.8147745647762026,
        "distance_wrist_1_joint": 2.83598798560432,
        "distance_wrist_2_joint": 1.1459803124261567,
        "distance_wrist_3_joint": 3.478371806950416,
        "smoothness": 0.25419134670030996,
        "time": 0.212288096,
        "traj_len": 3.9689133184490943,
        "weighted_distance": 5.166331855513533
    },
    "planner": "PRM",
    "start": {
        "state": {
            "elbow_joint": -2.384821988534728,
            "shoulder_lift_joint": -2.2788054721415256,
            "shoulder_pan_joint": -0.1854694642142757,
            "wrist_1_joint": 1.4845938289331202,
            "wrist_2_joint": 0.17898776772866878,
            "wrist_3_joint": 0.037105688729662994
        }
    },
    "waypoints": [
        {
            "positions": [
                -0.1854694642142757,
                -2.2788054721415256,
                -2.384821988534728,
                1.4845938289331202,
                0.17898776772866878,
                0.037105688729662994
            ]
        },
        {
            "positions": [
                -0.1097347281419928,
                -2.189529306761449,
                -2.3532407357791145,
                1.553853226387786,
                0.15135178729205365,
                0.08090961511041166
            ]
        },
        {
            "positions": [
                -0.03399999206970988,
                -2.100253141381372,
                -2.3216594830235007,
                1.6231126238424518,
                0.12371580685543851,
                0.12471354149116032
            ]
        },
        {
            "positions": [
                0.041734744002573015,
                -2.010976976001295,
                -2.2900782302678873,
                1.6923720212971176,
                0.09607982641882336,
                0.168517467871909
            ]
        },
        {
            "positions": [
                0.11746948007485594,
                -1.9217008106212186,
                -2.258496977512274,
                1.7616314187517834,
                0.06844384598220822,
                0.21232139425265764
            ]
        },
        {
            "positions": [
                0.1925236086458304,
                -1.8927647199226998,
                -2.1432036569768673,
                1.683673278243507,
                0.06778943013919914,
                0.12313400390925058
            ]
        },
        {
            "positions": [
                0.2675777372168049,
                -1.863828629224181,
                -2.0279103364414603,
                1.6057151377352308,
                0.06713501429619007,
                0.033946613565843525
            ]
        },
        {
            "positions": [
                0.3426318657877794,
                -1.8348925385256623,
                -1.9126170159060538,
                1.5277569972269545,
                0.06648059845318098,
                -0.05524077677756353
            ]
        },
        {
            "positions": [
                0.41768599435875386,
                -1.8059564478271435,
                -1.7973236953706468,
                1.4497988567186781,
                0.0658261826101719,
                -0.1444281671209706
            ]
        },
        {
            "positions": [
                0.49274012292972824,
                -1.7770203571286247,
                -1.6820303748352403,
                1.3718407162104018,
                0.06517176676716283,
                -0.23361555746437765
            ]
        },
        {
            "positions": [
                0.5677942515007027,
                -1.748084266430106,
                -1.5667370542998336,
                1.2938825757021255,
                0.06451735092415374,
                -0.32280294780778473
            ]
        },
        {
            "positions": [
                0.6428483800716772,
                -1.7191481757315874,
                -1.4514437337644268,
                1.2159244351938492,
                0.06386293508114466,
                -0.4119903381511918
            ]
        },
        {
            "positions": [
                0.7179025086426517,
                -1.6902120850330686,
                -1.33615041322902,
                1.1379662946855729,
                0.06320851923813557,
                -0.5011777284945989
            ]
        },
        {
            "positions": [
                0.7929566372136261,
                -1.6612759943345499,
                -1.2208570926936133,
                1.0600081541772965,
                0.0625541033951265,
                -0.5903651188380059
            ]
        },
        {
            "positions": [
                0.8680107657846006,
                -1.632339903636031,
                -1.1055637721582066,
                0.9820500136690202,
                0.061899687552117416,
                -0.679552509181413
            ]
        },
        {
            "positions": [
                0.9430648943555751,
                -1.6034038129375123,
                -0.9902704516228,
                0.9040918731607439,
                0.06124527170910834,
                -0.76873989952482
            ]
        },
        {
            "positions": [
                1.0181190229265495,
                -1.5744677222389936,
                -0.8749771310873933,
                0.8261337326524676,
                0.060590855866099254,
                -0.8579272898682271
            ]
        },
        {
            "positions": [
                1.093173151497524,
                -1.5455316315404748,
                -0.7596838105519865,
                0.7481755921441913,
                0.059936440023090176,
                -0.9471146802116341
            ]
        },
        {
            "positions": [
                1.1682272800684985,
                -1.516595540841956,
                -0.6443904900165798,
                0.670217451635915,
                0.05928202418008109,
                -1.0363020705550412
            ]
        },
        {
            "positions": [
                1.243281408639473,
                -1.4876594501434373,
                -0.5290971694811728,
                0.5922593111276386,
                0.058627608337072014,
                -1.1254894608984485
            ]
        },
        {
            "positions": [
                1.3183355372104475,
                -1.4587233594449185,
                -0.4138038489457663,
                0.5143011706193623,
                0.057973192494062936,
                -1.2146768512418553
            ]
        },
        {
            "positions": [
                1.393389665781422,
                -1.4297872687463997,
                -0.2985105284103595,
                0.436343030111086,
                0.05731877665105385,
                -1.3038642415852626
            ]
        },
        {
            "positions": [
                1.4684437943523962,
                -1.4008511780478812,
                -0.18321720787495277,
                0.3583848896028097,
                0.056664360808044774,
                -1.3930516319286694
            ]
        },
        {
            "positions": [
                1.543497922923371,
                -1.3719150873493624,
                -0.0679238873395458,
                0.28042674909453336,
                0.05600994496503569,
                -1.4822390222720767
            ]
        },
        {
            "positions": [
                1.6185520514943452,
                -1.3429789966508436,
                0.04736943319586073,
                0.20246860858625704,
                0.05535552912202661,
                -1.5714264126154835
            ]
        },
        {
            "positions": [
                1.69360618006532,
                -1.3140429059523249,
                0.16266275373126726,
                0.12451046807798072,
                0.05470111327901753,
                -1.6606138029588908
            ]
        },
        {
            "positions": [
                1.7686603086362942,
                -1.285106815253806,
                0.2779560742666738,
                0.0465523275697044,
                0.05404669743600845,
                -1.7498011933022977
            ]
        },
        {
            "positions": [
                1.8437144372072687,
                -1.2561707245552873,
                0.39324939480208077,
                -0.03140581293857192,
                0.05339228159299937,
                -1.838988583645705
            ]
        },
        {
            "positions": [
                1.9187685657782432,
                -1.2272346338567686,
                0.5085427153374873,
                -0.10936395344684824,
                0.05273786574999029,
                -1.9281759739891118
            ]
        },
        {
            "positions": [
                1.9938226943492177,
                -1.1982985431582498,
                0.6238360358728943,
                -0.18732209395512456,
                0.05208344990698121,
                -2.017363364332519
            ]
        },
        {
            "positions": [
                2.0688768229201924,
                -1.169362452459731,
                0.7391293564083008,
                -0.2652802344634009,
                0.05142903406397213,
                -2.1065507546759257
            ]
        },
        {
            "positions": [
                2.143930951491167,
                -1.1404263617612123,
                0.8544226769437079,
                -0.3432383749716772,
                0.05077461822096305,
                -2.195738145019333
            ]
        },
        {
            "positions": [
                2.1924683663982427,
                -1.1279124482024654,
                0.9518622117596374,
                -0.38864643517789677,
                0.15255133451280817,
                -2.285247801234876
            ]
        },
        {
            "positions": [
                2.241005781305319,
                -1.1153985346437185,
                1.049301746575567,
                -0.4340544953841163,
                0.25432805080465326,
                -2.374757457450419
            ]
        },
        {
            "positions": [
                2.289543196212395,
                -1.1028846210849717,
                1.1467412813914963,
                -0.4794625555903358,
                0.3561047670964983,
                -2.4642671136659624
            ]
        },
        {
            "positions": [
                2.3380806111194707,
                -1.0903707075262248,
                1.244180816207426,
                -0.5248706157965554,
                0.45788148338834345,
                -2.5537767698815053
            ]
        },
        {
            "positions": [
                2.3866180260265466,
                -1.0778567939674777,
                1.3416203510233555,
                -0.5702786760027749,
                0.5596581996801886,
                -2.643286426097048
            ]
        },
        {
            "positions": [
                2.435155440933623,
                -1.0653428804087308,
                1.439059885839285,
                -0.6156867362089944,
                0.6614349159720336,
                -2.7327960823125914
            ]
        },
        {
            "positions": [
                2.4836928558406988,
                -1.052828966849984,
                1.5364994206552145,
                -0.6610947964152138,
                0.7632116322638788,
                -2.8223057385281347
            ]
        },
        {
            "positions": [
                2.5322302707477746,
                -1.040315053291237,
                1.633938955471144,
                -0.7065028566214335,
                0.8649883485557239,
                -2.9118153947436776
            ]
        },
        {
            "positions": [
                2.580767685654851,
                -1.0278011397324902,
                1.7313784902870735,
                -0.751910916827653,
                0.9667650648475691,
                -3.0013250509592204
            ]
        },
        {
            "positions": [
                2.629305100561927,
                -1.0152872261737433,
                1.828818025103003,
                -0.7973189770338726,
                1.068541781139414,
                -3.0908347071747637
            ]
        }
    ]
}