{
    "goal": {
        "global_pose": {
            "orientation": {
                "w": 0.7047431468963623,
                "x": -0.7094548344612122,
                "y": 0.0024358443915843964,
                "z": -0.0022348060738295317
            },
            "position": {
                "x": 0.6094750761985779,
                "y": 0.3671506643295288,
                "z": 0.19426114857196808
            }
        },
        "name": "move_to_magneteinheit_A"
    },
    "id": "PRM_move_to_magneteinheit_A_69",
    "joint_names": [
        "shoulder_pan_joint",
        "shoulder_lift_joint",
        "elbow_joint",
        "wrist_1_joint",
        "wrist_2_joint",
        "wrist_3_joint"
    ],
    "metrics": {
        "cart_traj_len": 3.4383008281070975,
        "distance_elbow_joint": 3.885421247248103,
        "distance_shoulder_lift_joint": 1.1752681654681476,
        "distance_shoulder_pan_joint": 3.4349307513776868,
        "distance_wrist_1_joint": 0.9685958082165489,
        "distance_wrist_2_joint": 1.694778468539069,
        "distance_wrist_3_joint": 3.6384172024912793,
        "smoothness": 0.11652060566691284,
        "time": 0.11736267,
        "traj_len": 3.84674039198655,
        "weighted_distance": 4.9736928257662845
    },
    "planner": "PRM",
    "start": {
        "state": {
            "elbow_joint": -1.9196185241190666,
            "shoulder_lift_joint": -1.2443396400964142,
            "shoulder_pan_joint": 2.6996025414629847,
            "wrist_1_joint": -1.5485510000780065,
            "wrist_2_joint": -1.5709468930060704,
            "wrist_3_joint": 0.4420197071253992
        }
    },
    "waypoints": [
        {
            "positions": [
                2.6996025414629847,
                -1.2443396400964142,
                -1.9196185241190666,
                -1.5485510000780065,
                -1.5709468930060704,
                0.4420197071253992
            ]
        },
        {
            "positions": [
                2.5493242831656495,
                -1.21226931784218,
                -1.8791861330882185,
                -1.5047594886665934,
                -1.537915893843964,
                0.35043798189940156
            ]
        },
        {
            "positions": [
                2.399046024868314,
                -1.1801989955879457,
                -1.8387537420573703,
                -1.46096797725518,
                -1.5048848946818578,
                0.2588562566734039
            ]
        },
        {
            "positions": [
                2.248767766570979,
                -1.1481286733337115,
                -1.798321351026522,
                -1.4171764658437669,
                -1.4718538955197515,
                0.16727453144740628
            ]
        },
        {
            "positions": [
                2.0984895082736434,
                -1.1160583510794773,
                -1.7578889599956737,
                -1.3733849544323538,
                -1.4388228963576455,
                0.07569280622140862
            ]
        },
        {
            "positions": [
                1.9482112499763082,
                -1.083988028825243,
                -1.7174565689648256,
                -1.3295934430209406,
                -1.4057918971955392,
                -0.015888919004588997
            ]
        },
        {
            "positions": [
                1.797932991678973,
                -1.0519177065710088,
                -1.6770241779339772,
                -1.2858019316095275,
                -1.372760898033433,
                -0.10747064423058661
            ]
        },
        {
            "positions": [
                1.6476547333816378,
                -1.0198473843167746,
                -1.636591786903129,
                -1.2420104201981141,
                -1.3397298988713267,
                -0.19905236945658422
            ]
        },
        {
            "positions": [
                1.4973764750843022,
                -0.9877770620625403,
                -1.5961593958722808,
                -1.198218908786701,
                -1.3066988997092204,
                -0.29063409468258194
            ]
        },
        {
            "positions": [
                1.347098216786967,
                -0.9557067398083061,
                -1.5557270048414327,
                -1.1544273973752879,
                -1.273667900547114,
                -0.38221581990857956
            ]
        },
        {
            "positions": [
                1.1968199584896317,
                -0.9236364175540719,
                -1.5152946138105845,
                -1.1106358859638745,
                -1.2406369013850078,
                -0.47379754513457717
            ]
        },
        {
            "positions": [
                1.0465417001922963,
                -0.8915660952998377,
                -1.474862222779736,
                -1.0668443745524614,
                -1.2076059022229018,
                -0.5653792703605748
            ]
        },
        {
            "positions": [
                0.8962634418949613,
                -0.8594957730456034,
                -1.434429831748888,
                -1.0230528631410483,
                -1.1745749030607955,
                -0.6569609955865724
            ]
        },
        {
            "positions": [
                0.7459851835976257,
                -0.8274254507913692,
                -1.3939974407180395,
                -0.979261351729635,
                -1.1415439038986892,
                -0.74854272081257
            ]
        },
        {
            "positions": [
                0.5957069253002909,
                -0.795355128537135,
                -1.3535650496871914,
                -0.9354698403182219,
                -1.108512904736583,
                -0.8401244460385676
            ]
        },
        {
            "positions": [
                0.44542866700295525,
                -0.7632848062829007,
                -1.3131326586563432,
                -0.8916783289068086,
                -1.0754819055744766,
                -0.9317061712645655
            ]
        },
        {
            "positions": [
                0.2951504087056196,
                -0.7312144840286665,
                -1.272700267625495,
                -0.8478868174953955,
                -1.0424509064123706,
                -1.023287896490563
            ]
        },
        {
            "positions": [
                0.14487215040828483,
                -0.6991441617744323,
                -1.2322678765946469,
                -0.8040953060839824,
                -1.009419907250264,
                -1.1148696217165606
            ]
        },
        {
            "positions": [
                -0.005406107889050826,
                -0.667073839520198,
                -1.1918354855637987,
                -0.7603037946725691,
                -0.9763889080881579,
                -1.2064513469425582
            ]
        },
        {
            "positions": [
                -0.1556843661863856,
                -0.6350035172659638,
                -1.1514030945329505,
                -0.716512283261156,
                -0.9433579089260518,
                -1.2980330721685558
            ]
        },
        {
            "positions": [
                -0.3059626244837213,
                -0.6029331950117296,
                -1.1109707035021021,
                -0.6727207718497428,
                -0.9103269097639455,
                -1.3896147973945536
            ]
        },
        {
            "positions": [
                -0.28445613906569467,
                -0.6313398776071509,
                -0.9448414580205131,
                -0.677231881651791,
                -0.854271251903399,
                -1.4879286455015954
            ]
        },
        {
            "positions": [
                -0.2629496536476681,
                -0.6597465602025722,
                -0.7787122125389242,
                -0.6817429914538393,
                -0.7982155940428527,
                -1.5862424936086372
            ]
        },
        {
            "positions": [
                -0.24144316822964146,
                -0.6881532427979935,
                -0.6125829670573353,
                -0.6862541012558876,
                -0.7421599361823064,
                -1.684556341715679
            ]
        },
        {
            "positions": [
                -0.21993668281161485,
                -0.7165599253934147,
                -0.44645372157574625,
                -0.6907652110579358,
                -0.6861042783217599,
                -1.782870189822721
            ]
        },
        {
            "positions": [
                -0.19843019739358822,
                -0.7449666079888361,
                -0.2803244760941572,
                -0.695276320859984,
                -0.6300486204612135,
                -1.8811840379297629
            ]
        },
        {
            "positions": [
                -0.17692371197556161,
                -0.7733732905842573,
                -0.11419523061256831,
                -0.6997874306620323,
                -0.5739929626006671,
                -1.9794978860368047
            ]
        },
        {
            "positions": [
                -0.155417226557535,
                -0.8017799731796786,
                0.05193401486902083,
                -0.7042985404640806,
                -0.5179373047401207,
                -2.0778117341438467
            ]
        },
        {
            "positions": [
                -0.1339107411395084,
                -0.8301866557750999,
                0.21806326035060963,
                -0.7088096502661289,
                -0.46188164687957434,
                -2.1761255822508883
            ]
        },
        {
            "positions": [
                -0.11240425572148177,
                -0.8585933383705212,
                0.38419250583219866,
                -0.713320760068177,
                -0.4058259890190279,
                -2.2744394303579303
            ]
        },
        {
            "positions": [
                -0.09089777030345514,
                -0.8870000209659425,
                0.5503217513137877,
                -0.7178318698702253,
                -0.34977033115848144,
                -2.3727532784649723
            ]
        },
        {
            "positions": [
                -0.06939128488542853,
                -0.9154067035613638,
                0.7164509967953767,
                -0.7223429796722736,
                -0.293714673297935,
                -2.471067126572014
            ]
        },
        {
            "positions": [
                -0.04788479946740193,
                -0.943813386156785,
                0.8825802422769655,
                -0.7268540894743218,
                -0.23765901543738877,
                -2.5693809746790555
            ]
        },
        {
            "positions": [
                -0.026378314049375295,
                -0.9722200687522063,
                1.0487094877585543,
                -0.7313651992763701,
                -0.18160335757684232,
                -2.6676948227860975
            ]
        },
        {
            "positions": [
                -0.004871828631348718,
                -1.0006267513476277,
                1.2148387332401438,
                -0.7358763090784184,
                -0.12554769971629587,
                -2.7660086708931395
            ]
        },
        {
            "positions": [
                0.016634656786677915,
                -1.029033433943049,
                1.3809679787217328,
                -0.7403874188804667,
                -0.06949204185574942,
                -2.864322519000181
            ]
        },
        {
            "positions": [
                0.03814114220470449,
                -1.0574401165384701,
                1.5470972242033214,
                -0.7448985286825148,
                -0.013436383995203194,
                -2.9626363671072227
            ]
        },
        {
            "positions": [
                0.059647627622731125,
                -1.0858467991338916,
                1.7132264696849104,
                -0.7494096384845631,
                0.042619273865343255,
                -3.060950215214265
            ]
        },
        {
            "positions": [
                0.08115411304075773,
                -1.1142534817293128,
                1.8793557151664992,
                -0.7539207482866114,
                0.09867493172588963,
                -3.1592640633213067
            ]
        },
        {
            "positions": [
                0.12340296094725817,
                -1.1367949153951926,
                1.9658027231290365,
                -0.7654863518380279,
                0.12383157553299867,
                -3.1963974953658805
            ]
        }
    ]
}