{
    "goal": {
        "global_pose": {
            "orientation": {
                "w": 0.005598929693374612,
                "x": 0.007748599140229565,
                "y": 0.7110244013736278,
                "z": -0.7031023480610252
            },
            "position": {
                "x": -0.8858502320852131,
                "y": -0.7141253447532654,
                "z": 0.3711530566215515
            }
        },
        "name": "move_to_auspresseinheit_C"
    },
    "id": "PRM_move_to_auspresseinheit_C_97",
    "joint_names": [
        "shoulder_pan_joint",
        "shoulder_lift_joint",
        "elbow_joint",
        "wrist_1_joint",
        "wrist_2_joint",
        "wrist_3_joint"
    ],
    "metrics": {
        "cart_traj_len": 0.4931415668790644,
        "distance_elbow_joint": 0.984845990193006,
        "distance_shoulder_lift_joint": 0.3177425562737255,
        "distance_shoulder_pan_joint": 0.2568106744941683,
        "distance_wrist_1_joint": 0.6522962515021395,
        "distance_wrist_2_joint": 1.3076886245887156,
        "distance_wrist_3_joint": 0.043272333115580874,
        "smoothness": 0.0020273755095104587,
        "time": 0.050942413,
        "traj_len": 1.887500047726446,
        "weighted_distance": 2.368372008889092
    },
    "planner": "PRM",
    "start": {
        "state": {
            "elbow_joint": 1.7527959577737207,
            "shoulder_lift_joint": -0.9740617694225068,
            "shoulder_pan_joint": -2.967991417825858,
            "wrist_1_joint": -0.759517768980727,
            "wrist_2_joint": 1.7443932448377408,
            "wrist_3_joint": -3.0840537646736568
        }
    },
    "waypoints": [
        {
            "positions": [
                -2.967991417825858,
                -0.9740617694225068,
                1.7527959577737207,
                -0.759517768980727,
                1.7443932448377408,
                -3.0840537646736568
            ]
        },
        {
            "positions": [
                -2.9422521235287453,
                -0.9412314630600849,
                1.6518687420185116,
                -0.6904707352044908,
                1.6120356972176666,
                -3.091101953433636
            ]
        },
        {
            "positions": [
                -2.9165128292316327,
                -0.908401156697663,
                1.5509415262633028,
                -0.6214237014282545,
                1.4796781495975924,
                -3.098150142193615
            ]
        },
        {
            "positions": [
                -2.89077353493452,
                -0.8755708503352411,
                1.4500143105080938,
                -0.5523766676520183,
                1.3473206019775184,
                -3.105198330953594
            ]
        },
        {
            "positions": [
                -2.8650342406374074,
                -0.8427405439728192,
                1.349087094752885,
                -0.4833296338757821,
                1.2149630543574441,
                -3.1122465197135734
            ]
        },
        {
            "positions": [
                -2.839294946340295,
                -0.8099102376103973,
                1.2481598789976758,
                -0.4142826000995459,
                1.0826055067373699,
                -3.1192947084735527
            ]
        },
        {
            "positions": [
                -2.813555652043182,
                -0.7770799312479754,
                1.147232663242467,
                -0.34523556632330965,
                0.9502479591172958,
                -3.1263428972335316
            ]
        },
        {
            "positions": [
                -2.787961924865309,
                -0.7468897517231768,
                1.052411989327029,
                -0.2857320541121291,
                0.8218621244002281,
                -3.126097097094605
            ]
        },
        {
            "positions": [
                -2.7623681976874357,
                -0.7166995721983783,
                0.9575913154115908,
                -0.22622854190094852,
                0.6934762896831604,
                -3.1258512969556786
            ]
        },
        {
            "positions": [
                -2.736774470509563,
                -0.6865093926735798,
                0.8627706414961527,
                -0.16672502968976793,
                0.5650904549660928,
                -3.1256054968167524
            ]
        },
        {
            "positions": [
                -2.7111807433316897,
                -0.6563192131487813,
                0.7679499675807147,
                -0.1072215174785874,
                0.4367046202490251,
                -3.1253596966778256
            ]
        }
    ]
}