{
    "goal": {
        "global_pose": {
            "orientation": {
                "w": 0.7031023480610252,
                "x": -0.7110244013736278,
                "y": 0.0077485991402295624,
                "z": 0.005598929693374583
            },
            "position": {
                "x": -0.8841497679147869,
                "y": 0.44412534475326537,
                "z": 0.3711530566215515
            }
        },
        "name": "move_to_auspresseinheit_D"
    },
    "id": "PRM_move_to_auspresseinheit_D_137",
    "joint_names": [
        "shoulder_pan_joint",
        "shoulder_lift_joint",
        "elbow_joint",
        "wrist_1_joint",
        "wrist_2_joint",
        "wrist_3_joint"
    ],
    "metrics": {
        "cart_traj_len": 0.34274241150144136,
        "distance_elbow_joint": 0.6456160927795995,
        "distance_shoulder_lift_joint": 0.12588944152829784,
        "distance_shoulder_pan_joint": 0.13359840063690048,
        "distance_wrist_1_joint": 0.5615249048843776,
        "distance_wrist_2_joint": 1.4313293597881338,
        "distance_wrist_3_joint": 0.026755678671921412,
        "smoothness": 0.0,
        "time": 0.016748257000000003,
        "traj_len": 1.710179487156021,
        "weighted_distance": 2.229591778847775
    },
    "planner": "PRM",
    "start": {
        "state": {
            "elbow_joint": -1.8275523626775212,
            "shoulder_lift_joint": -2.126789852344167,
            "shoulder_pan_joint": -0.03513704404078235,
            "wrist_1_joint": -2.347782403156801,
            "wrist_2_joint": -1.6058999987535132,
            "wrist_3_joint": -3.0880379163319196
        }
    },
    "waypoints": [
        {
            "positions": [
                -0.03513704404078235,
                -2.126789852344167,
                -1.8275523626775212,
                -2.347782403156801,
                -1.6058999987535132,
                -3.0880379163319196
            ]
        },
        {
            "positions": [
                -0.05183684412039491,
                -2.142526032535204,
                -1.7468503510800713,
                -2.4179730162673483,
                -1.4269838287799965,
                -3.0846934564979294
            ]
        },
        {
            "positions": [
                -0.06853664420000746,
                -2.158262212726241,
                -1.6661483394826213,
                -2.4881636293778953,
                -1.2480676588064799,
                -3.081348996663939
            ]
        },
        {
            "positions": [
                -0.08523644427962003,
                -2.1739983929172784,
                -1.5854463278851714,
                -2.5583542424884422,
                -1.069151488832963,
                -3.078004536829949
            ]
        },
        {
            "positions": [
                -0.1019362443592326,
                -2.189734573108316,
                -1.5047443162877214,
                -2.6285448555989896,
                -0.8902353188594463,
                -3.0746600769959587
            ]
        },
        {
            "positions": [
                -0.11863604443884515,
                -2.205470753299353,
                -1.4240423046902715,
                -2.698735468709537,
                -0.7113191488859296,
                -3.071315617161969
            ]
        },
        {
            "positions": [
                -0.1353358445184577,
                -2.2212069334903903,
                -1.3433402930928215,
                -2.768926081820084,
                -0.5324029789124127,
                -3.0679711573279786
            ]
        },
        {
            "positions": [
                -0.15203564459807029,
                -2.2369431136814275,
                -1.2626382814953716,
                -2.839116694930631,
                -0.35348680893889606,
                -3.0646266974939884
            ]
        },
        {
            "positions": [
                -0.16873544467768284,
                -2.2526792938724647,
                -1.1819362698979217,
                -2.9093073080411784,
                -0.17457063896537947,
                -3.061282237659998
            ]
        }
    ]
}