{
    "goal": {
        "global_pose": {
            "orientation": {
                "w": 0.005598929693374612,
                "x": 0.007748599140229565,
                "y": 0.7110244013736278,
                "z": -0.7031023480610252
            },
            "position": {
                "x": -0.8858502320852131,
                "y": -0.7141253447532654,
                "z": 0.3711530566215515
            }
        },
        "name": "move_to_auspresseinheit_C"
    },
    "id": "PRM_move_to_auspresseinheit_C_119",
    "joint_names": [
        "shoulder_pan_joint",
        "shoulder_lift_joint",
        "elbow_joint",
        "wrist_1_joint",
        "wrist_2_joint",
        "wrist_3_joint"
    ],
    "metrics": {
        "cart_traj_len": 0.4938964315876443,
        "distance_elbow_joint": 1.0158996828491336,
        "distance_shoulder_lift_joint": 0.3317449360883391,
        "distance_shoulder_pan_joint": 0.2556491378182937,
        "distance_wrist_1_joint": 0.7113253695261655,
        "distance_wrist_2_joint": 1.3186637437879063,
        "distance_wrist_3_joint": 0.0792505855645862,
        "smoothness": 3.2297397335745243e-16,
        "time": 0.027447547000000003,
        "traj_len": 1.9267935685055688,
        "weighted_distance": 2.429202284717695
    },
    "planner": "PRM",
    "start": {
        "state": {
            "elbow_joint": 1.7527959577737207,
            "shoulder_lift_joint": -0.9740617694225068,
            "shoulder_pan_joint": -2.967991417825858,
            "wrist_1_joint": -0.759517768980727,
            "wrist_2_joint": 1.7443932448377408,
            "wrist_3_joint": -3.0840537646736568
        }
    },
    "waypoints": [
        {
            "positions": [
                -2.967991417825858,
                -0.9740617694225068,
                1.7527959577737207,
                -0.759517768980727,
                1.7443932448377408,
                -3.0840537646736568
            ]
        },
        {
            "positions": [
                -2.9424265040440285,
                -0.9408872758136728,
                1.6512059894888074,
                -0.6883852320281104,
                1.6125268704589502,
                -3.0919788232301153
            ]
        },
        {
            "positions": [
                -2.916861590262199,
                -0.907712782204839,
                1.5496160212038939,
                -0.6172526950754939,
                1.4806604960801595,
                -3.099903881786574
            ]
        },
        {
            "positions": [
                -2.89129667648037,
                -0.874538288596005,
                1.4480260529189806,
                -0.5461201581228773,
                1.348794121701369,
                -3.107828940343033
            ]
        },
        {
            "positions": [
                -2.8657317626985406,
                -0.8413637949871711,
                1.3464360846340673,
                -0.4749876211702608,
                1.2169277473225781,
                -3.1157539988994913
            ]
        },
        {
            "positions": [
                -2.840166848916711,
                -0.8081893013783372,
                1.2448461163491538,
                -0.4038550842176442,
                1.0850613729437877,
                -3.12367905745595
            ]
        },
        {
            "positions": [
                -2.8146019351348817,
                -0.7750148077695034,
                1.1432561480642405,
                -0.33272254726502765,
                0.9531949985649971,
                -3.1316041160124084
            ]
        },
        {
            "positions": [
                -2.789037021353052,
                -0.7418403141606694,
                1.0416661797793272,
                -0.26159001031241114,
                0.8213286241862064,
                -3.139529174568867
            ]
        },
        {
            "positions": [
                -2.763472107571223,
                -0.7086658205518355,
                0.9400762114944138,
                -0.19045747335979457,
                0.6894622498074157,
                -3.147454233125326
            ]
        },
        {
            "positions": [
                -2.7379071937893937,
                -0.6754913269430016,
                0.8384862432095004,
                -0.119324936407178,
                0.5575958754286252,
                -3.1553792916817844
            ]
        },
        {
            "positions": [
                -2.7123422800075643,
                -0.6423168333341677,
                0.7368962749245871,
                -0.04819239945456148,
                0.42572950104983454,
                -3.163304350238243
            ]
        }
    ]
}