{
    "goal": {
        "global_pose": {
            "orientation": {
                "w": -0.00223480608172531,
                "x": 0.0024358444001904467,
                "y": 0.7094548369677653,
                "z": -0.704743149386269
            },
            "position": {
                "x": 0.6205249238014221,
                "y": -0.6371506643295288,
                "z": 0.19426114857196808
            }
        },
        "name": "move_to_magneteinheit_B"
    },
    "id": "PRM_move_to_magneteinheit_B_100",
    "joint_names": [
        "shoulder_pan_joint",
        "shoulder_lift_joint",
        "elbow_joint",
        "wrist_1_joint",
        "wrist_2_joint",
        "wrist_3_joint"
    ],
    "metrics": {
        "cart_traj_len": 1.5813260406588037,
        "distance_elbow_joint": 0.9527204842977135,
        "distance_shoulder_lift_joint": 1.3673295728135146,
        "distance_shoulder_pan_joint": 1.62183710969399,
        "distance_wrist_1_joint": 0.2667025992827776,
        "distance_wrist_2_joint": 2.3762197178755873,
        "distance_wrist_3_joint": 1.1204776890127182,
        "smoothness": 0.6522584034019936,
        "time": 0.333618195,
        "traj_len": 2.7758399040608053,
        "weighted_distance": 3.5481213153104143
    },
    "planner": "PRM",
    "start": {
        "state": {
            "elbow_joint": 2.6216224122426386,
            "shoulder_lift_joint": -1.4174107377796124,
            "shoulder_pan_joint": 0.7066234856936794,
            "wrist_1_joint": 1.9546482284002225,
            "wrist_2_joint": -0.7096286983471962,
            "wrist_3_joint": 0.005740856962016249
        }
    },
    "waypoints": [
        {
            "positions": [
                0.7066234856936794,
                -1.4174107377796124,
                2.6216224122426386,
                1.9546482284002225,
                -0.7096286983471962,
                0.005740856962016249
            ]
        },
        {
            "positions": [
                0.6137131812589485,
                -1.4408166737130912,
                2.6106274775077325,
                1.9847544064976486,
                -0.6686962052716076,
                -0.040553478800097895
            ]
        },
        {
            "positions": [
                0.5208028768242177,
                -1.46422260964657,
                2.5996325427728264,
                2.0148605845950747,
                -0.6277637121960189,
                -0.08684781456221204
            ]
        },
        {
            "positions": [
                0.39941928832261736,
                -1.5075648399604131,
                2.536661900997483,
                2.0090985146755833,
                -0.569773401559467,
                -0.16454000701875682
            ]
        },
        {
            "positions": [
                0.27803569982101706,
                -1.5509070702742562,
                2.473691259222139,
                2.003336444756092,
                -0.5117830909229151,
                -0.2422321994753016
            ]
        },
        {
            "positions": [
                0.15665211131941675,
                -1.5942493005880993,
                2.4107206174467954,
                1.9975743748366008,
                -0.45379278028636305,
                -0.3199243919318464
            ]
        },
        {
            "positions": [
                0.03526852281781645,
                -1.6375915309019426,
                2.347749975671452,
                1.9918123049171095,
                -0.39580246964981114,
                -0.3976165843883912
            ]
        },
        {
            "positions": [
                -0.08611506568378391,
                -1.6809337612157857,
                2.284779333896108,
                1.9860502349976183,
                -0.33781215901325917,
                -0.475308776844936
            ]
        },
        {
            "positions": [
                -0.20749865418538413,
                -1.7242759915296288,
                2.2218086921207645,
                1.980288165078127,
                -0.27982184837670726,
                -0.5530009693014808
            ]
        },
        {
            "positions": [
                -0.26193826724807073,
                -1.642701813140129,
                2.179277402568777,
                1.9935126130451253,
                -0.42954591513863793,
                -0.5097905183207715
            ]
        },
        {
            "positions": [
                -0.31637788031075736,
                -1.561127634750629,
                2.1367461130167893,
                2.0067370610121236,
                -0.5792699819005687,
                -0.4665800673400622
            ]
        },
        {
            "positions": [
                -0.37081749337344394,
                -1.4795534563611292,
                2.0942148234648017,
                2.019961508979122,
                -0.7289940486624993,
                -0.4233696163593529
            ]
        },
        {
            "positions": [
                -0.42525710643613057,
                -1.3979792779716294,
                2.051683533912814,
                2.03318595694612,
                -0.8787181154244299,
                -0.3801591653786436
            ]
        },
        {
            "positions": [
                -0.4796967194988172,
                -1.3164050995821295,
                2.009152244360826,
                2.0464104049131184,
                -1.0284421821863605,
                -0.3369487143979343
            ]
        },
        {
            "positions": [
                -0.5341363325615038,
                -1.2348309211926296,
                1.9666209548088385,
                2.0596348528801167,
                -1.1781662489482911,
                -0.29373826341722503
            ]
        },
        {
            "positions": [
                -0.5885759456241905,
                -1.1532567428031297,
                1.9240896652568509,
                2.072859300847115,
                -1.3278903157102218,
                -0.25052781243651573
            ]
        },
        {
            "positions": [
                -0.6430155586868771,
                -1.0716825644136299,
                1.8815583757048633,
                2.0860837488141133,
                -1.4776143824721526,
                -0.20731736145580643
            ]
        },
        {
            "positions": [
                -0.6974551717495636,
                -0.99010838602413,
                1.8390270861528757,
                2.0993081967811116,
                -1.627338449234083,
                -0.16410691047509718
            ]
        },
        {
            "positions": [
                -0.7518947848122504,
                -0.9085342076346301,
                1.796495796600888,
                2.11253264474811,
                -1.7770625159960138,
                -0.12089645949438782
            ]
        },
        {
            "positions": [
                -0.8063343978749369,
                -0.8269600292451302,
                1.7539645070489005,
                2.125757092715108,
                -1.9267865827579445,
                -0.07768600851367857
            ]
        },
        {
            "positions": [
                -0.8607740109376235,
                -0.7453858508556304,
                1.7114332174969127,
                2.1389815406821064,
                -2.076510649519875,
                -0.03447555753296927
            ]
        },
        {
            "positions": [
                -0.9152136240003101,
                -0.6638116724661306,
                1.668901927944925,
                2.1522059886491047,
                -2.2262347162818057,
                0.008734893447740045
            ]
        }
    ]
}