{
    "goal": {
        "global_pose": {
            "orientation": {
                "w": -0.00223480608172531,
                "x": 0.0024358444001904467,
                "y": 0.7094548369677653,
                "z": -0.704743149386269
            },
            "position": {
                "x": 0.6205249238014221,
                "y": -0.6371506643295288,
                "z": 0.19426114857196808
            }
        },
        "name": "move_to_magneteinheit_B"
    },
    "id": "PRM_move_to_magneteinheit_B_33",
    "joint_names": [
        "shoulder_pan_joint",
        "shoulder_lift_joint",
        "elbow_joint",
        "wrist_1_joint",
        "wrist_2_joint",
        "wrist_3_joint"
    ],
    "metrics": {
        "cart_traj_len": 1.4710494226818573,
        "distance_elbow_joint": 0.9558988426848674,
        "distance_shoulder_lift_joint": 1.0587675188245043,
        "distance_shoulder_pan_joint": 1.6199360499124502,
        "distance_wrist_1_joint": 0.3276028354747824,
        "distance_wrist_2_joint": 1.5269379201493838,
        "distance_wrist_3_joint": 0.8456893690897996,
        "smoothness": 0.3875610304621857,
        "time": 3.4079967439999996,
        "traj_len": 2.5169093221917604,
        "weighted_distance": 3.143366353122008
    },
    "planner": "PRM",
    "start": {
        "state": {
            "elbow_joint": 2.6216224122426386,
            "shoulder_lift_joint": -1.4174107377796124,
            "shoulder_pan_joint": 0.7066234856936794,
            "wrist_1_joint": 1.9546482284002225,
            "wrist_2_joint": -0.7096286983471962,
            "wrist_3_joint": 0.005740856962016249
        }
    },
    "waypoints": [
        {
            "positions": [
                0.7066234856936794,
                -1.4174107377796124,
                2.6216224122426386,
                1.9546482284002225,
                -0.7096286983471962,
                0.005740856962016249
            ]
        },
        {
            "positions": [
                0.6875323458707526,
                -1.4553883956519047,
                2.617492337316457,
                2.0035258729337024,
                -0.8837230700397336,
                -0.06369737774402419
            ]
        },
        {
            "positions": [
                0.6684412060478259,
                -1.493366053524197,
                2.6133622623902752,
                2.0524035174671824,
                -1.0578174417322708,
                -0.1331356124500646
            ]
        },
        {
            "positions": [
                0.6493500662248991,
                -1.5313437113964892,
                2.609232187464093,
                2.1012811620006624,
                -1.2319118134248082,
                -0.20257384715610505
            ]
        },
        {
            "positions": [
                0.6302589264019723,
                -1.5693213692687815,
                2.6051021125379115,
                2.1501588065341424,
                -1.4060061851173455,
                -0.2720120818621455
            ]
        },
        {
            "positions": [
                0.5600546777852545,
                -1.5396346738108388,
                2.556455415942018,
                2.1720869897334443,
                -1.5524321966383348,
                -0.3200561839615676
            ]
        },
        {
            "positions": [
                0.4898504291685368,
                -1.5099479783528964,
                2.5078087193461247,
                2.194015172932746,
                -1.698858208159324,
                -0.3681002860609897
            ]
        },
        {
            "positions": [
                0.419646180551819,
                -1.4802612828949537,
                2.459162022750231,
                2.215943356132048,
                -1.8452842196803134,
                -0.4161443881604118
            ]
        },
        {
            "positions": [
                0.28635030607476,
                -1.398481602798803,
                2.3798181774309852,
                2.209312585357752,
                -1.88441245956194,
                -0.37376397576367465
            ]
        },
        {
            "positions": [
                0.153054431597701,
                -1.3167019227026522,
                2.3004743321117394,
                2.202681814583457,
                -1.9235406994435666,
                -0.33138356336693753
            ]
        },
        {
            "positions": [
                0.01975855712064195,
                -1.2349222426065016,
                2.221130486792493,
                2.196051043809161,
                -1.9626689393251935,
                -0.28900315097020035
            ]
        },
        {
            "positions": [
                -0.11353731735641703,
                -1.1531425625103509,
                2.141786641473247,
                2.1894202730348655,
                -2.00179717920682,
                -0.24662273857346317
            ]
        },
        {
            "positions": [
                -0.24683319183347607,
                -1.0713628824142,
                2.0624427961540013,
                2.1827895022605697,
                -2.0409254190884467,
                -0.20424232617672602
            ]
        },
        {
            "positions": [
                -0.3801290663105351,
                -0.9895832023180493,
                1.9830989508347552,
                2.176158731486274,
                -2.0800536589700735,
                -0.16186191377998888
            ]
        },
        {
            "positions": [
                -0.513424940787594,
                -0.9078035222218986,
                1.903755105515509,
                2.1695279607119784,
                -2.1191818988517,
                -0.1194815013832517
            ]
        },
        {
            "positions": [
                -0.6467208152646531,
                -0.8260238421257479,
                1.8244112601962632,
                2.1628971899376825,
                -2.1583101387333268,
                -0.07710108898651452
            ]
        },
        {
            "positions": [
                -0.7800166897417122,
                -0.7442441620295971,
                1.7450674148770173,
                2.156266419163387,
                -2.197438378614953,
                -0.0347206765897774
            ]
        },
        {
            "positions": [
                -0.913312564218771,
                -0.6624644819334464,
                1.6657235695577712,
                2.1496356483890913,
                -2.23656661849658,
                0.007659735806959765
            ]
        }
    ]
}