{
    "goal": {
        "global_pose": {
            "orientation": {
                "w": 0.7047431493862688,
                "x": -0.7094548369677653,
                "y": 0.0024358444001904,
                "z": -0.0022348060817251984
            },
            "position": {
                "x": -0.39052492380142206,
                "y": 0.3671506643295288,
                "z": 0.19426114857196808
            }
        },
        "name": "move_to_magneteinheit_D"
    },
    "id": "PRM_move_to_magneteinheit_D_83",
    "joint_names": [
        "shoulder_pan_joint",
        "shoulder_lift_joint",
        "elbow_joint",
        "wrist_1_joint",
        "wrist_2_joint",
        "wrist_3_joint"
    ],
    "metrics": {
        "cart_traj_len": 4.505943911540127,
        "distance_elbow_joint": 3.329061123280262,
        "distance_shoulder_lift_joint": 1.6349704324949184,
        "distance_shoulder_pan_joint": 3.148274943319908,
        "distance_wrist_1_joint": 1.6257600391219371,
        "distance_wrist_2_joint": 1.4739837318643607,
        "distance_wrist_3_joint": 3.169474214595523,
        "smoothness": 0.43111104578079307,
        "time": 0.310383345,
        "traj_len": 3.792298047975252,
        "weighted_distance": 4.880595935421643
    },
    "planner": "PRM",
    "start": {
        "state": {
            "elbow_joint": 0.749534889911806,
            "shoulder_lift_joint": -0.6476975780787326,
            "shoulder_pan_joint": -2.711696901376241,
            "wrist_1_joint": -0.07506478083263063,
            "wrist_2_joint": 0.43296659715538205,
            "wrist_3_joint": -3.14703540197715
        }
    },
    "waypoints": [
        {
            "positions": [
                -2.711696901376241,
                -0.6476975780787326,
                0.749534889911806,
                -0.07506478083263063,
                0.43296659715538205,
                -3.14703540197715
            ]
        },
        {
            "positions": [
                -2.72700145719625,
                -0.7347304208232825,
                0.8015673691673308,
                -0.027501224654846508,
                0.47255495459472985,
                -3.157256797105469
            ]
        },
        {
            "positions": [
                -2.742306013016259,
                -0.8217632635678324,
                0.8535998484228559,
                0.020062331522937613,
                0.5121433120340776,
                -3.167478192233788
            ]
        },
        {
            "positions": [
                -2.618974814165061,
                -0.8790228570383017,
                0.8037382840082464,
                0.08537391133960198,
                0.4745346845701368,
                -3.108214457801236
            ]
        },
        {
            "positions": [
                -2.4956436153138633,
                -0.9362824505087712,
                0.753876719593637,
                0.15068549115626634,
                0.43692605710619603,
                -3.0489507233686837
            ]
        },
        {
            "positions": [
                -2.372312416462665,
                -0.9935420439792406,
                0.7040151551790277,
                0.21599707097293075,
                0.39931742964225525,
                -2.989686988936131
            ]
        },
        {
            "positions": [
                -2.2489812176114676,
                -1.05080163744971,
                0.6541535907644183,
                0.2813086507895951,
                0.36170880217831447,
                -2.930423254503579
            ]
        },
        {
            "positions": [
                -2.1256500187602696,
                -1.1080612309201794,
                0.6042920263498088,
                0.3466202306062595,
                0.3241001747143737,
                -2.8711595200710267
            ]
        },
        {
            "positions": [
                -2.002318819909072,
                -1.165320824390649,
                0.5544304619351994,
                0.41193181042292387,
                0.2864915472504329,
                -2.811895785638474
            ]
        },
        {
            "positions": [
                -1.878987621057874,
                -1.2225804178611184,
                0.50456889752059,
                0.4772433902395883,
                0.24888291978649213,
                -2.752632051205922
            ]
        },
        {
            "positions": [
                -1.7556564222066762,
                -1.2798400113315878,
                0.4547073331059806,
                0.5425549700562525,
                0.2112742923225514,
                -2.6933683167733697
            ]
        },
        {
            "positions": [
                -1.6323252233554784,
                -1.3370996048020571,
                0.4048457686913712,
                0.607866549872917,
                0.17366566485861062,
                -2.634104582340817
            ]
        },
        {
            "positions": [
                -1.5089940245042806,
                -1.3943591982725265,
                0.3549842042767618,
                0.6731781296895814,
                0.13605703739466984,
                -2.5748408479082654
            ]
        },
        {
            "positions": [
                -1.3856628256530825,
                -1.451618791742996,
                0.3051226398621524,
                0.7384897095062457,
                0.09844840993072906,
                -2.5155771134757128
            ]
        },
        {
            "positions": [
                -1.262331626801885,
                -1.5088783852134653,
                0.25526107544754295,
                0.8038012893229101,
                0.060839782466788284,
                -2.4563133790431606
            ]
        },
        {
            "positions": [
                -1.1390004279506871,
                -1.5661379786839347,
                0.20539951103293363,
                0.8691128691395744,
                0.02323115500284756,
                -2.3970496446106084
            ]
        },
        {
            "positions": [
                -1.015669229099489,
                -1.6233975721544043,
                0.1555379466183241,
                0.9344244489562389,
                -0.014377472461093332,
                -2.337785910178056
            ]
        },
        {
            "positions": [
                -0.8923380302482913,
                -1.6806571656248737,
                0.10567638220371478,
                0.9997360287729032,
                -0.051986099925034,
                -2.2785221757455036
            ]
        },
        {
            "positions": [
                -0.7690068313970935,
                -1.737916759095343,
                0.05581481778910535,
                1.0650476085895675,
                -0.08959472738897478,
                -2.2192584413129515
            ]
        },
        {
            "positions": [
                -0.6456756325458959,
                -1.7951763525658124,
                0.005953253374495926,
                1.1303591884062318,
                -0.12720335485291556,
                -2.159994706880399
            ]
        },
        {
            "positions": [
                -0.5223444336946979,
                -1.852435946036282,
                -0.0439083110401135,
                1.1956707682228964,
                -0.16481198231685634,
                -2.1007309724478467
            ]
        },
        {
            "positions": [
                -0.3990132348434998,
                -1.9096955395067514,
                -0.09376987545472293,
                1.2609823480395608,
                -0.20242060978079712,
                -2.0414672380152945
            ]
        },
        {
            "positions": [
                -0.27568203599230223,
                -1.9669551329772208,
                -0.14363143986933224,
                1.3262939278562251,
                -0.2400292372447379,
                -1.9822035035827423
            ]
        },
        {
            "positions": [
                -0.1523508371411042,
                -2.02421472644769,
                -0.19349300428394167,
                1.3916055076728893,
                -0.2776378647086787,
                -1.92293976915019
            ]
        },
        {
            "positions": [
                -0.02901963828990617,
                -2.0814743199181596,
                -0.2433545686985511,
                1.4569170874895538,
                -0.31524649217261946,
                -1.8636760347176375
            ]
        },
        {
            "positions": [
                0.09431156056129154,
                -2.138733913388629,
                -0.2932161331131606,
                1.5222286673062182,
                -0.3528551196365602,
                -1.8044123002850854
            ]
        },
        {
            "positions": [
                0.08426525092868271,
                -2.1473963951518527,
                -0.4762311542119155,
                1.5238847719671218,
                -0.3163090903824315,
                -1.648631252200681
            ]
        },
        {
            "positions": [
                0.0742189412960739,
                -2.1560588769150764,
                -0.6592461753106704,
                1.5255408766280254,
                -0.27976306112830285,
                -1.4928502041162768
            ]
        },
        {
            "positions": [
                0.06417263166346507,
                -2.1647213586783,
                -0.8422611964094253,
                1.527196981288929,
                -0.24321703187417418,
                -1.3370691560318724
            ]
        },
        {
            "positions": [
                0.05412632203085624,
                -2.1733838404415238,
                -1.0252762175081802,
                1.5288530859498326,
                -0.20667100262004548,
                -1.1812881079474682
            ]
        },
        {
            "positions": [
                0.044080012398247416,
                -2.1820463222047475,
                -1.208291238606935,
                1.5305091906107362,
                -0.17012497336591684,
                -1.025507059863064
            ]
        },
        {
            "positions": [
                0.03403370276563859,
                -2.1907088039679707,
                -1.39130625970569,
                1.5321652952716396,
                -0.13357894411178817,
                -0.8697260117786596
            ]
        },
        {
            "positions": [
                0.023987393133029764,
                -2.1993712857311944,
                -1.574321280804445,
                1.5338213999325432,
                -0.09703291485765947,
                -0.7139449636942552
            ]
        },
        {
            "positions": [
                0.013941083500420934,
                -2.208033767494418,
                -1.7573363019031998,
                1.5354775045934468,
                -0.06048688560353077,
                -0.5581639156098508
            ]
        },
        {
            "positions": [
                0.003894773867812104,
                -2.216696249257642,
                -1.9403513230019547,
                1.5371336092543504,
                -0.02394085634940213,
                -0.4023828675254466
            ]
        },
        {
            "positions": [
                -0.006151535764796712,
                -2.2253587310208656,
                -2.1233663441007096,
                1.538789713915254,
                0.012605172904726514,
                -0.24660181944104242
            ]
        },
        {
            "positions": [
                -0.01619784539740554,
                -2.2340212127840893,
                -2.3063813651994645,
                1.5404458185761576,
                0.04915120215885521,
                -0.09082077135663803
            ]
        },
        {
            "positions": [
                -0.10146727146922684,
                -2.2583446116788704,
                -2.3388888407729103,
                1.5353210987195833,
                0.11305233391866133,
                -0.054633769625770205
            ]
        },
        {
            "positions": [
                -0.18673669754104813,
                -2.282668010573651,
                -2.371396316346356,
                1.5301963788630089,
                0.17695346567846745,
                -0.01844676789490238
            ]
        }
    ]
}