{
    "goal": {
        "global_pose": {
            "orientation": {
                "w": 0.5084816217422485,
                "x": -0.49083608388900757,
                "y": 0.5182115435600281,
                "z": -0.4816462993621826
            },
            "position": {
                "x": 0.5540239810943604,
                "y": 0.030875300988554955,
                "z": 0.16403168439865112
            }
        },
        "name": "move_to_storage_A"
    },
    "id": "PRM_move_to_storage_A_37",
    "joint_names": [
        "shoulder_pan_joint",
        "shoulder_lift_joint",
        "elbow_joint",
        "wrist_1_joint",
        "wrist_2_joint",
        "wrist_3_joint"
    ],
    "metrics": {
        "cart_traj_len": 0.35337050806501435,
        "distance_elbow_joint": 0.45152790183842284,
        "distance_shoulder_lift_joint": 0.2316595670841577,
        "distance_shoulder_pan_joint": 0.462219016955411,
        "distance_wrist_1_joint": 0.2542522217755142,
        "distance_wrist_2_joint": 1.0974977857016808,
        "distance_wrist_3_joint": 0.10758659935668469,
        "smoothness": 2.2204460668324854e-16,
        "time": 0.032870236000000004,
        "traj_len": 1.6139216501156033,
        "weighted_distance": 2.0424657399580624
    },
    "planner": "PRM",
    "start": {
        "state": {
            "elbow_joint": 1.971548259319323,
            "shoulder_lift_joint": -1.1394851275133948,
            "shoulder_pan_joint": 0.1228115487234821,
            "wrist_1_joint": -0.7804723859257726,
            "wrist_2_joint": 0.12958671773740124,
            "wrist_3_joint": -3.192489227718131
        }
    },
    "waypoints": [
        {
            "positions": [
                0.1228115487234821,
                -1.1394851275133948,
                1.971548259319323,
                -0.7804723859257726,
                0.12958671773740124,
                -3.192489227718131
            ]
        },
        {
            "positions": [
                0.05678026058699481,
                -1.1725793513825602,
                2.0360522452962404,
                -0.8167941318937032,
                0.2863721156947842,
                -3.177119713524319
            ]
        },
        {
            "positions": [
                -0.009251027549492474,
                -1.2056735752517256,
                2.100556231273158,
                -0.8531158778616338,
                0.44315751365216716,
                -3.161750199330507
            ]
        },
        {
            "positions": [
                -0.07528231568597976,
                -1.238767799120891,
                2.1650602172500757,
                -0.8894376238295644,
                0.5999429116095502,
                -3.1463806851366947
            ]
        },
        {
            "positions": [
                -0.14131360382246705,
                -1.2718620229900564,
                2.2295642032269933,
                -0.9257593697974951,
                0.7567283095669332,
                -3.131011170942883
            ]
        },
        {
            "positions": [
                -0.20734489195895434,
                -1.3049562468592217,
                2.2940681892039105,
                -0.9620811157654257,
                0.9135137075243162,
                -3.115641656749071
            ]
        },
        {
            "positions": [
                -0.2733761800954416,
                -1.3380504707283871,
                2.358572175180828,
                -0.9984028617333562,
                1.070299105481699,
                -3.1002721425552586
            ]
        },
        {
            "positions": [
                -0.3394074682319289,
                -1.3711446945975525,
                2.423076161157746,
                -1.0347246077012868,
                1.227084503439082,
                -3.0849026283614465
            ]
        }
    ]
}{
    "goal": {
        "global_pose": {
            "orientation": {
                "w": 0.5084816217422485,
                "x": -0.49083608388900757,
                "y": 0.5182115435600281,
                "z": -0.4816462993621826
            },
            "position": {
                "x": 0.5540239810943604,
                "y": 0.030875300988554955,
                "z": 0.16403168439865112
            }
        },
        "name": "move_to_storage_A"
    },
    "id": "PRM_move_to_storage_A_37",
    "joint_names": [
        "shoulder_pan_joint",
        "shoulder_lift_joint",
        "elbow_joint",
        "wrist_1_joint",
        "wrist_2_joint",
        "wrist_3_joint"
    ],
    "metrics": {
        "cart_traj_len": 0.3525257767168752,
        "distance_elbow_joint": 0.45019568875795235,
        "distance_shoulder_lift_joint": 0.23362844906026003,
        "distance_shoulder_pan_joint": 0.4563916420274359,
        "distance_wrist_1_joint": 0.24941577269160198,
        "distance_wrist_2_joint": 1.1167781959366776,
        "distance_wrist_3_joint": 0.09917685542114718,
        "smoothness": 6.661338165333112e-16,
        "time": 0.03214514,
        "traj_len": 1.6141829524236324,
        "weighted_distance": 2.0420906648250585
    },
    "planner": "PRM",
    "start": {
        "state": {
            "elbow_joint": 1.97154746011099,
            "shoulder_lift_joint": -1.13948474672311,
            "shoulder_pan_joint": 0.12281154466712228,
            "wrist_1_joint": -0.7804688027058302,
            "wrist_2_joint": 0.12958655903071145,
            "wrist_3_joint": 3.0906928834467795
        }
    },
    "waypoints": [
        {
            "positions": [
                0.12281154466712228,
                -1.13948474672311,
                1.97154746011099,
                -0.7804688027058302,
                0.12958655903071145,
                3.0906928834467795
            ]
        },
        {
            "positions": [
                0.05761273866320288,
                -1.1728602394460041,
                2.0358611299335547,
                -0.816099627376059,
                0.2891263013073797,
                3.1048610056498007
            ]
        },
        {
            "positions": [
                -0.007586067340716526,
                -1.2062357321688986,
                2.100174799756119,
                -0.8517304520462878,
                0.44866604358404794,
                3.1190291278528215
            ]
        },
        {
            "positions": [
                -0.07278487334463594,
                -1.2396112248917928,
                2.164488469578684,
                -0.8873612767165168,
                0.6082057858607162,
                3.1331972500558427
            ]
        },
        {
            "positions": [
                -0.13798367934855532,
                -1.2729867176146872,
                2.2288021394012483,
                -0.9229921013867456,
                0.7677455281373844,
                3.1473653722588635
            ]
        },
        {
            "positions": [
                -0.20318248535247474,
                -1.3063622103375814,
                2.293115809223813,
                -0.9586229260569745,
                0.9272852704140526,
                3.1615334944618847
            ]
        },
        {
            "positions": [
                -0.26838129135639416,
                -1.3397377030604756,
                2.3574294790463775,
                -0.9942537507272033,
                1.0868250126907208,
                3.1757016166649055
            ]
        },
        {
            "positions": [
                -0.3335800973603136,
                -1.37311319578337,
                2.4217431488689423,
                -1.0298845753974322,
                1.246364754967389,
                3.1898697388679267
            ]
        }
    ]
}{
    "goal": {
        "global_pose": {
            "orientation": {
                "w": 0.5084816217422485,
                "x": -0.49083608388900757,
                "y": 0.5182115435600281,
                "z": -0.4816462993621826
            },
            "position": {
                "x": 0.5540239810943604,
                "y": 0.030875300988554955,
                "z": 0.16403168439865112
            }
        },
        "name": "move_to_storage_A"
    },
    "id": "PRM_move_to_storage_A_37",
    "joint_names": [
        "shoulder_pan_joint",
        "shoulder_lift_joint",
        "elbow_joint",
        "wrist_1_joint",
        "wrist_2_joint",
        "wrist_3_joint"
    ],
    "metrics": {
        "cart_traj_len": 0.353029957129362,
        "distance_elbow_joint": 0.450166312300047,
        "distance_shoulder_lift_joint": 0.23666618990952037,
        "distance_shoulder_pan_joint": 0.459239728384897,
        "distance_wrist_1_joint": 0.23707452849504618,
        "distance_wrist_2_joint": 1.1105088017025666,
        "distance_wrist_3_joint": 0.10219645285572909,
        "smoothness": 4.440892098500626e-16,
        "time": 0.034314209000000005,
        "traj_len": 1.6111648002758148,
        "weighted_distance": 2.036621773809972
    },
    "planner": "PRM",
    "start": {
        "state": {
            "elbow_joint": 1.9715472970024885,
            "shoulder_lift_joint": -1.1394870060712896,
            "shoulder_pan_joint": 0.12281152778156021,
            "wrist_1_joint": -0.780463741449964,
            "wrist_2_joint": 0.12958659822042276,
            "wrist_3_joint": 3.090690232415272
        }
    },
    "waypoints": [
        {
            "positions": [
                0.12281152778156021,
                -1.1394870060712896,
                1.9715472970024885,
                -0.780463741449964,
                0.12958659822042276,
                3.090690232415272
            ]
        },
        {
            "positions": [
                0.0572058522980035,
                -1.1732964617726496,
                2.0358567701882095,
                -0.8143315312349706,
                0.28823071274936085,
                3.105289725680376
            ]
        },
        {
            "positions": [
                -0.008399823185553212,
                -1.2071059174740097,
                2.1001662433739305,
                -0.8481993210199772,
                0.44687482727829897,
                3.11988921894548
            ]
        },
        {
            "positions": [
                -0.07400549866910994,
                -1.2409153731753697,
                2.1644757165596515,
                -0.8820671108049838,
                0.605518941807237,
                3.1344887122105844
            ]
        },
        {
            "positions": [
                -0.13961117415266663,
                -1.2747248288767299,
                2.2287851897453725,
                -0.9159349005899904,
                0.7641630563361751,
                3.1490882054756884
            ]
        },
        {
            "positions": [
                -0.20521684963622336,
                -1.3085342845780898,
                2.2930946629310935,
                -0.949802690374997,
                0.9228071708651132,
                3.1636876987407927
            ]
        },
        {
            "positions": [
                -0.2708225251197801,
                -1.3423437402794498,
                2.3574041361168145,
                -0.9836704801600036,
                1.0814512853940512,
                3.1782871920058966
            ]
        },
        {
            "positions": [
                -0.3364282006033368,
                -1.37615319598081,
                2.4217136093025355,
                -1.0175382699450102,
                1.2400953999229893,
                3.192886685271001
            ]
        }
    ]
}