{
    "goal": {
        "global_pose": {
            "orientation": {
                "w": -0.00223480608172531,
                "x": 0.0024358444001904467,
                "y": 0.7094548369677653,
                "z": -0.704743149386269
            },
            "position": {
                "x": -0.37947507619857795,
                "y": -0.6371506643295288,
                "z": 0.19426114857196808
            }
        },
        "name": "move_to_magneteinheit_C"
    },
    "id": "PRM_move_to_magneteinheit_C_55",
    "joint_names": [
        "shoulder_pan_joint",
        "shoulder_lift_joint",
        "elbow_joint",
        "wrist_1_joint",
        "wrist_2_joint",
        "wrist_3_joint"
    ],
    "metrics": {
        "cart_traj_len": 5.742730717306797,
        "distance_elbow_joint": 3.0919964920115626,
        "distance_shoulder_lift_joint": 1.3530759526766079,
        "distance_shoulder_pan_joint": 5.676019674574153,
        "distance_wrist_1_joint": 4.615444658413461,
        "distance_wrist_2_joint": 5.3519826648846145,
        "distance_wrist_3_joint": 11.01452183487379,
        "smoothness": 0.567807176581594,
        "time": 0.863771488,
        "traj_len": 5.577010066104795,
        "weighted_distance": 7.94352014351823
    },
    "planner": "PRM",
    "start": {
        "state": {
            "elbow_joint": 1.9565354010623817,
            "shoulder_lift_joint": -1.4165861575791021,
            "shoulder_pan_joint": -1.6717766225146293,
            "wrist_1_joint": -0.5286633292919765,
            "wrist_2_joint": 1.472756589071564,
            "wrist_3_joint": -3.1238370188695823
        }
    },
    "waypoints": [
        {
            "positions": [
                -1.6717766225146293,
                -1.4165861575791021,
                1.9565354010623817,
                -0.5286633292919765,
                1.472756589071564,
                -3.1238370188695823
            ]
        },
        {
            "positions": [
                -1.5156417531609032,
                -1.433146221183634,
                1.9702435292866094,
                -0.48618281318611883,
                1.404721172888495,
                -3.130783825832565
            ]
        },
        {
            "positions": [
                -1.3595068838071769,
                -1.4497062847881659,
                1.9839516575108371,
                -0.4437022970802612,
                1.3366857567054262,
                -3.1377306327955483
            ]
        },
        {
            "positions": [
                -1.2033720144534508,
                -1.4662663483926979,
                1.9976597857350649,
                -0.40122178097440353,
                1.2686503405223575,
                -3.1446774397585315
            ]
        },
        {
            "positions": [
                -1.0472371450997247,
                -1.4828264119972299,
                2.0113679139592926,
                -0.3587412648685459,
                1.2006149243392885,
                -3.1516242467215143
            ]
        },
        {
            "positions": [
                -1.0365709533542515,
                -1.4807242581508828,
                1.9898155916601645,
                -0.2903589467495742,
                1.1109267523094792,
                -2.9554425706603356
            ]
        },
        {
            "positions": [
                -1.0259047616087784,
                -1.478622104304536,
                1.9682632693610367,
                -0.22197662863060247,
                1.02123858027967,
                -2.759260894599157
            ]
        },
        {
            "positions": [
                -1.0152385698633053,
                -1.476519950458189,
                1.9467109470619088,
                -0.15359431051163075,
                0.9315504082498607,
                -2.563079218537978
            ]
        },
        {
            "positions": [
                -1.0045723781178322,
                -1.4744177966118421,
                1.9251586247627808,
                -0.08521199239265903,
                0.8418622362200515,
                -2.3668975424767993
            ]
        },
        {
            "positions": [
                -0.9939061863723591,
                -1.472315642765495,
                1.9036063024636527,
                -0.016829674273687256,
                0.7521740641902421,
                -2.17071586641562
            ]
        },
        {
            "positions": [
                -0.9832399946268859,
                -1.4702134889191483,
                1.8820539801645249,
                0.05155264384528441,
                0.662485892160433,
                -1.9745341903544416
            ]
        },
        {
            "positions": [
                -0.9725738028814128,
                -1.4681113350728012,
                1.860501657865397,
                0.11993496196425618,
                0.5727977201306237,
                -1.7783525142932626
            ]
        },
        {
            "positions": [
                -0.9619076111359397,
                -1.4660091812264544,
                1.838949335566269,
                0.18831728008322784,
                0.4831095481008145,
                -1.5821708382320838
            ]
        },
        {
            "positions": [
                -0.9512414193904666,
                -1.4639070273801074,
                1.8173970132671409,
                0.25669959820219973,
                0.39342137607100514,
                -1.3859891621709048
            ]
        },
        {
            "positions": [
                -0.9405752276449935,
                -1.4618048735337605,
                1.795844690968013,
                0.3250819163211714,
                0.30373320404119586,
                -1.189807486109726
            ]
        },
        {
            "positions": [
                -0.9299090358995203,
                -1.4597027196874135,
                1.7742923686688852,
                0.39346423444014306,
                0.2140450320113867,
                -0.9936258100485476
            ]
        },
        {
            "positions": [
                -0.9192428441540472,
                -1.4576005658410667,
                1.752740046369757,
                0.4618465525591147,
                0.12435685998157742,
                -0.7974441339873688
            ]
        },
        {
            "positions": [
                -0.9085766524085741,
                -1.4554984119947196,
                1.731187724070629,
                0.5302288706780867,
                0.03466868795176814,
                -0.6012624579261896
            ]
        },
        {
            "positions": [
                -0.897910460663101,
                -1.4533962581483726,
                1.7096354017715012,
                0.5986111887970582,
                -0.055019484078041136,
                -0.40508078186501084
            ]
        },
        {
            "positions": [
                -0.8872442689176279,
                -1.4512941043020258,
                1.6880830794723733,
                0.66699350691603,
                -0.1447076561078504,
                -0.20889910580383209
            ]
        },
        {
            "positions": [
                -0.8765780771721547,
                -1.4491919504556787,
                1.6665307571732453,
                0.7353758250350015,
                -0.23439582813765947,
                -0.01271742974265333
            ]
        },
        {
            "positions": [
                -0.8659118854266816,
                -1.447089796609332,
                1.6449784348741174,
                0.8037581431539733,
                -0.32408400016746874,
                0.18346424631852543
            ]
        },
        {
            "positions": [
                -0.8552456936812085,
                -1.4449876427629849,
                1.6234261125749894,
                0.8721404612729453,
                -0.41377217219727824,
                0.3796459223797046
            ]
        },
        {
            "positions": [
                -0.8445795019357354,
                -1.442885488916638,
                1.6018737902758615,
                0.9405227793919169,
                -0.5034603442270875,
                0.5758275984408834
            ]
        },
        {
            "positions": [
                -0.8339133101902623,
                -1.440783335070291,
                1.5803214679767335,
                1.0089050975108886,
                -0.5931485162568968,
                0.7720092745020621
            ]
        },
        {
            "positions": [
                -0.8232471184447891,
                -1.4386811812239442,
                1.5587691456776054,
                1.0772874156298604,
                -0.6828366882867059,
                0.9681909505632404
            ]
        },
        {
            "positions": [
                -0.812580926699316,
                -1.4365790273775971,
                1.5372168233784775,
                1.145669733748832,
                -0.7725248603165151,
                1.1643726266244192
            ]
        },
        {
            "positions": [
                -0.8019147349538429,
                -1.4344768735312503,
                1.5156645010793497,
                1.2140520518678037,
                -0.8622130323463244,
                1.360554302685598
            ]
        },
        {
            "positions": [
                -0.7912485432083698,
                -1.4323747196849033,
                1.4941121787802216,
                1.2824343699867753,
                -0.9519012043761337,
                1.5567359787467767
            ]
        },
        {
            "positions": [
                -0.7805823514628967,
                -1.4302725658385564,
                1.4725598564810936,
                1.3508166881057473,
                -1.041589376405943,
                1.7529176548079564
            ]
        },
        {
            "positions": [
                -0.7699161597174236,
                -1.4281704119922094,
                1.4510075341819657,
                1.419199006224719,
                -1.1312775484357522,
                1.9490993308691351
            ]
        },
        {
            "positions": [
                -0.7592499679719504,
                -1.4260682581458626,
                1.4294552118828379,
                1.4875813243436906,
                -1.2209657204655615,
                2.145281006930314
            ]
        },
        {
            "positions": [
                -0.7485837762264773,
                -1.4239661042995155,
                1.4079028895837098,
                1.5559636424626624,
                -1.3106538924953708,
                2.341462682991492
            ]
        },
        {
            "positions": [
                -0.6840081898420967,
                -1.4360076725635111,
                1.413088165577823,
                1.542448081518823,
                -1.2391890839904485,
                2.121115871596789
            ]
        },
        {
            "positions": [
                -0.6194326034577161,
                -1.448049240827507,
                1.418273441571936,
                1.528932520574984,
                -1.167724275485526,
                1.900769060202086
            ]
        },
        {
            "positions": [
                -0.5548570170733356,
                -1.4600908090915026,
                1.423458717566049,
                1.5154169596311446,
                -1.0962594669806036,
                1.6804222488073828
            ]
        },
        {
            "positions": [
                -0.4902814306889549,
                -1.4721323773554984,
                1.428643993560162,
                1.5019013986873053,
                -1.0247946584756813,
                1.4600754374126794
            ]
        },
        {
            "positions": [
                -0.4257058443045743,
                -1.484173945619494,
                1.4338292695542751,
                1.488385837743466,
                -0.9533298499707589,
                1.2397286260179763
            ]
        },
        {
            "positions": [
                -0.3611302579201937,
                -1.4962155138834898,
                1.4390145455483883,
                1.474870276799627,
                -0.8818650414658364,
                1.0193818146232732
            ]
        },
        {
            "positions": [
                -0.2965546715358131,
                -1.5082570821474854,
                1.4441998215425014,
                1.4613547158557876,
                -0.810400232960914,
                0.7990350032285698
            ]
        },
        {
            "positions": [
                -0.2319790851514325,
                -1.520298650411481,
                1.4493850975366143,
                1.4478391549119483,
                -0.7389354244559917,
                0.5786881918338667
            ]
        },
        {
            "positions": [
                -0.16740349876705185,
                -1.5323402186754769,
                1.4545703735307274,
                1.434323593968109,
                -0.6674706159510693,
                0.3583413804391633
            ]
        },
        {
            "positions": [
                -0.1028279123826713,
                -1.5443817869394725,
                1.4597556495248405,
                1.4208080330242698,
                -0.596005807446147,
                0.1379945690444604
            ]
        },
        {
            "positions": [
                -0.03825232599829076,
                -1.5564233552034683,
                1.4649409255189536,
                1.4072924720804305,
                -0.5245409989412245,
                -0.08235224235024319
            ]
        },
        {
            "positions": [
                0.026323260386089897,
                -1.568464923467464,
                1.4701262015130665,
                1.3937769111365912,
                -0.4530761904363022,
                -0.3026990537449459
            ]
        },
        {
            "positions": [
                0.09089884677047044,
                -1.5805064917314597,
                1.4753114775071796,
                1.380261350192752,
                -0.3816113819313799,
                -0.523045865139649
            ]
        },
        {
            "positions": [
                0.1554744331548511,
                -1.5925480599954553,
                1.4804967535012927,
                1.3667457892489128,
                -0.31014657342645724,
                -0.7433926765343526
            ]
        },
        {
            "positions": [
                0.22005001953923164,
                -1.604589628259451,
                1.4856820294954058,
                1.3532302283050734,
                -0.23868176492153492,
                -0.9637394879290557
            ]
        },
        {
            "positions": [
                0.2846256059236123,
                -1.6166311965234468,
                1.4908673054895187,
                1.3397146673612341,
                -0.1672169564166126,
                -1.1840862993237589
            ]
        },
        {
            "positions": [
                0.34920119230799274,
                -1.6286727647874424,
                1.4960525814836318,
                1.3261991064173948,
                -0.09575214791169029,
                -1.404433110718462
            ]
        },
        {
            "positions": [
                0.4137767786923736,
                -1.6407143330514382,
                1.501237857477745,
                1.3126835454735557,
                -0.02428733940676775,
                -1.6247799221131656
            ]
        },
        {
            "positions": [
                0.47835236507675405,
                -1.6527559013154338,
                1.506423133471858,
                1.2991679845297164,
                0.04717746909815457,
                -1.8451267335078687
            ]
        },
        {
            "positions": [
                0.5429279514611347,
                -1.6647974695794296,
                1.5116084094659712,
                1.285652423585877,
                0.11864227760307688,
                -2.0654735449025714
            ]
        },
        {
            "positions": [
                0.6075035378455151,
                -1.6768390378434253,
                1.516793685460084,
                1.272136862642038,
                0.1901070861079992,
                -2.285820356297275
            ]
        },
        {
            "positions": [
                0.6720791242298958,
                -1.6888806061074209,
                1.5219789614541972,
                1.2586213016981986,
                0.26157189461292174,
                -2.5061671676919786
            ]
        },
        {
            "positions": [
                0.7366547106142763,
                -1.7009221743714167,
                1.5271642374483103,
                1.2451057407543593,
                0.333036703117844,
                -2.7265139790866817
            ]
        },
        {
            "positions": [
                0.5825031308554399,
                -1.6617327138571405,
                1.4788921169828018,
                1.1437763528103375,
                0.3663987534841615,
                -2.733006008336415
            ]
        },
        {
            "positions": [
                0.42835155109660344,
                -1.6225432533428643,
                1.430619996517293,
                1.0424469648663157,
                0.399760803850479,
                -2.739498037586149
            ]
        },
        {
            "positions": [
                0.274199971337767,
                -1.5833537928285881,
                1.3823478760517844,
                0.9411175769222939,
                0.4331228542167965,
                -2.7459900668358825
            ]
        },
        {
            "positions": [
                0.12004839157893055,
                -1.544164332314312,
                1.3340757555862757,
                0.8397881889782721,
                0.46648490458311404,
                -2.752482096085616
            ]
        },
        {
            "positions": [
                -0.034103188179905874,
                -1.5049748718000355,
                1.2858036351207671,
                0.7384588010342503,
                0.49984695494943154,
                -2.7589741253353495
            ]
        },
        {
            "positions": [
                -0.1882547679387423,
                -1.4657854112857593,
                1.2375315146552586,
                0.6371294130902285,
                0.533209005315749,
                -2.7654661545850834
            ]
        },
        {
            "positions": [
                -0.34240634769757883,
                -1.4265959507714832,
                1.1892593941897498,
                0.5358000251462067,
                0.5665710556820666,
                -2.771958183834817
            ]
        },
        {
            "positions": [
                -0.49655792745641525,
                -1.387406490257207,
                1.140987273724241,
                0.43447063720218493,
                0.5999331060483841,
                -2.7784502130845503
            ]
        },
        {
            "positions": [
                -0.6507095072152517,
                -1.3482170297429308,
                1.0927151532587325,
                0.33314124925816313,
                0.6332951564147016,
                -2.784942242334284
            ]
        },
        {
            "positions": [
                -0.8048610869740881,
                -1.3090275692286546,
                1.044443032793224,
                0.23181186131414133,
                0.666657206781019,
                -2.7914342715840177
            ]
        },
        {
            "positions": [
                -0.9590126667329247,
                -1.2698381087143784,
                0.9961709123277152,
                0.13048247337011953,
                0.7000192571473367,
                -2.797926300833751
            ]
        },
        {
            "positions": [
                -1.113164246491761,
                -1.2306486482001022,
                0.9478987918622066,
                0.029153085426097736,
                0.7333813075136542,
                -2.8044183300834846
            ]
        },
        {
            "positions": [
                -1.2673158262505977,
                -1.191459187685826,
                0.8996266713966978,
                -0.07217630251792406,
                0.7667433578799716,
                -2.810910359333218
            ]
        },
        {
            "positions": [
                -1.4214674060094339,
                -1.1522697271715496,
                0.8513545509311893,
                -0.17350569046194586,
                0.8001054082462891,
                -2.817402388582952
            ]
        },
        {
            "positions": [
                -1.5756189857682705,
                -1.1130802666572737,
                0.8030824304656805,
                -0.27483507840596766,
                0.8334674586126067,
                -2.8238944178326855
            ]
        },
        {
            "positions": [
                -1.7297705655271067,
                -1.0738908061429973,
                0.754810310000172,
                -0.37616446634998946,
                0.8668295089789242,
                -2.830386447082419
            ]
        },
        {
            "positions": [
                -1.8839221452859434,
                -1.034701345628721,
                0.7065381895346633,
                -0.47749385429401126,
                0.9001915593452416,
                -2.8368784763321524
            ]
        },
        {
            "positions": [
                -2.0380737250447796,
                -0.995511885114445,
                0.6582660690691546,
                -0.578823242238033,
                0.9335536097115591,
                -2.8433705055818863
            ]
        },
        {
            "positions": [
                -2.192225304803616,
                -0.9563224246001687,
                0.609993948603646,
                -0.6801526301820549,
                0.9669156600778768,
                -2.8498625348316198
            ]
        },
        {
            "positions": [
                -2.274729413237367,
                -0.9708522972163551,
                0.7852101806947167,
                -0.733331616897203,
                0.967901746219322,
                -2.8840847654514863
            ]
        },
        {
            "positions": [
                -2.3572335216711178,
                -0.9853821698325417,
                0.9604264127857874,
                -0.7865106036123511,
                0.9688878323607673,
                -2.918306996071353
            ]
        },
        {
            "positions": [
                -2.4397376301048688,
                -0.9999120424487281,
                1.1356426448768582,
                -0.8396895903274993,
                0.9698739185022125,
                -2.9525292266912193
            ]
        },
        {
            "positions": [
                -2.4709615856253824,
                -1.0314026822979003,
                1.3643382714215728,
                -0.8451251886154771,
                0.9477800808576319,
                -2.9845547219340274
            ]
        },
        {
            "positions": [
                -2.502185541145896,
                -1.0628933221470727,
                1.5930338979662872,
                -0.8505607869034549,
                0.9256862432130513,
                -3.0165802171768354
            ]
        },
        {
            "positions": [
                -2.4955794525938053,
                -1.0905389051681023,
                1.754135493483945,
                -0.8114174555819431,
                0.8546195932350875,
                -3.041591593618233
            ]
        },
        {
            "positions": [
                -2.488973364041715,
                -1.118184488189132,
                1.9152370890016028,
                -0.7722741242604314,
                0.7835529432571237,
                -3.0666029700596313
            ]
        },
        {
            "positions": [
                -2.473437451460821,
                -1.1627419953177855,
                2.00726126663345,
                -0.8182807189101173,
                0.6818295461821187,
                -3.152184994317364
            ]
        }
    ]
}