{
    "goal": {
        "global_pose": {
            "orientation": {
                "w": 0.005598929693374612,
                "x": 0.007748599140229565,
                "y": 0.7110244013736278,
                "z": -0.7031023480610252
            },
            "position": {
                "x": -0.8858502320852131,
                "y": -0.7141253447532654,
                "z": 0.3711530566215515
            }
        },
        "name": "move_to_auspresseinheit_C"
    },
    "id": "PRM_move_to_auspresseinheit_C_138",
    "joint_names": [
        "shoulder_pan_joint",
        "shoulder_lift_joint",
        "elbow_joint",
        "wrist_1_joint",
        "wrist_2_joint",
        "wrist_3_joint"
    ],
    "metrics": {
        "cart_traj_len": 0.49190168973442383,
        "distance_elbow_joint": 0.9888288164868804,
        "distance_shoulder_lift_joint": 0.31946297001354496,
        "distance_shoulder_pan_joint": 0.25657729327794776,
        "distance_wrist_1_joint": 0.6658163162695255,
        "distance_wrist_2_joint": 1.3029305916894187,
        "distance_wrist_3_joint": 0.05393542132749918,
        "smoothness": 3.2297397080004555e-16,
        "time": 0.0178493,
        "traj_len": 1.8940832634984177,
        "weighted_distance": 2.3799515036400973
    },
    "planner": "PRM",
    "start": {
        "state": {
            "elbow_joint": 1.7527959577737207,
            "shoulder_lift_joint": -0.9740617694225068,
            "shoulder_pan_joint": -2.967991417825858,
            "wrist_1_joint": -0.759517768980727,
            "wrist_2_joint": 1.7443932448377408,
            "wrist_3_joint": -3.0840537646736568
        }
    },
    "waypoints": [
        {
            "positions": [
                -2.967991417825858,
                -0.9740617694225068,
                1.7527959577737207,
                -0.759517768980727,
                1.7443932448377408,
                -3.0840537646736568
            ]
        },
        {
            "positions": [
                -2.942333688498063,
                -0.9421154724211522,
                1.6539130761250327,
                -0.6929361373537745,
                1.6141001856687989,
                -3.089447306806407
            ]
        },
        {
            "positions": [
                -2.9166759591702682,
                -0.9101691754197978,
                1.5550301944763445,
                -0.6263545057268218,
                1.4838071264998571,
                -3.094840848939157
            ]
        },
        {
            "positions": [
                -2.891018229842474,
                -0.8782228784184433,
                1.4561473128276565,
                -0.5597728740998693,
                1.3535140673309152,
                -3.1002343910719063
            ]
        },
        {
            "positions": [
                -2.865360500514679,
                -0.8462765814170887,
                1.3572644311789686,
                -0.49319124247291674,
                1.2232210081619734,
                -3.1056279332046564
            ]
        },
        {
            "positions": [
                -2.839702771186884,
                -0.8143302844157343,
                1.2583815495302804,
                -0.4266096108459642,
                1.0929279489930315,
                -3.1110214753374064
            ]
        },
        {
            "positions": [
                -2.814045041859089,
                -0.7823839874143799,
                1.1594986678815924,
                -0.3600279792190117,
                0.9626348898240896,
                -3.1164150174701564
            ]
        },
        {
            "positions": [
                -2.7883873125312943,
                -0.7504376904130253,
                1.0606157862329044,
                -0.2934463475920591,
                0.8323418306551478,
                -3.1218085596029064
            ]
        },
        {
            "positions": [
                -2.7627295832035,
                -0.7184913934116708,
                0.9617329045842163,
                -0.2268647159651065,
                0.7020487714862058,
                -3.127202101735656
            ]
        },
        {
            "positions": [
                -2.737071853875705,
                -0.6865450964103164,
                0.8628500229355283,
                -0.16028308433815397,
                0.5717557123172639,
                -3.132595643868406
            ]
        },
        {
            "positions": [
                -2.71141412454791,
                -0.6545987994089618,
                0.7639671412868403,
                -0.09370145271120141,
                0.44146265314832217,
                -3.137989186001156
            ]
        }
    ]
}