{
    "goal": {
        "global_pose": {
            "orientation": {
                "w": 0.005598929693374612,
                "x": 0.007748599140229565,
                "y": 0.7110244013736278,
                "z": -0.7031023480610252
            },
            "position": {
                "x": 0.1141497679147869,
                "y": -0.7141253447532654,
                "z": 0.3711530566215515
            }
        },
        "name": "move_to_auspresseinheit_B"
    },
    "id": "PRM_move_to_auspresseinheit_B_7",
    "joint_names": [
        "shoulder_pan_joint",
        "shoulder_lift_joint",
        "elbow_joint",
        "wrist_1_joint",
        "wrist_2_joint",
        "wrist_3_joint"
    ],
    "metrics": {
        "cart_traj_len": 0.5646677555764165,
        "distance_elbow_joint": 0.06451348979775418,
        "distance_shoulder_lift_joint": 0.29363746011606695,
        "distance_shoulder_pan_joint": 0.5770109301167681,
        "distance_wrist_1_joint": 0.3314904164785615,
        "distance_wrist_2_joint": 0.9921385159119245,
        "distance_wrist_3_joint": 0.0057122712782122775,
        "smoothness": 5.075305295617109e-16,
        "time": 0.014636082000000002,
        "traj_len": 1.504826595890466,
        "weighted_distance": 1.89724973544502
    },
    "planner": "PRM",
    "start": {
        "state": {
            "elbow_joint": 2.0193083361928714,
            "shoulder_lift_joint": -1.1220246554650708,
            "shoulder_pan_joint": -1.0952077554168747,
            "wrist_1_joint": -0.8559753972642168,
            "wrist_2_joint": 0.4759566250798843,
            "wrist_3_joint": -3.1240929996934557
        }
    },
    "waypoints": [
        {
            "positions": [
                -1.0952077554168747,
                -1.1220246554650708,
                2.0193083361928714,
                -0.8559753972642168,
                0.4759566250798843,
                -3.1240929996934557
            ]
        },
        {
            "positions": [
                -1.1913762437696693,
                -1.170964232151082,
                2.0085560878932456,
                -0.8007269945177898,
                0.6413130443985384,
                -3.1231409544804203
            ]
        },
        {
            "positions": [
                -1.287544732122464,
                -1.219903808837093,
                1.99780383959362,
                -0.745478591771363,
                0.8066694637171925,
                -3.122188909267385
            ]
        },
        {
            "positions": [
                -1.3837132204752587,
                -1.2688433855231043,
                1.9870515912939943,
                -0.690230189024936,
                0.9720258830358466,
                -3.1212368640543495
            ]
        },
        {
            "positions": [
                -1.4798817088280534,
                -1.3177829622091155,
                1.9762993429943687,
                -0.6349817862785092,
                1.1373823023545007,
                -3.120284818841314
            ]
        },
        {
            "positions": [
                -1.576050197180848,
                -1.3667225388951265,
                1.9655470946947429,
                -0.5797333835320821,
                1.3027387216731547,
                -3.1193327736282788
            ]
        },
        {
            "positions": [
                -1.6722186855336427,
                -1.4156621155811377,
                1.9547948463951172,
                -0.5244849807856553,
                1.4680951409918088,
                -3.1183807284152434
            ]
        }
    ]
}