{
    "goal": {
        "global_pose": {
            "orientation": {
                "w": 0.5084816217422485,
                "x": -0.49083608388900757,
                "y": 0.5182115435600281,
                "z": -0.4816462993621826
            },
            "position": {
                "x": 0.5540239810943604,
                "y": 0.030875300988554955,
                "z": 0.16403168439865112
            }
        },
        "name": "move_to_storage_A"
    },
    "id": "PRM_move_to_storage_A_133",
    "joint_names": [
        "shoulder_pan_joint",
        "shoulder_lift_joint",
        "elbow_joint",
        "wrist_1_joint",
        "wrist_2_joint",
        "wrist_3_joint"
    ],
    "metrics": {
        "cart_traj_len": 0.35299094486084603,
        "distance_elbow_joint": 0.4511765749252177,
        "distance_shoulder_lift_joint": 0.235294848785375,
        "distance_shoulder_pan_joint": 0.46060666203792505,
        "distance_wrist_1_joint": 0.24555595530753804,
        "distance_wrist_2_joint": 1.1035473600194956,
        "distance_wrist_3_joint": 0.10157893723200662,
        "smoothness": 2.2204460668324854e-16,
        "time": 0.034468899000000004,
        "traj_len": 1.6117569104264942,
        "weighted_distance": 2.037160162603472
    },
    "planner": "PRM",
    "start": {
        "state": {
            "elbow_joint": 1.971548259319323,
            "shoulder_lift_joint": -1.1394851275133948,
            "shoulder_pan_joint": 0.1228115487234821,
            "wrist_1_joint": -0.7804723859257726,
            "wrist_2_joint": 0.12958671773740124,
            "wrist_3_joint": -3.192489227718131
        }
    },
    "waypoints": [
        {
            "positions": [
                0.1228115487234821,
                -1.1394851275133948,
                1.971548259319323,
                -0.7804723859257726,
                0.12958671773740124,
                -3.192489227718131
            ]
        },
        {
            "positions": [
                0.05701059700377853,
                -1.173098677339877,
                2.036002055737211,
                -0.8155518081125638,
                0.28723634059732917,
                -3.1779779509707016
            ]
        },
        {
            "positions": [
                -0.008790354715925042,
                -1.206712227166359,
                2.1004558521550996,
                -0.850631230299355,
                0.44488596345725706,
                -3.163466674223272
            ]
        },
        {
            "positions": [
                -0.07459130643562861,
                -1.2403257769928413,
                2.1649096485729875,
                -0.885710652486146,
                0.6025355863171851,
                -3.1489553974758424
            ]
        },
        {
            "positions": [
                -0.14039225815533218,
                -1.2739393268193233,
                2.229363444990876,
                -0.9207900746729372,
                0.760185209177113,
                -3.1344441207284133
            ]
        },
        {
            "positions": [
                -0.2061932098750358,
                -1.3075528766458056,
                2.2938172414087643,
                -0.9558694968597283,
                0.917834832037041,
                -3.1199328439809837
            ]
        },
        {
            "positions": [
                -0.2719941615947393,
                -1.3411664264722876,
                2.3582710378266523,
                -0.9909489190465195,
                1.0754844548969689,
                -3.105421567233554
            ]
        },
        {
            "positions": [
                -0.33779511331444295,
                -1.3747799762987698,
                2.4227248342445407,
                -1.0260283412333107,
                1.2331340777568969,
                -3.0909102904861245
            ]
        }
    ]
}{
    "goal": {
        "global_pose": {
            "orientation": {
                "w": 0.5084816217422485,
                "x": -0.49083608388900757,
                "y": 0.5182115435600281,
                "z": -0.4816462993621826
            },
            "position": {
                "x": 0.5540239810943604,
                "y": 0.030875300988554955,
                "z": 0.16403168439865112
            }
        },
        "name": "move_to_storage_A"
    },
    "id": "PRM_move_to_storage_A_133",
    "joint_names": [
        "shoulder_pan_joint",
        "shoulder_lift_joint",
        "elbow_joint",
        "wrist_1_joint",
        "wrist_2_joint",
        "wrist_3_joint"
    ],
    "metrics": {
        "cart_traj_len": 0.3526949404949314,
        "distance_elbow_joint": 0.4480106393795382,
        "distance_shoulder_lift_joint": 0.23371785806153933,
        "distance_shoulder_pan_joint": 0.458042235235024,
        "distance_wrist_1_joint": 0.2371189210664184,
        "distance_wrist_2_joint": 1.1110481075712066,
        "distance_wrist_3_joint": 0.0992219262373637,
        "smoothness": 6.661338165333112e-16,
        "time": 0.035202603,
        "traj_len": 1.6084650097378839,
        "weighted_distance": 2.033167619421341
    },
    "planner": "PRM",
    "start": {
        "state": {
            "elbow_joint": 1.97154746011099,
            "shoulder_lift_joint": -1.13948474672311,
            "shoulder_pan_joint": 0.12281154466712228,
            "wrist_1_joint": -0.7804688027058302,
            "wrist_2_joint": 0.12958655903071145,
            "wrist_3_joint": 3.0906928834467795
        }
    },
    "waypoints": [
        {
            "positions": [
                0.12281154466712228,
                -1.13948474672311,
                1.97154746011099,
                -0.7804688027058302,
                0.12958655903071145,
                3.0906928834467795
            ]
        },
        {
            "positions": [
                0.057376939633547425,
                -1.1728730121604727,
                2.0355489800223525,
                -0.8143429342867471,
                0.28830771725516957,
                3.1048674443378315
            ]
        },
        {
            "positions": [
                -0.008057665400027433,
                -1.2062612775978354,
                2.099550499933715,
                -0.848217065867664,
                0.44702887547962766,
                3.1190420052288834
            ]
        },
        {
            "positions": [
                -0.07349227043360228,
                -1.2396495430351981,
                2.1635520198450777,
                -0.8820911974485809,
                0.6057500337040858,
                3.1332165661199354
            ]
        },
        {
            "positions": [
                -0.13892687546717714,
                -1.2730378084725609,
                2.2275535397564403,
                -0.9159653290294978,
                0.7644711919285438,
                3.1473911270109873
            ]
        },
        {
            "positions": [
                -0.20436148050075204,
                -1.3064260739099238,
                2.291555059667803,
                -0.9498394606104148,
                0.9231923501530019,
                3.1615656879020393
            ]
        },
        {
            "positions": [
                -0.2697960855343268,
                -1.3398143393472866,
                2.3555565795791655,
                -0.9837135921913317,
                1.08191350837746,
                3.1757402487930912
            ]
        },
        {
            "positions": [
                -0.3352306905679017,
                -1.3732026047846493,
                2.419558099490528,
                -1.0175877237722486,
                1.2406346666019181,
                3.189914809684143
            ]
        }
    ]
}{
    "goal": {
        "global_pose": {
            "orientation": {
                "w": 0.5084816217422485,
                "x": -0.49083608388900757,
                "y": 0.5182115435600281,
                "z": -0.4816462993621826
            },
            "position": {
                "x": 0.5540239810943604,
                "y": 0.030875300988554955,
                "z": 0.16403168439865112
            }
        },
        "name": "move_to_storage_A"
    },
    "id": "PRM_move_to_storage_A_133",
    "joint_names": [
        "shoulder_pan_joint",
        "shoulder_lift_joint",
        "elbow_joint",
        "wrist_1_joint",
        "wrist_2_joint",
        "wrist_3_joint"
    ],
    "metrics": {
        "cart_traj_len": 0.3530905418479481,
        "distance_elbow_joint": 0.4475989128179232,
        "distance_shoulder_lift_joint": 0.2335804162503563,
        "distance_shoulder_pan_joint": 0.4583619768902796,
        "distance_wrist_1_joint": 0.23733067250897633,
        "distance_wrist_2_joint": 1.1123586886924155,
        "distance_wrist_3_joint": 0.09721861452536062,
        "smoothness": 4.440892133664971e-16,
        "time": 0.03256119,
        "traj_len": 1.6082441610916272,
        "weighted_distance": 2.0323818223792065
    },
    "planner": "PRM",
    "start": {
        "state": {
            "elbow_joint": 1.9715472970024885,
            "shoulder_lift_joint": -1.1394870060712896,
            "shoulder_pan_joint": 0.12281152778156021,
            "wrist_1_joint": -0.780463741449964,
            "wrist_2_joint": 0.12958659822042276,
            "wrist_3_joint": 3.090690232415272
        }
    },
    "waypoints": [
        {
            "positions": [
                0.12281152778156021,
                -1.1394870060712896,
                1.9715472970024885,
                -0.780463741449964,
                0.12958659822042276,
                3.090690232415272
            ]
        },
        {
            "positions": [
                0.05733124536866313,
                -1.1728556369641976,
                2.0354899988336204,
                -0.8143681232369606,
                0.28849498231933923,
                3.1045786059188947
            ]
        },
        {
            "positions": [
                -0.008149037044233948,
                -1.2062242678571058,
                2.099432700664752,
                -0.8482725050239572,
                0.44740336641825573,
                3.118466979422518
            ]
        },
        {
            "positions": [
                -0.07362931945713103,
                -1.2395928987500138,
                2.163375402495884,
                -0.8821768868109539,
                0.6063117505171722,
                3.1323553529261408
            ]
        },
        {
            "positions": [
                -0.1391096018700281,
                -1.2729615296429218,
                2.227318104327016,
                -0.9160812685979505,
                0.7652201346160887,
                3.1462437264297636
            ]
        },
        {
            "positions": [
                -0.2045898842829252,
                -1.30633016053583,
                2.291260806158148,
                -0.9499856503849471,
                0.9241285187150052,
                3.1601320999333864
            ]
        },
        {
            "positions": [
                -0.2700701666958223,
                -1.339698791428738,
                2.35520350798928,
                -0.9838900321719437,
                1.0830369028139217,
                3.1740204734370097
            ]
        },
        {
            "positions": [
                -0.33555044910871934,
                -1.373067422321646,
                2.4191462098204117,
                -1.0177944139589403,
                1.2419452869128382,
                3.1879088469406325
            ]
        }
    ]
}