{
    "goal": {
        "global_pose": {
            "orientation": {
                "w": 0.7047431493862688,
                "x": -0.7094548369677653,
                "y": 0.0024358444001904,
                "z": -0.0022348060817251984
            },
            "position": {
                "x": -0.39052492380142206,
                "y": 0.3671506643295288,
                "z": 0.19426114857196808
            }
        },
        "name": "move_to_magneteinheit_D"
    },
    "id": "PRM_move_to_magneteinheit_D_132",
    "joint_names": [
        "shoulder_pan_joint",
        "shoulder_lift_joint",
        "elbow_joint",
        "wrist_1_joint",
        "wrist_2_joint",
        "wrist_3_joint"
    ],
    "metrics": {
        "cart_traj_len": 4.817303597715274,
        "distance_elbow_joint": 3.48670699122305,
        "distance_shoulder_lift_joint": 1.6266897001352432,
        "distance_shoulder_pan_joint": 4.0840105864527105,
        "distance_wrist_1_joint": 1.517642672984453,
        "distance_wrist_2_joint": 0.5759476581690783,
        "distance_wrist_3_joint": 3.499242329631786,
        "smoothness": 0.3078560885024125,
        "time": 0.446799428,
        "traj_len": 3.845808099554153,
        "weighted_distance": 4.886953542751704
    },
    "planner": "PRM",
    "start": {
        "state": {
            "elbow_joint": 0.749534889911806,
            "shoulder_lift_joint": -0.6476975780787326,
            "shoulder_pan_joint": -2.711696901376241,
            "wrist_1_joint": -0.07506478083263063,
            "wrist_2_joint": 0.43296659715538205,
            "wrist_3_joint": -3.14703540197715
        }
    },
    "waypoints": [
        {
            "positions": [
                -2.711696901376241,
                -0.6476975780787326,
                0.749534889911806,
                -0.07506478083263063,
                0.43296659715538205,
                -3.14703540197715
            ]
        },
        {
            "positions": [
                -2.7204373142942355,
                -0.7338235902529122,
                0.8065132318615976,
                0.005671678723365631,
                0.487389916179712,
                -3.139227402215459
            ]
        },
        {
            "positions": [
                -2.72917772721223,
                -0.8199496024270917,
                0.8634915738113893,
                0.08640813827936189,
                0.541813235204042,
                -3.1314194024537683
            ]
        },
        {
            "positions": [
                -2.7379181401302244,
                -0.9060756146012713,
                0.920469915761181,
                0.16714459783535818,
                0.596236554228372,
                -3.1236114026920774
            ]
        },
        {
            "positions": [
                -2.605739964562862,
                -0.9326783284990259,
                0.8344881825396051,
                0.17093074033811503,
                0.5936689718182245,
                -2.990044214598219
            ]
        },
        {
            "positions": [
                -2.4735617889954993,
                -0.9592810423967804,
                0.7485064493180292,
                0.1747168828408719,
                0.5911013894080771,
                -2.8564770265043604
            ]
        },
        {
            "positions": [
                -2.3413836134281363,
                -0.9858837562945348,
                0.6625247160964534,
                0.17850302534362872,
                0.5885338069979297,
                -2.7229098384105015
            ]
        },
        {
            "positions": [
                -2.2092054378607737,
                -1.0124864701922895,
                0.5765429828748775,
                0.18228916784638557,
                0.5859662245877824,
                -2.589342650316643
            ]
        },
        {
            "positions": [
                -2.077027262293411,
                -1.039089184090044,
                0.4905612496533016,
                0.18607531034914243,
                0.5833986421776349,
                -2.4557754622227845
            ]
        },
        {
            "positions": [
                -1.9448490867260486,
                -1.0656918979877985,
                0.40457951643172574,
                0.1898614528518993,
                0.5808310597674875,
                -2.322208274128926
            ]
        },
        {
            "positions": [
                -1.8126709111586858,
                -1.092294611885553,
                0.31859778321014987,
                0.19364759535465614,
                0.5782634773573401,
                -2.188641086035067
            ]
        },
        {
            "positions": [
                -1.6804927355913233,
                -1.1188973257833077,
                0.232616049988574,
                0.19743373785741297,
                0.5756958949471926,
                -2.0550738979412086
            ]
        },
        {
            "positions": [
                -1.5483145600239607,
                -1.1455000396810622,
                0.14663431676699823,
                0.20121988036016983,
                0.5731283125370452,
                -1.9215067098473502
            ]
        },
        {
            "positions": [
                -1.416136384456598,
                -1.1721027535788167,
                0.060652583545422245,
                0.20500602286292668,
                0.5705607301268979,
                -1.7879395217534915
            ]
        },
        {
            "positions": [
                -1.2839582088892354,
                -1.1987054674765711,
                -0.02532914967615363,
                0.20879216536568354,
                0.5679931477167505,
                -1.654372333659633
            ]
        },
        {
            "positions": [
                -1.1517800333218726,
                -1.2253081813743258,
                -0.1113108828977295,
                0.2125783078684404,
                0.565425565306603,
                -1.5208051455657745
            ]
        },
        {
            "positions": [
                -1.01960185775451,
                -1.2519108952720803,
                -0.19729261611930526,
                0.21636445037119723,
                0.5628579828964556,
                -1.3872379574719156
            ]
        },
        {
            "positions": [
                -0.8874236821871473,
                -1.2785136091698348,
                -0.28327434934088125,
                0.2201505928739541,
                0.5602904004863082,
                -1.2536707693780569
            ]
        },
        {
            "positions": [
                -0.7552455066197847,
                -1.3051163230675893,
                -0.369256082562457,
                0.22393673537671094,
                0.5577228180761608,
                -1.1201035812841988
            ]
        },
        {
            "positions": [
                -0.6230673310524222,
                -1.331719036965344,
                -0.455237815784033,
                0.2277228778794678,
                0.5551552356660134,
                -0.9865363931903399
            ]
        },
        {
            "positions": [
                -0.4908891554850592,
                -1.3583217508630985,
                -0.541219549005609,
                0.23150902038222465,
                0.552587653255866,
                -0.8529692050964814
            ]
        },
        {
            "positions": [
                -0.35871097991769707,
                -1.384924464760853,
                -0.6272012822271845,
                0.23529516288498148,
                0.5500200708457186,
                -0.719402017002623
            ]
        },
        {
            "positions": [
                -0.22653280435033407,
                -1.4115271786586074,
                -0.7131830154487605,
                0.23908130538773834,
                0.5474524884355711,
                -0.585834828908764
            ]
        },
        {
            "positions": [
                -0.09435462878297152,
                -1.4381298925563621,
                -0.7991647486703365,
                0.2428674478904952,
                0.5448849060254237,
                -0.45226764081490556
            ]
        },
        {
            "positions": [
                0.03782354678439104,
                -1.4647326064541166,
                -0.8851464818919123,
                0.24665359039325202,
                0.5423173236152763,
                -0.3187004527210471
            ]
        },
        {
            "positions": [
                0.1700017223517536,
                -1.491335320351871,
                -0.9711282151134882,
                0.2504397328960089,
                0.5397497412051289,
                -0.1851332646271886
            ]
        },
        {
            "positions": [
                0.3021798979191166,
                -1.5179380342496258,
                -1.0571099483350639,
                0.25422587539876573,
                0.5371821587949815,
                -0.051566076533329674
            ]
        },
        {
            "positions": [
                0.43435807348647915,
                -1.54454074814738,
                -1.14309168155664,
                0.2580120179015226,
                0.5346145763848341,
                0.08200111156052836
            ]
        },
        {
            "positions": [
                0.5665362490538416,
                -1.5711434620451348,
                -1.2290734147782156,
                0.26179816040427945,
                0.5320469939746867,
                0.2155682996543872
            ]
        },
        {
            "positions": [
                0.5078986496189598,
                -1.6318173032191448,
                -1.3447419892233532,
                0.3874225482791851,
                0.504795180418914,
                0.20897317751702754
            ]
        },
        {
            "positions": [
                0.449261050184078,
                -1.6924911443931547,
                -1.4604105636684908,
                0.5130469361540908,
                0.47754336686314136,
                0.2023780553796679
            ]
        },
        {
            "positions": [
                0.3906234507491963,
                -1.753164985567165,
                -1.576079138113628,
                0.6386713240289964,
                0.4502915533073687,
                0.19578293324230825
            ]
        },
        {
            "positions": [
                0.3319858513143145,
                -1.813838826741175,
                -1.6917477125587657,
                0.764295711903902,
                0.423039739751596,
                0.18918781110494862
            ]
        },
        {
            "positions": [
                0.27334825187943274,
                -1.874512667915185,
                -1.8074162870039032,
                0.8899200997788077,
                0.3957879261958233,
                0.18259268896758896
            ]
        },
        {
            "positions": [
                0.214710652444551,
                -1.9351865090891949,
                -1.9230848614490408,
                1.0155444876537134,
                0.36853611264005065,
                0.17599756683022932
            ]
        },
        {
            "positions": [
                0.15607305300966917,
                -1.995860350263205,
                -2.0387534358941783,
                1.1411688755286191,
                0.34128429908427793,
                0.16940244469286966
            ]
        },
        {
            "positions": [
                0.09743545357478745,
                -2.056534191437215,
                -2.154422010339316,
                1.2667932634035246,
                0.31403248552850527,
                0.16280732255551003
            ]
        },
        {
            "positions": [
                0.0387978541399057,
                -2.117208032611225,
                -2.2700905847844535,
                1.3924176512784303,
                0.2867806719727326,
                0.15621220041815037
            ]
        },
        {
            "positions": [
                -0.07400042766045681,
                -2.1957976554126004,
                -2.332696317198474,
                1.4174977717151263,
                0.23516976255250807,
                0.11757093603614452
            ]
        },
        {
            "positions": [
                -0.1867987094608193,
                -2.274387278213976,
                -2.3953020496124946,
                1.4425778921518222,
                0.18355885313228354,
                0.07892967165413865
            ]
        }
    ]
}