{
    "goal": {
        "global_pose": {
            "orientation": {
                "w": -0.4816463035849501,
                "x": 0.5182115481033762,
                "y": 0.4908360881923453,
                "z": -0.5084816262002911
            },
            "position": {
                "x": -0.8240239810943604,
                "y": 0.19912469901144506,
                "z": 0.16403168439865112
            }
        },
        "name": "move_to_storage_D"
    },
    "id": "PRM_move_to_storage_D_111",
    "joint_names": [
        "shoulder_pan_joint",
        "shoulder_lift_joint",
        "elbow_joint",
        "wrist_1_joint",
        "wrist_2_joint",
        "wrist_3_joint"
    ],
    "metrics": {
        "cart_traj_len": 0.5826555401151312,
        "distance_elbow_joint": 0.8613777188355745,
        "distance_shoulder_lift_joint": 0.24724670770739499,
        "distance_shoulder_pan_joint": 0.2595875955975292,
        "distance_wrist_1_joint": 3.8298739337952106,
        "distance_wrist_2_joint": 1.780964416624166,
        "distance_wrist_3_joint": 3.1508074393330054,
        "smoothness": 0.11547043420546364,
        "time": 0.28004043700000003,
        "traj_len": 3.1827437552987017,
        "weighted_distance": 4.694923965409692
    },
    "planner": "PRM",
    "start": {
        "state": {
            "elbow_joint": -2.384821988534728,
            "shoulder_lift_joint": -2.2788054721415256,
            "shoulder_pan_joint": -0.1854694642142757,
            "wrist_1_joint": 1.4845938289331202,
            "wrist_2_joint": 0.17898776772866878,
            "wrist_3_joint": 0.037105688729662994
        }
    },
    "waypoints": [
        {
            "positions": [
                -0.1854694642142757,
                -2.2788054721415256,
                -2.384821988534728,
                1.4845938289331202,
                0.17898776772866878,
                0.037105688729662994
            ]
        },
        {
            "positions": [
                -0.11697853591313233,
                -2.2121792417545083,
                -2.43560606317653,
                1.4014106455255788,
                0.1634929130037055,
                0.09602785882058247
            ]
        },
        {
            "positions": [
                -0.04848760761198895,
                -2.145553011367491,
                -2.4863901378183324,
                1.3182274621180377,
                0.1479980582787422,
                0.15495002891150195
            ]
        },
        {
            "positions": [
                0.020003320689154447,
                -2.0789267809804737,
                -2.5371742124601346,
                1.2350442787104963,
                0.13250320355377893,
                0.21387219900242144
            ]
        },
        {
            "positions": [
                0.017650502832889266,
                -2.0809862599607496,
                -2.506347017029258,
                1.079378001163862,
                0.05709103605598431,
                0.34317832635286694
            ]
        },
        {
            "positions": [
                0.015297684976624088,
                -2.083045738941025,
                -2.475519821598381,
                0.9237117236172279,
                -0.0183211314418103,
                0.4724844537033125
            ]
        },
        {
            "positions": [
                0.012944867120358909,
                -2.085105217921301,
                -2.444692626167504,
                0.7680454460705937,
                -0.09373329893960491,
                0.601790581053758
            ]
        },
        {
            "positions": [
                0.010592049264093729,
                -2.087164696901577,
                -2.413865430736627,
                0.6123791685239595,
                -0.16914546643739953,
                0.7310967084042035
            ]
        },
        {
            "positions": [
                0.008239231407828548,
                -2.0892241758818524,
                -2.3830382353057504,
                0.45671289097732526,
                -0.24455763393519414,
                0.8604028357546489
            ]
        },
        {
            "positions": [
                0.00588641355156337,
                -2.0912836548621283,
                -2.3522110398748737,
                0.30104661343069106,
                -0.31996980143298875,
                0.9897089631050946
            ]
        },
        {
            "positions": [
                0.0035335956952981876,
                -2.0933431338424042,
                -2.3213838444439965,
                0.14538033588405685,
                -0.3953819689307834,
                1.11901509045554
            ]
        },
        {
            "positions": [
                0.0011807778390330106,
                -2.09540261282268,
                -2.2905566490131197,
                -0.010285941662577347,
                -0.470794136428578,
                1.2483212178059857
            ]
        },
        {
            "positions": [
                -0.0011720400172321697,
                -2.0974620918029556,
                -2.259729453582243,
                -0.16595221920921155,
                -0.5462063039263727,
                1.3776273451564311
            ]
        },
        {
            "positions": [
                -0.00352485787349735,
                -2.0995215707832315,
                -2.2289022581513662,
                -0.32161849675584575,
                -0.6216184714241673,
                1.5069334725068766
            ]
        },
        {
            "positions": [
                -0.0058776757297625305,
                -2.1015810497635075,
                -2.198075062720489,
                -0.47728477430247995,
                -0.6970306389219618,
                1.6362395998573223
            ]
        },
        {
            "positions": [
                -0.008230493586027707,
                -2.103640528743783,
                -2.1672478672896123,
                -0.6329510518491142,
                -0.7724428064197564,
                1.7655457272077677
            ]
        },
        {
            "positions": [
                -0.010583311442292884,
                -2.105700007724059,
                -2.1364206718587355,
                -0.7886173293957484,
                -0.8478549739175509,
                1.8948518545582131
            ]
        },
        {
            "positions": [
                -0.012936129298558072,
                -2.1077594867043348,
                -2.1055934764278588,
                -0.9442836069423826,
                -0.9232671414153457,
                2.0241579819086586
            ]
        },
        {
            "positions": [
                -0.015288947154823249,
                -2.1098189656846102,
                -2.0747662809969816,
                -1.0999498844890168,
                -0.9986793089131403,
                2.153464109259104
            ]
        },
        {
            "positions": [
                -0.017641765011088426,
                -2.111878444664886,
                -2.043939085566105,
                -1.255616162035651,
                -1.0740914764109348,
                2.28277023660955
            ]
        },
        {
            "positions": [
                -0.019994582867353602,
                -2.113937923645162,
                -2.013111890135228,
                -1.4112824395822852,
                -1.1495036439087294,
                2.4120763639599954
            ]
        },
        {
            "positions": [
                -0.022347400723618786,
                -2.115997402625438,
                -1.9822846947043513,
                -1.5669487171289194,
                -1.2249158114065242,
                2.541382491310441
            ]
        },
        {
            "positions": [
                -0.024700218579883963,
                -2.1180568816057135,
                -1.9514574992734743,
                -1.7226149946755536,
                -1.3003279789043187,
                2.6706886186608862
            ]
        },
        {
            "positions": [
                -0.027053036436149147,
                -2.1201163605859894,
                -1.9206303038425974,
                -1.8782812722221878,
                -1.3757401464021133,
                2.7999947460113317
            ]
        },
        {
            "positions": [
                -0.029405854292414324,
                -2.1221758395662653,
                -1.8898031084117206,
                -2.033947549768822,
                -1.4511523138999078,
                2.929300873361777
            ]
        },
        {
            "positions": [
                -0.03175867214867951,
                -2.124235318546541,
                -1.8589759129808439,
                -2.189613827315456,
                -1.5265644813977026,
                3.058607000712223
            ]
        },
        {
            "positions": [
                -0.034111490004944685,
                -2.1262947975268167,
                -1.8281487175499669,
                -2.3452801048620904,
                -1.6019766488954972,
                3.1879131280626685
            ]
        }
    ]
}