{
    "goal": {
        "global_pose": {
            "orientation": {
                "w": -0.00223480608172531,
                "x": 0.0024358444001904467,
                "y": 0.7094548369677653,
                "z": -0.704743149386269
            },
            "position": {
                "x": 0.6205249238014221,
                "y": -0.6371506643295288,
                "z": 0.19426114857196808
            }
        },
        "name": "move_to_magneteinheit_B"
    },
    "id": "PRM_move_to_magneteinheit_B_105",
    "joint_names": [
        "shoulder_pan_joint",
        "shoulder_lift_joint",
        "elbow_joint",
        "wrist_1_joint",
        "wrist_2_joint",
        "wrist_3_joint"
    ],
    "metrics": {
        "cart_traj_len": 1.3731877598997526,
        "distance_elbow_joint": 0.9558021495831797,
        "distance_shoulder_lift_joint": 0.7538314570029108,
        "distance_shoulder_pan_joint": 1.6188789297663049,
        "distance_wrist_1_joint": 0.575031117295056,
        "distance_wrist_2_joint": 1.879814979331559,
        "distance_wrist_3_joint": 0.9212904053577206,
        "smoothness": 0.4702598919770901,
        "time": 0.286784575,
        "traj_len": 2.5893337054803753,
        "weighted_distance": 3.3169377361775707
    },
    "planner": "PRM",
    "start": {
        "state": {
            "elbow_joint": 2.6216224122426386,
            "shoulder_lift_joint": -1.4174107377796124,
            "shoulder_pan_joint": 0.7066234856936794,
            "wrist_1_joint": 1.9546482284002225,
            "wrist_2_joint": -0.7096286983471962,
            "wrist_3_joint": 0.005740856962016249
        }
    },
    "waypoints": [
        {
            "positions": [
                0.7066234856936794,
                -1.4174107377796124,
                2.6216224122426386,
                1.9546482284002225,
                -0.7096286983471962,
                0.005740856962016249
            ]
        },
        {
            "positions": [
                0.5090467338044695,
                -1.4172602646379953,
                2.5991820034702746,
                1.9174685104830915,
                -0.674861607436626,
                0.09781208436146858
            ]
        },
        {
            "positions": [
                0.31146998191525965,
                -1.4171097914963782,
                2.57674159469791,
                1.8802887925659606,
                -0.6400945165260559,
                0.18988331176092094
            ]
        },
        {
            "positions": [
                0.11389323002604979,
                -1.416959318354761,
                2.5543011859255462,
                1.8431090746488294,
                -0.6053274256154858,
                0.2819545391603733
            ]
        },
        {
            "positions": [
                -0.08368352186316008,
                -1.416808845213144,
                2.531860777153182,
                1.8059293567316985,
                -0.5705603347049156,
                0.3740257665598256
            ]
        },
        {
            "positions": [
                -0.28126027375236995,
                -1.416658372071527,
                2.509420368380818,
                1.7687496388145676,
                -0.5357932437943455,
                0.46609699395927795
            ]
        },
        {
            "positions": [
                -0.32979836377700494,
                -1.358729211202694,
                2.4445280525560977,
                1.7986829101768291,
                -0.6670224380080922,
                0.4306405117777042
            ]
        },
        {
            "positions": [
                -0.37833645380163994,
                -1.3008000503338615,
                2.379635736731378,
                1.828616181539091,
                -0.798251632221839,
                0.3951840295961304
            ]
        },
        {
            "positions": [
                -0.426874543826275,
                -1.2428708894650287,
                2.314743420906658,
                1.8585494529013524,
                -0.9294808264355858,
                0.35972754741455665
            ]
        },
        {
            "positions": [
                -0.47541263385091,
                -1.184941728596196,
                2.2498511050819383,
                1.8884827242636142,
                -1.0607100206493327,
                0.3242710652329829
            ]
        },
        {
            "positions": [
                -0.523950723875545,
                -1.1270125677273632,
                2.184958789257218,
                1.9184159956258757,
                -1.1919392148630794,
                0.28881458305140906
            ]
        },
        {
            "positions": [
                -0.57248881390018,
                -1.0690834068585306,
                2.120066473432498,
                1.9483492669881373,
                -1.323168409076826,
                0.25335810086983535
            ]
        },
        {
            "positions": [
                -0.621026903924815,
                -1.0111542459896978,
                2.0551741576077784,
                1.978282538350399,
                -1.4543976032905728,
                0.21790161868826155
            ]
        },
        {
            "positions": [
                -0.66956499394945,
                -0.9532250851208651,
                1.9902818417830583,
                2.008215809712661,
                -1.58562679750432,
                0.18244513650668776
            ]
        },
        {
            "positions": [
                -0.718103083974085,
                -0.8952959242520324,
                1.9253895259583387,
                2.038149081074922,
                -1.7168559917180666,
                0.146988654325114
            ]
        },
        {
            "positions": [
                -0.76664117399872,
                -0.8373667633831997,
                1.8604972101336186,
                2.068082352437184,
                -1.8480851859318133,
                0.11153217214354022
            ]
        },
        {
            "positions": [
                -0.815179264023355,
                -0.779437602514367,
                1.795604894308899,
                2.0980156237994456,
                -1.97931438014556,
                0.07607568996196645
            ]
        },
        {
            "positions": [
                -0.8637173540479901,
                -0.7215084416455343,
                1.7307125784841788,
                2.127948895161707,
                -2.110543574359307,
                0.040619207780392685
            ]
        },
        {
            "positions": [
                -0.912255444072625,
                -0.6635792807767016,
                1.665820262659459,
                2.1578821665239687,
                -2.2417727685730537,
                0.005162725598818909
            ]
        }
    ]
}