{
    "goal": {
        "global_pose": {
            "orientation": {
                "w": -0.00223480608172531,
                "x": 0.0024358444001904467,
                "y": 0.7094548369677653,
                "z": -0.704743149386269
            },
            "position": {
                "x": 0.6205249238014221,
                "y": -0.6371506643295288,
                "z": 0.19426114857196808
            }
        },
        "name": "move_to_magneteinheit_B"
    },
    "id": "PRM_move_to_magneteinheit_B_148",
    "joint_names": [
        "shoulder_pan_joint",
        "shoulder_lift_joint",
        "elbow_joint",
        "wrist_1_joint",
        "wrist_2_joint",
        "wrist_3_joint"
    ],
    "metrics": {
        "cart_traj_len": 1.5810645640986543,
        "distance_elbow_joint": 0.9507885146086688,
        "distance_shoulder_lift_joint": 1.171444077564913,
        "distance_shoulder_pan_joint": 1.6217840190287878,
        "distance_wrist_1_joint": 2.221840148089626,
        "distance_wrist_2_joint": 2.0948324390262267,
        "distance_wrist_3_joint": 1.2877252862767228,
        "smoothness": 0.6364875474229195,
        "time": 0.292770753,
        "traj_len": 3.0575176998007625,
        "weighted_distance": 4.029955042461919
    },
    "planner": "PRM",
    "start": {
        "state": {
            "elbow_joint": 2.6216224122426386,
            "shoulder_lift_joint": -1.4174107377796124,
            "shoulder_pan_joint": 0.7066234856936794,
            "wrist_1_joint": 1.9546482284002225,
            "wrist_2_joint": -0.7096286983471962,
            "wrist_3_joint": 0.005740856962016249
        }
    },
    "waypoints": [
        {
            "positions": [
                0.7066234856936794,
                -1.4174107377796124,
                2.6216224122426386,
                1.9546482284002225,
                -0.7096286983471962,
                0.005740856962016249
            ]
        },
        {
            "positions": [
                0.6694311168552737,
                -1.447348863717566,
                2.6118612753589954,
                1.8100837614429537,
                -0.6682564511521637,
                -0.08645139779263133
            ]
        },
        {
            "positions": [
                0.632238748016868,
                -1.4772869896555194,
                2.6021001384753517,
                1.665519294485685,
                -0.6268842039571312,
                -0.1786436525472789
            ]
        },
        {
            "positions": [
                0.5950463791784623,
                -1.507225115593473,
                2.5923390015917085,
                1.5209548275284162,
                -0.5855119567620987,
                -0.27083590730192647
            ]
        },
        {
            "positions": [
                0.5578540103400565,
                -1.5371632415314267,
                2.5825778647080653,
                1.3763903605711474,
                -0.5441397095670661,
                -0.36302816205657407
            ]
        },
        {
            "positions": [
                0.5206616415016508,
                -1.5671013674693803,
                2.572816727824422,
                1.2318258936138786,
                -0.5027674623720336,
                -0.45522041681122166
            ]
        },
        {
            "positions": [
                0.4834692726632452,
                -1.5970394934073338,
                2.5630555909407784,
                1.0872614266566099,
                -0.4613952151770011,
                -0.5474126715658693
            ]
        },
        {
            "positions": [
                0.4462769038248395,
                -1.6269776193452874,
                2.553294454057135,
                0.942696959699341,
                -0.4200229679819686,
                -0.6396049263205169
            ]
        },
        {
            "positions": [
                0.3706414906492868,
                -1.5735399973453297,
                2.5042688675891815,
                1.0099130085542711,
                -0.5203133406853574,
                -0.6039171761541731
            ]
        },
        {
            "positions": [
                0.2950060774737342,
                -1.5201023753453722,
                2.455243281121228,
                1.0771290574092016,
                -0.6206037133887462,
                -0.5682294259878292
            ]
        },
        {
            "positions": [
                0.21937066429818153,
                -1.4666647533454145,
                2.4062176946532743,
                1.1443451062641317,
                -0.7208940860921351,
                -0.5325416758214853
            ]
        },
        {
            "positions": [
                0.14373525112262886,
                -1.4132271313454567,
                2.3571921081853207,
                1.2115611551190621,
                -0.8211844587955239,
                -0.4968539256551414
            ]
        },
        {
            "positions": [
                0.06809983794707619,
                -1.359789509345499,
                2.308166521717367,
                1.2787772039739922,
                -0.9214748314989127,
                -0.46116617548879757
            ]
        },
        {
            "positions": [
                -0.007535575228476421,
                -1.3063518873455413,
                2.2591409352494134,
                1.3459932528289227,
                -1.0217652042023015,
                -0.4254784253224537
            ]
        },
        {
            "positions": [
                -0.08317098840402909,
                -1.2529142653455838,
                2.2101153487814598,
                1.4132093016838527,
                -1.1220555769056904,
                -0.3897906751561098
            ]
        },
        {
            "positions": [
                -0.15880640157958176,
                -1.199476643345626,
                2.161089762313506,
                1.4804253505387832,
                -1.2223459496090792,
                -0.354102924989766
            ]
        },
        {
            "positions": [
                -0.23444181475513443,
                -1.1460390213456684,
                2.1120641758455525,
                1.5476413993937133,
                -1.322636322312468,
                -0.3184151748234221
            ]
        },
        {
            "positions": [
                -0.3100772279306871,
                -1.0926013993457107,
                2.063038589377599,
                1.6148574482486437,
                -1.4229266950158568,
                -0.2827274246570782
            ]
        },
        {
            "positions": [
                -0.38571264110623976,
                -1.039163777345753,
                2.0140130029096452,
                1.682073497103574,
                -1.523217067719246,
                -0.24703967449073433
            ]
        },
        {
            "positions": [
                -0.4613480542817923,
                -0.9857261553457954,
                1.9649874164416916,
                1.7492895459585043,
                -1.6235074404226344,
                -0.21135192432439048
            ]
        },
        {
            "positions": [
                -0.536983467457345,
                -0.9322885333458377,
                1.915961829973738,
                1.8165055948134343,
                -1.7237978131260232,
                -0.17566417415804658
            ]
        },
        {
            "positions": [
                -0.6126188806328976,
                -0.87885091134588,
                1.8669362435057844,
                1.8837216436683648,
                -1.8240881858294125,
                -0.13997642399170274
            ]
        },
        {
            "positions": [
                -0.6882542938084504,
                -0.8254132893459223,
                1.8179106570378307,
                1.9509376925232949,
                -1.9243785585328013,
                -0.10428867382535878
            ]
        },
        {
            "positions": [
                -0.7638897069840029,
                -0.7719756673459648,
                1.768885070569877,
                2.0181537413782253,
                -2.0246689312361896,
                -0.06860092365901505
            ]
        },
        {
            "positions": [
                -0.8395251201595555,
                -0.7185380453460071,
                1.7198594841019235,
                2.0853697902331554,
                -2.124959303939579,
                -0.03291317349267109
            ]
        },
        {
            "positions": [
                -0.9151605333351084,
                -0.6651004233460494,
                1.6708338976339698,
                2.152585839088086,
                -2.2252496766429677,
                0.0027745766736727018
            ]
        }
    ]
}