{
    "goal": {
        "global_pose": {
            "orientation": {
                "w": 0.7047431468963623,
                "x": -0.7094548344612122,
                "y": 0.0024358443915843964,
                "z": -0.0022348060738295317
            },
            "position": {
                "x": 0.6094750761985779,
                "y": 0.3671506643295288,
                "z": 0.19426114857196808
            }
        },
        "name": "move_to_magneteinheit_A"
    },
    "id": "PRM_move_to_magneteinheit_A_84",
    "joint_names": [
        "shoulder_pan_joint",
        "shoulder_lift_joint",
        "elbow_joint",
        "wrist_1_joint",
        "wrist_2_joint",
        "wrist_3_joint"
    ],
    "metrics": {
        "cart_traj_len": 4.387894393734408,
        "distance_elbow_joint": 3.900751763228423,
        "distance_shoulder_lift_joint": 0.5189865452270124,
        "distance_shoulder_pan_joint": 5.210395219054896,
        "distance_wrist_1_joint": 1.5829051796954956,
        "distance_wrist_2_joint": 1.6967657885654872,
        "distance_wrist_3_joint": 3.5803930951927656,
        "smoothness": 0.22117003751519818,
        "time": 0.080008605,
        "traj_len": 4.060812429916467,
        "weighted_distance": 5.1894753828889675
    },
    "planner": "PRM",
    "start": {
        "state": {
            "elbow_joint": -1.9196185241190666,
            "shoulder_lift_joint": -1.2443396400964142,
            "shoulder_pan_joint": 2.6996025414629847,
            "wrist_1_joint": -1.5485510000780065,
            "wrist_2_joint": -1.5709468930060704,
            "wrist_3_joint": 0.4420197071253992
        }
    },
    "waypoints": [
        {
            "positions": [
                2.6996025414629847,
                -1.2443396400964142,
                -1.9196185241190666,
                -1.5485510000780065,
                -1.5709468930060704,
                0.4420197071253992
            ]
        },
        {
            "positions": [
                2.5605452888610474,
                -1.2518479010146717,
                -1.815225756664942,
                -1.5640056916539662,
                -1.511650985718466,
                0.3835871505656627
            ]
        },
        {
            "positions": [
                2.42148803625911,
                -1.2593561619329294,
                -1.710832989210817,
                -1.5794603832299259,
                -1.4523550784308614,
                0.3251545940059263
            ]
        },
        {
            "positions": [
                2.2824307836571727,
                -1.266864422851187,
                -1.6064402217566922,
                -1.5949150748058856,
                -1.393059171143257,
                0.26672203744618983
            ]
        },
        {
            "positions": [
                2.1433735310552353,
                -1.2743726837694447,
                -1.5020474543025675,
                -1.6103697663818453,
                -1.3337632638556525,
                0.20828948088645338
            ]
        },
        {
            "positions": [
                2.004316278453298,
                -1.2818809446877022,
                -1.3976546868484425,
                -1.625824457957805,
                -1.274467356568048,
                0.14985692432671693
            ]
        },
        {
            "positions": [
                1.8652590258513606,
                -1.28938920560596,
                -1.2932619193943178,
                -1.6412791495337646,
                -1.2151714492804435,
                0.09142436776698049
            ]
        },
        {
            "positions": [
                1.726201773249423,
                -1.2968974665242174,
                -1.1888691519401928,
                -1.6567338411097243,
                -1.155875541992839,
                0.03299181120724404
            ]
        },
        {
            "positions": [
                1.5871445206474857,
                -1.3044057274424752,
                -1.0844763844860683,
                -1.672188532685684,
                -1.0965796347052346,
                -0.02544074535249241
            ]
        },
        {
            "positions": [
                1.448087268045548,
                -1.3119139883607327,
                -0.9800836170319432,
                -1.6876432242616437,
                -1.03728372741763,
                -0.08387330191222886
            ]
        },
        {
            "positions": [
                1.3090300154436108,
                -1.3194222492789904,
                -0.8756908495778184,
                -1.7030979158376034,
                -0.9779878201300255,
                -0.1423058584719653
            ]
        },
        {
            "positions": [
                1.1699727628416736,
                -1.326930510197248,
                -0.7712980821236937,
                -1.718552607413563,
                -0.918691912842421,
                -0.20073841503170176
            ]
        },
        {
            "positions": [
                1.0309155102397363,
                -1.3344387711155057,
                -0.6669053146695689,
                -1.7340072989895228,
                -0.8593960055548165,
                -0.2591709715914382
            ]
        },
        {
            "positions": [
                0.8918582576377987,
                -1.3419470320337632,
                -0.562512547215444,
                -1.7494619905654825,
                -0.8001000982672121,
                -0.31760352815117465
            ]
        },
        {
            "positions": [
                0.7528010050358613,
                -1.3494552929520207,
                -0.45811977976131923,
                -1.7649166821414422,
                -0.7408041909796076,
                -0.3760360847109111
            ]
        },
        {
            "positions": [
                0.613743752433924,
                -1.3569635538702784,
                -0.3537270123071945,
                -1.7803713737174018,
                -0.6815082836920031,
                -0.43446864127064755
            ]
        },
        {
            "positions": [
                0.47468649983198663,
                -1.364471814788536,
                -0.24933424485306976,
                -1.7958260652933615,
                -0.6222123764043986,
                -0.492901197830384
            ]
        },
        {
            "positions": [
                0.3356292472300493,
                -1.3719800757067937,
                -0.14494147739894503,
                -1.8112807568693212,
                -0.5629164691167943,
                -0.5513337543901203
            ]
        },
        {
            "positions": [
                0.19657199462811148,
                -1.3794883366250512,
                -0.04054870994481985,
                -1.826735448445281,
                -0.5036205618291896,
                -0.6097663109498569
            ]
        },
        {
            "positions": [
                0.057514742026174126,
                -1.386996597543309,
                0.06384405750930489,
                -1.8421901400212406,
                -0.4443246545415851,
                -0.6681988675095935
            ]
        },
        {
            "positions": [
                -0.08154251057576323,
                -1.3945048584615665,
                0.16823682496342984,
                -1.8576448315972003,
                -0.3850287472539806,
                -0.7266314240693298
            ]
        },
        {
            "positions": [
                -0.22059976317770014,
                -1.4020131193798242,
                0.27262959241755436,
                -1.87309952317316,
                -0.32573283996637614,
                -0.7850639806290661
            ]
        },
        {
            "positions": [
                -0.3596570157796375,
                -1.4095213802980817,
                0.3770223598716793,
                -1.8885542147491197,
                -0.26643693267877167,
                -0.8434965371888027
            ]
        },
        {
            "positions": [
                -0.49871426838157484,
                -1.4170296412163395,
                0.4814151273258038,
                -1.9040089063250794,
                -0.2071410253911672,
                -0.901929093748539
            ]
        },
        {
            "positions": [
                -0.6377715209835122,
                -1.424537902134597,
                0.5858078947799288,
                -1.919463597901039,
                -0.1478451181035627,
                -0.9603616503082756
            ]
        },
        {
            "positions": [
                -0.77682877358545,
                -1.4320461630528547,
                0.6902006622340537,
                -1.9349182894769987,
                -0.08854921081595823,
                -1.0187942068680123
            ]
        },
        {
            "positions": [
                -0.9158860261873873,
                -1.4395544239711122,
                0.7945934296881787,
                -1.9503729810529584,
                -0.029253303528353758,
                -1.0772267634277486
            ]
        },
        {
            "positions": [
                -1.0549432787893247,
                -1.44706268488937,
                0.8989861971423032,
                -1.965827672628918,
                0.03004260375925072,
                -1.135659319987485
            ]
        },
        {
            "positions": [
                -1.194000531391262,
                -1.4545709458076275,
                1.0033789645964282,
                -1.9812823642048778,
                0.08933851104685524,
                -1.1940918765472213
            ]
        },
        {
            "positions": [
                -1.1062143883112188,
                -1.4339872631732409,
                1.06856258289729,
                -1.9046041098336361,
                0.09177053668102596,
                -1.3237106439818975
            ]
        },
        {
            "positions": [
                -1.0184282452311757,
                -1.4134035805388543,
                1.1337462011981518,
                -1.8279258554623945,
                0.09420256231519666,
                -1.453329411416574
            ]
        },
        {
            "positions": [
                -0.9306421021511324,
                -1.3928198979044677,
                1.198929819499014,
                -1.7512476010911529,
                0.09663458794936738,
                -1.5829481788512503
            ]
        },
        {
            "positions": [
                -0.8428559590710892,
                -1.372236215270081,
                1.2641134377998757,
                -1.6745693467199114,
                0.09906661358353809,
                -1.7125669462859268
            ]
        },
        {
            "positions": [
                -0.7550698159910461,
                -1.3516525326356945,
                1.3292970561007376,
                -1.5978910923486698,
                0.10149863921770881,
                -1.8421857137206028
            ]
        },
        {
            "positions": [
                -0.6672836729110029,
                -1.331068850001308,
                1.3944806744015996,
                -1.5212128379774281,
                0.10393066485187952,
                -1.9718044811552793
            ]
        },
        {
            "positions": [
                -0.5794975298309597,
                -1.3104851673669211,
                1.4596642927024615,
                -1.4445345836061865,
                0.10636269048605024,
                -2.1014232485899558
            ]
        },
        {
            "positions": [
                -0.4917113867509164,
                -1.2899014847325345,
                1.5248479110033233,
                -1.3678563292349448,
                0.10879471612022094,
                -2.231042016024632
            ]
        },
        {
            "positions": [
                -0.40392524367087324,
                -1.269317802098148,
                1.5900315293041851,
                -1.2911780748637032,
                0.11122674175439166,
                -2.3606607834593083
            ]
        },
        {
            "positions": [
                -0.31613910059083006,
                -1.2487341194637613,
                1.655215147605047,
                -1.2144998204924615,
                0.11365876738856237,
                -2.490279550893985
            ]
        },
        {
            "positions": [
                -0.22835295751078688,
                -1.2281504368293747,
                1.7203987659059088,
                -1.1378215661212199,
                0.11609079302273309,
                -2.619898318328661
            ]
        },
        {
            "positions": [
                -0.1405668144307437,
                -1.2075667541949882,
                1.785582384206771,
                -1.0611433117499782,
                0.11852281865690381,
                -2.7495170857633373
            ]
        },
        {
            "positions": [
                -0.052780671350700414,
                -1.1869830715606016,
                1.850766002507633,
                -0.9844650573787367,
                0.12095484429107452,
                -2.879135853198014
            ]
        },
        {
            "positions": [
                0.03500547172934265,
                -1.166399388926215,
                1.9159496208084947,
                -0.9077868030074951,
                0.12338686992524522,
                -3.00875462063269
            ]
        },
        {
            "positions": [
                0.12279161480938583,
                -1.1458157062918284,
                1.9811332391093566,
                -0.8311085486362536,
                0.12581889555941594,
                -3.1383733880673663
            ]
        }
    ]
}