{
    "goal": {
        "global_pose": {
            "orientation": {
                "w": 0.7031023502349854,
                "x": -0.7110244035720825,
                "y": 0.007748599164187908,
                "z": 0.005598929710686207
            },
            "position": {
                "x": 0.11585023208521307,
                "y": 0.44412534475326537,
                "z": 0.3711530566215515
            }
        },
        "name": "move_to_auspresseinheit_A"
    },
    "id": "PRM_move_to_auspresseinheit_A_86",
    "joint_names": [
        "shoulder_pan_joint",
        "shoulder_lift_joint",
        "elbow_joint",
        "wrist_1_joint",
        "wrist_2_joint",
        "wrist_3_joint"
    ],
    "metrics": {
        "cart_traj_len": 0.7780539461705169,
        "distance_elbow_joint": 0.07259167441644365,
        "distance_shoulder_lift_joint": 0.6868253187509192,
        "distance_shoulder_pan_joint": 1.1220496455841311,
        "distance_wrist_1_joint": 0.9471805402326878,
        "distance_wrist_2_joint": 0.5155753606561476,
        "distance_wrist_3_joint": 1.7569086640091145,
        "smoothness": 1.0752768820992267,
        "time": 0.22135258900000002,
        "traj_len": 2.2585683969385215,
        "weighted_distance": 3.1745400348013426
    },
    "planner": "PRM",
    "start": {
        "state": {
            "elbow_joint": 2.4225746658250005,
            "shoulder_lift_joint": -1.3736534386056498,
            "shoulder_pan_joint": -0.3378633547517467,
            "wrist_1_joint": -1.0288598680537169,
            "wrist_2_joint": 1.233022673432363,
            "wrist_3_joint": -3.0940220416140027
        }
    },
    "waypoints": [
        {
            "positions": [
                -0.3378633547517467,
                -1.3736534386056498,
                2.4225746658250005,
                -1.0288598680537169,
                1.233022673432363,
                -3.0940220416140027
            ]
        },
        {
            "positions": [
                -0.34332865182482475,
                -1.4608861738683612,
                2.415139119593746,
                -0.9205057831852091,
                1.202721178212875,
                -2.9715471096799098
            ]
        },
        {
            "positions": [
                -0.3487939488979028,
                -1.5481189091310728,
                2.4077035733624914,
                -0.8121516983167014,
                1.172419682993387,
                -2.8490721777458172
            ]
        },
        {
            "positions": [
                -0.3542592459709808,
                -1.635351644393784,
                2.400268027131237,
                -0.7037976134481938,
                1.142118187773899,
                -2.7265972458117242
            ]
        },
        {
            "positions": [
                -0.3597245430440588,
                -1.7225843796564957,
                2.3928324808999824,
                -0.5954435285796861,
                1.111816692554411,
                -2.6041223138776317
            ]
        },
        {
            "positions": [
                -0.36518984011713684,
                -1.809817114919207,
                2.385396934668728,
                -0.48708944371117835,
                1.081515197334923,
                -2.4816473819435387
            ]
        },
        {
            "positions": [
                -0.37065513719021487,
                -1.8970498501819186,
                2.3779613884374733,
                -0.3787353588426706,
                1.051213702115435,
                -2.359172450009446
            ]
        },
        {
            "positions": [
                -0.3761204342632929,
                -1.98428258544463,
                2.3705258422062188,
                -0.27038127397416284,
                1.020912206895947,
                -2.236697518075353
            ]
        },
        {
            "positions": [
                -0.22129292482435217,
                -1.9733974180286387,
                2.3734605351773133,
                -0.297338694853182,
                0.9775600791645569,
                -2.3652095381425626
            ]
        },
        {
            "positions": [
                -0.06646541538541145,
                -1.9625122506126473,
                2.3763952281484078,
                -0.32429611573220113,
                0.9342079514331666,
                -2.4937215582097716
            ]
        },
        {
            "positions": [
                0.0883620940535293,
                -1.951627083196656,
                2.3793299211195023,
                -0.3512535366112203,
                0.8908558237017764,
                -2.622233578276981
            ]
        },
        {
            "positions": [
                0.24318960349246999,
                -1.940741915780665,
                2.382264614090597,
                -0.3782109574902395,
                0.8475036959703861,
                -2.7507455983441904
            ]
        },
        {
            "positions": [
                0.39801711293141073,
                -1.9298567483646736,
                2.3851993070616917,
                -0.4051683783692586,
                0.8041515682389959,
                -2.8792576184113994
            ]
        },
        {
            "positions": [
                0.5528446223703515,
                -1.9189715809486823,
                2.388134000032786,
                -0.43212579924827776,
                0.7607994405076057,
                -3.007769638478609
            ]
        },
        {
            "positions": [
                0.7076721318092921,
                -1.908086413532691,
                2.3910686930038807,
                -0.4590832201272969,
                0.7174473127762154,
                -3.136281658545818
            ]
        }
    ]
}