{
    "goal": {
        "global_pose": {
            "orientation": {
                "w": -0.00223480608172531,
                "x": 0.0024358444001904467,
                "y": 0.7094548369677653,
                "z": -0.704743149386269
            },
            "position": {
                "x": -0.37947507619857795,
                "y": -0.6371506643295288,
                "z": 0.19426114857196808
            }
        },
        "name": "move_to_magneteinheit_C"
    },
    "id": "PRM_move_to_magneteinheit_C_76",
    "joint_names": [
        "shoulder_pan_joint",
        "shoulder_lift_joint",
        "elbow_joint",
        "wrist_1_joint",
        "wrist_2_joint",
        "wrist_3_joint"
    ],
    "metrics": {
        "cart_traj_len": 2.7740597017601183,
        "distance_elbow_joint": 3.5755961270860483,
        "distance_shoulder_lift_joint": 2.547841164127572,
        "distance_shoulder_pan_joint": 1.8868185620996327,
        "distance_wrist_1_joint": 1.8892777801192304,
        "distance_wrist_2_joint": 2.9876762499086715,
        "distance_wrist_3_joint": 1.7973587342911923,
        "smoothness": 1.0665770117412683,
        "time": 0.277710081,
        "traj_len": 3.8320449655024067,
        "weighted_distance": 4.812093111759438
    },
    "planner": "PRM",
    "start": {
        "state": {
            "elbow_joint": 1.9565354010623817,
            "shoulder_lift_joint": -1.4165861575791021,
            "shoulder_pan_joint": -1.6717766225146293,
            "wrist_1_joint": -0.5286633292919765,
            "wrist_2_joint": 1.472756589071564,
            "wrist_3_joint": -3.1238370188695823
        }
    },
    "waypoints": [
        {
            "positions": [
                -1.6717766225146293,
                -1.4165861575791021,
                1.9565354010623817,
                -0.5286633292919765,
                1.472756589071564,
                -3.1238370188695823
            ]
        },
        {
            "positions": [
                -1.551521427135717,
                -1.4336567439570957,
                2.0020816927403637,
                -0.5507117395717617,
                1.5408693465289005,
                -3.115605081829837
            ]
        },
        {
            "positions": [
                -1.4312662317568046,
                -1.4507273303350892,
                2.0476279844183463,
                -0.572760149851547,
                1.6089821039862369,
                -3.107373144790092
            ]
        },
        {
            "positions": [
                -1.3110110363778922,
                -1.4677979167130828,
                2.0931742760963283,
                -0.5948085601313322,
                1.6770948614435734,
                -3.0991412077503466
            ]
        },
        {
            "positions": [
                -1.3703118618716852,
                -1.5476744683034478,
                2.0538352722968636,
                -0.5131381472996838,
                1.6395397397972395,
                -3.0278509068157824
            ]
        },
        {
            "positions": [
                -1.4296126873654784,
                -1.627551019893813,
                2.0144962684973993,
                -0.4314677344680353,
                1.6019846181509056,
                -2.9565606058812177
            ]
        },
        {
            "positions": [
                -1.4889135128592714,
                -1.707427571484178,
                1.9751572646979347,
                -0.34979732163638694,
                1.5644294965045715,
                -2.8852703049466535
            ]
        },
        {
            "positions": [
                -1.5482143383530647,
                -1.7873041230745432,
                1.9358182608984702,
                -0.2681269088047385,
                1.5268743748582376,
                -2.8139800040120893
            ]
        },
        {
            "positions": [
                -1.6075151638468577,
                -1.8671806746649082,
                1.8964792570990057,
                -0.18645649597309005,
                1.4893192532119037,
                -2.7426897030775246
            ]
        },
        {
            "positions": [
                -1.666815989340651,
                -1.9470572262552732,
                1.8571402532995411,
                -0.10478608314144167,
                1.4517641315655698,
                -2.6713994021429603
            ]
        },
        {
            "positions": [
                -1.726116814834444,
                -2.026933777845638,
                1.8178012495000766,
                -0.023115670309793224,
                1.4142090099192357,
                -2.600109101208396
            ]
        },
        {
            "positions": [
                -1.785417640328237,
                -2.1068103294360037,
                1.778462245700612,
                0.05855474252185522,
                1.3766538882729018,
                -2.5288188002738314
            ]
        },
        {
            "positions": [
                -1.8447184658220301,
                -2.1866868810263687,
                1.7391232419011475,
                0.14022515535350366,
                1.339098766626568,
                -2.457528499339267
            ]
        },
        {
            "positions": [
                -1.8872752495394574,
                -2.099898351360285,
                1.6386269255629504,
                0.12525088639068113,
                1.2286691137083843,
                -2.441588121591964
            ]
        },
        {
            "positions": [
                -1.9298320332568848,
                -2.013109821694201,
                1.5381306092247535,
                0.11027661742785862,
                1.1182394607902006,
                -2.42564774384466
            ]
        },
        {
            "positions": [
                -1.972388816974312,
                -1.9263212920281172,
                1.4376342928865564,
                0.0953023484650361,
                1.007809807872017,
                -2.409707366097357
            ]
        },
        {
            "positions": [
                -2.0149456006917394,
                -1.8395327623620334,
                1.3371379765483593,
                0.08032807950221357,
                0.8973801549538334,
                -2.3937669883500536
            ]
        },
        {
            "positions": [
                -2.0575023844091667,
                -1.7527442326959495,
                1.2366416602101622,
                0.06535381053939104,
                0.7869505020356496,
                -2.37782661060275
            ]
        },
        {
            "positions": [
                -2.100059168126594,
                -1.6659557030298657,
                1.1361453438719653,
                0.05037954157656853,
                0.676520849117466,
                -2.3618862328554466
            ]
        },
        {
            "positions": [
                -2.1426159518440215,
                -1.579167173363782,
                1.0356490275337682,
                0.035405272613746,
                0.5660911961992824,
                -2.345945855108143
            ]
        },
        {
            "positions": [
                -2.1851727355614488,
                -1.4923786436976982,
                0.9351527111955712,
                0.020431003650923485,
                0.45566154328109876,
                -2.3300054773608396
            ]
        },
        {
            "positions": [
                -2.227729519278876,
                -1.4055901140316143,
                0.8346563948573741,
                0.005456734688100956,
                0.345231890362915,
                -2.3140650996135363
            ]
        },
        {
            "positions": [
                -2.270286302996303,
                -1.3188015843655305,
                0.7341600785191771,
                -0.009517534274721573,
                0.2348022374447314,
                -2.2981247218662326
            ]
        },
        {
            "positions": [
                -2.3128430867137304,
                -1.2320130546994468,
                0.63366376218098,
                -0.024491803237544102,
                0.12437258452654776,
                -2.2821843441189293
            ]
        },
        {
            "positions": [
                -2.3553998704311576,
                -1.145224525033363,
                0.5331674458427831,
                -0.0394660722003666,
                0.013942931608364129,
                -2.266243966371626
            ]
        },
        {
            "positions": [
                -2.3979566541485853,
                -1.058435995367279,
                0.43267112950458597,
                -0.05444034116318913,
                -0.0964867213098195,
                -2.2503035886243223
            ]
        },
        {
            "positions": [
                -2.4405134378660125,
                -0.9716474657011953,
                0.33217481316638897,
                -0.06941461012601166,
                -0.20691637422800313,
                -2.234363210877019
            ]
        },
        {
            "positions": [
                -2.4892210806481003,
                -0.936631905048154,
                0.4333363010459187,
                -0.05027620394371258,
                -0.2117701215408337,
                -2.328515456334508
            ]
        },
        {
            "positions": [
                -2.5379287234301886,
                -0.9016163443951126,
                0.5344977889254484,
                -0.031137797761413497,
                -0.21662386885366428,
                -2.422667701791997
            ]
        },
        {
            "positions": [
                -2.5866363662122764,
                -0.8666007837420713,
                0.6356592768049781,
                -0.011999391579114407,
                -0.22147761616649483,
                -2.516819947249486
            ]
        },
        {
            "positions": [
                -2.6039920390872235,
                -0.8465178780860034,
                0.8145743501654111,
                -0.02601315716094597,
                -0.1886803875704911,
                -2.6358374475314488
            ]
        },
        {
            "positions": [
                -2.621347711962171,
                -0.8264349724299357,
                0.993489423525844,
                -0.04002692274277753,
                -0.15588315897448735,
                -2.7548549478134117
            ]
        },
        {
            "positions": [
                -2.638703384837118,
                -0.806352066773868,
                1.172404496886277,
                -0.05404068832460909,
                -0.12308593037848362,
                -2.8738724480953746
            ]
        },
        {
            "positions": [
                -2.6560590577120653,
                -0.7862691611178001,
                1.35131957024671,
                -0.06805445390644066,
                -0.09028870178247989,
                -2.9928899483773375
            ]
        },
        {
            "positions": [
                -2.633433438383475,
                -0.8334345012142671,
                1.4336711992519402,
                -0.16367805233660326,
                0.003908371410342504,
                -3.011559721977126
            ]
        },
        {
            "positions": [
                -2.6108078190548847,
                -0.8805998413107341,
                1.5160228282571704,
                -0.25930165076676587,
                0.09810544460316489,
                -3.030229495576915
            ]
        },
        {
            "positions": [
                -2.5881821997262944,
                -0.927765181407201,
                1.5983744572624006,
                -0.35492524919692847,
                0.19230251779598728,
                -3.048899269176704
            ]
        },
        {
            "positions": [
                -2.565556580397704,
                -0.974930521503668,
                1.6807260862676308,
                -0.4505488476270911,
                0.28649959098880967,
                -3.067569042776493
            ]
        },
        {
            "positions": [
                -2.5429309610691138,
                -1.022095861600135,
                1.763077715272861,
                -0.5461724460572537,
                0.38069666418163206,
                -3.0862388163762815
            ]
        },
        {
            "positions": [
                -2.5203053417405235,
                -1.0692612016966019,
                1.8454293442780911,
                -0.6417960444874162,
                0.47489373737445445,
                -3.1049085899760707
            ]
        },
        {
            "positions": [
                -2.497679722411933,
                -1.1164265417930688,
                1.9277809732833213,
                -0.737419642917579,
                0.569090810567277,
                -3.1235783635758594
            ]
        },
        {
            "positions": [
                -2.475054103083343,
                -1.1635918818895359,
                2.0101326022885515,
                -0.8330432413477414,
                0.6632878837600992,
                -3.142248137175648
            ]
        }
    ]
}