{
    "goal": {
        "global_pose": {
            "orientation": {
                "w": -0.00223480608172531,
                "x": 0.0024358444001904467,
                "y": 0.7094548369677653,
                "z": -0.704743149386269
            },
            "position": {
                "x": -0.37947507619857795,
                "y": -0.6371506643295288,
                "z": 0.19426114857196808
            }
        },
        "name": "move_to_magneteinheit_C"
    },
    "id": "PRM_move_to_magneteinheit_C_114",
    "joint_names": [
        "shoulder_pan_joint",
        "shoulder_lift_joint",
        "elbow_joint",
        "wrist_1_joint",
        "wrist_2_joint",
        "wrist_3_joint"
    ],
    "metrics": {
        "cart_traj_len": 2.392561990625677,
        "distance_elbow_joint": 1.3790164932866884,
        "distance_shoulder_lift_joint": 0.7298702624026445,
        "distance_shoulder_pan_joint": 2.5602748768106927,
        "distance_wrist_1_joint": 5.540967489779191,
        "distance_wrist_2_joint": 0.9362853332151458,
        "distance_wrist_3_joint": 2.3974178782259616,
        "smoothness": 0.8560309797838246,
        "time": 0.30730054700000003,
        "traj_len": 3.680194605414274,
        "weighted_distance": 4.98155808087857
    },
    "planner": "PRM",
    "start": {
        "state": {
            "elbow_joint": 1.9565354010623817,
            "shoulder_lift_joint": -1.4165861575791021,
            "shoulder_pan_joint": -1.6717766225146293,
            "wrist_1_joint": -0.5286633292919765,
            "wrist_2_joint": 1.472756589071564,
            "wrist_3_joint": -3.1238370188695823
        }
    },
    "waypoints": [
        {
            "positions": [
                -1.6717766225146293,
                -1.4165861575791021,
                1.9565354010623817,
                -0.5286633292919765,
                1.472756589071564,
                -3.1238370188695823
            ]
        },
        {
            "positions": [
                -1.6212983363292002,
                -1.4314569043264298,
                1.9172325848836598,
                -0.36498625097012216,
                1.4251363992781718,
                -3.049963818893013
            ]
        },
        {
            "positions": [
                -1.5708200501437712,
                -1.4463276510737575,
                1.8779297687049379,
                -0.20130917264826786,
                1.3775162094847797,
                -2.976090618916444
            ]
        },
        {
            "positions": [
                -1.520341763958342,
                -1.4611983978210852,
                1.838626952526216,
                -0.03763209432641357,
                1.3298960196913876,
                -2.9022174189398746
            ]
        },
        {
            "positions": [
                -1.469863477772913,
                -1.4760691445684129,
                1.799324136347494,
                0.12604498399544073,
                1.2822758298979955,
                -2.8283442189633057
            ]
        },
        {
            "positions": [
                -1.4193851915874838,
                -1.4909398913157406,
                1.760021320168772,
                0.289722062317295,
                1.2346556401046034,
                -2.7544710189867363
            ]
        },
        {
            "positions": [
                -1.3689069054020548,
                -1.5058106380630683,
                1.72071850399005,
                0.4533991406391493,
                1.1870354503112113,
                -2.6805978190101674
            ]
        },
        {
            "positions": [
                -1.3184286192166257,
                -1.520681384810396,
                1.6814156878113282,
                0.6170762189610037,
                1.1394152605178194,
                -2.606724619033598
            ]
        },
        {
            "positions": [
                -1.2679503330311968,
                -1.5355521315577239,
                1.6421128716326063,
                0.7807532972828579,
                1.091795070724427,
                -2.532851419057029
            ]
        },
        {
            "positions": [
                -1.2174720468457676,
                -1.5504228783050515,
                1.6028100554538844,
                0.9444303756047121,
                1.0441748809310352,
                -2.4589782190804597
            ]
        },
        {
            "positions": [
                -1.1669937606603384,
                -1.5652936250523792,
                1.5635072392751626,
                1.1081074539265665,
                0.996554691137643,
                -2.3851050191038903
            ]
        },
        {
            "positions": [
                -1.1165154744749093,
                -1.580164371799707,
                1.5242044230964407,
                1.271784532248421,
                0.9489345013442508,
                -2.3112318191273213
            ]
        },
        {
            "positions": [
                -1.0660371882894804,
                -1.5950351185470346,
                1.4849016069177186,
                1.435461610570275,
                0.9013143115508588,
                -2.237358619150752
            ]
        },
        {
            "positions": [
                -1.0155589021040512,
                -1.6099058652943623,
                1.4455987907389969,
                1.5991386888921293,
                0.8536941217574667,
                -2.163485419174183
            ]
        },
        {
            "positions": [
                -0.9650806159186222,
                -1.62477661204169,
                1.4062959745602748,
                1.762815767213984,
                0.8060739319640746,
                -2.0896122191976136
            ]
        },
        {
            "positions": [
                -0.914602329733193,
                -1.6396473587890177,
                1.3669931583815529,
                1.926492845535838,
                0.7584537421706825,
                -2.0157390192210443
            ]
        },
        {
            "positions": [
                -0.864124043547764,
                -1.6545181055363454,
                1.327690342202831,
                2.090169923857692,
                0.7108335523772904,
                -1.9418658192444753
            ]
        },
        {
            "positions": [
                -0.9761504311150437,
                -1.6233451843421878,
                1.375432965625425,
                1.9438170606990437,
                0.7039801382665419,
                -1.9832516779010692
            ]
        },
        {
            "positions": [
                -1.0881768186823235,
                -1.59217226314803,
                1.4231755890480189,
                1.797464197540395,
                0.6971267241557935,
                -2.024637536557663
            ]
        },
        {
            "positions": [
                -1.2002032062496033,
                -1.5609993419538724,
                1.470918212470613,
                1.6511113343817465,
                0.6902733100450451,
                -2.0660233952142564
            ]
        },
        {
            "positions": [
                -1.312229593816883,
                -1.5298264207597145,
                1.518660835893207,
                1.5047584712230981,
                0.6834198959342966,
                -2.10740925387085
            ]
        },
        {
            "positions": [
                -1.4242559813841627,
                -1.498653499565557,
                1.566403459315801,
                1.3584056080644498,
                0.6765664818235482,
                -2.148795112527444
            ]
        },
        {
            "positions": [
                -1.5362823689514427,
                -1.4674805783713993,
                1.614146082738395,
                1.212052744905801,
                0.6697130677127997,
                -2.190180971184038
            ]
        },
        {
            "positions": [
                -1.6483087565187222,
                -1.4363076571772415,
                1.661888706160989,
                1.0656998817471526,
                0.6628596536020512,
                -2.2315668298406317
            ]
        },
        {
            "positions": [
                -1.760335144086002,
                -1.405134735983084,
                1.709631329583583,
                0.9193470185885042,
                0.6560062394913029,
                -2.272952688497225
            ]
        },
        {
            "positions": [
                -1.8723615316532818,
                -1.373961814788926,
                1.757373953006177,
                0.7729941554298556,
                0.6491528253805544,
                -2.314338547153819
            ]
        },
        {
            "positions": [
                -1.9843879192205613,
                -1.3427888935947685,
                1.8051165764287709,
                0.6266412922712072,
                0.6422994112698059,
                -2.3557244058104128
            ]
        },
        {
            "positions": [
                -2.096414306787841,
                -1.311615972400611,
                1.852859199851365,
                0.48028842911255887,
                0.6354459971590575,
                -2.3971102644670066
            ]
        },
        {
            "positions": [
                -2.2084406943551214,
                -1.280443051206453,
                1.9006018232739592,
                0.33393556595391005,
                0.628592583048309,
                -2.4384961231236004
            ]
        },
        {
            "positions": [
                -2.3204670819224007,
                -1.2492701300122955,
                1.9483444466965532,
                0.18758270279526168,
                0.6217391689375606,
                -2.479881981780194
            ]
        },
        {
            "positions": [
                -2.4324934694896805,
                -1.2180972088181377,
                1.996087070119147,
                0.041229839636613086,
                0.6148857548268122,
                -2.5212678404367876
            ]
        },
        {
            "positions": [
                -2.5445198570569603,
                -1.18692428762398,
                2.043829693541741,
                -0.10512302352203517,
                0.6080323407160637,
                -2.5626536990933815
            ]
        },
        {
            "positions": [
                -2.5264632359733024,
                -1.180838163490721,
                2.035321672769684,
                -0.28683334583448367,
                0.6259226119309751,
                -2.7113183987813687
            ]
        },
        {
            "positions": [
                -2.508406614889645,
                -1.174752039357462,
                2.026813651997627,
                -0.46854366814693216,
                0.6438128831458865,
                -2.859983098469356
            ]
        },
        {
            "positions": [
                -2.490349993805987,
                -1.1686659152242032,
                2.0183056312255703,
                -0.6502539904593806,
                0.661703154360798,
                -3.0086477981573427
            ]
        },
        {
            "positions": [
                -2.472293372722329,
                -1.1625797910909441,
                2.0097976104535134,
                -0.8319643127718291,
                0.6795934255757093,
                -3.15731249784533
            ]
        }
    ]
}