{
    "goal": {
        "global_pose": {
            "orientation": {
                "w": 0.7047431493862688,
                "x": -0.7094548369677653,
                "y": 0.0024358444001904,
                "z": -0.0022348060817251984
            },
            "position": {
                "x": -0.39052492380142206,
                "y": 0.3671506643295288,
                "z": 0.19426114857196808
            }
        },
        "name": "move_to_magneteinheit_D"
    },
    "id": "PRM_move_to_magneteinheit_D_113",
    "joint_names": [
        "shoulder_pan_joint",
        "shoulder_lift_joint",
        "elbow_joint",
        "wrist_1_joint",
        "wrist_2_joint",
        "wrist_3_joint"
    ],
    "metrics": {
        "cart_traj_len": 4.387563488838079,
        "distance_elbow_joint": 5.333420268135217,
        "distance_shoulder_lift_joint": 1.62679478178517,
        "distance_shoulder_pan_joint": 3.325065835669237,
        "distance_wrist_1_joint": 1.8621535654019261,
        "distance_wrist_2_joint": 2.725327121818199,
        "distance_wrist_3_joint": 4.706874661007713,
        "smoothness": 0.45894177209023657,
        "time": 0.340541885,
        "traj_len": 4.424888273597139,
        "weighted_distance": 5.794900020108459
    },
    "planner": "PRM",
    "start": {
        "state": {
            "elbow_joint": 0.749534889911806,
            "shoulder_lift_joint": -0.6476975780787326,
            "shoulder_pan_joint": -2.711696901376241,
            "wrist_1_joint": -0.07506478083263063,
            "wrist_2_joint": 0.43296659715538205,
            "wrist_3_joint": -3.14703540197715
        }
    },
    "waypoints": [
        {
            "positions": [
                -2.711696901376241,
                -0.6476975780787326,
                0.749534889911806,
                -0.07506478083263063,
                0.43296659715538205,
                -3.14703540197715
            ]
        },
        {
            "positions": [
                -2.7418596151636154,
                -0.6785065416701919,
                0.8025050242523316,
                -0.13091429901314355,
                0.5075325375000764,
                -3.0073954710910544
            ]
        },
        {
            "positions": [
                -2.77202232895099,
                -0.709315505261651,
                0.8554751585928574,
                -0.18676381719365648,
                0.5820984778447708,
                -2.867755540204959
            ]
        },
        {
            "positions": [
                -2.8021850427383646,
                -0.7401244688531102,
                0.908445292933383,
                -0.2426133353741694,
                0.6566644181894651,
                -2.728115609318863
            ]
        },
        {
            "positions": [
                -2.773850559491582,
                -0.7824473677111392,
                0.9850347212082633,
                -0.2237565289889863,
                0.7300425116228382,
                -2.590725213725216
            ]
        },
        {
            "positions": [
                -2.745516076244799,
                -0.8247702665691681,
                1.0616241494831433,
                -0.20489972260380318,
                0.8034206050562112,
                -2.453334818131569
            ]
        },
        {
            "positions": [
                -2.7171815929980165,
                -0.867093165427197,
                1.1382135777580236,
                -0.18604291621862007,
                0.8767986984895841,
                -2.315944422537922
            ]
        },
        {
            "positions": [
                -2.688847109751234,
                -0.909416064285226,
                1.2148030060329038,
                -0.16718610983343696,
                0.9501767919229572,
                -2.178554026944275
            ]
        },
        {
            "positions": [
                -2.6605126265044516,
                -0.951738963143255,
                1.291392434307784,
                -0.14832930344825385,
                1.0235548853563303,
                -2.041163631350628
            ]
        },
        {
            "positions": [
                -2.632178143257669,
                -0.994061862001284,
                1.3679818625826643,
                -0.12947249706307076,
                1.0969329787897033,
                -1.903773235756981
            ]
        },
        {
            "positions": [
                -2.6038436600108863,
                -1.0363847608593129,
                1.4445712908575445,
                -0.11061569067788765,
                1.1703110722230763,
                -1.7663828401633337
            ]
        },
        {
            "positions": [
                -2.5755091767641036,
                -1.0787076597173417,
                1.5211607191324246,
                -0.09175888429270454,
                1.2436891656564493,
                -1.6289924445696868
            ]
        },
        {
            "positions": [
                -2.547174693517321,
                -1.1210305585753708,
                1.5977501474073048,
                -0.07290207790752143,
                1.3170672590898225,
                -1.4916020489760398
            ]
        },
        {
            "positions": [
                -2.4338706319198504,
                -1.152444212743462,
                1.6596541553483641,
                0.06750048598316075,
                1.3331052984236038,
                -1.4616192714516205
            ]
        },
        {
            "positions": [
                -2.32056657032238,
                -1.183857866911553,
                1.7215581632894237,
                0.20790304987384292,
                1.349143337757385,
                -1.431636493927201
            ]
        },
        {
            "positions": [
                -2.2072625087249094,
                -1.2152715210796439,
                1.7834621712304832,
                0.34830561376452507,
                1.365181377091166,
                -1.4016537164027816
            ]
        },
        {
            "positions": [
                -2.093958447127439,
                -1.246685175247735,
                1.8453661791715426,
                0.48870817765520724,
                1.3812194164249474,
                -1.3716709388783623
            ]
        },
        {
            "positions": [
                -2.0544700174410133,
                -1.2759676282766195,
                1.8139581257375879,
                0.5653587671299892,
                1.352045563512477,
                -1.2709789731424659
            ]
        },
        {
            "positions": [
                -2.0149815877545882,
                -1.3052500813055037,
                1.7825500723036334,
                0.6420093566047711,
                1.3228717106000065,
                -1.1702870074065694
            ]
        },
        {
            "positions": [
                -1.975493158068163,
                -1.3345325343343881,
                1.7511420188696787,
                0.7186599460795531,
                1.2936978576875362,
                -1.0695950416706728
            ]
        },
        {
            "positions": [
                -1.9360047283817376,
                -1.3638149873632726,
                1.719733965435724,
                0.7953105355543351,
                1.2645240047750659,
                -0.9689030759347764
            ]
        },
        {
            "positions": [
                -1.8567647604710642,
                -1.3829146135970187,
                1.5707466507454273,
                0.8189004724288671,
                1.2116001299787114,
                -0.9004001467617305
            ]
        },
        {
            "positions": [
                -1.777524792560391,
                -1.402014239830765,
                1.4217593360551306,
                0.8424904093033992,
                1.158676255182357,
                -0.8318972175886847
            ]
        },
        {
            "positions": [
                -1.6982848246497175,
                -1.421113866064511,
                1.272772021364834,
                0.8660803461779313,
                1.1057523803860025,
                -0.7633942884156388
            ]
        },
        {
            "positions": [
                -1.619044856739044,
                -1.4402134922982575,
                1.1237847066745372,
                0.8896702830524633,
                1.0528285055896482,
                -0.6948913592425929
            ]
        },
        {
            "positions": [
                -1.5398048888283706,
                -1.4593131185320036,
                0.9747973919842405,
                0.9132602199269955,
                0.9999046307932937,
                -0.6263884300695471
            ]
        },
        {
            "positions": [
                -1.4605649209176974,
                -1.4784127447657498,
                0.8258100772939438,
                0.9368501568015275,
                0.9469807559969394,
                -0.5578855008965014
            ]
        },
        {
            "positions": [
                -1.3813249530070242,
                -1.497512370999496,
                0.6768227626036474,
                0.9604400936760595,
                0.8940568812005849,
                -0.4893825717234555
            ]
        },
        {
            "positions": [
                -1.3020849850963505,
                -1.5166119972332421,
                0.5278354479133505,
                0.9840300305505916,
                0.8411330064042305,
                -0.42087964255040955
            ]
        },
        {
            "positions": [
                -1.2228450171856773,
                -1.5357116234669883,
                0.378848133223054,
                1.0076199674251236,
                0.7882091316078761,
                -0.35237671337736376
            ]
        },
        {
            "positions": [
                -1.1436050492750038,
                -1.5548112497007347,
                0.22986081853275708,
                1.0312099042996559,
                0.7352852568115217,
                -0.28387378420431786
            ]
        },
        {
            "positions": [
                -1.0643650813643304,
                -1.5739108759344809,
                0.08087350384246061,
                1.054799841174188,
                0.6823613820151673,
                -0.21537085503127207
            ]
        },
        {
            "positions": [
                -0.985125113453657,
                -1.593010502168227,
                -0.0681138108478363,
                1.07838977804872,
                0.6294375072188129,
                -0.14686792585822617
            ]
        },
        {
            "positions": [
                -0.9058851455429837,
                -1.6121101284019732,
                -0.21710112553813277,
                1.101979714923252,
                0.5765136324224585,
                -0.07836499668518038
            ]
        },
        {
            "positions": [
                -0.8266451776323105,
                -1.6312097546357194,
                -0.36608844022842923,
                1.125569651797784,
                0.523589757626104,
                -0.009862067512134587
            ]
        },
        {
            "positions": [
                -0.747405209721637,
                -1.6503093808694655,
                -0.5150757549187257,
                1.149159588672316,
                0.47066588282974964,
                0.0586408616609112
            ]
        },
        {
            "positions": [
                -0.6681652418109636,
                -1.6694090071032117,
                -0.6640630696090231,
                1.1727495255468483,
                0.4177420080333951,
                0.12714379083395733
            ]
        },
        {
            "positions": [
                -0.5889252739002901,
                -1.688508633336958,
                -0.8130503842993195,
                1.1963394624213803,
                0.3648181332370408,
                0.195646720007003
            ]
        },
        {
            "positions": [
                -0.5096853059896169,
                -1.7076082595707043,
                -0.962037698989616,
                1.2199293992959124,
                0.3118942584406864,
                0.2641496491800489
            ]
        },
        {
            "positions": [
                -0.4304453380789435,
                -1.7267078858044504,
                -1.1110250136799125,
                1.2435193361704444,
                0.258970383644332,
                0.3326525783530946
            ]
        },
        {
            "positions": [
                -0.35120537016827,
                -1.7458075120381966,
                -1.2600123283702098,
                1.2671092730449764,
                0.20604650884797748,
                0.4011555075261407
            ]
        },
        {
            "positions": [
                -0.2719654022575966,
                -1.7649071382719428,
                -1.4089996430605063,
                1.2906992099195085,
                0.15312263405162319,
                0.4696584366991864
            ]
        },
        {
            "positions": [
                -0.19272543434692335,
                -1.784006764505689,
                -1.5579869577508028,
                1.3142891467940405,
                0.10019875925526867,
                0.5381613658722323
            ]
        },
        {
            "positions": [
                -0.1134854664362499,
                -1.8031063907394351,
                -1.7069742724410992,
                1.3378790836685726,
                0.04727488445891437,
                0.606664295045278
            ]
        },
        {
            "positions": [
                -0.03424549852557646,
                -1.8222060169731815,
                -1.8559615871313966,
                1.3614690205431048,
                -0.005648990337440152,
                0.6751672242183241
            ]
        },
        {
            "positions": [
                0.04499446938509699,
                -1.8413056432069277,
                -2.004948901821693,
                1.3850589574176368,
                -0.05857286513379467,
                0.7436701533913698
            ]
        },
        {
            "positions": [
                0.12423443729577034,
                -1.8604052694406739,
                -2.1539362165119895,
                1.4086488942921689,
                -0.11149673993014898,
                0.8121730825644158
            ]
        },
        {
            "positions": [
                0.06947900040280387,
                -1.9362815168606131,
                -2.206044090793898,
                1.4154666004029253,
                -0.05971010141415222,
                0.6730564868329172
            ]
        },
        {
            "positions": [
                0.014723563509837403,
                -2.012157764280553,
                -2.258151965075807,
                1.4222843065136814,
                -0.007923462898155459,
                0.5339398911014186
            ]
        },
        {
            "positions": [
                -0.040031873383129066,
                -2.088034011700492,
                -2.310259839357716,
                1.4291020126244378,
                0.043863175617841296,
                0.39482329536992
            ]
        },
        {
            "positions": [
                -0.09478731027609555,
                -2.1639102591204313,
                -2.3623677136396246,
                1.4359197187351942,
                0.09564981413383807,
                0.2557066996384214
            ]
        },
        {
            "positions": [
                -0.13935554362665178,
                -2.219201309492167,
                -2.377295256671781,
                1.4439556971107064,
                0.13425561019861376,
                0.16010680286834428
            ]
        },
        {
            "positions": [
                -0.18392377697720802,
                -2.2744923598639026,
                -2.3922227997039367,
                1.4519916754862183,
                0.17286140626338944,
                0.06450690609826713
            ]
        }
    ]
}