{
    "goal": {
        "global_pose": {
            "orientation": {
                "w": 0.7031023480610252,
                "x": -0.7110244013736278,
                "y": 0.0077485991402295624,
                "z": 0.005598929693374583
            },
            "position": {
                "x": -0.8841497679147869,
                "y": 0.44412534475326537,
                "z": 0.3711530566215515
            }
        },
        "name": "move_to_auspresseinheit_D"
    },
    "id": "PRM_move_to_auspresseinheit_D_72",
    "joint_names": [
        "shoulder_pan_joint",
        "shoulder_lift_joint",
        "elbow_joint",
        "wrist_1_joint",
        "wrist_2_joint",
        "wrist_3_joint"
    ],
    "metrics": {
        "cart_traj_len": 0.3450404982772155,
        "distance_elbow_joint": 0.6736053394838584,
        "distance_shoulder_lift_joint": 0.1414409290472678,
        "distance_shoulder_pan_joint": 0.13409934516573718,
        "distance_wrist_1_joint": 0.639503089519398,
        "distance_wrist_2_joint": 1.4439943596077447,
        "distance_wrist_3_joint": 0.09599049425406303,
        "smoothness": 0.0,
        "time": 0.022418562,
        "traj_len": 1.768794379535979,
        "weighted_distance": 2.32467459974796
    },
    "planner": "PRM",
    "start": {
        "state": {
            "elbow_joint": -1.8275523626775212,
            "shoulder_lift_joint": -2.126789852344167,
            "shoulder_pan_joint": -0.03513704404078235,
            "wrist_1_joint": -2.347782403156801,
            "wrist_2_joint": -1.6058999987535132,
            "wrist_3_joint": -3.0880379163319196
        }
    },
    "waypoints": [
        {
            "positions": [
                -0.03513704404078235,
                -2.126789852344167,
                -1.8275523626775212,
                -2.347782403156801,
                -1.6058999987535132,
                -3.0880379163319196
            ]
        },
        {
            "positions": [
                -0.0518994621864995,
                -2.144469968475075,
                -1.743351695242039,
                -2.4277202893467256,
                -1.4254007038025451,
                -3.0760391045501616
            ]
        },
        {
            "positions": [
                -0.06866188033221665,
                -2.162150084605984,
                -1.6591510278065567,
                -2.5076581755366503,
                -1.244901408851577,
                -3.0640402927684036
            ]
        },
        {
            "positions": [
                -0.08542429847793379,
                -2.1798302007368924,
                -1.5749503603710742,
                -2.587596061726575,
                -1.0644021139006088,
                -3.052041480986646
            ]
        },
        {
            "positions": [
                -0.10218671662365095,
                -2.1975103168678007,
                -1.4907496929355921,
                -2.6675339479164997,
                -0.8839028189496408,
                -3.040042669204888
            ]
        },
        {
            "positions": [
                -0.11894913476936808,
                -2.215190432998709,
                -1.4065490255001096,
                -2.747471834106425,
                -0.7034035239986728,
                -3.02804385742313
            ]
        },
        {
            "positions": [
                -0.13571155291508524,
                -2.2328705491296175,
                -1.3223483580646274,
                -2.8274097202963495,
                -0.5229042290477046,
                -3.0160450456413725
            ]
        },
        {
            "positions": [
                -0.15247397106080238,
                -2.2505506652605263,
                -1.238147690629145,
                -2.907347606486274,
                -0.34240493409673656,
                -3.0040462338596146
            ]
        },
        {
            "positions": [
                -0.16923638920651954,
                -2.2682307813914346,
                -1.1539470231936628,
                -2.987285492676199,
                -0.16190563914576853,
                -2.9920474220778566
            ]
        }
    ]
}