{
    "goal": {
        "global_pose": {
            "orientation": {
                "w": -0.4816463035849501,
                "x": 0.5182115481033762,
                "y": 0.4908360881923453,
                "z": -0.5084816262002911
            },
            "position": {
                "x": -0.8240239810943604,
                "y": -0.300875300988555,
                "z": 0.16403168439865112
            }
        },
        "name": "move_to_storage_C"
    },
    "id": "PRM_move_to_storage_C_75",
    "joint_names": [
        "shoulder_pan_joint",
        "shoulder_lift_joint",
        "elbow_joint",
        "wrist_1_joint",
        "wrist_2_joint",
        "wrist_3_joint"
    ],
    "metrics": {
        "cart_traj_len": 0.5765856743815209,
        "distance_elbow_joint": 0.2565942717841343,
        "distance_shoulder_lift_joint": 0.18901832009097463,
        "distance_shoulder_pan_joint": 0.49432874414101313,
        "distance_wrist_1_joint": 0.07449181387333248,
        "distance_wrist_2_joint": 1.0727054419411641,
        "distance_wrist_3_joint": 0.07041835669646446,
        "smoothness": 2.5376526478085547e-16,
        "time": 0.015117605000000001,
        "traj_len": 1.4688624675329829,
        "weighted_distance": 1.8562302976017033
    },
    "planner": "PRM",
    "start": {
        "state": {
            "elbow_joint": 2.010868314990456,
            "shoulder_lift_joint": -1.1634956873337592,
            "shoulder_pan_joint": -2.4736205022346125,
            "wrist_1_joint": -0.8367026794202681,
            "wrist_2_joint": 0.6746043897044499,
            "wrist_3_joint": -3.1496632123970403
        }
    },
    "waypoints": [
        {
            "positions": [
                -2.4736205022346125,
                -1.1634956873337592,
                2.010868314990456,
                -0.8367026794202681,
                0.6746043897044499,
                -3.1496632123970403
            ]
        },
        {
            "positions": [
                -2.5560086262581145,
                -1.1319926339852635,
                1.9681026030264335,
                -0.824287377108046,
                0.8533886300279773,
                -3.137926819614296
            ]
        },
        {
            "positions": [
                -2.638396750281617,
                -1.1004895806367676,
                1.9253368910624111,
                -0.8118720747958239,
                1.0321728703515047,
                -3.126190426831552
            ]
        },
        {
            "positions": [
                -2.720784874305119,
                -1.068986527288272,
                1.8825711790983886,
                -0.7994567724836019,
                1.2109571106750319,
                -3.114454034048808
            ]
        },
        {
            "positions": [
                -2.803172998328621,
                -1.037483473939776,
                1.8398054671343662,
                -0.7870414701713798,
                1.3897413509985594,
                -3.102717641266064
            ]
        },
        {
            "positions": [
                -2.8855611223521236,
                -1.0059804205912803,
                1.7970397551703439,
                -0.7746261678591577,
                1.5685255913220866,
                -3.09098124848332
            ]
        },
        {
            "positions": [
                -2.9679492463756256,
                -0.9744773672427846,
                1.7542740432063215,
                -0.7622108655469356,
                1.747309831645614,
                -3.079244855700576
            ]
        }
    ]
}