{
    "goal": {
        "global_pose": {
            "orientation": {
                "w": 0.005598929693374612,
                "x": 0.007748599140229565,
                "y": 0.7110244013736278,
                "z": -0.7031023480610252
            },
            "position": {
                "x": 0.1141497679147869,
                "y": -0.7141253447532654,
                "z": 0.3711530566215515
            }
        },
        "name": "move_to_auspresseinheit_B"
    },
    "id": "PRM_move_to_auspresseinheit_B_87",
    "joint_names": [
        "shoulder_pan_joint",
        "shoulder_lift_joint",
        "elbow_joint",
        "wrist_1_joint",
        "wrist_2_joint",
        "wrist_3_joint"
    ],
    "metrics": {
        "cart_traj_len": 0.5644151533226155,
        "distance_elbow_joint": 0.05919223232032045,
        "distance_shoulder_lift_joint": 0.2966702090848157,
        "distance_shoulder_pan_joint": 0.5757713770878596,
        "distance_wrist_1_joint": 0.3181359116700694,
        "distance_wrist_2_joint": 1.0015738139914279,
        "distance_wrist_3_joint": 0.002621844328886791,
        "smoothness": 2.5376526478085547e-16,
        "time": 0.026120545,
        "traj_len": 1.501321214292058,
        "weighted_distance": 1.8918030560295251
    },
    "planner": "PRM",
    "start": {
        "state": {
            "elbow_joint": 2.0193083361928714,
            "shoulder_lift_joint": -1.1220246554650708,
            "shoulder_pan_joint": -1.0952077554168747,
            "wrist_1_joint": -0.8559753972642168,
            "wrist_2_joint": 0.4759566250798843,
            "wrist_3_joint": -3.1240929996934557
        }
    },
    "waypoints": [
        {
            "positions": [
                -1.0952077554168747,
                -1.1220246554650708,
                2.0193083361928714,
                -0.8559753972642168,
                0.4759566250798843,
                -3.1240929996934557
            ]
        },
        {
            "positions": [
                -1.1911696515981847,
                -1.1714696903125401,
                2.0094429641394846,
                -0.8029527453192052,
                0.6428855940784556,
                -3.1245299737482704
            ]
        },
        {
            "positions": [
                -1.2871315477794945,
                -1.2209147251600094,
                1.9995775920860979,
                -0.7499300933741937,
                0.8098145630770268,
                -3.1249669478030846
            ]
        },
        {
            "positions": [
                -1.3830934439608045,
                -1.2703597600074787,
                1.989712220032711,
                -0.696907441429182,
                0.9767435320755982,
                -3.125403921857899
            ]
        },
        {
            "positions": [
                -1.4790553401421143,
                -1.3198047948549478,
                1.9798468479793245,
                -0.6438847894841706,
                1.1436725010741695,
                -3.1258408959127135
            ]
        },
        {
            "positions": [
                -1.5750172363234243,
                -1.3692498297024172,
                1.9699814759259378,
                -0.590862137539159,
                1.3106014700727409,
                -3.126277869967528
            ]
        },
        {
            "positions": [
                -1.6709791325047343,
                -1.4186948645498865,
                1.960116103872551,
                -0.5378394855941474,
                1.4775304390713122,
                -3.1267148440223425
            ]
        }
    ]
}