{
    "goal": {
        "global_pose": {
            "orientation": {
                "w": 0.7047431468963623,
                "x": -0.7094548344612122,
                "y": 0.0024358443915843964,
                "z": -0.0022348060738295317
            },
            "position": {
                "x": 0.6094750761985779,
                "y": 0.3671506643295288,
                "z": 0.19426114857196808
            }
        },
        "name": "move_to_magneteinheit_A"
    },
    "id": "PRM_move_to_magneteinheit_A_50",
    "joint_names": [
        "shoulder_pan_joint",
        "shoulder_lift_joint",
        "elbow_joint",
        "wrist_1_joint",
        "wrist_2_joint",
        "wrist_3_joint"
    ],
    "metrics": {
        "cart_traj_len": 3.627297240123585,
        "distance_elbow_joint": 3.909560957939548,
        "distance_shoulder_lift_joint": 1.0485037421128824,
        "distance_shoulder_pan_joint": 2.7488156390757683,
        "distance_wrist_1_joint": 3.460113724473138,
        "distance_wrist_2_joint": 1.5456547324804912,
        "distance_wrist_3_joint": 4.34621468580523,
        "smoothness": 0.17179756191877182,
        "time": 0.071697696,
        "traj_len": 4.130237702831045,
        "weighted_distance": 5.54590491357823
    },
    "planner": "PRM",
    "start": {
        "state": {
            "elbow_joint": -1.9196185241190666,
            "shoulder_lift_joint": -1.2443396400964142,
            "shoulder_pan_joint": 2.6996025414629847,
            "wrist_1_joint": -1.5485510000780065,
            "wrist_2_joint": -1.5709468930060704,
            "wrist_3_joint": 0.4420197071253992
        }
    },
    "waypoints": [
        {
            "positions": [
                2.6996025414629847,
                -1.2443396400964142,
                -1.9196185241190666,
                -1.5485510000780065,
                -1.5709468930060704,
                0.4420197071253992
            ]
        },
        {
            "positions": [
                2.6016229483893896,
                -1.216261895157137,
                -1.8492417381227075,
                -1.479346140153027,
                -1.5157112319193369,
                0.5145152555316784
            ]
        },
        {
            "positions": [
                2.5036433553157944,
                -1.1881841502178596,
                -1.7788649521263487,
                -1.4101412802280477,
                -1.4604755708326036,
                0.5870108039379576
            ]
        },
        {
            "positions": [
                2.4056637622421992,
                -1.1601064052785826,
                -1.7084881661299895,
                -1.3409364203030685,
                -1.40523990974587,
                0.6595063523442368
            ]
        },
        {
            "positions": [
                2.3076841691686036,
                -1.1320286603393053,
                -1.6381113801336304,
                -1.271731560378089,
                -1.3500042486591366,
                0.7320019007505161
            ]
        },
        {
            "positions": [
                2.2097045760950085,
                -1.103950915400028,
                -1.5677345941372716,
                -1.2025267004531095,
                -1.294768587572403,
                0.8044974491567952
            ]
        },
        {
            "positions": [
                2.1117249830214133,
                -1.0758731704607507,
                -1.4973578081409125,
                -1.1333218405281302,
                -1.2395329264856698,
                0.8769929975630744
            ]
        },
        {
            "positions": [
                2.013745389947818,
                -1.0477954255214734,
                -1.4269810221445534,
                -1.064116980603151,
                -1.1842972653989363,
                0.9494885459693536
            ]
        },
        {
            "positions": [
                1.915765796874223,
                -1.0197176805821964,
                -1.3566042361481943,
                -0.9949121206781715,
                -1.1290616043122028,
                1.0219840943756329
            ]
        },
        {
            "positions": [
                1.8177862038006278,
                -0.9916399356429191,
                -1.2862274501518354,
                -0.9257072607531921,
                -1.0738259432254695,
                1.094479642781912
            ]
        },
        {
            "positions": [
                1.7198066107270327,
                -0.9635621907036418,
                -1.2158506641554763,
                -0.8565024008282127,
                -1.018590282138736,
                1.1669751911881914
            ]
        },
        {
            "positions": [
                1.6218270176534373,
                -0.9354844457643645,
                -1.1454738781591174,
                -0.7872975409032333,
                -0.9633546210520025,
                1.2394707395944704
            ]
        },
        {
            "positions": [
                1.5238474245798421,
                -0.9074067008250872,
                -1.0750970921627583,
                -0.718092680978254,
                -0.9081189599652691,
                1.3119662880007497
            ]
        },
        {
            "positions": [
                1.4258678315062467,
                -0.8793289558858101,
                -1.0047203061663992,
                -0.6488878210532746,
                -0.8528832988785356,
                1.384461836407029
            ]
        },
        {
            "positions": [
                1.3278882384326516,
                -0.8512512109465329,
                -0.9343435201700402,
                -0.5796829611282952,
                -0.7976476377918023,
                1.456957384813308
            ]
        },
        {
            "positions": [
                1.2299086453590562,
                -0.8231734660072556,
                -0.863966734173681,
                -0.5104781012033157,
                -0.7424119767050686,
                1.5294529332195874
            ]
        },
        {
            "positions": [
                1.1319290522854613,
                -0.7950957210679783,
                -0.7935899481773221,
                -0.44127324127833645,
                -0.6871763156183354,
                1.6019484816258664
            ]
        },
        {
            "positions": [
                1.0339494592118659,
                -0.767017976128701,
                -0.723213162180963,
                -0.37206838135335696,
                -0.6319406545316019,
                1.674444030032146
            ]
        },
        {
            "positions": [
                0.9359698661382707,
                -0.7389402311894239,
                -0.6528363761846041,
                -0.3028635214283777,
                -0.5767049934448685,
                1.746939578438425
            ]
        },
        {
            "positions": [
                0.8379902730646753,
                -0.7108624862501466,
                -0.5824595901882448,
                -0.2336586615033982,
                -0.521469332358135,
                1.8194351268447044
            ]
        },
        {
            "positions": [
                0.7400106799910804,
                -0.6827847413108694,
                -0.5120828041918859,
                -0.16445380157841893,
                -0.4662336712714015,
                1.8919306752509835
            ]
        },
        {
            "positions": [
                0.642031086917485,
                -0.6547069963715921,
                -0.4417060181955268,
                -0.09524894165343945,
                -0.410998010184668,
                1.9644262236572625
            ]
        },
        {
            "positions": [
                0.5440514938438898,
                -0.6266292514323148,
                -0.3713292321991679,
                -0.026044081728460178,
                -0.3557623490979347,
                2.036921772063542
            ]
        },
        {
            "positions": [
                0.4460719007702947,
                -0.5985515064930376,
                -0.3009524462028088,
                0.04316077819651931,
                -0.3005266880112012,
                2.109417320469821
            ]
        },
        {
            "positions": [
                0.3480923076966995,
                -0.5704737615537604,
                -0.23057566020644993,
                0.11236563812149858,
                -0.24529102692446791,
                2.1819128688761
            ]
        },
        {
            "positions": [
                0.2501127146231039,
                -0.5423960166144831,
                -0.1601988742100906,
                0.18157049804647807,
                -0.1900553658377342,
                2.2544084172823795
            ]
        },
        {
            "positions": [
                0.15213312154950875,
                -0.5143182716752059,
                -0.08982208821373172,
                0.25077535797145734,
                -0.1348197047510009,
                2.3269039656886585
            ]
        },
        {
            "positions": [
                0.05415352847591348,
                -0.48624052673592866,
                -0.01944530221737273,
                0.3199802178964367,
                -0.07958404366426747,
                2.399399514094938
            ]
        },
        {
            "positions": [
                0.05288047096872348,
                -0.5022631704523672,
                0.10591981092351557,
                0.42001611463271016,
                -0.0792136242608976,
                2.258916763319098
            ]
        },
        {
            "positions": [
                0.05160741346153348,
                -0.5182858141688058,
                0.23128492406440387,
                0.5200520113689836,
                -0.07884320485752774,
                2.1184340125432577
            ]
        },
        {
            "positions": [
                0.050334355954343483,
                -0.5343084578852444,
                0.3566500372052922,
                0.620087908105257,
                -0.07847278545415788,
                1.977951261767417
            ]
        },
        {
            "positions": [
                0.049061298447153484,
                -0.550331101601683,
                0.4820151503461805,
                0.7201238048415306,
                -0.07810236605078803,
                1.837468510991577
            ]
        },
        {
            "positions": [
                0.047788240939963485,
                -0.5663537453181215,
                0.6073802634870689,
                0.820159701577804,
                -0.07773194664741817,
                1.6969857602157365
            ]
        },
        {
            "positions": [
                0.046515183432773485,
                -0.5823763890345601,
                0.7327453766279571,
                0.9201955983140775,
                -0.07736152724404831,
                1.5565030094398964
            ]
        },
        {
            "positions": [
                0.045242125925583486,
                -0.5983990327509987,
                0.8581104897688455,
                1.0202314950503508,
                -0.07699110784067845,
                1.416020258664056
            ]
        },
        {
            "positions": [
                0.04396906841839349,
                -0.6144216764674373,
                0.9834756029097337,
                1.1202673917866244,
                -0.07662068843730858,
                1.2755375078882158
            ]
        },
        {
            "positions": [
                0.04269601091120349,
                -0.6304443201838759,
                1.1088407160506222,
                1.220303288522898,
                -0.07625026903393872,
                1.1350547571123752
            ]
        },
        {
            "positions": [
                0.04142295340401349,
                -0.6464669639003144,
                1.2342058291915103,
                1.3203391852591713,
                -0.07587984963056886,
                0.9945720063365351
            ]
        },
        {
            "positions": [
                0.04014989589682349,
                -0.662489607616753,
                1.359570942332399,
                1.4203750819954446,
                -0.07550943022719901,
                0.8540892555606949
            ]
        },
        {
            "positions": [
                0.03887683838963349,
                -0.6785122513331916,
                1.484936055473287,
                1.5204109787317184,
                -0.07513901082382915,
                0.7136065047848548
            ]
        },
        {
            "positions": [
                0.03760378088244349,
                -0.6945348950496302,
                1.6103011686141757,
                1.6204468754679917,
                -0.07476859142045929,
                0.5731237540090142
            ]
        },
        {
            "positions": [
                0.03633072337525349,
                -0.7105575387660688,
                1.7356662817550639,
                1.720482772204265,
                -0.07439817201708943,
                0.43264100323317406
            ]
        },
        {
            "positions": [
                0.06484533037126587,
                -0.7325867443401543,
                1.8204249991102033,
                1.7841760896012206,
                -0.09076684251425991,
                0.29194888057519797
            ]
        },
        {
            "positions": [
                0.09335993736727827,
                -0.7546159499142397,
                1.9051837164653427,
                1.847869406998176,
                -0.1071355130114304,
                0.15125675791722182
            ]
        },
        {
            "positions": [
                0.12187454436329065,
                -0.7766451554883252,
                1.989942433820482,
                1.9115627243951316,
                -0.12350418350860089,
                0.010564635259245671
            ]
        }
    ]
}