{
    "goal": {
        "global_pose": {
            "orientation": {
                "w": 0.7031023502349854,
                "x": -0.7110244035720825,
                "y": 0.007748599164187908,
                "z": 0.005598929710686207
            },
            "position": {
                "x": 0.11585023208521307,
                "y": 0.44412534475326537,
                "z": 0.3711530566215515
            }
        },
        "name": "move_to_auspresseinheit_A"
    },
    "id": "PRM_move_to_auspresseinheit_A_117",
    "joint_names": [
        "shoulder_pan_joint",
        "shoulder_lift_joint",
        "elbow_joint",
        "wrist_1_joint",
        "wrist_2_joint",
        "wrist_3_joint"
    ],
    "metrics": {
        "cart_traj_len": 1.5670038982729715,
        "distance_elbow_joint": 0.5165457154215742,
        "distance_shoulder_lift_joint": 1.3187523744549776,
        "distance_shoulder_pan_joint": 2.596082078580644,
        "distance_wrist_1_joint": 0.5731889296186777,
        "distance_wrist_2_joint": 1.3118054754148973,
        "distance_wrist_3_joint": 0.5919207946050391,
        "smoothness": 1.3654548382047937,
        "time": 0.143669783,
        "traj_len": 2.6283636293511234,
        "weighted_distance": 3.1586597414630564
    },
    "planner": "PRM",
    "start": {
        "state": {
            "elbow_joint": 2.4225746658250005,
            "shoulder_lift_joint": -1.3736534386056498,
            "shoulder_pan_joint": -0.3378633547517467,
            "wrist_1_joint": -1.0288598680537169,
            "wrist_2_joint": 1.233022673432363,
            "wrist_3_joint": -3.0940220416140027
        }
    },
    "waypoints": [
        {
            "positions": [
                -0.3378633547517467,
                -1.3736534386056498,
                2.4225746658250005,
                -1.0288598680537169,
                1.233022673432363,
                -3.0940220416140027
            ]
        },
        {
            "positions": [
                -0.1861581107720937,
                -1.4507248169302103,
                2.4427111098533807,
                -1.0049817580104026,
                1.1565406191216268,
                -3.071640770939408
            ]
        },
        {
            "positions": [
                -0.034452866792440695,
                -1.5277961952547707,
                2.4628475538817605,
                -0.9811036479670884,
                1.0800585648108905,
                -3.049259500264813
            ]
        },
        {
            "positions": [
                0.11725237718721232,
                -1.6048675735793312,
                2.4829839979101402,
                -0.9572255379237742,
                1.003576510500154,
                -3.026878229590218
            ]
        },
        {
            "positions": [
                0.26895762116686533,
                -1.6819389519038914,
                2.5031204419385205,
                -0.9333474278804599,
                0.9270944561894178,
                -3.004496958915623
            ]
        },
        {
            "positions": [
                0.42066286514651835,
                -1.759010330228452,
                2.5232568859669007,
                -0.9094693178371457,
                0.8506124018786814,
                -2.982115688241028
            ]
        },
        {
            "positions": [
                0.5723681091261714,
                -1.8360817085530123,
                2.5433933299952804,
                -0.8855912077938315,
                0.7741303475679451,
                -2.959734417566433
            ]
        },
        {
            "positions": [
                0.7240733531058245,
                -1.913153086877573,
                2.5635297740236602,
                -0.8617130977505172,
                0.6976482932572087,
                -2.9373531468918377
            ]
        },
        {
            "positions": [
                0.8757785970854775,
                -1.9902244652021333,
                2.5836662180520404,
                -0.837834987707203,
                0.6211662389464725,
                -2.9149718762172427
            ]
        },
        {
            "positions": [
                1.0274838410651306,
                -2.0672958435266935,
                2.6038026620804207,
                -0.8139568776638887,
                0.5446841846357361,
                -2.892590605542648
            ]
        },
        {
            "positions": [
                1.1791890850447835,
                -2.144367221851254,
                2.6239391061088004,
                -0.7900787676205745,
                0.4682021303249997,
                -2.870209334868053
            ]
        },
        {
            "positions": [
                1.3308943290244364,
                -2.221438600175815,
                2.64407555013718,
                -0.7662006575772602,
                0.3917200760142635,
                -2.847828064193458
            ]
        },
        {
            "positions": [
                1.4825995730040895,
                -2.298509978500375,
                2.6642119941655604,
                -0.742322547533946,
                0.31523802170352716,
                -2.825446793518863
            ]
        },
        {
            "positions": [
                1.3717968371719742,
                -2.2422391449917676,
                2.6249393674397012,
                -0.7013723176626736,
                0.37152671080153593,
                -2.8716390144488484
            ]
        },
        {
            "positions": [
                1.2609941013398587,
                -2.18596831148316,
                2.585666740713842,
                -0.6604220877914012,
                0.4278153998995447,
                -2.9178312353788343
            ]
        },
        {
            "positions": [
                1.1501913655077434,
                -2.1296974779745526,
                2.546394113987983,
                -0.6194718579201288,
                0.48410408899755353,
                -2.9640234563088197
            ]
        },
        {
            "positions": [
                1.039388629675628,
                -2.073426644465945,
                2.5071214872621237,
                -0.5785216280488563,
                0.5403927780955623,
                -3.0102156772388056
            ]
        },
        {
            "positions": [
                0.9285858938435125,
                -2.0171558109573375,
                2.4678488605362645,
                -0.5375713981775839,
                0.5966814671935711,
                -3.056407898168791
            ]
        },
        {
            "positions": [
                0.8177831580113972,
                -1.9608849774487302,
                2.4285762338104053,
                -0.49662116830631153,
                0.6529701562915798,
                -3.102600119098777
            ]
        },
        {
            "positions": [
                0.7069804221792818,
                -1.9046141439401227,
                2.389303607084546,
                -0.45567093843503914,
                0.7092588453895886,
                -3.1487923400287623
            ]
        }
    ]
}