{
    "goal": {
        "global_pose": {
            "orientation": {
                "w": -0.00223480608172531,
                "x": 0.0024358444001904467,
                "y": 0.7094548369677653,
                "z": -0.704743149386269
            },
            "position": {
                "x": 0.6205249238014221,
                "y": -0.6371506643295288,
                "z": 0.19426114857196808
            }
        },
        "name": "move_to_magneteinheit_B"
    },
    "id": "PRM_move_to_magneteinheit_B_14",
    "joint_names": [
        "shoulder_pan_joint",
        "shoulder_lift_joint",
        "elbow_joint",
        "wrist_1_joint",
        "wrist_2_joint",
        "wrist_3_joint"
    ],
    "metrics": {
        "cart_traj_len": 3.680814889278988,
        "distance_elbow_joint": 4.285010834707832,
        "distance_shoulder_lift_joint": 1.0638877574510683,
        "distance_shoulder_pan_joint": 3.330484523654835,
        "distance_wrist_1_joint": 1.020199765948338,
        "distance_wrist_2_joint": 1.5421971818702032,
        "distance_wrist_3_joint": 1.1505458074378443,
        "smoothness": 0.5810630419947106,
        "time": 0.350408234,
        "traj_len": 3.5202735506022993,
        "weighted_distance": 4.154011848052958
    },
    "planner": "PRM",
    "start": {
        "state": {
            "elbow_joint": 2.6216224122426386,
            "shoulder_lift_joint": -1.4174107377796124,
            "shoulder_pan_joint": 0.7066234856936794,
            "wrist_1_joint": 1.9546482284002225,
            "wrist_2_joint": -0.7096286983471962,
            "wrist_3_joint": 0.005740856962016249
        }
    },
    "waypoints": [
        {
            "positions": [
                0.7066234856936794,
                -1.4174107377796124,
                2.6216224122426386,
                1.9546482284002225,
                -0.7096286983471962,
                0.005740856962016249
            ]
        },
        {
            "positions": [
                0.6563317569109739,
                -1.4497377593117955,
                2.609879242344819,
                1.9680465708924924,
                -0.7717324554383922,
                -0.05340118587925686
            ]
        },
        {
            "positions": [
                0.6060400281282685,
                -1.4820647808439786,
                2.598136072447,
                1.9814449133847623,
                -0.8338362125295882,
                -0.11254322872052996
            ]
        },
        {
            "positions": [
                0.5658675698830795,
                -1.5028064503766456,
                2.498327723457046,
                1.9169815287794294,
                -0.8633683378503281,
                -0.14694092762705982
            ]
        },
        {
            "positions": [
                0.5256951116378906,
                -1.5235481199093126,
                2.3985193744670923,
                1.8525181441740963,
                -0.892900463171068,
                -0.18133862653358968
            ]
        },
        {
            "positions": [
                0.558776159490247,
                -1.5416774611285187,
                2.234325159460104,
                1.747666295103782,
                -0.8892591777641914,
                -0.1331691566200219
            ]
        },
        {
            "positions": [
                0.5918572073426032,
                -1.5598068023477247,
                2.0701309444531155,
                1.642814446033468,
                -0.8856178923573148,
                -0.08499968670645415
            ]
        },
        {
            "positions": [
                0.6249382551949595,
                -1.577936143566931,
                1.9059367294461274,
                1.5379625969631536,
                -0.8819766069504381,
                -0.036830216792886394
            ]
        },
        {
            "positions": [
                0.6580193030473158,
                -1.596065484786137,
                1.7417425144391387,
                1.4331107478928393,
                -0.8783353215435615,
                0.011339253120681375
            ]
        },
        {
            "positions": [
                0.691100350899672,
                -1.6141948260053431,
                1.5775482994321506,
                1.3282588988225252,
                -0.874694036136685,
                0.05950872303424912
            ]
        },
        {
            "positions": [
                0.8149513066199956,
                -1.6368797311151344,
                1.4270085419314993,
                1.3114548214145128,
                -0.8118161333886948,
                0.07665391679473912
            ]
        },
        {
            "positions": [
                0.938802262340319,
                -1.6595646362249257,
                1.2764687844308482,
                1.2946507440065,
                -0.7489382306407046,
                0.09379911055522913
            ]
        },
        {
            "positions": [
                1.0626532180606425,
                -1.682249541334717,
                1.125929026930197,
                1.2778466665984876,
                -0.6860603278927145,
                0.11094430431571911
            ]
        },
        {
            "positions": [
                1.186504173780966,
                -1.7049344464445082,
                0.9753892694295457,
                1.2610425891904748,
                -0.6231824251447244,
                0.12808949807620912
            ]
        },
        {
            "positions": [
                1.3103551295012896,
                -1.7276193515542992,
                0.8248495119288946,
                1.2442385117824624,
                -0.5603045223967342,
                0.14523469183669913
            ]
        },
        {
            "positions": [
                1.434206085221613,
                -1.7503042566640905,
                0.6743097544282434,
                1.2274344343744499,
                -0.4974266196487441,
                0.16237988559718913
            ]
        },
        {
            "positions": [
                1.5580570409419368,
                -1.7729891617738818,
                0.5237699969275922,
                1.2106303569664372,
                -0.434548716900754,
                0.17952507935767914
            ]
        },
        {
            "positions": [
                1.68190799666226,
                -1.795674066883673,
                0.3732302394269409,
                1.1938262795584247,
                -0.3716708141527638,
                0.19667027311816915
            ]
        },
        {
            "positions": [
                1.8057589523825837,
                -1.8183589719934643,
                0.2226904819262896,
                1.177022202150412,
                -0.3087929114047736,
                0.21381546687865913
            ]
        },
        {
            "positions": [
                1.9296099081029072,
                -1.8410438771032556,
                0.07215072442563852,
                1.1602181247423995,
                -0.2459150086567835,
                0.23096066063914913
            ]
        },
        {
            "positions": [
                2.053460863823231,
                -1.8637287822130468,
                -0.07838903307501277,
                1.143414047334387,
                -0.1830371059087933,
                0.24810585439963914
            ]
        },
        {
            "positions": [
                2.1773118195435543,
                -1.886413687322838,
                -0.22892879057566384,
                1.1266099699263743,
                -0.1201592031608032,
                0.2652510481601291
            ]
        },
        {
            "positions": [
                2.3011627752638777,
                -1.9090985924326294,
                -0.37946854807631514,
                1.1098058925183618,
                -0.057281300412813096,
                0.2823962419206192
            ]
        },
        {
            "positions": [
                2.425013730984201,
                -1.9317834975424204,
                -0.5300083055769662,
                1.093001815110349,
                0.005596602335177003,
                0.29954143568110914
            ]
        },
        {
            "positions": [
                2.548864686704525,
                -1.9544684026522119,
                -0.6805480630776175,
                1.0761977377023366,
                0.06847450508316721,
                0.3166866294415992
            ]
        },
        {
            "positions": [
                2.6727156424248486,
                -1.977153307762003,
                -0.8310878205782688,
                1.0593936602943241,
                0.13135240783115731,
                0.33383182320208915
            ]
        },
        {
            "positions": [
                2.796566598145172,
                -1.9998382128717942,
                -0.9816275780789196,
                1.0425895828863114,
                0.19423031057914752,
                0.3509770169625791
            ]
        },
        {
            "positions": [
                2.9204175538654953,
                -2.0225231179815855,
                -1.1321673355795714,
                1.025785505478299,
                0.25710821332713774,
                0.36812221072306917
            ]
        },
        {
            "positions": [
                3.0442685095858186,
                -2.0452080230913765,
                -1.2827070930802222,
                1.0089814280702862,
                0.3199861160751277,
                0.3852674044835591
            ]
        },
        {
            "positions": [
                3.1681194653061424,
                -2.067892928201168,
                -1.4332468505808738,
                0.9921773506622737,
                0.3828640188231179,
                0.4024125982440492
            ]
        },
        {
            "positions": [
                3.0666931061199834,
                -2.1505740416070704,
                -1.4792751649577378,
                0.9913502470140118,
                0.3994962058335469,
                0.3264695784111292
            ]
        },
        {
            "positions": [
                2.9652667469338247,
                -2.233255155012973,
                -1.5253034793346019,
                0.9905231433657499,
                0.41612839284397596,
                0.2505265585782093
            ]
        },
        {
            "positions": [
                2.8638403877476657,
                -2.315936268418876,
                -1.5713317937114657,
                0.9896960397174879,
                0.43276057985440497,
                0.17458353874528942
            ]
        },
        {
            "positions": [
                2.7624140285615066,
                -2.3986173818247782,
                -1.6173601080883298,
                0.988868936069226,
                0.44939276686483404,
                0.09864051891236947
            ]
        },
        {
            "positions": [
                2.660987669375348,
                -2.4812984952306807,
                -1.6633884224651938,
                0.988041832420964,
                0.46602495387526305,
                0.02269749907944956
            ]
        }
    ]
}