{
    "goal": {
        "global_pose": {
            "orientation": {
                "w": 0.7047431468963623,
                "x": -0.7094548344612122,
                "y": 0.0024358443915843964,
                "z": -0.0022348060738295317
            },
            "position": {
                "x": 0.6094750761985779,
                "y": 0.3671506643295288,
                "z": 0.19426114857196808
            }
        },
        "name": "move_to_magneteinheit_A"
    },
    "id": "PRM_move_to_magneteinheit_A_104",
    "joint_names": [
        "shoulder_pan_joint",
        "shoulder_lift_joint",
        "elbow_joint",
        "wrist_1_joint",
        "wrist_2_joint",
        "wrist_3_joint"
    ],
    "metrics": {
        "cart_traj_len": 3.717368065630865,
        "distance_elbow_joint": 3.9195303209227212,
        "distance_shoulder_lift_joint": 0.8031494312173222,
        "distance_shoulder_pan_joint": 4.043539698151167,
        "distance_wrist_1_joint": 3.598861970782527,
        "distance_wrist_2_joint": 1.4459149895667678,
        "distance_wrist_3_joint": 2.3175218303269682,
        "smoothness": 0.1656037399046493,
        "time": 0.155051848,
        "traj_len": 4.016032649390127,
        "weighted_distance": 5.080190829286899
    },
    "planner": "PRM",
    "start": {
        "state": {
            "elbow_joint": -1.9196185241190666,
            "shoulder_lift_joint": -1.2443396400964142,
            "shoulder_pan_joint": 2.6996025414629847,
            "wrist_1_joint": -1.5485510000780065,
            "wrist_2_joint": -1.5709468930060704,
            "wrist_3_joint": 0.4420197071253992
        }
    },
    "waypoints": [
        {
            "positions": [
                2.6996025414629847,
                -1.2443396400964142,
                -1.9196185241190666,
                -1.5485510000780065,
                -1.5709468930060704,
                0.4420197071253992
            ]
        },
        {
            "positions": [
                2.545697732345472,
                -1.2573917883236627,
                -1.8298782649214993,
                -1.5526738016254125,
                -1.5713129461508208,
                0.3347659675077618
            ]
        },
        {
            "positions": [
                2.391792923227959,
                -1.2704439365509113,
                -1.7401380057239317,
                -1.5567966031728184,
                -1.5716789992955715,
                0.22751222789012437
            ]
        },
        {
            "positions": [
                2.2378881141104463,
                -1.2834960847781598,
                -1.6503977465263642,
                -1.5609194047202244,
                -1.572045052440322,
                0.12025848827248697
            ]
        },
        {
            "positions": [
                2.083983304992933,
                -1.2965482330054083,
                -1.5606574873287968,
                -1.5650422062676304,
                -1.5724111055850725,
                0.013004748654849574
            ]
        },
        {
            "positions": [
                1.9300784958754205,
                -1.3096003812326569,
                -1.4709172281312295,
                -1.5691650078150363,
                -1.5727771587298232,
                -0.09424899096278783
            ]
        },
        {
            "positions": [
                1.7761736867579077,
                -1.3226525294599054,
                -1.381176968933662,
                -1.5732878093624423,
                -1.5731432118745736,
                -0.20150273058042523
            ]
        },
        {
            "positions": [
                1.6222688776403948,
                -1.3357046776871537,
                -1.2914367097360946,
                -1.577410610909848,
                -1.573509265019324,
                -0.3087564701980626
            ]
        },
        {
            "positions": [
                1.4683640685228818,
                -1.3487568259144023,
                -1.201696450538527,
                -1.581533412457254,
                -1.5738753181640746,
                -0.4160102098157
            ]
        },
        {
            "positions": [
                1.3144592594053692,
                -1.3618089741416508,
                -1.1119561913409597,
                -1.58565621400466,
                -1.5742413713088252,
                -0.5232639494333374
            ]
        },
        {
            "positions": [
                1.1605544502878562,
                -1.3748611223688993,
                -1.0222159321433921,
                -1.589779015552066,
                -1.5746074244535757,
                -0.6305176890509748
            ]
        },
        {
            "positions": [
                1.0066496411703434,
                -1.3879132705961479,
                -0.9324756729458248,
                -1.5939018170994719,
                -1.5749734775983262,
                -0.7377714286686122
            ]
        },
        {
            "positions": [
                0.8527448320528306,
                -1.4009654188233964,
                -0.8427354137482572,
                -1.5980246186468778,
                -1.5753395307430769,
                -0.8450251682862496
            ]
        },
        {
            "positions": [
                0.6988400229353179,
                -1.414017567050645,
                -0.7529951545506899,
                -1.6021474201942838,
                -1.5757055838878273,
                -0.9522789079038871
            ]
        },
        {
            "positions": [
                0.6365126633545356,
                -1.395114439721258,
                -0.6309338850707251,
                -1.4775718326135752,
                -1.5247084413002434,
                -0.9487738890947748
            ]
        },
        {
            "positions": [
                0.5741853037737534,
                -1.3762113123918713,
                -0.5088726155907605,
                -1.3529962450328668,
                -1.4737112987126595,
                -0.9452688702856623
            ]
        },
        {
            "positions": [
                0.5118579441929711,
                -1.3573081850624844,
                -0.38681134611079576,
                -1.2284206574521583,
                -1.4227141561250756,
                -0.94176385147655
            ]
        },
        {
            "positions": [
                0.44953058461218887,
                -1.3384050577330975,
                -0.26475007663083105,
                -1.1038450698714497,
                -1.3717170135374916,
                -0.9382588326674375
            ]
        },
        {
            "positions": [
                0.3872032250314066,
                -1.3195019304037106,
                -0.1426888071508664,
                -0.9792694822907412,
                -1.3207198709499077,
                -0.9347538138583251
            ]
        },
        {
            "positions": [
                0.32487586545062436,
                -1.3005988030743239,
                -0.02062753767090164,
                -0.8546938947100327,
                -1.2697227283623238,
                -0.9312487950492127
            ]
        },
        {
            "positions": [
                0.2625485058698421,
                -1.281695675744937,
                0.10143373180906301,
                -0.7301183071293241,
                -1.2187255857747399,
                -0.9277437762401003
            ]
        },
        {
            "positions": [
                0.20022114628905985,
                -1.26279254841555,
                0.22349500128902777,
                -0.6055427195486156,
                -1.1677284431871562,
                -0.9242387574309878
            ]
        },
        {
            "positions": [
                0.13789378670827757,
                -1.2438894210861633,
                0.34555627076899254,
                -0.4809671319679072,
                -1.116731300599572,
                -0.9207337386218755
            ]
        },
        {
            "positions": [
                0.07556642712749528,
                -1.2249862937567764,
                0.4676175402489571,
                -0.35639154438719856,
                -1.0657341580119883,
                -0.917228719812763
            ]
        },
        {
            "positions": [
                0.013239067546713001,
                -1.2060831664273894,
                0.5896788097289221,
                -0.23181595680648992,
                -1.0147370154244042,
                -0.9137237010036506
            ]
        },
        {
            "positions": [
                -0.04908829203406917,
                -1.1871800390980027,
                0.7117400792088866,
                -0.1072403692257815,
                -0.9637398728368204,
                -0.9102186821945382
            ]
        },
        {
            "positions": [
                -0.11141565161485156,
                -1.1682769117686158,
                0.8338013486888514,
                0.01733521835492713,
                -0.9127427302492365,
                -0.9067136633854258
            ]
        },
        {
            "positions": [
                -0.17374301119563373,
                -1.1493737844392289,
                0.9558626181688159,
                0.14191080593563554,
                -0.8617455876616527,
                -0.9032086445763133
            ]
        },
        {
            "positions": [
                -0.23607037077641602,
                -1.130470657109842,
                1.0779238876487809,
                0.2664863935163442,
                -0.8107484450740686,
                -0.899703625767201
            ]
        },
        {
            "positions": [
                -0.2983977303571982,
                -1.1115675297804553,
                1.1999851571287454,
                0.3910619810970526,
                -0.7597513024864848,
                -0.8961986069580885
            ]
        },
        {
            "positions": [
                -0.36072508993798047,
                -1.0926644024510683,
                1.3220464266087104,
                0.5156375686777612,
                -0.7087541598989009,
                -0.8926935881489761
            ]
        },
        {
            "positions": [
                -0.42305244951876275,
                -1.0737612751216814,
                1.444107696088675,
                0.6402131562584694,
                -0.657757017311317,
                -0.8891885693398638
            ]
        },
        {
            "positions": [
                -0.48537980909954503,
                -1.0548581477922947,
                1.5661689655686395,
                0.7647887438391785,
                -0.606759874723733,
                -0.8856835505307513
            ]
        },
        {
            "positions": [
                -0.5477071686803273,
                -1.0359550204629078,
                1.688230235048604,
                0.8893643314198867,
                -0.5557627321361491,
                -0.8821785317216388
            ]
        },
        {
            "positions": [
                -0.6100345282611097,
                -1.0170518931335208,
                1.810291504528569,
                1.0139399190005953,
                -0.5047655895485652,
                -0.8786735129125265
            ]
        },
        {
            "positions": [
                -0.5284897917692127,
                -0.9907734675395244,
                1.8313604258924674,
                1.1171819424974143,
                -0.46363044462125974,
                -0.7842715328784907
            ]
        },
        {
            "positions": [
                -0.4469450552773159,
                -0.9644950419455282,
                1.8524293472563658,
                1.2204239659942333,
                -0.42249529969395433,
                -0.689869552844455
            ]
        },
        {
            "positions": [
                -0.3654003187854189,
                -0.9382166163515318,
                1.873498268620264,
                1.323665989491052,
                -0.38136015476664886,
                -0.5954675728104191
            ]
        },
        {
            "positions": [
                -0.283855582293522,
                -0.9119381907575353,
                1.8945671899841623,
                1.426908012987871,
                -0.34022500983934345,
                -0.5010655927763833
            ]
        },
        {
            "positions": [
                -0.202310845801625,
                -0.885659765163539,
                1.9156361113480607,
                1.53015003648469,
                -0.29908986491203793,
                -0.4066636127423474
            ]
        },
        {
            "positions": [
                -0.12076610930972809,
                -0.8593813395695427,
                1.936705032711959,
                1.6333920599815088,
                -0.2579547199847325,
                -0.31226163270831164
            ]
        },
        {
            "positions": [
                -0.03922137281783111,
                -0.8331029139755463,
                1.9577739540758574,
                1.7366340834783278,
                -0.21681957505742705,
                -0.21785965267427587
            ]
        },
        {
            "positions": [
                0.04232336367406575,
                -0.80682448838155,
                1.9788428754397556,
                1.8398761069751468,
                -0.17568443013012164,
                -0.1234576726402401
            ]
        },
        {
            "positions": [
                0.12386810016596277,
                -0.7805460627875536,
                1.999911796803654,
                1.9431181304719658,
                -0.13454928520281617,
                -0.029055692606204244
            ]
        }
    ]
}