{
    "goal": {
        "global_pose": {
            "orientation": {
                "w": 0.005598929693374612,
                "x": 0.007748599140229565,
                "y": 0.7110244013736278,
                "z": -0.7031023480610252
            },
            "position": {
                "x": -0.8858502320852131,
                "y": -0.7141253447532654,
                "z": 0.3711530566215515
            }
        },
        "name": "move_to_auspresseinheit_C"
    },
    "id": "PRM_move_to_auspresseinheit_C_140",
    "joint_names": [
        "shoulder_pan_joint",
        "shoulder_lift_joint",
        "elbow_joint",
        "wrist_1_joint",
        "wrist_2_joint",
        "wrist_3_joint"
    ],
    "metrics": {
        "cart_traj_len": 0.49366421685917944,
        "distance_elbow_joint": 1.0100220970104412,
        "distance_shoulder_lift_joint": 0.32909349679364186,
        "distance_shoulder_pan_joint": 0.256515820504426,
        "distance_wrist_1_joint": 0.7047868215070203,
        "distance_wrist_2_joint": 1.3049067983616174,
        "distance_wrist_3_joint": 0.074030002760614,
        "smoothness": 4.844609574787718e-16,
        "time": 0.026348577999999998,
        "traj_len": 1.9181644968400808,
        "weighted_distance": 2.4160108986359368
    },
    "planner": "PRM",
    "start": {
        "state": {
            "elbow_joint": 1.7527959577737207,
            "shoulder_lift_joint": -0.9740617694225068,
            "shoulder_pan_joint": -2.967991417825858,
            "wrist_1_joint": -0.759517768980727,
            "wrist_2_joint": 1.7443932448377408,
            "wrist_3_joint": -3.0840537646736568
        }
    },
    "waypoints": [
        {
            "positions": [
                -2.967991417825858,
                -0.9740617694225068,
                1.7527959577737207,
                -0.759517768980727,
                1.7443932448377408,
                -3.0840537646736568
            ]
        },
        {
            "positions": [
                -2.9423398357754156,
                -0.9411524197431426,
                1.6517937480726765,
                -0.6890390868300249,
                1.613902565001579,
                -3.091456764949718
            ]
        },
        {
            "positions": [
                -2.9166882537249728,
                -0.9082430700637784,
                1.5507915383716324,
                -0.6185604046793229,
                1.4834118851654172,
                -3.0988597652257797
            ]
        },
        {
            "positions": [
                -2.89103667167453,
                -0.8753337203844143,
                1.4497893286705883,
                -0.5480817225286209,
                1.3529212053292556,
                -3.106262765501841
            ]
        },
        {
            "positions": [
                -2.8653850896240876,
                -0.84242437070505,
                1.3487871189695442,
                -0.4776030403779188,
                1.2224305254930938,
                -3.1136657657779025
            ]
        },
        {
            "positions": [
                -2.839733507573645,
                -0.8095150210256858,
                1.2477849092685,
                -0.40712435822721676,
                1.091939845656932,
                -3.1210687660539636
            ]
        },
        {
            "positions": [
                -2.8140819255232024,
                -0.7766056713463216,
                1.146782699567456,
                -0.33664567607651474,
                0.9614491658207704,
                -3.128471766330025
            ]
        },
        {
            "positions": [
                -2.7884303434727595,
                -0.7436963216669574,
                1.0457804898664118,
                -0.2661669939258127,
                0.8309584859846088,
                -3.1358747666060864
            ]
        },
        {
            "positions": [
                -2.762778761422317,
                -0.7107869719875932,
                0.9447782801653677,
                -0.1956883117751106,
                0.7004678061484468,
                -3.143277766882148
            ]
        },
        {
            "positions": [
                -2.7371271793718748,
                -0.677877622308229,
                0.8437760704643236,
                -0.12520962962440862,
                0.5699771263122853,
                -3.1506807671582093
            ]
        },
        {
            "positions": [
                -2.711475597321432,
                -0.6449682726288649,
                0.7427738607632794,
                -0.0547309474737066,
                0.43948644647612345,
                -3.1580837674342708
            ]
        }
    ]
}