{
    "goal": {
        "global_pose": {
            "orientation": {
                "w": 0.5084816217422485,
                "x": -0.49083608388900757,
                "y": 0.5182115435600281,
                "z": -0.4816462993621826
            },
            "position": {
                "x": 0.5540239810943604,
                "y": 0.030875300988554955,
                "z": 0.16403168439865112
            }
        },
        "name": "move_to_storage_A"
    },
    "id": "PRM_move_to_storage_A_68",
    "joint_names": [
        "shoulder_pan_joint",
        "shoulder_lift_joint",
        "elbow_joint",
        "wrist_1_joint",
        "wrist_2_joint",
        "wrist_3_joint"
    ],
    "metrics": {
        "cart_traj_len": 0.35348314508135287,
        "distance_elbow_joint": 0.45211420822288884,
        "distance_shoulder_lift_joint": 0.23305820777952224,
        "distance_shoulder_pan_joint": 0.46009945372692995,
        "distance_wrist_1_joint": 0.2518549913984053,
        "distance_wrist_2_joint": 1.1085278076507705,
        "distance_wrist_3_joint": 0.10596019884787555,
        "smoothness": 8.881784197001252e-16,
        "time": 0.032821320999999994,
        "traj_len": 1.6160491538398183,
        "weighted_distance": 2.045462799556941
    },
    "planner": "PRM",
    "start": {
        "state": {
            "elbow_joint": 1.971548259319323,
            "shoulder_lift_joint": -1.1394851275133948,
            "shoulder_pan_joint": 0.1228115487234821,
            "wrist_1_joint": -0.7804723859257726,
            "wrist_2_joint": 0.12958671773740124,
            "wrist_3_joint": -3.192489227718131
        }
    },
    "waypoints": [
        {
            "positions": [
                0.1228115487234821,
                -1.1394851275133948,
                1.971548259319323,
                -0.7804723859257726,
                0.12958671773740124,
                -3.192489227718131
            ]
        },
        {
            "positions": [
                0.057083055333920676,
                -1.1727791571961836,
                2.036136003351164,
                -0.8164516704112591,
                0.28794783311608274,
                -3.177352056454149
            ]
        },
        {
            "positions": [
                -0.008645438055640747,
                -1.2060731868789727,
                2.1007237473830056,
                -0.8524309548967456,
                0.4463089484947642,
                -3.1622148851901666
            ]
        },
        {
            "positions": [
                -0.07437393144520216,
                -1.2393672165617615,
                2.1653114914148466,
                -0.888410239382232,
                0.6046700638734457,
                -3.1470777139261843
            ]
        },
        {
            "positions": [
                -0.1401024248347636,
                -1.2726612462445503,
                2.229899235446688,
                -0.9243895238677184,
                0.7630311792521273,
                -3.1319405426622025
            ]
        },
        {
            "positions": [
                -0.20583091822432503,
                -1.3059552759273392,
                2.2944869794785294,
                -0.9603688083532049,
                0.9213922946308089,
                -3.11680337139822
            ]
        },
        {
            "positions": [
                -0.2715594116138864,
                -1.3392493056101282,
                2.3590747235103704,
                -0.9963480928386914,
                1.07975341000949,
                -3.101666200134238
            ]
        },
        {
            "positions": [
                -0.33728790500344785,
                -1.372543335292917,
                2.423662467542212,
                -1.032327377324178,
                1.2381145253881718,
                -3.0865290288702556
            ]
        }
    ]
}{
    "goal": {
        "global_pose": {
            "orientation": {
                "w": 0.5084816217422485,
                "x": -0.49083608388900757,
                "y": 0.5182115435600281,
                "z": -0.4816462993621826
            },
            "position": {
                "x": 0.5540239810943604,
                "y": 0.030875300988554955,
                "z": 0.16403168439865112
            }
        },
        "name": "move_to_storage_A"
    },
    "id": "PRM_move_to_storage_A_68",
    "joint_names": [
        "shoulder_pan_joint",
        "shoulder_lift_joint",
        "elbow_joint",
        "wrist_1_joint",
        "wrist_2_joint",
        "wrist_3_joint"
    ],
    "metrics": {
        "cart_traj_len": 0.35341098054550496,
        "distance_elbow_joint": 0.4521214063837662,
        "distance_shoulder_lift_joint": 0.23396849558741128,
        "distance_shoulder_pan_joint": 0.462409315059116,
        "distance_wrist_1_joint": 0.2517244416166766,
        "distance_wrist_2_joint": 1.098348994594425,
        "distance_wrist_3_joint": 0.10456807345331676,
        "smoothness": 0.0,
        "time": 0.024022934,
        "traj_len": 1.613425153731871,
        "weighted_distance": 2.0401838911756083
    },
    "planner": "PRM",
    "start": {
        "state": {
            "elbow_joint": 1.97154746011099,
            "shoulder_lift_joint": -1.13948474672311,
            "shoulder_pan_joint": 0.12281154466712228,
            "wrist_1_joint": -0.7804688027058302,
            "wrist_2_joint": 0.12958655903071145,
            "wrist_3_joint": 3.0906928834467795
        }
    },
    "waypoints": [
        {
            "positions": [
                0.12281154466712228,
                -1.13948474672311,
                1.97154746011099,
                -0.7804688027058302,
                0.12958655903071145,
                3.0906928834467795
            ]
        },
        {
            "positions": [
                0.05675307108724857,
                -1.1729088175213116,
                2.0361362324515277,
                -0.8164294372224983,
                0.28649355825848644,
                3.105631179654396
            ]
        },
        {
            "positions": [
                -0.00930540249262514,
                -1.2063328883195132,
                2.100725004792066,
                -0.8523900717391664,
                0.4434005574862614,
                3.120569475862013
            ]
        },
        {
            "positions": [
                -0.07536387607249885,
                -1.2397569591177149,
                2.165313777132604,
                -0.8883507062558345,
                0.6003075567140363,
                3.1355077720696296
            ]
        },
        {
            "positions": [
                -0.14142234965237255,
                -1.2731810299159163,
                2.229902549473142,
                -0.9243113407725025,
                0.7572145559418114,
                3.150446068277246
            ]
        },
        {
            "positions": [
                -0.20748082323224626,
                -1.306605100714118,
                2.29449132181368,
                -0.9602719752891706,
                0.9141215551695865,
                3.1653843644848627
            ]
        },
        {
            "positions": [
                -0.27353929681211997,
                -1.3400291715123196,
                2.3590800941542183,
                -0.9962326098058387,
                1.0710285543973612,
                3.1803226606924797
            ]
        },
        {
            "positions": [
                -0.3395977703919937,
                -1.3734532423105212,
                2.423668866494756,
                -1.0321932443225068,
                1.2279355536251364,
                3.1952609569000963
            ]
        }
    ]
}{
    "goal": {
        "global_pose": {
            "orientation": {
                "w": 0.5084816217422485,
                "x": -0.49083608388900757,
                "y": 0.5182115435600281,
                "z": -0.4816462993621826
            },
            "position": {
                "x": 0.5540239810943604,
                "y": 0.030875300988554955,
                "z": 0.16403168439865112
            }
        },
        "name": "move_to_storage_A"
    },
    "id": "PRM_move_to_storage_A_68",
    "joint_names": [
        "shoulder_pan_joint",
        "shoulder_lift_joint",
        "elbow_joint",
        "wrist_1_joint",
        "wrist_2_joint",
        "wrist_3_joint"
    ],
    "metrics": {
        "cart_traj_len": 0.35324761838316227,
        "distance_elbow_joint": 0.4524826191904774,
        "distance_shoulder_lift_joint": 0.23344214533846364,
        "distance_shoulder_pan_joint": 0.46237013045902464,
        "distance_wrist_1_joint": 0.2515081291816801,
        "distance_wrist_2_joint": 1.0973165555857507,
        "distance_wrist_3_joint": 0.09941718857798998,
        "smoothness": 0.0,
        "time": 0.03703298,
        "traj_len": 1.6113772892570462,
        "weighted_distance": 2.035729802861076
    },
    "planner": "PRM",
    "start": {
        "state": {
            "elbow_joint": 1.9715472970024885,
            "shoulder_lift_joint": -1.1394870060712896,
            "shoulder_pan_joint": 0.12281152778156021,
            "wrist_1_joint": -0.780463741449964,
            "wrist_2_joint": 0.12958659822042276,
            "wrist_3_joint": 3.090690232415272
        }
    },
    "waypoints": [
        {
            "positions": [
                0.12281152778156021,
                -1.1394870060712896,
                1.9715472970024885,
                -0.780463741449964,
                0.12958659822042276,
                3.090690232415272
            ]
        },
        {
            "positions": [
                0.05675865200169955,
                -1.1728358839767845,
                2.0361876711725566,
                -0.816393474190204,
                0.2863461061612443,
                3.104892687926413
            ]
        },
        {
            "positions": [
                -0.00929422377816111,
                -1.2061847618822792,
                2.100828045342625,
                -0.852323206930444,
                0.44310561410206584,
                3.119095143437555
            ]
        },
        {
            "positions": [
                -0.07534709955802177,
                -1.239533639787774,
                2.165468419512693,
                -0.888252939670684,
                0.5998651220428873,
                3.133297598948696
            ]
        },
        {
            "positions": [
                -0.14139997533788243,
                -1.2728825176932688,
                2.2301087936827613,
                -0.924182672410924,
                0.7566246299837088,
                3.1475000544598375
            ]
        },
        {
            "positions": [
                -0.20745285111774311,
                -1.3062313955987637,
                2.29474916785283,
                -0.960112405151164,
                0.9133841379245304,
                3.161702509970979
            ]
        },
        {
            "positions": [
                -0.2735057268976038,
                -1.3395802735042583,
                2.359389542022898,
                -0.9960421378914041,
                1.070143645865352,
                3.1759049654821205
            ]
        },
        {
            "positions": [
                -0.3395586026774644,
                -1.3729291514097532,
                2.424029916192966,
                -1.031971870631644,
                1.2269031538061734,
                3.190107420993262
            ]
        }
    ]
}