{
    "goal": {
        "global_pose": {
            "orientation": {
                "w": 0.7031023480610252,
                "x": -0.7110244013736278,
                "y": 0.0077485991402295624,
                "z": 0.005598929693374583
            },
            "position": {
                "x": -0.8841497679147869,
                "y": 0.44412534475326537,
                "z": 0.3711530566215515
            }
        },
        "name": "move_to_auspresseinheit_D"
    },
    "id": "PRM_move_to_auspresseinheit_D_119",
    "joint_names": [
        "shoulder_pan_joint",
        "shoulder_lift_joint",
        "elbow_joint",
        "wrist_1_joint",
        "wrist_2_joint",
        "wrist_3_joint"
    ],
    "metrics": {
        "cart_traj_len": 0.34418062823720086,
        "distance_elbow_joint": 0.6581189504969454,
        "distance_shoulder_lift_joint": 0.133050256668652,
        "distance_shoulder_pan_joint": 0.13442074451264704,
        "distance_wrist_1_joint": 0.5890033112969686,
        "distance_wrist_2_joint": 1.4419794395477397,
        "distance_wrist_3_joint": 0.05659010036311596,
        "smoothness": 1.9737298371844314e-16,
        "time": 0.024424463,
        "traj_len": 1.7358464226094623,
        "weighted_distance": 2.2709746265550854
    },
    "planner": "PRM",
    "start": {
        "state": {
            "elbow_joint": -1.8275523626775212,
            "shoulder_lift_joint": -2.126789852344167,
            "shoulder_pan_joint": -0.03513704404078235,
            "wrist_1_joint": -2.347782403156801,
            "wrist_2_joint": -1.6058999987535132,
            "wrist_3_joint": -3.0880379163319196
        }
    },
    "waypoints": [
        {
            "positions": [
                -0.03513704404078235,
                -2.126789852344167,
                -1.8275523626775212,
                -2.347782403156801,
                -1.6058999987535132,
                -3.0880379163319196
            ]
        },
        {
            "positions": [
                -0.051939637104863226,
                -2.1434211344277485,
                -1.745287493865403,
                -2.421407817068922,
                -1.4256525688100457,
                -3.08096415378653
            ]
        },
        {
            "positions": [
                -0.06874223016894411,
                -2.1600524165113297,
                -1.663022625053285,
                -2.495033230981043,
                -1.2454051388665783,
                -3.0738903912411404
            ]
        },
        {
            "positions": [
                -0.08554482323302498,
                -2.1766836985949114,
                -1.5807577562411668,
                -2.568658644893164,
                -1.0651577089231108,
                -3.0668166286957512
            ]
        },
        {
            "positions": [
                -0.10234741629710586,
                -2.193314980678493,
                -1.4984928874290486,
                -2.642284058805285,
                -0.8849102789796434,
                -3.0597428661503616
            ]
        },
        {
            "positions": [
                -0.11915000936118675,
                -2.2099462627620743,
                -1.4162280186169305,
                -2.7159094727174065,
                -0.7046628490361759,
                -3.052669103604972
            ]
        },
        {
            "positions": [
                -0.13595260242526763,
                -2.226577544845656,
                -1.3339631498048121,
                -2.7895348866295273,
                -0.5244154190927084,
                -3.045595341059583
            ]
        },
        {
            "positions": [
                -0.15275519548934852,
                -2.243208826929237,
                -1.251698280992694,
                -2.863160300541648,
                -0.34416798914924107,
                -3.0385215785141932
            ]
        },
        {
            "positions": [
                -0.1695577885534294,
                -2.259840109012819,
                -1.1694334121805758,
                -2.9367857144537695,
                -0.1639205592057735,
                -3.0314478159688036
            ]
        }
    ]
}