{
    "goal": {
        "global_pose": {
            "orientation": {
                "w": -0.00223480608172531,
                "x": 0.0024358444001904467,
                "y": 0.7094548369677653,
                "z": -0.704743149386269
            },
            "position": {
                "x": 0.6205249238014221,
                "y": -0.6371506643295288,
                "z": 0.19426114857196808
            }
        },
        "name": "move_to_magneteinheit_B"
    },
    "id": "PRM_move_to_magneteinheit_B_40",
    "joint_names": [
        "shoulder_pan_joint",
        "shoulder_lift_joint",
        "elbow_joint",
        "wrist_1_joint",
        "wrist_2_joint",
        "wrist_3_joint"
    ],
    "metrics": {
        "cart_traj_len": 1.6955782249934295,
        "distance_elbow_joint": 0.9567985954323233,
        "distance_shoulder_lift_joint": 1.728932167890414,
        "distance_shoulder_pan_joint": 1.6219562452585379,
        "distance_wrist_1_joint": 0.1925383770745932,
        "distance_wrist_2_joint": 1.5162907614217869,
        "distance_wrist_3_joint": 0.4938209730602545,
        "smoothness": 0.5237154447851504,
        "time": 0.05860639100000001,
        "traj_len": 2.551536227479028,
        "weighted_distance": 3.034272269384341
    },
    "planner": "PRM",
    "start": {
        "state": {
            "elbow_joint": 2.6216224122426386,
            "shoulder_lift_joint": -1.4174107377796124,
            "shoulder_pan_joint": 0.7066234856936794,
            "wrist_1_joint": 1.9546482284002225,
            "wrist_2_joint": -0.7096286983471962,
            "wrist_3_joint": 0.005740856962016249
        }
    },
    "waypoints": [
        {
            "positions": [
                0.7066234856936794,
                -1.4174107377796124,
                2.6216224122426386,
                1.9546482284002225,
                -0.7096286983471962,
                0.005740856962016249
            ]
        },
        {
            "positions": [
                0.6808441079845712,
                -1.579617557705946,
                2.6185709308250726,
                1.9963428070394293,
                -0.7644198551506055,
                -0.07803964449971504
            ]
        },
        {
            "positions": [
                0.6550647302754629,
                -1.7418243776322795,
                2.6155194494075067,
                2.0380373856786362,
                -0.8192110119540148,
                -0.1618201459614463
            ]
        },
        {
            "positions": [
                0.6292853525663546,
                -1.9040311975586133,
                2.6124679679899407,
                2.079731964317843,
                -0.8740021687574241,
                -0.2456006474231776
            ]
        },
        {
            "positions": [
                0.5189554874141251,
                -1.8152946469792266,
                2.544779100048539,
                2.0845501529719126,
                -0.970567689543964,
                -0.228280685374959
            ]
        },
        {
            "positions": [
                0.40862562226189564,
                -1.72655809639984,
                2.477090232107137,
                2.089368341625982,
                -1.067133210330504,
                -0.21096072332674037
            ]
        },
        {
            "positions": [
                0.2982957571096661,
                -1.6378215458204535,
                2.4094013641657352,
                2.0941865302800515,
                -1.163698731117044,
                -0.19364076127852176
            ]
        },
        {
            "positions": [
                0.18796589195743663,
                -1.5490849952410668,
                2.3417124962243334,
                2.099004718934121,
                -1.2602642519035838,
                -0.17632079923030314
            ]
        },
        {
            "positions": [
                0.07763602680520709,
                -1.4603484446616801,
                2.2740236282829316,
                2.1038229075881905,
                -1.3568297726901237,
                -0.1590008371820845
            ]
        },
        {
            "positions": [
                -0.03269383834702244,
                -1.3716118940822934,
                2.2063347603415298,
                2.10864109624226,
                -1.4533952934766636,
                -0.14168087513386587
            ]
        },
        {
            "positions": [
                -0.14302370349925198,
                -1.2828753435029068,
                2.138645892400128,
                2.1134592848963294,
                -1.5499608142632035,
                -0.12436091308564724
            ]
        },
        {
            "positions": [
                -0.2533535686514814,
                -1.1941387929235203,
                2.070957024458726,
                2.118277473550399,
                -1.6465263350497437,
                -0.10704095103742864
            ]
        },
        {
            "positions": [
                -0.36368343380371104,
                -1.1054022423441334,
                2.0032681565173243,
                2.1230956622044683,
                -1.7430918558362836,
                -0.08972098898921
            ]
        },
        {
            "positions": [
                -0.47401329895594047,
                -1.016665691764747,
                1.9355792885759224,
                2.127913850858538,
                -1.8396573766228235,
                -0.07240102694099138
            ]
        },
        {
            "positions": [
                -0.58434316410817,
                -0.9279291411853602,
                1.8678904206345208,
                2.1327320395126073,
                -1.9362228974093632,
                -0.05508106489277276
            ]
        },
        {
            "positions": [
                -0.6946730292603995,
                -0.8391925906059736,
                1.800201552693119,
                2.1375502281666767,
                -2.0327884181959033,
                -0.03776110284455414
            ]
        },
        {
            "positions": [
                -0.8050028944126291,
                -0.750456040026587,
                1.7325126847517172,
                2.142368416820746,
                -2.1293539389824434,
                -0.020441140796335494
            ]
        },
        {
            "positions": [
                -0.9153327595648586,
                -0.6617194894472002,
                1.6648238168103153,
                2.1471866054748157,
                -2.225919459768983,
                -0.0031211787481168667
            ]
        }
    ]
}