{
    "goal": {
        "global_pose": {
            "orientation": {
                "w": -0.00223480608172531,
                "x": 0.0024358444001904467,
                "y": 0.7094548369677653,
                "z": -0.704743149386269
            },
            "position": {
                "x": -0.37947507619857795,
                "y": -0.6371506643295288,
                "z": 0.19426114857196808
            }
        },
        "name": "move_to_magneteinheit_C"
    },
    "id": "PRM_move_to_magneteinheit_C_115",
    "joint_names": [
        "shoulder_pan_joint",
        "shoulder_lift_joint",
        "elbow_joint",
        "wrist_1_joint",
        "wrist_2_joint",
        "wrist_3_joint"
    ],
    "metrics": {
        "cart_traj_len": 1.0936809399457472,
        "distance_elbow_joint": 0.37575928259389624,
        "distance_shoulder_lift_joint": 1.0016845499146625,
        "distance_shoulder_pan_joint": 1.290182580246119,
        "distance_wrist_1_joint": 0.3478862030056481,
        "distance_wrist_2_joint": 0.7892336776535671,
        "distance_wrist_3_joint": 2.9511773197089886,
        "smoothness": 0.7481720585748856,
        "time": 0.393218382,
        "traj_len": 2.599215961231941,
        "weighted_distance": 3.714215682105722
    },
    "planner": "PRM",
    "start": {
        "state": {
            "elbow_joint": 1.9565354010623817,
            "shoulder_lift_joint": -1.4165861575791021,
            "shoulder_pan_joint": -1.6717766225146293,
            "wrist_1_joint": -0.5286633292919765,
            "wrist_2_joint": 1.472756589071564,
            "wrist_3_joint": -3.1238370188695823
        }
    },
    "waypoints": [
        {
            "positions": [
                -1.6717766225146293,
                -1.4165861575791021,
                1.9565354010623817,
                -0.5286633292919765,
                1.472756589071564,
                -3.1238370188695823
            ]
        },
        {
            "positions": [
                -1.622444864106864,
                -1.4341187640516162,
                1.9502909999573603,
                -0.5297479218073776,
                1.47159331461192,
                -3.0754422957782643
            ]
        },
        {
            "positions": [
                -1.5315395207676021,
                -1.489582938855262,
                1.94646995511843,
                -0.5390513660953551,
                1.4682603121778308,
                -2.917537552523201
            ]
        },
        {
            "positions": [
                -1.496733308928816,
                -1.545532315340241,
                1.9563591318034517,
                -0.5544593578419624,
                1.462875997634298,
                -2.7521240463954726
            ]
        },
        {
            "positions": [
                -1.4619270970900298,
                -1.6014816918252197,
                1.9662483084884734,
                -0.5698673495885699,
                1.4574916830907654,
                -2.586710540267745
            ]
        },
        {
            "positions": [
                -1.4271208852512436,
                -1.6574310683101987,
                1.9761374851734952,
                -0.5852753413351772,
                1.4521073685472325,
                -2.4212970341400166
            ]
        },
        {
            "positions": [
                -1.5267355719119218,
                -1.6766939097598168,
                2.002973481049668,
                -0.6210437514713333,
                1.3978557499625732,
                -2.3121603983997985
            ]
        },
        {
            "positions": [
                -1.6263502585726002,
                -1.6959567512094351,
                2.029809476925841,
                -0.6568121616074892,
                1.3436041313779137,
                -2.2030237626595803
            ]
        },
        {
            "positions": [
                -1.7259649452332784,
                -1.7152195926590532,
                2.0566454728020136,
                -0.6925805717436453,
                1.2893525127932544,
                -2.093887126919362
            ]
        },
        {
            "positions": [
                -1.8255796318939566,
                -1.7344824341086715,
                2.083481468678187,
                -0.7283489818798012,
                1.235100894208595,
                -1.9847504911791443
            ]
        },
        {
            "positions": [
                -1.925194318554635,
                -1.7537452755582896,
                2.1103174645543596,
                -0.7641173920159573,
                1.1808492756239355,
                -1.875613855438926
            ]
        },
        {
            "positions": [
                -2.024809005215313,
                -1.773008117007908,
                2.1371534604305324,
                -0.7998858021521132,
                1.1265976570392762,
                -1.766477219698708
            ]
        },
        {
            "positions": [
                -2.1244236918759913,
                -1.792270958457526,
                2.1639894563067053,
                -0.8356542122882693,
                1.0723460384546168,
                -1.6573405839584898
            ]
        },
        {
            "positions": [
                -2.226261787212917,
                -1.7267603032391943,
                2.1626211090074188,
                -0.8481117694782598,
                1.0140690562621395,
                -1.7926821235214327
            ]
        },
        {
            "positions": [
                -2.328099882549843,
                -1.6612496480208625,
                2.161252761708132,
                -0.8605693266682504,
                0.9557920740696619,
                -1.9280236630843754
            ]
        },
        {
            "positions": [
                -2.3889554685902077,
                -1.5852781348959954,
                2.1472580794741347,
                -0.8614456743840208,
                0.9097478487936902,
                -2.107317801905217
            ]
        },
        {
            "positions": [
                -2.4498110546305725,
                -1.5093066217711284,
                2.1332633972401376,
                -0.8623220220997911,
                0.8637036235177185,
                -2.2866119407260586
            ]
        },
        {
            "positions": [
                -2.4540076385228557,
                -1.4508365358697533,
                2.112480561554791,
                -0.8576466123281379,
                0.8325994407170851,
                -2.4315810390055566
            ]
        },
        {
            "positions": [
                -2.4582042224151386,
                -1.392366449968378,
                2.0916977258694445,
                -0.8529712025564846,
                0.8014952579164517,
                -2.5765501372850546
            ]
        },
        {
            "positions": [
                -2.463018724354751,
                -1.3170013697860146,
                2.0664035241946417,
                -0.8513456390049756,
                0.7621711424169667,
                -2.7650405811088317
            ]
        },
        {
            "positions": [
                -2.4678332262943643,
                -1.241636289603651,
                2.041109322519839,
                -0.8497200754534667,
                0.7228470269174818,
                -2.9535310249326088
            ]
        },
        {
            "positions": [
                -2.472647728233977,
                -1.1662712094212875,
                2.015815120845036,
                -0.8480945119019577,
                0.6835229114179968,
                -3.142021468756386
            ]
        }
    ]
}