{
    "goal": {
        "global_pose": {
            "orientation": {
                "w": 0.7047431493862688,
                "x": -0.7094548369677653,
                "y": 0.0024358444001904,
                "z": -0.0022348060817251984
            },
            "position": {
                "x": -0.39052492380142206,
                "y": 0.3671506643295288,
                "z": 0.19426114857196808
            }
        },
        "name": "move_to_magneteinheit_D"
    },
    "id": "PRM_move_to_magneteinheit_D_4",
    "joint_names": [
        "shoulder_pan_joint",
        "shoulder_lift_joint",
        "elbow_joint",
        "wrist_1_joint",
        "wrist_2_joint",
        "wrist_3_joint"
    ],
    "metrics": {
        "cart_traj_len": 4.4052828228780765,
        "distance_elbow_joint": 3.1708498073214266,
        "distance_shoulder_lift_joint": 1.6284014754800877,
        "distance_shoulder_pan_joint": 3.1625160626763567,
        "distance_wrist_1_joint": 1.5343861905425888,
        "distance_wrist_2_joint": 2.561918958801977,
        "distance_wrist_3_joint": 3.5742580400178356,
        "smoothness": 0.3693415827433406,
        "time": 0.392350532,
        "traj_len": 3.9537742139429595,
        "weighted_distance": 5.184317868748067
    },
    "planner": "PRM",
    "start": {
        "state": {
            "elbow_joint": 0.749534889911806,
            "shoulder_lift_joint": -0.6476975780787326,
            "shoulder_pan_joint": -2.711696901376241,
            "wrist_1_joint": -0.07506478083263063,
            "wrist_2_joint": 0.43296659715538205,
            "wrist_3_joint": -3.14703540197715
        }
    },
    "waypoints": [
        {
            "positions": [
                -2.711696901376241,
                -0.6476975780787326,
                0.749534889911806,
                -0.07506478083263063,
                0.43296659715538205,
                -3.14703540197715
            ]
        },
        {
            "positions": [
                -2.702522384406915,
                -0.6863979629478782,
                0.714338983688117,
                -0.07685308324047345,
                0.491471521379128,
                -3.096937208986274
            ]
        },
        {
            "positions": [
                -2.683519098668845,
                -0.7543904497970003,
                0.6531332005917676,
                -0.07948596684059128,
                0.5932017047534749,
                -2.9989813358141215
            ]
        },
        {
            "positions": [
                -2.664515812930775,
                -0.8223829366461224,
                0.5919274174954183,
                -0.08211885044070913,
                0.6949318881278218,
                -2.901025462641969
            ]
        },
        {
            "positions": [
                -2.5619445006129458,
                -0.8663766967895478,
                0.5597934702633303,
                -0.07477689552645841,
                0.7293354010139618,
                -2.7298364078067157
            ]
        },
        {
            "positions": [
                -2.459373188295117,
                -0.910370456932973,
                0.5276595230312421,
                -0.06743494061220771,
                0.7637389139001017,
                -2.5586473529714624
            ]
        },
        {
            "positions": [
                -2.356801875977288,
                -0.9543642170763984,
                0.495525575799154,
                -0.060092985697957,
                0.7981424267862416,
                -2.3874582981362096
            ]
        },
        {
            "positions": [
                -2.2542305636594593,
                -0.9983579772198237,
                0.46339162856706595,
                -0.05275103078370629,
                0.8325459396723816,
                -2.216269243300956
            ]
        },
        {
            "positions": [
                -2.15165925134163,
                -1.042351737363249,
                0.43125768133497777,
                -0.04540907586945558,
                0.8669494525585215,
                -2.045080188465703
            ]
        },
        {
            "positions": [
                -2.049087939023801,
                -1.0863454975066742,
                0.3991237341028897,
                -0.03806712095520487,
                0.9013529654446615,
                -1.8738911336304498
            ]
        },
        {
            "positions": [
                -1.9465166267059724,
                -1.1303392576500997,
                0.36698978687080164,
                -0.030725166040954162,
                0.9357564783308014,
                -1.7027020787951963
            ]
        },
        {
            "positions": [
                -1.8439453143881432,
                -1.174333017793525,
                0.3348558396387135,
                -0.023383211126703454,
                0.9701599912169414,
                -1.5315130239599433
            ]
        },
        {
            "positions": [
                -1.7413740020703143,
                -1.2183267779369502,
                0.3027218924066254,
                -0.01604125621245274,
                1.0045635041030814,
                -1.36032396912469
            ]
        },
        {
            "positions": [
                -1.6388026897524854,
                -1.2623205380803757,
                0.27058794517453727,
                -0.008699301298202025,
                1.0389670169892213,
                -1.1891349142894367
            ]
        },
        {
            "positions": [
                -1.5362313774346563,
                -1.306314298223801,
                0.23845399794244915,
                -0.0013573463839513106,
                1.0733705298753613,
                -1.0179458594541835
            ]
        },
        {
            "positions": [
                -1.4336600651168276,
                -1.3503080583672262,
                0.20632005071036108,
                0.00598460853029939,
                1.107774042761501,
                -0.8467568046189307
            ]
        },
        {
            "positions": [
                -1.3310887527989985,
                -1.3943018185106517,
                0.17418610347827296,
                0.013326563444550105,
                1.142177555647641,
                -0.6755677497836774
            ]
        },
        {
            "positions": [
                -1.2285174404811696,
                -1.438295578654077,
                0.1420521562461849,
                0.020668518358800805,
                1.176581068533781,
                -0.5043786949484237
            ]
        },
        {
            "positions": [
                -1.1259461281633405,
                -1.4822893387975022,
                0.10991820901409677,
                0.02801047327305152,
                1.210984581419921,
                -0.3331896401131704
            ]
        },
        {
            "positions": [
                -1.0233748158455118,
                -1.5262830989409277,
                0.0777842617820087,
                0.03535242818730222,
                1.245388094306061,
                -0.1620005852779176
            ]
        },
        {
            "positions": [
                -0.9208035035276827,
                -1.5702768590843528,
                0.04565031454992052,
                0.042694383101552935,
                1.2797916071922009,
                0.009188469557335655
            ]
        },
        {
            "positions": [
                -0.8182321912098538,
                -1.6142706192277783,
                0.013516367317832442,
                0.05003633801580364,
                1.3141951200783408,
                0.18037752439258908
            ]
        },
        {
            "positions": [
                -0.7587696393070333,
                -1.62917754944127,
                -0.1378396753560009,
                0.12315218804762645,
                1.226163590755556,
                0.18514865962464716
            ]
        },
        {
            "positions": [
                -0.6993070874042129,
                -1.6440844796547616,
                -0.28919571802983424,
                0.19626803807944926,
                1.1381320614327712,
                0.1899197948567052
            ]
        },
        {
            "positions": [
                -0.6398445355013924,
                -1.6589914098682532,
                -0.4405517607036676,
                0.26938388811127206,
                1.0501005321099863,
                0.1946909300887633
            ]
        },
        {
            "positions": [
                -0.580381983598572,
                -1.6738983400817449,
                -0.5919078033775009,
                0.34249973814309487,
                0.9620690027872016,
                0.19946206532082134
            ]
        },
        {
            "positions": [
                -0.5209194316957515,
                -1.6888052702952365,
                -0.7432638460513343,
                0.41561558817491767,
                0.8740374734644167,
                0.2042332005528794
            ]
        },
        {
            "positions": [
                -0.46145687979293115,
                -1.7037122005087282,
                -0.8946198887251676,
                0.4887314382067405,
                0.7860059441416319,
                0.2090043357849375
            ]
        },
        {
            "positions": [
                -0.4019943278901107,
                -1.7186191307222198,
                -1.045975931399001,
                0.5618472882385633,
                0.6979744148188471,
                0.21377547101699557
            ]
        },
        {
            "positions": [
                -0.34253177598729023,
                -1.7335260609357115,
                -1.1973319740728343,
                0.6349631382703861,
                0.6099428854960623,
                0.21854660624905362
            ]
        },
        {
            "positions": [
                -0.2830692240844698,
                -1.7484329911492031,
                -1.3486880167466677,
                0.7080789883022088,
                0.5219113561732776,
                0.22331774148111166
            ]
        },
        {
            "positions": [
                -0.2236066721816493,
                -1.7633399213626948,
                -1.5000440594205011,
                0.7811948383340317,
                0.43387982685049276,
                0.22808887671316974
            ]
        },
        {
            "positions": [
                -0.16414412027882885,
                -1.7782468515761864,
                -1.6514001020943343,
                0.8543106883658546,
                0.34584829752770796,
                0.23286001194522782
            ]
        },
        {
            "positions": [
                -0.1046815683760085,
                -1.793153781789678,
                -1.8027561447681677,
                0.9274265383976773,
                0.25781676820492305,
                0.2376311471772859
            ]
        },
        {
            "positions": [
                -0.045219016473188045,
                -1.8080607120031698,
                -1.954112187442001,
                1.0005423884295,
                0.16978523888213837,
                0.24240228240934394
            ]
        },
        {
            "positions": [
                0.014243535429632415,
                -1.8229676422166614,
                -2.1054682301158345,
                1.073658238461323,
                0.08175370955935346,
                0.24717341764140202
            ]
        },
        {
            "positions": [
                0.07370608733245287,
                -1.837874572430153,
                -2.256824272789668,
                1.1467740884931457,
                -0.006277819763431225,
                0.25194455287346007
            ]
        },
        {
            "positions": [
                0.13316863923527333,
                -1.8527815026436447,
                -2.4081803154635013,
                1.2198899385249684,
                -0.09430934908621605,
                0.25671568810551815
            ]
        },
        {
            "positions": [
                0.05375600871906194,
                -1.9586108903724386,
                -2.404896664976971,
                1.2762207715171765,
                -0.026262857407600565,
                0.214088950621726
            ]
        },
        {
            "positions": [
                -0.025656621797149448,
                -2.0644402781012325,
                -2.401613014490441,
                1.3325516045093848,
                0.04178363427101492,
                0.17146221313793383
            ]
        },
        {
            "positions": [
                -0.10506925231336084,
                -2.1702696658300265,
                -2.398329364003911,
                1.388882437501593,
                0.1098301259496304,
                0.12883547565414166
            ]
        },
        {
            "positions": [
                -0.18448188282957223,
                -2.2760990535588204,
                -2.395045713517381,
                1.445213270493801,
                0.17787661762824591,
                0.0862087381703495
            ]
        }
    ]
}