{
    "goal": {
        "global_pose": {
            "orientation": {
                "w": 0.7031023502349854,
                "x": -0.7110244035720825,
                "y": 0.007748599164187908,
                "z": 0.005598929710686207
            },
            "position": {
                "x": 0.11585023208521307,
                "y": 0.44412534475326537,
                "z": 0.3711530566215515
            }
        },
        "name": "move_to_auspresseinheit_A"
    },
    "id": "PRM_move_to_auspresseinheit_A_87",
    "joint_names": [
        "shoulder_pan_joint",
        "shoulder_lift_joint",
        "elbow_joint",
        "wrist_1_joint",
        "wrist_2_joint",
        "wrist_3_joint"
    ],
    "metrics": {
        "cart_traj_len": 1.5050957020535451,
        "distance_elbow_joint": 0.8930037200398462,
        "distance_shoulder_lift_joint": 0.5354142239022932,
        "distance_shoulder_pan_joint": 2.224981156719844,
        "distance_wrist_1_joint": 0.7496087521340167,
        "distance_wrist_2_joint": 0.5569659647926268,
        "distance_wrist_3_joint": 2.4467223145990475,
        "smoothness": 1.0759163163940197,
        "time": 0.138211758,
        "traj_len": 2.721524597020515,
        "weighted_distance": 3.6887281654131705
    },
    "planner": "PRM",
    "start": {
        "state": {
            "elbow_joint": 2.4225746658250005,
            "shoulder_lift_joint": -1.3736534386056498,
            "shoulder_pan_joint": -0.3378633547517467,
            "wrist_1_joint": -1.0288598680537169,
            "wrist_2_joint": 1.233022673432363,
            "wrist_3_joint": -3.0940220416140027
        }
    },
    "waypoints": [
        {
            "positions": [
                -0.3378633547517467,
                -1.3736534386056498,
                2.4225746658250005,
                -1.0288598680537169,
                1.233022673432363,
                -3.0940220416140027
            ]
        },
        {
            "positions": [
                -0.39688152454730063,
                -1.4001681328587905,
                2.3763644034428135,
                -0.9626827560611788,
                1.1790340219025501,
                -2.974501773275158
            ]
        },
        {
            "positions": [
                -0.4558996943428546,
                -1.4266828271119312,
                2.330154141060626,
                -0.8965056440686408,
                1.125045370372737,
                -2.854981504936314
            ]
        },
        {
            "positions": [
                -0.5149178641384085,
                -1.4531975213650719,
                2.283943878678439,
                -0.8303285320761028,
                1.071056718842924,
                -2.7354612365974695
            ]
        },
        {
            "positions": [
                -0.5739360339339624,
                -1.4797122156182125,
                2.237733616296252,
                -0.7641514200835646,
                1.0170680673131112,
                -2.615940968258625
            ]
        },
        {
            "positions": [
                -0.6329542037295164,
                -1.5062269098713532,
                2.191523353914065,
                -0.6979743080910267,
                0.9630794157832981,
                -2.496420699919781
            ]
        },
        {
            "positions": [
                -0.6919723735250702,
                -1.5327416041244937,
                2.1453130915318774,
                -0.6317971960984887,
                0.9090907642534851,
                -2.3769004315809363
            ]
        },
        {
            "positions": [
                -0.7509905433206241,
                -1.5592562983776344,
                2.0991028291496905,
                -0.5656200841059507,
                0.8551021127236722,
                -2.2573801632420922
            ]
        },
        {
            "positions": [
                -0.8100087131161782,
                -1.585770992630775,
                2.052892566767503,
                -0.4994429721134125,
                0.8011134611938592,
                -2.1378598949032477
            ]
        },
        {
            "positions": [
                -0.869026882911732,
                -1.6122856868839157,
                2.006682304385316,
                -0.43326586012087454,
                0.7471248096640462,
                -2.018339626564403
            ]
        },
        {
            "positions": [
                -0.9280450527072859,
                -1.6388003811370564,
                1.960472042003129,
                -0.36708874812833653,
                0.6931361581342332,
                -1.8988193582255588
            ]
        },
        {
            "positions": [
                -0.7645651068308554,
                -1.665827109274145,
                2.0035621516249265,
                -0.3758725113492002,
                0.6948441030836829,
                -2.023971321346619
            ]
        },
        {
            "positions": [
                -0.6010851609544249,
                -1.6928538374112336,
                2.0466522612467237,
                -0.38465627457006385,
                0.6965520480331326,
                -2.1491232844676795
            ]
        },
        {
            "positions": [
                -0.43760521507799444,
                -1.7198805655483225,
                2.0897423708685214,
                -0.3934400377909275,
                0.6982599929825823,
                -2.27427524758874
            ]
        },
        {
            "positions": [
                -0.2741252692015639,
                -1.746907293685411,
                2.1328324804903187,
                -0.40222380101179117,
                0.699967937932032,
                -2.3994272107098
            ]
        },
        {
            "positions": [
                -0.11064532332513344,
                -1.7739340218224997,
                2.1759225901121164,
                -0.41100756423265483,
                0.7016758828814817,
                -2.5245791738308605
            ]
        },
        {
            "positions": [
                0.052834622551297006,
                -1.8009607499595883,
                2.2190126997339137,
                -0.41979132745351855,
                0.7033838278309315,
                -2.649731136951921
            ]
        },
        {
            "positions": [
                0.21631456842772745,
                -1.827987478096677,
                2.2621028093557114,
                -0.4285750906743822,
                0.7050917727803812,
                -2.774883100072981
            ]
        },
        {
            "positions": [
                0.3797945143041581,
                -1.8550142062337658,
                2.3051929189775087,
                -0.43735885389524587,
                0.7067997177298309,
                -2.900035063194042
            ]
        },
        {
            "positions": [
                0.5432744601805886,
                -1.8820409343708544,
                2.3482830285993064,
                -0.44614261711610953,
                0.7085076626792806,
                -3.025187026315102
            ]
        },
        {
            "positions": [
                0.706754406057019,
                -1.909067662507943,
                2.3913731382211036,
                -0.4549263803369732,
                0.7102156076287303,
                -3.1503389894361624
            ]
        }
    ]
}