{
    "goal": {
        "global_pose": {
            "orientation": {
                "w": 0.005598929693374612,
                "x": 0.007748599140229565,
                "y": 0.7110244013736278,
                "z": -0.7031023480610252
            },
            "position": {
                "x": -0.8858502320852131,
                "y": -0.7141253447532654,
                "z": 0.3711530566215515
            }
        },
        "name": "move_to_auspresseinheit_C"
    },
    "id": "PRM_move_to_auspresseinheit_C_126",
    "joint_names": [
        "shoulder_pan_joint",
        "shoulder_lift_joint",
        "elbow_joint",
        "wrist_1_joint",
        "wrist_2_joint",
        "wrist_3_joint"
    ],
    "metrics": {
        "cart_traj_len": 0.4928801452294656,
        "distance_elbow_joint": 0.9934818183709959,
        "distance_shoulder_lift_joint": 0.3218389609926898,
        "distance_shoulder_pan_joint": 0.25625889162369697,
        "distance_wrist_1_joint": 0.6612390396283252,
        "distance_wrist_2_joint": 1.3046689769852657,
        "distance_wrist_3_joint": 0.044984687107276766,
        "smoothness": 3.2297397335745243e-16,
        "time": 0.015466007,
        "traj_len": 1.8927420253981393,
        "weighted_distance": 2.374520954958367
    },
    "planner": "PRM",
    "start": {
        "state": {
            "elbow_joint": 1.7527959577737207,
            "shoulder_lift_joint": -0.9740617694225068,
            "shoulder_pan_joint": -2.967991417825858,
            "wrist_1_joint": -0.759517768980727,
            "wrist_2_joint": 1.7443932448377408,
            "wrist_3_joint": -3.0840537646736568
        }
    },
    "waypoints": [
        {
            "positions": [
                -2.967991417825858,
                -0.9740617694225068,
                1.7527959577737207,
                -0.759517768980727,
                1.7443932448377408,
                -3.0840537646736568
            ]
        },
        {
            "positions": [
                -2.942365528663488,
                -0.9418778733232378,
                1.653447775936621,
                -0.6933938650178945,
                1.6139263471392142,
                -3.0885522333843847
            ]
        },
        {
            "positions": [
                -2.9167396395011185,
                -0.9096939772239688,
                1.5540995940995215,
                -0.6272699610550619,
                1.4834594494406876,
                -3.093050702095112
            ]
        },
        {
            "positions": [
                -2.8911137503387487,
                -0.8775100811246999,
                1.4547514122624219,
                -0.5611460570922294,
                1.352992551742161,
                -3.0975491708058396
            ]
        },
        {
            "positions": [
                -2.865487861176379,
                -0.8453261850254308,
                1.3554032304253223,
                -0.4950221531293969,
                1.2225256540436344,
                -3.1020476395165675
            ]
        },
        {
            "positions": [
                -2.8398619720140097,
                -0.8131422889261619,
                1.2560550485882227,
                -0.4288982491665644,
                1.092058756345108,
                -3.1065461082272954
            ]
        },
        {
            "positions": [
                -2.81423608285164,
                -0.7809583928268928,
                1.156706866751123,
                -0.36277434520373186,
                0.9615918586465814,
                -3.111044576938023
            ]
        },
        {
            "positions": [
                -2.78861019368927,
                -0.748774496727624,
                1.0573586849140235,
                -0.2966504412408994,
                0.8311249609480549,
                -3.1155430456487503
            ]
        },
        {
            "positions": [
                -2.7629843045269005,
                -0.7165906006283549,
                0.9580105030769239,
                -0.23052653727806682,
                0.7006580632495283,
                -3.120041514359478
            ]
        },
        {
            "positions": [
                -2.7373584153645307,
                -0.6844067045290859,
                0.8586623212398243,
                -0.1644026333152343,
                0.5701911655510017,
                -3.124539983070206
            ]
        },
        {
            "positions": [
                -2.711732526202161,
                -0.652222808429817,
                0.7593141394027247,
                -0.09827872935240183,
                0.43972426785247504,
                -3.1290384517809335
            ]
        }
    ]
}