{
    "goal": {
        "global_pose": {
            "orientation": {
                "w": -0.00223480608172531,
                "x": 0.0024358444001904467,
                "y": 0.7094548369677653,
                "z": -0.704743149386269
            },
            "position": {
                "x": -0.37947507619857795,
                "y": -0.6371506643295288,
                "z": 0.19426114857196808
            }
        },
        "name": "move_to_magneteinheit_C"
    },
    "id": "PRM_move_to_magneteinheit_C_123",
    "joint_names": [
        "shoulder_pan_joint",
        "shoulder_lift_joint",
        "elbow_joint",
        "wrist_1_joint",
        "wrist_2_joint",
        "wrist_3_joint"
    ],
    "metrics": {
        "cart_traj_len": 1.078509175133311,
        "distance_elbow_joint": 0.07378675051799588,
        "distance_shoulder_lift_joint": 0.7069821538618979,
        "distance_shoulder_pan_joint": 1.4921102014692018,
        "distance_wrist_1_joint": 1.227797034072723,
        "distance_wrist_2_joint": 2.915176912960267,
        "distance_wrist_3_joint": 0.6826478556371365,
        "smoothness": 1.5721969633900348,
        "time": 0.16950754999999998,
        "traj_len": 2.6643012045411125,
        "weighted_distance": 3.5506014373379737
    },
    "planner": "PRM",
    "start": {
        "state": {
            "elbow_joint": 1.9565354010623817,
            "shoulder_lift_joint": -1.4165861575791021,
            "shoulder_pan_joint": -1.6717766225146293,
            "wrist_1_joint": -0.5286633292919765,
            "wrist_2_joint": 1.472756589071564,
            "wrist_3_joint": -3.1238370188695823
        }
    },
    "waypoints": [
        {
            "positions": [
                -1.6717766225146293,
                -1.4165861575791021,
                1.9565354010623817,
                -0.5286633292919765,
                1.472756589071564,
                -3.1238370188695823
            ]
        },
        {
            "positions": [
                -1.7110195119373315,
                -1.4822650641954753,
                1.9659505335195613,
                -0.5539794446750371,
                1.3652041948892346,
                -3.0239037387933596
            ]
        },
        {
            "positions": [
                -1.7502624013600339,
                -1.5479439708118483,
                1.975365665976741,
                -0.5792955600580977,
                1.2576518007069055,
                -2.923970458717137
            ]
        },
        {
            "positions": [
                -1.789505290782736,
                -1.6136228774282215,
                1.9847807984339205,
                -0.6046116754411583,
                1.1500994065245762,
                -2.824037178640914
            ]
        },
        {
            "positions": [
                -1.8924671087021203,
                -1.6166012519563147,
                1.9883837111409677,
                -0.6738980446447334,
                0.9965975685360892,
                -2.859890070980853
            ]
        },
        {
            "positions": [
                -1.9954289266215044,
                -1.6195796264844078,
                1.9919866238480148,
                -0.7431844138483082,
                0.8430957305476021,
                -2.8957429633207914
            ]
        },
        {
            "positions": [
                -2.0983907445408887,
                -1.622558001012501,
                1.995589536555062,
                -0.8124707830518832,
                0.6895938925591152,
                -2.9315958556607296
            ]
        },
        {
            "positions": [
                -2.201352562460273,
                -1.625536375540594,
                1.9991924492621092,
                -0.8817571522554581,
                0.536092054570628,
                -2.967448748000668
            ]
        },
        {
            "positions": [
                -2.3043143803796573,
                -1.6285147500686872,
                2.0027953619691563,
                -0.9510435214590331,
                0.3825902165821411,
                -3.0033016403406068
            ]
        },
        {
            "positions": [
                -2.4072761982990416,
                -1.6314931245967803,
                2.0063982746762035,
                -1.0203298906626082,
                0.22908837859365416,
                -3.0391545326805454
            ]
        },
        {
            "positions": [
                -2.5102380162184255,
                -1.6344714991248734,
                2.0100011873832506,
                -1.0896162598661832,
                0.07558654060516723,
                -3.075007425020484
            ]
        },
        {
            "positions": [
                -2.61319983413781,
                -1.6374498736529666,
                2.0136041000902978,
                -1.158902629069758,
                -0.07791529738332015,
                -3.110860317360422
            ]
        },
        {
            "positions": [
                -2.716161652057194,
                -1.6404282481810597,
                2.017207012797345,
                -1.2281889982733332,
                -0.23141713537180708,
                -3.1467132097003607
            ]
        },
        {
            "positions": [
                -2.8191234699765784,
                -1.6434066227091528,
                2.020809925504392,
                -1.297475367476908,
                -0.384918973360294,
                -3.1825661020402993
            ]
        },
        {
            "positions": [
                -2.7616629109753696,
                -1.5633796745871784,
                2.019224554491728,
                -1.220977868162276,
                -0.20866874827222587,
                -3.1785129200387856
            ]
        },
        {
            "positions": [
                -2.704202351974161,
                -1.4833527264652038,
                2.0176391834790635,
                -1.1444803688476441,
                -0.03241852318415772,
                -3.1744597380372714
            ]
        },
        {
            "positions": [
                -2.6467417929729518,
                -1.4033257783432291,
                2.0160538124663994,
                -1.0679828695330122,
                0.14383170190391048,
                -3.1704065560357577
            ]
        },
        {
            "positions": [
                -2.589281233971743,
                -1.3232988302212547,
                2.0144684414537353,
                -0.9914853702183803,
                0.32008192699197857,
                -3.166353374034244
            ]
        },
        {
            "positions": [
                -2.5318206749705343,
                -1.2432718820992803,
                2.0128830704410707,
                -0.9149878709037484,
                0.4963321520800469,
                -3.16230019203273
            ]
        },
        {
            "positions": [
                -2.4743601159693256,
                -1.1632449339773057,
                2.0112976994284066,
                -0.8384903715891165,
                0.672582377168115,
                -3.158247010031216
            ]
        }
    ]
}