{
    "goal": {
        "global_pose": {
            "orientation": {
                "w": -0.00223480608172531,
                "x": 0.0024358444001904467,
                "y": 0.7094548369677653,
                "z": -0.704743149386269
            },
            "position": {
                "x": 0.6205249238014221,
                "y": -0.6371506643295288,
                "z": 0.19426114857196808
            }
        },
        "name": "move_to_magneteinheit_B"
    },
    "id": "PRM_move_to_magneteinheit_B_68",
    "joint_names": [
        "shoulder_pan_joint",
        "shoulder_lift_joint",
        "elbow_joint",
        "wrist_1_joint",
        "wrist_2_joint",
        "wrist_3_joint"
    ],
    "metrics": {
        "cart_traj_len": 1.5028638995475159,
        "distance_elbow_joint": 0.9823607642801837,
        "distance_shoulder_lift_joint": 0.8236174459057204,
        "distance_shoulder_pan_joint": 1.6224367269668276,
        "distance_wrist_1_joint": 0.19606349710648585,
        "distance_wrist_2_joint": 1.5378546628818244,
        "distance_wrist_3_joint": 0.2254158923124743,
        "smoothness": 0.4148551160364358,
        "time": 0.6722347989999999,
        "traj_len": 2.321152513182517,
        "weighted_distance": 2.7518173874853638
    },
    "planner": "PRM",
    "start": {
        "state": {
            "elbow_joint": 2.6216224122426386,
            "shoulder_lift_joint": -1.4174107377796124,
            "shoulder_pan_joint": 0.7066234856936794,
            "wrist_1_joint": 1.9546482284002225,
            "wrist_2_joint": -0.7096286983471962,
            "wrist_3_joint": 0.005740856962016249
        }
    },
    "waypoints": [
        {
            "positions": [
                0.7066234856936794,
                -1.4174107377796124,
                2.6216224122426386,
                1.9546482284002225,
                -0.7096286983471962,
                0.005740856962016249
            ]
        },
        {
            "positions": [
                0.6087151185635793,
                -1.4521267682267494,
                2.636239109837779,
                2.0412505148981843,
                -0.6977856061742457,
                -0.10589435797085213
            ]
        },
        {
            "positions": [
                0.4914437062684464,
                -1.3914420439607045,
                2.5617972585543143,
                2.049670608021917,
                -0.8151711116133898,
                -0.0971419981724209
            ]
        },
        {
            "positions": [
                0.37417229397331353,
                -1.3307573196946596,
                2.4873554072708495,
                2.0580907011456495,
                -0.932556617052534,
                -0.08838963837398968
            ]
        },
        {
            "positions": [
                0.2569008816781807,
                -1.2700725954286147,
                2.4129135559873847,
                2.0665107942693823,
                -1.049942122491678,
                -0.07963727857555845
            ]
        },
        {
            "positions": [
                0.13962946938304782,
                -1.2093878711625698,
                2.3384717047039194,
                2.0749308873931147,
                -1.1673276279308222,
                -0.07088491877712723
            ]
        },
        {
            "positions": [
                0.02235805708791494,
                -1.148703146896525,
                2.2640298534204546,
                2.0833509805168475,
                -1.2847131333699666,
                -0.062132558978696004
            ]
        },
        {
            "positions": [
                -0.09491335520721789,
                -1.08801842263048,
                2.18958800213699,
                2.09177107364058,
                -1.4020986388091106,
                -0.05338019918026478
            ]
        },
        {
            "positions": [
                -0.2121847675023507,
                -1.0273336983644352,
                2.115146150853525,
                2.1001911667643127,
                -1.5194841442482547,
                -0.04462783938183355
            ]
        },
        {
            "positions": [
                -0.32945617979748365,
                -0.9666489740983903,
                2.04070429957006,
                2.108611259888045,
                -1.636869649687399,
                -0.03587547958340233
            ]
        },
        {
            "positions": [
                -0.44672759209261637,
                -0.9059642498323455,
                1.9662624482865954,
                2.117031353011778,
                -1.7542551551265428,
                -0.027123119784971103
            ]
        },
        {
            "positions": [
                -0.5639990043877494,
                -0.8452795255663006,
                1.8918205970031305,
                2.1254514461355103,
                -1.8716406605656872,
                -0.018370759986539878
            ]
        },
        {
            "positions": [
                -0.6812704166828822,
                -0.7845948013002557,
                1.8173787457196657,
                2.133871539259243,
                -1.9890261660048312,
                -0.009618400188108653
            ]
        },
        {
            "positions": [
                -0.7985418289780151,
                -0.7239100770342108,
                1.7429368944362007,
                2.1422916323829755,
                -2.1064116714439756,
                -0.0008660403896774277
            ]
        },
        {
            "positions": [
                -0.915813241273148,
                -0.663225352768166,
                1.668495043152736,
                2.1507117255067083,
                -2.2237971768831195,
                0.007886319408753797
            ]
        }
    ]
}