{
    "goal": {
        "global_pose": {
            "orientation": {
                "w": 0.7047431468963623,
                "x": -0.7094548344612122,
                "y": 0.0024358443915843964,
                "z": -0.0022348060738295317
            },
            "position": {
                "x": 0.6094750761985779,
                "y": 0.3671506643295288,
                "z": 0.19426114857196808
            }
        },
        "name": "move_to_magneteinheit_A"
    },
    "id": "PRM_move_to_magneteinheit_A_140",
    "joint_names": [
        "shoulder_pan_joint",
        "shoulder_lift_joint",
        "elbow_joint",
        "wrist_1_joint",
        "wrist_2_joint",
        "wrist_3_joint"
    ],
    "metrics": {
        "cart_traj_len": 3.553798990187361,
        "distance_elbow_joint": 3.9081312255810703,
        "distance_shoulder_lift_joint": 0.4124411321687116,
        "distance_shoulder_pan_joint": 2.887305558518606,
        "distance_wrist_1_joint": 0.690991233674501,
        "distance_wrist_2_joint": 2.8971088967869543,
        "distance_wrist_3_joint": 2.7097724165137924,
        "smoothness": 0.2750069108679313,
        "time": 0.055152875000000004,
        "traj_len": 3.675017069789423,
        "weighted_distance": 4.744828282112292
    },
    "planner": "PRM",
    "start": {
        "state": {
            "elbow_joint": -1.9196185241190666,
            "shoulder_lift_joint": -1.2443396400964142,
            "shoulder_pan_joint": 2.6996025414629847,
            "wrist_1_joint": -1.5485510000780065,
            "wrist_2_joint": -1.5709468930060704,
            "wrist_3_joint": 0.4420197071253992
        }
    },
    "waypoints": [
        {
            "positions": [
                2.6996025414629847,
                -1.2443396400964142,
                -1.9196185241190666,
                -1.5485510000780065,
                -1.5709468930060704,
                0.4420197071253992
            ]
        },
        {
            "positions": [
                2.6085271740371994,
                -1.2496225990750305,
                -1.806038351358458,
                -1.5290841171132823,
                -1.4942892603660411,
                0.5223812982971808
            ]
        },
        {
            "positions": [
                2.5174518066114144,
                -1.2549055580536468,
                -1.6924581785978492,
                -1.5096172341485579,
                -1.417631627726012,
                0.6027428894689626
            ]
        },
        {
            "positions": [
                2.426376439185629,
                -1.260188517032263,
                -1.5788780058372403,
                -1.4901503511838337,
                -1.3409739950859827,
                0.6831044806407442
            ]
        },
        {
            "positions": [
                2.3353010717598437,
                -1.2654714760108794,
                -1.4652978330766315,
                -1.4706834682191092,
                -1.2643163624459537,
                0.7634660718125259
            ]
        },
        {
            "positions": [
                2.2442257043340583,
                -1.2707544349894957,
                -1.3517176603160228,
                -1.451216585254385,
                -1.1876587298059245,
                0.8438276629843076
            ]
        },
        {
            "positions": [
                2.153150336908273,
                -1.276037393968112,
                -1.2381374875554139,
                -1.4317497022896606,
                -1.1110010971658952,
                0.9241892541560893
            ]
        },
        {
            "positions": [
                2.062074969482488,
                -1.2813203529467283,
                -1.1245573147948051,
                -1.4122828193249364,
                -1.034343464525866,
                1.0045508453278709
            ]
        },
        {
            "positions": [
                1.9709996020567027,
                -1.2866033119253446,
                -1.0109771420341964,
                -1.392815936360212,
                -0.9576858318858368,
                1.0849124364996525
            ]
        },
        {
            "positions": [
                1.8799242346309173,
                -1.291886270903961,
                -0.8973969692735877,
                -1.3733490533954877,
                -0.8810281992458077,
                1.1652740276714342
            ]
        },
        {
            "positions": [
                1.7888488672051321,
                -1.2971692298825772,
                -0.783816796512979,
                -1.3538821704307633,
                -0.8043705666057784,
                1.2456356188432158
            ]
        },
        {
            "positions": [
                1.6977734997793468,
                -1.3024521888611935,
                -0.67023662375237,
                -1.334415287466039,
                -0.7277129339657492,
                1.3259972100149975
            ]
        },
        {
            "positions": [
                1.6066981323535614,
                -1.3077351478398098,
                -0.5566564509917611,
                -1.314948404501315,
                -0.65105530132572,
                1.4063588011867796
            ]
        },
        {
            "positions": [
                1.5156227649277763,
                -1.3130181068184261,
                -0.44307627823115237,
                -1.2954815215365905,
                -0.5743976686856908,
                1.4867203923585612
            ]
        },
        {
            "positions": [
                1.4245473975019909,
                -1.3183010657970424,
                -0.32949610547054364,
                -1.2760146385718663,
                -0.49774003604566164,
                1.567081983530343
            ]
        },
        {
            "positions": [
                1.3334720300762057,
                -1.3235840247756587,
                -0.21591593270993492,
                -1.2565477556071418,
                -0.4210824034056324,
                1.6474435747021245
            ]
        },
        {
            "positions": [
                1.2423966626504206,
                -1.328866983754275,
                -0.1023357599493262,
                -1.2370808726424176,
                -0.3444247707656032,
                1.7278051658739062
            ]
        },
        {
            "positions": [
                1.1513212952246352,
                -1.3341499427328913,
                0.011244412811282523,
                -1.2176139896776932,
                -0.26776713812557396,
                1.8081667570456879
            ]
        },
        {
            "positions": [
                1.06024592779885,
                -1.3394329017115076,
                0.12482458557189124,
                -1.198147106712969,
                -0.19110950548554495,
                1.8885283482174695
            ]
        },
        {
            "positions": [
                0.9691705603730647,
                -1.344715860690124,
                0.23840475833249997,
                -1.1786802237482448,
                -0.11445187284551572,
                1.9688899393892512
            ]
        },
        {
            "positions": [
                0.8780951929472796,
                -1.3499988196687402,
                0.3519849310931087,
                -1.1592133407835203,
                -0.037794240205486496,
                2.049251530561033
            ]
        },
        {
            "positions": [
                0.7870198255214942,
                -1.3552817786473565,
                0.4655651038537174,
                -1.1397464578187961,
                0.03886339243454273,
                2.1296131217328145
            ]
        },
        {
            "positions": [
                0.6959444580957088,
                -1.3605647376259729,
                0.5791452766143266,
                -1.1202795748540717,
                0.11552102507457196,
                2.209974712904596
            ]
        },
        {
            "positions": [
                0.6048690906699234,
                -1.3658476966045892,
                0.6927254493749353,
                -1.1008126918893475,
                0.1921786577146012,
                2.2903363040763782
            ]
        },
        {
            "positions": [
                0.5137937232441381,
                -1.3711306555832055,
                0.8063056221355445,
                -1.081345808924623,
                0.2688362903546304,
                2.37069789524816
            ]
        },
        {
            "positions": [
                0.42271835581835315,
                -1.3764136145618218,
                0.9198857948961532,
                -1.0618789259598989,
                0.34549392299465964,
                2.4510594864199415
            ]
        },
        {
            "positions": [
                0.3316429883925678,
                -1.381696573540438,
                1.033465967656762,
                -1.0424120429951744,
                0.42215155563468887,
                2.531421077591723
            ]
        },
        {
            "positions": [
                0.24056762096678241,
                -1.3869795325190544,
                1.1470461404173706,
                -1.0229451600304502,
                0.4988091882747179,
                2.611782668763505
            ]
        },
        {
            "positions": [
                0.14949225354099704,
                -1.3922624914976707,
                1.2606263131779794,
                -1.0034782770657258,
                0.5754668209147471,
                2.6921442599352865
            ]
        },
        {
            "positions": [
                0.05841688611521212,
                -1.397545450476287,
                1.374206485938588,
                -0.9840113941010016,
                0.6521244535547763,
                2.772505851107068
            ]
        },
        {
            "positions": [
                -0.032658481310573195,
                -1.4028284094549033,
                1.487786658699197,
                -0.9645445111362773,
                0.7287820861948053,
                2.85286744227885
            ]
        },
        {
            "positions": [
                -0.0016495741615636418,
                -1.3520379368928588,
                1.5879318672517584,
                -0.943147562189723,
                0.6093061026775896,
                2.912652378550918
            ]
        },
        {
            "positions": [
                0.02935933298744591,
                -1.3012474643308143,
                1.68807707580432,
                -0.9217506132431685,
                0.4898301191603737,
                2.9724373148229866
            ]
        },
        {
            "positions": [
                0.06036824013645546,
                -1.2504569917687698,
                1.7882222843568814,
                -0.9003536642966142,
                0.37035413564315794,
                3.032222251095055
            ]
        },
        {
            "positions": [
                0.09137714728546502,
                -1.1996665192067253,
                1.8883674929094427,
                -0.8789567153500598,
                0.2508781521259421,
                3.0920071873671233
            ]
        },
        {
            "positions": [
                0.12238605443447456,
                -1.1488760466446808,
                1.988512701462004,
                -0.8575597664035055,
                0.1314021686087263,
                3.1517921236391917
            ]
        }
    ]
}