{
    "goal": {
        "global_pose": {
            "orientation": {
                "w": 0.7047431493862688,
                "x": -0.7094548369677653,
                "y": 0.0024358444001904,
                "z": -0.0022348060817251984
            },
            "position": {
                "x": -0.39052492380142206,
                "y": 0.3671506643295288,
                "z": 0.19426114857196808
            }
        },
        "name": "move_to_magneteinheit_D"
    },
    "id": "PRM_move_to_magneteinheit_D_49",
    "joint_names": [
        "shoulder_pan_joint",
        "shoulder_lift_joint",
        "elbow_joint",
        "wrist_1_joint",
        "wrist_2_joint",
        "wrist_3_joint"
    ],
    "metrics": {
        "cart_traj_len": 4.863887798956133,
        "distance_elbow_joint": 3.1435064159386665,
        "distance_shoulder_lift_joint": 1.9053204223247906,
        "distance_shoulder_pan_joint": 4.118424748961117,
        "distance_wrist_1_joint": 2.4389070749483075,
        "distance_wrist_2_joint": 2.6788628256412172,
        "distance_wrist_3_joint": 3.7089410869034762,
        "smoothness": 0.45139806273707017,
        "time": 0.165358376,
        "traj_len": 4.241929110053299,
        "weighted_distance": 5.525361042421936
    },
    "planner": "PRM",
    "start": {
        "state": {
            "elbow_joint": 0.749534889911806,
            "shoulder_lift_joint": -0.6476975780787326,
            "shoulder_pan_joint": -2.711696901376241,
            "wrist_1_joint": -0.07506478083263063,
            "wrist_2_joint": 0.43296659715538205,
            "wrist_3_joint": -3.14703540197715
        }
    },
    "waypoints": [
        {
            "positions": [
                -2.711696901376241,
                -0.6476975780787326,
                0.749534889911806,
                -0.07506478083263063,
                0.43296659715538205,
                -3.14703540197715
            ]
        },
        {
            "positions": [
                -2.791337281871033,
                -0.6011102553888966,
                0.6952375275517929,
                -0.06375378840200542,
                0.3939895150229373,
                -3.0240652671632584
            ]
        },
        {
            "positions": [
                -2.8709776623658247,
                -0.5545229326990607,
                0.6409401651917798,
                -0.05244279597138023,
                0.35501243289049256,
                -2.9010951323493672
            ]
        },
        {
            "positions": [
                -2.950618042860617,
                -0.5079356100092247,
                0.5866428028317667,
                -0.04113180354075502,
                0.3160353507580478,
                -2.7781249975354756
            ]
        },
        {
            "positions": [
                -2.912263581362971,
                -0.5927978856083611,
                0.5773693760949404,
                -0.06832348209415913,
                0.24989588520224637,
                -2.6081153795436878
            ]
        },
        {
            "positions": [
                -2.873909119865325,
                -0.6776601612074974,
                0.5680959493581142,
                -0.09551516064756324,
                0.18375641964644496,
                -2.4381057615519
            ]
        },
        {
            "positions": [
                -2.8355546583676787,
                -0.7625224368066338,
                0.558822522621288,
                -0.12270683920096734,
                0.11761695409064354,
                -2.2680961435601117
            ]
        },
        {
            "positions": [
                -2.797200196870033,
                -0.8473847124057701,
                0.5495490958844618,
                -0.14989851775437146,
                0.05147748853484213,
                -2.098086525568324
            ]
        },
        {
            "positions": [
                -2.758845735372387,
                -0.9322469880049065,
                0.5402756691476355,
                -0.17709019630777556,
                -0.014661977020959283,
                -1.928076907576536
            ]
        },
        {
            "positions": [
                -2.720491273874741,
                -1.0171092636040429,
                0.5310022424108092,
                -0.20428187486117966,
                -0.0808014425767607,
                -1.758067289584748
            ]
        },
        {
            "positions": [
                -2.6821368123770952,
                -1.1019715392031793,
                0.521728815673983,
                -0.23147355341458375,
                -0.1469409081325621,
                -1.5880576715929602
            ]
        },
        {
            "positions": [
                -2.6437823508794493,
                -1.1868338148023154,
                0.5124553889371567,
                -0.25866523196798785,
                -0.21308037368836352,
                -1.4180480536011721
            ]
        },
        {
            "positions": [
                -2.605427889381803,
                -1.271696090401452,
                0.5031819622003304,
                -0.28585691052139195,
                -0.27921983924416494,
                -1.2480384356093843
            ]
        },
        {
            "positions": [
                -2.567073427884157,
                -1.3565583660005882,
                0.4939085354635042,
                -0.3130485890747961,
                -0.34535930479996635,
                -1.0780288176175963
            ]
        },
        {
            "positions": [
                -2.5287189663865113,
                -1.4414206415997248,
                0.4846351087266779,
                -0.3402402676282002,
                -0.41149877035576776,
                -0.9080191996258082
            ]
        },
        {
            "positions": [
                -2.4903645048888654,
                -1.526282917198861,
                0.4753616819898517,
                -0.3674319461816043,
                -0.4776382359115692,
                -0.7380095816340204
            ]
        },
        {
            "positions": [
                -2.4520100433912195,
                -1.6111451927979972,
                0.46608825525302544,
                -0.3946236247350084,
                -0.5437777014673705,
                -0.5679999636422326
            ]
        },
        {
            "positions": [
                -2.4136555818935737,
                -1.6960074683971336,
                0.4568148285161992,
                -0.4218153032884125,
                -0.609917167023172,
                -0.3979903456504448
            ]
        },
        {
            "positions": [
                -2.3753011203959273,
                -1.78086974399627,
                0.44754140177937296,
                -0.4490069818418166,
                -0.6760566325789734,
                -0.22798072765865696
            ]
        },
        {
            "positions": [
                -2.3369466588982815,
                -1.8657320195954064,
                0.43826797504254666,
                -0.47619866039522074,
                -0.7421960981347748,
                -0.05797110966686869
            ]
        },
        {
            "positions": [
                -2.2985921974006356,
                -1.9505942951945427,
                0.4289945483057204,
                -0.5033903389486248,
                -0.8083355636905762,
                0.11203850832491904
            ]
        },
        {
            "positions": [
                -2.1457217020637875,
                -1.9544965714466673,
                0.3042762326948899,
                -0.4641298116135587,
                -0.833889055613174,
                0.1358844012795583
            ]
        },
        {
            "positions": [
                -1.9928512067269395,
                -1.9583988476987917,
                0.1795579170840594,
                -0.4248692842784926,
                -0.8594425475357717,
                0.15973029423419757
            ]
        },
        {
            "positions": [
                -1.8399807113900915,
                -1.9623011239509163,
                0.054839601473228916,
                -0.38560875694342645,
                -0.8849960394583692,
                0.18357618718883684
            ]
        },
        {
            "positions": [
                -1.6871102160532434,
                -1.9662034002030409,
                -0.0698787141376016,
                -0.3463482296083603,
                -0.910549531380967,
                0.20742208014347613
            ]
        },
        {
            "positions": [
                -1.534239720716395,
                -1.9701056764551652,
                -0.19459702974843213,
                -0.3070877022732942,
                -0.9361030233035647,
                0.23126797309811542
            ]
        },
        {
            "positions": [
                -1.381369225379547,
                -1.9740079527072898,
                -0.3193153453592626,
                -0.26782717493822805,
                -0.9616565152261622,
                0.25511386605275466
            ]
        },
        {
            "positions": [
                -1.2284987300426988,
                -1.9779102289594144,
                -0.44403366097009317,
                -0.22856664760316192,
                -0.98721000714876,
                0.27895975900739395
            ]
        },
        {
            "positions": [
                -1.075628234705851,
                -1.9818125052115387,
                -0.5687519765809237,
                -0.1893061202680958,
                -1.0127634990713577,
                0.3028056519620332
            ]
        },
        {
            "positions": [
                -0.9227577393690027,
                -1.9857147814636633,
                -0.6934702921917542,
                -0.15004559293302966,
                -1.0383169909939554,
                0.3266515449166725
            ]
        },
        {
            "positions": [
                -0.8050627571462292,
                -1.987210015273589,
                -0.8226330182453697,
                -0.07163736730903873,
                -1.0084041224138454,
                0.3082378340373161
            ]
        },
        {
            "positions": [
                -0.6873677749234557,
                -1.9887052490835146,
                -0.9517957442989853,
                0.006770858314952194,
                -0.9784912538337354,
                0.28982412315795963
            ]
        },
        {
            "positions": [
                -0.5696727927006822,
                -1.9902004828934403,
                -1.0809584703526007,
                0.08517908393894308,
                -0.9485783852536255,
                0.27141041227860324
            ]
        },
        {
            "positions": [
                -0.4519778104779085,
                -1.991695716703366,
                -1.2101211964062164,
                0.16358730956293405,
                -0.9186655166735155,
                0.2529967013992468
            ]
        },
        {
            "positions": [
                -0.334282828255135,
                -1.9931909505132916,
                -1.3392839224598319,
                0.2419955351869249,
                -0.8887526480934056,
                0.2345829905198904
            ]
        },
        {
            "positions": [
                -0.21658784603236148,
                -1.9946861843232175,
                -1.4684466485134475,
                0.3204037608109158,
                -0.8588397795132956,
                0.216169279640534
            ]
        },
        {
            "positions": [
                -0.09889286380958795,
                -1.9961814181331432,
                -1.597609374567063,
                0.3988119864349068,
                -0.8289269109331856,
                0.19775556876117759
            ]
        },
        {
            "positions": [
                0.018802118413185687,
                -1.9976766519430689,
                -1.7267721006206787,
                0.47722021205889775,
                -0.7990140423530756,
                0.17934185788182117
            ]
        },
        {
            "positions": [
                0.1364971006359592,
                -1.9991718857529945,
                -1.855934826674294,
                0.5556284376828886,
                -0.7691011737729656,
                0.16092814700246474
            ]
        },
        {
            "positions": [
                0.25419208285873274,
                -2.00066711956292,
                -1.9850975527279096,
                0.6340366633068795,
                -0.7391883051928557,
                0.14251443612310835
            ]
        },
        {
            "positions": [
                0.37188706508150626,
                -2.002162353372846,
                -2.1142602787815252,
                0.7124448889308704,
                -0.7092754366127457,
                0.12410072524375192
            ]
        },
        {
            "positions": [
                0.2923158508622748,
                -2.040924026357369,
                -2.154219028388002,
                0.8162849366978799,
                -0.5837700533112214,
                0.11942882233850441
            ]
        },
        {
            "positions": [
                0.21274463664304336,
                -2.079685699341892,
                -2.1941777779944784,
                0.9201249844648896,
                -0.4582646700096971,
                0.11475691943325692
            ]
        },
        {
            "positions": [
                0.1331734224238119,
                -2.1184473723264152,
                -2.2341365276009553,
                1.023965032231899,
                -0.3327592867081728,
                0.11008501652800941
            ]
        },
        {
            "positions": [
                0.05360220820458045,
                -2.157209045310938,
                -2.2740952772074317,
                1.1278050799989086,
                -0.2072539034066485,
                0.10541311362276191
            ]
        },
        {
            "positions": [
                -0.02596900601465102,
                -2.1959707182954613,
                -2.3140540268139085,
                1.2316451277659182,
                -0.08174852010512412,
                0.1007412107175144
            ]
        },
        {
            "positions": [
                -0.10554022023388249,
                -2.234732391279984,
                -2.354012776420385,
                1.3354851755329276,
                0.04375686319640015,
                0.09606930781226691
            ]
        },
        {
            "positions": [
                -0.18511143445311393,
                -2.2734940642645074,
                -2.3939715260268617,
                1.4393252232999372,
                0.1692622464979245,
                0.0913974049070194
            ]
        }
    ]
}