{
    "goal": {
        "global_pose": {
            "orientation": {
                "w": -0.4816463035849501,
                "x": 0.5182115481033762,
                "y": 0.4908360881923453,
                "z": -0.5084816262002911
            },
            "position": {
                "x": -0.8240239810943604,
                "y": -0.300875300988555,
                "z": 0.16403168439865112
            }
        },
        "name": "move_to_storage_C"
    },
    "id": "PRM_move_to_storage_C_122",
    "joint_names": [
        "shoulder_pan_joint",
        "shoulder_lift_joint",
        "elbow_joint",
        "wrist_1_joint",
        "wrist_2_joint",
        "wrist_3_joint"
    ],
    "metrics": {
        "cart_traj_len": 0.5766327048296646,
        "distance_elbow_joint": 0.25796615381333154,
        "distance_shoulder_lift_joint": 0.18984309906898067,
        "distance_shoulder_pan_joint": 0.49318786973982753,
        "distance_wrist_1_joint": 0.06962114930116947,
        "distance_wrist_2_joint": 1.0733937370136188,
        "distance_wrist_3_joint": 0.07016293804899121,
        "smoothness": 0.0,
        "time": 0.02172906,
        "traj_len": 1.467710784516459,
        "weighted_distance": 1.85405385827885
    },
    "planner": "PRM",
    "start": {
        "state": {
            "elbow_joint": 2.010868314990456,
            "shoulder_lift_joint": -1.1634956873337592,
            "shoulder_pan_joint": -2.4736205022346125,
            "wrist_1_joint": -0.8367026794202681,
            "wrist_2_joint": 0.6746043897044499,
            "wrist_3_joint": -3.1496632123970403
        }
    },
    "waypoints": [
        {
            "positions": [
                -2.4736205022346125,
                -1.1634956873337592,
                2.010868314990456,
                -0.8367026794202681,
                0.6746043897044499,
                -3.1496632123970403
            ]
        },
        {
            "positions": [
                -2.5558184805245836,
                -1.1318551708222624,
                1.9678739560215672,
                -0.8250991545367399,
                0.8535033458733864,
                -3.137969389388875
            ]
        },
        {
            "positions": [
                -2.638016458814555,
                -1.1002146543107656,
                1.9248795970526786,
                -0.8134956296532116,
                1.032402302042323,
                -3.12627556638071
            ]
        },
        {
            "positions": [
                -2.7202144371045263,
                -1.0685741377992688,
                1.88188523808379,
                -0.8018921047696834,
                1.2113012582112592,
                -3.1145817433725447
            ]
        },
        {
            "positions": [
                -2.8024124153944974,
                -1.036933621287772,
                1.8388908791149015,
                -0.7902885798861551,
                1.390200214380196,
                -3.1028879203643793
            ]
        },
        {
            "positions": [
                -2.884610393684469,
                -1.0052931047762752,
                1.7958965201460129,
                -0.7786850550026269,
                1.5690991705491322,
                -3.0911940973562144
            ]
        },
        {
            "positions": [
                -2.96680837197444,
                -0.9736525882647785,
                1.7529021611771243,
                -0.7670815301190986,
                1.7479981267180689,
                -3.079500274348049
            ]
        }
    ]
}