{
    "goal": {
        "global_pose": {
            "orientation": {
                "w": -0.4816463035849501,
                "x": 0.5182115481033762,
                "y": 0.4908360881923453,
                "z": -0.5084816262002911
            },
            "position": {
                "x": -0.8240239810943604,
                "y": -0.300875300988555,
                "z": 0.16403168439865112
            }
        },
        "name": "move_to_storage_C"
    },
    "id": "PRM_move_to_storage_C_26",
    "joint_names": [
        "shoulder_pan_joint",
        "shoulder_lift_joint",
        "elbow_joint",
        "wrist_1_joint",
        "wrist_2_joint",
        "wrist_3_joint"
    ],
    "metrics": {
        "cart_traj_len": 0.5770474915813171,
        "distance_elbow_joint": 0.2599076851428166,
        "distance_shoulder_lift_joint": 0.19013327698188331,
        "distance_shoulder_pan_joint": 0.4941893829698851,
        "distance_wrist_1_joint": 0.07906681630315415,
        "distance_wrist_2_joint": 1.069975256799815,
        "distance_wrist_3_joint": 0.06649640262146628,
        "smoothness": 2.5376526478085547e-16,
        "time": 0.016112217999999998,
        "traj_len": 1.46961519481088,
        "weighted_distance": 1.855209880084979
    },
    "planner": "PRM",
    "start": {
        "state": {
            "elbow_joint": 2.010868314990456,
            "shoulder_lift_joint": -1.1634956873337592,
            "shoulder_pan_joint": -2.4736205022346125,
            "wrist_1_joint": -0.8367026794202681,
            "wrist_2_joint": 0.6746043897044499,
            "wrist_3_joint": -3.1496632123970403
        }
    },
    "waypoints": [
        {
            "positions": [
                -2.4736205022346125,
                -1.1634956873337592,
                2.010868314990456,
                -0.8367026794202681,
                0.6746043897044499,
                -3.1496632123970403
            ]
        },
        {
            "positions": [
                -2.55598539939626,
                -1.1318068078367787,
                1.967550367466653,
                -0.8235248767030757,
                0.8529335991710858,
                -3.138580478626796
            ]
        },
        {
            "positions": [
                -2.6383502965579075,
                -1.1001179283397982,
                1.9242324199428502,
                -0.8103470739858833,
                1.0312628086377216,
                -3.1274977448565515
            ]
        },
        {
            "positions": [
                -2.7207151937195553,
                -1.0684290488428174,
                1.8809144724190476,
                -0.7971692712686911,
                1.2095920181043573,
                -3.116415011086307
            ]
        },
        {
            "positions": [
                -2.8030800908812026,
                -1.036740169345837,
                1.8375965248952448,
                -0.7839914685514987,
                1.3879212275709931,
                -3.1053322773160628
            ]
        },
        {
            "positions": [
                -2.88544498804285,
                -1.0050512898488564,
                1.794278577371442,
                -0.7708136658343063,
                1.5662504370376293,
                -3.0942495435458186
            ]
        },
        {
            "positions": [
                -2.9678098852044976,
                -0.9733624103518759,
                1.7509606298476392,
                -0.757635863117114,
                1.744579646504265,
                -3.083166809775574
            ]
        }
    ]
}