{
    "goal": {
        "global_pose": {
            "orientation": {
                "w": 0.7031023502349854,
                "x": -0.7110244035720825,
                "y": 0.007748599164187908,
                "z": 0.005598929710686207
            },
            "position": {
                "x": 0.11585023208521307,
                "y": 0.44412534475326537,
                "z": 0.3711530566215515
            }
        },
        "name": "move_to_auspresseinheit_A"
    },
    "id": "PRM_move_to_auspresseinheit_A_108",
    "joint_names": [
        "shoulder_pan_joint",
        "shoulder_lift_joint",
        "elbow_joint",
        "wrist_1_joint",
        "wrist_2_joint",
        "wrist_3_joint"
    ],
    "metrics": {
        "cart_traj_len": 1.8220619211232565,
        "distance_elbow_joint": 0.9402530660998814,
        "distance_shoulder_lift_joint": 2.1697211569055215,
        "distance_shoulder_pan_joint": 1.0407324233031439,
        "distance_wrist_1_joint": 5.82103293650617,
        "distance_wrist_2_joint": 0.9950099673886968,
        "distance_wrist_3_joint": 6.590903106219528,
        "smoothness": 0.6911588392112014,
        "time": 0.195985199,
        "traj_len": 4.190185277099682,
        "weighted_distance": 6.128254382183956
    },
    "planner": "PRM",
    "start": {
        "state": {
            "elbow_joint": 2.4225746658250005,
            "shoulder_lift_joint": -1.3736534386056498,
            "shoulder_pan_joint": -0.3378633547517467,
            "wrist_1_joint": -1.0288598680537169,
            "wrist_2_joint": 1.233022673432363,
            "wrist_3_joint": -3.0940220416140027
        }
    },
    "waypoints": [
        {
            "positions": [
                -0.3378633547517467,
                -1.3736534386056498,
                2.4225746658250005,
                -1.0288598680537169,
                1.233022673432363,
                -3.0940220416140027
            ]
        },
        {
            "positions": [
                -0.3154786709112515,
                -1.4277751028241386,
                2.4032046008208017,
                -0.90127639465631,
                1.2024765285721868,
                -2.962830883149771
            ]
        },
        {
            "positions": [
                -0.29309398707075623,
                -1.481896767042627,
                2.3838345358166024,
                -0.7736929212589031,
                1.1719303837120105,
                -2.831639724685539
            ]
        },
        {
            "positions": [
                -0.270709303230261,
                -1.5360184312611156,
                2.3644644708124036,
                -0.6461094478614963,
                1.1413842388518343,
                -2.700448566221308
            ]
        },
        {
            "positions": [
                -0.2483246193897657,
                -1.5901400954796043,
                2.345094405808205,
                -0.5185259744640893,
                1.110838093991658,
                -2.569257407757076
            ]
        },
        {
            "positions": [
                -0.22593993554927044,
                -1.644261759698093,
                2.3257243408040056,
                -0.3909425010666825,
                1.0802919491314817,
                -2.438066249292844
            ]
        },
        {
            "positions": [
                -0.2035552517087752,
                -1.6983834239165816,
                2.306354275799807,
                -0.26335902766927566,
                1.0497458042713055,
                -2.306875090828613
            ]
        },
        {
            "positions": [
                -0.18117056786827992,
                -1.7525050881350703,
                2.286984210795608,
                -0.1357755542718686,
                1.0191996594111292,
                -2.175683932364381
            ]
        },
        {
            "positions": [
                -0.15878588402778468,
                -1.8066267523535589,
                2.267614145791409,
                -0.008192080874461771,
                0.9886535145509528,
                -2.0444927739001493
            ]
        },
        {
            "positions": [
                -0.13640120018728943,
                -1.8607484165720476,
                2.24824408078721,
                0.11939139252294506,
                0.9581073696907767,
                -1.9133016154359177
            ]
        },
        {
            "positions": [
                -0.11401651634679416,
                -1.9148700807905361,
                2.228874015783011,
                0.2469748659203519,
                0.9275612248306003,
                -1.782110456971686
            ]
        },
        {
            "positions": [
                -0.09163183250629892,
                -1.9689917450090246,
                2.2095039507788123,
                0.3745583393177587,
                0.8970150799704241,
                -1.6509192985074543
            ]
        },
        {
            "positions": [
                -0.06924714866580367,
                -2.0231134092275136,
                2.190133885774613,
                0.5021418127151656,
                0.8664689351102478,
                -1.5197281400432228
            ]
        },
        {
            "positions": [
                -0.04686246482530837,
                -2.077235073446002,
                2.1707638207704143,
                0.6297252861125726,
                0.8359227902500715,
                -1.388536981578991
            ]
        },
        {
            "positions": [
                -0.024477780984813124,
                -2.1313567376644906,
                2.1513937557662155,
                0.7573087595099797,
                0.8053766453898952,
                -1.2573458231147592
            ]
        },
        {
            "positions": [
                -0.002093097144317879,
                -2.185478401882979,
                2.1320236907620167,
                0.8848922329073863,
                0.774830500529719,
                -1.1261546646505278
            ]
        },
        {
            "positions": [
                0.020291586696177366,
                -2.239600066101468,
                2.1126536257578175,
                1.0124757063047933,
                0.7442843556695427,
                -0.9949635061862958
            ]
        },
        {
            "positions": [
                0.04267627053667267,
                -2.2937217303199566,
                2.0932835607536187,
                1.1400591797022004,
                0.7137382108093664,
                -0.863772347722064
            ]
        },
        {
            "positions": [
                0.06506095437716786,
                -2.347843394538445,
                2.07391349574942,
                1.267642653099607,
                0.6831920659491902,
                -0.7325811892578327
            ]
        },
        {
            "positions": [
                0.08744563821766316,
                -2.401965058756934,
                2.0545434307452206,
                1.3952261264970136,
                0.6526459210890139,
                -0.6013900307936009
            ]
        },
        {
            "positions": [
                0.1098303220581584,
                -2.4560867229754226,
                2.035173365741022,
                1.5228095998944207,
                0.6220997762288376,
                -0.4701988723293691
            ]
        },
        {
            "positions": [
                0.13221500589865365,
                -2.510208387193911,
                2.015803300736823,
                1.6503930732918273,
                0.5915536313686615,
                -0.3390077138651377
            ]
        },
        {
            "positions": [
                0.1545996897391489,
                -2.5643300514123997,
                1.996433235732624,
                1.7779765466892343,
                0.5610074865084851,
                -0.20781655540090593
            ]
        },
        {
            "positions": [
                0.1769843735796442,
                -2.618451715630888,
                1.977063170728425,
                1.9055600200866414,
                0.5304613416483088,
                -0.07662539693667414
            ]
        },
        {
            "positions": [
                0.19936905742013938,
                -2.6725733798493767,
                1.9576931057242262,
                2.033143493484048,
                0.49991519678813257,
                0.05456576152755721
            ]
        },
        {
            "positions": [
                0.22175374126063463,
                -2.7266950440678657,
                1.9383230407200271,
                2.1607269668814553,
                0.4693690519279563,
                0.18575691999178923
            ]
        },
        {
            "positions": [
                0.2446639949411471,
                -2.6878055416181845,
                1.960037395053118,
                2.0354200096637887,
                0.4803860207795892,
                0.028084341676849284
            ]
        },
        {
            "positions": [
                0.26757424862165957,
                -2.6489160391685034,
                1.981751749386209,
                1.9101130524461223,
                0.49140298963122203,
                -0.12958823663809066
            ]
        },
        {
            "positions": [
                0.2904845023021721,
                -2.6100265367188222,
                2.0034661037193,
                1.7848060952284557,
                0.5024199584828549,
                -0.28726081495303063
            ]
        },
        {
            "positions": [
                0.31339475598268457,
                -2.5711370342691406,
                2.0251804580523904,
                1.6594991380107893,
                0.5134369273344878,
                -0.44493339326797055
            ]
        },
        {
            "positions": [
                0.33630500966319704,
                -2.5322475318194595,
                2.0468948123854815,
                1.5341921807931227,
                0.5244538961861206,
                -0.6026059715829105
            ]
        },
        {
            "positions": [
                0.35921526334370957,
                -2.4933580293697784,
                2.068609166718572,
                1.408885223575456,
                0.5354708650377535,
                -0.7602785498978505
            ]
        },
        {
            "positions": [
                0.38212551702422204,
                -2.454468526920097,
                2.0903235210516633,
                1.2835782663577895,
                0.5464878338893864,
                -0.9179511282127903
            ]
        },
        {
            "positions": [
                0.4050357707047345,
                -2.415579024470416,
                2.112037875384754,
                1.158271309140123,
                0.5575048027410192,
                -1.0756237065277303
            ]
        },
        {
            "positions": [
                0.427946024385247,
                -2.376689522020735,
                2.133752229717845,
                1.0329643519224565,
                0.568521771592652,
                -1.2332962848426703
            ]
        },
        {
            "positions": [
                0.45085627806575945,
                -2.3378000195710538,
                2.1554665840509357,
                0.9076573947047899,
                0.579538740444285,
                -1.3909688631576103
            ]
        },
        {
            "positions": [
                0.473766531746272,
                -2.298910517121372,
                2.1771809383840264,
                0.7823504374871233,
                0.5905557092959178,
                -1.5486414414725505
            ]
        },
        {
            "positions": [
                0.49667678542678445,
                -2.260021014671691,
                2.1988952927171175,
                0.6570434802694569,
                0.6015726781475507,
                -1.7063140197874902
            ]
        },
        {
            "positions": [
                0.519587039107297,
                -2.22113151222201,
                2.220609647050208,
                0.5317365230517901,
                0.6125896469991836,
                -1.8639865981024302
            ]
        },
        {
            "positions": [
                0.5424972927878094,
                -2.1822420097723287,
                2.2423240013832992,
                0.4064295658341237,
                0.6236066158508164,
                -2.02165917641737
            ]
        },
        {
            "positions": [
                0.5654075464683219,
                -2.1433525073226476,
                2.26403835571639,
                0.2811226086164571,
                0.6346235847024493,
                -2.17933175473231
            ]
        },
        {
            "positions": [
                0.5883178001488344,
                -2.1044630048729664,
                2.285752710049481,
                0.15581565139879094,
                0.6456405535540821,
                -2.3370043330472496
            ]
        },
        {
            "positions": [
                0.6112280538293469,
                -2.065573502423285,
                2.3074670643825717,
                0.030508694181123897,
                0.6566575224057151,
                -2.4946769113621903
            ]
        },
        {
            "positions": [
                0.6341383075098594,
                -2.0266839999736037,
                2.3291814187156628,
                -0.09479826303654226,
                0.6676744912573479,
                -2.65234948967713
            ]
        },
        {
            "positions": [
                0.6570485611903718,
                -1.9877944975239226,
                2.3508957730487534,
                -0.22010522025420887,
                0.6786914601089808,
                -2.8100220679920698
            ]
        },
        {
            "positions": [
                0.6799588148708844,
                -1.9489049950742414,
                2.3726101273818445,
                -0.34541217747187547,
                0.6897084289606137,
                -2.9676946463070095
            ]
        },
        {
            "positions": [
                0.7028690685513969,
                -1.9100154926245603,
                2.394324481714935,
                -0.47071913468954196,
                0.7007253978122465,
                -3.1253672246219497
            ]
        }
    ]
}