{
    "goal": {
        "global_pose": {
            "orientation": {
                "w": 0.7047431493862688,
                "x": -0.7094548369677653,
                "y": 0.0024358444001904,
                "z": -0.0022348060817251984
            },
            "position": {
                "x": -0.39052492380142206,
                "y": 0.3671506643295288,
                "z": 0.19426114857196808
            }
        },
        "name": "move_to_magneteinheit_D"
    },
    "id": "PRM_move_to_magneteinheit_D_53",
    "joint_names": [
        "shoulder_pan_joint",
        "shoulder_lift_joint",
        "elbow_joint",
        "wrist_1_joint",
        "wrist_2_joint",
        "wrist_3_joint"
    ],
    "metrics": {
        "cart_traj_len": 4.833304867501411,
        "distance_elbow_joint": 3.11196952073596,
        "distance_shoulder_lift_joint": 1.205885131877754,
        "distance_shoulder_pan_joint": 3.5506736145774696,
        "distance_wrist_1_joint": 2.1404929494431078,
        "distance_wrist_2_joint": 1.0732847886379884,
        "distance_wrist_3_joint": 1.3291598794671131,
        "smoothness": 0.319489847993624,
        "time": 0.32880292499999997,
        "traj_len": 3.52299104238705,
        "weighted_distance": 4.275928364899804
    },
    "planner": "PRM",
    "start": {
        "state": {
            "elbow_joint": 0.749534889911806,
            "shoulder_lift_joint": -0.6476975780787326,
            "shoulder_pan_joint": -2.711696901376241,
            "wrist_1_joint": -0.07506478083263063,
            "wrist_2_joint": 0.43296659715538205,
            "wrist_3_joint": -3.14703540197715
        }
    },
    "waypoints": [
        {
            "positions": [
                -2.711696901376241,
                -0.6476975780787326,
                0.749534889911806,
                -0.07506478083263063,
                0.43296659715538205,
                -3.14703540197715
            ]
        },
        {
            "positions": [
                -2.7092099042837967,
                -0.7001450783071208,
                0.64180396003087,
                -0.13791960150760674,
                0.4301813967763821,
                -3.0591109195550703
            ]
        },
        {
            "positions": [
                -2.7067229071913528,
                -0.7525925785355089,
                0.5340730301499342,
                -0.20077442218258285,
                0.42739619639738224,
                -2.971186437132991
            ]
        },
        {
            "positions": [
                -2.7042359100989084,
                -0.805040078763897,
                0.4263421002689983,
                -0.26362924285755895,
                0.4246109960183823,
                -2.8832619547109113
            ]
        },
        {
            "positions": [
                -2.566424154840173,
                -0.8440159940637438,
                0.3272959724231563,
                -0.32696797661039034,
                0.3866793925216711,
                -2.8646664561892785
            ]
        },
        {
            "positions": [
                -2.4286123995814384,
                -0.8829919093635907,
                0.22824984457731423,
                -0.3903067103632218,
                0.3487477890249599,
                -2.8460709576676453
            ]
        },
        {
            "positions": [
                -2.290800644322703,
                -0.9219678246634375,
                0.12920371673147224,
                -0.45364544411605323,
                0.3108161855282487,
                -2.8274754591460125
            ]
        },
        {
            "positions": [
                -2.152988889063968,
                -0.9609437399632843,
                0.030157588885630138,
                -0.5169841778688846,
                0.2728845820315375,
                -2.8088799606243793
            ]
        },
        {
            "positions": [
                -2.015177133805233,
                -0.9999196552631311,
                -0.06888853896021185,
                -0.5803229116217161,
                0.23495297853482627,
                -2.7902844621027465
            ]
        },
        {
            "positions": [
                -1.8773653785464979,
                -1.0388955705629779,
                -0.16793466680605385,
                -0.6436616453745474,
                0.1970213750381151,
                -2.7716889635811133
            ]
        },
        {
            "positions": [
                -1.7395536232877629,
                -1.0778714858628247,
                -0.26698079465189595,
                -0.7070003791273789,
                0.15908977154140386,
                -2.7530934650594805
            ]
        },
        {
            "positions": [
                -1.6017418680290278,
                -1.1168474011626714,
                -0.36602692249773805,
                -0.7703391128802103,
                0.12115816804469265,
                -2.7344979665378473
            ]
        },
        {
            "positions": [
                -1.4639301127702926,
                -1.1558233164625182,
                -0.46507305034358015,
                -0.8336778466330418,
                0.08322656454798144,
                -2.7159024680162145
            ]
        },
        {
            "positions": [
                -1.3261183575115576,
                -1.194799231762365,
                -0.564119178189422,
                -0.8970165803858732,
                0.04529496105127023,
                -2.6973069694945813
            ]
        },
        {
            "positions": [
                -1.1883066022528226,
                -1.233775147062212,
                -0.6631653060352641,
                -0.9603553141387046,
                0.007363357554559025,
                -2.6787114709729485
            ]
        },
        {
            "positions": [
                -1.0504948469940876,
                -1.2727510623620588,
                -0.762211433881106,
                -1.023694047891536,
                -0.030568245942152128,
                -2.6601159724513157
            ]
        },
        {
            "positions": [
                -0.9126830917353523,
                -1.3117269776619056,
                -0.8612575617269483,
                -1.0870327816443675,
                -0.06849984943886339,
                -2.6415204739296825
            ]
        },
        {
            "positions": [
                -0.7748713364766173,
                -1.3507028929617524,
                -0.9603036895727902,
                -1.150371515397199,
                -0.1064314529355746,
                -2.6229249754080497
            ]
        },
        {
            "positions": [
                -0.6370595812178825,
                -1.3896788082615992,
                -1.059349817418632,
                -1.2137102491500302,
                -0.1443630564322858,
                -2.6043294768864165
            ]
        },
        {
            "positions": [
                -0.4992478259591473,
                -1.4286547235614462,
                -1.1583959452644743,
                -1.2770489829028615,
                -0.18229465992899702,
                -2.5857339783647837
            ]
        },
        {
            "positions": [
                -0.36143607070041206,
                -1.467630638861293,
                -1.2574420731103162,
                -1.3403877166556932,
                -0.22022626342570822,
                -2.5671384798431505
            ]
        },
        {
            "positions": [
                -0.22362431544167682,
                -1.5066065541611398,
                -1.3564882009561585,
                -1.4037264504085245,
                -0.25815786692241943,
                -2.5485429813215177
            ]
        },
        {
            "positions": [
                -0.08581256018294203,
                -1.5455824694609865,
                -1.4555343288020004,
                -1.4670651841613558,
                -0.29608947041913064,
                -2.5299474827998845
            ]
        },
        {
            "positions": [
                0.0519991950757932,
                -1.5845583847608333,
                -1.5545804566478423,
                -1.5304039179141875,
                -0.33402107391584185,
                -2.5113519842782517
            ]
        },
        {
            "positions": [
                0.18981095033452844,
                -1.6235343000606801,
                -1.6536265844936846,
                -1.5937426516670188,
                -0.37195267741255306,
                -2.4927564857566185
            ]
        },
        {
            "positions": [
                0.32762270559326345,
                -1.662510215360527,
                -1.7526727123395265,
                -1.65708138541985,
                -0.4098842809092642,
                -2.4741609872349857
            ]
        },
        {
            "positions": [
                0.28713963420961486,
                -1.6851775572774994,
                -1.830092976345577,
                -1.7474564281162677,
                -0.38136243466555886,
                -2.554784094011694
            ]
        },
        {
            "positions": [
                0.24665656282596632,
                -1.7078448991944717,
                -1.907513240351628,
                -1.8378314708126853,
                -0.35284058842185345,
                -2.6354072007884026
            ]
        },
        {
            "positions": [
                0.20617349144231772,
                -1.7305122411114442,
                -1.9849335043576786,
                -1.9282065135091029,
                -0.32431874217814805,
                -2.716030307565111
            ]
        },
        {
            "positions": [
                0.16569042005866916,
                -1.7531795830284167,
                -2.0623537683637294,
                -2.0185815562055205,
                -0.2957968959344427,
                -2.7966534143418196
            ]
        },
        {
            "positions": [
                0.12520734867502056,
                -1.775846924945389,
                -2.13977403236978,
                -2.108956598901938,
                -0.26727504969073734,
                -2.877276521118528
            ]
        },
        {
            "positions": [
                0.084724277291372,
                -1.7985142668623615,
                -2.2171942963758307,
                -2.1993316415983557,
                -0.23875320344703194,
                -2.9578996278952365
            ]
        },
        {
            "positions": [
                -0.04950351236166539,
                -1.7709800453152988,
                -2.2898144635999924,
                -2.191218597259664,
                -0.20910178689147696,
                -3.0441730399275855
            ]
        },
        {
            "positions": [
                -0.18373130201470275,
                -1.7434458237682364,
                -2.362434630824154,
                -2.183105552920973,
                -0.17945037033592195,
                -3.1304464519599344
            ]
        }
    ]
}