{
    "goal": {
        "global_pose": {
            "orientation": {
                "w": -0.00223480608172531,
                "x": 0.0024358444001904467,
                "y": 0.7094548369677653,
                "z": -0.704743149386269
            },
            "position": {
                "x": -0.37947507619857795,
                "y": -0.6371506643295288,
                "z": 0.19426114857196808
            }
        },
        "name": "move_to_magneteinheit_C"
    },
    "id": "PRM_move_to_magneteinheit_C_100",
    "joint_names": [
        "shoulder_pan_joint",
        "shoulder_lift_joint",
        "elbow_joint",
        "wrist_1_joint",
        "wrist_2_joint",
        "wrist_3_joint"
    ],
    "metrics": {
        "cart_traj_len": 2.668294043906344,
        "distance_elbow_joint": 0.7407628888338786,
        "distance_shoulder_lift_joint": 1.859247496587674,
        "distance_shoulder_pan_joint": 3.766935760452331,
        "distance_wrist_1_joint": 6.0452571670763655,
        "distance_wrist_2_joint": 4.296879642186699,
        "distance_wrist_3_joint": 4.804321892261983,
        "smoothness": 0.6298181034859982,
        "time": 1.2938390469999999,
        "traj_len": 4.638254504379738,
        "weighted_distance": 6.4392690145066895
    },
    "planner": "PRM",
    "start": {
        "state": {
            "elbow_joint": 1.9565354010623817,
            "shoulder_lift_joint": -1.4165861575791021,
            "shoulder_pan_joint": -1.6717766225146293,
            "wrist_1_joint": -0.5286633292919765,
            "wrist_2_joint": 1.472756589071564,
            "wrist_3_joint": -3.1238370188695823
        }
    },
    "waypoints": [
        {
            "positions": [
                -1.6717766225146293,
                -1.4165861575791021,
                1.9565354010623817,
                -0.5286633292919765,
                1.472756589071564,
                -3.1238370188695823
            ]
        },
        {
            "positions": [
                -1.6161591900262078,
                -1.4213325616410604,
                1.9350821179556288,
                -0.5090901570619132,
                1.486602419938187,
                -3.0349949690443525
            ]
        },
        {
            "positions": [
                -1.560541757537786,
                -1.4260789657030184,
                1.9136288348488757,
                -0.4895169848318499,
                1.5004482508048103,
                -2.9461529192191227
            ]
        },
        {
            "positions": [
                -1.4999695277108844,
                -1.469336588186632,
                1.9003790465326276,
                -0.48358290850493396,
                1.3722455778449234,
                -2.807621455432751
            ]
        },
        {
            "positions": [
                -1.4393972978839829,
                -1.5125942106702457,
                1.8871292582163792,
                -0.477648832178018,
                1.2440429048850365,
                -2.6690899916463793
            ]
        },
        {
            "positions": [
                -1.3788250680570813,
                -1.5558518331538593,
                1.873879469900131,
                -0.471714755851102,
                1.1158402319251497,
                -2.530558527860008
            ]
        },
        {
            "positions": [
                -1.3182528382301797,
                -1.599109455637473,
                1.8606296815838828,
                -0.46578067952418606,
                0.987637558965263,
                -2.392027064073636
            ]
        },
        {
            "positions": [
                -1.257680608403278,
                -1.6423670781210866,
                1.8473798932676346,
                -0.4598466031972701,
                0.8594348860053761,
                -2.2534956002872644
            ]
        },
        {
            "positions": [
                -1.1971083785763765,
                -1.6856247006047003,
                1.8341301049513863,
                -0.4539125268703541,
                0.7312322130454894,
                -2.114964136500893
            ]
        },
        {
            "positions": [
                -1.136536148749475,
                -1.728882323088314,
                1.8208803166351382,
                -0.44797845054343816,
                0.6030295400856025,
                -1.976432672714521
            ]
        },
        {
            "positions": [
                -1.0759639189225734,
                -1.7721399455719276,
                1.80763052831889,
                -0.4420443742165222,
                0.47482686712571565,
                -1.8379012089281492
            ]
        },
        {
            "positions": [
                -1.0153916890956718,
                -1.8153975680555412,
                1.7943807400026417,
                -0.43611029788960626,
                0.3466241941658288,
                -1.6993697451417775
            ]
        },
        {
            "positions": [
                -0.9548194592687702,
                -1.8586551905391548,
                1.7811309516863936,
                -0.4301762215626903,
                0.21842152120594194,
                -1.5608382813554058
            ]
        },
        {
            "positions": [
                -0.8942472294418686,
                -1.9019128130227685,
                1.7678811633701452,
                -0.4242421452357743,
                0.09021884824605508,
                -1.422306817569034
            ]
        },
        {
            "positions": [
                -0.833674999614967,
                -1.9451704355063821,
                1.754631375053897,
                -0.41830806890885835,
                -0.03798382471383155,
                -1.2837753537826626
            ]
        },
        {
            "positions": [
                -0.7731027697880655,
                -1.9884280579899958,
                1.7413815867376488,
                -0.4123739925819424,
                -0.1661864976737184,
                -1.145243889996291
            ]
        },
        {
            "positions": [
                -0.7125305399611639,
                -2.0316856804736094,
                1.7281317984214006,
                -0.4064399162550264,
                -0.29438917063360526,
                -1.0067124262099192
            ]
        },
        {
            "positions": [
                -0.6519583101342623,
                -2.074943302957223,
                1.7148820101051525,
                -0.40050583992811045,
                -0.4225918435934921,
                -0.8681809624235473
            ]
        },
        {
            "positions": [
                -0.5913860803073607,
                -2.1182009254408367,
                1.7016322217889042,
                -0.3945717636011945,
                -0.550794516553379,
                -0.7296494986371758
            ]
        },
        {
            "positions": [
                -0.7001590274539923,
                -2.123036136965653,
                1.6974856900108501,
                -0.2645916581917839,
                -0.4687049752206681,
                -0.7787241934428724
            ]
        },
        {
            "positions": [
                -0.8089319746006238,
                -2.127871348490469,
                1.693339158232796,
                -0.1346115527823732,
                -0.3866154338879572,
                -0.827798888248569
            ]
        },
        {
            "positions": [
                -0.9177049217472553,
                -2.132706560015285,
                1.6891926264547419,
                -0.0046314473729625605,
                -0.30452589255524637,
                -0.8768735830542655
            ]
        },
        {
            "positions": [
                -1.026477868893887,
                -2.1375417715401013,
                1.6850460946766879,
                0.12534865803644812,
                -0.22243635122253547,
                -0.9259482778599621
            ]
        },
        {
            "positions": [
                -1.1352508160405184,
                -2.1423769830649175,
                1.6808995628986338,
                0.25532876344585875,
                -0.14034680988982462,
                -0.9750229726656587
            ]
        },
        {
            "positions": [
                -1.2440237631871498,
                -2.147212194589734,
                1.6767530311205796,
                0.3853088688552694,
                -0.05825726855711377,
                -1.0240976674713553
            ]
        },
        {
            "positions": [
                -1.3527967103337815,
                -2.15204740611455,
                1.6726064993425256,
                0.51528897426468,
                0.023832272775597074,
                -1.073172362277052
            ]
        },
        {
            "positions": [
                -1.4615696574804131,
                -2.156882617639366,
                1.6684599675644716,
                0.6452690796740908,
                0.10592181410830803,
                -1.1222470570827485
            ]
        },
        {
            "positions": [
                -1.5703426046270446,
                -2.161717829164182,
                1.6643134357864173,
                0.7752491850835013,
                0.18801135544101888,
                -1.1713217518884451
            ]
        },
        {
            "positions": [
                -1.679115551773676,
                -2.1665530406889983,
                1.6601669040083633,
                0.905229290492912,
                0.2701008967737297,
                -1.2203964466941417
            ]
        },
        {
            "positions": [
                -1.7878884989203079,
                -2.1713882522138146,
                1.6560203722303093,
                1.0352093959023227,
                0.3521904381064407,
                -1.2694711414998383
            ]
        },
        {
            "positions": [
                -1.896661446066939,
                -2.176223463738631,
                1.6518738404522553,
                1.1651895013117333,
                0.4342799794391514,
                -1.318545836305535
            ]
        },
        {
            "positions": [
                -2.0054343932135708,
                -2.181058675263447,
                1.647727308674201,
                1.295169606721144,
                0.5163695207718624,
                -1.3676205311112315
            ]
        },
        {
            "positions": [
                -2.114207340360202,
                -2.185893886788263,
                1.643580776896147,
                1.4251497121305545,
                0.5984590621045731,
                -1.416695225916928
            ]
        },
        {
            "positions": [
                -2.222980287506834,
                -2.190729098313079,
                1.639434245118093,
                1.5551298175399653,
                0.6805486034372841,
                -1.465769920722625
            ]
        },
        {
            "positions": [
                -2.3317532346534655,
                -2.1955643098378954,
                1.6352877133400388,
                1.685109922949376,
                0.762638144769995,
                -1.5148446155283213
            ]
        },
        {
            "positions": [
                -2.440526181800097,
                -2.2003995213627117,
                1.6311411815619847,
                1.8150900283587867,
                0.844727686102706,
                -1.563919310334018
            ]
        },
        {
            "positions": [
                -2.5492991289467284,
                -2.205234732887528,
                1.6269946497839307,
                1.945070133768197,
                0.9268172274354167,
                -1.6129940051397145
            ]
        },
        {
            "positions": [
                -2.6580720760933603,
                -2.2100699444123437,
                1.6228481180058767,
                2.0750502391776076,
                1.0089067687681277,
                -1.6620686999454113
            ]
        },
        {
            "positions": [
                -2.7668450232399913,
                -2.21490515593716,
                1.6187015862278225,
                2.2050303445870183,
                1.0909963101008384,
                -1.7111433947511077
            ]
        },
        {
            "positions": [
                -2.875617970386623,
                -2.2197403674619762,
                1.6145550544497684,
                2.3350104499964295,
                1.1730858514335494,
                -1.7602180895568045
            ]
        },
        {
            "positions": [
                -2.8532672299329676,
                -2.1610685182005986,
                1.6367096401287275,
                2.158255817341543,
                1.1456378044830862,
                -1.8368606329518016
            ]
        },
        {
            "positions": [
                -2.830916489479312,
                -2.1023966689392206,
                1.6588642258076869,
                1.9815011846866561,
                1.1181897575326232,
                -1.9135031763467985
            ]
        },
        {
            "positions": [
                -2.8085657490256564,
                -2.043724819677843,
                1.681018811486646,
                1.8047465520317694,
                1.09074171058216,
                -1.9901457197417955
            ]
        },
        {
            "positions": [
                -2.7862150085720008,
                -1.9850529704164652,
                1.7031733971656051,
                1.6279919193768828,
                1.0632936636316968,
                -2.0667882631367926
            ]
        },
        {
            "positions": [
                -2.763864268118345,
                -1.9263811211550874,
                1.7253279828445645,
                1.451237286721996,
                1.0358456166812335,
                -2.1434308065317897
            ]
        },
        {
            "positions": [
                -2.7415135276646896,
                -1.8677092718937096,
                1.7474825685235236,
                1.2744826540671095,
                1.0083975697307705,
                -2.220073349926787
            ]
        },
        {
            "positions": [
                -2.719162787211034,
                -1.8090374226323318,
                1.7696371542024827,
                1.0977280214122227,
                0.9809495227803073,
                -2.2967158933217835
            ]
        },
        {
            "positions": [
                -2.6968120467573784,
                -1.7503655733709542,
                1.791791739881442,
                0.9209733887573361,
                0.9535014758298441,
                -2.3733584367167806
            ]
        },
        {
            "positions": [
                -2.674461306303723,
                -1.6916937241095762,
                1.8139463255604011,
                0.7442187561024494,
                0.926053428879381,
                -2.4500009801117777
            ]
        },
        {
            "positions": [
                -2.6521105658500677,
                -1.6330218748481986,
                1.8361009112393603,
                0.5674641234475626,
                0.8986053819289179,
                -2.526643523506775
            ]
        },
        {
            "positions": [
                -2.629759825396412,
                -1.5743500255868206,
                1.8582554969183196,
                0.3907094907926758,
                0.8711573349784547,
                -2.603286066901772
            ]
        },
        {
            "positions": [
                -2.6074090849427565,
                -1.515678176325443,
                1.8804100825972787,
                0.21395485813778947,
                0.8437092880279916,
                -2.679928610296769
            ]
        },
        {
            "positions": [
                -2.585058344489101,
                -1.4570063270640652,
                1.9025646682762378,
                0.03720022548290247,
                0.8162612410775285,
                -2.756571153691766
            ]
        },
        {
            "positions": [
                -2.5627076040354453,
                -1.3983344778026874,
                1.9247192539551972,
                -0.13955440717198409,
                0.7888131941270653,
                -2.833213697086763
            ]
        },
        {
            "positions": [
                -2.5403568635817897,
                -1.3396626285413098,
                1.9468738396341563,
                -0.31630903982687064,
                0.7613651471766021,
                -2.9098562404817603
            ]
        },
        {
            "positions": [
                -2.518006123128134,
                -1.280990779279932,
                1.9690284253131154,
                -0.4930636724817572,
                0.733917100226139,
                -2.986498783876757
            ]
        },
        {
            "positions": [
                -2.4956553826744785,
                -1.2223189300185542,
                1.9911830109920747,
                -0.6698183051366442,
                0.7064690532756759,
                -3.063141327271754
            ]
        },
        {
            "positions": [
                -2.473304642220823,
                -1.1636470807571764,
                2.013337596671034,
                -0.8465729377915306,
                0.6790210063252127,
                -3.139783870666751
            ]
        }
    ]
}