{
    "goal": {
        "global_pose": {
            "orientation": {
                "w": -0.00223480608172531,
                "x": 0.0024358444001904467,
                "y": 0.7094548369677653,
                "z": -0.704743149386269
            },
            "position": {
                "x": -0.37947507619857795,
                "y": -0.6371506643295288,
                "z": 0.19426114857196808
            }
        },
        "name": "move_to_magneteinheit_C"
    },
    "id": "PRM_move_to_magneteinheit_C_16",
    "joint_names": [
        "shoulder_pan_joint",
        "shoulder_lift_joint",
        "elbow_joint",
        "wrist_1_joint",
        "wrist_2_joint",
        "wrist_3_joint"
    ],
    "metrics": {
        "cart_traj_len": 0.9047749908036348,
        "distance_elbow_joint": 0.14634100585462306,
        "distance_shoulder_lift_joint": 0.7594085649997342,
        "distance_shoulder_pan_joint": 0.9494045694110722,
        "distance_wrist_1_joint": 1.5364114636496375,
        "distance_wrist_2_joint": 0.8581104731658327,
        "distance_wrist_3_joint": 0.8637299392209186,
        "smoothness": 0.9983474177030575,
        "time": 0.107941319,
        "traj_len": 2.261284152047641,
        "weighted_distance": 3.03897809000972
    },
    "planner": "PRM",
    "start": {
        "state": {
            "elbow_joint": 1.9565354010623817,
            "shoulder_lift_joint": -1.4165861575791021,
            "shoulder_pan_joint": -1.6717766225146293,
            "wrist_1_joint": -0.5286633292919765,
            "wrist_2_joint": 1.472756589071564,
            "wrist_3_joint": -3.1238370188695823
        }
    },
    "waypoints": [
        {
            "positions": [
                -1.6717766225146293,
                -1.4165861575791021,
                1.9565354010623817,
                -0.5286633292919765,
                1.472756589071564,
                -3.1238370188695823
            ]
        },
        {
            "positions": [
                -1.6876005578345954,
                -1.4427737768337159,
                1.9450227978985855,
                -0.46367317450050005,
                1.3408122810689478,
                -3.073464260479029
            ]
        },
        {
            "positions": [
                -1.7034244931545615,
                -1.4689613960883297,
                1.9335101947347892,
                -0.39868301970902364,
                1.2088679730663314,
                -3.023091502088475
            ]
        },
        {
            "positions": [
                -1.7192484284745275,
                -1.4951490153429434,
                1.921997591570993,
                -0.33369286491754724,
                1.076923665063715,
                -2.9727187436979214
            ]
        },
        {
            "positions": [
                -1.7350723637944936,
                -1.5213366345975572,
                1.9104849884071968,
                -0.26870271012607083,
                0.9449793570610989,
                -2.922345985307368
            ]
        },
        {
            "positions": [
                -1.8975423247068781,
                -1.5509813703319257,
                1.913929765444963,
                -0.1983292094964345,
                0.8845644683853562,
                -2.8790962821664143
            ]
        },
        {
            "positions": [
                -2.060012285619263,
                -1.5806261060662945,
                1.9173745424827293,
                -0.12795570886679816,
                0.8241495797096136,
                -2.83584657902546
            ]
        },
        {
            "positions": [
                -2.2224822465316474,
                -1.610270841800663,
                1.9208193195204954,
                -0.05758220823716184,
                0.7637346910338708,
                -2.7925968758845063
            ]
        },
        {
            "positions": [
                -2.384952207444032,
                -1.6399155775350318,
                1.9242640965582618,
                0.012791292392474507,
                0.7033198023581282,
                -2.749347172743552
            ]
        },
        {
            "positions": [
                -2.5474221683564164,
                -1.6695603132694004,
                1.927708873596028,
                0.08316479302211083,
                0.6429049136823854,
                -2.7060974696025983
            ]
        },
        {
            "positions": [
                -2.5351289977615354,
                -1.5851545783844943,
                1.9415533249311292,
                -0.0709324305338142,
                0.6476147133118278,
                -2.7804292012615877
            ]
        },
        {
            "positions": [
                -2.522835827166655,
                -1.5007488434995884,
                1.9553977762662302,
                -0.22502965408973924,
                0.6523245129412701,
                -2.8547609329205765
            ]
        },
        {
            "positions": [
                -2.510542656571774,
                -1.4163431086146825,
                1.9692422276013315,
                -0.3791268776456643,
                0.6570343125707125,
                -2.9290926645795654
            ]
        },
        {
            "positions": [
                -2.498249485976893,
                -1.3319373737297764,
                1.9830866789364328,
                -0.5332241012015893,
                0.6617441122001549,
                -3.0034243962385547
            ]
        },
        {
            "positions": [
                -2.4859563153820123,
                -1.2475316388448703,
                1.9969311302715338,
                -0.6873213247575143,
                0.6664539118295972,
                -3.077756127897544
            ]
        },
        {
            "positions": [
                -2.4736631447871313,
                -1.1631259039599644,
                2.010775581606635,
                -0.8414185483134393,
                0.6711637114590396,
                -3.152087859556533
            ]
        }
    ]
}