{
    "goal": {
        "global_pose": {
            "orientation": {
                "w": 0.005598929693374612,
                "x": 0.007748599140229565,
                "y": 0.7110244013736278,
                "z": -0.7031023480610252
            },
            "position": {
                "x": 0.1141497679147869,
                "y": -0.7141253447532654,
                "z": 0.3711530566215515
            }
        },
        "name": "move_to_auspresseinheit_B"
    },
    "id": "PRM_move_to_auspresseinheit_B_101",
    "joint_names": [
        "shoulder_pan_joint",
        "shoulder_lift_joint",
        "elbow_joint",
        "wrist_1_joint",
        "wrist_2_joint",
        "wrist_3_joint"
    ],
    "metrics": {
        "cart_traj_len": 0.5645729462651875,
        "distance_elbow_joint": 0.06390034425357083,
        "distance_shoulder_lift_joint": 0.29503002737208117,
        "distance_shoulder_pan_joint": 0.5740592455621993,
        "distance_wrist_1_joint": 0.3294069494305737,
        "distance_wrist_2_joint": 1.0068476158634598,
        "distance_wrist_3_joint": 0.007256433483636915,
        "smoothness": 2.5376526478085547e-16,
        "time": 0.023605564,
        "traj_len": 1.5088076802447428,
        "weighted_distance": 1.904538801974596
    },
    "planner": "PRM",
    "start": {
        "state": {
            "elbow_joint": 2.0193083361928714,
            "shoulder_lift_joint": -1.1220246554650708,
            "shoulder_pan_joint": -1.0952077554168747,
            "wrist_1_joint": -0.8559753972642168,
            "wrist_2_joint": 0.4759566250798843,
            "wrist_3_joint": -3.1240929996934557
        }
    },
    "waypoints": [
        {
            "positions": [
                -1.0952077554168747,
                -1.1220246554650708,
                2.0193083361928714,
                -0.8559753972642168,
                0.4759566250798843,
                -3.1240929996934557
            ]
        },
        {
            "positions": [
                -1.190884296343908,
                -1.171196326693751,
                2.0086582788172764,
                -0.8010742390257879,
                0.6437645610571276,
                -3.1228835941128494
            ]
        },
        {
            "positions": [
                -1.2865608372709412,
                -1.2203679979224311,
                1.9980082214416812,
                -0.7461730807873589,
                0.811572497034371,
                -3.121674188532243
            ]
        },
        {
            "positions": [
                -1.3822373781979742,
                -1.2695396691511114,
                1.987358164066086,
                -0.6912719225489299,
                0.9793804330116143,
                -3.120464782951637
            ]
        },
        {
            "positions": [
                -1.4779139191250075,
                -1.3187113403797917,
                1.9767081066904908,
                -0.636370764310501,
                1.1471883689888576,
                -3.119255377371031
            ]
        },
        {
            "positions": [
                -1.5735904600520407,
                -1.3678830116084717,
                1.9660580493148958,
                -0.5814696060720721,
                1.3149963049661009,
                -3.118045971790425
            ]
        },
        {
            "positions": [
                -1.669267000979074,
                -1.417054682837152,
                1.9554079919393006,
                -0.5265684478336431,
                1.4828042409433442,
                -3.1168365662098187
            ]
        }
    ]
}