{
    "goal": {
        "global_pose": {
            "orientation": {
                "w": -0.00223480608172531,
                "x": 0.0024358444001904467,
                "y": 0.7094548369677653,
                "z": -0.704743149386269
            },
            "position": {
                "x": -0.37947507619857795,
                "y": -0.6371506643295288,
                "z": 0.19426114857196808
            }
        },
        "name": "move_to_magneteinheit_C"
    },
    "id": "PRM_move_to_magneteinheit_C_145",
    "joint_names": [
        "shoulder_pan_joint",
        "shoulder_lift_joint",
        "elbow_joint",
        "wrist_1_joint",
        "wrist_2_joint",
        "wrist_3_joint"
    ],
    "metrics": {
        "cart_traj_len": 1.4819284217735236,
        "distance_elbow_joint": 0.36015090831975316,
        "distance_shoulder_lift_joint": 2.4183497560329394,
        "distance_shoulder_pan_joint": 1.6572437333682302,
        "distance_wrist_1_joint": 2.559381199780064,
        "distance_wrist_2_joint": 2.2732731038863507,
        "distance_wrist_3_joint": 7.774105522528478,
        "smoothness": 0.7645373530887475,
        "time": 1.1375541999999998,
        "traj_len": 4.12825680207952,
        "weighted_distance": 6.117464309061329
    },
    "planner": "PRM",
    "start": {
        "state": {
            "elbow_joint": 1.9565354010623817,
            "shoulder_lift_joint": -1.4165861575791021,
            "shoulder_pan_joint": -1.6717766225146293,
            "wrist_1_joint": -0.5286633292919765,
            "wrist_2_joint": 1.472756589071564,
            "wrist_3_joint": -3.1238370188695823
        }
    },
    "waypoints": [
        {
            "positions": [
                -1.6717766225146293,
                -1.4165861575791021,
                1.9565354010623817,
                -0.5286633292919765,
                1.472756589071564,
                -3.1238370188695823
            ]
        },
        {
            "positions": [
                -1.7222696500397854,
                -1.4375339402369776,
                1.9770805948052965,
                -0.4231621463525657,
                1.3188044108493122,
                -3.107960683461504
            ]
        },
        {
            "positions": [
                -1.7727626775649417,
                -1.458481722894853,
                1.9976257885482114,
                -0.317660963413155,
                1.1648522326270605,
                -3.092084348053426
            ]
        },
        {
            "positions": [
                -1.8232557050900977,
                -1.4794295055527285,
                2.0181709822911262,
                -0.21215978047374429,
                1.0109000544048088,
                -3.0762080126453473
            ]
        },
        {
            "positions": [
                -1.8737487326152538,
                -1.500377288210604,
                2.038716176034041,
                -0.10665859753433349,
                0.856947876182557,
                -3.060331677237269
            ]
        },
        {
            "positions": [
                -1.92424176014041,
                -1.5213250708684791,
                2.059261369776956,
                -0.001157414594922801,
                0.7029956979603053,
                -3.044455341829191
            ]
        },
        {
            "positions": [
                -1.974734787665566,
                -1.5422728535263546,
                2.079806563519871,
                0.10434376834448789,
                0.5490435197380535,
                -3.0285790064211127
            ]
        },
        {
            "positions": [
                -2.025227815190722,
                -1.56322063618423,
                2.1003517572627857,
                0.20984495128389857,
                0.39509134151580194,
                -3.0127026710130345
            ]
        },
        {
            "positions": [
                -2.0757208427158784,
                -1.5841684188421055,
                2.1208969510057005,
                0.3153461342233095,
                0.24113916329355,
                -2.996826335604956
            ]
        },
        {
            "positions": [
                -2.1262138702410343,
                -1.605116201499981,
                2.1414421447486154,
                0.42084731716272017,
                0.0871869850712983,
                -2.9809500001968776
            ]
        },
        {
            "positions": [
                -2.1767068977661905,
                -1.6260639841578564,
                2.1619873384915302,
                0.5263485001021309,
                -0.06676519315095336,
                -2.9650736647887994
            ]
        },
        {
            "positions": [
                -2.214877000057117,
                -1.6719938457842343,
                2.16101368431293,
                0.45133859114065566,
                -0.04362408099437488,
                -2.769645485228576
            ]
        },
        {
            "positions": [
                -2.2530471023480434,
                -1.717923707410612,
                2.160040030134329,
                0.3763286821791805,
                -0.020482968837796392,
                -2.574217305668353
            ]
        },
        {
            "positions": [
                -2.29121720463897,
                -1.7638535690369899,
                2.159066375955729,
                0.3013187732177053,
                0.0026581433187820858,
                -2.3787891261081295
            ]
        },
        {
            "positions": [
                -2.3293873069298967,
                -1.8097834306633678,
                2.1580927217771286,
                0.2263088642562301,
                0.025799255475360577,
                -2.1833609465479062
            ]
        },
        {
            "positions": [
                -2.367557409220823,
                -1.8557132922897455,
                2.1571190675985283,
                0.1512989552947549,
                0.048940367631939055,
                -1.9879327669876832
            ]
        },
        {
            "positions": [
                -2.4057275115117496,
                -1.9016431539161234,
                2.1561454134199276,
                0.07628904633327971,
                0.07208147978851753,
                -1.7925045874274599
            ]
        },
        {
            "positions": [
                -2.443897613802676,
                -1.9475730155425013,
                2.1551717592413273,
                0.0012791373718045174,
                0.09522259194509602,
                -1.5970764078672366
            ]
        },
        {
            "positions": [
                -2.4820677160936024,
                -1.9935028771688792,
                2.154198105062727,
                -0.07373077158967067,
                0.11836370410167452,
                -1.4016482283070133
            ]
        },
        {
            "positions": [
                -2.520237818384529,
                -2.0394327387952567,
                2.1532244508841267,
                -0.14874068055114587,
                0.141504816258253,
                -1.20622004874679
            ]
        },
        {
            "positions": [
                -2.5584079206754557,
                -2.0853626004216346,
                2.152250796705526,
                -0.22375058951262106,
                0.16464592841483147,
                -1.010791869186567
            ]
        },
        {
            "positions": [
                -2.596578022966382,
                -2.1312924620480125,
                2.1512771425269257,
                -0.29876049847409636,
                0.18778704057141,
                -0.8153636896263432
            ]
        },
        {
            "positions": [
                -2.6347481252573086,
                -2.1772223236743904,
                2.1503034883483254,
                -0.37377040743557144,
                0.21092815272798843,
                -0.6199355100661204
            ]
        },
        {
            "positions": [
                -2.672918227548235,
                -2.2231521853007683,
                2.149329834169725,
                -0.44878031639704674,
                0.23406926488456697,
                -0.42450733050589706
            ]
        },
        {
            "positions": [
                -2.7110883298391615,
                -2.269082046927146,
                2.1483561799911244,
                -0.5237902253585218,
                0.2572103770411454,
                -0.22907915094567377
            ]
        },
        {
            "positions": [
                -2.7492584321300884,
                -2.315011908553524,
                2.147382525812524,
                -0.5988001343199971,
                0.28035148919772396,
                -0.03365097138545048
            ]
        },
        {
            "positions": [
                -2.7874285344210143,
                -2.3609417701799016,
                2.146408871633924,
                -0.6738100432814722,
                0.3034926013543024,
                0.1617772081747728
            ]
        },
        {
            "positions": [
                -2.8255986367119412,
                -2.4068716318062795,
                2.1454352174553235,
                -0.7488199522429475,
                0.3266337135108809,
                0.3572053877349961
            ]
        },
        {
            "positions": [
                -2.8637687390028677,
                -2.4528014934326574,
                2.1444615632767228,
                -0.8238298612044226,
                0.3497748256674594,
                0.5526335672952194
            ]
        },
        {
            "positions": [
                -2.901938841293794,
                -2.4987313550590353,
                2.1434879090981225,
                -0.8988397701658979,
                0.37291593782403787,
                0.7480617468554427
            ]
        },
        {
            "positions": [
                -2.8752462466319777,
                -2.4152185701494724,
                2.1349754377545476,
                -0.8938909514085273,
                0.39129532474209033,
                0.5041738245552265
            ]
        },
        {
            "positions": [
                -2.848553651970161,
                -2.3317057852399095,
                2.1264629664109727,
                -0.8889421326511565,
                0.4096747116601428,
                0.26028590225501036
            ]
        },
        {
            "positions": [
                -2.8218610573083445,
                -2.248193000330347,
                2.117950495067398,
                -0.8839933138937859,
                0.42805409857819526,
                0.016397979954794195
            ]
        },
        {
            "positions": [
                -2.7951684626465276,
                -2.164680215420784,
                2.1094380237238233,
                -0.8790444951364152,
                0.44643348549624773,
                -0.22748994234542197
            ]
        },
        {
            "positions": [
                -2.7684758679847112,
                -2.081167430511221,
                2.1009255523802484,
                -0.8740956763790445,
                0.46481287241430025,
                -0.47137786464563813
            ]
        },
        {
            "positions": [
                -2.7417832733228944,
                -1.9976546456016582,
                2.092413081036674,
                -0.8691468576216739,
                0.4831922593323527,
                -0.7152657869458543
            ]
        },
        {
            "positions": [
                -2.715090678661078,
                -1.9141418606920952,
                2.083900609693099,
                -0.8641980388643032,
                0.5015716462504052,
                -0.9591537092460705
            ]
        },
        {
            "positions": [
                -2.688398083999261,
                -1.8306290757825323,
                2.075388138349524,
                -0.8592492201069326,
                0.5199510331684576,
                -1.2030416315462866
            ]
        },
        {
            "positions": [
                -2.6617054893374448,
                -1.7471162908729696,
                2.066875667005949,
                -0.8543004013495619,
                0.5383304200865101,
                -1.4469295538465028
            ]
        },
        {
            "positions": [
                -2.6350128946756284,
                -1.6636035059634067,
                2.0583631956623742,
                -0.8493515825921912,
                0.5567098070045626,
                -1.690817476146719
            ]
        },
        {
            "positions": [
                -2.6083203000138115,
                -1.580090721053844,
                2.0498507243187998,
                -0.8444027638348206,
                0.575089193922615,
                -1.9347053984469351
            ]
        },
        {
            "positions": [
                -2.581627705351995,
                -1.496577936144281,
                2.041338252975225,
                -0.8394539450774499,
                0.5934685808406676,
                -2.1785933207471513
            ]
        },
        {
            "positions": [
                -2.5549351106901783,
                -1.413065151234718,
                2.03282578163165,
                -0.8345051263200792,
                0.61184796775872,
                -2.4224812430473674
            ]
        },
        {
            "positions": [
                -2.528242516028362,
                -1.3295523663251552,
                2.0243133102880755,
                -0.8295563075627086,
                0.6302273546767725,
                -2.6663691653475836
            ]
        },
        {
            "positions": [
                -2.5015499213665455,
                -1.2460395814155925,
                2.0158008389445006,
                -0.8246074888053379,
                0.6486067415948249,
                -2.9102570876478
            ]
        },
        {
            "positions": [
                -2.4748573267047287,
                -1.1625267965060295,
                2.0072883676009257,
                -0.8196586700479672,
                0.6669861285128774,
                -3.154145009948016
            ]
        }
    ]
}