{
    "goal": {
        "global_pose": {
            "orientation": {
                "w": -0.4816463035849501,
                "x": 0.5182115481033762,
                "y": 0.4908360881923453,
                "z": -0.5084816262002911
            },
            "position": {
                "x": -0.8240239810943604,
                "y": -0.300875300988555,
                "z": 0.16403168439865112
            }
        },
        "name": "move_to_storage_C"
    },
    "id": "PRM_move_to_storage_C_123",
    "joint_names": [
        "shoulder_pan_joint",
        "shoulder_lift_joint",
        "elbow_joint",
        "wrist_1_joint",
        "wrist_2_joint",
        "wrist_3_joint"
    ],
    "metrics": {
        "cart_traj_len": 0.5774207843514939,
        "distance_elbow_joint": 0.25829338943441527,
        "distance_shoulder_lift_joint": 0.1896034541354159,
        "distance_shoulder_pan_joint": 0.493719524721592,
        "distance_wrist_1_joint": 0.07139060731802349,
        "distance_wrist_2_joint": 1.0779181476358852,
        "distance_wrist_3_joint": 0.06841041677165371,
        "smoothness": 0.0,
        "time": 0.019112263,
        "traj_len": 1.4694677744057492,
        "weighted_distance": 1.8561964143145526
    },
    "planner": "PRM",
    "start": {
        "state": {
            "elbow_joint": 2.010868314990456,
            "shoulder_lift_joint": -1.1634956873337592,
            "shoulder_pan_joint": -2.4736205022346125,
            "wrist_1_joint": -0.8367026794202681,
            "wrist_2_joint": 0.6746043897044499,
            "wrist_3_joint": -3.1496632123970403
        }
    },
    "waypoints": [
        {
            "positions": [
                -2.4736205022346125,
                -1.1634956873337592,
                2.010868314990456,
                -0.8367026794202681,
                0.6746043897044499,
                -3.1496632123970403
            ]
        },
        {
            "positions": [
                -2.555907089688211,
                -1.1318951116445233,
                1.9678194167513867,
                -0.8248042448672642,
                0.8542574143104308,
                -3.1382614762684313
            ]
        },
        {
            "positions": [
                -2.63819367714181,
                -1.1002945359552871,
                1.9247705185123174,
                -0.8129058103142602,
                1.0339104389164118,
                -3.1268597401398224
            ]
        },
        {
            "positions": [
                -2.7204802645954085,
                -1.0686939602660512,
                1.881721620273248,
                -0.8010073757612564,
                1.2135634635223926,
                -3.1154580040112134
            ]
        },
        {
            "positions": [
                -2.802766852049007,
                -1.0370933845768153,
                1.838672722034179,
                -0.7891089412082525,
                1.3932164881283735,
                -3.1040562678826045
            ]
        },
        {
            "positions": [
                -2.885053439502606,
                -1.0054928088875792,
                1.7956238237951099,
                -0.7772105066552485,
                1.5728695127343544,
                -3.0926545317539955
            ]
        },
        {
            "positions": [
                -2.9673400269562045,
                -0.9738922331983433,
                1.7525749255560406,
                -0.7653120721022446,
                1.7525225373403353,
                -3.0812527956253866
            ]
        }
    ]
}