{
    "goal": {
        "global_pose": {
            "orientation": {
                "w": -0.4816463035849501,
                "x": 0.5182115481033762,
                "y": 0.4908360881923453,
                "z": -0.5084816262002911
            },
            "position": {
                "x": -0.8240239810943604,
                "y": 0.19912469901144506,
                "z": 0.16403168439865112
            }
        },
        "name": "move_to_storage_D"
    },
    "id": "PRM_move_to_storage_D_11",
    "joint_names": [
        "shoulder_pan_joint",
        "shoulder_lift_joint",
        "elbow_joint",
        "wrist_1_joint",
        "wrist_2_joint",
        "wrist_3_joint"
    ],
    "metrics": {
        "cart_traj_len": 3.5481821480305444,
        "distance_elbow_joint": 4.21016041135644,
        "distance_shoulder_lift_joint": 1.2650832052014518,
        "distance_shoulder_pan_joint": 2.8145135203522753,
        "distance_wrist_1_joint": 2.2749844271021264,
        "distance_wrist_2_joint": 1.3984951556405296,
        "distance_wrist_3_joint": 3.2610585980673092,
        "smoothness": 0.020103244483543954,
        "time": 0.359453993,
        "traj_len": 3.901832302613752,
        "weighted_distance": 5.041814365543162
    },
    "planner": "PRM",
    "start": {
        "state": {
            "elbow_joint": -2.384821988534728,
            "shoulder_lift_joint": -2.2788054721415256,
            "shoulder_pan_joint": -0.1854694642142757,
            "wrist_1_joint": 1.4845938289331202,
            "wrist_2_joint": 0.17898776772866878,
            "wrist_3_joint": 0.037105688729662994
        }
    },
    "waypoints": [
        {
            "positions": [
                -0.1854694642142757,
                -2.2788054721415256,
                -2.384821988534728,
                1.4845938289331202,
                0.17898776772866878,
                0.037105688729662994
            ]
        },
        {
            "positions": [
                -0.08758533430751259,
                -2.2762828579675483,
                -2.1826690137514664,
                1.4750507812829043,
                0.25014185451070264,
                0.04085199560858824
            ]
        },
        {
            "positions": [
                0.010298795599250538,
                -2.2737602437935704,
                -1.9805160389682046,
                1.4655077336326885,
                0.32129594129273653,
                0.04459830248751347
            ]
        },
        {
            "positions": [
                0.10818292550601369,
                -2.271237629619593,
                -1.7783630641849428,
                1.4559646859824726,
                0.39245002807477036,
                0.048344609366438716
            ]
        },
        {
            "positions": [
                0.20606705541277678,
                -2.2687150154456157,
                -1.5762100894016813,
                1.4464216383322568,
                0.4636041148568042,
                0.05209091624536395
            ]
        },
        {
            "positions": [
                0.3039511853195399,
                -2.266192401271638,
                -1.3740571146184197,
                1.4368785906820412,
                0.534758201638838,
                0.055837223124289195
            ]
        },
        {
            "positions": [
                0.4018353152263031,
                -2.2636697870976605,
                -1.171904139835158,
                1.4273355430318253,
                0.605912288420872,
                0.05958353000321444
            ]
        },
        {
            "positions": [
                0.4997194451330662,
                -2.261147172923683,
                -0.9697511650518962,
                1.4177924953816095,
                0.6770663752029058,
                0.06332983688213968
            ]
        },
        {
            "positions": [
                0.5976035750398293,
                -2.2586245587497054,
                -0.7675981902686346,
                1.4082494477313936,
                0.7482204619849396,
                0.06707614376106491
            ]
        },
        {
            "positions": [
                0.6954877049465924,
                -2.256101944575728,
                -0.5654452154853731,
                1.3987064000811777,
                0.8193745487669735,
                0.07082245063999015
            ]
        },
        {
            "positions": [
                0.7933718348533555,
                -2.2535793304017506,
                -0.3632922407021115,
                1.389163352430962,
                0.8905286355490073,
                0.0745687575189154
            ]
        },
        {
            "positions": [
                0.8912559647601187,
                -2.2510567162277733,
                -0.16113926591884953,
                1.379620304780746,
                0.9616827223310412,
                0.07831506439784064
            ]
        },
        {
            "positions": [
                0.9891400946668819,
                -2.2485341020537954,
                0.041013708864412024,
                1.3700772571305304,
                1.032836809113075,
                0.08206137127676588
            ]
        },
        {
            "positions": [
                1.0870242245736448,
                -2.246011487879818,
                0.24316668364767358,
                1.3605342094803146,
                1.103990895895109,
                0.08580767815569112
            ]
        },
        {
            "positions": [
                1.184908354480408,
                -2.2434888737058407,
                0.44531965843093557,
                1.3509911618300987,
                1.175144982677143,
                0.08955398503461637
            ]
        },
        {
            "positions": [
                1.282792484387171,
                -2.240966259531863,
                0.6474726332141971,
                1.3414481141798829,
                1.2462990694591767,
                0.0933002919135416
            ]
        },
        {
            "positions": [
                1.3806766142939342,
                -2.2384436453578855,
                0.8496256079974588,
                1.331905066529667,
                1.3174531562412106,
                0.09704659879246684
            ]
        },
        {
            "positions": [
                1.4366900427824403,
                -2.189319757854249,
                0.9013045480981403,
                1.2463926008079407,
                1.311417517398892,
                -0.03056441071552944
            ]
        },
        {
            "positions": [
                1.4927034712709464,
                -2.1401958703506123,
                0.9529834881988217,
                1.1608801350862143,
                1.3053818785565734,
                -0.1581754202235257
            ]
        },
        {
            "positions": [
                1.5487168997594525,
                -2.0910719828469757,
                1.0046624282995031,
                1.0753676693644882,
                1.299346239714255,
                -0.28578642973152196
            ]
        },
        {
            "positions": [
                1.6047303282479586,
                -2.041948095343339,
                1.0563413684001848,
                0.9898552036427619,
                1.2933106008719364,
                -0.41339743923951827
            ]
        },
        {
            "positions": [
                1.6607437567364647,
                -1.9928242078397023,
                1.1080203085008662,
                0.9043427379210356,
                1.2872749620296178,
                -0.5410084487475146
            ]
        },
        {
            "positions": [
                1.7167571852249706,
                -1.9437003203360657,
                1.1596992486015476,
                0.8188302721993094,
                1.2812393231872992,
                -0.6686194582555108
            ]
        },
        {
            "positions": [
                1.7727706137134767,
                -1.8945764328324288,
                1.2113781887022292,
                0.733317806477583,
                1.2752036843449808,
                -0.7962304677635073
            ]
        },
        {
            "positions": [
                1.8287840422019828,
                -1.8454525453287922,
                1.2630571288029107,
                0.6478053407558568,
                1.2691680455026622,
                -0.9238414772715035
            ]
        },
        {
            "positions": [
                1.8847974706904889,
                -1.7963286578251556,
                1.3147360689035923,
                0.5622928750341305,
                1.2631324066603435,
                -1.0514524867794997
            ]
        },
        {
            "positions": [
                1.940810899178995,
                -1.747204770321519,
                1.3664150090042737,
                0.4767804093124042,
                1.257096767818025,
                -1.179063496287496
            ]
        },
        {
            "positions": [
                1.996824327667501,
                -1.6980808828178824,
                1.4180939491049553,
                0.39126794359067785,
                1.2510611289757063,
                -1.3066745057954923
            ]
        },
        {
            "positions": [
                2.052837756156007,
                -1.6489569953142458,
                1.4697728892056365,
                0.30575547786895174,
                1.245025490133388,
                -1.4342855153034884
            ]
        },
        {
            "positions": [
                2.108851184644513,
                -1.599833107810609,
                1.5214518293063182,
                0.22024301214722541,
                1.2389898512910693,
                -1.5618965248114847
            ]
        },
        {
            "positions": [
                2.164864613133019,
                -1.5507092203069723,
                1.5731307694069998,
                0.1347305464254991,
                1.2329542124487507,
                -1.6895075343194812
            ]
        },
        {
            "positions": [
                2.2208780416215252,
                -1.5015853328033355,
                1.6248097095076812,
                0.04921808070377276,
                1.226918573606432,
                -1.8171185438274775
            ]
        },
        {
            "positions": [
                2.2768914701100313,
                -1.452461445299699,
                1.6764886496083626,
                -0.036294385017953346,
                1.2208829347641137,
                -1.9447295533354736
            ]
        },
        {
            "positions": [
                2.3329048985985374,
                -1.4033375577960623,
                1.7281675897090443,
                -0.12180685073967967,
                1.214847295921795,
                -2.0723405628434697
            ]
        },
        {
            "positions": [
                2.3889183270870435,
                -1.3542136702924257,
                1.7798465298097257,
                -0.2073193164614059,
                1.2088116570794765,
                -2.199951572351466
            ]
        },
        {
            "positions": [
                2.4289392819288693,
                -1.2974651030670337,
                1.7874285119783897,
                -0.30449786341267254,
                1.1835802790851009,
                -2.350638158494895
            ]
        },
        {
            "positions": [
                2.4689602367706955,
                -1.2407165358416417,
                1.795010494147054,
                -0.4016764103639392,
                1.1583489010907253,
                -2.5013247446383238
            ]
        },
        {
            "positions": [
                2.5089811916125218,
                -1.1839679686162499,
                1.802592476315718,
                -0.4988549573152059,
                1.1331175230963497,
                -2.6520113307817526
            ]
        },
        {
            "positions": [
                2.5490021464543475,
                -1.1272194013908579,
                1.810174458484382,
                -0.5960335042664726,
                1.107886145101974,
                -2.8026979169251813
            ]
        },
        {
            "positions": [
                2.5890231012961733,
                -1.0704708341654658,
                1.8177564406530462,
                -0.6932120512177393,
                1.0826547671075983,
                -2.95338450306861
            ]
        },
        {
            "positions": [
                2.6290440561379995,
                -1.0137222669400738,
                1.8253384228217102,
                -0.7903905981690059,
                1.0574233891132228,
                -3.104071089212039
            ]
        }
    ]
}