{
    "goal": {
        "global_pose": {
            "orientation": {
                "w": 0.7031023480610252,
                "x": -0.7110244013736278,
                "y": 0.0077485991402295624,
                "z": 0.005598929693374583
            },
            "position": {
                "x": -0.8841497679147869,
                "y": 0.44412534475326537,
                "z": 0.3711530566215515
            }
        },
        "name": "move_to_auspresseinheit_D"
    },
    "id": "PRM_move_to_auspresseinheit_D_111",
    "joint_names": [
        "shoulder_pan_joint",
        "shoulder_lift_joint",
        "elbow_joint",
        "wrist_1_joint",
        "wrist_2_joint",
        "wrist_3_joint"
    ],
    "metrics": {
        "cart_traj_len": 0.34451089262908985,
        "distance_elbow_joint": 0.6697849497279202,
        "distance_shoulder_lift_joint": 0.13908244509563294,
        "distance_shoulder_pan_joint": 0.13358588418582792,
        "distance_wrist_1_joint": 0.6308132271543325,
        "distance_wrist_2_joint": 1.440806250508487,
        "distance_wrist_3_joint": 0.07753339664147862,
        "smoothness": 0.0,
        "time": 0.035118915,
        "traj_len": 1.7582963781210719,
        "weighted_distance": 2.3061423252391546
    },
    "planner": "PRM",
    "start": {
        "state": {
            "elbow_joint": -1.8275523626775212,
            "shoulder_lift_joint": -2.126789852344167,
            "shoulder_pan_joint": -0.03513704404078235,
            "wrist_1_joint": -2.347782403156801,
            "wrist_2_joint": -1.6058999987535132,
            "wrist_3_joint": -3.0880379163319196
        }
    },
    "waypoints": [
        {
            "positions": [
                -0.03513704404078235,
                -2.126789852344167,
                -1.8275523626775212,
                -2.347782403156801,
                -1.6058999987535132,
                -3.0880379163319196
            ]
        },
        {
            "positions": [
                -0.051835279564010836,
                -2.144175157981121,
                -1.7438292439615313,
                -2.4266340565510927,
                -1.4257992174399523,
                -3.078346241751735
            ]
        },
        {
            "positions": [
                -0.06853351508723933,
                -2.161560463618075,
                -1.6601061252455411,
                -2.505485709945384,
                -1.2456984361263914,
                -3.06865456717155
            ]
        },
        {
            "positions": [
                -0.08523175061046781,
                -2.178945769255029,
                -1.576383006529551,
                -2.5843373633396753,
                -1.0655976548128305,
                -3.058962892591365
            ]
        },
        {
            "positions": [
                -0.1019299861336963,
                -2.196331074891983,
                -1.492659887813561,
                -2.663189016733967,
                -0.8854968734992696,
                -3.0492712180111803
            ]
        },
        {
            "positions": [
                -0.1186282216569248,
                -2.2137163805289375,
                -1.4089367690975712,
                -2.742040670128259,
                -0.7053960921857088,
                -3.0395795434309956
            ]
        },
        {
            "positions": [
                -0.1353264571801533,
                -2.2311016861658914,
                -1.325213650381581,
                -2.8208923235225503,
                -0.5252953108721479,
                -3.0298878688508104
            ]
        },
        {
            "positions": [
                -0.1520246927033818,
                -2.248486991802846,
                -1.2414905316655909,
                -2.8997439769168416,
                -0.345194529558587,
                -3.0201961942706257
            ]
        },
        {
            "positions": [
                -0.16872292822661028,
                -2.2658722974398,
                -1.157767412949601,
                -2.9785956303111334,
                -0.16509374824502615,
                -3.010504519690441
            ]
        }
    ]
}