{
    "goal": {
        "global_pose": {
            "orientation": {
                "w": -0.4816463035849501,
                "x": 0.5182115481033762,
                "y": 0.4908360881923453,
                "z": -0.5084816262002911
            },
            "position": {
                "x": -0.8240239810943604,
                "y": -0.300875300988555,
                "z": 0.16403168439865112
            }
        },
        "name": "move_to_storage_C"
    },
    "id": "PRM_move_to_storage_C_107",
    "joint_names": [
        "shoulder_pan_joint",
        "shoulder_lift_joint",
        "elbow_joint",
        "wrist_1_joint",
        "wrist_2_joint",
        "wrist_3_joint"
    ],
    "metrics": {
        "cart_traj_len": 0.5763911389458058,
        "distance_elbow_joint": 0.2580891791078792,
        "distance_shoulder_lift_joint": 0.18963292445772195,
        "distance_shoulder_pan_joint": 0.49361759295856666,
        "distance_wrist_1_joint": 0.07324430716941333,
        "distance_wrist_2_joint": 1.0697215603902324,
        "distance_wrist_3_joint": 0.059963895535055656,
        "smoothness": 0.0,
        "time": 0.014122962,
        "traj_len": 1.4643324279749013,
        "weighted_distance": 1.8458502426385046
    },
    "planner": "PRM",
    "start": {
        "state": {
            "elbow_joint": 2.010868314990456,
            "shoulder_lift_joint": -1.1634956873337592,
            "shoulder_pan_joint": -2.4736205022346125,
            "wrist_1_joint": -0.8367026794202681,
            "wrist_2_joint": 0.6746043897044499,
            "wrist_3_joint": -3.1496632123970403
        }
    },
    "waypoints": [
        {
            "positions": [
                -2.4736205022346125,
                -1.1634956873337592,
                2.010868314990456,
                -0.8367026794202681,
                0.6746043897044499,
                -3.1496632123970403
            ]
        },
        {
            "positions": [
                -2.55589010106104,
                -1.1318901999241389,
                1.9678534518058093,
                -0.8244952948920325,
                0.8528913164361553,
                -3.1396692298078643
            ]
        },
        {
            "positions": [
                -2.638159699887468,
                -1.1002847125145185,
                1.9248385886211627,
                -0.812287910363797,
                1.0311782431678607,
                -3.1296752472186884
            ]
        },
        {
            "positions": [
                -2.7204292987138956,
                -1.0686792251048982,
                1.8818237254365162,
                -0.8000805258355614,
                1.2094651698995662,
                -3.1196812646295125
            ]
        },
        {
            "positions": [
                -2.8026988975403238,
                -1.0370737376952779,
                1.8388088622518697,
                -0.7878731413073259,
                1.3877520966312713,
                -3.1096872820403365
            ]
        },
        {
            "positions": [
                -2.8849684963667515,
                -1.0054682502856576,
                1.7957939990672231,
                -0.7756657567790903,
                1.5660390233629768,
                -3.0996932994511606
            ]
        },
        {
            "positions": [
                -2.967238095193179,
                -0.9738627628760372,
                1.7527791358825766,
                -0.7634583722508548,
                1.7443259500946824,
                -3.0896993168619846
            ]
        }
    ]
}