{
    "goal": {
        "global_pose": {
            "orientation": {
                "w": -0.4816463035849501,
                "x": 0.5182115481033762,
                "y": 0.4908360881923453,
                "z": -0.5084816262002911
            },
            "position": {
                "x": -0.8240239810943604,
                "y": -0.300875300988555,
                "z": 0.16403168439865112
            }
        },
        "name": "move_to_storage_C"
    },
    "id": "PRM_move_to_storage_C_60",
    "joint_names": [
        "shoulder_pan_joint",
        "shoulder_lift_joint",
        "elbow_joint",
        "wrist_1_joint",
        "wrist_2_joint",
        "wrist_3_joint"
    ],
    "metrics": {
        "cart_traj_len": 0.5766770760961317,
        "distance_elbow_joint": 0.25901583555159147,
        "distance_shoulder_lift_joint": 0.18891741544905305,
        "distance_shoulder_pan_joint": 0.49499119767251587,
        "distance_wrist_1_joint": 0.0872284945310241,
        "distance_wrist_2_joint": 1.0699774149544048,
        "distance_wrist_3_joint": 0.06766498889920758,
        "smoothness": 2.5376526478085547e-16,
        "time": 0.016086646,
        "traj_len": 1.4723434881364459,
        "weighted_distance": 1.860196557985645
    },
    "planner": "PRM",
    "start": {
        "state": {
            "elbow_joint": 2.010868314990456,
            "shoulder_lift_joint": -1.1634956873337592,
            "shoulder_pan_joint": -2.4736205022346125,
            "wrist_1_joint": -0.8367026794202681,
            "wrist_2_joint": 0.6746043897044499,
            "wrist_3_joint": -3.1496632123970403
        }
    },
    "waypoints": [
        {
            "positions": [
                -2.4736205022346125,
                -1.1634956873337592,
                2.010868314990456,
                -0.8367026794202681,
                0.6746043897044499,
                -3.1496632123970403
            ]
        },
        {
            "positions": [
                -2.556119035180032,
                -1.1320094514255836,
                1.9676990090651905,
                -0.8221645969984308,
                0.8529339588635174,
                -3.1383857142471725
            ]
        },
        {
            "positions": [
                -2.638617568125451,
                -1.1005232155174083,
                1.9245297031399253,
                -0.8076265145765934,
                1.0312635280225848,
                -3.1271082160973043
            ]
        },
        {
            "positions": [
                -2.72111610107087,
                -1.0690369796092327,
                1.8813603972146602,
                -0.793088432154756,
                1.2095930971816524,
                -3.1158307179474365
            ]
        },
        {
            "positions": [
                -2.8036146340162897,
                -1.0375507437010572,
                1.8381910912893948,
                -0.7785503497329187,
                1.3879226663407196,
                -3.1045532197975687
            ]
        },
        {
            "positions": [
                -2.8861131669617093,
                -1.0060645077928816,
                1.7950217853641295,
                -0.7640122673110814,
                1.5662522354997872,
                -3.0932757216477005
            ]
        },
        {
            "positions": [
                -2.9686116999071284,
                -0.9745782718847061,
                1.7518524794388644,
                -0.749474184889244,
                1.7445818046588546,
                -3.0819982234978327
            ]
        }
    ]
}