{
    "goal": {
        "global_pose": {
            "orientation": {
                "w": 0.7031023480610252,
                "x": -0.7110244013736278,
                "y": 0.0077485991402295624,
                "z": 0.005598929693374583
            },
            "position": {
                "x": -0.8841497679147869,
                "y": 0.44412534475326537,
                "z": 0.3711530566215515
            }
        },
        "name": "move_to_auspresseinheit_D"
    },
    "id": "PRM_move_to_auspresseinheit_D_92",
    "joint_names": [
        "shoulder_pan_joint",
        "shoulder_lift_joint",
        "elbow_joint",
        "wrist_1_joint",
        "wrist_2_joint",
        "wrist_3_joint"
    ],
    "metrics": {
        "cart_traj_len": 0.34382988228605393,
        "distance_elbow_joint": 0.6413175503005795,
        "distance_shoulder_lift_joint": 0.1224317589033852,
        "distance_shoulder_pan_joint": 0.13426673086238136,
        "distance_wrist_1_joint": 0.5396327699067984,
        "distance_wrist_2_joint": 1.4430053953827082,
        "distance_wrist_3_joint": 0.013256464501580911,
        "smoothness": 5.921189463382907e-16,
        "time": 0.015558392,
        "traj_len": 1.7011498081760563,
        "weighted_distance": 2.21428583614449
    },
    "planner": "PRM",
    "start": {
        "state": {
            "elbow_joint": -1.8275523626775212,
            "shoulder_lift_joint": -2.126789852344167,
            "shoulder_pan_joint": -0.03513704404078235,
            "wrist_1_joint": -2.347782403156801,
            "wrist_2_joint": -1.6058999987535132,
            "wrist_3_joint": -3.0880379163319196
        }
    },
    "waypoints": [
        {
            "positions": [
                -0.03513704404078235,
                -2.126789852344167,
                -1.8275523626775212,
                -2.347782403156801,
                -1.6058999987535132,
                -3.0880379163319196
            ]
        },
        {
            "positions": [
                -0.051920385398580016,
                -2.14209382220709,
                -1.7473876688899488,
                -2.4152364993951507,
                -1.4255243243306746,
                -3.086380858269222
            ]
        },
        {
            "positions": [
                -0.06870372675637769,
                -2.157397792070013,
                -1.6672229751023764,
                -2.4826905956335006,
                -1.2451486499078361,
                -3.0847238002065245
            ]
        },
        {
            "positions": [
                -0.08548706811417536,
                -2.1727017619329363,
                -1.587058281314804,
                -2.5501446918718504,
                -1.0647729754849977,
                -3.083066742143827
            ]
        },
        {
            "positions": [
                -0.10227040947197302,
                -2.1880057317958594,
                -1.5068935875272316,
                -2.6175987881102003,
                -0.8843973010621591,
                -3.0814096840811294
            ]
        },
        {
            "positions": [
                -0.11905375082977071,
                -2.2033097016587826,
                -1.426728893739659,
                -2.6850528843485497,
                -0.7040216266393206,
                -3.0797526260184314
            ]
        },
        {
            "positions": [
                -0.13583709218756837,
                -2.2186136715217057,
                -1.3465641999520865,
                -2.7525069805868996,
                -0.523645952216482,
                -3.078095567955734
            ]
        },
        {
            "positions": [
                -0.15262043354536603,
                -2.233917641384629,
                -1.2663995061645141,
                -2.8199610768252494,
                -0.3432702777936436,
                -3.0764385098930362
            ]
        },
        {
            "positions": [
                -0.16940377490316372,
                -2.249221611247552,
                -1.1862348123769417,
                -2.8874151730635993,
                -0.16289460337080486,
                -3.0747814518303387
            ]
        }
    ]
}