{
    "goal": {
        "global_pose": {
            "orientation": {
                "w": 0.5084816217422485,
                "x": -0.49083608388900757,
                "y": 0.5182115435600281,
                "z": -0.4816462993621826
            },
            "position": {
                "x": 0.5540239810943604,
                "y": 0.030875300988554955,
                "z": 0.16403168439865112
            }
        },
        "name": "move_to_storage_A"
    },
    "id": "PRM_move_to_storage_A_18",
    "joint_names": [
        "shoulder_pan_joint",
        "shoulder_lift_joint",
        "elbow_joint",
        "wrist_1_joint",
        "wrist_2_joint",
        "wrist_3_joint"
    ],
    "metrics": {
        "cart_traj_len": 0.35285754878477005,
        "distance_elbow_joint": 0.4505887710495571,
        "distance_shoulder_lift_joint": 0.23503518409910096,
        "distance_shoulder_pan_joint": 0.4604802788777961,
        "distance_wrist_1_joint": 0.24698542472890817,
        "distance_wrist_2_joint": 1.1025535624520295,
        "distance_wrist_3_joint": 0.09704221646989541,
        "smoothness": 0.0,
        "time": 0.035432575,
        "traj_len": 1.6101818026785941,
        "weighted_distance": 2.0337917439595468
    },
    "planner": "PRM",
    "start": {
        "state": {
            "elbow_joint": 1.971548259319323,
            "shoulder_lift_joint": -1.1394851275133948,
            "shoulder_pan_joint": 0.1228115487234821,
            "wrist_1_joint": -0.7804723859257726,
            "wrist_2_joint": 0.12958671773740124,
            "wrist_3_joint": -3.192489227718131
        }
    },
    "waypoints": [
        {
            "positions": [
                0.1228115487234821,
                -1.1394851275133948,
                1.971548259319323,
                -0.7804723859257726,
                0.12958671773740124,
                -3.192489227718131
            ]
        },
        {
            "positions": [
                0.05702865174093981,
                -1.173061582384695,
                2.035918083754974,
                -0.8157560180299024,
                0.2870943695162626,
                -3.1786260539367177
            ]
        },
        {
            "positions": [
                -0.008754245241602482,
                -1.206638037255995,
                2.100287908190625,
                -0.851039650134032,
                0.44460202129512394,
                -3.164762880155304
            ]
        },
        {
            "positions": [
                -0.07453714222414479,
                -1.2402144921272953,
                2.164657732626276,
                -0.8863232822381618,
                0.6021096730739853,
                -3.1508997063738904
            ]
        },
        {
            "positions": [
                -0.14032003920668706,
                -1.2737909469985953,
                2.229027557061927,
                -0.9216069143422916,
                0.7596173248528467,
                -3.1370365325924765
            ]
        },
        {
            "positions": [
                -0.20610293618922937,
                -1.3073674018698955,
                2.293397381497578,
                -0.9568905464464212,
                0.9171249766317081,
                -3.123173358811063
            ]
        },
        {
            "positions": [
                -0.2718858331717717,
                -1.3409438567411955,
                2.357767205933229,
                -0.992174178550551,
                1.0746326284105694,
                -3.109310185029649
            ]
        },
        {
            "positions": [
                -0.337668730154314,
                -1.3745203116124958,
                2.42213703036888,
                -1.0274578106546808,
                1.2321402801894308,
                -3.0954470112482357
            ]
        }
    ]
}{
    "goal": {
        "global_pose": {
            "orientation": {
                "w": 0.5084816217422485,
                "x": -0.49083608388900757,
                "y": 0.5182115435600281,
                "z": -0.4816462993621826
            },
            "position": {
                "x": 0.5540239810943604,
                "y": 0.030875300988554955,
                "z": 0.16403168439865112
            }
        },
        "name": "move_to_storage_A"
    },
    "id": "PRM_move_to_storage_A_18",
    "joint_names": [
        "shoulder_pan_joint",
        "shoulder_lift_joint",
        "elbow_joint",
        "wrist_1_joint",
        "wrist_2_joint",
        "wrist_3_joint"
    ],
    "metrics": {
        "cart_traj_len": 0.35364374012908517,
        "distance_elbow_joint": 0.4529280727648546,
        "distance_shoulder_lift_joint": 0.2351901431675385,
        "distance_shoulder_pan_joint": 0.4632870647541631,
        "distance_wrist_1_joint": 0.25539400232534937,
        "distance_wrist_2_joint": 1.0967786216974154,
        "distance_wrist_3_joint": 0.0932503764526178,
        "smoothness": 2.2204460668324854e-16,
        "time": 0.031542390999999996,
        "traj_len": 1.611467741272514,
        "weighted_distance": 2.0335932872848344
    },
    "planner": "PRM",
    "start": {
        "state": {
            "elbow_joint": 1.97154746011099,
            "shoulder_lift_joint": -1.13948474672311,
            "shoulder_pan_joint": 0.12281154466712228,
            "wrist_1_joint": -0.7804688027058302,
            "wrist_2_joint": 0.12958655903071145,
            "wrist_3_joint": 3.0906928834467795
        }
    },
    "waypoints": [
        {
            "positions": [
                0.12281154466712228,
                -1.13948474672311,
                1.97154746011099,
                -0.7804688027058302,
                0.12958655903071145,
                3.0906928834467795
            ]
        },
        {
            "positions": [
                0.05662767827367042,
                -1.1730833386041868,
                2.0362514705059693,
                -0.8169536601808801,
                0.28626921927319937,
                3.1040143657971533
            ]
        },
        {
            "positions": [
                -0.009556188119781442,
                -1.2066819304852638,
                2.1009554809009483,
                -0.85343851765593,
                0.44295187951568726,
                3.1173358481475275
            ]
        },
        {
            "positions": [
                -0.0757400545132333,
                -1.2402805223663407,
                2.1656594912959277,
                -0.8899233751309799,
                0.5996345397581752,
                3.1306573304979013
            ]
        },
        {
            "positions": [
                -0.14192392090668515,
                -1.2738791142474177,
                2.2303635016909067,
                -0.9264082326060298,
                0.756317200000663,
                3.1439788128482755
            ]
        },
        {
            "positions": [
                -0.20810778730013707,
                -1.3074777061284946,
                2.295067512085886,
                -0.9628930900810797,
                0.912999860243151,
                3.1573002951986493
            ]
        },
        {
            "positions": [
                -0.2742916536935889,
                -1.3410762980095714,
                2.359771522480865,
                -0.9993779475561296,
                1.0696825204856388,
                3.1706217775490235
            ]
        },
        {
            "positions": [
                -0.3404755200870408,
                -1.3746748898906485,
                2.4244755328758445,
                -1.0358628050311796,
                1.2263651807281268,
                3.1839432598993973
            ]
        }
    ]
}{
    "goal": {
        "global_pose": {
            "orientation": {
                "w": 0.5084816217422485,
                "x": -0.49083608388900757,
                "y": 0.5182115435600281,
                "z": -0.4816462993621826
            },
            "position": {
                "x": 0.5540239810943604,
                "y": 0.030875300988554955,
                "z": 0.16403168439865112
            }
        },
        "name": "move_to_storage_A"
    },
    "id": "PRM_move_to_storage_A_18",
    "joint_names": [
        "shoulder_pan_joint",
        "shoulder_lift_joint",
        "elbow_joint",
        "wrist_1_joint",
        "wrist_2_joint",
        "wrist_3_joint"
    ],
    "metrics": {
        "cart_traj_len": 0.35383006258492783,
        "distance_elbow_joint": 0.4504447931661102,
        "distance_shoulder_lift_joint": 0.23490999606395624,
        "distance_shoulder_pan_joint": 0.4634204163704287,
        "distance_wrist_1_joint": 0.24474521465403387,
        "distance_wrist_2_joint": 1.0972751641382077,
        "distance_wrist_3_joint": 0.10672248723981559,
        "smoothness": 4.440892098500626e-16,
        "time": 0.026705697,
        "traj_len": 1.6116817525903033,
        "weighted_distance": 2.0378870000332268
    },
    "planner": "PRM",
    "start": {
        "state": {
            "elbow_joint": 1.9715472970024885,
            "shoulder_lift_joint": -1.1394870060712896,
            "shoulder_pan_joint": 0.12281152778156021,
            "wrist_1_joint": -0.780463741449964,
            "wrist_2_joint": 0.12958659822042276,
            "wrist_3_joint": 3.090690232415272
        }
    },
    "waypoints": [
        {
            "positions": [
                0.12281152778156021,
                -1.1394870060712896,
                1.9715472970024885,
                -0.780463741449964,
                0.12958659822042276,
                3.090690232415272
            ]
        },
        {
            "positions": [
                0.05660861115721326,
                -1.1730455769375692,
                2.0358965531690756,
                -0.8154273435433974,
                0.28634019309730957,
                3.1059363020209596
            ]
        },
        {
            "positions": [
                -0.00959430546713369,
                -1.2066041478038485,
                2.100245809335663,
                -0.8503909456368308,
                0.4430937879741964,
                3.121182371626648
            ]
        },
        {
            "positions": [
                -0.07579722209148063,
                -1.240162718670128,
                2.16459506550225,
                -0.8853545477302642,
                0.5998473828510832,
                3.1364284412323356
            ]
        },
        {
            "positions": [
                -0.1420001387158276,
                -1.2737212895364074,
                2.228944321668837,
                -0.9203181498236976,
                0.75660097772797,
                3.1516745108380237
            ]
        },
        {
            "positions": [
                -0.20820305534017455,
                -1.307279860402687,
                2.293293577835424,
                -0.955281751917131,
                0.9133545726048569,
                3.1669205804437115
            ]
        },
        {
            "positions": [
                -0.27440597196452143,
                -1.3408384312689663,
                2.3576428340020117,
                -0.9902453540105645,
                1.0701081674817436,
                3.1821666500493997
            ]
        },
        {
            "positions": [
                -0.34060888858886845,
                -1.3743970021352458,
                2.4219920901685987,
                -1.0252089561039979,
                1.2268617623586304,
                3.1974127196550874
            ]
        }
    ]
}