{
    "goal": {
        "global_pose": {
            "orientation": {
                "w": 0.7031023502349854,
                "x": -0.7110244035720825,
                "y": 0.007748599164187908,
                "z": 0.005598929710686207
            },
            "position": {
                "x": 0.11585023208521307,
                "y": 0.44412534475326537,
                "z": 0.3711530566215515
            }
        },
        "name": "move_to_auspresseinheit_A"
    },
    "id": "PRM_move_to_auspresseinheit_A_111",
    "joint_names": [
        "shoulder_pan_joint",
        "shoulder_lift_joint",
        "elbow_joint",
        "wrist_1_joint",
        "wrist_2_joint",
        "wrist_3_joint"
    ],
    "metrics": {
        "cart_traj_len": 0.7755311834120167,
        "distance_elbow_joint": 0.1864492694732478,
        "distance_shoulder_lift_joint": 0.5363659044432953,
        "distance_shoulder_pan_joint": 1.9579767973603535,
        "distance_wrist_1_joint": 1.6592674094935451,
        "distance_wrist_2_joint": 0.9068687178647061,
        "distance_wrist_3_joint": 0.09181003538888799,
        "smoothness": 1.1338817621942812,
        "time": 0.17661927000000002,
        "traj_len": 2.3105709541202226,
        "weighted_distance": 2.844027836038189
    },
    "planner": "PRM",
    "start": {
        "state": {
            "elbow_joint": 2.4225746658250005,
            "shoulder_lift_joint": -1.3736534386056498,
            "shoulder_pan_joint": -0.3378633547517467,
            "wrist_1_joint": -1.0288598680537169,
            "wrist_2_joint": 1.233022673432363,
            "wrist_3_joint": -3.0940220416140027
        }
    },
    "waypoints": [
        {
            "positions": [
                -0.3378633547517467,
                -1.3736534386056498,
                2.4225746658250005,
                -1.0288598680537169,
                1.233022673432363,
                -3.0940220416140027
            ]
        },
        {
            "positions": [
                -0.40325777018139225,
                -1.41435281332476,
                2.4338845102691704,
                -0.8703996453467893,
                1.1304175095253899,
                -3.104111679628227
            ]
        },
        {
            "positions": [
                -0.46865218561103783,
                -1.4550521880438705,
                2.44519435471334,
                -0.7119394226398617,
                1.027812345618417,
                -3.1142013176424514
            ]
        },
        {
            "positions": [
                -0.5340466010406834,
                -1.4957515627629807,
                2.45650419915751,
                -0.553479199932934,
                0.9252071817114438,
                -3.124290955656676
            ]
        },
        {
            "positions": [
                -0.5994410164703289,
                -1.5364509374820912,
                2.4678140436016793,
                -0.3950189772260063,
                0.8226020178044708,
                -3.1343805936709006
            ]
        },
        {
            "positions": [
                -0.6648354318999745,
                -1.5771503122012014,
                2.4791238880458493,
                -0.2365587545190786,
                0.7199968538974977,
                -3.144470231685125
            ]
        },
        {
            "positions": [
                -0.73022984732962,
                -1.6178496869203118,
                2.4904337324900188,
                -0.0780985318121511,
                0.6173916899905246,
                -3.1545598696993493
            ]
        },
        {
            "positions": [
                -0.7956242627592656,
                -1.658549061639422,
                2.5017435769341887,
                0.08036169089477656,
                0.5147865260835516,
                -3.1646495077135737
            ]
        },
        {
            "positions": [
                -0.5813077071374321,
                -1.6944733875550682,
                2.4864178114536086,
                0.001783712245483432,
                0.5417340361572508,
                -3.1616234263865284
            ]
        },
        {
            "positions": [
                -0.3669911515155985,
                -1.7303977134707145,
                2.471092045973029,
                -0.0767942664038097,
                0.56868154623095,
                -3.158597345059483
            ]
        },
        {
            "positions": [
                -0.15267459589376497,
                -1.7663220393863606,
                2.455766280492449,
                -0.15537224505310282,
                0.5956290563046492,
                -3.155571263732438
            ]
        },
        {
            "positions": [
                0.06164195972806852,
                -1.8022463653020067,
                2.440440515011869,
                -0.23395022370239593,
                0.6225765663783485,
                -3.1525451824053925
            ]
        },
        {
            "positions": [
                0.27595851534990223,
                -1.8381706912176528,
                2.425114749531289,
                -0.3125282023516891,
                0.6495240764520478,
                -3.149519101078347
            ]
        },
        {
            "positions": [
                0.4902750709717356,
                -1.874095017133299,
                2.409788984050709,
                -0.3911061810009822,
                0.676471586525747,
                -3.146493019751302
            ]
        },
        {
            "positions": [
                0.7045916265935692,
                -1.9100193430489452,
                2.394463218570129,
                -0.4696841596502754,
                0.7034190965994462,
                -3.1434669384242566
            ]
        }
    ]
}