{
    "goal": {
        "global_pose": {
            "orientation": {
                "w": 0.7031023502349854,
                "x": -0.7110244035720825,
                "y": 0.007748599164187908,
                "z": 0.005598929710686207
            },
            "position": {
                "x": 0.11585023208521307,
                "y": 0.44412534475326537,
                "z": 0.3711530566215515
            }
        },
        "name": "move_to_auspresseinheit_A"
    },
    "id": "PRM_move_to_auspresseinheit_A_3",
    "joint_names": [
        "shoulder_pan_joint",
        "shoulder_lift_joint",
        "elbow_joint",
        "wrist_1_joint",
        "wrist_2_joint",
        "wrist_3_joint"
    ],
    "metrics": {
        "cart_traj_len": 0.7554580887146758,
        "distance_elbow_joint": 0.143190702486502,
        "distance_shoulder_lift_joint": 0.5348677737981096,
        "distance_shoulder_pan_joint": 1.0438301207399119,
        "distance_wrist_1_joint": 0.5490648610372784,
        "distance_wrist_2_joint": 1.6691560252015143,
        "distance_wrist_3_joint": 0.2355714838662002,
        "smoothness": 0.8062557593183983,
        "time": 0.22845172100000002,
        "traj_len": 2.043448303023474,
        "weighted_distance": 2.620123054572191
    },
    "planner": "PRM",
    "start": {
        "state": {
            "elbow_joint": 2.4225746658250005,
            "shoulder_lift_joint": -1.3736534386056498,
            "shoulder_pan_joint": -0.3378633547517467,
            "wrist_1_joint": -1.0288598680537169,
            "wrist_2_joint": 1.233022673432363,
            "wrist_3_joint": -3.0940220416140027
        }
    },
    "waypoints": [
        {
            "positions": [
                -0.3378633547517467,
                -1.3736534386056498,
                2.4225746658250005,
                -1.0288598680537169,
                1.233022673432363,
                -3.0940220416140027
            ]
        },
        {
            "positions": [
                -0.32518971895074195,
                -1.4548745355743766,
                2.4054718518064075,
                -1.0235462666562785,
                1.0129668656394923,
                -3.0731200668268293
            ]
        },
        {
            "positions": [
                -0.31251608314973717,
                -1.5360956325431034,
                2.388369037787814,
                -1.01823266525884,
                0.7929110578466215,
                -3.0522180920396558
            ]
        },
        {
            "positions": [
                -0.29984244734873233,
                -1.6173167295118303,
                2.3712662237692212,
                -1.0129190638614014,
                0.5728552500537508,
                -3.0313161172524827
            ]
        },
        {
            "positions": [
                -0.28716881154772755,
                -1.698537826480557,
                2.354163409750628,
                -1.007605462463963,
                0.35279944226088,
                -3.0104141424653093
            ]
        },
        {
            "positions": [
                -0.2744951757467228,
                -1.7797589234492839,
                2.337060595732035,
                -1.0022918610665246,
                0.13274363446800938,
                -2.9895121676781358
            ]
        },
        {
            "positions": [
                -0.1344291840703102,
                -1.7981535361570662,
                2.345300114645397,
                -0.9276494533450838,
                0.2140117753590323,
                -3.0082352548110407
            ]
        },
        {
            "positions": [
                0.005636807606102356,
                -1.8165481488648483,
                2.3535396335587597,
                -0.8530070456236428,
                0.29527991625005523,
                -3.026958341943945
            ]
        },
        {
            "positions": [
                0.1457027992825149,
                -1.8349427615726306,
                2.361779152472122,
                -0.778364637902202,
                0.3765480571410781,
                -3.04568142907685
            ]
        },
        {
            "positions": [
                0.2857687909589275,
                -1.8533373742804127,
                2.3700186713854845,
                -0.7037222301807611,
                0.45781619803210105,
                -3.0644045162097546
            ]
        },
        {
            "positions": [
                0.42583478263534014,
                -1.871731986988195,
                2.3782581902988467,
                -0.6290798224593203,
                0.539084338923124,
                -3.0831276033426596
            ]
        },
        {
            "positions": [
                0.5659007743117526,
                -1.890126599695977,
                2.3864977092122093,
                -0.5544374147378794,
                0.6203524798141469,
                -3.101850690475564
            ]
        },
        {
            "positions": [
                0.7059667659881652,
                -1.9085212124037594,
                2.3947372281255714,
                -0.47979500701643857,
                0.7016206207051698,
                -3.120573777608469
            ]
        }
    ]
}