{
    "goal": {
        "global_pose": {
            "orientation": {
                "w": 0.7047431493862688,
                "x": -0.7094548369677653,
                "y": 0.0024358444001904,
                "z": -0.0022348060817251984
            },
            "position": {
                "x": -0.39052492380142206,
                "y": 0.3671506643295288,
                "z": 0.19426114857196808
            }
        },
        "name": "move_to_magneteinheit_D"
    },
    "id": "PRM_move_to_magneteinheit_D_10",
    "joint_names": [
        "shoulder_pan_joint",
        "shoulder_lift_joint",
        "elbow_joint",
        "wrist_1_joint",
        "wrist_2_joint",
        "wrist_3_joint"
    ],
    "metrics": {
        "cart_traj_len": 4.775474980167666,
        "distance_elbow_joint": 3.5785700689828626,
        "distance_shoulder_lift_joint": 1.6313502745962556,
        "distance_shoulder_pan_joint": 3.429676141451366,
        "distance_wrist_1_joint": 5.442909878952646,
        "distance_wrist_2_joint": 0.7733250428385188,
        "distance_wrist_3_joint": 3.4511423746856424,
        "smoothness": 0.8702131266263468,
        "time": 0.23007502400000002,
        "traj_len": 4.278664953172577,
        "weighted_distance": 5.605844579781868
    },
    "planner": "PRM",
    "start": {
        "state": {
            "elbow_joint": 0.749534889911806,
            "shoulder_lift_joint": -0.6476975780787326,
            "shoulder_pan_joint": -2.711696901376241,
            "wrist_1_joint": -0.07506478083263063,
            "wrist_2_joint": 0.43296659715538205,
            "wrist_3_joint": -3.14703540197715
        }
    },
    "waypoints": [
        {
            "positions": [
                -2.711696901376241,
                -0.6476975780787326,
                0.749534889911806,
                -0.07506478083263063,
                0.43296659715538205,
                -3.14703540197715
            ]
        },
        {
            "positions": [
                -2.709807134990979,
                -0.6755321499562902,
                0.6644056690238399,
                -0.01440590665137799,
                0.46144267367965575,
                -3.1622586357537448
            ]
        },
        {
            "positions": [
                -2.694094891939599,
                -0.729515973025195,
                0.5368855902729242,
                0.04681895937197702,
                0.5058615271388185,
                -3.177740875730103
            ]
        },
        {
            "positions": [
                -2.6783826488882188,
                -0.7834997960940998,
                0.4093655115220084,
                0.10804382539533203,
                0.5502803805979812,
                -3.1932231157064614
            ]
        },
        {
            "positions": [
                -2.579333165526859,
                -0.8441783941238468,
                0.4138442846281304,
                -0.052202154350437485,
                0.5503674857827928,
                -3.1366755506417223
            ]
        },
        {
            "positions": [
                -2.480283682165499,
                -0.9048569921535937,
                0.4183230577342524,
                -0.212448134096207,
                0.5504545909676045,
                -3.080127985576983
            ]
        },
        {
            "positions": [
                -2.3812341988041394,
                -0.9655355901833406,
                0.4228018308403744,
                -0.3726941138419765,
                0.5505416961524161,
                -3.023580420512244
            ]
        },
        {
            "positions": [
                -2.2821847154427797,
                -1.0262141882130875,
                0.4272806039464964,
                -0.532940093587746,
                0.5506288013372277,
                -2.967032855447505
            ]
        },
        {
            "positions": [
                -2.18313523208142,
                -1.0868927862428346,
                0.4317593770526184,
                -0.6931860733335156,
                0.5507159065220393,
                -2.9104852903827663
            ]
        },
        {
            "positions": [
                -2.08408574872006,
                -1.1475713842725814,
                0.4362381501587404,
                -0.8534320530792849,
                0.550803011706851,
                -2.853937725318027
            ]
        },
        {
            "positions": [
                -1.9850362653587004,
                -1.2082499823023283,
                0.4407169232648624,
                -1.0136780328250545,
                0.5508901168916626,
                -2.797390160253288
            ]
        },
        {
            "positions": [
                -1.8859867819973404,
                -1.2689285803320753,
                0.44519569637098444,
                -1.1739240125708241,
                0.5509772220764741,
                -2.740842595188549
            ]
        },
        {
            "positions": [
                -1.7869372986359806,
                -1.3296071783618224,
                0.44967446947710643,
                -1.3341699923165937,
                0.5510643272612857,
                -2.6842950301238098
            ]
        },
        {
            "positions": [
                -1.6878878152746208,
                -1.3902857763915693,
                0.4541532425832284,
                -1.494415972062363,
                0.5511514324460974,
                -2.6277474650590706
            ]
        },
        {
            "positions": [
                -1.588838331913261,
                -1.450964374421316,
                0.4586320156893504,
                -1.6546619518081327,
                0.551238537630909,
                -2.5711998999943315
            ]
        },
        {
            "positions": [
                -1.522565829675824,
                -1.4721606387221842,
                0.3658878356183903,
                -1.5491929702066787,
                0.5347963257162264,
                -2.4873166330927092
            ]
        },
        {
            "positions": [
                -1.456293327438387,
                -1.493356903023052,
                0.27314365554743014,
                -1.4437239886052249,
                0.5183541138015436,
                -2.403433366191087
            ]
        },
        {
            "positions": [
                -1.3900208252009496,
                -1.51455316732392,
                0.18039947547647,
                -1.3382550070037709,
                0.501911901886861,
                -2.319550099289464
            ]
        },
        {
            "positions": [
                -1.3237483229635125,
                -1.5357494316247882,
                0.08765529540550987,
                -1.232786025402317,
                0.48546968997217826,
                -2.235666832387842
            ]
        },
        {
            "positions": [
                -1.2574758207260754,
                -1.5569456959256562,
                -0.005088884665450322,
                -1.127317043800863,
                0.46902747805749556,
                -2.1517835654862196
            ]
        },
        {
            "positions": [
                -1.1912033184886384,
                -1.578141960226524,
                -0.0978330647364104,
                -1.021848062199409,
                0.45258526614281286,
                -2.0679002985845973
            ]
        },
        {
            "positions": [
                -1.1249308162512013,
                -1.5993382245273922,
                -0.1905772448073706,
                -0.9163790805979553,
                0.43614305422813016,
                -1.9840170316829748
            ]
        },
        {
            "positions": [
                -1.0586583140137642,
                -1.6205344888282602,
                -0.2833214248783307,
                -0.8109100989965013,
                0.4197008423134475,
                -1.9001337647813523
            ]
        },
        {
            "positions": [
                -0.9923858117763269,
                -1.6417307531291283,
                -0.376065604949291,
                -0.7054411173950473,
                0.40325863039876475,
                -1.81625049787973
            ]
        },
        {
            "positions": [
                -0.9261133095388898,
                -1.6629270174299962,
                -0.46880978502025106,
                -0.5999721357935934,
                0.3868164184840821,
                -1.7323672309781077
            ]
        },
        {
            "positions": [
                -0.8598408073014527,
                -1.6841232817308642,
                -0.5615539650912111,
                -0.49450315419213964,
                0.3703742065693994,
                -1.6484839640764855
            ]
        },
        {
            "positions": [
                -0.7935683050640157,
                -1.705319546031732,
                -0.6542981451621712,
                -0.3890341725906856,
                0.3539319946547167,
                -1.564600697174863
            ]
        },
        {
            "positions": [
                -0.7272958028265785,
                -1.7265158103326002,
                -0.7470423252331315,
                -0.2835651909892316,
                0.337489782740034,
                -1.4807174302732404
            ]
        },
        {
            "positions": [
                -0.6610233005891414,
                -1.7477120746334682,
                -0.8397865053040916,
                -0.17809620938777782,
                0.3210475708253513,
                -1.3968341633716181
            ]
        },
        {
            "positions": [
                -0.5947507983517043,
                -1.7689083389343363,
                -0.9325306853750517,
                -0.07262722778632402,
                0.30460535891066864,
                -1.3129508964699959
            ]
        },
        {
            "positions": [
                -0.5284782961142671,
                -1.7901046032352042,
                -1.0252748654460118,
                0.03284175381512999,
                0.28816314699598594,
                -1.2290676295683733
            ]
        },
        {
            "positions": [
                -0.46220579387683003,
                -1.8113008675360722,
                -1.1180190455169718,
                0.13831073541658379,
                0.27172093508130324,
                -1.145184362666751
            ]
        },
        {
            "positions": [
                -0.3959332916393927,
                -1.8324971318369403,
                -1.2107632255879324,
                0.24377971701803802,
                0.25527872316662054,
                -1.0613010957651285
            ]
        },
        {
            "positions": [
                -0.32966078940195565,
                -1.8536933961378084,
                -1.3035074056588924,
                0.3492486986194918,
                0.23883651125193783,
                -0.9774178288635063
            ]
        },
        {
            "positions": [
                -0.26338828716451856,
                -1.8748896604386762,
                -1.3962515857298525,
                0.45471768022094583,
                0.22239429933725513,
                -0.8935345619618837
            ]
        },
        {
            "positions": [
                -0.19711578492708148,
                -1.8960859247395443,
                -1.4889957658008126,
                0.5601866618223994,
                0.20595208742257248,
                -0.8096512950602615
            ]
        },
        {
            "positions": [
                -0.1308432826896444,
                -1.9172821890404124,
                -1.5817399458717727,
                0.6656556434238534,
                0.18950987550788978,
                -0.7257680281586392
            ]
        },
        {
            "positions": [
                -0.06457078045220732,
                -1.9384784533412802,
                -1.6744841259427328,
                0.7711246250253074,
                0.17306766359320708,
                -0.6418847612570167
            ]
        },
        {
            "positions": [
                0.0017017217852297595,
                -1.9596747176421483,
                -1.7672283060136929,
                0.8765936066267614,
                0.15662545167852443,
                -0.5580014943553944
            ]
        },
        {
            "positions": [
                0.06797422402266706,
                -1.9808709819430164,
                -1.8599724860846534,
                0.9820625882282155,
                0.14018323976384167,
                -0.47411822745377163
            ]
        },
        {
            "positions": [
                0.13424672626010414,
                -2.002067246243884,
                -1.9527166661556135,
                1.0875315698296695,
                0.12374102784915897,
                -0.39023496055214935
            ]
        },
        {
            "positions": [
                0.20051922849754122,
                -2.0232635105447523,
                -2.0454608462265735,
                1.193000551431123,
                0.10729881593447632,
                -0.30635169365052706
            ]
        },
        {
            "positions": [
                0.2667917307349783,
                -2.0444597748456204,
                -2.1382050262975336,
                1.2984695330325773,
                0.09085660401979363,
                -0.2224684267489047
            ]
        },
        {
            "positions": [
                0.24051004108449914,
                -2.1097711236433505,
                -2.2771731477676247,
                1.2405074725734273,
                0.07219839337981193,
                -0.2542419328250291
            ]
        },
        {
            "positions": [
                0.21422835143401997,
                -2.175082472441081,
                -2.416141269237716,
                1.1825454121142773,
                0.05354018273983022,
                -0.28601543890115355
            ]
        },
        {
            "positions": [
                0.1879466617835408,
                -2.2403938212388113,
                -2.5551093907078073,
                1.1245833516551274,
                0.0348819720998485,
                -0.31778894497727794
            ]
        },
        {
            "positions": [
                0.09486105168636337,
                -2.2500573290978556,
                -2.511261195700666,
                1.2171028089808917,
                0.06955610630783135,
                -0.23306908153467748
            ]
        },
        {
            "positions": [
                0.0017754415891859388,
                -2.2597208369569,
                -2.467413000693525,
                1.3096222663066563,
                0.1042302405158142,
                -0.148349218092077
            ]
        },
        {
            "positions": [
                -0.09131016850799151,
                -2.269384344815944,
                -2.423564805686383,
                1.4021417236324207,
                0.13890437472379705,
                -0.0636293546494765
            ]
        },
        {
            "positions": [
                -0.18439577860516893,
                -2.279047852674988,
                -2.379716610679242,
                1.4946611809581851,
                0.1735785089317799,
                0.021090508793123946
            ]
        }
    ]
}