{
    "goal": {
        "global_pose": {
            "orientation": {
                "w": 0.005598929693374612,
                "x": 0.007748599140229565,
                "y": 0.7110244013736278,
                "z": -0.7031023480610252
            },
            "position": {
                "x": -0.8858502320852131,
                "y": -0.7141253447532654,
                "z": 0.3711530566215515
            }
        },
        "name": "move_to_auspresseinheit_C"
    },
    "id": "PRM_move_to_auspresseinheit_C_18",
    "joint_names": [
        "shoulder_pan_joint",
        "shoulder_lift_joint",
        "elbow_joint",
        "wrist_1_joint",
        "wrist_2_joint",
        "wrist_3_joint"
    ],
    "metrics": {
        "cart_traj_len": 0.4920655616653129,
        "distance_elbow_joint": 0.9901455138533917,
        "distance_shoulder_lift_joint": 0.3209266083257639,
        "distance_shoulder_pan_joint": 0.255750685036344,
        "distance_wrist_1_joint": 0.6540715294755568,
        "distance_wrist_2_joint": 1.3172335873684784,
        "distance_wrist_3_joint": 0.05109209088355282,
        "smoothness": 3.2297397080004555e-16,
        "time": 0.027646482,
        "traj_len": 1.8945236907843321,
        "weighted_distance": 2.3796447872643154
    },
    "planner": "PRM",
    "start": {
        "state": {
            "elbow_joint": 1.7527959577737207,
            "shoulder_lift_joint": -0.9740617694225068,
            "shoulder_pan_joint": -2.967991417825858,
            "wrist_1_joint": -0.759517768980727,
            "wrist_2_joint": 1.7443932448377408,
            "wrist_3_joint": -3.0840537646736568
        }
    },
    "waypoints": [
        {
            "positions": [
                -2.967991417825858,
                -0.9740617694225068,
                1.7527959577737207,
                -0.759517768980727,
                1.7443932448377408,
                -3.0840537646736568
            ]
        },
        {
            "positions": [
                -2.9424163493222237,
                -0.9419691085899304,
                1.6537814063883816,
                -0.6941106160331713,
                1.612669886100893,
                -3.089162973762012
            ]
        },
        {
            "positions": [
                -2.916841280818589,
                -0.909876447757354,
                1.5547668550030422,
                -0.6287034630856156,
                1.4809465273640452,
                -3.0942721828503674
            ]
        },
        {
            "positions": [
                -2.891266212314955,
                -0.8777837869247775,
                1.4557523036177031,
                -0.5632963101380599,
                1.3492231686271974,
                -3.0993813919387225
            ]
        },
        {
            "positions": [
                -2.86569114381132,
                -0.8456911260922012,
                1.356737752232364,
                -0.49788915719050425,
                1.2174998098903496,
                -3.104490601027078
            ]
        },
        {
            "positions": [
                -2.840116075307686,
                -0.8135984652596249,
                1.2577232008470247,
                -0.4324820042429486,
                1.0857764511535017,
                -3.109599810115433
            ]
        },
        {
            "positions": [
                -2.8145410068040517,
                -0.7815058044270484,
                1.1587086494616856,
                -0.3670748512953929,
                0.9540530924166538,
                -3.1147090192037883
            ]
        },
        {
            "positions": [
                -2.788965938300417,
                -0.7494131435944721,
                1.0596940980763465,
                -0.30166769834783724,
                0.822329733679806,
                -3.119818228292144
            ]
        },
        {
            "positions": [
                -2.763390869796783,
                -0.7173204827618956,
                0.9606795466910073,
                -0.23626054540028152,
                0.6906063749429581,
                -3.124927437380499
            ]
        },
        {
            "positions": [
                -2.737815801293148,
                -0.6852278219293193,
                0.8616649953056681,
                -0.1708533924527258,
                0.5588830162061103,
                -3.1300366464688545
            ]
        },
        {
            "positions": [
                -2.712240732789514,
                -0.6531351610967429,
                0.762650443920329,
                -0.10544623950517018,
                0.42715965746926243,
                -3.1351458555572096
            ]
        }
    ]
}