{
    "goal": {
        "global_pose": {
            "orientation": {
                "w": 0.7047431493862688,
                "x": -0.7094548369677653,
                "y": 0.0024358444001904,
                "z": -0.0022348060817251984
            },
            "position": {
                "x": -0.39052492380142206,
                "y": 0.3671506643295288,
                "z": 0.19426114857196808
            }
        },
        "name": "move_to_magneteinheit_D"
    },
    "id": "PRM_move_to_magneteinheit_D_3",
    "joint_names": [
        "shoulder_pan_joint",
        "shoulder_lift_joint",
        "elbow_joint",
        "wrist_1_joint",
        "wrist_2_joint",
        "wrist_3_joint"
    ],
    "metrics": {
        "cart_traj_len": 6.120673651091169,
        "distance_elbow_joint": 3.1052549504247042,
        "distance_shoulder_lift_joint": 2.5356804487113918,
        "distance_shoulder_pan_joint": 4.233424119098832,
        "distance_wrist_1_joint": 2.692519724467242,
        "distance_wrist_2_joint": 1.2470952121754282,
        "distance_wrist_3_joint": 1.7483686235831528,
        "smoothness": 0.6510810799643539,
        "time": 0.379567604,
        "traj_len": 3.944913570467768,
        "weighted_distance": 4.7956954930718565
    },
    "planner": "PRM",
    "start": {
        "state": {
            "elbow_joint": 0.749534889911806,
            "shoulder_lift_joint": -0.6476975780787326,
            "shoulder_pan_joint": -2.711696901376241,
            "wrist_1_joint": -0.07506478083263063,
            "wrist_2_joint": 0.43296659715538205,
            "wrist_3_joint": -3.14703540197715
        }
    },
    "waypoints": [
        {
            "positions": [
                -2.711696901376241,
                -0.6476975780787326,
                0.749534889911806,
                -0.07506478083263063,
                0.43296659715538205,
                -3.14703540197715
            ]
        },
        {
            "positions": [
                -2.734573750990685,
                -0.7163363059206165,
                0.6462941447847638,
                0.060253671502186607,
                0.4292615429855777,
                -3.0979311726761374
            ]
        },
        {
            "positions": [
                -2.757450600605129,
                -0.7849750337625002,
                0.5430533996577216,
                0.19557212383700384,
                0.42555648881577335,
                -3.0488269433751247
            ]
        },
        {
            "positions": [
                -2.6367343409757296,
                -0.8449888047630529,
                0.47446106943465466,
                0.11939801735966736,
                0.39250791330130835,
                -3.0200280091614404
            ]
        },
        {
            "positions": [
                -2.5160180813463304,
                -0.9050025757636058,
                0.4058687392115877,
                0.04322391088233088,
                0.3594593377868433,
                -2.991229074947756
            ]
        },
        {
            "positions": [
                -2.395301821716931,
                -0.9650163467641585,
                0.33727640898852085,
                -0.03295019559500559,
                0.3264107622723783,
                -2.962430140734072
            ]
        },
        {
            "positions": [
                -2.2745855620875317,
                -1.0250301177647112,
                0.2686840787654539,
                -0.10912430207234208,
                0.29336218675791326,
                -2.9336312065203876
            ]
        },
        {
            "positions": [
                -2.153869302458132,
                -1.085043888765264,
                0.20009174854238698,
                -0.1852984085496786,
                0.26031361124344826,
                -2.9048322723067033
            ]
        },
        {
            "positions": [
                -2.033153042828733,
                -1.1450576597658169,
                0.13149941831932005,
                -0.261472515027015,
                0.22726503572898327,
                -2.876033338093019
            ]
        },
        {
            "positions": [
                -1.9124367831993334,
                -1.2050714307663695,
                0.06290708809625312,
                -0.33764662150435154,
                0.19421646021451824,
                -2.8472344038793347
            ]
        },
        {
            "positions": [
                -1.7917205235699338,
                -1.2650852017669223,
                -0.005685242126813761,
                -0.413820727981688,
                0.16116788470005322,
                -2.8184354696656504
            ]
        },
        {
            "positions": [
                -1.6710042639405345,
                -1.3250989727674751,
                -0.07427757234988075,
                -0.4899948344590246,
                0.12811930918558817,
                -2.789636535451966
            ]
        },
        {
            "positions": [
                -1.5502880043111351,
                -1.385112743768028,
                -0.14286990257294763,
                -0.566168940936361,
                0.09507073367112318,
                -2.760837601238282
            ]
        },
        {
            "positions": [
                -1.4295717446817358,
                -1.4451265147685808,
                -0.21146223279601462,
                -0.6423430474136974,
                0.06202215815665818,
                -2.7320386670245975
            ]
        },
        {
            "positions": [
                -1.3088554850523364,
                -1.5051402857691334,
                -0.2800545630190815,
                -0.7185171538910339,
                0.028973582642193185,
                -2.7032397328109132
            ]
        },
        {
            "positions": [
                -1.1881392254229368,
                -1.5651540567696862,
                -0.3486468932421485,
                -0.7946912603683705,
                -0.004074992872271865,
                -2.674440798597229
            ]
        },
        {
            "positions": [
                -1.0674229657935375,
                -1.6251678277702388,
                -0.41723922346521536,
                -0.8708653668457069,
                -0.03712356838673686,
                -2.6456418643835447
            ]
        },
        {
            "positions": [
                -0.9467067061641381,
                -1.6851815987707917,
                -0.48583155368828224,
                -0.9470394733230434,
                -0.07017214390120186,
                -2.6168429301698604
            ]
        },
        {
            "positions": [
                -0.8259904465347387,
                -1.7451953697713445,
                -0.5544238839113491,
                -1.0232135798003799,
                -0.1032207194156669,
                -2.588043995956176
            ]
        },
        {
            "positions": [
                -0.7052741869053394,
                -1.8052091407718973,
                -0.623016214134416,
                -1.0993876862777163,
                -0.13626929493013185,
                -2.5592450617424918
            ]
        },
        {
            "positions": [
                -0.5845579272759398,
                -1.8652229117724501,
                -0.6916085443574831,
                -1.175561792755053,
                -0.169317870444597,
                -2.5304461275288075
            ]
        },
        {
            "positions": [
                -0.4638416676465402,
                -1.925236682773003,
                -0.76020087458055,
                -1.2517358992323895,
                -0.20236644595906195,
                -2.501647193315123
            ]
        },
        {
            "positions": [
                -0.3431254080171411,
                -1.9852504537735554,
                -0.8287932048036168,
                -1.327910005709726,
                -0.235415021473527,
                -2.472848259101439
            ]
        },
        {
            "positions": [
                -0.2224091483877415,
                -2.045264224774108,
                -0.8973855350266837,
                -1.4040841121870622,
                -0.26846359698799194,
                -2.4440493248877546
            ]
        },
        {
            "positions": [
                -0.10169288875834237,
                -2.105277995774661,
                -0.9659778652497508,
                -1.4802582186643987,
                -0.301512172502457,
                -2.4152503906740703
            ]
        },
        {
            "positions": [
                0.01902337087105721,
                -2.165291766775214,
                -1.0345701954728177,
                -1.5564323251417351,
                -0.3345607480169219,
                -2.386451456460386
            ]
        },
        {
            "positions": [
                0.13973963050045635,
                -2.2253055377757667,
                -1.1031625256958846,
                -1.6326064316190716,
                -0.367609323531387,
                -2.3576525222467017
            ]
        },
        {
            "positions": [
                0.26045589012985637,
                -2.2853193087763195,
                -1.1717548559189517,
                -1.7087805380964083,
                -0.40065789904585203,
                -2.3288535880330175
            ]
        },
        {
            "positions": [
                0.3811721497592555,
                -2.3453330797768723,
                -1.2403471861420186,
                -1.7849546445737448,
                -0.4337064745603171,
                -2.300054653819333
            ]
        },
        {
            "positions": [
                0.5018884093886551,
                -2.4053468507774247,
                -1.3089395163650854,
                -1.8611287510510814,
                -0.466755050074782,
                -2.271255719605649
            ]
        },
        {
            "positions": [
                0.6226046690180542,
                -2.4653606217779775,
                -1.3775318465881523,
                -1.9373028575284177,
                -0.49980362558924707,
                -2.2424567853919646
            ]
        },
        {
            "positions": [
                0.541843153993378,
                -2.3935588812767628,
                -1.475350667980627,
                -1.9662036413716362,
                -0.46837112664616715,
                -2.3268357860917614
            ]
        },
        {
            "positions": [
                0.4610816389687018,
                -2.3217571407755484,
                -1.5731694893731014,
                -1.9951044252148549,
                -0.43693862770308717,
                -2.411214786791558
            ]
        },
        {
            "positions": [
                0.3803201239440256,
                -2.2499554002743336,
                -1.670988310765576,
                -2.0240052090580734,
                -0.40550612876000725,
                -2.4955937874913547
            ]
        },
        {
            "positions": [
                0.2995586089193493,
                -2.1781536597731193,
                -1.7688071321580505,
                -2.052905992901292,
                -0.37407362981692727,
                -2.5799727881911516
            ]
        },
        {
            "positions": [
                0.2187970938946731,
                -2.1063519192719045,
                -1.8666259535505252,
                -2.0818067767445103,
                -0.34264113087384734,
                -2.664351788890948
            ]
        },
        {
            "positions": [
                0.1380355788699969,
                -2.03455017877069,
                -1.9644447749429998,
                -2.110707560587729,
                -0.3112086319307674,
                -2.748730789590745
            ]
        },
        {
            "positions": [
                0.057274063845320744,
                -1.9627484382694753,
                -2.062263596335474,
                -2.1396083444309477,
                -0.27977613298768744,
                -2.8331097902905418
            ]
        },
        {
            "positions": [
                -0.02348745117935558,
                -1.8909466977682607,
                -2.160082417727949,
                -2.168509128274166,
                -0.24834363404460752,
                -2.9174887909903386
            ]
        },
        {
            "positions": [
                -0.10424896620403179,
                -1.8191449572670462,
                -2.2579012391204234,
                -2.1974099121173847,
                -0.21691113510152754,
                -3.001867791690135
            ]
        },
        {
            "positions": [
                -0.18501048122870797,
                -1.7473432167658316,
                -2.355720060512898,
                -2.226310695960603,
                -0.18547863615844762,
                -3.086246792389932
            ]
        }
    ]
}