{
    "goal": {
        "global_pose": {
            "orientation": {
                "w": 0.5084816217422485,
                "x": -0.49083608388900757,
                "y": 0.5182115435600281,
                "z": -0.4816462993621826
            },
            "position": {
                "x": 0.5540239810943604,
                "y": 0.030875300988554955,
                "z": 0.16403168439865112
            }
        },
        "name": "move_to_storage_A"
    },
    "id": "PRM_move_to_storage_A_19",
    "joint_names": [
        "shoulder_pan_joint",
        "shoulder_lift_joint",
        "elbow_joint",
        "wrist_1_joint",
        "wrist_2_joint",
        "wrist_3_joint"
    ],
    "metrics": {
        "cart_traj_len": 0.3528556750766903,
        "distance_elbow_joint": 0.4492736415404084,
        "distance_shoulder_lift_joint": 0.2333383967759768,
        "distance_shoulder_pan_joint": 0.4579377865281254,
        "distance_wrist_1_joint": 0.24714408947227662,
        "distance_wrist_2_joint": 1.112237783039323,
        "distance_wrist_3_joint": 0.09496868151251414,
        "smoothness": 4.440892098500626e-16,
        "time": 0.017386671,
        "traj_len": 1.610869448114472,
        "weighted_distance": 2.0357356445288404
    },
    "planner": "PRM",
    "start": {
        "state": {
            "elbow_joint": 1.971548259319323,
            "shoulder_lift_joint": -1.1394851275133948,
            "shoulder_pan_joint": 0.1228115487234821,
            "wrist_1_joint": -0.7804723859257726,
            "wrist_2_joint": 0.12958671773740124,
            "wrist_3_joint": -3.192489227718131
        }
    },
    "waypoints": [
        {
            "positions": [
                0.1228115487234821,
                -1.1394851275133948,
                1.971548259319323,
                -0.7804723859257726,
                0.12958671773740124,
                -3.192489227718131
            ]
        },
        {
            "positions": [
                0.05739186493374991,
                -1.1728191841956772,
                2.03573020811081,
                -0.8157786844218121,
                0.28847782960016166,
                -3.1789222732163434
            ]
        },
        {
            "positions": [
                -0.008027818855982277,
                -1.2061532408779596,
                2.0999121569022967,
                -0.8510849829178516,
                0.44736894146292205,
                -3.1653553187145556
            ]
        },
        {
            "positions": [
                -0.07344750264571448,
                -1.239487297560242,
                2.164094105693784,
                -0.8863912814138911,
                0.6062600533256826,
                -3.1517883642127678
            ]
        },
        {
            "positions": [
                -0.13886718643544665,
                -1.2728213542425244,
                2.2282760544852707,
                -0.9216975799099307,
                0.765151165188443,
                -3.1382214097109804
            ]
        },
        {
            "positions": [
                -0.20428687022517888,
                -1.3061554109248068,
                2.2924580032767574,
                -0.9570038784059702,
                0.9240422770512035,
                -3.1246544552091926
            ]
        },
        {
            "positions": [
                -0.26970655401491106,
                -1.3394894676070892,
                2.3566399520682446,
                -0.9923101769020097,
                1.0829333889139638,
                -3.111087500707405
            ]
        },
        {
            "positions": [
                -0.3351262378046433,
                -1.3728235242893716,
                2.4208219008597314,
                -1.0276164753980492,
                1.2418245007767243,
                -3.097520546205617
            ]
        }
    ]
}{
    "goal": {
        "global_pose": {
            "orientation": {
                "w": 0.5084816217422485,
                "x": -0.49083608388900757,
                "y": 0.5182115435600281,
                "z": -0.4816462993621826
            },
            "position": {
                "x": 0.5540239810943604,
                "y": 0.030875300988554955,
                "z": 0.16403168439865112
            }
        },
        "name": "move_to_storage_A"
    },
    "id": "PRM_move_to_storage_A_19",
    "joint_names": [
        "shoulder_pan_joint",
        "shoulder_lift_joint",
        "elbow_joint",
        "wrist_1_joint",
        "wrist_2_joint",
        "wrist_3_joint"
    ],
    "metrics": {
        "cart_traj_len": 0.35318508249813046,
        "distance_elbow_joint": 0.449898258167325,
        "distance_shoulder_lift_joint": 0.23414082527090163,
        "distance_shoulder_pan_joint": 0.4605344578010444,
        "distance_wrist_1_joint": 0.23888379410660598,
        "distance_wrist_2_joint": 1.1049197867583873,
        "distance_wrist_3_joint": 0.08688856933507161,
        "smoothness": 1.998401446083499e-15,
        "time": 0.039503872,
        "traj_len": 1.6047634378435147,
        "weighted_distance": 2.023078449041083
    },
    "planner": "PRM",
    "start": {
        "state": {
            "elbow_joint": 1.97154746011099,
            "shoulder_lift_joint": -1.13948474672311,
            "shoulder_pan_joint": 0.12281154466712228,
            "wrist_1_joint": -0.7804688027058302,
            "wrist_2_joint": 0.12958655903071145,
            "wrist_3_joint": 3.0906928834467795
        }
    },
    "waypoints": [
        {
            "positions": [
                0.12281154466712228,
                -1.13948474672311,
                1.97154746011099,
                -0.7804688027058302,
                0.12958655903071145,
                3.0906928834467795
            ]
        },
        {
            "positions": [
                0.05702090783840166,
                -1.1729334360475245,
                2.0358186398491793,
                -0.8145950590067739,
                0.28743224285333824,
                3.1031055362089326
            ]
        },
        {
            "positions": [
                -0.008769728990318956,
                -1.206382125371939,
                2.1000898195873683,
                -0.8487213153077175,
                0.445277926675965,
                3.1155181889710857
            ]
        },
        {
            "positions": [
                -0.07456036581903959,
                -1.2398308146963535,
                2.1643609993255577,
                -0.8828475716086613,
                0.6031236104985918,
                3.1279308417332388
            ]
        },
        {
            "positions": [
                -0.14035100264776018,
                -1.273279504020768,
                2.228632179063747,
                -0.916973827909605,
                0.7609692943212185,
                3.140343494495392
            ]
        },
        {
            "positions": [
                -0.20614163947648084,
                -1.3067281933451826,
                2.2929033588019365,
                -0.9511000842105488,
                0.9188149781438453,
                3.152756147257545
            ]
        },
        {
            "positions": [
                -0.27193227630520145,
                -1.340176882669597,
                2.3571745385401255,
                -0.9852263405114925,
                1.076660661966472,
                3.165168800019698
            ]
        },
        {
            "positions": [
                -0.3377229131339221,
                -1.3736255719940116,
                2.421445718278315,
                -1.0193525968124362,
                1.2345063457890988,
                3.177581452781851
            ]
        }
    ]
}{
    "goal": {
        "global_pose": {
            "orientation": {
                "w": 0.5084816217422485,
                "x": -0.49083608388900757,
                "y": 0.5182115435600281,
                "z": -0.4816462993621826
            },
            "position": {
                "x": 0.5540239810943604,
                "y": 0.030875300988554955,
                "z": 0.16403168439865112
            }
        },
        "name": "move_to_storage_A"
    },
    "id": "PRM_move_to_storage_A_19",
    "joint_names": [
        "shoulder_pan_joint",
        "shoulder_lift_joint",
        "elbow_joint",
        "wrist_1_joint",
        "wrist_2_joint",
        "wrist_3_joint"
    ],
    "metrics": {
        "cart_traj_len": 0.3536292055629562,
        "distance_elbow_joint": 0.4537582654638306,
        "distance_shoulder_lift_joint": 0.23389273334633498,
        "distance_shoulder_pan_joint": 0.4595937204121015,
        "distance_wrist_1_joint": 0.25734334190387353,
        "distance_wrist_2_joint": 1.1123963862904467,
        "distance_wrist_3_joint": 0.10283273966374473,
        "smoothness": 0.0,
        "time": 0.024857202,
        "traj_len": 1.6185849335392728,
        "weighted_distance": 2.048224205159714
    },
    "planner": "PRM",
    "start": {
        "state": {
            "elbow_joint": 1.9715472970024885,
            "shoulder_lift_joint": -1.1394870060712896,
            "shoulder_pan_joint": 0.12281152778156021,
            "wrist_1_joint": -0.780463741449964,
            "wrist_2_joint": 0.12958659822042276,
            "wrist_3_joint": 3.090690232415272
        }
    },
    "waypoints": [
        {
            "positions": [
                0.12281152778156021,
                -1.1394870060712896,
                1.9715472970024885,
                -0.780463741449964,
                0.12958659822042276,
                3.090690232415272
            ]
        },
        {
            "positions": [
                0.05715528200840286,
                -1.1729002536921946,
                2.0363699063544645,
                -0.8172270760076602,
                0.2885003676904866,
                3.105380623795807
            ]
        },
        {
            "positions": [
                -0.008500963764754482,
                -1.2063135013130997,
                2.10119251570644,
                -0.8539904105653564,
                0.44741413716055034,
                3.1200710151763418
            ]
        },
        {
            "positions": [
                -0.07415720953791183,
                -1.2397267489340047,
                2.166015125058416,
                -0.8907537451230526,
                0.6063279066306142,
                3.1347614065568767
            ]
        },
        {
            "positions": [
                -0.13981345531106917,
                -1.2731399965549095,
                2.230837734410392,
                -0.9275170796807488,
                0.765241676100678,
                3.1494517979374117
            ]
        },
        {
            "positions": [
                -0.20546970108422655,
                -1.3065532441758145,
                2.2956603437623677,
                -0.9642804142384451,
                0.9241554455707418,
                3.1641421893179467
            ]
        },
        {
            "positions": [
                -0.2711259468573839,
                -1.3399664917967196,
                2.360482953114343,
                -1.0010437487961412,
                1.0830692150408057,
                3.1788325806984816
            ]
        },
        {
            "positions": [
                -0.33678219263054127,
                -1.3733797394176246,
                2.425305562466319,
                -1.0378070833538375,
                1.2419829845108694,
                3.1935229720790166
            ]
        }
    ]
}