{
    "goal": {
        "global_pose": {
            "orientation": {
                "w": 0.7031023502349854,
                "x": -0.7110244035720825,
                "y": 0.007748599164187908,
                "z": 0.005598929710686207
            },
            "position": {
                "x": 0.11585023208521307,
                "y": 0.44412534475326537,
                "z": 0.3711530566215515
            }
        },
        "name": "move_to_auspresseinheit_A"
    },
    "id": "PRM_move_to_auspresseinheit_A_77",
    "joint_names": [
        "shoulder_pan_joint",
        "shoulder_lift_joint",
        "elbow_joint",
        "wrist_1_joint",
        "wrist_2_joint",
        "wrist_3_joint"
    ],
    "metrics": {
        "cart_traj_len": 0.754411026094998,
        "distance_elbow_joint": 0.4526045347355345,
        "distance_shoulder_lift_joint": 0.5340998560538515,
        "distance_shoulder_pan_joint": 1.1859788113263188,
        "distance_wrist_1_joint": 2.2888917900974444,
        "distance_wrist_2_joint": 0.5117709641023677,
        "distance_wrist_3_joint": 3.626348355572998,
        "smoothness": 0.9238660905742502,
        "time": 0.244169668,
        "traj_len": 2.932523539869461,
        "weighted_distance": 4.318918125785012
    },
    "planner": "PRM",
    "start": {
        "state": {
            "elbow_joint": 2.4225746658250005,
            "shoulder_lift_joint": -1.3736534386056498,
            "shoulder_pan_joint": -0.3378633547517467,
            "wrist_1_joint": -1.0288598680537169,
            "wrist_2_joint": 1.233022673432363,
            "wrist_3_joint": -3.0940220416140027
        }
    },
    "waypoints": [
        {
            "positions": [
                -0.3378633547517467,
                -1.3736534386056498,
                2.4225746658250005,
                -1.0288598680537169,
                1.233022673432363,
                -3.0940220416140027
            ]
        },
        {
            "positions": [
                -0.3447354153456546,
                -1.3913212869845677,
                2.3983647953522276,
                -0.8860282544511875,
                1.2262020427101805,
                -2.9152701763712083
            ]
        },
        {
            "positions": [
                -0.3516074759395625,
                -1.4089891353634856,
                2.374154924879455,
                -0.743196640848658,
                1.2193814119879982,
                -2.7365183111284135
            ]
        },
        {
            "positions": [
                -0.35847953653347037,
                -1.4266569837424035,
                2.349945054406682,
                -0.6003650272461286,
                1.212560781265816,
                -2.557766445885619
            ]
        },
        {
            "positions": [
                -0.36535159712737825,
                -1.4443248321213213,
                2.3257351839339098,
                -0.4575334136435991,
                1.2057401505436334,
                -2.3790145806428247
            ]
        },
        {
            "positions": [
                -0.3722236577212862,
                -1.4619926805002392,
                2.301525313461137,
                -0.31470180004106973,
                1.1989195198214508,
                -2.2002627154000303
            ]
        },
        {
            "positions": [
                -0.37909571831519406,
                -1.4796605288791569,
                2.277315442988364,
                -0.17187018643854035,
                1.1920988890992685,
                -2.0215108501572354
            ]
        },
        {
            "positions": [
                -0.38596777890910194,
                -1.4973283772580748,
                2.2531055725155915,
                -0.029038572836010967,
                1.1852782583770862,
                -1.842758984914441
            ]
        },
        {
            "positions": [
                -0.3928398395030098,
                -1.5149962256369927,
                2.2288957020428186,
                0.11379304076651864,
                1.1784576276549037,
                -1.6640071196716464
            ]
        },
        {
            "positions": [
                -0.3997119000969177,
                -1.5326640740159105,
                2.204685831570046,
                0.256624654369048,
                1.1716369969327212,
                -1.4852552544288518
            ]
        },
        {
            "positions": [
                -0.4065839606908256,
                -1.5503319223948284,
                2.1804759610972733,
                0.3994562679715773,
                1.1648163662105389,
                -1.3065033891860574
            ]
        },
        {
            "positions": [
                -0.3206410218148841,
                -1.5778258741074955,
                2.19666871725172,
                0.333258140735258,
                1.1306960079889585,
                -1.447951827889523
            ]
        },
        {
            "positions": [
                -0.23469808293894254,
                -1.6053198258201626,
                2.212861473406167,
                0.2670600134989387,
                1.0965756497673782,
                -1.5894002665929885
            ]
        },
        {
            "positions": [
                -0.148755144063001,
                -1.6328137775328297,
                2.2290542295606133,
                0.20086188626261942,
                1.062455291545798,
                -1.730848705296454
            ]
        },
        {
            "positions": [
                -0.06281220518705949,
                -1.660307729245497,
                2.24524698571506,
                0.13466375902630012,
                1.0283349333242178,
                -1.8722971439999196
            ]
        },
        {
            "positions": [
                0.02313073368888202,
                -1.6878016809581642,
                2.261439741869507,
                0.06846563178998083,
                0.9942145751026374,
                -2.013745582703385
            ]
        },
        {
            "positions": [
                0.10907367256482359,
                -1.7152956326708313,
                2.2776324980239537,
                0.002267504553661537,
                0.9600942168810572,
                -2.155194021406851
            ]
        },
        {
            "positions": [
                0.195016611440765,
                -1.7427895843834984,
                2.2938252541784,
                -0.0639306226826577,
                0.925973858659477,
                -2.2966424601103164
            ]
        },
        {
            "positions": [
                0.2809595503167066,
                -1.7702835360961655,
                2.310018010332847,
                -0.13012874991897705,
                0.8918535004378967,
                -2.438090898813782
            ]
        },
        {
            "positions": [
                0.3669024891926481,
                -1.7977774878088326,
                2.3262107664872937,
                -0.1963268771552963,
                0.8577331422163165,
                -2.5795393375172475
            ]
        },
        {
            "positions": [
                0.45284542806858963,
                -1.8252714395215,
                2.3424035226417406,
                -0.26252500439161564,
                0.8236127839947361,
                -2.720987776220713
            ]
        },
        {
            "positions": [
                0.5387883669445311,
                -1.852765391234167,
                2.358596278796187,
                -0.3287231316279349,
                0.7894924257731559,
                -2.8624362149241787
            ]
        },
        {
            "positions": [
                0.6247313058204728,
                -1.8802593429468342,
                2.3747890349506338,
                -0.3949212588642542,
                0.7553720675515756,
                -3.0038846536276442
            ]
        },
        {
            "positions": [
                0.7106742446964142,
                -1.9077532946595013,
                2.3909817911050806,
                -0.46111938610057346,
                0.7212517093299954,
                -3.14533309233111
            ]
        }
    ]
}