{
    "goal": {
        "global_pose": {
            "orientation": {
                "w": -0.4816463035849501,
                "x": 0.5182115481033762,
                "y": 0.4908360881923453,
                "z": -0.5084816262002911
            },
            "position": {
                "x": -0.8240239810943604,
                "y": -0.300875300988555,
                "z": 0.16403168439865112
            }
        },
        "name": "move_to_storage_C"
    },
    "id": "PRM_move_to_storage_C_15",
    "joint_names": [
        "shoulder_pan_joint",
        "shoulder_lift_joint",
        "elbow_joint",
        "wrist_1_joint",
        "wrist_2_joint",
        "wrist_3_joint"
    ],
    "metrics": {
        "cart_traj_len": 0.5772706890962256,
        "distance_elbow_joint": 0.2566835386527997,
        "distance_shoulder_lift_joint": 0.18924953541377465,
        "distance_shoulder_pan_joint": 0.49344867700899675,
        "distance_wrist_1_joint": 0.06659482805269801,
        "distance_wrist_2_joint": 1.080738648845768,
        "distance_wrist_3_joint": 0.06737692017531138,
        "smoothness": 2.5376526478085547e-16,
        "time": 0.017367341,
        "traj_len": 1.4676825774496842,
        "weighted_distance": 1.8536934658671151
    },
    "planner": "PRM",
    "start": {
        "state": {
            "elbow_joint": 2.010868314990456,
            "shoulder_lift_joint": -1.1634956873337592,
            "shoulder_pan_joint": -2.4736205022346125,
            "wrist_1_joint": -0.8367026794202681,
            "wrist_2_joint": 0.6746043897044499,
            "wrist_3_joint": -3.1496632123970403
        }
    },
    "waypoints": [
        {
            "positions": [
                -2.4736205022346125,
                -1.1634956873337592,
                2.010868314990456,
                -0.8367026794202681,
                0.6746043897044499,
                -3.1496632123970403
            ]
        },
        {
            "positions": [
                -2.5558619484027787,
                -1.13195409809813,
                1.968087725214989,
                -0.8256035414114851,
                0.8547274978454112,
                -3.138433725701155
            ]
        },
        {
            "positions": [
                -2.638103394570945,
                -1.100412508862501,
                1.9253071354395226,
                -0.8145044034027021,
                1.0348506059863727,
                -3.1272042390052697
            ]
        },
        {
            "positions": [
                -2.720344840739111,
                -1.068870919626872,
                1.882526545664056,
                -0.8034052653939191,
                1.2149737141273338,
                -3.1159747523093846
            ]
        },
        {
            "positions": [
                -2.802586286907277,
                -1.0373293303912428,
                1.8397459558885894,
                -0.7923061273851361,
                1.3950968222682953,
                -3.1047452656134995
            ]
        },
        {
            "positions": [
                -2.884827733075443,
                -1.0057877411556135,
                1.7969653661131226,
                -0.7812069893763531,
                1.5752199304092565,
                -3.093515778917614
            ]
        },
        {
            "positions": [
                -2.9670691792436092,
                -0.9742461519199845,
                1.7541847763376561,
                -0.7701078513675701,
                1.7553430385502178,
                -3.082286292221729
            ]
        }
    ]
}