{
    "goal": {
        "global_pose": {
            "orientation": {
                "w": 0.005598929693374612,
                "x": 0.007748599140229565,
                "y": 0.7110244013736278,
                "z": -0.7031023480610252
            },
            "position": {
                "x": -0.8858502320852131,
                "y": -0.7141253447532654,
                "z": 0.3711530566215515
            }
        },
        "name": "move_to_auspresseinheit_C"
    },
    "id": "PRM_move_to_auspresseinheit_C_120",
    "joint_names": [
        "shoulder_pan_joint",
        "shoulder_lift_joint",
        "elbow_joint",
        "wrist_1_joint",
        "wrist_2_joint",
        "wrist_3_joint"
    ],
    "metrics": {
        "cart_traj_len": 0.49258637735987015,
        "distance_elbow_joint": 0.9910081600182422,
        "distance_shoulder_lift_joint": 0.3212155925319745,
        "distance_shoulder_pan_joint": 0.2562865074612475,
        "distance_wrist_1_joint": 0.655661414947085,
        "distance_wrist_2_joint": 1.3193667122808463,
        "distance_wrist_3_joint": 0.04946915400435392,
        "smoothness": 0.0,
        "time": 0.027810753,
        "traj_len": 1.895523025775142,
        "weighted_distance": 2.38054068994428
    },
    "planner": "PRM",
    "start": {
        "state": {
            "elbow_joint": 1.7527959577737207,
            "shoulder_lift_joint": -0.9740617694225068,
            "shoulder_pan_joint": -2.967991417825858,
            "wrist_1_joint": -0.759517768980727,
            "wrist_2_joint": 1.7443932448377408,
            "wrist_3_joint": -3.0840537646736568
        }
    },
    "waypoints": [
        {
            "positions": [
                -2.967991417825858,
                -0.9740617694225068,
                1.7527959577737207,
                -0.759517768980727,
                1.7443932448377408,
                -3.0840537646736568
            ]
        },
        {
            "positions": [
                -2.942362767079733,
                -0.9419402101693093,
                1.6536951417718964,
                -0.6939516274860185,
                1.612456573609656,
                -3.089000680074092
            ]
        },
        {
            "positions": [
                -2.9167341163336085,
                -0.9098186509161119,
                1.5545943257700723,
                -0.6283854859913099,
                1.4805199023815716,
                -3.0939475954745275
            ]
        },
        {
            "positions": [
                -2.8911054655874837,
                -0.8776970916629144,
                1.455493509768248,
                -0.5628193444966015,
                1.3485832311534869,
                -3.098894510874963
            ]
        },
        {
            "positions": [
                -2.865476814841359,
                -0.845575532409717,
                1.3563926937664237,
                -0.49725320300189296,
                1.2166465599254024,
                -3.103841426275398
            ]
        },
        {
            "positions": [
                -2.839848164095234,
                -0.8134539731565196,
                1.2572918777645996,
                -0.4316870615071845,
                1.0847098886973177,
                -3.108788341675834
            ]
        },
        {
            "positions": [
                -2.8142195133491095,
                -0.7813324139033221,
                1.1581910617627753,
                -0.36612092001247604,
                0.952773217469233,
                -3.1137352570762693
            ]
        },
        {
            "positions": [
                -2.7885908626029847,
                -0.7492108546501246,
                1.059090245760951,
                -0.3005547785177675,
                0.8208365462411484,
                -3.1186821724767047
            ]
        },
        {
            "positions": [
                -2.76296221185686,
                -0.7170892953969272,
                0.9599894297591268,
                -0.23498863702305894,
                0.6888998750130637,
                -3.12362908787714
            ]
        },
        {
            "positions": [
                -2.7373335611107352,
                -0.6849677361437296,
                0.8608886137573026,
                -0.16942249552835054,
                0.556963203784979,
                -3.1285760032775753
            ]
        },
        {
            "positions": [
                -2.7117049103646105,
                -0.6528461768905323,
                0.7617877977554784,
                -0.10385635403364205,
                0.42502653255689454,
                -3.1335229186780107
            ]
        }
    ]
}