{
    "goal": {
        "global_pose": {
            "orientation": {
                "w": 0.005598929693374612,
                "x": 0.007748599140229565,
                "y": 0.7110244013736278,
                "z": -0.7031023480610252
            },
            "position": {
                "x": 0.1141497679147869,
                "y": -0.7141253447532654,
                "z": 0.3711530566215515
            }
        },
        "name": "move_to_auspresseinheit_B"
    },
    "id": "PRM_move_to_auspresseinheit_B_148",
    "joint_names": [
        "shoulder_pan_joint",
        "shoulder_lift_joint",
        "elbow_joint",
        "wrist_1_joint",
        "wrist_2_joint",
        "wrist_3_joint"
    ],
    "metrics": {
        "cart_traj_len": 0.5640133274878262,
        "distance_elbow_joint": 0.06498207787769172,
        "distance_shoulder_lift_joint": 0.2928636286287736,
        "distance_shoulder_pan_joint": 0.5774588293921779,
        "distance_wrist_1_joint": 0.33580321031931304,
        "distance_wrist_2_joint": 0.9872848761744673,
        "distance_wrist_3_joint": 0.005507705454185441,
        "smoothness": 0.0,
        "time": 0.021585405000000002,
        "traj_len": 1.5046263083724838,
        "weighted_distance": 1.8968404849245388
    },
    "planner": "PRM",
    "start": {
        "state": {
            "elbow_joint": 2.0193083361928714,
            "shoulder_lift_joint": -1.1220246554650708,
            "shoulder_pan_joint": -1.0952077554168747,
            "wrist_1_joint": -0.8559753972642168,
            "wrist_2_joint": 0.4759566250798843,
            "wrist_3_joint": -3.1240929996934557
        }
    },
    "waypoints": [
        {
            "positions": [
                -1.0952077554168747,
                -1.1220246554650708,
                2.0193083361928714,
                -0.8559753972642168,
                0.4759566250798843,
                -3.1240929996934557
            ]
        },
        {
            "positions": [
                -1.1914508936489043,
                -1.170835260236533,
                2.008477989879923,
                -0.8000081955443312,
                0.6405041044422954,
                -3.1250109506024866
            ]
        },
        {
            "positions": [
                -1.287694031880934,
                -1.2196458650079953,
                1.997647643566974,
                -0.7440409938244458,
                0.8050515838047068,
                -3.1259289015115175
            ]
        },
        {
            "positions": [
                -1.3839371701129637,
                -1.2684564697794576,
                1.9868172972540257,
                -0.6880737921045603,
                0.9695990631671179,
                -3.1268468524205484
            ]
        },
        {
            "positions": [
                -1.4801803083449931,
                -1.3172670745509198,
                1.975986950941077,
                -0.6321065903846748,
                1.1341465425295292,
                -3.1277648033295793
            ]
        },
        {
            "positions": [
                -1.5764234465770228,
                -1.366077679322382,
                1.9651566046281284,
                -0.5761393886647892,
                1.2986940218919403,
                -3.12868275423861
            ]
        },
        {
            "positions": [
                -1.6726665848090525,
                -1.4148882840938444,
                1.9543262583151797,
                -0.5201721869449037,
                1.4632415012543516,
                -3.129600705147641
            ]
        }
    ]
}