{
    "goal": {
        "global_pose": {
            "orientation": {
                "w": 0.5084816217422485,
                "x": -0.49083608388900757,
                "y": 0.5182115435600281,
                "z": -0.4816462993621826
            },
            "position": {
                "x": 0.5540239810943604,
                "y": 0.030875300988554955,
                "z": 0.16403168439865112
            }
        },
        "name": "move_to_storage_A"
    },
    "id": "PRM_move_to_storage_A_137",
    "joint_names": [
        "shoulder_pan_joint",
        "shoulder_lift_joint",
        "elbow_joint",
        "wrist_1_joint",
        "wrist_2_joint",
        "wrist_3_joint"
    ],
    "metrics": {
        "cart_traj_len": 0.3534880641343226,
        "distance_elbow_joint": 0.4514005329922084,
        "distance_shoulder_lift_joint": 0.2353609136650643,
        "distance_shoulder_pan_joint": 0.46054089704597373,
        "distance_wrist_1_joint": 0.24565180792138663,
        "distance_wrist_2_joint": 1.1076956998798264,
        "distance_wrist_3_joint": 0.10105704624093548,
        "smoothness": 0.0,
        "time": 0.018703438,
        "traj_len": 1.6129807493412296,
        "weighted_distance": 2.0389135582531397
    },
    "planner": "PRM",
    "start": {
        "state": {
            "elbow_joint": 1.971548259319323,
            "shoulder_lift_joint": -1.1394851275133948,
            "shoulder_pan_joint": 0.1228115487234821,
            "wrist_1_joint": -0.7804723859257726,
            "wrist_2_joint": 0.12958671773740124,
            "wrist_3_joint": -3.192489227718131
        }
    },
    "waypoints": [
        {
            "positions": [
                0.1228115487234821,
                -1.1394851275133948,
                1.971548259319323,
                -0.7804723859257726,
                0.12958671773740124,
                -3.192489227718131
            ]
        },
        {
            "positions": [
                0.05701999200262871,
                -1.1731081151798326,
                2.0360340497467813,
                -0.8155655013431136,
                0.28782896057737645,
                -3.178052506826569
            ]
        },
        {
            "positions": [
                -0.008771564718224684,
                -1.2067311028462704,
                2.1005198401742398,
                -0.8506586167604545,
                0.4460712034173516,
                -3.163615785935007
            ]
        },
        {
            "positions": [
                -0.07456312143907806,
                -1.2403540905127082,
                2.165005630601698,
                -0.8857517321777955,
                0.6043134462573269,
                -3.1491790650434446
            ]
        },
        {
            "positions": [
                -0.14035467815993147,
                -1.2739770781791457,
                2.2294914210291563,
                -0.9208448475951364,
                0.7625556890973021,
                -3.1347423441518822
            ]
        },
        {
            "positions": [
                -0.20614623488078487,
                -1.3076000658455835,
                2.293977211456615,
                -0.9559379630124774,
                0.9207979319372773,
                -3.12030562326032
            ]
        },
        {
            "positions": [
                -0.2719377916016382,
                -1.3412230535120213,
                2.358463001884073,
                -0.9910310784298183,
                1.0790401747772524,
                -3.105868902368758
            ]
        },
        {
            "positions": [
                -0.33772934832249163,
                -1.374846041178459,
                2.4229487923115314,
                -1.0261241938471592,
                1.2372824176172277,
                -3.0914321814771957
            ]
        }
    ]
}{
    "goal": {
        "global_pose": {
            "orientation": {
                "w": 0.5084816217422485,
                "x": -0.49083608388900757,
                "y": 0.5182115435600281,
                "z": -0.4816462993621826
            },
            "position": {
                "x": 0.5540239810943604,
                "y": 0.030875300988554955,
                "z": 0.16403168439865112
            }
        },
        "name": "move_to_storage_A"
    },
    "id": "PRM_move_to_storage_A_137",
    "joint_names": [
        "shoulder_pan_joint",
        "shoulder_lift_joint",
        "elbow_joint",
        "wrist_1_joint",
        "wrist_2_joint",
        "wrist_3_joint"
    ],
    "metrics": {
        "cart_traj_len": 0.3535743572001352,
        "distance_elbow_joint": 0.4488292737461448,
        "distance_shoulder_lift_joint": 0.2340138725736678,
        "distance_shoulder_pan_joint": 0.46022965408685484,
        "distance_wrist_1_joint": 0.2438561294946584,
        "distance_wrist_2_joint": 1.1080644803135111,
        "distance_wrist_3_joint": 0.10326436187201526,
        "smoothness": 5.551115138160447e-16,
        "time": 0.028326315,
        "traj_len": 1.6119112171850076,
        "weighted_distance": 2.0388004084851103
    },
    "planner": "PRM",
    "start": {
        "state": {
            "elbow_joint": 1.97154746011099,
            "shoulder_lift_joint": -1.13948474672311,
            "shoulder_pan_joint": 0.12281154466712228,
            "wrist_1_joint": -0.7804688027058302,
            "wrist_2_joint": 0.12958655903071145,
            "wrist_3_joint": 3.0906928834467795
        }
    },
    "waypoints": [
        {
            "positions": [
                0.12281154466712228,
                -1.13948474672311,
                1.97154746011099,
                -0.7804688027058302,
                0.12958655903071145,
                3.0906928834467795
            ]
        },
        {
            "positions": [
                0.05706445122614302,
                -1.1729152999479195,
                2.035665927789011,
                -0.8153053926336385,
                0.2878814847897845,
                3.1054449351427817
            ]
        },
        {
            "positions": [
                -0.008682642214836236,
                -1.2063458531727294,
                2.099784395467031,
                -0.8501419825614469,
                0.4461764105488575,
                3.120196986838784
            ]
        },
        {
            "positions": [
                -0.0744297356558155,
                -1.239776406397539,
                2.163902863145052,
                -0.8849785724892552,
                0.6044713363079305,
                3.1349490385347862
            ]
        },
        {
            "positions": [
                -0.14017682909679474,
                -1.2732069596223488,
                2.2280213308230725,
                -0.9198151624170635,
                0.7627662620670035,
                3.149701090230788
            ]
        },
        {
            "positions": [
                -0.20592392253777403,
                -1.3066375128471583,
                2.2921397985010934,
                -0.9546517523448719,
                0.9210611878260766,
                3.1644531419267903
            ]
        },
        {
            "positions": [
                -0.27167101597875326,
                -1.340068066071968,
                2.356258266179114,
                -0.9894883422726802,
                1.0793561135851495,
                3.1792051936227925
            ]
        },
        {
            "positions": [
                -0.33741810941973255,
                -1.3734986192967777,
                2.4203767338571347,
                -1.0243249322004886,
                1.2376510393442226,
                3.1939572453187948
            ]
        }
    ]
}{
    "goal": {
        "global_pose": {
            "orientation": {
                "w": 0.5084816217422485,
                "x": -0.49083608388900757,
                "y": 0.5182115435600281,
                "z": -0.4816462993621826
            },
            "position": {
                "x": 0.5540239810943604,
                "y": 0.030875300988554955,
                "z": 0.16403168439865112
            }
        },
        "name": "move_to_storage_A"
    },
    "id": "PRM_move_to_storage_A_137",
    "joint_names": [
        "shoulder_pan_joint",
        "shoulder_lift_joint",
        "elbow_joint",
        "wrist_1_joint",
        "wrist_2_joint",
        "wrist_3_joint"
    ],
    "metrics": {
        "cart_traj_len": 0.35398413883525226,
        "distance_elbow_joint": 0.45088372395597087,
        "distance_shoulder_lift_joint": 0.2323408577039836,
        "distance_shoulder_pan_joint": 0.45934570441823247,
        "distance_wrist_1_joint": 0.25209574636629206,
        "distance_wrist_2_joint": 1.1146278186363965,
        "distance_wrist_3_joint": 0.10816615625360626,
        "smoothness": 4.440892098500626e-16,
        "time": 0.034123678,
        "traj_len": 1.6178566090152988,
        "weighted_distance": 2.049516012341544
    },
    "planner": "PRM",
    "start": {
        "state": {
            "elbow_joint": 1.9715472970024885,
            "shoulder_lift_joint": -1.1394870060712896,
            "shoulder_pan_joint": 0.12281152778156021,
            "wrist_1_joint": -0.780463741449964,
            "wrist_2_joint": 0.12958659822042276,
            "wrist_3_joint": 3.090690232415272
        }
    },
    "waypoints": [
        {
            "positions": [
                0.12281152778156021,
                -1.1394870060712896,
                1.9715472970024885,
                -0.780463741449964,
                0.12958659822042276,
                3.090690232415272
            ]
        },
        {
            "positions": [
                0.05719071286466987,
                -1.1726785571718588,
                2.0359592575676273,
                -0.8164774195022915,
                0.28881914373990797,
                3.1061425404515015
            ]
        },
        {
            "positions": [
                -0.008430102052220473,
                -1.2058701082724277,
                2.100371218132766,
                -0.8524910975546188,
                0.4480516892593932,
                3.1215948484877307
            ]
        },
        {
            "positions": [
                -0.07405091696911081,
                -1.2390616593729968,
                2.164783178697905,
                -0.8885047756069463,
                0.6072842347788784,
                3.1370471565239604
            ]
        },
        {
            "positions": [
                -0.13967173188600115,
                -1.272253210473566,
                2.229195139263043,
                -0.9245184536592738,
                0.7665167802983636,
                3.1524994645601896
            ]
        },
        {
            "positions": [
                -0.20529254680289152,
                -1.3054447615741351,
                2.293607099828182,
                -0.9605321317116011,
                0.9257493258178489,
                3.1679517725964192
            ]
        },
        {
            "positions": [
                -0.27091336171978186,
                -1.338636312674704,
                2.3580190603933207,
                -0.9965458097639286,
                1.084981871337334,
                3.1834040806326485
            ]
        },
        {
            "positions": [
                -0.33653417663667223,
                -1.3718278637752732,
                2.4224310209584594,
                -1.032559487816256,
                1.2442144168568192,
                3.198856388668878
            ]
        }
    ]
}