{
    "goal": {
        "global_pose": {
            "orientation": {
                "w": 0.7047431468963623,
                "x": -0.7094548344612122,
                "y": 0.0024358443915843964,
                "z": -0.0022348060738295317
            },
            "position": {
                "x": 0.6094750761985779,
                "y": 0.3671506643295288,
                "z": 0.19426114857196808
            }
        },
        "name": "move_to_magneteinheit_A"
    },
    "id": "PRM_move_to_magneteinheit_A_150",
    "joint_names": [
        "shoulder_pan_joint",
        "shoulder_lift_joint",
        "elbow_joint",
        "wrist_1_joint",
        "wrist_2_joint",
        "wrist_3_joint"
    ],
    "metrics": {
        "cart_traj_len": 3.767252729849051,
        "distance_elbow_joint": 3.8895751307429833,
        "distance_shoulder_lift_joint": 0.13122170764632624,
        "distance_shoulder_pan_joint": 3.4620948154856337,
        "distance_wrist_1_joint": 0.9927155126364237,
        "distance_wrist_2_joint": 1.7926199014019348,
        "distance_wrist_3_joint": 3.6465643006469683,
        "smoothness": 0.2004596010752294,
        "time": 0.110170774,
        "traj_len": 3.7302535260435414,
        "weighted_distance": 4.89829106769826
    },
    "planner": "PRM",
    "start": {
        "state": {
            "elbow_joint": -1.9196185241190666,
            "shoulder_lift_joint": -1.2443396400964142,
            "shoulder_pan_joint": 2.6996025414629847,
            "wrist_1_joint": -1.5485510000780065,
            "wrist_2_joint": -1.5709468930060704,
            "wrist_3_joint": 0.4420197071253992
        }
    },
    "waypoints": [
        {
            "positions": [
                2.6996025414629847,
                -1.2443396400964142,
                -1.9196185241190666,
                -1.5485510000780065,
                -1.5709468930060704,
                0.4420197071253992
            ]
        },
        {
            "positions": [
                2.5954604865814552,
                -1.2447897418313985,
                -1.8054095529582408,
                -1.5179611961658463,
                -1.5106897723808912,
                0.3622485092375492
            ]
        },
        {
            "positions": [
                2.4913184316999257,
                -1.2452398435663827,
                -1.691200581797415,
                -1.4873713922536862,
                -1.4504326517557122,
                0.2824773113496992
            ]
        },
        {
            "positions": [
                2.3871763768183962,
                -1.2456899453013672,
                -1.5769916106365889,
                -1.456781588341526,
                -1.390175531130533,
                0.20270611346184925
            ]
        },
        {
            "positions": [
                2.2830343219368667,
                -1.2461400470363515,
                -1.462782639475763,
                -1.4261917844293661,
                -1.329918410505354,
                0.12293491557399927
            ]
        },
        {
            "positions": [
                2.1788922670553372,
                -1.2465901487713358,
                -1.3485736683149372,
                -1.395601980517206,
                -1.269661289880175,
                0.043163717686149294
            ]
        },
        {
            "positions": [
                2.074750212173808,
                -1.24704025050632,
                -1.2343646971541113,
                -1.3650121766050458,
                -1.209404169254996,
                -0.03660748020170068
            ]
        },
        {
            "positions": [
                1.9706081572922785,
                -1.2474903522413043,
                -1.1201557259932855,
                -1.3344223726928857,
                -1.1491470486298168,
                -0.11637867808955071
            ]
        },
        {
            "positions": [
                1.866466102410749,
                -1.2479404539762888,
                -1.0059467548324594,
                -1.3038325687807255,
                -1.0888899280046376,
                -0.19614987597740063
            ]
        },
        {
            "positions": [
                1.7623240475292195,
                -1.248390555711273,
                -0.8917377836716336,
                -1.2732427648685654,
                -1.0286328073794586,
                -0.27592107386525067
            ]
        },
        {
            "positions": [
                1.65818199264769,
                -1.2488406574462574,
                -0.7775288125108077,
                -1.2426529609564052,
                -0.9683756867542795,
                -0.3556922717531006
            ]
        },
        {
            "positions": [
                1.5540399377661607,
                -1.2492907591812417,
                -0.6633198413499819,
                -1.2120631570442453,
                -0.9081185661291005,
                -0.4354634696409505
            ]
        },
        {
            "positions": [
                1.4498978828846312,
                -1.249740860916226,
                -0.549110870189156,
                -1.1814733531320851,
                -0.8478614455039214,
                -0.5152346675288005
            ]
        },
        {
            "positions": [
                1.3457558280031017,
                -1.2501909626512104,
                -0.4349018990283302,
                -1.150883549219925,
                -0.7876043248787423,
                -0.5950058654166505
            ]
        },
        {
            "positions": [
                1.2416137731215722,
                -1.2506410643861947,
                -0.32069292786750414,
                -1.1202937453077648,
                -0.7273472042535631,
                -0.6747770633045006
            ]
        },
        {
            "positions": [
                1.1374717182400427,
                -1.251091166121179,
                -0.2064839567066783,
                -1.0897039413956047,
                -0.6670900836283841,
                -0.7545482611923505
            ]
        },
        {
            "positions": [
                1.0333296633585132,
                -1.2515412678561633,
                -0.09227498554585245,
                -1.0591141374834445,
                -0.606832963003205,
                -0.8343194590802004
            ]
        },
        {
            "positions": [
                0.9291876084769839,
                -1.2519913695911478,
                0.021933985614973173,
                -1.0285243335712844,
                -0.546575842378026,
                -0.9140906569680504
            ]
        },
        {
            "positions": [
                0.8250455535954542,
                -1.252441471326132,
                0.13614295677579946,
                -0.9979345296591243,
                -0.48631872175284685,
                -0.9938618548559005
            ]
        },
        {
            "positions": [
                0.7209034987139249,
                -1.2528915730611163,
                0.2503519279366251,
                -0.9673447257469642,
                -0.4260616011276679,
                -1.0736330527437503
            ]
        },
        {
            "positions": [
                0.6167614438323952,
                -1.2533416747961006,
                0.36456089909745115,
                -0.936754921834804,
                -0.3658044805024887,
                -1.1534042506316005
            ]
        },
        {
            "positions": [
                0.5126193889508657,
                -1.2537917765310849,
                0.4787698702582768,
                -0.906165117922644,
                -0.3055473598773095,
                -1.2331754485194502
            ]
        },
        {
            "positions": [
                0.4084773340693366,
                -1.2542418782660694,
                0.5929788414191028,
                -0.8755753140104838,
                -0.24529023925213056,
                -1.3129466464073003
            ]
        },
        {
            "positions": [
                0.3043352791878067,
                -1.2546919800010536,
                0.7071878125799289,
                -0.8449855100983237,
                -0.18503311862695138,
                -1.3927178442951504
            ]
        },
        {
            "positions": [
                0.20019322430627762,
                -1.255142081736038,
                0.8213967837407545,
                -0.8143957061861636,
                -0.12477599800177241,
                -1.4724890421830001
            ]
        },
        {
            "positions": [
                0.09605116942474812,
                -1.2555921834710222,
                0.9356057549015802,
                -0.7838059022740035,
                -0.06451887737659345,
                -1.5522602400708498
            ]
        },
        {
            "positions": [
                -0.008090885456781383,
                -1.2560422852060065,
                1.0498147260624062,
                -0.7532160983618433,
                -0.00426175675141427,
                -1.6320314379587
            ]
        },
        {
            "positions": [
                -0.11223294033831088,
                -1.256492386940991,
                1.1640236972232323,
                -0.7226262944496833,
                0.055995363873764914,
                -1.7118026358465501
            ]
        },
        {
            "positions": [
                -0.21637499521984038,
                -1.2569424886759752,
                1.2782326683840584,
                -0.692036490537523,
                0.1162524844989441,
                -1.7915738337344003
            ]
        },
        {
            "positions": [
                -0.32051705010137005,
                -1.2573925904109595,
                1.392441639544884,
                -0.661446686625363,
                0.17650960512412311,
                -1.8713450316222502
            ]
        },
        {
            "positions": [
                -0.2573777323983303,
                -1.2405113393635623,
                1.4749437776990315,
                -0.6765340007944745,
                0.17005769037101715,
                -2.0618021118935816
            ]
        },
        {
            "positions": [
                -0.19423841469529052,
                -1.223630088316165,
                1.5574459158531788,
                -0.6916213149635859,
                0.16360577561791118,
                -2.252259192164913
            ]
        },
        {
            "positions": [
                -0.13109909699225075,
                -1.2067488372687678,
                1.6399480540073264,
                -0.7067086291326974,
                0.1571538608648052,
                -2.442716272436244
            ]
        },
        {
            "positions": [
                -0.06795977928921099,
                -1.1898675862213703,
                1.7224501921614737,
                -0.7217959433018087,
                0.15070194611169926,
                -2.6331733527075754
            ]
        },
        {
            "positions": [
                -0.004820461586171165,
                -1.172986335173973,
                1.8049523303156212,
                -0.7368832574709202,
                0.1442500313585933,
                -2.8236304329789066
            ]
        },
        {
            "positions": [
                0.058318856116868545,
                -1.1561050841265759,
                1.8874544684697685,
                -0.7519705716400317,
                0.13779811660548733,
                -3.014087513250238
            ]
        },
        {
            "positions": [
                0.12145817381990834,
                -1.1392238330791786,
                1.969956606623916,
                -0.7670578858091431,
                0.13134620185238136,
                -3.204544593521569
            ]
        }
    ]
}