{
    "goal": {
        "global_pose": {
            "orientation": {
                "w": 0.7031023502349854,
                "x": -0.7110244035720825,
                "y": 0.007748599164187908,
                "z": 0.005598929710686207
            },
            "position": {
                "x": 0.11585023208521307,
                "y": 0.44412534475326537,
                "z": 0.3711530566215515
            }
        },
        "name": "move_to_auspresseinheit_A"
    },
    "id": "PRM_move_to_auspresseinheit_A_24",
    "joint_names": [
        "shoulder_pan_joint",
        "shoulder_lift_joint",
        "elbow_joint",
        "wrist_1_joint",
        "wrist_2_joint",
        "wrist_3_joint"
    ],
    "metrics": {
        "cart_traj_len": 1.6968788876158578,
        "distance_elbow_joint": 1.3837773531654234,
        "distance_shoulder_lift_joint": 0.5343913945629424,
        "distance_shoulder_pan_joint": 1.0416218878984842,
        "distance_wrist_1_joint": 5.529596656829468,
        "distance_wrist_2_joint": 5.283416035818033,
        "distance_wrist_3_joint": 4.80162819447695,
        "smoothness": 0.6729401200971851,
        "time": 0.10693291399999999,
        "traj_len": 4.309806436807958,
        "weighted_distance": 6.244253406481249
    },
    "planner": "PRM",
    "start": {
        "state": {
            "elbow_joint": 2.4225746658250005,
            "shoulder_lift_joint": -1.3736534386056498,
            "shoulder_pan_joint": -0.3378633547517467,
            "wrist_1_joint": -1.0288598680537169,
            "wrist_2_joint": 1.233022673432363,
            "wrist_3_joint": -3.0940220416140027
        }
    },
    "waypoints": [
        {
            "positions": [
                -0.3378633547517467,
                -1.3736534386056498,
                2.4225746658250005,
                -1.0288598680537169,
                1.233022673432363,
                -3.0940220416140027
            ]
        },
        {
            "positions": [
                -0.3363917543458863,
                -1.3945079624928571,
                2.394276527496989,
                -0.9069342334802155,
                1.1167379739844032,
                -2.998701165907462
            ]
        },
        {
            "positions": [
                -0.3349201539400259,
                -1.4153624863800645,
                2.365978389168977,
                -0.7850085989067142,
                1.0004532745364436,
                -2.903380290200922
            ]
        },
        {
            "positions": [
                -0.33344855353416547,
                -1.4362170102672718,
                2.3376802508409655,
                -0.6630829643332129,
                0.8841685750884838,
                -2.808059414494381
            ]
        },
        {
            "positions": [
                -0.33197695312830505,
                -1.457071534154479,
                2.309382112512954,
                -0.5411573297597115,
                0.767883875640524,
                -2.7127385387878404
            ]
        },
        {
            "positions": [
                -0.33050535272244463,
                -1.4779260580416864,
                2.2810839741849422,
                -0.4192316951862102,
                0.6515991761925642,
                -2.6174176630812998
            ]
        },
        {
            "positions": [
                -0.3290337523165842,
                -1.4987805819288937,
                2.252785835856931,
                -0.2973060606127089,
                0.5353144767446045,
                -2.5220967873747595
            ]
        },
        {
            "positions": [
                -0.3275621519107238,
                -1.519635105816101,
                2.2244876975289194,
                -0.17538042603920756,
                0.4190297772966447,
                -2.426775911668219
            ]
        },
        {
            "positions": [
                -0.3260905515048634,
                -1.5404896297033084,
                2.1961895592009077,
                -0.0534547914657062,
                0.302745077848685,
                -2.331455035961678
            ]
        },
        {
            "positions": [
                -0.32461895109900296,
                -1.5613441535905157,
                2.167891420872896,
                0.06847084310779494,
                0.18646037840072527,
                -2.236134160255138
            ]
        },
        {
            "positions": [
                -0.32314735069314254,
                -1.582198677477723,
                2.1395932825448845,
                0.19039647768129653,
                0.07017567895276544,
                -2.140813284548597
            ]
        },
        {
            "positions": [
                -0.3216757502872821,
                -1.6030532013649303,
                2.111295144216873,
                0.31232211225479767,
                -0.046109020495194386,
                -2.0454924088420565
            ]
        },
        {
            "positions": [
                -0.3202041498814217,
                -1.6239077252521374,
                2.082997005888861,
                0.43424774682829903,
                -0.162393719943154,
                -1.9501715331355163
            ]
        },
        {
            "positions": [
                -0.3187325494755613,
                -1.6447622491393448,
                2.0546988675608495,
                0.5561733814018004,
                -0.2786784193911138,
                -1.8548506574289756
            ]
        },
        {
            "positions": [
                -0.31726094906970087,
                -1.665616773026552,
                2.026400729232838,
                0.6780990159753018,
                -0.39496311883907365,
                -1.759529781722435
            ]
        },
        {
            "positions": [
                -0.31578934866384045,
                -1.6864712969137594,
                1.9981025909048264,
                0.8000246505488029,
                -0.5112478182870333,
                -1.6642089060158947
            ]
        },
        {
            "positions": [
                -0.31431774825798003,
                -1.7073258208009667,
                1.9698044525768148,
                0.9219502851223045,
                -0.6275325177349931,
                -1.568888030309354
            ]
        },
        {
            "positions": [
                -0.3128461478521196,
                -1.728180344688174,
                1.9415063142488032,
                1.0438759196958058,
                -0.7438172171829529,
                -1.4735671546028133
            ]
        },
        {
            "positions": [
                -0.3113745474462592,
                -1.7490348685753814,
                1.9132081759207917,
                1.1658015542693068,
                -0.8601019166309125,
                -1.378246278896273
            ]
        },
        {
            "positions": [
                -0.3099029470403988,
                -1.7698893924625887,
                1.88491003759278,
                1.2877271888428086,
                -0.9763866160788723,
                -1.2829254031897324
            ]
        },
        {
            "positions": [
                -0.30843134663453836,
                -1.790743916349796,
                1.8566118992647684,
                1.40965282341631,
                -1.0926713155268322,
                -1.1876045274831917
            ]
        },
        {
            "positions": [
                -0.30695974622867794,
                -1.8115984402370033,
                1.8283137609367568,
                1.5315784579898108,
                -1.2089560149747915,
                -1.0922836517766514
            ]
        },
        {
            "positions": [
                -0.3054881458228175,
                -1.8324529641242107,
                1.8000156226087451,
                1.6535040925633122,
                -1.3252407144227518,
                -0.9969627760701107
            ]
        },
        {
            "positions": [
                -0.3040165454169571,
                -1.853307488011418,
                1.7717174842807335,
                1.7754297271368136,
                -1.4415254138707116,
                -0.9016419003635701
            ]
        },
        {
            "positions": [
                -0.3025449450110967,
                -1.8741620118986253,
                1.743419345952722,
                1.897355361710315,
                -1.557810113318671,
                -0.8063210246570298
            ]
        },
        {
            "positions": [
                -0.30107334460523627,
                -1.8950165357858326,
                1.7151212076247104,
                2.0192809962838165,
                -1.6740948127666309,
                -0.7110001489504891
            ]
        },
        {
            "positions": [
                -0.2573850020942809,
                -1.8955829834981266,
                1.744526594362325,
                1.9113916140015585,
                -1.5707774845223248,
                -0.8161569446815081
            ]
        },
        {
            "positions": [
                -0.2136966595833255,
                -1.8961494312104203,
                1.7739319810999394,
                1.8035022317193004,
                -1.4674601562780187,
                -0.9213137404125272
            ]
        },
        {
            "positions": [
                -0.17000831707237016,
                -1.8967158789227143,
                1.803337367837554,
                1.6956128494370424,
                -1.3641428280337127,
                -1.0264705361435462
            ]
        },
        {
            "positions": [
                -0.12631997456141478,
                -1.8972823266350083,
                1.8327427545751684,
                1.5877234671547844,
                -1.2608254997894068,
                -1.1316273318745653
            ]
        },
        {
            "positions": [
                -0.08263163205045942,
                -1.897848774347302,
                1.862148141312783,
                1.4798340848725262,
                -1.1575081715451008,
                -1.2367841276055844
            ]
        },
        {
            "positions": [
                -0.038943289539504045,
                -1.898415222059596,
                1.8915535280503974,
                1.3719447025902682,
                -1.0541908433007947,
                -1.3419409233366033
            ]
        },
        {
            "positions": [
                0.004745052971451336,
                -1.89898166977189,
                1.920958914788012,
                1.2640553203080103,
                -0.9508735150564885,
                -1.4470977190676224
            ]
        },
        {
            "positions": [
                0.048433395482406716,
                -1.8995481174841837,
                1.9503643015256265,
                1.1561659380257523,
                -0.8475561868121826,
                -1.5522545147986415
            ]
        },
        {
            "positions": [
                0.0921217379933621,
                -1.9001145651964777,
                1.979769688263241,
                1.0482765557434939,
                -0.7442388585678764,
                -1.6574113105296604
            ]
        },
        {
            "positions": [
                0.13581008050431742,
                -1.9006810129087717,
                2.0091750750008552,
                0.9403871734612361,
                -0.6409215303235705,
                -1.7625681062606795
            ]
        },
        {
            "positions": [
                0.17949842301527286,
                -1.9012474606210654,
                2.0385804617384697,
                0.8324977911789779,
                -0.5376042020792644,
                -1.8677249019916986
            ]
        },
        {
            "positions": [
                0.22318676552622818,
                -1.9018139083333594,
                2.0679858484760842,
                0.72460840889672,
                -0.43428687383495834,
                -1.9728816977227175
            ]
        },
        {
            "positions": [
                0.2668751080371835,
                -1.9023803560456531,
                2.0973912352136987,
                0.616719026614462,
                -0.3309695455906525,
                -2.078038493453737
            ]
        },
        {
            "positions": [
                0.31056345054813894,
                -1.9029468037579471,
                2.1267966219513132,
                0.5088296443322038,
                -0.22765221734634622,
                -2.1831952891847557
            ]
        },
        {
            "positions": [
                0.3542517930590944,
                -1.903513251470241,
                2.1562020086889278,
                0.4009402620499458,
                -0.12433488910204016,
                -2.2883520849157746
            ]
        },
        {
            "positions": [
                0.3979401355700497,
                -1.9040796991825348,
                2.1856073954265423,
                0.29305087976768784,
                -0.02101756085773432,
                -2.3935088806467935
            ]
        },
        {
            "positions": [
                0.441628478081005,
                -1.9046461468948288,
                2.2150127821641568,
                0.18516149748542987,
                0.08229976738657174,
                -2.4986656763778123
            ]
        },
        {
            "positions": [
                0.48531682059196046,
                -1.9052125946071228,
                2.2444181689017713,
                0.07727211520317145,
                0.18561709563087803,
                -2.603822472108832
            ]
        },
        {
            "positions": [
                0.5290051631029158,
                -1.9057790423194165,
                2.2738235556393858,
                -0.030617267079086297,
                0.28893442387518387,
                -2.708979267839851
            ]
        },
        {
            "positions": [
                0.5726935056138711,
                -1.9063454900317105,
                2.3032289423770003,
                -0.13850664936134427,
                0.3922517521194899,
                -2.81413606357087
            ]
        },
        {
            "positions": [
                0.6163818481248265,
                -1.9069119377440045,
                2.3326343291146148,
                -0.24639603164360224,
                0.495569080363796,
                -2.9192928593018888
            ]
        },
        {
            "positions": [
                0.660070190635782,
                -1.9074783854562982,
                2.3620397158522293,
                -0.35428541392586066,
                0.598886408608102,
                -3.024449655032908
            ]
        },
        {
            "positions": [
                0.7037585331467373,
                -1.9080448331685922,
                2.3914451025898438,
                -0.4621747962081186,
                0.7022037368524082,
                -3.129606450763927
            ]
        }
    ]
}