{
    "goal": {
        "global_pose": {
            "orientation": {
                "w": 0.5084816217422485,
                "x": -0.49083608388900757,
                "y": 0.5182115435600281,
                "z": -0.4816462993621826
            },
            "position": {
                "x": 0.5540239810943604,
                "y": 0.030875300988554955,
                "z": 0.16403168439865112
            }
        },
        "name": "move_to_storage_A"
    },
    "id": "PRM_move_to_storage_A_48",
    "joint_names": [
        "shoulder_pan_joint",
        "shoulder_lift_joint",
        "elbow_joint",
        "wrist_1_joint",
        "wrist_2_joint",
        "wrist_3_joint"
    ],
    "metrics": {
        "cart_traj_len": 0.35371918321525503,
        "distance_elbow_joint": 0.44824942615990016,
        "distance_shoulder_lift_joint": 0.23455157736658627,
        "distance_shoulder_pan_joint": 0.46419167001696143,
        "distance_wrist_1_joint": 0.23655929275112608,
        "distance_wrist_2_joint": 1.0926414112710139,
        "distance_wrist_3_joint": 0.10477415872997708,
        "smoothness": 8.881784197001252e-16,
        "time": 0.037253361,
        "traj_len": 1.606538993082821,
        "weighted_distance": 2.029708490837455
    },
    "planner": "PRM",
    "start": {
        "state": {
            "elbow_joint": 1.971548259319323,
            "shoulder_lift_joint": -1.1394851275133948,
            "shoulder_pan_joint": 0.1228115487234821,
            "wrist_1_joint": -0.7804723859257726,
            "wrist_2_joint": 0.12958671773740124,
            "wrist_3_joint": -3.192489227718131
        }
    },
    "waypoints": [
        {
            "positions": [
                0.1228115487234821,
                -1.1394851275133948,
                1.971548259319323,
                -0.7804723859257726,
                0.12958671773740124,
                -3.192489227718131
            ]
        },
        {
            "positions": [
                0.05649845300677332,
                -1.1729924957086215,
                2.0355838916278803,
                -0.8142665706045049,
                0.2856783479189746,
                -3.177521490756706
            ]
        },
        {
            "positions": [
                -0.009814642709935456,
                -1.206499863903848,
                2.0996195239364375,
                -0.8480607552832372,
                0.4417699781005481,
                -3.1625537537952804
            ]
        },
        {
            "positions": [
                -0.07612773842664422,
                -1.2400072320990747,
                2.1636551562449946,
                -0.8818549399619695,
                0.5978616082821214,
                -3.147586016833855
            ]
        },
        {
            "positions": [
                -0.142440834143353,
                -1.2735146002943012,
                2.2276907885535517,
                -0.9156491246407018,
                0.7539532384636949,
                -3.13261827987243
            ]
        },
        {
            "positions": [
                -0.2087539298600618,
                -1.307021968489528,
                2.291726420862109,
                -0.9494433093194341,
                0.9100448686452683,
                -3.117650542911005
            ]
        },
        {
            "positions": [
                -0.27506702557677054,
                -1.3405293366847544,
                2.355762053170666,
                -0.9832374939981664,
                1.0661364988268416,
                -3.1026828059495792
            ]
        },
        {
            "positions": [
                -0.34138012129347933,
                -1.374036704879981,
                2.419797685479223,
                -1.0170316786768987,
                1.2222281290084152,
                -3.087715068988154
            ]
        }
    ]
}{
    "goal": {
        "global_pose": {
            "orientation": {
                "w": 0.5084816217422485,
                "x": -0.49083608388900757,
                "y": 0.5182115435600281,
                "z": -0.4816462993621826
            },
            "position": {
                "x": 0.5540239810943604,
                "y": 0.030875300988554955,
                "z": 0.16403168439865112
            }
        },
        "name": "move_to_storage_A"
    },
    "id": "PRM_move_to_storage_A_48",
    "joint_names": [
        "shoulder_pan_joint",
        "shoulder_lift_joint",
        "elbow_joint",
        "wrist_1_joint",
        "wrist_2_joint",
        "wrist_3_joint"
    ],
    "metrics": {
        "cart_traj_len": 0.35246365247196165,
        "distance_elbow_joint": 0.44933922448077057,
        "distance_shoulder_lift_joint": 0.23549791703502665,
        "distance_shoulder_pan_joint": 0.4580162779642143,
        "distance_wrist_1_joint": 0.2403220343624768,
        "distance_wrist_2_joint": 1.1103961247323901,
        "distance_wrist_3_joint": 0.0963895955854861,
        "smoothness": 1.4432899370326045e-15,
        "time": 0.031006085,
        "traj_len": 1.6093356312964568,
        "weighted_distance": 2.0330908795295413
    },
    "planner": "PRM",
    "start": {
        "state": {
            "elbow_joint": 1.97154746011099,
            "shoulder_lift_joint": -1.13948474672311,
            "shoulder_pan_joint": 0.12281154466712228,
            "wrist_1_joint": -0.7804688027058302,
            "wrist_2_joint": 0.12958655903071145,
            "wrist_3_joint": 3.0906928834467795
        }
    },
    "waypoints": [
        {
            "positions": [
                0.12281154466712228,
                -1.13948474672311,
                1.97154746011099,
                -0.7804688027058302,
                0.12958655903071145,
                3.0906928834467795
            ]
        },
        {
            "positions": [
                0.05738064781509167,
                -1.1731273062995424,
                2.035738777893957,
                -0.8148005219004697,
                0.2882145768496243,
                3.1044628256732776
            ]
        },
        {
            "positions": [
                -0.008050249036938947,
                -1.2067698658759747,
                2.0999300956769242,
                -0.8491322410951092,
                0.44684259466853715,
                3.1182327678997757
            ]
        },
        {
            "positions": [
                -0.07348114588896955,
                -1.2404124254524072,
                2.1641214134598914,
                -0.8834639602897488,
                0.60547061248745,
                3.1320027101262737
            ]
        },
        {
            "positions": [
                -0.13891204274100016,
                -1.2740549850288394,
                2.228312731242859,
                -0.9177956794843883,
                0.7640986303063629,
                3.1457726523527714
            ]
        },
        {
            "positions": [
                -0.2043429395930308,
                -1.3076975446052719,
                2.292504049025826,
                -0.952127398679028,
                0.9227266481252758,
                3.1595425945792694
            ]
        },
        {
            "positions": [
                -0.26977383644506137,
                -1.3413401041817041,
                2.3566953668087933,
                -0.9864591178736675,
                1.0813546659441886,
                3.1733125368057675
            ]
        },
        {
            "positions": [
                -0.335204733297092,
                -1.3749826637581366,
                2.4208866845917605,
                -1.020790837068307,
                1.2399826837631016,
                3.1870824790322656
            ]
        }
    ]
}{
    "goal": {
        "global_pose": {
            "orientation": {
                "w": 0.5084816217422485,
                "x": -0.49083608388900757,
                "y": 0.5182115435600281,
                "z": -0.4816462993621826
            },
            "position": {
                "x": 0.5540239810943604,
                "y": 0.030875300988554955,
                "z": 0.16403168439865112
            }
        },
        "name": "move_to_storage_A"
    },
    "id": "PRM_move_to_storage_A_48",
    "joint_names": [
        "shoulder_pan_joint",
        "shoulder_lift_joint",
        "elbow_joint",
        "wrist_1_joint",
        "wrist_2_joint",
        "wrist_3_joint"
    ],
    "metrics": {
        "cart_traj_len": 0.35349741766301923,
        "distance_elbow_joint": 0.4480741013733387,
        "distance_shoulder_lift_joint": 0.23421991055011016,
        "distance_shoulder_pan_joint": 0.4609893108493343,
        "distance_wrist_1_joint": 0.23752952222758683,
        "distance_wrist_2_joint": 1.1045201115645147,
        "distance_wrist_3_joint": 0.097179156658322,
        "smoothness": 6.661338200497456e-16,
        "time": 0.027562166,
        "traj_len": 1.6070196368505292,
        "weighted_distance": 2.0295122715401237
    },
    "planner": "PRM",
    "start": {
        "state": {
            "elbow_joint": 1.9715472970024885,
            "shoulder_lift_joint": -1.1394870060712896,
            "shoulder_pan_joint": 0.12281152778156021,
            "wrist_1_joint": -0.780463741449964,
            "wrist_2_joint": 0.12958659822042276,
            "wrist_3_joint": 3.090690232415272
        }
    },
    "waypoints": [
        {
            "positions": [
                0.12281152778156021,
                -1.1394870060712896,
                1.9715472970024885,
                -0.780463741449964,
                0.12958659822042276,
                3.090690232415272
            ]
        },
        {
            "positions": [
                0.05695591194594103,
                -1.1729469932927339,
                2.0355578829129657,
                -0.8143965303396192,
                0.287375185586782,
                3.1045729690807464
            ]
        },
        {
            "positions": [
                -0.008899703889678146,
                -1.2064069805141782,
                2.0995684688234424,
                -0.8483293192292745,
                0.44516377295314125,
                3.118455705746221
            ]
        },
        {
            "positions": [
                -0.07475531972529731,
                -1.2398669677356224,
                2.1635790547339195,
                -0.8822621081189298,
                0.6029523603195005,
                3.1323384424116956
            ]
        },
        {
            "positions": [
                -0.1406109355609165,
                -1.2733269549570667,
                2.2275896406443962,
                -0.916194897008585,
                0.7607409476858596,
                3.14622117907717
            ]
        },
        {
            "positions": [
                -0.20646655139653572,
                -1.3067869421785112,
                2.2916002265548734,
                -0.9501276858982404,
                0.9185295350522189,
                3.1601039157426447
            ]
        },
        {
            "positions": [
                -0.27232216723215485,
                -1.3402469293999555,
                2.35561081246535,
                -0.9840604747878956,
                1.0763181224185783,
                3.1739866524081193
            ]
        },
        {
            "positions": [
                -0.3381777830677741,
                -1.3737069166213998,
                2.4196213983758272,
                -1.0179932636775508,
                1.2341067097849374,
                3.187869389073594
            ]
        }
    ]
}