{
    "goal": {
        "global_pose": {
            "orientation": {
                "w": 0.7031023502349854,
                "x": -0.7110244035720825,
                "y": 0.007748599164187908,
                "z": 0.005598929710686207
            },
            "position": {
                "x": 0.11585023208521307,
                "y": 0.44412534475326537,
                "z": 0.3711530566215515
            }
        },
        "name": "move_to_auspresseinheit_A"
    },
    "id": "PRM_move_to_auspresseinheit_A_18",
    "joint_names": [
        "shoulder_pan_joint",
        "shoulder_lift_joint",
        "elbow_joint",
        "wrist_1_joint",
        "wrist_2_joint",
        "wrist_3_joint"
    ],
    "metrics": {
        "cart_traj_len": 1.37638322498951,
        "distance_elbow_joint": 0.8532703326546494,
        "distance_shoulder_lift_joint": 0.7973353468271831,
        "distance_shoulder_pan_joint": 2.547958656122675,
        "distance_wrist_1_joint": 2.186398435844284,
        "distance_wrist_2_joint": 0.8859715801641023,
        "distance_wrist_3_joint": 0.7216357319790738,
        "smoothness": 1.0954216318904937,
        "time": 0.25185911,
        "traj_len": 2.8271133835755453,
        "weighted_distance": 3.536695005730421
    },
    "planner": "PRM",
    "start": {
        "state": {
            "elbow_joint": 2.4225746658250005,
            "shoulder_lift_joint": -1.3736534386056498,
            "shoulder_pan_joint": -0.3378633547517467,
            "wrist_1_joint": -1.0288598680537169,
            "wrist_2_joint": 1.233022673432363,
            "wrist_3_joint": -3.0940220416140027
        }
    },
    "waypoints": [
        {
            "positions": [
                -0.3378633547517467,
                -1.3736534386056498,
                2.4225746658250005,
                -1.0288598680537169,
                1.233022673432363,
                -3.0940220416140027
            ]
        },
        {
            "positions": [
                -0.40625935616227343,
                -1.4341424042511302,
                2.3824175940451604,
                -0.9038307140291039,
                1.1685690607253507,
                -3.0627890101969433
            ]
        },
        {
            "positions": [
                -0.47465535757280014,
                -1.4946313698966105,
                2.3422605222653208,
                -0.7788015600044909,
                1.1041154480183382,
                -3.031555978779884
            ]
        },
        {
            "positions": [
                -0.5430513589833268,
                -1.5551203355420908,
                2.3021034504854807,
                -0.6537724059798777,
                1.0396618353113258,
                -3.000322947362824
            ]
        },
        {
            "positions": [
                -0.6114473603938535,
                -1.6156093011875712,
                2.261946378705641,
                -0.5287432519552647,
                0.9752082226043133,
                -2.9690899159457644
            ]
        },
        {
            "positions": [
                -0.6798433618043802,
                -1.6760982668330517,
                2.221789306925801,
                -0.4037140979306517,
                0.910754609897301,
                -2.937856884528705
            ]
        },
        {
            "positions": [
                -0.7482393632149069,
                -1.736587232478532,
                2.1816322351459614,
                -0.2786849439060387,
                0.8463009971902885,
                -2.9066238531116455
            ]
        },
        {
            "positions": [
                -0.8166353646254336,
                -1.7970761981240124,
                2.1414751633661213,
                -0.1536557898814256,
                0.7818473844832761,
                -2.875390821694586
            ]
        },
        {
            "positions": [
                -0.8850313660359603,
                -1.8575651637694928,
                2.1013180915862817,
                -0.028626635856812577,
                0.7173937717762636,
                -2.844157790277526
            ]
        },
        {
            "positions": [
                -0.953427367446487,
                -1.918054129414973,
                2.0611610198064416,
                0.09640251816780054,
                0.6529401590692511,
                -2.8129247588604667
            ]
        },
        {
            "positions": [
                -1.0218233688570137,
                -1.9785430950604534,
                2.021003948026602,
                0.22143167219241344,
                0.5884865463622387,
                -2.781691727443407
            ]
        },
        {
            "positions": [
                -1.0902193702675405,
                -2.039032060705934,
                1.980846876246762,
                0.3464608262170267,
                0.5240329336552263,
                -2.7504586960263477
            ]
        },
        {
            "positions": [
                -0.9106591062068523,
                -2.0258363882332437,
                2.0220011305544032,
                0.2653530520596725,
                0.5417311176939228,
                -2.7882659346654894
            ]
        },
        {
            "positions": [
                -0.7310988421461642,
                -2.012640715760554,
                2.063155384862044,
                0.18424527790231843,
                0.5594293017326194,
                -2.8260731733046316
            ]
        },
        {
            "positions": [
                -0.5515385780854761,
                -1.999445043287864,
                2.104309639169685,
                0.10313750374496433,
                0.577127485771316,
                -2.8638804119437733
            ]
        },
        {
            "positions": [
                -0.371978314024788,
                -1.986249370815174,
                2.1454638934773262,
                0.02202972958761018,
                0.5948256698100125,
                -2.9016876505829154
            ]
        },
        {
            "positions": [
                -0.19241804996409995,
                -1.9730536983424842,
                2.1866181477849675,
                -0.059078044569743915,
                0.612523853848709,
                -2.939494889222057
            ]
        },
        {
            "positions": [
                -0.0128577859034118,
                -1.9598580258697944,
                2.2277724020926084,
                -0.140185818727098,
                0.6302220378874056,
                -2.977302127861199
            ]
        },
        {
            "positions": [
                0.16670247815727612,
                -1.9466623533971044,
                2.2689266564002493,
                -0.22129359288445216,
                0.6479202219261021,
                -3.015109366500341
            ]
        },
        {
            "positions": [
                0.3462627422179645,
                -1.9334666809244145,
                2.3100809107078906,
                -0.3024013670418063,
                0.6656184059647987,
                -3.0529166051394827
            ]
        },
        {
            "positions": [
                0.5258230062786524,
                -1.9202710084517245,
                2.351235165015532,
                -0.38350914119916035,
                0.6833165900034952,
                -3.090723843778625
            ]
        },
        {
            "positions": [
                0.7053832703393406,
                -1.9070753359790347,
                2.3923894193231727,
                -0.4646169153565145,
                0.7010147740421918,
                -3.1285310824177666
            ]
        }
    ]
}