{
    "goal": {
        "global_pose": {
            "orientation": {
                "w": 0.7047431468963623,
                "x": -0.7094548344612122,
                "y": 0.0024358443915843964,
                "z": -0.0022348060738295317
            },
            "position": {
                "x": 0.6094750761985779,
                "y": 0.3671506643295288,
                "z": 0.19426114857196808
            }
        },
        "name": "move_to_magneteinheit_A"
    },
    "id": "PRM_move_to_magneteinheit_A_4",
    "joint_names": [
        "shoulder_pan_joint",
        "shoulder_lift_joint",
        "elbow_joint",
        "wrist_1_joint",
        "wrist_2_joint",
        "wrist_3_joint"
    ],
    "metrics": {
        "cart_traj_len": 4.068116892634239,
        "distance_elbow_joint": 3.9103008462352236,
        "distance_shoulder_lift_joint": 1.1386473258501548,
        "distance_shoulder_pan_joint": 4.132351331196013,
        "distance_wrist_1_joint": 3.458440445682963,
        "distance_wrist_2_joint": 1.797612984391169,
        "distance_wrist_3_joint": 0.789640139970036,
        "smoothness": 0.6898510113446852,
        "time": 0.227315612,
        "traj_len": 3.9021779909847223,
        "weighted_distance": 4.697055118192648
    },
    "planner": "PRM",
    "start": {
        "state": {
            "elbow_joint": -1.9196185241190666,
            "shoulder_lift_joint": -1.2443396400964142,
            "shoulder_pan_joint": 2.6996025414629847,
            "wrist_1_joint": -1.5485510000780065,
            "wrist_2_joint": -1.5709468930060704,
            "wrist_3_joint": 0.4420197071253992
        }
    },
    "waypoints": [
        {
            "positions": [
                2.6996025414629847,
                -1.2443396400964142,
                -1.9196185241190666,
                -1.5485510000780065,
                -1.5709468930060704,
                0.4420197071253992
            ]
        },
        {
            "positions": [
                2.5956750853208974,
                -1.2469219584705018,
                -1.794097829300711,
                -1.455463530320267,
                -1.5210849257371117,
                0.4282829560384495
            ]
        },
        {
            "positions": [
                2.4917476291788097,
                -1.2495042768445892,
                -1.6685771344823552,
                -1.3623760605625272,
                -1.4712229584681529,
                0.4145462049514999
            ]
        },
        {
            "positions": [
                2.3878201730367223,
                -1.2520865952186768,
                -1.5430564396639996,
                -1.2692885908047877,
                -1.4213609911991942,
                0.40080945386455025
            ]
        },
        {
            "positions": [
                2.283892716894635,
                -1.2546689135927644,
                -1.4175357448456438,
                -1.1762011210470482,
                -1.3714990239302356,
                0.38707270277760064
            ]
        },
        {
            "positions": [
                2.1799652607525477,
                -1.2572512319668518,
                -1.2920150500272882,
                -1.0831136512893085,
                -1.321637056661277,
                0.373335951690651
            ]
        },
        {
            "positions": [
                2.07603780461046,
                -1.2598335503409395,
                -1.1664943552089326,
                -0.990026181531569,
                -1.2717750893923183,
                0.3595992006037014
            ]
        },
        {
            "positions": [
                1.9721103484683726,
                -1.262415868715027,
                -1.040973660390577,
                -0.8969387117738294,
                -1.2219131221233597,
                0.3458624495167517
            ]
        },
        {
            "positions": [
                1.868182892326285,
                -1.2649981870891147,
                -0.9154529655722212,
                -0.8038512420160898,
                -1.1720511548544008,
                0.3321256984298021
            ]
        },
        {
            "positions": [
                1.7642554361841976,
                -1.2675805054632021,
                -0.7899322707538656,
                -0.7107637722583503,
                -1.1221891875854422,
                0.31838894734285245
            ]
        },
        {
            "positions": [
                1.6603279800421102,
                -1.2701628238372897,
                -0.66441157593551,
                -0.6176763025006106,
                -1.0723272203164833,
                0.3046521962559028
            ]
        },
        {
            "positions": [
                1.5564005239000227,
                -1.2727451422113774,
                -0.5388908811171544,
                -0.5245888327428712,
                -1.0224652530475247,
                0.2909154451689532
            ]
        },
        {
            "positions": [
                1.4524730677579352,
                -1.2753274605854648,
                -0.4133701862987986,
                -0.4315013629851314,
                -0.972603285778566,
                0.2771786940820036
            ]
        },
        {
            "positions": [
                1.3485456116158479,
                -1.2779097789595524,
                -0.28784949148044303,
                -0.3384138932273919,
                -0.9227413185096074,
                0.2634419429950539
            ]
        },
        {
            "positions": [
                1.2446181554737605,
                -1.28049209733364,
                -0.16232879666208744,
                -0.2453264234696524,
                -0.8728793512406487,
                0.24970519190810428
            ]
        },
        {
            "positions": [
                1.140690699331673,
                -1.2830744157077274,
                -0.036808101843731844,
                -0.15223895371191287,
                -0.8230173839716901,
                0.23596844082115467
            ]
        },
        {
            "positions": [
                1.0367632431895855,
                -1.285656734081815,
                0.0887125929746242,
                -0.059151483954173134,
                -0.7731554167027312,
                0.22223168973420498
            ]
        },
        {
            "positions": [
                0.9328357870474979,
                -1.2882390524559026,
                0.2142332877929798,
                0.03393598580356638,
                -0.7232934494337726,
                0.20849493864725538
            ]
        },
        {
            "positions": [
                0.8289083309054106,
                -1.29082137082999,
                0.3397539826113354,
                0.1270234555613059,
                -0.673431482164814,
                0.19475818756030575
            ]
        },
        {
            "positions": [
                0.7249808747633233,
                -1.2934036892040777,
                0.465274677429691,
                0.22011092531904541,
                -0.6235695148958553,
                0.1810214364733561
            ]
        },
        {
            "positions": [
                0.6210534186212358,
                -1.2959860075781653,
                0.5907953722480466,
                0.3131983950767854,
                -0.5737075476268965,
                0.16728468538640645
            ]
        },
        {
            "positions": [
                0.517125962479148,
                -1.298568325952253,
                0.7163160670664022,
                0.4062858648345249,
                -0.5238455803579378,
                0.15354793429945685
            ]
        },
        {
            "positions": [
                0.4131985063370607,
                -1.3011506443263403,
                0.8418367618847578,
                0.4993733345922642,
                -0.4739836130889792,
                0.13981118321250718
            ]
        },
        {
            "positions": [
                0.30927105019497336,
                -1.303732962700428,
                0.9673574567031133,
                0.5924608043500037,
                -0.42412164582002054,
                0.12607443212555758
            ]
        },
        {
            "positions": [
                0.2053435940528856,
                -1.3063152810745156,
                1.0928781515214694,
                0.6855482741077437,
                -0.3742596785510617,
                0.11233768103860792
            ]
        },
        {
            "positions": [
                0.10141613791079829,
                -1.308897599448603,
                1.218398846339825,
                0.7786357438654832,
                -0.32439771128210304,
                0.09860092995165826
            ]
        },
        {
            "positions": [
                -0.0025113182312891495,
                -1.3114799178226906,
                1.3439195411581804,
                0.8717232136232226,
                -0.2745357440131445,
                0.08486417886470862
            ]
        },
        {
            "positions": [
                -0.09570723687660158,
                -1.2015240676972252,
                1.3505029125341903,
                0.9667633418779636,
                -0.23077813188382693,
                0.11069660070334374
            ]
        },
        {
            "positions": [
                -0.188903155521914,
                -1.0915682175717598,
                1.3570862839102003,
                1.0618034701327048,
                -0.18702051975450934,
                0.13652902254197885
            ]
        },
        {
            "positions": [
                -0.2820990741672264,
                -0.9816123674462942,
                1.3636696552862102,
                1.1568435983874459,
                -0.14326290762519178,
                0.16236144438061398
            ]
        },
        {
            "positions": [
                -0.37529499281253886,
                -0.8716565173208288,
                1.3702530266622202,
                1.251883726642187,
                -0.0995052954958742,
                0.1881938662192491
            ]
        },
        {
            "positions": [
                -0.4684909114578513,
                -0.7617006671953633,
                1.37683639803823,
                1.3469238548969282,
                -0.05574768336655661,
                0.21402628805788423
            ]
        },
        {
            "positions": [
                -0.5616868301031637,
                -0.651744817069898,
                1.38341976941424,
                1.4419639831516693,
                -0.011990071237239053,
                0.23985870989651933
            ]
        },
        {
            "positions": [
                -0.6548827487484762,
                -0.5417889669444325,
                1.39000314079025,
                1.5370041114064104,
                0.03176754089207856,
                0.26569113173515446
            ]
        },
        {
            "positions": [
                -0.545997488692038,
                -0.5800460964464573,
                1.473257508058023,
                1.5854270570434208,
                0.005744420791773661,
                0.23001828469304655
            ]
        },
        {
            "positions": [
                -0.4371122286355998,
                -0.6183032259484822,
                1.5565118753257958,
                1.6338500026804312,
                -0.02027869930853124,
                0.19434543765093865
            ]
        },
        {
            "positions": [
                -0.3282269685791616,
                -0.6565603554505071,
                1.6397662425935688,
                1.6822729483174417,
                -0.04630181940883614,
                0.1586725906088307
            ]
        },
        {
            "positions": [
                -0.2193417085227234,
                -0.6948174849525319,
                1.7230206098613419,
                1.7306958939544521,
                -0.07232493950914104,
                0.1229997435667228
            ]
        },
        {
            "positions": [
                -0.1104564484662851,
                -0.7330746144545568,
                1.8062749771291147,
                1.7791188395914626,
                -0.09834805960944595,
                0.08732689652461487
            ]
        },
        {
            "positions": [
                -0.0015711884098470463,
                -0.7713317439565817,
                1.8895293443968877,
                1.827541785228473,
                -0.12437117970975084,
                0.05165404948250696
            ]
        },
        {
            "positions": [
                0.10731407164659126,
                -0.8095888734586065,
                1.9727837116646607,
                1.8759647308654834,
                -0.15039429981005575,
                0.015981202440399012
            ]
        },
        {
            "positions": [
                0.12298329223607568,
                -0.7755726827271603,
                1.9906823221161578,
                1.9098894456049569,
                -0.13765759001917013,
                0.014033472896254819
            ]
        }
    ]
}