{
    "goal": {
        "global_pose": {
            "orientation": {
                "w": -0.00223480608172531,
                "x": 0.0024358444001904467,
                "y": 0.7094548369677653,
                "z": -0.704743149386269
            },
            "position": {
                "x": -0.37947507619857795,
                "y": -0.6371506643295288,
                "z": 0.19426114857196808
            }
        },
        "name": "move_to_magneteinheit_C"
    },
    "id": "PRM_move_to_magneteinheit_C_125",
    "joint_names": [
        "shoulder_pan_joint",
        "shoulder_lift_joint",
        "elbow_joint",
        "wrist_1_joint",
        "wrist_2_joint",
        "wrist_3_joint"
    ],
    "metrics": {
        "cart_traj_len": 1.0827564297832666,
        "distance_elbow_joint": 0.1004299924566725,
        "distance_shoulder_lift_joint": 1.1939527239429435,
        "distance_shoulder_pan_joint": 0.9897723007165917,
        "distance_wrist_1_joint": 1.1450124081323358,
        "distance_wrist_2_joint": 1.125722680369441,
        "distance_wrist_3_joint": 2.610731113845897,
        "smoothness": 1.0256229775645391,
        "time": 0.37837942,
        "traj_len": 2.676867800147008,
        "weighted_distance": 3.82855306031632
    },
    "planner": "PRM",
    "start": {
        "state": {
            "elbow_joint": 1.9565354010623817,
            "shoulder_lift_joint": -1.4165861575791021,
            "shoulder_pan_joint": -1.6717766225146293,
            "wrist_1_joint": -0.5286633292919765,
            "wrist_2_joint": 1.472756589071564,
            "wrist_3_joint": -3.1238370188695823
        }
    },
    "waypoints": [
        {
            "positions": [
                -1.6717766225146293,
                -1.4165861575791021,
                1.9565354010623817,
                -0.5286633292919765,
                1.472756589071564,
                -3.1238370188695823
            ]
        },
        {
            "positions": [
                -1.61330752349606,
                -1.4423357210578296,
                1.9833610185719226,
                -0.5649822915956182,
                1.4916012672906036,
                -2.9586507683831904
            ]
        },
        {
            "positions": [
                -1.6298546890085732,
                -1.5058898304621637,
                1.9896308907454818,
                -0.5220426849090979,
                1.3989074207951426,
                -2.7975636096964074
            ]
        },
        {
            "positions": [
                -1.6464018545210866,
                -1.5694439398664977,
                1.995900762919041,
                -0.4791030782225776,
                1.3062135742996814,
                -2.636476451009625
            ]
        },
        {
            "positions": [
                -1.6629490200335997,
                -1.6329980492708318,
                2.0021706350926003,
                -0.4361634715360573,
                1.2135197278042205,
                -2.4753892923228418
            ]
        },
        {
            "positions": [
                -1.6794961855461128,
                -1.696552158675166,
                2.0084405072661595,
                -0.393223864849537,
                1.1208258813087593,
                -2.3143021336360587
            ]
        },
        {
            "positions": [
                -1.696043351058626,
                -1.7601062680794999,
                2.0147103794397188,
                -0.35028425816301667,
                1.0281320348132983,
                -2.153214974949276
            ]
        },
        {
            "positions": [
                -1.7125905165711393,
                -1.823660377483834,
                2.020980251613278,
                -0.3073446514764964,
                0.9354381883178372,
                -1.9921278162624931
            ]
        },
        {
            "positions": [
                -1.7291376820836524,
                -1.8872144868881682,
                2.027250123786837,
                -0.2644050447899761,
                0.8427443418223761,
                -1.83104065757571
            ]
        },
        {
            "positions": [
                -1.8763222774538049,
                -1.8519366773198507,
                2.028459021800664,
                -0.24054662179713374,
                0.7797062348751633,
                -1.898978513775457
            ]
        },
        {
            "positions": [
                -2.0235068728239574,
                -1.816658867751533,
                2.0296679198144916,
                -0.21668819880429135,
                0.7166681279279506,
                -1.966916369975204
            ]
        },
        {
            "positions": [
                -2.17069146819411,
                -1.7813810581832155,
                2.0308768178283185,
                -0.192829775811449,
                0.6536300209807379,
                -2.034854226174951
            ]
        },
        {
            "positions": [
                -2.3178760635642623,
                -1.7461032486148977,
                2.032085715842146,
                -0.1689713528186066,
                0.5905919140335252,
                -2.1027920823746977
            ]
        },
        {
            "positions": [
                -2.465060658934415,
                -1.7108254390465802,
                2.033294613855973,
                -0.14511292982576424,
                0.5275538070863124,
                -2.1707299385744445
            ]
        },
        {
            "positions": [
                -2.479742821059747,
                -1.6374128007185027,
                2.0305798215436393,
                -0.22789963617566147,
                0.5466009128721974,
                -2.3038491226273914
            ]
        },
        {
            "positions": [
                -2.4944249831850795,
                -1.564000162390425,
                2.0278650292313056,
                -0.3106863425255587,
                0.5656480186580825,
                -2.4369683066803387
            ]
        },
        {
            "positions": [
                -2.509107145310412,
                -1.4905875240623474,
                2.025150236918972,
                -0.393473048875456,
                0.5846951244439674,
                -2.5700874907332856
            ]
        },
        {
            "positions": [
                -2.5002312503394943,
                -1.4089131661103331,
                2.021268636237452,
                -0.5035890401277431,
                0.6061174305910813,
                -2.7148094705818977
            ]
        },
        {
            "positions": [
                -2.4913553553685768,
                -1.327238808158319,
                2.017387035555932,
                -0.6137050313800302,
                0.627539736738195,
                -2.8595314504305103
            ]
        },
        {
            "positions": [
                -2.4824794603976588,
                -1.245564450206305,
                2.0135054348744115,
                -0.7238210226323173,
                0.6489620428853088,
                -3.004253430279123
            ]
        },
        {
            "positions": [
                -2.473603565426741,
                -1.1638900922542907,
                2.0096238341928916,
                -0.8339370138846044,
                0.6703843490324226,
                -3.148975410127735
            ]
        }
    ]
}