{
    "goal": {
        "global_pose": {
            "orientation": {
                "w": 0.005598929693374612,
                "x": 0.007748599140229565,
                "y": 0.7110244013736278,
                "z": -0.7031023480610252
            },
            "position": {
                "x": 0.1141497679147869,
                "y": -0.7141253447532654,
                "z": 0.3711530566215515
            }
        },
        "name": "move_to_auspresseinheit_B"
    },
    "id": "PRM_move_to_auspresseinheit_B_61",
    "joint_names": [
        "shoulder_pan_joint",
        "shoulder_lift_joint",
        "elbow_joint",
        "wrist_1_joint",
        "wrist_2_joint",
        "wrist_3_joint"
    ],
    "metrics": {
        "cart_traj_len": 0.565597307078352,
        "distance_elbow_joint": 0.06733445270144256,
        "distance_shoulder_lift_joint": 0.29345062105841446,
        "distance_shoulder_pan_joint": 0.5756996848022846,
        "distance_wrist_1_joint": 0.3395288477647914,
        "distance_wrist_2_joint": 1.0040179918120267,
        "distance_wrist_3_joint": 0.0038644150273667854,
        "smoothness": 3.806478935924272e-16,
        "time": 0.042294785,
        "traj_len": 1.5112564352770599,
        "weighted_distance": 1.9066126200143223
    },
    "planner": "PRM",
    "start": {
        "state": {
            "elbow_joint": 2.0193083361928714,
            "shoulder_lift_joint": -1.1220246554650708,
            "shoulder_pan_joint": -1.0952077554168747,
            "wrist_1_joint": -0.8559753972642168,
            "wrist_2_joint": 0.4759566250798843,
            "wrist_3_joint": -3.1240929996934557
        }
    },
    "waypoints": [
        {
            "positions": [
                -1.0952077554168747,
                -1.1220246554650708,
                2.0193083361928714,
                -0.8559753972642168,
                0.4759566250798843,
                -3.1240929996934557
            ]
        },
        {
            "positions": [
                -1.1911577028839222,
                -1.1709330923081398,
                2.0080859274092977,
                -0.7993872559700849,
                0.6432929570485554,
                -3.1247370688646834
            ]
        },
        {
            "positions": [
                -1.2871076503509695,
                -1.219841529151209,
                1.996863518625724,
                -0.7427991146759529,
                0.8106292890172264,
                -3.125381138035911
            ]
        },
        {
            "positions": [
                -1.3830575978180168,
                -1.268749965994278,
                1.9856411098421503,
                -0.6862109733818211,
                0.9779656209858976,
                -3.126025207207139
            ]
        },
        {
            "positions": [
                -1.4790075452850644,
                -1.317658402837347,
                1.9744187010585763,
                -0.6296228320876892,
                1.1453019529545687,
                -3.126669276378367
            ]
        },
        {
            "positions": [
                -1.574957492752112,
                -1.3665668396804163,
                1.9631962922750026,
                -0.5730346907935573,
                1.3126382849232399,
                -3.1273133455495947
            ]
        },
        {
            "positions": [
                -1.6709074402191593,
                -1.4154752765234853,
                1.9519738834914289,
                -0.5164465494994254,
                1.479974616891911,
                -3.1279574147208224
            ]
        }
    ]
}