{
    "goal": {
        "global_pose": {
            "orientation": {
                "w": -0.4816463035849501,
                "x": 0.5182115481033762,
                "y": 0.4908360881923453,
                "z": -0.5084816262002911
            },
            "position": {
                "x": -0.8240239810943604,
                "y": 0.19912469901144506,
                "z": 0.16403168439865112
            }
        },
        "name": "move_to_storage_D"
    },
    "id": "PRM_move_to_storage_D_123",
    "joint_names": [
        "shoulder_pan_joint",
        "shoulder_lift_joint",
        "elbow_joint",
        "wrist_1_joint",
        "wrist_2_joint",
        "wrist_3_joint"
    ],
    "metrics": {
        "cart_traj_len": 0.6493004205731691,
        "distance_elbow_joint": 0.5533613047793624,
        "distance_shoulder_lift_joint": 0.6044728378861648,
        "distance_shoulder_pan_joint": 0.28198760209174806,
        "distance_wrist_1_joint": 3.820718074515818,
        "distance_wrist_2_joint": 1.7736292109819323,
        "distance_wrist_3_joint": 3.1280448995247943,
        "smoothness": 0.04711146106665194,
        "time": 0.20355173599999998,
        "traj_len": 3.187822756958081,
        "weighted_distance": 4.691764168660565
    },
    "planner": "PRM",
    "start": {
        "state": {
            "elbow_joint": -2.384821988534728,
            "shoulder_lift_joint": -2.2788054721415256,
            "shoulder_pan_joint": -0.1854694642142757,
            "wrist_1_joint": 1.4845938289331202,
            "wrist_2_joint": 0.17898776772866878,
            "wrist_3_joint": 0.037105688729662994
        }
    },
    "waypoints": [
        {
            "positions": [
                -0.1854694642142757,
                -2.2788054721415256,
                -2.384821988534728,
                1.4845938289331202,
                0.17898776772866878,
                0.037105688729662994
            ]
        },
        {
            "positions": [
                -0.15836921138760096,
                -2.2314988276433256,
                -2.3767530511125714,
                1.3088760806946724,
                0.09003052972136484,
                0.014612738559496106
            ]
        },
        {
            "positions": [
                -0.1312689585609262,
                -2.1841921831451256,
                -2.368684113690415,
                1.1331583324562249,
                0.0010732917140608977,
                -0.007880211610670783
            ]
        },
        {
            "positions": [
                -0.10416870573425147,
                -2.1368855386469257,
                -2.3606151762682583,
                0.9574405842177771,
                -0.08788394629324306,
                -0.030373161780837668
            ]
        },
        {
            "positions": [
                -0.07706845290757672,
                -2.0895788941487257,
                -2.3525462388461014,
                0.7817228359793295,
                -0.176841184300547,
                -0.05286611195100456
            ]
        },
        {
            "positions": [
                -0.04996820008090197,
                -2.0422722496505257,
                -2.344477301423945,
                0.6060050877408818,
                -0.2657984223078509,
                -0.07535906212117145
            ]
        },
        {
            "positions": [
                -0.022867947254227222,
                -1.9949656051523255,
                -2.3364083640017883,
                0.43028733950243403,
                -0.35475566031515493,
                -0.09785201229133833
            ]
        },
        {
            "positions": [
                0.004232305572447526,
                -1.9476589606541255,
                -2.3283394265796318,
                0.2545695912639865,
                -0.44371289832245886,
                -0.12034496246150522
            ]
        },
        {
            "positions": [
                0.03133255839912229,
                -1.9003523161559255,
                -2.3202704891574752,
                0.07885184302553877,
                -0.5326701363297628,
                -0.14283791263167211
            ]
        },
        {
            "positions": [
                0.02790173842657756,
                -1.9122480888875342,
                -2.294543657294206,
                -0.048252161638052626,
                -0.588563363009947,
                -0.29800113885080154
            ]
        },
        {
            "positions": [
                0.02447091845403283,
                -1.9241438616191429,
                -2.2688168254309375,
                -0.17535616630164402,
                -0.6444565896901313,
                -0.45316436506993096
            ]
        },
        {
            "positions": [
                0.021040098481488103,
                -1.9360396343507515,
                -2.2430899935676685,
                -0.3024601709652354,
                -0.7003498163703155,
                -0.6083275912890604
            ]
        },
        {
            "positions": [
                0.017609278508943373,
                -1.9479354070823602,
                -2.2173631617043994,
                -0.4295641756288268,
                -0.7562430430504997,
                -0.7634908175081898
            ]
        },
        {
            "positions": [
                0.014178458536398646,
                -1.9598311798139687,
                -2.1916363298411308,
                -0.5566681802924183,
                -0.812136269730684,
                -0.9186540437273192
            ]
        },
        {
            "positions": [
                0.010747638563853919,
                -1.9717269525455774,
                -2.1659094979778617,
                -0.6837721849560097,
                -0.8680294964108682,
                -1.0738172699464488
            ]
        },
        {
            "positions": [
                0.007316818591309188,
                -1.983622725277186,
                -2.1401826661145926,
                -0.8108761896196011,
                -0.9239227230910525,
                -1.2289804961655781
            ]
        },
        {
            "positions": [
                0.0038859986187644614,
                -1.9955184980087948,
                -2.114455834251324,
                -0.9379801942831925,
                -0.9798159497712366,
                -1.3841437223847075
            ]
        },
        {
            "positions": [
                0.0004551786462197345,
                -2.0074142707404032,
                -2.088729002388055,
                -1.0650841989467839,
                -1.0357091764514208,
                -1.5393069486038369
            ]
        },
        {
            "positions": [
                -0.002975641326324996,
                -2.019310043472012,
                -2.063002170524786,
                -1.1921882036103753,
                -1.0916024031316052,
                -1.6944701748229662
            ]
        },
        {
            "positions": [
                -0.00640646129886973,
                -2.0312058162036206,
                -2.0372753386615168,
                -1.3192922082739666,
                -1.1474956298117895,
                -1.8496334010420958
            ]
        },
        {
            "positions": [
                -0.00983728127141445,
                -2.0431015889352295,
                -2.011548506798248,
                -1.446396212937558,
                -1.2033888564919737,
                -2.004796627261225
            ]
        },
        {
            "positions": [
                -0.013268101243959184,
                -2.054997361666838,
                -1.985821674934979,
                -1.5735002176011494,
                -1.2592820831721578,
                -2.1599598534803546
            ]
        },
        {
            "positions": [
                -0.01669892121650391,
                -2.066893134398447,
                -1.9600948430717102,
                -1.7006042222647408,
                -1.315175309852342,
                -2.315123079699484
            ]
        },
        {
            "positions": [
                -0.020129741189048637,
                -2.0787889071300554,
                -1.9343680112084414,
                -1.8277082269283322,
                -1.3710685365325266,
                -2.4702863059186138
            ]
        },
        {
            "positions": [
                -0.023560561161593364,
                -2.0906846798616643,
                -1.9086411793451723,
                -1.9548122315919236,
                -1.4269617632127107,
                -2.625449532137743
            ]
        },
        {
            "positions": [
                -0.026991381134138098,
                -2.1025804525932728,
                -1.8829143474819034,
                -2.081916236255515,
                -1.4828549898928949,
                -2.7806127583568725
            ]
        },
        {
            "positions": [
                -0.030422201106682818,
                -2.114476225324881,
                -1.8571875156186346,
                -2.209020240919106,
                -1.538748216573079,
                -2.9357759845760016
            ]
        },
        {
            "positions": [
                -0.03385302107922755,
                -2.12637199805649,
                -1.8314606837553655,
                -2.3361242455826976,
                -1.5946414432532634,
                -3.0909392107951312
            ]
        }
    ]
}