{
    "goal": {
        "global_pose": {
            "orientation": {
                "w": -0.00223480608172531,
                "x": 0.0024358444001904467,
                "y": 0.7094548369677653,
                "z": -0.704743149386269
            },
            "position": {
                "x": 0.6205249238014221,
                "y": -0.6371506643295288,
                "z": 0.19426114857196808
            }
        },
        "name": "move_to_magneteinheit_B"
    },
    "id": "PRM_move_to_magneteinheit_B_123",
    "joint_names": [
        "shoulder_pan_joint",
        "shoulder_lift_joint",
        "elbow_joint",
        "wrist_1_joint",
        "wrist_2_joint",
        "wrist_3_joint"
    ],
    "metrics": {
        "cart_traj_len": 1.5054258570553947,
        "distance_elbow_joint": 0.9518595812128572,
        "distance_shoulder_lift_joint": 0.9685545380537738,
        "distance_shoulder_pan_joint": 1.6214112118570423,
        "distance_wrist_1_joint": 1.3746843673970939,
        "distance_wrist_2_joint": 2.6200583499834367,
        "distance_wrist_3_joint": 0.3536069703273738,
        "smoothness": 0.8132071784656738,
        "time": 0.224377621,
        "traj_len": 2.8089455350418557,
        "weighted_distance": 3.548539372314594
    },
    "planner": "PRM",
    "start": {
        "state": {
            "elbow_joint": 2.6216224122426386,
            "shoulder_lift_joint": -1.4174107377796124,
            "shoulder_pan_joint": 0.7066234856936794,
            "wrist_1_joint": 1.9546482284002225,
            "wrist_2_joint": -0.7096286983471962,
            "wrist_3_joint": 0.005740856962016249
        }
    },
    "waypoints": [
        {
            "positions": [
                0.7066234856936794,
                -1.4174107377796124,
                2.6216224122426386,
                1.9546482284002225,
                -0.7096286983471962,
                0.005740856962016249
            ]
        },
        {
            "positions": [
                0.6368204754396714,
                -1.438914262986221,
                2.5927540556570903,
                1.837312697291523,
                -0.599079846488712,
                -0.029319911307676416
            ]
        },
        {
            "positions": [
                0.5670174651856634,
                -1.4604177881928297,
                2.563885699071542,
                1.7199771661828238,
                -0.488530994630228,
                -0.06438067957736908
            ]
        },
        {
            "positions": [
                0.4972144549316554,
                -1.4819213133994382,
                2.535017342485993,
                1.6026416350741244,
                -0.37798214277174386,
                -0.09944144784706173
            ]
        },
        {
            "positions": [
                0.42741144467764736,
                -1.503424838606047,
                2.506148985900445,
                1.4853061039654252,
                -0.2674332909132597,
                -0.1345022161167544
            ]
        },
        {
            "positions": [
                0.3576084344236394,
                -1.5249283638126556,
                2.4772806293148966,
                1.3679705728567257,
                -0.15688443905477556,
                -0.16956298438644704
            ]
        },
        {
            "positions": [
                0.27808367438695175,
                -1.47111355681136,
                2.4268107669220766,
                1.4172209923475756,
                -0.28609156972296407,
                -0.15841903882526515
            ]
        },
        {
            "positions": [
                0.1985589143502641,
                -1.4172987498100642,
                2.376340904529257,
                1.4664714118384254,
                -0.4152987003911526,
                -0.14727509326408325
            ]
        },
        {
            "positions": [
                0.11903415431357645,
                -1.3634839428087686,
                2.3258710421364377,
                1.5157218313292753,
                -0.5445058310593411,
                -0.13613114770290136
            ]
        },
        {
            "positions": [
                0.03950939427688882,
                -1.309669135807473,
                2.2754011797436178,
                1.5649722508201251,
                -0.6737129617275296,
                -0.12498720214171946
            ]
        },
        {
            "positions": [
                -0.040015365759798804,
                -1.2558543288061772,
                2.224931317350798,
                1.6142226703109748,
                -0.8029200923957182,
                -0.11384325658053757
            ]
        },
        {
            "positions": [
                -0.11954012579648648,
                -1.2020395218048816,
                2.1744614549579784,
                1.6634730898018246,
                -0.9321272230639066,
                -0.10269931101935566
            ]
        },
        {
            "positions": [
                -0.1990648858331741,
                -1.148224714803586,
                2.123991592565159,
                1.7127235092926745,
                -1.0613343537320952,
                -0.09155536545817376
            ]
        },
        {
            "positions": [
                -0.27858964586986174,
                -1.0944099078022904,
                2.073521730172339,
                1.7619739287835243,
                -1.1905414844002835,
                -0.08041141989699187
            ]
        },
        {
            "positions": [
                -0.35811440590654936,
                -1.0405951008009948,
                2.023051867779519,
                1.8112243482743742,
                -1.3197486150684723,
                -0.06926747433580997
            ]
        },
        {
            "positions": [
                -0.437639165943237,
                -0.986780293799699,
                1.9725820053866996,
                1.860474767765224,
                -1.4489557457366606,
                -0.05812352877462808
            ]
        },
        {
            "positions": [
                -0.5171639259799246,
                -0.9329654867984034,
                1.92211214299388,
                1.9097251872560737,
                -1.578162876404849,
                -0.04697958321344618
            ]
        },
        {
            "positions": [
                -0.5966886860166123,
                -0.8791506797971077,
                1.8716422806010602,
                1.9589756067469235,
                -1.7073700070730378,
                -0.035835637652264274
            ]
        },
        {
            "positions": [
                -0.6762134460532998,
                -0.8253358727958121,
                1.8211724182082405,
                2.0082260262377734,
                -1.836577137741226,
                -0.02469169209108238
            ]
        },
        {
            "positions": [
                -0.7557382060899875,
                -0.7715210657945164,
                1.7707025558154208,
                2.057476445728623,
                -1.9657842684094144,
                -0.013547746529900484
            ]
        },
        {
            "positions": [
                -0.835262966126675,
                -0.7177062587932208,
                1.720232693422601,
                2.106726865219473,
                -2.0949913990776032,
                -0.002403800968718589
            ]
        },
        {
            "positions": [
                -0.9147877261633629,
                -0.6638914517919251,
                1.6697628310297814,
                2.155977284710323,
                -2.2241985297457916,
                0.008740144592463294
            ]
        }
    ]
}