{
    "goal": {
        "global_pose": {
            "orientation": {
                "w": 0.005598929693374612,
                "x": 0.007748599140229565,
                "y": 0.7110244013736278,
                "z": -0.7031023480610252
            },
            "position": {
                "x": 0.1141497679147869,
                "y": -0.7141253447532654,
                "z": 0.3711530566215515
            }
        },
        "name": "move_to_auspresseinheit_B"
    },
    "id": "PRM_move_to_auspresseinheit_B_105",
    "joint_names": [
        "shoulder_pan_joint",
        "shoulder_lift_joint",
        "elbow_joint",
        "wrist_1_joint",
        "wrist_2_joint",
        "wrist_3_joint"
    ],
    "metrics": {
        "cart_traj_len": 0.5646800314547724,
        "distance_elbow_joint": 0.06298984561537213,
        "distance_shoulder_lift_joint": 0.29500875242471114,
        "distance_shoulder_pan_joint": 0.578129244959305,
        "distance_wrist_1_joint": 0.3270253646289517,
        "distance_wrist_2_joint": 0.985655176842994,
        "distance_wrist_3_joint": 0.008428582100816318,
        "smoothness": 5.075305295617109e-16,
        "time": 0.013844246,
        "traj_len": 1.5024103855379032,
        "weighted_distance": 1.8938782094542743
    },
    "planner": "PRM",
    "start": {
        "state": {
            "elbow_joint": 2.0193083361928714,
            "shoulder_lift_joint": -1.1220246554650708,
            "shoulder_pan_joint": -1.0952077554168747,
            "wrist_1_joint": -0.8559753972642168,
            "wrist_2_joint": 0.4759566250798843,
            "wrist_3_joint": -3.1240929996934557
        }
    },
    "waypoints": [
        {
            "positions": [
                -1.0952077554168747,
                -1.1220246554650708,
                2.0193083361928714,
                -0.8559753972642168,
                0.4759566250798843,
                -3.1240929996934557
            ]
        },
        {
            "positions": [
                -1.1915626295767587,
                -1.1711927808691893,
                2.008810028590309,
                -0.8014711698260581,
                0.64023248788705,
                -3.1226882360099864
            ]
        },
        {
            "positions": [
                -1.287917503736643,
                -1.2203609062733078,
                1.9983117209877475,
                -0.7469669423878995,
                0.8045083506942157,
                -3.121283472326517
            ]
        },
        {
            "positions": [
                -1.3842723778965271,
                -1.2695290316774264,
                1.9878134133851852,
                -0.6924627149497409,
                0.9687842135013813,
                -3.1198787086430473
            ]
        },
        {
            "positions": [
                -1.4806272520564112,
                -1.318697157081545,
                1.9773151057826233,
                -0.6379584875115824,
                1.133060076308547,
                -3.118473944959578
            ]
        },
        {
            "positions": [
                -1.5769821262162955,
                -1.3678652824856634,
                1.9668167981800613,
                -0.5834542600734236,
                1.2973359391157127,
                -3.1170691812761087
            ]
        },
        {
            "positions": [
                -1.6733370003761796,
                -1.417033407889782,
                1.9563184905774993,
                -0.5289500326352651,
                1.4616118019228783,
                -3.1156644175926393
            ]
        }
    ]
}