{
    "goal": {
        "global_pose": {
            "orientation": {
                "w": -0.4816463035849501,
                "x": 0.5182115481033762,
                "y": 0.4908360881923453,
                "z": -0.5084816262002911
            },
            "position": {
                "x": -0.8240239810943604,
                "y": 0.19912469901144506,
                "z": 0.16403168439865112
            }
        },
        "name": "move_to_storage_D"
    },
    "id": "PRM_move_to_storage_D_106",
    "joint_names": [
        "shoulder_pan_joint",
        "shoulder_lift_joint",
        "elbow_joint",
        "wrist_1_joint",
        "wrist_2_joint",
        "wrist_3_joint"
    ],
    "metrics": {
        "cart_traj_len": 3.5219279722525108,
        "distance_elbow_joint": 4.2109344819964125,
        "distance_shoulder_lift_joint": 1.264802372875475,
        "distance_shoulder_pan_joint": 2.8119871523450493,
        "distance_wrist_1_joint": 2.4095386154421066,
        "distance_wrist_2_joint": 1.0931968928711946,
        "distance_wrist_3_joint": 3.1519997171819116,
        "smoothness": 0.16986088208204392,
        "time": 0.13491936999999998,
        "traj_len": 3.8655477273876917,
        "weighted_distance": 4.974856196453247
    },
    "planner": "PRM",
    "start": {
        "state": {
            "elbow_joint": -2.384821988534728,
            "shoulder_lift_joint": -2.2788054721415256,
            "shoulder_pan_joint": -0.1854694642142757,
            "wrist_1_joint": 1.4845938289331202,
            "wrist_2_joint": 0.17898776772866878,
            "wrist_3_joint": 0.037105688729662994
        }
    },
    "waypoints": [
        {
            "positions": [
                -0.1854694642142757,
                -2.2788054721415256,
                -2.384821988534728,
                1.4845938289331202,
                0.17898776772866878,
                0.037105688729662994
            ]
        },
        {
            "positions": [
                -0.11874538934014375,
                -2.2289490730373616,
                -2.3642847043828557,
                1.5519739320618127,
                0.06778453675477461,
                0.04938102382183322
            ]
        },
        {
            "positions": [
                -0.03290319100736974,
                -2.1875885514110482,
                -2.246868772835405,
                1.4995530811329072,
                0.0758999625371957,
                -0.03387943104445018
            ]
        },
        {
            "positions": [
                0.05293900732540427,
                -2.1462280297847354,
                -2.1294528412879545,
                1.4471322302040017,
                0.0840153883196168,
                -0.11713988591073358
            ]
        },
        {
            "positions": [
                0.13878120565817828,
                -2.104867508158422,
                -2.012036909740504,
                1.3947113792750963,
                0.0921308141020379,
                -0.20040034077701696
            ]
        },
        {
            "positions": [
                0.2246234039909523,
                -2.0635069865321087,
                -1.8946209781930534,
                1.342290528346191,
                0.10024623988445899,
                -0.2836607956433004
            ]
        },
        {
            "positions": [
                0.31046560232372633,
                -2.022146464905796,
                -1.7772050466456029,
                1.2898696774172855,
                0.1083616656668801,
                -0.3669212505095838
            ]
        },
        {
            "positions": [
                0.3963078006565003,
                -1.9807859432794825,
                -1.6597891150981523,
                1.23744882648838,
                0.11647709144930118,
                -0.45018170537586716
            ]
        },
        {
            "positions": [
                0.48214999898927435,
                -1.9394254216531694,
                -1.5423731835507017,
                1.1850279755594746,
                0.1245925172317223,
                -0.5334421602421506
            ]
        },
        {
            "positions": [
                0.5679921973220483,
                -1.8980649000268563,
                -1.4249572520032512,
                1.1326071246305691,
                0.13270794301414338,
                -0.616702615108434
            ]
        },
        {
            "positions": [
                0.6538343956548224,
                -1.856704378400543,
                -1.3075413204558004,
                1.0801862737016639,
                0.14082336879656449,
                -0.6999630699747175
            ]
        },
        {
            "positions": [
                0.7396765939875963,
                -1.81534385677423,
                -1.1901253889083498,
                1.0277654227727582,
                0.14893879457898557,
                -0.7832235248410009
            ]
        },
        {
            "positions": [
                0.8255187923203703,
                -1.7739833351479168,
                -1.0727094573608995,
                0.9753445718438529,
                0.15705422036140665,
                -0.8664839797072842
            ]
        },
        {
            "positions": [
                0.9113609906531444,
                -1.7326228135216037,
                -0.9552935258134487,
                0.9229237209149475,
                0.16516964614382776,
                -0.9497444345735676
            ]
        },
        {
            "positions": [
                0.9972031889859183,
                -1.6912622918952906,
                -0.8378775942659982,
                0.870502869986042,
                0.17328507192624887,
                -1.033004889439851
            ]
        },
        {
            "positions": [
                1.0830453873186925,
                -1.6499017702689773,
                -0.7204616627185476,
                0.8180820190571366,
                0.18140049770866995,
                -1.1162653443061343
            ]
        },
        {
            "positions": [
                1.1688875856514664,
                -1.608541248642664,
                -0.6030457311710968,
                0.7656611681282312,
                0.18951592349109106,
                -1.1995257991724178
            ]
        },
        {
            "positions": [
                1.2547297839842404,
                -1.5671807270163511,
                -0.4856297996236465,
                0.7132403171993258,
                0.19763134927351214,
                -1.2827862540387012
            ]
        },
        {
            "positions": [
                1.3405719823170144,
                -1.5258202053900378,
                -0.36821386807619616,
                0.6608194662704204,
                0.20574677505593322,
                -1.3660467089049844
            ]
        },
        {
            "positions": [
                1.4264141806497885,
                -1.4844596837637247,
                -0.25079793652874516,
                0.6083986153415148,
                0.21386220083835433,
                -1.449307163771268
            ]
        },
        {
            "positions": [
                1.5122563789825623,
                -1.4430991621374116,
                -0.13338200498129504,
                0.5559777644126095,
                0.22197762662077544,
                -1.5325676186375512
            ]
        },
        {
            "positions": [
                1.5980985773153364,
                -1.4017386405110983,
                -0.01596607343384404,
                0.5035569134837039,
                0.23009305240319655,
                -1.6158280735038348
            ]
        },
        {
            "positions": [
                1.6839407756481104,
                -1.3603781188847852,
                0.10144985811360652,
                0.45113606255479866,
                0.23820847818561763,
                -1.6990885283701183
            ]
        },
        {
            "positions": [
                1.7697829739808844,
                -1.3190175972584721,
                0.21886578966105663,
                0.3987152116258932,
                0.24632390396803872,
                -1.7823489832364015
            ]
        },
        {
            "positions": [
                1.8556251723136585,
                -1.2776570756321588,
                0.33628172120850763,
                0.3462943606969877,
                0.2544393297504598,
                -1.865609438102685
            ]
        },
        {
            "positions": [
                1.9414673706464325,
                -1.236296554005846,
                0.4536976527559582,
                0.29387350976808224,
                0.2625547555328809,
                -1.9488698929689683
            ]
        },
        {
            "positions": [
                2.0273095689792062,
                -1.1949360323795326,
                0.5711135843034083,
                0.241452658839177,
                0.27067018131530196,
                -2.0321303478352517
            ]
        },
        {
            "positions": [
                2.1131517673119804,
                -1.1535755107532195,
                0.6885295158508593,
                0.1890318079102713,
                0.27878560709772315,
                -2.115390802701535
            ]
        },
        {
            "positions": [
                2.1989939656447546,
                -1.1122149891269064,
                0.8059454473983099,
                0.13661095698136605,
                0.28690103288014424,
                -2.1986512575678185
            ]
        },
        {
            "positions": [
                2.2848361639775288,
                -1.070854467500593,
                0.9233613789457604,
                0.08419010605246058,
                0.2950164586625653,
                -2.281911712434102
            ]
        },
        {
            "positions": [
                2.3706783623103025,
                -1.02949394587428,
                1.040777310493211,
                0.03176925512355504,
                0.3031318844449864,
                -2.3651721673003854
            ]
        },
        {
            "positions": [
                2.3991049540681324,
                -1.0277727406955879,
                1.128036775267486,
                -0.05955894880701791,
                0.38609258602355184,
                -2.4457467440745546
            ]
        },
        {
            "positions": [
                2.4275315458259628,
                -1.0260515355168958,
                1.2152962400417608,
                -0.15088715273759085,
                0.4690532876021173,
                -2.526321320848724
            ]
        },
        {
            "positions": [
                2.4559581375837927,
                -1.0243303303382036,
                1.3025557048160359,
                -0.2422153566681638,
                0.5520139891806827,
                -2.606895897622893
            ]
        },
        {
            "positions": [
                2.484384729341623,
                -1.0226091251595115,
                1.3898151695903107,
                -0.33354356059873674,
                0.6349746907592482,
                -2.6874704743970623
            ]
        },
        {
            "positions": [
                2.512811321099453,
                -1.0208879199808192,
                1.4770746343645857,
                -0.4248717645293097,
                0.7179353923378136,
                -2.7680450511712316
            ]
        },
        {
            "positions": [
                2.5412379128572833,
                -1.019166714802127,
                1.5643340991388608,
                -0.5161999684598827,
                0.800896093916379,
                -2.8486196279454004
            ]
        },
        {
            "positions": [
                2.569664504615113,
                -1.017445509623435,
                1.6515935639131358,
                -0.6075281723904556,
                0.8838567954949444,
                -2.9291942047195696
            ]
        },
        {
            "positions": [
                2.5980910963729436,
                -1.0157243044447428,
                1.7388530286874107,
                -0.6988563763210286,
                0.9668174970735098,
                -3.009768781493739
            ]
        },
        {
            "positions": [
                2.6265176881307735,
                -1.0140030992660507,
                1.8261124934616857,
                -0.7901845802516015,
                1.0497781986520753,
                -3.090343358267908
            ]
        }
    ]
}