{
    "goal": {
        "global_pose": {
            "orientation": {
                "w": 0.7047431468963623,
                "x": -0.7094548344612122,
                "y": 0.0024358443915843964,
                "z": -0.0022348060738295317
            },
            "position": {
                "x": 0.6094750761985779,
                "y": 0.3671506643295288,
                "z": 0.19426114857196808
            }
        },
        "name": "move_to_magneteinheit_A"
    },
    "id": "PRM_move_to_magneteinheit_A_48",
    "joint_names": [
        "shoulder_pan_joint",
        "shoulder_lift_joint",
        "elbow_joint",
        "wrist_1_joint",
        "wrist_2_joint",
        "wrist_3_joint"
    ],
    "metrics": {
        "cart_traj_len": 4.010693177495417,
        "distance_elbow_joint": 3.9218514624587506,
        "distance_shoulder_lift_joint": 0.4636140933703313,
        "distance_shoulder_pan_joint": 4.54248822707647,
        "distance_wrist_1_joint": 3.5028026303983726,
        "distance_wrist_2_joint": 1.4392134718599245,
        "distance_wrist_3_joint": 4.835933550972395,
        "smoothness": 0.23421220672047693,
        "time": 0.122957708,
        "traj_len": 4.325032189028916,
        "weighted_distance": 5.772329394649904
    },
    "planner": "PRM",
    "start": {
        "state": {
            "elbow_joint": -1.9196185241190666,
            "shoulder_lift_joint": -1.2443396400964142,
            "shoulder_pan_joint": 2.6996025414629847,
            "wrist_1_joint": -1.5485510000780065,
            "wrist_2_joint": -1.5709468930060704,
            "wrist_3_joint": 0.4420197071253992
        }
    },
    "waypoints": [
        {
            "positions": [
                2.6996025414629847,
                -1.2443396400964142,
                -1.9196185241190666,
                -1.5485510000780065,
                -1.5709468930060704,
                0.4420197071253992
            ]
        },
        {
            "positions": [
                2.551270757558732,
                -1.2286806841787437,
                -1.8513637487386243,
                -1.5202225503933724,
                -1.549863195419402,
                0.3311818780684411
            ]
        },
        {
            "positions": [
                2.4029389736544795,
                -1.2130217282610731,
                -1.783108973358182,
                -1.4918941007087383,
                -1.5287794978327334,
                0.22034404901148302
            ]
        },
        {
            "positions": [
                2.2546071897502267,
                -1.1973627723434026,
                -1.7148541979777399,
                -1.4635656510241042,
                -1.507695800246065,
                0.10950621995452492
            ]
        },
        {
            "positions": [
                2.106275405845974,
                -1.181703816425732,
                -1.6465994225972975,
                -1.4352372013394703,
                -1.4866121026593964,
                -0.001331609102433129
            ]
        },
        {
            "positions": [
                1.9579436219417212,
                -1.1660448605080616,
                -1.5783446472168552,
                -1.4069087516548362,
                -1.465528405072728,
                -0.11216943815939129
            ]
        },
        {
            "positions": [
                1.8096118380374686,
                -1.150385904590391,
                -1.510089871836413,
                -1.378580301970202,
                -1.4444447074860594,
                -0.22300726721634934
            ]
        },
        {
            "positions": [
                1.6612800541332158,
                -1.1347269486727205,
                -1.4418350964559705,
                -1.350251852285568,
                -1.423361009899391,
                -0.3338450962733075
            ]
        },
        {
            "positions": [
                1.5129482702289634,
                -1.11906799275505,
                -1.3735803210755284,
                -1.3219234026009339,
                -1.4022773123127223,
                -0.44468292533026543
            ]
        },
        {
            "positions": [
                1.3646164863247106,
                -1.1034090368373795,
                -1.305325545695086,
                -1.2935949529162998,
                -1.381193614726054,
                -0.5555207543872236
            ]
        },
        {
            "positions": [
                1.2162847024204577,
                -1.087750080919709,
                -1.2370707703146437,
                -1.2652665032316657,
                -1.3601099171393853,
                -0.6663585834441818
            ]
        },
        {
            "positions": [
                1.0679529185162053,
                -1.0720911250020384,
                -1.1688159949342016,
                -1.2369380535470316,
                -1.339026219552717,
                -0.7771964125011398
            ]
        },
        {
            "positions": [
                0.9196211346119525,
                -1.0564321690843679,
                -1.1005612195537593,
                -1.2086096038623975,
                -1.3179425219660486,
                -0.8880342415580978
            ]
        },
        {
            "positions": [
                0.7712893507076999,
                -1.0407732131666974,
                -1.032306444173317,
                -1.1802811541777636,
                -1.29685882437938,
                -0.9988720706150559
            ]
        },
        {
            "positions": [
                0.6229575668034468,
                -1.0251142572490266,
                -0.9640516687928746,
                -1.1519527044931295,
                -1.2757751267927113,
                -1.1097098996720143
            ]
        },
        {
            "positions": [
                0.47462578289919444,
                -1.009455301331356,
                -0.8957968934124325,
                -1.1236242548084954,
                -1.254691429206043,
                -1.220547728728972
            ]
        },
        {
            "positions": [
                0.32629399899494205,
                -0.9937963454136857,
                -0.8275421180319902,
                -1.0952958051238613,
                -1.2336077316193745,
                -1.33138555778593
            ]
        },
        {
            "positions": [
                0.17796221509068877,
                -0.978137389496015,
                -0.7592873426515478,
                -1.0669673554392272,
                -1.212524034032706,
                -1.4422233868428882
            ]
        },
        {
            "positions": [
                0.02963043118643638,
                -0.9624784335783445,
                -0.6910325672711055,
                -1.038638905754593,
                -1.1914403364460375,
                -1.5530612158998465
            ]
        },
        {
            "positions": [
                -0.11870135271781601,
                -0.946819477660674,
                -0.6227777918906634,
                -1.0103104560699592,
                -1.170356638859369,
                -1.6638990449568043
            ]
        },
        {
            "positions": [
                -0.2670331366220693,
                -0.9311605217430035,
                -0.5545230165102211,
                -0.981982006385325,
                -1.1492729412727005,
                -1.7747368740137626
            ]
        },
        {
            "positions": [
                -0.4153649205263217,
                -0.9155015658253329,
                -0.48626824112977873,
                -0.9536535567006909,
                -1.1281892436860321,
                -1.8855747030707204
            ]
        },
        {
            "positions": [
                -0.5636967044305741,
                -0.8998426099076624,
                -0.4180134657493366,
                -0.9253251070160569,
                -1.1071055460993635,
                -1.9964125321276787
            ]
        },
        {
            "positions": [
                -0.7120284883348273,
                -0.8841836539899919,
                -0.34975869036889407,
                -0.8969966573314228,
                -1.086021848512695,
                -2.107250361184637
            ]
        },
        {
            "positions": [
                -0.8603602722390797,
                -0.8685246980723214,
                -0.28150391498845195,
                -0.8686682076467886,
                -1.0649381509260265,
                -2.2180881902415948
            ]
        },
        {
            "positions": [
                -0.8194217133484794,
                -0.8648664000995614,
                -0.18634821276644628,
                -0.7510465477314905,
                -1.0260546205185315,
                -2.1274287880080363
            ]
        },
        {
            "positions": [
                -0.778483154457879,
                -0.8612081021268014,
                -0.09119251054444061,
                -0.6334248878161924,
                -0.9871710901110364,
                -2.0367693857744777
            ]
        },
        {
            "positions": [
                -0.7375445955672785,
                -0.8575498041540416,
                0.003963191677565092,
                -0.5158032279008943,
                -0.9482875597035414,
                -1.9461099835409195
            ]
        },
        {
            "positions": [
                -0.6966060366766781,
                -0.8538915061812816,
                0.09911889389957074,
                -0.3981815679855962,
                -0.9094040292960464,
                -1.8554505813073612
            ]
        },
        {
            "positions": [
                -0.6556674777860777,
                -0.8502332082085217,
                0.1942745961215765,
                -0.28055990807029796,
                -0.8705204988885513,
                -1.7647911790738027
            ]
        },
        {
            "positions": [
                -0.6147289188954773,
                -0.8465749102357617,
                0.28943029834358214,
                -0.1629382481549999,
                -0.8316369684810564,
                -1.6741317768402442
            ]
        },
        {
            "positions": [
                -0.5737903600048768,
                -0.8429166122630017,
                0.3845860005655879,
                -0.04531658823970175,
                -0.7927534380735612,
                -1.5834723746066857
            ]
        },
        {
            "positions": [
                -0.5328518011142764,
                -0.8392583142902419,
                0.4797417027875934,
                0.0723050716755963,
                -0.7538699076660663,
                -1.4928129723731274
            ]
        },
        {
            "positions": [
                -0.49191324222367605,
                -0.8356000163174819,
                0.5748974050095992,
                0.18992673159089435,
                -0.7149863772585713,
                -1.4021535701395689
            ]
        },
        {
            "positions": [
                -0.45097468333307567,
                -0.831941718344722,
                0.6700531072316049,
                0.30754839150619273,
                -0.6761028468510762,
                -1.3114941679060104
            ]
        },
        {
            "positions": [
                -0.4100361244424753,
                -0.828283420371962,
                0.7652088094536105,
                0.42517005142149067,
                -0.6372193164435813,
                -1.220834765672452
            ]
        },
        {
            "positions": [
                -0.36909756555187484,
                -0.824625122399202,
                0.8603645116756162,
                0.5427917113367888,
                -0.5983357860360863,
                -1.1301753634388936
            ]
        },
        {
            "positions": [
                -0.3281590066612745,
                -0.8209668244264422,
                0.9555202138976218,
                0.6604133712520868,
                -0.5594522556285912,
                -1.0395159612053353
            ]
        },
        {
            "positions": [
                -0.287220447770674,
                -0.8173085264536822,
                1.0506759161196277,
                0.7780350311673851,
                -0.5205687252210961,
                -0.9488565589717766
            ]
        },
        {
            "positions": [
                -0.24628188888007363,
                -0.8136502284809223,
                1.1458316183416333,
                0.8956566910826833,
                -0.48168519481360117,
                -0.8581971567382183
            ]
        },
        {
            "positions": [
                -0.20534332998947324,
                -0.8099919305081623,
                1.2409873205636388,
                1.0132783509979812,
                -0.44280166440610613,
                -0.76753775450466
            ]
        },
        {
            "positions": [
                -0.16440477109887275,
                -0.8063336325354025,
                1.3361430227856448,
                1.1309000109132796,
                -0.4039181339986111,
                -0.6768783522711013
            ]
        },
        {
            "positions": [
                -0.12346621220827236,
                -0.8026753345626425,
                1.4312987250076503,
                1.2485216708285773,
                -0.36503460359111606,
                -0.586218950037543
            ]
        },
        {
            "positions": [
                -0.08252765331767198,
                -0.7990170365898825,
                1.5264544272296559,
                1.3661433307438755,
                -0.32615107318362113,
                -0.4955595478039847
            ]
        },
        {
            "positions": [
                -0.04158909442707159,
                -0.7953587386171226,
                1.6216101294516618,
                1.483764990659174,
                -0.287267542776126,
                -0.404900145570426
            ]
        },
        {
            "positions": [
                -0.0006505355364712084,
                -0.7917004406443626,
                1.7167658316736674,
                1.6013866505744718,
                -0.24838401236863106,
                -0.3142407433368677
            ]
        },
        {
            "positions": [
                0.04028802335412918,
                -0.7880421426716028,
                1.811921533895673,
                1.71900831048977,
                -0.20950048196113602,
                -0.2235813411033094
            ]
        },
        {
            "positions": [
                0.08122658224472967,
                -0.7843838446988428,
                1.9070772361176789,
                1.8366299704050681,
                -0.17061695155364098,
                -0.1329219388697509
            ]
        },
        {
            "positions": [
                0.12216514113533003,
                -0.7807255467260829,
                2.0022329383396844,
                1.954251630320366,
                -0.13173342114614595,
                -0.042262536636192435
            ]
        }
    ]
}