{
    "goal": {
        "global_pose": {
            "orientation": {
                "w": 0.5084816262002911,
                "x": -0.4908360881923452,
                "y": 0.5182115481033761,
                "z": -0.48164630358495003
            },
            "position": {
                "x": 0.5540239810943604,
                "y": -0.46912469901144505,
                "z": 0.16403168439865112
            }
        },
        "name": "move_to_storage_B"
    },
    "id": "PRM_move_to_storage_B_73",
    "joint_names": [
        "shoulder_pan_joint",
        "shoulder_lift_joint",
        "elbow_joint",
        "wrist_1_joint",
        "wrist_2_joint",
        "wrist_3_joint"
    ],
    "metrics": {
        "cart_traj_len": 2.353813109955908,
        "distance_elbow_joint": 3.624233574623982,
        "distance_shoulder_lift_joint": 0.5349288346352881,
        "distance_shoulder_pan_joint": 1.6564475508292178,
        "distance_wrist_1_joint": 3.2538105761369867,
        "distance_wrist_2_joint": 2.7158545225237543,
        "distance_wrist_3_joint": 5.663811747672812,
        "smoothness": 0.5399724396369707,
        "time": 0.270909601,
        "traj_len": 4.177210409642067,
        "weighted_distance": 5.8946056187355245
    },
    "planner": "PRM",
    "start": {
        "state": {
            "elbow_joint": 1.664937868594044,
            "shoulder_lift_joint": -0.661644460510453,
            "shoulder_pan_joint": -0.9139846352900073,
            "wrist_1_joint": 2.146753192139373,
            "wrist_2_joint": -2.2341966793290973,
            "wrist_3_joint": 0.005466555786416001
        }
    },
    "waypoints": [
        {
            "positions": [
                -0.9139846352900073,
                -0.661644460510453,
                1.664937868594044,
                2.146753192139373,
                -2.2341966793290973,
                0.005466555786416001
            ]
        },
        {
            "positions": [
                -0.9119913243256154,
                -0.805025943135519,
                1.6547623495175492,
                2.059641621918427,
                -2.1968421030617087,
                -0.05142383381716731
            ]
        },
        {
            "positions": [
                -0.8167205324549788,
                -0.7949152573375304,
                1.5540805066389602,
                2.103141332463744,
                -2.1979391992346544,
                -0.13743116584001158
            ]
        },
        {
            "positions": [
                -0.7214497405843421,
                -0.7848045715395419,
                1.4533986637603715,
                2.146641043009061,
                -2.1990362954076006,
                -0.22343849786285588
            ]
        },
        {
            "positions": [
                -0.6261789487137055,
                -0.7746938857415533,
                1.3527168208817826,
                2.190140753554378,
                -2.2001333915805463,
                -0.3094458298857002
            ]
        },
        {
            "positions": [
                -0.5915952028140524,
                -0.7741677909434121,
                1.25089946187587,
                2.1117196728381415,
                -2.1176453004656293,
                -0.38211550249351933
            ]
        },
        {
            "positions": [
                -0.5570114569143993,
                -0.773641696145271,
                1.1490821028699574,
                2.033298592121905,
                -2.0351572093507118,
                -0.45478517510133853
            ]
        },
        {
            "positions": [
                -0.5224277110147464,
                -0.7731156013471299,
                1.0472647438640448,
                1.954877511405669,
                -1.9526691182357947,
                -0.5274548477091577
            ]
        },
        {
            "positions": [
                -0.4878439651150933,
                -0.7725895065489886,
                0.9454473848581323,
                1.8764564306894327,
                -1.8701810271208776,
                -0.6001245203169769
            ]
        },
        {
            "positions": [
                -0.45326021921544024,
                -0.7720634117508475,
                0.8436300258522197,
                1.7980353499731963,
                -1.7876929360059604,
                -0.672794192924796
            ]
        },
        {
            "positions": [
                -0.41867647331578717,
                -0.7715373169527063,
                0.7418126668463072,
                1.7196142692569598,
                -1.705204844891043,
                -0.7454638655326153
            ]
        },
        {
            "positions": [
                -0.38409272741613415,
                -0.7710112221545652,
                0.6399953078403946,
                1.6411931885407236,
                -1.622716753776126,
                -0.8181335381404344
            ]
        },
        {
            "positions": [
                -0.3495089815164811,
                -0.770485127356424,
                0.538177948834482,
                1.5627721078244872,
                -1.5402286626612087,
                -0.8908032107482535
            ]
        },
        {
            "positions": [
                -0.31492523561682806,
                -0.7699590325582829,
                0.4363605898285695,
                1.484351027108251,
                -1.4577405715462914,
                -0.9634728833560728
            ]
        },
        {
            "positions": [
                -0.280341489717175,
                -0.7694329377601417,
                0.3345432308226568,
                1.4059299463920145,
                -1.3752524804313744,
                -1.036142555963892
            ]
        },
        {
            "positions": [
                -0.2457577438175219,
                -0.7689068429620005,
                0.23272587181674442,
                1.327508865675778,
                -1.2927643893164573,
                -1.108812228571711
            ]
        },
        {
            "positions": [
                -0.21117399791786884,
                -0.7683807481638594,
                0.13090851281083182,
                1.2490877849595416,
                -1.2102762982015398,
                -1.1814819011795303
            ]
        },
        {
            "positions": [
                -0.17659025201821582,
                -0.7678546533657182,
                0.02909115380491928,
                1.1706667042433054,
                -1.1277882070866228,
                -1.2541515737873494
            ]
        },
        {
            "positions": [
                -0.2082817405546788,
                -0.7800745175809052,
                0.09765621793715573,
                1.1011244344167876,
                -1.0725170528368433,
                -1.1022828283356583
            ]
        },
        {
            "positions": [
                -0.23997322909114177,
                -0.7922943817960921,
                0.16622128206939218,
                1.0315821645902696,
                -1.0172458985870638,
                -0.9504140828839669
            ]
        },
        {
            "positions": [
                -0.27166471762760475,
                -0.8045142460112791,
                0.23478634620162867,
                0.9620398947637518,
                -0.9619747443372842,
                -0.7985453374322757
            ]
        },
        {
            "positions": [
                -0.3033562061640677,
                -0.816734110226466,
                0.3033514103338651,
                0.8924976249372338,
                -0.9067035900875047,
                -0.6466765919805845
            ]
        },
        {
            "positions": [
                -0.3350476947005307,
                -0.828953974441653,
                0.3719164744661016,
                0.822955355110716,
                -0.8514324358377252,
                -0.4948078465288932
            ]
        },
        {
            "positions": [
                -0.36673918323699367,
                -0.8411738386568399,
                0.44048153859833805,
                0.7534130852841981,
                -0.7961612815879457,
                -0.34293910107720205
            ]
        },
        {
            "positions": [
                -0.39843067177345665,
                -0.8533937028720269,
                0.5090466027305744,
                0.6838708154576802,
                -0.7408901273381662,
                -0.19107035562551067
            ]
        },
        {
            "positions": [
                -0.4301221603099196,
                -0.8656135670872137,
                0.5776116668628108,
                0.6143285456311623,
                -0.6856189730883866,
                -0.03920161017381951
            ]
        },
        {
            "positions": [
                -0.4618136488463826,
                -0.8778334313024007,
                0.6461767309950475,
                0.5447862758046444,
                -0.6303478188386071,
                0.11266713527787187
            ]
        },
        {
            "positions": [
                -0.49350513738284557,
                -0.8900532955175876,
                0.7147417951272839,
                0.47524400597812655,
                -0.5750766645888277,
                0.264535880729563
            ]
        },
        {
            "positions": [
                -0.5251966259193086,
                -0.9022731597327746,
                0.7833068592595203,
                0.40570173615160876,
                -0.5198055103390482,
                0.4164046261812542
            ]
        },
        {
            "positions": [
                -0.5568881144557716,
                -0.9144930239479615,
                0.8518719233917569,
                0.33615946632509086,
                -0.46453435608926863,
                0.5682733716329453
            ]
        },
        {
            "positions": [
                -0.5885796029922346,
                -0.9267128881631485,
                0.9204369875239933,
                0.26661719649857296,
                -0.40926320183948917,
                0.7201421170846367
            ]
        },
        {
            "positions": [
                -0.6202710915286975,
                -0.9389327523783354,
                0.9890020516562297,
                0.19707492667205506,
                -0.3539920475897096,
                0.8720108625363281
            ]
        },
        {
            "positions": [
                -0.6519625800651605,
                -0.9511526165935223,
                1.057567115788466,
                0.12753265684553705,
                -0.29872089333993,
                1.0238796079880195
            ]
        },
        {
            "positions": [
                -0.6836540686016235,
                -0.9633724808087093,
                1.1261321799207025,
                0.05799038701901926,
                -0.24344973909015055,
                1.1757483534397104
            ]
        },
        {
            "positions": [
                -0.7153455571380865,
                -0.9755923450238962,
                1.1946972440529389,
                -0.011551882807498526,
                -0.1881785848403712,
                1.3276170988914013
            ]
        },
        {
            "positions": [
                -0.7470370456745494,
                -0.9878122092390832,
                1.2632623081851755,
                -0.08109415263401654,
                -0.1329074305905915,
                1.4794858443430932
            ]
        },
        {
            "positions": [
                -0.7787285342110124,
                -1.00003207345427,
                1.3318273723174119,
                -0.15063642246053432,
                -0.07763627634081205,
                1.631354589794784
            ]
        },
        {
            "positions": [
                -0.8104200227474754,
                -1.012251937669457,
                1.4003924364496485,
                -0.22017869228705234,
                -0.022365122091032585,
                1.7832233352464755
            ]
        },
        {
            "positions": [
                -0.8421115112839384,
                -1.024471801884644,
                1.468957500581885,
                -0.2897209621135701,
                0.03290603215874688,
                1.9350920806981668
            ]
        },
        {
            "positions": [
                -0.8738029998204013,
                -1.0366916660998309,
                1.5375225647141213,
                -0.3592632319400879,
                0.08817718640852634,
                2.086960826149858
            ]
        },
        {
            "positions": [
                -0.9054944883568643,
                -1.0489115303150178,
                1.606087628846358,
                -0.4288055017666059,
                0.14344834065830603,
                2.238829571601549
            ]
        },
        {
            "positions": [
                -0.9371859768933273,
                -1.0611313945302048,
                1.6746526929785943,
                -0.4983477715931237,
                0.1987194949080855,
                2.39069831705324
            ]
        },
        {
            "positions": [
                -0.9688774654297903,
                -1.0733512587453917,
                1.7432177571108305,
                -0.5678900414196415,
                0.25399064915786496,
                2.5425670625049315
            ]
        },
        {
            "positions": [
                -1.0005689539662532,
                -1.0855711229605787,
                1.811782821243067,
                -0.6374323112461595,
                0.3092618034076444,
                2.694435807956623
            ]
        },
        {
            "positions": [
                -1.0322604425027162,
                -1.0977909871757656,
                1.8803478853753035,
                -0.7069745810726773,
                0.3645329576574239,
                2.846304553408314
            ]
        },
        {
            "positions": [
                -1.0639519310391792,
                -1.1100108513909526,
                1.9489129495075401,
                -0.7765168508991953,
                0.41980411190720357,
                2.9981732988600056
            ]
        },
        {
            "positions": [
                -1.0956434195756422,
                -1.1222307156061395,
                2.0174780136397765,
                -0.8460591207257131,
                0.4750752661569831,
                3.1500420443116965
            ]
        }
    ]
}