{
    "goal": {
        "global_pose": {
            "orientation": {
                "w": 0.7031023480610252,
                "x": -0.7110244013736278,
                "y": 0.0077485991402295624,
                "z": 0.005598929693374583
            },
            "position": {
                "x": -0.8841497679147869,
                "y": 0.44412534475326537,
                "z": 0.3711530566215515
            }
        },
        "name": "move_to_auspresseinheit_D"
    },
    "id": "PRM_move_to_auspresseinheit_D_113",
    "joint_names": [
        "shoulder_pan_joint",
        "shoulder_lift_joint",
        "elbow_joint",
        "wrist_1_joint",
        "wrist_2_joint",
        "wrist_3_joint"
    ],
    "metrics": {
        "cart_traj_len": 0.34453318999443167,
        "distance_elbow_joint": 0.6699922544498562,
        "distance_shoulder_lift_joint": 0.13905755263804798,
        "distance_shoulder_pan_joint": 0.13331394231613636,
        "distance_wrist_1_joint": 0.6291073192870105,
        "distance_wrist_2_joint": 1.4442956066453543,
        "distance_wrist_3_joint": 0.08386702139580127,
        "smoothness": 0.0,
        "time": 0.017233855,
        "traj_len": 1.7605776599548817,
        "weighted_distance": 2.311010745422049
    },
    "planner": "PRM",
    "start": {
        "state": {
            "elbow_joint": -1.8275523626775212,
            "shoulder_lift_joint": -2.126789852344167,
            "shoulder_pan_joint": -0.03513704404078235,
            "wrist_1_joint": -2.347782403156801,
            "wrist_2_joint": -1.6058999987535132,
            "wrist_3_joint": -3.0880379163319196
        }
    },
    "waypoints": [
        {
            "positions": [
                -0.03513704404078235,
                -2.126789852344167,
                -1.8275523626775212,
                -2.347782403156801,
                -1.6058999987535132,
                -3.0880379163319196
            ]
        },
        {
            "positions": [
                -0.051801286830299394,
                -2.1441720464239227,
                -1.7438033308712892,
                -2.426420818067677,
                -1.4253630479228439,
                -3.0775545386574445
            ]
        },
        {
            "positions": [
                -0.06846552961981645,
                -2.161554240503679,
                -1.660054299065057,
                -2.5050592329785535,
                -1.2448260970921745,
                -3.0670711609829695
            ]
        },
        {
            "positions": [
                -0.08512977240933348,
                -2.1789364345834348,
                -1.5763052672588251,
                -2.58369764788943,
                -1.0642891462615054,
                -3.056587783308494
            ]
        },
        {
            "positions": [
                -0.10179401519885053,
                -2.1963186286631906,
                -1.492556235452593,
                -2.662336062800306,
                -0.883752195430836,
                -3.046104405634019
            ]
        },
        {
            "positions": [
                -0.11845825798836757,
                -2.213700822742947,
                -1.408807203646361,
                -2.740974477711182,
                -0.7032152446001667,
                -3.035621027959544
            ]
        },
        {
            "positions": [
                -0.13512250077788462,
                -2.2310830168227027,
                -1.325058171840129,
                -2.8196128926220587,
                -0.5226782937694976,
                -3.0251376502850684
            ]
        },
        {
            "positions": [
                -0.15178674356740166,
                -2.248465210902459,
                -1.2413091400338971,
                -2.8982513075329353,
                -0.34214134293882825,
                -3.0146542726105934
            ]
        },
        {
            "positions": [
                -0.1684509863569187,
                -2.265847404982215,
                -1.157560108227665,
                -2.9768897224438113,
                -0.16160439210815897,
                -3.0041708949361183
            ]
        }
    ]
}