{
    "goal": {
        "global_pose": {
            "orientation": {
                "w": -0.00223480608172531,
                "x": 0.0024358444001904467,
                "y": 0.7094548369677653,
                "z": -0.704743149386269
            },
            "position": {
                "x": -0.37947507619857795,
                "y": -0.6371506643295288,
                "z": 0.19426114857196808
            }
        },
        "name": "move_to_magneteinheit_C"
    },
    "id": "PRM_move_to_magneteinheit_C_91",
    "joint_names": [
        "shoulder_pan_joint",
        "shoulder_lift_joint",
        "elbow_joint",
        "wrist_1_joint",
        "wrist_2_joint",
        "wrist_3_joint"
    ],
    "metrics": {
        "cart_traj_len": 1.0269441787309652,
        "distance_elbow_joint": 0.4269011307106956,
        "distance_shoulder_lift_joint": 0.46642604530392284,
        "distance_shoulder_pan_joint": 1.1666014709393326,
        "distance_wrist_1_joint": 1.8194191290278796,
        "distance_wrist_2_joint": 3.5633634947287876,
        "distance_wrist_3_joint": 1.6445064106077916,
        "smoothness": 1.5912082740916131,
        "time": 1.274480566,
        "traj_len": 3.014501232595271,
        "weighted_distance": 4.214144412130493
    },
    "planner": "PRM",
    "start": {
        "state": {
            "elbow_joint": 1.9565354010623817,
            "shoulder_lift_joint": -1.4165861575791021,
            "shoulder_pan_joint": -1.6717766225146293,
            "wrist_1_joint": -0.5286633292919765,
            "wrist_2_joint": 1.472756589071564,
            "wrist_3_joint": -3.1238370188695823
        }
    },
    "waypoints": [
        {
            "positions": [
                -1.6717766225146293,
                -1.4165861575791021,
                1.9565354010623817,
                -0.5286633292919765,
                1.472756589071564,
                -3.1238370188695823
            ]
        },
        {
            "positions": [
                -1.6485313570465243,
                -1.409203010868476,
                1.9535757349196352,
                -0.48474688912188274,
                1.4289746973246404,
                -3.122434751424166
            ]
        },
        {
            "positions": [
                -1.5937685167949205,
                -1.3663479768128743,
                1.958331628367449,
                -0.5021035094363675,
                1.3773990687533626,
                -3.08474556471006
            ]
        },
        {
            "positions": [
                -1.5390056765433164,
                -1.3234929427572728,
                1.963087521815263,
                -0.5194601297508523,
                1.3258234401820848,
                -3.047056377995954
            ]
        },
        {
            "positions": [
                -1.58860641786221,
                -1.332394037808652,
                1.9823850055762426,
                -0.4605287365690045,
                1.155974105582901,
                -2.985479071563576
            ]
        },
        {
            "positions": [
                -1.6382071591811034,
                -1.3412951328600313,
                2.001682489337222,
                -0.40159734338715675,
                0.986124770983717,
                -2.9239017651311983
            ]
        },
        {
            "positions": [
                -1.687807900499997,
                -1.3501962279114106,
                2.0209799730982017,
                -0.34266595020530893,
                0.816275436384533,
                -2.8623244586988204
            ]
        },
        {
            "positions": [
                -1.7374086418188905,
                -1.35909732296279,
                2.0402774568591813,
                -0.2837345570234612,
                0.6464261017853492,
                -2.800747152266443
            ]
        },
        {
            "positions": [
                -1.787009383137784,
                -1.3679984180141693,
                2.0595749406201604,
                -0.2248031638416133,
                0.47657676718616515,
                -2.739169845834065
            ]
        },
        {
            "positions": [
                -1.8366101244566775,
                -1.3768995130655486,
                2.07887242438114,
                -0.16587177065976555,
                0.3067274325869813,
                -2.677592539401687
            ]
        },
        {
            "positions": [
                -1.886210865775571,
                -1.3858006081169278,
                2.0981699081421197,
                -0.10694037747791774,
                0.13687809798779726,
                -2.616015232969309
            ]
        },
        {
            "positions": [
                -1.9358116070944644,
                -1.394701703168307,
                2.1174673919030993,
                -0.04800898429606998,
                -0.032971236611386345,
                -2.5544379265369312
            ]
        },
        {
            "positions": [
                -1.985412348413358,
                -1.4036027982196866,
                2.136764875664079,
                0.010922408885777779,
                -0.2028205712105704,
                -2.492860620104554
            ]
        },
        {
            "positions": [
                -2.0350130897322516,
                -1.4125038932710658,
                2.156062359425058,
                0.0698538020676257,
                -0.37266990580975445,
                -2.431283313672176
            ]
        },
        {
            "positions": [
                -2.084613831051145,
                -1.421404988322445,
                2.1753598431860377,
                0.1287851952494734,
                -0.5425192404089381,
                -2.369706007239798
            ]
        },
        {
            "positions": [
                -2.1342145723700385,
                -1.4303060833738244,
                2.1946573269470173,
                0.1877165884313212,
                -0.712368575008122,
                -2.30812870080742
            ]
        },
        {
            "positions": [
                -2.177442357099957,
                -1.416956744382333,
                2.179066869426828,
                0.07544779828239187,
                -0.5871363427926298,
                -2.374755511111913
            ]
        },
        {
            "positions": [
                -2.220670141829875,
                -1.4036074053908416,
                2.163476411906639,
                -0.03682099186653745,
                -0.46190411057713765,
                -2.4413823214164063
            ]
        },
        {
            "positions": [
                -2.263897926559794,
                -1.3902580663993502,
                2.14788595438645,
                -0.14908978201546677,
                -0.33667187836164547,
                -2.5080091317208995
            ]
        },
        {
            "positions": [
                -2.307125711289712,
                -1.3769087274078589,
                2.132295496866261,
                -0.26135857216439606,
                -0.2114396461461533,
                -2.5746359420253926
            ]
        },
        {
            "positions": [
                -2.3503534960196304,
                -1.3635593884163673,
                2.116705039346072,
                -0.3736273623133255,
                -0.08620741393066111,
                -2.6412627523298857
            ]
        },
        {
            "positions": [
                -2.3935812807495487,
                -1.3502100494248759,
                2.101114581825883,
                -0.4858961524622547,
                0.039024818284831064,
                -2.707889562634379
            ]
        },
        {
            "positions": [
                -2.4368090654794674,
                -1.3368607104333845,
                2.0855241243056937,
                -0.5981649426111841,
                0.16425705050032324,
                -2.774516372938872
            ]
        },
        {
            "positions": [
                -2.4800368502093857,
                -1.3235113714418931,
                2.069933666785505,
                -0.7104337327601133,
                0.2894892827158154,
                -2.841143183243365
            ]
        },
        {
            "positions": [
                -2.523264634939304,
                -1.3101620324504017,
                2.0543432092653156,
                -0.8227025229090428,
                0.41472151493130766,
                -2.9077699935478583
            ]
        },
        {
            "positions": [
                -2.498478851653288,
                -1.2369742129793422,
                2.0330703318358827,
                -0.8342993322621821,
                0.5402956352861435,
                -3.0223483934504536
            ]
        },
        {
            "positions": [
                -2.4736930683672718,
                -1.1637863935082824,
                2.0117974544064503,
                -0.8458961416153215,
                0.6658697556409795,
                -3.1369267933530494
            ]
        }
    ]
}