{
    "goal": {
        "global_pose": {
            "orientation": {
                "w": 0.005598929693374612,
                "x": 0.007748599140229565,
                "y": 0.7110244013736278,
                "z": -0.7031023480610252
            },
            "position": {
                "x": 0.1141497679147869,
                "y": -0.7141253447532654,
                "z": 0.3711530566215515
            }
        },
        "name": "move_to_auspresseinheit_B"
    },
    "id": "PRM_move_to_auspresseinheit_B_67",
    "joint_names": [
        "shoulder_pan_joint",
        "shoulder_lift_joint",
        "elbow_joint",
        "wrist_1_joint",
        "wrist_2_joint",
        "wrist_3_joint"
    ],
    "metrics": {
        "cart_traj_len": 0.5642169018205109,
        "distance_elbow_joint": 0.06143720907122585,
        "distance_shoulder_lift_joint": 0.2943350324927665,
        "distance_shoulder_pan_joint": 0.5764528744808435,
        "distance_wrist_1_joint": 0.3255318965659073,
        "distance_wrist_2_joint": 0.9973462585771911,
        "distance_wrist_3_joint": 2.549715802802055e-05,
        "smoothness": 5.075305255429287e-16,
        "time": 0.031153793,
        "traj_len": 1.501708616325405,
        "weighted_distance": 1.8915755120547306
    },
    "planner": "PRM",
    "start": {
        "state": {
            "elbow_joint": 2.0193083361928714,
            "shoulder_lift_joint": -1.1220246554650708,
            "shoulder_pan_joint": -1.0952077554168747,
            "wrist_1_joint": -0.8559753972642168,
            "wrist_2_joint": 0.4759566250798843,
            "wrist_3_joint": -3.1240929996934557
        }
    },
    "waypoints": [
        {
            "positions": [
                -1.0952077554168747,
                -1.1220246554650708,
                2.0193083361928714,
                -0.8559753972642168,
                0.4759566250798843,
                -3.1240929996934557
            ]
        },
        {
            "positions": [
                -1.1912832344970152,
                -1.1710804942138653,
                2.009068801347667,
                -0.8017200811698989,
                0.6421810015094161,
                -3.1240887501671177
            ]
        },
        {
            "positions": [
                -1.2873587135771558,
                -1.2201363329626596,
                1.9988292665024627,
                -0.747464765075581,
                0.808405377938948,
                -3.12408450064078
            ]
        },
        {
            "positions": [
                -1.3834341926572964,
                -1.269192171711454,
                1.9885897316572585,
                -0.6932094489812631,
                0.9746297543684799,
                -3.1240802511144414
            ]
        },
        {
            "positions": [
                -1.479509671737437,
                -1.3182480104602485,
                1.9783501968120543,
                -0.6389541328869452,
                1.1408541307980116,
                -3.1240760015881035
            ]
        },
        {
            "positions": [
                -1.5755851508175776,
                -1.3673038492090428,
                1.9681106619668498,
                -0.5846988167926274,
                1.3070785072275435,
                -3.1240717520617656
            ]
        },
        {
            "positions": [
                -1.6716606298977181,
                -1.4163596879578373,
                1.9578711271216456,
                -0.5304435006983095,
                1.4733028836570754,
                -3.1240675025354276
            ]
        }
    ]
}