{
    "goal": {
        "global_pose": {
            "orientation": {
                "w": 0.005598929693374612,
                "x": 0.007748599140229565,
                "y": 0.7110244013736278,
                "z": -0.7031023480610252
            },
            "position": {
                "x": -0.8858502320852131,
                "y": -0.7141253447532654,
                "z": 0.3711530566215515
            }
        },
        "name": "move_to_auspresseinheit_C"
    },
    "id": "PRM_move_to_auspresseinheit_C_37",
    "joint_names": [
        "shoulder_pan_joint",
        "shoulder_lift_joint",
        "elbow_joint",
        "wrist_1_joint",
        "wrist_2_joint",
        "wrist_3_joint"
    ],
    "metrics": {
        "cart_traj_len": 0.4936027343788856,
        "distance_elbow_joint": 1.0123264986726128,
        "distance_shoulder_lift_joint": 0.33041804650786955,
        "distance_shoulder_pan_joint": 0.2560968419911389,
        "distance_wrist_1_joint": 0.7067922502817623,
        "distance_wrist_2_joint": 1.3084540012260404,
        "distance_wrist_3_joint": 0.08167952422144076,
        "smoothness": 3.2297397335745243e-16,
        "time": 0.020140724,
        "traj_len": 1.9224378176942067,
        "weighted_distance": 2.4237104742216116
    },
    "planner": "PRM",
    "start": {
        "state": {
            "elbow_joint": 1.7527959577737207,
            "shoulder_lift_joint": -0.9740617694225068,
            "shoulder_pan_joint": -2.967991417825858,
            "wrist_1_joint": -0.759517768980727,
            "wrist_2_joint": 1.7443932448377408,
            "wrist_3_joint": -3.0840537646736568
        }
    },
    "waypoints": [
        {
            "positions": [
                -2.967991417825858,
                -0.9740617694225068,
                1.7527959577737207,
                -0.759517768980727,
                1.7443932448377408,
                -3.0840537646736568
            ]
        },
        {
            "positions": [
                -2.942381733626744,
                -0.9410199647717198,
                1.6515633079064593,
                -0.6888385439525507,
                1.6135478447151368,
                -3.092221717095801
            ]
        },
        {
            "positions": [
                -2.9167720494276304,
                -0.9079781601209329,
                1.550330658039198,
                -0.6181593189243745,
                1.4827024445925328,
                -3.100389669517945
            ]
        },
        {
            "positions": [
                -2.8911623652285163,
                -0.8749363554701459,
                1.449098008171937,
                -0.5474800938961983,
                1.3518570444699287,
                -3.108557621940089
            ]
        },
        {
            "positions": [
                -2.8655526810294023,
                -0.8418945508193589,
                1.3478653583046756,
                -0.47680086886802203,
                1.2210116443473247,
                -3.116725574362233
            ]
        },
        {
            "positions": [
                -2.8399429968302883,
                -0.808852746168572,
                1.2466327084374142,
                -0.40612164383984584,
                1.0901662442247206,
                -3.124893526784377
            ]
        },
        {
            "positions": [
                -2.8143333126311747,
                -0.7758109415177851,
                1.1454000585701531,
                -0.33544241881166964,
                0.9593208441021166,
                -3.1330614792065212
            ]
        },
        {
            "positions": [
                -2.7887236284320607,
                -0.7427691368669981,
                1.0441674087028918,
                -0.2647631937834934,
                0.8284754439795127,
                -3.1412294316286653
            ]
        },
        {
            "positions": [
                -2.7631139442329467,
                -0.7097273322162112,
                0.9429347588356304,
                -0.19408396875531708,
                0.6976300438569085,
                -3.1493973840508094
            ]
        },
        {
            "positions": [
                -2.737504260033833,
                -0.6766855275654242,
                0.8417021089683691,
                -0.12340474372714094,
                0.5667846437343045,
                -3.1575653364729535
            ]
        },
        {
            "positions": [
                -2.711894575834719,
                -0.6436437229146372,
                0.740469459101108,
                -0.05272551869896467,
                0.43593924361170056,
                -3.1657332888950975
            ]
        }
    ]
}