{
    "goal": {
        "global_pose": {
            "orientation": {
                "w": -0.00223480608172531,
                "x": 0.0024358444001904467,
                "y": 0.7094548369677653,
                "z": -0.704743149386269
            },
            "position": {
                "x": -0.37947507619857795,
                "y": -0.6371506643295288,
                "z": 0.19426114857196808
            }
        },
        "name": "move_to_magneteinheit_C"
    },
    "id": "PRM_move_to_magneteinheit_C_121",
    "joint_names": [
        "shoulder_pan_joint",
        "shoulder_lift_joint",
        "elbow_joint",
        "wrist_1_joint",
        "wrist_2_joint",
        "wrist_3_joint"
    ],
    "metrics": {
        "cart_traj_len": 1.9912319243428989,
        "distance_elbow_joint": 1.329604100512161,
        "distance_shoulder_lift_joint": 1.0038483716073558,
        "distance_shoulder_pan_joint": 2.2829180999332124,
        "distance_wrist_1_joint": 1.3573239666437487,
        "distance_wrist_2_joint": 1.7174859140896912,
        "distance_wrist_3_joint": 2.4902759079648846,
        "smoothness": 1.0837421202677329,
        "time": 0.217180264,
        "traj_len": 3.190839444527264,
        "weighted_distance": 4.270458764279812
    },
    "planner": "PRM",
    "start": {
        "state": {
            "elbow_joint": 1.9565354010623817,
            "shoulder_lift_joint": -1.4165861575791021,
            "shoulder_pan_joint": -1.6717766225146293,
            "wrist_1_joint": -0.5286633292919765,
            "wrist_2_joint": 1.472756589071564,
            "wrist_3_joint": -3.1238370188695823
        }
    },
    "waypoints": [
        {
            "positions": [
                -1.6717766225146293,
                -1.4165861575791021,
                1.9565354010623817,
                -0.5286633292919765,
                1.472756589071564,
                -3.1238370188695823
            ]
        },
        {
            "positions": [
                -1.5791853563460851,
                -1.4067678504911265,
                1.8931606560339374,
                -0.4638574495547584,
                1.3632012930905018,
                -3.075834249975614
            ]
        },
        {
            "positions": [
                -1.486594090177541,
                -1.3969495434031511,
                1.829785911005493,
                -0.39905156981754025,
                1.2536459971094394,
                -3.0278314810816456
            ]
        },
        {
            "positions": [
                -1.3940028240089968,
                -1.3871312363151755,
                1.766411165977049,
                -0.3342456900803221,
                1.144090701128377,
                -2.979828712187677
            ]
        },
        {
            "positions": [
                -1.3014115578404526,
                -1.3773129292272,
                1.7030364209486046,
                -0.26943981034310405,
                1.0345354051473148,
                -2.931825943293709
            ]
        },
        {
            "positions": [
                -1.2088202916719084,
                -1.3674946221392246,
                1.6396616759201603,
                -0.20463393060588597,
                0.9249801091662525,
                -2.88382317439974
            ]
        },
        {
            "positions": [
                -1.1162290255033644,
                -1.357676315051249,
                1.5762869308917162,
                -0.13982805086866784,
                0.8154248131851902,
                -2.8358204055057716
            ]
        },
        {
            "positions": [
                -1.0236377593348203,
                -1.3478580079632736,
                1.512912185863272,
                -0.07502217113144971,
                0.7058695172041279,
                -2.7878176366118033
            ]
        },
        {
            "positions": [
                -0.931046493166276,
                -1.338039700875298,
                1.4495374408348276,
                -0.010216291394231603,
                0.5963142212230657,
                -2.739814867717835
            ]
        },
        {
            "positions": [
                -1.033631385404175,
                -1.3756172830460234,
                1.5039353487460907,
                -0.07452915856024106,
                0.6375913517908737,
                -2.6547086991766617
            ]
        },
        {
            "positions": [
                -1.1362162776420741,
                -1.4131948652167488,
                1.5583332566573538,
                -0.1388420257262505,
                0.6788684823586818,
                -2.569602530635489
            ]
        },
        {
            "positions": [
                -1.238801169879973,
                -1.450772447387474,
                1.6127311645686169,
                -0.20315489289225994,
                0.7201456129264898,
                -2.484496362094316
            ]
        },
        {
            "positions": [
                -1.3413860621178721,
                -1.4883500295581993,
                1.66712907247988,
                -0.2674677600582694,
                0.761422743494298,
                -2.3993901935531428
            ]
        },
        {
            "positions": [
                -1.443970954355771,
                -1.5259276117289247,
                1.7215269803911428,
                -0.3317806272242788,
                0.802699874062106,
                -2.31428402501197
            ]
        },
        {
            "positions": [
                -1.5465558465936702,
                -1.56350519389965,
                1.775924888302406,
                -0.39609349439028824,
                0.843977004629914,
                -2.2291778564707974
            ]
        },
        {
            "positions": [
                -1.6491407388315693,
                -1.6010827760703754,
                1.830322796213669,
                -0.46040636155629766,
                0.8852541351977221,
                -2.144071687929624
            ]
        },
        {
            "positions": [
                -1.7517256310694682,
                -1.6386603582411006,
                1.884720704124932,
                -0.5247192287223073,
                0.9265312657655302,
                -2.058965519388451
            ]
        },
        {
            "positions": [
                -1.8543105233073673,
                -1.676237940411826,
                1.9391186120361952,
                -0.5890320958883166,
                0.9678083963333382,
                -1.9738593508472781
            ]
        },
        {
            "positions": [
                -1.9568954155452665,
                -1.7138155225825513,
                1.9935165199474583,
                -0.6533449630543261,
                1.0090855269011463,
                -1.8887531823061052
            ]
        },
        {
            "positions": [
                -2.0367307859424226,
                -1.7139733046928243,
                2.0311320752248103,
                -0.6919667456963596,
                1.0422502392971325,
                -1.9131979978651357
            ]
        },
        {
            "positions": [
                -2.1561246288433358,
                -1.6683945169880505,
                2.068729244539458,
                -0.7426937564625713,
                1.0479181754469324,
                -2.043398362572259
            ]
        },
        {
            "positions": [
                -2.275518471744249,
                -1.6228157292832766,
                2.106326413854106,
                -0.7934207672287829,
                1.0535861115967322,
                -2.173598727279382
            ]
        },
        {
            "positions": [
                -2.394912314645162,
                -1.5772369415785028,
                2.1439235831687533,
                -0.8441477779949945,
                1.0592540477465322,
                -2.3037990919865057
            ]
        },
        {
            "positions": [
                -2.410576744466357,
                -1.494710551984162,
                2.1182795835786172,
                -0.8451368664240428,
                0.9836333038029869,
                -2.471828324330707
            ]
        },
        {
            "positions": [
                -2.426241174287551,
                -1.4121841623898213,
                2.0926355839884807,
                -0.8461259548530912,
                0.9080125598594415,
                -2.6398575566749085
            ]
        },
        {
            "positions": [
                -2.441905604108746,
                -1.3296577727954804,
                2.0669915843983446,
                -0.8471150432821394,
                0.8323918159158963,
                -2.80788678901911
            ]
        },
        {
            "positions": [
                -2.4575700339299402,
                -1.2471313832011397,
                2.041347584808208,
                -0.8481041317111877,
                0.7567710719723508,
                -2.9759160213633113
            ]
        },
        {
            "positions": [
                -2.473234463751135,
                -1.1646049936067988,
                2.015703585218072,
                -0.849093220140236,
                0.6811503280288056,
                -3.1439452537075128
            ]
        }
    ]
}