{
    "goal": {
        "global_pose": {
            "orientation": {
                "w": -0.00223480608172531,
                "x": 0.0024358444001904467,
                "y": 0.7094548369677653,
                "z": -0.704743149386269
            },
            "position": {
                "x": 0.6205249238014221,
                "y": -0.6371506643295288,
                "z": 0.19426114857196808
            }
        },
        "name": "move_to_magneteinheit_B"
    },
    "id": "PRM_move_to_magneteinheit_B_134",
    "joint_names": [
        "shoulder_pan_joint",
        "shoulder_lift_joint",
        "elbow_joint",
        "wrist_1_joint",
        "wrist_2_joint",
        "wrist_3_joint"
    ],
    "metrics": {
        "cart_traj_len": 3.7432037018614763,
        "distance_elbow_joint": 6.027986785063752,
        "distance_shoulder_lift_joint": 2.9361691822144396,
        "distance_shoulder_pan_joint": 3.9228096092039633,
        "distance_wrist_1_joint": 8.039128922846716,
        "distance_wrist_2_joint": 6.7441611371466585,
        "distance_wrist_3_joint": 5.445163069787613,
        "smoothness": 0.609660037790212,
        "time": 0.703480544,
        "traj_len": 5.754599786802131,
        "weighted_distance": 7.667400792043663
    },
    "planner": "PRM",
    "start": {
        "state": {
            "elbow_joint": 2.6216224122426386,
            "shoulder_lift_joint": -1.4174107377796124,
            "shoulder_pan_joint": 0.7066234856936794,
            "wrist_1_joint": 1.9546482284002225,
            "wrist_2_joint": -0.7096286983471962,
            "wrist_3_joint": 0.005740856962016249
        }
    },
    "waypoints": [
        {
            "positions": [
                0.7066234856936794,
                -1.4174107377796124,
                2.6216224122426386,
                1.9546482284002225,
                -0.7096286983471962,
                0.005740856962016249
            ]
        },
        {
            "positions": [
                0.6693769542355958,
                -1.4356102110520677,
                2.6279446186554223,
                1.8878053378556554,
                -0.6698626856666803,
                0.05228453256947294
            ]
        },
        {
            "positions": [
                0.6321304227775124,
                -1.453809684324523,
                2.634266825068206,
                1.8209624473110884,
                -0.6300966729861643,
                0.09882820817692964
            ]
        },
        {
            "positions": [
                0.5494635653511003,
                -1.5420418117907524,
                2.6186873534597988,
                1.8666486184942128,
                -0.5686184636980284,
                0.1883650475175283
            ]
        },
        {
            "positions": [
                0.4667967079246882,
                -1.6302739392569818,
                2.6031078818513915,
                1.9123347896773373,
                -0.5071402544098924,
                0.277901886858127
            ]
        },
        {
            "positions": [
                0.3841298504982762,
                -1.718506066723211,
                2.5875284102429847,
                1.9580209608604617,
                -0.44566204512175656,
                0.36743872619872564
            ]
        },
        {
            "positions": [
                0.301462993071864,
                -1.8067381941894405,
                2.5719489386345775,
                2.003707132043586,
                -0.3841838358336206,
                0.4569755655393243
            ]
        },
        {
            "positions": [
                0.21879613564545197,
                -1.89497032165567,
                2.5563694670261703,
                2.0493933032267106,
                -0.3227056265454847,
                0.5465124048799229
            ]
        },
        {
            "positions": [
                0.13612927821903992,
                -1.9832024491218991,
                2.540789995417763,
                2.095079474409835,
                -0.26122741725734877,
                0.6360492442205216
            ]
        },
        {
            "positions": [
                0.05346242079262775,
                -2.0714345765881284,
                2.525210523809356,
                2.1407656455929596,
                -0.1997492079692128,
                0.7255860835611202
            ]
        },
        {
            "positions": [
                -0.02920443663378436,
                -2.159666704054358,
                2.5096310522009486,
                2.186451816776084,
                -0.13827099868107684,
                0.815122922901719
            ]
        },
        {
            "positions": [
                -0.11187129406019647,
                -2.2478988315205877,
                2.494051580592542,
                2.2321379879592085,
                -0.07679278939294087,
                0.9046597622423176
            ]
        },
        {
            "positions": [
                -0.19453815148660847,
                -2.336130958986817,
                2.4784721089841346,
                2.277824159142333,
                -0.01531458010480502,
                0.9941966015829162
            ]
        },
        {
            "positions": [
                -0.2772050089130206,
                -2.424363086453046,
                2.4628926373757274,
                2.3235103303254574,
                0.046163629183330945,
                1.0837334409235149
            ]
        },
        {
            "positions": [
                -0.23380084018923264,
                -2.403550109337978,
                2.3521062355849267,
                2.226367696372785,
                -0.015738701395902242,
                1.0234460699671755
            ]
        },
        {
            "positions": [
                -0.19039667146544467,
                -2.38273713222291,
                2.2413198337941265,
                2.129225062420112,
                -0.07764103197513543,
                0.9631586990108363
            ]
        },
        {
            "positions": [
                -0.14699250274165673,
                -2.3619241551078423,
                2.130533432003326,
                2.0320824284674397,
                -0.1395433625543686,
                0.902871328054497
            ]
        },
        {
            "positions": [
                -0.10358833401786877,
                -2.341111177992774,
                2.0197470302125256,
                1.9349397945147673,
                -0.2014456931336018,
                0.8425839570981577
            ]
        },
        {
            "positions": [
                -0.06018416529408083,
                -2.3202982008777058,
                1.9089606284217249,
                1.8377971605620946,
                -0.26334802371283494,
                0.7822965861418185
            ]
        },
        {
            "positions": [
                -0.016779996570292888,
                -2.299485223762638,
                1.7981742266309244,
                1.740654526609422,
                -0.32525035429206817,
                0.7220092151854791
            ]
        },
        {
            "positions": [
                0.026624172153495107,
                -2.27867224664757,
                1.687387824840124,
                1.6435118926567496,
                -0.38715268487130133,
                0.6617218442291398
            ]
        },
        {
            "positions": [
                0.07002834087728305,
                -2.257859269532502,
                1.5766014230493233,
                1.546369258704077,
                -0.44905501545053456,
                0.6014344732728005
            ]
        },
        {
            "positions": [
                0.11343250960107099,
                -2.2370462924174337,
                1.4658150212585228,
                1.4492266247514043,
                -0.5109573460297677,
                0.5411471023164612
            ]
        },
        {
            "positions": [
                0.15683667832485892,
                -2.216233315302366,
                1.3550286194677224,
                1.3520839907987319,
                -0.5728596766090008,
                0.48085973136012206
            ]
        },
        {
            "positions": [
                0.20024084704864686,
                -2.195420338187298,
                1.244242217676922,
                1.2549413568460592,
                -0.6347620071882341,
                0.42057236040378265
            ]
        },
        {
            "positions": [
                0.2436450157724348,
                -2.17460736107223,
                1.1334558158861214,
                1.1577987228933868,
                -0.6966643377674673,
                0.36028498944744336
            ]
        },
        {
            "positions": [
                0.28704918449622274,
                -2.1537943839571616,
                1.022669414095321,
                1.0606560889407142,
                -0.7585666683467004,
                0.2999976184911042
            ]
        },
        {
            "positions": [
                0.3304533532200108,
                -2.132981406842094,
                0.9118830123045203,
                0.9635134549880415,
                -0.8204689989259336,
                0.23971024753476478
            ]
        },
        {
            "positions": [
                0.3738575219437986,
                -2.112168429727026,
                0.8010966105137198,
                0.8663708210353691,
                -0.8823713295051667,
                0.1794228765784256
            ]
        },
        {
            "positions": [
                0.41726169066758667,
                -2.0913554526119578,
                0.6903102087229191,
                0.7692281870826965,
                -0.9442736600844001,
                0.11913550562208619
            ]
        },
        {
            "positions": [
                0.4606658593913746,
                -2.0705424754968895,
                0.5795238069321189,
                0.672085553130024,
                -1.0061759906636332,
                0.05884813466574701
            ]
        },
        {
            "positions": [
                0.5040700281151625,
                -2.0497294983818217,
                0.46873740514131823,
                0.5749429191773512,
                -1.0680783212428664,
                -0.0014392362905923939
            ]
        },
        {
            "positions": [
                0.5474741968389505,
                -2.028916521266754,
                0.357951003350518,
                0.47780028522467877,
                -1.1299806518220996,
                -0.061726607246931575
            ]
        },
        {
            "positions": [
                0.5908783655627384,
                -2.0081035441516857,
                0.2471646015597173,
                0.38065765127200635,
                -1.1918829824013326,
                -0.12201397820327076
            ]
        },
        {
            "positions": [
                0.6342825342865264,
                -1.9872905670366177,
                0.13637819976891663,
                0.2835150173193335,
                -1.2537853129805658,
                -0.18230134915961016
            ]
        },
        {
            "positions": [
                0.6776867030103143,
                -1.9664775899215496,
                0.025591797978116393,
                0.18637238336666107,
                -1.315687643559799,
                -0.24258872011594956
            ]
        },
        {
            "positions": [
                0.7210908717341022,
                -1.9456646128064816,
                -0.08519460381268384,
                0.08922974941398865,
                -1.377589974139032,
                -0.30287609107228874
            ]
        },
        {
            "positions": [
                0.7644950404578902,
                -1.9248516356914136,
                -0.19598100560348453,
                -0.007912884538683773,
                -1.4394923047182655,
                -0.36316346202862815
            ]
        },
        {
            "positions": [
                0.8078992091816782,
                -1.9040386585763456,
                -0.3067674073942852,
                -0.10505551849135664,
                -1.5013946352974987,
                -0.42345083298496755
            ]
        },
        {
            "positions": [
                0.8513033779054661,
                -1.8832256814612776,
                -0.41755380918508544,
                -0.20219815244402906,
                -1.5632969658767317,
                -0.4837382039413065
            ]
        },
        {
            "positions": [
                0.8947075466292541,
                -1.8624127043462095,
                -0.5283402109758861,
                -0.2993407863967015,
                -1.625199296455965,
                -0.5440255748976459
            ]
        },
        {
            "positions": [
                0.9381117153530422,
                -1.8415997272311415,
                -0.6391266127666868,
                -0.39648342034937434,
                -1.6871016270351982,
                -0.6043129458539853
            ]
        },
        {
            "positions": [
                0.98151588407683,
                -1.8207867501160735,
                -0.7499130145574875,
                -0.49362605430204676,
                -1.7490039576144314,
                -0.6646003168103247
            ]
        },
        {
            "positions": [
                1.024920052800618,
                -1.7999737730010055,
                -0.8606994163482877,
                -0.5907686882547192,
                -1.8109062881936644,
                -0.7248876877666637
            ]
        },
        {
            "positions": [
                1.068324221524406,
                -1.7791607958859375,
                -0.9714858181390884,
                -0.687911322207392,
                -1.8728086187728976,
                -0.7851750587230031
            ]
        },
        {
            "positions": [
                1.111728390248194,
                -1.7583478187708694,
                -1.082272219929889,
                -0.7850539561600645,
                -1.934710949352131,
                -0.8454624296793425
            ]
        },
        {
            "positions": [
                1.1551325589719816,
                -1.7375348416558014,
                -1.1930586217206889,
                -0.8821965901127369,
                -1.996613279931364,
                -0.9057498006356817
            ]
        },
        {
            "positions": [
                1.1985367276957697,
                -1.7167218645407334,
                -1.3038450235114896,
                -0.9793392240654093,
                -2.0585156105105975,
                -0.9660371715920208
            ]
        },
        {
            "positions": [
                1.2419408964195577,
                -1.6959088874256654,
                -1.4146314253022902,
                -1.0764818580180822,
                -2.1204179410898307,
                -1.0263245425483605
            ]
        },
        {
            "positions": [
                1.2853450651433458,
                -1.6750959103105973,
                -1.525417827093091,
                -1.173624491970755,
                -2.182320271669064,
                -1.0866119135046997
            ]
        },
        {
            "positions": [
                1.3287492338671334,
                -1.6542829331955293,
                -1.6362042288838907,
                -1.270767125923427,
                -2.2442226022482963,
                -1.1468992844610388
            ]
        },
        {
            "positions": [
                1.3721534025909214,
                -1.6334699560804613,
                -1.7469906306746914,
                -1.3679097598760999,
                -2.3061249328275304,
                -1.207186655417378
            ]
        },
        {
            "positions": [
                1.4155575713147095,
                -1.6126569789653933,
                -1.857777032465492,
                -1.4650523938287723,
                -2.3680272634067636,
                -1.2674740263737176
            ]
        },
        {
            "positions": [
                1.4589617400384975,
                -1.5918440018503253,
                -1.9685634342562928,
                -1.5621950277814447,
                -2.429929593985996,
                -1.3277613973300564
            ]
        },
        {
            "positions": [
                1.5023659087622856,
                -1.5710310247352572,
                -2.0793498360470934,
                -1.6593376617341176,
                -2.491831924565229,
                -1.388048768286396
            ]
        },
        {
            "positions": [
                1.5457700774860732,
                -1.5502180476201892,
                -2.190136237837894,
                -1.7564802956867904,
                -2.5537342551444624,
                -1.4483361392427352
            ]
        },
        {
            "positions": [
                1.5891742462098613,
                -1.5294050705051212,
                -2.300922639628695,
                -1.8536229296394628,
                -2.6156365857236956,
                -1.5086235101990748
            ]
        },
        {
            "positions": [
                1.6325784149336493,
                -1.5085920933900532,
                -2.4117090414194946,
                -1.9507655635921353,
                -2.677538916302929,
                -1.568910881155414
            ]
        },
        {
            "positions": [
                1.6759825836574374,
                -1.4877791162749852,
                -2.5224954432102953,
                -2.0479081975448077,
                -2.739441246882162,
                -1.6291982521117532
            ]
        },
        {
            "positions": [
                1.7111894951583946,
                -1.5232302899665189,
                -2.491831868068878,
                -1.9396411714422024,
                -2.6250568206839247,
                -1.5701182952263661
            ]
        },
        {
            "positions": [
                1.7463964066593518,
                -1.5586814636580526,
                -2.4611682929274608,
                -1.831374145339597,
                -2.5106723944856877,
                -1.5110383383409791
            ]
        },
        {
            "positions": [
                1.7816033181603093,
                -1.5941326373495865,
                -2.430504717786044,
                -1.7231071192369916,
                -2.3962879682874503,
                -1.451958381455592
            ]
        },
        {
            "positions": [
                1.8168102296612665,
                -1.6295838110411203,
                -2.3998411426446267,
                -1.6148400931343863,
                -2.2819035420892133,
                -1.3928784245702048
            ]
        },
        {
            "positions": [
                1.8520171411622237,
                -1.665034984732654,
                -2.3691775675032094,
                -1.506573067031781,
                -2.167519115890976,
                -1.3337984676848178
            ]
        },
        {
            "positions": [
                1.887224052663181,
                -1.7004861584241877,
                -2.338513992361792,
                -1.3983060409291754,
                -2.0531346896927385,
                -1.2747185107994308
            ]
        },
        {
            "positions": [
                1.9224309641641382,
                -1.7359373321157214,
                -2.3078504172203753,
                -1.2900390148265701,
                -1.9387502634945015,
                -1.2156385539140437
            ]
        },
        {
            "positions": [
                1.9576378756650956,
                -1.7713885058072552,
                -2.277186842078958,
                -1.1817719887239648,
                -1.8243658372962641,
                -1.1565585970286567
            ]
        },
        {
            "positions": [
                1.9928447871660528,
                -1.806839679498789,
                -2.246523266937541,
                -1.0735049626213593,
                -1.709981411098027,
                -1.0974786401432697
            ]
        },
        {
            "positions": [
                2.02805169866701,
                -1.8422908531903228,
                -2.2158596917961235,
                -0.965237936518754,
                -1.5955969848997897,
                -1.0383986832578826
            ]
        },
        {
            "positions": [
                2.0632586101679675,
                -1.8777420268818565,
                -2.1851961166547067,
                -0.8569709104161487,
                -1.4812125587015526,
                -0.9793187263724955
            ]
        },
        {
            "positions": [
                2.0984655216689245,
                -1.9131932005733903,
                -2.1545325415132894,
                -0.7487038843135434,
                -1.3668281325033154,
                -0.9202387694871085
            ]
        },
        {
            "positions": [
                2.133672433169882,
                -1.9486443742649242,
                -2.123868966371872,
                -0.6404368582109379,
                -1.252443706305078,
                -0.8611588126017213
            ]
        },
        {
            "positions": [
                2.168879344670839,
                -1.984095547956458,
                -2.093205391230455,
                -0.5321698321083326,
                -1.1380592801068408,
                -0.8020788557163343
            ]
        },
        {
            "positions": [
                2.2040862561717964,
                -2.0195467216479916,
                -2.0625418160890376,
                -0.4239028060057273,
                -1.0236748539086036,
                -0.7429988988309473
            ]
        },
        {
            "positions": [
                2.239293167672754,
                -2.0549978953395254,
                -2.031878240947621,
                -0.31563577990312197,
                -0.9092904277103664,
                -0.6839189419455602
            ]
        },
        {
            "positions": [
                2.274500079173711,
                -2.090449069031059,
                -2.0012146658062036,
                -0.20736875380051667,
                -0.7949060015121292,
                -0.6248389850601732
            ]
        },
        {
            "positions": [
                2.3097069906746683,
                -2.125900242722593,
                -1.9705510906647863,
                -0.09910172769791092,
                -0.6805215753138918,
                -0.565759028174786
            ]
        },
        {
            "positions": [
                2.344913902175626,
                -2.1613514164141265,
                -1.939887515523369,
                0.009165298404694155,
                -0.5661371491156544,
                -0.5066790712893989
            ]
        },
        {
            "positions": [
                2.380120813676583,
                -2.1968025901056603,
                -1.909223940381952,
                0.11743232450729968,
                -0.4517527229174174,
                -0.4475991144040119
            ]
        },
        {
            "positions": [
                2.4153277251775402,
                -2.2322537637971944,
                -1.878560365240535,
                0.2256993506099052,
                -0.33736829671918,
                -0.38851915751862487
            ]
        },
        {
            "positions": [
                2.4505346366784972,
                -2.2677049374887277,
                -1.8478967900991177,
                0.3339663767125103,
                -0.22298387052094304,
                -0.32943920063323784
            ]
        },
        {
            "positions": [
                2.4857415481794547,
                -2.303156111180262,
                -1.8172332149577006,
                0.4422334028151158,
                -0.10859944432270563,
                -0.2703592437478508
            ]
        },
        {
            "positions": [
                2.5209484596804117,
                -2.338607284871795,
                -1.7865696398162836,
                0.5505004289177209,
                0.0057849818755313365,
                -0.21127928686246378
            ]
        },
        {
            "positions": [
                2.556155371181369,
                -2.3740584585633293,
                -1.7559060646748663,
                0.6587674550203264,
                0.12016940807376919,
                -0.15219932997707653
            ]
        },
        {
            "positions": [
                2.5913622826823266,
                -2.409509632254863,
                -1.725242489533449,
                0.7670344811229319,
                0.23455383427200616,
                -0.0931193730916895
            ]
        },
        {
            "positions": [
                2.6265691941832836,
                -2.4449608059463968,
                -1.6945789143920318,
                0.875301507225537,
                0.34893826047024357,
                -0.034039416206302464
            ]
        },
        {
            "positions": [
                2.661776105684241,
                -2.4804119796379305,
                -1.6639153392506147,
                0.9835685333281426,
                0.4633226866684804,
                0.025040540679084677
            ]
        }
    ]
}