{
    "goal": {
        "global_pose": {
            "orientation": {
                "w": 0.7031023502349854,
                "x": -0.7110244035720825,
                "y": 0.007748599164187908,
                "z": 0.005598929710686207
            },
            "position": {
                "x": 0.11585023208521307,
                "y": 0.44412534475326537,
                "z": 0.3711530566215515
            }
        },
        "name": "move_to_auspresseinheit_A"
    },
    "id": "PRM_move_to_auspresseinheit_A_96",
    "joint_names": [
        "shoulder_pan_joint",
        "shoulder_lift_joint",
        "elbow_joint",
        "wrist_1_joint",
        "wrist_2_joint",
        "wrist_3_joint"
    ],
    "metrics": {
        "cart_traj_len": 0.7120011111297505,
        "distance_elbow_joint": 0.12683760870950334,
        "distance_shoulder_lift_joint": 0.7641936744082238,
        "distance_shoulder_pan_joint": 1.0409525884493145,
        "distance_wrist_1_joint": 0.5445337687763951,
        "distance_wrist_2_joint": 0.5331037181095218,
        "distance_wrist_3_joint": 1.7492296252313193,
        "smoothness": 1.0029850338226567,
        "time": 0.158378739,
        "traj_len": 2.1814790816517764,
        "weighted_distance": 3.0553146680878607
    },
    "planner": "PRM",
    "start": {
        "state": {
            "elbow_joint": 2.4225746658250005,
            "shoulder_lift_joint": -1.3736534386056498,
            "shoulder_pan_joint": -0.3378633547517467,
            "wrist_1_joint": -1.0288598680537169,
            "wrist_2_joint": 1.233022673432363,
            "wrist_3_joint": -3.0940220416140027
        }
    },
    "waypoints": [
        {
            "positions": [
                -0.3378633547517467,
                -1.3736534386056498,
                2.4225746658250005,
                -1.0288598680537169,
                1.233022673432363,
                -3.0940220416140027
            ]
        },
        {
            "positions": [
                -0.2803712008326954,
                -1.466546561913351,
                2.429874363890629,
                -1.0107684000326984,
                1.1654564309540465,
                -2.9710966545319946
            ]
        },
        {
            "positions": [
                -0.22287904691364413,
                -1.5594396852210524,
                2.437174061956258,
                -0.9926769320116798,
                1.0978901884757302,
                -2.8481712674499864
            ]
        },
        {
            "positions": [
                -0.1653868929945928,
                -1.6523328085287536,
                2.4444737600218867,
                -0.9745854639906613,
                1.0303239459974136,
                -2.7252458803679787
            ]
        },
        {
            "positions": [
                -0.10789473907554151,
                -1.745225931836455,
                2.4517734580875157,
                -0.9564939959696427,
                0.9627577035190973,
                -2.6023204932859705
            ]
        },
        {
            "positions": [
                -0.050402585156490154,
                -1.8381190551441562,
                2.4590731561531443,
                -0.9384025279486241,
                0.8951914610407807,
                -2.4793951062039623
            ]
        },
        {
            "positions": [
                0.007089568762561116,
                -1.9310121784518575,
                2.4663728542187733,
                -0.9203110599276056,
                0.8276252185624644,
                -2.356469719121954
            ]
        },
        {
            "positions": [
                0.06458172268161244,
                -2.0239053017595587,
                2.473672552284402,
                -0.9022195919065871,
                0.7600589760841479,
                -2.233544332039946
            ]
        },
        {
            "positions": [
                0.17099964118427163,
                -2.0049149998838396,
                2.461049265242718,
                -0.8325706764683762,
                0.7500356392905967,
                -2.381669651316156
            ]
        },
        {
            "positions": [
                0.2774175596869308,
                -1.9859246980081204,
                2.4484259782010347,
                -0.7629217610301653,
                0.7400123024970456,
                -2.529794970592367
            ]
        },
        {
            "positions": [
                0.38383547818959,
                -1.9669343961324013,
                2.435802691159351,
                -0.6932728455919543,
                0.7299889657034946,
                -2.6779202898685774
            ]
        },
        {
            "positions": [
                0.4902533966922492,
                -1.9479440942566821,
                2.423179404117667,
                -0.6236239301537435,
                0.7199656289099434,
                -2.8260456091447876
            ]
        },
        {
            "positions": [
                0.5966713151949085,
                -1.928953792380963,
                2.4105561170759837,
                -0.5539750147155327,
                0.7099422921163923,
                -2.974170928420998
            ]
        },
        {
            "positions": [
                0.7030892336975676,
                -1.9099634905052438,
                2.3979328300343,
                -0.48432609927732173,
                0.6999189553228412,
                -3.1222962476972085
            ]
        }
    ]
}