{
    "goal": {
        "global_pose": {
            "orientation": {
                "w": -0.00223480608172531,
                "x": 0.0024358444001904467,
                "y": 0.7094548369677653,
                "z": -0.704743149386269
            },
            "position": {
                "x": -0.37947507619857795,
                "y": -0.6371506643295288,
                "z": 0.19426114857196808
            }
        },
        "name": "move_to_magneteinheit_C"
    },
    "id": "PRM_move_to_magneteinheit_C_111",
    "joint_names": [
        "shoulder_pan_joint",
        "shoulder_lift_joint",
        "elbow_joint",
        "wrist_1_joint",
        "wrist_2_joint",
        "wrist_3_joint"
    ],
    "metrics": {
        "cart_traj_len": 0.6529304970048527,
        "distance_elbow_joint": 0.17950464083373152,
        "distance_shoulder_lift_joint": 0.3048885972104334,
        "distance_shoulder_pan_joint": 0.9296342900388457,
        "distance_wrist_1_joint": 1.0391541727075269,
        "distance_wrist_2_joint": 1.7693320728471964,
        "distance_wrist_3_joint": 0.22274229101532583,
        "smoothness": 1.4405497741163782,
        "time": 0.519505339,
        "traj_len": 2.1083775906258015,
        "weighted_distance": 2.7747480772564623
    },
    "planner": "PRM",
    "start": {
        "state": {
            "elbow_joint": 1.9565354010623817,
            "shoulder_lift_joint": -1.4165861575791021,
            "shoulder_pan_joint": -1.6717766225146293,
            "wrist_1_joint": -0.5286633292919765,
            "wrist_2_joint": 1.472756589071564,
            "wrist_3_joint": -3.1238370188695823
        }
    },
    "waypoints": [
        {
            "positions": [
                -1.6717766225146293,
                -1.4165861575791021,
                1.9565354010623817,
                -0.5286633292919765,
                1.472756589071564,
                -3.1238370188695823
            ]
        },
        {
            "positions": [
                -1.7955355491697795,
                -1.4200557488826513,
                1.9728428792726296,
                -0.47539938563319106,
                1.2886050843535866,
                -3.1103305376236547
            ]
        },
        {
            "positions": [
                -1.9192944758249295,
                -1.4235253401862005,
                1.9891503574828775,
                -0.42213544197440567,
                1.1044535796356094,
                -3.0968240563777276
            ]
        },
        {
            "positions": [
                -2.04305340248008,
                -1.4269949314897497,
                2.005457835693125,
                -0.36887149831562027,
                0.920302074917632,
                -3.0833175751318
            ]
        },
        {
            "positions": [
                -2.16681232913523,
                -1.4304645227932988,
                2.0217653139033733,
                -0.3156075546568349,
                0.7361505701996548,
                -3.069811093885873
            ]
        },
        {
            "positions": [
                -2.29057125579038,
                -1.433934114096848,
                2.038072792113621,
                -0.2623436109980494,
                0.5519990654816774,
                -3.0563046126399454
            ]
        },
        {
            "positions": [
                -2.4143301824455303,
                -1.4374037054003972,
                2.054380270323869,
                -0.20907966733926403,
                0.3678475607637002,
                -3.0427981313940182
            ]
        },
        {
            "positions": [
                -2.5380891091006803,
                -1.4408732967039464,
                2.070687748534117,
                -0.15581572368047863,
                0.18369605604572276,
                -3.0292916501480907
            ]
        },
        {
            "positions": [
                -2.5254247484101215,
                -1.3847530050868286,
                2.0576172898617178,
                -0.28907703709968446,
                0.2797503640099938,
                -3.0549310346068577
            ]
        },
        {
            "positions": [
                -2.5127603877195623,
                -1.3286327134697107,
                2.0445468311893182,
                -0.4223383505188903,
                0.3758046719742649,
                -3.0805704190656242
            ]
        },
        {
            "positions": [
                -2.5000960270290036,
                -1.272512421852593,
                2.031476372516919,
                -0.555599663938096,
                0.4718589799385359,
                -3.1062098035243912
            ]
        },
        {
            "positions": [
                -2.4874316663384444,
                -1.216392130235475,
                2.0184059138445196,
                -0.688860977357302,
                0.567913287902807,
                -3.131849187983158
            ]
        },
        {
            "positions": [
                -2.4747673056478856,
                -1.1602718386183573,
                2.0053354551721205,
                -0.8221222907765077,
                0.6639675958670781,
                -3.157488572441925
            ]
        }
    ]
}