{
    "goal": {
        "global_pose": {
            "orientation": {
                "w": 0.005598929693374612,
                "x": 0.007748599140229565,
                "y": 0.7110244013736278,
                "z": -0.7031023480610252
            },
            "position": {
                "x": 0.1141497679147869,
                "y": -0.7141253447532654,
                "z": 0.3711530566215515
            }
        },
        "name": "move_to_auspresseinheit_B"
    },
    "id": "PRM_move_to_auspresseinheit_B_85",
    "joint_names": [
        "shoulder_pan_joint",
        "shoulder_lift_joint",
        "elbow_joint",
        "wrist_1_joint",
        "wrist_2_joint",
        "wrist_3_joint"
    ],
    "metrics": {
        "cart_traj_len": 0.564608554576139,
        "distance_elbow_joint": 0.061734241415519975,
        "distance_shoulder_lift_joint": 0.29357590136693457,
        "distance_shoulder_pan_joint": 0.5756700918120552,
        "distance_wrist_1_joint": 0.3213183363669748,
        "distance_wrist_2_joint": 1.0012916395103135,
        "distance_wrist_3_joint": 0.009270735364415472,
        "smoothness": 2.5376526478085547e-16,
        "time": 0.013956274,
        "traj_len": 1.504280873319944,
        "weighted_distance": 1.8984236598932107
    },
    "planner": "PRM",
    "start": {
        "state": {
            "elbow_joint": 2.0193083361928714,
            "shoulder_lift_joint": -1.1220246554650708,
            "shoulder_pan_joint": -1.0952077554168747,
            "wrist_1_joint": -0.8559753972642168,
            "wrist_2_joint": 0.4759566250798843,
            "wrist_3_joint": -3.1240929996934557
        }
    },
    "waypoints": [
        {
            "positions": [
                -1.0952077554168747,
                -1.1220246554650708,
                2.0193083361928714,
                -0.8559753972642168,
                0.4759566250798843,
                -3.1240929996934557
            ]
        },
        {
            "positions": [
                -1.1911527707188838,
                -1.17095397235956,
                2.0090192959569513,
                -0.8024223412030543,
                0.6428385649982699,
                -3.1225478771327198
            ]
        },
        {
            "positions": [
                -1.287097786020893,
                -1.219883289254049,
                1.9987302557210314,
                -0.7488692851418919,
                0.8097205049166554,
                -3.121002754571984
            ]
        },
        {
            "positions": [
                -1.3830428013229024,
                -1.268812606148538,
                1.9884412154851114,
                -0.6953162290807293,
                0.976602444835041,
                -3.119457632011248
            ]
        },
        {
            "positions": [
                -1.4789878166249113,
                -1.3177419230430272,
                1.9781521752491915,
                -0.641763173019567,
                1.1434843847534266,
                -3.117912509450512
            ]
        },
        {
            "positions": [
                -1.5749328319269207,
                -1.3666712399375163,
                1.9678631350132714,
                -0.5882101169584044,
                1.3103663246718122,
                -3.116367386889776
            ]
        },
        {
            "positions": [
                -1.6708778472289298,
                -1.4156005568320054,
                1.9575740947773514,
                -0.534657060897242,
                1.4772482645901979,
                -3.11482226432904
            ]
        }
    ]
}