{
    "goal": {
        "global_pose": {
            "orientation": {
                "w": -0.00223480608172531,
                "x": 0.0024358444001904467,
                "y": 0.7094548369677653,
                "z": -0.704743149386269
            },
            "position": {
                "x": -0.37947507619857795,
                "y": -0.6371506643295288,
                "z": 0.19426114857196808
            }
        },
        "name": "move_to_magneteinheit_C"
    },
    "id": "PRM_move_to_magneteinheit_C_143",
    "joint_names": [
        "shoulder_pan_joint",
        "shoulder_lift_joint",
        "elbow_joint",
        "wrist_1_joint",
        "wrist_2_joint",
        "wrist_3_joint"
    ],
    "metrics": {
        "cart_traj_len": 1.133970788274581,
        "distance_elbow_joint": 0.7063035385688803,
        "distance_shoulder_lift_joint": 0.8085057649477836,
        "distance_shoulder_pan_joint": 1.1163405972454366,
        "distance_wrist_1_joint": 1.8792203127779479,
        "distance_wrist_2_joint": 1.3543268500646468,
        "distance_wrist_3_joint": 4.854266894481842,
        "smoothness": 1.0601393665470842,
        "time": 0.138243736,
        "traj_len": 3.2739828890949534,
        "weighted_distance": 4.864262010818581
    },
    "planner": "PRM",
    "start": {
        "state": {
            "elbow_joint": 1.9565354010623817,
            "shoulder_lift_joint": -1.4165861575791021,
            "shoulder_pan_joint": -1.6717766225146293,
            "wrist_1_joint": -0.5286633292919765,
            "wrist_2_joint": 1.472756589071564,
            "wrist_3_joint": -3.1238370188695823
        }
    },
    "waypoints": [
        {
            "positions": [
                -1.6717766225146293,
                -1.4165861575791021,
                1.9565354010623817,
                -0.5286633292919765,
                1.472756589071564,
                -3.1238370188695823
            ]
        },
        {
            "positions": [
                -1.6622682424722863,
                -1.4178003180582128,
                1.9258239402004855,
                -0.4301832984513077,
                1.343356903925549,
                -3.0088298195159386
            ]
        },
        {
            "positions": [
                -1.6527598624299433,
                -1.4190144785373235,
                1.8951124793385896,
                -0.33170326761063895,
                1.2139572187795344,
                -2.893822620162295
            ]
        },
        {
            "positions": [
                -1.6432514823876003,
                -1.4202286390164343,
                1.8644010184766935,
                -0.23322323676997014,
                1.0845575336335198,
                -2.7788154208086513
            ]
        },
        {
            "positions": [
                -1.633743102345257,
                -1.4214427994955448,
                1.8336895576147973,
                -0.1347432059293014,
                0.955157848487505,
                -2.6638082214550076
            ]
        },
        {
            "positions": [
                -1.624234722302914,
                -1.4226569599746555,
                1.8029780967529014,
                -0.03626317508863258,
                0.8257581633414902,
                -2.548801022101364
            ]
        },
        {
            "positions": [
                -1.614726342260571,
                -1.4238711204537662,
                1.7722666358910053,
                0.062216855752036226,
                0.6963584781954755,
                -2.4337938227477203
            ]
        },
        {
            "positions": [
                -1.6832877930886765,
                -1.4484581994776184,
                1.7857267702661825,
                -0.026413290530462083,
                0.669176990732705,
                -2.276311473505055
            ]
        },
        {
            "positions": [
                -1.751849243916782,
                -1.4730452785014707,
                1.7991869046413598,
                -0.11504343681296039,
                0.6419955032699345,
                -2.11882912426239
            ]
        },
        {
            "positions": [
                -1.8204106947448875,
                -1.497632357525323,
                1.812647039016537,
                -0.2036735830954587,
                0.614814015807164,
                -1.9613467750197249
            ]
        },
        {
            "positions": [
                -1.888972145572993,
                -1.5222194365491752,
                1.8261071733917142,
                -0.292303729377957,
                0.5876325283443934,
                -1.8038644257770597
            ]
        },
        {
            "positions": [
                -1.9575335964010985,
                -1.5468065155730275,
                1.8395673077668915,
                -0.3809338756604553,
                0.5604510408816229,
                -1.6463820765343944
            ]
        },
        {
            "positions": [
                -2.026095047229204,
                -1.5713935945968796,
                1.8530274421420687,
                -0.4695640219429536,
                0.5332695534188524,
                -1.4888997272917295
            ]
        },
        {
            "positions": [
                -2.0946564980573092,
                -1.5959806736207318,
                1.8664875765172462,
                -0.5581941682254519,
                0.5060880659560819,
                -1.3314173780490641
            ]
        },
        {
            "positions": [
                -2.163217948885415,
                -1.620567752644584,
                1.8799477108924234,
                -0.6468243145079502,
                0.47890657849331136,
                -1.173935028806399
            ]
        },
        {
            "positions": [
                -2.2317793997135205,
                -1.6451548316684363,
                1.8934078452676006,
                -0.7354544607904485,
                0.4517250910305408,
                -1.0164526795637339
            ]
        },
        {
            "positions": [
                -2.300340850541626,
                -1.6697419106922886,
                1.9068679796427779,
                -0.8240846070729468,
                0.4245436035677704,
                -0.8589703303210687
            ]
        },
        {
            "positions": [
                -2.3689023013697312,
                -1.6943289897161409,
                1.9203281140179551,
                -0.9127147533554452,
                0.39736211610499983,
                -0.7014879810784036
            ]
        },
        {
            "positions": [
                -2.4201059872709583,
                -1.6763160151251115,
                1.9785889658537301,
                -0.9438622454130343,
                0.4245549681002087,
                -0.8151875483261041
            ]
        },
        {
            "positions": [
                -2.4713096731721853,
                -1.6583030405340824,
                2.0368498176895056,
                -0.9750097374706234,
                0.4517478200954176,
                -0.9288871155738045
            ]
        },
        {
            "positions": [
                -2.522513359073413,
                -1.640290065943053,
                2.0951106695252806,
                -1.0061572295282124,
                0.47894067209062646,
                -1.0425866828215051
            ]
        },
        {
            "positions": [
                -2.57371704497464,
                -1.6222770913520237,
                2.1533715213610556,
                -1.0373047215858016,
                0.5061335240858353,
                -1.1562862500692055
            ]
        },
        {
            "positions": [
                -2.5611795931899763,
                -1.5649382120461952,
                2.135755285370124,
                -1.0137024027862893,
                0.5274036452254911,
                -1.4034261985316885
            ]
        },
        {
            "positions": [
                -2.5486421414053124,
                -1.5075993327403667,
                2.118139049379192,
                -0.9901000839867772,
                0.548673766365147,
                -1.6505661469941713
            ]
        },
        {
            "positions": [
                -2.5361046896206485,
                -1.4502604534345382,
                2.1005228133882605,
                -0.966497765187265,
                0.5699438875048028,
                -1.897706095456654
            ]
        },
        {
            "positions": [
                -2.523567237835985,
                -1.3929215741287098,
                2.0829065773973285,
                -0.9428954463877528,
                0.5912140086444586,
                -2.144846043919137
            ]
        },
        {
            "positions": [
                -2.5110297860513215,
                -1.3355826948228815,
                2.065290341406397,
                -0.9192931275882406,
                0.6124841297841144,
                -2.39198599238162
            ]
        },
        {
            "positions": [
                -2.4984923342666576,
                -1.278243815517053,
                2.0476741054154655,
                -0.8956908087887284,
                0.6337542509237702,
                -2.639125940844103
            ]
        },
        {
            "positions": [
                -2.4859548824819937,
                -1.2209049362112245,
                2.0300578694245335,
                -0.8720884899892163,
                0.6550243720634261,
                -2.8862658893065856
            ]
        },
        {
            "positions": [
                -2.47341743069733,
                -1.163566056905396,
                2.012441633433602,
                -0.848486171189704,
                0.6762944932030819,
                -3.1334058377690686
            ]
        }
    ]
}