{
    "goal": {
        "global_pose": {
            "orientation": {
                "w": 0.5084816217422485,
                "x": -0.49083608388900757,
                "y": 0.5182115435600281,
                "z": -0.4816462993621826
            },
            "position": {
                "x": 0.5540239810943604,
                "y": 0.030875300988554955,
                "z": 0.16403168439865112
            }
        },
        "name": "move_to_storage_A"
    },
    "id": "PRM_move_to_storage_A_116",
    "joint_names": [
        "shoulder_pan_joint",
        "shoulder_lift_joint",
        "elbow_joint",
        "wrist_1_joint",
        "wrist_2_joint",
        "wrist_3_joint"
    ],
    "metrics": {
        "cart_traj_len": 0.3527848071688353,
        "distance_elbow_joint": 0.4483360059671406,
        "distance_shoulder_lift_joint": 0.2337076808302181,
        "distance_shoulder_pan_joint": 0.4576530909135392,
        "distance_wrist_1_joint": 0.23870435212357954,
        "distance_wrist_2_joint": 1.113407782383883,
        "distance_wrist_3_joint": 0.09757266848319368,
        "smoothness": 9.992007236661072e-16,
        "time": 0.035460544000000004,
        "traj_len": 1.6091555489453324,
        "weighted_distance": 2.0338729193770697
    },
    "planner": "PRM",
    "start": {
        "state": {
            "elbow_joint": 1.971548259319323,
            "shoulder_lift_joint": -1.1394851275133948,
            "shoulder_pan_joint": 0.1228115487234821,
            "wrist_1_joint": -0.7804723859257726,
            "wrist_2_joint": 0.12958671773740124,
            "wrist_3_joint": -3.192489227718131
        }
    },
    "waypoints": [
        {
            "positions": [
                0.1228115487234821,
                -1.1394851275133948,
                1.971548259319323,
                -0.7804723859257726,
                0.12958671773740124,
                -3.192489227718131
            ]
        },
        {
            "positions": [
                0.05743253573583365,
                -1.1728719390605689,
                2.0355962601717716,
                -0.8145730076577126,
                0.28864497236367026,
                -3.178550275077675
            ]
        },
        {
            "positions": [
                -0.007946477251814799,
                -1.206258750607743,
                2.0996442610242205,
                -0.8486736293896525,
                0.44770322698993925,
                -3.1646113224372185
            ]
        },
        {
            "positions": [
                -0.07332549023946325,
                -1.239645562154917,
                2.163692261876669,
                -0.8827742511215924,
                0.6067614816162082,
                -3.1506723697967622
            ]
        },
        {
            "positions": [
                -0.1387045032271117,
                -1.2730323737020908,
                2.2277402627291174,
                -0.9168748728535323,
                0.7658197362424772,
                -3.1367334171563064
            ]
        },
        {
            "positions": [
                -0.20408351621476017,
                -1.3064191852492648,
                2.2917882635815663,
                -0.9509754945854723,
                0.9248779908687463,
                -3.12279446451585
            ]
        },
        {
            "positions": [
                -0.2694625292024086,
                -1.3398059967964389,
                2.355836264434015,
                -0.9850761163174122,
                1.0839362454950152,
                -3.1088555118753938
            ]
        },
        {
            "positions": [
                -0.3348415421900571,
                -1.373192808343613,
                2.4198842652864636,
                -1.0191767380493522,
                1.2429945001212843,
                -3.0949165592349375
            ]
        }
    ]
}{
    "goal": {
        "global_pose": {
            "orientation": {
                "w": 0.5084816217422485,
                "x": -0.49083608388900757,
                "y": 0.5182115435600281,
                "z": -0.4816462993621826
            },
            "position": {
                "x": 0.5540239810943604,
                "y": 0.030875300988554955,
                "z": 0.16403168439865112
            }
        },
        "name": "move_to_storage_A"
    },
    "id": "PRM_move_to_storage_A_116",
    "joint_names": [
        "shoulder_pan_joint",
        "shoulder_lift_joint",
        "elbow_joint",
        "wrist_1_joint",
        "wrist_2_joint",
        "wrist_3_joint"
    ],
    "metrics": {
        "cart_traj_len": 0.353190662647545,
        "distance_elbow_joint": 0.45185795154445385,
        "distance_shoulder_lift_joint": 0.2365070925288093,
        "distance_shoulder_pan_joint": 0.463272902063207,
        "distance_wrist_1_joint": 0.24777868776253476,
        "distance_wrist_2_joint": 1.094074811662138,
        "distance_wrist_3_joint": 0.09238614794275257,
        "smoothness": 0.0,
        "time": 0.025639718000000002,
        "traj_len": 1.6080664145189698,
        "weighted_distance": 2.0279308146024295
    },
    "planner": "PRM",
    "start": {
        "state": {
            "elbow_joint": 1.97154746011099,
            "shoulder_lift_joint": -1.13948474672311,
            "shoulder_pan_joint": 0.12281154466712228,
            "wrist_1_joint": -0.7804688027058302,
            "wrist_2_joint": 0.12958655903071145,
            "wrist_3_joint": 3.0906928834467795
        }
    },
    "waypoints": [
        {
            "positions": [
                0.12281154466712228,
                -1.13948474672311,
                1.97154746011099,
                -0.7804688027058302,
                0.12958655903071145,
                3.0906928834467795
            ]
        },
        {
            "positions": [
                0.05662970151523558,
                -1.1732714742272257,
                2.0360985960459117,
                -0.815865758100478,
                0.28588296069673114,
                3.1038909045814584
            ]
        },
        {
            "positions": [
                -0.00955214163665112,
                -1.2070582017313412,
                2.100649731980834,
                -0.8512627134951258,
                0.4421793623627508,
                3.1170889257161374
            ]
        },
        {
            "positions": [
                -0.07573398478853784,
                -1.2408449292354569,
                2.1652008679157557,
                -0.8866596688897737,
                0.5984757640287706,
                3.1302869468508163
            ]
        },
        {
            "positions": [
                -0.1419158279404245,
                -1.2746316567395723,
                2.229752003850678,
                -0.9220566242844215,
                0.7547721656947902,
                3.1434849679854953
            ]
        },
        {
            "positions": [
                -0.20809767109231125,
                -1.308418384243688,
                2.2943031397855997,
                -0.9574535796790693,
                0.91106856736081,
                3.156682989120174
            ]
        },
        {
            "positions": [
                -0.27427951424419794,
                -1.3422051117478035,
                2.358854275720522,
                -0.9928505350737171,
                1.0673649690268296,
                3.169881010254853
            ]
        },
        {
            "positions": [
                -0.3404613573960847,
                -1.3759918392519193,
                2.4234054116554438,
                -1.028247490468365,
                1.2236613706928494,
                3.183079031389532
            ]
        }
    ]
}{
    "goal": {
        "global_pose": {
            "orientation": {
                "w": 0.5084816217422485,
                "x": -0.49083608388900757,
                "y": 0.5182115435600281,
                "z": -0.4816462993621826
            },
            "position": {
                "x": 0.5540239810943604,
                "y": 0.030875300988554955,
                "z": 0.16403168439865112
            }
        },
        "name": "move_to_storage_A"
    },
    "id": "PRM_move_to_storage_A_116",
    "joint_names": [
        "shoulder_pan_joint",
        "shoulder_lift_joint",
        "elbow_joint",
        "wrist_1_joint",
        "wrist_2_joint",
        "wrist_3_joint"
    ],
    "metrics": {
        "cart_traj_len": 0.35319009098831383,
        "distance_elbow_joint": 0.44974159077085396,
        "distance_shoulder_lift_joint": 0.23619199294305315,
        "distance_shoulder_pan_joint": 0.4586350533353248,
        "distance_wrist_1_joint": 0.23449868633548943,
        "distance_wrist_2_joint": 1.1141848448754126,
        "distance_wrist_3_joint": 0.10180079430506428,
        "smoothness": 7.771561092534257e-16,
        "time": 0.037647971999999995,
        "traj_len": 1.6109168080832723,
        "weighted_distance": 2.036501431962725
    },
    "planner": "PRM",
    "start": {
        "state": {
            "elbow_joint": 1.9715472970024885,
            "shoulder_lift_joint": -1.1394870060712896,
            "shoulder_pan_joint": 0.12281152778156021,
            "wrist_1_joint": -0.780463741449964,
            "wrist_2_joint": 0.12958659822042276,
            "wrist_3_joint": 3.090690232415272
        }
    },
    "waypoints": [
        {
            "positions": [
                0.12281152778156021,
                -1.1394870060712896,
                1.9715472970024885,
                -0.780463741449964,
                0.12958659822042276,
                3.090690232415272
            ]
        },
        {
            "positions": [
                0.05729223444794239,
                -1.1732287193488686,
                2.0357960956840393,
                -0.8139635537836053,
                0.2887558617740531,
                3.105233203030281
            ]
        },
        {
            "positions": [
                -0.008227058885675431,
                -1.2069704326264477,
                2.1000448943655896,
                -0.8474633661172467,
                0.44792512532768347,
                3.11977617364529
            ]
        },
        {
            "positions": [
                -0.07374635221929324,
                -1.2407121459040267,
                2.1642936930471404,
                -0.880963178450888,
                0.6070943888813138,
                3.1343191442602993
            ]
        },
        {
            "positions": [
                -0.13926564555291107,
                -1.2744538591816057,
                2.2285424917286907,
                -0.9144629907845294,
                0.7662636524349442,
                3.1488621148753086
            ]
        },
        {
            "positions": [
                -0.2047849388865289,
                -1.3081955724591847,
                2.2927912904102414,
                -0.9479628031181707,
                0.9254329159885746,
                3.163405085490318
            ]
        },
        {
            "positions": [
                -0.27030423222014666,
                -1.3419372857367637,
                2.3570400890917917,
                -0.981462615451812,
                1.084602179542205,
                3.177948056105327
            ]
        },
        {
            "positions": [
                -0.33582352555376455,
                -1.3756789990143428,
                2.4212888877733425,
                -1.0149624277854534,
                1.2437714430958353,
                3.192491026720336
            ]
        }
    ]
}