{
    "goal": {
        "global_pose": {
            "orientation": {
                "w": -0.00223480608172531,
                "x": 0.0024358444001904467,
                "y": 0.7094548369677653,
                "z": -0.704743149386269
            },
            "position": {
                "x": 0.6205249238014221,
                "y": -0.6371506643295288,
                "z": 0.19426114857196808
            }
        },
        "name": "move_to_magneteinheit_B"
    },
    "id": "PRM_move_to_magneteinheit_B_147",
    "joint_names": [
        "shoulder_pan_joint",
        "shoulder_lift_joint",
        "elbow_joint",
        "wrist_1_joint",
        "wrist_2_joint",
        "wrist_3_joint"
    ],
    "metrics": {
        "cart_traj_len": 3.578875833027378,
        "distance_elbow_joint": 4.970330045104143,
        "distance_shoulder_lift_joint": 1.0739944953740097,
        "distance_shoulder_pan_joint": 2.7101048806266443,
        "distance_wrist_1_joint": 0.948149236446584,
        "distance_wrist_2_joint": 1.2183976761800936,
        "distance_wrist_3_joint": 1.7973005734513259,
        "smoothness": 0.5928633086505646,
        "time": 0.895738039,
        "traj_len": 3.56626932622633,
        "weighted_distance": 4.298770169096287
    },
    "planner": "PRM",
    "start": {
        "state": {
            "elbow_joint": 2.6216224122426386,
            "shoulder_lift_joint": -1.4174107377796124,
            "shoulder_pan_joint": 0.7066234856936794,
            "wrist_1_joint": 1.9546482284002225,
            "wrist_2_joint": -0.7096286983471962,
            "wrist_3_joint": 0.005740856962016249
        }
    },
    "waypoints": [
        {
            "positions": [
                0.7066234856936794,
                -1.4174107377796124,
                2.6216224122426386,
                1.9546482284002225,
                -0.7096286983471962,
                0.005740856962016249
            ]
        },
        {
            "positions": [
                0.5901545742946981,
                -1.4138657256189389,
                2.5957714712111923,
                1.9355929362126665,
                -0.6651660542755178,
                -0.028457357372117513
            ]
        },
        {
            "positions": [
                0.5276197294925751,
                -1.4226311777414975,
                2.454428089822602,
                1.9121347097601866,
                -0.6123003409929315,
                -0.08311375226219164
            ]
        },
        {
            "positions": [
                0.46508488469045195,
                -1.4313966298640564,
                2.3130847084340114,
                1.888676483307707,
                -0.5594346277103451,
                -0.1377701471522658
            ]
        },
        {
            "positions": [
                0.5378490743301692,
                -1.4573265350952378,
                2.1207789861865187,
                1.865300664301796,
                -0.532233693511577,
                -0.1740862071654492
            ]
        },
        {
            "positions": [
                0.6106132639698865,
                -1.483256440326419,
                1.9284732639390265,
                1.841924845295885,
                -0.5050327593128088,
                -0.2104022671786326
            ]
        },
        {
            "positions": [
                0.6833774536096038,
                -1.5091863455576005,
                1.7361675416915339,
                1.818549026289974,
                -0.47783182511404065,
                -0.24671832719181602
            ]
        },
        {
            "positions": [
                0.756141643249321,
                -1.5351162507887817,
                1.5438618194440414,
                1.795173207284063,
                -0.4506308909152725,
                -0.2830343872049994
            ]
        },
        {
            "positions": [
                0.8289058328890382,
                -1.561046156019963,
                1.351556097196549,
                1.771797388278152,
                -0.4234299567165043,
                -0.31935044721818284
            ]
        },
        {
            "positions": [
                0.9016700225287555,
                -1.5869760612511443,
                1.1592503749490564,
                1.748421569272241,
                -0.3962290225177361,
                -0.3556665072313663
            ]
        },
        {
            "positions": [
                0.9744342121684727,
                -1.6129059664823258,
                0.9669446527015639,
                1.72504575026633,
                -0.36902808831896794,
                -0.3919825672445496
            ]
        },
        {
            "positions": [
                1.0471984018081901,
                -1.638835871713507,
                0.7746389304540715,
                1.7016699312604189,
                -0.3418271541201998,
                -0.42829862725773304
            ]
        },
        {
            "positions": [
                1.1199625914479072,
                -1.6647657769446884,
                0.5823332082065789,
                1.678294112254508,
                -0.3146262199214316,
                -0.4646146872709165
            ]
        },
        {
            "positions": [
                1.1927267810876245,
                -1.6906956821758699,
                0.39002748595908643,
                1.6549182932485969,
                -0.28742528572266346,
                -0.5009307472840999
            ]
        },
        {
            "positions": [
                1.2654909707273418,
                -1.716625587407051,
                0.19772176371159356,
                1.631542474242686,
                -0.2602243515238952,
                -0.5372468072972834
            ]
        },
        {
            "positions": [
                1.338255160367059,
                -1.7425554926382325,
                0.005416041464101351,
                1.608166655236775,
                -0.2330234173251271,
                -0.5735628673104667
            ]
        },
        {
            "positions": [
                1.4110193500067765,
                -1.768485397869414,
                -0.1868896807833913,
                1.584790836230864,
                -0.20582248312635892,
                -0.6098789273236501
            ]
        },
        {
            "positions": [
                1.4837835396464936,
                -1.7944153031005952,
                -0.3791954030308835,
                1.561415017224953,
                -0.17862154892759075,
                -0.6461949873368334
            ]
        },
        {
            "positions": [
                1.556547729286211,
                -1.8203452083317764,
                -0.5715011252783762,
                1.538039198219042,
                -0.15142061472882257,
                -0.682511047350017
            ]
        },
        {
            "positions": [
                1.6293119189259282,
                -1.8462751135629578,
                -0.7638068475258684,
                1.514663379213131,
                -0.12421968053005444,
                -0.7188271073632003
            ]
        },
        {
            "positions": [
                1.7020761085656453,
                -1.8722050187941393,
                -0.956112569773361,
                1.49128756020722,
                -0.09701874633128621,
                -0.7551431673763838
            ]
        },
        {
            "positions": [
                1.7748402982053624,
                -1.8981349240253205,
                -1.1484182920208537,
                1.467911741201309,
                -0.06981781213251809,
                -0.7914592273895671
            ]
        },
        {
            "positions": [
                1.84760448784508,
                -1.924064829256502,
                -1.3407240142683463,
                1.444535922195398,
                -0.04261687793374991,
                -0.8277752874027506
            ]
        },
        {
            "positions": [
                1.920368677484797,
                -1.9499947344876833,
                -1.5330297365158385,
                1.421160103189487,
                -0.015415943734981785,
                -0.864091347415934
            ]
        },
        {
            "positions": [
                1.9931328671245145,
                -1.9759246397188646,
                -1.7253354587633312,
                1.397784284183576,
                0.011784990463786497,
                -0.9004074074291174
            ]
        },
        {
            "positions": [
                2.081887210028052,
                -1.9906254693889018,
                -1.7497270162688807,
                1.3947871748102623,
                -0.008549692713280349,
                -0.8824449345932407
            ]
        },
        {
            "positions": [
                2.201047993431647,
                -2.0467895899981654,
                -1.7919653966710845,
                1.3484169752631099,
                0.04086662859509252,
                -0.8350829191938308
            ]
        },
        {
            "positions": [
                2.320208776835242,
                -2.102953710607429,
                -1.8342037770732882,
                1.3020467757159575,
                0.09028294990346539,
                -0.787720903794421
            ]
        },
        {
            "positions": [
                2.4393695602388368,
                -2.1591178312166925,
                -1.8764421574754917,
                1.2556765761688053,
                0.13969927121183826,
                -0.7403588883950112
            ]
        },
        {
            "positions": [
                2.558530343642432,
                -2.2152819518259563,
                -1.9186805378776954,
                1.209306376621653,
                0.18911559252021112,
                -0.6929968729956013
            ]
        },
        {
            "positions": [
                2.6776911270460273,
                -2.2714460724352197,
                -1.9609189182798992,
                1.1629361770745006,
                0.238531913828584,
                -0.6456348575961914
            ]
        },
        {
            "positions": [
                2.796851910449622,
                -2.3276101930444835,
                -2.003157298682103,
                1.1165659775273482,
                0.2879482351369569,
                -0.5982728421967816
            ]
        },
        {
            "positions": [
                2.7626520969835604,
                -2.3667864469914313,
                -1.9167697151372525,
                1.0890492311339208,
                0.3329860792224085,
                -0.4510184062398174
            ]
        },
        {
            "positions": [
                2.7284522835174987,
                -2.405962700938379,
                -1.8303821315924018,
                1.0615324847404932,
                0.37802392330786017,
                -0.3037639702828533
            ]
        },
        {
            "positions": [
                2.694252470051437,
                -2.4451389548853273,
                -1.7439945480475512,
                1.0340157383470658,
                0.4230617673933118,
                -0.15650953432588915
            ]
        },
        {
            "positions": [
                2.6600526565853753,
                -2.484315208832275,
                -1.6576069645027007,
                1.0064989919536385,
                0.46809961147876344,
                -0.009255098368924974
            ]
        }
    ]
}