{
    "goal": {
        "global_pose": {
            "orientation": {
                "w": 0.7047431468963623,
                "x": -0.7094548344612122,
                "y": 0.0024358443915843964,
                "z": -0.0022348060738295317
            },
            "position": {
                "x": 0.6094750761985779,
                "y": 0.3671506643295288,
                "z": 0.19426114857196808
            }
        },
        "name": "move_to_magneteinheit_A"
    },
    "id": "PRM_move_to_magneteinheit_A_134",
    "joint_names": [
        "shoulder_pan_joint",
        "shoulder_lift_joint",
        "elbow_joint",
        "wrist_1_joint",
        "wrist_2_joint",
        "wrist_3_joint"
    ],
    "metrics": {
        "cart_traj_len": 3.5684262644983398,
        "distance_elbow_joint": 3.894995598973356,
        "distance_shoulder_lift_joint": 0.25345471122877195,
        "distance_shoulder_pan_joint": 2.981743957799217,
        "distance_wrist_1_joint": 0.7430445660131018,
        "distance_wrist_2_joint": 1.6908753283437274,
        "distance_wrist_3_joint": 3.6033969997674906,
        "smoothness": 0.08676019418118328,
        "time": 0.15489937,
        "traj_len": 3.6287065411969683,
        "weighted_distance": 4.775795751078293
    },
    "planner": "PRM",
    "start": {
        "state": {
            "elbow_joint": -1.9196185241190666,
            "shoulder_lift_joint": -1.2443396400964142,
            "shoulder_pan_joint": 2.6996025414629847,
            "wrist_1_joint": -1.5485510000780065,
            "wrist_2_joint": -1.5709468930060704,
            "wrist_3_joint": 0.4420197071253992
        }
    },
    "waypoints": [
        {
            "positions": [
                2.6996025414629847,
                -1.2443396400964142,
                -1.9196185241190666,
                -1.5485510000780065,
                -1.5709468930060704,
                0.4420197071253992
            ]
        },
        {
            "positions": [
                2.6003353316385156,
                -1.2470169503306612,
                -1.8149182558980947,
                -1.5359798177331196,
                -1.513448968831069,
                0.33272692487398187
            ]
        },
        {
            "positions": [
                2.501068121814047,
                -1.249694260564908,
                -1.7102179876771229,
                -1.523408635388233,
                -1.4559510446560677,
                0.22343414262256456
            ]
        },
        {
            "positions": [
                2.401800911989578,
                -1.252371570799155,
                -1.605517719456151,
                -1.5108374530433462,
                -1.3984531204810664,
                0.11414136037114725
            ]
        },
        {
            "positions": [
                2.302533702165109,
                -1.2550488810334017,
                -1.5008174512351788,
                -1.4982662706984593,
                -1.340955196306065,
                0.0048485781197299405
            ]
        },
        {
            "positions": [
                2.20326649234064,
                -1.2577261912676487,
                -1.396117183014207,
                -1.4856950883535727,
                -1.2834572721310638,
                -0.10444420413168742
            ]
        },
        {
            "positions": [
                2.1039992825161713,
                -1.2604035015018955,
                -1.291416914793235,
                -1.4731239060086858,
                -1.2259593479560622,
                -0.21373698638310468
            ]
        },
        {
            "positions": [
                2.004732072691702,
                -1.2630808117361425,
                -1.186716646572263,
                -1.460552723663799,
                -1.1684614237810609,
                -0.32302976863452204
            ]
        },
        {
            "positions": [
                1.9054648628672335,
                -1.2657581219703893,
                -1.082016378351291,
                -1.4479815413189123,
                -1.1109634996060596,
                -0.4323225508859393
            ]
        },
        {
            "positions": [
                1.8061976530427644,
                -1.2684354322046363,
                -0.9773161101303192,
                -1.4354103589740255,
                -1.0534655754310582,
                -0.5416153331373568
            ]
        },
        {
            "positions": [
                1.7069304432182955,
                -1.271112742438883,
                -0.8726158419093473,
                -1.4228391766291386,
                -0.9959676512560569,
                -0.650908115388774
            ]
        },
        {
            "positions": [
                1.6076632333938266,
                -1.27379005267313,
                -0.7679155736883754,
                -1.410267994284252,
                -0.9384697270810556,
                -0.7602008976401914
            ]
        },
        {
            "positions": [
                1.5083960235693576,
                -1.2764673629073768,
                -0.6632153054674035,
                -1.3976968119393651,
                -0.8809718029060543,
                -0.8694936798916085
            ]
        },
        {
            "positions": [
                1.4091288137448887,
                -1.2791446731416238,
                -0.5585150372464314,
                -1.3851256295944783,
                -0.8234738787310528,
                -0.9787864621430259
            ]
        },
        {
            "positions": [
                1.3098616039204198,
                -1.2818219833758708,
                -0.4538147690254595,
                -1.3725544472495916,
                -0.7659759545560515,
                -1.0880792443944434
            ]
        },
        {
            "positions": [
                1.210594394095951,
                -1.2844992936101176,
                -0.3491145008044876,
                -1.3599832649047048,
                -0.7084780303810502,
                -1.1973720266458607
            ]
        },
        {
            "positions": [
                1.111327184271482,
                -1.2871766038443646,
                -0.2444142325835157,
                -1.347412082559818,
                -0.6509801062060488,
                -1.3066648088972777
            ]
        },
        {
            "positions": [
                1.0120599744470131,
                -1.2898539140786114,
                -0.1397139643625438,
                -1.3348409002149313,
                -0.5934821820310475,
                -1.415957591148695
            ]
        },
        {
            "positions": [
                0.912792764622544,
                -1.2925312243128584,
                -0.03501369614157168,
                -1.3222697178700444,
                -0.5359842578560461,
                -1.5252503734001128
            ]
        },
        {
            "positions": [
                0.8135255547980751,
                -1.2952085345471052,
                0.06968657207940021,
                -1.3096985355251576,
                -0.47848633368104476,
                -1.6345431556515297
            ]
        },
        {
            "positions": [
                0.7142583449736062,
                -1.2978858447813522,
                0.1743868403003721,
                -1.297127353180271,
                -0.42098840950604344,
                -1.743835937902947
            ]
        },
        {
            "positions": [
                0.6149911351491375,
                -1.300563155015599,
                0.279087108521344,
                -1.284556170835384,
                -0.3634904853310421,
                -1.8531287201543645
            ]
        },
        {
            "positions": [
                0.5157239253246684,
                -1.303240465249846,
                0.3837873767423159,
                -1.2719849884904972,
                -0.3059925611560408,
                -1.9624215024057818
            ]
        },
        {
            "positions": [
                0.4164567155001997,
                -1.3059177754840927,
                0.4884876449632878,
                -1.2594138061456106,
                -0.24849463698103946,
                -2.0717142846571988
            ]
        },
        {
            "positions": [
                0.31718950567573057,
                -1.3085950857183397,
                0.5931879131842597,
                -1.2468426238007237,
                -0.19099671280603814,
                -2.181007066908616
            ]
        },
        {
            "positions": [
                0.21792229585126144,
                -1.3112723959525865,
                0.697888181405232,
                -1.234271441455837,
                -0.1334987886310366,
                -2.290299849160034
            ]
        },
        {
            "positions": [
                0.11865508602679276,
                -1.3139497061868335,
                0.8025884496262039,
                -1.22170025911095,
                -0.07600086445603527,
                -2.399592631411451
            ]
        },
        {
            "positions": [
                0.01938787620232363,
                -1.3166270164210805,
                0.9072887178471758,
                -1.2091290767660634,
                -0.01850294028103394,
                -2.508885413662868
            ]
        },
        {
            "positions": [
                -0.07987933362214505,
                -1.3193043266553273,
                1.0119889860681477,
                -1.1965578944211765,
                0.03899498389396737,
                -2.6181781959142856
            ]
        },
        {
            "positions": [
                -0.046168986503130394,
                -1.2895559892103508,
                1.1725536675325046,
                -1.1313826510284646,
                0.05248389246791571,
                -2.708711378702253
            ]
        },
        {
            "positions": [
                -0.012458639384115733,
                -1.2598076517653742,
                1.3331183489968614,
                -1.0662074076357526,
                0.06597280104186405,
                -2.799244561490221
            ]
        },
        {
            "positions": [
                0.021251707734898928,
                -1.230059314320398,
                1.4936830304612183,
                -1.0010321642430406,
                0.07946170961581239,
                -2.8897777442781885
            ]
        },
        {
            "positions": [
                0.05496205485391359,
                -1.2003109768754214,
                1.6542477119255752,
                -0.9358569208503287,
                0.09295061818976075,
                -2.980310927066156
            ]
        },
        {
            "positions": [
                0.08867240197292825,
                -1.170562639430445,
                1.8148123933899323,
                -0.8706816774576167,
                0.10643952676370909,
                -3.0708441098541237
            ]
        },
        {
            "positions": [
                0.1223827490919429,
                -1.1408143019854684,
                1.9753770748542891,
                -0.8055064340649047,
                0.11992843533765743,
                -3.1613772926420913
            ]
        }
    ]
}