{
    "goal": {
        "global_pose": {
            "orientation": {
                "w": 0.7031023502349854,
                "x": -0.7110244035720825,
                "y": 0.007748599164187908,
                "z": 0.005598929710686207
            },
            "position": {
                "x": 0.11585023208521307,
                "y": 0.44412534475326537,
                "z": 0.3711530566215515
            }
        },
        "name": "move_to_auspresseinheit_A"
    },
    "id": "PRM_move_to_auspresseinheit_A_42",
    "joint_names": [
        "shoulder_pan_joint",
        "shoulder_lift_joint",
        "elbow_joint",
        "wrist_1_joint",
        "wrist_2_joint",
        "wrist_3_joint"
    ],
    "metrics": {
        "cart_traj_len": 0.7637542539129952,
        "distance_elbow_joint": 0.1497812713551654,
        "distance_shoulder_lift_joint": 0.537114541959095,
        "distance_shoulder_pan_joint": 1.4196523055533956,
        "distance_wrist_1_joint": 2.0539013900968808,
        "distance_wrist_2_joint": 2.6443184232226855,
        "distance_wrist_3_joint": 0.9617979015086671,
        "smoothness": 1.0738245912199522,
        "time": 0.32764035700000005,
        "traj_len": 2.7868559047241552,
        "weighted_distance": 3.793202004907304
    },
    "planner": "PRM",
    "start": {
        "state": {
            "elbow_joint": 2.4225746658250005,
            "shoulder_lift_joint": -1.3736534386056498,
            "shoulder_pan_joint": -0.3378633547517467,
            "wrist_1_joint": -1.0288598680537169,
            "wrist_2_joint": 1.233022673432363,
            "wrist_3_joint": -3.0940220416140027
        }
    },
    "waypoints": [
        {
            "positions": [
                -0.3378633547517467,
                -1.3736534386056498,
                2.4225746658250005,
                -1.0288598680537169,
                1.233022673432363,
                -3.0940220416140027
            ]
        },
        {
            "positions": [
                -0.358841476633943,
                -1.4065342200275703,
                2.429481651698601,
                -1.1125008885825067,
                1.0569685381565728,
                -3.042327316164111
            ]
        },
        {
            "positions": [
                -0.37981959851613933,
                -1.439415001449491,
                2.4363886375722013,
                -1.1961419091112964,
                0.8809144028807823,
                -2.9906325907142195
            ]
        },
        {
            "positions": [
                -0.4007977203983356,
                -1.4722957828714116,
                2.443295623445801,
                -1.2797829296400862,
                0.704860267604992,
                -2.9389378652643283
            ]
        },
        {
            "positions": [
                -0.4217758422805319,
                -1.5051765642933321,
                2.4502026093194016,
                -1.363423950168876,
                0.5288061323292016,
                -2.8872431398144367
            ]
        },
        {
            "positions": [
                -0.4427539641627282,
                -1.5380573457152529,
                2.457109595193002,
                -1.447064970697666,
                0.3527519970534111,
                -2.835548414364545
            ]
        },
        {
            "positions": [
                -0.4637320860449245,
                -1.5709381271371734,
                2.4640165810666024,
                -1.5307059912264556,
                0.17669786177762092,
                -2.7838536889146535
            ]
        },
        {
            "positions": [
                -0.48471020792712083,
                -1.603818908559094,
                2.4709235669402023,
                -1.6143470117552452,
                0.0006437265018304217,
                -2.7321589634647623
            ]
        },
        {
            "positions": [
                -0.5056883298093171,
                -1.6366996899810147,
                2.4778305528138027,
                -1.697988032284035,
                -0.17541040877395986,
                -2.6804642380148707
            ]
        },
        {
            "positions": [
                -0.5266664516915134,
                -1.6695804714029352,
                2.484737538687403,
                -1.781629052812825,
                -0.3514645440497503,
                -2.628769512564979
            ]
        },
        {
            "positions": [
                -0.4240956843070443,
                -1.6896794304997527,
                2.4774360054796727,
                -1.6732013690346772,
                -0.2631452769047027,
                -2.6701482936032828
            ]
        },
        {
            "positions": [
                -0.32152491692257523,
                -1.7097783895965701,
                2.4701344722719427,
                -1.5647736852565295,
                -0.17482600975965504,
                -2.7115270746415865
            ]
        },
        {
            "positions": [
                -0.2189541495381061,
                -1.7298773486933876,
                2.4628329390642123,
                -1.4563460014783818,
                -0.08650674261460739,
                -2.7529058556798898
            ]
        },
        {
            "positions": [
                -0.11638338215363703,
                -1.749976307790205,
                2.4555314058564823,
                -1.347918317700234,
                0.0018125245304402293,
                -2.7942846367181935
            ]
        },
        {
            "positions": [
                -0.013812614769167841,
                -1.7700752668870225,
                2.448229872648752,
                -1.2394906339220861,
                0.0901317916754879,
                -2.835663417756497
            ]
        },
        {
            "positions": [
                0.08875815261530118,
                -1.79017422598384,
                2.4409283394410215,
                -1.1310629501439384,
                0.17845105882053552,
                -2.8770421987948005
            ]
        },
        {
            "positions": [
                0.1913289199997703,
                -1.8102731850806575,
                2.4336268062332915,
                -1.0226352663657905,
                0.2667703259655832,
                -2.9184209798331042
            ]
        },
        {
            "positions": [
                0.2938996873842393,
                -1.830372144177475,
                2.426325273025561,
                -0.914207582587643,
                0.35508959311063076,
                -2.959799760871408
            ]
        },
        {
            "positions": [
                0.39647045476870846,
                -1.8504711032742924,
                2.419023739817831,
                -0.8057798988094952,
                0.44340886025567844,
                -3.0011785419097117
            ]
        },
        {
            "positions": [
                0.4990412221531777,
                -1.87057006237111,
                2.4117222066101007,
                -0.6973522150313474,
                0.5317281274007262,
                -3.0425573229480154
            ]
        },
        {
            "positions": [
                0.6016119895376466,
                -1.8906690214679274,
                2.4044206734023708,
                -0.5889245312531997,
                0.6200473945457736,
                -3.0839361039863187
            ]
        },
        {
            "positions": [
                0.7041827569221156,
                -1.9107679805647448,
                2.3971191401946403,
                -0.48049684747505206,
                0.7083666616908213,
                -3.1253148850246224
            ]
        }
    ]
}