{
    "goal": {
        "global_pose": {
            "orientation": {
                "w": 0.7031023480610252,
                "x": -0.7110244013736278,
                "y": 0.0077485991402295624,
                "z": 0.005598929693374583
            },
            "position": {
                "x": -0.8841497679147869,
                "y": 0.44412534475326537,
                "z": 0.3711530566215515
            }
        },
        "name": "move_to_auspresseinheit_D"
    },
    "id": "PRM_move_to_auspresseinheit_D_16",
    "joint_names": [
        "shoulder_pan_joint",
        "shoulder_lift_joint",
        "elbow_joint",
        "wrist_1_joint",
        "wrist_2_joint",
        "wrist_3_joint"
    ],
    "metrics": {
        "cart_traj_len": 0.34422210793437447,
        "distance_elbow_joint": 0.6438973404214408,
        "distance_shoulder_lift_joint": 0.1239172473656267,
        "distance_shoulder_pan_joint": 0.1346111869148851,
        "distance_wrist_1_joint": 0.5443570268636906,
        "distance_wrist_2_joint": 1.438007999261437,
        "distance_wrist_3_joint": 0.0013642922456167383,
        "smoothness": 0.0,
        "time": 0.032275467,
        "traj_len": 1.6988687686436221,
        "weighted_distance": 2.2070905517647113
    },
    "planner": "PRM",
    "start": {
        "state": {
            "elbow_joint": -1.8275523626775212,
            "shoulder_lift_joint": -2.126789852344167,
            "shoulder_pan_joint": -0.03513704404078235,
            "wrist_1_joint": -2.347782403156801,
            "wrist_2_joint": -1.6058999987535132,
            "wrist_3_joint": -3.0880379163319196
        }
    },
    "waypoints": [
        {
            "positions": [
                -0.03513704404078235,
                -2.126789852344167,
                -1.8275523626775212,
                -2.347782403156801,
                -1.6058999987535132,
                -3.0880379163319196
            ]
        },
        {
            "positions": [
                -0.05196344240514299,
                -2.14227950826487,
                -1.747065195124841,
                -2.415827031514762,
                -1.4261489988458336,
                -3.0878673798012173
            ]
        },
        {
            "positions": [
                -0.06878984076950362,
                -2.1577691641855736,
                -1.666578027572161,
                -2.4838716598727233,
                -1.246397998938154,
                -3.0876968432705154
            ]
        },
        {
            "positions": [
                -0.08561623913386426,
                -2.173258820106277,
                -1.586090860019481,
                -2.551916288230685,
                -1.0666469990304743,
                -3.0875263067398135
            ]
        },
        {
            "positions": [
                -0.10244263749822491,
                -2.18874847602698,
                -1.5056036924668008,
                -2.619960916588646,
                -0.8868959991227947,
                -3.0873557702091112
            ]
        },
        {
            "positions": [
                -0.11926903586258555,
                -2.2042381319476836,
                -1.4251165249141207,
                -2.6880055449466074,
                -0.7071449992151151,
                -3.087185233678409
            ]
        },
        {
            "positions": [
                -0.13609543422694617,
                -2.2197277878683868,
                -1.3446293573614407,
                -2.756050173304569,
                -0.5273939993074355,
                -3.087014697147707
            ]
        },
        {
            "positions": [
                -0.15292183259130682,
                -2.2352174437890904,
                -1.2641421898087606,
                -2.8240948016625302,
                -0.34764299939975585,
                -3.086844160617005
            ]
        },
        {
            "positions": [
                -0.16974823095566746,
                -2.2507070997097935,
                -1.1836550222560804,
                -2.8921394300204915,
                -0.16789199949207623,
                -3.086673624086303
            ]
        }
    ]
}