{
    "goal": {
        "global_pose": {
            "orientation": {
                "w": -0.00223480608172531,
                "x": 0.0024358444001904467,
                "y": 0.7094548369677653,
                "z": -0.704743149386269
            },
            "position": {
                "x": -0.37947507619857795,
                "y": -0.6371506643295288,
                "z": 0.19426114857196808
            }
        },
        "name": "move_to_magneteinheit_C"
    },
    "id": "PRM_move_to_magneteinheit_C_120",
    "joint_names": [
        "shoulder_pan_joint",
        "shoulder_lift_joint",
        "elbow_joint",
        "wrist_1_joint",
        "wrist_2_joint",
        "wrist_3_joint"
    ],
    "metrics": {
        "cart_traj_len": 1.1677543516868363,
        "distance_elbow_joint": 0.5394175044312632,
        "distance_shoulder_lift_joint": 0.44738144595548057,
        "distance_shoulder_pan_joint": 2.1309744402803625,
        "distance_wrist_1_joint": 0.32038310305212436,
        "distance_wrist_2_joint": 1.970264644680086,
        "distance_wrist_3_joint": 1.888606586439245,
        "smoothness": 1.3894510937032591,
        "time": 1.194641885,
        "traj_len": 2.701301117024639,
        "weighted_distance": 3.6558020522792622
    },
    "planner": "PRM",
    "start": {
        "state": {
            "elbow_joint": 1.9565354010623817,
            "shoulder_lift_joint": -1.4165861575791021,
            "shoulder_pan_joint": -1.6717766225146293,
            "wrist_1_joint": -0.5286633292919765,
            "wrist_2_joint": 1.472756589071564,
            "wrist_3_joint": -3.1238370188695823
        }
    },
    "waypoints": [
        {
            "positions": [
                -1.6717766225146293,
                -1.4165861575791021,
                1.9565354010623817,
                -0.5286633292919765,
                1.472756589071564,
                -3.1238370188695823
            ]
        },
        {
            "positions": [
                -1.7460925251065238,
                -1.409579710503019,
                1.9751409816008123,
                -0.5268579707287785,
                1.3186890044958584,
                -3.020663392123724
            ]
        },
        {
            "positions": [
                -1.8204084276984183,
                -1.402573263426936,
                1.993746562139243,
                -0.5250526121655805,
                1.1646214199201528,
                -2.917489765377866
            ]
        },
        {
            "positions": [
                -1.8947243302903127,
                -1.3955668163508528,
                2.0123521426776736,
                -0.5232472536023826,
                1.0105538353444472,
                -2.814316138632008
            ]
        },
        {
            "positions": [
                -1.969040232882207,
                -1.3885603692747697,
                2.0309577232161042,
                -0.5214418950391846,
                0.8564862507687415,
                -2.7111425118861496
            ]
        },
        {
            "positions": [
                -2.0433561354741014,
                -1.3815539221986868,
                2.0495633037545353,
                -0.5196365364759867,
                0.702418666193036,
                -2.6079688851402913
            ]
        },
        {
            "positions": [
                -2.117672038065996,
                -1.3745474751226037,
                2.068168884292966,
                -0.5178311779127888,
                0.5483510816173304,
                -2.5047952583944335
            ]
        },
        {
            "positions": [
                -2.1919879406578904,
                -1.3675410280465206,
                2.0867744648313966,
                -0.5160258193495908,
                0.3942834970416247,
                -2.4016216316485752
            ]
        },
        {
            "positions": [
                -2.266303843249785,
                -1.3605345809704374,
                2.1053800453698273,
                -0.5142204607863928,
                0.2402159124659191,
                -2.2984480049027174
            ]
        },
        {
            "positions": [
                -2.3406197458416793,
                -1.3535281338943543,
                2.123985625908258,
                -0.5124151022231949,
                0.08614832789021358,
                -2.195274378156859
            ]
        },
        {
            "positions": [
                -2.4735574186932756,
                -1.369714214840926,
                2.145111529025051,
                -0.5515869499408116,
                0.11271276010430638,
                -2.321651399778556
            ]
        },
        {
            "positions": [
                -2.6064950915448724,
                -1.3859002957874975,
                2.1662374321418443,
                -0.5907587976584283,
                0.1392771923183992,
                -2.4480284214002532
            ]
        },
        {
            "positions": [
                -2.7394327643964687,
                -1.4020863767340692,
                2.1873633352586372,
                -0.6299306453760449,
                0.16584162453249196,
                -2.5744054430219503
            ]
        },
        {
            "positions": [
                -2.872370437248065,
                -1.418272457680641,
                2.20848923837543,
                -0.6691024930936617,
                0.19240605674658479,
                -2.7007824646436474
            ]
        },
        {
            "positions": [
                -3.0053081100996617,
                -1.4344585386272124,
                2.2296151414922236,
                -0.7082743408112784,
                0.21897048896067756,
                -2.8271594862653444
            ]
        },
        {
            "positions": [
                -3.138245782951258,
                -1.450644619573784,
                2.2507410446090166,
                -0.7474461885288951,
                0.24553492117477038,
                -2.9535365078870415
            ]
        },
        {
            "positions": [
                -3.005344726982511,
                -1.3932032322555234,
                2.201698672432091,
                -0.7612669464644236,
                0.3303888792176062,
                -2.9938928710863095
            ]
        },
        {
            "positions": [
                -2.872443671013764,
                -1.3357618449372628,
                2.152656300255165,
                -0.7750877043999521,
                0.415242837260442,
                -3.034249234285577
            ]
        },
        {
            "positions": [
                -2.7395426150450177,
                -1.2783204576190024,
                2.1036139280782398,
                -0.7889084623354806,
                0.5000967953032778,
                -3.074605597484845
            ]
        },
        {
            "positions": [
                -2.606641559076271,
                -1.2208790703007417,
                2.054571555901314,
                -0.8027292202710091,
                0.5849507533461136,
                -3.114961960684113
            ]
        },
        {
            "positions": [
                -2.473740503107524,
                -1.163437682982481,
                2.0055291837243883,
                -0.8165499782065376,
                0.6698047113889494,
                -3.155318323883381
            ]
        }
    ]
}