{
    "goal": {
        "global_pose": {
            "orientation": {
                "w": 0.5084816217422485,
                "x": -0.49083608388900757,
                "y": 0.5182115435600281,
                "z": -0.4816462993621826
            },
            "position": {
                "x": 0.5540239810943604,
                "y": 0.030875300988554955,
                "z": 0.16403168439865112
            }
        },
        "name": "move_to_storage_A"
    },
    "id": "PRM_move_to_storage_A_52",
    "joint_names": [
        "shoulder_pan_joint",
        "shoulder_lift_joint",
        "elbow_joint",
        "wrist_1_joint",
        "wrist_2_joint",
        "wrist_3_joint"
    ],
    "metrics": {
        "cart_traj_len": 0.35259263491440085,
        "distance_elbow_joint": 0.4514267724989114,
        "distance_shoulder_lift_joint": 0.2335568582754013,
        "distance_shoulder_pan_joint": 0.4623608051433486,
        "distance_wrist_1_joint": 0.2501588309841961,
        "distance_wrist_2_joint": 1.0920388959644969,
        "distance_wrist_3_joint": 0.10581490098122792,
        "smoothness": 8.881784197001252e-16,
        "time": 0.035986517,
        "traj_len": 1.6110111929616078,
        "weighted_distance": 2.036954735078502
    },
    "planner": "PRM",
    "start": {
        "state": {
            "elbow_joint": 1.971548259319323,
            "shoulder_lift_joint": -1.1394851275133948,
            "shoulder_pan_joint": 0.1228115487234821,
            "wrist_1_joint": -0.7804723859257726,
            "wrist_2_joint": 0.12958671773740124,
            "wrist_3_joint": -3.192489227718131
        }
    },
    "waypoints": [
        {
            "positions": [
                0.1228115487234821,
                -1.1394851275133948,
                1.971548259319323,
                -0.7804723859257726,
                0.12958671773740124,
                -3.192489227718131
            ]
        },
        {
            "positions": [
                0.056760005131575156,
                -1.1728503929813092,
                2.036037798247739,
                -0.8162093617806577,
                0.28559227430375794,
                -3.1773728132922416
            ]
        },
        {
            "positions": [
                -0.009291538460331789,
                -1.2062156584492238,
                2.100527337176155,
                -0.851946337635543,
                0.4415978308701146,
                -3.1622563988663517
            ]
        },
        {
            "positions": [
                -0.07534308205223872,
                -1.2395809239171383,
                2.1650168761045707,
                -0.8876833134904281,
                0.5976033874364713,
                -3.147139984440462
            ]
        },
        {
            "positions": [
                -0.14139462564414568,
                -1.2729461893850527,
                2.2295064150329864,
                -0.9234202893453133,
                0.7536089440028281,
                -3.132023570014572
            ]
        },
        {
            "positions": [
                -0.20744616923605264,
                -1.3063114548529673,
                2.2939959539614025,
                -0.9591572652001984,
                0.9096145005691848,
                -3.1169071555886827
            ]
        },
        {
            "positions": [
                -0.27349771282795954,
                -1.3396767203208817,
                2.3584854928898187,
                -0.9948942410550836,
                1.0656200571355414,
                -3.1017907411627927
            ]
        },
        {
            "positions": [
                -0.3395492564198665,
                -1.373041985788796,
                2.4229750318182344,
                -1.0306312169099687,
                1.2216256137018981,
                -3.0866743267369032
            ]
        }
    ]
}{
    "goal": {
        "global_pose": {
            "orientation": {
                "w": 0.5084816217422485,
                "x": -0.49083608388900757,
                "y": 0.5182115435600281,
                "z": -0.4816462993621826
            },
            "position": {
                "x": 0.5540239810943604,
                "y": 0.030875300988554955,
                "z": 0.16403168439865112
            }
        },
        "name": "move_to_storage_A"
    },
    "id": "PRM_move_to_storage_A_52",
    "joint_names": [
        "shoulder_pan_joint",
        "shoulder_lift_joint",
        "elbow_joint",
        "wrist_1_joint",
        "wrist_2_joint",
        "wrist_3_joint"
    ],
    "metrics": {
        "cart_traj_len": 0.3532101393305268,
        "distance_elbow_joint": 0.4532669276666015,
        "distance_shoulder_lift_joint": 0.2342370247115113,
        "distance_shoulder_pan_joint": 0.4624484370189216,
        "distance_wrist_1_joint": 0.26070426623097265,
        "distance_wrist_2_joint": 1.096455027965205,
        "distance_wrist_3_joint": 0.09714544233892797,
        "smoothness": 1.3322676330666221e-15,
        "time": 0.025283463,
        "traj_len": 1.6137710884546606,
        "weighted_distance": 2.0385552003333567
    },
    "planner": "PRM",
    "start": {
        "state": {
            "elbow_joint": 1.97154746011099,
            "shoulder_lift_joint": -1.13948474672311,
            "shoulder_pan_joint": 0.12281154466712228,
            "wrist_1_joint": -0.7804688027058302,
            "wrist_2_joint": 0.12958655903071145,
            "wrist_3_joint": 3.0906928834467795
        }
    },
    "waypoints": [
        {
            "positions": [
                0.12281154466712228,
                -1.13948474672311,
                1.97154746011099,
                -0.7804688027058302,
                0.12958655903071145,
                3.0906928834467795
            ]
        },
        {
            "positions": [
                0.056747482235847774,
                -1.1729471788247545,
                2.0362998783490758,
                -0.8177122693102549,
                0.2862229915971693,
                3.104570803780912
            ]
        },
        {
            "positions": [
                -0.009316580195426735,
                -1.2064096109263989,
                2.1010522965871616,
                -0.8549557359146795,
                0.4428594241636271,
                3.1184487241150447
            ]
        },
        {
            "positions": [
                -0.07538064262670123,
                -1.2398720430280434,
                2.1658047148252475,
                -0.8921992025191041,
                0.599495856730085,
                3.132326644449177
            ]
        },
        {
            "positions": [
                -0.14144470505797574,
                -1.2733344751296878,
                2.230557133063334,
                -0.9294426691235288,
                0.7561322892965429,
                3.14620456478331
            ]
        },
        {
            "positions": [
                -0.2075087674892503,
                -1.3067969072313323,
                2.2953095513014197,
                -0.9666861357279535,
                0.9127687218630007,
                3.1600824851174423
            ]
        },
        {
            "positions": [
                -0.27357282992052473,
                -1.3402593393329767,
                2.3600619695395055,
                -1.003929602332378,
                1.0694051544294585,
                3.173960405451575
            ]
        },
        {
            "positions": [
                -0.3396368923517993,
                -1.3737217714346213,
                2.4248143877775914,
                -1.0411730689368028,
                1.2260415869959165,
                3.1878383257857075
            ]
        }
    ]
}{
    "goal": {
        "global_pose": {
            "orientation": {
                "w": 0.5084816217422485,
                "x": -0.49083608388900757,
                "y": 0.5182115435600281,
                "z": -0.4816462993621826
            },
            "position": {
                "x": 0.5540239810943604,
                "y": 0.030875300988554955,
                "z": 0.16403168439865112
            }
        },
        "name": "move_to_storage_A"
    },
    "id": "PRM_move_to_storage_A_52",
    "joint_names": [
        "shoulder_pan_joint",
        "shoulder_lift_joint",
        "elbow_joint",
        "wrist_1_joint",
        "wrist_2_joint",
        "wrist_3_joint"
    ],
    "metrics": {
        "cart_traj_len": 0.3530458641603396,
        "distance_elbow_joint": 0.4484707760240476,
        "distance_shoulder_lift_joint": 0.232266242698685,
        "distance_shoulder_pan_joint": 0.46146404753346515,
        "distance_wrist_1_joint": 0.24125894491279976,
        "distance_wrist_2_joint": 1.0982286846380085,
        "distance_wrist_3_joint": 0.10453141408876299,
        "smoothness": 8.881784267329941e-16,
        "time": 0.029790813,
        "traj_len": 1.6081729104470603,
        "weighted_distance": 2.03341352597648
    },
    "planner": "PRM",
    "start": {
        "state": {
            "elbow_joint": 1.9715472970024885,
            "shoulder_lift_joint": -1.1394870060712896,
            "shoulder_pan_joint": 0.12281152778156021,
            "wrist_1_joint": -0.780463741449964,
            "wrist_2_joint": 0.12958659822042276,
            "wrist_3_joint": 3.090690232415272
        }
    },
    "waypoints": [
        {
            "positions": [
                0.12281152778156021,
                -1.1394870060712896,
                1.9715472970024885,
                -0.780463741449964,
                0.12958659822042276,
                3.090690232415272
            ]
        },
        {
            "positions": [
                0.05688809241963662,
                -1.1726678978853875,
                2.0356145507202097,
                -0.8149293050089353,
                0.2864764103115668,
                3.1056232915708093
            ]
        },
        {
            "positions": [
                -0.009035342942286972,
                -1.2058487896994854,
                2.099681804437931,
                -0.8493948685679068,
                0.44336622240271084,
                3.120556350726347
            ]
        },
        {
            "positions": [
                -0.07495877830421055,
                -1.2390296815135833,
                2.163749058155652,
                -0.8838604321268781,
                0.6002560344938549,
                3.1354894098818846
            ]
        },
        {
            "positions": [
                -0.14088221366613415,
                -1.272210573327681,
                2.2278163118733727,
                -0.9183259956858496,
                0.757145846584999,
                3.150422469037422
            ]
        },
        {
            "positions": [
                -0.2068056490280578,
                -1.3053914651417788,
                2.291883565591094,
                -0.952791559244821,
                0.9140356586761431,
                3.1653555281929595
            ]
        },
        {
            "positions": [
                -0.27272908438998134,
                -1.3385723569558767,
                2.355950819308815,
                -0.9872571228037923,
                1.070925470767287,
                3.1802885873484974
            ]
        },
        {
            "positions": [
                -0.3386525197519049,
                -1.3717532487699746,
                2.420018073026536,
                -1.0217226863627638,
                1.2278152828584312,
                3.195221646504035
            ]
        }
    ]
}