{
    "goal": {
        "global_pose": {
            "orientation": {
                "w": 0.7047431493862688,
                "x": -0.7094548369677653,
                "y": 0.0024358444001904,
                "z": -0.0022348060817251984
            },
            "position": {
                "x": -0.39052492380142206,
                "y": 0.3671506643295288,
                "z": 0.19426114857196808
            }
        },
        "name": "move_to_magneteinheit_D"
    },
    "id": "PRM_move_to_magneteinheit_D_30",
    "joint_names": [
        "shoulder_pan_joint",
        "shoulder_lift_joint",
        "elbow_joint",
        "wrist_1_joint",
        "wrist_2_joint",
        "wrist_3_joint"
    ],
    "metrics": {
        "cart_traj_len": 3.920345895047179,
        "distance_elbow_joint": 3.7830448661053424,
        "distance_shoulder_lift_joint": 2.0012209574667175,
        "distance_shoulder_pan_joint": 3.250799703994421,
        "distance_wrist_1_joint": 3.363537585509909,
        "distance_wrist_2_joint": 2.2985463403299122,
        "distance_wrist_3_joint": 3.150148596730486,
        "smoothness": 0.5024463518446517,
        "time": 0.793196088,
        "traj_len": 4.224606259775789,
        "weighted_distance": 5.45982409693184
    },
    "planner": "PRM",
    "start": {
        "state": {
            "elbow_joint": 0.749534889911806,
            "shoulder_lift_joint": -0.6476975780787326,
            "shoulder_pan_joint": -2.711696901376241,
            "wrist_1_joint": -0.07506478083263063,
            "wrist_2_joint": 0.43296659715538205,
            "wrist_3_joint": -3.14703540197715
        }
    },
    "waypoints": [
        {
            "positions": [
                -2.711696901376241,
                -0.6476975780787326,
                0.749534889911806,
                -0.07506478083263063,
                0.43296659715538205,
                -3.14703540197715
            ]
        },
        {
            "positions": [
                -2.7552678951072758,
                -0.7103906267177029,
                0.8321828962129683,
                -0.05817308273792561,
                0.29860495396125464,
                -3.1485062455643984
            ]
        },
        {
            "positions": [
                -2.7988388888383104,
                -0.7730836753566732,
                0.9148309025141307,
                -0.04128138464322059,
                0.16424331076712723,
                -3.1499770891516468
            ]
        },
        {
            "positions": [
                -2.842409882569345,
                -0.8357767239956435,
                0.9974789088152931,
                -0.024389686548515574,
                0.029881667572999815,
                -3.1514479327388956
            ]
        },
        {
            "positions": [
                -2.88598087630038,
                -0.8984697726346138,
                1.0801269151164554,
                -0.007497988453810556,
                -0.10447997562112765,
                -3.152918776326144
            ]
        },
        {
            "positions": [
                -2.8347197094041983,
                -0.880197536713057,
                0.9657920569642113,
                -0.0957204102284636,
                -0.17840309248228775,
                -3.128220018039793
            ]
        },
        {
            "positions": [
                -2.783458542508017,
                -0.8619253007915002,
                0.8514571988119672,
                -0.18394283200311665,
                -0.25232620934344785,
                -3.103521259753442
            ]
        },
        {
            "positions": [
                -2.7321973756118356,
                -0.8436530648699434,
                0.7371223406597232,
                -0.2721652537777697,
                -0.3262493262046079,
                -3.078822501467091
            ]
        },
        {
            "positions": [
                -2.680936208715654,
                -0.8253808289483866,
                0.6227874825074791,
                -0.36038767555242274,
                -0.400172443065768,
                -3.05412374318074
            ]
        },
        {
            "positions": [
                -2.629675041819473,
                -0.8071085930268298,
                0.508452624355235,
                -0.44861009732707574,
                -0.47409555992692803,
                -3.029424984894389
            ]
        },
        {
            "positions": [
                -2.5784138749232914,
                -0.788836357105273,
                0.3941177662029909,
                -0.5368325191017288,
                -0.5480186767880881,
                -3.004726226608038
            ]
        },
        {
            "positions": [
                -2.52715270802711,
                -0.7705641211837162,
                0.2797829080507468,
                -0.6250549408763818,
                -0.6219417936492482,
                -2.980027468321687
            ]
        },
        {
            "positions": [
                -2.4758915411309284,
                -0.7522918852621594,
                0.1654480498985027,
                -0.7132773626510349,
                -0.6958649105104083,
                -2.955328710035336
            ]
        },
        {
            "positions": [
                -2.4246303742347473,
                -0.7340196493406026,
                0.05111319174625861,
                -0.8014997844256879,
                -0.7697880273715684,
                -2.930629951748985
            ]
        },
        {
            "positions": [
                -2.3733692073385657,
                -0.7157474134190458,
                -0.0632216664059854,
                -0.8897222062003409,
                -0.8437111442327284,
                -2.905931193462634
            ]
        },
        {
            "positions": [
                -2.264803365200431,
                -0.7219862539376483,
                -0.14627347707126548,
                -0.822974083481852,
                -0.8415312770929424,
                -2.787180985143119
            ]
        },
        {
            "positions": [
                -2.156237523062296,
                -0.7282250944562507,
                -0.22932528773654554,
                -0.756225960763363,
                -0.8393514099531564,
                -2.668430776823603
            ]
        },
        {
            "positions": [
                -2.047671680924161,
                -0.7344639349748532,
                -0.3123770984018256,
                -0.6894778380448742,
                -0.8371715428133704,
                -2.5496805685040878
            ]
        },
        {
            "positions": [
                -1.939105838786026,
                -0.7407027754934556,
                -0.3954289090671057,
                -0.6227297153263852,
                -0.8349916756735843,
                -2.430930360184572
            ]
        },
        {
            "positions": [
                -1.8305399966478912,
                -0.7469416160120581,
                -0.4784807197323857,
                -0.5559815926078964,
                -0.8328118085337983,
                -2.3121801518650567
            ]
        },
        {
            "positions": [
                -1.7219741545097564,
                -0.7531804565306606,
                -0.5615325303976658,
                -0.4892334698894074,
                -0.8306319413940123,
                -2.1934299435455413
            ]
        },
        {
            "positions": [
                -1.6134083123716216,
                -0.759419297049263,
                -0.6445843410629458,
                -0.4224853471709185,
                -0.8284520742542263,
                -2.074679735226026
            ]
        },
        {
            "positions": [
                -1.5048424702334864,
                -0.7656581375678655,
                -0.7276361517282259,
                -0.3557372244524295,
                -0.8262722071144403,
                -1.9559295269065102
            ]
        },
        {
            "positions": [
                -1.3962766280953516,
                -0.771896978086468,
                -0.810687962393506,
                -0.28898910173394066,
                -0.8240923399746543,
                -1.837179318586995
            ]
        },
        {
            "positions": [
                -1.2877107859572168,
                -0.7781358186050704,
                -0.893739773058786,
                -0.2222409790154517,
                -0.8219124728348681,
                -1.7184291102674794
            ]
        },
        {
            "positions": [
                -1.1791449438190817,
                -0.7843746591236729,
                -0.9767915837240662,
                -0.15549285629696274,
                -0.8197326056950821,
                -1.5996789019479638
            ]
        },
        {
            "positions": [
                -1.070579101680947,
                -0.7906134996422752,
                -1.0598433943893462,
                -0.0887447335784739,
                -0.8175527385552961,
                -1.4809286936284485
            ]
        },
        {
            "positions": [
                -0.9620132595428121,
                -0.7968523401608777,
                -1.1428952050546264,
                -0.021996610859984944,
                -0.8153728714155101,
                -1.362178485308933
            ]
        },
        {
            "positions": [
                -0.8534474174046773,
                -0.8030911806794802,
                -1.2259470157199064,
                0.0447515118585039,
                -0.813193004275724,
                -1.2434282769894176
            ]
        },
        {
            "positions": [
                -0.7448815752665423,
                -0.8093300211980826,
                -1.3089988263851864,
                0.11149963457699297,
                -0.811013137135938,
                -1.124678068669902
            ]
        },
        {
            "positions": [
                -0.6363157331284073,
                -0.8155688617166851,
                -1.3920506370504666,
                0.17824775729548192,
                -0.808833269996152,
                -1.0059278603503863
            ]
        },
        {
            "positions": [
                -0.5277498909902725,
                -0.8218077022352875,
                -1.4751024477157466,
                0.24499588001397066,
                -0.806653402856366,
                -0.887177652030871
            ]
        },
        {
            "positions": [
                -0.41918404885213767,
                -0.82804654275389,
                -1.5581542583810268,
                0.3117440027324596,
                -0.80447353571658,
                -0.7684274437113556
            ]
        },
        {
            "positions": [
                -0.31061820671400264,
                -0.8342853832724925,
                -1.6412060690463066,
                0.37849212545094857,
                -0.802293668576794,
                -0.6496772353918403
            ]
        },
        {
            "positions": [
                -0.20205236457586767,
                -0.8405242237910949,
                -1.7242578797115868,
                0.4452402481694375,
                -0.8001138014370079,
                -0.5309270270723244
            ]
        },
        {
            "positions": [
                -0.17934716462750327,
                -0.9309246544096108,
                -1.7852144820808276,
                0.5346622601631161,
                -0.7363433663254372,
                -0.4779098583431019
            ]
        },
        {
            "positions": [
                -0.1566419646791389,
                -1.0213250850281266,
                -1.8461710844500683,
                0.6240842721567947,
                -0.6725729312138664,
                -0.4248926896138794
            ]
        },
        {
            "positions": [
                -0.1339367647307745,
                -1.1117255156466423,
                -1.907127686819309,
                0.7135062841504733,
                -0.6088024961022958,
                -0.3718755208846569
            ]
        },
        {
            "positions": [
                -0.11123156478241013,
                -1.2021259462651583,
                -1.9680842891885497,
                0.802928296144152,
                -0.5450320609907249,
                -0.3188583521554344
            ]
        },
        {
            "positions": [
                -0.08852636483404573,
                -1.292526376883674,
                -2.0290408915577904,
                0.8923503081378308,
                -0.48126162587915416,
                -0.2658411834262119
            ]
        },
        {
            "positions": [
                -0.06582116488568135,
                -1.3829268075021899,
                -2.089997493927031,
                0.9817723201315093,
                -0.41749119076758345,
                -0.21282401469698942
            ]
        },
        {
            "positions": [
                -0.04311596493731695,
                -1.4733272381207057,
                -2.150954096296272,
                1.071194332125188,
                -0.35372075565601263,
                -0.15980684596776684
            ]
        },
        {
            "positions": [
                -0.020410764988952584,
                -1.5637276687392214,
                -2.2119106986655126,
                1.1606163441188664,
                -0.2899503205444419,
                -0.10678967723854438
            ]
        },
        {
            "positions": [
                0.002294434959411812,
                -1.6541280993577374,
                -2.2728673010347533,
                1.2500383561125452,
                -0.2261798854328711,
                -0.053772508509321845
            ]
        },
        {
            "positions": [
                -0.03535364860268665,
                -1.7799972429090527,
                -2.29275902598465,
                1.3048355587268794,
                -0.14531241740448242,
                -0.044748717596388
            ]
        },
        {
            "positions": [
                -0.07300173216478512,
                -1.905866386460368,
                -2.3126507509345475,
                1.3596327613412136,
                -0.06444494937609371,
                -0.03572492668345416
            ]
        },
        {
            "positions": [
                -0.11064981572688357,
                -2.0317355300116833,
                -2.3325424758844444,
                1.414429963955548,
                0.016422518652294965,
                -0.026701135770520325
            ]
        },
        {
            "positions": [
                -0.14829789928898204,
                -2.1576046735629983,
                -2.3524342008343417,
                1.4692271665698822,
                0.09728998668068367,
                -0.01767734485758648
            ]
        },
        {
            "positions": [
                -0.1859459828510805,
                -2.283473817114314,
                -2.3723259257842386,
                1.5240243691842164,
                0.17815745470907235,
                -0.008653553944652644
            ]
        }
    ]
}