{
    "goal": {
        "global_pose": {
            "orientation": {
                "w": 0.7047431493862688,
                "x": -0.7094548369677653,
                "y": 0.0024358444001904,
                "z": -0.0022348060817251984
            },
            "position": {
                "x": -0.39052492380142206,
                "y": 0.3671506643295288,
                "z": 0.19426114857196808
            }
        },
        "name": "move_to_magneteinheit_D"
    },
    "id": "PRM_move_to_magneteinheit_D_79",
    "joint_names": [
        "shoulder_pan_joint",
        "shoulder_lift_joint",
        "elbow_joint",
        "wrist_1_joint",
        "wrist_2_joint",
        "wrist_3_joint"
    ],
    "metrics": {
        "cart_traj_len": 5.588747329965659,
        "distance_elbow_joint": 5.505637154559301,
        "distance_shoulder_lift_joint": 4.028197534392271,
        "distance_shoulder_pan_joint": 6.123123355885872,
        "distance_wrist_1_joint": 4.173336189944747,
        "distance_wrist_2_joint": 1.9279864622282255,
        "distance_wrist_3_joint": 3.59756084663447,
        "smoothness": 0.5490080741007924,
        "time": 0.8418633289999999,
        "traj_len": 5.035458424378548,
        "weighted_distance": 6.217096258631259
    },
    "planner": "PRM",
    "start": {
        "state": {
            "elbow_joint": 0.749534889911806,
            "shoulder_lift_joint": -0.6476975780787326,
            "shoulder_pan_joint": -2.711696901376241,
            "wrist_1_joint": -0.07506478083263063,
            "wrist_2_joint": 0.43296659715538205,
            "wrist_3_joint": -3.14703540197715
        }
    },
    "waypoints": [
        {
            "positions": [
                -2.711696901376241,
                -0.6476975780787326,
                0.749534889911806,
                -0.07506478083263063,
                0.43296659715538205,
                -3.14703540197715
            ]
        },
        {
            "positions": [
                -2.736042042380105,
                -0.7292281254266735,
                0.8345196498042826,
                0.04411964468274146,
                0.4930128447342538,
                -3.163278296563203
            ]
        },
        {
            "positions": [
                -2.760387183383969,
                -0.8107586727746144,
                0.9195044096967592,
                0.16330407019811355,
                0.5530590923131256,
                -3.179521191149256
            ]
        },
        {
            "positions": [
                -2.784732324387833,
                -0.8922892201225553,
                1.004489169589236,
                0.28248849571348567,
                0.6131053398919972,
                -3.1957640857353087
            ]
        },
        {
            "positions": [
                -2.809077465391697,
                -0.9738197674704963,
                1.0894739294817124,
                0.4016729212288577,
                0.673151587470869,
                -3.2120069803213616
            ]
        },
        {
            "positions": [
                -2.833422606395561,
                -1.055350314818437,
                1.174458689374189,
                0.5208573467442299,
                0.7331978350497408,
                -3.2282498749074144
            ]
        },
        {
            "positions": [
                -2.857767747399425,
                -1.136880862166378,
                1.2594434492666657,
                0.6400417722596019,
                0.7932440826286125,
                -3.2444927694934673
            ]
        },
        {
            "positions": [
                -2.882112888403289,
                -1.218411409514319,
                1.3444282091591424,
                0.7592261977749741,
                0.8532903302074841,
                -3.26073566407952
            ]
        },
        {
            "positions": [
                -2.906458029407153,
                -1.2999419568622597,
                1.429412969051619,
                0.8784106232903461,
                0.9133365777863559,
                -3.276978558665573
            ]
        },
        {
            "positions": [
                -2.930803170411017,
                -1.3814725042102007,
                1.5143977289440957,
                0.9975950488057184,
                0.9733828253652277,
                -3.293221453251626
            ]
        },
        {
            "positions": [
                -2.955148311414881,
                -1.4630030515581416,
                1.5993824888365724,
                1.1167794743210904,
                1.0334290729440994,
                -3.309464347837679
            ]
        },
        {
            "positions": [
                -2.979493452418745,
                -1.5445335989060824,
                1.6843672487290489,
                1.2359638998364626,
                1.093475320522971,
                -3.3257072424237317
            ]
        },
        {
            "positions": [
                -3.003838593422609,
                -1.6260641462540235,
                1.7693520086215255,
                1.3551483253518346,
                1.1535215681018427,
                -3.3419501370097846
            ]
        },
        {
            "positions": [
                -3.028183734426473,
                -1.7075946936019644,
                1.8543367685140022,
                1.4743327508672068,
                1.2135678156807146,
                -3.3581930315958375
            ]
        },
        {
            "positions": [
                -3.052528875430337,
                -1.7891252409499052,
                1.9393215284064789,
                1.5935171763825788,
                1.2736140632595863,
                -3.3744359261818904
            ]
        },
        {
            "positions": [
                -2.9289962588201046,
                -1.754913490913788,
                1.8534977871098925,
                1.5568729221653135,
                1.2432757253133786,
                -3.297332391240044
            ]
        },
        {
            "positions": [
                -2.805463642209872,
                -1.7207017408776708,
                1.7676740458133064,
                1.5202286679480481,
                1.212937387367171,
                -3.2202288562981973
            ]
        },
        {
            "positions": [
                -2.68193102559964,
                -1.6864899908415534,
                1.6818503045167201,
                1.4835844137307825,
                1.1825990494209635,
                -3.1431253213563513
            ]
        },
        {
            "positions": [
                -2.5583984089894076,
                -1.6522782408054362,
                1.5960265632201338,
                1.4469401595135172,
                1.1522607114747558,
                -3.0660217864145047
            ]
        },
        {
            "positions": [
                -2.434865792379175,
                -1.618066490769319,
                1.5102028219235477,
                1.4102959052962518,
                1.1219223735285482,
                -2.988918251472658
            ]
        },
        {
            "positions": [
                -2.311333175768943,
                -1.5838547407332018,
                1.4243790806269614,
                1.3736516510789865,
                1.0915840355823405,
                -2.911814716530812
            ]
        },
        {
            "positions": [
                -2.1878005591587106,
                -1.5496429906970843,
                1.338555339330375,
                1.337007396861721,
                1.0612456976361329,
                -2.8347111815889656
            ]
        },
        {
            "positions": [
                -2.064267942548478,
                -1.5154312406609671,
                1.252731598033789,
                1.3003631426444557,
                1.0309073596899254,
                -2.757607646647119
            ]
        },
        {
            "positions": [
                -1.9407353259382458,
                -1.48121949062485,
                1.1669078567372027,
                1.2637188884271904,
                1.0005690217437178,
                -2.6805041117052726
            ]
        },
        {
            "positions": [
                -1.8172027093280134,
                -1.4470077405887327,
                1.0810841154406163,
                1.227074634209925,
                0.9702306837975101,
                -2.6034005767634265
            ]
        },
        {
            "positions": [
                -1.6936700927177812,
                -1.4127959905526155,
                0.9952603741440302,
                1.1904303799926594,
                0.9398923458513024,
                -2.52629704182158
            ]
        },
        {
            "positions": [
                -1.5701374761075488,
                -1.378584240516498,
                0.9094366328474439,
                1.153786125775394,
                0.9095540079050949,
                -2.4491935068797335
            ]
        },
        {
            "positions": [
                -1.4466048594973164,
                -1.3443724904803809,
                0.8236128915508576,
                1.1171418715581287,
                0.8792156699588872,
                -2.3720899719378874
            ]
        },
        {
            "positions": [
                -1.323072242887084,
                -1.3101607404442637,
                0.7377891502542713,
                1.0804976173408631,
                0.8488773320126797,
                -2.294986436996041
            ]
        },
        {
            "positions": [
                -1.1995396262768518,
                -1.2759489904081462,
                0.6519654089576852,
                1.0438533631235978,
                0.818538994066472,
                -2.2178829020541944
            ]
        },
        {
            "positions": [
                -1.0760070096666194,
                -1.241737240372029,
                0.5661416676610991,
                1.0072091089063324,
                0.7882006561202644,
                -2.140779367112348
            ]
        },
        {
            "positions": [
                -0.952474393056387,
                -1.2075254903359118,
                0.48031792636451276,
                0.9705648546890671,
                0.7578623181740568,
                -2.0636758321705013
            ]
        },
        {
            "positions": [
                -0.8289417764461549,
                -1.1733137402997946,
                0.39449418506792666,
                0.9339206004718017,
                0.7275239802278493,
                -1.9865722972286552
            ]
        },
        {
            "positions": [
                -0.7054091598359227,
                -1.1391019902636774,
                0.30867044377134034,
                0.8972763462545363,
                0.6971856422816416,
                -1.9094687622868087
            ]
        },
        {
            "positions": [
                -0.58187654322569,
                -1.1048902402275602,
                0.22284670247475402,
                0.860632092037271,
                0.6668473043354339,
                -1.8323652273449624
            ]
        },
        {
            "positions": [
                -0.45834392661545786,
                -1.070678490191443,
                0.13702296117816792,
                0.8239878378200055,
                0.6365089663892264,
                -1.755261692403116
            ]
        },
        {
            "positions": [
                -0.3348113100052257,
                -1.0364667401553256,
                0.051199219881581604,
                0.7873435836027401,
                0.6061706284430187,
                -1.6781581574612694
            ]
        },
        {
            "positions": [
                -0.21127869339499306,
                -1.0022549901192084,
                -0.034624521415004716,
                0.7506993293854747,
                0.5758322904968111,
                -1.601054622519423
            ]
        },
        {
            "positions": [
                -0.08774607678476087,
                -0.9680432400830911,
                -0.12044826271159104,
                0.7140550751682093,
                0.5454939525506035,
                -1.5239510875775766
            ]
        },
        {
            "positions": [
                0.03578653982547175,
                -0.9338314900469737,
                -0.20627200400817736,
                0.6774108209509438,
                0.5151556146043959,
                -1.4468475526357303
            ]
        },
        {
            "positions": [
                0.15931915643570393,
                -0.8996197400108565,
                -0.2920957453047637,
                0.6407665667336785,
                0.4848172766581882,
                -1.369744017693884
            ]
        },
        {
            "positions": [
                0.28285177304593656,
                -0.8654079899747392,
                -0.37791948660135,
                0.604122312516413,
                0.45447893871198053,
                -1.2926404827520375
            ]
        },
        {
            "positions": [
                0.40638438965616874,
                -0.831196239938622,
                -0.4637432278979363,
                0.5674780582991477,
                0.424140600765773,
                -1.215536947810191
            ]
        },
        {
            "positions": [
                0.5299170062664009,
                -0.7969844899025047,
                -0.5495669691945222,
                0.5308338040818823,
                0.3938022628195653,
                -1.1384334128683444
            ]
        },
        {
            "positions": [
                0.6534496228766331,
                -0.7627727398663875,
                -0.6353907104911085,
                0.49418954986461694,
                0.36346392487335777,
                -1.0613298779264984
            ]
        },
        {
            "positions": [
                0.7769822394868653,
                -0.7285609898302703,
                -0.7212144517876944,
                0.4575452956473516,
                0.3331255869271502,
                -0.9842263429846518
            ]
        },
        {
            "positions": [
                0.9005148560970979,
                -0.6943492397941531,
                -0.8070381930842807,
                0.4209010414300862,
                0.30278724898094256,
                -0.9071228080428053
            ]
        },
        {
            "positions": [
                1.0240474727073305,
                -0.6601374897580359,
                -0.892861934380867,
                0.38425678721282064,
                0.272448911034735,
                -0.8300192731009592
            ]
        },
        {
            "positions": [
                1.1475800893175627,
                -0.6259257397219185,
                -0.9786856756774533,
                0.3476125329955553,
                0.24211057308852735,
                -0.7529157381591127
            ]
        },
        {
            "positions": [
                1.2711127059277953,
                -0.5917139896858012,
                -1.06450941697404,
                0.3109682787782899,
                0.2117722351423197,
                -0.6758122032172662
            ]
        },
        {
            "positions": [
                1.1814931214253734,
                -0.6967602314819443,
                -1.1447263445844247,
                0.38678743939089344,
                0.2114200240106478,
                -0.6354754851437585
            ]
        },
        {
            "positions": [
                1.0918735369229515,
                -0.8018064732780873,
                -1.2249432721948093,
                0.46260660000349696,
                0.21106781287897594,
                -0.5951387670702508
            ]
        },
        {
            "positions": [
                1.0022539524205294,
                -0.9068527150742303,
                -1.305160199805194,
                0.5384257606161005,
                0.21071560174730408,
                -0.5548020489967431
            ]
        },
        {
            "positions": [
                0.9126343679181075,
                -1.0118989568703733,
                -1.3853771274155786,
                0.614244921228704,
                0.2103633906156322,
                -0.5144653309232354
            ]
        },
        {
            "positions": [
                0.8230147834156856,
                -1.1169451986665164,
                -1.4655940550259634,
                0.6900640818413075,
                0.2100111794839603,
                -0.4741286128497278
            ]
        },
        {
            "positions": [
                0.7333951989132635,
                -1.2219914404626593,
                -1.5458109826363482,
                0.7658832424539112,
                0.20965896835228845,
                -0.43379189477622015
            ]
        },
        {
            "positions": [
                0.6437756144108415,
                -1.3270376822588024,
                -1.6260279102467328,
                0.8417024030665147,
                0.2093067572206166,
                -0.39345517670271246
            ]
        },
        {
            "positions": [
                0.5541560299084196,
                -1.4320839240549454,
                -1.7062448378571176,
                0.9175215636791182,
                0.2089545460889447,
                -0.35311845862920477
            ]
        },
        {
            "positions": [
                0.4645364454059977,
                -1.5371301658510885,
                -1.7864617654675023,
                0.9933407242917217,
                0.20860233495727282,
                -0.3127817405556971
            ]
        },
        {
            "positions": [
                0.3749168609035757,
                -1.6421764076472316,
                -1.866678693077887,
                1.0691598849043253,
                0.20825012382560096,
                -0.2724450224821894
            ]
        },
        {
            "positions": [
                0.28529727640115365,
                -1.7472226494433745,
                -1.9468956206882717,
                1.1449790455169286,
                0.2078979126939291,
                -0.23210830440868174
            ]
        },
        {
            "positions": [
                0.19567769189873174,
                -1.8522688912395175,
                -2.0271125482986565,
                1.2207982061295324,
                0.2075457015622572,
                -0.19177158633517405
            ]
        },
        {
            "positions": [
                0.10605810739630983,
                -1.9573151330356606,
                -2.107329475909041,
                1.296617366742136,
                0.20719349043058533,
                -0.1514348682616664
            ]
        },
        {
            "positions": [
                0.016438522893887697,
                -2.0623613748318035,
                -2.187546403519426,
                1.3724365273547394,
                0.20684127929891347,
                -0.11109815018815872
            ]
        },
        {
            "positions": [
                -0.07318106160853421,
                -2.167407616627947,
                -2.26776333112981,
                1.448255687967343,
                0.2064890681672416,
                -0.07076143211465102
            ]
        },
        {
            "positions": [
                -0.16280064611095602,
                -2.2724538584240896,
                -2.3479802587401952,
                1.5240748485799465,
                0.20613685703556972,
                -0.03042471404114338
            ]
        },
        {
            "positions": [
                -0.18753709454584397,
                -2.2810726099427985,
                -2.376528987658145,
                1.514976083256353,
                0.1862750671355644,
                -0.004275603752161111
            ]
        }
    ]
}