{
    "goal": {
        "global_pose": {
            "orientation": {
                "w": 0.7031023502349854,
                "x": -0.7110244035720825,
                "y": 0.007748599164187908,
                "z": 0.005598929710686207
            },
            "position": {
                "x": 0.11585023208521307,
                "y": 0.44412534475326537,
                "z": 0.3711530566215515
            }
        },
        "name": "move_to_auspresseinheit_A"
    },
    "id": "PRM_move_to_auspresseinheit_A_54",
    "joint_names": [
        "shoulder_pan_joint",
        "shoulder_lift_joint",
        "elbow_joint",
        "wrist_1_joint",
        "wrist_2_joint",
        "wrist_3_joint"
    ],
    "metrics": {
        "cart_traj_len": 0.6896111372817824,
        "distance_elbow_joint": 0.11581400426763722,
        "distance_shoulder_lift_joint": 0.5338096961432814,
        "distance_shoulder_pan_joint": 1.0423414474887935,
        "distance_wrist_1_joint": 0.6851577826422655,
        "distance_wrist_2_joint": 0.7559022079071315,
        "distance_wrist_3_joint": 0.5986546043448775,
        "smoothness": 0.8867747717615245,
        "time": 0.216945103,
        "traj_len": 1.931755611560113,
        "weighted_distance": 2.5238955885759493
    },
    "planner": "PRM",
    "start": {
        "state": {
            "elbow_joint": 2.4225746658250005,
            "shoulder_lift_joint": -1.3736534386056498,
            "shoulder_pan_joint": -0.3378633547517467,
            "wrist_1_joint": -1.0288598680537169,
            "wrist_2_joint": 1.233022673432363,
            "wrist_3_joint": -3.0940220416140027
        }
    },
    "waypoints": [
        {
            "positions": [
                -0.3378633547517467,
                -1.3736534386056498,
                2.4225746658250005,
                -1.0288598680537169,
                1.233022673432363,
                -3.0940220416140027
            ]
        },
        {
            "positions": [
                -0.23966305511543023,
                -1.431589643939471,
                2.413273946845366,
                -0.9501481082459116,
                1.152469692277279,
                -3.059228557691579
            ]
        },
        {
            "positions": [
                -0.14146275547911377,
                -1.4895258492732923,
                2.4039732278657313,
                -0.8714363484381064,
                1.071916711122195,
                -3.0244350737691557
            ]
        },
        {
            "positions": [
                -0.04326245584279731,
                -1.5474620546071136,
                2.3946725088860967,
                -0.792724588630301,
                0.991363729967111,
                -2.989641589846732
            ]
        },
        {
            "positions": [
                0.05493784379351918,
                -1.605398259940935,
                2.385371789906462,
                -0.7140128288224958,
                0.910810748812027,
                -2.9548481059243086
            ]
        },
        {
            "positions": [
                0.15313814342983567,
                -1.6633344652747564,
                2.3760710709268276,
                -0.6353010690146905,
                0.8302577676569429,
                -2.920054622001885
            ]
        },
        {
            "positions": [
                0.2513384430661521,
                -1.7212706706085776,
                2.366770351947193,
                -0.5565893092068852,
                0.7497047865018588,
                -2.8852611380794615
            ]
        },
        {
            "positions": [
                0.3495387427024686,
                -1.779206875942399,
                2.3574696329675584,
                -0.47787754939908,
                0.6691518053467748,
                -2.850467654157038
            ]
        },
        {
            "positions": [
                0.4477390423387851,
                -1.8371430812762202,
                2.348168913987924,
                -0.3991657895912747,
                0.5885988241916907,
                -2.8156741702346144
            ]
        },
        {
            "positions": [
                0.5333187258048723,
                -1.8605830991004573,
                2.361971664798111,
                -0.41765369098454913,
                0.6257582770805105,
                -2.922443081223111
            ]
        },
        {
            "positions": [
                0.6188984092709595,
                -1.8840231169246942,
                2.3757744156082974,
                -0.4361415923778235,
                0.6629177299693302,
                -3.029211992211607
            ]
        },
        {
            "positions": [
                0.7044780927370468,
                -1.9074631347489313,
                2.3895771664184844,
                -0.45462949377109796,
                0.7000771828581499,
                -3.1359809032001036
            ]
        }
    ]
}