{
    "goal": {
        "global_pose": {
            "orientation": {
                "w": 0.005598929693374612,
                "x": 0.007748599140229565,
                "y": 0.7110244013736278,
                "z": -0.7031023480610252
            },
            "position": {
                "x": 0.1141497679147869,
                "y": -0.7141253447532654,
                "z": 0.3711530566215515
            }
        },
        "name": "move_to_auspresseinheit_B"
    },
    "id": "PRM_move_to_auspresseinheit_B_50",
    "joint_names": [
        "shoulder_pan_joint",
        "shoulder_lift_joint",
        "elbow_joint",
        "wrist_1_joint",
        "wrist_2_joint",
        "wrist_3_joint"
    ],
    "metrics": {
        "cart_traj_len": 0.5648892646313317,
        "distance_elbow_joint": 0.06488870830864402,
        "distance_shoulder_lift_joint": 0.29409463831823235,
        "distance_shoulder_pan_joint": 0.5782305769394849,
        "distance_wrist_1_joint": 0.33576035808656823,
        "distance_wrist_2_joint": 0.988690846652734,
        "distance_wrist_3_joint": 0.006805964169582346,
        "smoothness": 2.5376526478085547e-16,
        "time": 0.02422788,
        "traj_len": 1.506144446085848,
        "weighted_distance": 1.899087735085905
    },
    "planner": "PRM",
    "start": {
        "state": {
            "elbow_joint": 2.0193083361928714,
            "shoulder_lift_joint": -1.1220246554650708,
            "shoulder_pan_joint": -1.0952077554168747,
            "wrist_1_joint": -0.8559753972642168,
            "wrist_2_joint": 0.4759566250798843,
            "wrist_3_joint": -3.1240929996934557
        }
    },
    "waypoints": [
        {
            "positions": [
                -1.0952077554168747,
                -1.1220246554650708,
                2.0193083361928714,
                -0.8559753972642168,
                0.4759566250798843,
                -3.1240929996934557
            ]
        },
        {
            "positions": [
                -1.191579518240122,
                -1.1710404285181095,
                2.008493551474764,
                -0.800015337583122,
                0.6407384328553399,
                -3.1229586723318588
            ]
        },
        {
            "positions": [
                -1.2879512810633695,
                -1.2200562015711482,
                1.9976787667566567,
                -0.7440552779020274,
                0.8055202406307955,
                -3.1218243449702614
            ]
        },
        {
            "positions": [
                -1.3843230438866172,
                -1.269071974624187,
                1.9868639820385494,
                -0.6880952182209327,
                0.9703020484062512,
                -3.1206900176086645
            ]
        },
        {
            "positions": [
                -1.4806948067098644,
                -1.3180877476772257,
                1.9760491973204422,
                -0.632135158539838,
                1.135083856181707,
                -3.1195556902470676
            ]
        },
        {
            "positions": [
                -1.577066569533112,
                -1.3671035207302644,
                1.9652344126023347,
                -0.5761750988587433,
                1.2998656639571626,
                -3.1184213628854702
            ]
        },
        {
            "positions": [
                -1.6734383323563595,
                -1.4161192937833031,
                1.9544196278842274,
                -0.5202150391776486,
                1.4646474717326183,
                -3.1172870355238733
            ]
        }
    ]
}