{
    "goal": {
        "global_pose": {
            "orientation": {
                "w": 0.7031023502349854,
                "x": -0.7110244035720825,
                "y": 0.007748599164187908,
                "z": 0.005598929710686207
            },
            "position": {
                "x": 0.11585023208521307,
                "y": 0.44412534475326537,
                "z": 0.3711530566215515
            }
        },
        "name": "move_to_auspresseinheit_A"
    },
    "id": "PRM_move_to_auspresseinheit_A_119",
    "joint_names": [
        "shoulder_pan_joint",
        "shoulder_lift_joint",
        "elbow_joint",
        "wrist_1_joint",
        "wrist_2_joint",
        "wrist_3_joint"
    ],
    "metrics": {
        "cart_traj_len": 0.7842895421845872,
        "distance_elbow_joint": 0.2922949165771396,
        "distance_shoulder_lift_joint": 0.80367112459819,
        "distance_shoulder_pan_joint": 1.0425146481273633,
        "distance_wrist_1_joint": 1.9023665685327298,
        "distance_wrist_2_joint": 1.7148298161144053,
        "distance_wrist_3_joint": 0.8202403108152088,
        "smoothness": 1.3046173155202045,
        "time": 0.288590142,
        "traj_len": 2.564355159638586,
        "weighted_distance": 3.439999184744466
    },
    "planner": "PRM",
    "start": {
        "state": {
            "elbow_joint": 2.4225746658250005,
            "shoulder_lift_joint": -1.3736534386056498,
            "shoulder_pan_joint": -0.3378633547517467,
            "wrist_1_joint": -1.0288598680537169,
            "wrist_2_joint": 1.233022673432363,
            "wrist_3_joint": -3.0940220416140027
        }
    },
    "waypoints": [
        {
            "positions": [
                -0.3378633547517467,
                -1.3736534386056498,
                2.4225746658250005,
                -1.0288598680537169,
                1.233022673432363,
                -3.0940220416140027
            ]
        },
        {
            "positions": [
                -0.29475371332868305,
                -1.4343114071373038,
                2.407730827799114,
                -0.9161801436692829,
                1.130906870706872,
                -3.0587837899732153
            ]
        },
        {
            "positions": [
                -0.2516440719056193,
                -1.4949693756689575,
                2.392886989773228,
                -0.8035004192848489,
                1.0287910679813805,
                -3.023545538332428
            ]
        },
        {
            "positions": [
                -0.20853443048255565,
                -1.5556273442006114,
                2.3780431517473417,
                -0.6908206949004151,
                0.9266752652558894,
                -2.9883072866916405
            ]
        },
        {
            "positions": [
                -0.16542478905949196,
                -1.6162853127322652,
                2.3631993137214553,
                -0.578140970515981,
                0.8245594625303982,
                -2.953069035050853
            ]
        },
        {
            "positions": [
                -0.12231514763642828,
                -1.6769432812639191,
                2.348355475695569,
                -0.46546124613154716,
                0.722443659804907,
                -2.9178307834100656
            ]
        },
        {
            "positions": [
                -0.07920550621336458,
                -1.7376012497955728,
                2.333511637669683,
                -0.3527815217471133,
                0.6203278570794158,
                -2.882592531769278
            ]
        },
        {
            "positions": [
                -0.03609586479030091,
                -1.7982592183272268,
                2.3186677996437965,
                -0.24010179736267923,
                0.5182120543539246,
                -2.8473542801284903
            ]
        },
        {
            "positions": [
                0.007013776632762814,
                -1.8589171868588807,
                2.30382396161791,
                -0.12742207297824526,
                0.41609625162843333,
                -2.812116028487703
            ]
        },
        {
            "positions": [
                0.05012341805582654,
                -1.9195751553905345,
                2.2889801235920237,
                -0.014742348593811405,
                0.3139804489029422,
                -2.7768777768469155
            ]
        },
        {
            "positions": [
                0.09323305947889016,
                -1.9802331239221882,
                2.274136285566138,
                0.09793737579062256,
                0.21186464617745093,
                -2.741639525206128
            ]
        },
        {
            "positions": [
                0.13634270090195388,
                -2.040891092453842,
                2.2592924475402514,
                0.21061710017505655,
                0.10974884345195973,
                -2.7064012735653407
            ]
        },
        {
            "positions": [
                0.21825728635249764,
                -2.0213806181332057,
                2.279127925850329,
                0.11531096557361688,
                0.19275572799653154,
                -2.767870947499214
            ]
        },
        {
            "positions": [
                0.3001718718030414,
                -2.001870143812569,
                2.298963404160407,
                0.0200048309721772,
                0.27576261254110335,
                -2.8293406214330874
            ]
        },
        {
            "positions": [
                0.3820864572535852,
                -1.9823596694919323,
                2.318798882470485,
                -0.07530130362926249,
                0.3587694970856752,
                -2.8908102953669608
            ]
        },
        {
            "positions": [
                0.46400104270412895,
                -1.9628491951712956,
                2.3386343607805626,
                -0.17060743823070215,
                0.44177638163024696,
                -2.952279969300834
            ]
        },
        {
            "positions": [
                0.5459156281546728,
                -1.9433387208506592,
                2.3584698390906405,
                -0.2659135728321419,
                0.5247832661748189,
                -3.0137496432347075
            ]
        },
        {
            "positions": [
                0.6278302136052165,
                -1.9238282465300225,
                2.3783053174007183,
                -0.36121970743358156,
                0.6077901507193906,
                -3.075219317168581
            ]
        },
        {
            "positions": [
                0.7046512933756167,
                -1.9044576217038445,
                2.388305145832642,
                -0.4522725001288999,
                0.701304829585962,
                -3.1390208163318873
            ]
        }
    ]
}