{
    "goal": {
        "global_pose": {
            "orientation": {
                "w": 0.7047431493862688,
                "x": -0.7094548369677653,
                "y": 0.0024358444001904,
                "z": -0.0022348060817251984
            },
            "position": {
                "x": -0.39052492380142206,
                "y": 0.3671506643295288,
                "z": 0.19426114857196808
            }
        },
        "name": "move_to_magneteinheit_D"
    },
    "id": "PRM_move_to_magneteinheit_D_103",
    "joint_names": [
        "shoulder_pan_joint",
        "shoulder_lift_joint",
        "elbow_joint",
        "wrist_1_joint",
        "wrist_2_joint",
        "wrist_3_joint"
    ],
    "metrics": {
        "cart_traj_len": 4.307250972013895,
        "distance_elbow_joint": 3.5278962094103767,
        "distance_shoulder_lift_joint": 1.095344078643486,
        "distance_shoulder_pan_joint": 3.5750626205299145,
        "distance_wrist_1_joint": 2.260812513652083,
        "distance_wrist_2_joint": 0.6127445051014354,
        "distance_wrist_3_joint": 6.324792441901968,
        "smoothness": 0.2214229506968565,
        "time": 0.455299919,
        "traj_len": 4.170929437096635,
        "weighted_distance": 5.737577386998515
    },
    "planner": "PRM",
    "start": {
        "state": {
            "elbow_joint": 0.749534889911806,
            "shoulder_lift_joint": -0.6476975780787326,
            "shoulder_pan_joint": -2.711696901376241,
            "wrist_1_joint": -0.07506478083263063,
            "wrist_2_joint": 0.43296659715538205,
            "wrist_3_joint": -3.14703540197715
        }
    },
    "waypoints": [
        {
            "positions": [
                -2.711696901376241,
                -0.6476975780787326,
                0.749534889911806,
                -0.07506478083263063,
                0.43296659715538205,
                -3.14703540197715
            ]
        },
        {
            "positions": [
                -2.7219339140256387,
                -0.7111158001272748,
                0.6268905974444656,
                -0.029965403252932662,
                0.4279023002590183,
                -3.1208090911554285
            ]
        },
        {
            "positions": [
                -2.7321709266750362,
                -0.774534022175817,
                0.5042463049771252,
                0.01513397432676531,
                0.42283800336265454,
                -3.094582780333707
            ]
        },
        {
            "positions": [
                -2.633754454285462,
                -0.7941207837028653,
                0.4118115995271917,
                -0.002108347806311431,
                0.41798290042640407,
                -2.936078205537858
            ]
        },
        {
            "positions": [
                -2.5353379818958874,
                -0.8137075452299136,
                0.3193768940772583,
                -0.019350669939388172,
                0.41312779749015366,
                -2.7775736307420096
            ]
        },
        {
            "positions": [
                -2.436921509506313,
                -0.833294306756962,
                0.22694218862732485,
                -0.036592992072464914,
                0.4082726945539032,
                -2.619069055946161
            ]
        },
        {
            "positions": [
                -2.3385050371167386,
                -0.8528810682840103,
                0.13450748317739136,
                -0.053835314205541655,
                0.4034175916176527,
                -2.4605644811503122
            ]
        },
        {
            "positions": [
                -2.2400885647271642,
                -0.8724678298110586,
                0.04207277772745793,
                -0.07107763633861838,
                0.3985624886814023,
                -2.302059906354464
            ]
        },
        {
            "positions": [
                -2.14167209233759,
                -0.8920545913381069,
                -0.0503619277224755,
                -0.08831995847169513,
                0.39370738574515185,
                -2.143555331558615
            ]
        },
        {
            "positions": [
                -2.043255619948015,
                -0.9116413528651552,
                -0.14279663317240898,
                -0.10556228060477188,
                0.3888522828089014,
                -1.9850507567627662
            ]
        },
        {
            "positions": [
                -1.9448391475584408,
                -0.9312281143922035,
                -0.23523133862234247,
                -0.12280460273784863,
                0.383997179872651,
                -1.8265461819669175
            ]
        },
        {
            "positions": [
                -1.8464226751688662,
                -0.9508148759192518,
                -0.32766604407227595,
                -0.14004692487092538,
                0.3791420769364005,
                -1.6680416071710689
            ]
        },
        {
            "positions": [
                -1.748006202779292,
                -0.9704016374463003,
                -0.4201007495222093,
                -0.1572892470040021,
                0.37428697400015004,
                -1.5095370323752204
            ]
        },
        {
            "positions": [
                -1.6495897303897173,
                -0.9899883989733486,
                -0.5125354549721429,
                -0.17453156913707887,
                0.36943187106389963,
                -1.3510324575793715
            ]
        },
        {
            "positions": [
                -1.5511732580001432,
                -1.0095751605003969,
                -0.6049701604220762,
                -0.1917738912701556,
                0.36457676812764916,
                -1.192527882783523
            ]
        },
        {
            "positions": [
                -1.4527567856105685,
                -1.0291619220274453,
                -0.6974048658720099,
                -0.20901621340323234,
                0.3597216651913987,
                -1.0340233079876744
            ]
        },
        {
            "positions": [
                -1.3543403132209941,
                -1.0487486835544935,
                -0.7898395713219432,
                -0.22625853553630906,
                0.35486656225514823,
                -0.8755187331918255
            ]
        },
        {
            "positions": [
                -1.2559238408314197,
                -1.0683354450815419,
                -0.8822742767718766,
                -0.2435008576693858,
                0.3500114593188978,
                -0.717014158395977
            ]
        },
        {
            "positions": [
                -1.1575073684418453,
                -1.08792220660859,
                -0.9747089822218101,
                -0.26074317980246253,
                0.34515635638264736,
                -0.5585095836001281
            ]
        },
        {
            "positions": [
                -1.059090896052271,
                -1.1075089681356385,
                -1.0671436876717433,
                -0.2779855019355392,
                0.34030125344639695,
                -0.4000050088042797
            ]
        },
        {
            "positions": [
                -0.9606744236626963,
                -1.127095729662687,
                -1.1595783931216772,
                -0.29522782406861603,
                0.3354461505101465,
                -0.2415004340084308
            ]
        },
        {
            "positions": [
                -0.8622579512731219,
                -1.146682491189735,
                -1.2520130985716107,
                -0.3124701462016928,
                0.330591047573896,
                -0.08299585921258235
            ]
        },
        {
            "positions": [
                -0.7638414788835477,
                -1.1662692527167833,
                -1.3444478040215437,
                -0.32971246833476947,
                0.32573594463764555,
                0.0755087155832661
            ]
        },
        {
            "positions": [
                -0.6654250064939733,
                -1.1858560142438317,
                -1.4368825094714772,
                -0.3469547904678462,
                0.32088084170139514,
                0.234013290379115
            ]
        },
        {
            "positions": [
                -0.5670085341043984,
                -1.20544277577088,
                -1.5293172149214111,
                -0.364197112600923,
                0.31602573876514467,
                0.3925178651749639
            ]
        },
        {
            "positions": [
                -0.46859206171482404,
                -1.2250295372979283,
                -1.6217519203713446,
                -0.3814394347339997,
                0.31117063582889426,
                0.5510224399708123
            ]
        },
        {
            "positions": [
                -0.3701755893252501,
                -1.2446162988249767,
                -1.7141866258212777,
                -0.39868175686707646,
                0.3063155328926438,
                0.7095270147666608
            ]
        },
        {
            "positions": [
                -0.27175911693567567,
                -1.264203060352025,
                -1.8066213312712112,
                -0.41592407900015316,
                0.3014604299563933,
                0.8680315895625097
            ]
        },
        {
            "positions": [
                -0.17334264454610082,
                -1.2837898218790733,
                -1.899056036721145,
                -0.43316640113322996,
                0.29660532702014286,
                1.0265361643583581
            ]
        },
        {
            "positions": [
                -0.07492617215652642,
                -1.3033765834061217,
                -1.9914907421710781,
                -0.4504087232663067,
                0.2917502240838924,
                1.185040739154207
            ]
        },
        {
            "positions": [
                0.02349030023304799,
                -1.32296334493317,
                -2.0839254476210116,
                -0.4676510453993834,
                0.286895121147642,
                1.343545313950056
            ]
        },
        {
            "positions": [
                0.1219067726226224,
                -1.342550106460218,
                -2.176360153070945,
                -0.48489336753246015,
                0.2820400182113916,
                1.502049888745904
            ]
        },
        {
            "positions": [
                0.2203232450121968,
                -1.3621368679872665,
                -2.2687948585208786,
                -0.5021356896655369,
                0.2771849152751411,
                1.6605544635417528
            ]
        },
        {
            "positions": [
                0.31873971740177137,
                -1.381723629514315,
                -2.361229563970812,
                -0.5193780117986136,
                0.27232981233889064,
                1.8190590383376022
            ]
        },
        {
            "positions": [
                0.2953805727991518,
                -1.388944613769568,
                -2.3386544498609965,
                -0.6636512791533251,
                0.2332507704343169,
                1.958821831612659
            ]
        },
        {
            "positions": [
                0.2720214281965322,
                -1.396165598024821,
                -2.316079335751181,
                -0.8079245465080365,
                0.1941717285297432,
                2.098584624887716
            ]
        },
        {
            "positions": [
                0.24866228359391263,
                -1.4033865822800742,
                -2.2935042216413652,
                -0.952197813862748,
                0.1550926866251695,
                2.2383474181627734
            ]
        },
        {
            "positions": [
                0.22530313899129306,
                -1.4106075665353273,
                -2.2709291075315496,
                -1.0964710812174594,
                0.11601364472059578,
                2.3781102114378303
            ]
        },
        {
            "positions": [
                0.20194399438867344,
                -1.4178285507905803,
                -2.248353993421734,
                -1.240744348572171,
                0.07693460281602205,
                2.517873004712887
            ]
        },
        {
            "positions": [
                0.17858484978605388,
                -1.4250495350458334,
                -2.2257788793119184,
                -1.3850176159268823,
                0.037855560911448344,
                2.657635797987944
            ]
        },
        {
            "positions": [
                0.1552257051834343,
                -1.4322705193010865,
                -2.203203765202103,
                -1.5292908832815937,
                -0.0012234809931254143,
                2.7973985912630015
            ]
        },
        {
            "positions": [
                0.13186656058081472,
                -1.4394915035563396,
                -2.180628651092287,
                -1.673564150636305,
                -0.04030252289769909,
                2.937161384538058
            ]
        },
        {
            "positions": [
                0.10850741597819513,
                -1.4467124878115927,
                -2.1580535369824716,
                -1.8178374179910166,
                -0.07938156480227282,
                3.0769241778131153
            ]
        },
        {
            "positions": [
                0.02923770711690299,
                -1.536000297184769,
                -2.228736598447305,
                -1.8971648499037836,
                -0.10076626543786213,
                3.0690411508484345
            ]
        },
        {
            "positions": [
                -0.050032001744389154,
                -1.6252881065579456,
                -2.299419659912138,
                -1.9764922818165505,
                -0.12215096607345144,
                3.0611581238837537
            ]
        },
        {
            "positions": [
                -0.1293017106056813,
                -1.714575915931122,
                -2.3701027213769716,
                -2.0558197137293175,
                -0.14353566670904075,
                3.053275096919073
            ]
        },
        {
            "positions": [
                -0.18493823375253843,
                -1.7430416567222187,
                -2.3681961772320537,
                -2.1554797841659217,
                -0.17977790794605344,
                3.13045887813673
            ]
        }
    ]
}