{
    "goal": {
        "global_pose": {
            "orientation": {
                "w": 0.7031023480610252,
                "x": -0.7110244013736278,
                "y": 0.0077485991402295624,
                "z": 0.005598929693374583
            },
            "position": {
                "x": -0.8841497679147869,
                "y": 0.44412534475326537,
                "z": 0.3711530566215515
            }
        },
        "name": "move_to_auspresseinheit_D"
    },
    "id": "PRM_move_to_auspresseinheit_D_76",
    "joint_names": [
        "shoulder_pan_joint",
        "shoulder_lift_joint",
        "elbow_joint",
        "wrist_1_joint",
        "wrist_2_joint",
        "wrist_3_joint"
    ],
    "metrics": {
        "cart_traj_len": 0.343038810106559,
        "distance_elbow_joint": 0.6545661522231929,
        "distance_shoulder_lift_joint": 0.13052070619241674,
        "distance_shoulder_pan_joint": 0.13323004706235864,
        "distance_wrist_1_joint": 0.5951755661902101,
        "distance_wrist_2_joint": 1.4308505979238355,
        "distance_wrist_3_joint": 0.05516922656053236,
        "smoothness": 0.0,
        "time": 0.021047801999999997,
        "traj_len": 1.7319100138727028,
        "weighted_distance": 2.266247319554434
    },
    "planner": "PRM",
    "start": {
        "state": {
            "elbow_joint": -1.8275523626775212,
            "shoulder_lift_joint": -2.126789852344167,
            "shoulder_pan_joint": -0.03513704404078235,
            "wrist_1_joint": -2.347782403156801,
            "wrist_2_joint": -1.6058999987535132,
            "wrist_3_joint": -3.0880379163319196
        }
    },
    "waypoints": [
        {
            "positions": [
                -0.03513704404078235,
                -2.126789852344167,
                -1.8275523626775212,
                -2.347782403156801,
                -1.6058999987535132,
                -3.0880379163319196
            ]
        },
        {
            "positions": [
                -0.05179079992357718,
                -2.143104940618219,
                -1.745731593649622,
                -2.422179348930577,
                -1.4270436740130337,
                -3.081141763011853
            ]
        },
        {
            "positions": [
                -0.06844455580637201,
                -2.159420028892271,
                -1.663910824621723,
                -2.4965762947043535,
                -1.2481873492725544,
                -3.0742456096917863
            ]
        },
        {
            "positions": [
                -0.08509831168916684,
                -2.1757351171663233,
                -1.5820900555938238,
                -2.57097324047813,
                -1.0693310245320748,
                -3.06734945637172
            ]
        },
        {
            "positions": [
                -0.10175206757196167,
                -2.192050205440375,
                -1.5002692865659246,
                -2.645370186251906,
                -0.8904746997915954,
                -3.0604533030516534
            ]
        },
        {
            "positions": [
                -0.1184058234547565,
                -2.208365293714427,
                -1.4184485175380255,
                -2.719767132025682,
                -0.711618375051116,
                -3.0535571497315868
            ]
        },
        {
            "positions": [
                -0.13505957933755133,
                -2.2246803819884793,
                -1.3366277485101266,
                -2.7941640777994583,
                -0.5327620503106365,
                -3.0466609964115205
            ]
        },
        {
            "positions": [
                -0.15171333522034616,
                -2.2409954702625314,
                -1.2548069794822274,
                -2.8685610235732346,
                -0.3539057255701572,
                -3.039764843091454
            ]
        },
        {
            "positions": [
                -0.168367091103141,
                -2.2573105585365836,
                -1.1729862104543283,
                -2.942957969347011,
                -0.1750494008296777,
                -3.0328686897713872
            ]
        }
    ]
}