{
    "goal": {
        "global_pose": {
            "orientation": {
                "w": 0.005598929693374612,
                "x": 0.007748599140229565,
                "y": 0.7110244013736278,
                "z": -0.7031023480610252
            },
            "position": {
                "x": 0.1141497679147869,
                "y": -0.7141253447532654,
                "z": 0.3711530566215515
            }
        },
        "name": "move_to_auspresseinheit_B"
    },
    "id": "PRM_move_to_auspresseinheit_B_21",
    "joint_names": [
        "shoulder_pan_joint",
        "shoulder_lift_joint",
        "elbow_joint",
        "wrist_1_joint",
        "wrist_2_joint",
        "wrist_3_joint"
    ],
    "metrics": {
        "cart_traj_len": 0.5652113962515867,
        "distance_elbow_joint": 0.06229468060420684,
        "distance_shoulder_lift_joint": 0.29503477445855664,
        "distance_shoulder_pan_joint": 0.5777816210495319,
        "distance_wrist_1_joint": 0.3229919389791105,
        "distance_wrist_2_joint": 0.9912029507443518,
        "distance_wrist_3_joint": 0.008516335926226137,
        "smoothness": 0.0,
        "time": 0.036287278,
        "traj_len": 1.5026051716142814,
        "weighted_distance": 1.8944787840822863
    },
    "planner": "PRM",
    "start": {
        "state": {
            "elbow_joint": 2.0193083361928714,
            "shoulder_lift_joint": -1.1220246554650708,
            "shoulder_pan_joint": -1.0952077554168747,
            "wrist_1_joint": -0.8559753972642168,
            "wrist_2_joint": 0.4759566250798843,
            "wrist_3_joint": -3.1240929996934557
        }
    },
    "waypoints": [
        {
            "positions": [
                -1.0952077554168747,
                -1.1220246554650708,
                2.0193083361928714,
                -0.8559753972642168,
                0.4759566250798843,
                -3.1240929996934557
            ]
        },
        {
            "positions": [
                -1.1915046922584633,
                -1.1711971178748302,
                2.0089258894255035,
                -0.8021434074343651,
                0.6411571168706096,
                -3.125512389014493
            ]
        },
        {
            "positions": [
                -1.287801629100052,
                -1.2203695802845898,
                1.9985434426581359,
                -0.7483114176045133,
                0.8063576086613349,
                -3.126931778335531
            ]
        },
        {
            "positions": [
                -1.3840985659416405,
                -1.2695420426943491,
                1.988160995890768,
                -0.6944794277746615,
                0.9715581004520601,
                -3.128351167656569
            ]
        },
        {
            "positions": [
                -1.4803955027832292,
                -1.3187145051041085,
                1.9777785491234001,
                -0.6406474379448098,
                1.1367585922427854,
                -3.1297705569776064
            ]
        },
        {
            "positions": [
                -1.5766924396248179,
                -1.367886967513868,
                1.9673961023560325,
                -0.586815448114958,
                1.301959084033511,
                -3.131189946298644
            ]
        },
        {
            "positions": [
                -1.6729893764664066,
                -1.4170594299236274,
                1.9570136555886646,
                -0.5329834582851063,
                1.4671595758242362,
                -3.132609335619682
            ]
        }
    ]
}