{
    "goal": {
        "global_pose": {
            "orientation": {
                "w": 0.005598929693374612,
                "x": 0.007748599140229565,
                "y": 0.7110244013736278,
                "z": -0.7031023480610252
            },
            "position": {
                "x": 0.1141497679147869,
                "y": -0.7141253447532654,
                "z": 0.3711530566215515
            }
        },
        "name": "move_to_auspresseinheit_B"
    },
    "id": "PRM_move_to_auspresseinheit_B_98",
    "joint_names": [
        "shoulder_pan_joint",
        "shoulder_lift_joint",
        "elbow_joint",
        "wrist_1_joint",
        "wrist_2_joint",
        "wrist_3_joint"
    ],
    "metrics": {
        "cart_traj_len": 0.5647818913810736,
        "distance_elbow_joint": 0.06389144273674652,
        "distance_shoulder_lift_joint": 0.2952912541379933,
        "distance_shoulder_pan_joint": 0.578622995925695,
        "distance_wrist_1_joint": 0.3348969674365293,
        "distance_wrist_2_joint": 0.9868844697741814,
        "distance_wrist_3_joint": 0.003963473129151129,
        "smoothness": 5.075305255429287e-16,
        "time": 0.021319009,
        "traj_len": 1.5045100874172619,
        "weighted_distance": 1.8955893507321966
    },
    "planner": "PRM",
    "start": {
        "state": {
            "elbow_joint": 2.0193083361928714,
            "shoulder_lift_joint": -1.1220246554650708,
            "shoulder_pan_joint": -1.0952077554168747,
            "wrist_1_joint": -0.8559753972642168,
            "wrist_2_joint": 0.4759566250798843,
            "wrist_3_joint": -3.1240929996934557
        }
    },
    "waypoints": [
        {
            "positions": [
                -1.0952077554168747,
                -1.1220246554650708,
                2.0193083361928714,
                -0.8559753972642168,
                0.4759566250798843,
                -3.1240929996934557
            ]
        },
        {
            "positions": [
                -1.1916449214044904,
                -1.1712398644880697,
                2.0086597624034135,
                -0.8001592360247952,
                0.6404373700422479,
                -3.1247535785483143
            ]
        },
        {
            "positions": [
                -1.2880820873921064,
                -1.2204550735110686,
                1.998011188613956,
                -0.7443430747853736,
                0.8049181150046114,
                -3.125414157403173
            ]
        },
        {
            "positions": [
                -1.3845192533797221,
                -1.2696702825340673,
                1.987362614824498,
                -0.6885269135459522,
                0.969398859966975,
                -3.1260747362580315
            ]
        },
        {
            "positions": [
                -1.480956419367338,
                -1.3188854915570662,
                1.9767140410350403,
                -0.6327107523065306,
                1.1338796049293385,
                -3.1267353151128896
            ]
        },
        {
            "positions": [
                -1.5773935853549539,
                -1.3681007005800652,
                1.9660654672455826,
                -0.576894591067109,
                1.2983603498917022,
                -3.127395893967748
            ]
        },
        {
            "positions": [
                -1.6738307513425696,
                -1.417315909603064,
                1.955416893456125,
                -0.5210784298276875,
                1.4628410948540658,
                -3.128056472822607
            ]
        }
    ]
}