{
    "goal": {
        "global_pose": {
            "orientation": {
                "w": 0.005598929693374612,
                "x": 0.007748599140229565,
                "y": 0.7110244013736278,
                "z": -0.7031023480610252
            },
            "position": {
                "x": 0.1141497679147869,
                "y": -0.7141253447532654,
                "z": 0.3711530566215515
            }
        },
        "name": "move_to_auspresseinheit_B"
    },
    "id": "PRM_move_to_auspresseinheit_B_143",
    "joint_names": [
        "shoulder_pan_joint",
        "shoulder_lift_joint",
        "elbow_joint",
        "wrist_1_joint",
        "wrist_2_joint",
        "wrist_3_joint"
    ],
    "metrics": {
        "cart_traj_len": 0.5648219531975356,
        "distance_elbow_joint": 0.0638598411709177,
        "distance_shoulder_lift_joint": 0.29481678947044876,
        "distance_shoulder_pan_joint": 0.5782992232557096,
        "distance_wrist_1_joint": 0.3318282852831954,
        "distance_wrist_2_joint": 0.9871141821612168,
        "distance_wrist_3_joint": 0.0047659593135866984,
        "smoothness": 0.0,
        "time": 0.014128752000000001,
        "traj_len": 1.5035572089731322,
        "weighted_distance": 1.894507499781054
    },
    "planner": "PRM",
    "start": {
        "state": {
            "elbow_joint": 2.0193083361928714,
            "shoulder_lift_joint": -1.1220246554650708,
            "shoulder_pan_joint": -1.0952077554168747,
            "wrist_1_joint": -0.8559753972642168,
            "wrist_2_joint": 0.4759566250798843,
            "wrist_3_joint": -3.1240929996934557
        }
    },
    "waypoints": [
        {
            "positions": [
                -1.0952077554168747,
                -1.1220246554650708,
                2.0193083361928714,
                -0.8559753972642168,
                0.4759566250798843,
                -3.1240929996934557
            ]
        },
        {
            "positions": [
                -1.1915909592928262,
                -1.1711607870434788,
                2.008665029331052,
                -0.8006706830503509,
                0.6404756554400871,
                -3.1232986731411914
            ]
        },
        {
            "positions": [
                -1.2879741631687778,
                -1.220296918621887,
                1.9980217224692323,
                -0.745365968836485,
                0.8049946858002899,
                -3.1225043465889266
            ]
        },
        {
            "positions": [
                -1.3843573670447293,
                -1.2694330502002953,
                1.9873784156074126,
                -0.690061254622619,
                0.9695137161604928,
                -3.1217100200366623
            ]
        },
        {
            "positions": [
                -1.480740570920681,
                -1.3185691817787033,
                1.9767351087455929,
                -0.6347565404087532,
                1.1340327465206954,
                -3.120915693484398
            ]
        },
        {
            "positions": [
                -1.5771237747966327,
                -1.3677053133571113,
                1.9660918018837734,
                -0.5794518261948873,
                1.2985517768808983,
                -3.1201213669321333
            ]
        },
        {
            "positions": [
                -1.6735069786725842,
                -1.4168414449355196,
                1.9554484950219537,
                -0.5241471119810214,
                1.4630708072411012,
                -3.119327040379869
            ]
        }
    ]
}