{
    "goal": {
        "global_pose": {
            "orientation": {
                "w": 0.5084816217422485,
                "x": -0.49083608388900757,
                "y": 0.5182115435600281,
                "z": -0.4816462993621826
            },
            "position": {
                "x": 0.5540239810943604,
                "y": 0.030875300988554955,
                "z": 0.16403168439865112
            }
        },
        "name": "move_to_storage_A"
    },
    "id": "PRM_move_to_storage_A_7",
    "joint_names": [
        "shoulder_pan_joint",
        "shoulder_lift_joint",
        "elbow_joint",
        "wrist_1_joint",
        "wrist_2_joint",
        "wrist_3_joint"
    ],
    "metrics": {
        "cart_traj_len": 0.35214595684352523,
        "distance_elbow_joint": 0.4517385575290971,
        "distance_shoulder_lift_joint": 0.23451581102917696,
        "distance_shoulder_pan_joint": 0.4602798072254536,
        "distance_wrist_1_joint": 0.2493987526600675,
        "distance_wrist_2_joint": 1.0982411829196184,
        "distance_wrist_3_joint": 0.09747240120899336,
        "smoothness": 8.881784232165597e-16,
        "time": 0.023841828000000002,
        "traj_len": 1.6098591592348712,
        "weighted_distance": 2.0332809079342873
    },
    "planner": "PRM",
    "start": {
        "state": {
            "elbow_joint": 1.971548259319323,
            "shoulder_lift_joint": -1.1394851275133948,
            "shoulder_pan_joint": 0.1228115487234821,
            "wrist_1_joint": -0.7804723859257726,
            "wrist_2_joint": 0.12958671773740124,
            "wrist_3_joint": -3.192489227718131
        }
    },
    "waypoints": [
        {
            "positions": [
                0.1228115487234821,
                -1.1394851275133948,
                1.971548259319323,
                -0.7804723859257726,
                0.12958671773740124,
                -3.192489227718131
            ]
        },
        {
            "positions": [
                0.05705729054841731,
                -1.1729873862318487,
                2.0360823389663367,
                -0.8161007791629251,
                0.2864783152973467,
                -3.1785645989739892
            ]
        },
        {
            "positions": [
                -0.008696967626647484,
                -1.2064896449503024,
                2.1006164186133507,
                -0.8517291724000776,
                0.4433699128572922,
                -3.1646399702298473
            ]
        },
        {
            "positions": [
                -0.07445122580171229,
                -1.2399919036687563,
                2.1651504982603647,
                -0.8873575656372301,
                0.6002615104172376,
                -3.1507153414857054
            ]
        },
        {
            "positions": [
                -0.14020548397677707,
                -1.2734941623872102,
                2.2296845779073786,
                -0.9229859588743826,
                0.7571531079771832,
                -3.1367907127415635
            ]
        },
        {
            "positions": [
                -0.20595974215184187,
                -1.3069964211056642,
                2.294218657554392,
                -0.9586143521115351,
                0.9140447055371287,
                -3.1228660839974216
            ]
        },
        {
            "positions": [
                -0.2717140003269067,
                -1.3404986798241179,
                2.358752737201406,
                -0.9942427453486876,
                1.070936303097074,
                -3.1089414552532797
            ]
        },
        {
            "positions": [
                -0.3374682585019715,
                -1.3740009385425718,
                2.42328681684842,
                -1.0298711385858401,
                1.2278279006570196,
                -3.095016826509138
            ]
        }
    ]
}{
    "goal": {
        "global_pose": {
            "orientation": {
                "w": 0.5084816217422485,
                "x": -0.49083608388900757,
                "y": 0.5182115435600281,
                "z": -0.4816462993621826
            },
            "position": {
                "x": 0.5540239810943604,
                "y": 0.030875300988554955,
                "z": 0.16403168439865112
            }
        },
        "name": "move_to_storage_A"
    },
    "id": "PRM_move_to_storage_A_7",
    "joint_names": [
        "shoulder_pan_joint",
        "shoulder_lift_joint",
        "elbow_joint",
        "wrist_1_joint",
        "wrist_2_joint",
        "wrist_3_joint"
    ],
    "metrics": {
        "cart_traj_len": 0.353844399278255,
        "distance_elbow_joint": 0.4494344799422336,
        "distance_shoulder_lift_joint": 0.23306770963665246,
        "distance_shoulder_pan_joint": 0.46176860477938303,
        "distance_wrist_1_joint": 0.24492605062813544,
        "distance_wrist_2_joint": 1.1033346622306486,
        "distance_wrist_3_joint": 0.09408175365069615,
        "smoothness": 0.0,
        "time": 0.019898881,
        "traj_len": 1.6082951410943669,
        "weighted_distance": 2.030526404907832
    },
    "planner": "PRM",
    "start": {
        "state": {
            "elbow_joint": 1.97154746011099,
            "shoulder_lift_joint": -1.13948474672311,
            "shoulder_pan_joint": 0.12281154466712228,
            "wrist_1_joint": -0.7804688027058302,
            "wrist_2_joint": 0.12958655903071145,
            "wrist_3_joint": 3.0906928834467795
        }
    },
    "waypoints": [
        {
            "positions": [
                0.12281154466712228,
                -1.13948474672311,
                1.97154746011099,
                -0.7804688027058302,
                0.12958655903071145,
                3.0906928834467795
            ]
        },
        {
            "positions": [
                0.05684460112721043,
                -1.1727801338140602,
                2.0357523858170232,
                -0.8154582385098496,
                0.28720579649223266,
                3.1041331339683076
            ]
        },
        {
            "positions": [
                -0.00912234241270142,
                -1.2060755209050107,
                2.0999573115230565,
                -0.8504476743138689,
                0.44482503395375383,
                3.1175733844898357
            ]
        },
        {
            "positions": [
                -0.07508928595261329,
                -1.239370907995961,
                2.16416223722909,
                -0.8854371101178882,
                0.6024442714152751,
                3.1310136350113638
            ]
        },
        {
            "positions": [
                -0.1410562294925251,
                -1.2726662950869114,
                2.2283671629351236,
                -0.9204265459219075,
                0.7600635088767963,
                3.1444538855328914
            ]
        },
        {
            "positions": [
                -0.207023173032437,
                -1.3059616821778617,
                2.292572088641157,
                -0.9554159817259269,
                0.9176827463383176,
                3.1578941360544195
            ]
        },
        {
            "positions": [
                -0.27299011657234884,
                -1.339257069268812,
                2.3567770143471902,
                -0.9904054175299463,
                1.0753019837998388,
                3.1713343865759476
            ]
        },
        {
            "positions": [
                -0.33895706011226073,
                -1.3725524563597624,
                2.4209819400532235,
                -1.0253948533339656,
                1.23292122126136,
                3.1847746370974757
            ]
        }
    ]
}{
    "goal": {
        "global_pose": {
            "orientation": {
                "w": 0.5084816217422485,
                "x": -0.49083608388900757,
                "y": 0.5182115435600281,
                "z": -0.4816462993621826
            },
            "position": {
                "x": 0.5540239810943604,
                "y": 0.030875300988554955,
                "z": 0.16403168439865112
            }
        },
        "name": "move_to_storage_A"
    },
    "id": "PRM_move_to_storage_A_7",
    "joint_names": [
        "shoulder_pan_joint",
        "shoulder_lift_joint",
        "elbow_joint",
        "wrist_1_joint",
        "wrist_2_joint",
        "wrist_3_joint"
    ],
    "metrics": {
        "cart_traj_len": 0.3523602641219815,
        "distance_elbow_joint": 0.44919290990753424,
        "distance_shoulder_lift_joint": 0.23496024318073983,
        "distance_shoulder_pan_joint": 0.4616993718361926,
        "distance_wrist_1_joint": 0.24222606789494994,
        "distance_wrist_2_joint": 1.0932532723973751,
        "distance_wrist_3_joint": 0.08752752457422242,
        "smoothness": 1.1102230279970742e-15,
        "time": 0.039176079,
        "traj_len": 1.6027661681577305,
        "weighted_distance": 2.0197509200967785
    },
    "planner": "PRM",
    "start": {
        "state": {
            "elbow_joint": 1.9715472970024885,
            "shoulder_lift_joint": -1.1394870060712896,
            "shoulder_pan_joint": 0.12281152778156021,
            "wrist_1_joint": -0.780463741449964,
            "wrist_2_joint": 0.12958659822042276,
            "wrist_3_joint": 3.090690232415272
        }
    },
    "waypoints": [
        {
            "positions": [
                0.12281152778156021,
                -1.1394870060712896,
                1.9715472970024885,
                -0.780463741449964,
                0.12958659822042276,
                3.090690232415272
            ]
        },
        {
            "positions": [
                0.056854474662104124,
                -1.1730527550971095,
                2.035717712703565,
                -0.8150674654349569,
                0.28576563713433345,
                3.1031941644973036
            ]
        },
        {
            "positions": [
                -0.009102578457351962,
                -1.2066185041229296,
                2.099888128404641,
                -0.8496711894199497,
                0.44194467604824417,
                3.1156980965793353
            ]
        },
        {
            "positions": [
                -0.07505963157680803,
                -1.2401842531487495,
                2.1640585441057176,
                -0.8842749134049426,
                0.5981237149621549,
                3.128202028661367
            ]
        },
        {
            "positions": [
                -0.14101668469626413,
                -1.2737500021745696,
                2.2282289598067937,
                -0.9188786373899354,
                0.7543027538760656,
                3.140705960743399
            ]
        },
        {
            "positions": [
                -0.20697373781572023,
                -1.3073157512003895,
                2.29239937550787,
                -0.9534823613749283,
                0.9104817927899764,
                3.153209892825431
            ]
        },
        {
            "positions": [
                -0.27293079093517625,
                -1.3408815002262093,
                2.3565697912089463,
                -0.988086085359921,
                1.066660831703887,
                3.1657138249074626
            ]
        },
        {
            "positions": [
                -0.33888784405463235,
                -1.3744472492520294,
                2.420740206910023,
                -1.022689809344914,
                1.2228398706177979,
                3.1782177569894943
            ]
        }
    ]
}