{
    "goal": {
        "global_pose": {
            "orientation": {
                "w": 0.7047431493862688,
                "x": -0.7094548369677653,
                "y": 0.0024358444001904,
                "z": -0.0022348060817251984
            },
            "position": {
                "x": -0.39052492380142206,
                "y": 0.3671506643295288,
                "z": 0.19426114857196808
            }
        },
        "name": "move_to_magneteinheit_D"
    },
    "id": "PRM_move_to_magneteinheit_D_90",
    "joint_names": [
        "shoulder_pan_joint",
        "shoulder_lift_joint",
        "elbow_joint",
        "wrist_1_joint",
        "wrist_2_joint",
        "wrist_3_joint"
    ],
    "metrics": {
        "cart_traj_len": 5.092853342075729,
        "distance_elbow_joint": 3.0991162998796264,
        "distance_shoulder_lift_joint": 1.1620739054285385,
        "distance_shoulder_pan_joint": 4.1312679318465655,
        "distance_wrist_1_joint": 2.3219869958818222,
        "distance_wrist_2_joint": 1.3741141320944812,
        "distance_wrist_3_joint": 0.5092269555336291,
        "smoothness": 0.6882592847144968,
        "time": 0.333388971,
        "traj_len": 3.5493360253242665,
        "weighted_distance": 4.160810168670066
    },
    "planner": "PRM",
    "start": {
        "state": {
            "elbow_joint": 0.749534889911806,
            "shoulder_lift_joint": -0.6476975780787326,
            "shoulder_pan_joint": -2.711696901376241,
            "wrist_1_joint": -0.07506478083263063,
            "wrist_2_joint": 0.43296659715538205,
            "wrist_3_joint": -3.14703540197715
        }
    },
    "waypoints": [
        {
            "positions": [
                -2.711696901376241,
                -0.6476975780787326,
                0.749534889911806,
                -0.07506478083263063,
                0.43296659715538205,
                -3.14703540197715
            ]
        },
        {
            "positions": [
                -2.7640910072794576,
                -0.7540998950940134,
                0.7023894845367523,
                -0.05619332634115161,
                0.48993417622792634,
                -3.126627871330846
            ]
        },
        {
            "positions": [
                -2.816485113182674,
                -0.8605022121092942,
                0.6552440791616987,
                -0.03732187184967259,
                0.5469017553004707,
                -3.1062203406845423
            ]
        },
        {
            "positions": [
                -2.86887921908589,
                -0.966904529124575,
                0.608098673786645,
                -0.01845041735819357,
                0.603869334373015,
                -3.085812810038238
            ]
        },
        {
            "positions": [
                -2.9212733249891065,
                -1.0733068461398558,
                0.5609532684115913,
                0.0004210371332854512,
                0.6608369134455593,
                -3.065405279391934
            ]
        },
        {
            "positions": [
                -2.7765393587006852,
                -1.1040690179444688,
                0.46429207323240207,
                -0.06756027423841753,
                0.6175420876792652,
                -3.056243766157691
            ]
        },
        {
            "positions": [
                -2.6318053924122644,
                -1.134831189749082,
                0.3676308780532128,
                -0.1355415856101205,
                0.5742472619129712,
                -3.0470822529234476
            ]
        },
        {
            "positions": [
                -2.487071426123843,
                -1.1655933615536949,
                0.2709696828740235,
                -0.2035228969818235,
                0.5309524361466771,
                -3.0379207396892043
            ]
        },
        {
            "positions": [
                -2.342337459835422,
                -1.1963555333583078,
                0.17430848769483426,
                -0.27150420835352645,
                0.487657610380383,
                -3.028759226454961
            ]
        },
        {
            "positions": [
                -2.1976034935470006,
                -1.2271177051629207,
                0.077647292515645,
                -0.33948551972522945,
                0.44436278461408896,
                -3.0195977132207177
            ]
        },
        {
            "positions": [
                -2.0528695272585793,
                -1.257879876967534,
                -0.019013902663544302,
                -0.40746683109693244,
                0.4010679588477949,
                -3.0104361999864744
            ]
        },
        {
            "positions": [
                -1.9081355609701582,
                -1.2886420487721468,
                -0.11567509784273355,
                -0.4754481424686355,
                0.35777313308150077,
                -3.001274686752231
            ]
        },
        {
            "positions": [
                -1.7634015946817372,
                -1.3194042205767598,
                -0.2123362930219228,
                -0.5434294538403384,
                0.3144783073152067,
                -2.992113173517988
            ]
        },
        {
            "positions": [
                -1.618667628393316,
                -1.350166392381373,
                -0.30899748820111217,
                -0.6114107652120414,
                0.27118348154891264,
                -2.9829516602837445
            ]
        },
        {
            "positions": [
                -1.4739336621048948,
                -1.3809285641859859,
                -0.4056586833803013,
                -0.6793920765837443,
                0.22788865578261858,
                -2.973790147049501
            ]
        },
        {
            "positions": [
                -1.3291996958164736,
                -1.4116907359905988,
                -0.5023198785594906,
                -0.7473733879554474,
                0.1845938300163245,
                -2.964628633815258
            ]
        },
        {
            "positions": [
                -1.1844657295280523,
                -1.4424529077952117,
                -0.5989810737386799,
                -0.8153546993271503,
                0.1412990042500305,
                -2.9554671205810146
            ]
        },
        {
            "positions": [
                -1.0397317632396312,
                -1.473215079599825,
                -0.6956422689178691,
                -0.8833360106988533,
                0.09800417848373644,
                -2.9463056073467713
            ]
        },
        {
            "positions": [
                -0.89499779695121,
                -1.503977251404438,
                -0.7923034640970584,
                -0.9513173220705564,
                0.05470935271744226,
                -2.937144094112528
            ]
        },
        {
            "positions": [
                -0.7502638306627887,
                -1.534739423209051,
                -0.8889646592762478,
                -1.0192986334422591,
                0.011414526951148196,
                -2.9279825808782847
            ]
        },
        {
            "positions": [
                -0.6055298643743678,
                -1.565501595013664,
                -0.9856258544554369,
                -1.0872799448139623,
                -0.03188029881514587,
                -2.9188210676440414
            ]
        },
        {
            "positions": [
                -0.46079589808594656,
                -1.5962637668182769,
                -1.0822870496346262,
                -1.155261256185665,
                -0.07517512458143982,
                -2.909659554409798
            ]
        },
        {
            "positions": [
                -0.3160619317975253,
                -1.6270259386228898,
                -1.1789482448138155,
                -1.2232425675573682,
                -0.118469950347734,
                -2.9004980411755548
            ]
        },
        {
            "positions": [
                -0.171327965509104,
                -1.657788110427503,
                -1.275609439993005,
                -1.2912238789290713,
                -0.16176477611402806,
                -2.8913365279413115
            ]
        },
        {
            "positions": [
                -0.026593999220683173,
                -1.688550282232116,
                -1.3722706351721938,
                -1.359205190300774,
                -0.20505960188032213,
                -2.882175014707068
            ]
        },
        {
            "positions": [
                0.1181399670677381,
                -1.7193124540367288,
                -1.4689318303513832,
                -1.4271865016724772,
                -0.24835442764661608,
                -2.873013501472825
            ]
        },
        {
            "positions": [
                0.2628739333561594,
                -1.750074625841342,
                -1.5655930255305726,
                -1.4951678130441803,
                -0.29164925341291026,
                -2.8638519882385816
            ]
        },
        {
            "positions": [
                0.4076078996445806,
                -1.780836797645955,
                -1.6622542207097617,
                -1.5631491244158833,
                -0.33494407917920427,
                -2.8546904750043383
            ]
        },
        {
            "positions": [
                0.308806185711245,
                -1.7760143500024022,
                -1.7768087522527716,
                -1.6769709604770062,
                -0.30986694198261405,
                -2.8908374797644747
            ]
        },
        {
            "positions": [
                0.21000447177790943,
                -1.7711919023588496,
                -1.8913632837957814,
                -1.7907927965381292,
                -0.2847898047860239,
                -2.9269844845246107
            ]
        },
        {
            "positions": [
                0.11120275784457384,
                -1.7663694547152968,
                -2.0059178153387913,
                -1.9046146325992521,
                -0.2597126675894337,
                -2.9631314892847467
            ]
        },
        {
            "positions": [
                0.012401043911238252,
                -1.761547007071744,
                -2.1204723468818014,
                -2.018436468660375,
                -0.23463553039284352,
                -2.999278494044883
            ]
        },
        {
            "positions": [
                -0.08640067002209734,
                -1.7567245594281915,
                -2.2350268784248115,
                -2.132258304721498,
                -0.2095583931962533,
                -3.0354254988050196
            ]
        },
        {
            "positions": [
                -0.18520238395543295,
                -1.7519021117846387,
                -2.349581409967821,
                -2.2460801407826207,
                -0.1844812559996631,
                -3.0715725035651555
            ]
        }
    ]
}