{
    "goal": {
        "global_pose": {
            "orientation": {
                "w": 0.005598929693374612,
                "x": 0.007748599140229565,
                "y": 0.7110244013736278,
                "z": -0.7031023480610252
            },
            "position": {
                "x": -0.8858502320852131,
                "y": -0.7141253447532654,
                "z": 0.3711530566215515
            }
        },
        "name": "move_to_auspresseinheit_C"
    },
    "id": "PRM_move_to_auspresseinheit_C_143",
    "joint_names": [
        "shoulder_pan_joint",
        "shoulder_lift_joint",
        "elbow_joint",
        "wrist_1_joint",
        "wrist_2_joint",
        "wrist_3_joint"
    ],
    "metrics": {
        "cart_traj_len": 0.49358490935560584,
        "distance_elbow_joint": 1.0124222462628392,
        "distance_shoulder_lift_joint": 0.33085915713960223,
        "distance_shoulder_pan_joint": 0.2559784666008822,
        "distance_wrist_1_joint": 0.7042986746230798,
        "distance_wrist_2_joint": 1.3186895535981582,
        "distance_wrist_3_joint": 0.07847523878926,
        "smoothness": 3.2297397080004555e-16,
        "time": 0.016596251,
        "traj_len": 1.9237264194822044,
        "weighted_distance": 2.4250076376814937
    },
    "planner": "PRM",
    "start": {
        "state": {
            "elbow_joint": 1.7527959577737207,
            "shoulder_lift_joint": -0.9740617694225068,
            "shoulder_pan_joint": -2.967991417825858,
            "wrist_1_joint": -0.759517768980727,
            "wrist_2_joint": 1.7443932448377408,
            "wrist_3_joint": -3.0840537646736568
        }
    },
    "waypoints": [
        {
            "positions": [
                -2.967991417825858,
                -0.9740617694225068,
                1.7527959577737207,
                -0.759517768980727,
                1.7443932448377408,
                -3.0840537646736568
            ]
        },
        {
            "positions": [
                -2.94239357116577,
                -0.9409758537085465,
                1.6515537331474368,
                -0.689087901518419,
                1.612524289477925,
                -3.0919012885525827
            ]
        },
        {
            "positions": [
                -2.9167957245056817,
                -0.9078899379945863,
                1.5503115085211527,
                -0.618658034056111,
                1.4806553341181092,
                -3.0997488124315087
            ]
        },
        {
            "positions": [
                -2.891197877845593,
                -0.8748040222806261,
                1.4490692838948689,
                -0.548228166593803,
                1.3487863787582934,
                -3.1075963363104346
            ]
        },
        {
            "positions": [
                -2.865600031185505,
                -0.8417181065666659,
                1.347827059268585,
                -0.477798299131495,
                1.2169174233984776,
                -3.1154438601893606
            ]
        },
        {
            "positions": [
                -2.840002184525417,
                -0.8086321908527057,
                1.246584834642301,
                -0.40736843166918707,
                1.0850484680386616,
                -3.1232913840682865
            ]
        },
        {
            "positions": [
                -2.8144043378653287,
                -0.7755462751387454,
                1.1453426100160171,
                -0.3369385642068791,
                0.9531795126788459,
                -3.131138907947213
            ]
        },
        {
            "positions": [
                -2.7888064912052406,
                -0.7424603594247852,
                1.0441003853897333,
                -0.2665086967445711,
                0.8213105573190301,
                -3.138986431826139
            ]
        },
        {
            "positions": [
                -2.763208644545152,
                -0.7093744437108249,
                0.9428581607634493,
                -0.19607882928226306,
                0.6894416019592142,
                -3.146833955705065
            ]
        },
        {
            "positions": [
                -2.737610797885064,
                -0.6762885279968647,
                0.8416159361371653,
                -0.1256489618199551,
                0.5575726465993984,
                -3.154681479583991
            ]
        },
        {
            "positions": [
                -2.7120129512249758,
                -0.6432026122829045,
                0.7403737115108815,
                -0.055219094357647165,
                0.4257036912395827,
                -3.1625290034629168
            ]
        }
    ]
}