{
    "goal": {
        "global_pose": {
            "orientation": {
                "w": 0.7047431493862688,
                "x": -0.7094548369677653,
                "y": 0.0024358444001904,
                "z": -0.0022348060817251984
            },
            "position": {
                "x": -0.39052492380142206,
                "y": 0.3671506643295288,
                "z": 0.19426114857196808
            }
        },
        "name": "move_to_magneteinheit_D"
    },
    "id": "PRM_move_to_magneteinheit_D_74",
    "joint_names": [
        "shoulder_pan_joint",
        "shoulder_lift_joint",
        "elbow_joint",
        "wrist_1_joint",
        "wrist_2_joint",
        "wrist_3_joint"
    ],
    "metrics": {
        "cart_traj_len": 5.811370627189066,
        "distance_elbow_joint": 3.1985994085148715,
        "distance_shoulder_lift_joint": 1.6327670765089624,
        "distance_shoulder_pan_joint": 7.097438804383919,
        "distance_wrist_1_joint": 3.658297735606755,
        "distance_wrist_2_joint": 0.6510503522351254,
        "distance_wrist_3_joint": 9.897780379509637,
        "smoothness": 0.5964881639839154,
        "time": 3.829941863,
        "traj_len": 5.112331538227862,
        "weighted_distance": 7.088077497010063
    },
    "planner": "PRM",
    "start": {
        "state": {
            "elbow_joint": 0.749534889911806,
            "shoulder_lift_joint": -0.6476975780787326,
            "shoulder_pan_joint": -2.711696901376241,
            "wrist_1_joint": -0.07506478083263063,
            "wrist_2_joint": 0.43296659715538205,
            "wrist_3_joint": -3.14703540197715
        }
    },
    "waypoints": [
        {
            "positions": [
                -2.711696901376241,
                -0.6476975780787326,
                0.749534889911806,
                -0.07506478083263063,
                0.43296659715538205,
                -3.14703540197715
            ]
        },
        {
            "positions": [
                -2.7306851112774146,
                -0.8199381042967816,
                0.7616969792606929,
                -0.03808491354654078,
                0.4692854855184533,
                -3.162492820326186
            ]
        },
        {
            "positions": [
                -2.7496733211785886,
                -0.9921786305148306,
                0.77385906860958,
                -0.001105046260450937,
                0.5056043738815246,
                -3.177950238675222
            ]
        },
        {
            "positions": [
                -2.768661531079762,
                -1.1644191567328797,
                0.7860211579584669,
                0.03587482102563891,
                0.5419232622445957,
                -3.1934076570242578
            ]
        },
        {
            "positions": [
                -2.6567701221649362,
                -1.1787356303696752,
                0.7321158673658023,
                0.09421671591196765,
                0.544059050486976,
                -3.0421190741668656
            ]
        },
        {
            "positions": [
                -2.54487871325011,
                -1.1930521040064708,
                0.6782105767731377,
                0.1525586107982964,
                0.5461948387293561,
                -2.890830491309474
            ]
        },
        {
            "positions": [
                -2.432987304335284,
                -1.2073685776432663,
                0.624305286180473,
                0.21090050568462515,
                0.5483306269717364,
                -2.7395419084520816
            ]
        },
        {
            "positions": [
                -2.3210958954204575,
                -1.2216850512800619,
                0.5703999955878084,
                0.2692424005709539,
                0.5504664152141167,
                -2.58825332559469
            ]
        },
        {
            "positions": [
                -2.2092044865056315,
                -1.2360015249168574,
                0.5164947049951437,
                0.3275842954572826,
                0.5526022034564968,
                -2.4369647427372976
            ]
        },
        {
            "positions": [
                -2.097313077590805,
                -1.250317998553653,
                0.4625894144024791,
                0.3859261903436114,
                0.554737991698877,
                -2.285676159879906
            ]
        },
        {
            "positions": [
                -1.9854216686759791,
                -1.2646344721904486,
                0.4086841238098144,
                0.4442680852299402,
                0.5568737799412573,
                -2.1343875770225136
            ]
        },
        {
            "positions": [
                -1.873530259761153,
                -1.2789509458272441,
                0.3547788332171498,
                0.5026099801162689,
                0.5590095681836375,
                -1.9830989941651216
            ]
        },
        {
            "positions": [
                -1.7616388508463268,
                -1.2932674194640397,
                0.3008735426244851,
                0.5609518750025976,
                0.5611453564260177,
                -1.8318104113077296
            ]
        },
        {
            "positions": [
                -1.6497474419315006,
                -1.3075838931008352,
                0.2469682520318205,
                0.6192937698889264,
                0.563281144668398,
                -1.6805218284503376
            ]
        },
        {
            "positions": [
                -1.5378560330166744,
                -1.3219003667376308,
                0.1930629614391558,
                0.6776356647752552,
                0.5654169329107781,
                -1.5292332455929454
            ]
        },
        {
            "positions": [
                -1.4259646241018482,
                -1.3362168403744263,
                0.13915767084649122,
                0.7359775596615838,
                0.5675527211531584,
                -1.3779446627355536
            ]
        },
        {
            "positions": [
                -1.3140732151870222,
                -1.350533314011222,
                0.08525238025382664,
                0.7943194545479125,
                0.5696885093955386,
                -1.2266560798781616
            ]
        },
        {
            "positions": [
                -1.2021818062721958,
                -1.3648497876480175,
                0.03134708966116184,
                0.8526613494342414,
                0.5718242976379188,
                -1.0753674970207694
            ]
        },
        {
            "positions": [
                -1.0902903973573699,
                -1.379166261284813,
                -0.022558200931502737,
                0.9110032443205701,
                0.573960085880299,
                -0.9240789141633772
            ]
        },
        {
            "positions": [
                -0.9783989884425437,
                -1.3934827349216086,
                -0.07646349152416732,
                0.9693451392068988,
                0.5760958741226793,
                -0.7727903313059854
            ]
        },
        {
            "positions": [
                -0.8665075795277175,
                -1.4077992085584041,
                -0.1303687821168319,
                1.0276870340932276,
                0.5782316623650594,
                -0.6215017484485936
            ]
        },
        {
            "positions": [
                -0.7546161706128913,
                -1.4221156821951997,
                -0.1842740727094967,
                1.0860289289795564,
                0.5803674506074397,
                -0.4702131655912014
            ]
        },
        {
            "positions": [
                -0.6427247616980654,
                -1.4364321558319952,
                -0.23817936330216127,
                1.1443708238658852,
                0.5825032388498199,
                -0.3189245827338092
            ]
        },
        {
            "positions": [
                -0.530833352783239,
                -1.4507486294687908,
                -0.29208465389482596,
                1.202712718752214,
                0.5846390270922002,
                -0.16763599987641742
            ]
        },
        {
            "positions": [
                -0.418941943868413,
                -1.4650651031055864,
                -0.34598994448749043,
                1.2610546136385425,
                0.5867748153345803,
                -0.016347417019025645
            ]
        },
        {
            "positions": [
                -0.3070505349535866,
                -1.479381576742382,
                -0.39989523508015534,
                1.3193965085248716,
                0.5889106035769606,
                0.13494116583836702
            ]
        },
        {
            "positions": [
                -0.19515912603876062,
                -1.4936980503791775,
                -0.4538005256728198,
                1.3777384034112001,
                0.5910463918193407,
                0.28622974869575835
            ]
        },
        {
            "positions": [
                -0.08326771712393422,
                -1.508014524015973,
                -0.5077058162654845,
                1.436080298297529,
                0.593182180061721,
                0.43751833155315056
            ]
        },
        {
            "positions": [
                0.028623691790891748,
                -1.5223309976527686,
                -0.5616111068581492,
                1.4944221931838577,
                0.5953179683041012,
                0.5888069144105428
            ]
        },
        {
            "positions": [
                0.1405151007057177,
                -1.5366474712895641,
                -0.6155163974508137,
                1.5527640880701863,
                0.5974537565464815,
                0.7400954972679346
            ]
        },
        {
            "positions": [
                0.2524065096205441,
                -1.5509639449263597,
                -0.6694216880434783,
                1.611105982956515,
                0.5995895447888616,
                0.8913840801253272
            ]
        },
        {
            "positions": [
                0.3642979185353705,
                -1.5652804185631553,
                -0.7233269786361433,
                1.669447877842844,
                0.6017253330312419,
                1.042672662982719
            ]
        },
        {
            "positions": [
                0.4761893274501965,
                -1.5795968921999508,
                -0.7772322692288077,
                1.7277897727291727,
                0.6038611212736221,
                1.1939612458401108
            ]
        },
        {
            "positions": [
                0.5880807363650224,
                -1.5939133658367464,
                -0.8311375598214724,
                1.7861316676155015,
                0.6059969095160023,
                1.3452498286975034
            ]
        },
        {
            "positions": [
                0.6999721452798484,
                -1.608229839473542,
                -0.8850428504141369,
                1.84447356250183,
                0.6081326977583825,
                1.4965384115548943
            ]
        },
        {
            "positions": [
                0.8118635541946748,
                -1.6225463131103375,
                -0.9389481410068016,
                1.9028154573881588,
                0.6102684860007628,
                1.647826994412287
            ]
        },
        {
            "positions": [
                0.9237549631095012,
                -1.636862786747133,
                -0.9928534315994663,
                1.9611573522744876,
                0.6124042742431429,
                1.7991155772696787
            ]
        },
        {
            "positions": [
                1.0356463720243272,
                -1.6511792603839286,
                -1.0467587221921306,
                2.019499247160816,
                0.6145400624855232,
                1.9504041601270705
            ]
        },
        {
            "positions": [
                1.1475377809391532,
                -1.6654957340207242,
                -1.1006640127847955,
                2.077841142047145,
                0.6166758507279034,
                2.101692742984463
            ]
        },
        {
            "positions": [
                1.2594291898539796,
                -1.6798122076575197,
                -1.1545693033774604,
                2.1361830369334736,
                0.6188116389702836,
                2.252981325841855
            ]
        },
        {
            "positions": [
                1.371320598768806,
                -1.6941286812943153,
                -1.208474593970125,
                2.194524931819802,
                0.6209474272126638,
                2.4042699086992467
            ]
        },
        {
            "positions": [
                1.4832120076836315,
                -1.7084451549311108,
                -1.2623798845627894,
                2.252866826706131,
                0.6230832154550441,
                2.5555584915566394
            ]
        },
        {
            "positions": [
                1.595103416598458,
                -1.7227616285679064,
                -1.3162851751554538,
                2.3112087215924597,
                0.6252190036974242,
                2.7068470744140303
            ]
        },
        {
            "positions": [
                1.7069948255132843,
                -1.737078102204702,
                -1.3701904657481188,
                2.3695506164787887,
                0.6273547919398045,
                2.858135657271423
            ]
        },
        {
            "positions": [
                1.8188862344281107,
                -1.7513945758414975,
                -1.4240957563407832,
                2.4278925113651173,
                0.6294905801821847,
                3.0094242401288156
            ]
        },
        {
            "positions": [
                1.9307776433429362,
                -1.765711049478293,
                -1.4780010469334477,
                2.486234406251446,
                0.6316263684245649,
                3.1607128229862065
            ]
        },
        {
            "positions": [
                2.0426690522577626,
                -1.7800275231150886,
                -1.5319063375261126,
                2.544576301137775,
                0.6337621566669451,
                3.3120014058435987
            ]
        },
        {
            "positions": [
                1.9420975827236586,
                -1.8025107285177049,
                -1.5700406764051744,
                2.497622905623527,
                0.6133099897344684,
                3.1604607876401656
            ]
        },
        {
            "positions": [
                1.8415261131895546,
                -1.824993933920321,
                -1.6081750152842365,
                2.450669510109279,
                0.5928578228019917,
                3.0089201694367325
            ]
        },
        {
            "positions": [
                1.7409546436554506,
                -1.8474771393229372,
                -1.6463093541632983,
                2.4037161145950305,
                0.572405655869515,
                2.8573795512333
            ]
        },
        {
            "positions": [
                1.6403831741213466,
                -1.8699603447255535,
                -1.6844436930423603,
                2.3567627190807827,
                0.5519534889370383,
                2.7058389330298667
            ]
        },
        {
            "positions": [
                1.5398117045872426,
                -1.8924435501281698,
                -1.7225780319214221,
                2.309809323566535,
                0.5315013220045616,
                2.5542983148264335
            ]
        },
        {
            "positions": [
                1.4392402350531386,
                -1.9149267555307858,
                -1.760712370800484,
                2.2628559280522866,
                0.5110491550720849,
                2.4027576966230004
            ]
        },
        {
            "positions": [
                1.3386687655190346,
                -1.9374099609334021,
                -1.798846709679546,
                2.2159025325380384,
                0.49059698813960817,
                2.2512170784195673
            ]
        },
        {
            "positions": [
                1.2380972959849303,
                -1.9598931663360184,
                -1.8369810485586078,
                2.1689491370237906,
                0.47014482120713147,
                2.099676460216134
            ]
        },
        {
            "positions": [
                1.1375258264508263,
                -1.9823763717386347,
                -1.8751153874376696,
                2.1219957415095427,
                0.44969265427465477,
                1.9481358420127015
            ]
        },
        {
            "positions": [
                1.0369543569167223,
                -2.004859577141251,
                -1.9132497263167316,
                2.0750423459952945,
                0.42924048734217807,
                1.7965952238092686
            ]
        },
        {
            "positions": [
                0.9363828873826183,
                -2.027342782543867,
                -1.9513840651957934,
                2.028088950481046,
                0.40878832040970137,
                1.6450546056058355
            ]
        },
        {
            "positions": [
                0.8358114178485143,
                -2.049825987946483,
                -1.9895184040748553,
                1.9811355549667984,
                0.3883361534772246,
                1.4935139874024026
            ]
        },
        {
            "positions": [
                0.7352399483144103,
                -2.0723091933490996,
                -2.0276527429539173,
                1.9341821594525503,
                0.3678839865447479,
                1.3419733691989693
            ]
        },
        {
            "positions": [
                0.6346684787803063,
                -2.0947923987517156,
                -2.065787081832979,
                1.8872287639383023,
                0.3474318196122712,
                1.1904327509955364
            ]
        },
        {
            "positions": [
                0.5340970092462023,
                -2.1172756041543317,
                -2.103921420712041,
                1.8402753684240543,
                0.3269796526797945,
                1.0388921327921037
            ]
        },
        {
            "positions": [
                0.43352553971209806,
                -2.139758809556948,
                -2.142055759591103,
                1.7933219729098062,
                0.3065274857473178,
                0.8873515145886701
            ]
        },
        {
            "positions": [
                0.3329540701779943,
                -2.1622420149595643,
                -2.180190098470165,
                1.7463685773955582,
                0.2860753188148411,
                0.7358108963852374
            ]
        },
        {
            "positions": [
                0.23238260064389005,
                -2.1847252203621808,
                -2.2183244373492266,
                1.6994151818813101,
                0.26562315188236435,
                0.5842702781818043
            ]
        },
        {
            "positions": [
                0.13181113110978604,
                -2.207208425764797,
                -2.2564587762282886,
                1.652461786367062,
                0.24517098494988765,
                0.4327296599783712
            ]
        },
        {
            "positions": [
                0.03123966157568203,
                -2.229691631167413,
                -2.29459311510735,
                1.605508390852814,
                0.224718818017411,
                0.28118904177493853
            ]
        },
        {
            "positions": [
                -0.06933180795842198,
                -2.2521748365700294,
                -2.3327274539864122,
                1.558554995338566,
                0.20426665108493425,
                0.12964842357150497
            ]
        },
        {
            "positions": [
                -0.16990327749252598,
                -2.2746580419726454,
                -2.3708617928654743,
                1.511601599824318,
                0.18381448415245755,
                -0.021892194631927868
            ]
        },
        {
            "positions": [
                -0.1864745390851026,
                -2.280464654587695,
                -2.376091982509742,
                1.517283552147209,
                0.1841216043615323,
                -0.0097867335127792
            ]
        }
    ]
}