{
    "goal": {
        "global_pose": {
            "orientation": {
                "w": -0.4816463035849501,
                "x": 0.5182115481033762,
                "y": 0.4908360881923453,
                "z": -0.5084816262002911
            },
            "position": {
                "x": -0.8240239810943604,
                "y": 0.19912469901144506,
                "z": 0.16403168439865112
            }
        },
        "name": "move_to_storage_D"
    },
    "id": "PRM_move_to_storage_D_120",
    "joint_names": [
        "shoulder_pan_joint",
        "shoulder_lift_joint",
        "elbow_joint",
        "wrist_1_joint",
        "wrist_2_joint",
        "wrist_3_joint"
    ],
    "metrics": {
        "cart_traj_len": 3.676232957589417,
        "distance_elbow_joint": 4.208023593879235,
        "distance_shoulder_lift_joint": 1.2650195484253428,
        "distance_shoulder_pan_joint": 2.813333305937566,
        "distance_wrist_1_joint": 2.261455049555506,
        "distance_wrist_2_joint": 1.224058420716323,
        "distance_wrist_3_joint": 3.1348126951989186,
        "smoothness": 0.045517296869724014,
        "time": 1.004921003,
        "traj_len": 3.8609199180652394,
        "weighted_distance": 4.966069016272586
    },
    "planner": "PRM",
    "start": {
        "state": {
            "elbow_joint": -2.384821988534728,
            "shoulder_lift_joint": -2.2788054721415256,
            "shoulder_pan_joint": -0.1854694642142757,
            "wrist_1_joint": 1.4845938289331202,
            "wrist_2_joint": 0.17898776772866878,
            "wrist_3_joint": 0.037105688729662994
        }
    },
    "waypoints": [
        {
            "positions": [
                -0.1854694642142757,
                -2.2788054721415256,
                -2.384821988534728,
                1.4845938289331202,
                0.17898776772866878,
                0.037105688729662994
            ]
        },
        {
            "positions": [
                -0.10293250365341906,
                -2.2460376872165293,
                -2.2576049406861123,
                1.4435458455354138,
                0.21407898349399285,
                0.11261699611774043
            ]
        },
        {
            "positions": [
                -0.020395543092562418,
                -2.213269902291533,
                -2.1303878928374966,
                1.4024978621377076,
                0.24917019925931694,
                0.18812830350581786
            ]
        },
        {
            "positions": [
                0.06214141746829424,
                -2.1805021173665367,
                -2.003170844988881,
                1.3614498787400011,
                0.28426141502464103,
                0.2636396108938953
            ]
        },
        {
            "positions": [
                0.14467837802915087,
                -2.1477343324415403,
                -1.8759537971402653,
                1.320401895342295,
                0.3193526307899651,
                0.33915091828197275
            ]
        },
        {
            "positions": [
                0.2272153385900075,
                -2.114966547516544,
                -1.7487367492916497,
                1.2793539119445885,
                0.35444384655528915,
                0.4146622256700502
            ]
        },
        {
            "positions": [
                0.3097522991508642,
                -2.0821987625915477,
                -1.621519701443034,
                1.2383059285468823,
                0.3895350623206133,
                0.4901735330581276
            ]
        },
        {
            "positions": [
                0.3922892597117209,
                -2.0494309776665514,
                -1.4943026535944184,
                1.1972579451491758,
                0.42462627808593734,
                0.5656848404462052
            ]
        },
        {
            "positions": [
                0.4748262202725775,
                -2.0166631927415555,
                -1.367085605745803,
                1.1562099617514696,
                0.45971749385126137,
                0.6411961478342825
            ]
        },
        {
            "positions": [
                0.5573631808334342,
                -1.983895407816559,
                -1.2398685578971873,
                1.1151619783537632,
                0.4948087096165855,
                0.7167074552223599
            ]
        },
        {
            "positions": [
                0.6399001413942907,
                -1.9511276228915628,
                -1.1126515100485717,
                1.074113994956057,
                0.5298999253819096,
                0.7922187626104373
            ]
        },
        {
            "positions": [
                0.7224371019551474,
                -1.9183598379665665,
                -0.985434462199956,
                1.0330660115583505,
                0.5649911411472336,
                0.8677300699985148
            ]
        },
        {
            "positions": [
                0.8049740625160041,
                -1.8855920530415702,
                -0.8582174143513401,
                0.9920180281606442,
                0.6000823569125577,
                0.9432413773865923
            ]
        },
        {
            "positions": [
                0.8875110230768607,
                -1.8528242681165739,
                -0.7310003665027247,
                0.9509700447629379,
                0.6351735726778819,
                1.0187526847746697
            ]
        },
        {
            "positions": [
                0.9700479836377175,
                -1.8200564831915775,
                -0.6037833186541091,
                0.9099220613652316,
                0.6702647884432059,
                1.0942639921627473
            ]
        },
        {
            "positions": [
                1.052584944198574,
                -1.7872886982665812,
                -0.4765662708054934,
                0.8688740779675252,
                0.70535600420853,
                1.1697752995508246
            ]
        },
        {
            "positions": [
                1.1351219047594305,
                -1.7545209133415849,
                -0.349349222956878,
                0.8278260945698189,
                0.740447219973854,
                1.245286606938902
            ]
        },
        {
            "positions": [
                1.2176588653202873,
                -1.7217531284165886,
                -0.22213217510826233,
                0.7867781111721126,
                0.7755384357391781,
                1.3207979143269795
            ]
        },
        {
            "positions": [
                1.300195825881144,
                -1.6889853434915922,
                -0.09491512725964668,
                0.7457301277744063,
                0.8106296515045022,
                1.3963092217150568
            ]
        },
        {
            "positions": [
                1.3827327864420005,
                -1.656217558566596,
                0.03230192058896897,
                0.7046821443767,
                0.8457208672698262,
                1.4718205291031343
            ]
        },
        {
            "positions": [
                1.465269747002857,
                -1.6234497736415998,
                0.15951896843758462,
                0.6636341609789936,
                0.8808120830351504,
                1.5473318364912116
            ]
        },
        {
            "positions": [
                1.5478067075637139,
                -1.5906819887166035,
                0.28673601628620027,
                0.6225861775812873,
                0.9159032988004744,
                1.6228431438792892
            ]
        },
        {
            "positions": [
                1.6303436681245704,
                -1.5579142037916072,
                0.4139530641348159,
                0.581538194183581,
                0.9509945145657984,
                1.6983544512673665
            ]
        },
        {
            "positions": [
                1.7128806286854272,
                -1.5251464188666108,
                0.541170111983432,
                0.5404902107858746,
                0.9860857303311227,
                1.7738657586554443
            ]
        },
        {
            "positions": [
                1.7954175892462838,
                -1.4923786339416145,
                0.6683871598320477,
                0.49944222738816824,
                1.0211769460964468,
                1.8493770660435216
            ]
        },
        {
            "positions": [
                1.8779545498071406,
                -1.4596108490166182,
                0.7956042076806629,
                0.4583942439904618,
                1.0562681618617709,
                1.9248883734315991
            ]
        },
        {
            "positions": [
                1.960491510367997,
                -1.426843064091622,
                0.9228212555292785,
                0.4173462605927556,
                1.091359377627095,
                2.0003996808196765
            ]
        },
        {
            "positions": [
                2.0430284709288538,
                -1.3940752791666258,
                1.0500383033778942,
                0.37629827719504916,
                1.126450593392419,
                2.0759109882077538
            ]
        },
        {
            "positions": [
                2.1255654314897106,
                -1.3613074942416294,
                1.1772553512265098,
                0.33525029379734295,
                1.161541809157743,
                2.1514222955958315
            ]
        },
        {
            "positions": [
                2.208102392050567,
                -1.3285397093166331,
                1.3044723990751255,
                0.2942023103996365,
                1.1966330249230672,
                2.226933602983909
            ]
        },
        {
            "positions": [
                2.2906393526114237,
                -1.2957719243916368,
                1.4316894469237411,
                0.2531543270019304,
                1.2317242406883913,
                2.302444910371986
            ]
        },
        {
            "positions": [
                2.332792413750407,
                -1.260523674307205,
                1.4806284667263367,
                0.12440238354889077,
                1.2103089972188161,
                2.4111290945665607
            ]
        },
        {
            "positions": [
                2.3749454748893903,
                -1.2252754242227732,
                1.5295674865289324,
                -0.00434955990414887,
                1.1888937537492412,
                2.519813278761135
            ]
        },
        {
            "positions": [
                2.417098536028374,
                -1.1900271741383415,
                1.5785065063315282,
                -0.1331015033571885,
                1.167478510279666,
                2.6284974629557096
            ]
        },
        {
            "positions": [
                2.459251597167357,
                -1.1547789240539097,
                1.6274455261341239,
                -0.26185344681022815,
                1.1460632668100912,
                2.737181647150284
            ]
        },
        {
            "positions": [
                2.50140465830634,
                -1.1195306739694781,
                1.6763845459367195,
                -0.3906053902632678,
                1.124648023340516,
                2.8458658313448586
            ]
        },
        {
            "positions": [
                2.5435577194453236,
                -1.0842824238850464,
                1.7253235657393153,
                -0.5193573337163074,
                1.103232779870941,
                2.9545500155394326
            ]
        },
        {
            "positions": [
                2.585710780584307,
                -1.0490341738006146,
                1.774262585541911,
                -0.6481092771693471,
                1.081817536401366,
                3.063234199734007
            ]
        },
        {
            "positions": [
                2.6278638417232902,
                -1.0137859237161828,
                1.8232016053445066,
                -0.7768612206223866,
                1.060402292931791,
                3.1719183839285816
            ]
        }
    ]
}