{
    "goal": {
        "global_pose": {
            "orientation": {
                "w": 0.7047431468963623,
                "x": -0.7094548344612122,
                "y": 0.0024358443915843964,
                "z": -0.0022348060738295317
            },
            "position": {
                "x": 0.6094750761985779,
                "y": 0.3671506643295288,
                "z": 0.19426114857196808
            }
        },
        "name": "move_to_magneteinheit_A"
    },
    "id": "PRM_move_to_magneteinheit_A_89",
    "joint_names": [
        "shoulder_pan_joint",
        "shoulder_lift_joint",
        "elbow_joint",
        "wrist_1_joint",
        "wrist_2_joint",
        "wrist_3_joint"
    ],
    "metrics": {
        "cart_traj_len": 3.0893672461159585,
        "distance_elbow_joint": 3.9402287440753545,
        "distance_shoulder_lift_joint": 1.0389264276159196,
        "distance_shoulder_pan_joint": 3.4103099030044617,
        "distance_wrist_1_joint": 3.557376423283428,
        "distance_wrist_2_joint": 1.4842633176474025,
        "distance_wrist_3_joint": 1.3344918238875967,
        "smoothness": 0.1325022855508725,
        "time": 0.148114276,
        "traj_len": 3.842602846966385,
        "weighted_distance": 4.740909198478726
    },
    "planner": "PRM",
    "start": {
        "state": {
            "elbow_joint": -1.9196185241190666,
            "shoulder_lift_joint": -1.2443396400964142,
            "shoulder_pan_joint": 2.6996025414629847,
            "wrist_1_joint": -1.5485510000780065,
            "wrist_2_joint": -1.5709468930060704,
            "wrist_3_joint": 0.4420197071253992
        }
    },
    "waypoints": [
        {
            "positions": [
                2.6996025414629847,
                -1.2443396400964142,
                -1.9196185241190666,
                -1.5485510000780065,
                -1.5709468930060704,
                0.4420197071253992
            ]
        },
        {
            "positions": [
                2.579866698402036,
                -1.255985584952733,
                -1.8455409246192542,
                -1.4339109968786898,
                -1.515984702460607,
                0.4579721727715561
            ]
        },
        {
            "positions": [
                2.4601308553410877,
                -1.2676315298090521,
                -1.7714633251194416,
                -1.319270993679373,
                -1.4610225119151434,
                0.47392463841771304
            ]
        },
        {
            "positions": [
                2.3403950122801387,
                -1.279277474665371,
                -1.6973857256196292,
                -1.204630990480056,
                -1.40606032136968,
                0.48987710406387
            ]
        },
        {
            "positions": [
                2.22065916921919,
                -1.2909234195216899,
                -1.6233081261198166,
                -1.0899909872807394,
                -1.3510981308242167,
                0.5058295697100269
            ]
        },
        {
            "positions": [
                2.1009233261582416,
                -1.302569364378009,
                -1.5492305266200042,
                -0.9753509840814226,
                -1.2961359402787531,
                0.5217820353561838
            ]
        },
        {
            "positions": [
                1.981187483097293,
                -1.3142153092343278,
                -1.4751529271201917,
                -0.8607109808821058,
                -1.2411737497332898,
                0.5377345010023408
            ]
        },
        {
            "positions": [
                1.8614516400363443,
                -1.3258612540906467,
                -1.4010753276203793,
                -0.746070977682789,
                -1.1862115591878264,
                0.5536869666484977
            ]
        },
        {
            "positions": [
                1.7417157969753956,
                -1.3375071989469658,
                -1.3269977281205667,
                -0.6314309744834723,
                -1.131249368642363,
                0.5696394322946546
            ]
        },
        {
            "positions": [
                1.6219799539144473,
                -1.3491531438032847,
                -1.2529201286207543,
                -0.5167909712841554,
                -1.0762871780968997,
                0.5855918979408116
            ]
        },
        {
            "positions": [
                1.5022441108534985,
                -1.3607990886596035,
                -1.1788425291209417,
                -0.40215096808483874,
                -1.021324987551436,
                0.6015443635869686
            ]
        },
        {
            "positions": [
                1.38250826779255,
                -1.3724450335159224,
                -1.1047649296211293,
                -0.28751096488552186,
                -0.9663627970059727,
                0.6174968292331255
            ]
        },
        {
            "positions": [
                1.2627724247316012,
                -1.3840909783722415,
                -1.0306873301213169,
                -0.1728709616862052,
                -0.9114006064605092,
                0.6334492948792825
            ]
        },
        {
            "positions": [
                1.1430365816706527,
                -1.3957369232285604,
                -0.9566097306215042,
                -0.05823095848688831,
                -0.8564384159150459,
                0.6494017605254394
            ]
        },
        {
            "positions": [
                1.023300738609704,
                -1.4073828680848792,
                -0.8825321311216918,
                0.05640904471242858,
                -0.8014762253695824,
                0.6653542261715963
            ]
        },
        {
            "positions": [
                0.9035648955487554,
                -1.4190288129411983,
                -0.8084545316218794,
                0.17104904791174524,
                -0.746514034824119,
                0.6813066918177533
            ]
        },
        {
            "positions": [
                0.7838290524878067,
                -1.4306747577975172,
                -0.7343769321220668,
                0.2856890511110619,
                -0.6915518442786556,
                0.6972591574639102
            ]
        },
        {
            "positions": [
                0.6640932094268579,
                -1.442320702653836,
                -0.6602993326222542,
                0.4003290543103788,
                -0.6365896537331921,
                0.7132116231100671
            ]
        },
        {
            "positions": [
                0.5443573663659098,
                -1.4539666475101551,
                -0.586221733122442,
                0.5149690575096957,
                -0.5816274631877287,
                0.7291640887562241
            ]
        },
        {
            "positions": [
                0.42462152330496084,
                -1.465612592366474,
                -0.5121441336226293,
                0.6296090607090121,
                -0.5266652726422654,
                0.745116554402381
            ]
        },
        {
            "positions": [
                0.3048856802440123,
                -1.4772585372227929,
                -0.4380665341228167,
                0.744249063908329,
                -0.4717030820968018,
                0.7610690200485379
            ]
        },
        {
            "positions": [
                0.18514983718306377,
                -1.488904482079112,
                -0.3639889346230045,
                0.8588890671076459,
                -0.4167408915513384,
                0.7770214856946949
            ]
        },
        {
            "positions": [
                0.06541399412211524,
                -1.5005504269354308,
                -0.2899113351231919,
                0.9735290703069628,
                -0.36177870100587506,
                0.7929739513408518
            ]
        },
        {
            "positions": [
                -0.05432184893883374,
                -1.5121963717917497,
                -0.21583373562337926,
                1.0881690735062797,
                -0.3068165104604115,
                0.8089264169870087
            ]
        },
        {
            "positions": [
                -0.17405769199978227,
                -1.5238423166480688,
                -0.14175613612356708,
                1.2028090767055961,
                -0.2518543199149481,
                0.8248788826331657
            ]
        },
        {
            "positions": [
                -0.2937935350607308,
                -1.5354882615043877,
                -0.06767853662375439,
                1.3174490799049132,
                -0.19689212936948475,
                0.8408313482793226
            ]
        },
        {
            "positions": [
                -0.26773767812907046,
                -1.4775229468022908,
                0.09971776584505848,
                1.3773840105767279,
                -0.18922486985267886,
                0.7690104405536928
            ]
        },
        {
            "positions": [
                -0.2416818211974101,
                -1.4195576321001937,
                0.26711406831387136,
                1.4373189412485425,
                -0.18155761033587298,
                0.6971895328280631
            ]
        },
        {
            "positions": [
                -0.21562596426574976,
                -1.3615923173980968,
                0.4345103707826841,
                1.4972538719203572,
                -0.17389035081906712,
                0.6253686251024333
            ]
        },
        {
            "positions": [
                -0.1895701073340894,
                -1.303627002696,
                0.601906673251497,
                1.5571888025921719,
                -0.16622309130226123,
                0.5535477173768035
            ]
        },
        {
            "positions": [
                -0.16351425040242906,
                -1.2456616879939029,
                0.7693029757203098,
                1.6171237332639865,
                -0.15855583178545535,
                0.48172680965117376
            ]
        },
        {
            "positions": [
                -0.1374583934707687,
                -1.187696373291806,
                0.9366992781891226,
                1.6770586639358012,
                -0.1508885722686495,
                0.40990590192554405
            ]
        },
        {
            "positions": [
                -0.11140253653910837,
                -1.1297310585897091,
                1.1040955806579356,
                1.7369935946076158,
                -0.1432213127518436,
                0.3380849941999142
            ]
        },
        {
            "positions": [
                -0.08534667960744802,
                -1.071765743887612,
                1.2714918831267485,
                1.7969285252794305,
                -0.13555405323503772,
                0.26626408647428446
            ]
        },
        {
            "positions": [
                -0.05929082267578764,
                -1.013800429185515,
                1.4388881855955615,
                1.8568634559512451,
                -0.12788679371823186,
                0.1944431787486547
            ]
        },
        {
            "positions": [
                -0.03323496574412732,
                -0.9558351144834182,
                1.606284488064374,
                1.9167983866230598,
                -0.12021953420142598,
                0.12262227102302492
            ]
        },
        {
            "positions": [
                -0.007179108812467,
                -0.8978697997813212,
                1.773680790533187,
                1.9767333172948744,
                -0.11255227468462009,
                0.05080136329739515
            ]
        },
        {
            "positions": [
                0.05797059130377494,
                -0.8427901275388814,
                1.897145505244738,
                1.9927793702501493,
                -0.125486624347596,
                -0.022023735578477824
            ]
        },
        {
            "positions": [
                0.12312029142001689,
                -0.7877104552964416,
                2.0206102199562888,
                2.008825423205424,
                -0.13842097401057188,
                -0.0948488344543508
            ]
        }
    ]
}