{
    "goal": {
        "global_pose": {
            "orientation": {
                "w": 0.005598929693374612,
                "x": 0.007748599140229565,
                "y": 0.7110244013736278,
                "z": -0.7031023480610252
            },
            "position": {
                "x": -0.8858502320852131,
                "y": -0.7141253447532654,
                "z": 0.3711530566215515
            }
        },
        "name": "move_to_auspresseinheit_C"
    },
    "id": "PRM_move_to_auspresseinheit_C_89",
    "joint_names": [
        "shoulder_pan_joint",
        "shoulder_lift_joint",
        "elbow_joint",
        "wrist_1_joint",
        "wrist_2_joint",
        "wrist_3_joint"
    ],
    "metrics": {
        "cart_traj_len": 0.49300007705020055,
        "distance_elbow_joint": 0.9863498522950035,
        "distance_shoulder_lift_joint": 0.31824654393604457,
        "distance_shoulder_pan_joint": 0.25754404738327974,
        "distance_wrist_1_joint": 0.6534614321827232,
        "distance_wrist_2_joint": 1.3023001262113105,
        "distance_wrist_3_joint": 0.05041964630230522,
        "smoothness": 6.45947944157498e-16,
        "time": 0.015424491,
        "traj_len": 1.889000171601545,
        "weighted_distance": 2.3716919064898185
    },
    "planner": "PRM",
    "start": {
        "state": {
            "elbow_joint": 1.7527959577737207,
            "shoulder_lift_joint": -0.9740617694225068,
            "shoulder_pan_joint": -2.967991417825858,
            "wrist_1_joint": -0.759517768980727,
            "wrist_2_joint": 1.7443932448377408,
            "wrist_3_joint": -3.0840537646736568
        }
    },
    "waypoints": [
        {
            "positions": [
                -2.967991417825858,
                -0.9740617694225068,
                1.7527959577737207,
                -0.759517768980727,
                1.7443932448377408,
                -3.0840537646736568
            ]
        },
        {
            "positions": [
                -2.94223701308753,
                -0.9422371150289023,
                1.6541609725442203,
                -0.6941716257624546,
                1.6141632322166097,
                -3.0890957293038874
            ]
        },
        {
            "positions": [
                -2.916482608349202,
                -0.9104124606352979,
                1.55552598731472,
                -0.6288254825441824,
                1.4839332195954786,
                -3.0941376939341176
            ]
        },
        {
            "positions": [
                -2.890728203610874,
                -0.8785878062416934,
                1.4568910020852197,
                -0.56347933932591,
                1.3537032069743478,
                -3.0991796585643483
            ]
        },
        {
            "positions": [
                -2.864973798872546,
                -0.8467631518480889,
                1.3582560168557192,
                -0.4981331961076377,
                1.2234731943532164,
                -3.104221623194579
            ]
        },
        {
            "positions": [
                -2.839219394134218,
                -0.8149384974544844,
                1.2596210316262189,
                -0.43278705288936536,
                1.0932431817320856,
                -3.1092635878248096
            ]
        },
        {
            "positions": [
                -2.8134649893958903,
                -0.78311384306088,
                1.1609860463967185,
                -0.36744090967109305,
                0.9630131691109546,
                -3.11430555245504
            ]
        },
        {
            "positions": [
                -2.787710584657562,
                -0.7512891886672756,
                1.0623510611672182,
                -0.30209476645282074,
                0.8327831564898235,
                -3.1193475170852705
            ]
        },
        {
            "positions": [
                -2.7619561799192343,
                -0.7194645342736712,
                0.9637160759377178,
                -0.23674862323454837,
                0.7025531438686923,
                -3.124389481715501
            ]
        },
        {
            "positions": [
                -2.736201775180906,
                -0.6876398798800667,
                0.8650810907082175,
                -0.171402480016276,
                0.5723231312475614,
                -3.1294314463457313
            ]
        },
        {
            "positions": [
                -2.710447370442578,
                -0.6558152254864622,
                0.7664461054787172,
                -0.1060563367980037,
                0.4420931186264304,
                -3.134473410975962
            ]
        }
    ]
}