{
    "goal": {
        "global_pose": {
            "orientation": {
                "w": 0.005598929693374612,
                "x": 0.007748599140229565,
                "y": 0.7110244013736278,
                "z": -0.7031023480610252
            },
            "position": {
                "x": 0.1141497679147869,
                "y": -0.7141253447532654,
                "z": 0.3711530566215515
            }
        },
        "name": "move_to_auspresseinheit_B"
    },
    "id": "PRM_move_to_auspresseinheit_B_107",
    "joint_names": [
        "shoulder_pan_joint",
        "shoulder_lift_joint",
        "elbow_joint",
        "wrist_1_joint",
        "wrist_2_joint",
        "wrist_3_joint"
    ],
    "metrics": {
        "cart_traj_len": 0.5644401334867821,
        "distance_elbow_joint": 0.06205591828182477,
        "distance_shoulder_lift_joint": 0.2945772192988907,
        "distance_shoulder_pan_joint": 0.5788953712226954,
        "distance_wrist_1_joint": 0.3304335376584552,
        "distance_wrist_2_joint": 0.9867650637995375,
        "distance_wrist_3_joint": 0.009060279767056034,
        "smoothness": 0.0,
        "time": 0.023563492,
        "traj_len": 1.503923997424225,
        "weighted_distance": 1.8966039520734328
    },
    "planner": "PRM",
    "start": {
        "state": {
            "elbow_joint": 2.0193083361928714,
            "shoulder_lift_joint": -1.1220246554650708,
            "shoulder_pan_joint": -1.0952077554168747,
            "wrist_1_joint": -0.8559753972642168,
            "wrist_2_joint": 0.4759566250798843,
            "wrist_3_joint": -3.1240929996934557
        }
    },
    "waypoints": [
        {
            "positions": [
                -1.0952077554168747,
                -1.1220246554650708,
                2.0193083361928714,
                -0.8559753972642168,
                0.4759566250798843,
                -3.1240929996934557
            ]
        },
        {
            "positions": [
                -1.1916903172873239,
                -1.1711208586815527,
                2.0089656831459006,
                -0.8009031409878076,
                0.6404174690464739,
                -3.1256030463212983
            ]
        },
        {
            "positions": [
                -1.2881728791577731,
                -1.2202170618980344,
                1.9986230300989298,
                -0.7458308847113984,
                0.8048783130130635,
                -3.127113092949141
            ]
        },
        {
            "positions": [
                -1.3846554410282224,
                -1.269313265114516,
                1.988280377051959,
                -0.6907586284349891,
                0.969339156979653,
                -3.128623139576984
            ]
        },
        {
            "positions": [
                -1.4811380028986716,
                -1.318409468330998,
                1.9779377240049882,
                -0.63568637215858,
                1.1338000009462426,
                -3.1301331862048265
            ]
        },
        {
            "positions": [
                -1.5776205647691208,
                -1.3675056715474798,
                1.9675950709580174,
                -0.5806141158821707,
                1.2982608449128323,
                -3.131643232832669
            ]
        },
        {
            "positions": [
                -1.67410312663957,
                -1.4166018747639615,
                1.9572524179110466,
                -0.5255418596057616,
                1.4627216888794219,
                -3.1331532794605117
            ]
        }
    ]
}