{
    "goal": {
        "global_pose": {
            "orientation": {
                "w": 0.005598929693374612,
                "x": 0.007748599140229565,
                "y": 0.7110244013736278,
                "z": -0.7031023480610252
            },
            "position": {
                "x": -0.8858502320852131,
                "y": -0.7141253447532654,
                "z": 0.3711530566215515
            }
        },
        "name": "move_to_auspresseinheit_C"
    },
    "id": "PRM_move_to_auspresseinheit_C_35",
    "joint_names": [
        "shoulder_pan_joint",
        "shoulder_lift_joint",
        "elbow_joint",
        "wrist_1_joint",
        "wrist_2_joint",
        "wrist_3_joint"
    ],
    "metrics": {
        "cart_traj_len": 0.49295775190503344,
        "distance_elbow_joint": 1.0099515375456178,
        "distance_shoulder_lift_joint": 0.3296657235788304,
        "distance_shoulder_pan_joint": 0.25562002933795025,
        "distance_wrist_1_joint": 0.7020601804345384,
        "distance_wrist_2_joint": 1.3140350558507339,
        "distance_wrist_3_joint": 0.07375024786166584,
        "smoothness": 3.2297397335745243e-16,
        "time": 0.01498527,
        "traj_len": 1.9196569419063754,
        "weighted_distance": 2.418404123925102
    },
    "planner": "PRM",
    "start": {
        "state": {
            "elbow_joint": 1.7527959577737207,
            "shoulder_lift_joint": -0.9740617694225068,
            "shoulder_pan_joint": -2.967991417825858,
            "wrist_1_joint": -0.759517768980727,
            "wrist_2_joint": 1.7443932448377408,
            "wrist_3_joint": -3.0840537646736568
        }
    },
    "waypoints": [
        {
            "positions": [
                -2.967991417825858,
                -0.9740617694225068,
                1.7527959577737207,
                -0.759517768980727,
                1.7443932448377408,
                -3.0840537646736568
            ]
        },
        {
            "positions": [
                -2.942429414892063,
                -0.9410951970646237,
                1.651800804019159,
                -0.6893117509372731,
                1.6129897392526675,
                -3.0914287894598234
            ]
        },
        {
            "positions": [
                -2.916867411958268,
                -0.9081286247067407,
                1.550805650264597,
                -0.6191057328938193,
                1.481586233667594,
                -3.09880381424599
            ]
        },
        {
            "positions": [
                -2.891305409024473,
                -0.8751620523488577,
                1.4498104965100354,
                -0.5488997148503655,
                1.3501827280825207,
                -3.1061788390321565
            ]
        },
        {
            "positions": [
                -2.8657434060906777,
                -0.8421954799909745,
                1.3488153427554734,
                -0.4786936968069116,
                1.2187792224974472,
                -3.113553863818323
            ]
        },
        {
            "positions": [
                -2.840181403156883,
                -0.8092289076330916,
                1.2478201890009117,
                -0.40848767876345776,
                1.087375716912374,
                -3.1209288886044897
            ]
        },
        {
            "positions": [
                -2.814619400223088,
                -0.7762623352752085,
                1.14682503524635,
                -0.33828166072000393,
                0.9559722113273005,
                -3.1283039133906563
            ]
        },
        {
            "positions": [
                -2.7890573972892927,
                -0.7432957629173256,
                1.0458298814917883,
                -0.2680756426765501,
                0.8245687057422272,
                -3.135678938176823
            ]
        },
        {
            "positions": [
                -2.763495394355498,
                -0.7103291905594424,
                0.9448347277372263,
                -0.1978696246330962,
                0.6931652001571538,
                -3.1430539629629894
            ]
        },
        {
            "positions": [
                -2.7379333914217026,
                -0.6773626182015594,
                0.8438395739826646,
                -0.12766360658964238,
                0.5617616945720803,
                -3.150428987749156
            ]
        },
        {
            "positions": [
                -2.7123713884879077,
                -0.6443960458436764,
                0.7428444202281028,
                -0.05745758854618858,
                0.43035818898700706,
                -3.1578040125353226
            ]
        }
    ]
}