{
    "goal": {
        "global_pose": {
            "orientation": {
                "w": -0.00223480608172531,
                "x": 0.0024358444001904467,
                "y": 0.7094548369677653,
                "z": -0.704743149386269
            },
            "position": {
                "x": 0.6205249238014221,
                "y": -0.6371506643295288,
                "z": 0.19426114857196808
            }
        },
        "name": "move_to_magneteinheit_B"
    },
    "id": "PRM_move_to_magneteinheit_B_37",
    "joint_names": [
        "shoulder_pan_joint",
        "shoulder_lift_joint",
        "elbow_joint",
        "wrist_1_joint",
        "wrist_2_joint",
        "wrist_3_joint"
    ],
    "metrics": {
        "cart_traj_len": 3.3103451228362286,
        "distance_elbow_joint": 4.434785742555311,
        "distance_shoulder_lift_joint": 1.128730244088045,
        "distance_shoulder_pan_joint": 3.1778051747368217,
        "distance_wrist_1_joint": 4.398581176333215,
        "distance_wrist_2_joint": 1.3958062954860704,
        "distance_wrist_3_joint": 3.3454769100764774,
        "smoothness": 0.2277047382181557,
        "time": 0.54772947,
        "traj_len": 4.22861508573149,
        "weighted_distance": 5.510583166530397
    },
    "planner": "PRM",
    "start": {
        "state": {
            "elbow_joint": 2.6216224122426386,
            "shoulder_lift_joint": -1.4174107377796124,
            "shoulder_pan_joint": 0.7066234856936794,
            "wrist_1_joint": 1.9546482284002225,
            "wrist_2_joint": -0.7096286983471962,
            "wrist_3_joint": 0.005740856962016249
        }
    },
    "waypoints": [
        {
            "positions": [
                0.7066234856936794,
                -1.4174107377796124,
                2.6216224122426386,
                1.9546482284002225,
                -0.7096286983471962,
                0.005740856962016249
            ]
        },
        {
            "positions": [
                0.6220001655850549,
                -1.5388619258856908,
                2.617242011688724,
                1.9542650808073776,
                -0.5744171761545789,
                0.023068789053790985
            ]
        },
        {
            "positions": [
                0.5373768454764304,
                -1.6603131139917695,
                2.6128616111348095,
                1.953881933214533,
                -0.4392056539619615,
                0.04039672114556572
            ]
        },
        {
            "positions": [
                0.45275352536780583,
                -1.781764302097848,
                2.6084812105808948,
                1.953498785621688,
                -0.3039941317693441,
                0.05772465323734046
            ]
        },
        {
            "positions": [
                0.36813020525918133,
                -1.9032154902039264,
                2.60410081002698,
                1.9531156380288432,
                -0.16878260957672675,
                0.0750525853291152
            ]
        },
        {
            "positions": [
                0.2835068851505568,
                -2.0246666783100054,
                2.5997204094730657,
                1.9527324904359986,
                -0.0335710873841093,
                0.09238051742088994
            ]
        },
        {
            "positions": [
                0.19888356504193228,
                -2.1461178664160836,
                2.595340008919151,
                1.9523493428431538,
                0.10164043480850804,
                0.10970844951266467
            ]
        },
        {
            "positions": [
                0.2877560084468332,
                -2.139674356775363,
                2.454204931012812,
                1.868237364583162,
                0.09936442436282672,
                0.03688825496776944
            ]
        },
        {
            "positions": [
                0.3766284518517341,
                -2.1332308471346417,
                2.3130698531064735,
                1.7841253863231703,
                0.09708841391714541,
                -0.03593193957712579
            ]
        },
        {
            "positions": [
                0.46550089525663496,
                -2.126787337493921,
                2.1719347752001346,
                1.7000134080631786,
                0.0948124034714641,
                -0.10875213412202103
            ]
        },
        {
            "positions": [
                0.5543733386615359,
                -2.1203438278532003,
                2.030799697293796,
                1.6159014298031869,
                0.09253639302578279,
                -0.18157232866691625
            ]
        },
        {
            "positions": [
                0.6432457820664368,
                -2.1139003182124796,
                1.8896646193874571,
                1.5317894515431951,
                0.09026038258010147,
                -0.2543925232118115
            ]
        },
        {
            "positions": [
                0.7321182254713376,
                -2.107456808571759,
                1.7485295414811186,
                1.4476774732832034,
                0.08798437213442016,
                -0.32721271775670674
            ]
        },
        {
            "positions": [
                0.8209906688762386,
                -2.1010132989310377,
                1.6073944635747797,
                1.3635654950232117,
                0.08570836168873884,
                -0.400032912301602
            ]
        },
        {
            "positions": [
                0.9098631122811395,
                -2.094569789290317,
                1.466259385668441,
                1.27945351676322,
                0.08343235124305753,
                -0.4728531068464972
            ]
        },
        {
            "positions": [
                0.9987355556860404,
                -2.0881262796495963,
                1.325124307762102,
                1.1953415385032282,
                0.08115634079737621,
                -0.5456733013913925
            ]
        },
        {
            "positions": [
                1.0876079990909413,
                -2.081682770008875,
                1.1839892298557633,
                1.1112295602432365,
                0.0788803303516949,
                -0.6184934959362877
            ]
        },
        {
            "positions": [
                1.1764804424958424,
                -2.0752392603681544,
                1.0428541519494248,
                1.0271175819832448,
                0.07660431990601359,
                -0.691313690481183
            ]
        },
        {
            "positions": [
                1.265352885900743,
                -2.0687957507274337,
                0.901719074043086,
                0.943005603723253,
                0.07432830946033228,
                -0.7641338850260782
            ]
        },
        {
            "positions": [
                1.354225329305644,
                -2.062352241086713,
                0.7605839961367471,
                0.8588936254632613,
                0.07205229901465096,
                -0.8369540795709735
            ]
        },
        {
            "positions": [
                1.443097772710545,
                -2.0559087314459923,
                0.6194489182304084,
                0.7747816472032696,
                0.06977628856896964,
                -0.9097742741158686
            ]
        },
        {
            "positions": [
                1.5319702161154458,
                -2.049465221805271,
                0.47831384032406987,
                0.6906696689432779,
                0.06750027812328833,
                -0.9825944686607638
            ]
        },
        {
            "positions": [
                1.6208426595203467,
                -2.0430217121645504,
                0.3371787624177309,
                0.6065576906832861,
                0.06522426767760703,
                -1.0554146632056591
            ]
        },
        {
            "positions": [
                1.7097151029252475,
                -2.0365782025238297,
                0.19604368451139242,
                0.5224457124232946,
                0.06294825723192571,
                -1.128234857750554
            ]
        },
        {
            "positions": [
                1.7985875463301486,
                -2.0301346928831085,
                0.054908606605053034,
                0.43833373416330246,
                0.06067224678624439,
                -1.2010550522954495
            ]
        },
        {
            "positions": [
                1.8874599897350495,
                -2.023691183242388,
                -0.08622647130128547,
                0.35422175590331095,
                0.058396236340563075,
                -1.273875246840345
            ]
        },
        {
            "positions": [
                1.9763324331399503,
                -2.017247673601667,
                -0.2273615492076244,
                0.2701097776433192,
                0.05612022589488176,
                -1.3466954413852399
            ]
        },
        {
            "positions": [
                2.0652048765448514,
                -2.0108041639609464,
                -0.3684966271139629,
                0.1859977993833275,
                0.053844215449200455,
                -1.4195156359301353
            ]
        },
        {
            "positions": [
                2.154077319949752,
                -2.0043606543202257,
                -0.5096317050203014,
                0.10188582112333577,
                0.05156820500351914,
                -1.4923358304750307
            ]
        },
        {
            "positions": [
                2.242949763354653,
                -1.9979171446795045,
                -0.6507667829266404,
                0.017773842863344047,
                0.04929219455783783,
                -1.5651560250199257
            ]
        },
        {
            "positions": [
                2.3318222067595538,
                -1.9914736350387838,
                -0.7919018608329789,
                -0.06633813539664768,
                0.047016184112156516,
                -1.637976219564821
            ]
        },
        {
            "positions": [
                2.420694650164455,
                -1.9850301253980631,
                -0.9330369387393183,
                -0.1504501136566394,
                0.044740173666475196,
                -1.7107964141097165
            ]
        },
        {
            "positions": [
                2.509567093569356,
                -1.9785866157573422,
                -1.0741720166456568,
                -0.23456209191663113,
                0.04246416322079388,
                -1.7836166086546115
            ]
        },
        {
            "positions": [
                2.5984395369742566,
                -1.9721431061166212,
                -1.2153070945519957,
                -0.31867407017662286,
                0.04018815277511257,
                -1.8564368031995069
            ]
        },
        {
            "positions": [
                2.6873119803791576,
                -1.9656995964759005,
                -1.3564421724583342,
                -0.4027860484366146,
                0.037912142329431256,
                -1.9292569977444018
            ]
        },
        {
            "positions": [
                2.7097390172342557,
                -1.9930320861505892,
                -1.419691946221979,
                -0.5036369262418416,
                0.015563538267055359,
                -2.058970257295355
            ]
        },
        {
            "positions": [
                2.732166054089354,
                -2.020364575825278,
                -1.4829417199856239,
                -0.6044878040470686,
                -0.0067850657953205384,
                -2.188683516846308
            ]
        },
        {
            "positions": [
                2.7447570165614605,
                -2.049412716563351,
                -1.544718436216523,
                -0.7257372066643575,
                -0.037407975977049736,
                -2.3269728333972886
            ]
        },
        {
            "positions": [
                2.7573479790335664,
                -2.078460857301424,
                -1.606495152447422,
                -0.8469866092816465,
                -0.06803088615877893,
                -2.465262149948269
            ]
        },
        {
            "positions": [
                2.7598229977133637,
                -2.101990917236337,
                -1.6489705287268166,
                -0.989681962129184,
                -0.10518632432544277,
                -2.582938066684863
            ]
        },
        {
            "positions": [
                2.762298016393161,
                -2.1255209771712495,
                -1.691445905006211,
                -1.1323773149767216,
                -0.14234176249210662,
                -2.700613983421457
            ]
        },
        {
            "positions": [
                2.7647730350729582,
                -2.1490510371061626,
                -1.7339212812856055,
                -1.2750726678242592,
                -0.17949720065877045,
                -2.818289900158051
            ]
        },
        {
            "positions": [
                2.75106206233635,
                -2.1568525058143297,
                -1.7312604711546071,
                -1.423290138618432,
                -0.21836011908152514,
                -2.869388135242258
            ]
        },
        {
            "positions": [
                2.7329691000728618,
                -2.162542893048922,
                -1.7159442233753939,
                -1.6274187004813438,
                -0.2712674407695918,
                -2.9218706817964395
            ]
        },
        {
            "positions": [
                2.7148761378093735,
                -2.1682332802835145,
                -1.7006279755961806,
                -1.8315472623442557,
                -0.32417476245765847,
                -2.9743532283506204
            ]
        },
        {
            "positions": [
                2.6967831755458858,
                -2.1739236675181064,
                -1.6853117278169676,
                -2.0356758242071678,
                -0.37708208414572514,
                -3.026835774904802
            ]
        },
        {
            "positions": [
                2.6786902132823975,
                -2.1796140547526988,
                -1.6699954800377543,
                -2.2398043860700794,
                -0.4299894058337918,
                -3.0793183214589828
            ]
        },
        {
            "positions": [
                2.6605972510189093,
                -2.185304441987291,
                -1.654679232258541,
                -2.4439329479329914,
                -0.48289672752185847,
                -3.131800868013164
            ]
        }
    ]
}