{
    "goal": {
        "global_pose": {
            "orientation": {
                "w": 0.5084816262002911,
                "x": -0.4908360881923452,
                "y": 0.5182115481033761,
                "z": -0.48164630358495003
            },
            "position": {
                "x": 0.5540239810943604,
                "y": -0.46912469901144505,
                "z": 0.16403168439865112
            }
        },
        "name": "move_to_storage_B"
    },
    "id": "PRM_move_to_storage_B_109",
    "joint_names": [
        "shoulder_pan_joint",
        "shoulder_lift_joint",
        "elbow_joint",
        "wrist_1_joint",
        "wrist_2_joint",
        "wrist_3_joint"
    ],
    "metrics": {
        "cart_traj_len": 2.7353827868892475,
        "distance_elbow_joint": 0.3598107910968178,
        "distance_shoulder_lift_joint": 1.5390496120069508,
        "distance_shoulder_pan_joint": 3.1071093242764722,
        "distance_wrist_1_joint": 3.0262103421837905,
        "distance_wrist_2_joint": 2.709594676089999,
        "distance_wrist_3_joint": 3.144075629646628,
        "smoothness": 0.19936246290677903,
        "time": 0.31645400500000004,
        "traj_len": 3.7263722808249655,
        "weighted_distance": 5.090167644868654
    },
    "planner": "PRM",
    "start": {
        "state": {
            "elbow_joint": 1.664937868594044,
            "shoulder_lift_joint": -0.661644460510453,
            "shoulder_pan_joint": -0.9139846352900073,
            "wrist_1_joint": 2.146753192139373,
            "wrist_2_joint": -2.2341966793290973,
            "wrist_3_joint": 0.005466555786416001
        }
    },
    "waypoints": [
        {
            "positions": [
                -0.9139846352900073,
                -0.661644460510453,
                1.664937868594044,
                2.146753192139373,
                -2.2341966793290973,
                0.005466555786416001
            ]
        },
        {
            "positions": [
                -0.7676569066070436,
                -0.7616577697840353,
                1.667914282219396,
                2.064591612772811,
                -2.176227434142165,
                0.007443029499722642
            ]
        },
        {
            "positions": [
                -0.6213291779240799,
                -0.8616710790576176,
                1.670890695844748,
                1.9824300334062486,
                -2.118258188955232,
                0.009419503213029284
            ]
        },
        {
            "positions": [
                -0.4750014492411163,
                -0.9616843883312,
                1.6738671094700999,
                1.9002684540396861,
                -2.0602889437682994,
                0.011395976926335927
            ]
        },
        {
            "positions": [
                -0.3286737205581526,
                -1.0616976976047823,
                1.676843523095452,
                1.818106874673124,
                -2.002319698581367,
                0.013372450639642569
            ]
        },
        {
            "positions": [
                -0.18234599187518896,
                -1.1617110068783645,
                1.679819936720804,
                1.7359452953065615,
                -1.9443504533944342,
                0.015348924352949211
            ]
        },
        {
            "positions": [
                -0.03601826319222534,
                -1.261724316151947,
                1.682796350346156,
                1.653783715939999,
                -1.8863812082075015,
                0.017325398066255854
            ]
        },
        {
            "positions": [
                0.11030946549073828,
                -1.3617376254255293,
                1.685772763971508,
                1.5716221365734369,
                -1.828411963020569,
                0.019301871779562493
            ]
        },
        {
            "positions": [
                0.2566371941737021,
                -1.4617509346991115,
                1.68874917759686,
                1.4894605572068744,
                -1.7704427178336364,
                0.021278345492869135
            ]
        },
        {
            "positions": [
                0.40296492285666574,
                -1.5617642439726938,
                1.691725591222212,
                1.4072989778403122,
                -1.7124734726467037,
                0.023254819206175777
            ]
        },
        {
            "positions": [
                0.5492926515396293,
                -1.6617775532462762,
                1.694702004847564,
                1.3251373984737498,
                -1.6545042274597712,
                0.02523129291948242
            ]
        },
        {
            "positions": [
                0.48606834240705865,
                -1.6410499948127713,
                1.7073961069569217,
                1.2403453004538203,
                -1.5725849111435914,
                -0.0949345106387315
            ]
        },
        {
            "positions": [
                0.4228440332744881,
                -1.6203224363792663,
                1.7200902090662793,
                1.1555532024338908,
                -1.4906655948274117,
                -0.21510031419694542
            ]
        },
        {
            "positions": [
                0.35961972414191756,
                -1.5995948779457614,
                1.732784311175637,
                1.070761104413961,
                -1.4087462785112321,
                -0.33526611775515935
            ]
        },
        {
            "positions": [
                0.29639541500934696,
                -1.5788673195122565,
                1.7454784132849945,
                0.9859690063940316,
                -1.3268269621950524,
                -0.4554319213133733
            ]
        },
        {
            "positions": [
                0.23317110587677642,
                -1.5581397610787517,
                1.7581725153943522,
                0.9011769083741021,
                -1.2449076458788726,
                -0.5755977248715871
            ]
        },
        {
            "positions": [
                0.16994679674420582,
                -1.5374122026452468,
                1.7708666175037098,
                0.8163848103541727,
                -1.1629883295626928,
                -0.695763528429801
            ]
        },
        {
            "positions": [
                0.10672248761163533,
                -1.5166846442117419,
                1.7835607196130672,
                0.7315927123342432,
                -1.081069013246513,
                -0.8159293319880149
            ]
        },
        {
            "positions": [
                0.043498178479064675,
                -1.495957085778237,
                1.7962548217224248,
                0.6468006143143136,
                -0.9991496969303334,
                -0.9360951355462289
            ]
        },
        {
            "positions": [
                -0.019726130653505813,
                -1.475229527344732,
                1.8089489238317824,
                0.5620085162943841,
                -0.9172303806141537,
                -1.0562609391044426
            ]
        },
        {
            "positions": [
                -0.08295043978607641,
                -1.454501968911227,
                1.82164302594114,
                0.4772164182744545,
                -0.835311064297974,
                -1.1764267426626567
            ]
        },
        {
            "positions": [
                -0.146174748918647,
                -1.4337744104777221,
                1.8343371280504976,
                0.3924243202545251,
                -0.7533917479817943,
                -1.2965925462208705
            ]
        },
        {
            "positions": [
                -0.2093990580512176,
                -1.4130468520442172,
                1.8470312301598553,
                0.3076322222345955,
                -0.6714724316656145,
                -1.4167583497790845
            ]
        },
        {
            "positions": [
                -0.2726233671837881,
                -1.3923192936107123,
                1.8597253322692129,
                0.22284012421466604,
                -0.5895531153494349,
                -1.5369241533372984
            ]
        },
        {
            "positions": [
                -0.3358476763163586,
                -1.3715917351772076,
                1.8724194343785705,
                0.13804802619473655,
                -0.5076337990332551,
                -1.6570899568955122
            ]
        },
        {
            "positions": [
                -0.3990719854489292,
                -1.3508641767437026,
                1.8851135364879281,
                0.053255928174807066,
                -0.42571448271707557,
                -1.777255760453726
            ]
        },
        {
            "positions": [
                -0.4622962945814999,
                -1.3301366183101977,
                1.8978076385972857,
                -0.03153616984512264,
                -0.3437951664008956,
                -1.8974215640119403
            ]
        },
        {
            "positions": [
                -0.5255206037140703,
                -1.3094090598766928,
                1.9105017407066434,
                -0.11632826786505213,
                -0.26187585008471603,
                -2.017587367570154
            ]
        },
        {
            "positions": [
                -0.5887449128466409,
                -1.2886815014431878,
                1.923195842816001,
                -0.2011203658849816,
                -0.17995653376853626,
                -2.137753171128368
            ]
        },
        {
            "positions": [
                -0.6519692219792115,
                -1.267953943009683,
                1.9358899449253584,
                -0.2859124639049109,
                -0.09803721745235672,
                -2.2579189746865818
            ]
        },
        {
            "positions": [
                -0.7151935311117821,
                -1.247226384576178,
                1.948584047034716,
                -0.3707045619248408,
                -0.016117901136176727,
                -2.378084778244796
            ]
        },
        {
            "positions": [
                -0.7784178402443527,
                -1.2264988261426732,
                1.9612781491440736,
                -0.45549665994477007,
                0.06580141518000282,
                -2.49825058180301
            ]
        },
        {
            "positions": [
                -0.8416421493769233,
                -1.205771267709168,
                1.9739722512534312,
                -0.5402887579646996,
                0.1477207314961826,
                -2.6184163853612237
            ]
        },
        {
            "positions": [
                -0.9048664585094937,
                -1.1850437092756634,
                1.9866663533627889,
                -0.625080855984629,
                0.22964004781236214,
                -2.7385821889194375
            ]
        },
        {
            "positions": [
                -0.9680907676420645,
                -1.1643161508421584,
                1.9993604554721465,
                -0.7098729540045587,
                0.3115593641285421,
                -2.8587479924776518
            ]
        },
        {
            "positions": [
                -1.0313150767746349,
                -1.1435885924086535,
                2.012054557581504,
                -0.7946650520244884,
                0.3934786804447219,
                -2.9789137960358656
            ]
        },
        {
            "positions": [
                -1.0945393859072055,
                -1.1228610339751486,
                2.0247486596908617,
                -0.8794571500444176,
                0.4753979967609012,
                -3.0990795995940794
            ]
        }
    ]
}