{
    "goal": {
        "global_pose": {
            "orientation": {
                "w": -0.4816463035849501,
                "x": 0.5182115481033762,
                "y": 0.4908360881923453,
                "z": -0.5084816262002911
            },
            "position": {
                "x": -0.8240239810943604,
                "y": 0.19912469901144506,
                "z": 0.16403168439865112
            }
        },
        "name": "move_to_storage_D"
    },
    "id": "PRM_move_to_storage_D_66",
    "joint_names": [
        "shoulder_pan_joint",
        "shoulder_lift_joint",
        "elbow_joint",
        "wrist_1_joint",
        "wrist_2_joint",
        "wrist_3_joint"
    ],
    "metrics": {
        "cart_traj_len": 4.01589460422686,
        "distance_elbow_joint": 4.2094489881788055,
        "distance_shoulder_lift_joint": 1.3694634007100719,
        "distance_shoulder_pan_joint": 2.813689715162607,
        "distance_wrist_1_joint": 2.5940876428568522,
        "distance_wrist_2_joint": 0.8761158080281332,
        "distance_wrist_3_joint": 3.145243112045766,
        "smoothness": 0.11562064790489918,
        "time": 0.258195207,
        "traj_len": 3.874022285297573,
        "weighted_distance": 4.976820103435401
    },
    "planner": "PRM",
    "start": {
        "state": {
            "elbow_joint": -2.384821988534728,
            "shoulder_lift_joint": -2.2788054721415256,
            "shoulder_pan_joint": -0.1854694642142757,
            "wrist_1_joint": 1.4845938289331202,
            "wrist_2_joint": 0.17898776772866878,
            "wrist_3_joint": 0.037105688729662994
        }
    },
    "waypoints": [
        {
            "positions": [
                -0.1854694642142757,
                -2.2788054721415256,
                -2.384821988534728,
                1.4845938289331202,
                0.17898776772866878,
                0.037105688729662994
            ]
        },
        {
            "positions": [
                -0.16380148383645565,
                -2.266104201941149,
                -2.3843153176115575,
                1.4583330697674324,
                0.1789905095925617,
                0.040065770397401515
            ]
        },
        {
            "positions": [
                -0.08429551227718642,
                -2.2288175407068693,
                -2.2819595876342254,
                1.3895486578665965,
                0.20028799977589617,
                0.11793341268427666
            ]
        },
        {
            "positions": [
                -0.004789540717917179,
                -2.191530879472589,
                -2.1796038576568932,
                1.3207642459657607,
                0.22158548995923064,
                0.1958010549711518
            ]
        },
        {
            "positions": [
                0.0747164308413521,
                -2.1542442182383095,
                -2.077248127679561,
                1.2519798340649246,
                0.24288298014256512,
                0.27366869725802695
            ]
        },
        {
            "positions": [
                0.1542224024006213,
                -2.1169575570040293,
                -1.974892397702229,
                1.1831954221640888,
                0.2641804703258996,
                0.3515363395449021
            ]
        },
        {
            "positions": [
                0.23372837395989055,
                -2.0796708957697496,
                -1.872536667724897,
                1.114411010263253,
                0.2854779605092341,
                0.42940398183177725
            ]
        },
        {
            "positions": [
                0.31323434551915985,
                -2.0423842345354695,
                -1.7701809377475648,
                1.0456265983624171,
                0.30677545069256856,
                0.5072716241186525
            ]
        },
        {
            "positions": [
                0.39274031707842905,
                -2.0050975733011898,
                -1.6678252077702327,
                0.9768421864615812,
                0.32807294087590305,
                0.5851392664055276
            ]
        },
        {
            "positions": [
                0.47224628863769824,
                -1.9678109120669098,
                -1.5654694777929006,
                0.9080577745607453,
                0.3493704310592375,
                0.6630069086924028
            ]
        },
        {
            "positions": [
                0.5517522601969674,
                -1.93052425083263,
                -1.4631137478155685,
                0.8392733626599095,
                0.370667921242572,
                0.7408745509792778
            ]
        },
        {
            "positions": [
                0.6312582317562367,
                -1.89323758959835,
                -1.3607580178382364,
                0.7704889507590735,
                0.39196541142590646,
                0.818742193266153
            ]
        },
        {
            "positions": [
                0.710764203315506,
                -1.85595092836407,
                -1.258402287860904,
                0.7017045388582377,
                0.41326290160924095,
                0.8966098355530282
            ]
        },
        {
            "positions": [
                0.7902701748747754,
                -1.8186642671297901,
                -1.156046557883572,
                0.6329201269574017,
                0.43456039179257544,
                0.9744774778399033
            ]
        },
        {
            "positions": [
                0.8697761464340446,
                -1.7813776058955102,
                -1.0536908279062398,
                0.5641357150565659,
                0.45585788197590993,
                1.0523451201267784
            ]
        },
        {
            "positions": [
                0.9492821179933137,
                -1.7440909446612303,
                -0.9513350979289077,
                0.49535130315572995,
                0.4771553721592444,
                1.1302127624136535
            ]
        },
        {
            "positions": [
                1.028788089552583,
                -1.7068042834269503,
                -0.8489793679515758,
                0.4265668912548941,
                0.49845286234257885,
                1.2080804047005287
            ]
        },
        {
            "positions": [
                1.1082940611118521,
                -1.6695176221926706,
                -0.7466236379742435,
                0.35778247935405827,
                0.5197503525259133,
                1.2859480469874038
            ]
        },
        {
            "positions": [
                1.1878000326711216,
                -1.6322309609583905,
                -0.6442679079969114,
                0.28899806745322243,
                0.5410478427092478,
                1.363815689274279
            ]
        },
        {
            "positions": [
                1.2673060042303905,
                -1.5949442997241108,
                -0.5419121780195795,
                0.2202136555523866,
                0.5623453328925823,
                1.441683331561154
            ]
        },
        {
            "positions": [
                1.34681197578966,
                -1.5576576384898309,
                -0.43955644804224736,
                0.15142924365155075,
                0.5836428230759168,
                1.519550973848029
            ]
        },
        {
            "positions": [
                1.4263179473489291,
                -1.520370977255551,
                -0.33720071806491525,
                0.08264483175071469,
                0.6049403132592512,
                1.5974186161349044
            ]
        },
        {
            "positions": [
                1.5058239189081986,
                -1.483084316021271,
                -0.23484498808758314,
                0.013860419849878847,
                0.6262378034425857,
                1.6752862584217796
            ]
        },
        {
            "positions": [
                1.5853298904674678,
                -1.445797654786991,
                -0.13248925811025059,
                -0.05492399205095699,
                0.6475352936259202,
                1.7531539007086547
            ]
        },
        {
            "positions": [
                1.664835862026737,
                -1.4085109935527111,
                -0.030133528132918475,
                -0.12370840395179306,
                0.6688327838092547,
                1.8310215429955299
            ]
        },
        {
            "positions": [
                1.7443418335860064,
                -1.3712243323184312,
                0.07222220184441364,
                -0.1924928158526289,
                0.6901302739925892,
                1.908889185282405
            ]
        },
        {
            "positions": [
                1.8238478051452756,
                -1.3339376710841513,
                0.17457793182174575,
                -0.26127722775346474,
                0.7114277641759237,
                1.9867568275692802
            ]
        },
        {
            "positions": [
                1.9033537767045448,
                -1.2966510098498714,
                0.27693366179907786,
                -0.3300616396543006,
                0.7327252543592582,
                2.0646244698561556
            ]
        },
        {
            "positions": [
                1.982859748263814,
                -1.2593643486155914,
                0.37928939177640997,
                -0.39884605155513664,
                0.7540227445425927,
                2.1424921121430307
            ]
        },
        {
            "positions": [
                2.062365719823083,
                -1.2220776873813115,
                0.4816451217537421,
                -0.4676304634559725,
                0.7753202347259271,
                2.220359754429906
            ]
        },
        {
            "positions": [
                2.141871691382353,
                -1.1847910261470316,
                0.5840008517310742,
                -0.5364148753568083,
                0.7966177249092616,
                2.298227396716781
            ]
        },
        {
            "positions": [
                2.2213776629416215,
                -1.1475043649127519,
                0.6863565817084059,
                -0.6051992872576442,
                0.817915215092596,
                2.376095039003656
            ]
        },
        {
            "positions": [
                2.3008836345008907,
                -1.110217703678472,
                0.7887123116857384,
                -0.6739836991584798,
                0.8392127052759305,
                2.4539626812905313
            ]
        },
        {
            "positions": [
                2.38038960606016,
                -1.072931042444192,
                0.8910680416630705,
                -0.7427681110593158,
                0.860510195459265,
                2.5318303235774064
            ]
        },
        {
            "positions": [
                2.4598955776194296,
                -1.035644381209912,
                0.9934237716404026,
                -0.8115525229601519,
                0.8818076856425995,
                2.6096979658642816
            ]
        },
        {
            "positions": [
                2.5394015491786988,
                -0.9983577199756322,
                1.0957795016177347,
                -0.8803369348609875,
                0.903105175825934,
                2.6875656081511567
            ]
        },
        {
            "positions": [
                2.618907520737968,
                -0.9610710587413522,
                1.1981352315950669,
                -0.9491213467618238,
                0.9244026660092685,
                2.765433250438032
            ]
        },
        {
            "positions": [
                2.6212357032905587,
                -0.974003305568827,
                1.3547581736073193,
                -0.9090282299713469,
                0.9570778934461518,
                2.869662138022381
            ]
        },
        {
            "positions": [
                2.62356388584315,
                -0.9869355523963017,
                1.5113811156195718,
                -0.86893511318087,
                0.9897531208830352,
                2.97389102560673
            ]
        },
        {
            "positions": [
                2.625892068395741,
                -0.9998677992237764,
                1.668004057631824,
                -0.8288419963903931,
                1.0224283483199186,
                3.0781199131910792
            ]
        },
        {
            "positions": [
                2.6282202509483317,
                -1.0128000460512512,
                1.8246269996440765,
                -0.7887488795999162,
                1.055103575756802,
                3.1823488007754284
            ]
        }
    ]
}