{
    "goal": {
        "global_pose": {
            "orientation": {
                "w": 0.7031023502349854,
                "x": -0.7110244035720825,
                "y": 0.007748599164187908,
                "z": 0.005598929710686207
            },
            "position": {
                "x": 0.11585023208521307,
                "y": 0.44412534475326537,
                "z": 0.3711530566215515
            }
        },
        "name": "move_to_auspresseinheit_A"
    },
    "id": "PRM_move_to_auspresseinheit_A_56",
    "joint_names": [
        "shoulder_pan_joint",
        "shoulder_lift_joint",
        "elbow_joint",
        "wrist_1_joint",
        "wrist_2_joint",
        "wrist_3_joint"
    ],
    "metrics": {
        "cart_traj_len": 0.9333466776608184,
        "distance_elbow_joint": 0.14355144791269314,
        "distance_shoulder_lift_joint": 0.5390332205962598,
        "distance_shoulder_pan_joint": 1.9108549216389044,
        "distance_wrist_1_joint": 0.5484182284179906,
        "distance_wrist_2_joint": 1.8507177667777062,
        "distance_wrist_3_joint": 0.2761042978270374,
        "smoothness": 1.1395782979663558,
        "time": 0.22840998499999998,
        "traj_len": 2.2953605126799994,
        "weighted_distance": 2.867058505510545
    },
    "planner": "PRM",
    "start": {
        "state": {
            "elbow_joint": 2.4225746658250005,
            "shoulder_lift_joint": -1.3736534386056498,
            "shoulder_pan_joint": -0.3378633547517467,
            "wrist_1_joint": -1.0288598680537169,
            "wrist_2_joint": 1.233022673432363,
            "wrist_3_joint": -3.0940220416140027
        }
    },
    "waypoints": [
        {
            "positions": [
                -0.3378633547517467,
                -1.3736534386056498,
                2.4225746658250005,
                -1.0288598680537169,
                1.233022673432363,
                -3.0940220416140027
            ]
        },
        {
            "positions": [
                -0.41031499214692746,
                -1.4032574739349484,
                2.408480124950294,
                -1.0118623843706012,
                1.0345735353072385,
                -3.0734598776580824
            ]
        },
        {
            "positions": [
                -0.48276662954210814,
                -1.432861509264247,
                2.3943855840755877,
                -0.9948649006874855,
                0.836124397182114,
                -3.0528977137021616
            ]
        },
        {
            "positions": [
                -0.5552182669372888,
                -1.4624655445935457,
                2.3802910432008813,
                -0.9778674170043697,
                0.6376752590569894,
                -3.032335549746241
            ]
        },
        {
            "positions": [
                -0.6276699043324696,
                -1.4920695799228443,
                2.366196502326175,
                -0.960869933321254,
                0.43922612093186486,
                -3.011773385790321
            ]
        },
        {
            "positions": [
                -0.7001215417276503,
                -1.5216736152521428,
                2.3521019614514684,
                -0.9438724496381383,
                0.24077698280674031,
                -2.9912112218344
            ]
        },
        {
            "positions": [
                -0.772573179122831,
                -1.5512776505814414,
                2.338007420576762,
                -0.9268749659550226,
                0.04232784468161588,
                -2.9706490578784797
            ]
        },
        {
            "positions": [
                -0.5880550419643534,
                -1.596453776659,
                2.345380445909819,
                -0.8710708001651105,
                0.12483071193498566,
                -2.989740472139919
            ]
        },
        {
            "positions": [
                -0.4035369048058759,
                -1.6416299027365584,
                2.3527534712428757,
                -0.8152666343751985,
                0.20733357918835543,
                -3.0088318864013583
            ]
        },
        {
            "positions": [
                -0.21901876764739836,
                -1.686806028814117,
                2.3601264965759325,
                -0.7594624685852864,
                0.28983644644172524,
                -3.0279233006627977
            ]
        },
        {
            "positions": [
                -0.034500630488920825,
                -1.7319821548916754,
                2.3674995219089894,
                -0.7036583027953744,
                0.372339313695095,
                -3.047014714924237
            ]
        },
        {
            "positions": [
                0.1500175066695567,
                -1.7771582809692341,
                2.374872547242046,
                -0.6478541370054623,
                0.45484218094846474,
                -3.066106129185676
            ]
        },
        {
            "positions": [
                0.33453564382803425,
                -1.8223344070467926,
                2.382245572575103,
                -0.5920499712155503,
                0.5373450482018345,
                -3.0851975434471153
            ]
        },
        {
            "positions": [
                0.5190537809865117,
                -1.8675105331243511,
                2.38961859790816,
                -0.5362458054256383,
                0.6198479154552043,
                -3.1042889577085546
            ]
        },
        {
            "positions": [
                0.7035719181449892,
                -1.9126866592019096,
                2.3969916232412167,
                -0.4804416396357262,
                0.7023507827085741,
                -3.123380371969994
            ]
        }
    ]
}