{
    "goal": {
        "global_pose": {
            "orientation": {
                "w": -0.00223480608172531,
                "x": 0.0024358444001904467,
                "y": 0.7094548369677653,
                "z": -0.704743149386269
            },
            "position": {
                "x": -0.37947507619857795,
                "y": -0.6371506643295288,
                "z": 0.19426114857196808
            }
        },
        "name": "move_to_magneteinheit_C"
    },
    "id": "PRM_move_to_magneteinheit_C_87",
    "joint_names": [
        "shoulder_pan_joint",
        "shoulder_lift_joint",
        "elbow_joint",
        "wrist_1_joint",
        "wrist_2_joint",
        "wrist_3_joint"
    ],
    "metrics": {
        "cart_traj_len": 1.744284711770967,
        "distance_elbow_joint": 0.15228855144282072,
        "distance_shoulder_lift_joint": 1.5395805323503062,
        "distance_shoulder_pan_joint": 2.036715345999469,
        "distance_wrist_1_joint": 0.4749857785508089,
        "distance_wrist_2_joint": 0.8035847103863499,
        "distance_wrist_3_joint": 1.1368833834726222,
        "smoothness": 1.1991345965413305,
        "time": 2.099299176,
        "traj_len": 2.4787170677998684,
        "weighted_distance": 3.1139003770327625
    },
    "planner": "PRM",
    "start": {
        "state": {
            "elbow_joint": 1.9565354010623817,
            "shoulder_lift_joint": -1.4165861575791021,
            "shoulder_pan_joint": -1.6717766225146293,
            "wrist_1_joint": -0.5286633292919765,
            "wrist_2_joint": 1.472756589071564,
            "wrist_3_joint": -3.1238370188695823
        }
    },
    "waypoints": [
        {
            "positions": [
                -1.6717766225146293,
                -1.4165861575791021,
                1.9565354010623817,
                -0.5286633292919765,
                1.472756589071564,
                -3.1238370188695823
            ]
        },
        {
            "positions": [
                -1.6013160125897201,
                -1.4540655434648144,
                1.9431903176609984,
                -0.4997189027658865,
                1.4339002120516247,
                -3.008382379486179
            ]
        },
        {
            "positions": [
                -1.530855402664811,
                -1.491544929350527,
                1.929845234259615,
                -0.47077447623979646,
                1.3950438350316854,
                -2.8929277401027758
            ]
        },
        {
            "positions": [
                -1.551580008797994,
                -1.5632095587074746,
                1.9302224824002319,
                -0.4799415990283451,
                1.3357480056417301,
                -2.726813553523206
            ]
        },
        {
            "positions": [
                -1.5723046149311772,
                -1.6348741880644222,
                1.9305997305408487,
                -0.4891087218168938,
                1.2764521762517749,
                -2.560699366943636
            ]
        },
        {
            "positions": [
                -1.8020604426653992,
                -1.705758219598119,
                1.9270241126607652,
                -0.48560366197769067,
                1.2731121032577861,
                -2.6095201951184137
            ]
        },
        {
            "positions": [
                -2.0318162703996214,
                -1.7766422511318158,
                1.923448494780682,
                -0.4820986021384875,
                1.2697720302637974,
                -2.658341023293192
            ]
        },
        {
            "positions": [
                -2.2615720981338434,
                -1.8475262826655126,
                1.9198728769005986,
                -0.47859354229928436,
                1.2664319572698086,
                -2.7071618514679696
            ]
        },
        {
            "positions": [
                -2.4913279258680654,
                -1.9184103141992093,
                1.9162972590205152,
                -0.47508848246008123,
                1.2630918842758199,
                -2.7559826796427473
            ]
        },
        {
            "positions": [
                -2.7210837536022874,
                -1.9892943457329062,
                1.912721641140432,
                -0.47158342262087805,
                1.2597518112818311,
                -2.8048035078175255
            ]
        },
        {
            "positions": [
                -2.9508395813365094,
                -2.060178377266603,
                1.9091460232603485,
                -0.4680783627816749,
                1.2564117382878424,
                -2.8536243359923033
            ]
        },
        {
            "positions": [
                -2.8828667316968017,
                -1.9321800468862023,
                1.92391604912868,
                -0.522040122908291,
                1.1725203297731812,
                -2.893741587777733
            ]
        },
        {
            "positions": [
                -2.8148938820570946,
                -1.8041817165058014,
                1.9386860749970116,
                -0.5760018830349071,
                1.08862892125852,
                -2.933858839563163
            ]
        },
        {
            "positions": [
                -2.746921032417387,
                -1.6761833861254005,
                1.953456100865343,
                -0.6299636431615232,
                1.004737512743859,
                -2.9739760913485926
            ]
        },
        {
            "positions": [
                -2.6789481827776793,
                -1.5481850557449999,
                1.9682261267336745,
                -0.6839254032881393,
                0.9208461042291975,
                -3.0140933431340224
            ]
        },
        {
            "positions": [
                -2.6109753331379717,
                -1.420186725364599,
                1.982996152602006,
                -0.7378871634147555,
                0.8369546957145364,
                -3.0542105949194522
            ]
        },
        {
            "positions": [
                -2.5430024834982645,
                -1.2921883949841984,
                1.9977661784703376,
                -0.7918489235413715,
                0.7530632871998753,
                -3.094327846704882
            ]
        },
        {
            "positions": [
                -2.475029633858557,
                -1.1641900646037975,
                2.012536204338669,
                -0.8458106836679876,
                0.669171878685214,
                -3.134445098490312
            ]
        }
    ]
}