{
    "goal": {
        "global_pose": {
            "orientation": {
                "w": 0.5084816262002911,
                "x": -0.4908360881923452,
                "y": 0.5182115481033761,
                "z": -0.48164630358495003
            },
            "position": {
                "x": 0.5540239810943604,
                "y": -0.46912469901144505,
                "z": 0.16403168439865112
            }
        },
        "name": "move_to_storage_B"
    },
    "id": "PRM_move_to_storage_B_2",
    "joint_names": [
        "shoulder_pan_joint",
        "shoulder_lift_joint",
        "elbow_joint",
        "wrist_1_joint",
        "wrist_2_joint",
        "wrist_3_joint"
    ],
    "metrics": {
        "cart_traj_len": 0.8236714749503866,
        "distance_elbow_joint": 0.5220582757188734,
        "distance_shoulder_lift_joint": 0.4591081676989184,
        "distance_shoulder_pan_joint": 0.2980259461729463,
        "distance_wrist_1_joint": 3.273777271276894,
        "distance_wrist_2_joint": 3.168273941261031,
        "distance_wrist_3_joint": 3.134376852076543,
        "smoothness": 0.6536060601012855,
        "time": 0.372448524,
        "traj_len": 3.294786860208898,
        "weighted_distance": 4.854526276671723
    },
    "planner": "PRM",
    "start": {
        "state": {
            "elbow_joint": 1.664937868594044,
            "shoulder_lift_joint": -0.661644460510453,
            "shoulder_pan_joint": -0.9139846352900073,
            "wrist_1_joint": 2.146753192139373,
            "wrist_2_joint": -2.2341966793290973,
            "wrist_3_joint": 0.005466555786416001
        }
    },
    "waypoints": [
        {
            "positions": [
                -0.9139846352900073,
                -0.661644460510453,
                1.664937868594044,
                2.146753192139373,
                -2.2341966793290973,
                0.005466555786416001
            ]
        },
        {
            "positions": [
                -0.8850456288910489,
                -0.7661202702871757,
                1.6220922486333929,
                2.2161789356017056,
                -2.351018388822002,
                -0.021608836935479117
            ]
        },
        {
            "positions": [
                -0.8561066224920904,
                -0.8705960800638983,
                1.5792466286727418,
                2.2856046790640376,
                -2.4678400983149062,
                -0.048684229657374234
            ]
        },
        {
            "positions": [
                -0.865343081468053,
                -0.8802174857618011,
                1.5960299762034176,
                2.165030610435106,
                -2.3549696936120132,
                -0.16715446298940323
            ]
        },
        {
            "positions": [
                -0.8745795404440156,
                -0.889838891459704,
                1.6128133237340934,
                2.044456541806174,
                -2.24209928890912,
                -0.28562469632143217
            ]
        },
        {
            "positions": [
                -0.8838159994199783,
                -0.8994602971576068,
                1.6295966712647691,
                1.923882473177242,
                -2.129228884206227,
                -0.40409492965346117
            ]
        },
        {
            "positions": [
                -0.893052458395941,
                -0.9090817028555096,
                1.6463800187954452,
                1.80330840454831,
                -2.016358479503334,
                -0.5225651629854902
            ]
        },
        {
            "positions": [
                -0.9022889173719038,
                -0.9187031085534124,
                1.663163366326121,
                1.682734335919378,
                -1.9034880748004406,
                -0.641035396317519
            ]
        },
        {
            "positions": [
                -0.9115253763478663,
                -0.9283245142513152,
                1.6799467138567967,
                1.5621602672904462,
                -1.7906176700975474,
                -0.7595056296495482
            ]
        },
        {
            "positions": [
                -0.920761835323829,
                -0.9379459199492179,
                1.6967300613874725,
                1.4415861986615144,
                -1.6777472653946544,
                -0.877975862981577
            ]
        },
        {
            "positions": [
                -0.9299982942997918,
                -0.9475673256471208,
                1.7135134089181483,
                1.3210121300325826,
                -1.5648768606917611,
                -0.9964460963136061
            ]
        },
        {
            "positions": [
                -0.9392347532757543,
                -0.9571887313450236,
                1.730296756448824,
                1.2004380614036505,
                -1.4520064559888681,
                -1.1149163296456348
            ]
        },
        {
            "positions": [
                -0.948471212251717,
                -0.9668101370429264,
                1.7470801039795,
                1.0798639927747187,
                -1.339136051285975,
                -1.233386562977664
            ]
        },
        {
            "positions": [
                -0.9577076712276797,
                -0.9764315427408292,
                1.7638634515101759,
                0.9592899241457868,
                -1.2262656465830817,
                -1.3518567963096928
            ]
        },
        {
            "positions": [
                -0.9669441302036423,
                -0.986052948438732,
                1.7806467990408517,
                0.8387158555168548,
                -1.1133952418801885,
                -1.470327029641722
            ]
        },
        {
            "positions": [
                -0.976180589179605,
                -0.9956743541366349,
                1.7974301465715274,
                0.718141786887923,
                -1.0005248371772955,
                -1.5887972629737508
            ]
        },
        {
            "positions": [
                -0.9854170481555677,
                -1.0052957598345376,
                1.8142134941022032,
                0.5975677182589911,
                -0.8876544324744025,
                -1.7072674963057797
            ]
        },
        {
            "positions": [
                -0.9946535071315303,
                -1.0149171655324405,
                1.830996841632879,
                0.4769936496300593,
                -0.7747840277715092,
                -1.8257377296378086
            ]
        },
        {
            "positions": [
                -1.0038899661074931,
                -1.0245385712303432,
                1.8477801891635548,
                0.35641958100112725,
                -0.661913623068616,
                -1.9442079629698379
            ]
        },
        {
            "positions": [
                -1.0131264250834557,
                -1.0341599769282461,
                1.8645635366942308,
                0.2358455123721952,
                -0.5490432183657228,
                -2.0626781963018668
            ]
        },
        {
            "positions": [
                -1.0223628840594183,
                -1.0437813826261488,
                1.8813468842249066,
                0.11527144374326337,
                -0.43617281366283,
                -2.1811484296338954
            ]
        },
        {
            "positions": [
                -1.031599343035381,
                -1.0534027883240518,
                1.8981302317555824,
                -0.005302624885668461,
                -0.32330240895993656,
                -2.2996186629659245
            ]
        },
        {
            "positions": [
                -1.0408358020113437,
                -1.0630241940219545,
                1.9149135792862582,
                -0.1258766935146003,
                -0.21043200425704356,
                -2.4180888962979536
            ]
        },
        {
            "positions": [
                -1.0500722609873063,
                -1.0726455997198574,
                1.931696926816934,
                -0.24645076214353212,
                -0.09756159955415011,
                -2.5365591296299828
            ]
        },
        {
            "positions": [
                -1.0593087199632691,
                -1.08226700541776,
                1.9484802743476097,
                -0.36702483077246395,
                0.015308805148742888,
                -2.6550293629620114
            ]
        },
        {
            "positions": [
                -1.0685451789392317,
                -1.091888411115663,
                1.9652636218782855,
                -0.4875988994013958,
                0.1281792098516359,
                -2.7734995962940405
            ]
        },
        {
            "positions": [
                -1.0777816379151943,
                -1.1015098168135657,
                1.9820469694089615,
                -0.608172968030328,
                0.24104961455452933,
                -2.8919698296260696
            ]
        },
        {
            "positions": [
                -1.0870180968911571,
                -1.1111312225114687,
                1.9988303169396373,
                -0.7287470366592599,
                0.35392001925742234,
                -3.0104400629580983
            ]
        },
        {
            "positions": [
                -1.0962545558671197,
                -1.1207526282093714,
                2.015613664470313,
                -0.8493211052881917,
                0.46679042396031556,
                -3.1289102962901274
            ]
        }
    ]
}