{
    "goal": {
        "global_pose": {
            "orientation": {
                "w": -0.4816463035849501,
                "x": 0.5182115481033762,
                "y": 0.4908360881923453,
                "z": -0.5084816262002911
            },
            "position": {
                "x": -0.8240239810943604,
                "y": 0.19912469901144506,
                "z": 0.16403168439865112
            }
        },
        "name": "move_to_storage_D"
    },
    "id": "PRM_move_to_storage_D_93",
    "joint_names": [
        "shoulder_pan_joint",
        "shoulder_lift_joint",
        "elbow_joint",
        "wrist_1_joint",
        "wrist_2_joint",
        "wrist_3_joint"
    ],
    "metrics": {
        "cart_traj_len": 5.714842865644174,
        "distance_elbow_joint": 5.3822718432787635,
        "distance_shoulder_lift_joint": 2.6877365937039777,
        "distance_shoulder_pan_joint": 2.8134585090679867,
        "distance_wrist_1_joint": 6.312954376685692,
        "distance_wrist_2_joint": 2.378893236932789,
        "distance_wrist_3_joint": 4.837392913755744,
        "smoothness": 0.6727475239012318,
        "time": 0.24468358099999998,
        "traj_len": 4.940921723061896,
        "weighted_distance": 6.540591786264826
    },
    "planner": "PRM",
    "start": {
        "state": {
            "elbow_joint": -2.384821988534728,
            "shoulder_lift_joint": -2.2788054721415256,
            "shoulder_pan_joint": -0.1854694642142757,
            "wrist_1_joint": 1.4845938289331202,
            "wrist_2_joint": 0.17898776772866878,
            "wrist_3_joint": 0.037105688729662994
        }
    },
    "waypoints": [
        {
            "positions": [
                -0.1854694642142757,
                -2.2788054721415256,
                -2.384821988534728,
                1.4845938289331202,
                0.17898776772866878,
                0.037105688729662994
            ]
        },
        {
            "positions": [
                -0.10641218040288383,
                -2.208470991602866,
                -2.3760987797338635,
                1.4901209259158954,
                0.13741020551844085,
                0.17645535865438228
            ]
        },
        {
            "positions": [
                -0.027354896591491956,
                -2.1381365110642068,
                -2.3673755709329996,
                1.4956480228986706,
                0.09583264330821292,
                0.31580502857910153
            ]
        },
        {
            "positions": [
                0.05170238721989992,
                -2.0678020305255473,
                -2.358652362132135,
                1.501175119881446,
                0.05425508109798499,
                0.45515469850382084
            ]
        },
        {
            "positions": [
                0.1307596710312918,
                -1.997467549986888,
                -2.349929153331271,
                1.5067022168642212,
                0.012677518887757061,
                0.5945043684285402
            ]
        },
        {
            "positions": [
                0.2098169548426837,
                -1.9271330694482285,
                -2.3412059445304068,
                1.5122293138469964,
                -0.02890004332247087,
                0.7338540383532595
            ]
        },
        {
            "positions": [
                0.2730404161035026,
                -1.9025020691600256,
                -2.2180682608705045,
                1.373192248430743,
                -0.004510978264844739,
                0.7417504319455674
            ]
        },
        {
            "positions": [
                0.3362638773643215,
                -1.8778710688718228,
                -2.0949305772106017,
                1.2341551830144897,
                0.019878086792781392,
                0.7496468255378753
            ]
        },
        {
            "positions": [
                0.3994873386251403,
                -1.8532400685836197,
                -1.9717928935506994,
                1.0951181175982363,
                0.04426715185040751,
                0.7575432191301833
            ]
        },
        {
            "positions": [
                0.46271079988595926,
                -1.8286090682954168,
                -1.848655209890797,
                0.9560810521819828,
                0.06865621690803365,
                0.7654396127224912
            ]
        },
        {
            "positions": [
                0.5259342611467781,
                -1.803978068007214,
                -1.7255175262308944,
                0.8170439867657294,
                0.09304528196565978,
                0.7733360063147992
            ]
        },
        {
            "positions": [
                0.589157722407597,
                -1.779347067719011,
                -1.602379842570992,
                0.678006921349476,
                0.1174343470232859,
                0.7812323999071071
            ]
        },
        {
            "positions": [
                0.6523811836684159,
                -1.7547160674308082,
                -1.4792421589110898,
                0.5389698559332227,
                0.14182341208091204,
                0.789128793499415
            ]
        },
        {
            "positions": [
                0.7156046449292348,
                -1.7300850671426051,
                -1.356104475251187,
                0.39993279051696917,
                0.16621247713853818,
                0.797025187091723
            ]
        },
        {
            "positions": [
                0.7788281061900536,
                -1.7054540668544023,
                -1.2329667915912847,
                0.2608957251007158,
                0.19060154219616432,
                0.8049215806840309
            ]
        },
        {
            "positions": [
                0.8420515674508725,
                -1.6808230665661994,
                -1.1098291079313822,
                0.12185865968446241,
                0.21499060725379043,
                0.8128179742763388
            ]
        },
        {
            "positions": [
                0.9052750287116914,
                -1.6561920662779965,
                -0.9866914242714797,
                -0.01717840573179119,
                0.2393796723114166,
                0.8207143678686468
            ]
        },
        {
            "positions": [
                0.9684984899725102,
                -1.6315610659897937,
                -0.8635537406115774,
                -0.15621547114804435,
                0.26376873736904266,
                0.8286107614609547
            ]
        },
        {
            "positions": [
                1.031721951233329,
                -1.6069300657015906,
                -0.7404160569516749,
                -0.29525253656429795,
                0.28815780242666883,
                0.8365071550532627
            ]
        },
        {
            "positions": [
                1.094945412494148,
                -1.5822990654133877,
                -0.6172783732917726,
                -0.4342896019805511,
                0.31254686748429494,
                0.8444035486455705
            ]
        },
        {
            "positions": [
                1.158168873754967,
                -1.5576680651251849,
                -0.4941406896318701,
                -0.5733266673968047,
                0.3369359325419211,
                0.8522999422378785
            ]
        },
        {
            "positions": [
                1.221392335015786,
                -1.533037064836982,
                -0.37100300597196734,
                -0.7123637328130581,
                0.3613249975995472,
                0.8601963358301865
            ]
        },
        {
            "positions": [
                1.2846157962766047,
                -1.5084060645487791,
                -0.24786532231206504,
                -0.8514007982293115,
                0.38571406265717334,
                0.8680927294224944
            ]
        },
        {
            "positions": [
                1.3478392575374234,
                -1.483775064260576,
                -0.12472763865216274,
                -0.9904378636455649,
                0.4101031277147995,
                0.8759891230148024
            ]
        },
        {
            "positions": [
                1.4110627187982425,
                -1.4591440639723732,
                -0.001589954992260445,
                -1.1294749290618182,
                0.43449219277242557,
                0.8838855166071102
            ]
        },
        {
            "positions": [
                1.4742861800590612,
                -1.4345130636841703,
                0.1215477286676424,
                -1.2685119944780716,
                0.45888125783005174,
                0.8917819101994182
            ]
        },
        {
            "positions": [
                1.5040356213193904,
                -1.4937981563831715,
                0.07275887507133591,
                -1.102830566643548,
                0.41339345981199627,
                0.871807649462556
            ]
        },
        {
            "positions": [
                1.5337850625797196,
                -1.5530832490821727,
                0.02397002147502944,
                -0.9371491388090243,
                0.36790566179394074,
                0.8518333887256937
            ]
        },
        {
            "positions": [
                1.5635345038400488,
                -1.6123683417811738,
                -0.024818832121277043,
                -0.7714677109745006,
                0.3224178637758852,
                0.8318591279888314
            ]
        },
        {
            "positions": [
                1.593283945100378,
                -1.671653434480175,
                -0.07360768571758351,
                -0.605786283139977,
                0.27693006575782975,
                0.8118848672519693
            ]
        },
        {
            "positions": [
                1.6230333863607072,
                -1.7309385271791762,
                -0.12239653931389001,
                -0.4401048553054533,
                0.23144226773977425,
                0.791910606515107
            ]
        },
        {
            "positions": [
                1.6527828276210363,
                -1.7902236198781774,
                -0.17118539291019647,
                -0.2744234274709296,
                0.18595446972171875,
                0.7719363457782448
            ]
        },
        {
            "positions": [
                1.6825322688813655,
                -1.8495087125771785,
                -0.219974246506503,
                -0.10874199963640585,
                0.14046667170366323,
                0.7519620850413825
            ]
        },
        {
            "positions": [
                1.7122817101416947,
                -1.9087938052761797,
                -0.2687631001028094,
                0.0569394281981177,
                0.09497887368560776,
                0.7319878243045204
            ]
        },
        {
            "positions": [
                1.742031151402024,
                -1.9680788979751809,
                -0.31755195369911593,
                0.22262085603264126,
                0.04949107566755229,
                0.7120135635676581
            ]
        },
        {
            "positions": [
                1.771780592662353,
                -2.027363990674182,
                -0.3663408072954224,
                0.38830228386716503,
                0.0040032776494967615,
                0.6920393028307958
            ]
        },
        {
            "positions": [
                1.8015300339226823,
                -2.0866490833731834,
                -0.41512966089172887,
                0.5539837117016886,
                -0.041484520368558764,
                0.6720650420939336
            ]
        },
        {
            "positions": [
                1.8312794751830115,
                -2.1459341760721844,
                -0.46391851448803534,
                0.7196651395362124,
                -0.08697231838661423,
                0.6520907813570713
            ]
        },
        {
            "positions": [
                1.860787237022667,
                -2.1040073955959397,
                -0.37908755586134213,
                0.6635021599276029,
                -0.04484748325652309,
                0.5134602049332326
            ]
        },
        {
            "positions": [
                1.8902949988623226,
                -2.0620806151196946,
                -0.2942565972346489,
                0.6073391803189934,
                -0.0027226481264319424,
                0.374829628509394
            ]
        },
        {
            "positions": [
                1.919802760701978,
                -2.02015383464345,
                -0.2094256386079557,
                0.5511762007103838,
                0.03940218700365922,
                0.2361990520855553
            ]
        },
        {
            "positions": [
                1.9493105225416336,
                -1.9782270541672051,
                -0.12459467998126245,
                0.49501322110177426,
                0.08152702213375035,
                0.09756847566171667
            ]
        },
        {
            "positions": [
                1.9788182843812891,
                -1.9363002736909602,
                -0.03976372135456924,
                0.43885024149316476,
                0.12365185726384151,
                -0.04106210076212202
            ]
        },
        {
            "positions": [
                2.0083260462209447,
                -1.8943734932147156,
                0.04506723727212392,
                0.38268726188455526,
                0.16577669239393267,
                -0.17969267718596071
            ]
        },
        {
            "positions": [
                2.0378338080606,
                -1.8524467127384707,
                0.12989819589881713,
                0.32652428227594577,
                0.2079015275240238,
                -0.3183232536097994
            ]
        },
        {
            "positions": [
                2.0673415699002557,
                -1.8105199322622259,
                0.21472915452551045,
                0.2703613026673362,
                0.25002636265411493,
                -0.456953830033638
            ]
        },
        {
            "positions": [
                2.0968493317399113,
                -1.7685931517859812,
                0.29956011315220366,
                0.21419832305872677,
                0.29215119778420606,
                -0.5955844064574767
            ]
        },
        {
            "positions": [
                2.126357093579567,
                -1.7266663713097363,
                0.38439107177889686,
                0.15803534345011716,
                0.33427603291429725,
                -0.7342149828813154
            ]
        },
        {
            "positions": [
                2.155864855419222,
                -1.6847395908334915,
                0.4692220304055901,
                0.10187236384150766,
                0.3764008680443884,
                -0.8728455593051541
            ]
        },
        {
            "positions": [
                2.185372617258878,
                -1.6428128103572466,
                0.5540529890322832,
                0.045709384232898165,
                0.41852570317447957,
                -1.0114761357289928
            ]
        },
        {
            "positions": [
                2.214880379098533,
                -1.6008860298810017,
                0.6388839476589765,
                -0.010453595375711333,
                0.4606505383045707,
                -1.1501067121528314
            ]
        },
        {
            "positions": [
                2.2443881409381885,
                -1.558959249404757,
                0.7237149062856696,
                -0.06661657498432083,
                0.5027753734346618,
                -1.2887372885766701
            ]
        },
        {
            "positions": [
                2.273895902777844,
                -1.5170324689285122,
                0.8085458649123631,
                -0.12277955459293044,
                0.544900208564753,
                -1.4273678650005088
            ]
        },
        {
            "positions": [
                2.3034036646174996,
                -1.4751056884522673,
                0.8933768235390562,
                -0.17894253420153994,
                0.5870250436948441,
                -1.5659984414243473
            ]
        },
        {
            "positions": [
                2.332911426457155,
                -1.4331789079760227,
                0.9782077821657496,
                -0.23510551381014944,
                0.6291498788249353,
                -1.7046290178481862
            ]
        },
        {
            "positions": [
                2.3624191882968106,
                -1.3912521274997778,
                1.0630387407924426,
                -0.2912684934187588,
                0.6712747139550264,
                -1.8432595942720247
            ]
        },
        {
            "positions": [
                2.391926950136466,
                -1.349325347023533,
                1.147869699419136,
                -0.34743147302736843,
                0.7133995490851176,
                -1.9818901706958636
            ]
        },
        {
            "positions": [
                2.4214347119761217,
                -1.3073985665472883,
                1.232700658045829,
                -0.40359445263597804,
                0.7555243842152087,
                -2.120520747119702
            ]
        },
        {
            "positions": [
                2.4509424738157772,
                -1.2654717860710432,
                1.3175316166725224,
                -0.45975743224458765,
                0.7976492193452999,
                -2.259151323543541
            ]
        },
        {
            "positions": [
                2.4804502356554328,
                -1.2235450055947985,
                1.4023625752992155,
                -0.515920411853197,
                0.839774054475391,
                -2.3977818999673794
            ]
        },
        {
            "positions": [
                2.5099579974950883,
                -1.1816182251185536,
                1.4871935339259088,
                -0.5720833914618066,
                0.8818988896054821,
                -2.5364124763912184
            ]
        },
        {
            "positions": [
                2.539465759334744,
                -1.1396914446423088,
                1.5720244925526017,
                -0.628246371070416,
                0.9240237247355734,
                -2.675043052815057
            ]
        },
        {
            "positions": [
                2.5689735211743994,
                -1.0977646641660639,
                1.656855451179295,
                -0.6844093506790256,
                0.9661485598656645,
                -2.8136736292388957
            ]
        },
        {
            "positions": [
                2.598481283014055,
                -1.0558378836898192,
                1.7416864098059883,
                -0.740572330287635,
                1.0082733949957556,
                -2.952304205662734
            ]
        },
        {
            "positions": [
                2.6279890448537104,
                -1.0139111032135744,
                1.8265173684326816,
                -0.7967353098962445,
                1.0503982301258468,
                -3.090934782086573
            ]
        }
    ]
}