{
    "goal": {
        "global_pose": {
            "orientation": {
                "w": 0.005598929693374612,
                "x": 0.007748599140229565,
                "y": 0.7110244013736278,
                "z": -0.7031023480610252
            },
            "position": {
                "x": -0.8858502320852131,
                "y": -0.7141253447532654,
                "z": 0.3711530566215515
            }
        },
        "name": "move_to_auspresseinheit_C"
    },
    "id": "PRM_move_to_auspresseinheit_C_135",
    "joint_names": [
        "shoulder_pan_joint",
        "shoulder_lift_joint",
        "elbow_joint",
        "wrist_1_joint",
        "wrist_2_joint",
        "wrist_3_joint"
    ],
    "metrics": {
        "cart_traj_len": 0.4934768188796699,
        "distance_elbow_joint": 1.0116031908650764,
        "distance_shoulder_lift_joint": 0.33062097895730247,
        "distance_shoulder_pan_joint": 0.25561014203569776,
        "distance_wrist_1_joint": 0.6986039172514222,
        "distance_wrist_2_joint": 1.320688182699718,
        "distance_wrist_3_joint": 0.06974103572946833,
        "smoothness": 9.689219124001365e-16,
        "time": 0.018885943,
        "traj_len": 1.9201217272711346,
        "weighted_distance": 2.4177761722187525
    },
    "planner": "PRM",
    "start": {
        "state": {
            "elbow_joint": 1.7527959577737207,
            "shoulder_lift_joint": -0.9740617694225068,
            "shoulder_pan_joint": -2.967991417825858,
            "wrist_1_joint": -0.759517768980727,
            "wrist_2_joint": 1.7443932448377408,
            "wrist_3_joint": -3.0840537646736568
        }
    },
    "waypoints": [
        {
            "positions": [
                -2.967991417825858,
                -0.9740617694225068,
                1.7527959577737207,
                -0.759517768980727,
                1.7443932448377408,
                -3.0840537646736568
            ]
        },
        {
            "positions": [
                -2.9424304036222884,
                -0.9409996715267765,
                1.651635638687213,
                -0.6896573772555847,
                1.612324426567769,
                -3.0910278682466035
            ]
        },
        {
            "positions": [
                -2.9168693894187183,
                -0.9079375736310463,
                1.5504753196007053,
                -0.6197969855304425,
                1.4802556082977971,
                -3.0980019718195506
            ]
        },
        {
            "positions": [
                -2.8913083752151487,
                -0.874875475735316,
                1.4493150005141977,
                -0.5499365938053004,
                1.3481867900278255,
                -3.1049760753924973
            ]
        },
        {
            "positions": [
                -2.8657473610115787,
                -0.8418133778395858,
                1.3481546814276901,
                -0.48007620208015805,
                1.2161179717578534,
                -3.111950178965444
            ]
        },
        {
            "positions": [
                -2.840186346808009,
                -0.8087512799438555,
                1.2469943623411823,
                -0.41021581035501586,
                1.0840491534878818,
                -3.1189242825383907
            ]
        },
        {
            "positions": [
                -2.8146253326044395,
                -0.7756891820481253,
                1.1458340432546748,
                -0.3403554186298737,
                0.95198033521791,
                -3.125898386111338
            ]
        },
        {
            "positions": [
                -2.7890643184008694,
                -0.7426270841523951,
                1.0446737241681672,
                -0.27049502690473143,
                0.8199115169479382,
                -3.1328724896842846
            ]
        },
        {
            "positions": [
                -2.7635033041973,
                -0.7095649862566649,
                0.9435134050816595,
                -0.20063463517958913,
                0.6878426986779662,
                -3.1398465932572313
            ]
        },
        {
            "positions": [
                -2.73794228999373,
                -0.6765028883609345,
                0.8423530859951518,
                -0.130774243454447,
                0.5557738804079946,
                -3.1468206968301784
            ]
        },
        {
            "positions": [
                -2.71238127579016,
                -0.6434407904652043,
                0.7411927669086442,
                -0.060913851729304774,
                0.42370506213802267,
                -3.153794800403125
            ]
        }
    ]
}