{
    "goal": {
        "global_pose": {
            "orientation": {
                "w": 0.5084816262002911,
                "x": -0.4908360881923452,
                "y": 0.5182115481033761,
                "z": -0.48164630358495003
            },
            "position": {
                "x": 0.5540239810943604,
                "y": -0.46912469901144505,
                "z": 0.16403168439865112
            }
        },
        "name": "move_to_storage_B"
    },
    "id": "PRM_move_to_storage_B_87",
    "joint_names": [
        "shoulder_pan_joint",
        "shoulder_lift_joint",
        "elbow_joint",
        "wrist_1_joint",
        "wrist_2_joint",
        "wrist_3_joint"
    ],
    "metrics": {
        "cart_traj_len": 1.6948796067493883,
        "distance_elbow_joint": 0.7060567215903633,
        "distance_shoulder_lift_joint": 1.2338899876183074,
        "distance_shoulder_pan_joint": 1.3910361713461716,
        "distance_wrist_1_joint": 2.9776291243641695,
        "distance_wrist_2_joint": 2.703289889662224,
        "distance_wrist_3_joint": 4.4698175935704185,
        "smoothness": 0.27265584636772766,
        "time": 0.277128539,
        "traj_len": 3.671746108890381,
        "weighted_distance": 5.301157768763242
    },
    "planner": "PRM",
    "start": {
        "state": {
            "elbow_joint": 1.664937868594044,
            "shoulder_lift_joint": -0.661644460510453,
            "shoulder_pan_joint": -0.9139846352900073,
            "wrist_1_joint": 2.146753192139373,
            "wrist_2_joint": -2.2341966793290973,
            "wrist_3_joint": 0.005466555786416001
        }
    },
    "waypoints": [
        {
            "positions": [
                -0.9139846352900073,
                -0.661644460510453,
                1.664937868594044,
                2.146753192139373,
                -2.2341966793290973,
                0.005466555786416001
            ]
        },
        {
            "positions": [
                -0.8674628860996574,
                -0.7267014448964427,
                1.7054782545642984,
                2.0815297029661064,
                -2.110737603959598,
                -0.04562190953441707
            ]
        },
        {
            "positions": [
                -0.8209411369093074,
                -0.7917584292824326,
                1.7460186405345526,
                2.0163062137928396,
                -1.987278528590099,
                -0.09671037485525014
            ]
        },
        {
            "positions": [
                -0.7744193877189575,
                -0.8568154136684223,
                1.786559026504807,
                1.9510827246195728,
                -1.8638194532205998,
                -0.14779884017608322
            ]
        },
        {
            "positions": [
                -0.7278976385286074,
                -0.9218723980544121,
                1.8270994124750612,
                1.885859235446306,
                -1.7403603778511008,
                -0.19888730549691627
            ]
        },
        {
            "positions": [
                -0.6813758893382575,
                -0.9869293824404018,
                1.8676397984453157,
                1.8206357462730391,
                -1.6169013024816015,
                -0.24997577081774933
            ]
        },
        {
            "positions": [
                -0.6348541401479075,
                -1.0519863668263916,
                1.90818018441557,
                1.7554122570997723,
                -1.4934422271121024,
                -0.3010642361385824
            ]
        },
        {
            "positions": [
                -0.5883323909575577,
                -1.1170433512123814,
                1.9487205703858244,
                1.6901887679265055,
                -1.3699831517426033,
                -0.3521527014594154
            ]
        },
        {
            "positions": [
                -0.5418106417672077,
                -1.182100335598371,
                1.9892609563560786,
                1.6249652787532387,
                -1.2465240763731043,
                -0.4032411667802485
            ]
        },
        {
            "positions": [
                -0.49528889257685776,
                -1.2471573199843609,
                2.029801342326333,
                1.559741789579972,
                -1.123065001003605,
                -0.45432963210108157
            ]
        },
        {
            "positions": [
                -0.4487671433865078,
                -1.3122143043703507,
                2.0703417282965875,
                1.494518300406705,
                -0.9996059256341059,
                -0.5054180974219147
            ]
        },
        {
            "positions": [
                -0.4022453941961579,
                -1.3772712887563405,
                2.1108821142668415,
                1.4292948112334383,
                -0.8761468502646068,
                -0.5565065627427478
            ]
        },
        {
            "positions": [
                -0.3557236450058079,
                -1.4423282731423304,
                2.151422500237096,
                1.3640713220601715,
                -0.7526877748951075,
                -0.6075950280635809
            ]
        },
        {
            "positions": [
                -0.30920189581545793,
                -1.50738525752832,
                2.1919628862073504,
                1.2988478328869046,
                -0.6292286995256084,
                -0.6586834933844139
            ]
        },
        {
            "positions": [
                -0.34494068817325896,
                -1.4897421125010273,
                2.1838250814811206,
                1.2020422072000092,
                -0.5793049763502115,
                -0.4856986050026144
            ]
        },
        {
            "positions": [
                -0.38067948053106,
                -1.4720989674737346,
                2.1756872767548905,
                1.1052365815131135,
                -0.5293812531748145,
                -0.312713716620815
            ]
        },
        {
            "positions": [
                -0.416418272888861,
                -1.4544558224464417,
                2.1675494720286608,
                1.0084309558262181,
                -0.4794575299994176,
                -0.13972882823901556
            ]
        },
        {
            "positions": [
                -0.4521570652466621,
                -1.436812677419149,
                2.159411667302431,
                0.9116253301393227,
                -0.4295338068240206,
                0.03325606014278393
            ]
        },
        {
            "positions": [
                -0.4878958576044631,
                -1.4191695323918563,
                2.151273862576201,
                0.8148197044524272,
                -0.37961008364862364,
                0.2062409485245834
            ]
        },
        {
            "positions": [
                -0.5236346499622642,
                -1.4015263873645636,
                2.143136057849971,
                0.7180140787655317,
                -0.3296863604732267,
                0.3792258369063828
            ]
        },
        {
            "positions": [
                -0.5593734423200651,
                -1.3838832423372707,
                2.1349982531237415,
                0.6212084530786361,
                -0.27976263729782974,
                0.5522107252881823
            ]
        },
        {
            "positions": [
                -0.5951122346778662,
                -1.366240097309978,
                2.1268604483975113,
                0.5244028273917406,
                -0.22983891412243274,
                0.7251956136699818
            ]
        },
        {
            "positions": [
                -0.6308510270356673,
                -1.3485969522826853,
                2.1187226436712816,
                0.42759720170484516,
                -0.17991519094703579,
                0.8981805020517815
            ]
        },
        {
            "positions": [
                -0.6665898193934683,
                -1.3309538072553926,
                2.110584838945052,
                0.33079157601794973,
                -0.12999146777163884,
                1.0711653904335807
            ]
        },
        {
            "positions": [
                -0.7023286117512693,
                -1.3133106622281,
                2.102447034218822,
                0.23398595033105418,
                -0.08006774459624189,
                1.2441502788153802
            ]
        },
        {
            "positions": [
                -0.7380674041090703,
                -1.295667517200807,
                2.094309229492592,
                0.13718032464415875,
                -0.030144021420844935,
                1.4171351671971795
            ]
        },
        {
            "positions": [
                -0.7738061964668714,
                -1.2780243721735143,
                2.0861714247663623,
                0.04037469895726309,
                0.019779701754552015,
                1.5901200555789792
            ]
        },
        {
            "positions": [
                -0.8095449888246724,
                -1.2603812271462216,
                2.0780336200401326,
                -0.05643092672963235,
                0.06970342492994896,
                1.7631049439607784
            ]
        },
        {
            "positions": [
                -0.8452837811824734,
                -1.2427380821189289,
                2.0698958153139024,
                -0.15323655241652778,
                0.11962714810534592,
                1.9360898323425777
            ]
        },
        {
            "positions": [
                -0.8810225735402746,
                -1.225094937091636,
                2.0617580105876727,
                -0.25004217810342344,
                0.16955087128074298,
                2.1090747207243776
            ]
        },
        {
            "positions": [
                -0.9167613658980756,
                -1.2074517920643433,
                2.053620205861443,
                -0.34684780379031865,
                0.21947459445613982,
                2.2820596091061773
            ]
        },
        {
            "positions": [
                -0.9525001582558765,
                -1.1898086470370506,
                2.045482401135213,
                -0.4436534294772143,
                0.2693983176315369,
                2.455044497487977
            ]
        },
        {
            "positions": [
                -0.9882389506136775,
                -1.1721655020097579,
                2.037344596408983,
                -0.5404590551641097,
                0.3193220408069338,
                2.628029385869776
            ]
        },
        {
            "positions": [
                -1.0239777429714787,
                -1.154522356982465,
                2.0292067916827534,
                -0.6372646808510052,
                0.3692457639823308,
                2.8010142742515756
            ]
        },
        {
            "positions": [
                -1.0597165353292797,
                -1.1368792119551723,
                2.0210689869565233,
                -0.7340703065379008,
                0.41916948715772784,
                2.9739991626333753
            ]
        },
        {
            "positions": [
                -1.0954553276870806,
                -1.1192360669278796,
                2.0129311822302935,
                -0.8308759322247964,
                0.46909321033312473,
                3.1469840510151745
            ]
        }
    ]
}