{
    "goal": {
        "global_pose": {
            "orientation": {
                "w": 0.5084816262002911,
                "x": -0.4908360881923452,
                "y": 0.5182115481033761,
                "z": -0.48164630358495003
            },
            "position": {
                "x": 0.5540239810943604,
                "y": -0.46912469901144505,
                "z": 0.16403168439865112
            }
        },
        "name": "move_to_storage_B"
    },
    "id": "PRM_move_to_storage_B_86",
    "joint_names": [
        "shoulder_pan_joint",
        "shoulder_lift_joint",
        "elbow_joint",
        "wrist_1_joint",
        "wrist_2_joint",
        "wrist_3_joint"
    ],
    "metrics": {
        "cart_traj_len": 4.897565023973982,
        "distance_elbow_joint": 4.562906152033901,
        "distance_shoulder_lift_joint": 0.47848630288973304,
        "distance_shoulder_pan_joint": 4.209054032401508,
        "distance_wrist_1_joint": 2.9821549575704873,
        "distance_wrist_2_joint": 3.0441305023454546,
        "distance_wrist_3_joint": 3.132093448556926,
        "smoothness": 0.28666267957189284,
        "time": 0.240894355,
        "traj_len": 4.290550710083498,
        "weighted_distance": 5.540694699478379
    },
    "planner": "PRM",
    "start": {
        "state": {
            "elbow_joint": 1.664937868594044,
            "shoulder_lift_joint": -0.661644460510453,
            "shoulder_pan_joint": -0.9139846352900073,
            "wrist_1_joint": 2.146753192139373,
            "wrist_2_joint": -2.2341966793290973,
            "wrist_3_joint": 0.005466555786416001
        }
    },
    "waypoints": [
        {
            "positions": [
                -0.9139846352900073,
                -0.661644460510453,
                1.664937868594044,
                2.146753192139373,
                -2.2341966793290973,
                0.005466555786416001
            ]
        },
        {
            "positions": [
                -0.8420906658930056,
                -0.6783859733667958,
                1.5896923037478607,
                2.07483184415108,
                -2.131561744401389,
                0.05945887896405306
            ]
        },
        {
            "positions": [
                -0.7701966964960039,
                -0.6951274862231386,
                1.5144467389016774,
                2.0029104961627864,
                -2.0289268094736803,
                0.11345120214169012
            ]
        },
        {
            "positions": [
                -0.6983027270990022,
                -0.7118689990794814,
                1.4392011740554942,
                1.9309891481744932,
                -1.926291874545972,
                0.16744352531932719
            ]
        },
        {
            "positions": [
                -0.6264087577020006,
                -0.7286105119358242,
                1.363955609209311,
                1.8590678001862,
                -1.8236569396182638,
                0.22143584849696424
            ]
        },
        {
            "positions": [
                -0.5545147883049988,
                -0.745352024792167,
                1.2887100443631276,
                1.7871464521979066,
                -1.7210220046905553,
                0.2754281716746014
            ]
        },
        {
            "positions": [
                -0.4826208189079971,
                -0.7620935376485098,
                1.2134644795169445,
                1.7152251042096132,
                -1.6183870697628469,
                0.3294204948522384
            ]
        },
        {
            "positions": [
                -0.41072684951099536,
                -0.7788350505048527,
                1.138218914670761,
                1.6433037562213197,
                -1.5157521348351386,
                0.3834128180298755
            ]
        },
        {
            "positions": [
                -0.3388328801139937,
                -0.7955765633611954,
                1.0629733498245781,
                1.5713824082330266,
                -1.4131171999074303,
                0.4374051412075125
            ]
        },
        {
            "positions": [
                -0.26693891071699194,
                -0.8123180762175383,
                0.9877277849783946,
                1.4994610602447331,
                -1.3104822649797216,
                0.49139746438514964
            ]
        },
        {
            "positions": [
                -0.19504494131999028,
                -0.829059589073881,
                0.9124822201322115,
                1.42753971225644,
                -1.2078473300520134,
                0.5453897875627867
            ]
        },
        {
            "positions": [
                -0.12315097192298852,
                -0.8458011019302238,
                0.8372366552860282,
                1.3556183642681465,
                -1.1052123951243051,
                0.5993821107404237
            ]
        },
        {
            "positions": [
                -0.05125700252598686,
                -0.8625426147865667,
                0.761991090439845,
                1.283697016279853,
                -1.0025774601965967,
                0.6533744339180607
            ]
        },
        {
            "positions": [
                0.020636966871014906,
                -0.8792841276429095,
                0.6867455255936616,
                1.2117756682915597,
                -0.8999425252688882,
                0.7073667570956979
            ]
        },
        {
            "positions": [
                0.09253093626801656,
                -0.8960256404992523,
                0.6114999607474785,
                1.1398543203032665,
                -0.7973075903411799,
                0.7613590802733349
            ]
        },
        {
            "positions": [
                0.16442490566501833,
                -0.912767153355595,
                0.5362543959012953,
                1.0679329723149733,
                -0.6946726554134717,
                0.8153514034509719
            ]
        },
        {
            "positions": [
                0.23631887506201987,
                -0.9295086662119378,
                0.46100883105511214,
                0.9960116243266799,
                -0.5920377204857632,
                0.8693437266286089
            ]
        },
        {
            "positions": [
                0.30821284445902164,
                -0.9462501790682807,
                0.38576326620892876,
                0.9240902763383867,
                -0.48940278555805494,
                0.923336049806246
            ]
        },
        {
            "positions": [
                0.3801068138560234,
                -0.9629916919246235,
                0.31051770136274537,
                0.8521689283500931,
                -0.38676785063034624,
                0.9773283729838832
            ]
        },
        {
            "positions": [
                0.4520007832530252,
                -0.9797332047809664,
                0.2352721365165622,
                0.7802475803617996,
                -0.284132915702638,
                1.0313206961615202
            ]
        },
        {
            "positions": [
                0.5238947526500267,
                -0.9964747176373091,
                0.16002657167037904,
                0.7083262323735064,
                -0.1814979807749295,
                1.0853130193391574
            ]
        },
        {
            "positions": [
                0.5957887220470285,
                -1.0132162304936518,
                0.08478100682419587,
                0.6364048843852133,
                -0.07886304584722126,
                1.1393053425167943
            ]
        },
        {
            "positions": [
                0.6676826914440303,
                -1.0299577433499947,
                0.009535441978012482,
                0.5644835363969198,
                0.023771889080486996,
                1.1932976656944314
            ]
        },
        {
            "positions": [
                0.7395766608410318,
                -1.0466992562063375,
                -0.06571012286817068,
                0.49256218840862664,
                0.12640682400819525,
                1.2472899888720683
            ]
        },
        {
            "positions": [
                0.8114706302380336,
                -1.0634407690626801,
                -0.14095568771435385,
                0.42064084042033323,
                0.22904175893590395,
                1.3012823120497055
            ]
        },
        {
            "positions": [
                0.8833645996350353,
                -1.0801822819190232,
                -0.21620125256053724,
                0.3487194924320396,
                0.3316766938636122,
                1.3552746352273426
            ]
        },
        {
            "positions": [
                0.9552585690320371,
                -1.0969237947753658,
                -0.2914468174067206,
                0.2767981444437464,
                0.4343116287913209,
                1.4092669584049797
            ]
        },
        {
            "positions": [
                1.0271525384290388,
                -1.1136653076317087,
                -0.36669238225290357,
                0.20487679645545298,
                0.5369465637190292,
                1.4632592815826166
            ]
        },
        {
            "positions": [
                1.0990465078260403,
                -1.1304068204880515,
                -0.44193794709908707,
                0.1329554484671597,
                0.6395814986467374,
                1.5172516047602538
            ]
        },
        {
            "positions": [
                0.9834663557583845,
                -1.1298950340189917,
                -0.3126731925548361,
                0.08198927931461886,
                0.6306155868378102,
                1.6025309942119952
            ]
        },
        {
            "positions": [
                0.8678862036907286,
                -1.1293832475499321,
                -0.18340843801058515,
                0.03102311016207801,
                0.6216496750288829,
                1.6878103836637368
            ]
        },
        {
            "positions": [
                0.7523060516230727,
                -1.1288714610808723,
                -0.05414368346633419,
                -0.019943058990462836,
                0.6126837632199557,
                1.7730897731154782
            ]
        },
        {
            "positions": [
                0.6367258995554168,
                -1.1283596746118127,
                0.07512107107791677,
                -0.07090922814300368,
                0.6037178514110284,
                1.8583691625672198
            ]
        },
        {
            "positions": [
                0.521145747487761,
                -1.127847888142753,
                0.20438582562216767,
                -0.1218753972955445,
                0.5947519396021012,
                1.9436485520189613
            ]
        },
        {
            "positions": [
                0.4055655954201052,
                -1.1273361016736934,
                0.3336505801664187,
                -0.17284156644808538,
                0.5857860277931739,
                2.0289279414707027
            ]
        },
        {
            "positions": [
                0.28998544335244925,
                -1.1268243152046336,
                0.4629153347106696,
                -0.2238077356006262,
                0.5768201159842467,
                2.1142073309224445
            ]
        },
        {
            "positions": [
                0.17440529128479343,
                -1.1263125287355737,
                0.5921800892549206,
                -0.2747739047531671,
                0.5678542041753194,
                2.1994867203741855
            ]
        },
        {
            "positions": [
                0.0588251392171375,
                -1.1258007422665142,
                0.7214448437991715,
                -0.3257400739057079,
                0.5588882923663921,
                2.2847661098259273
            ]
        },
        {
            "positions": [
                -0.056755012850518316,
                -1.1252889557974544,
                0.8507095983434224,
                -0.37670624305824874,
                0.5499223805574649,
                2.3700454992776687
            ]
        },
        {
            "positions": [
                -0.17233516491817436,
                -1.1247771693283948,
                0.9799743528876735,
                -0.42767241221078967,
                0.5409564687485376,
                2.45532488872941
            ]
        },
        {
            "positions": [
                -0.28791531698582995,
                -1.124265382859335,
                1.1092391074319243,
                -0.4786385813633305,
                0.5319905569396104,
                2.540604278181152
            ]
        },
        {
            "positions": [
                -0.403495469053486,
                -1.1237535963902752,
                1.2385038619761755,
                -0.5296047505158714,
                0.5230246451306831,
                2.6258836676328934
            ]
        },
        {
            "positions": [
                -0.5190756211211418,
                -1.1232418099212156,
                1.3677686165204261,
                -0.5805709196684121,
                0.5140587333217559,
                2.711163057084635
            ]
        },
        {
            "positions": [
                -0.6346557731887976,
                -1.1227300234521558,
                1.4970333710646773,
                -0.631537088820953,
                0.5050928215128286,
                2.796442446536376
            ]
        },
        {
            "positions": [
                -0.7502359252564534,
                -1.1222182369830962,
                1.6262981256089284,
                -0.6825032579734939,
                0.4961269097039014,
                2.8817218359881176
            ]
        },
        {
            "positions": [
                -0.8658160773241095,
                -1.1217064505140364,
                1.7555628801531795,
                -0.7334694271260348,
                0.48716099789497413,
                2.9670012254398594
            ]
        },
        {
            "positions": [
                -0.9813962293917653,
                -1.1211946640449768,
                1.8848276346974302,
                -0.7844355962785755,
                0.4781950860860469,
                3.0522806148916004
            ]
        },
        {
            "positions": [
                -1.096976381459421,
                -1.120682877575917,
                2.0140923892416813,
                -0.8354017654311164,
                0.46922917427711963,
                3.1375600043433423
            ]
        }
    ]
}