{
    "goal": {
        "global_pose": {
            "orientation": {
                "w": 0.7031023480610252,
                "x": -0.7110244013736278,
                "y": 0.0077485991402295624,
                "z": 0.005598929693374583
            },
            "position": {
                "x": -0.8841497679147869,
                "y": 0.44412534475326537,
                "z": 0.3711530566215515
            }
        },
        "name": "move_to_auspresseinheit_D"
    },
    "id": "PRM_move_to_auspresseinheit_D_50",
    "joint_names": [
        "shoulder_pan_joint",
        "shoulder_lift_joint",
        "elbow_joint",
        "wrist_1_joint",
        "wrist_2_joint",
        "wrist_3_joint"
    ],
    "metrics": {
        "cart_traj_len": 0.34283618578318786,
        "distance_elbow_joint": 0.636666678763472,
        "distance_shoulder_lift_joint": 0.11973734708268369,
        "distance_shoulder_pan_joint": 0.13348754544434493,
        "distance_wrist_1_joint": 0.5359351849131664,
        "distance_wrist_2_joint": 1.4310130959282175,
        "distance_wrist_3_joint": 0.005882441507434777,
        "smoothness": 0.0,
        "time": 0.021221694,
        "traj_len": 1.6919581240797064,
        "weighted_distance": 2.2003262161542256
    },
    "planner": "PRM",
    "start": {
        "state": {
            "elbow_joint": -1.8275523626775212,
            "shoulder_lift_joint": -2.126789852344167,
            "shoulder_pan_joint": -0.03513704404078235,
            "wrist_1_joint": -2.347782403156801,
            "wrist_2_joint": -1.6058999987535132,
            "wrist_3_joint": -3.0880379163319196
        }
    },
    "waypoints": [
        {
            "positions": [
                -0.03513704404078235,
                -2.126789852344167,
                -1.8275523626775212,
                -2.347782403156801,
                -1.6058999987535132,
                -3.0880379163319196
            ]
        },
        {
            "positions": [
                -0.051822987221325466,
                -2.1417570207295022,
                -1.7479690278320872,
                -2.414774301270947,
                -1.427023361762486,
                -3.0873026111434902
            ]
        },
        {
            "positions": [
                -0.06850893040186859,
                -2.1567241891148377,
                -1.6683856929866532,
                -2.4817661993850924,
                -1.2481467247714588,
                -3.086567305955061
            ]
        },
        {
            "positions": [
                -0.0851948735824117,
                -2.171691357500173,
                -1.5888023581412192,
                -2.5487580974992383,
                -1.0692700877804318,
                -3.0858320007666316
            ]
        },
        {
            "positions": [
                -0.10188081676295482,
                -2.186658525885509,
                -1.5092190232957852,
                -2.615749995613384,
                -0.8903934507894045,
                -3.085096695578202
            ]
        },
        {
            "positions": [
                -0.11856675994349794,
                -2.2016256942708443,
                -1.4296356884503512,
                -2.68274189372753,
                -0.7115168137983773,
                -3.084361390389773
            ]
        },
        {
            "positions": [
                -0.13525270312404106,
                -2.2165928626561797,
                -1.3500523536049172,
                -2.7497337918416758,
                -0.5326401768073501,
                -3.0836260852013435
            ]
        },
        {
            "positions": [
                -0.15193864630458417,
                -2.231560031041515,
                -1.2704690187594831,
                -2.8167256899558213,
                -0.353763539816323,
                -3.082890780012914
            ]
        },
        {
            "positions": [
                -0.1686245894851273,
                -2.2465271994268505,
                -1.1908856839140491,
                -2.8837175880699673,
                -0.17488690282529573,
                -3.082155474824485
            ]
        }
    ]
}