{
    "goal": {
        "global_pose": {
            "orientation": {
                "w": -0.4816463035849501,
                "x": 0.5182115481033762,
                "y": 0.4908360881923453,
                "z": -0.5084816262002911
            },
            "position": {
                "x": -0.8240239810943604,
                "y": -0.300875300988555,
                "z": 0.16403168439865112
            }
        },
        "name": "move_to_storage_C"
    },
    "id": "PRM_move_to_storage_C_39",
    "joint_names": [
        "shoulder_pan_joint",
        "shoulder_lift_joint",
        "elbow_joint",
        "wrist_1_joint",
        "wrist_2_joint",
        "wrist_3_joint"
    ],
    "metrics": {
        "cart_traj_len": 0.5769058522654863,
        "distance_elbow_joint": 0.25954744494168347,
        "distance_shoulder_lift_joint": 0.18978735735026298,
        "distance_shoulder_pan_joint": 0.4932060907694691,
        "distance_wrist_1_joint": 0.07907596606926615,
        "distance_wrist_2_joint": 1.0786465600593647,
        "distance_wrist_3_joint": 0.07332866741396549,
        "smoothness": 0.0,
        "time": 0.014553306,
        "traj_len": 1.4743107157597453,
        "weighted_distance": 1.8649321562889558
    },
    "planner": "PRM",
    "start": {
        "state": {
            "elbow_joint": 2.010868314990456,
            "shoulder_lift_joint": -1.1634956873337592,
            "shoulder_pan_joint": -2.4736205022346125,
            "wrist_1_joint": -0.8367026794202681,
            "wrist_2_joint": 0.6746043897044499,
            "wrist_3_joint": -3.1496632123970403
        }
    },
    "waypoints": [
        {
            "positions": [
                -2.4736205022346125,
                -1.1634956873337592,
                2.010868314990456,
                -0.8367026794202681,
                0.6746043897044499,
                -3.1496632123970403
            ]
        },
        {
            "positions": [
                -2.5558215173628573,
                -1.1318644611087154,
                1.9676104075001752,
                -0.823523351742057,
                0.8543788163810107,
                -3.137441767828046
            ]
        },
        {
            "positions": [
                -2.638022532491102,
                -1.1002332348836714,
                1.9243525000098947,
                -0.8103440240638461,
                1.0341532430575715,
                -3.1252203232590516
            ]
        },
        {
            "positions": [
                -2.720223547619347,
                -1.0686020086586276,
                1.881094592519614,
                -0.797164696385635,
                1.2139276697341321,
                -3.1129988786900578
            ]
        },
        {
            "positions": [
                -2.802424562747592,
                -1.0369707824335839,
                1.8378366850293335,
                -0.783985368707424,
                1.393702096410693,
                -3.1007774341210634
            ]
        },
        {
            "positions": [
                -2.8846255778758367,
                -1.00533955620854,
                1.794578777539053,
                -0.770806041029213,
                1.5734765230872538,
                -3.088555989552069
            ]
        },
        {
            "positions": [
                -2.9668265930040816,
                -0.9737083299834962,
                1.7513208700487723,
                -0.757626713351002,
                1.7532509497638147,
                -3.076334544983075
            ]
        }
    ]
}