{
    "goal": {
        "global_pose": {
            "orientation": {
                "w": 0.5084816262002911,
                "x": -0.4908360881923452,
                "y": 0.5182115481033761,
                "z": -0.48164630358495003
            },
            "position": {
                "x": 0.5540239810943604,
                "y": -0.46912469901144505,
                "z": 0.16403168439865112
            }
        },
        "name": "move_to_storage_B"
    },
    "id": "PRM_move_to_storage_B_139",
    "joint_names": [
        "shoulder_pan_joint",
        "shoulder_lift_joint",
        "elbow_joint",
        "wrist_1_joint",
        "wrist_2_joint",
        "wrist_3_joint"
    ],
    "metrics": {
        "cart_traj_len": 1.395624739001636,
        "distance_elbow_joint": 0.3570002776472796,
        "distance_shoulder_lift_joint": 1.6709509365201674,
        "distance_shoulder_pan_joint": 0.8571700131958574,
        "distance_wrist_1_joint": 2.9776998812646385,
        "distance_wrist_2_joint": 2.7138343215510212,
        "distance_wrist_3_joint": 3.139234515977257,
        "smoothness": 0.2150396420595195,
        "time": 0.325611174,
        "traj_len": 3.4228482213145566,
        "weighted_distance": 4.866815507179864
    },
    "planner": "PRM",
    "start": {
        "state": {
            "elbow_joint": 1.664937868594044,
            "shoulder_lift_joint": -0.661644460510453,
            "shoulder_pan_joint": -0.9139846352900073,
            "wrist_1_joint": 2.146753192139373,
            "wrist_2_joint": -2.2341966793290973,
            "wrist_3_joint": 0.005466555786416001
        }
    },
    "waypoints": [
        {
            "positions": [
                -0.9139846352900073,
                -0.661644460510453,
                1.664937868594044,
                2.146753192139373,
                -2.2341966793290973,
                0.005466555786416001
            ]
        },
        {
            "positions": [
                -0.8869875037191178,
                -0.6777832358432743,
                1.6611794748825224,
                2.143210076462654,
                -2.228098830340275,
                0.015045391539987013
            ]
        },
        {
            "positions": [
                -0.8714600151300284,
                -0.7302507744856052,
                1.6766889669027154,
                2.042279068061279,
                -2.0969965551497376,
                0.0808400402967276
            ]
        },
        {
            "positions": [
                -0.8559325265409389,
                -0.782718313127936,
                1.6921984589229082,
                1.9413480596599046,
                -1.9658942799592003,
                0.1466346890534682
            ]
        },
        {
            "positions": [
                -0.8404050379518494,
                -0.8351858517702668,
                1.7077079509431012,
                1.8404170512585298,
                -1.834792004768663,
                0.21242933781020876
            ]
        },
        {
            "positions": [
                -0.82487754936276,
                -0.8876533904125977,
                1.723217442963294,
                1.7394860428571552,
                -1.7036897295781257,
                0.27822398656694936
            ]
        },
        {
            "positions": [
                -0.8093500607736706,
                -0.9401209290549286,
                1.738726934983487,
                1.6385550344557807,
                -1.5725874543875884,
                0.3440186353236899
            ]
        },
        {
            "positions": [
                -0.7938225721845811,
                -0.9925884676972594,
                1.7542364270036799,
                1.537624026054406,
                -1.441485179197051,
                0.4098132840804305
            ]
        },
        {
            "positions": [
                -0.7782950835954916,
                -1.0450560063395904,
                1.769745919023873,
                1.4366930176530315,
                -1.3103829040065138,
                0.47560793283717107
            ]
        },
        {
            "positions": [
                -0.7627675950064021,
                -1.0975235449819212,
                1.7852554110440657,
                1.3357620092516567,
                -1.1792806288159765,
                0.5414025815939116
            ]
        },
        {
            "positions": [
                -0.7472401064173126,
                -1.1499910836242522,
                1.8007649030642587,
                1.234831000850282,
                -1.0481783536254392,
                0.6071972303506522
            ]
        },
        {
            "positions": [
                -0.7317126178282232,
                -1.202458622266583,
                1.8162743950844518,
                1.1338999924489075,
                -0.9170760784349019,
                0.6729918791073928
            ]
        },
        {
            "positions": [
                -0.7161851292391337,
                -1.254926160908914,
                1.8317838871046446,
                1.0329689840475327,
                -0.7859738032443644,
                0.7387865278641335
            ]
        },
        {
            "positions": [
                -0.7006576406500443,
                -1.3073936995512447,
                1.8472933791248376,
                0.9320379756461583,
                -0.6548715280538273,
                0.8045811766208739
            ]
        },
        {
            "positions": [
                -0.6851301520609548,
                -1.3598612381935755,
                1.8628028711450304,
                0.8311069672447835,
                -0.52376925286329,
                0.8703758253776146
            ]
        },
        {
            "positions": [
                -0.6696026634718654,
                -1.4123287768359063,
                1.8783123631652234,
                0.7301759588434091,
                -0.39266697767275294,
                0.9361704741343551
            ]
        },
        {
            "positions": [
                -0.6540751748827759,
                -1.4647963154782373,
                1.8938218551854162,
                0.6292449504420343,
                -0.2615647024822154,
                1.0019651228910957
            ]
        },
        {
            "positions": [
                -0.6385476862936864,
                -1.5172638541205683,
                1.9093313472056093,
                0.5283139420406595,
                -0.13046242729167812,
                1.0677597716478364
            ]
        },
        {
            "positions": [
                -0.623020197704597,
                -1.569731392762899,
                1.924840839225802,
                0.42738293363928515,
                0.0006398478988591805,
                1.1335544204045769
            ]
        },
        {
            "positions": [
                -0.6074927091155076,
                -1.6221989314052299,
                1.940350331245995,
                0.32645192523791033,
                0.13174212308939648,
                1.1993490691613176
            ]
        },
        {
            "positions": [
                -0.5919652205264181,
                -1.6746664700475606,
                1.955859823266188,
                0.22552091683653597,
                0.2628443982799338,
                1.265143717918058
            ]
        },
        {
            "positions": [
                -0.5764377319373286,
                -1.7271340086898916,
                1.971369315286381,
                0.12458990843516125,
                0.39394667347047085,
                1.3309383666747987
            ]
        },
        {
            "positions": [
                -0.6236761964685267,
                -1.67209206429528,
                1.9752831374256445,
                0.03772294502057681,
                0.4017367615387848,
                1.4958258853192419
            ]
        },
        {
            "positions": [
                -0.6709146609997247,
                -1.6170501199006682,
                1.9791969595649082,
                -0.04914401839400763,
                0.40952684960709873,
                1.660713403963685
            ]
        },
        {
            "positions": [
                -0.7181531255309228,
                -1.5620081755060566,
                1.9831107817041718,
                -0.13601098180859206,
                0.41731693767541267,
                1.825600922608128
            ]
        },
        {
            "positions": [
                -0.7653915900621209,
                -1.506966231111445,
                1.9870246038434354,
                -0.2228779452231765,
                0.4251070257437266,
                1.9904884412525714
            ]
        },
        {
            "positions": [
                -0.8126300545933189,
                -1.4519242867168332,
                1.990938425982699,
                -0.30974490863776094,
                0.43289711381204055,
                2.1553759598970146
            ]
        },
        {
            "positions": [
                -0.859868519124517,
                -1.3968823423222214,
                1.9948522481219624,
                -0.3966118720523454,
                0.44068720188035443,
                2.3202634785414573
            ]
        },
        {
            "positions": [
                -0.9071069836557151,
                -1.3418403979276097,
                1.998766070261226,
                -0.4834788354669298,
                0.44847728994866837,
                2.485150997185901
            ]
        },
        {
            "positions": [
                -0.9543454481869131,
                -1.286798453532998,
                2.0026798924004896,
                -0.5703457988815143,
                0.4562673780169823,
                2.650038515830344
            ]
        },
        {
            "positions": [
                -1.0015839127181112,
                -1.2317565091383864,
                2.006593714539753,
                -0.6572127622960987,
                0.46405746608529624,
                2.8149260344747873
            ]
        },
        {
            "positions": [
                -1.0488223772493093,
                -1.1767145647437747,
                2.010507536679017,
                -0.7440797257106831,
                0.4718475541536102,
                2.97981355311923
            ]
        },
        {
            "positions": [
                -1.0960608417805073,
                -1.121672620349163,
                2.0144213588182804,
                -0.8309466891252676,
                0.4796376422219241,
                3.144701071763673
            ]
        }
    ]
}