{
    "goal": {
        "global_pose": {
            "orientation": {
                "w": 0.5084816262002911,
                "x": -0.4908360881923452,
                "y": 0.5182115481033761,
                "z": -0.48164630358495003
            },
            "position": {
                "x": 0.5540239810943604,
                "y": -0.46912469901144505,
                "z": 0.16403168439865112
            }
        },
        "name": "move_to_storage_B"
    },
    "id": "PRM_move_to_storage_B_96",
    "joint_names": [
        "shoulder_pan_joint",
        "shoulder_lift_joint",
        "elbow_joint",
        "wrist_1_joint",
        "wrist_2_joint",
        "wrist_3_joint"
    ],
    "metrics": {
        "cart_traj_len": 4.604212483036126,
        "distance_elbow_joint": 4.139581457922427,
        "distance_shoulder_lift_joint": 1.1742476650434424,
        "distance_shoulder_pan_joint": 3.9879282854487714,
        "distance_wrist_1_joint": 2.9810185752761287,
        "distance_wrist_2_joint": 2.7024402733881105,
        "distance_wrist_3_joint": 3.297024619218865,
        "smoothness": 0.3086518786065496,
        "time": 0.34081715700000004,
        "traj_len": 4.275773716685407,
        "weighted_distance": 5.528087278923852
    },
    "planner": "PRM",
    "start": {
        "state": {
            "elbow_joint": 1.664937868594044,
            "shoulder_lift_joint": -0.661644460510453,
            "shoulder_pan_joint": -0.9139846352900073,
            "wrist_1_joint": 2.146753192139373,
            "wrist_2_joint": -2.2341966793290973,
            "wrist_3_joint": 0.005466555786416001
        }
    },
    "waypoints": [
        {
            "positions": [
                -0.9139846352900073,
                -0.661644460510453,
                1.664937868594044,
                2.146753192139373,
                -2.2341966793290973,
                0.005466555786416001
            ]
        },
        {
            "positions": [
                -0.8082448945979487,
                -0.7070142967740222,
                1.5596283342465602,
                2.090939120597167,
                -2.1706893567531624,
                0.009673870574923374
            ]
        },
        {
            "positions": [
                -0.70250515390589,
                -0.7523841330375913,
                1.4543187998990765,
                2.035125049054961,
                -2.1071820341772276,
                0.013881185363430745
            ]
        },
        {
            "positions": [
                -0.5967654132138314,
                -0.7977539693011605,
                1.3490092655515928,
                1.9793109775127549,
                -2.0436747116012923,
                0.01808850015193812
            ]
        },
        {
            "positions": [
                -0.4910256725217727,
                -0.8431238055647297,
                1.2436997312041091,
                1.923496905970549,
                -1.9801673890253575,
                0.02229581494044549
            ]
        },
        {
            "positions": [
                -0.38528593182971405,
                -0.8884936418282988,
                1.1383901968566252,
                1.8676828344283427,
                -1.9166600664494227,
                0.026503129728952864
            ]
        },
        {
            "positions": [
                -0.27954619113765544,
                -0.933863478091868,
                1.0330806625091415,
                1.8118687628861367,
                -1.8531527438734878,
                0.030710444517460234
            ]
        },
        {
            "positions": [
                -0.17380645044559673,
                -0.9792333143554371,
                0.9277711281616579,
                1.7560546913439306,
                -1.7896454212975528,
                0.03491775930596761
            ]
        },
        {
            "positions": [
                -0.06806670975353812,
                -1.0246031506190063,
                0.8224615938141742,
                1.7002406198017246,
                -1.7261380987216177,
                0.03912507409447498
            ]
        },
        {
            "positions": [
                0.03767303093852059,
                -1.0699729868825756,
                0.7171520594666904,
                1.6444265482595184,
                -1.6626307761456829,
                0.04333238888298235
            ]
        },
        {
            "positions": [
                0.1434127716305792,
                -1.1153428231461446,
                0.6118425251192066,
                1.5886124767173122,
                -1.599123453569748,
                0.04753970367148973
            ]
        },
        {
            "positions": [
                0.24915251232263802,
                -1.160712659409714,
                0.5065329907717229,
                1.532798405175106,
                -1.535616130993813,
                0.0517470184599971
            ]
        },
        {
            "positions": [
                0.3548922530146964,
                -1.206082495673283,
                0.4012234564242392,
                1.4769843336329003,
                -1.4721088084178782,
                0.05595433324850447
            ]
        },
        {
            "positions": [
                0.4606319937067552,
                -1.2514523319368522,
                0.2959139220767555,
                1.421170262090694,
                -1.4086014858419431,
                0.06016164803701184
            ]
        },
        {
            "positions": [
                0.5663717343988138,
                -1.2968221682004213,
                0.1906043877292718,
                1.365356190548488,
                -1.3450941632660083,
                0.06436896282551922
            ]
        },
        {
            "positions": [
                0.6721114750908727,
                -1.3421920044639903,
                0.08529485338178788,
                1.3095421190062817,
                -1.2815868406900732,
                0.0685762776140266
            ]
        },
        {
            "positions": [
                0.777851215782931,
                -1.3875618407275596,
                -0.020014680965695586,
                1.253728047464076,
                -1.2180795181141384,
                0.07278359240253396
            ]
        },
        {
            "positions": [
                0.8835909564749899,
                -1.4329316769911289,
                -0.1253242153131795,
                1.1979139759218698,
                -1.1545721955382036,
                0.07699090719104133
            ]
        },
        {
            "positions": [
                0.9893306971670486,
                -1.478301513254698,
                -0.23063374966066325,
                1.1420999043796636,
                -1.0910648729622685,
                0.08119822197954871
            ]
        },
        {
            "positions": [
                0.9174474918914721,
                -1.46597080248576,
                -0.15325410001694875,
                1.073949377223925,
                -1.037295615478776,
                -0.02988084536616621
            ]
        },
        {
            "positions": [
                0.8455642866158958,
                -1.4536400917168222,
                -0.07587445037323426,
                1.0057988500681865,
                -0.9835263579952835,
                -0.14095991271188113
            ]
        },
        {
            "positions": [
                0.7736810813403194,
                -1.4413093809478845,
                0.0015051992704802342,
                0.937648322912448,
                -0.9297571005117911,
                -0.25203898005759606
            ]
        },
        {
            "positions": [
                0.701797876064743,
                -1.4289786701789466,
                0.07888484891419473,
                0.8694977957567095,
                -0.8759878430282985,
                -0.363118047403311
            ]
        },
        {
            "positions": [
                0.6299146707891665,
                -1.4166479594100088,
                0.15626449855790925,
                0.8013472686009709,
                -0.822218585544806,
                -0.4741971147490259
            ]
        },
        {
            "positions": [
                0.5580314655135902,
                -1.4043172486410709,
                0.2336441482016237,
                0.7331967414452325,
                -0.7684493280613135,
                -0.5852761820947407
            ]
        },
        {
            "positions": [
                0.4861482602380137,
                -1.391986537872133,
                0.31102379784533823,
                0.665046214289494,
                -0.7146800705778209,
                -0.6963552494404557
            ]
        },
        {
            "positions": [
                0.4142650549624374,
                -1.3796558271031951,
                0.3884034474890527,
                0.5968956871337554,
                -0.6609108130943284,
                -0.8074343167861706
            ]
        },
        {
            "positions": [
                0.3423818496868609,
                -1.3673251163342575,
                0.4657830971327673,
                0.5287451599780169,
                -0.6071415556108359,
                -0.9185133841318855
            ]
        },
        {
            "positions": [
                0.27049864441128446,
                -1.3549944055653196,
                0.5431627467764817,
                0.4605946328222783,
                -0.5533722981273435,
                -1.0295924514776007
            ]
        },
        {
            "positions": [
                0.19861543913570823,
                -1.3426636947963817,
                0.6205423964201962,
                0.39244410566653987,
                -0.49960304064385097,
                -1.1406715188233154
            ]
        },
        {
            "positions": [
                0.12673223386013177,
                -1.3303329840274438,
                0.6979220460639106,
                0.3242935785108013,
                -0.4458337831603585,
                -1.2517505861690303
            ]
        },
        {
            "positions": [
                0.054849028584555315,
                -1.318002273258506,
                0.7753016957076253,
                0.25614305135506277,
                -0.3920645256768659,
                -1.3628296535147453
            ]
        },
        {
            "positions": [
                -0.01703417669102114,
                -1.305671562489568,
                0.8526813453513398,
                0.18799252419932422,
                -0.3382952681933734,
                -1.4739087208604602
            ]
        },
        {
            "positions": [
                -0.0889173819665976,
                -1.2933408517206302,
                0.9300609949950542,
                0.11984199704358556,
                -0.2845260107098808,
                -1.5849877882061751
            ]
        },
        {
            "positions": [
                -0.16080058724217383,
                -1.2810101409516925,
                1.0074406446387687,
                0.05169146988784723,
                -0.23075675322638844,
                -1.69606685555189
            ]
        },
        {
            "positions": [
                -0.23268379251775007,
                -1.2686794301827546,
                1.0848202942824832,
                -0.01645905726789132,
                -0.17698749574289596,
                -1.8071459228976048
            ]
        },
        {
            "positions": [
                -0.30456699779332674,
                -1.2563487194138168,
                1.1621999439261979,
                -0.08460958442362987,
                -0.12321823825940337,
                -1.91822499024332
            ]
        },
        {
            "positions": [
                -0.376450203068903,
                -1.2440180086448789,
                1.239579593569912,
                -0.15276011157936842,
                -0.06944898077591088,
                -2.0293040575890346
            ]
        },
        {
            "positions": [
                -0.44833340834447966,
                -1.231687297875941,
                1.3169592432136268,
                -0.22091063873510697,
                -0.0156797232924184,
                -2.14038312493475
            ]
        },
        {
            "positions": [
                -0.5202166136200559,
                -1.2193565871070033,
                1.3943388928573412,
                -0.2890611658908455,
                0.03808953419107408,
                -2.2514621922804645
            ]
        },
        {
            "positions": [
                -0.5920998188956321,
                -1.2070258763380655,
                1.4717185425010557,
                -0.35721169304658384,
                0.09185879167456656,
                -2.3625412596261794
            ]
        },
        {
            "positions": [
                -0.6639830241712088,
                -1.1946951655691276,
                1.5490981921447702,
                -0.4253622202023226,
                0.14562804915805927,
                -2.4736203269718944
            ]
        },
        {
            "positions": [
                -0.735866229446785,
                -1.1823644548001897,
                1.6264778417884846,
                -0.49351274735806094,
                0.19939730664155153,
                -2.5846993943176093
            ]
        },
        {
            "positions": [
                -0.8077494347223613,
                -1.1700337440312518,
                1.7038574914321991,
                -0.5616632745137995,
                0.253166564125044,
                -2.6957784616633242
            ]
        },
        {
            "positions": [
                -0.879632639997938,
                -1.157703033262314,
                1.7812371410759138,
                -0.629813801669538,
                0.3069358216085367,
                -2.806857529009039
            ]
        },
        {
            "positions": [
                -0.9515158452735142,
                -1.1453723224933763,
                1.8586167907196283,
                -0.6979643288252766,
                0.3607050790920292,
                -2.917936596354754
            ]
        },
        {
            "positions": [
                -1.0233990505490909,
                -1.1330416117244384,
                1.9359964403633427,
                -0.7661148559810151,
                0.4144743365755217,
                -3.029015663700469
            ]
        },
        {
            "positions": [
                -1.0952822558246669,
                -1.1207109009555005,
                2.013376090007057,
                -0.8342653831367537,
                0.4682435940590141,
                -3.140094731046184
            ]
        }
    ]
}