{
    "goal": {
        "global_pose": {
            "orientation": {
                "w": -0.4816463035849501,
                "x": 0.5182115481033762,
                "y": 0.4908360881923453,
                "z": -0.5084816262002911
            },
            "position": {
                "x": -0.8240239810943604,
                "y": -0.300875300988555,
                "z": 0.16403168439865112
            }
        },
        "name": "move_to_storage_C"
    },
    "id": "PRM_move_to_storage_C_23",
    "joint_names": [
        "shoulder_pan_joint",
        "shoulder_lift_joint",
        "elbow_joint",
        "wrist_1_joint",
        "wrist_2_joint",
        "wrist_3_joint"
    ],
    "metrics": {
        "cart_traj_len": 0.5772196196522587,
        "distance_elbow_joint": 0.2562362790373378,
        "distance_shoulder_lift_joint": 0.18968605315257425,
        "distance_shoulder_pan_joint": 0.494683862714711,
        "distance_wrist_1_joint": 0.06604927826303275,
        "distance_wrist_2_joint": 1.0702653428559614,
        "distance_wrist_3_joint": 0.058985981582991176,
        "smoothness": 0.0,
        "time": 0.024959859,
        "traj_len": 1.46147418643184,
        "weighted_distance": 1.8412477785164019
    },
    "planner": "PRM",
    "start": {
        "state": {
            "elbow_joint": 2.010868314990456,
            "shoulder_lift_joint": -1.1634956873337592,
            "shoulder_pan_joint": -2.4736205022346125,
            "wrist_1_joint": -0.8367026794202681,
            "wrist_2_joint": 0.6746043897044499,
            "wrist_3_joint": -3.1496632123970403
        }
    },
    "waypoints": [
        {
            "positions": [
                -2.4736205022346125,
                -1.1634956873337592,
                2.010868314990456,
                -0.8367026794202681,
                0.6746043897044499,
                -3.1496632123970403
            ]
        },
        {
            "positions": [
                -2.5560678126870644,
                -1.1318813451416634,
                1.9681622684842328,
                -0.8256944663764293,
                0.8529819468471102,
                -3.1398322154665417
            ]
        },
        {
            "positions": [
                -2.6385151231395163,
                -1.1002670029495678,
                1.9254562219780098,
                -0.8146862533325905,
                1.0313595039897705,
                -3.130001218536043
            ]
        },
        {
            "positions": [
                -2.7209624335919678,
                -1.068652660757472,
                1.882750175471787,
                -0.8036780402887518,
                1.2097370611324307,
                -3.1201702216055445
            ]
        },
        {
            "positions": [
                -2.8034097440444197,
                -1.0370383185653764,
                1.840044128965564,
                -0.792669827244913,
                1.388114618275091,
                -3.1103392246750463
            ]
        },
        {
            "positions": [
                -2.8858570544968716,
                -1.0054239763732806,
                1.797338082459341,
                -0.7816616142010742,
                1.5664921754177512,
                -3.1005082277445477
            ]
        },
        {
            "positions": [
                -2.9683043649493235,
                -0.9738096341811849,
                1.754632035953118,
                -0.7706534011572354,
                1.7448697325604114,
                -3.090677230814049
            ]
        }
    ]
}