{
    "goal": {
        "global_pose": {
            "orientation": {
                "w": -0.4816463035849501,
                "x": 0.5182115481033762,
                "y": 0.4908360881923453,
                "z": -0.5084816262002911
            },
            "position": {
                "x": -0.8240239810943604,
                "y": -0.300875300988555,
                "z": 0.16403168439865112
            }
        },
        "name": "move_to_storage_C"
    },
    "id": "PRMstar_move_to_storage_C_44",
    "joint_names": [
        "shoulder_pan_joint",
        "shoulder_lift_joint",
        "elbow_joint",
        "wrist_1_joint",
        "wrist_2_joint",
        "wrist_3_joint"
    ],
    "metrics": {
        "cart_traj_len": 0.5767237203752834,
        "distance_elbow_joint": 0.25518284370452515,
        "distance_shoulder_lift_joint": 0.1884171446651256,
        "distance_shoulder_pan_joint": 0.4943697370101976,
        "distance_wrist_1_joint": 0.06793455637023893,
        "distance_wrist_2_joint": 1.0737505894658437,
        "distance_wrist_3_joint": 0.05595015415196958,
        "smoothness": 2.5376526478085547e-16,
        "time": 5.017760499,
        "traj_len": 1.461370940373422,
        "weighted_distance": 1.8409754152372384
    },
    "planner": "PRMstar",
    "start": {
        "state": {
            "elbow_joint": 2.010868314990456,
            "shoulder_lift_joint": -1.1634956873337592,
            "shoulder_pan_joint": -2.4736205022346125,
            "wrist_1_joint": -0.8367026794202681,
            "wrist_2_joint": 0.6746043897044499,
            "wrist_3_joint": -3.1496632123970403
        }
    },
    "waypoints": [
        {
            "positions": [
                -2.4736205022346125,
                -1.1634956873337592,
                2.010868314990456,
                -0.8367026794202681,
                0.6746043897044499,
                -3.1496632123970403
            ]
        },
        {
            "positions": [
                -2.5560154584029786,
                -1.1320928298895716,
                1.9683378410397017,
                -0.8253802533585616,
                0.8535628212820905,
                -3.1403381867050455
            ]
        },
        {
            "positions": [
                -2.638410414571345,
                -1.100689972445384,
                1.9258073670889475,
                -0.8140578272968552,
                1.0325212528597312,
                -3.1310131610130503
            ]
        },
        {
            "positions": [
                -2.7208053707397113,
                -1.0692871150011964,
                1.8832768931381931,
                -0.8027354012351486,
                1.2114796844373719,
                -3.1216881353210555
            ]
        },
        {
            "positions": [
                -2.8032003269080774,
                -1.0378842575570089,
                1.840746419187439,
                -0.7914129751734421,
                1.3904381160150123,
                -3.1123631096290607
            ]
        },
        {
            "positions": [
                -2.885595283076444,
                -1.006481400112821,
                1.7982159452366848,
                -0.7800905491117357,
                1.569396547592653,
                -3.1030380839370655
            ]
        },
        {
            "positions": [
                -2.96799023924481,
                -0.9750785426686336,
                1.7556854712859307,
                -0.7687681230500292,
                1.7483549791702935,
                -3.0937130582450707
            ]
        }
    ]
}