{
    "goal": {
        "global_pose": {
            "orientation": {
                "w": -0.4816463035849501,
                "x": 0.5182115481033762,
                "y": 0.4908360881923453,
                "z": -0.5084816262002911
            },
            "position": {
                "x": -0.8240239810943604,
                "y": 0.19912469901144506,
                "z": 0.16403168439865112
            }
        },
        "name": "move_to_storage_D"
    },
    "id": "PRMstar_move_to_storage_D_59",
    "joint_names": [
        "shoulder_pan_joint",
        "shoulder_lift_joint",
        "elbow_joint",
        "wrist_1_joint",
        "wrist_2_joint",
        "wrist_3_joint"
    ],
    "metrics": {
        "cart_traj_len": 0.6106359224115043,
        "distance_elbow_joint": 0.5564222652185342,
        "distance_shoulder_lift_joint": 0.2794480030323103,
        "distance_shoulder_pan_joint": 0.14967277331875237,
        "distance_wrist_1_joint": 3.827201072760517,
        "distance_wrist_2_joint": 1.7861112983258387,
        "distance_wrist_3_joint": 3.1517226787614527,
        "smoothness": 0.009522577313072818,
        "time": 5.07060096,
        "traj_len": 3.1225915665385067,
        "weighted_distance": 4.6548185593024645
    },
    "planner": "PRMstar",
    "start": {
        "state": {
            "elbow_joint": -2.384821988534728,
            "shoulder_lift_joint": -2.2788054721415256,
            "shoulder_pan_joint": -0.1854694642142757,
            "wrist_1_joint": 1.4845938289331202,
            "wrist_2_joint": 0.17898776772866878,
            "wrist_3_joint": 0.037105688729662994
        }
    },
    "waypoints": [
        {
            "positions": [
                -0.1854694642142757,
                -2.2788054721415256,
                -2.384821988534728,
                1.4845938289331202,
                0.17898776772866878,
                0.037105688729662994
            ]
        },
        {
            "positions": [
                -0.14814526681704548,
                -2.224775210251275,
                -2.369792204391656,
                1.3599062799980206,
                0.07509801380388738,
                0.0927476963325681
            ]
        },
        {
            "positions": [
                -0.11082106941981526,
                -2.1707449483610235,
                -2.3547624202485844,
                1.235218731062921,
                -0.028791740120894027,
                0.14838970393547318
            ]
        },
        {
            "positions": [
                -0.07349687202258504,
                -2.1167146864707727,
                -2.339732636105513,
                1.1105311821278214,
                -0.13268149404567545,
                0.2040317115383783
            ]
        },
        {
            "positions": [
                -0.03617267462535481,
                -2.062684424580522,
                -2.324702851962441,
                0.9858436331927218,
                -0.23657124797045684,
                0.2596737191412834
            ]
        },
        {
            "positions": [
                -0.03615477063821997,
                -2.0656999938886793,
                -2.301069369645953,
                0.8273459723822401,
                -0.3018356423812527,
                0.39915727382460875
            ]
        },
        {
            "positions": [
                -0.03613686665108514,
                -2.068715563196837,
                -2.277435887329465,
                0.6688483115717582,
                -0.36710003679204856,
                0.538640828507934
            ]
        },
        {
            "positions": [
                -0.0361189626639503,
                -2.0717311325049943,
                -2.253802405012977,
                0.5103506507612764,
                -0.4323644312028444,
                0.6781243831912594
            ]
        },
        {
            "positions": [
                -0.03610105867681546,
                -2.074746701813152,
                -2.230168922696489,
                0.3518529899507945,
                -0.4976288256136403,
                0.8176079378745849
            ]
        },
        {
            "positions": [
                -0.036083154689680624,
                -2.0777622711213093,
                -2.206535440380001,
                0.19335532914031273,
                -0.5628932200244361,
                0.9570914925579102
            ]
        },
        {
            "positions": [
                -0.03606525070254579,
                -2.0807778404294663,
                -2.182901958063513,
                0.03485766832983095,
                -0.628157614435232,
                1.0965750472412354
            ]
        },
        {
            "positions": [
                -0.036047346715410954,
                -2.083793409737624,
                -2.1592684757470253,
                -0.12363999248065083,
                -0.6934220088460279,
                1.236058601924561
            ]
        },
        {
            "positions": [
                -0.036029442728276115,
                -2.0868089790457813,
                -2.1356349934305374,
                -0.28213765329113283,
                -0.7586864032568237,
                1.3755421566078863
            ]
        },
        {
            "positions": [
                -0.03601153874114128,
                -2.089824548353939,
                -2.112001511114049,
                -0.4406353141016146,
                -0.8239507976676196,
                1.5150257112912116
            ]
        },
        {
            "positions": [
                -0.035993634754006444,
                -2.0928401176620963,
                -2.0883680287975612,
                -0.5991329749120964,
                -0.8892151920784154,
                1.654509265974537
            ]
        },
        {
            "positions": [
                -0.035975730766871605,
                -2.095855686970254,
                -2.0647345464810734,
                -0.7576306357225784,
                -0.9544795864892114,
                1.7939928206578624
            ]
        },
        {
            "positions": [
                -0.035957826779736766,
                -2.0988712562784113,
                -2.0411010641645855,
                -0.9161282965330599,
                -1.0197439809000073,
                1.9334763753411877
            ]
        },
        {
            "positions": [
                -0.035939922792601935,
                -2.101886825586569,
                -2.0174675818480976,
                -1.074625957343542,
                -1.085008375310803,
                2.072959930024513
            ]
        },
        {
            "positions": [
                -0.035922018805467096,
                -2.1049023948947263,
                -1.9938340995316095,
                -1.2331236181540235,
                -1.1502727697215989,
                2.2124434847078382
            ]
        },
        {
            "positions": [
                -0.03590411481833226,
                -2.107917964202884,
                -1.9702006172151214,
                -1.3916212789645055,
                -1.2155371641323949,
                2.3519270393911635
            ]
        },
        {
            "positions": [
                -0.035886210831197425,
                -2.110933533511041,
                -1.9465671348986335,
                -1.5501189397749875,
                -1.2808015585431907,
                2.491410594074489
            ]
        },
        {
            "positions": [
                -0.035868306844062586,
                -2.1139491028191983,
                -1.9229336525821457,
                -1.7086166005854695,
                -1.3460659529539867,
                2.630894148757814
            ]
        },
        {
            "positions": [
                -0.03585040285692775,
                -2.116964672127356,
                -1.8993001702656576,
                -1.867114261395951,
                -1.4113303473647825,
                2.7703777034411394
            ]
        },
        {
            "positions": [
                -0.03583249886979291,
                -2.1199802414355133,
                -1.8756666879491697,
                -2.025611922206433,
                -1.4765947417755783,
                2.909861258124465
            ]
        },
        {
            "positions": [
                -0.03581459488265808,
                -2.122995810743671,
                -1.8520332056326816,
                -2.1841095830169146,
                -1.541859136186374,
                3.0493448128077905
            ]
        },
        {
            "positions": [
                -0.03579669089552324,
                -2.1260113800518283,
                -1.8283997233161937,
                -2.3426072438273966,
                -1.60712353059717,
                3.1888283674911158
            ]
        }
    ]
}