{
    "goal": {
        "global_pose": {
            "orientation": {
                "w": 0.7031023480610252,
                "x": -0.7110244013736278,
                "y": 0.0077485991402295624,
                "z": 0.005598929693374583
            },
            "position": {
                "x": -0.8841497679147869,
                "y": 0.44412534475326537,
                "z": 0.3711530566215515
            }
        },
        "name": "move_to_auspresseinheit_D"
    },
    "id": "PRMstar_move_to_auspresseinheit_D_7",
    "joint_names": [
        "shoulder_pan_joint",
        "shoulder_lift_joint",
        "elbow_joint",
        "wrist_1_joint",
        "wrist_2_joint",
        "wrist_3_joint"
    ],
    "metrics": {
        "cart_traj_len": 0.3433254490456837,
        "distance_elbow_joint": 0.6398473535788289,
        "distance_shoulder_lift_joint": 0.12265898423188748,
        "distance_shoulder_pan_joint": 0.1348121426710047,
        "distance_wrist_1_joint": 0.5391875216377104,
        "distance_wrist_2_joint": 1.430842602955764,
        "distance_wrist_3_joint": 0.010200647316931821,
        "smoothness": 2.368475765095282e-15,
        "time": 5.007279474,
        "traj_len": 1.6963340627341443,
        "weighted_distance": 2.2063500791169712
    },
    "planner": "PRMstar",
    "start": {
        "state": {
            "elbow_joint": -1.8275523626775212,
            "shoulder_lift_joint": -2.126789852344167,
            "shoulder_pan_joint": -0.03513704404078235,
            "wrist_1_joint": -2.347782403156801,
            "wrist_2_joint": -1.6058999987535132,
            "wrist_3_joint": -3.0880379163319196
        }
    },
    "waypoints": [
        {
            "positions": [
                -0.03513704404078235,
                -2.126789852344167,
                -1.8275523626775212,
                -2.347782403156801,
                -1.6058999987535132,
                -3.0880379163319196
            ]
        },
        {
            "positions": [
                -0.05198856187465793,
                -2.1421222253731527,
                -1.7475714434801675,
                -2.4151808433615147,
                -1.4270446733840427,
                -3.086762835417303
            ]
        },
        {
            "positions": [
                -0.06884007970853352,
                -2.157454598402139,
                -1.667590524282814,
                -2.4825792835662286,
                -1.2481893480145723,
                -3.0854877545026866
            ]
        },
        {
            "positions": [
                -0.0856915975424091,
                -2.1727869714311248,
                -1.5876096050854605,
                -2.5499777237709425,
                -1.0693340226451018,
                -3.08421267358807
            ]
        },
        {
            "positions": [
                -0.10254311537628469,
                -2.1881193444601106,
                -1.5076286858881067,
                -2.6173761639756563,
                -0.8904786972756312,
                -3.0829375926734537
            ]
        },
        {
            "positions": [
                -0.11939463321016028,
                -2.2034517174890964,
                -1.427647766690753,
                -2.6847746041803697,
                -0.7116233719061608,
                -3.081662511758837
            ]
        },
        {
            "positions": [
                -0.13624615104403587,
                -2.2187840905180822,
                -1.3476668474933995,
                -2.7521730443850836,
                -0.5327680465366902,
                -3.0803874308442207
            ]
        },
        {
            "positions": [
                -0.15309766887791146,
                -2.2341164635470685,
                -1.267685928296046,
                -2.8195714845897974,
                -0.3539127211672197,
                -3.0791123499296043
            ]
        },
        {
            "positions": [
                -0.16994918671178705,
                -2.2494488365760543,
                -1.1877050090986923,
                -2.8869699247945113,
                -0.1750573957977493,
                -3.0778372690149878
            ]
        }
    ]
}