{
    "goal": {
        "global_pose": {
            "orientation": {
                "w": -0.4816463035849501,
                "x": 0.5182115481033762,
                "y": 0.4908360881923453,
                "z": -0.5084816262002911
            },
            "position": {
                "x": -0.8240239810943604,
                "y": 0.19912469901144506,
                "z": 0.16403168439865112
            }
        },
        "name": "move_to_storage_D"
    },
    "id": "PRMstar_move_to_storage_D_44",
    "joint_names": [
        "shoulder_pan_joint",
        "shoulder_lift_joint",
        "elbow_joint",
        "wrist_1_joint",
        "wrist_2_joint",
        "wrist_3_joint"
    ],
    "metrics": {
        "cart_traj_len": 3.803625467680111,
        "distance_elbow_joint": 4.209081875296414,
        "distance_shoulder_lift_joint": 1.572315696481847,
        "distance_shoulder_pan_joint": 2.811959654557459,
        "distance_wrist_1_joint": 2.2639849181363143,
        "distance_wrist_2_joint": 0.8708975702243833,
        "distance_wrist_3_joint": 3.1553128877451284,
        "smoothness": 0.07857562008350807,
        "time": 5.0620338689999995,
        "traj_len": 3.857920761555574,
        "weighted_distance": 4.932449783453705
    },
    "planner": "PRMstar",
    "start": {
        "state": {
            "elbow_joint": -2.384821988534728,
            "shoulder_lift_joint": -2.2788054721415256,
            "shoulder_pan_joint": -0.1854694642142757,
            "wrist_1_joint": 1.4845938289331202,
            "wrist_2_joint": 0.17898776772866878,
            "wrist_3_joint": 0.037105688729662994
        }
    },
    "waypoints": [
        {
            "positions": [
                -0.1854694642142757,
                -2.2788054721415256,
                -2.384821988534728,
                1.4845938289331202,
                0.17898776772866878,
                0.037105688729662994
            ]
        },
        {
            "positions": [
                -0.13481487012578522,
                -2.2237821155310136,
                -2.364330091651389,
                1.4661596406055337,
                0.17775880046735726,
                0.027797863413751154
            ]
        },
        {
            "positions": [
                -0.05144800711353402,
                -2.178347555080423,
                -2.27324660385671,
                1.4102499142542029,
                0.19888110032916134,
                0.11776040084098349
            ]
        },
        {
            "positions": [
                0.03191885589871718,
                -2.132912994629833,
                -2.182163116062031,
                1.3543401879028723,
                0.22000340019096545,
                0.20772293826821583
            ]
        },
        {
            "positions": [
                0.11528571891096837,
                -2.0874784341792423,
                -2.091079628267352,
                1.2984304615515414,
                0.24112570005276956,
                0.29768547569544823
            ]
        },
        {
            "positions": [
                0.19865258192321958,
                -2.042043873728652,
                -1.9999961404726732,
                1.2425207352002108,
                0.26224799991457365,
                0.38764801312268055
            ]
        },
        {
            "positions": [
                0.2820194449354707,
                -1.9966093132780618,
                -1.9089126526779943,
                1.18661100884888,
                0.28337029977637773,
                0.47761055054991286
            ]
        },
        {
            "positions": [
                0.365386307947722,
                -1.9511747528274714,
                -1.8178291648833151,
                1.130701282497549,
                0.30449259963818187,
                0.5675730879771452
            ]
        },
        {
            "positions": [
                0.44875317095997314,
                -1.905740192376881,
                -1.7267456770886362,
                1.0747915561462185,
                0.32561489949998595,
                0.6575356254043775
            ]
        },
        {
            "positions": [
                0.5321200339722244,
                -1.8603056319262907,
                -1.6356621892939573,
                1.0188818297948876,
                0.34673719936179004,
                0.7474981628316099
            ]
        },
        {
            "positions": [
                0.6154868969844756,
                -1.8148710714757004,
                -1.5445787014992782,
                0.9629721034435569,
                0.3678594992235942,
                0.8374607002588421
            ]
        },
        {
            "positions": [
                0.6988537599967267,
                -1.76943651102511,
                -1.4534952137045996,
                0.9070623770922261,
                0.3889817990853982,
                0.9274232376860745
            ]
        },
        {
            "positions": [
                0.7822206230089779,
                -1.7240019505745197,
                -1.3624117259099204,
                0.8511526507408954,
                0.41010409894720234,
                1.0173857751133069
            ]
        },
        {
            "positions": [
                0.8655874860212291,
                -1.6785673901239293,
                -1.2713282381152415,
                0.7952429243895646,
                0.43122639880900643,
                1.1073483125405394
            ]
        },
        {
            "positions": [
                0.9489543490334804,
                -1.6331328296733387,
                -1.1802447503205624,
                0.7393331980382338,
                0.45234869867081057,
                1.1973108499677716
            ]
        },
        {
            "positions": [
                1.0323212120457315,
                -1.5876982692227486,
                -1.0891612625258835,
                0.6834234716869031,
                0.47347099853261465,
                1.287273387395004
            ]
        },
        {
            "positions": [
                1.1156880750579827,
                -1.542263708772158,
                -0.9980777747312046,
                0.6275137453355724,
                0.49459329839441873,
                1.3772359248222363
            ]
        },
        {
            "positions": [
                1.199054938070234,
                -1.4968291483215679,
                -0.9069942869365257,
                0.5716040189842416,
                0.5157155982562228,
                1.4671984622494687
            ]
        },
        {
            "positions": [
                1.282421801082485,
                -1.4513945878709773,
                -0.8159107991418468,
                0.5156942926329109,
                0.5368378981180268,
                1.557160999676701
            ]
        },
        {
            "positions": [
                1.3657886640947363,
                -1.4059600274203872,
                -0.7248273113471677,
                0.45978456628158004,
                0.557960197979831,
                1.6471235371039332
            ]
        },
        {
            "positions": [
                1.4491555271069874,
                -1.3605254669697966,
                -0.6337438235524888,
                0.4038748399302494,
                0.5790824978416351,
                1.7370860745311656
            ]
        },
        {
            "positions": [
                1.5325223901192386,
                -1.3150909065192065,
                -0.5426603357578099,
                0.3479651135789186,
                0.6002047977034393,
                1.827048611958398
            ]
        },
        {
            "positions": [
                1.6158892531314897,
                -1.2696563460686159,
                -0.451576847963131,
                0.29205538722758795,
                0.6213270975652433,
                1.9170111493856303
            ]
        },
        {
            "positions": [
                1.699256116143741,
                -1.2242217856180257,
                -0.3604933601684519,
                0.2361456608762571,
                0.6424493974270473,
                2.0069736868128625
            ]
        },
        {
            "positions": [
                1.7826229791559924,
                -1.1787872251674352,
                -0.2694098723737728,
                0.18023593452492626,
                0.6635716972888516,
                2.0969362242400953
            ]
        },
        {
            "positions": [
                1.8659898421682435,
                -1.1333526647168448,
                -0.1783263845790941,
                0.12432620817359541,
                0.6846939971506556,
                2.1868987616673277
            ]
        },
        {
            "positions": [
                1.9493567051804948,
                -1.0879181042662545,
                -0.08724289678441499,
                0.06841648182226479,
                0.7058162970124597,
                2.27686129909456
            ]
        },
        {
            "positions": [
                2.032723568192746,
                -1.042483543815664,
                0.003840591010264127,
                0.012506755470933939,
                0.7269385968742639,
                2.366823836521792
            ]
        },
        {
            "positions": [
                2.1160904312049973,
                -0.9970489833650737,
                0.0949240788049428,
                -0.043402970880396685,
                0.7480608967360679,
                2.4567863739490243
            ]
        },
        {
            "positions": [
                2.199457294217248,
                -0.9516144229144834,
                0.18600756659962192,
                -0.09931269723172753,
                0.769183196597872,
                2.5467489113762567
            ]
        },
        {
            "positions": [
                2.2828241572294994,
                -0.906179862463893,
                0.2770910543943006,
                -0.15522242358305816,
                0.7903054964596761,
                2.636711448803489
            ]
        },
        {
            "positions": [
                2.3661910202417507,
                -0.8607453020133027,
                0.3681745421889797,
                -0.21113214993438906,
                0.8114277963214802,
                2.7266739862307214
            ]
        },
        {
            "positions": [
                2.39872841650443,
                -0.8800272428075057,
                0.5501852102605682,
                -0.2821645173429897,
                0.8409277472100988,
                2.782565103682252
            ]
        },
        {
            "positions": [
                2.431265812767109,
                -0.8993091836017086,
                0.7321958783321567,
                -0.35319688475159033,
                0.8704276980987173,
                2.838456221133783
            ]
        },
        {
            "positions": [
                2.463803209029788,
                -0.9185911243959117,
                0.9142065464037452,
                -0.424229252160191,
                0.899927648987336,
                2.894347338585314
            ]
        },
        {
            "positions": [
                2.496340605292467,
                -0.9378730651901147,
                1.0962172144753337,
                -0.4952616195687916,
                0.9294275998759546,
                2.9502384560368444
            ]
        },
        {
            "positions": [
                2.528878001555146,
                -0.9571550059843177,
                1.2782278825469222,
                -0.5662939869773922,
                0.9589275507645731,
                3.0061295734883755
            ]
        },
        {
            "positions": [
                2.561415397817825,
                -0.9764369467785208,
                1.4602385506185107,
                -0.6373263543859928,
                0.9884275016531918,
                3.062020690939906
            ]
        },
        {
            "positions": [
                2.5939527940805043,
                -0.9957188875727238,
                1.6422492186900992,
                -0.7083587217945935,
                1.0179274525418103,
                3.1179118083914372
            ]
        },
        {
            "positions": [
                2.6264901903431834,
                -1.0150008283669267,
                1.8242598867616877,
                -0.7793910892031941,
                1.047427403430429,
                3.173802925842968
            ]
        }
    ]
}