{
    "goal": {
        "global_pose": {
            "orientation": {
                "w": 0.5084816262002911,
                "x": -0.4908360881923452,
                "y": 0.5182115481033761,
                "z": -0.48164630358495003
            },
            "position": {
                "x": 0.5540239810943604,
                "y": -0.46912469901144505,
                "z": 0.16403168439865112
            }
        },
        "name": "move_to_storage_B"
    },
    "id": "PRMstar_move_to_storage_B_129",
    "joint_names": [
        "shoulder_pan_joint",
        "shoulder_lift_joint",
        "elbow_joint",
        "wrist_1_joint",
        "wrist_2_joint",
        "wrist_3_joint"
    ],
    "metrics": {
        "cart_traj_len": 0.8137752933342236,
        "distance_elbow_joint": 0.3498326398008187,
        "distance_shoulder_lift_joint": 0.4587120727427423,
        "distance_shoulder_pan_joint": 0.68360204437623,
        "distance_wrist_1_joint": 2.9922066503642304,
        "distance_wrist_2_joint": 2.7022132752110672,
        "distance_wrist_3_joint": 3.131413236173213,
        "smoothness": 0.05466681992449051,
        "time": 5.041123274,
        "traj_len": 3.212161253528269,
        "weighted_distance": 4.719663792749439
    },
    "planner": "PRMstar",
    "start": {
        "state": {
            "elbow_joint": 1.664937868594044,
            "shoulder_lift_joint": -0.661644460510453,
            "shoulder_pan_joint": -0.9139846352900073,
            "wrist_1_joint": 2.146753192139373,
            "wrist_2_joint": -2.2341966793290973,
            "wrist_3_joint": 0.005466555786416001
        }
    },
    "waypoints": [
        {
            "positions": [
                -0.9139846352900073,
                -0.661644460510453,
                1.664937868594044,
                2.146753192139373,
                -2.2341966793290973,
                0.005466555786416001
            ]
        },
        {
            "positions": [
                -0.8302683327060315,
                -0.6922119509436461,
                1.7050965261566273,
                2.061800543784669,
                -2.111980323494396,
                -0.009575048532403409
            ]
        },
        {
            "positions": [
                -0.7465520301220556,
                -0.722779441376839,
                1.7452551837192105,
                1.9768478954299649,
                -1.989763967659695,
                -0.02461665285122282
            ]
        },
        {
            "positions": [
                -0.6628357275380798,
                -0.7533469318100321,
                1.785413841281794,
                1.8918952470752608,
                -1.8675476118249938,
                -0.03965825717004223
            ]
        },
        {
            "positions": [
                -0.6808546082307592,
                -0.7686389985368306,
                1.7949703690781718,
                1.7778390510210893,
                -1.7702324365038704,
                -0.168253608137407
            ]
        },
        {
            "positions": [
                -0.6988734889234384,
                -0.783931065263629,
                1.8045268968745496,
                1.6637828549669176,
                -1.672917261182747,
                -0.29684895910477177
            ]
        },
        {
            "positions": [
                -0.7168923696161177,
                -0.7992231319904275,
                1.8140834246709274,
                1.549726658912746,
                -1.5756020858616233,
                -0.42544431007213657
            ]
        },
        {
            "positions": [
                -0.7349112503087969,
                -0.814515198717226,
                1.8236399524673055,
                1.4356704628585746,
                -1.4782869105404999,
                -0.5540396610395013
            ]
        },
        {
            "positions": [
                -0.7529301310014762,
                -0.8298072654440244,
                1.8331964802636833,
                1.3216142668044029,
                -1.3809717352193764,
                -0.6826350120068662
            ]
        },
        {
            "positions": [
                -0.7709490116941555,
                -0.8450993321708229,
                1.8427530080600611,
                1.2075580707502314,
                -1.2836565598982528,
                -0.8112303629742309
            ]
        },
        {
            "positions": [
                -0.7889678923868347,
                -0.8603913988976214,
                1.852309535856439,
                1.0935018746960599,
                -1.1863413845771293,
                -0.9398257139415958
            ]
        },
        {
            "positions": [
                -0.8069867730795139,
                -0.8756834656244198,
                1.8618660636528168,
                0.9794456786418883,
                -1.089026209256006,
                -1.0684210649089603
            ]
        },
        {
            "positions": [
                -0.8250056537721933,
                -0.8909755323512183,
                1.8714225914491947,
                0.8653894825877166,
                -0.9917110339348825,
                -1.1970164158763255
            ]
        },
        {
            "positions": [
                -0.8430245344648726,
                -0.9062675990780168,
                1.8809791192455725,
                0.7513332865335449,
                -0.8943958586137589,
                -1.3256117668436902
            ]
        },
        {
            "positions": [
                -0.8610434151575518,
                -0.9215596658048152,
                1.8905356470419503,
                0.6372770904793736,
                -0.7970806832926354,
                -1.454207117811055
            ]
        },
        {
            "positions": [
                -0.8790622958502311,
                -0.9368517325316137,
                1.9000921748383282,
                0.5232208944252019,
                -0.6997655079715119,
                -1.5828024687784197
            ]
        },
        {
            "positions": [
                -0.8970811765429103,
                -0.9521437992584121,
                1.9096487026347062,
                0.4091646983710304,
                -0.6024503326503885,
                -1.7113978197457844
            ]
        },
        {
            "positions": [
                -0.9151000572355896,
                -0.9674358659852107,
                1.919205230431084,
                0.2951085023168587,
                -0.5051351573292648,
                -1.8399931707131492
            ]
        },
        {
            "positions": [
                -0.9331189379282689,
                -0.9827279327120091,
                1.9287617582274619,
                0.1810523062626872,
                -0.4078199820081414,
                -1.968588521680514
            ]
        },
        {
            "positions": [
                -0.9511378186209482,
                -0.9980199994388075,
                1.9383182860238397,
                0.0669961102085157,
                -0.31050480668701796,
                -2.0971838726478786
            ]
        },
        {
            "positions": [
                -0.9691566993136275,
                -1.013312066165606,
                1.9478748138202175,
                -0.04706008584565602,
                -0.2131896313658943,
                -2.225779223615244
            ]
        },
        {
            "positions": [
                -0.9871755800063067,
                -1.0286041328924045,
                1.9574313416165954,
                -0.16111628189982752,
                -0.11587445604477109,
                -2.3543745745826086
            ]
        },
        {
            "positions": [
                -1.005194460698986,
                -1.0438961996192029,
                1.9669878694129732,
                -0.2751724779539988,
                -0.018559280723647653,
                -2.482969925549973
            ]
        },
        {
            "positions": [
                -1.0232133413916653,
                -1.0591882663460015,
                1.9765443972093513,
                -0.38922867400817096,
                0.078755894597476,
                -2.611565276517338
            ]
        },
        {
            "positions": [
                -1.0412322220843446,
                -1.0744803330727999,
                1.986100925005729,
                -0.5032848700623422,
                0.17607106991859967,
                -2.740160627484703
            ]
        },
        {
            "positions": [
                -1.0592511027770237,
                -1.0897723997995983,
                1.995657452802107,
                -0.6173410661165135,
                0.2733862452397231,
                -2.8687559784520675
            ]
        },
        {
            "positions": [
                -1.077269983469703,
                -1.105064466526397,
                2.0052139805984845,
                -0.7313972621706857,
                0.37070142056084654,
                -2.9973513294194323
            ]
        },
        {
            "positions": [
                -1.0952888641623824,
                -1.1203565332531953,
                2.0147705083948626,
                -0.8454534582248567,
                0.46801659588196987,
                -3.125946680386797
            ]
        }
    ]
}