{
    "goal": {
        "global_pose": {
            "orientation": {
                "w": 0.005598929693374612,
                "x": 0.007748599140229565,
                "y": 0.7110244013736278,
                "z": -0.7031023480610252
            },
            "position": {
                "x": 0.1141497679147869,
                "y": -0.7141253447532654,
                "z": 0.3711530566215515
            }
        },
        "name": "move_to_auspresseinheit_B"
    },
    "id": "PRMstar_move_to_auspresseinheit_B_21",
    "joint_names": [
        "shoulder_pan_joint",
        "shoulder_lift_joint",
        "elbow_joint",
        "wrist_1_joint",
        "wrist_2_joint",
        "wrist_3_joint"
    ],
    "metrics": {
        "cart_traj_len": 0.5651089158215901,
        "distance_elbow_joint": 0.05982951323996799,
        "distance_shoulder_lift_joint": 0.2954120161304661,
        "distance_shoulder_pan_joint": 0.5798719098915825,
        "distance_wrist_1_joint": 0.31919170206162906,
        "distance_wrist_2_joint": 0.9840695663725443,
        "distance_wrist_3_joint": 0.007288835951744677,
        "smoothness": 5.075305255429287e-16,
        "time": 5.0032401029999996,
        "traj_len": 1.4985538174012754,
        "weighted_distance": 1.8877241546331915
    },
    "planner": "PRMstar",
    "start": {
        "state": {
            "elbow_joint": 2.0193083361928714,
            "shoulder_lift_joint": -1.1220246554650708,
            "shoulder_pan_joint": -1.0952077554168747,
            "wrist_1_joint": -0.8559753972642168,
            "wrist_2_joint": 0.4759566250798843,
            "wrist_3_joint": -3.1240929996934557
        }
    },
    "waypoints": [
        {
            "positions": [
                -1.0952077554168747,
                -1.1220246554650708,
                2.0193083361928714,
                -0.8559753972642168,
                0.4759566250798843,
                -3.1240929996934557
            ]
        },
        {
            "positions": [
                -1.1918530737321384,
                -1.1712599914868151,
                2.009336750652877,
                -0.8027767802539453,
                0.6399682194753084,
                -3.125307805685413
            ]
        },
        {
            "positions": [
                -1.2884983920474022,
                -1.2204953275085595,
                1.999365165112882,
                -0.7495781632436738,
                0.8039798138707324,
                -3.1265226116773706
            ]
        },
        {
            "positions": [
                -1.3851437103626658,
                -1.2697306635303038,
                1.9893935795728874,
                -0.6963795462334023,
                0.9679914082661565,
                -3.1277374176693282
            ]
        },
        {
            "positions": [
                -1.4817890286779296,
                -1.3189659995520482,
                1.9794219940328928,
                -0.6431809292231307,
                1.1320030026615804,
                -3.1289522236612854
            ]
        },
        {
            "positions": [
                -1.5784343469931934,
                -1.3682013355737925,
                1.969450408492898,
                -0.5899823122128592,
                1.2960145970570045,
                -3.1301670296532427
            ]
        },
        {
            "positions": [
                -1.6750796653084572,
                -1.4174366715955369,
                1.9594788229529034,
                -0.5367836952025877,
                1.4600261914524286,
                -3.1313818356452003
            ]
        }
    ]
}