{
    "goal": {
        "global_pose": {
            "orientation": {
                "w": 0.7031023480610252,
                "x": -0.7110244013736278,
                "y": 0.0077485991402295624,
                "z": 0.005598929693374583
            },
            "position": {
                "x": -0.8841497679147869,
                "y": 0.44412534475326537,
                "z": 0.3711530566215515
            }
        },
        "name": "move_to_auspresseinheit_D"
    },
    "id": "PRMstar_move_to_auspresseinheit_D_26",
    "joint_names": [
        "shoulder_pan_joint",
        "shoulder_lift_joint",
        "elbow_joint",
        "wrist_1_joint",
        "wrist_2_joint",
        "wrist_3_joint"
    ],
    "metrics": {
        "cart_traj_len": 0.34318270645399357,
        "distance_elbow_joint": 0.6297751280886796,
        "distance_shoulder_lift_joint": 0.11625012153563219,
        "distance_shoulder_pan_joint": 0.13456022350757038,
        "distance_wrist_1_joint": 0.5079265682901157,
        "distance_wrist_2_joint": 1.433962587800232,
        "distance_wrist_3_joint": 0.023051698753177696,
        "smoothness": 0.0,
        "time": 5.013279164,
        "traj_len": 1.6868687939420208,
        "weighted_distance": 2.198526525100871
    },
    "planner": "PRMstar",
    "start": {
        "state": {
            "elbow_joint": -1.8275523626775212,
            "shoulder_lift_joint": -2.126789852344167,
            "shoulder_pan_joint": -0.03513704404078235,
            "wrist_1_joint": -2.347782403156801,
            "wrist_2_joint": -1.6058999987535132,
            "wrist_3_joint": -3.0880379163319196
        }
    },
    "waypoints": [
        {
            "positions": [
                -0.03513704404078235,
                -2.126789852344167,
                -1.8275523626775212,
                -2.347782403156801,
                -1.6058999987535132,
                -3.0880379163319196
            ]
        },
        {
            "positions": [
                -0.05195707197922865,
                -2.141321117536121,
                -1.7488304716664362,
                -2.4112732241930654,
                -1.426654675278484,
                -3.090919378676067
            ]
        },
        {
            "positions": [
                -0.06877709991767494,
                -2.155852382728075,
                -1.6701085806553513,
                -2.47476404522933,
                -1.2474093518034552,
                -3.0938008410202142
            ]
        },
        {
            "positions": [
                -0.08559712785612125,
                -2.170383647920029,
                -1.5913866896442663,
                -2.538254866265594,
                -1.0681640283284262,
                -3.096682303364361
            ]
        },
        {
            "positions": [
                -0.10241715579456753,
                -2.184914913111983,
                -1.5126647986331814,
                -2.6017456873018587,
                -0.8889187048533972,
                -3.0995637657085084
            ]
        },
        {
            "positions": [
                -0.11923718373301384,
                -2.199446178303937,
                -1.4339429076220964,
                -2.6652365083381233,
                -0.7096733813783682,
                -3.1024452280526558
            ]
        },
        {
            "positions": [
                -0.13605721167146015,
                -2.213977443495891,
                -1.3552210166110115,
                -2.7287273293743874,
                -0.5304280579033391,
                -3.1053266903968026
            ]
        },
        {
            "positions": [
                -0.15287723960990643,
                -2.228508708687845,
                -1.2764991255999265,
                -2.792218150410652,
                -0.3511827344283103,
                -3.10820815274095
            ]
        },
        {
            "positions": [
                -0.16969726754835274,
                -2.243039973879799,
                -1.1977772345888416,
                -2.8557089714469166,
                -0.17193741095328124,
                -3.1110896150850973
            ]
        }
    ]
}