{
    "goal": {
        "global_pose": {
            "orientation": {
                "w": 0.005598929693374612,
                "x": 0.007748599140229565,
                "y": 0.7110244013736278,
                "z": -0.7031023480610252
            },
            "position": {
                "x": 0.1141497679147869,
                "y": -0.7141253447532654,
                "z": 0.3711530566215515
            }
        },
        "name": "move_to_auspresseinheit_B"
    },
    "id": "PRMstar_move_to_auspresseinheit_B_107",
    "joint_names": [
        "shoulder_pan_joint",
        "shoulder_lift_joint",
        "elbow_joint",
        "wrist_1_joint",
        "wrist_2_joint",
        "wrist_3_joint"
    ],
    "metrics": {
        "cart_traj_len": 0.5652038442248409,
        "distance_elbow_joint": 0.059289393856464034,
        "distance_shoulder_lift_joint": 0.29657898286064954,
        "distance_shoulder_pan_joint": 0.5785436962918331,
        "distance_wrist_1_joint": 0.31634736115939277,
        "distance_wrist_2_joint": 0.9903085092943327,
        "distance_wrist_3_joint": 0.001903524461795314,
        "smoothness": 0.0,
        "time": 5.007895927000001,
        "traj_len": 1.497655323472149,
        "weighted_distance": 1.885055539580143
    },
    "planner": "PRMstar",
    "start": {
        "state": {
            "elbow_joint": 2.0193083361928714,
            "shoulder_lift_joint": -1.1220246554650708,
            "shoulder_pan_joint": -1.0952077554168747,
            "wrist_1_joint": -0.8559753972642168,
            "wrist_2_joint": 0.4759566250798843,
            "wrist_3_joint": -3.1240929996934557
        }
    },
    "waypoints": [
        {
            "positions": [
                -1.0952077554168747,
                -1.1220246554650708,
                2.0193083361928714,
                -0.8559753972642168,
                0.4759566250798843,
                -3.1240929996934557
            ]
        },
        {
            "positions": [
                -1.191631704798847,
                -1.1714544859418456,
                2.009426770550127,
                -0.8032508370709847,
                0.6410080432956065,
                -3.1237757456164896
            ]
        },
        {
            "positions": [
                -1.288055654180819,
                -1.2208843164186207,
                1.9995452049073834,
                -0.7505262768777525,
                0.8060594615113286,
                -3.123458491539524
            ]
        },
        {
            "positions": [
                -1.384479603562791,
                -1.2703141468953956,
                1.9896636392646394,
                -0.6978017166845204,
                0.9711108797270507,
                -3.123141237462558
            ]
        },
        {
            "positions": [
                -1.4809035529447634,
                -1.3197439773721704,
                1.9797820736218954,
                -0.6450771564912883,
                1.1361622979427728,
                -3.122823983385592
            ]
        },
        {
            "positions": [
                -1.5773275023267357,
                -1.3691738078489455,
                1.9699005079791514,
                -0.5923525962980561,
                1.301213716158495,
                -3.1225067293086264
            ]
        },
        {
            "positions": [
                -1.6737514517087078,
                -1.4186036383257203,
                1.9600189423364074,
                -0.539628036104824,
                1.466265134374217,
                -3.1221894752316603
            ]
        }
    ]
}