{
    "goal": {
        "global_pose": {
            "orientation": {
                "w": 0.005598929693374612,
                "x": 0.007748599140229565,
                "y": 0.7110244013736278,
                "z": -0.7031023480610252
            },
            "position": {
                "x": 0.1141497679147869,
                "y": -0.7141253447532654,
                "z": 0.3711530566215515
            }
        },
        "name": "move_to_auspresseinheit_B"
    },
    "id": "PRMstar_move_to_auspresseinheit_B_48",
    "joint_names": [
        "shoulder_pan_joint",
        "shoulder_lift_joint",
        "elbow_joint",
        "wrist_1_joint",
        "wrist_2_joint",
        "wrist_3_joint"
    ],
    "metrics": {
        "cart_traj_len": 0.5649158488907156,
        "distance_elbow_joint": 0.06133943654505902,
        "distance_shoulder_lift_joint": 0.2948396959494095,
        "distance_shoulder_pan_joint": 0.5785558987294284,
        "distance_wrist_1_joint": 0.3211969014027851,
        "distance_wrist_2_joint": 0.9866995463047448,
        "distance_wrist_3_joint": 0.001283752161465035,
        "smoothness": 5.075305255429287e-16,
        "time": 5.019409693,
        "traj_len": 1.4979703705657506,
        "weighted_distance": 1.8853061245122373
    },
    "planner": "PRMstar",
    "start": {
        "state": {
            "elbow_joint": 2.0193083361928714,
            "shoulder_lift_joint": -1.1220246554650708,
            "shoulder_pan_joint": -1.0952077554168747,
            "wrist_1_joint": -0.8559753972642168,
            "wrist_2_joint": 0.4759566250798843,
            "wrist_3_joint": -3.1240929996934557
        }
    },
    "waypoints": [
        {
            "positions": [
                -1.0952077554168747,
                -1.1220246554650708,
                2.0193083361928714,
                -0.8559753972642168,
                0.4759566250798843,
                -3.1240929996934557
            ]
        },
        {
            "positions": [
                -1.1916337385384461,
                -1.1711646047899724,
                2.009085096768695,
                -0.8024425803637526,
                0.6404065494640084,
                -3.1238790409998782
            ]
        },
        {
            "positions": [
                -1.2880597216600174,
                -1.220304554114874,
                1.9988618573445185,
                -0.7489097634632884,
                0.8048564738481325,
                -3.123665082306301
            ]
        },
        {
            "positions": [
                -1.3844857047815888,
                -1.2694445034397757,
                1.988638617920342,
                -0.6953769465628242,
                0.9693063982322567,
                -3.123451123612723
            ]
        },
        {
            "positions": [
                -1.48091168790316,
                -1.318584452764677,
                1.9784153784961653,
                -0.64184412966236,
                1.1337563226163807,
                -3.1232371649191455
            ]
        },
        {
            "positions": [
                -1.5773376710247318,
                -1.3677244020895787,
                1.968192139071989,
                -0.5883113127618959,
                1.298206247000505,
                -3.123023206225568
            ]
        },
        {
            "positions": [
                -1.673763654146303,
                -1.4168643514144803,
                1.9579688996478124,
                -0.5347784958614317,
                1.4626561713846291,
                -3.1228092475319906
            ]
        }
    ]
}