{
    "goal": {
        "global_pose": {
            "orientation": {
                "w": 0.005598929693374612,
                "x": 0.007748599140229565,
                "y": 0.7110244013736278,
                "z": -0.7031023480610252
            },
            "position": {
                "x": -0.8858502320852131,
                "y": -0.7141253447532654,
                "z": 0.3711530566215515
            }
        },
        "name": "move_to_auspresseinheit_C"
    },
    "id": "PRMstar_move_to_auspresseinheit_C_109",
    "joint_names": [
        "shoulder_pan_joint",
        "shoulder_lift_joint",
        "elbow_joint",
        "wrist_1_joint",
        "wrist_2_joint",
        "wrist_3_joint"
    ],
    "metrics": {
        "cart_traj_len": 0.49214868729136785,
        "distance_elbow_joint": 0.9909396869715096,
        "distance_shoulder_lift_joint": 0.31973521216262446,
        "distance_shoulder_pan_joint": 0.25619715437021373,
        "distance_wrist_1_joint": 0.6689395251778641,
        "distance_wrist_2_joint": 1.3031007781229278,
        "distance_wrist_3_joint": 0.04882833414201526,
        "smoothness": 3.2297397335745243e-16,
        "time": 5.009506615,
        "traj_len": 1.8941332294606825,
        "weighted_distance": 2.3785368743267314
    },
    "planner": "PRMstar",
    "start": {
        "state": {
            "elbow_joint": 1.7527959577737207,
            "shoulder_lift_joint": -0.9740617694225068,
            "shoulder_pan_joint": -2.967991417825858,
            "wrist_1_joint": -0.759517768980727,
            "wrist_2_joint": 1.7443932448377408,
            "wrist_3_joint": -3.0840537646736568
        }
    },
    "waypoints": [
        {
            "positions": [
                -2.967991417825858,
                -0.9740617694225068,
                1.7527959577737207,
                -0.759517768980727,
                1.7443932448377408,
                -3.0840537646736568
            ]
        },
        {
            "positions": [
                -2.9423717023888365,
                -0.9420882482062444,
                1.6537019890765696,
                -0.6926238164629406,
                1.614083167025448,
                -3.0889365980878583
            ]
        },
        {
            "positions": [
                -2.916751986951815,
                -0.9101147269899819,
                1.5546080203794188,
                -0.6257298639451542,
                1.4837730892131553,
                -3.0938194315020597
            ]
        },
        {
            "positions": [
                -2.891132271514794,
                -0.8781412057737195,
                1.4555140516822678,
                -0.5588359114273678,
                1.3534630114008626,
                -3.098702264916261
            ]
        },
        {
            "positions": [
                -2.8655125560777726,
                -0.846167684557457,
                1.3564200829851167,
                -0.4919419589095813,
                1.2231529335885698,
                -3.1035850983304627
            ]
        },
        {
            "positions": [
                -2.839892840640751,
                -0.8141941633411945,
                1.257326114287966,
                -0.4250480063917949,
                1.092842855776277,
                -3.1084679317446646
            ]
        },
        {
            "positions": [
                -2.8142731252037296,
                -0.7822206421249321,
                1.1582321455908149,
                -0.3581540538740085,
                0.9625327779639842,
                -3.113350765158866
            ]
        },
        {
            "positions": [
                -2.788653409766708,
                -0.7502471209086696,
                1.059138176893664,
                -0.2912601013562221,
                0.8322227001516914,
                -3.1182335985730676
            ]
        },
        {
            "positions": [
                -2.763033694329687,
                -0.7182735996924072,
                0.9600442081965129,
                -0.22436614883843564,
                0.7019126223393986,
                -3.123116431987269
            ]
        },
        {
            "positions": [
                -2.7374139788926657,
                -0.6863000784761448,
                0.860950239499362,
                -0.15747219632064924,
                0.5716025445271058,
                -3.1279992654014706
            ]
        },
        {
            "positions": [
                -2.7117942634556442,
                -0.6543265572598823,
                0.7618562708022111,
                -0.09057824380286283,
                0.4412924667148131,
                -3.132882098815672
            ]
        }
    ]
}