{
    "goal": {
        "global_pose": {
            "orientation": {
                "w": 0.005598929693374612,
                "x": 0.007748599140229565,
                "y": 0.7110244013736278,
                "z": -0.7031023480610252
            },
            "position": {
                "x": -0.8858502320852131,
                "y": -0.7141253447532654,
                "z": 0.3711530566215515
            }
        },
        "name": "move_to_auspresseinheit_C"
    },
    "id": "PRMstar_move_to_auspresseinheit_C_3",
    "joint_names": [
        "shoulder_pan_joint",
        "shoulder_lift_joint",
        "elbow_joint",
        "wrist_1_joint",
        "wrist_2_joint",
        "wrist_3_joint"
    ],
    "metrics": {
        "cart_traj_len": 0.49208413446833776,
        "distance_elbow_joint": 0.9887318664862909,
        "distance_shoulder_lift_joint": 0.3203377281190115,
        "distance_shoulder_pan_joint": 0.2562797700610435,
        "distance_wrist_1_joint": 0.6544811059471726,
        "distance_wrist_2_joint": 1.3086666332820467,
        "distance_wrist_3_joint": 0.044533301613801424,
        "smoothness": 9.689219149575433e-16,
        "time": 5.006968713,
        "traj_len": 1.890246122998105,
        "weighted_distance": 2.37175984196676
    },
    "planner": "PRMstar",
    "start": {
        "state": {
            "elbow_joint": 1.7527959577737207,
            "shoulder_lift_joint": -0.9740617694225068,
            "shoulder_pan_joint": -2.967991417825858,
            "wrist_1_joint": -0.759517768980727,
            "wrist_2_joint": 1.7443932448377408,
            "wrist_3_joint": -3.0840537646736568
        }
    },
    "waypoints": [
        {
            "positions": [
                -2.967991417825858,
                -0.9740617694225068,
                1.7527959577737207,
                -0.759517768980727,
                1.7443932448377408,
                -3.0840537646736568
            ]
        },
        {
            "positions": [
                -2.9423634408197534,
                -0.9420279966106057,
                1.6539227711250915,
                -0.6940696583860098,
                1.613526581509536,
                -3.088507094835037
            ]
        },
        {
            "positions": [
                -2.9167354638136493,
                -0.9099942237987044,
                1.5550495844764625,
                -0.6286215477912924,
                1.4826599181813314,
                -3.092960424996417
            ]
        },
        {
            "positions": [
                -2.891107486807545,
                -0.8779604509868033,
                1.4561763978278335,
                -0.5631734371965752,
                1.3517932548531268,
                -3.097413755157797
            ]
        },
        {
            "positions": [
                -2.8654795098014407,
                -0.8459266781749022,
                1.3573032111792043,
                -0.4977253266018579,
                1.2209265915249221,
                -3.1018670853191774
            ]
        },
        {
            "positions": [
                -2.839851532795336,
                -0.8138929053630011,
                1.2584300245305753,
                -0.4322772160071407,
                1.0900599281967174,
                -3.1063204154805577
            ]
        },
        {
            "positions": [
                -2.8142235557892317,
                -0.7818591325510998,
                1.1595568378819463,
                -0.3668291054124235,
                0.9591932648685129,
                -3.1107737456419375
            ]
        },
        {
            "positions": [
                -2.7885955787831276,
                -0.7498253597391987,
                1.060683651233317,
                -0.3013809948177062,
                0.8283266015403082,
                -3.115227075803318
            ]
        },
        {
            "positions": [
                -2.762967601777023,
                -0.7177915869272975,
                0.9618104645846879,
                -0.23593288422298886,
                0.6974599382121034,
                -3.119680405964698
            ]
        },
        {
            "positions": [
                -2.737339624770919,
                -0.6857578141153964,
                0.8629372779360589,
                -0.17048477362827164,
                0.5665932748838989,
                -3.124133736126078
            ]
        },
        {
            "positions": [
                -2.7117116477648144,
                -0.6537240413034953,
                0.7640640912874298,
                -0.1050366630335544,
                0.43572661155569414,
                -3.128587066287458
            ]
        }
    ]
}