{
    "goal": {
        "global_pose": {
            "orientation": {
                "w": 0.5084816262002911,
                "x": -0.4908360881923452,
                "y": 0.5182115481033761,
                "z": -0.48164630358495003
            },
            "position": {
                "x": 0.5540239810943604,
                "y": -0.46912469901144505,
                "z": 0.16403168439865112
            }
        },
        "name": "move_to_storage_B"
    },
    "id": "PRMstar_move_to_storage_B_35",
    "joint_names": [
        "shoulder_pan_joint",
        "shoulder_lift_joint",
        "elbow_joint",
        "wrist_1_joint",
        "wrist_2_joint",
        "wrist_3_joint"
    ],
    "metrics": {
        "cart_traj_len": 1.3300497785695238,
        "distance_elbow_joint": 0.3493644260294526,
        "distance_shoulder_lift_joint": 0.5105497458423705,
        "distance_shoulder_pan_joint": 1.1180762977626482,
        "distance_wrist_1_joint": 2.9862790810831306,
        "distance_wrist_2_joint": 2.699603194626131,
        "distance_wrist_3_joint": 3.539509467671195,
        "smoothness": 0.162660289489016,
        "time": 5.035261568,
        "traj_len": 3.347145382712697,
        "weighted_distance": 4.89574135592012
    },
    "planner": "PRMstar",
    "start": {
        "state": {
            "elbow_joint": 1.664937868594044,
            "shoulder_lift_joint": -0.661644460510453,
            "shoulder_pan_joint": -0.9139846352900073,
            "wrist_1_joint": 2.146753192139373,
            "wrist_2_joint": -2.2341966793290973,
            "wrist_3_joint": 0.005466555786416001
        }
    },
    "waypoints": [
        {
            "positions": [
                -0.9139846352900073,
                -0.661644460510453,
                1.664937868594044,
                2.146753192139373,
                -2.2341966793290973,
                0.005466555786416001
            ]
        },
        {
            "positions": [
                -0.8555378586061675,
                -0.7221719277933223,
                1.676614908928774,
                2.0821596267725724,
                -2.1022473377316158,
                0.03091071231964503
            ]
        },
        {
            "positions": [
                -0.7970910819223277,
                -0.7826993950761916,
                1.6882919492635042,
                2.0175660614057715,
                -1.9702979961341343,
                0.05635486885287406
            ]
        },
        {
            "positions": [
                -0.7386443052384879,
                -0.8432268623590609,
                1.6999689895982342,
                1.952972496038971,
                -1.838348654536653,
                0.08179902538610309
            ]
        },
        {
            "positions": [
                -0.6801975285546481,
                -0.9037543296419301,
                1.7116460299329643,
                1.8883789306721703,
                -1.7063993129391715,
                0.10724318191933212
            ]
        },
        {
            "positions": [
                -0.6217507518708083,
                -0.9642817969247994,
                1.7233230702676945,
                1.8237853653053695,
                -1.57444997134169,
                0.13268733845256114
            ]
        },
        {
            "positions": [
                -0.5633039751869685,
                -1.0248092642076687,
                1.7350001106024244,
                1.7591917999385687,
                -1.4425006297442087,
                0.15813149498579018
            ]
        },
        {
            "positions": [
                -0.5048571985031287,
                -1.085336731490538,
                1.7466771509371546,
                1.6945982345717678,
                -1.3105512881467272,
                0.1835756515190192
            ]
        },
        {
            "positions": [
                -0.4464104218192889,
                -1.1458641987734073,
                1.7583541912718847,
                1.6300046692049672,
                -1.1786019465492457,
                0.20901980805224823
            ]
        },
        {
            "positions": [
                -0.475978698378013,
                -1.1446673802470702,
                1.7699881959696853,
                1.517753280198207,
                -1.1038742891925966,
                0.05738543462473175
            ]
        },
        {
            "positions": [
                -0.5055469749367371,
                -1.143470561720733,
                1.7816222006674858,
                1.4055018911914468,
                -1.0291466318359475,
                -0.09424893880278473
            ]
        },
        {
            "positions": [
                -0.5351152514954611,
                -1.142273743194396,
                1.7932562053652863,
                1.2932505021846867,
                -0.9544189744792986,
                -0.24588331223030113
            ]
        },
        {
            "positions": [
                -0.5646835280541853,
                -1.141076924668059,
                1.8048902100630868,
                1.1809991131779263,
                -0.8796913171226495,
                -0.3975176856578177
            ]
        },
        {
            "positions": [
                -0.5942518046129094,
                -1.1398801061417219,
                1.8165242147608873,
                1.0687477241711663,
                -0.8049636597660004,
                -0.549152059085334
            ]
        },
        {
            "positions": [
                -0.6238200811716335,
                -1.1386832876153847,
                1.8281582194586878,
                0.956496335164406,
                -0.7302360024093514,
                -0.7007864325128506
            ]
        },
        {
            "positions": [
                -0.6533883577303575,
                -1.1374864690890476,
                1.8397922241564886,
                0.8442449461576457,
                -0.6555083450527023,
                -0.8524208059403671
            ]
        },
        {
            "positions": [
                -0.6829566342890816,
                -1.1362896505627105,
                1.851426228854289,
                0.7319935571508854,
                -0.5807806876960532,
                -1.0040551793678836
            ]
        },
        {
            "positions": [
                -0.7125249108478058,
                -1.1350928320363733,
                1.8630602335520896,
                0.6197421681441253,
                -0.5060530303394042,
                -1.1556895527954
            ]
        },
        {
            "positions": [
                -0.7420931874065297,
                -1.1338960135100362,
                1.8746942382498901,
                0.5074907791373651,
                -0.4313253729827552,
                -1.3073239262229164
            ]
        },
        {
            "positions": [
                -0.7716614639652539,
                -1.132699194983699,
                1.8863282429476906,
                0.39523939013060483,
                -0.3565977156261061,
                -1.4589582996504329
            ]
        },
        {
            "positions": [
                -0.8012297405239779,
                -1.1315023764573622,
                1.8979622476454912,
                0.2829880011238448,
                -0.2818700582694571,
                -1.6105926730779492
            ]
        },
        {
            "positions": [
                -0.8307980170827021,
                -1.130305557931025,
                1.9095962523432917,
                0.17073661211708435,
                -0.2071424009128079,
                -1.762227046505466
            ]
        },
        {
            "positions": [
                -0.8603662936414261,
                -1.129108739404688,
                1.9212302570410922,
                0.058485223110324114,
                -0.1324147435561589,
                -1.9138614199329824
            ]
        },
        {
            "positions": [
                -0.8899345702001502,
                -1.1279119208783508,
                1.9328642617388927,
                -0.0537661658964359,
                -0.05768708619951002,
                -2.0654957933604985
            ]
        },
        {
            "positions": [
                -0.9195028467588744,
                -1.1267151023520137,
                1.9444982664366934,
                -0.16601755490319636,
                0.017040571157139306,
                -2.2171301667880154
            ]
        },
        {
            "positions": [
                -0.9490711233175984,
                -1.1255182838256765,
                1.9561322711344937,
                -0.2782689439099564,
                0.09176822851378819,
                -2.3687645402155315
            ]
        },
        {
            "positions": [
                -0.9786393998763225,
                -1.1243214652993394,
                1.9677662758322945,
                -0.3905203329167166,
                0.1664958858704373,
                -2.5203989136430485
            ]
        },
        {
            "positions": [
                -1.0082076764350467,
                -1.1231246467730025,
                1.979400280530095,
                -0.5027717219234769,
                0.2412235432270864,
                -2.6720332870705645
            ]
        },
        {
            "positions": [
                -1.0377759529937707,
                -1.1219278282466654,
                1.9910342852278955,
                -0.6150231109302371,
                0.31595120058373527,
                -2.823667660498081
            ]
        },
        {
            "positions": [
                -1.0673442295524946,
                -1.1207310097203282,
                2.002668289925696,
                -0.7272744999369973,
                0.3906788579403846,
                -2.9753020339255976
            ]
        },
        {
            "positions": [
                -1.0969125061112188,
                -1.1195341911939911,
                2.0143022946234965,
                -0.8395258889437575,
                0.4654065152970335,
                -3.126936407353114
            ]
        }
    ]
}