{
    "goal": {
        "global_pose": {
            "orientation": {
                "w": 0.7031023502349854,
                "x": -0.7110244035720825,
                "y": 0.007748599164187908,
                "z": 0.005598929710686207
            },
            "position": {
                "x": 0.11585023208521307,
                "y": 0.44412534475326537,
                "z": 0.3711530566215515
            }
        },
        "name": "move_to_auspresseinheit_A"
    },
    "id": "PRMstar_move_to_auspresseinheit_A_77",
    "joint_names": [
        "shoulder_pan_joint",
        "shoulder_lift_joint",
        "elbow_joint",
        "wrist_1_joint",
        "wrist_2_joint",
        "wrist_3_joint"
    ],
    "metrics": {
        "cart_traj_len": 0.7141461739362572,
        "distance_elbow_joint": 0.10270765490285161,
        "distance_shoulder_lift_joint": 0.5330105790450046,
        "distance_shoulder_pan_joint": 1.042793034626915,
        "distance_wrist_1_joint": 0.5751268608980684,
        "distance_wrist_2_joint": 0.5286420844005847,
        "distance_wrist_3_joint": 0.18637960204033233,
        "smoothness": 0.25595289297709983,
        "time": 5.0374763069999995,
        "traj_len": 1.7229799232474405,
        "weighted_distance": 2.108361440857111
    },
    "planner": "PRMstar",
    "start": {
        "state": {
            "elbow_joint": 2.4225746658250005,
            "shoulder_lift_joint": -1.3736534386056498,
            "shoulder_pan_joint": -0.3378633547517467,
            "wrist_1_joint": -1.0288598680537169,
            "wrist_2_joint": 1.233022673432363,
            "wrist_3_joint": -3.0940220416140027
        }
    },
    "waypoints": [
        {
            "positions": [
                -0.3378633547517467,
                -1.3736534386056498,
                2.4225746658250005,
                -1.0288598680537169,
                1.233022673432363,
                -3.0940220416140027
            ]
        },
        {
            "positions": [
                -0.20132733286571863,
                -1.4083296708338318,
                2.4058516302917803,
                -0.9547039954980859,
                1.1537146953275257,
                -3.076611837062069
            ]
        },
        {
            "positions": [
                -0.06479131097969054,
                -1.4430059030620135,
                2.38912859475856,
                -0.880548122942455,
                1.0744067172226883,
                -3.0592016325101357
            ]
        },
        {
            "positions": [
                0.07174471090633755,
                -1.4776821352901954,
                2.37240555922534,
                -0.8063922503868242,
                0.995098739117851,
                -3.0417914279582017
            ]
        },
        {
            "positions": [
                0.20828073279236564,
                -1.5123583675183774,
                2.3556825236921197,
                -0.7322363778311932,
                0.9157907610130136,
                -3.024381223406268
            ]
        },
        {
            "positions": [
                0.3324429695630663,
                -1.6109347800514466,
                2.3646364018846127,
                -0.6626105351623071,
                0.8629382180177048,
                -3.0535659193644173
            ]
        },
        {
            "positions": [
                0.4566052063337669,
                -1.709511192584516,
                2.373590280077105,
                -0.5929846924934208,
                0.8100856750223959,
                -3.082750615322567
            ]
        },
        {
            "positions": [
                0.5807674431044676,
                -1.8080876051175852,
                2.3825441582695976,
                -0.5233588498245346,
                0.7572331320270872,
                -3.1119353112807167
            ]
        },
        {
            "positions": [
                0.7049296798751682,
                -1.9066640176506544,
                2.3914980364620906,
                -0.45373300715564846,
                0.7043805890317784,
                -3.141120007238866
            ]
        }
    ]
}