{
    "goal": {
        "global_pose": {
            "orientation": {
                "w": 0.005598929693374612,
                "x": 0.007748599140229565,
                "y": 0.7110244013736278,
                "z": -0.7031023480610252
            },
            "position": {
                "x": 0.1141497679147869,
                "y": -0.7141253447532654,
                "z": 0.3711530566215515
            }
        },
        "name": "move_to_auspresseinheit_B"
    },
    "id": "PRMstar_move_to_auspresseinheit_B_147",
    "joint_names": [
        "shoulder_pan_joint",
        "shoulder_lift_joint",
        "elbow_joint",
        "wrist_1_joint",
        "wrist_2_joint",
        "wrist_3_joint"
    ],
    "metrics": {
        "cart_traj_len": 0.5647093214714558,
        "distance_elbow_joint": 0.060340881937620994,
        "distance_shoulder_lift_joint": 0.29517340585416063,
        "distance_shoulder_pan_joint": 0.5785898947843116,
        "distance_wrist_1_joint": 0.32147595018023367,
        "distance_wrist_2_joint": 0.9885188192832832,
        "distance_wrist_3_joint": 0.0012725071388146603,
        "smoothness": 5.075305255429287e-16,
        "time": 5.008930458,
        "traj_len": 1.4984563587834063,
        "weighted_distance": 1.8862426256766576
    },
    "planner": "PRMstar",
    "start": {
        "state": {
            "elbow_joint": 2.0193083361928714,
            "shoulder_lift_joint": -1.1220246554650708,
            "shoulder_pan_joint": -1.0952077554168747,
            "wrist_1_joint": -0.8559753972642168,
            "wrist_2_joint": 0.4759566250798843,
            "wrist_3_joint": -3.1240929996934557
        }
    },
    "waypoints": [
        {
            "positions": [
                -1.0952077554168747,
                -1.1220246554650708,
                2.0193083361928714,
                -0.8559753972642168,
                0.4759566250798843,
                -3.1240929996934557
            ]
        },
        {
            "positions": [
                -1.1916394045475933,
                -1.171220223107431,
                2.0092515225366014,
                -0.8023960722341779,
                0.6407097616270981,
                -3.1238809151703197
            ]
        },
        {
            "positions": [
                -1.2880710536783118,
                -1.220415790749791,
                1.999194708880331,
                -0.7488167472041389,
                0.8054628981743119,
                -3.1236688306471843
            ]
        },
        {
            "positions": [
                -1.3845027028090304,
                -1.2696113583921511,
                1.989137895224061,
                -0.6952374221741,
                0.9702160347215258,
                -3.1234567461240483
            ]
        },
        {
            "positions": [
                -1.4809343519397489,
                -1.3188069260345112,
                1.9790810815677908,
                -0.6416580971440611,
                1.1349691712687398,
                -3.1232446616009124
            ]
        },
        {
            "positions": [
                -1.5773660010704678,
                -1.3680024936768713,
                1.9690242679115206,
                -0.588078772114022,
                1.2997223078159537,
                -3.123032577077777
            ]
        },
        {
            "positions": [
                -1.6737976502011862,
                -1.4171980613192314,
                1.9589674542552504,
                -0.5344994470839831,
                1.4644754443631676,
                -3.122820492554641
            ]
        }
    ]
}