{
    "goal": {
        "global_pose": {
            "orientation": {
                "w": 0.7031023502349854,
                "x": -0.7110244035720825,
                "y": 0.007748599164187908,
                "z": 0.005598929710686207
            },
            "position": {
                "x": 0.11585023208521307,
                "y": 0.44412534475326537,
                "z": 0.3711530566215515
            }
        },
        "name": "move_to_auspresseinheit_A"
    },
    "id": "PRMstar_move_to_auspresseinheit_A_14",
    "joint_names": [
        "shoulder_pan_joint",
        "shoulder_lift_joint",
        "elbow_joint",
        "wrist_1_joint",
        "wrist_2_joint",
        "wrist_3_joint"
    ],
    "metrics": {
        "cart_traj_len": 4.7718669840899155,
        "distance_elbow_joint": 3.4322821524712777,
        "distance_shoulder_lift_joint": 3.162979377593229,
        "distance_shoulder_pan_joint": 1.0466225236528406,
        "distance_wrist_1_joint": 2.205541911725329,
        "distance_wrist_2_joint": 3.9680768963933546,
        "distance_wrist_3_joint": 1.8712615151382024,
        "smoothness": 1.0138098867665444,
        "time": 5.0396681480000005,
        "traj_len": 3.960652014122704,
        "weighted_distance": 5.059931443742032
    },
    "planner": "PRMstar",
    "start": {
        "state": {
            "elbow_joint": 2.4225746658250005,
            "shoulder_lift_joint": -1.3736534386056498,
            "shoulder_pan_joint": -0.3378633547517467,
            "wrist_1_joint": -1.0288598680537169,
            "wrist_2_joint": 1.233022673432363,
            "wrist_3_joint": -3.0940220416140027
        }
    },
    "waypoints": [
        {
            "positions": [
                -0.3378633547517467,
                -1.3736534386056498,
                2.4225746658250005,
                -1.0288598680537169,
                1.233022673432363,
                -3.0940220416140027
            ]
        },
        {
            "positions": [
                -0.320570825576631,
                -1.4666545859858429,
                2.3314309460453333,
                -1.0610149518870853,
                1.1199315845526194,
                -3.0460933469892555
            ]
        },
        {
            "positions": [
                -0.3032782964015153,
                -1.5596557333660361,
                2.2402872262656657,
                -1.0931700357204537,
                1.0068404956728758,
                -2.9981646523645087
            ]
        },
        {
            "positions": [
                -0.2859857672263996,
                -1.6526568807462292,
                2.1491435064859985,
                -1.125325119553822,
                0.8937494067931322,
                -2.9502359577397614
            ]
        },
        {
            "positions": [
                -0.2686932380512839,
                -1.7456580281264225,
                2.0579997867063313,
                -1.1574802033871903,
                0.7806583179133886,
                -2.9023072631150146
            ]
        },
        {
            "positions": [
                -0.2514007088761682,
                -1.8386591755066155,
                1.9668560669266637,
                -1.1896352872205587,
                0.667567229033645,
                -2.8543785684902674
            ]
        },
        {
            "positions": [
                -0.23410817970105255,
                -1.9316603228868088,
                1.8757123471469965,
                -1.221790371053927,
                0.5544761401539013,
                -2.8064498738655206
            ]
        },
        {
            "positions": [
                -0.21681565052593685,
                -2.024661470267002,
                1.7845686273673291,
                -1.2539454548872955,
                0.4413850512741577,
                -2.7585211792407733
            ]
        },
        {
            "positions": [
                -0.19952312135082115,
                -2.117662617647195,
                1.6934249075876617,
                -1.2861005387206639,
                0.3282939623944141,
                -2.7105924846160265
            ]
        },
        {
            "positions": [
                -0.18223059217570545,
                -2.2106637650273884,
                1.6022811878079946,
                -1.3182556225540323,
                0.2152028735146705,
                -2.6626637899912793
            ]
        },
        {
            "positions": [
                -0.16493806300058975,
                -2.3036649124075814,
                1.5111374680283272,
                -1.3504107063874007,
                0.10211178463492687,
                -2.6147350953665325
            ]
        },
        {
            "positions": [
                -0.14764553382547405,
                -2.3966660597877745,
                1.4199937482486598,
                -1.382565790220769,
                -0.010979304244816968,
                -2.5668064007417852
            ]
        },
        {
            "positions": [
                -0.13035300465035837,
                -2.4896672071679675,
                1.3288500284689924,
                -1.4147208740541375,
                -0.12407039312456036,
                -2.5188777061170384
            ]
        },
        {
            "positions": [
                -0.11306047547524264,
                -2.5826683545481606,
                1.237706308689325,
                -1.446875957887506,
                -0.2371614820043042,
                -2.470949011492291
            ]
        },
        {
            "positions": [
                -0.09576794630012697,
                -2.675669501928354,
                1.1465625889096578,
                -1.4790310417208743,
                -0.3502525708840476,
                -2.4230203168675444
            ]
        },
        {
            "positions": [
                -0.07847541712501127,
                -2.768670649308547,
                1.0554188691299904,
                -1.5111861255542425,
                -0.46334365976379144,
                -2.375091622242797
            ]
        },
        {
            "positions": [
                -0.06118288794989557,
                -2.86167179668874,
                0.9642751493503232,
                -1.5433412093876109,
                -0.5764347486435348,
                -2.3271629276180503
            ]
        },
        {
            "positions": [
                -0.04389035877477987,
                -2.9546729440689337,
                0.8731314295706556,
                -1.5754962932209793,
                -0.6895258375232787,
                -2.279234232993303
            ]
        },
        {
            "positions": [
                -0.02659782959966417,
                -3.0476740914491263,
                0.7819877097909884,
                -1.6076513770543477,
                -0.8026169264030221,
                -2.2313055383685563
            ]
        },
        {
            "positions": [
                -0.009305300424548468,
                -3.1406752388293198,
                0.690843990011321,
                -1.639806460887716,
                -0.915708015282766,
                -2.183376843743809
            ]
        },
        {
            "positions": [
                0.01648692276180177,
                -3.0714655263948623,
                0.7738327047315423,
                -1.5667861992034995,
                -0.8250074596935295,
                -2.2193971283424623
            ]
        },
        {
            "positions": [
                0.042279145948152005,
                -3.0022558139604048,
                0.8568214194517637,
                -1.493765937519283,
                -0.7343069041042929,
                -2.255417412941115
            ]
        },
        {
            "positions": [
                0.06807136913450225,
                -2.9330461015259472,
                0.9398101341719851,
                -1.4207456758350665,
                -0.6436063485150563,
                -2.2914376975397683
            ]
        },
        {
            "positions": [
                0.09386359232085248,
                -2.8638363890914897,
                1.0227988488922064,
                -1.34772541415085,
                -0.5529057929258199,
                -2.3274579821384216
            ]
        },
        {
            "positions": [
                0.11965581550720272,
                -2.7946266766570322,
                1.1057875636124277,
                -1.2747051524666335,
                -0.46220523733658325,
                -2.3634782667370744
            ]
        },
        {
            "positions": [
                0.14544803869355297,
                -2.7254169642225747,
                1.1887762783326492,
                -1.201684890782417,
                -0.37150468174734663,
                -2.3994985513357276
            ]
        },
        {
            "positions": [
                0.1712402618799032,
                -2.6562072517881172,
                1.2717649930528703,
                -1.1286646290982003,
                -0.2808041261581101,
                -2.435518835934381
            ]
        },
        {
            "positions": [
                0.19703248506625343,
                -2.5869975393536597,
                1.3547537077730918,
                -1.0556443674139837,
                -0.19010357056887361,
                -2.471539120533034
            ]
        },
        {
            "positions": [
                0.22282470825260367,
                -2.517787826919202,
                1.437742422493313,
                -0.9826241057297673,
                -0.099403014979637,
                -2.507559405131687
            ]
        },
        {
            "positions": [
                0.24861693143895391,
                -2.4485781144847447,
                1.5207311372135344,
                -0.9096038440455508,
                -0.008702459390400485,
                -2.54357968973034
            ]
        },
        {
            "positions": [
                0.2744091546253042,
                -2.379368402050287,
                1.6037198519337559,
                -0.8365835823613342,
                0.08199809619883625,
                -2.5795999743289935
            ]
        },
        {
            "positions": [
                0.3002013778116544,
                -2.3101586896158297,
                1.6867085666539772,
                -0.7635633206771177,
                0.17269865178807275,
                -2.6156202589276463
            ]
        },
        {
            "positions": [
                0.3259936009980047,
                -2.240948977181372,
                1.7696972813741987,
                -0.6905430589929011,
                0.2633992073773094,
                -2.6516405435262995
            ]
        },
        {
            "positions": [
                0.3517858241843549,
                -2.1717392647469147,
                1.8526859960944198,
                -0.6175227973086848,
                0.3540997629665458,
                -2.6876608281249528
            ]
        },
        {
            "positions": [
                0.3775780473707051,
                -2.102529552312457,
                1.9356747108146413,
                -0.5445025356244682,
                0.4448003185557824,
                -2.7236811127236056
            ]
        },
        {
            "positions": [
                0.4033702705570553,
                -2.0333198398779997,
                2.0186634255348626,
                -0.47148227394025155,
                0.5355008741450188,
                -2.759701397322259
            ]
        },
        {
            "positions": [
                0.4291624937434056,
                -1.9641101274435422,
                2.101652140255084,
                -0.39846201225603495,
                0.6262014297342556,
                -2.795721681920912
            ]
        },
        {
            "positions": [
                0.4549547169297558,
                -1.8949004150090847,
                2.184640854975305,
                -0.32544175057181857,
                0.716901985323492,
                -2.831741966519565
            ]
        },
        {
            "positions": [
                0.4807469401161061,
                -1.8256907025746272,
                2.2676295696955266,
                -0.25242148888760185,
                0.8076025409127285,
                -2.867762251118218
            ]
        },
        {
            "positions": [
                0.5567510163777688,
                -1.8526817162795828,
                2.3088848686866577,
                -0.3214916045180072,
                0.7755906570851514,
                -2.9598392210827513
            ]
        },
        {
            "positions": [
                0.6327550926394315,
                -1.8796727299845382,
                2.350140167677789,
                -0.3905617201484125,
                0.7435787732575742,
                -3.0519161910472845
            ]
        },
        {
            "positions": [
                0.7087591689010942,
                -1.9066637436894938,
                2.39139546666892,
                -0.4596318357788179,
                0.711566889429997,
                -3.1439931610118177
            ]
        }
    ]
}