{
    "goal": {
        "global_pose": {
            "orientation": {
                "w": -0.00223480608172531,
                "x": 0.0024358444001904467,
                "y": 0.7094548369677653,
                "z": -0.704743149386269
            },
            "position": {
                "x": 0.6205249238014221,
                "y": -0.6371506643295288,
                "z": 0.19426114857196808
            }
        },
        "name": "move_to_magneteinheit_B"
    },
    "id": "PRMstar_move_to_magneteinheit_B_85",
    "joint_names": [
        "shoulder_pan_joint",
        "shoulder_lift_joint",
        "elbow_joint",
        "wrist_1_joint",
        "wrist_2_joint",
        "wrist_3_joint"
    ],
    "metrics": {
        "cart_traj_len": 1.448790288273946,
        "distance_elbow_joint": 0.9525144676845627,
        "distance_shoulder_lift_joint": 1.5938131702746476,
        "distance_shoulder_pan_joint": 1.6208189503587747,
        "distance_wrist_1_joint": 1.3448973806861888,
        "distance_wrist_2_joint": 1.5147535143029536,
        "distance_wrist_3_joint": 3.531356066112579,
        "smoothness": 0.6039788395501156,
        "time": 5.018293935,
        "traj_len": 3.2493312464905304,
        "weighted_distance": 4.5255404734279
    },
    "planner": "PRMstar",
    "start": {
        "state": {
            "elbow_joint": 2.6216224122426386,
            "shoulder_lift_joint": -1.4174107377796124,
            "shoulder_pan_joint": 0.7066234856936794,
            "wrist_1_joint": 1.9546482284002225,
            "wrist_2_joint": -0.7096286983471962,
            "wrist_3_joint": 0.005740856962016249
        }
    },
    "waypoints": [
        {
            "positions": [
                0.7066234856936794,
                -1.4174107377796124,
                2.6216224122426386,
                1.9546482284002225,
                -0.7096286983471962,
                0.005740856962016249
            ]
        },
        {
            "positions": [
                0.6065729856529667,
                -1.449767821414866,
                2.6095146002892724,
                2.0140350284996105,
                -0.7459597793806407,
                -0.13014209200990923
            ]
        },
        {
            "positions": [
                0.5065224856122541,
                -1.4821249050501197,
                2.597406788335906,
                2.0734218285989985,
                -0.7822908604140852,
                -0.2660250409818347
            ]
        },
        {
            "positions": [
                0.40647198557154146,
                -1.5144819886853733,
                2.58529897638254,
                2.1328086286983865,
                -0.8186219414475298,
                -0.4019079899537602
            ]
        },
        {
            "positions": [
                0.3064214855308288,
                -1.546839072320627,
                2.573191164429174,
                2.1921954287977745,
                -0.8549530224809744,
                -0.5377909389256857
            ]
        },
        {
            "positions": [
                0.20637098549011612,
                -1.5791961559558807,
                2.5610833524758077,
                2.2515822288971625,
                -0.8912841035144189,
                -0.6736738878976112
            ]
        },
        {
            "positions": [
                0.10632048544940353,
                -1.6115532395911343,
                2.5489755405224415,
                2.3109690289965505,
                -0.9276151845478634,
                -0.8095568368695367
            ]
        },
        {
            "positions": [
                0.006269985408690948,
                -1.6439103232263879,
                2.536867728569075,
                2.3703558290959386,
                -0.9639462655813079,
                -0.945439785841462
            ]
        },
        {
            "positions": [
                -0.09378051463202175,
                -1.6762674068616414,
                2.5247599166157086,
                2.4297426291953266,
                -1.0002773466147525,
                -1.0813227348133876
            ]
        },
        {
            "positions": [
                -0.19383101467273434,
                -1.7086244904968952,
                2.5126521046623425,
                2.4891294292947146,
                -1.036608427648197,
                -1.217205683785313
            ]
        },
        {
            "positions": [
                -0.29388151471344715,
                -1.7409815741321488,
                2.5005442927089763,
                2.5485162293941026,
                -1.0729395086816416,
                -1.3530886327572385
            ]
        },
        {
            "positions": [
                -0.3939320147541595,
                -1.7733386577674024,
                2.48843648075561,
                2.6079030294934906,
                -1.109270589715086,
                -1.488971581729164
            ]
        },
        {
            "positions": [
                -0.4939825147948723,
                -1.8056957414026562,
                2.476328668802244,
                2.6672898295928786,
                -1.1456016707485306,
                -1.6248545307010895
            ]
        },
        {
            "positions": [
                -0.594033014835585,
                -1.8380528250379098,
                2.4642208568488777,
                2.7266766296922667,
                -1.181932751781975,
                -1.7607374796730149
            ]
        },
        {
            "positions": [
                -0.6153771781575523,
                -1.7598414195034864,
                2.411213329362824,
                2.6884853643993236,
                -1.2514293825065201,
                -1.6430789643745116
            ]
        },
        {
            "positions": [
                -0.6367213414795198,
                -1.681630013969063,
                2.3582058018767706,
                2.6502940991063806,
                -1.3209260132310652,
                -1.5254204490760084
            ]
        },
        {
            "positions": [
                -0.6580655048014871,
                -1.6034186084346398,
                2.305198274390717,
                2.6121028338134376,
                -1.39042264395561,
                -1.407761933777505
            ]
        },
        {
            "positions": [
                -0.6794096681234545,
                -1.5252072029002164,
                2.252190746904664,
                2.573911568520495,
                -1.459919274680155,
                -1.290103418479002
            ]
        },
        {
            "positions": [
                -0.7007538314454218,
                -1.4469957973657932,
                2.1991832194186105,
                2.535720303227552,
                -1.5294159054046998,
                -1.1724449031804984
            ]
        },
        {
            "positions": [
                -0.7220979947673891,
                -1.3687843918313698,
                2.146175691932557,
                2.497529037934609,
                -1.5989125361292449,
                -1.0547863878819952
            ]
        },
        {
            "positions": [
                -0.7434421580893565,
                -1.2905729862969464,
                2.0931681644465034,
                2.459337772641666,
                -1.66840916685379,
                -0.937127872583492
            ]
        },
        {
            "positions": [
                -0.7647863214113239,
                -1.212361580762523,
                2.04016063696045,
                2.421146507348723,
                -1.737905797578335,
                -0.8194693572849887
            ]
        },
        {
            "positions": [
                -0.7861304847332913,
                -1.1341501752280996,
                1.9871531094743966,
                2.38295524205578,
                -1.80740242830288,
                -0.7018108419864855
            ]
        },
        {
            "positions": [
                -0.8074746480552586,
                -1.0559387696936764,
                1.9341455819883433,
                2.3447639767628368,
                -1.8768990590274248,
                -0.5841523266879822
            ]
        },
        {
            "positions": [
                -0.8288188113772259,
                -0.977727364159253,
                1.8811380545022898,
                2.3065727114698937,
                -1.9463956897519699,
                -0.466493811389479
            ]
        },
        {
            "positions": [
                -0.8501629746991933,
                -0.8995159586248296,
                1.8281305270162362,
                2.268381446176951,
                -2.0158923204765147,
                -0.3488352960909755
            ]
        },
        {
            "positions": [
                -0.8715071380211608,
                -0.8213045530904062,
                1.7751229995301827,
                2.230190180884008,
                -2.0853889512010597,
                -0.23117678079247228
            ]
        },
        {
            "positions": [
                -0.8928513013431281,
                -0.743093147555983,
                1.7221154720441292,
                2.191998915591065,
                -2.1548855819256048,
                -0.11351826549396904
            ]
        },
        {
            "positions": [
                -0.9141954646650954,
                -0.6648817420215597,
                1.6691079445580759,
                2.153807650298122,
                -2.22438221265015,
                0.004140249804534096
            ]
        }
    ]
}