{
    "goal": {
        "global_pose": {
            "orientation": {
                "w": -0.4816463035849501,
                "x": 0.5182115481033762,
                "y": 0.4908360881923453,
                "z": -0.5084816262002911
            },
            "position": {
                "x": -0.8240239810943604,
                "y": 0.19912469901144506,
                "z": 0.16403168439865112
            }
        },
        "name": "move_to_storage_D"
    },
    "id": "PRMstar_move_to_storage_D_116",
    "joint_names": [
        "shoulder_pan_joint",
        "shoulder_lift_joint",
        "elbow_joint",
        "wrist_1_joint",
        "wrist_2_joint",
        "wrist_3_joint"
    ],
    "metrics": {
        "cart_traj_len": 3.5785171853799738,
        "distance_elbow_joint": 4.209753411097553,
        "distance_shoulder_lift_joint": 1.2651011339883802,
        "distance_shoulder_pan_joint": 2.8120233994054917,
        "distance_wrist_1_joint": 2.2751370192757734,
        "distance_wrist_2_joint": 0.8677911941831541,
        "distance_wrist_3_joint": 3.1284457262074907,
        "smoothness": 4.674623263095943e-16,
        "time": 5.0471627550000004,
        "traj_len": 3.8155277333755335,
        "weighted_distance": 4.894698310420342
    },
    "planner": "PRMstar",
    "start": {
        "state": {
            "elbow_joint": -2.384821988534728,
            "shoulder_lift_joint": -2.2788054721415256,
            "shoulder_pan_joint": -0.1854694642142757,
            "wrist_1_joint": 1.4845938289331202,
            "wrist_2_joint": 0.17898776772866878,
            "wrist_3_joint": 0.037105688729662994
        }
    },
    "waypoints": [
        {
            "positions": [
                -0.1854694642142757,
                -2.2788054721415256,
                -2.384821988534728,
                1.4845938289331202,
                0.17898776772866878,
                0.037105688729662994
            ]
        },
        {
            "positions": [
                -0.08091193037910033,
                -2.234835345343712,
                -2.2738624844932245,
                1.4376884808611636,
                0.18958656136487395,
                -0.04181116565122081
            ]
        },
        {
            "positions": [
                0.023645603456075054,
                -2.1908652185458983,
                -2.162902980451721,
                1.3907831327892073,
                0.20018535500107912,
                -0.12072802003210462
            ]
        },
        {
            "positions": [
                0.1282031372912504,
                -2.1468950917480845,
                -2.0519434764102176,
                1.3438777847172507,
                0.21078414863728429,
                -0.19964487441298842
            ]
        },
        {
            "positions": [
                0.23276067112642582,
                -2.102924964950271,
                -1.940983972368714,
                1.2969724366452942,
                0.22138294227348948,
                -0.2785617287938722
            ]
        },
        {
            "positions": [
                0.33731820496160125,
                -2.0589548381524576,
                -1.8300244683272102,
                1.2500670885733376,
                0.23198173590969465,
                -0.357478583174756
            ]
        },
        {
            "positions": [
                0.44187573879677655,
                -2.0149847113546437,
                -1.7190649642857068,
                1.2031617405013812,
                0.24258052954589981,
                -0.4363954375556398
            ]
        },
        {
            "positions": [
                0.546433272631952,
                -1.97101458455683,
                -1.6081054602442033,
                1.1562563924294247,
                0.253179323182105,
                -0.5153122919365236
            ]
        },
        {
            "positions": [
                0.6509908064671274,
                -1.9270444577590164,
                -1.4971459562026999,
                1.1093510443574681,
                0.26377811681831015,
                -0.5942291463174074
            ]
        },
        {
            "positions": [
                0.7555483403023027,
                -1.8830743309612028,
                -1.3861864521611964,
                1.0624456962855118,
                0.27437691045451534,
                -0.6731460006982912
            ]
        },
        {
            "positions": [
                0.8601058741374782,
                -1.8391042041633892,
                -1.2752269481196927,
                1.0155403482135552,
                0.2849757040907205,
                -0.752062855079175
            ]
        },
        {
            "positions": [
                0.9646634079726534,
                -1.7951340773655755,
                -1.1642674440781893,
                0.9686350001415988,
                0.2955744977269257,
                -0.8309797094600588
            ]
        },
        {
            "positions": [
                1.0692209418078287,
                -1.7511639505677619,
                -1.0533079400366858,
                0.9217296520696423,
                0.3061732913631309,
                -0.9098965638409426
            ]
        },
        {
            "positions": [
                1.173778475643004,
                -1.7071938237699482,
                -0.9423484359951824,
                0.8748243039976857,
                0.31677208499933607,
                -0.9888134182218264
            ]
        },
        {
            "positions": [
                1.2783360094781795,
                -1.6632236969721346,
                -0.8313889319536787,
                0.8279189559257292,
                0.3273708786355412,
                -1.0677302726027103
            ]
        },
        {
            "positions": [
                1.3828935433133547,
                -1.619253570174321,
                -0.7204294279121755,
                0.7810136078537728,
                0.33796967227174635,
                -1.146647126983594
            ]
        },
        {
            "positions": [
                1.4874510771485303,
                -1.5752834433765073,
                -0.6094699238706718,
                0.7341082597818163,
                0.34856846590795154,
                -1.2255639813644779
            ]
        },
        {
            "positions": [
                1.5920086109837057,
                -1.5313133165786936,
                -0.4985104198291681,
                0.6872029117098597,
                0.35916725954415674,
                -1.3044808357453617
            ]
        },
        {
            "positions": [
                1.696566144818881,
                -1.48734318978088,
                -0.3875509157876649,
                0.6402975636379034,
                0.3697660531803619,
                -1.3833976901262455
            ]
        },
        {
            "positions": [
                1.8011236786540563,
                -1.4433730629830663,
                -0.2765914117461614,
                0.5933922155659468,
                0.38036484681656707,
                -1.4623145445071293
            ]
        },
        {
            "positions": [
                1.905681212489232,
                -1.3994029361852527,
                -0.16563190770465752,
                0.5464868674939902,
                0.3909636404527722,
                -1.541231398888013
            ]
        },
        {
            "positions": [
                2.010238746324407,
                -1.355432809387439,
                -0.05467240366315451,
                0.4995815194220339,
                0.4015624340889774,
                -1.6201482532688969
            ]
        },
        {
            "positions": [
                2.1147962801595823,
                -1.3114626825896254,
                0.056287100378349386,
                0.4526761713500773,
                0.4121612277251826,
                -1.6990651076497807
            ]
        },
        {
            "positions": [
                2.2193538139947577,
                -1.2674925557918117,
                0.16724660441985284,
                0.40577082327812075,
                0.4227600213613878,
                -1.7779819620306645
            ]
        },
        {
            "positions": [
                2.323911347829933,
                -1.223522428993998,
                0.2782061084613563,
                0.3588654752061644,
                0.4333588149975929,
                -1.8568988164115483
            ]
        },
        {
            "positions": [
                2.4284688816651085,
                -1.1795523021961845,
                0.3891656125028597,
                0.31196012713420784,
                0.4439576086337981,
                -1.935815670792432
            ]
        },
        {
            "positions": [
                2.444975969458951,
                -1.1657316385259313,
                0.5088127633411901,
                0.22008485067780273,
                0.4941927214069668,
                -2.032109368016215
            ]
        },
        {
            "positions": [
                2.461483057252793,
                -1.151910974855678,
                0.6284599141795204,
                0.12820957422139762,
                0.5444278341801355,
                -2.128403065239998
            ]
        },
        {
            "positions": [
                2.4779901450466353,
                -1.1380903111854246,
                0.7481070650178508,
                0.036334297764992474,
                0.5946629469533042,
                -2.224696762463781
            ]
        },
        {
            "positions": [
                2.4944972328404775,
                -1.1242696475151714,
                0.8677542158561813,
                -0.05554097869141261,
                0.644898059726473,
                -2.320990459687564
            ]
        },
        {
            "positions": [
                2.5110043206343198,
                -1.1104489838449183,
                0.9874013666945116,
                -0.1474162551478178,
                0.6951331724996417,
                -2.417284156911347
            ]
        },
        {
            "positions": [
                2.527511408428162,
                -1.096628320174665,
                1.107048517532842,
                -0.2392915316042229,
                0.7453682852728105,
                -2.51357785413513
            ]
        },
        {
            "positions": [
                2.5440184962220047,
                -1.0828076565044116,
                1.2266956683711725,
                -0.33116680806062804,
                0.7956033980459792,
                -2.609871551358913
            ]
        },
        {
            "positions": [
                2.560525584015847,
                -1.0689869928341584,
                1.3463428192095028,
                -0.42304208451703307,
                0.845838510819148,
                -2.7061652485826957
            ]
        },
        {
            "positions": [
                2.577032671809689,
                -1.0551663291639053,
                1.4659899700478332,
                -0.5149173609734383,
                0.8960736235923167,
                -2.802458945806479
            ]
        },
        {
            "positions": [
                2.5935397596035314,
                -1.041345665493652,
                1.5856371208861637,
                -0.6067926374298435,
                0.9463087363654854,
                -2.898752643030262
            ]
        },
        {
            "positions": [
                2.6100468473973737,
                -1.0275250018233986,
                1.705284271724494,
                -0.6986679138862484,
                0.9965438491386541,
                -2.995046340254045
            ]
        },
        {
            "positions": [
                2.626553935191216,
                -1.0137043381531454,
                1.8249314225628244,
                -0.7905431903426536,
                1.0467789619118228,
                -3.0913400374778277
            ]
        }
    ]
}