{
    "goal": {
        "global_pose": {
            "orientation": {
                "w": -0.00223480608172531,
                "x": 0.0024358444001904467,
                "y": 0.7094548369677653,
                "z": -0.704743149386269
            },
            "position": {
                "x": -0.37947507619857795,
                "y": -0.6371506643295288,
                "z": 0.19426114857196808
            }
        },
        "name": "move_to_magneteinheit_C"
    },
    "id": "PRMstar_move_to_magneteinheit_C_88",
    "joint_names": [
        "shoulder_pan_joint",
        "shoulder_lift_joint",
        "elbow_joint",
        "wrist_1_joint",
        "wrist_2_joint",
        "wrist_3_joint"
    ],
    "metrics": {
        "cart_traj_len": 0.6767894151949128,
        "distance_elbow_joint": 0.10349104760759964,
        "distance_shoulder_lift_joint": 0.5396872925823935,
        "distance_shoulder_pan_joint": 0.823660540761564,
        "distance_wrist_1_joint": 2.1938641434357518,
        "distance_wrist_2_joint": 0.8235340668607394,
        "distance_wrist_3_joint": 1.0933136426132228,
        "smoothness": 1.2792078096918906,
        "time": 5.024414151,
        "traj_len": 2.361683876783951,
        "weighted_distance": 3.2835310611267574
    },
    "planner": "PRMstar",
    "start": {
        "state": {
            "elbow_joint": 1.9565354010623817,
            "shoulder_lift_joint": -1.4165861575791021,
            "shoulder_pan_joint": -1.6717766225146293,
            "wrist_1_joint": -0.5286633292919765,
            "wrist_2_joint": 1.472756589071564,
            "wrist_3_joint": -3.1238370188695823
        }
    },
    "waypoints": [
        {
            "positions": [
                -1.6717766225146293,
                -1.4165861575791021,
                1.9565354010623817,
                -0.5286633292919765,
                1.472756589071564,
                -3.1238370188695823
            ]
        },
        {
            "positions": [
                -1.7322635732697553,
                -1.4345026544779467,
                1.9614376438922396,
                -0.4110164409498207,
                1.373369434599806,
                -3.0565922619836816
            ]
        },
        {
            "positions": [
                -1.7927505240248816,
                -1.452419151376791,
                1.9663398867220978,
                -0.29336955260766495,
                1.273982280128048,
                -2.9893475050977814
            ]
        },
        {
            "positions": [
                -1.8532374747800076,
                -1.4703356482756353,
                1.971242129551956,
                -0.1757226642655092,
                1.17459512565629,
                -2.9221027482118807
            ]
        },
        {
            "positions": [
                -1.9137244255351336,
                -1.48825214517448,
                1.976144372381814,
                -0.058075775923353445,
                1.0752079711845322,
                -2.8548579913259804
            ]
        },
        {
            "positions": [
                -1.9742113762902598,
                -1.5061686420733245,
                1.981046615211672,
                0.05957111241880231,
                0.9758208167127742,
                -2.7876132344400797
            ]
        },
        {
            "positions": [
                -2.034698327045386,
                -1.5240851389721688,
                1.98594885804153,
                0.17721800076095806,
                0.8764336622410162,
                -2.720368477554179
            ]
        },
        {
            "positions": [
                -2.095185277800512,
                -1.5420016358710131,
                1.9908511008713883,
                0.2948648891031138,
                0.7770465077692582,
                -2.6531237206682787
            ]
        },
        {
            "positions": [
                -2.155672228555638,
                -1.5599181327698577,
                1.9957533437012462,
                0.4125117774452695,
                0.6776593532975003,
                -2.585878963782378
            ]
        },
        {
            "positions": [
                -2.2215277229220596,
                -1.5209619901892866,
                2.003856484085677,
                0.2579165147882612,
                0.6742872838049102,
                -2.649693365320272
            ]
        },
        {
            "positions": [
                -2.2873832172884807,
                -1.4820058476087157,
                2.011959624470108,
                0.10332125213125293,
                0.67091521431232,
                -2.7135077668581653
            ]
        },
        {
            "positions": [
                -2.3532387116549023,
                -1.4430497050281446,
                2.020062764854539,
                -0.051274010525755365,
                0.66754314481973,
                -2.777322168396059
            ]
        },
        {
            "positions": [
                -2.4190942060213234,
                -1.4040935624475734,
                2.02816590523897,
                -0.20586927318276366,
                0.6641710753271398,
                -2.8411365699339526
            ]
        },
        {
            "positions": [
                -2.484949700387745,
                -1.3651374198670025,
                2.036269045623401,
                -0.36046453583977195,
                0.6607990058345498,
                -2.9049509714718464
            ]
        },
        {
            "positions": [
                -2.481453879424929,
                -1.2979458850374084,
                2.0283499112745407,
                -0.5203687769775935,
                0.6646578337091248,
                -2.9837121647506963
            ]
        },
        {
            "positions": [
                -2.4779580584621126,
                -1.230754350207814,
                2.020430776925681,
                -0.6802730181154152,
                0.6685166615836999,
                -3.0624733580295467
            ]
        },
        {
            "positions": [
                -2.4744622374992966,
                -1.1635628153782198,
                2.0125116425768206,
                -0.8401772592532368,
                0.672375489458275,
                -3.1412345513083966
            ]
        }
    ]
}