{
    "goal": {
        "global_pose": {
            "orientation": {
                "w": -0.4816463035849501,
                "x": 0.5182115481033762,
                "y": 0.4908360881923453,
                "z": -0.5084816262002911
            },
            "position": {
                "x": -0.8240239810943604,
                "y": -0.300875300988555,
                "z": 0.16403168439865112
            }
        },
        "name": "move_to_storage_C"
    },
    "id": "PRMstar_move_to_storage_C_1",
    "joint_names": [
        "shoulder_pan_joint",
        "shoulder_lift_joint",
        "elbow_joint",
        "wrist_1_joint",
        "wrist_2_joint",
        "wrist_3_joint"
    ],
    "metrics": {
        "cart_traj_len": 0.5767650662092786,
        "distance_elbow_joint": 0.25555931294948775,
        "distance_shoulder_lift_joint": 0.18904608216590912,
        "distance_shoulder_pan_joint": 0.4954547482025884,
        "distance_wrist_1_joint": 0.06925571455875912,
        "distance_wrist_2_joint": 1.0641035416755789,
        "distance_wrist_3_joint": 0.05559673226363948,
        "smoothness": 0.0,
        "time": 5.010842234999999,
        "traj_len": 1.4591148453140905,
        "weighted_distance": 1.8367277567940163
    },
    "planner": "PRMstar",
    "start": {
        "state": {
            "elbow_joint": 2.010868314990456,
            "shoulder_lift_joint": -1.1634956873337592,
            "shoulder_pan_joint": -2.4736205022346125,
            "wrist_1_joint": -0.8367026794202681,
            "wrist_2_joint": 0.6746043897044499,
            "wrist_3_joint": -3.1496632123970403
        }
    },
    "waypoints": [
        {
            "positions": [
                -2.4736205022346125,
                -1.1634956873337592,
                2.010868314990456,
                -0.8367026794202681,
                0.6746043897044499,
                -3.1496632123970403
            ]
        },
        {
            "positions": [
                -2.5561962936017104,
                -1.1319880069727744,
                1.968275096165541,
                -0.8251600603271416,
                0.8519549799837131,
                -3.1403970903531
            ]
        },
        {
            "positions": [
                -2.6387720849688088,
                -1.1004803266117895,
                1.9256818773406266,
                -0.813617441234015,
                1.0293055702629763,
                -3.1311309683091606
            ]
        },
        {
            "positions": [
                -2.7213478763359067,
                -1.0689726462508047,
                1.883088658515712,
                -0.8020748221408885,
                1.2066561605422392,
                -3.1218648462652205
            ]
        },
        {
            "positions": [
                -2.8039236677030046,
                -1.0374649658898198,
                1.8404954396907973,
                -0.7905322030477621,
                1.3840067508215026,
                -3.1125987242212805
            ]
        },
        {
            "positions": [
                -2.886499459070103,
                -1.0059572855288348,
                1.7979022208658826,
                -0.7789895839546355,
                1.5613573411007655,
                -3.103332602177341
            ]
        },
        {
            "positions": [
                -2.969075250437201,
                -0.9744496051678501,
                1.755309002040968,
                -0.767446964861509,
                1.7387079313800287,
                -3.094066480133401
            ]
        }
    ]
}