{
    "goal": {
        "global_pose": {
            "orientation": {
                "w": 0.7031023502349854,
                "x": -0.7110244035720825,
                "y": 0.007748599164187908,
                "z": 0.005598929710686207
            },
            "position": {
                "x": 0.11585023208521307,
                "y": 0.44412534475326537,
                "z": 0.3711530566215515
            }
        },
        "name": "move_to_auspresseinheit_A"
    },
    "id": "PRMstar_move_to_auspresseinheit_A_148",
    "joint_names": [
        "shoulder_pan_joint",
        "shoulder_lift_joint",
        "elbow_joint",
        "wrist_1_joint",
        "wrist_2_joint",
        "wrist_3_joint"
    ],
    "metrics": {
        "cart_traj_len": 3.116066873412039,
        "distance_elbow_joint": 1.9628924073909308,
        "distance_shoulder_lift_joint": 0.5350825207802963,
        "distance_shoulder_pan_joint": 5.450359227943943,
        "distance_wrist_1_joint": 5.126875910066259,
        "distance_wrist_2_joint": 1.7289390472053898,
        "distance_wrist_3_joint": 4.899787074265779,
        "smoothness": 0.6267904997912839,
        "time": 5.0977859389999995,
        "traj_len": 4.4389115994410835,
        "weighted_distance": 6.029869425904329
    },
    "planner": "PRMstar",
    "start": {
        "state": {
            "elbow_joint": 2.4225746658250005,
            "shoulder_lift_joint": -1.3736534386056498,
            "shoulder_pan_joint": -0.3378633547517467,
            "wrist_1_joint": -1.0288598680537169,
            "wrist_2_joint": 1.233022673432363,
            "wrist_3_joint": -3.0940220416140027
        }
    },
    "waypoints": [
        {
            "positions": [
                -0.3378633547517467,
                -1.3736534386056498,
                2.4225746658250005,
                -1.0288598680537169,
                1.233022673432363,
                -3.0940220416140027
            ]
        },
        {
            "positions": [
                -0.4260098791387158,
                -1.380675933387226,
                2.3827015311737667,
                -0.9150510564167018,
                1.1877892577130016,
                -2.996716650561287
            ]
        },
        {
            "positions": [
                -0.5141564035256849,
                -1.3876984281688023,
                2.342828396522533,
                -0.8012422447796866,
                1.1425558419936401,
                -2.8994112595085717
            ]
        },
        {
            "positions": [
                -0.6023029279126539,
                -1.3947209229503787,
                2.3029552618712996,
                -0.6874334331426716,
                1.0973224262742787,
                -2.8021058684558557
            ]
        },
        {
            "positions": [
                -0.6904494522996231,
                -1.401743417731955,
                2.263082127220066,
                -0.5736246215056564,
                1.0520890105549172,
                -2.7048004774031402
            ]
        },
        {
            "positions": [
                -0.7785959766865922,
                -1.4087659125135312,
                2.223208992568832,
                -0.45981580986864135,
                1.0068555948355558,
                -2.6074950863504247
            ]
        },
        {
            "positions": [
                -0.8667425010735612,
                -1.4157884072951075,
                2.1833358579175983,
                -0.3460069982316263,
                0.9616221791161942,
                -2.510189695297709
            ]
        },
        {
            "positions": [
                -0.9548890254605304,
                -1.4228109020766837,
                2.1434627232663646,
                -0.2321981865946111,
                0.9163887633968326,
                -2.4128843042449937
            ]
        },
        {
            "positions": [
                -1.0430355498474995,
                -1.4298333968582602,
                2.1035895886151312,
                -0.11838937495759605,
                0.8711553476774712,
                -2.315578913192278
            ]
        },
        {
            "positions": [
                -1.1311820742344685,
                -1.4368558916398364,
                2.0637164539638975,
                -0.004580563320581099,
                0.8259219319581097,
                -2.2182735221395626
            ]
        },
        {
            "positions": [
                -1.2193285986214377,
                -1.4438783864214126,
                2.0238433193126637,
                0.10922824831643418,
                0.7806885162387482,
                -2.1209681310868467
            ]
        },
        {
            "positions": [
                -1.3074751230084067,
                -1.4509008812029889,
                1.98397018466143,
                0.22303705995344925,
                0.7354551005193868,
                -2.023662740034131
            ]
        },
        {
            "positions": [
                -1.3956216473953758,
                -1.4579233759845651,
                1.9440970500101964,
                0.3368458715904643,
                0.6902216848000253,
                -1.9263573489814156
            ]
        },
        {
            "positions": [
                -1.4837681717823448,
                -1.4649458707661416,
                1.9042239153589626,
                0.45065468322747937,
                0.6449882690806639,
                -1.8290519579287001
            ]
        },
        {
            "positions": [
                -1.571914696169314,
                -1.4719683655477178,
                1.864350780707729,
                0.5644634948644947,
                0.5997548533613023,
                -1.7317465668759844
            ]
        },
        {
            "positions": [
                -1.660061220556283,
                -1.478990860329294,
                1.8244776460564953,
                0.6782723065015095,
                0.554521437641941,
                -1.6344411758232689
            ]
        },
        {
            "positions": [
                -1.748207744943252,
                -1.4860133551108703,
                1.7846045114052616,
                0.7920811181385248,
                0.5092880219225794,
                -1.5371357847705533
            ]
        },
        {
            "positions": [
                -1.8363542693302213,
                -1.4930358498924465,
                1.7447313767540278,
                0.9058899297755398,
                0.4640546062032179,
                -1.4398303937178376
            ]
        },
        {
            "positions": [
                -1.92450079371719,
                -1.500058344674023,
                1.7048582421027945,
                1.0196987414125547,
                0.41882119048385646,
                -1.3425250026651223
            ]
        },
        {
            "positions": [
                -2.0126473181041593,
                -1.5070808394555992,
                1.6649851074515607,
                1.1335075530495702,
                0.373587774764495,
                -1.2452196116124066
            ]
        },
        {
            "positions": [
                -2.1007938424911288,
                -1.5141033342371755,
                1.625111972800327,
                1.2473163646865852,
                0.32835435904513344,
                -1.1479142205596908
            ]
        },
        {
            "positions": [
                -2.1889403668780973,
                -1.5211258290187517,
                1.5852388381490932,
                1.3611251763235999,
                0.2831209433257721,
                -1.0506088295069755
            ]
        },
        {
            "positions": [
                -2.277086891265067,
                -1.528148323800328,
                1.5453657034978596,
                1.4749339879606154,
                0.23788752760641052,
                -0.9533034384542596
            ]
        },
        {
            "positions": [
                -2.365233415652036,
                -1.5351708185819044,
                1.5054925688466259,
                1.5887427995976304,
                0.19265411188704906,
                -0.8559980474015441
            ]
        },
        {
            "positions": [
                -2.453379940039005,
                -1.5421933133634806,
                1.4656194341953923,
                1.7025516112346455,
                0.1474206961676876,
                -0.7586926563488285
            ]
        },
        {
            "positions": [
                -2.541526464425974,
                -1.5492158081450569,
                1.4257462995441585,
                1.8163604228716603,
                0.10218728044832615,
                -0.661387265296113
            ]
        },
        {
            "positions": [
                -2.4166535368002156,
                -1.5630435062697066,
                1.4629026088176236,
                1.728604437520088,
                0.1251912671491474,
                -0.7562777382941087
            ]
        },
        {
            "positions": [
                -2.2917806091744573,
                -1.576871204394356,
                1.5000589180910884,
                1.6408484521685154,
                0.1481952538499687,
                -0.8511682112921044
            ]
        },
        {
            "positions": [
                -2.166907681548699,
                -1.5906989025190057,
                1.5372152273645534,
                1.553092466816943,
                0.17119924055078997,
                -0.9460586842901002
            ]
        },
        {
            "positions": [
                -2.0420347539229406,
                -1.6045266006436552,
                1.5743715366380184,
                1.4653364814653707,
                0.19420322725161127,
                -1.0409491572880958
            ]
        },
        {
            "positions": [
                -1.9171618262971826,
                -1.6183542987683048,
                1.6115278459114832,
                1.377580496113798,
                0.21720721395243253,
                -1.1358396302860916
            ]
        },
        {
            "positions": [
                -1.7922888986714243,
                -1.6321819968929545,
                1.6486841551849483,
                1.2898245107622257,
                0.2402112006532538,
                -1.2307301032840874
            ]
        },
        {
            "positions": [
                -1.6674159710456662,
                -1.646009695017604,
                1.6858404644584133,
                1.2020685254106533,
                0.26321518735407506,
                -1.3256205762820827
            ]
        },
        {
            "positions": [
                -1.5425430434199079,
                -1.6598373931422536,
                1.7229967737318783,
                1.114312540059081,
                0.2862191740548964,
                -1.4205110492800785
            ]
        },
        {
            "positions": [
                -1.4176701157941496,
                -1.673665091266903,
                1.7601530830053431,
                1.0265565547075086,
                0.30922316075571765,
                -1.5154015222780743
            ]
        },
        {
            "positions": [
                -1.2927971881683913,
                -1.6874927893915528,
                1.7973093922788081,
                0.9388005693559359,
                0.3322271474565389,
                -1.6102919952760701
            ]
        },
        {
            "positions": [
                -1.1679242605426332,
                -1.7013204875162022,
                1.834465701552273,
                0.8510445840043636,
                0.3552311341573602,
                -1.7051824682740657
            ]
        },
        {
            "positions": [
                -1.0430513329168747,
                -1.715148185640852,
                1.871622010825738,
                0.7632885986527911,
                0.37823512085818145,
                -1.8000729412720615
            ]
        },
        {
            "positions": [
                -0.9181784052911166,
                -1.7289758837655014,
                1.908778320099203,
                0.6755326133012187,
                0.4012391075590027,
                -1.894963414270057
            ]
        },
        {
            "positions": [
                -0.7933054776653585,
                -1.742803581890151,
                1.945934629372668,
                0.5877766279496464,
                0.424243094259824,
                -1.9898538872680527
            ]
        },
        {
            "positions": [
                -0.6684325500396002,
                -1.7566312800148007,
                1.9830909386461328,
                0.500020642598074,
                0.44724708096064525,
                -2.0847443602660487
            ]
        },
        {
            "positions": [
                -0.5435596224138417,
                -1.7704589781394502,
                2.020247247919598,
                0.4122646572465014,
                0.47025106766146657,
                -2.1796348332640445
            ]
        },
        {
            "positions": [
                -0.4186866947880836,
                -1.7842866762640999,
                2.057403557193063,
                0.32450867189492905,
                0.49325505436228784,
                -2.27452530626204
            ]
        },
        {
            "positions": [
                -0.2938137671623253,
                -1.7981143743887493,
                2.0945598664665277,
                0.23675268654335668,
                0.5162590410631092,
                -2.3694157792600357
            ]
        },
        {
            "positions": [
                -0.16894083953656747,
                -1.811942072513399,
                2.1317161757399927,
                0.14899670119178432,
                0.5392630277639303,
                -2.464306252258031
            ]
        },
        {
            "positions": [
                -0.04406791191080872,
                -1.8257697706380487,
                2.1688724850134578,
                0.06124071584021151,
                0.5622670144647517,
                -2.559196725256027
            ]
        },
        {
            "positions": [
                0.08080501571494958,
                -1.8395974687626981,
                2.206028794286923,
                -0.02651526951136085,
                0.5852710011655728,
                -2.6540871982540226
            ]
        },
        {
            "positions": [
                0.20567794334070744,
                -1.8534251668873478,
                2.2431851035603874,
                -0.11427125486293321,
                0.6082749878663942,
                -2.7489776712520184
            ]
        },
        {
            "positions": [
                0.33055087096646574,
                -1.8672528650119973,
                2.2803414128338524,
                -0.20202724021450535,
                0.6312789745672155,
                -2.843868144250014
            ]
        },
        {
            "positions": [
                0.4554237985922245,
                -1.881080563136647,
                2.3174977221073174,
                -0.28978322556607816,
                0.6542829612680368,
                -2.93875861724801
            ]
        },
        {
            "positions": [
                0.5802967262179823,
                -1.8949082612612966,
                2.3546540313807824,
                -0.3775392109176505,
                0.677286947968858,
                -3.0336490902460054
            ]
        },
        {
            "positions": [
                0.7051696538437405,
                -1.908735959385946,
                2.3918103406542475,
                -0.46529519626922305,
                0.7002909346696793,
                -3.128539563244001
            ]
        }
    ]
}