{
    "goal": {
        "global_pose": {
            "orientation": {
                "w": -0.00223480608172531,
                "x": 0.0024358444001904467,
                "y": 0.7094548369677653,
                "z": -0.704743149386269
            },
            "position": {
                "x": 0.6205249238014221,
                "y": -0.6371506643295288,
                "z": 0.19426114857196808
            }
        },
        "name": "move_to_magneteinheit_B"
    },
    "id": "PRMstar_move_to_magneteinheit_B_128",
    "joint_names": [
        "shoulder_pan_joint",
        "shoulder_lift_joint",
        "elbow_joint",
        "wrist_1_joint",
        "wrist_2_joint",
        "wrist_3_joint"
    ],
    "metrics": {
        "cart_traj_len": 1.9367676080843905,
        "distance_elbow_joint": 0.9544672705252333,
        "distance_shoulder_lift_joint": 2.1041463745847238,
        "distance_shoulder_pan_joint": 1.6226148422380502,
        "distance_wrist_1_joint": 2.394456788727389,
        "distance_wrist_2_joint": 1.6929349249063348,
        "distance_wrist_3_joint": 0.35697739816611956,
        "smoothness": 0.6959432161347665,
        "time": 5.0271144130000005,
        "traj_len": 3.020860407093954,
        "weighted_distance": 3.7318821135070457
    },
    "planner": "PRMstar",
    "start": {
        "state": {
            "elbow_joint": 2.6216224122426386,
            "shoulder_lift_joint": -1.4174107377796124,
            "shoulder_pan_joint": 0.7066234856936794,
            "wrist_1_joint": 1.9546482284002225,
            "wrist_2_joint": -0.7096286983471962,
            "wrist_3_joint": 0.005740856962016249
        }
    },
    "waypoints": [
        {
            "positions": [
                0.7066234856936794,
                -1.4174107377796124,
                2.6216224122426386,
                1.9546482284002225,
                -0.7096286983471962,
                0.005740856962016249
            ]
        },
        {
            "positions": [
                0.6663030546786964,
                -1.5016760602107568,
                2.5485271250225683,
                1.816635541720349,
                -0.6983816958333484,
                0.02827284116547117
            ]
        },
        {
            "positions": [
                0.6259826236637134,
                -1.5859413826419013,
                2.475431837802498,
                1.6786228550404756,
                -0.6871346933195007,
                0.050804825368926096
            ]
        },
        {
            "positions": [
                0.5856621926487304,
                -1.670206705073046,
                2.4023365505824277,
                1.5406101683606022,
                -0.6758876908056529,
                0.07333680957238102
            ]
        },
        {
            "positions": [
                0.5453417616337475,
                -1.7544720275041905,
                2.3292412633623574,
                1.4025974816807287,
                -0.6646406882918052,
                0.09586879377583594
            ]
        },
        {
            "positions": [
                0.5050213306187644,
                -1.838737349935335,
                2.2561459761422866,
                1.2645847950008553,
                -0.6533936857779574,
                0.11840077797929087
            ]
        },
        {
            "positions": [
                0.46470089960378147,
                -1.9230026723664797,
                2.1830506889222163,
                1.1265721083209819,
                -0.6421466832641096,
                0.1409327621827458
            ]
        },
        {
            "positions": [
                0.42438046858879847,
                -2.0072679947976244,
                2.109955401702146,
                0.9885594216411084,
                -0.6308996807502619,
                0.16346474638620073
            ]
        },
        {
            "positions": [
                0.38406003757381546,
                -2.0915333172287687,
                2.0368601144820757,
                0.850546734961235,
                -0.6196526782364141,
                0.18599673058965566
            ]
        },
        {
            "positions": [
                0.3028068254414288,
                -2.0021568300327957,
                2.0137535536842837,
                0.9311939409167601,
                -0.7198376097861362,
                0.17495163530600064
            ]
        },
        {
            "positions": [
                0.22155361330904216,
                -1.9127803428368226,
                1.9906469928864918,
                1.0118411468722852,
                -0.8200225413358582,
                0.16390654002234564
            ]
        },
        {
            "positions": [
                0.14030040117665551,
                -1.8234038556408498,
                1.9675404320887,
                1.0924883528278104,
                -0.9202074728855802,
                0.15286144473869062
            ]
        },
        {
            "positions": [
                0.059047189044268866,
                -1.7340273684448768,
                1.9444338712909082,
                1.1731355587833354,
                -1.0203924044353023,
                0.14181634945503563
            ]
        },
        {
            "positions": [
                -0.02220602308811781,
                -1.6446508812489038,
                1.9213273104931161,
                1.2537827647388606,
                -1.1205773359850244,
                0.1307712541713806
            ]
        },
        {
            "positions": [
                -0.10345923522050443,
                -1.555274394052931,
                1.8982207496953243,
                1.3344299706943858,
                -1.2207622675347465,
                0.11972615888772559
            ]
        },
        {
            "positions": [
                -0.18471244735289105,
                -1.465897906856958,
                1.8751141888975325,
                1.4150771766499108,
                -1.3209471990844683,
                0.10868106360407058
            ]
        },
        {
            "positions": [
                -0.26596565948527773,
                -1.376521419660985,
                1.8520076280997406,
                1.495724382605436,
                -1.4211321306341906,
                0.09763596832041557
            ]
        },
        {
            "positions": [
                -0.3472188716176644,
                -1.287144932465012,
                1.8289010673019486,
                1.5763715885609613,
                -1.5213170621839125,
                0.08659087303676057
            ]
        },
        {
            "positions": [
                -0.4284720837500511,
                -1.197768445269039,
                1.8057945065041567,
                1.6570187945164863,
                -1.6215019937336348,
                0.07554577775310556
            ]
        },
        {
            "positions": [
                -0.5097252958824376,
                -1.1083919580730661,
                1.782687945706365,
                1.7376660004720115,
                -1.7216869252833567,
                0.06450068246945054
            ]
        },
        {
            "positions": [
                -0.5909785080148243,
                -1.019015470877093,
                1.7595813849085729,
                1.8183132064275367,
                -1.8218718568330785,
                0.05345558718579552
            ]
        },
        {
            "positions": [
                -0.672231720147211,
                -0.9296389836811201,
                1.736474824110781,
                1.8989604123830617,
                -1.9220567883828008,
                0.042410491902140524
            ]
        },
        {
            "positions": [
                -0.7534849322795976,
                -0.8402624964851473,
                1.7133682633129892,
                1.979607618338587,
                -2.0222417199325227,
                0.0313653966184855
            ]
        },
        {
            "positions": [
                -0.8347381444119844,
                -0.7508860092891743,
                1.6902617025151971,
                2.0602548242941117,
                -2.122426651482245,
                0.02032030133483051
            ]
        },
        {
            "positions": [
                -0.9159913565443709,
                -0.6615095220932011,
                1.6671551417174053,
                2.140902030249637,
                -2.222611583031967,
                0.009275206051175482
            ]
        }
    ]
}