{
    "goal": {
        "global_pose": {
            "orientation": {
                "w": 0.5084816217422485,
                "x": -0.49083608388900757,
                "y": 0.5182115435600281,
                "z": -0.4816462993621826
            },
            "position": {
                "x": 0.5540239810943604,
                "y": 0.030875300988554955,
                "z": 0.16403168439865112
            }
        },
        "name": "move_to_storage_A"
    },
    "id": "PRMstar_move_to_storage_A_25",
    "joint_names": [
        "shoulder_pan_joint",
        "shoulder_lift_joint",
        "elbow_joint",
        "wrist_1_joint",
        "wrist_2_joint",
        "wrist_3_joint"
    ],
    "metrics": {
        "cart_traj_len": 0.35228077691421894,
        "distance_elbow_joint": 0.4487631552960589,
        "distance_shoulder_lift_joint": 0.23518299587108182,
        "distance_shoulder_pan_joint": 0.4617098465394174,
        "distance_wrist_1_joint": 0.24113431572535438,
        "distance_wrist_2_joint": 1.0925643347887344,
        "distance_wrist_3_joint": 0.08951252802709364,
        "smoothness": 8.881784197001252e-16,
        "time": 5.006292982000001,
        "traj_len": 1.60276859722411,
        "weighted_distance": 2.0202947514696996
    },
    "planner": "PRMstar",
    "start": {
        "state": {
            "elbow_joint": 1.971548259319323,
            "shoulder_lift_joint": -1.1394851275133948,
            "shoulder_pan_joint": 0.1228115487234821,
            "wrist_1_joint": -0.7804723859257726,
            "wrist_2_joint": 0.12958671773740124,
            "wrist_3_joint": -3.192489227718131
        }
    },
    "waypoints": [
        {
            "positions": [
                0.1228115487234821,
                -1.1394851275133948,
                1.971548259319323,
                -0.7804723859257726,
                0.12958671773740124,
                -3.192489227718131
            ]
        },
        {
            "positions": [
                0.056852999217851044,
                -1.1730826983521208,
                2.0356572815044744,
                -0.8149201453151089,
                0.28566733699293473,
                -3.1797017237142606
            ]
        },
        {
            "positions": [
                -0.009105550287780012,
                -1.2066802691908467,
                2.0997663036896257,
                -0.8493679047044453,
                0.4417479562484682,
                -3.16691421971039
            ]
        },
        {
            "positions": [
                -0.07506409979341105,
                -1.2402778400295726,
                2.163875325874777,
                -0.8838156640937816,
                0.5978285755040017,
                -3.1541267157065196
            ]
        },
        {
            "positions": [
                -0.14102264929904212,
                -1.2738754108682988,
                2.227984348059928,
                -0.918263423483118,
                0.7539091947595352,
                -3.141339211702649
            ]
        },
        {
            "positions": [
                -0.2069811988046732,
                -1.3074729817070248,
                2.2920933702450794,
                -0.9527111828724544,
                0.9099898140150687,
                -3.1285517076987786
            ]
        },
        {
            "positions": [
                -0.2729397483103042,
                -1.3410705525457507,
                2.3562023924302307,
                -0.9871589422617906,
                1.0660704332706021,
                -3.115764203694908
            ]
        },
        {
            "positions": [
                -0.3388982978159353,
                -1.3746681233844766,
                2.420311414615382,
                -1.021606701651127,
                1.2221510525261357,
                -3.1029766996910375
            ]
        }
    ]
}{
    "goal": {
        "global_pose": {
            "orientation": {
                "w": 0.5084816217422485,
                "x": -0.49083608388900757,
                "y": 0.5182115435600281,
                "z": -0.4816462993621826
            },
            "position": {
                "x": 0.5540239810943604,
                "y": 0.030875300988554955,
                "z": 0.16403168439865112
            }
        },
        "name": "move_to_storage_A"
    },
    "id": "PRMstar_move_to_storage_A_25",
    "joint_names": [
        "shoulder_pan_joint",
        "shoulder_lift_joint",
        "elbow_joint",
        "wrist_1_joint",
        "wrist_2_joint",
        "wrist_3_joint"
    ],
    "metrics": {
        "cart_traj_len": 0.35297251936381224,
        "distance_elbow_joint": 0.4497730098350998,
        "distance_shoulder_lift_joint": 0.23608148179270128,
        "distance_shoulder_pan_joint": 0.4632540801542194,
        "distance_wrist_1_joint": 0.2351892720107016,
        "distance_wrist_2_joint": 1.0925407899457997,
        "distance_wrist_3_joint": 0.08811177993890418,
        "smoothness": 4.440892098500626e-16,
        "time": 5.002522847000001,
        "traj_len": 1.601546257114488,
        "weighted_distance": 2.0171524571810964
    },
    "planner": "PRMstar",
    "start": {
        "state": {
            "elbow_joint": 1.97154746011099,
            "shoulder_lift_joint": -1.13948474672311,
            "shoulder_pan_joint": 0.12281154466712228,
            "wrist_1_joint": -0.7804688027058302,
            "wrist_2_joint": 0.12958655903071145,
            "wrist_3_joint": 3.0906928834467795
        }
    },
    "waypoints": [
        {
            "positions": [
                0.12281154466712228,
                -1.13948474672311,
                1.97154746011099,
                -0.7804688027058302,
                0.12958655903071145,
                3.0906928834467795
            ]
        },
        {
            "positions": [
                0.05663239035937666,
                -1.1732106726934959,
                2.0358007472302897,
                -0.8140672701359304,
                0.2856638147372543,
                3.1032802805809085
            ]
        },
        {
            "positions": [
                -0.009546763948368966,
                -1.2069365986638818,
                2.10005403434959,
                -0.8476657375660306,
                0.44174107044379707,
                3.115867677715038
            ]
        },
        {
            "positions": [
                -0.07572591825611459,
                -1.2406625246342677,
                2.1643073214688897,
                -0.8812642049961309,
                0.5978183261503399,
                3.128455074849167
            ]
        },
        {
            "positions": [
                -0.1419050725638602,
                -1.2743884506046534,
                2.22856060858819,
                -0.9148626724262311,
                0.7538955818568828,
                3.141042471983296
            ]
        },
        {
            "positions": [
                -0.20808422687160588,
                -1.3081143765750394,
                2.2928138957074897,
                -0.9484611398563314,
                0.9099728375634256,
                3.153629869117425
            ]
        },
        {
            "positions": [
                -0.27426338117935145,
                -1.3418403025454253,
                2.35706718282679,
                -0.9820596072864316,
                1.0660500932699684,
                3.1662172662515546
            ]
        },
        {
            "positions": [
                -0.34044253548709713,
                -1.3755662285158112,
                2.4213204699460897,
                -1.0156580747165318,
                1.2221273489765112,
                3.1788046633856837
            ]
        }
    ]
}{
    "goal": {
        "global_pose": {
            "orientation": {
                "w": 0.5084816217422485,
                "x": -0.49083608388900757,
                "y": 0.5182115435600281,
                "z": -0.4816462993621826
            },
            "position": {
                "x": 0.5540239810943604,
                "y": 0.030875300988554955,
                "z": 0.16403168439865112
            }
        },
        "name": "move_to_storage_A"
    },
    "id": "PRMstar_move_to_storage_A_25",
    "joint_names": [
        "shoulder_pan_joint",
        "shoulder_lift_joint",
        "elbow_joint",
        "wrist_1_joint",
        "wrist_2_joint",
        "wrist_3_joint"
    ],
    "metrics": {
        "cart_traj_len": 0.3525447479572678,
        "distance_elbow_joint": 0.4478509705004994,
        "distance_shoulder_lift_joint": 0.233615941322312,
        "distance_shoulder_pan_joint": 0.4564527273339251,
        "distance_wrist_1_joint": 0.23538556171721958,
        "distance_wrist_2_joint": 1.1168221542286,
        "distance_wrist_3_joint": 0.0853785804927365,
        "smoothness": 0.0,
        "time": 5.005604694,
        "traj_len": 1.6048382895467357,
        "weighted_distance": 2.0244680319843495
    },
    "planner": "PRMstar",
    "start": {
        "state": {
            "elbow_joint": 1.9715472970024885,
            "shoulder_lift_joint": -1.1394870060712896,
            "shoulder_pan_joint": 0.12281152778156021,
            "wrist_1_joint": -0.780463741449964,
            "wrist_2_joint": 0.12958659822042276,
            "wrist_3_joint": 3.090690232415272
        }
    },
    "waypoints": [
        {
            "positions": [
                0.12281152778156021,
                -1.1394870060712896,
                1.9715472970024885,
                -0.780463741449964,
                0.12958659822042276,
                3.090690232415272
            ]
        },
        {
            "positions": [
                0.057603995305285205,
                -1.172860711974477,
                2.0355260070739885,
                -0.8140902502667097,
                0.2891326202530799,
                3.1028871724856626
            ]
        },
        {
            "positions": [
                -0.007603537170989799,
                -1.2062344178776645,
                2.0995047171454884,
                -0.8477167590834553,
                0.44867864228573706,
                3.1150841125560538
            ]
        },
        {
            "positions": [
                -0.0728110696472648,
                -1.2396081237808518,
                2.1634834272169883,
                -0.8813432679002009,
                0.6082246643183942,
                3.1272810526264445
            ]
        },
        {
            "positions": [
                -0.1380186021235398,
                -1.2729818296840394,
                2.227462137288488,
                -0.9149697767169466,
                0.7677706863510513,
                3.1394779926968357
            ]
        },
        {
            "positions": [
                -0.20322613459981484,
                -1.3063555355872267,
                2.291440847359988,
                -0.9485962855336922,
                0.9273167083837085,
                3.1516749327672264
            ]
        },
        {
            "positions": [
                -0.26843366707608984,
                -1.339729241490414,
                2.355419557431488,
                -0.9822227943504379,
                1.0868627304163656,
                3.1638718728376176
            ]
        },
        {
            "positions": [
                -0.3336411995523649,
                -1.3731029473936016,
                2.419398267502988,
                -1.0158493031671836,
                1.2464087524490228,
                3.1760688129080084
            ]
        }
    ]
}