{
    "goal": {
        "global_pose": {
            "orientation": {
                "w": -0.4816463035849501,
                "x": 0.5182115481033762,
                "y": 0.4908360881923453,
                "z": -0.5084816262002911
            },
            "position": {
                "x": -0.8240239810943604,
                "y": 0.19912469901144506,
                "z": 0.16403168439865112
            }
        },
        "name": "move_to_storage_D"
    },
    "id": "PRMstar_move_to_storage_D_92",
    "joint_names": [
        "shoulder_pan_joint",
        "shoulder_lift_joint",
        "elbow_joint",
        "wrist_1_joint",
        "wrist_2_joint",
        "wrist_3_joint"
    ],
    "metrics": {
        "cart_traj_len": 3.8710478040089265,
        "distance_elbow_joint": 4.212193572516847,
        "distance_shoulder_lift_joint": 1.262760476607356,
        "distance_shoulder_pan_joint": 2.8136551620728234,
        "distance_wrist_1_joint": 2.2712405138994134,
        "distance_wrist_2_joint": 0.8813077105887638,
        "distance_wrist_3_joint": 3.1367145309335798,
        "smoothness": 4.099285033612797e-16,
        "time": 5.046152301,
        "traj_len": 3.818097951417536,
        "weighted_distance": 4.899372332551805
    },
    "planner": "PRMstar",
    "start": {
        "state": {
            "elbow_joint": -2.384821988534728,
            "shoulder_lift_joint": -2.2788054721415256,
            "shoulder_pan_joint": -0.1854694642142757,
            "wrist_1_joint": 1.4845938289331202,
            "wrist_2_joint": 0.17898776772866878,
            "wrist_3_joint": 0.037105688729662994
        }
    },
    "waypoints": [
        {
            "positions": [
                -0.1854694642142757,
                -2.2788054721415256,
                -2.384821988534728,
                1.4845938289331202,
                0.17898776772866878,
                0.037105688729662994
            ]
        },
        {
            "positions": [
                -0.08750159767259126,
                -2.2554793718067407,
                -2.2639946107219435,
                1.4513316411173245,
                0.21207765004725554,
                0.1022942636795709
            ]
        },
        {
            "positions": [
                0.010466268869093187,
                -2.2321532714719554,
                -2.143167232909159,
                1.4180694533015286,
                0.2451675323658423,
                0.1674828386294788
            ]
        },
        {
            "positions": [
                0.10843413541077765,
                -2.2088271711371705,
                -2.0223398550963747,
                1.3848072654857329,
                0.27825741468442905,
                0.23267141357938673
            ]
        },
        {
            "positions": [
                0.18303862834452678,
                -2.1753448857725814,
                -1.9106529043099432,
                1.3245849791323394,
                0.3016254221621614,
                0.315841874626868
            ]
        },
        {
            "positions": [
                0.2576431212782759,
                -2.1418626004079924,
                -1.7989659535235116,
                1.2643626927789458,
                0.3249934296398938,
                0.39901233567434935
            ]
        },
        {
            "positions": [
                0.332247614212025,
                -2.1083803150434037,
                -1.68727900273708,
                1.2041404064255523,
                0.3483614371176262,
                0.4821827967218306
            ]
        },
        {
            "positions": [
                0.40685210714577413,
                -2.0748980296788146,
                -1.5755920519506486,
                1.1439181200721587,
                0.37172944459535856,
                0.5653532577693119
            ]
        },
        {
            "positions": [
                0.4814566000795233,
                -2.0414157443142256,
                -1.463905101164217,
                1.0836958337187652,
                0.39509745207309094,
                0.6485237188167932
            ]
        },
        {
            "positions": [
                0.5560610930132723,
                -2.0079334589496365,
                -1.3522181503777853,
                1.0234735473653718,
                0.41846545955082326,
                0.7316941798642744
            ]
        },
        {
            "positions": [
                0.6306655859470215,
                -1.9744511735850476,
                -1.2405311995913537,
                0.9632512610119781,
                0.44183346702855564,
                0.8148646409117557
            ]
        },
        {
            "positions": [
                0.7052700788807705,
                -1.9409688882204588,
                -1.1288442488049222,
                0.9030289746585846,
                0.465201474506288,
                0.8980351019592371
            ]
        },
        {
            "positions": [
                0.7798745718145197,
                -1.9074866028558697,
                -1.0171572980184906,
                0.8428066883051911,
                0.4885694819840204,
                0.9812055630067182
            ]
        },
        {
            "positions": [
                0.8544790647482688,
                -1.8740043174912806,
                -0.9054703472320591,
                0.7825844019517975,
                0.5119374894617528,
                1.0643760240541997
            ]
        },
        {
            "positions": [
                0.9290835576820179,
                -1.8405220321266917,
                -0.7937833964456276,
                0.722362115598404,
                0.5353054969394851,
                1.147546485101681
            ]
        },
        {
            "positions": [
                1.003688050615767,
                -1.8070397467621029,
                -0.6820964456591958,
                0.6621398292450105,
                0.5586735044172175,
                1.2307169461491623
            ]
        },
        {
            "positions": [
                1.078292543549516,
                -1.7735574613975138,
                -0.5704094948727645,
                0.6019175428916169,
                0.5820415118949499,
                1.3138874071966435
            ]
        },
        {
            "positions": [
                1.1528970364832654,
                -1.7400751760329247,
                -0.45872254408633273,
                0.5416952565382234,
                0.6054095193726823,
                1.3970578682441248
            ]
        },
        {
            "positions": [
                1.2275015294170144,
                -1.7065928906683359,
                -0.3470355932999012,
                0.48147297018482993,
                0.6287775268504147,
                1.480228329291606
            ]
        },
        {
            "positions": [
                1.3021060223507634,
                -1.6731106053037468,
                -0.23534864251346965,
                0.42125068383143627,
                0.652145534328147,
                1.5633987903390876
            ]
        },
        {
            "positions": [
                1.3767105152845127,
                -1.639628319939158,
                -0.12366169172703811,
                0.36102839747804283,
                0.6755135418058794,
                1.6465692513865686
            ]
        },
        {
            "positions": [
                1.4513150082182618,
                -1.6061460345745688,
                -0.011974740940606576,
                0.3008061111246494,
                0.6988815492836118,
                1.72973971243405
            ]
        },
        {
            "positions": [
                1.525919501152011,
                -1.5726637492099798,
                0.0997122098458254,
                0.24058382477125573,
                0.7222495567613442,
                1.8129101734815314
            ]
        },
        {
            "positions": [
                1.60052399408576,
                -1.539181463845391,
                0.2113991606322565,
                0.18036153841786207,
                0.7456175642390765,
                1.8960806345290127
            ]
        },
        {
            "positions": [
                1.6751284870195091,
                -1.505699178480802,
                0.32308611141868804,
                0.12013925206446863,
                0.7689855717168089,
                1.979251095576494
            ]
        },
        {
            "positions": [
                1.7497329799532582,
                -1.472216893116213,
                0.4347730622051196,
                0.05991696571107519,
                0.7923535791945413,
                2.062421556623975
            ]
        },
        {
            "positions": [
                1.8243374728870074,
                -1.4387346077516239,
                0.5464600129915516,
                -0.000305320642318474,
                0.8157215866722738,
                2.1455920176714565
            ]
        },
        {
            "positions": [
                1.8989419658207565,
                -1.405252322387035,
                0.6581469637779831,
                -0.06052760699571191,
                0.8390895941500061,
                2.2287624787189375
            ]
        },
        {
            "positions": [
                1.9735464587545055,
                -1.3717700370224462,
                0.7698339145644142,
                -0.12074989334910557,
                0.8624576016277383,
                2.311932939766419
            ]
        },
        {
            "positions": [
                2.0481509516882546,
                -1.338287751657857,
                0.8815208653508457,
                -0.18097217970249901,
                0.8858256091054708,
                2.3951034008139
            ]
        },
        {
            "positions": [
                2.122755444622004,
                -1.304805466293268,
                0.9932078161372777,
                -0.24119446605589268,
                0.9091936165832033,
                2.4782738618613815
            ]
        },
        {
            "positions": [
                2.197359937555753,
                -1.271323180928679,
                1.1048947669237092,
                -0.3014167524092861,
                0.9325616240609356,
                2.5614443229088626
            ]
        },
        {
            "positions": [
                2.271964430489502,
                -1.23784089556409,
                1.2165817177101408,
                -0.36163903876267955,
                0.9559296315386678,
                2.644614783956344
            ]
        },
        {
            "positions": [
                2.346568923423251,
                -1.2043586101995012,
                1.3282686684965723,
                -0.421861325116073,
                0.9792976390164003,
                2.727785245003825
            ]
        },
        {
            "positions": [
                2.4211734163570005,
                -1.170876324834912,
                1.4399556192830039,
                -0.4820836114694669,
                1.0026656464941326,
                2.8109557060513066
            ]
        },
        {
            "positions": [
                2.4957779092907493,
                -1.137394039470323,
                1.5516425700694354,
                -0.5423058978228603,
                1.026033653971865,
                2.894126167098788
            ]
        },
        {
            "positions": [
                2.5703824022244985,
                -1.1039117541057342,
                1.663329520855867,
                -0.6025281841762538,
                1.0494016614495973,
                2.977296628146269
            ]
        },
        {
            "positions": [
                2.5992840500415237,
                -1.059978374819952,
                1.7453505524189934,
                -0.6945874345712735,
                1.0548485698835148,
                3.0755584239047558
            ]
        },
        {
            "positions": [
                2.6281856978585485,
                -1.0160449955341697,
                1.82737158398212,
                -0.7866466849662931,
                1.0602954783174325,
                3.173820219663243
            ]
        }
    ]
}