{
    "goal": {
        "global_pose": {
            "orientation": {
                "w": 0.7031023480610252,
                "x": -0.7110244013736278,
                "y": 0.0077485991402295624,
                "z": 0.005598929693374583
            },
            "position": {
                "x": -0.8841497679147869,
                "y": 0.44412534475326537,
                "z": 0.3711530566215515
            }
        },
        "name": "move_to_auspresseinheit_D"
    },
    "id": "PRMstar_move_to_auspresseinheit_D_133",
    "joint_names": [
        "shoulder_pan_joint",
        "shoulder_lift_joint",
        "elbow_joint",
        "wrist_1_joint",
        "wrist_2_joint",
        "wrist_3_joint"
    ],
    "metrics": {
        "cart_traj_len": 0.34334820741621497,
        "distance_elbow_joint": 0.6401067404446978,
        "distance_shoulder_lift_joint": 0.12262449859099522,
        "distance_shoulder_pan_joint": 0.13471483976818002,
        "distance_wrist_1_joint": 0.5414539161387912,
        "distance_wrist_2_joint": 1.434810158886843,
        "distance_wrist_3_joint": 0.006413204426477304,
        "smoothness": 0.0,
        "time": 5.00911858,
        "traj_len": 1.6970926192332534,
        "weighted_distance": 2.2066295208155293
    },
    "planner": "PRMstar",
    "start": {
        "state": {
            "elbow_joint": -1.8275523626775212,
            "shoulder_lift_joint": -2.126789852344167,
            "shoulder_pan_joint": -0.03513704404078235,
            "wrist_1_joint": -2.347782403156801,
            "wrist_2_joint": -1.6058999987535132,
            "wrist_3_joint": -3.0880379163319196
        }
    },
    "waypoints": [
        {
            "positions": [
                -0.03513704404078235,
                -2.126789852344167,
                -1.8275523626775212,
                -2.347782403156801,
                -1.6058999987535132,
                -3.0880379163319196
            ]
        },
        {
            "positions": [
                -0.051976399011804855,
                -2.142117914668041,
                -1.747539020121934,
                -2.41546414267415,
                -1.4265487288926577,
                -3.08723626577861
            ]
        },
        {
            "positions": [
                -0.06881575398282735,
                -2.157445976991916,
                -1.6675256775663467,
                -2.483145882191499,
                -1.2471974590318025,
                -3.0864346152253
            ]
        },
        {
            "positions": [
                -0.08565510895384987,
                -2.17277403931579,
                -1.5875123350107594,
                -2.5508276217088475,
                -1.0678461891709472,
                -3.0856329646719907
            ]
        },
        {
            "positions": [
                -0.10249446392487235,
                -2.1881021016396645,
                -1.5074989924551723,
                -2.6185093612261965,
                -0.8884949193100917,
                -3.0848313141186807
            ]
        },
        {
            "positions": [
                -0.11933381889589487,
                -2.2034301639635387,
                -1.4274856498995852,
                -2.6861911007435455,
                -0.7091436494492364,
                -3.0840296635653712
            ]
        },
        {
            "positions": [
                -0.13617317386691738,
                -2.218758226287413,
                -1.3474723073439978,
                -2.753872840260894,
                -0.529792379588381,
                -3.0832280130120617
            ]
        },
        {
            "positions": [
                -0.15301252883793987,
                -2.2340862886112878,
                -1.2674589647884105,
                -2.821554579778243,
                -0.35044110972752573,
                -3.082426362458752
            ]
        },
        {
            "positions": [
                -0.16985188380896238,
                -2.249414350935162,
                -1.1874456222328234,
                -2.889236319295592,
                -0.17108983986667023,
                -3.0816247119054423
            ]
        }
    ]
}