{
    "goal": {
        "global_pose": {
            "orientation": {
                "w": 0.7047431493862688,
                "x": -0.7094548369677653,
                "y": 0.0024358444001904,
                "z": -0.0022348060817251984
            },
            "position": {
                "x": -0.39052492380142206,
                "y": 0.3671506643295288,
                "z": 0.19426114857196808
            }
        },
        "name": "move_to_magneteinheit_D"
    },
    "id": "PRMstar_move_to_magneteinheit_D_16",
    "joint_names": [
        "shoulder_pan_joint",
        "shoulder_lift_joint",
        "elbow_joint",
        "wrist_1_joint",
        "wrist_2_joint",
        "wrist_3_joint"
    ],
    "metrics": {
        "cart_traj_len": 3.564653808794007,
        "distance_elbow_joint": 3.1152564921821293,
        "distance_shoulder_lift_joint": 2.3596871417676857,
        "distance_shoulder_pan_joint": 3.884570488105322,
        "distance_wrist_1_joint": 2.097803093890668,
        "distance_wrist_2_joint": 2.4060401077851337,
        "distance_wrist_3_joint": 6.2767744441568,
        "smoothness": 0.290817324834655,
        "time": 5.058925942,
        "traj_len": 4.487775815243865,
        "weighted_distance": 6.098977279665594
    },
    "planner": "PRMstar",
    "start": {
        "state": {
            "elbow_joint": 0.749534889911806,
            "shoulder_lift_joint": -0.6476975780787326,
            "shoulder_pan_joint": -2.711696901376241,
            "wrist_1_joint": -0.07506478083263063,
            "wrist_2_joint": 0.43296659715538205,
            "wrist_3_joint": -3.14703540197715
        }
    },
    "waypoints": [
        {
            "positions": [
                -2.711696901376241,
                -0.6476975780787326,
                0.749534889911806,
                -0.07506478083263063,
                0.43296659715538205,
                -3.14703540197715
            ]
        },
        {
            "positions": [
                -2.6409869898720686,
                -0.5627070498063762,
                0.6517257378378158,
                -0.0689636589239018,
                0.5168162576885826,
                -3.1440131042720907
            ]
        },
        {
            "positions": [
                -2.5060069862410543,
                -0.5909449239735944,
                0.5705863918591555,
                -0.08164593739333853,
                0.49734461104575745,
                -3.1298214621531937
            ]
        },
        {
            "positions": [
                -2.469674063565052,
                -0.6023472104264177,
                0.40421521171184716,
                -0.18978785848867571,
                0.5379730894543873,
                -3.1045199747066876
            ]
        },
        {
            "positions": [
                -2.4333411408890493,
                -0.6137494968792409,
                0.23784403156453876,
                -0.2979297795840129,
                0.5786015678630172,
                -3.079218487260182
            ]
        },
        {
            "positions": [
                -2.397008218213047,
                -0.6251517833320641,
                0.07147285141723037,
                -0.4060717006793501,
                0.6192300462716471,
                -3.053916999813676
            ]
        },
        {
            "positions": [
                -2.3606752955370447,
                -0.6365540697848874,
                -0.09489832873007797,
                -0.5142136217746873,
                0.659858524680277,
                -3.02861551236717
            ]
        },
        {
            "positions": [
                -2.324342372861042,
                -0.6479563562377105,
                -0.2612695088773864,
                -0.6223555428700245,
                0.7004870030889068,
                -3.0033140249206642
            ]
        },
        {
            "positions": [
                -2.2880094501850397,
                -0.6593586426905338,
                -0.42764068902469476,
                -0.7304974639653616,
                0.7411154814975367,
                -2.978012537474158
            ]
        },
        {
            "positions": [
                -2.251676527509037,
                -0.670760929143357,
                -0.5940118691720032,
                -0.838639385060699,
                0.7817439599061666,
                -2.952711050027652
            ]
        },
        {
            "positions": [
                -2.2153436048330346,
                -0.6821632155961802,
                -0.7603830493193114,
                -0.946781306156036,
                0.8223724383147965,
                -2.9274095625811465
            ]
        },
        {
            "positions": [
                -2.179010682157032,
                -0.6935655020490035,
                -0.9267542294666199,
                -1.0549232272513733,
                0.8630009167234263,
                -2.9021080751346404
            ]
        },
        {
            "positions": [
                -2.14267775948103,
                -0.7049677885018267,
                -1.0931254096139282,
                -1.1630651483467105,
                0.9036293951320562,
                -2.8768065876881344
            ]
        },
        {
            "positions": [
                -2.1063448368050275,
                -0.7163700749546499,
                -1.2594965897612367,
                -1.2712070694420476,
                0.9442578735406861,
                -2.8515051002416287
            ]
        },
        {
            "positions": [
                -2.070011914129025,
                -0.7277723614074731,
                -1.425867769908545,
                -1.3793489905373848,
                0.984886351949316,
                -2.8262036127951227
            ]
        },
        {
            "positions": [
                -1.9350496457499489,
                -0.6989899958427725,
                -1.4580706078824226,
                -1.4057023234459654,
                1.0022868087310228,
                -2.680248248368034
            ]
        },
        {
            "positions": [
                -1.800087377370873,
                -0.670207630278072,
                -1.4902734458563003,
                -1.4320556563545457,
                1.0196872655127298,
                -2.534292883940945
            ]
        },
        {
            "positions": [
                -1.665125108991797,
                -0.6414252647133712,
                -1.5224762838301777,
                -1.4584089892631262,
                1.0370877222944366,
                -2.3883375195138563
            ]
        },
        {
            "positions": [
                -1.530162840612721,
                -0.6126428991486706,
                -1.5546791218040554,
                -1.4847623221717066,
                1.0544881790761433,
                -2.2423821550867675
            ]
        },
        {
            "positions": [
                -1.3952005722336451,
                -0.58386053358397,
                -1.5868819597779331,
                -1.5111156550802871,
                1.0718886358578503,
                -2.0964267906596787
            ]
        },
        {
            "positions": [
                -1.2602383038545693,
                -0.5550781680192693,
                -1.6190847977518108,
                -1.5374689879888677,
                1.0892890926395573,
                -1.9504714262325902
            ]
        },
        {
            "positions": [
                -1.1252760354754932,
                -0.5262958024545688,
                -1.6512876357256885,
                -1.563822320897448,
                1.106689549421264,
                -1.8045160618055014
            ]
        },
        {
            "positions": [
                -0.990313767096417,
                -0.49751343688986815,
                -1.6834904736995662,
                -1.5901756538060285,
                1.1240900062029708,
                -1.6585606973784126
            ]
        },
        {
            "positions": [
                -0.8553514987173412,
                -0.46873107132516756,
                -1.7156933116734439,
                -1.616528986714609,
                1.1414904629846778,
                -1.5126053329513238
            ]
        },
        {
            "positions": [
                -0.7203892303382653,
                -0.4399487057604669,
                -1.7478961496473213,
                -1.6428823196231894,
                1.1588909197663848,
                -1.366649968524235
            ]
        },
        {
            "positions": [
                -0.5854269619591892,
                -0.41116634019576626,
                -1.780098987621199,
                -1.66923565253177,
                1.1762913765480916,
                -1.2206946040971463
            ]
        },
        {
            "positions": [
                -0.4504646935801133,
                -0.38238397463106566,
                -1.8123018255950767,
                -1.6955889854403505,
                1.1936918333297983,
                -1.0747392396700577
            ]
        },
        {
            "positions": [
                -0.3155024252010372,
                -0.353601609066365,
                -1.8445046635689544,
                -1.7219423183489309,
                1.2110922901115053,
                -0.9287838752429687
            ]
        },
        {
            "positions": [
                -0.18054015682196134,
                -0.3248192435016644,
                -1.876707501542832,
                -1.7482956512575114,
                1.2284927468932123,
                -0.7828285108158801
            ]
        },
        {
            "positions": [
                -0.04557788844288524,
                -0.29603687793696376,
                -1.9089103395167097,
                -1.7746489841660917,
                1.245893203674919,
                -0.6368731463887913
            ]
        },
        {
            "positions": [
                0.08938437993619086,
                -0.26725451237226316,
                -1.9411131774905872,
                -1.8010023170746723,
                1.2632936604566258,
                -0.49091778196170255
            ]
        },
        {
            "positions": [
                0.22434664831526696,
                -0.2384721468075625,
                -1.973316015464465,
                -1.8273556499832528,
                1.2806941172383328,
                -0.34496241753461376
            ]
        },
        {
            "positions": [
                0.3593089166943426,
                -0.20968978124286197,
                -2.0055188534383426,
                -1.8537089828918332,
                1.2980945740200398,
                -0.19900705310752498
            ]
        },
        {
            "positions": [
                0.4942711850734188,
                -0.18090741567816127,
                -2.0377216914122203,
                -1.8800623158004137,
                1.3154950308017466,
                -0.05305168868043621
            ]
        },
        {
            "positions": [
                0.4585552691968051,
                -0.2631582765289465,
                -2.0549848446152783,
                -1.8948309113322783,
                1.2373598528621088,
                0.11446361294377873
            ]
        },
        {
            "positions": [
                0.4228393533201914,
                -0.34540913737973183,
                -2.0722479978183364,
                -1.909599506864143,
                1.1592246749224708,
                0.2819789145679937
            ]
        },
        {
            "positions": [
                0.38712343744357774,
                -0.42765999823051715,
                -2.0895111510213944,
                -1.9243681023960075,
                1.081089496982833,
                0.44949421619220864
            ]
        },
        {
            "positions": [
                0.3514075215669641,
                -0.5099108590813024,
                -2.1067743042244524,
                -1.9391366979278721,
                1.0029543190431953,
                0.6170095178164235
            ]
        },
        {
            "positions": [
                0.31569160569035043,
                -0.5921617199320877,
                -2.12403745742751,
                -1.9539052934597367,
                0.9248191411035573,
                0.7845248194406385
            ]
        },
        {
            "positions": [
                0.27997568981373677,
                -0.6744125807828729,
                -2.141300610630568,
                -1.9686738889916013,
                0.8466839631639195,
                0.9520401210648535
            ]
        },
        {
            "positions": [
                0.24425977393712306,
                -0.7566634416336583,
                -2.158563763833626,
                -1.983442484523466,
                0.7685487852242816,
                1.1195554226890683
            ]
        },
        {
            "positions": [
                0.2085438580605094,
                -0.8389143024844435,
                -2.175826917036684,
                -1.9982110800553305,
                0.6904136072846438,
                1.2870707243132833
            ]
        },
        {
            "positions": [
                0.17282794218389574,
                -0.9211651633352288,
                -2.1930900702397422,
                -2.012979675587195,
                0.612278429345006,
                1.454586025937498
            ]
        },
        {
            "positions": [
                0.1371120263072821,
                -1.0034160241860142,
                -2.2103532234428003,
                -2.0277482711190595,
                0.5341432514053681,
                1.622101327561713
            ]
        },
        {
            "positions": [
                0.10139611043066837,
                -1.0856668850367996,
                -2.2276163766458583,
                -2.0425168666509244,
                0.45600807346573013,
                1.7896166291859281
            ]
        },
        {
            "positions": [
                0.06568019455405472,
                -1.1679177458875847,
                -2.2448795298489164,
                -2.057285462182789,
                0.3778728955260924,
                1.9571319308101431
            ]
        },
        {
            "positions": [
                0.029964278677441003,
                -1.2501686067383702,
                -2.2621426830519744,
                -2.0720540577146536,
                0.2997377175864544,
                2.124647232434358
            ]
        },
        {
            "positions": [
                -0.0057516371991726545,
                -1.3324194675891552,
                -2.279405836255032,
                -2.086822653246518,
                0.22160253964681664,
                2.2921625340585727
            ]
        },
        {
            "positions": [
                -0.04146755307578637,
                -1.4146703284399407,
                -2.29666898945809,
                -2.1015912487783828,
                0.1434673617071789,
                2.459677835682788
            ]
        },
        {
            "positions": [
                -0.07718346895239997,
                -1.4969211892907257,
                -2.313932142661148,
                -2.1163598443102476,
                0.06533218376754113,
                2.6271931373070028
            ]
        },
        {
            "positions": [
                -0.11289938482901368,
                -1.5791720501415112,
                -2.331195295864206,
                -2.131128439842112,
                -0.012802994172096849,
                2.7947084389312176
            ]
        },
        {
            "positions": [
                -0.14861530070562728,
                -1.6614229109922962,
                -2.348458449067264,
                -2.1458970353739764,
                -0.0909381721117346,
                2.9622237405554324
            ]
        },
        {
            "positions": [
                -0.18433121658224105,
                -1.743673771843082,
                -2.3657216022703222,
                -2.160665630905841,
                -0.16907335005137258,
                3.1297390421796476
            ]
        }
    ]
}