{
    "goal": {
        "global_pose": {
            "orientation": {
                "w": 0.005598929693374612,
                "x": 0.007748599140229565,
                "y": 0.7110244013736278,
                "z": -0.7031023480610252
            },
            "position": {
                "x": 0.1141497679147869,
                "y": -0.7141253447532654,
                "z": 0.3711530566215515
            }
        },
        "name": "move_to_auspresseinheit_B"
    },
    "id": "PRMstar_move_to_auspresseinheit_B_19",
    "joint_names": [
        "shoulder_pan_joint",
        "shoulder_lift_joint",
        "elbow_joint",
        "wrist_1_joint",
        "wrist_2_joint",
        "wrist_3_joint"
    ],
    "metrics": {
        "cart_traj_len": 0.5641970520931722,
        "distance_elbow_joint": 0.06346663095529315,
        "distance_shoulder_lift_joint": 0.2933952684049439,
        "distance_shoulder_pan_joint": 0.5756909833154296,
        "distance_wrist_1_joint": 0.3262915520968501,
        "distance_wrist_2_joint": 0.9955728380334354,
        "distance_wrist_3_joint": 0.0028485165047205108,
        "smoothness": 0.0,
        "time": 5.004839895,
        "traj_len": 1.502419977672912,
        "weighted_distance": 1.8933639936500322
    },
    "planner": "PRMstar",
    "start": {
        "state": {
            "elbow_joint": 2.0193083361928714,
            "shoulder_lift_joint": -1.1220246554650708,
            "shoulder_pan_joint": -1.0952077554168747,
            "wrist_1_joint": -0.8559753972642168,
            "wrist_2_joint": 0.4759566250798843,
            "wrist_3_joint": -3.1240929996934557
        }
    },
    "waypoints": [
        {
            "positions": [
                -1.0952077554168747,
                -1.1220246554650708,
                2.0193083361928714,
                -0.8559753972642168,
                0.4759566250798843,
                -3.1240929996934557
            ]
        },
        {
            "positions": [
                -1.1911562526361128,
                -1.1709238668658948,
                2.008730564366989,
                -0.8015934719147417,
                0.6418854314187902,
                -3.1245677524442423
            ]
        },
        {
            "positions": [
                -1.2871047498553512,
                -1.2198230782667188,
                1.9981527925411071,
                -0.7472115465652668,
                0.807814237757696,
                -3.125042505195029
            ]
        },
        {
            "positions": [
                -1.3830532470745895,
                -1.2687222896675427,
                1.9875750207152247,
                -0.6928296212157917,
                0.973743044096602,
                -3.125517257945816
            ]
        },
        {
            "positions": [
                -1.4790017442938277,
                -1.3176215010683667,
                1.9769972488893426,
                -0.6384476958663168,
                1.139671850435508,
                -3.125992010696603
            ]
        },
        {
            "positions": [
                -1.5749502415130658,
                -1.3665207124691907,
                1.9664194770634604,
                -0.5840657705168417,
                1.3056006567744138,
                -3.1264667634473895
            ]
        },
        {
            "positions": [
                -1.6708987387323042,
                -1.4154199238700147,
                1.9558417052375783,
                -0.5296838451673667,
                1.4715294631133198,
                -3.126941516198176
            ]
        }
    ]
}