{
    "goal": {
        "global_pose": {
            "orientation": {
                "w": -0.4816463035849501,
                "x": 0.5182115481033762,
                "y": 0.4908360881923453,
                "z": -0.5084816262002911
            },
            "position": {
                "x": -0.8240239810943604,
                "y": -0.300875300988555,
                "z": 0.16403168439865112
            }
        },
        "name": "move_to_storage_C"
    },
    "id": "PRMstar_move_to_storage_C_49",
    "joint_names": [
        "shoulder_pan_joint",
        "shoulder_lift_joint",
        "elbow_joint",
        "wrist_1_joint",
        "wrist_2_joint",
        "wrist_3_joint"
    ],
    "metrics": {
        "cart_traj_len": 0.5761472482987158,
        "distance_elbow_joint": 0.25488517023245216,
        "distance_shoulder_lift_joint": 0.18956440493166482,
        "distance_shoulder_pan_joint": 0.49492566112406555,
        "distance_wrist_1_joint": 0.06578810869290608,
        "distance_wrist_2_joint": 1.0612039038404157,
        "distance_wrist_3_joint": 0.06842868831240834,
        "smoothness": 0.0,
        "time": 5.011380161,
        "traj_len": 1.461094089076372,
        "weighted_distance": 1.8435415173768264
    },
    "planner": "PRMstar",
    "start": {
        "state": {
            "elbow_joint": 2.010868314990456,
            "shoulder_lift_joint": -1.1634956873337592,
            "shoulder_pan_joint": -2.4736205022346125,
            "wrist_1_joint": -0.8367026794202681,
            "wrist_2_joint": 0.6746043897044499,
            "wrist_3_joint": -3.1496632123970403
        }
    },
    "waypoints": [
        {
            "positions": [
                -2.4736205022346125,
                -1.1634956873337592,
                2.010868314990456,
                -0.8367026794202681,
                0.6746043897044499,
                -3.1496632123970403
            ]
        },
        {
            "positions": [
                -2.5561081124219567,
                -1.1319016198451484,
                1.9683874532850472,
                -0.8257379946381171,
                0.8514717070111859,
                -3.138258431011639
            ]
        },
        {
            "positions": [
                -2.638595722609301,
                -1.1003075523565375,
                1.9259065915796385,
                -0.8147733098559661,
                1.0283390243179218,
                -3.1268536496262374
            ]
        },
        {
            "positions": [
                -2.7210833327966455,
                -1.0687134848679267,
                1.8834257298742298,
                -0.803808625073815,
                1.205206341624658,
                -3.1154488682408363
            ]
        },
        {
            "positions": [
                -2.8035709429839897,
                -1.037119417379316,
                1.840944868168821,
                -0.792843940291664,
                1.3820736589313936,
                -3.104044086855435
            ]
        },
        {
            "positions": [
                -2.886058553171334,
                -1.005525349890705,
                1.7984640064634123,
                -0.7818792555095131,
                1.5589409762381297,
                -3.0926393054700334
            ]
        },
        {
            "positions": [
                -2.968546163358678,
                -0.9739312824020944,
                1.7559831447580037,
                -0.770914570727362,
                1.7358082935448658,
                -3.081234524084632
            ]
        }
    ]
}