{
    "goal": {
        "global_pose": {
            "orientation": {
                "w": -0.00223480608172531,
                "x": 0.0024358444001904467,
                "y": 0.7094548369677653,
                "z": -0.704743149386269
            },
            "position": {
                "x": -0.37947507619857795,
                "y": -0.6371506643295288,
                "z": 0.19426114857196808
            }
        },
        "name": "move_to_magneteinheit_C"
    },
    "id": "PRMstar_move_to_magneteinheit_C_118",
    "joint_names": [
        "shoulder_pan_joint",
        "shoulder_lift_joint",
        "elbow_joint",
        "wrist_1_joint",
        "wrist_2_joint",
        "wrist_3_joint"
    ],
    "metrics": {
        "cart_traj_len": 5.2243090060656865,
        "distance_elbow_joint": 1.5594974038309872,
        "distance_shoulder_lift_joint": 3.6482860238346326,
        "distance_shoulder_pan_joint": 9.024597785572087,
        "distance_wrist_1_joint": 4.79702737312445,
        "distance_wrist_2_joint": 4.74221142354185,
        "distance_wrist_3_joint": 2.4469561468802015,
        "smoothness": 0.5244249128101728,
        "time": 5.228932324,
        "traj_len": 5.120407811569719,
        "weighted_distance": 6.3758707050261725
    },
    "planner": "PRMstar",
    "start": {
        "state": {
            "elbow_joint": 1.9565354010623817,
            "shoulder_lift_joint": -1.4165861575791021,
            "shoulder_pan_joint": -1.6717766225146293,
            "wrist_1_joint": -0.5286633292919765,
            "wrist_2_joint": 1.472756589071564,
            "wrist_3_joint": -3.1238370188695823
        }
    },
    "waypoints": [
        {
            "positions": [
                -1.6717766225146293,
                -1.4165861575791021,
                1.9565354010623817,
                -0.5286633292919765,
                1.472756589071564,
                -3.1238370188695823
            ]
        },
        {
            "positions": [
                -1.5471884959512876,
                -1.468016280911177,
                1.9809270118407667,
                -0.46047023598493686,
                1.388796948919875,
                -3.087177492039936
            ]
        },
        {
            "positions": [
                -1.4226003693879459,
                -1.5194464042432518,
                2.0053186226191517,
                -0.3922771426778972,
                1.3048373087681862,
                -3.0505179652102896
            ]
        },
        {
            "positions": [
                -1.2980122428246041,
                -1.5708765275753267,
                2.0297102333975365,
                -0.3240840493708576,
                1.2208776686164975,
                -3.0138584383806433
            ]
        },
        {
            "positions": [
                -1.1734241162612624,
                -1.6223066509074013,
                2.0541018441759213,
                -0.25589095606381795,
                1.1369180284648084,
                -2.977198911550997
            ]
        },
        {
            "positions": [
                -1.0488359896979207,
                -1.6737367742394762,
                2.078493454954306,
                -0.18769786275677836,
                1.0529583883131197,
                -2.94053938472135
            ]
        },
        {
            "positions": [
                -0.9242478631345791,
                -1.725166897571551,
                2.1028850657326914,
                -0.11950476944973876,
                0.9689987481614308,
                -2.9038798578917038
            ]
        },
        {
            "positions": [
                -0.7996597365712373,
                -1.776597020903626,
                2.127276676511076,
                -0.0513116761426991,
                0.885039108009742,
                -2.8672203310620574
            ]
        },
        {
            "positions": [
                -0.6750716100078956,
                -1.8280271442357008,
                2.151668287289461,
                0.01688141716434055,
                0.8010794678580531,
                -2.830560804232411
            ]
        },
        {
            "positions": [
                -0.550483483444554,
                -1.8794572675677754,
                2.176059898067846,
                0.08507451047138004,
                0.7171198277063643,
                -2.7939012774027647
            ]
        },
        {
            "positions": [
                -0.42589535688121205,
                -1.9308873908998503,
                2.200451508846231,
                0.15326760377841975,
                0.6331601875546754,
                -2.7572417505731184
            ]
        },
        {
            "positions": [
                -0.30130723031787054,
                -1.9823175142319251,
                2.224843119624616,
                0.22146069708545935,
                0.5492005474029866,
                -2.720582223743472
            ]
        },
        {
            "positions": [
                -0.17671910375452882,
                -2.033747637564,
                2.2492347304030007,
                0.28965379039249894,
                0.46524090725129774,
                -2.6839226969138257
            ]
        },
        {
            "positions": [
                -0.05213097719118709,
                -2.085177760896075,
                2.2736263411813855,
                0.35784688369953854,
                0.38128126709960886,
                -2.6472631700841793
            ]
        },
        {
            "positions": [
                0.07245714937215464,
                -2.1366078842281495,
                2.2980179519597708,
                0.42603997700657825,
                0.29732162694791997,
                -2.6106036432545325
            ]
        },
        {
            "positions": [
                0.19704527593549637,
                -2.188038007560224,
                2.3224095627381556,
                0.49423307031361774,
                0.21336198679623108,
                -2.5739441164248866
            ]
        },
        {
            "positions": [
                0.3216334024988381,
                -2.2394681308922992,
                2.3468011735165404,
                0.5624261636206576,
                0.1294023466445422,
                -2.53728458959524
            ]
        },
        {
            "positions": [
                0.4462215290621796,
                -2.2908982542243743,
                2.3711927842949256,
                0.6306192569276969,
                0.045442706492853535,
                -2.5006250627655935
            ]
        },
        {
            "positions": [
                0.5708096556255213,
                -2.342328377556449,
                2.3955843950733104,
                0.6988123502347365,
                -0.03851693365883535,
                -2.463965535935947
            ]
        },
        {
            "positions": [
                0.6953977821888635,
                -2.3937585008885236,
                2.4199760058516953,
                0.7670054435417764,
                -0.12247657381052446,
                -2.427306009106301
            ]
        },
        {
            "positions": [
                0.8199859087522052,
                -2.4451886242205987,
                2.44436761663008,
                0.835198536848816,
                -0.20643621396221312,
                -2.3906464822766544
            ]
        },
        {
            "positions": [
                0.9445740353155465,
                -2.4966187475526733,
                2.4687592274084653,
                0.9033916301558556,
                -0.290395854113902,
                -2.353986955447008
            ]
        },
        {
            "positions": [
                1.0691621618788882,
                -2.548048870884748,
                2.49315083818685,
                0.9715847234628952,
                -0.37435549426559067,
                -2.3173274286173617
            ]
        },
        {
            "positions": [
                1.1937502884422304,
                -2.599478994216823,
                2.517542448965235,
                1.039777816769935,
                -0.4583151344172798,
                -2.280667901787715
            ]
        },
        {
            "positions": [
                1.3183384150055717,
                -2.650909117548898,
                2.54193405974362,
                1.1079709100769743,
                -0.5422747745689684,
                -2.244008374958069
            ]
        },
        {
            "positions": [
                1.4429265415689134,
                -2.7023392408809723,
                2.566325670522005,
                1.176164003384014,
                -0.6262344147206576,
                -2.2073488481284222
            ]
        },
        {
            "positions": [
                1.5675146681322552,
                -2.7537693642130474,
                2.59071728130039,
                1.2443570966910535,
                -0.7101940548723462,
                -2.170689321298776
            ]
        },
        {
            "positions": [
                1.6921027946955973,
                -2.8051994875451225,
                2.6151088920787746,
                1.3125501899980934,
                -0.7941536950240353,
                -2.1340297944691295
            ]
        },
        {
            "positions": [
                1.8166909212589386,
                -2.856629610877197,
                2.63950050285716,
                1.380743283305133,
                -0.878113335175724,
                -2.097370267639483
            ]
        },
        {
            "positions": [
                1.9412790478222803,
                -2.9080597342092718,
                2.6638921136355447,
                1.4489363766121726,
                -0.9620729753274126,
                -2.060710740809837
            ]
        },
        {
            "positions": [
                2.0658671743856223,
                -2.959489857541347,
                2.6882837244139295,
                1.517129469919212,
                -1.0460326154791018,
                -2.0240512139801905
            ]
        },
        {
            "positions": [
                2.1904553009489645,
                -3.010919980873422,
                2.7126753351923147,
                1.5853225632262518,
                -1.1299922556307904,
                -1.987391687150544
            ]
        },
        {
            "positions": [
                2.3150434275123057,
                -3.062350104205496,
                2.7370669459706995,
                1.6535156565332916,
                -1.2139518957824795,
                -1.9507321603208976
            ]
        },
        {
            "positions": [
                2.439631554075647,
                -3.113780227537571,
                2.7614585567490844,
                1.7217087498403312,
                -1.2979115359341682,
                -1.9140726334912512
            ]
        },
        {
            "positions": [
                2.295125977340888,
                -3.0563951700706253,
                2.7392651965095465,
                1.6468071235464448,
                -1.2399249683301645,
                -1.9504606264766005
            ]
        },
        {
            "positions": [
                2.1506204006061287,
                -2.999010112603679,
                2.7170718362700086,
                1.5719054972525583,
                -1.181938400726161,
                -1.9868486194619495
            ]
        },
        {
            "positions": [
                2.0061148238713695,
                -2.941625055136733,
                2.694878476030471,
                1.497003870958672,
                -1.1239518331221574,
                -2.0232366124472985
            ]
        },
        {
            "positions": [
                1.8616092471366101,
                -2.8842399976697872,
                2.6726851157909333,
                1.4221022446647855,
                -1.065965265518154,
                -2.059624605432648
            ]
        },
        {
            "positions": [
                1.7171036704018507,
                -2.826854940202841,
                2.6504917555513954,
                1.347200618370899,
                -1.0079786979141503,
                -2.096012598417997
            ]
        },
        {
            "positions": [
                1.5725980936670916,
                -2.769469882735895,
                2.6282983953118575,
                1.2722989920770127,
                -0.9499921303101466,
                -2.132400591403346
            ]
        },
        {
            "positions": [
                1.4280925169323326,
                -2.712084825268949,
                2.60610503507232,
                1.1973973657831265,
                -0.8920055627061432,
                -2.168788584388695
            ]
        },
        {
            "positions": [
                1.2835869401975732,
                -2.654699767802003,
                2.583911674832782,
                1.1224957394892399,
                -0.8340189951021395,
                -2.2051765773740444
            ]
        },
        {
            "positions": [
                1.139081363462814,
                -2.597314710335057,
                2.5617183145932443,
                1.0475941131953537,
                -0.776032427498136,
                -2.2415645703593934
            ]
        },
        {
            "positions": [
                0.9945757867280547,
                -2.5399296528681106,
                2.5395249543537064,
                0.9726924869014671,
                -0.7180458598941324,
                -2.2779525633447424
            ]
        },
        {
            "positions": [
                0.8500702099932955,
                -2.4825445954011647,
                2.517331594114169,
                0.8977908606075807,
                -0.6600592922901288,
                -2.314340556330092
            ]
        },
        {
            "positions": [
                0.7055646332585364,
                -2.425159537934219,
                2.495138233874631,
                0.8228892343136943,
                -0.6020727246861252,
                -2.350728549315441
            ]
        },
        {
            "positions": [
                0.5610590565237774,
                -2.3677744804672725,
                2.472944873635093,
                0.747987608019808,
                -0.5440861570821217,
                -2.38711654230079
            ]
        },
        {
            "positions": [
                0.41655347978901824,
                -2.3103894230003266,
                2.4507515133955553,
                0.6730859817259216,
                -0.48609958947811815,
                -2.423504535286139
            ]
        },
        {
            "positions": [
                0.27204790305425863,
                -2.2530043655333802,
                2.4285581531560174,
                0.5981843554320352,
                -0.4281130218741146,
                -2.4598925282714883
            ]
        },
        {
            "positions": [
                0.12754232631949947,
                -2.1956193080664343,
                2.40636479291648,
                0.5232827291381488,
                -0.3701264542701109,
                -2.4962805212568373
            ]
        },
        {
            "positions": [
                -0.0169632504152597,
                -2.1382342505994885,
                2.384171432676942,
                0.44838110284426236,
                -0.31213988666610737,
                -2.5326685142421863
            ]
        },
        {
            "positions": [
                -0.16146882715001887,
                -2.0808491931325426,
                2.361978072437404,
                0.37347947655037594,
                -0.2541533190621037,
                -2.5690565072275353
            ]
        },
        {
            "positions": [
                -0.30597440388477803,
                -2.0234641356655962,
                2.3397847121978668,
                0.29857785025648953,
                -0.19616675145810025,
                -2.6054445002128848
            ]
        },
        {
            "positions": [
                -0.45047998061953765,
                -1.9660790781986501,
                2.317591351958329,
                0.22367622396260312,
                -0.13818018385409658,
                -2.6418324931982338
            ]
        },
        {
            "positions": [
                -0.5949855573542968,
                -1.908694020731704,
                2.295397991718791,
                0.1487745976687167,
                -0.08019361625009291,
                -2.6782204861835828
            ]
        },
        {
            "positions": [
                -0.739491134089056,
                -1.8513089632647581,
                2.273204631479253,
                0.07387297137483029,
                -0.022207048646089467,
                -2.714608479168932
            ]
        },
        {
            "positions": [
                -0.8839967108238151,
                -1.793923905797812,
                2.2510112712397152,
                -0.0010286549190561267,
                0.0357795189579142,
                -2.7509964721542812
            ]
        },
        {
            "positions": [
                -1.0285022875585743,
                -1.736538848330866,
                2.228817911000178,
                -0.07593028121294254,
                0.09376608656191787,
                -2.7873844651396302
            ]
        },
        {
            "positions": [
                -1.173007864293334,
                -1.6791537908639198,
                2.20662455076064,
                -0.15083190750682895,
                0.15175265416592132,
                -2.8237724581249797
            ]
        },
        {
            "positions": [
                -1.3175134410280922,
                -1.621768733396974,
                2.184431190521102,
                -0.22573353380071515,
                0.20973922176992477,
                -2.8601604511103282
            ]
        },
        {
            "positions": [
                -1.4620190177628518,
                -1.564383675930028,
                2.1622378302815646,
                -0.30063516009460134,
                0.2677257893739282,
                -2.8965484440956777
            ]
        },
        {
            "positions": [
                -1.6065245944976105,
                -1.506998618463082,
                2.1400444700420267,
                -0.375536786388488,
                0.3257123569779319,
                -2.9329364370810267
            ]
        },
        {
            "positions": [
                -1.7510301712323706,
                -1.4496135609961358,
                2.117851109802489,
                -0.45043841268237417,
                0.38369892458193555,
                -2.9693244300663757
            ]
        },
        {
            "positions": [
                -1.8955357479671298,
                -1.3922285035291897,
                2.095657749562951,
                -0.5253400389762608,
                0.441685492185939,
                -3.005712423051725
            ]
        },
        {
            "positions": [
                -2.040041324701889,
                -1.3348434460622436,
                2.073464389323413,
                -0.600241665270147,
                0.49967205978994267,
                -3.042100416037074
            ]
        },
        {
            "positions": [
                -2.184546901436648,
                -1.2774583885952977,
                2.0512710290838756,
                -0.6751432915640336,
                0.5576586273939463,
                -3.078488409022423
            ]
        },
        {
            "positions": [
                -2.3290524781714073,
                -1.2200733311283516,
                2.0290776688443377,
                -0.7500449178579198,
                0.6156451949979498,
                -3.1148764020077726
            ]
        },
        {
            "positions": [
                -2.4735580549061664,
                -1.1626882736614055,
                2.0068843086048,
                -0.8249465441518066,
                0.6736317626019533,
                -3.1512643949931216
            ]
        }
    ]
}