{
    "goal": {
        "global_pose": {
            "orientation": {
                "w": 0.7047431468963623,
                "x": -0.7094548344612122,
                "y": 0.0024358443915843964,
                "z": -0.0022348060738295317
            },
            "position": {
                "x": 0.6094750761985779,
                "y": 0.3671506643295288,
                "z": 0.19426114857196808
            }
        },
        "name": "move_to_magneteinheit_A"
    },
    "id": "PRMstar_move_to_magneteinheit_A_123",
    "joint_names": [
        "shoulder_pan_joint",
        "shoulder_lift_joint",
        "elbow_joint",
        "wrist_1_joint",
        "wrist_2_joint",
        "wrist_3_joint"
    ],
    "metrics": {
        "cart_traj_len": 3.7209134989054626,
        "distance_elbow_joint": 3.8731986578925177,
        "distance_shoulder_lift_joint": 1.386930894572199,
        "distance_shoulder_pan_joint": 2.5866132331224585,
        "distance_wrist_1_joint": 0.847187145071431,
        "distance_wrist_2_joint": 1.697902424774472,
        "distance_wrist_3_joint": 3.707696214396917,
        "smoothness": 0.08578937881312872,
        "time": 5.053751902999999,
        "traj_len": 3.7549338968655626,
        "weighted_distance": 4.905100464666318
    },
    "planner": "PRMstar",
    "start": {
        "state": {
            "elbow_joint": -1.9196185241190666,
            "shoulder_lift_joint": -1.2443396400964142,
            "shoulder_pan_joint": 2.6996025414629847,
            "wrist_1_joint": -1.5485510000780065,
            "wrist_2_joint": -1.5709468930060704,
            "wrist_3_joint": 0.4420197071253992
        }
    },
    "waypoints": [
        {
            "positions": [
                2.6996025414629847,
                -1.2443396400964142,
                -1.9196185241190666,
                -1.5485510000780065,
                -1.5709468930060704,
                0.4420197071253992
            ]
        },
        {
            "positions": [
                2.5924044286476753,
                -1.2085823219652068,
                -1.8317793283443466,
                -1.5478730282960216,
                -1.544455978390391,
                0.309809074355753
            ]
        },
        {
            "positions": [
                2.4852063158323663,
                -1.1728250038339996,
                -1.7439401325696267,
                -1.5471950565140364,
                -1.5179650637747117,
                0.17759844158610677
            ]
        },
        {
            "positions": [
                2.378008203017057,
                -1.1370676857027922,
                -1.6561009367949064,
                -1.5465170847320515,
                -1.4914741491590324,
                0.04538780881646054
            ]
        },
        {
            "positions": [
                2.2708100902017474,
                -1.101310367571585,
                -1.5682617410201865,
                -1.5458391129500664,
                -1.464983234543353,
                -0.08682282395318563
            ]
        },
        {
            "positions": [
                2.163611977386438,
                -1.0655530494403775,
                -1.4804225452454665,
                -1.5451611411680815,
                -1.4384923199276738,
                -0.21903345672283192
            ]
        },
        {
            "positions": [
                2.056413864571129,
                -1.0297957313091701,
                -1.3925833494707462,
                -1.5444831693860963,
                -1.4120014053119945,
                -0.3512440894924781
            ]
        },
        {
            "positions": [
                1.9492157517558195,
                -0.9940384131779629,
                -1.3047441536960265,
                -1.5438051976041114,
                -1.3855104906963152,
                -0.48345472226212427
            ]
        },
        {
            "positions": [
                1.8420176389405103,
                -0.9582810950467555,
                -1.2169049579213063,
                -1.5431272258221265,
                -1.3590195760806358,
                -0.6156653550317704
            ]
        },
        {
            "positions": [
                1.734819526125201,
                -0.9225237769155482,
                -1.1290657621465863,
                -1.5424492540401413,
                -1.3325286614649565,
                -0.7478759878014166
            ]
        },
        {
            "positions": [
                1.6276214133098916,
                -0.8867664587843409,
                -1.0412265663718663,
                -1.5417712822581564,
                -1.3060377468492772,
                -0.880086620571063
            ]
        },
        {
            "positions": [
                1.5204233004945822,
                -0.8510091406531335,
                -0.9533873705971461,
                -1.5410933104761713,
                -1.2795468322335979,
                -1.012297253340709
            ]
        },
        {
            "positions": [
                1.413225187679273,
                -0.8152518225219263,
                -0.8655481748224261,
                -1.5404153386941863,
                -1.2530559176179186,
                -1.1445078861103553
            ]
        },
        {
            "positions": [
                1.3060270748639635,
                -0.7794945043907189,
                -0.7777089790477061,
                -1.5397373669122012,
                -1.2265650030022393,
                -1.2767185188800019
            ]
        },
        {
            "positions": [
                1.1988289620486543,
                -0.7437371862595116,
                -0.6898697832729861,
                -1.5390593951302163,
                -1.20007408838656,
                -1.4089291516496476
            ]
        },
        {
            "positions": [
                1.0916308492333449,
                -0.7079798681283042,
                -0.6020305874982659,
                -1.5383814233482314,
                -1.1735831737708806,
                -1.5411397844192942
            ]
        },
        {
            "positions": [
                0.9844327364180359,
                -0.6722225499970969,
                -0.5141913917235461,
                -1.5377034515662462,
                -1.1470922591552013,
                -1.67335041718894
            ]
        },
        {
            "positions": [
                0.8772346236027264,
                -0.6364652318658895,
                -0.4263521959488259,
                -1.5370254797842613,
                -1.120601344539522,
                -1.8055610499585866
            ]
        },
        {
            "positions": [
                0.7700365107874172,
                -0.6007079137346822,
                -0.3385130001741059,
                -1.5363475080022762,
                -1.0941104299238427,
                -1.9377716827282323
            ]
        },
        {
            "positions": [
                0.6628383979721075,
                -0.5649505956034748,
                -0.2506738043993857,
                -1.5356695362202912,
                -1.0676195153081633,
                -2.069982315497879
            ]
        },
        {
            "positions": [
                0.5556402851567985,
                -0.5291932774722676,
                -0.16283460862466592,
                -1.534991564438306,
                -1.041128600692484,
                -2.202192948267525
            ]
        },
        {
            "positions": [
                0.4484421723414892,
                -0.4934359593410602,
                -0.0749954128499456,
                -1.5343135926563212,
                -1.0146376860768047,
                -2.3344035810371713
            ]
        },
        {
            "positions": [
                0.41707751779954744,
                -0.5244501158954397,
                0.06326340803023478,
                -1.478338448673789,
                -0.9413984433616966,
                -2.399798262033037
            ]
        },
        {
            "positions": [
                0.3857128632576057,
                -0.5554642724498192,
                0.20152222891041516,
                -1.4223633046912567,
                -0.8681592006465887,
                -2.465192943028903
            ]
        },
        {
            "positions": [
                0.3543482087156639,
                -0.5864784290041987,
                0.33978104979059554,
                -1.3663881607087245,
                -0.7949199579314806,
                -2.530587624024769
            ]
        },
        {
            "positions": [
                0.32298355417372215,
                -0.6174925855585781,
                0.4780398706707759,
                -1.310413016726192,
                -0.7216807152163727,
                -2.5959823050206348
            ]
        },
        {
            "positions": [
                0.29161889963178034,
                -0.6485067421129576,
                0.6162986915509563,
                -1.2544378727436598,
                -0.6484414725012646,
                -2.6613769860165006
            ]
        },
        {
            "positions": [
                0.26025424508983863,
                -0.6795208986673371,
                0.7545575124311367,
                -1.1984627287611276,
                -0.5752022297861565,
                -2.7267716670123665
            ]
        },
        {
            "positions": [
                0.22888959054789684,
                -0.7105350552217166,
                0.892816333311317,
                -1.1424875847785954,
                -0.5019629870710485,
                -2.7921663480082324
            ]
        },
        {
            "positions": [
                0.2150291351071182,
                -0.7586718903699724,
                1.0189948928473316,
                -1.0900641552660448,
                -0.4277455887271483,
                -2.848795514577554
            ]
        },
        {
            "positions": [
                0.20116867966633958,
                -0.8068087255182282,
                1.1451734523833461,
                -1.0376407257534945,
                -0.3535281903832482,
                -2.905424681146876
            ]
        },
        {
            "positions": [
                0.18730822422556098,
                -0.854945560666484,
                1.2713520119193604,
                -0.985217296240944,
                -0.27931079203934805,
                -2.9620538477161973
            ]
        },
        {
            "positions": [
                0.17344776878478235,
                -0.9030823958147398,
                1.397530571455375,
                -0.9327938667283936,
                -0.20509339369544788,
                -3.0186830142855188
            ]
        },
        {
            "positions": [
                0.15958731334400372,
                -0.9512192309629957,
                1.5237091309913895,
                -0.8803704372158432,
                -0.1308759953515477,
                -3.0753121808548403
            ]
        },
        {
            "positions": [
                0.1457268579032251,
                -0.9993560661112515,
                1.6498876905274038,
                -0.8279470077032927,
                -0.05665859700764758,
                -3.1319413474241617
            ]
        },
        {
            "positions": [
                0.13186640246244646,
                -1.0474929012595073,
                1.7760662500634183,
                -0.7755235781907422,
                0.01755880133625254,
                -3.1885705139934837
            ]
        },
        {
            "positions": [
                0.11800594702166783,
                -1.0956297364077632,
                1.9022448095994329,
                -0.7231001486781918,
                0.09177619968015274,
                -3.245199680562805
            ]
        },
        {
            "positions": [
                0.1230225857028083,
                -1.129463173157905,
                1.9535801337734529,
                -0.7013638550065755,
                0.1269555317684022,
                -3.2656765072715177
            ]
        }
    ]
}