{
    "goal": {
        "global_pose": {
            "orientation": {
                "w": 0.5084816262002911,
                "x": -0.4908360881923452,
                "y": 0.5182115481033761,
                "z": -0.48164630358495003
            },
            "position": {
                "x": 0.5540239810943604,
                "y": -0.46912469901144505,
                "z": 0.16403168439865112
            }
        },
        "name": "move_to_storage_B"
    },
    "id": "PRMstar_move_to_storage_B_109",
    "joint_names": [
        "shoulder_pan_joint",
        "shoulder_lift_joint",
        "elbow_joint",
        "wrist_1_joint",
        "wrist_2_joint",
        "wrist_3_joint"
    ],
    "metrics": {
        "cart_traj_len": 0.6474520203285331,
        "distance_elbow_joint": 0.41980451435667865,
        "distance_shoulder_lift_joint": 0.4924085500274893,
        "distance_shoulder_pan_joint": 0.34558482792323153,
        "distance_wrist_1_joint": 3.004266782250961,
        "distance_wrist_2_joint": 2.700012381373829,
        "distance_wrist_3_joint": 3.135884254864991,
        "smoothness": 0.18560984896886074,
        "time": 5.115181677,
        "traj_len": 3.1777289548980074,
        "weighted_distance": 4.6982985201189535
    },
    "planner": "PRMstar",
    "start": {
        "state": {
            "elbow_joint": 1.664937868594044,
            "shoulder_lift_joint": -0.661644460510453,
            "shoulder_pan_joint": -0.9139846352900073,
            "wrist_1_joint": 2.146753192139373,
            "wrist_2_joint": -2.2341966793290973,
            "wrist_3_joint": 0.005466555786416001
        }
    },
    "waypoints": [
        {
            "positions": [
                -0.9139846352900073,
                -0.661644460510453,
                1.664937868594044,
                2.146753192139373,
                -2.2341966793290973,
                0.005466555786416001
            ]
        },
        {
            "positions": [
                -0.8320783443777691,
                -0.6445635336215513,
                1.6309643039779451,
                2.081256492109736,
                -2.1451884153426524,
                0.013755284744656187
            ]
        },
        {
            "positions": [
                -0.8426254858582088,
                -0.6635766385470948,
                1.6463975419675683,
                1.9637056888208828,
                -2.040748250647157,
                -0.11134853629161386
            ]
        },
        {
            "positions": [
                -0.8531726273386485,
                -0.6825897434726382,
                1.6618307799571914,
                1.84615488553203,
                -1.9363080859516617,
                -0.23645235732788392
            ]
        },
        {
            "positions": [
                -0.8637197688190883,
                -0.7016028483981818,
                1.6772640179468148,
                1.728604082243177,
                -1.8318679212561664,
                -0.3615561783641539
            ]
        },
        {
            "positions": [
                -0.874266910299528,
                -0.7206159533237253,
                1.692697255936438,
                1.6110532789543242,
                -1.7274277565606708,
                -0.486659999400424
            ]
        },
        {
            "positions": [
                -0.8848140517799677,
                -0.7396290582492688,
                1.708130493926061,
                1.493502475665471,
                -1.6229875918651755,
                -0.6117638204366941
            ]
        },
        {
            "positions": [
                -0.8953611932604074,
                -0.7586421631748123,
                1.7235637319156842,
                1.375951672376618,
                -1.5185474271696802,
                -0.736867641472964
            ]
        },
        {
            "positions": [
                -0.9059083347408472,
                -0.7776552681003558,
                1.7389969699053074,
                1.258400869087765,
                -1.4141072624741846,
                -0.8619714625092342
            ]
        },
        {
            "positions": [
                -0.9164554762212869,
                -0.7966683730258993,
                1.7544302078949308,
                1.1408500657989122,
                -1.3096670977786893,
                -0.9870752835455042
            ]
        },
        {
            "positions": [
                -0.9270026177017266,
                -0.8156814779514427,
                1.769863445884554,
                1.0232992625100592,
                -1.205226933083194,
                -1.112179104581774
            ]
        },
        {
            "positions": [
                -0.9375497591821664,
                -0.8346945828769863,
                1.785296683874177,
                0.9057484592212062,
                -1.1007867683876986,
                -1.2372829256180442
            ]
        },
        {
            "positions": [
                -0.9480969006626061,
                -0.8537076878025298,
                1.8007299218638002,
                0.7881976559323534,
                -0.9963466036922033,
                -1.3623867466543143
            ]
        },
        {
            "positions": [
                -0.9586440421430459,
                -0.8727207927280733,
                1.8161631598534234,
                0.6706468526435005,
                -0.891906438996708,
                -1.487490567690584
            ]
        },
        {
            "positions": [
                -0.9691911836234856,
                -0.8917338976536169,
                1.8315963978430467,
                0.5530960493546473,
                -0.7874662743012126,
                -1.6125943887268543
            ]
        },
        {
            "positions": [
                -0.9797383251039253,
                -0.9107470025791604,
                1.8470296358326699,
                0.43554524606579426,
                -0.6830261096057171,
                -1.7376982097631244
            ]
        },
        {
            "positions": [
                -0.990285466584365,
                -0.9297601075047037,
                1.862462873822293,
                0.31799444277694167,
                -0.578585944910222,
                -1.8628020307993942
            ]
        },
        {
            "positions": [
                -1.0008326080648047,
                -0.9487732124302473,
                1.8778961118119162,
                0.20044363948808863,
                -0.4741457802147264,
                -1.9879058518356645
            ]
        },
        {
            "positions": [
                -1.0113797495452446,
                -0.9677863173557908,
                1.8933293498015393,
                0.08289283619923538,
                -0.3697056155192311,
                -2.113009672871935
            ]
        },
        {
            "positions": [
                -1.0219268910256842,
                -0.9867994222813343,
                1.9087625877911627,
                -0.034657967089617436,
                -0.26526545082373576,
                -2.2381134939082044
            ]
        },
        {
            "positions": [
                -1.032474032506124,
                -1.0058125272068779,
                1.9241958257807859,
                -0.15220877037847025,
                -0.16082528612824043,
                -2.3632173149444746
            ]
        },
        {
            "positions": [
                -1.0430211739865638,
                -1.0248256321324214,
                1.939629063770409,
                -0.2697595736673235,
                -0.05638512143274488,
                -2.488321135980745
            ]
        },
        {
            "positions": [
                -1.0535683154670035,
                -1.043838737057965,
                1.9550623017600322,
                -0.3873103769561763,
                0.04805504326275001,
                -2.6134249570170147
            ]
        },
        {
            "positions": [
                -1.0641154569474431,
                -1.0628518419835085,
                1.9704955397496553,
                -0.5048611802450291,
                0.15249520795824578,
                -2.738528778053285
            ]
        },
        {
            "positions": [
                -1.0746625984278828,
                -1.0818649469090518,
                1.9859287777392787,
                -0.6224119835338824,
                0.2569353726537411,
                -2.863632599089555
            ]
        },
        {
            "positions": [
                -1.0852097399083227,
                -1.1008780518345953,
                2.0013620157289016,
                -0.7399627868227348,
                0.36137553734923644,
                -2.9887364201258246
            ]
        },
        {
            "positions": [
                -1.0957568813887624,
                -1.1198911567601388,
                2.016795253718525,
                -0.857513590111588,
                0.4658157020447319,
                -3.113840241162095
            ]
        }
    ]
}