{
    "goal": {
        "global_pose": {
            "orientation": {
                "w": -0.4816463035849501,
                "x": 0.5182115481033762,
                "y": 0.4908360881923453,
                "z": -0.5084816262002911
            },
            "position": {
                "x": -0.8240239810943604,
                "y": 0.19912469901144506,
                "z": 0.16403168439865112
            }
        },
        "name": "move_to_storage_D"
    },
    "id": "PRMstar_move_to_storage_D_147",
    "joint_names": [
        "shoulder_pan_joint",
        "shoulder_lift_joint",
        "elbow_joint",
        "wrist_1_joint",
        "wrist_2_joint",
        "wrist_3_joint"
    ],
    "metrics": {
        "cart_traj_len": 3.429942945561139,
        "distance_elbow_joint": 4.21050066180305,
        "distance_shoulder_lift_joint": 1.263420499509202,
        "distance_shoulder_pan_joint": 2.8122358324287005,
        "distance_wrist_1_joint": 2.2679736773773596,
        "distance_wrist_2_joint": 0.8676748080880462,
        "distance_wrist_3_joint": 3.129310827255316,
        "smoothness": 2.9605947493530593e-16,
        "time": 5.035360744,
        "traj_len": 3.814592547895735,
        "weighted_distance": 4.893402338500045
    },
    "planner": "PRMstar",
    "start": {
        "state": {
            "elbow_joint": -2.384821988534728,
            "shoulder_lift_joint": -2.2788054721415256,
            "shoulder_pan_joint": -0.1854694642142757,
            "wrist_1_joint": 1.4845938289331202,
            "wrist_2_joint": 0.17898776772866878,
            "wrist_3_joint": 0.037105688729662994
        }
    },
    "waypoints": [
        {
            "positions": [
                -0.1854694642142757,
                -2.2788054721415256,
                -2.384821988534728,
                1.4845938289331202,
                0.17898776772866878,
                0.037105688729662994
            ]
        },
        {
            "positions": [
                -0.08818642433152052,
                -2.25223900584499,
                -2.248597492679699,
                1.470781042676287,
                0.20965095938845466,
                -0.039421218851333095
            ]
        },
        {
            "positions": [
                0.009096615551234671,
                -2.2256725395484547,
                -2.11237299682467,
                1.456968256419454,
                0.24031415104824053,
                -0.11594812643232918
            ]
        },
        {
            "positions": [
                0.10637965543398989,
                -2.199106073251919,
                -1.9761485009696411,
                1.443155470162621,
                0.2709773427080264,
                -0.1924750340133253
            ]
        },
        {
            "positions": [
                0.20366269531674505,
                -2.1725396069553833,
                -1.8399240051146122,
                1.429342683905788,
                0.3016405343678123,
                -0.26900194159432134
            ]
        },
        {
            "positions": [
                0.3009457351995003,
                -2.145973140658848,
                -1.703699509259583,
                1.4155298976489548,
                0.33230372602759817,
                -0.34552884917531757
            ]
        },
        {
            "positions": [
                0.3982287750822555,
                -2.1194066743623123,
                -1.567475013404554,
                1.4017171113921219,
                0.36296691768738404,
                -0.42205575675631357
            ]
        },
        {
            "positions": [
                0.49551181496501073,
                -2.092840208065777,
                -1.431250517549525,
                1.3879043251352887,
                0.3936301093471699,
                -0.4985826643373097
            ]
        },
        {
            "positions": [
                0.5927948548477658,
                -2.0662737417692414,
                -1.2950260216944962,
                1.3740915388784556,
                0.4242933010069558,
                -0.5751095719183057
            ]
        },
        {
            "positions": [
                0.6900778947305212,
                -2.039707275472706,
                -1.158801525839467,
                1.3602787526216225,
                0.45495649266674165,
                -0.6516364794993019
            ]
        },
        {
            "positions": [
                0.7873609346132764,
                -2.0131408091761704,
                -1.0225770299844381,
                1.3464659663647893,
                0.4856196843265276,
                -0.728163387080298
            ]
        },
        {
            "positions": [
                0.8846439744960314,
                -1.9865743428796347,
                -0.8863525341294092,
                1.3326531801079564,
                0.5162828759863134,
                -0.804690294661294
            ]
        },
        {
            "positions": [
                0.9819270143787867,
                -1.9600078765830993,
                -0.7501280382743802,
                1.3188403938511233,
                0.5469460676460993,
                -0.8812172022422902
            ]
        },
        {
            "positions": [
                1.0792100542615417,
                -1.9334414102865638,
                -0.6139035424193513,
                1.3050276075942902,
                0.5776092593058851,
                -0.9577441098232862
            ]
        },
        {
            "positions": [
                1.176493094144297,
                -1.906874943990028,
                -0.47767904656432214,
                1.2912148213374572,
                0.6082724509656711,
                -1.0342710174042824
            ]
        },
        {
            "positions": [
                1.2737761340270521,
                -1.8803084776934926,
                -0.3414545507092934,
                1.277402035080624,
                0.6389356426254569,
                -1.1107979249852784
            ]
        },
        {
            "positions": [
                1.3710591739098072,
                -1.8537420113969572,
                -0.2052300548542645,
                1.263589248823791,
                0.6695988342852428,
                -1.1873248325662744
            ]
        },
        {
            "positions": [
                1.4683422137925626,
                -1.8271755451004217,
                -0.0690055589992351,
                1.2497764625669578,
                0.7002620259450286,
                -1.2638517401472706
            ]
        },
        {
            "positions": [
                1.565625253675318,
                -1.8006090788038862,
                0.06721893685579383,
                1.2359636763101247,
                0.7309252176048145,
                -1.3403786477282669
            ]
        },
        {
            "positions": [
                1.662908293558073,
                -1.7740426125073507,
                0.20344343271082233,
                1.2221508900532918,
                0.7615884092646004,
                -1.4169055553092629
            ]
        },
        {
            "positions": [
                1.7601913334408283,
                -1.747476146210815,
                0.3396679285658517,
                1.2083381037964587,
                0.7922516009243863,
                -1.493432462890259
            ]
        },
        {
            "positions": [
                1.8574743733235834,
                -1.7209096799142796,
                0.47589242442088064,
                1.1945253175396255,
                0.8229147925841721,
                -1.5699593704712551
            ]
        },
        {
            "positions": [
                1.9547574132063383,
                -1.6943432136177439,
                0.6121169202759096,
                1.1807125312827926,
                0.853577984243958,
                -1.6464862780522511
            ]
        },
        {
            "positions": [
                2.0520404530890937,
                -1.6677767473212084,
                0.7483414161309385,
                1.1668997450259595,
                0.884241175903744,
                -1.7230131856332473
            ]
        },
        {
            "positions": [
                2.149323492971849,
                -1.641210281024673,
                0.8845659119859675,
                1.1530869587691264,
                0.9149043675635298,
                -1.7995400932142434
            ]
        },
        {
            "positions": [
                2.183426555489176,
                -1.5965084732823622,
                0.9517882520775642,
                1.0147679011110289,
                0.924315668153043,
                -1.891873310736487
            ]
        },
        {
            "positions": [
                2.2175296180065027,
                -1.5518066655400515,
                1.019010592169161,
                0.8764488434529314,
                0.9337269687425562,
                -1.9842065282587305
            ]
        },
        {
            "positions": [
                2.2516326805238296,
                -1.5071048577977408,
                1.0862329322607578,
                0.7381297857948338,
                0.9431382693320695,
                -2.0765397457809742
            ]
        },
        {
            "positions": [
                2.2857357430411565,
                -1.4624030500554304,
                1.1534552723523546,
                0.5998107281367363,
                0.9525495699215827,
                -2.1688729633032175
            ]
        },
        {
            "positions": [
                2.3198388055584833,
                -1.4177012423131197,
                1.2206776124439516,
                0.4614916704786387,
                0.9619608705110959,
                -2.261206180825461
            ]
        },
        {
            "positions": [
                2.35394186807581,
                -1.372999434570809,
                1.2878999525355483,
                0.3231726128205412,
                0.9713721711006091,
                -2.3535393983477046
            ]
        },
        {
            "positions": [
                2.3880449305931366,
                -1.3282976268284983,
                1.3551222926271451,
                0.18485355516244362,
                0.9807834716901224,
                -2.4458726158699484
            ]
        },
        {
            "positions": [
                2.4221479931104635,
                -1.2835958190861876,
                1.422344632718742,
                0.04653449750434624,
                0.9901947722796356,
                -2.5382058333921917
            ]
        },
        {
            "positions": [
                2.4562510556277903,
                -1.2388940113438769,
                1.489566972810339,
                -0.09178456015375147,
                0.9996060728691488,
                -2.6305390509144355
            ]
        },
        {
            "positions": [
                2.490354118145117,
                -1.1941922036015664,
                1.5567893129019357,
                -0.23010361781184896,
                1.009017373458662,
                -2.722872268436679
            ]
        },
        {
            "positions": [
                2.524457180662444,
                -1.1494903958592557,
                1.6240116529935325,
                -0.36842267546994645,
                1.0184286740481752,
                -2.8152054859589226
            ]
        },
        {
            "positions": [
                2.558560243179771,
                -1.104788588116945,
                1.6912339930851292,
                -0.5067417331280439,
                1.0278399746376885,
                -2.907538703481166
            ]
        },
        {
            "positions": [
                2.592663305697098,
                -1.0600867803746343,
                1.758456333176726,
                -0.6450607907861416,
                1.0372512752272018,
                -2.9998719210034093
            ]
        },
        {
            "positions": [
                2.6267663682144247,
                -1.0153849726323236,
                1.8256786732683228,
                -0.7833798484442391,
                1.046662575816715,
                -3.092205138525653
            ]
        }
    ]
}