{
    "goal": {
        "global_pose": {
            "orientation": {
                "w": -0.00223480608172531,
                "x": 0.0024358444001904467,
                "y": 0.7094548369677653,
                "z": -0.704743149386269
            },
            "position": {
                "x": -0.37947507619857795,
                "y": -0.6371506643295288,
                "z": 0.19426114857196808
            }
        },
        "name": "move_to_magneteinheit_C"
    },
    "id": "PRMstar_move_to_magneteinheit_C_1",
    "joint_names": [
        "shoulder_pan_joint",
        "shoulder_lift_joint",
        "elbow_joint",
        "wrist_1_joint",
        "wrist_2_joint",
        "wrist_3_joint"
    ],
    "metrics": {
        "cart_traj_len": 1.2896863303178712,
        "distance_elbow_joint": 1.234487339732242,
        "distance_shoulder_lift_joint": 0.4685106279101998,
        "distance_shoulder_pan_joint": 0.9129263551623839,
        "distance_wrist_1_joint": 4.183837449009815,
        "distance_wrist_2_joint": 0.8953152615432842,
        "distance_wrist_3_joint": 2.985540830312137,
        "smoothness": 0.9098855875920849,
        "time": 5.051639037,
        "traj_len": 3.268121457912797,
        "weighted_distance": 4.661636218630476
    },
    "planner": "PRMstar",
    "start": {
        "state": {
            "elbow_joint": 1.9565354010623817,
            "shoulder_lift_joint": -1.4165861575791021,
            "shoulder_pan_joint": -1.6717766225146293,
            "wrist_1_joint": -0.5286633292919765,
            "wrist_2_joint": 1.472756589071564,
            "wrist_3_joint": -3.1238370188695823
        }
    },
    "waypoints": [
        {
            "positions": [
                -1.6717766225146293,
                -1.4165861575791021,
                1.9565354010623817,
                -0.5286633292919765,
                1.472756589071564,
                -3.1238370188695823
            ]
        },
        {
            "positions": [
                -1.7264525430569093,
                -1.4188964697066182,
                1.9144777982974244,
                -0.3906348137528542,
                1.4383373946763416,
                -3.017650306763133
            ]
        },
        {
            "positions": [
                -1.7811284635991893,
                -1.421206781834134,
                1.872420195532467,
                -0.25260629821373193,
                1.4039182002811195,
                -2.9114635946566834
            ]
        },
        {
            "positions": [
                -1.8358043841414695,
                -1.4235170939616502,
                1.8303625927675098,
                -0.11457778267460966,
                1.3694990058858971,
                -2.805276882550234
            ]
        },
        {
            "positions": [
                -1.8904803046837495,
                -1.4258274060891662,
                1.7883049900025527,
                0.023450732864512602,
                1.335079811490675,
                -2.6990901704437844
            ]
        },
        {
            "positions": [
                -1.9451562252260295,
                -1.4281377182166823,
                1.7462473872375954,
                0.16147924840363492,
                1.3006606170954527,
                -2.592903458337335
            ]
        },
        {
            "positions": [
                -1.9998321457683095,
                -1.4304480303441982,
                1.7041897844726381,
                0.29950776394275713,
                1.2662414227002305,
                -2.4867167462308855
            ]
        },
        {
            "positions": [
                -2.0545080663105897,
                -1.4327583424717143,
                1.6621321817076808,
                0.43753627948187945,
                1.2318222283050082,
                -2.3805300341244355
            ]
        },
        {
            "positions": [
                -2.1091839868528695,
                -1.4350686545992304,
                1.6200745789427236,
                0.5755647950210017,
                1.197403033909786,
                -2.274343322017986
            ]
        },
        {
            "positions": [
                -2.1638599073951497,
                -1.4373789667267463,
                1.5780169761777663,
                0.713593310560124,
                1.1629838395145637,
                -2.1681566099115366
            ]
        },
        {
            "positions": [
                -2.21853582793743,
                -1.4396892788542623,
                1.5359593734128092,
                0.8516218260992463,
                1.1285646451193414,
                -2.061969897805087
            ]
        },
        {
            "positions": [
                -2.2732117484797096,
                -1.4419995909817784,
                1.493901770647852,
                0.9896503416383686,
                1.0941454507241193,
                -1.9557831856986376
            ]
        },
        {
            "positions": [
                -2.32788766902199,
                -1.4443099031092945,
                1.4518441678828946,
                1.1276788571774907,
                1.0597262563288972,
                -1.8495964735921882
            ]
        },
        {
            "positions": [
                -2.3825635895642696,
                -1.4466202152368104,
                1.4097865651179373,
                1.265707372716613,
                1.0253070619336748,
                -1.7434097614857385
            ]
        },
        {
            "positions": [
                -2.43723951010655,
                -1.4489305273643265,
                1.36772896235298,
                1.4037358882557354,
                0.9908878675384526,
                -1.637223049379289
            ]
        },
        {
            "positions": [
                -2.4555130926567172,
                -1.402743469987512,
                1.3888280620608895,
                1.2325855439543623,
                1.0008301897610798,
                -1.7643598272153371
            ]
        },
        {
            "positions": [
                -2.4737866752068842,
                -1.3565564126106975,
                1.4099271617687992,
                1.0614351996529892,
                1.0107725119837072,
                -1.8914966050513855
            ]
        },
        {
            "positions": [
                -2.4920602577570516,
                -1.310369355233883,
                1.4310262614767086,
                0.8902848553516158,
                1.0207148342063346,
                -2.0186333828874337
            ]
        },
        {
            "positions": [
                -2.494100565193151,
                -1.2767909176058585,
                1.4580017511321823,
                0.734504222968936,
                1.0326338474688588,
                -2.132160143335959
            ]
        },
        {
            "positions": [
                -2.49614087262925,
                -1.243212479977834,
                1.484977240787656,
                0.5787235905862562,
                1.044552860731383,
                -2.2456869037844847
            ]
        },
        {
            "positions": [
                -2.4919203743036085,
                -1.2174738014123263,
                1.53329033091602,
                0.40884111716389515,
                1.0416995409630359,
                -2.3507301254177335
            ]
        },
        {
            "positions": [
                -2.487699875977967,
                -1.1917351228468187,
                1.5816034210443837,
                0.23895864374153408,
                1.038846221194689,
                -2.455773347050982
            ]
        },
        {
            "positions": [
                -2.4834793776523254,
                -1.165996444281311,
                1.6299165111727474,
                0.06907617031917301,
                1.0359929014263418,
                -2.560816568684231
            ]
        },
        {
            "positions": [
                -2.4792588793266837,
                -1.1402577657158037,
                1.6782296013011113,
                -0.10080630310318806,
                1.0331395816579947,
                -2.6658597903174797
            ]
        },
        {
            "positions": [
                -2.4750383810010423,
                -1.1145190871502961,
                1.7265426914294753,
                -0.2706887765255491,
                1.0302862618896478,
                -2.770903011950728
            ]
        },
        {
            "positions": [
                -2.4708178826754006,
                -1.0887804085847885,
                1.774855781557839,
                -0.4405712499479102,
                1.0274329421213007,
                -2.875946233583977
            ]
        },
        {
            "positions": [
                -2.460456260208621,
                -1.0887309033961832,
                1.8407301791812838,
                -0.5695609232313801,
                0.9903797709928431,
                -2.932071004749384
            ]
        },
        {
            "positions": [
                -2.450094637741842,
                -1.088681398207578,
                1.9066045768047284,
                -0.69855059651485,
                0.9533265998643855,
                -2.9881957759147917
            ]
        },
        {
            "positions": [
                -2.4397330152750625,
                -1.0886318930189727,
                1.9724789744281732,
                -0.8275402697983198,
                0.916273428735928,
                -3.044320547080199
            ]
        },
        {
            "positions": [
                -2.45581013912185,
                -1.1265657049087836,
                1.9929444189019967,
                -0.8376213065023443,
                0.8005223713250342,
                -3.090235228640666
            ]
        },
        {
            "positions": [
                -2.4718872629686377,
                -1.1644995167985943,
                2.0134098633758204,
                -0.8477023432063688,
                0.6847713139141405,
                -3.1361499102011328
            ]
        }
    ]
}