{
    "goal": {
        "global_pose": {
            "orientation": {
                "w": 0.7031023502349854,
                "x": -0.7110244035720825,
                "y": 0.007748599164187908,
                "z": 0.005598929710686207
            },
            "position": {
                "x": 0.11585023208521307,
                "y": 0.44412534475326537,
                "z": 0.3711530566215515
            }
        },
        "name": "move_to_auspresseinheit_A"
    },
    "id": "PRMstar_move_to_auspresseinheit_A_59",
    "joint_names": [
        "shoulder_pan_joint",
        "shoulder_lift_joint",
        "elbow_joint",
        "wrist_1_joint",
        "wrist_2_joint",
        "wrist_3_joint"
    ],
    "metrics": {
        "cart_traj_len": 1.343078916450563,
        "distance_elbow_joint": 0.45563551484049514,
        "distance_shoulder_lift_joint": 2.204665253442431,
        "distance_shoulder_pan_joint": 3.852199957324485,
        "distance_wrist_1_joint": 0.5583649704470597,
        "distance_wrist_2_joint": 0.5336901578834142,
        "distance_wrist_3_joint": 0.5885656103119827,
        "smoothness": 1.0590886020905295,
        "time": 5.061181087,
        "traj_len": 2.8623629162371893,
        "weighted_distance": 3.234549089626606
    },
    "planner": "PRMstar",
    "start": {
        "state": {
            "elbow_joint": 2.4225746658250005,
            "shoulder_lift_joint": -1.3736534386056498,
            "shoulder_pan_joint": -0.3378633547517467,
            "wrist_1_joint": -1.0288598680537169,
            "wrist_2_joint": 1.233022673432363,
            "wrist_3_joint": -3.0940220416140027
        }
    },
    "waypoints": [
        {
            "positions": [
                -0.3378633547517467,
                -1.3736534386056498,
                2.4225746658250005,
                -1.0288598680537169,
                1.233022673432363,
                -3.0940220416140027
            ]
        },
        {
            "positions": [
                -0.46566102766390705,
                -1.4981987455943093,
                2.4420883301335654,
                -0.9784611577303508,
                1.2181205033094107,
                -3.1219732696587545
            ]
        },
        {
            "positions": [
                -0.5934587005760673,
                -1.6227440525829686,
                2.4616019944421303,
                -0.9280624474069847,
                1.203218333186458,
                -3.149924497703507
            ]
        },
        {
            "positions": [
                -0.7212563734882276,
                -1.7472893595716281,
                2.4811156587506953,
                -0.8776637370836187,
                1.1883161630635057,
                -3.1778757257482586
            ]
        },
        {
            "positions": [
                -0.849054046400388,
                -1.8718346665602876,
                2.5006293230592602,
                -0.8272650267602526,
                1.1734139929405532,
                -3.205826953793011
            ]
        },
        {
            "positions": [
                -0.9768517193125481,
                -1.996379973548947,
                2.520142987367825,
                -0.7768663164368865,
                1.1585118228176008,
                -3.2337781818377627
            ]
        },
        {
            "positions": [
                -1.1046493922247085,
                -2.120925280537606,
                2.5396566516763905,
                -0.7264676061135205,
                1.1436096526946482,
                -3.261729409882515
            ]
        },
        {
            "positions": [
                -1.2324470651368689,
                -2.245470587526266,
                2.5591703159849555,
                -0.6760688957901544,
                1.1287074825716958,
                -3.2896806379272667
            ]
        },
        {
            "positions": [
                -1.360244738049029,
                -2.3700158945149252,
                2.5786839802935204,
                -0.6256701854667883,
                1.1138053124487433,
                -3.317631865972019
            ]
        },
        {
            "positions": [
                -1.4880424109611894,
                -2.4945612015035845,
                2.5981976446020854,
                -0.5752714751434223,
                1.098903142325791,
                -3.345583094016771
            ]
        },
        {
            "positions": [
                -1.6158400838733495,
                -2.6191065084922442,
                2.6177113089106503,
                -0.5248727648200562,
                1.0840009722028383,
                -3.3735343220615226
            ]
        },
        {
            "positions": [
                -1.74363775678551,
                -2.7436518154809035,
                2.6372249732192152,
                -0.4744740544966901,
                1.069098802079886,
                -3.401485550106275
            ]
        },
        {
            "positions": [
                -1.5212354335772624,
                -2.667773008520251,
                2.6153172270877354,
                -0.4748357960321476,
                1.035483685122528,
                -3.3759308135772104
            ]
        },
        {
            "positions": [
                -1.298833110369015,
                -2.5918942015595987,
                2.593409480956255,
                -0.47519753756760513,
                1.00186856816517,
                -3.3503760770481454
            ]
        },
        {
            "positions": [
                -1.0764307871607675,
                -2.516015394598946,
                2.5715017348247753,
                -0.4755592791030626,
                0.9682534512078121,
                -3.324821340519081
            ]
        },
        {
            "positions": [
                -0.85402846395252,
                -2.4401365876382934,
                2.549593988693295,
                -0.4759210206385201,
                0.9346383342504543,
                -3.2992666039900165
            ]
        },
        {
            "positions": [
                -0.6316261407442725,
                -2.364257780677641,
                2.527686242561815,
                -0.4762827621739776,
                0.9010232172930963,
                -3.273711867460952
            ]
        },
        {
            "positions": [
                -0.409223817536025,
                -2.2883789737169886,
                2.505778496430335,
                -0.4766445037094351,
                0.8674081003357385,
                -3.248157130931887
            ]
        },
        {
            "positions": [
                -0.1868214943277775,
                -2.212500166756336,
                2.483870750298855,
                -0.4770062452448926,
                0.8337929833783805,
                -3.2226023944028226
            ]
        },
        {
            "positions": [
                0.035580828880469983,
                -2.136621359795684,
                2.461963004167375,
                -0.4773679867803501,
                0.8001778664210226,
                -3.197047657873758
            ]
        },
        {
            "positions": [
                0.25798315208871747,
                -2.060742552835031,
                2.440055258035895,
                -0.47772972831580757,
                0.7665627494636646,
                -3.1714929213446936
            ]
        },
        {
            "positions": [
                0.48038547529696496,
                -1.9848637458743785,
                2.418147511904415,
                -0.4780914698512651,
                0.7329476325063067,
                -3.1459381848156287
            ]
        },
        {
            "positions": [
                0.7027877985052122,
                -1.9089849389137261,
                2.396239765772935,
                -0.4784532113867226,
                0.6993325155489488,
                -3.120383448286564
            ]
        }
    ]
}