{
    "goal": {
        "global_pose": {
            "orientation": {
                "w": -0.4816463035849501,
                "x": 0.5182115481033762,
                "y": 0.4908360881923453,
                "z": -0.5084816262002911
            },
            "position": {
                "x": -0.8240239810943604,
                "y": -0.300875300988555,
                "z": 0.16403168439865112
            }
        },
        "name": "move_to_storage_C"
    },
    "id": "PRMstar_move_to_storage_C_97",
    "joint_names": [
        "shoulder_pan_joint",
        "shoulder_lift_joint",
        "elbow_joint",
        "wrist_1_joint",
        "wrist_2_joint",
        "wrist_3_joint"
    ],
    "metrics": {
        "cart_traj_len": 0.5762930234623174,
        "distance_elbow_joint": 0.2554546160053197,
        "distance_shoulder_lift_joint": 0.18869948371176815,
        "distance_shoulder_pan_joint": 0.49490410070885327,
        "distance_wrist_1_joint": 0.07022568542085506,
        "distance_wrist_2_joint": 1.0651040346366036,
        "distance_wrist_3_joint": 0.06816100674264769,
        "smoothness": 2.5376526478085547e-16,
        "time": 5.002494318999999,
        "traj_len": 1.4637448299570686,
        "weighted_distance": 1.8477555738703109
    },
    "planner": "PRMstar",
    "start": {
        "state": {
            "elbow_joint": 2.010868314990456,
            "shoulder_lift_joint": -1.1634956873337592,
            "shoulder_pan_joint": -2.4736205022346125,
            "wrist_1_joint": -0.8367026794202681,
            "wrist_2_joint": 0.6746043897044499,
            "wrist_3_joint": -3.1496632123970403
        }
    },
    "waypoints": [
        {
            "positions": [
                -2.4736205022346125,
                -1.1634956873337592,
                2.010868314990456,
                -0.8367026794202681,
                0.6746043897044499,
                -3.1496632123970403
            ]
        },
        {
            "positions": [
                -2.5561045190194216,
                -1.132045773381798,
                1.968292545656236,
                -0.8249983985167922,
                0.8521217288105505,
                -3.138303044606599
            ]
        },
        {
            "positions": [
                -2.6385885358042303,
                -1.1005958594298364,
                1.925716776322016,
                -0.8132941176133164,
                1.0296390679166512,
                -3.1269428768161576
            ]
        },
        {
            "positions": [
                -2.721072552589039,
                -1.0691459454778751,
                1.8831410069877959,
                -0.8015898367098406,
                1.2071564070227518,
                -3.115582709025716
            ]
        },
        {
            "positions": [
                -2.803556569373848,
                -1.0376960315259138,
                1.840565237653576,
                -0.7898855558063648,
                1.3846737461288523,
                -3.1042225412352753
            ]
        },
        {
            "positions": [
                -2.886040586158657,
                -1.0062461175739523,
                1.797989468319356,
                -0.7781812749028889,
                1.562191085234953,
                -3.092862373444834
            ]
        },
        {
            "positions": [
                -2.9685246029434658,
                -0.974796203621991,
                1.755413698985136,
                -0.766476993999413,
                1.7397084243410534,
                -3.0815022056543926
            ]
        }
    ]
}