{
    "goal": {
        "global_pose": {
            "orientation": {
                "w": 0.7031023502349854,
                "x": -0.7110244035720825,
                "y": 0.007748599164187908,
                "z": 0.005598929710686207
            },
            "position": {
                "x": 0.11585023208521307,
                "y": 0.44412534475326537,
                "z": 0.3711530566215515
            }
        },
        "name": "move_to_auspresseinheit_A"
    },
    "id": "PRMstar_move_to_auspresseinheit_A_78",
    "joint_names": [
        "shoulder_pan_joint",
        "shoulder_lift_joint",
        "elbow_joint",
        "wrist_1_joint",
        "wrist_2_joint",
        "wrist_3_joint"
    ],
    "metrics": {
        "cart_traj_len": 1.4127975228004213,
        "distance_elbow_joint": 0.43012544419489007,
        "distance_shoulder_lift_joint": 2.0775988215351155,
        "distance_shoulder_pan_joint": 1.0427035108301066,
        "distance_wrist_1_joint": 7.758462183438419,
        "distance_wrist_2_joint": 2.7869051430472207,
        "distance_wrist_3_joint": 8.678859728897327,
        "smoothness": 0.5653632959858239,
        "time": 5.095317484,
        "traj_len": 4.772279835879607,
        "weighted_distance": 7.118830073560078
    },
    "planner": "PRMstar",
    "start": {
        "state": {
            "elbow_joint": 2.4225746658250005,
            "shoulder_lift_joint": -1.3736534386056498,
            "shoulder_pan_joint": -0.3378633547517467,
            "wrist_1_joint": -1.0288598680537169,
            "wrist_2_joint": 1.233022673432363,
            "wrist_3_joint": -3.0940220416140027
        }
    },
    "waypoints": [
        {
            "positions": [
                -0.3378633547517467,
                -1.3736534386056498,
                2.4225746658250005,
                -1.0288598680537169,
                1.233022673432363,
                -3.0940220416140027
            ]
        },
        {
            "positions": [
                -0.3134064343734417,
                -1.4145190669199255,
                2.4289047653396993,
                -0.8990997774273018,
                1.1811327794292774,
                -2.9588156047422403
            ]
        },
        {
            "positions": [
                -0.28894951399513663,
                -1.455384695234201,
                2.435234864854398,
                -0.7693396868008868,
                1.1292428854261918,
                -2.8236091678704773
            ]
        },
        {
            "positions": [
                -0.2644925936168316,
                -1.496250323548477,
                2.4415649643690966,
                -0.6395795961744718,
                1.0773529914231064,
                -2.688402730998715
            ]
        },
        {
            "positions": [
                -0.24003567323852654,
                -1.5371159518627526,
                2.4478950638837955,
                -0.5098195055480568,
                1.0254630974200207,
                -2.553196294126952
            ]
        },
        {
            "positions": [
                -0.2155787528602215,
                -1.5779815801770283,
                2.4542251633984944,
                -0.38005941492164175,
                0.9735732034169351,
                -2.4179898572551894
            ]
        },
        {
            "positions": [
                -0.19112183248191644,
                -1.618847208491304,
                2.460555262913193,
                -0.2502993242952267,
                0.9216833094138495,
                -2.282783420383427
            ]
        },
        {
            "positions": [
                -0.1666649121036114,
                -1.6597128368055798,
                2.4668853624278917,
                -0.1205392336688117,
                0.8697934154107639,
                -2.147576983511664
            ]
        },
        {
            "positions": [
                -0.14220799172530635,
                -1.7005784651198554,
                2.4732154619425906,
                0.00922085695760333,
                0.8179035214076784,
                -2.0123705466399016
            ]
        },
        {
            "positions": [
                -0.1177510713470013,
                -1.741444093434131,
                2.4795455614572894,
                0.13898094758401824,
                0.7660136274045928,
                -1.8771641097681389
            ]
        },
        {
            "positions": [
                -0.09329415096869625,
                -1.7823097217484067,
                2.4858756609719883,
                0.2687410382104334,
                0.7141237334015071,
                -1.7419576728963762
            ]
        },
        {
            "positions": [
                -0.06883723059039121,
                -1.8231753500626824,
                2.4922057604866867,
                0.3985011288368485,
                0.6622338393984216,
                -1.6067512360246137
            ]
        },
        {
            "positions": [
                -0.04438031021208616,
                -1.8640409783769583,
                2.4985358600013856,
                0.5282612194632634,
                0.610343945395336,
                -1.471544799152851
            ]
        },
        {
            "positions": [
                -0.019923389833781113,
                -1.904906606691234,
                2.5048659595160845,
                0.6580213100896783,
                0.5584540513922505,
                -1.3363383622810883
            ]
        },
        {
            "positions": [
                0.004533530544523934,
                -1.9457722350055096,
                2.511196059030783,
                0.7877814007160935,
                0.5065641573891648,
                -1.2011319254093258
            ]
        },
        {
            "positions": [
                0.02899045092282898,
                -1.9866378633197854,
                2.517526158545482,
                0.9175414913425086,
                0.4546742633860793,
                -1.0659254885375629
            ]
        },
        {
            "positions": [
                0.05344737130113403,
                -2.027503491634061,
                2.5238562580601807,
                1.0473015819689235,
                0.40278436938299367,
                -0.9307190516658004
            ]
        },
        {
            "positions": [
                0.07790429167943907,
                -2.0683691199483367,
                2.5301863575748795,
                1.1770616725953384,
                0.35089447537990803,
                -0.7955126147940379
            ]
        },
        {
            "positions": [
                0.10236121205774412,
                -2.1092347482626126,
                2.5365164570895784,
                1.3068217632217534,
                0.2990045813768225,
                -0.660306177922275
            ]
        },
        {
            "positions": [
                0.12681813243604917,
                -2.150100376576888,
                2.542846556604277,
                1.4365818538481687,
                0.24711468737373687,
                -0.5250997410505125
            ]
        },
        {
            "positions": [
                0.15127505281435422,
                -2.190966004891164,
                2.5491766561189757,
                1.5663419444745836,
                0.19522479337065124,
                -0.38989330417874957
            ]
        },
        {
            "positions": [
                0.17573197319265926,
                -2.2318316332054393,
                2.5555067556336746,
                1.6961020351009986,
                0.14333489936756583,
                -0.2546868673069871
            ]
        },
        {
            "positions": [
                0.2001888935709643,
                -2.272697261519715,
                2.561836855148373,
                1.825862125727414,
                0.09144500536448019,
                -0.1194804304352246
            ]
        },
        {
            "positions": [
                0.22464581394926936,
                -2.3135628898339906,
                2.568166954663072,
                1.9556222163538288,
                0.03955511136139456,
                0.01572600643653832
            ]
        },
        {
            "positions": [
                0.2491027343275744,
                -2.3544285181482665,
                2.5744970541777707,
                2.085382306980244,
                -0.012334782641691078,
                0.1509324433083008
            ]
        },
        {
            "positions": [
                0.27355965470587945,
                -2.3952941464625424,
                2.5808271536924696,
                2.215142397606659,
                -0.06422467664477671,
                0.2861388801800633
            ]
        },
        {
            "positions": [
                0.2980165750841845,
                -2.4361597747768178,
                2.5871572532071685,
                2.344902488233074,
                -0.11611457064786213,
                0.4213453170518262
            ]
        },
        {
            "positions": [
                0.32247349546248955,
                -2.4770254030910936,
                2.593487352721867,
                2.4746625788594887,
                -0.16800446465094776,
                0.5565517539235887
            ]
        },
        {
            "positions": [
                0.3469304158407946,
                -2.5178910314053695,
                2.599817452236566,
                2.6044226694859036,
                -0.2198943586540334,
                0.6917581907953512
            ]
        },
        {
            "positions": [
                0.37138733621909964,
                -2.558756659719645,
                2.6061475517512647,
                2.7341827601123185,
                -0.27178425265711903,
                0.8269646276671141
            ]
        },
        {
            "positions": [
                0.3958442565974047,
                -2.599622288033921,
                2.612477651265963,
                2.8639428507387343,
                -0.32367414666020444,
                0.962171064538877
            ]
        },
        {
            "positions": [
                0.42030117697570973,
                -2.6404879163481967,
                2.618807750780662,
                2.9937029413651493,
                -0.3755640406632901,
                1.097377501410639
            ]
        },
        {
            "positions": [
                0.44475809735401484,
                -2.681353544662472,
                2.625137850295361,
                3.1234630319915637,
                -0.4274539346663757,
                1.2325839382824015
            ]
        },
        {
            "positions": [
                0.45439076619565727,
                -2.6528387774225353,
                2.6167096184537115,
                2.9899023177918176,
                -0.38573435929791333,
                1.0713893549860707
            ]
        },
        {
            "positions": [
                0.46402343503729965,
                -2.6243240101825984,
                2.608281386612062,
                2.8563416035920715,
                -0.344014783929451,
                0.9101947716897401
            ]
        },
        {
            "positions": [
                0.4736561038789421,
                -2.5958092429426616,
                2.599853154770413,
                2.7227808893923253,
                -0.3022952085609887,
                0.7490001883934094
            ]
        },
        {
            "positions": [
                0.4832887727205845,
                -2.567294475702725,
                2.591424922928764,
                2.589220175192579,
                -0.2605756331925263,
                0.5878056050970786
            ]
        },
        {
            "positions": [
                0.49292144156222695,
                -2.5387797084627883,
                2.5829966910871147,
                2.455659460992833,
                -0.21885605782406398,
                0.42661102180074795
            ]
        },
        {
            "positions": [
                0.5025541104038693,
                -2.5102649412228515,
                2.5745684592454654,
                2.322098746793087,
                -0.1771364824556016,
                0.2654164385044172
            ]
        },
        {
            "positions": [
                0.5121867792455117,
                -2.4817501739829146,
                2.566140227403816,
                2.188538032593341,
                -0.13541690708713927,
                0.10422185520808647
            ]
        },
        {
            "positions": [
                0.5218194480871542,
                -2.453235406742978,
                2.5577119955621668,
                2.054977318393595,
                -0.09369733171867689,
                -0.056972728088244384
            ]
        },
        {
            "positions": [
                0.5314521169287966,
                -2.4247206395030414,
                2.5492837637205175,
                1.9214166041938487,
                -0.051977756350214566,
                -0.218167311384575
            ]
        },
        {
            "positions": [
                0.5410847857704391,
                -2.3962058722631046,
                2.5408555318788686,
                1.7878558899941026,
                -0.01025818098175224,
                -0.37936189468090564
            ]
        },
        {
            "positions": [
                0.5507174546120814,
                -2.3676911050231677,
                2.5324273000372193,
                1.6542951757943565,
                0.03146139438671014,
                -0.5405564779772365
            ]
        },
        {
            "positions": [
                0.5603501234537238,
                -2.339176337783231,
                2.52399906819557,
                1.5207344615946103,
                0.07318096975517252,
                -0.7017510612735671
            ]
        },
        {
            "positions": [
                0.5699827922953663,
                -2.310661570543294,
                2.5155708363539206,
                1.3871737473948642,
                0.11490054512363479,
                -0.8629456445698978
            ]
        },
        {
            "positions": [
                0.5796154611370087,
                -2.282146803303357,
                2.5071426045122713,
                1.2536130331951183,
                0.15662012049209717,
                -1.0241402278662286
            ]
        },
        {
            "positions": [
                0.5892481299786512,
                -2.2536320360634203,
                2.498714372670622,
                1.1200523189953717,
                0.19833969586055955,
                -1.1853348111625595
            ]
        },
        {
            "positions": [
                0.5988807988202935,
                -2.225117268823484,
                2.4902861408289727,
                0.986491604795626,
                0.24005927122902193,
                -1.3465293944588903
            ]
        },
        {
            "positions": [
                0.6085134676619359,
                -2.196602501583547,
                2.4818579089873234,
                0.8529308905958795,
                0.2817788465974843,
                -1.5077239777552212
            ]
        },
        {
            "positions": [
                0.6181461365035783,
                -2.1680877343436102,
                2.4734296771456745,
                0.7193701763961338,
                0.3234984219659466,
                -1.6689185610515516
            ]
        },
        {
            "positions": [
                0.6277788053452208,
                -2.1395729671036734,
                2.465001445304025,
                0.5858094621963876,
                0.36521799733440896,
                -1.8301131443478824
            ]
        },
        {
            "positions": [
                0.6374114741868632,
                -2.111058199863737,
                2.456573213462376,
                0.4522487479966415,
                0.40693757270287123,
                -1.9913077276442128
            ]
        },
        {
            "positions": [
                0.6470441430285057,
                -2.0825434326238,
                2.4481449816207266,
                0.31868803379689536,
                0.4486571480713337,
                -2.152502310940544
            ]
        },
        {
            "positions": [
                0.656676811870148,
                -2.0540286653838633,
                2.4397167497790773,
                0.18512731959714923,
                0.490376723439796,
                -2.3136968942368745
            ]
        },
        {
            "positions": [
                0.6663094807117904,
                -2.0255138981439265,
                2.431288517937428,
                0.0515666053974031,
                0.5320962988082584,
                -2.4748914775332054
            ]
        },
        {
            "positions": [
                0.6759421495534329,
                -1.9969991309039896,
                2.422860286095779,
                -0.08199410880234304,
                0.5738158741767208,
                -2.636086060829536
            ]
        },
        {
            "positions": [
                0.6855748183950753,
                -1.9684843636640528,
                2.4144320542541298,
                -0.21555482300208917,
                0.615535449545183,
                -2.7972806441258666
            ]
        },
        {
            "positions": [
                0.6952074872367178,
                -1.9399695964241161,
                2.4060038224124805,
                -0.3491155372018353,
                0.6572550249136453,
                -2.958475227422197
            ]
        },
        {
            "positions": [
                0.7048401560783601,
                -1.9114548291841793,
                2.397575590570831,
                -0.4826762514015815,
                0.6989746002821079,
                -3.119669810718528
            ]
        }
    ]
}