{
    "goal": {
        "global_pose": {
            "orientation": {
                "w": -0.4816463035849501,
                "x": 0.5182115481033762,
                "y": 0.4908360881923453,
                "z": -0.5084816262002911
            },
            "position": {
                "x": -0.8240239810943604,
                "y": -0.300875300988555,
                "z": 0.16403168439865112
            }
        },
        "name": "move_to_storage_C"
    },
    "id": "PRMstar_move_to_storage_C_22",
    "joint_names": [
        "shoulder_pan_joint",
        "shoulder_lift_joint",
        "elbow_joint",
        "wrist_1_joint",
        "wrist_2_joint",
        "wrist_3_joint"
    ],
    "metrics": {
        "cart_traj_len": 0.5765492240394653,
        "distance_elbow_joint": 0.25634005186692166,
        "distance_shoulder_lift_joint": 0.1878380665098156,
        "distance_shoulder_pan_joint": 0.49582307960061023,
        "distance_wrist_1_joint": 0.07286414669571539,
        "distance_wrist_2_joint": 1.0591876348432172,
        "distance_wrist_3_joint": 0.057173905569825045,
        "smoothness": 0.0,
        "time": 5.005254012,
        "traj_len": 1.4591870630889328,
        "weighted_distance": 1.8372878048266383
    },
    "planner": "PRMstar",
    "start": {
        "state": {
            "elbow_joint": 2.010868314990456,
            "shoulder_lift_joint": -1.1634956873337592,
            "shoulder_pan_joint": -2.4736205022346125,
            "wrist_1_joint": -0.8367026794202681,
            "wrist_2_joint": 0.6746043897044499,
            "wrist_3_joint": -3.1496632123970403
        }
    },
    "waypoints": [
        {
            "positions": [
                -2.4736205022346125,
                -1.1634956873337592,
                2.010868314990456,
                -0.8367026794202681,
                0.6746043897044499,
                -3.1496632123970403
            ]
        },
        {
            "positions": [
                -2.5562576821680474,
                -1.1321893429154566,
                1.9681449730126355,
                -0.8245586549709822,
                0.8511356621783195,
                -3.1401342281354028
            ]
        },
        {
            "positions": [
                -2.6388948621014827,
                -1.100882998497154,
                1.9254216310348153,
                -0.8124146305216963,
                1.027666934652189,
                -3.1306052438737653
            ]
        },
        {
            "positions": [
                -2.7215320420349176,
                -1.0695766540788514,
                1.882698289056995,
                -0.8002706060724104,
                1.2041982071260584,
                -3.1210762596121278
            ]
        },
        {
            "positions": [
                -2.8041692219683525,
                -1.0382703096605488,
                1.8399749470791746,
                -0.7881265816231245,
                1.3807294795999279,
                -3.1115472753504902
            ]
        },
        {
            "positions": [
                -2.886806401901788,
                -1.0069639652422462,
                1.7972516051013545,
                -0.7759825571738386,
                1.5572607520737978,
                -3.1020182910888527
            ]
        },
        {
            "positions": [
                -2.9694435818352227,
                -0.9756576208239436,
                1.7545282631235342,
                -0.7638385327245527,
                1.733792024547667,
                -3.0924893068272152
            ]
        }
    ]
}