{
    "goal": {
        "global_pose": {
            "orientation": {
                "w": 0.7047431468963623,
                "x": -0.7094548344612122,
                "y": 0.0024358443915843964,
                "z": -0.0022348060738295317
            },
            "position": {
                "x": 0.6094750761985779,
                "y": 0.3671506643295288,
                "z": 0.19426114857196808
            }
        },
        "name": "move_to_magneteinheit_A"
    },
    "id": "PRMstar_move_to_magneteinheit_A_28",
    "joint_names": [
        "shoulder_pan_joint",
        "shoulder_lift_joint",
        "elbow_joint",
        "wrist_1_joint",
        "wrist_2_joint",
        "wrist_3_joint"
    ],
    "metrics": {
        "cart_traj_len": 3.247556069774542,
        "distance_elbow_joint": 3.9145115956884844,
        "distance_shoulder_lift_joint": 0.6656578354727316,
        "distance_shoulder_pan_joint": 2.602749772305468,
        "distance_wrist_1_joint": 3.4792149930853764,
        "distance_wrist_2_joint": 2.0440990981197102,
        "distance_wrist_3_joint": 0.8608939277537859,
        "smoothness": 0.07132333825844173,
        "time": 5.040092903000001,
        "traj_len": 3.683358144740416,
        "weighted_distance": 4.562042214747494
    },
    "planner": "PRMstar",
    "start": {
        "state": {
            "elbow_joint": -1.9196185241190666,
            "shoulder_lift_joint": -1.2443396400964142,
            "shoulder_pan_joint": 2.6996025414629847,
            "wrist_1_joint": -1.5485510000780065,
            "wrist_2_joint": -1.5709468930060704,
            "wrist_3_joint": 0.4420197071253992
        }
    },
    "waypoints": [
        {
            "positions": [
                2.6996025414629847,
                -1.2443396400964142,
                -1.9196185241190666,
                -1.5485510000780065,
                -1.5709468930060704,
                0.4420197071253992
            ]
        },
        {
            "positions": [
                2.5695441498066565,
                -1.224963452330231,
                -1.7949815594782246,
                -1.4969031777905206,
                -1.5885915983679686,
                0.40623803093625577
            ]
        },
        {
            "positions": [
                2.4394857581503278,
                -1.205587264564048,
                -1.6703445948373827,
                -1.4452553555030345,
                -1.6062363037298666,
                0.3704563547471123
            ]
        },
        {
            "positions": [
                2.3094273664939995,
                -1.1862110767978649,
                -1.5457076301965407,
                -1.3936075332155486,
                -1.6238810090917648,
                0.33467467855796884
            ]
        },
        {
            "positions": [
                2.1793689748376712,
                -1.1668348890316818,
                -1.4210706655556988,
                -1.3419597109280628,
                -1.6415257144536628,
                0.29889300236882543
            ]
        },
        {
            "positions": [
                2.0493105831813425,
                -1.1474587012654986,
                -1.2964337009148568,
                -1.2903118886405767,
                -1.659170419815561,
                0.263111326179682
            ]
        },
        {
            "positions": [
                1.9192521915250143,
                -1.1280825134993155,
                -1.1717967362740147,
                -1.2386640663530908,
                -1.6768151251774592,
                0.22732964999053856
            ]
        },
        {
            "positions": [
                1.789193799868686,
                -1.1087063257331324,
                -1.047159771633173,
                -1.187016244065605,
                -1.6944598305393572,
                0.19154797380139515
            ]
        },
        {
            "positions": [
                1.6591354082123573,
                -1.0893301379669493,
                -0.922522806992331,
                -1.1353684217781188,
                -1.7121045359012554,
                0.1557662976122517
            ]
        },
        {
            "positions": [
                1.529077016556029,
                -1.069953950200766,
                -0.797885842351489,
                -1.083720599490633,
                -1.7297492412631534,
                0.11998462142310828
            ]
        },
        {
            "positions": [
                1.3990186248997005,
                -1.050577762434583,
                -0.6732488777106471,
                -1.032072777203147,
                -1.7473939466250517,
                0.08420294523396482
            ]
        },
        {
            "positions": [
                1.268960233243372,
                -1.0312015746683998,
                -0.5486119130698051,
                -0.9804249549156611,
                -1.7650386519869499,
                0.04842126904482136
            ]
        },
        {
            "positions": [
                1.1389018415870436,
                -1.0118253869022167,
                -0.423974948428963,
                -0.9287771326281751,
                -1.7826833573488479,
                0.01263959285567795
            ]
        },
        {
            "positions": [
                1.0088434499307153,
                -0.9924491991360336,
                -0.2993379837881214,
                -0.8771293103406892,
                -1.800328062710746,
                -0.023142083333465457
            ]
        },
        {
            "positions": [
                0.878785058274387,
                -0.9730730113698505,
                -0.1747010191472793,
                -0.8254814880532032,
                -1.817972768072644,
                -0.058923759522608865
            ]
        },
        {
            "positions": [
                0.7487266666180585,
                -0.9536968236036674,
                -0.05006405450643725,
                -0.7738336657657173,
                -1.8356174734345423,
                -0.09470543571175227
            ]
        },
        {
            "positions": [
                0.6186682749617298,
                -0.9343206358374843,
                0.07457291013440459,
                -0.7221858434782313,
                -1.8532621787964403,
                -0.1304871119008958
            ]
        },
        {
            "positions": [
                0.4886098833054014,
                -0.9149444480713012,
                0.19920987477524668,
                -0.6705380211907453,
                -1.8709068841583385,
                -0.1662687880900392
            ]
        },
        {
            "positions": [
                0.44763384239034076,
                -0.8883825587610317,
                0.3222732683402284,
                -0.6034972449422034,
                -1.8313969995391532,
                -0.17874308896325575
            ]
        },
        {
            "positions": [
                0.4066578014752802,
                -0.8618206694507621,
                0.44533666190521015,
                -0.5364564686936615,
                -1.7918871149199682,
                -0.19121738983647227
            ]
        },
        {
            "positions": [
                0.3656817605602196,
                -0.8352587801404925,
                0.5684000554701919,
                -0.46941569244511955,
                -1.752377230300783,
                -0.2036916907096888
            ]
        },
        {
            "positions": [
                0.324705719645159,
                -0.808696890830223,
                0.6914634490351736,
                -0.4023749161965776,
                -1.7128673456815977,
                -0.21616599158290534
            ]
        },
        {
            "positions": [
                0.29819789843645206,
                -0.7869842361419834,
                0.8058905471949174,
                -0.28914404583704956,
                -1.622917028583275,
                -0.2157109958765067
            ]
        },
        {
            "positions": [
                0.2716900772277451,
                -0.765271581453744,
                0.9203176453546611,
                -0.1759131754775215,
                -1.5329667114849526,
                -0.21525600017010804
            ]
        },
        {
            "positions": [
                0.24518225601903815,
                -0.7435589267655045,
                1.034744743514405,
                -0.06268230511799344,
                -1.4430163943866299,
                -0.2148010044637094
            ]
        },
        {
            "positions": [
                0.21867443481033122,
                -0.7218462720772649,
                1.1491718416741485,
                0.050548565241534615,
                -1.3530660772883074,
                -0.21434600875731075
            ]
        },
        {
            "positions": [
                0.19216661360162424,
                -0.7001336173890254,
                1.2635989398338925,
                0.16377943560106267,
                -1.2631157601899847,
                -0.2138910130509121
            ]
        },
        {
            "positions": [
                0.1656587923929173,
                -0.6784209627007859,
                1.3780260379936362,
                0.2770103059605907,
                -1.173165443091662,
                -0.21343601734451345
            ]
        },
        {
            "positions": [
                0.15759123258417654,
                -0.6857326518244923,
                1.4410505932840023,
                0.44438911962437677,
                -1.0603298782829236,
                -0.19549346926094624
            ]
        },
        {
            "positions": [
                0.14952367277543577,
                -0.6930443409481987,
                1.5040751485743682,
                0.6117679332881628,
                -0.947494313474185,
                -0.17755092117737903
            ]
        },
        {
            "positions": [
                0.141456112966695,
                -0.7003560300719051,
                1.5670997038647343,
                0.7791467469519489,
                -0.8346587486654464,
                -0.15960837309381182
            ]
        },
        {
            "positions": [
                0.13338855315795423,
                -0.7076677191956113,
                1.6301242591551002,
                0.946525560615735,
                -0.721823183856708,
                -0.1416658250102446
            ]
        },
        {
            "positions": [
                0.12532099334921346,
                -0.7149794083193177,
                1.6931488144454663,
                1.1139043742795212,
                -0.6089876190479694,
                -0.1237232769266774
            ]
        },
        {
            "positions": [
                0.11725343354047268,
                -0.7222910974430241,
                1.7561733697358322,
                1.281283187943307,
                -0.4961520542392309,
                -0.10578072884311018
            ]
        },
        {
            "positions": [
                0.10918587373173191,
                -0.7296027865667305,
                1.8191979250261983,
                1.4486620016070932,
                -0.3833164894304924,
                -0.08783818075954297
            ]
        },
        {
            "positions": [
                0.11329690858980393,
                -0.7457885646371167,
                1.8777629738739379,
                1.609329332073852,
                -0.29780025201729365,
                -0.0630447080188366
            ]
        },
        {
            "positions": [
                0.11740794344787593,
                -0.761974342707503,
                1.9363280227216777,
                1.7699966625406107,
                -0.21228401460409488,
                -0.038251235278130236
            ]
        },
        {
            "positions": [
                0.12151897830594795,
                -0.7781601207778892,
                1.9948930715694173,
                1.9306639930073695,
                -0.12676777719089613,
                -0.013457762537423862
            ]
        }
    ]
}