{
    "goal": {
        "global_pose": {
            "orientation": {
                "w": -0.4816463035849501,
                "x": 0.5182115481033762,
                "y": 0.4908360881923453,
                "z": -0.5084816262002911
            },
            "position": {
                "x": -0.8240239810943604,
                "y": 0.19912469901144506,
                "z": 0.16403168439865112
            }
        },
        "name": "move_to_storage_D"
    },
    "id": "PRMstar_move_to_storage_D_67",
    "joint_names": [
        "shoulder_pan_joint",
        "shoulder_lift_joint",
        "elbow_joint",
        "wrist_1_joint",
        "wrist_2_joint",
        "wrist_3_joint"
    ],
    "metrics": {
        "cart_traj_len": 3.5912857193965335,
        "distance_elbow_joint": 4.207343971654992,
        "distance_shoulder_lift_joint": 1.2648624056320426,
        "distance_shoulder_pan_joint": 2.8141979532620565,
        "distance_wrist_1_joint": 2.261265247037956,
        "distance_wrist_2_joint": 0.8821986746881932,
        "distance_wrist_3_joint": 3.1458861743782283,
        "smoothness": 1.8698493194378823e-16,
        "time": 5.041365824,
        "traj_len": 3.8178206383555358,
        "weighted_distance": 4.900101090501714
    },
    "planner": "PRMstar",
    "start": {
        "state": {
            "elbow_joint": -2.384821988534728,
            "shoulder_lift_joint": -2.2788054721415256,
            "shoulder_pan_joint": -0.1854694642142757,
            "wrist_1_joint": 1.4845938289331202,
            "wrist_2_joint": 0.17898776772866878,
            "wrist_3_joint": 0.037105688729662994
        }
    },
    "waypoints": [
        {
            "positions": [
                -0.1854694642142757,
                -2.2788054721415256,
                -2.384821988534728,
                1.4845938289331202,
                0.17898776772866878,
                0.037105688729662994
            ]
        },
        {
            "positions": [
                -0.0882582349608978,
                -2.2633132553994524,
                -2.2405141048499884,
                1.439286873012847,
                0.2081820825691712,
                0.09963032250551693
            ]
        },
        {
            "positions": [
                0.008952994292480115,
                -2.247821038657379,
                -2.0962062211652484,
                1.3939799170925737,
                0.23737639740967362,
                0.16215495628137086
            ]
        },
        {
            "positions": [
                0.106164223545858,
                -2.2323288219153063,
                -1.9518983374805088,
                1.3486729611723005,
                0.26657071225017603,
                0.2246795900572248
            ]
        },
        {
            "positions": [
                0.20337545279923594,
                -2.216836605173233,
                -1.8075904537957688,
                1.3033660052520273,
                0.2957650270906785,
                0.28720422383307875
            ]
        },
        {
            "positions": [
                0.30058668205261385,
                -2.20134438843116,
                -1.6632825701110292,
                1.258059049331754,
                0.3249593419311809,
                0.3497288576089327
            ]
        },
        {
            "positions": [
                0.39779791130599174,
                -2.1858521716890866,
                -1.5189746864262894,
                1.2127520934114808,
                0.3541536567716833,
                0.4122534913847866
            ]
        },
        {
            "positions": [
                0.49500914055936973,
                -2.1703599549470134,
                -1.3746668027415496,
                1.1674451374912076,
                0.3833479716121857,
                0.47477812516064055
            ]
        },
        {
            "positions": [
                0.5922203698127476,
                -2.15486773820494,
                -1.2303589190568098,
                1.1221381815709344,
                0.41254228645268815,
                0.5373027589364945
            ]
        },
        {
            "positions": [
                0.6894315990661256,
                -2.1393755214628674,
                -1.08605103537207,
                1.0768312256506611,
                0.4417366012931906,
                0.5998273927123484
            ]
        },
        {
            "positions": [
                0.7866428283195035,
                -2.123883304720794,
                -0.9417431516873302,
                1.031524269730388,
                0.470930916133693,
                0.6623520264882024
            ]
        },
        {
            "positions": [
                0.8838540575728814,
                -2.108391087978721,
                -0.7974352680025907,
                0.9862173138101147,
                0.5001252309741954,
                0.7248766602640563
            ]
        },
        {
            "positions": [
                0.9810652868262592,
                -2.0928988712366476,
                -0.6531273843178509,
                0.9409103578898413,
                0.5293195458146979,
                0.7874012940399102
            ]
        },
        {
            "positions": [
                1.0782765160796373,
                -2.0774066544945744,
                -0.5088195006331111,
                0.8956034019695681,
                0.5585138606552003,
                0.8499259278157641
            ]
        },
        {
            "positions": [
                1.175487745333015,
                -2.0619144377525016,
                -0.3645116169483713,
                0.8502964460492949,
                0.5877081754957026,
                0.9124505615916181
            ]
        },
        {
            "positions": [
                1.2726989745863928,
                -2.0464222210104284,
                -0.22020373326363174,
                0.8049894901290217,
                0.616902490336205,
                0.974975195367472
            ]
        },
        {
            "positions": [
                1.3699102038397708,
                -2.030930004268355,
                -0.07589584957889173,
                0.7596825342087484,
                0.6460968051767075,
                1.037499829143326
            ]
        },
        {
            "positions": [
                1.4671214330931486,
                -2.015437787526282,
                0.06841203410584784,
                0.7143755782884752,
                0.6752911200172099,
                1.1000244629191798
            ]
        },
        {
            "positions": [
                1.5643326623465268,
                -1.9999455707842086,
                0.21271991779058785,
                0.6690686223682019,
                0.7044854348577123,
                1.1625490966950338
            ]
        },
        {
            "positions": [
                1.6615438915999048,
                -1.9844533540421356,
                0.3570278014753274,
                0.6237616664479286,
                0.7336797496982148,
                1.2250737304708879
            ]
        },
        {
            "positions": [
                1.7587551208532826,
                -1.9689611373000624,
                0.5013356851600674,
                0.5784547105276554,
                0.7628740645387172,
                1.2875983642467417
            ]
        },
        {
            "positions": [
                1.8559663501066606,
                -1.9534689205579894,
                0.645643568844807,
                0.5331477546073822,
                0.7920683793792196,
                1.3501229980225955
            ]
        },
        {
            "positions": [
                1.9531775793600383,
                -1.9379767038159161,
                0.7899514525295466,
                0.48784079868710906,
                0.821262694219722,
                1.4126476317984495
            ]
        },
        {
            "positions": [
                2.050388808613416,
                -1.922484487073843,
                0.9342593362142866,
                0.4425338427668357,
                0.8504570090602244,
                1.4751722655743034
            ]
        },
        {
            "positions": [
                2.147600037866794,
                -1.9069922703317699,
                1.0785672198990262,
                0.3972268868465625,
                0.8796513239007269,
                1.5376968993501574
            ]
        },
        {
            "positions": [
                2.244811267120172,
                -1.8915000535896966,
                1.2228751035837662,
                0.35191993092628926,
                0.9088456387412293,
                1.6002215331260115
            ]
        },
        {
            "positions": [
                2.3420224963735503,
                -1.8760078368476234,
                1.3671829872685057,
                0.30661297500601603,
                0.9380399535817318,
                1.6627461669018653
            ]
        },
        {
            "positions": [
                2.439233725626928,
                -1.8605156201055504,
                1.5114908709532457,
                0.2613060190857428,
                0.9672342684222341,
                1.7252708006777193
            ]
        },
        {
            "positions": [
                2.536444954880306,
                -1.8450234033634771,
                1.6557987546379849,
                0.21599906316546957,
                0.9964285832627365,
                1.7877954344535731
            ]
        },
        {
            "positions": [
                2.5466986808989143,
                -1.7526811437130334,
                1.6743235578026825,
                0.10570234302432452,
                1.0036239009465282,
                1.9428172598596085
            ]
        },
        {
            "positions": [
                2.5569524069175227,
                -1.6603388840625897,
                1.6928483609673801,
                -0.004594377116820536,
                1.01081921863032,
                2.097839085265644
            ]
        },
        {
            "positions": [
                2.567206132936131,
                -1.567996624412146,
                1.7113731641320775,
                -0.11489109725796559,
                1.0180145363141118,
                2.252860910671679
            ]
        },
        {
            "positions": [
                2.5774598589547395,
                -1.475654364761702,
                1.7298979672967751,
                -0.22518781739911065,
                1.0252098539979033,
                2.4078827360777146
            ]
        },
        {
            "positions": [
                2.5877135849733475,
                -1.3833121051112582,
                1.7484227704614728,
                -0.33548453754025576,
                1.032405171681695,
                2.56290456148375
            ]
        },
        {
            "positions": [
                2.597967310991956,
                -1.2909698454608145,
                1.7669475736261704,
                -0.44578125768140076,
                1.0396004893654869,
                2.7179263868897854
            ]
        },
        {
            "positions": [
                2.6082210370105643,
                -1.1986275858103705,
                1.7854723767908678,
                -0.5560779778225459,
                1.0467958070492787,
                2.8729482122958205
            ]
        },
        {
            "positions": [
                2.6184747630291727,
                -1.1062853261599268,
                1.8039971799555654,
                -0.6663746979636909,
                1.0539911247330702,
                3.0279700377018557
            ]
        },
        {
            "positions": [
                2.628728489047781,
                -1.013943066509483,
                1.822521983120263,
                -0.776671418104836,
                1.061186442416862,
                3.1829918631078913
            ]
        }
    ]
}