{
    "goal": {
        "global_pose": {
            "orientation": {
                "w": 0.005598929693374612,
                "x": 0.007748599140229565,
                "y": 0.7110244013736278,
                "z": -0.7031023480610252
            },
            "position": {
                "x": 0.1141497679147869,
                "y": -0.7141253447532654,
                "z": 0.3711530566215515
            }
        },
        "name": "move_to_auspresseinheit_B"
    },
    "id": "PRMstar_move_to_auspresseinheit_B_49",
    "joint_names": [
        "shoulder_pan_joint",
        "shoulder_lift_joint",
        "elbow_joint",
        "wrist_1_joint",
        "wrist_2_joint",
        "wrist_3_joint"
    ],
    "metrics": {
        "cart_traj_len": 0.565173251567471,
        "distance_elbow_joint": 0.06072416812091852,
        "distance_shoulder_lift_joint": 0.29539058777807314,
        "distance_shoulder_pan_joint": 0.5768963583865305,
        "distance_wrist_1_joint": 0.31609429089224184,
        "distance_wrist_2_joint": 0.9954025058785276,
        "distance_wrist_3_joint": 0.00037593613341524446,
        "smoothness": 5.075305255429287e-16,
        "time": 5.011409026,
        "traj_len": 1.4982936451809794,
        "weighted_distance": 1.8860361916536246
    },
    "planner": "PRMstar",
    "start": {
        "state": {
            "elbow_joint": 2.0193083361928714,
            "shoulder_lift_joint": -1.1220246554650708,
            "shoulder_pan_joint": -1.0952077554168747,
            "wrist_1_joint": -0.8559753972642168,
            "wrist_2_joint": 0.4759566250798843,
            "wrist_3_joint": -3.1240929996934557
        }
    },
    "waypoints": [
        {
            "positions": [
                -1.0952077554168747,
                -1.1220246554650708,
                2.0193083361928714,
                -0.8559753972642168,
                0.4759566250798843,
                -3.1240929996934557
            ]
        },
        {
            "positions": [
                -1.1913571484812964,
                -1.1712564200947497,
                2.0091876415060517,
                -0.8032930154488431,
                0.6418570427263055,
                -3.1241556557156915
            ]
        },
        {
            "positions": [
                -1.287506541545718,
                -1.2204881847244284,
                1.999066946819232,
                -0.7506106336334695,
                0.8077574603727269,
                -3.1242183117379274
            ]
        },
        {
            "positions": [
                -1.38365593461014,
                -1.2697199493541074,
                1.9889462521324122,
                -0.6979282518180958,
                0.973657878019148,
                -3.1242809677601633
            ]
        },
        {
            "positions": [
                -1.4798053276745615,
                -1.3189517139837863,
                1.9788255574455924,
                -0.6452458700027223,
                1.1395582956655694,
                -3.124343623782399
            ]
        },
        {
            "positions": [
                -1.5759547207389835,
                -1.368183478613465,
                1.9687048627587727,
                -0.5925634881873485,
                1.3054587133119906,
                -3.124406279804635
            ]
        },
        {
            "positions": [
                -1.6721041138034052,
                -1.417415243243144,
                1.958584168071953,
                -0.539881106371975,
                1.471359130958412,
                -3.124468935826871
            ]
        }
    ]
}