{
    "goal": {
        "global_pose": {
            "orientation": {
                "w": -0.00223480608172531,
                "x": 0.0024358444001904467,
                "y": 0.7094548369677653,
                "z": -0.704743149386269
            },
            "position": {
                "x": 0.6205249238014221,
                "y": -0.6371506643295288,
                "z": 0.19426114857196808
            }
        },
        "name": "move_to_magneteinheit_B"
    },
    "id": "PRMstar_move_to_magneteinheit_B_56",
    "joint_names": [
        "shoulder_pan_joint",
        "shoulder_lift_joint",
        "elbow_joint",
        "wrist_1_joint",
        "wrist_2_joint",
        "wrist_3_joint"
    ],
    "metrics": {
        "cart_traj_len": 3.7358789390368425,
        "distance_elbow_joint": 4.273260710623112,
        "distance_shoulder_lift_joint": 0.7694606521012952,
        "distance_shoulder_pan_joint": 2.7502146402261047,
        "distance_wrist_1_joint": 4.398124816159013,
        "distance_wrist_2_joint": 0.4810599857281158,
        "distance_wrist_3_joint": 3.2337314070133454,
        "smoothness": 0.17832507807057502,
        "time": 5.0713639399999995,
        "traj_len": 3.98821416323785,
        "weighted_distance": 5.220392689038326
    },
    "planner": "PRMstar",
    "start": {
        "state": {
            "elbow_joint": 2.6216224122426386,
            "shoulder_lift_joint": -1.4174107377796124,
            "shoulder_pan_joint": 0.7066234856936794,
            "wrist_1_joint": 1.9546482284002225,
            "wrist_2_joint": -0.7096286983471962,
            "wrist_3_joint": 0.005740856962016249
        }
    },
    "waypoints": [
        {
            "positions": [
                0.7066234856936794,
                -1.4174107377796124,
                2.6216224122426386,
                1.9546482284002225,
                -0.7096286983471962,
                0.005740856962016249
            ]
        },
        {
            "positions": [
                0.6813501063708027,
                -1.4255557719456267,
                2.6176033416109705,
                1.951194836083175,
                -0.7134410620683583,
                0.011969700910323199
            ]
        },
        {
            "positions": [
                0.5312705705677565,
                -1.485679141036187,
                2.56651970760633,
                1.9022658918171693,
                -0.741184296466407,
                0.034436117195402155
            ]
        },
        {
            "positions": [
                0.4198814738161325,
                -1.539211540924962,
                2.507980074441875,
                1.8444127408448736,
                -0.7656435113182505,
                0.04010594385563933
            ]
        },
        {
            "positions": [
                0.3084923770645085,
                -1.5927439408137374,
                2.4494404412774204,
                1.786559589872578,
                -0.7901027261700938,
                0.045775770515876495
            ]
        },
        {
            "positions": [
                0.36616100807941104,
                -1.6049098589113422,
                2.340644080224639,
                1.6675927929533148,
                -0.7853160130763511,
                -0.044618749170469464
            ]
        },
        {
            "positions": [
                0.4238296390943136,
                -1.617075777008947,
                2.2318477191718578,
                1.5486259960340518,
                -0.7805292999826083,
                -0.13501326885681542
            ]
        },
        {
            "positions": [
                0.48149827010921614,
                -1.6292416951065518,
                2.1230513581190764,
                1.4296591991147887,
                -0.7757425868888657,
                -0.22540778854316135
            ]
        },
        {
            "positions": [
                0.5391669011241187,
                -1.6414076132041566,
                2.014254997066295,
                1.3106924021955255,
                -0.7709558737951229,
                -0.31580230822950733
            ]
        },
        {
            "positions": [
                0.5968355321390213,
                -1.6535735313017614,
                1.9054586360135135,
                1.1917256052762624,
                -0.7661691607013802,
                -0.40619682791585326
            ]
        },
        {
            "positions": [
                0.6545041631539238,
                -1.665739449399366,
                1.7966622749607322,
                1.0727588083569994,
                -0.7613824476076374,
                -0.4965913476021992
            ]
        },
        {
            "positions": [
                0.7121727941688263,
                -1.6779053674969708,
                1.6878659139079506,
                0.9537920114377363,
                -0.7565957345138947,
                -0.5869858672885453
            ]
        },
        {
            "positions": [
                0.7698414251837289,
                -1.6900712855945756,
                1.5790695528551693,
                0.8348252145184732,
                -0.7518090214201519,
                -0.6773803869748912
            ]
        },
        {
            "positions": [
                0.8275100561986314,
                -1.7022372036921805,
                1.470273191802388,
                0.7158584175992102,
                -0.7470223083264093,
                -0.767774906661237
            ]
        },
        {
            "positions": [
                0.885178687213534,
                -1.7144031217897853,
                1.3614768307496066,
                0.596891620679947,
                -0.7422355952326665,
                -0.8581694263475831
            ]
        },
        {
            "positions": [
                0.9428473182284365,
                -1.72656903988739,
                1.2526804696968252,
                0.4779248237606841,
                -0.7374488821389238,
                -0.948563946033929
            ]
        },
        {
            "positions": [
                1.000515949243339,
                -1.7387349579849949,
                1.1438841086440439,
                0.358958026841421,
                -0.7326621690451811,
                -1.0389584657202748
            ]
        },
        {
            "positions": [
                1.0581845802582417,
                -1.7509008760825997,
                1.0350877475912625,
                0.23999122992215804,
                -0.7278754559514383,
                -1.1293529854066209
            ]
        },
        {
            "positions": [
                1.1158532112731443,
                -1.7630667941802045,
                0.926291386538481,
                0.12102443300289467,
                -0.7230887428576956,
                -1.219747505092967
            ]
        },
        {
            "positions": [
                1.1735218422880467,
                -1.7752327122778093,
                0.8174950254856999,
                0.002057636083631742,
                -0.7183020297639529,
                -1.3101420247793127
            ]
        },
        {
            "positions": [
                1.2311904733029493,
                -1.7873986303754141,
                0.7086986644329183,
                -0.11690916083563141,
                -0.7135153166702102,
                -1.4005365444656588
            ]
        },
        {
            "positions": [
                1.2888591043178517,
                -1.7995645484730187,
                0.599902303380137,
                -0.23587595775489456,
                -0.7087286035764674,
                -1.4909310641520046
            ]
        },
        {
            "positions": [
                1.3465277353327543,
                -1.8117304665706235,
                0.4911059423273556,
                -0.3548427546741575,
                -0.7039418904827247,
                -1.5813255838383504
            ]
        },
        {
            "positions": [
                1.4041963663476569,
                -1.8238963846682283,
                0.38230958127457404,
                -0.47380955159342086,
                -0.6991551773889819,
                -1.6717201035246967
            ]
        },
        {
            "positions": [
                1.4618649973625595,
                -1.8360623027658332,
                0.2735132202217927,
                -0.5927763485126838,
                -0.6943684642952392,
                -1.7621146232110425
            ]
        },
        {
            "positions": [
                1.5195336283774619,
                -1.848228220863438,
                0.16471685916901135,
                -0.7117431454319467,
                -0.6895817512014966,
                -1.8525091428973885
            ]
        },
        {
            "positions": [
                1.5772022593923645,
                -1.8603941389610428,
                0.05592049811623001,
                -0.8307099423512097,
                -0.6847950381077538,
                -1.9429036625837344
            ]
        },
        {
            "positions": [
                1.634870890407267,
                -1.8725600570586476,
                -0.05287586293655133,
                -0.949676739270473,
                -0.680008325014011,
                -2.0332981822700806
            ]
        },
        {
            "positions": [
                1.6925395214221697,
                -1.8847259751562524,
                -0.16167222398933268,
                -1.068643536189736,
                -0.6752216119202683,
                -2.1236927019564265
            ]
        },
        {
            "positions": [
                1.750208152437072,
                -1.8968918932538572,
                -0.270468585042114,
                -1.1876103331089989,
                -0.6704348988265256,
                -2.2140872216427727
            ]
        },
        {
            "positions": [
                1.8078767834519747,
                -1.9090578113514618,
                -0.37926494609489536,
                -1.3065771300282618,
                -0.6656481857327828,
                -2.3044817413291185
            ]
        },
        {
            "positions": [
                1.8655454144668773,
                -1.9212237294490668,
                -0.48806130714767715,
                -1.4255439269475252,
                -0.6608614726390402,
                -2.394876261015465
            ]
        },
        {
            "positions": [
                1.9232140454817799,
                -1.9333896475466714,
                -0.5968576682004585,
                -1.5445107238667886,
                -0.6560747595452974,
                -2.4852707807018106
            ]
        },
        {
            "positions": [
                1.9808826764966823,
                -1.9455555656442762,
                -0.7056540292532398,
                -1.6634775207860515,
                -0.6512880464515547,
                -2.5756653003881564
            ]
        },
        {
            "positions": [
                2.038551307511585,
                -1.957721483741881,
                -0.8144503903060207,
                -1.7824443177053144,
                -0.646501333357812,
                -2.6660598200745023
            ]
        },
        {
            "positions": [
                2.0962199385264872,
                -1.9698874018394859,
                -0.9232467513588025,
                -1.9014111146245778,
                -0.6417146202640692,
                -2.7564543397608485
            ]
        },
        {
            "positions": [
                2.1538885695413903,
                -1.9820533199370907,
                -1.0320431124115839,
                -2.0203779115438407,
                -0.6369279071703264,
                -2.8468488594471943
            ]
        },
        {
            "positions": [
                2.2115572005562925,
                -1.9942192380346955,
                -1.1408394734643652,
                -2.1393447084631037,
                -0.6321411940765838,
                -2.93724337913354
            ]
        },
        {
            "positions": [
                2.249461805811461,
                -2.02937458417501,
                -1.2875886555866987,
                -2.2018848651104457,
                -0.5642598954105155,
                -2.9778094245692928
            ]
        },
        {
            "positions": [
                2.2873664110666287,
                -2.0645299303153246,
                -1.4343378377090321,
                -2.2644250217577873,
                -0.4963785967444472,
                -3.018375470005045
            ]
        },
        {
            "positions": [
                2.325271016321797,
                -2.099685276455639,
                -1.5810870198313656,
                -2.3269651784051293,
                -0.4284972980783789,
                -3.0589415154407975
            ]
        },
        {
            "positions": [
                2.4595596092341503,
                -2.1431625900787163,
                -1.6124170889729037,
                -2.380819347459619,
                -0.4431731889748625,
                -3.101503346926195
            ]
        },
        {
            "positions": [
                2.5938482021465035,
                -2.186639903701794,
                -1.6437471581144418,
                -2.4346735165141093,
                -0.45784907987134615,
                -3.1440651784115925
            ]
        },
        {
            "positions": [
                2.660575908661442,
                -2.1868713898809076,
                -1.6516382983804732,
                -2.4434765877587914,
                -0.4674778278918822,
                -3.1479207229436086
            ]
        }
    ]
}