{
    "goal": {
        "global_pose": {
            "orientation": {
                "w": 0.7047431468963623,
                "x": -0.7094548344612122,
                "y": 0.0024358443915843964,
                "z": -0.0022348060738295317
            },
            "position": {
                "x": 0.6094750761985779,
                "y": 0.3671506643295288,
                "z": 0.19426114857196808
            }
        },
        "name": "move_to_magneteinheit_A"
    },
    "id": "PRMstar_move_to_magneteinheit_A_36",
    "joint_names": [
        "shoulder_pan_joint",
        "shoulder_lift_joint",
        "elbow_joint",
        "wrist_1_joint",
        "wrist_2_joint",
        "wrist_3_joint"
    ],
    "metrics": {
        "cart_traj_len": 4.289938098336786,
        "distance_elbow_joint": 3.920573866323383,
        "distance_shoulder_lift_joint": 0.4643567753950131,
        "distance_shoulder_pan_joint": 5.670573980415044,
        "distance_wrist_1_joint": 3.482913482253597,
        "distance_wrist_2_joint": 1.4348766149938936,
        "distance_wrist_3_joint": 1.0226086220221327,
        "smoothness": 0.20074879096009218,
        "time": 5.037182392999999,
        "traj_len": 3.999487884892648,
        "weighted_distance": 4.791545750871509
    },
    "planner": "PRMstar",
    "start": {
        "state": {
            "elbow_joint": -1.9196185241190666,
            "shoulder_lift_joint": -1.2443396400964142,
            "shoulder_pan_joint": 2.6996025414629847,
            "wrist_1_joint": -1.5485510000780065,
            "wrist_2_joint": -1.5709468930060704,
            "wrist_3_joint": 0.4420197071253992
        }
    },
    "waypoints": [
        {
            "positions": [
                2.6996025414629847,
                -1.2443396400964142,
                -1.9196185241190666,
                -1.5485510000780065,
                -1.5709468930060704,
                0.4420197071253992
            ]
        },
        {
            "positions": [
                2.5203023434668337,
                -1.234576805529812,
                -1.8343774727728137,
                -1.4718540680741812,
                -1.5394199984773078,
                0.45427085473714196
            ]
        },
        {
            "positions": [
                2.341002145470682,
                -1.2248139709632098,
                -1.7491364214265608,
                -1.395157136070356,
                -1.5078931039485453,
                0.46652200234888475
            ]
        },
        {
            "positions": [
                2.161701947474531,
                -1.2150511363966077,
                -1.6638953700803079,
                -1.3184602040665307,
                -1.4763662094197825,
                0.47877314996062753
            ]
        },
        {
            "positions": [
                1.9824017494783799,
                -1.2052883018300056,
                -1.5786543187340547,
                -1.2417632720627056,
                -1.44483931489102,
                0.4910242975723703
            ]
        },
        {
            "positions": [
                1.8031015514822286,
                -1.1955254672634035,
                -1.4934132673878018,
                -1.1650663400588803,
                -1.4133124203622573,
                0.503275445184113
            ]
        },
        {
            "positions": [
                1.6238013534860773,
                -1.1857626326968012,
                -1.4081722160415489,
                -1.0883694080550552,
                -1.3817855258334948,
                0.5155265927958559
            ]
        },
        {
            "positions": [
                1.444501155489926,
                -1.175999798130199,
                -1.3229311646952957,
                -1.01167247605123,
                -1.3502586313047322,
                0.5277777404075986
            ]
        },
        {
            "positions": [
                1.265200957493775,
                -1.166236963563597,
                -1.2376901133490428,
                -0.9349755440474047,
                -1.3187317367759697,
                0.5400288880193413
            ]
        },
        {
            "positions": [
                1.0859007594976238,
                -1.1564741289969949,
                -1.1524490620027898,
                -0.8582786120435795,
                -1.287204842247207,
                0.5522800356310842
            ]
        },
        {
            "positions": [
                0.9066005615014725,
                -1.1467112944303925,
                -1.067208010656537,
                -0.7815816800397543,
                -1.2556779477184443,
                0.5645311832428269
            ]
        },
        {
            "positions": [
                0.7273003635053212,
                -1.1369484598637905,
                -0.981966959310284,
                -0.7048847480359289,
                -1.2241510531896818,
                0.5767823308545698
            ]
        },
        {
            "positions": [
                0.54800016550917,
                -1.1271856252971884,
                -0.8967259079640311,
                -0.6281878160321038,
                -1.1926241586609192,
                0.5890334784663125
            ]
        },
        {
            "positions": [
                0.3686999675130189,
                -1.1174227907305863,
                -0.8114848566177781,
                -0.5514908840282786,
                -1.1610972641321566,
                0.6012846260780553
            ]
        },
        {
            "positions": [
                0.18939976951686743,
                -1.107659956163984,
                -0.726243805271525,
                -0.4747939520244533,
                -1.1295703696033939,
                0.6135357736897981
            ]
        },
        {
            "positions": [
                0.010099571520716388,
                -1.0978971215973818,
                -0.6410027539252721,
                -0.39809702002062797,
                -1.0980434750746313,
                0.6257869213015408
            ]
        },
        {
            "positions": [
                -0.16920062647543466,
                -1.0881342870307797,
                -0.5557617025790191,
                -0.32140008801680287,
                -1.0665165805458687,
                0.6380380689132836
            ]
        },
        {
            "positions": [
                -0.3485008244715857,
                -1.0783714524641776,
                -0.4705206512327662,
                -0.24470315601297776,
                -1.0349896860171062,
                0.6502892165250264
            ]
        },
        {
            "positions": [
                -0.5278010224677372,
                -1.0686086178975753,
                -0.3852795998865133,
                -0.16800622400915244,
                -1.0034627914883436,
                0.6625403641367692
            ]
        },
        {
            "positions": [
                -0.7071012204638882,
                -1.0588457833309732,
                -0.30003854854026035,
                -0.09130929200532711,
                -0.9719358969595809,
                0.6747915117485119
            ]
        },
        {
            "positions": [
                -0.8864014184600397,
                -1.0490829487643711,
                -0.21479749719400743,
                -0.014612360001502012,
                -0.9404090024308184,
                0.6870426593602548
            ]
        },
        {
            "positions": [
                -1.0657016164561908,
                -1.039320114197769,
                -0.1295564458477545,
                0.06208457200232309,
                -0.9088821079020558,
                0.6992938069719975
            ]
        },
        {
            "positions": [
                -1.2450018144523423,
                -1.0295572796311667,
                -0.04431539450150135,
                0.13878150400614864,
                -0.8773552133732931,
                0.7115449545837402
            ]
        },
        {
            "positions": [
                -1.4243020124484937,
                -1.0197944450645646,
                0.04092565684475158,
                0.21547843600997363,
                -0.8458283188445306,
                0.7237961021954831
            ]
        },
        {
            "positions": [
                -1.3383759331982956,
                -1.0064715794888333,
                0.1498161949202829,
                0.31097199413028564,
                -0.8063973165760664,
                0.6826387562537026
            ]
        },
        {
            "positions": [
                -1.2524498539480977,
                -0.993148713913102,
                0.2587067329958142,
                0.40646555225059766,
                -0.7669663143076023,
                0.6414814103119221
            ]
        },
        {
            "positions": [
                -1.1665237746978996,
                -0.9798258483373707,
                0.36759727107134554,
                0.5019591103709098,
                -0.7275353120391381,
                0.6003240643701415
            ]
        },
        {
            "positions": [
                -1.0805976954477015,
                -0.9665029827616394,
                0.47648780914687683,
                0.5974526684912218,
                -0.688104309770674,
                0.5591667184283611
            ]
        },
        {
            "positions": [
                -0.9946716161975033,
                -0.9531801171859081,
                0.5853783472224082,
                0.6929462266115338,
                -0.6486733075022098,
                0.5180093724865806
            ]
        },
        {
            "positions": [
                -0.9087455369473054,
                -0.9398572516101767,
                0.6942688852979395,
                0.7884397847318458,
                -0.6092423052337457,
                0.4768520265448001
            ]
        },
        {
            "positions": [
                -0.8228194576971073,
                -0.9265343860344455,
                0.8031594233734708,
                0.883933342852158,
                -0.5698113029652816,
                0.4356946806030196
            ]
        },
        {
            "positions": [
                -0.7368933784469093,
                -0.9132115204587141,
                0.9120499614490021,
                0.9794269009724699,
                -0.5303803006968174,
                0.3945373346612391
            ]
        },
        {
            "positions": [
                -0.6509672991967111,
                -0.8998886548829829,
                1.0209404995245335,
                1.074920459092782,
                -0.4909492984283532,
                0.3533799887194586
            ]
        },
        {
            "positions": [
                -0.565041219946513,
                -0.8865657893072516,
                1.1298310376000649,
                1.1704140172130941,
                -0.45151829615988903,
                0.3122226427776781
            ]
        },
        {
            "positions": [
                -0.4791151406963149,
                -0.8732429237315202,
                1.2387215756755963,
                1.2659075753334061,
                -0.4120872938914249,
                0.27106529683589753
            ]
        },
        {
            "positions": [
                -0.3931890614461171,
                -0.859920058155789,
                1.3476121137511274,
                1.3614011334537182,
                -0.37265629162296077,
                0.22990795089411709
            ]
        },
        {
            "positions": [
                -0.30726298219591897,
                -0.8465971925800576,
                1.4565026518266588,
                1.4568946915740302,
                -0.3332252893544966,
                0.18875060495233664
            ]
        },
        {
            "positions": [
                -0.22133690294572084,
                -0.8332743270043264,
                1.56539318990219,
                1.5523882496943422,
                -0.2937942870860325,
                0.1475932590105561
            ]
        },
        {
            "positions": [
                -0.1354108236955227,
                -0.819951461428595,
                1.6742837279777214,
                1.6478818078146542,
                -0.2543632848175683,
                0.10643591306877553
            ]
        },
        {
            "positions": [
                -0.0494847444453248,
                -0.8066285958528637,
                1.7831742660532526,
                1.7433753659349662,
                -0.21493228254910424,
                0.06527856712699509
            ]
        },
        {
            "positions": [
                0.03644133480487333,
                -0.7933057302771325,
                1.892064804128784,
                1.8388689240552782,
                -0.17550128028064005,
                0.024121221185214647
            ]
        },
        {
            "positions": [
                0.12236741405507155,
                -0.7799828647014011,
                2.0009553422043154,
                1.9343624821755905,
                -0.13607027801217592,
                -0.017036124756565907
            ]
        }
    ]
}