{
    "goal": {
        "global_pose": {
            "orientation": {
                "w": 0.005598929693374612,
                "x": 0.007748599140229565,
                "y": 0.7110244013736278,
                "z": -0.7031023480610252
            },
            "position": {
                "x": 0.1141497679147869,
                "y": -0.7141253447532654,
                "z": 0.3711530566215515
            }
        },
        "name": "move_to_auspresseinheit_B"
    },
    "id": "PRMstar_move_to_auspresseinheit_B_77",
    "joint_names": [
        "shoulder_pan_joint",
        "shoulder_lift_joint",
        "elbow_joint",
        "wrist_1_joint",
        "wrist_2_joint",
        "wrist_3_joint"
    ],
    "metrics": {
        "cart_traj_len": 0.5644759378238184,
        "distance_elbow_joint": 0.06276262961720103,
        "distance_shoulder_lift_joint": 0.2942089710101967,
        "distance_shoulder_pan_joint": 0.5775457959202273,
        "distance_wrist_1_joint": 0.32399159258853716,
        "distance_wrist_2_joint": 0.9866386566920262,
        "distance_wrist_3_joint": 0.006390375239933466,
        "smoothness": 5.075305255429287e-16,
        "time": 5.007361698,
        "traj_len": 1.500512586107868,
        "weighted_distance": 1.890753558988731
    },
    "planner": "PRMstar",
    "start": {
        "state": {
            "elbow_joint": 2.0193083361928714,
            "shoulder_lift_joint": -1.1220246554650708,
            "shoulder_pan_joint": -1.0952077554168747,
            "wrist_1_joint": -0.8559753972642168,
            "wrist_2_joint": 0.4759566250798843,
            "wrist_3_joint": -3.1240929996934557
        }
    },
    "waypoints": [
        {
            "positions": [
                -1.0952077554168747,
                -1.1220246554650708,
                2.0193083361928714,
                -0.8559753972642168,
                0.4759566250798843,
                -3.1240929996934557
            ]
        },
        {
            "positions": [
                -1.191465388070246,
                -1.1710594839667703,
                2.0088478979233377,
                -0.8019767984994606,
                0.640396401195222,
                -3.123027937153467
            ]
        },
        {
            "positions": [
                -1.287723020723617,
                -1.2200943124684698,
                1.9983874596538045,
                -0.7479781997347044,
                0.8048361773105597,
                -3.121962874613478
            ]
        },
        {
            "positions": [
                -1.3839806533769883,
                -1.2691291409701693,
                1.9879270213842708,
                -0.6939796009699482,
                0.9692759534258975,
                -3.1208978120734887
            ]
        },
        {
            "positions": [
                -1.4802382860303593,
                -1.3181639694718685,
                1.9774665831147373,
                -0.639981002205192,
                1.133715729541235,
                -3.1198327495335
            ]
        },
        {
            "positions": [
                -1.5764959186837308,
                -1.367198797973568,
                1.9670061448452039,
                -0.5859824034404357,
                1.2981555056565728,
                -3.118767686993511
            ]
        },
        {
            "positions": [
                -1.672753551337102,
                -1.4162336264752675,
                1.9565457065756704,
                -0.5319838046756796,
                1.4625952817719106,
                -3.117702624453522
            ]
        }
    ]
}