{
    "goal": {
        "global_pose": {
            "orientation": {
                "w": -0.00223480608172531,
                "x": 0.0024358444001904467,
                "y": 0.7094548369677653,
                "z": -0.704743149386269
            },
            "position": {
                "x": 0.6205249238014221,
                "y": -0.6371506643295288,
                "z": 0.19426114857196808
            }
        },
        "name": "move_to_magneteinheit_B"
    },
    "id": "PRMstar_move_to_magneteinheit_B_123",
    "joint_names": [
        "shoulder_pan_joint",
        "shoulder_lift_joint",
        "elbow_joint",
        "wrist_1_joint",
        "wrist_2_joint",
        "wrist_3_joint"
    ],
    "metrics": {
        "cart_traj_len": 1.4600405070918592,
        "distance_elbow_joint": 1.019453835029557,
        "distance_shoulder_lift_joint": 0.7930183862419142,
        "distance_shoulder_pan_joint": 1.6204272840396967,
        "distance_wrist_1_joint": 0.195685101587999,
        "distance_wrist_2_joint": 1.5221652949302442,
        "distance_wrist_3_joint": 0.0997533561572666,
        "smoothness": 0.18961761120667062,
        "time": 5.012210346000001,
        "traj_len": 2.291397664742346,
        "weighted_distance": 2.6772860076613885
    },
    "planner": "PRMstar",
    "start": {
        "state": {
            "elbow_joint": 2.6216224122426386,
            "shoulder_lift_joint": -1.4174107377796124,
            "shoulder_pan_joint": 0.7066234856936794,
            "wrist_1_joint": 1.9546482284002225,
            "wrist_2_joint": -0.7096286983471962,
            "wrist_3_joint": 0.005740856962016249
        }
    },
    "waypoints": [
        {
            "positions": [
                0.7066234856936794,
                -1.4174107377796124,
                2.6216224122426386,
                1.9546482284002225,
                -0.7096286983471962,
                0.005740856962016249
            ]
        },
        {
            "positions": [
                0.6000357978286607,
                -1.427259226214502,
                2.638013271745066,
                1.9846690842829144,
                -0.8355252325014972,
                -0.01979041373731811
            ]
        },
        {
            "positions": [
                0.49344810996364197,
                -1.437107714649392,
                2.6544041312474933,
                2.0146899401656064,
                -0.9614217666557981,
                -0.045321684436652465
            ]
        },
        {
            "positions": [
                0.3761771176045037,
                -1.3726642638683808,
                2.5721814549121014,
                2.0259935559841575,
                -1.0672861188742684,
                -0.04126411654010264
            ]
        },
        {
            "positions": [
                0.25890612524536544,
                -1.3082208130873696,
                2.4899587785767094,
                2.037297171802709,
                -1.1731504710927385,
                -0.037206548643552814
            ]
        },
        {
            "positions": [
                0.14163513288622714,
                -1.2437773623063584,
                2.4077361022413175,
                2.04860078762126,
                -1.2790148233112086,
                -0.03314898074700299
            ]
        },
        {
            "positions": [
                0.024364140527088907,
                -1.1793339115253472,
                2.325513425905926,
                2.0599044034398113,
                -1.384879175529679,
                -0.029091412850453163
            ]
        },
        {
            "positions": [
                -0.09290685183204939,
                -1.114890460744336,
                2.243290749570534,
                2.071208019258363,
                -1.4907435277481493,
                -0.025033844953903334
            ]
        },
        {
            "positions": [
                -0.21017784419118768,
                -1.0504470099633247,
                2.161068073235142,
                2.082511635076914,
                -1.5966078799666192,
                -0.02097627705735351
            ]
        },
        {
            "positions": [
                -0.327448836550326,
                -0.9860035591823135,
                2.0788453968997502,
                2.093815250895465,
                -1.7024722321850896,
                -0.01691870916080368
            ]
        },
        {
            "positions": [
                -0.44471982890946415,
                -0.9215601084013023,
                1.9966227205643585,
                2.1051188667140166,
                -1.8083365844035597,
                -0.012861141264253861
            ]
        },
        {
            "positions": [
                -0.5619908212686026,
                -0.8571166576202911,
                1.9144000442289666,
                2.1164224825325677,
                -1.9142009366220298,
                -0.008803573367704029
            ]
        },
        {
            "positions": [
                -0.6792618136277407,
                -0.7926732068392799,
                1.8321773678935747,
                2.127726098351119,
                -2.0200652888405,
                -0.0047460054711542035
            ]
        },
        {
            "positions": [
                -0.7965328059868789,
                -0.7282297560582687,
                1.749954691558183,
                2.1390297141696704,
                -2.12592964105897,
                -0.000688437574604378
            ]
        },
        {
            "positions": [
                -0.9138037983460173,
                -0.6637863052772575,
                1.667732015222791,
                2.1503333299882215,
                -2.2317939932774404,
                0.003369130321945445
            ]
        }
    ]
}