{
    "goal": {
        "global_pose": {
            "orientation": {
                "w": -0.00223480608172531,
                "x": 0.0024358444001904467,
                "y": 0.7094548369677653,
                "z": -0.704743149386269
            },
            "position": {
                "x": 0.6205249238014221,
                "y": -0.6371506643295288,
                "z": 0.19426114857196808
            }
        },
        "name": "move_to_magneteinheit_B"
    },
    "id": "PRMstar_move_to_magneteinheit_B_138",
    "joint_names": [
        "shoulder_pan_joint",
        "shoulder_lift_joint",
        "elbow_joint",
        "wrist_1_joint",
        "wrist_2_joint",
        "wrist_3_joint"
    ],
    "metrics": {
        "cart_traj_len": 1.4350293072200764,
        "distance_elbow_joint": 0.9530430029844661,
        "distance_shoulder_lift_joint": 0.839362327590061,
        "distance_shoulder_pan_joint": 1.6214941810458716,
        "distance_wrist_1_joint": 0.400212359638489,
        "distance_wrist_2_joint": 1.545992614730688,
        "distance_wrist_3_joint": 0.14218048106842351,
        "smoothness": 0.3295716768182143,
        "time": 5.065295889000001,
        "traj_len": 2.345694985938709,
        "weighted_distance": 2.7808004069986794
    },
    "planner": "PRMstar",
    "start": {
        "state": {
            "elbow_joint": 2.6216224122426386,
            "shoulder_lift_joint": -1.4174107377796124,
            "shoulder_pan_joint": 0.7066234856936794,
            "wrist_1_joint": 1.9546482284002225,
            "wrist_2_joint": -0.7096286983471962,
            "wrist_3_joint": 0.005740856962016249
        }
    },
    "waypoints": [
        {
            "positions": [
                0.7066234856936794,
                -1.4174107377796124,
                2.6216224122426386,
                1.9546482284002225,
                -0.7096286983471962,
                0.005740856962016249
            ]
        },
        {
            "positions": [
                0.4837986090356986,
                -1.4386939982336369,
                2.6132765130049393,
                1.9021026168338948,
                -0.7017962430497509,
                -0.028871321841681563
            ]
        },
        {
            "positions": [
                0.26097373237771776,
                -1.4599772586876616,
                2.60493061376724,
                1.8495570052675672,
                -0.6939637877523055,
                -0.06348350064537937
            ]
        },
        {
            "positions": [
                0.17052416101387852,
                -1.398685273558276,
                2.5329035980357735,
                1.8722586311526312,
                -0.8116813034550592,
                -0.057871491148377224
            ]
        },
        {
            "positions": [
                0.0800745896500393,
                -1.3373932884288906,
                2.460876582304307,
                1.8949602570376953,
                -0.9293988191578128,
                -0.052259481651375075
            ]
        },
        {
            "positions": [
                -0.010374981713799913,
                -1.276101303299505,
                2.3888495665728398,
                1.9176618829227596,
                -1.0471163348605663,
                -0.046647472154372926
            ]
        },
        {
            "positions": [
                -0.10082455307763916,
                -1.2148093181701194,
                2.316822550841373,
                1.9403635088078237,
                -1.16483385056332,
                -0.04103546265737078
            ]
        },
        {
            "positions": [
                -0.19127412444147834,
                -1.153517333040734,
                2.2447955351099065,
                1.9630651346928878,
                -1.2825513662660737,
                -0.03542345316036863
            ]
        },
        {
            "positions": [
                -0.2817236958053176,
                -1.0922253479113484,
                2.1727685193784394,
                1.9857667605779519,
                -1.4002688819688274,
                -0.02981144366336648
            ]
        },
        {
            "positions": [
                -0.3721732671691567,
                -1.030933362781963,
                2.100741503646973,
                2.008468386463016,
                -1.5179863976715808,
                -0.02419943416636433
            ]
        },
        {
            "positions": [
                -0.4626228385329961,
                -0.9696413776525774,
                2.028714487915506,
                2.0311700123480803,
                -1.6357039133743347,
                -0.018587424669362182
            ]
        },
        {
            "positions": [
                -0.5530724098968351,
                -0.9083493925231919,
                1.9566874721840395,
                2.0538716382331446,
                -1.7534214290770882,
                -0.012975415172360033
            ]
        },
        {
            "positions": [
                -0.6435219812606745,
                -0.8470574073938063,
                1.8846604564525726,
                2.0765732641182084,
                -1.8711389447798419,
                -0.007363405675357884
            ]
        },
        {
            "positions": [
                -0.7339715526245136,
                -0.7857654222644209,
                1.812633440721106,
                2.0992748900032727,
                -1.9888564604825953,
                -0.0017513961783557352
            ]
        },
        {
            "positions": [
                -0.824421123988353,
                -0.7244734371350353,
                1.7406064249896391,
                2.1219765158883366,
                -2.1065739761853495,
                0.0038606133186464137
            ]
        },
        {
            "positions": [
                -0.9148706953521921,
                -0.6631814520056498,
                1.6685794092581725,
                2.144678141773401,
                -2.2242914918881027,
                0.009472622815648557
            ]
        }
    ]
}