{
    "goal": {
        "global_pose": {
            "orientation": {
                "w": 0.5084816262002911,
                "x": -0.4908360881923452,
                "y": 0.5182115481033761,
                "z": -0.48164630358495003
            },
            "position": {
                "x": 0.5540239810943604,
                "y": -0.46912469901144505,
                "z": 0.16403168439865112
            }
        },
        "name": "move_to_storage_B"
    },
    "id": "PRMstar_move_to_storage_B_50",
    "joint_names": [
        "shoulder_pan_joint",
        "shoulder_lift_joint",
        "elbow_joint",
        "wrist_1_joint",
        "wrist_2_joint",
        "wrist_3_joint"
    ],
    "metrics": {
        "cart_traj_len": 0.6201204556107596,
        "distance_elbow_joint": 0.3625477728725657,
        "distance_shoulder_lift_joint": 0.46521167183160994,
        "distance_shoulder_pan_joint": 0.27043805530726084,
        "distance_wrist_1_joint": 2.990403988418409,
        "distance_wrist_2_joint": 2.714006499587397,
        "distance_wrist_3_joint": 3.2001271844409485,
        "smoothness": 0.3461198125845662,
        "time": 5.0768963750000005,
        "traj_len": 3.162710099338571,
        "weighted_distance": 4.701850702579347
    },
    "planner": "PRMstar",
    "start": {
        "state": {
            "elbow_joint": 1.664937868594044,
            "shoulder_lift_joint": -0.661644460510453,
            "shoulder_pan_joint": -0.9139846352900073,
            "wrist_1_joint": 2.146753192139373,
            "wrist_2_joint": -2.2341966793290973,
            "wrist_3_joint": 0.005466555786416001
        }
    },
    "waypoints": [
        {
            "positions": [
                -0.9139846352900073,
                -0.661644460510453,
                1.664937868594044,
                2.146753192139373,
                -2.2341966793290973,
                0.005466555786416001
            ]
        },
        {
            "positions": [
                -0.8687730403550535,
                -0.6592018914774432,
                1.659865516716164,
                2.1264743152337164,
                -2.2129174306172654,
                0.04080062858179808
            ]
        },
        {
            "positions": [
                -0.8777820987699458,
                -0.6777126555893872,
                1.6741645335559514,
                2.007669310773206,
                -2.1052083405822426,
                -0.08579109588402459
            ]
        },
        {
            "positions": [
                -0.8867911571848381,
                -0.6962234197013313,
                1.6884635503957388,
                1.8888643063126962,
                -1.9974992505472202,
                -0.21238282034984726
            ]
        },
        {
            "positions": [
                -0.8958002155997304,
                -0.7147341838132752,
                1.7027625672355262,
                1.7700593018521862,
                -1.8897901605121976,
                -0.3389745448156699
            ]
        },
        {
            "positions": [
                -0.9048092740146226,
                -0.7332449479252192,
                1.7170615840753136,
                1.651254297391676,
                -1.782081070477175,
                -0.46556626928149264
            ]
        },
        {
            "positions": [
                -0.9138183324295149,
                -0.7517557120371633,
                1.7313606009151012,
                1.532449292931166,
                -1.6743719804421522,
                -0.5921579937473153
            ]
        },
        {
            "positions": [
                -0.9228273908444072,
                -0.7702664761491073,
                1.7456596177548886,
                1.413644288470656,
                -1.5666628904071298,
                -0.7187497182131378
            ]
        },
        {
            "positions": [
                -0.9318364492592995,
                -0.7887772402610513,
                1.759958634594676,
                1.2948392840101457,
                -1.458953800372107,
                -0.8453414426789606
            ]
        },
        {
            "positions": [
                -0.9408455076741918,
                -0.8072880043729953,
                1.7742576514344635,
                1.1760342795496357,
                -1.3512447103370846,
                -0.9719331671447833
            ]
        },
        {
            "positions": [
                -0.949854566089084,
                -0.8257987684849393,
                1.7885566682742509,
                1.0572292750891257,
                -1.243535620302062,
                -1.0985248916106058
            ]
        },
        {
            "positions": [
                -0.9588636245039763,
                -0.8443095325968833,
                1.8028556851140383,
                0.9384242706286154,
                -1.1358265302670392,
                -1.2251166160764286
            ]
        },
        {
            "positions": [
                -0.9678726829188686,
                -0.8628202967088273,
                1.8171547019538257,
                0.8196192661681054,
                -1.0281174402320168,
                -1.3517083405422512
            ]
        },
        {
            "positions": [
                -0.9768817413337609,
                -0.8813310608207713,
                1.831453718793613,
                0.7008142617075954,
                -0.9204083501969942,
                -1.4783000650080738
            ]
        },
        {
            "positions": [
                -0.9858907997486532,
                -0.8998418249327154,
                1.8457527356334007,
                0.5820092572470852,
                -0.8126992601619714,
                -1.6048917894738965
            ]
        },
        {
            "positions": [
                -0.9948998581635455,
                -0.9183525890446593,
                1.860051752473188,
                0.46320425278657495,
                -0.7049901701269488,
                -1.7314835139397193
            ]
        },
        {
            "positions": [
                -1.0039089165784378,
                -0.9368633531566033,
                1.8743507693129755,
                0.34439924832606517,
                -0.5972810800919264,
                -1.8580752384055417
            ]
        },
        {
            "positions": [
                -1.0129179749933301,
                -0.9553741172685474,
                1.888649786152763,
                0.22559424386555493,
                -0.48957199005690355,
                -1.9846669628713647
            ]
        },
        {
            "positions": [
                -1.0219270334082224,
                -0.9738848813804915,
                1.9029488029925503,
                0.1067892394050447,
                -0.38186290002188095,
                -2.1112586873371875
            ]
        },
        {
            "positions": [
                -1.0309360918231145,
                -0.9923956454924354,
                1.9172478198323377,
                -0.012015765055465089,
                -0.27415380998685857,
                -2.23785041180301
            ]
        },
        {
            "positions": [
                -1.0399451502380068,
                -1.0109064096043794,
                1.9315468366721251,
                -0.13082076951597532,
                -0.16644471995183574,
                -2.3644421362688326
            ]
        },
        {
            "positions": [
                -1.0489542086528991,
                -1.0294171737163234,
                1.9458458535119125,
                -0.24962577397648555,
                -0.058735629916812915,
                -2.4910338607346554
            ]
        },
        {
            "positions": [
                -1.0579632670677914,
                -1.0479279378282673,
                1.9601448703517002,
                -0.36843077843699534,
                0.048973460118209466,
                -2.6176255852004777
            ]
        },
        {
            "positions": [
                -1.0669723254826837,
                -1.0664387019402115,
                1.9744438871914876,
                -0.4872357828975056,
                0.15668255015323185,
                -2.7442173096663005
            ]
        },
        {
            "positions": [
                -1.075981383897576,
                -1.0849494660521555,
                1.988742904031275,
                -0.6060407873580158,
                0.2643916401882547,
                -2.8708090341321233
            ]
        },
        {
            "positions": [
                -1.0849904423124683,
                -1.1034602301640994,
                2.003041920871062,
                -0.7248457918185256,
                0.37210073022327705,
                -2.9974007585979456
            ]
        },
        {
            "positions": [
                -1.0939995007273606,
                -1.1219709942760434,
                2.0173409377108498,
                -0.843650796279036,
                0.47980982025829993,
                -3.1239924830637684
            ]
        }
    ]
}