{
    "goal": {
        "global_pose": {
            "orientation": {
                "w": 0.5084816262002911,
                "x": -0.4908360881923452,
                "y": 0.5182115481033761,
                "z": -0.48164630358495003
            },
            "position": {
                "x": 0.5540239810943604,
                "y": -0.46912469901144505,
                "z": 0.16403168439865112
            }
        },
        "name": "move_to_storage_B"
    },
    "id": "PRMstar_move_to_storage_B_116",
    "joint_names": [
        "shoulder_pan_joint",
        "shoulder_lift_joint",
        "elbow_joint",
        "wrist_1_joint",
        "wrist_2_joint",
        "wrist_3_joint"
    ],
    "metrics": {
        "cart_traj_len": 0.9863927286683553,
        "distance_elbow_joint": 0.7117430839098184,
        "distance_shoulder_lift_joint": 0.9102345297395296,
        "distance_shoulder_pan_joint": 0.34784089918170824,
        "distance_wrist_1_joint": 2.9835191176673117,
        "distance_wrist_2_joint": 2.7029277797093303,
        "distance_wrist_3_joint": 3.141525883688628,
        "smoothness": 0.08194837872356599,
        "time": 5.082813957,
        "traj_len": 3.285999283915979,
        "weighted_distance": 4.77150814299318
    },
    "planner": "PRMstar",
    "start": {
        "state": {
            "elbow_joint": 1.664937868594044,
            "shoulder_lift_joint": -0.661644460510453,
            "shoulder_pan_joint": -0.9139846352900073,
            "wrist_1_joint": 2.146753192139373,
            "wrist_2_joint": -2.2341966793290973,
            "wrist_3_joint": 0.005466555786416001
        }
    },
    "waypoints": [
        {
            "positions": [
                -0.9139846352900073,
                -0.661644460510453,
                1.664937868594044,
                2.146753192139373,
                -2.2341966793290973,
                0.005466555786416001
            ]
        },
        {
            "positions": [
                -0.928636049425021,
                -0.7061738284464001,
                1.7001047431966925,
                2.146045024922492,
                -2.183784487740489,
                -0.06644061548119143
            ]
        },
        {
            "positions": [
                -0.9513967535786496,
                -0.7644255138454172,
                1.7451894246737822,
                2.116566592003998,
                -2.0812302883341736,
                -0.19163648646355316
            ]
        },
        {
            "positions": [
                -0.9741574577322781,
                -0.8226771992444344,
                1.790274106150872,
                2.0870881590855035,
                -1.978676088927858,
                -0.31683235744591487
            ]
        },
        {
            "positions": [
                -0.9969181618859068,
                -0.8809288846434514,
                1.8353587876279618,
                2.0576097261670094,
                -1.8761218895215426,
                -0.4420282284282766
            ]
        },
        {
            "positions": [
                -1.0196788660395353,
                -0.9391805700424686,
                1.8804434691050518,
                2.028131293248515,
                -1.7735676901152269,
                -0.5672240994106383
            ]
        },
        {
            "positions": [
                -1.042439570193164,
                -0.9974322554414857,
                1.9255281505821416,
                1.9986528603300209,
                -1.6710134907089114,
                -0.6924199703930001
            ]
        },
        {
            "positions": [
                -1.0652002743467925,
                -1.0556839408405028,
                1.9706128320592313,
                1.9691744274115266,
                -1.5684592913025959,
                -0.8176158413753617
            ]
        },
        {
            "positions": [
                -1.0879609785004212,
                -1.11393562623952,
                2.0156975135363213,
                1.9396959944930323,
                -1.4659050918962804,
                -0.9428117123577235
            ]
        },
        {
            "positions": [
                -1.1107216826540498,
                -1.172187311638537,
                2.060782195013411,
                1.910217561574538,
                -1.3633508924899647,
                -1.0680075833400853
            ]
        },
        {
            "positions": [
                -1.1334823868076782,
                -1.2304389970375542,
                2.105866876490501,
                1.8807391286560438,
                -1.2607966930836492,
                -1.193203454322447
            ]
        },
        {
            "positions": [
                -1.1562430909613068,
                -1.2886906824365714,
                2.1509515579675904,
                1.8512606957375495,
                -1.1582424936773337,
                -1.3183993253048087
            ]
        },
        {
            "positions": [
                -1.1790037951149355,
                -1.3469423678355885,
                2.1960362394446804,
                1.8217822628190552,
                -1.0556882942710182,
                -1.4435951962871705
            ]
        },
        {
            "positions": [
                -1.1741319280939484,
                -1.3337108018112125,
                2.185410079852964,
                1.665397075269232,
                -0.9660165651738858,
                -1.5431519099115847
            ]
        },
        {
            "positions": [
                -1.1692600610729613,
                -1.3204792357868362,
                2.1747839202612473,
                1.5090118877194088,
                -0.8763448360767534,
                -1.642708623535999
            ]
        },
        {
            "positions": [
                -1.1643881940519742,
                -1.3072476697624602,
                2.164157760669531,
                1.3526267001695857,
                -0.7866731069796209,
                -1.742265337160413
            ]
        },
        {
            "positions": [
                -1.1595163270309872,
                -1.294016103738084,
                2.1535316010778143,
                1.1962415126197623,
                -0.6970013778824886,
                -1.8418220507848273
            ]
        },
        {
            "positions": [
                -1.15464446001,
                -1.280784537713708,
                2.1429054414860973,
                1.0398563250699393,
                -0.6073296487853561,
                -1.9413787644092415
            ]
        },
        {
            "positions": [
                -1.149772592989013,
                -1.267552971689332,
                2.1322792818943808,
                0.8834711375201161,
                -0.5176579196882237,
                -2.0409354780336555
            ]
        },
        {
            "positions": [
                -1.144900725968026,
                -1.2543214056649556,
                2.1216531223026642,
                0.7270859499702929,
                -0.42798619059109144,
                -2.14049219165807
            ]
        },
        {
            "positions": [
                -1.1400288589470389,
                -1.2410898396405796,
                2.1110269627109477,
                0.5707007624204696,
                -0.33831446149395905,
                -2.2400489052824843
            ]
        },
        {
            "positions": [
                -1.135156991926052,
                -1.2278582736162034,
                2.100400803119231,
                0.41431557487064663,
                -0.24864273239682655,
                -2.3396056189068983
            ]
        },
        {
            "positions": [
                -1.130285124905065,
                -1.2146267075918273,
                2.0897746435275146,
                0.2579303873208234,
                -0.15897100329969416,
                -2.4391623325313123
            ]
        },
        {
            "positions": [
                -1.1254132578840779,
                -1.2013951415674513,
                2.079148483935798,
                0.10154519977100018,
                -0.06929927420256177,
                -2.5387190461557267
            ]
        },
        {
            "positions": [
                -1.1205413908630908,
                -1.188163575543075,
                2.0685223243440816,
                -0.05483998777882304,
                0.020372454894570735,
                -2.638275759780141
            ]
        },
        {
            "positions": [
                -1.1156695238421037,
                -1.174932009518699,
                2.057896164752365,
                -0.21122517532864604,
                0.11004418399170302,
                -2.737832473404555
            ]
        },
        {
            "positions": [
                -1.1107976568211166,
                -1.1617004434943228,
                2.047270005160648,
                -0.3676103628784695,
                0.1997159130888353,
                -2.837389187028969
            ]
        },
        {
            "positions": [
                -1.1059257898001296,
                -1.1484688774699467,
                2.0366438455689315,
                -0.5239955504282925,
                0.2893876421859678,
                -2.9369459006533836
            ]
        },
        {
            "positions": [
                -1.1010539227791425,
                -1.1352373114455705,
                2.026017685977215,
                -0.6803807379781159,
                0.3790593712831001,
                -3.036502614277798
            ]
        },
        {
            "positions": [
                -1.0961820557581554,
                -1.1220057454211945,
                2.0153915263854985,
                -0.8367659255279388,
                0.46873110038023263,
                -3.136059327902212
            ]
        }
    ]
}