{
    "goal": {
        "global_pose": {
            "orientation": {
                "w": 0.5084816217422485,
                "x": -0.49083608388900757,
                "y": 0.5182115435600281,
                "z": -0.4816462993621826
            },
            "position": {
                "x": 0.5540239810943604,
                "y": 0.030875300988554955,
                "z": 0.16403168439865112
            }
        },
        "name": "move_to_storage_A"
    },
    "id": "PRMstar_move_to_storage_A_110",
    "joint_names": [
        "shoulder_pan_joint",
        "shoulder_lift_joint",
        "elbow_joint",
        "wrist_1_joint",
        "wrist_2_joint",
        "wrist_3_joint"
    ],
    "metrics": {
        "cart_traj_len": 0.3522847140073257,
        "distance_elbow_joint": 0.44796463334661696,
        "distance_shoulder_lift_joint": 0.2345077537441893,
        "distance_shoulder_pan_joint": 0.45939080336307814,
        "distance_wrist_1_joint": 0.23590015061021108,
        "distance_wrist_2_joint": 1.1025110798621682,
        "distance_wrist_3_joint": 0.095737365853795,
        "smoothness": 1.3322676295501878e-15,
        "time": 5.008340367,
        "traj_len": 1.604995883726827,
        "weighted_distance": 2.0263014950791574
    },
    "planner": "PRMstar",
    "start": {
        "state": {
            "elbow_joint": 1.971548259319323,
            "shoulder_lift_joint": -1.1394851275133948,
            "shoulder_pan_joint": 0.1228115487234821,
            "wrist_1_joint": -0.7804723859257726,
            "wrist_2_joint": 0.12958671773740124,
            "wrist_3_joint": -3.192489227718131
        }
    },
    "waypoints": [
        {
            "positions": [
                0.1228115487234821,
                -1.1394851275133948,
                1.971548259319323,
                -0.7804723859257726,
                0.12958671773740124,
                -3.192489227718131
            ]
        },
        {
            "positions": [
                0.05718429110018523,
                -1.1729862351911362,
                2.035543206940268,
                -0.8141724074415171,
                0.28708830057485385,
                -3.178812461167589
            ]
        },
        {
            "positions": [
                -0.008442966523111634,
                -1.2064873428688774,
                2.0995381545612135,
                -0.8478724289572614,
                0.44458988341230643,
                -3.165135694617047
            ]
        },
        {
            "positions": [
                -0.07407022414640851,
                -1.2399884505466188,
                2.163533102182159,
                -0.8815724504730059,
                0.6020914662497591,
                -3.151458928066505
            ]
        },
        {
            "positions": [
                -0.13969748176970537,
                -1.2734895582243602,
                2.2275280498031043,
                -0.9152724719887504,
                0.7595930490872117,
                -3.1377821615159625
            ]
        },
        {
            "positions": [
                -0.20532473939300228,
                -1.3069906659021016,
                2.2915229974240496,
                -0.9489724935044948,
                0.9170946319246643,
                -3.1241053949654205
            ]
        },
        {
            "positions": [
                -0.27095199701629913,
                -1.3404917735798427,
                2.3555179450449946,
                -0.9826725150202392,
                1.0745962147621169,
                -3.110428628414878
            ]
        },
        {
            "positions": [
                -0.33657925463959604,
                -1.3739928812575841,
                2.41951289266594,
                -1.0163725365359837,
                1.2320977975995695,
                -3.096751861864336
            ]
        }
    ]
}{
    "goal": {
        "global_pose": {
            "orientation": {
                "w": 0.5084816217422485,
                "x": -0.49083608388900757,
                "y": 0.5182115435600281,
                "z": -0.4816462993621826
            },
            "position": {
                "x": 0.5540239810943604,
                "y": 0.030875300988554955,
                "z": 0.16403168439865112
            }
        },
        "name": "move_to_storage_A"
    },
    "id": "PRMstar_move_to_storage_A_110",
    "joint_names": [
        "shoulder_pan_joint",
        "shoulder_lift_joint",
        "elbow_joint",
        "wrist_1_joint",
        "wrist_2_joint",
        "wrist_3_joint"
    ],
    "metrics": {
        "cart_traj_len": 0.35227193783158706,
        "distance_elbow_joint": 0.44844457881018984,
        "distance_shoulder_lift_joint": 0.23513664059272799,
        "distance_shoulder_pan_joint": 0.4618909413821421,
        "distance_wrist_1_joint": 0.23489711188467788,
        "distance_wrist_2_joint": 1.092162917571212,
        "distance_wrist_3_joint": 0.09331752156657735,
        "smoothness": 1.1102230298998083e-15,
        "time": 5.01327929,
        "traj_len": 1.6018269918463501,
        "weighted_distance": 2.0197883018763556
    },
    "planner": "PRMstar",
    "start": {
        "state": {
            "elbow_joint": 1.97154746011099,
            "shoulder_lift_joint": -1.13948474672311,
            "shoulder_pan_joint": 0.12281154466712228,
            "wrist_1_joint": -0.7804688027058302,
            "wrist_2_joint": 0.12958655903071145,
            "wrist_3_joint": 3.0906928834467795
        }
    },
    "waypoints": [
        {
            "positions": [
                0.12281154466712228,
                -1.13948474672311,
                1.97154746011099,
                -0.7804688027058302,
                0.12958655903071145,
                3.0906928834467795
            ]
        },
        {
            "positions": [
                0.05682712446967342,
                -1.1730756953792139,
                2.0356109713695885,
                -0.8140255329750699,
                0.285609832969456,
                3.1040239579562905
            ]
        },
        {
            "positions": [
                -0.009157295727775447,
                -1.206666644035318,
                2.099674482628187,
                -0.8475822632443095,
                0.44163310690820057,
                3.1173550324658015
            ]
        },
        {
            "positions": [
                -0.07514171592522433,
                -1.2402575926914219,
                2.1637379938867856,
                -0.8811389935135493,
                0.5976563808469452,
                3.1306861069753125
            ]
        },
        {
            "positions": [
                -0.14112613612267316,
                -1.273848541347526,
                2.227801505145384,
                -0.914695723782789,
                0.7536796547856898,
                3.144017181484824
            ]
        },
        {
            "positions": [
                -0.20711055632012204,
                -1.30743949000363,
                2.2918650164039827,
                -0.9482524540520287,
                0.9097029287244344,
                3.157348255994335
            ]
        },
        {
            "positions": [
                -0.2730949765175709,
                -1.3410304386597338,
                2.355928527662581,
                -0.9818091843212684,
                1.0657262026631789,
                3.170679330503846
            ]
        },
        {
            "positions": [
                -0.3390793967150198,
                -1.374621387315838,
                2.4199920389211798,
                -1.015365914590508,
                1.2217494766019235,
                3.184010405013357
            ]
        }
    ]
}{
    "goal": {
        "global_pose": {
            "orientation": {
                "w": 0.5084816217422485,
                "x": -0.49083608388900757,
                "y": 0.5182115435600281,
                "z": -0.4816462993621826
            },
            "position": {
                "x": 0.5540239810943604,
                "y": 0.030875300988554955,
                "z": 0.16403168439865112
            }
        },
        "name": "move_to_storage_A"
    },
    "id": "PRMstar_move_to_storage_A_110",
    "joint_names": [
        "shoulder_pan_joint",
        "shoulder_lift_joint",
        "elbow_joint",
        "wrist_1_joint",
        "wrist_2_joint",
        "wrist_3_joint"
    ],
    "metrics": {
        "cart_traj_len": 0.35289862416701806,
        "distance_elbow_joint": 0.44874547420232247,
        "distance_shoulder_lift_joint": 0.23375231739521407,
        "distance_shoulder_pan_joint": 0.4623327644883032,
        "distance_wrist_1_joint": 0.2378772599607888,
        "distance_wrist_2_joint": 1.0943616401098808,
        "distance_wrist_3_joint": 0.0932015436242466,
        "smoothness": 4.440892098500626e-16,
        "time": 5.011303142,
        "traj_len": 1.6032064744694476,
        "weighted_distance": 2.022106077113641
    },
    "planner": "PRMstar",
    "start": {
        "state": {
            "elbow_joint": 1.9715472970024885,
            "shoulder_lift_joint": -1.1394870060712896,
            "shoulder_pan_joint": 0.12281152778156021,
            "wrist_1_joint": -0.780463741449964,
            "wrist_2_joint": 0.12958659822042276,
            "wrist_3_joint": 3.090690232415272
        }
    },
    "waypoints": [
        {
            "positions": [
                0.12281152778156021,
                -1.1394870060712896,
                1.9715472970024885,
                -0.780463741449964,
                0.12958659822042276,
                3.090690232415272
            ]
        },
        {
            "positions": [
                0.0567639899975169,
                -1.172880194270606,
                2.035653793317106,
                -0.8144462071586481,
                0.2859239753789772,
                3.104004738647307
            ]
        },
        {
            "positions": [
                -0.009283547786526403,
                -1.206273382469922,
                2.0997602896317233,
                -0.8484286728673323,
                0.4422613525375315,
                3.1173192448793423
            ]
        },
        {
            "positions": [
                -0.07533108557056972,
                -1.2396665706692385,
                2.163866785946341,
                -0.8824111385760163,
                0.598598729696086,
                3.1306337511113775
            ]
        },
        {
            "positions": [
                -0.14137862335461301,
                -1.2730597588685548,
                2.2279732822609586,
                -0.9163936042847004,
                0.7549361068546403,
                3.1439482573434128
            ]
        },
        {
            "positions": [
                -0.20742616113865633,
                -1.3064529470678712,
                2.292079778575576,
                -0.9503760699933845,
                0.9112734840131947,
                3.157262763575448
            ]
        },
        {
            "positions": [
                -0.2734736989226997,
                -1.3398461352671873,
                2.3561862748901934,
                -0.9843585357020687,
                1.0676108611717492,
                3.1705772698074832
            ]
        },
        {
            "positions": [
                -0.33952123670674295,
                -1.3732393234665037,
                2.420292771204811,
                -1.0183410014107528,
                1.2239482383303035,
                3.1838917760395185
            ]
        }
    ]
}