{
    "goal": {
        "global_pose": {
            "orientation": {
                "w": -0.00223480608172531,
                "x": 0.0024358444001904467,
                "y": 0.7094548369677653,
                "z": -0.704743149386269
            },
            "position": {
                "x": 0.6205249238014221,
                "y": -0.6371506643295288,
                "z": 0.19426114857196808
            }
        },
        "name": "move_to_magneteinheit_B"
    },
    "id": "PRMstar_move_to_magneteinheit_B_72",
    "joint_names": [
        "shoulder_pan_joint",
        "shoulder_lift_joint",
        "elbow_joint",
        "wrist_1_joint",
        "wrist_2_joint",
        "wrist_3_joint"
    ],
    "metrics": {
        "cart_traj_len": 1.4744935281557663,
        "distance_elbow_joint": 0.9570157571501543,
        "distance_shoulder_lift_joint": 1.4925861714874877,
        "distance_shoulder_pan_joint": 1.620559237242754,
        "distance_wrist_1_joint": 0.6696190046248387,
        "distance_wrist_2_joint": 1.882617826533479,
        "distance_wrist_3_joint": 1.1509496640830779,
        "smoothness": 0.5290352465795235,
        "time": 5.025031768,
        "traj_len": 2.7880723916573245,
        "weighted_distance": 3.553517105692087
    },
    "planner": "PRMstar",
    "start": {
        "state": {
            "elbow_joint": 2.6216224122426386,
            "shoulder_lift_joint": -1.4174107377796124,
            "shoulder_pan_joint": 0.7066234856936794,
            "wrist_1_joint": 1.9546482284002225,
            "wrist_2_joint": -0.7096286983471962,
            "wrist_3_joint": 0.005740856962016249
        }
    },
    "waypoints": [
        {
            "positions": [
                0.7066234856936794,
                -1.4174107377796124,
                2.6216224122426386,
                1.9546482284002225,
                -0.7096286983471962,
                0.005740856962016249
            ]
        },
        {
            "positions": [
                0.6668856246159074,
                -1.454290214243938,
                2.611561505760135,
                1.998181121819827,
                -0.8804230479777768,
                -0.05184047257414066
            ]
        },
        {
            "positions": [
                0.6271477635381353,
                -1.4911696907082634,
                2.6015005992776317,
                2.0417140152394317,
                -1.0512173976083572,
                -0.10942180211029756
            ]
        },
        {
            "positions": [
                0.5874099024603633,
                -1.528049167172589,
                2.591439692795128,
                2.0852469086590366,
                -1.2220117472389378,
                -0.16700313164645444
            ]
        },
        {
            "positions": [
                0.5476720413825913,
                -1.5649286436369145,
                2.5813787863126247,
                2.128779802078641,
                -1.3928060968695184,
                -0.22458446118261136
            ]
        },
        {
            "positions": [
                0.5079341803048192,
                -1.6018081201012402,
                2.5713178798301213,
                2.1723126954982455,
                -1.5636004465000988,
                -0.28216579071876824
            ]
        },
        {
            "positions": [
                0.4681963192270472,
                -1.6386875965655658,
                2.561256973347618,
                2.2158455889178503,
                -1.7343947961306794,
                -0.33974712025492515
            ]
        },
        {
            "positions": [
                0.4284584581492752,
                -1.6755670730298913,
                2.5511960668651144,
                2.259378482337455,
                -1.90518914576126,
                -0.397328449791082
            ]
        },
        {
            "positions": [
                0.38872059707150314,
                -1.712446549494217,
                2.541135160382611,
                2.3029113757570596,
                -2.0759834953918403,
                -0.45490977932723897
            ]
        },
        {
            "positions": [
                0.3489827359937311,
                -1.7493260259585424,
                2.5310742539001074,
                2.346444269176664,
                -2.2467778450224207,
                -0.5124911088633959
            ]
        },
        {
            "positions": [
                0.3092448749159591,
                -1.786205502422868,
                2.521013347417604,
                2.389977162596269,
                -2.4175721946530015,
                -0.5700724383995528
            ]
        },
        {
            "positions": [
                0.19804663614641055,
                -1.6840426472552106,
                2.443158193569866,
                2.3686780652845605,
                -2.4016927100868495,
                -0.5177873139703247
            ]
        },
        {
            "positions": [
                0.08684839737686204,
                -1.5818797920875531,
                2.3653030397221277,
                2.347378967972852,
                -2.3858132255206974,
                -0.4655021895410966
            ]
        },
        {
            "positions": [
                -0.024349841392686478,
                -1.4797169369198957,
                2.2874478858743896,
                2.3260798706611436,
                -2.369933740954545,
                -0.41321706511186856
            ]
        },
        {
            "positions": [
                -0.13554808016223502,
                -1.3775540817522383,
                2.2095927320266515,
                2.304780773349435,
                -2.354054256388393,
                -0.36093194068264045
            ]
        },
        {
            "positions": [
                -0.24674631893178356,
                -1.2753912265845808,
                2.1317375781789134,
                2.283481676037727,
                -2.3381747718222408,
                -0.3086468162534124
            ]
        },
        {
            "positions": [
                -0.35794455770133204,
                -1.1732283714169234,
                2.0538824243311753,
                2.262182578726019,
                -2.3222952872560887,
                -0.25636169182418433
            ]
        },
        {
            "positions": [
                -0.46914279647088053,
                -1.071065516249266,
                1.976027270483437,
                2.2408834814143104,
                -2.3064158026899366,
                -0.20407656739495628
            ]
        },
        {
            "positions": [
                -0.5803410352404291,
                -0.9689026610816083,
                1.8981721166356986,
                2.219584384102602,
                -2.2905363181237846,
                -0.15179144296572816
            ]
        },
        {
            "positions": [
                -0.6915392740099777,
                -0.8667398059139508,
                1.8203169627879605,
                2.1982852867908935,
                -2.274656833557632,
                -0.09950631853650005
            ]
        },
        {
            "positions": [
                -0.8027375127795262,
                -0.7645769507462934,
                1.7424618089402224,
                2.176986189479185,
                -2.25877734899148,
                -0.04722119410727199
            ]
        },
        {
            "positions": [
                -0.9139357515490748,
                -0.662414095578636,
                1.6646066550924843,
                2.1556870921674767,
                -2.242897864425328,
                0.005063930321956019
            ]
        }
    ]
}