{
    "goal": {
        "global_pose": {
            "orientation": {
                "w": 0.7031023502349854,
                "x": -0.7110244035720825,
                "y": 0.007748599164187908,
                "z": 0.005598929710686207
            },
            "position": {
                "x": 0.11585023208521307,
                "y": 0.44412534475326537,
                "z": 0.3711530566215515
            }
        },
        "name": "move_to_auspresseinheit_A"
    },
    "id": "PRMstar_move_to_auspresseinheit_A_74",
    "joint_names": [
        "shoulder_pan_joint",
        "shoulder_lift_joint",
        "elbow_joint",
        "wrist_1_joint",
        "wrist_2_joint",
        "wrist_3_joint"
    ],
    "metrics": {
        "cart_traj_len": 0.6723919665969884,
        "distance_elbow_joint": 0.03714682020947846,
        "distance_shoulder_lift_joint": 0.5358790018325426,
        "distance_shoulder_pan_joint": 1.093699720190139,
        "distance_wrist_1_joint": 0.5535924901517576,
        "distance_wrist_2_joint": 0.9596218349831589,
        "distance_wrist_3_joint": 0.4450605280612505,
        "smoothness": 0.6969187916727009,
        "time": 5.019242926,
        "traj_len": 1.9039433803105406,
        "weighted_distance": 2.4552669461151764
    },
    "planner": "PRMstar",
    "start": {
        "state": {
            "elbow_joint": 2.4225746658250005,
            "shoulder_lift_joint": -1.3736534386056498,
            "shoulder_pan_joint": -0.3378633547517467,
            "wrist_1_joint": -1.0288598680537169,
            "wrist_2_joint": 1.233022673432363,
            "wrist_3_joint": -3.0940220416140027
        }
    },
    "waypoints": [
        {
            "positions": [
                -0.3378633547517467,
                -1.3736534386056498,
                2.4225746658250005,
                -1.0288598680537169,
                1.233022673432363,
                -3.0940220416140027
            ]
        },
        {
            "positions": [
                -0.3441852382299197,
                -1.3958814520131466,
                2.4145204525352435,
                -0.9391213880764546,
                1.046600157651241,
                -3.043735332279965
            ]
        },
        {
            "positions": [
                -0.3505071217080927,
                -1.4181094654206432,
                2.406466239245487,
                -0.8493829080991925,
                0.8601776418701186,
                -2.993448622945927
            ]
        },
        {
            "positions": [
                -0.35682900518626565,
                -1.44033747882814,
                2.3984120259557304,
                -0.7596444281219303,
                0.6737551260889965,
                -2.943161913611889
            ]
        },
        {
            "positions": [
                -0.3631508886644386,
                -1.4625654922356368,
                2.3903578126659735,
                -0.6699059481446681,
                0.4873326103078742,
                -2.8928752042778516
            ]
        },
        {
            "positions": [
                -0.18508219095153072,
                -1.5370599836027294,
                2.391179473841049,
                -0.6374661864375499,
                0.5229879056176525,
                -2.933527486065368
            ]
        },
        {
            "positions": [
                -0.0070134932386228255,
                -1.611554474969822,
                2.392001135016124,
                -0.6050264247304318,
                0.5586432009274309,
                -2.9741797678528847
            ]
        },
        {
            "positions": [
                0.17105520447428507,
                -1.6860489663369145,
                2.392822796191199,
                -0.5725866630233136,
                0.5942984962372093,
                -3.0148320496404013
            ]
        },
        {
            "positions": [
                0.34912390218719297,
                -1.760543457704007,
                2.3936444573662743,
                -0.5401469013161956,
                0.6299537915469876,
                -3.055484331427918
            ]
        },
        {
            "positions": [
                0.5271925999001008,
                -1.8350379490710997,
                2.3944661185413496,
                -0.5077071396090774,
                0.6656090868567659,
                -3.0961366132154344
            ]
        },
        {
            "positions": [
                0.7052612976130087,
                -1.9095324404381924,
                2.395287779716425,
                -0.4752673779019593,
                0.7012643821665443,
                -3.136788895002951
            ]
        }
    ]
}