{
    "goal": {
        "global_pose": {
            "orientation": {
                "w": 0.7031023480610252,
                "x": -0.7110244013736278,
                "y": 0.0077485991402295624,
                "z": 0.005598929693374583
            },
            "position": {
                "x": -0.8841497679147869,
                "y": 0.44412534475326537,
                "z": 0.3711530566215515
            }
        },
        "name": "move_to_auspresseinheit_D"
    },
    "id": "PRMstar_move_to_auspresseinheit_D_103",
    "joint_names": [
        "shoulder_pan_joint",
        "shoulder_lift_joint",
        "elbow_joint",
        "wrist_1_joint",
        "wrist_2_joint",
        "wrist_3_joint"
    ],
    "metrics": {
        "cart_traj_len": 0.3424495214366645,
        "distance_elbow_joint": 0.6264024131022468,
        "distance_shoulder_lift_joint": 0.11488619443511672,
        "distance_shoulder_pan_joint": 0.13426734731936943,
        "distance_wrist_1_joint": 0.501045219156746,
        "distance_wrist_2_joint": 1.4311658186372265,
        "distance_wrist_3_joint": 0.0349940253587131,
        "smoothness": 1.9737298371844314e-16,
        "time": 5.00793219,
        "traj_len": 1.686048937015002,
        "weighted_distance": 2.2011270082666328
    },
    "planner": "PRMstar",
    "start": {
        "state": {
            "elbow_joint": -1.8275523626775212,
            "shoulder_lift_joint": -2.126789852344167,
            "shoulder_pan_joint": -0.03513704404078235,
            "wrist_1_joint": -2.347782403156801,
            "wrist_2_joint": -1.6058999987535132,
            "wrist_3_joint": -3.0880379163319196
        }
    },
    "waypoints": [
        {
            "positions": [
                -0.03513704404078235,
                -2.126789852344167,
                -1.8275523626775212,
                -2.347782403156801,
                -1.6058999987535132,
                -3.0880379163319196
            ]
        },
        {
            "positions": [
                -0.05192046245570353,
                -2.1411506266485563,
                -1.7492520610397404,
                -2.4104130555513943,
                -1.42700427142386,
                -3.092412169501759
            ]
        },
        {
            "positions": [
                -0.0687038808706247,
                -2.155511400952946,
                -1.6709517594019596,
                -2.4730437079459873,
                -1.2481085440942066,
                -3.096786422671598
            ]
        },
        {
            "positions": [
                -0.08548729928554588,
                -2.1698721752573356,
                -1.5926514577641786,
                -2.5356743603405807,
                -1.0692128167645532,
                -3.101160675841437
            ]
        },
        {
            "positions": [
                -0.10227071770046706,
                -2.184232949561725,
                -1.5143511561263978,
                -2.5983050127351737,
                -0.8903170894349,
                -3.1055349290112764
            ]
        },
        {
            "positions": [
                -0.11905413611538823,
                -2.198593723866115,
                -1.436050854488617,
                -2.660935665129767,
                -0.7114213621052466,
                -3.109909182181115
            ]
        },
        {
            "positions": [
                -0.13583755453030943,
                -2.2129544981705043,
                -1.357750552850836,
                -2.7235663175243605,
                -0.5325256347755933,
                -3.1142834353509543
            ]
        },
        {
            "positions": [
                -0.1526209729452306,
                -2.227315272474894,
                -1.2794502512130552,
                -2.7861969699189535,
                -0.3536299074459399,
                -3.1186576885207935
            ]
        },
        {
            "positions": [
                -0.16940439136015178,
                -2.2416760467792836,
                -1.2011499495752744,
                -2.848827622313547,
                -0.17473418011628675,
                -3.1230319416906327
            ]
        }
    ]
}