{
    "goal": {
        "global_pose": {
            "orientation": {
                "w": 0.7047431493862688,
                "x": -0.7094548369677653,
                "y": 0.0024358444001904,
                "z": -0.0022348060817251984
            },
            "position": {
                "x": -0.39052492380142206,
                "y": 0.3671506643295288,
                "z": 0.19426114857196808
            }
        },
        "name": "move_to_magneteinheit_D"
    },
    "id": "PRMstar_move_to_magneteinheit_D_109",
    "joint_names": [
        "shoulder_pan_joint",
        "shoulder_lift_joint",
        "elbow_joint",
        "wrist_1_joint",
        "wrist_2_joint",
        "wrist_3_joint"
    ],
    "metrics": {
        "cart_traj_len": 3.47797297619561,
        "distance_elbow_joint": 3.1256516775403296,
        "distance_shoulder_lift_joint": 1.6333848540141582,
        "distance_shoulder_pan_joint": 3.5918743930755217,
        "distance_wrist_1_joint": 4.026402490603845,
        "distance_wrist_2_joint": 0.7687856763906831,
        "distance_wrist_3_joint": 3.5798212954091473,
        "smoothness": 0.4327905821780929,
        "time": 5.065096276999999,
        "traj_len": 4.089733534967001,
        "weighted_distance": 5.355441265185018
    },
    "planner": "PRMstar",
    "start": {
        "state": {
            "elbow_joint": 0.749534889911806,
            "shoulder_lift_joint": -0.6476975780787326,
            "shoulder_pan_joint": -2.711696901376241,
            "wrist_1_joint": -0.07506478083263063,
            "wrist_2_joint": 0.43296659715538205,
            "wrist_3_joint": -3.14703540197715
        }
    },
    "waypoints": [
        {
            "positions": [
                -2.711696901376241,
                -0.6476975780787326,
                0.749534889911806,
                -0.07506478083263063,
                0.43296659715538205,
                -3.14703540197715
            ]
        },
        {
            "positions": [
                -2.672681003843599,
                -0.6802028002681073,
                0.7292673558054077,
                -0.08242513513656463,
                0.525958835733197,
                -3.04402333018965
            ]
        },
        {
            "positions": [
                -2.6885355993285973,
                -0.7110962317202739,
                0.5901622569138981,
                0.004623920041294319,
                0.4968966016514384,
                -2.9849365393723093
            ]
        },
        {
            "positions": [
                -2.7043901948135955,
                -0.7419896631724406,
                0.45105715802238855,
                0.09167297521915327,
                0.4678343675696798,
                -2.925849748554969
            ]
        },
        {
            "positions": [
                -2.7202447902985933,
                -0.7728830946246072,
                0.31195205913087903,
                0.17872203039701218,
                0.43877213348792116,
                -2.8667629577376283
            ]
        },
        {
            "positions": [
                -2.7360993857835916,
                -0.8037765260767739,
                0.1728469602393694,
                0.26577108557487117,
                0.40970989940616254,
                -2.8076761669202877
            ]
        },
        {
            "positions": [
                -2.75195398126859,
                -0.8346699575289405,
                0.03374186134785995,
                0.35282014075273005,
                0.38064766532440386,
                -2.7485893761029474
            ]
        },
        {
            "positions": [
                -2.767808576753588,
                -0.8655633889811072,
                -0.10536323754364962,
                0.439869195930589,
                0.3515854312426453,
                -2.6895025852856067
            ]
        },
        {
            "positions": [
                -2.7836631722385863,
                -0.8964568204332738,
                -0.2444683364351592,
                0.526918251108448,
                0.3225231971608866,
                -2.6304157944682665
            ]
        },
        {
            "positions": [
                -2.7995177677235845,
                -0.9273502518854404,
                -0.3835734353266689,
                0.6139673062863069,
                0.293460963079128,
                -2.5713290036509258
            ]
        },
        {
            "positions": [
                -2.8153723632085823,
                -0.9582436833376071,
                -0.5226785342181783,
                0.7010163614641658,
                0.2643987289973694,
                -2.512242212833585
            ]
        },
        {
            "positions": [
                -2.8312269586935805,
                -0.9891371147897736,
                -0.6617836331096878,
                0.7880654166420247,
                0.23533649491561076,
                -2.453155422016245
            ]
        },
        {
            "positions": [
                -2.8470815541785788,
                -1.0200305462419403,
                -0.8008887320011975,
                0.8751144718198837,
                0.20627426083385214,
                -2.394068631198904
            ]
        },
        {
            "positions": [
                -2.6792763263225523,
                -1.038704589938385,
                -0.8735179168949947,
                0.9781852327247288,
                0.19583631087185563,
                -2.406314450698063
            ]
        },
        {
            "positions": [
                -2.5114710984665254,
                -1.0573786336348299,
                -0.946147101788792,
                1.0812559936295738,
                0.18539836090985912,
                -2.4185602701972213
            ]
        },
        {
            "positions": [
                -2.343665870610499,
                -1.0760526773312744,
                -1.0187762866825893,
                1.184326754534419,
                0.1749604109478626,
                -2.4308060896963797
            ]
        },
        {
            "positions": [
                -2.175860642754472,
                -1.0947267210277192,
                -1.0914054715763866,
                1.287397515439264,
                0.1645224609858661,
                -2.4430519091955385
            ]
        },
        {
            "positions": [
                -2.0080554148984455,
                -1.113400764724164,
                -1.1640346564701838,
                1.3904682763441092,
                0.15408451102386958,
                -2.4552977286946973
            ]
        },
        {
            "positions": [
                -1.8402501870424188,
                -1.1320748084206087,
                -1.236663841363981,
                1.4935390372489543,
                0.14364656106187307,
                -2.4675435481938557
            ]
        },
        {
            "positions": [
                -1.6724449591863921,
                -1.1507488521170535,
                -1.3092930262577784,
                1.5966097981537994,
                0.13320861109987656,
                -2.479789367693014
            ]
        },
        {
            "positions": [
                -1.5046397313303654,
                -1.1694228958134982,
                -1.3819222111515757,
                1.6996805590586446,
                0.12277066113788004,
                -2.492035187192173
            ]
        },
        {
            "positions": [
                -1.3368345034743387,
                -1.188096939509943,
                -1.4545513960453729,
                1.8027513199634897,
                0.11233271117588353,
                -2.5042810066913317
            ]
        },
        {
            "positions": [
                -1.169029275618312,
                -1.2067709832063875,
                -1.52718058093917,
                1.9058220808683348,
                0.10189476121388702,
                -2.51652682619049
            ]
        },
        {
            "positions": [
                -1.0012240477622854,
                -1.2254450269028323,
                -1.5998097658329673,
                2.00889284177318,
                0.0914568112518905,
                -2.5287726456896484
            ]
        },
        {
            "positions": [
                -0.8334188199062589,
                -1.244119070599277,
                -1.6724389507267645,
                2.111963602678025,
                0.081018861289894,
                -2.5410184651888073
            ]
        },
        {
            "positions": [
                -0.665613592050232,
                -1.2627931142957218,
                -1.745068135620562,
                2.21503436358287,
                0.07058091132789748,
                -2.553264284687966
            ]
        },
        {
            "positions": [
                -0.4978083641942055,
                -1.2814671579921666,
                -1.8176973205143592,
                2.3181051244877153,
                0.06014296136590097,
                -2.5655101041871244
            ]
        },
        {
            "positions": [
                -0.33000313633817857,
                -1.3001412016886111,
                -1.8903265054081566,
                2.4211758853925605,
                0.04970501140390446,
                -2.577755923686283
            ]
        },
        {
            "positions": [
                -0.1621979084821521,
                -1.318815245385056,
                -1.9629556903019536,
                2.5242466462974056,
                0.03926706144190795,
                -2.5900017431854416
            ]
        },
        {
            "positions": [
                0.005607319373874375,
                -1.3374892890815007,
                -2.035584875195751,
                2.6273174072022507,
                0.028829111479911435,
                -2.6022475626846004
            ]
        },
        {
            "positions": [
                0.17341254722990113,
                -1.3561633327779454,
                -2.1082140600895483,
                2.730388168107096,
                0.01839116151791493,
                -2.614493382183759
            ]
        },
        {
            "positions": [
                0.1478437012442284,
                -1.4222289827290129,
                -2.127349969199475,
                2.6442289657459352,
                0.030407287489171014,
                -2.428319826923327
            ]
        },
        {
            "positions": [
                0.12227485525855568,
                -1.4882946326800806,
                -2.146485878309402,
                2.558069763384774,
                0.0424234134604271,
                -2.2421462716628953
            ]
        },
        {
            "positions": [
                0.09670600927288296,
                -1.554360282631148,
                -2.1656217874193286,
                2.4719105610236136,
                0.054439539431683184,
                -2.0559727164024633
            ]
        },
        {
            "positions": [
                0.07113716328721023,
                -1.6204259325822155,
                -2.1847576965292554,
                2.385751358662453,
                0.06645566540293926,
                -1.8697991611420313
            ]
        },
        {
            "positions": [
                0.045568317301537486,
                -1.6864915825332831,
                -2.2038936056391822,
                2.2995921563012924,
                0.07847179137419535,
                -1.6836256058815995
            ]
        },
        {
            "positions": [
                0.019999471315864797,
                -1.7525572324843506,
                -2.223029514749109,
                2.2134329539401314,
                0.09048791734545145,
                -1.4974520506211677
            ]
        },
        {
            "positions": [
                -0.005569374669807947,
                -1.818622882435418,
                -2.242165423859036,
                2.127273751578971,
                0.10250404331670754,
                -1.3112784953607357
            ]
        },
        {
            "positions": [
                -0.031138220655480664,
                -1.8846885323864857,
                -2.261301332968963,
                2.04111454921781,
                0.1145201692879636,
                -1.125104940100304
            ]
        },
        {
            "positions": [
                -0.05670706664115341,
                -1.9507541823375534,
                -2.28043724207889,
                1.9549553468566492,
                0.12653629525921972,
                -0.9389313848398719
            ]
        },
        {
            "positions": [
                -0.08227591262682615,
                -2.0168198322886206,
                -2.2995731511888167,
                1.8687961444954886,
                0.1385524212304758,
                -0.7527578295794402
            ]
        },
        {
            "positions": [
                -0.10784475861249881,
                -2.0828854822396883,
                -2.3187090602987435,
                1.782636942134328,
                0.15056854720173188,
                -0.5665842743190082
            ]
        },
        {
            "positions": [
                -0.13341360459817153,
                -2.1489511321907555,
                -2.3378449694086703,
                1.6964777397731672,
                0.16258467317298794,
                -0.3804107190585766
            ]
        },
        {
            "positions": [
                -0.1589824505838443,
                -2.2150167821418236,
                -2.356980878518597,
                1.6103185374120064,
                0.17460079914424403,
                -0.1942371637981446
            ]
        },
        {
            "positions": [
                -0.18455129656951702,
                -2.281082432092891,
                -2.376116787628524,
                1.5241593350508458,
                0.18661692511550013,
                -0.00806360853771248
            ]
        }
    ]
}