{
    "goal": {
        "global_pose": {
            "orientation": {
                "w": 0.7031023480610252,
                "x": -0.7110244013736278,
                "y": 0.0077485991402295624,
                "z": 0.005598929693374583
            },
            "position": {
                "x": -0.8841497679147869,
                "y": 0.44412534475326537,
                "z": 0.3711530566215515
            }
        },
        "name": "move_to_auspresseinheit_D"
    },
    "id": "PRMstar_move_to_auspresseinheit_D_36",
    "joint_names": [
        "shoulder_pan_joint",
        "shoulder_lift_joint",
        "elbow_joint",
        "wrist_1_joint",
        "wrist_2_joint",
        "wrist_3_joint"
    ],
    "metrics": {
        "cart_traj_len": 0.3432992353497558,
        "distance_elbow_joint": 0.6289207067660874,
        "distance_shoulder_lift_joint": 0.11534971862548327,
        "distance_shoulder_pan_joint": 0.13430655411859388,
        "distance_wrist_1_joint": 0.5034583084813007,
        "distance_wrist_2_joint": 1.4303331624386104,
        "distance_wrist_3_joint": 0.020985792791275326,
        "smoothness": 1.7763568305772507e-15,
        "time": 5.0054876450000005,
        "traj_len": 1.6832570342111604,
        "weighted_distance": 2.1929699723716722
    },
    "planner": "PRMstar",
    "start": {
        "state": {
            "elbow_joint": -1.8275523626775212,
            "shoulder_lift_joint": -2.126789852344167,
            "shoulder_pan_joint": -0.03513704404078235,
            "wrist_1_joint": -2.347782403156801,
            "wrist_2_joint": -1.6058999987535132,
            "wrist_3_joint": -3.0880379163319196
        }
    },
    "waypoints": [
        {
            "positions": [
                -0.03513704404078235,
                -2.126789852344167,
                -1.8275523626775212,
                -2.347782403156801,
                -1.6058999987535132,
                -3.0880379163319196
            ]
        },
        {
            "positions": [
                -0.051925363305606584,
                -2.1412085671723524,
                -1.7489372743317602,
                -2.4107146917169633,
                -1.4271083534486868,
                -3.090661140430829
            ]
        },
        {
            "positions": [
                -0.06871368257043081,
                -2.1556272820005375,
                -1.6703221859859994,
                -2.473646980277126,
                -1.2483167081438606,
                -3.0932843645297385
            ]
        },
        {
            "positions": [
                -0.08550200183525505,
                -2.170045996828723,
                -1.5917070976402385,
                -2.5365792688372886,
                -1.0695250628390343,
                -3.095907588628648
            ]
        },
        {
            "positions": [
                -0.1022903211000793,
                -2.1844647116569087,
                -1.5130920092944775,
                -2.5995115573974514,
                -0.890733417534208,
                -3.0985308127275575
            ]
        },
        {
            "positions": [
                -0.11907864036490354,
                -2.198883426485094,
                -1.4344769209487165,
                -2.662443845957614,
                -0.7119417722293817,
                -3.1011540368264665
            ]
        },
        {
            "positions": [
                -0.13586695962972775,
                -2.2133021413132794,
                -1.3558618326029557,
                -2.7253761345177763,
                -0.5331501269245553,
                -3.103777260925376
            ]
        },
        {
            "positions": [
                -0.152655278894552,
                -2.2277208561414645,
                -1.2772467442571949,
                -2.788308423077939,
                -0.35435848161972916,
                -3.1064004850242855
            ]
        },
        {
            "positions": [
                -0.16944359815937624,
                -2.24213957096965,
                -1.1986316559114338,
                -2.8512407116381016,
                -0.17556683631490283,
                -3.109023709123195
            ]
        }
    ]
}