{
    "goal": {
        "global_pose": {
            "orientation": {
                "w": 0.5084816217422485,
                "x": -0.49083608388900757,
                "y": 0.5182115435600281,
                "z": -0.4816462993621826
            },
            "position": {
                "x": 0.5540239810943604,
                "y": 0.030875300988554955,
                "z": 0.16403168439865112
            }
        },
        "name": "move_to_storage_A"
    },
    "id": "PRMstar_move_to_storage_A_146",
    "joint_names": [
        "shoulder_pan_joint",
        "shoulder_lift_joint",
        "elbow_joint",
        "wrist_1_joint",
        "wrist_2_joint",
        "wrist_3_joint"
    ],
    "metrics": {
        "cart_traj_len": 0.353719491916576,
        "distance_elbow_joint": 0.4495893459623541,
        "distance_shoulder_lift_joint": 0.23599643715433571,
        "distance_shoulder_pan_joint": 0.4648058984370527,
        "distance_wrist_1_joint": 0.23774236839622886,
        "distance_wrist_2_joint": 1.0910753053477087,
        "distance_wrist_3_joint": 0.09286100025643806,
        "smoothness": 1.332267631163888e-15,
        "time": 5.006382676,
        "traj_len": 1.6037675503495255,
        "weighted_distance": 2.0215365516880794
    },
    "planner": "PRMstar",
    "start": {
        "state": {
            "elbow_joint": 1.971548259319323,
            "shoulder_lift_joint": -1.1394851275133948,
            "shoulder_pan_joint": 0.1228115487234821,
            "wrist_1_joint": -0.7804723859257726,
            "wrist_2_joint": 0.12958671773740124,
            "wrist_3_joint": -3.192489227718131
        }
    },
    "waypoints": [
        {
            "positions": [
                0.1228115487234821,
                -1.1394851275133948,
                1.971548259319323,
                -0.7804723859257726,
                0.12958671773740124,
                -3.192489227718131
            ]
        },
        {
            "positions": [
                0.05641070608961743,
                -1.1731989042497284,
                2.0357753087425166,
                -0.8144355814109482,
                0.2854546185013596,
                -3.17922337053864
            ]
        },
        {
            "positions": [
                -0.009990136544247241,
                -1.2069126809860622,
                2.10000235816571,
                -0.8483987768961238,
                0.44132251926531796,
                -3.1659575133591487
            ]
        },
        {
            "positions": [
                -0.07639097917811191,
                -1.2406264577223958,
                2.1642294075889033,
                -0.8823619723812992,
                0.5971904200292764,
                -3.1526916561796576
            ]
        },
        {
            "positions": [
                -0.14279182181197658,
                -1.2743402344587296,
                2.2284564570120966,
                -0.9163251678664748,
                0.7530583207932348,
                -3.1394257990001666
            ]
        },
        {
            "positions": [
                -0.20919266444584128,
                -1.3080540111950631,
                2.2926835064352904,
                -0.9502883633516503,
                0.9089262215571932,
                -3.1261599418206756
            ]
        },
        {
            "positions": [
                -0.2755935070797059,
                -1.341767787931397,
                2.3569105558584837,
                -0.9842515588368259,
                1.0647941223211514,
                -3.112894084641184
            ]
        },
        {
            "positions": [
                -0.3419943497135706,
                -1.3754815646677305,
                2.421137605281677,
                -1.0182147543220015,
                1.22066202308511,
                -3.099628227461693
            ]
        }
    ]
}{
    "goal": {
        "global_pose": {
            "orientation": {
                "w": 0.5084816217422485,
                "x": -0.49083608388900757,
                "y": 0.5182115435600281,
                "z": -0.4816462993621826
            },
            "position": {
                "x": 0.5540239810943604,
                "y": 0.030875300988554955,
                "z": 0.16403168439865112
            }
        },
        "name": "move_to_storage_A"
    },
    "id": "PRMstar_move_to_storage_A_146",
    "joint_names": [
        "shoulder_pan_joint",
        "shoulder_lift_joint",
        "elbow_joint",
        "wrist_1_joint",
        "wrist_2_joint",
        "wrist_3_joint"
    ],
    "metrics": {
        "cart_traj_len": 0.35288024376026744,
        "distance_elbow_joint": 0.4467338034323669,
        "distance_shoulder_lift_joint": 0.2350393927416008,
        "distance_shoulder_pan_joint": 0.4631495771775233,
        "distance_wrist_1_joint": 0.23314632366345167,
        "distance_wrist_2_joint": 1.0905283508401482,
        "distance_wrist_3_joint": 0.09251203769728189,
        "smoothness": 0.0,
        "time": 5.004786977,
        "traj_len": 1.600346676677392,
        "weighted_distance": 2.0173765725442876
    },
    "planner": "PRMstar",
    "start": {
        "state": {
            "elbow_joint": 1.97154746011099,
            "shoulder_lift_joint": -1.13948474672311,
            "shoulder_pan_joint": 0.12281154466712228,
            "wrist_1_joint": -0.7804688027058302,
            "wrist_2_joint": 0.12958655903071145,
            "wrist_3_joint": 3.0906928834467795
        }
    },
    "waypoints": [
        {
            "positions": [
                0.12281154466712228,
                -1.13948474672311,
                1.97154746011099,
                -0.7804688027058302,
                0.12958655903071145,
                3.0906928834467795
            ]
        },
        {
            "positions": [
                0.056647319356047526,
                -1.173061802829053,
                2.035366574887042,
                -0.8137754203720375,
                0.2853763234364469,
                3.1039088888321054
            ]
        },
        {
            "positions": [
                -0.00951690595502723,
                -1.206638858934996,
                2.099185689663095,
                -0.8470820380382449,
                0.44116608784218236,
                3.1171248942174317
            ]
        },
        {
            "positions": [
                -0.07568113126610197,
                -1.2402159150409389,
                2.1630048044391472,
                -0.8803886557044523,
                0.5969558522479178,
                3.1303408996027575
            ]
        },
        {
            "positions": [
                -0.14184535657717673,
                -1.2737929711468818,
                2.2268239192151995,
                -0.9136952733706597,
                0.7527456166536532,
                3.1435569049880834
            ]
        },
        {
            "positions": [
                -0.20800958188825153,
                -1.3073700272528248,
                2.290643033991252,
                -0.9470018910368672,
                0.9085353810593888,
                3.1567729103734092
            ]
        },
        {
            "positions": [
                -0.2741738071993262,
                -1.3409470833587678,
                2.3544621487673045,
                -0.9803085087030745,
                1.0643251454651241,
                3.1699889157587355
            ]
        },
        {
            "positions": [
                -0.340338032510401,
                -1.3745241394647107,
                2.418281263543357,
                -1.0136151263692819,
                1.2201149098708597,
                3.1832049211440614
            ]
        }
    ]
}{
    "goal": {
        "global_pose": {
            "orientation": {
                "w": 0.5084816217422485,
                "x": -0.49083608388900757,
                "y": 0.5182115435600281,
                "z": -0.4816462993621826
            },
            "position": {
                "x": 0.5540239810943604,
                "y": 0.030875300988554955,
                "z": 0.16403168439865112
            }
        },
        "name": "move_to_storage_A"
    },
    "id": "PRMstar_move_to_storage_A_146",
    "joint_names": [
        "shoulder_pan_joint",
        "shoulder_lift_joint",
        "elbow_joint",
        "wrist_1_joint",
        "wrist_2_joint",
        "wrist_3_joint"
    ],
    "metrics": {
        "cart_traj_len": 0.35263037858722474,
        "distance_elbow_joint": 0.4490824359613552,
        "distance_shoulder_lift_joint": 0.2351019348034613,
        "distance_shoulder_pan_joint": 0.459491480551898,
        "distance_wrist_1_joint": 0.24326232134677483,
        "distance_wrist_2_joint": 1.1047248707188504,
        "distance_wrist_3_joint": 0.08897050069678158,
        "smoothness": 0.0,
        "time": 5.0026331850000005,
        "traj_len": 1.606435041973102,
        "weighted_distance": 2.026465330949017
    },
    "planner": "PRMstar",
    "start": {
        "state": {
            "elbow_joint": 1.9715472970024885,
            "shoulder_lift_joint": -1.1394870060712896,
            "shoulder_pan_joint": 0.12281152778156021,
            "wrist_1_joint": -0.780463741449964,
            "wrist_2_joint": 0.12958659822042276,
            "wrist_3_joint": 3.090690232415272
        }
    },
    "waypoints": [
        {
            "positions": [
                0.12281152778156021,
                -1.1394870060712896,
                1.9715472970024885,
                -0.780463741449964,
                0.12958659822042276,
                3.090690232415272
            ]
        },
        {
            "positions": [
                0.05716988770271765,
                -1.1730729967574984,
                2.0357019307112534,
                -0.8152155016423605,
                0.2874044368945442,
                3.1034003039433835
            ]
        },
        {
            "positions": [
                -0.008471752376124908,
                -1.206658987443707,
                2.0998565644200187,
                -0.8499672618347568,
                0.44522227556866567,
                3.116110375471495
            ]
        },
        {
            "positions": [
                -0.07411339245496745,
                -1.2402449781299159,
                2.1640111981287835,
                -0.8847190220271532,
                0.6030401142427871,
                3.128820446999607
            ]
        },
        {
            "positions": [
                -0.13975503253381003,
                -1.2738309688161247,
                2.228165831837549,
                -0.9194707822195496,
                0.7608579529169086,
                3.1415305185277185
            ]
        },
        {
            "positions": [
                -0.20539667261265263,
                -1.3074169595023335,
                2.2923204655463136,
                -0.954222542411946,
                0.9186757915910302,
                3.15424059005583
            ]
        },
        {
            "positions": [
                -0.27103831269149514,
                -1.341002950188542,
                2.3564750992550785,
                -0.9889743026043424,
                1.0764936302651515,
                3.166950661583942
            ]
        },
        {
            "positions": [
                -0.33667995277033774,
                -1.374588940874751,
                2.4206297329638438,
                -1.0237260627967388,
                1.2343114689392731,
                3.1796607331120534
            ]
        }
    ]
}