{
    "goal": {
        "global_pose": {
            "orientation": {
                "w": 0.5084816262002911,
                "x": -0.4908360881923452,
                "y": 0.5182115481033761,
                "z": -0.48164630358495003
            },
            "position": {
                "x": 0.5540239810943604,
                "y": -0.46912469901144505,
                "z": 0.16403168439865112
            }
        },
        "name": "move_to_storage_B"
    },
    "id": "PRMstar_move_to_storage_B_65",
    "joint_names": [
        "shoulder_pan_joint",
        "shoulder_lift_joint",
        "elbow_joint",
        "wrist_1_joint",
        "wrist_2_joint",
        "wrist_3_joint"
    ],
    "metrics": {
        "cart_traj_len": 0.728062381865773,
        "distance_elbow_joint": 0.41032750722839806,
        "distance_shoulder_lift_joint": 0.4602359366467441,
        "distance_shoulder_pan_joint": 0.4609538167791142,
        "distance_wrist_1_joint": 2.97686114024068,
        "distance_wrist_2_joint": 2.706770794367814,
        "distance_wrist_3_joint": 3.1428343143595203,
        "smoothness": 0.08810608010295944,
        "time": 5.041519977,
        "traj_len": 3.1871591597568942,
        "weighted_distance": 4.703964718506062
    },
    "planner": "PRMstar",
    "start": {
        "state": {
            "elbow_joint": 1.664937868594044,
            "shoulder_lift_joint": -0.661644460510453,
            "shoulder_pan_joint": -0.9139846352900073,
            "wrist_1_joint": 2.146753192139373,
            "wrist_2_joint": -2.2341966793290973,
            "wrist_3_joint": 0.005466555786416001
        }
    },
    "waypoints": [
        {
            "positions": [
                -0.9139846352900073,
                -0.661644460510453,
                1.664937868594044,
                2.146753192139373,
                -2.2341966793290973,
                0.005466555786416001
            ]
        },
        {
            "positions": [
                -0.8441604867493098,
                -0.6986763796102602,
                1.649683962348798,
                2.1214839399076717,
                -2.172449170482401,
                -0.17479031825784053
            ]
        },
        {
            "positions": [
                -0.7743363382086124,
                -0.7357082987100675,
                1.634430056103552,
                2.09621468767597,
                -2.110701661635704,
                -0.355047192302097
            ]
        },
        {
            "positions": [
                -0.7877240681960174,
                -0.7517988028120313,
                1.6502558767176314,
                1.974284577851917,
                -2.003065170940937,
                -0.4709772158967223
            ]
        },
        {
            "positions": [
                -0.8011117981834223,
                -0.7678893069139949,
                1.666081697331711,
                1.8523544680278639,
                -1.895428680246169,
                -0.5869072394913476
            ]
        },
        {
            "positions": [
                -0.8144995281708273,
                -0.7839798110159587,
                1.6819075179457903,
                1.7304243582038106,
                -1.7877921895514015,
                -0.7028372630859729
            ]
        },
        {
            "positions": [
                -0.8278872581582323,
                -0.8000703151179225,
                1.6977333385598699,
                1.6084942483797575,
                -1.680155698856634,
                -0.8187672866805982
            ]
        },
        {
            "positions": [
                -0.8412749881456372,
                -0.8161608192198861,
                1.7135591591739492,
                1.4865641385557042,
                -1.5725192081618666,
                -0.9346973102752236
            ]
        },
        {
            "positions": [
                -0.8546627181330422,
                -0.8322513233218499,
                1.7293849797880285,
                1.364634028731651,
                -1.4648827174670989,
                -1.0506273338698489
            ]
        },
        {
            "positions": [
                -0.8680504481204472,
                -0.8483418274238137,
                1.745210800402108,
                1.2427039189075977,
                -1.3572462267723315,
                -1.166557357464474
            ]
        },
        {
            "positions": [
                -0.8814381781078521,
                -0.8644323315257774,
                1.7610366210161874,
                1.1207738090835446,
                -1.249609736077564,
                -1.2824873810590995
            ]
        },
        {
            "positions": [
                -0.8948259080952571,
                -0.880522835627741,
                1.776862441630267,
                0.9988436992594913,
                -1.1419732453827964,
                -1.3984174046537248
            ]
        },
        {
            "positions": [
                -0.9082136380826621,
                -0.8966133397297048,
                1.7926882622443463,
                0.8769135894354381,
                -1.0343367546880289,
                -1.5143474282483502
            ]
        },
        {
            "positions": [
                -0.921601368070067,
                -0.9127038438316686,
                1.8085140828584256,
                0.754983479611385,
                -0.9267002639932613,
                -1.6302774518429752
            ]
        },
        {
            "positions": [
                -0.934989098057472,
                -0.9287943479336322,
                1.8243399034725052,
                0.6330533697873317,
                -0.8190637732984938,
                -1.7462074754376007
            ]
        },
        {
            "positions": [
                -0.948376828044877,
                -0.944884852035596,
                1.8401657240865845,
                0.5111232599632787,
                -0.7114272826037265,
                -1.862137499032226
            ]
        },
        {
            "positions": [
                -0.961764558032282,
                -0.9609753561375598,
                1.855991544700664,
                0.3891931501392252,
                -0.6037907919089587,
                -1.9780675226268514
            ]
        },
        {
            "positions": [
                -0.9751522880196869,
                -0.9770658602395235,
                1.8718173653147434,
                0.2672630403151721,
                -0.49615430121419113,
                -2.093997546221477
            ]
        },
        {
            "positions": [
                -0.9885400180070918,
                -0.9931563643414872,
                1.8876431859288227,
                0.14533293049111906,
                -0.3885178105194238,
                -2.209927569816102
            ]
        },
        {
            "positions": [
                -1.0019277479944968,
                -1.009246868443451,
                1.9034690065429023,
                0.023402820667065782,
                -0.28088131982465603,
                -2.3258575934107273
            ]
        },
        {
            "positions": [
                -1.0153154779819018,
                -1.0253373725454147,
                1.9192948271569819,
                -0.0985272891569875,
                -0.1732448291298887,
                -2.4417876170053523
            ]
        },
        {
            "positions": [
                -1.0287032079693068,
                -1.0414278766473783,
                1.9351206477710612,
                -0.22045739898104078,
                -0.06560833843512137,
                -2.5577176405999777
            ]
        },
        {
            "positions": [
                -1.0420909379567118,
                -1.0575183807493422,
                1.9509464683851405,
                -0.34238750880509405,
                0.0420281522596464,
                -2.673647664194603
            ]
        },
        {
            "positions": [
                -1.0554786679441168,
                -1.073608884851306,
                1.96677228899922,
                -0.46431761862914733,
                0.14966464295441417,
                -2.7895776877892287
            ]
        },
        {
            "positions": [
                -1.0688663979315216,
                -1.0896993889532696,
                1.9825981096132994,
                -0.5862477284532002,
                0.2573011336491815,
                -2.905507711383853
            ]
        },
        {
            "positions": [
                -1.0822541279189266,
                -1.1057898930552335,
                1.998423930227379,
                -0.7081778382772534,
                0.3649376243439493,
                -3.0214377349784796
            ]
        },
        {
            "positions": [
                -1.0956418579063316,
                -1.1218803971571971,
                2.0142497508414583,
                -0.8301079481013065,
                0.47257411503871677,
                -3.137367758573104
            ]
        }
    ]
}