{
    "goal": {
        "global_pose": {
            "orientation": {
                "w": 0.5084816217422485,
                "x": -0.49083608388900757,
                "y": 0.5182115435600281,
                "z": -0.4816462993621826
            },
            "position": {
                "x": 0.5540239810943604,
                "y": 0.030875300988554955,
                "z": 0.16403168439865112
            }
        },
        "name": "move_to_storage_A"
    },
    "id": "PRMstar_move_to_storage_A_34",
    "joint_names": [
        "shoulder_pan_joint",
        "shoulder_lift_joint",
        "elbow_joint",
        "wrist_1_joint",
        "wrist_2_joint",
        "wrist_3_joint"
    ],
    "metrics": {
        "cart_traj_len": 0.35296136992602256,
        "distance_elbow_joint": 0.4491783255306949,
        "distance_shoulder_lift_joint": 0.23540635944973265,
        "distance_shoulder_pan_joint": 0.4579453785100453,
        "distance_wrist_1_joint": 0.2404627689493387,
        "distance_wrist_2_joint": 1.1143087003917778,
        "distance_wrist_3_joint": 0.08741673046070364,
        "smoothness": 0.0,
        "time": 5.011141081,
        "traj_len": 1.6077059007456223,
        "weighted_distance": 2.0283794500918257
    },
    "planner": "PRMstar",
    "start": {
        "state": {
            "elbow_joint": 1.971548259319323,
            "shoulder_lift_joint": -1.1394851275133948,
            "shoulder_pan_joint": 0.1228115487234821,
            "wrist_1_joint": -0.7804723859257726,
            "wrist_2_joint": 0.12958671773740124,
            "wrist_3_joint": -3.192489227718131
        }
    },
    "waypoints": [
        {
            "positions": [
                0.1228115487234821,
                -1.1394851275133948,
                1.971548259319323,
                -0.7804723859257726,
                0.12958671773740124,
                -3.192489227718131
            ]
        },
        {
            "positions": [
                0.057390780364904206,
                -1.1731146074347851,
                2.0357165915379936,
                -0.8148242100613924,
                0.28877367493622663,
                -3.180001123366602
            ]
        },
        {
            "positions": [
                -0.008029987993673687,
                -1.2067440873561757,
                2.0998849237566644,
                -0.8491760341970123,
                0.447960632135052,
                -3.167513019015073
            ]
        },
        {
            "positions": [
                -0.0734507563522516,
                -1.240373567277566,
                2.164053255975335,
                -0.883527858332632,
                0.6071475893338774,
                -3.155024914663544
            ]
        },
        {
            "positions": [
                -0.13887152471082947,
                -1.2740030471989563,
                2.228221588194006,
                -0.9178796824682519,
                0.7663345465327028,
                -3.1425368103120146
            ]
        },
        {
            "positions": [
                -0.20429229306940738,
                -1.3076325271203468,
                2.2923899204126768,
                -0.9522315066038717,
                0.9255215037315283,
                -3.1300487059604856
            ]
        },
        {
            "positions": [
                -0.2697130614279853,
                -1.3412620070417371,
                2.356558252631347,
                -0.9865833307394916,
                1.0847084609303534,
                -3.1175606016089565
            ]
        },
        {
            "positions": [
                -0.3351338297865632,
                -1.3748914869631275,
                2.420726584850018,
                -1.0209351548751113,
                1.243895418129179,
                -3.1050724972574275
            ]
        }
    ]
}{
    "goal": {
        "global_pose": {
            "orientation": {
                "w": 0.5084816217422485,
                "x": -0.49083608388900757,
                "y": 0.5182115435600281,
                "z": -0.4816462993621826
            },
            "position": {
                "x": 0.5540239810943604,
                "y": 0.030875300988554955,
                "z": 0.16403168439865112
            }
        },
        "name": "move_to_storage_A"
    },
    "id": "PRMstar_move_to_storage_A_34",
    "joint_names": [
        "shoulder_pan_joint",
        "shoulder_lift_joint",
        "elbow_joint",
        "wrist_1_joint",
        "wrist_2_joint",
        "wrist_3_joint"
    ],
    "metrics": {
        "cart_traj_len": 0.35308485518246124,
        "distance_elbow_joint": 0.4472512427942763,
        "distance_shoulder_lift_joint": 0.23331212898473974,
        "distance_shoulder_pan_joint": 0.4630943785251683,
        "distance_wrist_1_joint": 0.23617921778662132,
        "distance_wrist_2_joint": 1.0916883692869936,
        "distance_wrist_3_joint": 0.08633115606272801,
        "smoothness": 6.661338165333112e-16,
        "time": 5.010516652,
        "traj_len": 1.5993300139247457,
        "weighted_distance": 2.014543718224948
    },
    "planner": "PRMstar",
    "start": {
        "state": {
            "elbow_joint": 1.97154746011099,
            "shoulder_lift_joint": -1.13948474672311,
            "shoulder_pan_joint": 0.12281154466712228,
            "wrist_1_joint": -0.7804688027058302,
            "wrist_2_joint": 0.12958655903071145,
            "wrist_3_joint": 3.0906928834467795
        }
    },
    "waypoints": [
        {
            "positions": [
                0.12281154466712228,
                -1.13948474672311,
                1.97154746011099,
                -0.7804688027058302,
                0.12958655903071145,
                3.0906928834467795
            ]
        },
        {
            "positions": [
                0.05665520487781253,
                -1.1728150508637871,
                2.0354404947958864,
                -0.8142086909610619,
                0.2855420403574248,
                3.103025905741455
            ]
        },
        {
            "positions": [
                -0.00950113491149722,
                -1.206145355004464,
                2.0993335294807833,
                -0.8479485792162934,
                0.44149752168413814,
                3.1153589280361302
            ]
        },
        {
            "positions": [
                -0.07565747470080698,
                -1.2394756591451412,
                2.16322656416568,
                -0.8816884674715251,
                0.5974530030108516,
                3.1276919503308056
            ]
        },
        {
            "positions": [
                -0.1418138144901167,
                -1.2728059632858184,
                2.2271195988505763,
                -0.9154283557267566,
                0.7534084843375649,
                3.1400249726254814
            ]
        },
        {
            "positions": [
                -0.2079701542794265,
                -1.3061362674264956,
                2.2910126335354732,
                -0.9491682439819883,
                0.9093639656642784,
                3.152357994920157
            ]
        },
        {
            "positions": [
                -0.27412649406873624,
                -1.3394665715671725,
                2.3549056682203697,
                -0.9829081322372198,
                1.0653194469909917,
                3.164691017214832
            ]
        },
        {
            "positions": [
                -0.34028283385804603,
                -1.3727968757078497,
                2.418798702905266,
                -1.0166480204924515,
                1.2212749283177051,
                3.1770240395095075
            ]
        }
    ]
}{
    "goal": {
        "global_pose": {
            "orientation": {
                "w": 0.5084816217422485,
                "x": -0.49083608388900757,
                "y": 0.5182115435600281,
                "z": -0.4816462993621826
            },
            "position": {
                "x": 0.5540239810943604,
                "y": 0.030875300988554955,
                "z": 0.16403168439865112
            }
        },
        "name": "move_to_storage_A"
    },
    "id": "PRMstar_move_to_storage_A_34",
    "joint_names": [
        "shoulder_pan_joint",
        "shoulder_lift_joint",
        "elbow_joint",
        "wrist_1_joint",
        "wrist_2_joint",
        "wrist_3_joint"
    ],
    "metrics": {
        "cart_traj_len": 0.35339203947716485,
        "distance_elbow_joint": 0.44888511752056015,
        "distance_shoulder_lift_joint": 0.2363403282182397,
        "distance_shoulder_pan_joint": 0.46293654477870455,
        "distance_wrist_1_joint": 0.23758745977650175,
        "distance_wrist_2_joint": 1.0964497052374302,
        "distance_wrist_3_joint": 0.0966346357076997,
        "smoothness": 6.661338165333112e-16,
        "time": 5.002694656,
        "traj_len": 1.6058747744575654,
        "weighted_distance": 2.0263613270264678
    },
    "planner": "PRMstar",
    "start": {
        "state": {
            "elbow_joint": 1.9715472970024885,
            "shoulder_lift_joint": -1.1394870060712896,
            "shoulder_pan_joint": 0.12281152778156021,
            "wrist_1_joint": -0.780463741449964,
            "wrist_2_joint": 0.12958659822042276,
            "wrist_3_joint": 3.090690232415272
        }
    },
    "waypoints": [
        {
            "positions": [
                0.12281152778156021,
                -1.1394870060712896,
                1.9715472970024885,
                -0.780463741449964,
                0.12958659822042276,
                3.090690232415272
            ]
        },
        {
            "positions": [
                0.05667773567031671,
                -1.1732499101024667,
                2.0356737423625684,
                -0.8144048071323214,
                0.2862222703971985,
                3.104495180373515
            ]
        },
        {
            "positions": [
                -0.009456056440926786,
                -1.2070128141336438,
                2.0998001877226486,
                -0.8483458728146788,
                0.44285794257397426,
                3.1183001283317573
            ]
        },
        {
            "positions": [
                -0.07558984855217027,
                -1.240775718164821,
                2.1639266330827285,
                -0.8822869384970362,
                0.59949361475075,
                3.1321050762900002
            ]
        },
        {
            "positions": [
                -0.14172364066341378,
                -1.274538622195998,
                2.2280530784428088,
                -0.9162280041793935,
                0.7561292869275257,
                3.145910024248243
            ]
        },
        {
            "positions": [
                -0.20785743277465732,
                -1.308301526227175,
                2.2921795238028886,
                -0.950169069861751,
                0.9127649591043014,
                3.159714972206486
            ]
        },
        {
            "positions": [
                -0.2739912248859008,
                -1.3420644302583522,
                2.3563059691629684,
                -0.9841101355441083,
                1.0694006312810773,
                3.1735199201647286
            ]
        },
        {
            "positions": [
                -0.3401250169971443,
                -1.3758273342895293,
                2.4204324145230487,
                -1.0180512012264658,
                1.226036303457853,
                3.1873248681229716
            ]
        }
    ]
}