{
    "goal": {
        "global_pose": {
            "orientation": {
                "w": 0.005598929693374612,
                "x": 0.007748599140229565,
                "y": 0.7110244013736278,
                "z": -0.7031023480610252
            },
            "position": {
                "x": 0.1141497679147869,
                "y": -0.7141253447532654,
                "z": 0.3711530566215515
            }
        },
        "name": "move_to_auspresseinheit_B"
    },
    "id": "PRMstar_move_to_auspresseinheit_B_113",
    "joint_names": [
        "shoulder_pan_joint",
        "shoulder_lift_joint",
        "elbow_joint",
        "wrist_1_joint",
        "wrist_2_joint",
        "wrist_3_joint"
    ],
    "metrics": {
        "cart_traj_len": 0.5638124443330935,
        "distance_elbow_joint": 0.0605646283578396,
        "distance_shoulder_lift_joint": 0.29570302400284465,
        "distance_shoulder_pan_joint": 0.5779717362328052,
        "distance_wrist_1_joint": 0.32479696859964746,
        "distance_wrist_2_joint": 0.9858471133175442,
        "distance_wrist_3_joint": 0.0021180980941348793,
        "smoothness": 5.075305255429287e-16,
        "time": 5.007511064,
        "traj_len": 1.4990001896613676,
        "weighted_distance": 1.8872948489068362
    },
    "planner": "PRMstar",
    "start": {
        "state": {
            "elbow_joint": 2.0193083361928714,
            "shoulder_lift_joint": -1.1220246554650708,
            "shoulder_pan_joint": -1.0952077554168747,
            "wrist_1_joint": -0.8559753972642168,
            "wrist_2_joint": 0.4759566250798843,
            "wrist_3_joint": -3.1240929996934557
        }
    },
    "waypoints": [
        {
            "positions": [
                -1.0952077554168747,
                -1.1220246554650708,
                2.0193083361928714,
                -0.8559753972642168,
                0.4759566250798843,
                -3.1240929996934557
            ]
        },
        {
            "positions": [
                -1.1915363781223423,
                -1.1713084927988782,
                2.0092142314665646,
                -0.8018425691642755,
                0.640264477299475,
                -3.123739983344433
            ]
        },
        {
            "positions": [
                -1.2878650008278096,
                -1.2205923301326858,
                1.9991201267402583,
                -0.7477097410643343,
                0.8045723295190657,
                -3.123386966995411
            ]
        },
        {
            "positions": [
                -1.3841936235332772,
                -1.2698761674664931,
                1.9890260220139515,
                -0.693576912964393,
                0.9688801817386563,
                -3.1230339506463882
            ]
        },
        {
            "positions": [
                -1.4805222462387446,
                -1.3191600048003005,
                1.978931917287645,
                -0.6394440848644518,
                1.133188033958247,
                -3.1226809342973656
            ]
        },
        {
            "positions": [
                -1.5768508689442124,
                -1.368443842134108,
                1.9688378125613384,
                -0.5853112567645106,
                1.2974958861778378,
                -3.1223279179483434
            ]
        },
        {
            "positions": [
                -1.6731794916496798,
                -1.4177276794679154,
                1.9587437078350318,
                -0.5311784286645693,
                1.4618037383974285,
                -3.121974901599321
            ]
        }
    ]
}