{
    "goal": {
        "global_pose": {
            "orientation": {
                "w": -0.00223480608172531,
                "x": 0.0024358444001904467,
                "y": 0.7094548369677653,
                "z": -0.704743149386269
            },
            "position": {
                "x": -0.37947507619857795,
                "y": -0.6371506643295288,
                "z": 0.19426114857196808
            }
        },
        "name": "move_to_magneteinheit_C"
    },
    "id": "PRMstar_move_to_magneteinheit_C_60",
    "joint_names": [
        "shoulder_pan_joint",
        "shoulder_lift_joint",
        "elbow_joint",
        "wrist_1_joint",
        "wrist_2_joint",
        "wrist_3_joint"
    ],
    "metrics": {
        "cart_traj_len": 0.8364157867472182,
        "distance_elbow_joint": 0.3109471237061232,
        "distance_shoulder_lift_joint": 1.1040543947851789,
        "distance_shoulder_pan_joint": 0.8213793093231276,
        "distance_wrist_1_joint": 0.5941934849004508,
        "distance_wrist_2_joint": 0.7998946051220951,
        "distance_wrist_3_joint": 1.2423918094023585,
        "smoothness": 0.8157687771594571,
        "time": 5.0277115310000005,
        "traj_len": 2.2074557135397606,
        "weighted_distance": 2.9583327121989837
    },
    "planner": "PRMstar",
    "start": {
        "state": {
            "elbow_joint": 1.9565354010623817,
            "shoulder_lift_joint": -1.4165861575791021,
            "shoulder_pan_joint": -1.6717766225146293,
            "wrist_1_joint": -0.5286633292919765,
            "wrist_2_joint": 1.472756589071564,
            "wrist_3_joint": -3.1238370188695823
        }
    },
    "waypoints": [
        {
            "positions": [
                -1.6717766225146293,
                -1.4165861575791021,
                1.9565354010623817,
                -0.5286633292919765,
                1.472756589071564,
                -3.1238370188695823
            ]
        },
        {
            "positions": [
                -1.6830809511055684,
                -1.4619838827138083,
                1.9655485997144986,
                -0.5510653137942864,
                1.4570349233816438,
                -3.015138064020762
            ]
        },
        {
            "positions": [
                -1.6943852796965078,
                -1.5073816078485143,
                1.9745617983666155,
                -0.5734672982965963,
                1.4413132576917234,
                -2.9064391091719415
            ]
        },
        {
            "positions": [
                -1.7523101820910196,
                -1.5914778045810172,
                1.9981625542109305,
                -0.5717323104357513,
                1.4066908506496252,
                -2.76272041751018
            ]
        },
        {
            "positions": [
                -1.8102350844855315,
                -1.67557400131352,
                2.0217633100552455,
                -0.5699973225749064,
                1.3720684436075272,
                -2.6190017258484186
            ]
        },
        {
            "positions": [
                -1.9554666569346937,
                -1.7173601279177284,
                2.0512756838342945,
                -0.5356327236352264,
                1.2837457160150103,
                -2.5919172534514865
            ]
        },
        {
            "positions": [
                -2.1006982293838563,
                -1.7591462545219367,
                2.0807880576133435,
                -0.5012681246955464,
                1.1954229884224934,
                -2.5648327810545544
            ]
        },
        {
            "positions": [
                -2.2459298018330185,
                -1.8009323811261453,
                2.1103004313923925,
                -0.46690352575586647,
                1.1071002608299765,
                -2.5377483086576222
            ]
        },
        {
            "positions": [
                -2.3911613742821807,
                -1.8427185077303536,
                2.1398128051714416,
                -0.43253892681618644,
                1.0187775332374596,
                -2.51066383626069
            ]
        },
        {
            "positions": [
                -2.4065082738167716,
                -1.7419463626620586,
                2.1213707838638642,
                -0.4908640256803193,
                0.9662260608716104,
                -2.6073812189151466
            ]
        },
        {
            "positions": [
                -2.421855173351362,
                -1.6411742175937636,
                2.1029287625562865,
                -0.5491891245444521,
                0.9136745885057613,
                -2.704098601569603
            ]
        },
        {
            "positions": [
                -2.437202072885953,
                -1.5404020725254686,
                2.0844867412487087,
                -0.6075142234085849,
                0.8611231161399122,
                -2.8008159842240596
            ]
        },
        {
            "positions": [
                -2.452548972420544,
                -1.4396299274571733,
                2.0660447199411314,
                -0.6658393222727177,
                0.8085716437740631,
                -2.897533366878516
            ]
        },
        {
            "positions": [
                -2.4678958719551343,
                -1.3388577823888783,
                2.047602698633554,
                -0.7241644211368505,
                0.756020171408214,
                -2.9942507495329727
            ]
        },
        {
            "positions": [
                -2.483242771489725,
                -1.2380856373205833,
                2.0291606773259763,
                -0.7824895200009834,
                0.7034686990423649,
                -3.090968132187429
            ]
        },
        {
            "positions": [
                -2.4733296111416934,
                -1.1647964630964263,
                2.0121430855743783,
                -0.8410000712316076,
                0.6728619839494688,
                -3.1398824630541564
            ]
        }
    ]
}