{
    "goal": {
        "global_pose": {
            "orientation": {
                "w": 0.005598929693374612,
                "x": 0.007748599140229565,
                "y": 0.7110244013736278,
                "z": -0.7031023480610252
            },
            "position": {
                "x": -0.8858502320852131,
                "y": -0.7141253447532654,
                "z": 0.3711530566215515
            }
        },
        "name": "move_to_auspresseinheit_C"
    },
    "id": "PRMstar_move_to_auspresseinheit_C_64",
    "joint_names": [
        "shoulder_pan_joint",
        "shoulder_lift_joint",
        "elbow_joint",
        "wrist_1_joint",
        "wrist_2_joint",
        "wrist_3_joint"
    ],
    "metrics": {
        "cart_traj_len": 0.49213155942967873,
        "distance_elbow_joint": 0.993490455988943,
        "distance_shoulder_lift_joint": 0.32243876612886824,
        "distance_shoulder_pan_joint": 0.2552344783410656,
        "distance_wrist_1_joint": 0.657967653367709,
        "distance_wrist_2_joint": 1.3193884305019916,
        "distance_wrist_3_joint": 0.04971311886263363,
        "smoothness": 3.2297397080004555e-16,
        "time": 5.007595927000001,
        "traj_len": 1.8969008680453525,
        "weighted_distance": 2.38222904540814
    },
    "planner": "PRMstar",
    "start": {
        "state": {
            "elbow_joint": 1.7527959577737207,
            "shoulder_lift_joint": -0.9740617694225068,
            "shoulder_pan_joint": -2.967991417825858,
            "wrist_1_joint": -0.759517768980727,
            "wrist_2_joint": 1.7443932448377408,
            "wrist_3_joint": -3.0840537646736568
        }
    },
    "waypoints": [
        {
            "positions": [
                -2.967991417825858,
                -0.9740617694225068,
                1.7527959577737207,
                -0.759517768980727,
                1.7443932448377408,
                -3.0840537646736568
            ]
        },
        {
            "positions": [
                -2.9424679699917515,
                -0.9418178928096199,
                1.6534469121748263,
                -0.6937210036439561,
                1.6124544017875417,
                -3.08902507655992
            ]
        },
        {
            "positions": [
                -2.9169445221576447,
                -0.9095740161967332,
                1.554097866575932,
                -0.6279242383071851,
                1.4805155587373424,
                -3.0939963884461834
            ]
        },
        {
            "positions": [
                -2.8914210743235382,
                -0.8773301395838463,
                1.4547488209770378,
                -0.5621274729704143,
                1.3485767156871433,
                -3.0989677003324467
            ]
        },
        {
            "positions": [
                -2.865897626489432,
                -0.8450862629709595,
                1.3553997753781435,
                -0.49633070763364334,
                1.216637872636944,
                -3.10393901221871
            ]
        },
        {
            "positions": [
                -2.840374178655325,
                -0.8128423863580727,
                1.2560507297792491,
                -0.4305339422968725,
                1.0846990295867451,
                -3.108910324104974
            ]
        },
        {
            "positions": [
                -2.8148507308212185,
                -0.7805985097451859,
                1.156701684180355,
                -0.3647371769601016,
                0.9527601865365459,
                -3.113881635991237
            ]
        },
        {
            "positions": [
                -2.789327282987112,
                -0.748354633132299,
                1.0573526385814604,
                -0.2989404116233307,
                0.8208213434863467,
                -3.1188529478775004
            ]
        },
        {
            "positions": [
                -2.7638038351530057,
                -0.7161107565194123,
                0.9580035929825662,
                -0.2331436462865597,
                0.6888825004361474,
                -3.1238242597637638
            ]
        },
        {
            "positions": [
                -2.738280387318899,
                -0.6838668799065253,
                0.8586545473836719,
                -0.1673468809497889,
                0.5569436573859483,
                -3.128795571650027
            ]
        },
        {
            "positions": [
                -2.7127569394847924,
                -0.6516230032936385,
                0.7593055017847776,
                -0.10155011561301798,
                0.4250048143357492,
                -3.1337668835362904
            ]
        }
    ]
}