{
    "goal": {
        "global_pose": {
            "orientation": {
                "w": 0.7031023480610252,
                "x": -0.7110244013736278,
                "y": 0.0077485991402295624,
                "z": 0.005598929693374583
            },
            "position": {
                "x": -0.8841497679147869,
                "y": 0.44412534475326537,
                "z": 0.3711530566215515
            }
        },
        "name": "move_to_auspresseinheit_D"
    },
    "id": "PRMstar_move_to_auspresseinheit_D_25",
    "joint_names": [
        "shoulder_pan_joint",
        "shoulder_lift_joint",
        "elbow_joint",
        "wrist_1_joint",
        "wrist_2_joint",
        "wrist_3_joint"
    ],
    "metrics": {
        "cart_traj_len": 0.34265783672741995,
        "distance_elbow_joint": 0.6340468084757314,
        "distance_shoulder_lift_joint": 0.11900584212544318,
        "distance_shoulder_pan_joint": 0.13377882826454784,
        "distance_wrist_1_joint": 0.5223569354381397,
        "distance_wrist_2_joint": 1.4380034644864366,
        "distance_wrist_3_joint": 0.0004440297891932232,
        "smoothness": 0.0,
        "time": 5.001892586,
        "traj_len": 1.687493972901679,
        "weighted_distance": 2.1929168630120146
    },
    "planner": "PRMstar",
    "start": {
        "state": {
            "elbow_joint": -1.8275523626775212,
            "shoulder_lift_joint": -2.126789852344167,
            "shoulder_pan_joint": -0.03513704404078235,
            "wrist_1_joint": -2.347782403156801,
            "wrist_2_joint": -1.6058999987535132,
            "wrist_3_joint": -3.0880379163319196
        }
    },
    "waypoints": [
        {
            "positions": [
                -0.03513704404078235,
                -2.126789852344167,
                -1.8275523626775212,
                -2.347782403156801,
                -1.6058999987535132,
                -3.0880379163319196
            ]
        },
        {
            "positions": [
                -0.05185939757385083,
                -2.141665582609847,
                -1.7482965116180549,
                -2.4130770200865683,
                -1.4261495656927086,
                -3.0880934200555687
            ]
        },
        {
            "positions": [
                -0.0685817511069193,
                -2.1565413128755275,
                -1.6690406605585884,
                -2.478371637016336,
                -1.246399132631904,
                -3.088148923779218
            ]
        },
        {
            "positions": [
                -0.08530410463998779,
                -2.171417043141208,
                -1.5897848094991218,
                -2.5436662539461032,
                -1.0666486995710995,
                -3.088204427502867
            ]
        },
        {
            "positions": [
                -0.10202645817305628,
                -2.1862927734068887,
                -1.5105289584396555,
                -2.6089608708758707,
                -0.8868982665102949,
                -3.088259931226516
            ]
        },
        {
            "positions": [
                -0.11874881170612475,
                -2.201168503672569,
                -1.4312731073801892,
                -2.674255487805638,
                -0.7071478334494903,
                -3.0883154349501654
            ]
        },
        {
            "positions": [
                -0.13547116523919323,
                -2.2160442339382493,
                -1.3520172563207227,
                -2.7395501047354056,
                -0.5273974003886859,
                -3.0883709386738145
            ]
        },
        {
            "positions": [
                -0.15219351877226173,
                -2.2309199642039297,
                -1.2727614052612561,
                -2.804844721665173,
                -0.34764696732788125,
                -3.0884264423974637
            ]
        },
        {
            "positions": [
                -0.1689158723053302,
                -2.24579569446961,
                -1.1935055542017898,
                -2.8701393385949405,
                -0.16789653426707674,
                -3.088481946121113
            ]
        }
    ]
}