{
    "goal": {
        "global_pose": {
            "orientation": {
                "w": 0.5084816217422485,
                "x": -0.49083608388900757,
                "y": 0.5182115435600281,
                "z": -0.4816462993621826
            },
            "position": {
                "x": 0.5540239810943604,
                "y": 0.030875300988554955,
                "z": 0.16403168439865112
            }
        },
        "name": "move_to_storage_A"
    },
    "id": "PRMstar_move_to_storage_A_24",
    "joint_names": [
        "shoulder_pan_joint",
        "shoulder_lift_joint",
        "elbow_joint",
        "wrist_1_joint",
        "wrist_2_joint",
        "wrist_3_joint"
    ],
    "metrics": {
        "cart_traj_len": 0.35340424379825963,
        "distance_elbow_joint": 0.44860496851799003,
        "distance_shoulder_lift_joint": 0.2344491979799348,
        "distance_shoulder_pan_joint": 0.4637178885147448,
        "distance_wrist_1_joint": 0.2409700738548214,
        "distance_wrist_2_joint": 1.0920176248165792,
        "distance_wrist_3_joint": 0.08747616964293536,
        "smoothness": 0.0,
        "time": 5.004556709,
        "traj_len": 1.6022596304366548,
        "weighted_distance": 2.018706506970312
    },
    "planner": "PRMstar",
    "start": {
        "state": {
            "elbow_joint": 1.971548259319323,
            "shoulder_lift_joint": -1.1394851275133948,
            "shoulder_pan_joint": 0.1228115487234821,
            "wrist_1_joint": -0.7804723859257726,
            "wrist_2_joint": 0.12958671773740124,
            "wrist_3_joint": -3.192489227718131
        }
    },
    "waypoints": [
        {
            "positions": [
                0.1228115487234821,
                -1.1394851275133948,
                1.971548259319323,
                -0.7804723859257726,
                0.12958671773740124,
                -3.192489227718131
            ]
        },
        {
            "positions": [
                0.056566136078518556,
                -1.1729778700819569,
                2.0356346833933214,
                -0.8148966821907471,
                0.28558923556834115,
                -3.1799926320548546
            ]
        },
        {
            "positions": [
                -0.009679276566444989,
                -1.2064706126505191,
                2.09972110746732,
                -0.8493209784557216,
                0.44159175339928103,
                -3.167496036391578
            ]
        },
        {
            "positions": [
                -0.07592468921140852,
                -1.2399633552190812,
                2.1638075315413188,
                -0.8837452747206961,
                0.5975942712302209,
                -3.1549994407283015
            ]
        },
        {
            "positions": [
                -0.14217010185637208,
                -1.2734560977876432,
                2.2278939556153174,
                -0.9181695709856705,
                0.7535967890611608,
                -3.1425028450650254
            ]
        },
        {
            "positions": [
                -0.20841551450133566,
                -1.3069488403562053,
                2.291980379689316,
                -0.9525938672506451,
                0.9095993068921007,
                -3.130006249401749
            ]
        },
        {
            "positions": [
                -0.27466092714629914,
                -1.3404415829247676,
                2.3560668037633143,
                -0.9870181635156194,
                1.0656018247230405,
                -3.1175096537384723
            ]
        },
        {
            "positions": [
                -0.3409063397912627,
                -1.3739343254933296,
                2.420153227837313,
                -1.021442459780594,
                1.2216043425539804,
                -3.105013058075196
            ]
        }
    ]
}{
    "goal": {
        "global_pose": {
            "orientation": {
                "w": 0.5084816217422485,
                "x": -0.49083608388900757,
                "y": 0.5182115435600281,
                "z": -0.4816462993621826
            },
            "position": {
                "x": 0.5540239810943604,
                "y": 0.030875300988554955,
                "z": 0.16403168439865112
            }
        },
        "name": "move_to_storage_A"
    },
    "id": "PRMstar_move_to_storage_A_24",
    "joint_names": [
        "shoulder_pan_joint",
        "shoulder_lift_joint",
        "elbow_joint",
        "wrist_1_joint",
        "wrist_2_joint",
        "wrist_3_joint"
    ],
    "metrics": {
        "cart_traj_len": 0.3530629190817404,
        "distance_elbow_joint": 0.4513567822801261,
        "distance_shoulder_lift_joint": 0.23534519501196005,
        "distance_shoulder_pan_joint": 0.46327919055744804,
        "distance_wrist_1_joint": 0.24227420392555077,
        "distance_wrist_2_joint": 1.0929821222776601,
        "distance_wrist_3_joint": 0.08753630634755671,
        "smoothness": 1.1102230244806396e-15,
        "time": 5.002874917000001,
        "traj_len": 1.6039868454573754,
        "weighted_distance": 2.0206688841318425
    },
    "planner": "PRMstar",
    "start": {
        "state": {
            "elbow_joint": 1.97154746011099,
            "shoulder_lift_joint": -1.13948474672311,
            "shoulder_pan_joint": 0.12281154466712228,
            "wrist_1_joint": -0.7804688027058302,
            "wrist_2_joint": 0.12958655903071145,
            "wrist_3_joint": 3.0906928834467795
        }
    },
    "waypoints": [
        {
            "positions": [
                0.12281154466712228,
                -1.13948474672311,
                1.97154746011099,
                -0.7804688027058302,
                0.12958655903071145,
                3.0906928834467795
            ]
        },
        {
            "positions": [
                0.05662880315891543,
                -1.1731054888676757,
                2.036027000436722,
                -0.8150794032666232,
                0.2857268622132343,
                3.103198070067859
            ]
        },
        {
            "positions": [
                -0.009553938349291427,
                -1.2067262310122413,
                2.1005065407624546,
                -0.8496900038274161,
                0.4418671653957572,
                3.1157032566889384
            ]
        },
        {
            "positions": [
                -0.07573667985749828,
                -1.240346973156807,
                2.1649860810881867,
                -0.8843006043882091,
                0.59800746857828,
                3.128208443310018
            ]
        },
        {
            "positions": [
                -0.14191942136570512,
                -1.2739677153013729,
                2.2294656214139192,
                -0.918911204949002,
                0.7541477717608029,
                3.140713629931098
            ]
        },
        {
            "positions": [
                -0.20810216287391203,
                -1.3075884574459387,
                2.2939451617396514,
                -0.953521805509795,
                0.9102880749433259,
                3.1532188165521773
            ]
        },
        {
            "positions": [
                -0.27428490438211883,
                -1.3412091995905042,
                2.358424702065384,
                -0.9881324060705879,
                1.0664283781258486,
                3.1657240031732568
            ]
        },
        {
            "positions": [
                -0.34046764589032574,
                -1.37482994173507,
                2.422904242391116,
                -1.022743006631381,
                1.2225686813083716,
                3.178229189794336
            ]
        }
    ]
}{
    "goal": {
        "global_pose": {
            "orientation": {
                "w": 0.5084816217422485,
                "x": -0.49083608388900757,
                "y": 0.5182115435600281,
                "z": -0.4816462993621826
            },
            "position": {
                "x": 0.5540239810943604,
                "y": 0.030875300988554955,
                "z": 0.16403168439865112
            }
        },
        "name": "move_to_storage_A"
    },
    "id": "PRMstar_move_to_storage_A_24",
    "joint_names": [
        "shoulder_pan_joint",
        "shoulder_lift_joint",
        "elbow_joint",
        "wrist_1_joint",
        "wrist_2_joint",
        "wrist_3_joint"
    ],
    "metrics": {
        "cart_traj_len": 0.3534955026636581,
        "distance_elbow_joint": 0.44795917486407655,
        "distance_shoulder_lift_joint": 0.2347530040121526,
        "distance_shoulder_pan_joint": 0.4628270197302542,
        "distance_wrist_1_joint": 0.23458811572947624,
        "distance_wrist_2_joint": 1.0969813738752259,
        "distance_wrist_3_joint": 0.0945457589007681,
        "smoothness": 0.0,
        "time": 5.005678764000001,
        "traj_len": 1.6036378790462495,
        "weighted_distance": 2.0229472199042147
    },
    "planner": "PRMstar",
    "start": {
        "state": {
            "elbow_joint": 1.9715472970024885,
            "shoulder_lift_joint": -1.1394870060712896,
            "shoulder_pan_joint": 0.12281152778156021,
            "wrist_1_joint": -0.780463741449964,
            "wrist_2_joint": 0.12958659822042276,
            "wrist_3_joint": 3.090690232415272
        }
    },
    "waypoints": [
        {
            "positions": [
                0.12281152778156021,
                -1.1394870060712896,
                1.9715472970024885,
                -0.780463741449964,
                0.12958659822042276,
                3.090690232415272
            ]
        },
        {
            "positions": [
                0.05669338210580961,
                -1.173023149501597,
                2.0355414648402137,
                -0.8139763294113177,
                0.28629822305974073,
                3.1041967694010957
            ]
        },
        {
            "positions": [
                -0.009424763569940986,
                -1.2065592929319047,
                2.099535632677939,
                -0.8474889173726715,
                0.44300984789905873,
                3.11770330638692
            ]
        },
        {
            "positions": [
                -0.07554290924569157,
                -1.240095436362212,
                2.163529800515664,
                -0.8810015053340252,
                0.5997214727383767,
                3.1312098433727438
            ]
        },
        {
            "positions": [
                -0.14166105492144218,
                -1.2736315797925197,
                2.227523968353389,
                -0.914514093295379,
                0.7564330975776946,
                3.144716380358568
            ]
        },
        {
            "positions": [
                -0.20777920059719282,
                -1.3071677232228271,
                2.2915181361911148,
                -0.9480266812567327,
                0.9131447224170126,
                3.158222917344392
            ]
        },
        {
            "positions": [
                -0.2738973462729434,
                -1.3407038666531346,
                2.35551230402884,
                -0.9815392692180864,
                1.0698563472563307,
                3.171729454330216
            ]
        },
        {
            "positions": [
                -0.34001549194869396,
                -1.3742400100834422,
                2.419506471866565,
                -1.0150518571794402,
                1.2265679720956486,
                3.18523599131604
            ]
        }
    ]
}