{
    "goal": {
        "global_pose": {
            "orientation": {
                "w": -0.00223480608172531,
                "x": 0.0024358444001904467,
                "y": 0.7094548369677653,
                "z": -0.704743149386269
            },
            "position": {
                "x": -0.37947507619857795,
                "y": -0.6371506643295288,
                "z": 0.19426114857196808
            }
        },
        "name": "move_to_magneteinheit_C"
    },
    "id": "PRMstar_move_to_magneteinheit_C_125",
    "joint_names": [
        "shoulder_pan_joint",
        "shoulder_lift_joint",
        "elbow_joint",
        "wrist_1_joint",
        "wrist_2_joint",
        "wrist_3_joint"
    ],
    "metrics": {
        "cart_traj_len": 0.5817793219346737,
        "distance_elbow_joint": 0.17367341245377066,
        "distance_shoulder_lift_joint": 0.26632835410402,
        "distance_shoulder_pan_joint": 0.8008571708378363,
        "distance_wrist_1_joint": 1.1127870007311755,
        "distance_wrist_2_joint": 0.8423177806638866,
        "distance_wrist_3_joint": 0.04436085074390661,
        "smoothness": 0.597717372403725,
        "time": 5.0193463209999996,
        "traj_len": 1.8000901559462503,
        "weighted_distance": 2.298728137996634
    },
    "planner": "PRMstar",
    "start": {
        "state": {
            "elbow_joint": 1.9565354010623817,
            "shoulder_lift_joint": -1.4165861575791021,
            "shoulder_pan_joint": -1.6717766225146293,
            "wrist_1_joint": -0.5286633292919765,
            "wrist_2_joint": 1.472756589071564,
            "wrist_3_joint": -3.1238370188695823
        }
    },
    "waypoints": [
        {
            "positions": [
                -1.6717766225146293,
                -1.4165861575791021,
                1.9565354010623817,
                -0.5286633292919765,
                1.472756589071564,
                -3.1238370188695823
            ]
        },
        {
            "positions": [
                -1.751247882525183,
                -1.4199280289332115,
                1.990595827150547,
                -0.3231415782327274,
                1.4863029941179786,
                -3.13086841385615
            ]
        },
        {
            "positions": [
                -1.8307191425357363,
                -1.4232699002873206,
                2.0246562532387125,
                -0.11761982717347837,
                1.4998493991643933,
                -3.1378998088427177
            ]
        },
        {
            "positions": [
                -1.9723409415390476,
                -1.3804564057546727,
                2.03592674503066,
                -0.15321013364384456,
                1.3666699678834369,
                -3.144234872327856
            ]
        },
        {
            "positions": [
                -2.113962740542359,
                -1.3376429112220247,
                2.0471972368226083,
                -0.18880044011421077,
                1.2334905366024804,
                -3.150569935812995
            ]
        },
        {
            "positions": [
                -2.2555845395456706,
                -1.294829416689377,
                2.0584677286145565,
                -0.22439074658457697,
                1.1003111053215242,
                -3.156904999298134
            ]
        },
        {
            "positions": [
                -2.397206338548982,
                -1.252015922156729,
                2.0697382204065042,
                -0.2599810530549432,
                0.9671316740405678,
                -3.1632400627832724
            ]
        },
        {
            "positions": [
                -2.4223488234834765,
                -1.2225523777349925,
                2.0495813560366214,
                -0.44644181063201405,
                0.8729625922248239,
                -3.1615874605065337
            ]
        },
        {
            "positions": [
                -2.447491308417971,
                -1.1930888333132557,
                2.029424491666739,
                -0.6329025682090849,
                0.77879351040908,
                -3.1599348582297946
            ]
        },
        {
            "positions": [
                -2.4726337933524656,
                -1.163625288891519,
                2.009267627296856,
                -0.8193633257861557,
                0.684624428593336,
                -3.158282255953056
            ]
        }
    ]
}