{
    "goal": {
        "global_pose": {
            "orientation": {
                "w": 0.7047431493862688,
                "x": -0.7094548369677653,
                "y": 0.0024358444001904,
                "z": -0.0022348060817251984
            },
            "position": {
                "x": -0.39052492380142206,
                "y": 0.3671506643295288,
                "z": 0.19426114857196808
            }
        },
        "name": "move_to_magneteinheit_D"
    },
    "id": "PRMstar_move_to_magneteinheit_D_37",
    "joint_names": [
        "shoulder_pan_joint",
        "shoulder_lift_joint",
        "elbow_joint",
        "wrist_1_joint",
        "wrist_2_joint",
        "wrist_3_joint"
    ],
    "metrics": {
        "cart_traj_len": 4.457356463100638,
        "distance_elbow_joint": 3.1051529252238876,
        "distance_shoulder_lift_joint": 1.1213074426244614,
        "distance_shoulder_pan_joint": 3.190820135310944,
        "distance_wrist_1_joint": 2.3322547307609596,
        "distance_wrist_2_joint": 1.6337642678919848,
        "distance_wrist_3_joint": 0.4485942601267223,
        "smoothness": 0.5652907543234973,
        "time": 5.033328348,
        "traj_len": 3.439751991341667,
        "weighted_distance": 4.085963935333418
    },
    "planner": "PRMstar",
    "start": {
        "state": {
            "elbow_joint": 0.749534889911806,
            "shoulder_lift_joint": -0.6476975780787326,
            "shoulder_pan_joint": -2.711696901376241,
            "wrist_1_joint": -0.07506478083263063,
            "wrist_2_joint": 0.43296659715538205,
            "wrist_3_joint": -3.14703540197715
        }
    },
    "waypoints": [
        {
            "positions": [
                -2.711696901376241,
                -0.6476975780787326,
                0.749534889911806,
                -0.07506478083263063,
                0.43296659715538205,
                -3.14703540197715
            ]
        },
        {
            "positions": [
                -2.738115419836686,
                -0.7016757256685787,
                0.730747715188119,
                -0.2365712451455231,
                0.3624908253672427,
                -3.087188260238469
            ]
        },
        {
            "positions": [
                -2.764533938297131,
                -0.7556538732584248,
                0.7119605404644319,
                -0.3980777094584156,
                0.29201505357910335,
                -3.027341118499788
            ]
        },
        {
            "positions": [
                -2.7909524567575756,
                -0.8096320208482709,
                0.693173365740745,
                -0.5595841737713081,
                0.22153928179096397,
                -2.967493976761107
            ]
        },
        {
            "positions": [
                -2.674877270672761,
                -0.8463463505903652,
                0.5803671280611666,
                -0.6346394098438604,
                0.17836912006823535,
                -2.9644630369700917
            ]
        },
        {
            "positions": [
                -2.558802084587947,
                -0.8830606803324595,
                0.4675608903815884,
                -0.7096946459164127,
                0.13519895834550677,
                -2.9614320971790766
            ]
        },
        {
            "positions": [
                -2.4427268985031323,
                -0.9197750100745539,
                0.3547546527020101,
                -0.784749881988965,
                0.09202879662277819,
                -2.9584011573880615
            ]
        },
        {
            "positions": [
                -2.326651712418318,
                -0.9564893398166483,
                0.2419484150224318,
                -0.8598051180615174,
                0.048858634900049575,
                -2.9553702175970464
            ]
        },
        {
            "positions": [
                -2.2105765263335035,
                -0.9932036695587426,
                0.1291421773428535,
                -0.9348603541340696,
                0.005688473177320991,
                -2.9523392778060313
            ]
        },
        {
            "positions": [
                -2.0945013402486894,
                -1.029917999300837,
                0.01633593966327529,
                -1.009915590206622,
                -0.03748168854540759,
                -2.9493083380150162
            ]
        },
        {
            "positions": [
                -1.9784261541638748,
                -1.0666323290429314,
                -0.09647029801630302,
                -1.0849708262791742,
                -0.08065185026813623,
                -2.946277398224001
            ]
        },
        {
            "positions": [
                -1.8623509680790604,
                -1.1033466587850256,
                -0.20927653569588134,
                -1.1600260623517267,
                -0.12382201199086482,
                -2.943246458432986
            ]
        },
        {
            "positions": [
                -1.746275781994246,
                -1.14006098852712,
                -0.32208277337545954,
                -1.235081298424279,
                -0.1669921737135934,
                -2.940215518641971
            ]
        },
        {
            "positions": [
                -1.6302005959094317,
                -1.1767753182692142,
                -0.43488901105503797,
                -1.3101365344968312,
                -0.21016233543632198,
                -2.937184578850956
            ]
        },
        {
            "positions": [
                -1.514125409824617,
                -1.2134896480113087,
                -0.5476952487346162,
                -1.3851917705693837,
                -0.2533324971590507,
                -2.934153639059941
            ]
        },
        {
            "positions": [
                -1.398050223739803,
                -1.250203977753403,
                -0.6605014864141944,
                -1.4602470066419357,
                -0.2965026588817792,
                -2.931122699268926
            ]
        },
        {
            "positions": [
                -1.2819750376549883,
                -1.2869183074954973,
                -0.7733077240937728,
                -1.5353022427144882,
                -0.3396728206045079,
                -2.928091759477911
            ]
        },
        {
            "positions": [
                -1.165899851570174,
                -1.3236326372375915,
                -0.886113961773351,
                -1.6103574787870405,
                -0.38284298232723646,
                -2.925060819686896
            ]
        },
        {
            "positions": [
                -1.0498246654853596,
                -1.360346966979686,
                -0.9989201994529294,
                -1.685412714859593,
                -0.42601314404996504,
                -2.922029879895881
            ]
        },
        {
            "positions": [
                -0.9337494794005452,
                -1.3970612967217804,
                -1.1117264371325075,
                -1.7604679509321453,
                -0.4691833057726936,
                -2.9189989401048657
            ]
        },
        {
            "positions": [
                -0.8176742933157306,
                -1.4337756264638748,
                -1.2245326748120862,
                -1.8355231870046975,
                -0.5123534674954223,
                -2.9159680003138506
            ]
        },
        {
            "positions": [
                -0.7015991072309165,
                -1.470489956205969,
                -1.337338912491664,
                -1.9105784230772498,
                -0.5555236292181508,
                -2.9129370605228355
            ]
        },
        {
            "positions": [
                -0.5855239211461019,
                -1.5072042859480634,
                -1.4501451501712426,
                -1.9856336591498023,
                -0.5986937909408795,
                -2.9099061207318204
            ]
        },
        {
            "positions": [
                -0.4694487350612877,
                -1.5439186156901576,
                -1.5629513878508208,
                -2.0606888952223543,
                -0.641863952663608,
                -2.9068751809408053
            ]
        },
        {
            "positions": [
                -0.3533735489764732,
                -1.580632945432252,
                -1.675757625530399,
                -2.135744131294907,
                -0.6850341143863367,
                -2.9038442411497902
            ]
        },
        {
            "positions": [
                -0.25213619080646843,
                -1.601640383443436,
                -1.8115538877404749,
                -2.145335051553626,
                -0.5733786893743948,
                -2.9148269161688063
            ]
        },
        {
            "positions": [
                -0.1508988326364637,
                -1.6226478214546198,
                -1.9473501499505508,
                -2.154925971812345,
                -0.46172326436245303,
                -2.925809591187823
            ]
        },
        {
            "positions": [
                -0.04966147446645891,
                -1.6436552594658038,
                -2.0831464121606267,
                -2.164516892071064,
                -0.3500678393505112,
                -2.936792266206839
            ]
        },
        {
            "positions": [
                0.009432483494433916,
                -1.6385058810159945,
                -2.1752705048938004,
                -2.2377708391381064,
                -0.31654720348002124,
                -2.964541370123799
            ]
        },
        {
            "positions": [
                0.06852644145532674,
                -1.6333565025661851,
                -2.267394597626974,
                -2.3110247862051487,
                -0.28302656760953127,
                -2.992290474040759
            ]
        },
        {
            "positions": [
                -0.05751639940302747,
                -1.6908820047350708,
                -2.311506316469528,
                -2.262877423510928,
                -0.2261485628228011,
                -3.050768907244956
            ]
        },
        {
            "positions": [
                -0.18355924026138165,
                -1.7484075069039566,
                -2.355618035312082,
                -2.2147300608167075,
                -0.16927055803607097,
                -3.1092473404491527
            ]
        }
    ]
}