{
    "goal": {
        "global_pose": {
            "orientation": {
                "w": 0.5084816217422485,
                "x": -0.49083608388900757,
                "y": 0.5182115435600281,
                "z": -0.4816462993621826
            },
            "position": {
                "x": 0.5540239810943604,
                "y": 0.030875300988554955,
                "z": 0.16403168439865112
            }
        },
        "name": "move_to_storage_A"
    },
    "id": "PRMstar_move_to_storage_A_128",
    "joint_names": [
        "shoulder_pan_joint",
        "shoulder_lift_joint",
        "elbow_joint",
        "wrist_1_joint",
        "wrist_2_joint",
        "wrist_3_joint"
    ],
    "metrics": {
        "cart_traj_len": 0.35329477022464645,
        "distance_elbow_joint": 0.44923108392609756,
        "distance_shoulder_lift_joint": 0.23396586878027037,
        "distance_shoulder_pan_joint": 0.463658534606164,
        "distance_wrist_1_joint": 0.2367685749588656,
        "distance_wrist_2_joint": 1.0920513016952185,
        "distance_wrist_3_joint": 0.08699986855682873,
        "smoothness": 0.0,
        "time": 5.009689699,
        "traj_len": 1.6008357918673124,
        "weighted_distance": 2.0163072301341347
    },
    "planner": "PRMstar",
    "start": {
        "state": {
            "elbow_joint": 1.971548259319323,
            "shoulder_lift_joint": -1.1394851275133948,
            "shoulder_pan_joint": 0.1228115487234821,
            "wrist_1_joint": -0.7804723859257726,
            "wrist_2_joint": 0.12958671773740124,
            "wrist_3_joint": -3.192489227718131
        }
    },
    "waypoints": [
        {
            "positions": [
                0.1228115487234821,
                -1.1394851275133948,
                1.971548259319323,
                -0.7804723859257726,
                0.12958671773740124,
                -3.192489227718131
            ]
        },
        {
            "positions": [
                0.05657461520831582,
                -1.1729088230534335,
                2.0357241284516228,
                -0.8142964680627535,
                0.28559404655100384,
                -3.1800606750671556
            ]
        },
        {
            "positions": [
                -0.009662318306850465,
                -1.2063325185934721,
                2.0998999975839223,
                -0.8481205501997342,
                0.44160137536460653,
                -3.16763212241618
            ]
        },
        {
            "positions": [
                -0.07589925182201676,
                -1.2397562141335108,
                2.164075866716222,
                -0.881944632336715,
                0.5976087041782091,
                -3.1552035697652046
            ]
        },
        {
            "positions": [
                -0.14213618533718303,
                -1.2731799096735492,
                2.2282517358485214,
                -0.9157687144736958,
                0.7536160329918118,
                -3.142775017114229
            ]
        },
        {
            "positions": [
                -0.20837311885234933,
                -1.3066036052135879,
                2.2924276049808214,
                -0.9495927966106766,
                0.9096233618054145,
                -3.1303464644632535
            ]
        },
        {
            "positions": [
                -0.2746100523675156,
                -1.3400273007536265,
                2.356603474113121,
                -0.9834168787476574,
                1.065630690619017,
                -3.117917911812278
            ]
        },
        {
            "positions": [
                -0.3408469858826819,
                -1.3734509962936652,
                2.4207793432454205,
                -1.0172409608846382,
                1.2216380194326197,
                -3.1054893591613024
            ]
        }
    ]
}{
    "goal": {
        "global_pose": {
            "orientation": {
                "w": 0.5084816217422485,
                "x": -0.49083608388900757,
                "y": 0.5182115435600281,
                "z": -0.4816462993621826
            },
            "position": {
                "x": 0.5540239810943604,
                "y": 0.030875300988554955,
                "z": 0.16403168439865112
            }
        },
        "name": "move_to_storage_A"
    },
    "id": "PRMstar_move_to_storage_A_128",
    "joint_names": [
        "shoulder_pan_joint",
        "shoulder_lift_joint",
        "elbow_joint",
        "wrist_1_joint",
        "wrist_2_joint",
        "wrist_3_joint"
    ],
    "metrics": {
        "cart_traj_len": 0.3534610821722174,
        "distance_elbow_joint": 0.4482302876723221,
        "distance_shoulder_lift_joint": 0.2334824728307603,
        "distance_shoulder_pan_joint": 0.4617331118597261,
        "distance_wrist_1_joint": 0.2360014169430542,
        "distance_wrist_2_joint": 1.101014724720556,
        "distance_wrist_3_joint": 0.09894127733328073,
        "smoothness": 6.661338165333112e-16,
        "time": 5.012404529,
        "traj_len": 1.6060520823932514,
        "weighted_distance": 2.0283742227926953
    },
    "planner": "PRMstar",
    "start": {
        "state": {
            "elbow_joint": 1.97154746011099,
            "shoulder_lift_joint": -1.13948474672311,
            "shoulder_pan_joint": 0.12281154466712228,
            "wrist_1_joint": -0.7804688027058302,
            "wrist_2_joint": 0.12958655903071145,
            "wrist_3_joint": 3.0906928834467795
        }
    },
    "waypoints": [
        {
            "positions": [
                0.12281154466712228,
                -1.13948474672311,
                1.97154746011099,
                -0.7804688027058302,
                0.12958655903071145,
                3.0906928834467795
            ]
        },
        {
            "positions": [
                0.05684967154430427,
                -1.1728393856989328,
                2.0355803583498933,
                -0.8141832908405522,
                0.2868743768479337,
                3.104827351637248
            ]
        },
        {
            "positions": [
                -0.009112201578513737,
                -1.2061940246747558,
                2.099613256588796,
                -0.8478977789752742,
                0.44416219466515594,
                3.118961819827717
            ]
        },
        {
            "positions": [
                -0.07507407470133175,
                -1.2395486636505786,
                2.1636461548276995,
                -0.8816122671099963,
                0.6014500124823783,
                3.1330962880181854
            ]
        },
        {
            "positions": [
                -0.14103594782414974,
                -1.2729033026264016,
                2.2276790530666024,
                -0.9153267552447183,
                0.7587378302996005,
                3.1472307562086543
            ]
        },
        {
            "positions": [
                -0.20699782094696778,
                -1.3062579416022244,
                2.2917119513055058,
                -0.9490412433794404,
                0.9160256481168229,
                3.161365224399123
            ]
        },
        {
            "positions": [
                -0.27295969406978576,
                -1.3396125805780472,
                2.3557448495444087,
                -0.9827557315141624,
                1.073313465934045,
                3.1754996925895917
            ]
        },
        {
            "positions": [
                -0.3389215671926038,
                -1.3729672195538702,
                2.419777747783312,
                -1.0164702196488844,
                1.2306012837512674,
                3.1896341607800602
            ]
        }
    ]
}{
    "goal": {
        "global_pose": {
            "orientation": {
                "w": 0.5084816217422485,
                "x": -0.49083608388900757,
                "y": 0.5182115435600281,
                "z": -0.4816462993621826
            },
            "position": {
                "x": 0.5540239810943604,
                "y": 0.030875300988554955,
                "z": 0.16403168439865112
            }
        },
        "name": "move_to_storage_A"
    },
    "id": "PRMstar_move_to_storage_A_128",
    "joint_names": [
        "shoulder_pan_joint",
        "shoulder_lift_joint",
        "elbow_joint",
        "wrist_1_joint",
        "wrist_2_joint",
        "wrist_3_joint"
    ],
    "metrics": {
        "cart_traj_len": 0.3537185215434255,
        "distance_elbow_joint": 0.4482707514341344,
        "distance_shoulder_lift_joint": 0.23461379010257266,
        "distance_shoulder_pan_joint": 0.4613463414473656,
        "distance_wrist_1_joint": 0.23877220459286663,
        "distance_wrist_2_joint": 1.1047502223514185,
        "distance_wrist_3_joint": 0.0935786801472851,
        "smoothness": 8.881784232165597e-16,
        "time": 5.016403372,
        "traj_len": 1.6066524173185819,
        "weighted_distance": 2.027809600853714
    },
    "planner": "PRMstar",
    "start": {
        "state": {
            "elbow_joint": 1.9715472970024885,
            "shoulder_lift_joint": -1.1394870060712896,
            "shoulder_pan_joint": 0.12281152778156021,
            "wrist_1_joint": -0.780463741449964,
            "wrist_2_joint": 0.12958659822042276,
            "wrist_3_joint": 3.090690232415272
        }
    },
    "waypoints": [
        {
            "positions": [
                0.12281152778156021,
                -1.1394870060712896,
                1.9715472970024885,
                -0.780463741449964,
                0.12958659822042276,
                3.090690232415272
            ]
        },
        {
            "positions": [
                0.0569049075747937,
                -1.1730032618002286,
                2.0355859757787935,
                -0.8145740563918021,
                0.28740805855633966,
                3.1040586152934555
            ]
        },
        {
            "positions": [
                -0.009001712631972802,
                -1.2065195175291674,
                2.0996246545550985,
                -0.8486843713336402,
                0.4452295188922566,
                3.117426998171639
            ]
        },
        {
            "positions": [
                -0.0749083328387393,
                -1.2400357732581064,
                2.1636633333314035,
                -0.8827946862754783,
                0.6030509792281735,
                3.130795381049823
            ]
        },
        {
            "positions": [
                -0.14081495304550581,
                -1.2735520289870454,
                2.227702012107708,
                -0.9169050012173163,
                0.7608724395640905,
                3.144163763928006
            ]
        },
        {
            "positions": [
                -0.20672157325227233,
                -1.3070682847159845,
                2.291740690884013,
                -0.9510153161591545,
                0.9186938999000074,
                3.1575321468061897
            ]
        },
        {
            "positions": [
                -0.27262819345903877,
                -1.3405845404449233,
                2.355779369660318,
                -0.9851256311009925,
                1.0765153602359243,
                3.1709005296843733
            ]
        },
        {
            "positions": [
                -0.33853481366580535,
                -1.3741007961738623,
                2.419818048436623,
                -1.0192359460428306,
                1.2343368205718412,
                3.184268912562557
            ]
        }
    ]
}