{
    "goal": {
        "global_pose": {
            "orientation": {
                "w": -0.4816463035849501,
                "x": 0.5182115481033762,
                "y": 0.4908360881923453,
                "z": -0.5084816262002911
            },
            "position": {
                "x": -0.8240239810943604,
                "y": 0.19912469901144506,
                "z": 0.16403168439865112
            }
        },
        "name": "move_to_storage_D"
    },
    "id": "PRMstar_move_to_storage_D_2",
    "joint_names": [
        "shoulder_pan_joint",
        "shoulder_lift_joint",
        "elbow_joint",
        "wrist_1_joint",
        "wrist_2_joint",
        "wrist_3_joint"
    ],
    "metrics": {
        "cart_traj_len": 0.6831905503446093,
        "distance_elbow_joint": 0.5575054688857124,
        "distance_shoulder_lift_joint": 0.4755207774371142,
        "distance_shoulder_pan_joint": 0.4006329413824893,
        "distance_wrist_1_joint": 3.841216823549078,
        "distance_wrist_2_joint": 1.7776408614750128,
        "distance_wrist_3_joint": 3.159187302780992,
        "smoothness": 0.03806146173151552,
        "time": 5.041065829,
        "traj_len": 3.1955757189449288,
        "weighted_distance": 4.7062656603826
    },
    "planner": "PRMstar",
    "start": {
        "state": {
            "elbow_joint": -2.384821988534728,
            "shoulder_lift_joint": -2.2788054721415256,
            "shoulder_pan_joint": -0.1854694642142757,
            "wrist_1_joint": 1.4845938289331202,
            "wrist_2_joint": 0.17898776772866878,
            "wrist_3_joint": 0.037105688729662994
        }
    },
    "waypoints": [
        {
            "positions": [
                -0.1854694642142757,
                -2.2788054721415256,
                -2.384821988534728,
                1.4845938289331202,
                0.17898776772866878,
                0.037105688729662994
            ]
        },
        {
            "positions": [
                -0.11645307832836141,
                -2.200161184834965,
                -2.369285348561843,
                1.3776313368064796,
                0.10232673922039515,
                0.06041412824637025
            ]
        },
        {
            "positions": [
                -0.04743669244244711,
                -2.1215168975284047,
                -2.3537487085889586,
                1.270668844679839,
                0.02566571071212151,
                0.0837225677630775
            ]
        },
        {
            "positions": [
                0.02157969344346719,
                -2.042872610221844,
                -2.3382120686160737,
                1.1637063525531985,
                -0.05099531779615213,
                0.10703100727978476
            ]
        },
        {
            "positions": [
                0.09059607932938146,
                -1.964228322915284,
                -2.3226754286431888,
                1.056743860426558,
                -0.12765634630442574,
                0.130339446796492
            ]
        },
        {
            "positions": [
                0.08518010551030179,
                -1.9712258719679305,
                -2.3011380847738767,
                0.908336605859492,
                -0.1916127266279874,
                0.2636417748275426
            ]
        },
        {
            "positions": [
                0.07976413169122212,
                -1.9782234210205771,
                -2.279600740904565,
                0.7599293512924261,
                -0.25556910695154905,
                0.39694410285859316
            ]
        },
        {
            "positions": [
                0.07434815787214247,
                -1.9852209700732237,
                -2.258063397035253,
                0.6115220967253603,
                -0.3195254872751107,
                0.5302464308896437
            ]
        },
        {
            "positions": [
                0.0689321840530628,
                -1.9922185191258706,
                -2.2365260531659414,
                0.46311484215829435,
                -0.38348186759867237,
                0.6635487589206943
            ]
        },
        {
            "positions": [
                0.06351621023398313,
                -1.9992160681785172,
                -2.2149887092966294,
                0.3147075875912285,
                -0.447438247922234,
                0.7968510869517448
            ]
        },
        {
            "positions": [
                0.058100236414903465,
                -2.0062136172311638,
                -2.1934513654273173,
                0.16630033302416258,
                -0.5113946282457957,
                0.9301534149827954
            ]
        },
        {
            "positions": [
                0.052684262595823796,
                -2.0132111662838104,
                -2.1719140215580057,
                0.017893078457096534,
                -0.5753510085693574,
                1.063455743013846
            ]
        },
        {
            "positions": [
                0.04726828877674413,
                -2.020208715336457,
                -2.1503766776886937,
                -0.1305141761099693,
                -0.639307388892919,
                1.1967580710448966
            ]
        },
        {
            "positions": [
                0.04185231495766446,
                -2.0272062643891036,
                -2.128839333819382,
                -0.2789214306770351,
                -0.7032637692164807,
                1.3300603990759472
            ]
        },
        {
            "positions": [
                0.0364363411385848,
                -2.03420381344175,
                -2.10730198995007,
                -0.42732868524410095,
                -0.7672201495400424,
                1.4633627271069976
            ]
        },
        {
            "positions": [
                0.03102036731950513,
                -2.0412013624943968,
                -2.085764646080758,
                -0.575735939811167,
                -0.831176529863604,
                1.5966650551380484
            ]
        },
        {
            "positions": [
                0.025604393500425468,
                -2.0481989115470434,
                -2.0642273022114463,
                -0.7241431943782328,
                -0.8951329101871657,
                1.7299673831690987
            ]
        },
        {
            "positions": [
                0.020188419681345812,
                -2.05519646059969,
                -2.0426899583421343,
                -0.8725504489452987,
                -0.9590892905107271,
                1.8632697112001493
            ]
        },
        {
            "positions": [
                0.014772445862266129,
                -2.0621940096523366,
                -2.0211526144728222,
                -1.020957703512365,
                -1.023045670834289,
                1.9965720392312
            ]
        },
        {
            "positions": [
                0.009356472043186473,
                -2.069191558704983,
                -1.9996152706035106,
                -1.1693649580794307,
                -1.0870020511578506,
                2.1298743672622504
            ]
        },
        {
            "positions": [
                0.003940498224106803,
                -2.07618910775763,
                -1.9780779267341986,
                -1.3177722126464966,
                -1.1509584314814123,
                2.2631766952933012
            ]
        },
        {
            "positions": [
                -0.0014754755949728526,
                -2.083186656810277,
                -1.956540582864887,
                -1.4661794672135624,
                -1.214914811804974,
                2.3964790233243516
            ]
        },
        {
            "positions": [
                -0.006891449414052536,
                -2.0901842058629234,
                -1.935003238995575,
                -1.6145867217806282,
                -1.2788711921285356,
                2.5297813513554024
            ]
        },
        {
            "positions": [
                -0.012307423233132192,
                -2.09718175491557,
                -1.913465895126263,
                -1.762993976347694,
                -1.3428275724520973,
                2.6630836793864527
            ]
        },
        {
            "positions": [
                -0.01772339705221186,
                -2.1041793039682166,
                -1.8919285512569513,
                -1.9114012309147599,
                -1.406783952775659,
                2.796386007417503
            ]
        },
        {
            "positions": [
                -0.023139370871291517,
                -2.111176853020863,
                -1.8703912073876392,
                -2.0598084854818257,
                -1.4707403330992206,
                2.929688335448554
            ]
        },
        {
            "positions": [
                -0.0285553446903712,
                -2.11817440207351,
                -1.8488538635183274,
                -2.208215740048892,
                -1.5346967134227822,
                3.0629906634796047
            ]
        },
        {
            "positions": [
                -0.03397131850945086,
                -2.1251719511261564,
                -1.8273165196490155,
                -2.356622994615958,
                -1.598653093746344,
                3.196292991510655
            ]
        }
    ]
}