{
    "goal": {
        "global_pose": {
            "orientation": {
                "w": -0.4816463035849501,
                "x": 0.5182115481033762,
                "y": 0.4908360881923453,
                "z": -0.5084816262002911
            },
            "position": {
                "x": -0.8240239810943604,
                "y": -0.300875300988555,
                "z": 0.16403168439865112
            }
        },
        "name": "move_to_storage_C"
    },
    "id": "PRMstar_move_to_storage_C_145",
    "joint_names": [
        "shoulder_pan_joint",
        "shoulder_lift_joint",
        "elbow_joint",
        "wrist_1_joint",
        "wrist_2_joint",
        "wrist_3_joint"
    ],
    "metrics": {
        "cart_traj_len": 0.5770716314701537,
        "distance_elbow_joint": 0.2571405446198436,
        "distance_shoulder_lift_joint": 0.18876705220123158,
        "distance_shoulder_pan_joint": 0.4965179255367218,
        "distance_wrist_1_joint": 0.07610041249495736,
        "distance_wrist_2_joint": 1.058294153042194,
        "distance_wrist_3_joint": 0.055608478816573825,
        "smoothness": 2.5376526478085547e-16,
        "time": 5.012842711,
        "traj_len": 1.4602837281540606,
        "weighted_distance": 1.8379445285105371
    },
    "planner": "PRMstar",
    "start": {
        "state": {
            "elbow_joint": 2.010868314990456,
            "shoulder_lift_joint": -1.1634956873337592,
            "shoulder_pan_joint": -2.4736205022346125,
            "wrist_1_joint": -0.8367026794202681,
            "wrist_2_joint": 0.6746043897044499,
            "wrist_3_joint": -3.1496632123970403
        }
    },
    "waypoints": [
        {
            "positions": [
                -2.4736205022346125,
                -1.1634956873337592,
                2.010868314990456,
                -0.8367026794202681,
                0.6746043897044499,
                -3.1496632123970403
            ]
        },
        {
            "positions": [
                -2.556373489824066,
                -1.1320345119668873,
                1.9680115575538153,
                -0.8240192773377752,
                0.8509867485448156,
                -3.140395132594278
            ]
        },
        {
            "positions": [
                -2.63912647741352,
                -1.1005733366000152,
                1.9251548001171745,
                -0.8113358752552823,
                1.0273691073851814,
                -3.131127052791516
            ]
        },
        {
            "positions": [
                -2.7218794650029734,
                -1.0691121612331433,
                1.882298042680534,
                -0.7986524731727894,
                1.203751466225547,
                -3.121858972988753
            ]
        },
        {
            "positions": [
                -2.804632452592427,
                -1.0376509858662715,
                1.8394412852438935,
                -0.7859690710902966,
                1.3801338250659128,
                -3.112590893185991
            ]
        },
        {
            "positions": [
                -2.887385440181881,
                -1.0061898104993996,
                1.7965845278072528,
                -0.7732856690078036,
                1.5565161839062784,
                -3.1033228133832287
            ]
        },
        {
            "positions": [
                -2.9701384277713343,
                -0.9747286351325276,
                1.7537277703706122,
                -0.7606022669253107,
                1.732898542746644,
                -3.0940547335804665
            ]
        }
    ]
}