{
    "goal": {
        "global_pose": {
            "orientation": {
                "w": -0.4816463035849501,
                "x": 0.5182115481033762,
                "y": 0.4908360881923453,
                "z": -0.5084816262002911
            },
            "position": {
                "x": -0.8240239810943604,
                "y": -0.300875300988555,
                "z": 0.16403168439865112
            }
        },
        "name": "move_to_storage_C"
    },
    "id": "PRMstar_move_to_storage_C_56",
    "joint_names": [
        "shoulder_pan_joint",
        "shoulder_lift_joint",
        "elbow_joint",
        "wrist_1_joint",
        "wrist_2_joint",
        "wrist_3_joint"
    ],
    "metrics": {
        "cart_traj_len": 0.5768565694859181,
        "distance_elbow_joint": 0.25474421590801644,
        "distance_shoulder_lift_joint": 0.18802012847565452,
        "distance_shoulder_pan_joint": 0.4961766886816452,
        "distance_wrist_1_joint": 0.06654791983466624,
        "distance_wrist_2_joint": 1.0599482062506311,
        "distance_wrist_3_joint": 0.06370125889572309,
        "smoothness": 0.0,
        "time": 5.0265980159999994,
        "traj_len": 1.4591567489637076,
        "weighted_distance": 1.8393034175804381
    },
    "planner": "PRMstar",
    "start": {
        "state": {
            "elbow_joint": 2.010868314990456,
            "shoulder_lift_joint": -1.1634956873337592,
            "shoulder_pan_joint": -2.4736205022346125,
            "wrist_1_joint": -0.8367026794202681,
            "wrist_2_joint": 0.6746043897044499,
            "wrist_3_joint": -3.1496632123970403
        }
    },
    "waypoints": [
        {
            "positions": [
                -2.4736205022346125,
                -1.1634956873337592,
                2.010868314990456,
                -0.8367026794202681,
                0.6746043897044499,
                -3.1496632123970403
            ]
        },
        {
            "positions": [
                -2.5563166170148865,
                -1.1321589992544834,
                1.968410945672453,
                -0.8256113594478237,
                0.8512624240795551,
                -3.13904633591442
            ]
        },
        {
            "positions": [
                -2.639012731795161,
                -1.1008223111752078,
                1.9259535763544504,
                -0.8145200394753793,
                1.0279204584546604,
                -3.1284294594317994
            ]
        },
        {
            "positions": [
                -2.721708846575435,
                -1.069485623095932,
                1.8834962070364476,
                -0.803428719502935,
                1.2045784928297656,
                -3.1178125829491785
            ]
        },
        {
            "positions": [
                -2.804404961355709,
                -1.0381489350166562,
                1.8410388377184448,
                -0.7923373995304906,
                1.3812365272048708,
                -3.107195706466558
            ]
        },
        {
            "positions": [
                -2.8871010761359837,
                -1.0068122469373804,
                1.7985814684004422,
                -0.7812460795580463,
                1.557894561579976,
                -3.0965788299839376
            ]
        },
        {
            "positions": [
                -2.9697971909162577,
                -0.9754755588581047,
                1.7561240990824394,
                -0.7701547595856019,
                1.734552595955081,
                -3.085961953501317
            ]
        }
    ]
}