{
    "goal": {
        "global_pose": {
            "orientation": {
                "w": 0.7047431468963623,
                "x": -0.7094548344612122,
                "y": 0.0024358443915843964,
                "z": -0.0022348060738295317
            },
            "position": {
                "x": 0.6094750761985779,
                "y": 0.3671506643295288,
                "z": 0.19426114857196808
            }
        },
        "name": "move_to_magneteinheit_A"
    },
    "id": "PRMstar_move_to_magneteinheit_A_95",
    "joint_names": [
        "shoulder_pan_joint",
        "shoulder_lift_joint",
        "elbow_joint",
        "wrist_1_joint",
        "wrist_2_joint",
        "wrist_3_joint"
    ],
    "metrics": {
        "cart_traj_len": 3.259425407062754,
        "distance_elbow_joint": 3.9396992806138,
        "distance_shoulder_lift_joint": 0.4795839500008633,
        "distance_shoulder_pan_joint": 3.058744040219285,
        "distance_wrist_1_joint": 3.558436125508174,
        "distance_wrist_2_joint": 1.6105332632851508,
        "distance_wrist_3_joint": 0.5492852792286175,
        "smoothness": 0.12383528928728195,
        "time": 5.040887087000001,
        "traj_len": 3.6326687075559057,
        "weighted_distance": 4.411782166665355
    },
    "planner": "PRMstar",
    "start": {
        "state": {
            "elbow_joint": -1.9196185241190666,
            "shoulder_lift_joint": -1.2443396400964142,
            "shoulder_pan_joint": 2.6996025414629847,
            "wrist_1_joint": -1.5485510000780065,
            "wrist_2_joint": -1.5709468930060704,
            "wrist_3_joint": 0.4420197071253992
        }
    },
    "waypoints": [
        {
            "positions": [
                2.6996025414629847,
                -1.2443396400964142,
                -1.9196185241190666,
                -1.5485510000780065,
                -1.5709468930060704,
                0.4420197071253992
            ]
        },
        {
            "positions": [
                2.5669536614710298,
                -1.2318150253407028,
                -1.7783827424356564,
                -1.4737787685901713,
                -1.576143430312185,
                0.4273940398439196
            ]
        },
        {
            "positions": [
                2.434304781479075,
                -1.2192904105849913,
                -1.6371469607522462,
                -1.399006537102336,
                -1.5813399676182998,
                0.4127683725624401
            ]
        },
        {
            "positions": [
                2.30165590148712,
                -1.2067657958292797,
                -1.4959111790688358,
                -1.3242343056145005,
                -1.5865365049244144,
                0.3981427052809605
            ]
        },
        {
            "positions": [
                2.1690070214951653,
                -1.1942411810735682,
                -1.3546753973854258,
                -1.2494620741266653,
                -1.5917330422305291,
                0.383517037999481
            ]
        },
        {
            "positions": [
                2.03635814150321,
                -1.1817165663178568,
                -1.2134396157020153,
                -1.17468984263883,
                -1.5969295795366438,
                0.36889137071800143
            ]
        },
        {
            "positions": [
                1.9037092615112552,
                -1.1691919515621454,
                -1.0722038340186049,
                -1.0999176111509947,
                -1.6021261168427585,
                0.35426570343652186
            ]
        },
        {
            "positions": [
                1.7710603815193005,
                -1.156667336806434,
                -0.9309680523351949,
                -1.0251453796631593,
                -1.6073226541488732,
                0.33964003615504235
            ]
        },
        {
            "positions": [
                1.6384115015273455,
                -1.1441427220507225,
                -0.7897322706517846,
                -0.9503731481753241,
                -1.612519191454988,
                0.32501436887356283
            ]
        },
        {
            "positions": [
                1.5057626215353905,
                -1.1316181072950109,
                -0.6484964889683742,
                -0.8756009166874887,
                -1.6177157287611028,
                0.31038870159208326
            ]
        },
        {
            "positions": [
                1.3731137415434356,
                -1.1190934925392995,
                -0.507260707284964,
                -0.8008286851996534,
                -1.6229122660672175,
                0.2957630343106037
            ]
        },
        {
            "positions": [
                1.2404648615514806,
                -1.106568877783588,
                -0.36602492560155375,
                -0.7260564537118182,
                -1.6281088033733322,
                0.2811373670291242
            ]
        },
        {
            "positions": [
                1.1078159815595257,
                -1.0940442630278766,
                -0.2247891439181433,
                -0.6512842222239829,
                -1.6333053406794469,
                0.2665116997476446
            ]
        },
        {
            "positions": [
                0.9751671015675711,
                -1.0815196482721652,
                -0.08355336223473331,
                -0.5765119907361477,
                -1.6385018779855616,
                0.2518860324661651
            ]
        },
        {
            "positions": [
                0.8425182215756162,
                -1.0689950335164538,
                0.057682419448676914,
                -0.5017397592483124,
                -1.6436984152916763,
                0.23726036518468555
            ]
        },
        {
            "positions": [
                0.7098693415836612,
                -1.056470418760742,
                0.19891820113208736,
                -0.426967527760477,
                -1.648894952597791,
                0.22263469790320597
            ]
        },
        {
            "positions": [
                0.5772204615917063,
                -1.0439458040050307,
                0.34015398281549736,
                -0.3521952962726418,
                -1.6540914899039056,
                0.20800903062172643
            ]
        },
        {
            "positions": [
                0.44457158159975146,
                -1.0314211892493192,
                0.4813897644989077,
                -0.2774230647848065,
                -1.6592880272100203,
                0.1933833633402469
            ]
        },
        {
            "positions": [
                0.4044085108367025,
                -1.0132433134437806,
                0.5704366650847179,
                -0.13895328409865051,
                -1.5600768392888587,
                0.18999470641914476
            ]
        },
        {
            "positions": [
                0.36424544007365356,
                -0.995065437638242,
                0.6594835656705282,
                -0.00048350341249453477,
                -1.460865651367697,
                0.18660604949804263
            ]
        },
        {
            "positions": [
                0.32408236931060463,
                -0.9768875618327033,
                0.7485304662563385,
                0.13798627727366147,
                -1.3616544634465355,
                0.18321739257694053
            ]
        },
        {
            "positions": [
                0.28391929854755565,
                -0.9587096860271647,
                0.8375773668421487,
                0.2764560579598174,
                -1.2624432755253738,
                0.1798287356558384
            ]
        },
        {
            "positions": [
                0.24375622778450667,
                -0.940531810221626,
                0.926624267427959,
                0.41492583864597343,
                -1.1632320876042122,
                0.17644007873473627
            ]
        },
        {
            "positions": [
                0.20359315702145775,
                -0.9223539344160874,
                1.0156711680137693,
                0.5533956193321294,
                -1.0640208996830505,
                0.17305142181363414
            ]
        },
        {
            "positions": [
                0.16343008625840877,
                -0.9041760586105487,
                1.1047180685995794,
                0.6918654000182854,
                -0.9648097117618888,
                0.16966276489253201
            ]
        },
        {
            "positions": [
                0.12326701549535984,
                -0.8859981828050101,
                1.1937649691853898,
                0.8303351807044413,
                -0.8655985238407272,
                0.1662741079714299
            ]
        },
        {
            "positions": [
                0.08310394473231081,
                -0.8678203069994714,
                1.2828118697712,
                0.9688049613905975,
                -0.7663873359195654,
                0.16288545105032778
            ]
        },
        {
            "positions": [
                0.042940873969261883,
                -0.8496424311939328,
                1.3718587703570102,
                1.1072747420767532,
                -0.6671761479984039,
                0.15949679412922566
            ]
        },
        {
            "positions": [
                0.0027778032062129587,
                -0.8314645553883941,
                1.4609056709428208,
                1.2457445227629096,
                -0.5679649600772423,
                0.15610813720812355
            ]
        },
        {
            "positions": [
                -0.037385267556835966,
                -0.8132866795828555,
                1.5499525715286309,
                1.3842143034490655,
                -0.4687537721560806,
                0.15271948028702143
            ]
        },
        {
            "positions": [
                -0.077548338319885,
                -0.7951088037773169,
                1.638999472114441,
                1.5226840841352214,
                -0.3695425842349189,
                0.1493308233659193
            ]
        },
        {
            "positions": [
                -0.11771140908293395,
                -0.7769309279717782,
                1.7280463727002513,
                1.6611538648213773,
                -0.27033139631375713,
                0.14594216644481717
            ]
        },
        {
            "positions": [
                -0.057353886664592305,
                -0.779974737440835,
                1.801054968648872,
                1.7483366799735747,
                -0.2370225217675227,
                0.08264023180780833
            ]
        },
        {
            "positions": [
                0.003003635753749345,
                -0.7830185469098918,
                1.8740635645974923,
                1.835519495125772,
                -0.20371364722128826,
                0.01933829717079949
            ]
        },
        {
            "positions": [
                0.06336115817209101,
                -0.7860623563789487,
                1.947072160546113,
                1.9227023102779695,
                -0.17040477267505386,
                -0.04396363746620935
            ]
        },
        {
            "positions": [
                0.12371868059043266,
                -0.7891061658480055,
                2.0200807564947336,
                2.009885125430167,
                -0.13709589812881942,
                -0.10726557210321822
            ]
        }
    ]
}