{
    "goal": {
        "global_pose": {
            "orientation": {
                "w": 0.7047431493862688,
                "x": -0.7094548369677653,
                "y": 0.0024358444001904,
                "z": -0.0022348060817251984
            },
            "position": {
                "x": -0.39052492380142206,
                "y": 0.3671506643295288,
                "z": 0.19426114857196808
            }
        },
        "name": "move_to_magneteinheit_D"
    },
    "id": "PRMstar_move_to_magneteinheit_D_5",
    "joint_names": [
        "shoulder_pan_joint",
        "shoulder_lift_joint",
        "elbow_joint",
        "wrist_1_joint",
        "wrist_2_joint",
        "wrist_3_joint"
    ],
    "metrics": {
        "cart_traj_len": 4.16861411712288,
        "distance_elbow_joint": 3.6459277716577088,
        "distance_shoulder_lift_joint": 3.7696008833328754,
        "distance_shoulder_pan_joint": 5.998496040503188,
        "distance_wrist_1_joint": 4.153649738407337,
        "distance_wrist_2_joint": 0.2640695933513716,
        "distance_wrist_3_joint": 9.267533676547947,
        "smoothness": 0.46845194118383787,
        "time": 5.120509867,
        "traj_len": 5.205696658834477,
        "weighted_distance": 7.074748362214376
    },
    "planner": "PRMstar",
    "start": {
        "state": {
            "elbow_joint": 0.749534889911806,
            "shoulder_lift_joint": -0.6476975780787326,
            "shoulder_pan_joint": -2.711696901376241,
            "wrist_1_joint": -0.07506478083263063,
            "wrist_2_joint": 0.43296659715538205,
            "wrist_3_joint": -3.14703540197715
        }
    },
    "waypoints": [
        {
            "positions": [
                -2.711696901376241,
                -0.6476975780787326,
                0.749534889911806,
                -0.07506478083263063,
                0.43296659715538205,
                -3.14703540197715
            ]
        },
        {
            "positions": [
                -2.678397386823162,
                -0.6620824699018935,
                0.6835419450046035,
                -0.13266950673099293,
                0.44035517681472774,
                -3.0286405243934413
            ]
        },
        {
            "positions": [
                -2.5466868071217017,
                -0.7640972311624209,
                0.6642934940296357,
                -0.11672083884751787,
                0.43983095638522235,
                -2.936364207734556
            ]
        },
        {
            "positions": [
                -2.414976227420241,
                -0.8661119924229483,
                0.6450450430546678,
                -0.10077217096404281,
                0.439306735955717,
                -2.844087891075671
            ]
        },
        {
            "positions": [
                -2.283265647718781,
                -0.9681267536834757,
                0.6257965920797,
                -0.08482350308056777,
                0.4387825155262116,
                -2.7518115744167857
            ]
        },
        {
            "positions": [
                -2.1515550680173208,
                -1.0701415149440032,
                0.6065481411047321,
                -0.0688748351970927,
                0.4382582950967063,
                -2.6595352577579003
            ]
        },
        {
            "positions": [
                -2.0198444883158606,
                -1.1721562762045306,
                0.5872996901297642,
                -0.052926167313617656,
                0.4377340746672009,
                -2.567258941099015
            ]
        },
        {
            "positions": [
                -1.8881339086144002,
                -1.274171037465058,
                0.5680512391547965,
                -0.0369774994301426,
                0.43720985423769554,
                -2.47498262444013
            ]
        },
        {
            "positions": [
                -1.7564233289129398,
                -1.3761857987255854,
                0.5488027881798286,
                -0.021028831546667542,
                0.43668563380819014,
                -2.3827063077812447
            ]
        },
        {
            "positions": [
                -1.6247127492114797,
                -1.4782005599861128,
                0.5295543372048608,
                -0.005080163663192472,
                0.4361614133786848,
                -2.2904299911223593
            ]
        },
        {
            "positions": [
                -1.4930021695100193,
                -1.5802153212466403,
                0.5103058862298929,
                0.010868504220282571,
                0.4356371929491794,
                -2.198153674463474
            ]
        },
        {
            "positions": [
                -1.3612915898085591,
                -1.6822300825071677,
                0.49105743525492507,
                0.026817172103757614,
                0.43511297251967407,
                -2.105877357804589
            ]
        },
        {
            "positions": [
                -1.2295810101070987,
                -1.7842448437676952,
                0.4718089842799572,
                0.04276583998723268,
                0.4345887520901687,
                -2.0136010411457037
            ]
        },
        {
            "positions": [
                -1.1563944384585252,
                -1.7561509469987535,
                0.39004788285743475,
                0.11393565439254455,
                0.43101492847256423,
                -1.8802313929055037
            ]
        },
        {
            "positions": [
                -1.0832078668099514,
                -1.728057050229812,
                0.30828678143491234,
                0.18510546879785644,
                0.42744110485495984,
                -1.7468617446653036
            ]
        },
        {
            "positions": [
                -1.0100212951613778,
                -1.6999631534608703,
                0.22652568001238987,
                0.2562752832031683,
                0.4238672812373554,
                -1.6134920964251034
            ]
        },
        {
            "positions": [
                -0.9368347235128043,
                -1.6718692566919289,
                0.14476457858986747,
                0.3274450976084802,
                0.42029345761975095,
                -1.4801224481849033
            ]
        },
        {
            "positions": [
                -0.8636481518642306,
                -1.6437753599229872,
                0.063003477167345,
                0.39861491201379207,
                0.41671963400214657,
                -1.3467527999447033
            ]
        },
        {
            "positions": [
                -0.7904615802156569,
                -1.6156814631540457,
                -0.018757624255177463,
                0.4697847264191039,
                0.4131458103845421,
                -1.213383151704503
            ]
        },
        {
            "positions": [
                -0.7172750085670834,
                -1.587587566385104,
                -0.10051872567769993,
                0.5409545408244159,
                0.4095719867669377,
                -1.0800135034643032
            ]
        },
        {
            "positions": [
                -0.6440884369185097,
                -1.5594936696161625,
                -0.18227982710022228,
                0.6121243552297277,
                0.4059981631493333,
                -0.946643855224103
            ]
        },
        {
            "positions": [
                -0.5709018652699361,
                -1.5313997728472208,
                -0.26404092852274474,
                0.6832941696350396,
                0.40242433953172885,
                -0.813274206983903
            ]
        },
        {
            "positions": [
                -0.49771529362136246,
                -1.5033058760782794,
                -0.3458020299452672,
                0.7544639840403515,
                0.3988505159141244,
                -0.6799045587437029
            ]
        },
        {
            "positions": [
                -0.4245287219727888,
                -1.4752119793093377,
                -0.4275631313677898,
                0.8256337984456634,
                0.39527669229651996,
                -0.5465349105035027
            ]
        },
        {
            "positions": [
                -0.35134215032421523,
                -1.447118082540396,
                -0.5093242327903121,
                0.8968036128509752,
                0.39170286867891557,
                -0.41316526226330264
            ]
        },
        {
            "positions": [
                -0.27815557867564156,
                -1.4190241857714545,
                -0.5910853342128347,
                0.9679734272562872,
                0.38812904506131113,
                -0.2797956140231024
            ]
        },
        {
            "positions": [
                -0.204969007027068,
                -1.3909302890025128,
                -0.6728464356353571,
                1.0391432416615989,
                0.3845552214437067,
                -0.14642596578290257
            ]
        },
        {
            "positions": [
                -0.1317824353784942,
                -1.3628363922335713,
                -0.7546075370578794,
                1.1103130560669108,
                0.3809813978261023,
                -0.01305631754270209
            ]
        },
        {
            "positions": [
                -0.05859586372992065,
                -1.3347424954646296,
                -0.8363686384804018,
                1.1814828704722227,
                0.37740757420849785,
                0.12031333069749772
            ]
        },
        {
            "positions": [
                0.014590707918652912,
                -1.3066485986956882,
                -0.9181297399029243,
                1.2526526848775346,
                0.3738337505908934,
                0.253682978937698
            ]
        },
        {
            "positions": [
                0.08777727956722647,
                -1.2785547019267465,
                -0.9998908413254467,
                1.3238224992828465,
                0.370259926973289,
                0.3870526271778978
            ]
        },
        {
            "positions": [
                0.16096385121580026,
                -1.2504608051578048,
                -1.0816519427479694,
                1.3949923136881583,
                0.3666861033556846,
                0.520422275418098
            ]
        },
        {
            "positions": [
                0.23415042286437382,
                -1.2223669083888633,
                -1.1634130441704915,
                1.4661621280934702,
                0.36311227973808013,
                0.6537919236582979
            ]
        },
        {
            "positions": [
                0.3073369945129476,
                -1.1942730116199216,
                -1.2451741455930145,
                1.5373319424987824,
                0.35953845612047575,
                0.7871615718984986
            ]
        },
        {
            "positions": [
                0.38052356616152117,
                -1.16617911485098,
                -1.3269352470155367,
                1.608501756904094,
                0.3559646325028713,
                0.9205312201386984
            ]
        },
        {
            "positions": [
                0.4537101378100947,
                -1.1380852180820384,
                -1.4086963484380592,
                1.679671571309406,
                0.35239080888526686,
                1.0539008683788982
            ]
        },
        {
            "positions": [
                0.5268967094586683,
                -1.109991321313097,
                -1.4904574498605814,
                1.7508413857147176,
                0.34881698526766247,
                1.1872705166190984
            ]
        },
        {
            "positions": [
                0.6000832811072421,
                -1.0818974245441553,
                -1.572218551283104,
                1.8220112001200297,
                0.34524316165005803,
                1.3206401648592987
            ]
        },
        {
            "positions": [
                0.6732698527558156,
                -1.0538035277752136,
                -1.6539796527056265,
                1.8931810145253416,
                0.3416693380324536,
                1.454009813099499
            ]
        },
        {
            "positions": [
                0.7464564244043892,
                -1.025709631006272,
                -1.7357407541281487,
                1.9643508289306533,
                0.3380955144148492,
                1.5873794613396988
            ]
        },
        {
            "positions": [
                0.8196429960529628,
                -0.9976157342373305,
                -1.8175018555506712,
                2.0355206433359654,
                0.33452169079724475,
                1.7207491095798986
            ]
        },
        {
            "positions": [
                0.8928295677015368,
                -0.9695218374683889,
                -1.8992629569731938,
                2.1066904577412773,
                0.3309478671796403,
                1.8541187578200993
            ]
        },
        {
            "positions": [
                0.9660161393501103,
                -0.9414279406994474,
                -1.981024058395716,
                2.177860272146589,
                0.3273740435620359,
                1.9874884060602995
            ]
        },
        {
            "positions": [
                1.0392027109986839,
                -0.9133340439305058,
                -2.0627851598182385,
                2.249030086551901,
                0.3238002199444315,
                2.120858054300499
            ]
        },
        {
            "positions": [
                1.1123892826472574,
                -0.8852401471615642,
                -2.1445462612407606,
                2.320199900957213,
                0.32022639632682703,
                2.254227702540699
            ]
        },
        {
            "positions": [
                1.185575854295831,
                -0.8571462503926225,
                -2.2263073626632837,
                2.391369715362525,
                0.3166525727092226,
                2.3875973507808994
            ]
        },
        {
            "positions": [
                1.2587624259444046,
                -0.8290523536236809,
                -2.308068464085806,
                2.4625395297678367,
                0.3130787490916182,
                2.5209669990210997
            ]
        },
        {
            "positions": [
                1.3319489975929781,
                -0.8009584568547394,
                -2.3898295655083284,
                2.5337093441731486,
                0.30950492547401376,
                2.654336647261299
            ]
        },
        {
            "positions": [
                1.4051355692415517,
                -0.7728645600857977,
                -2.4715906669308505,
                2.6048791585784605,
                0.30593110185640937,
                2.7877062955014993
            ]
        },
        {
            "positions": [
                1.4783221408901257,
                -0.744770663316856,
                -2.553351768353373,
                2.6760489729837724,
                0.30235727823880487,
                2.9210759437416995
            ]
        },
        {
            "positions": [
                1.5515087125386993,
                -0.7166767665479146,
                -2.6351128697758956,
                2.7472187873890843,
                0.2987834546212005,
                3.0544455919819
            ]
        },
        {
            "positions": [
                1.4688758350821158,
                -0.7912236970443017,
                -2.6226709644439907,
                2.689306562703899,
                0.29330205978793866,
                2.9084430832871906
            ]
        },
        {
            "positions": [
                1.3862429576255322,
                -0.8657706275406889,
                -2.6102290591120854,
                2.6313943380187133,
                0.2878206649546768,
                2.762440574592481
            ]
        },
        {
            "positions": [
                1.3036100801689487,
                -0.9403175580370762,
                -2.5977871537801804,
                2.5734821133335277,
                0.28233927012141496,
                2.6164380658977717
            ]
        },
        {
            "positions": [
                1.220977202712365,
                -1.0148644885334632,
                -2.585345248448275,
                2.515569888648342,
                0.27685787528815314,
                2.470435557203062
            ]
        },
        {
            "positions": [
                1.1383443252557817,
                -1.0894114190298505,
                -2.57290334311637,
                2.4576576639631567,
                0.27137648045489127,
                2.324433048508353
            ]
        },
        {
            "positions": [
                1.055711447799198,
                -1.1639583495262378,
                -2.5604614377844652,
                2.399745439277971,
                0.26589508562162945,
                2.178430539813643
            ]
        },
        {
            "positions": [
                0.9730785703426146,
                -1.2385052800226248,
                -2.54801953245256,
                2.3418332145927856,
                0.2604136907883676,
                2.032428031118934
            ]
        },
        {
            "positions": [
                0.890445692886031,
                -1.313052210519012,
                -2.535577627120655,
                2.2839209899076,
                0.2549322959551058,
                1.8864255224242246
            ]
        },
        {
            "positions": [
                0.8078128154294475,
                -1.3875991410153992,
                -2.52313572178875,
                2.2260087652224145,
                0.24945090112184393,
                1.7404230137295154
            ]
        },
        {
            "positions": [
                0.725179937972864,
                -1.4621460715117864,
                -2.5106938164568446,
                2.168096540537229,
                0.2439695062885821,
                1.594420505034806
            ]
        },
        {
            "positions": [
                0.6425470605162803,
                -1.5366930020081737,
                -2.4982519111249397,
                2.1101843158520435,
                0.23848811145532026,
                1.4484179963400963
            ]
        },
        {
            "positions": [
                0.5599141830596969,
                -1.6112399325045608,
                -2.4858100057930343,
                2.052272091166858,
                0.2330067166220584,
                1.302415487645387
            ]
        },
        {
            "positions": [
                0.4772813056031133,
                -1.685786863000948,
                -2.4733681004611294,
                1.9943598664816724,
                0.2275253217887966,
                1.1564129789506776
            ]
        },
        {
            "positions": [
                0.3946484281465299,
                -1.760333793497335,
                -2.4609261951292245,
                1.9364476417964869,
                0.22204392695553476,
                1.0104104702559682
            ]
        },
        {
            "positions": [
                0.31201555068994624,
                -1.8348807239937224,
                -2.448484289797319,
                1.8785354171113013,
                0.2165625321222729,
                0.8644079615612585
            ]
        },
        {
            "positions": [
                0.2293826732333628,
                -1.9094276544901096,
                -2.436042384465414,
                1.8206231924261158,
                0.21108113728901107,
                0.7184054528665493
            ]
        },
        {
            "positions": [
                0.14674979577677916,
                -1.983974584986497,
                -2.4236004791335093,
                1.7627109677409303,
                0.20559974245574925,
                0.5724029441718401
            ]
        },
        {
            "positions": [
                0.06411691832019573,
                -2.0585215154828838,
                -2.411158573801604,
                1.7047987430557447,
                0.2001183476224874,
                0.4264004354771309
            ]
        },
        {
            "positions": [
                -0.018515959136387927,
                -2.133068445979271,
                -2.398716668469699,
                1.6468865183705592,
                0.19463695278922555,
                0.28039792678242126
            ]
        },
        {
            "positions": [
                -0.10114883659297136,
                -2.2076153764756583,
                -2.3862747631377936,
                1.5889742936853737,
                0.18915555795596373,
                0.13439541808771205
            ]
        },
        {
            "positions": [
                -0.18378171404955493,
                -2.2821623069720456,
                -2.3738328578058887,
                1.5310620690001882,
                0.18367416312270188,
                -0.011607090606997798
            ]
        }
    ]
}