{
    "goal": {
        "global_pose": {
            "orientation": {
                "w": 0.7047431468963623,
                "x": -0.7094548344612122,
                "y": 0.0024358443915843964,
                "z": -0.0022348060738295317
            },
            "position": {
                "x": 0.6094750761985779,
                "y": 0.3671506643295288,
                "z": 0.19426114857196808
            }
        },
        "name": "move_to_magneteinheit_A"
    },
    "id": "PRMstar_move_to_magneteinheit_A_31",
    "joint_names": [
        "shoulder_pan_joint",
        "shoulder_lift_joint",
        "elbow_joint",
        "wrist_1_joint",
        "wrist_2_joint",
        "wrist_3_joint"
    ],
    "metrics": {
        "cart_traj_len": 3.655657621185562,
        "distance_elbow_joint": 3.8809446323170214,
        "distance_shoulder_lift_joint": 0.3398078849695627,
        "distance_shoulder_pan_joint": 3.5029336500332016,
        "distance_wrist_1_joint": 0.9315117204015209,
        "distance_wrist_2_joint": 1.696910693339637,
        "distance_wrist_3_joint": 3.6602039604196994,
        "smoothness": 0.26820926941069645,
        "time": 5.055359788,
        "traj_len": 3.743302357742511,
        "weighted_distance": 4.895012040440881
    },
    "planner": "PRMstar",
    "start": {
        "state": {
            "elbow_joint": -1.9196185241190666,
            "shoulder_lift_joint": -1.2443396400964142,
            "shoulder_pan_joint": 2.6996025414629847,
            "wrist_1_joint": -1.5485510000780065,
            "wrist_2_joint": -1.5709468930060704,
            "wrist_3_joint": 0.4420197071253992
        }
    },
    "waypoints": [
        {
            "positions": [
                2.6996025414629847,
                -1.2443396400964142,
                -1.9196185241190666,
                -1.5485510000780065,
                -1.5709468930060704,
                0.4420197071253992
            ]
        },
        {
            "positions": [
                2.6046097610472856,
                -1.2479374367462663,
                -1.8122277653081615,
                -1.5213912545418407,
                -1.5197123599780638,
                0.3367738997824101
            ]
        },
        {
            "positions": [
                2.509616980631586,
                -1.2515352333961183,
                -1.7048370064972567,
                -1.4942315090056746,
                -1.4684778269500574,
                0.23152809243942113
            ]
        },
        {
            "positions": [
                2.414624200215887,
                -1.2551330300459704,
                -1.5974462476863516,
                -1.4670717634695087,
                -1.4172432939220507,
                0.12628228509643213
            ]
        },
        {
            "positions": [
                2.3196314198001873,
                -1.2587308266958224,
                -1.4900554888754467,
                -1.439912017933343,
                -1.3660087608940443,
                0.021036477753443084
            ]
        },
        {
            "positions": [
                2.224638639384488,
                -1.2623286233456745,
                -1.3826647300645416,
                -1.412752272397177,
                -1.3147742278660377,
                -0.08420932958954597
            ]
        },
        {
            "positions": [
                2.1296458589687886,
                -1.2659264199955265,
                -1.2752739712536365,
                -1.3855925268610112,
                -1.2635396948380313,
                -0.1894551369325349
            ]
        },
        {
            "positions": [
                2.0346530785530894,
                -1.2695242166453786,
                -1.1678832124427316,
                -1.3584327813248451,
                -1.2123051618100247,
                -0.29470094427552396
            ]
        },
        {
            "positions": [
                1.9396602981373903,
                -1.2731220132952306,
                -1.0604924536318265,
                -1.3312730357886793,
                -1.161070628782018,
                -0.399946751618513
            ]
        },
        {
            "positions": [
                1.8446675177216907,
                -1.2767198099450827,
                -0.9531016948209216,
                -1.3041132902525134,
                -1.1098360957540117,
                -0.5051925589615021
            ]
        },
        {
            "positions": [
                1.7496747373059915,
                -1.2803176065949347,
                -0.8457109360100166,
                -1.2769535447163474,
                -1.058601562726005,
                -0.6104383663044911
            ]
        },
        {
            "positions": [
                1.6546819568902922,
                -1.2839154032447868,
                -0.7383201771991115,
                -1.2497937991801815,
                -1.0073670296979986,
                -0.71568417364748
            ]
        },
        {
            "positions": [
                1.5596891764745928,
                -1.2875131998946387,
                -0.6309294183882064,
                -1.2226340536440157,
                -0.956132496669992,
                -0.820929980990469
            ]
        },
        {
            "positions": [
                1.4646963960588935,
                -1.291110996544491,
                -0.5235386595773015,
                -1.1954743081078498,
                -0.9048979636419855,
                -0.9261757883334581
            ]
        },
        {
            "positions": [
                1.3697036156431943,
                -1.2947087931943428,
                -0.4161479007663964,
                -1.168314562571684,
                -0.8536634306139789,
                -1.0314215956764472
            ]
        },
        {
            "positions": [
                1.274710835227495,
                -1.298306589844195,
                -0.30875714195549153,
                -1.141154817035518,
                -0.8024288975859724,
                -1.1366674030194361
            ]
        },
        {
            "positions": [
                1.1797180548117956,
                -1.301904386494047,
                -0.20136638314458644,
                -1.113995071499352,
                -0.7511943645579658,
                -1.241913210362425
            ]
        },
        {
            "positions": [
                1.0847252743960962,
                -1.305502183143899,
                -0.09397562433368134,
                -1.0868353259631862,
                -0.6999598315299593,
                -1.347159017705414
            ]
        },
        {
            "positions": [
                0.9897324939803969,
                -1.3090999797937513,
                0.013415134477223534,
                -1.0596755804270201,
                -0.6487252985019528,
                -1.4524048250484034
            ]
        },
        {
            "positions": [
                0.8947397135646977,
                -1.3126977764436032,
                0.12080589328812863,
                -1.0325158348908543,
                -0.5974907654739462,
                -1.5576506323913923
            ]
        },
        {
            "positions": [
                0.7997469331489984,
                -1.3162955730934554,
                0.2281966520990335,
                -1.0053560893546885,
                -0.5462562324459397,
                -1.6628964397343813
            ]
        },
        {
            "positions": [
                0.704754152733299,
                -1.3198933697433073,
                0.3355874109099388,
                -0.9781963438185226,
                -0.4950216994179333,
                -1.7681422470773702
            ]
        },
        {
            "positions": [
                0.6097613723175996,
                -1.3234911663931594,
                0.4429781697208437,
                -0.9510365982823566,
                -0.44378716638992666,
                -1.8733880544203592
            ]
        },
        {
            "positions": [
                0.5147685919019005,
                -1.3270889630430114,
                0.5503689285317486,
                -0.9238768527461907,
                -0.39255263336192003,
                -1.978633861763348
            ]
        },
        {
            "positions": [
                0.4197758114862009,
                -1.3306867596928635,
                0.6577596873426539,
                -0.8967171072100248,
                -0.34131810033391363,
                -2.083879669106337
            ]
        },
        {
            "positions": [
                0.32478303107050177,
                -1.3342845563427155,
                0.7651504461535588,
                -0.869557361673859,
                -0.290083567305907,
                -2.1891254764493264
            ]
        },
        {
            "positions": [
                0.2297902506548022,
                -1.3378823529925676,
                0.8725412049644636,
                -0.842397616137693,
                -0.2388490342779006,
                -2.2943712837923154
            ]
        },
        {
            "positions": [
                0.13479747023910305,
                -1.3414801496424196,
                0.9799319637753685,
                -0.8152378706015271,
                -0.18761450124989398,
                -2.3996170911353043
            ]
        },
        {
            "positions": [
                0.039804689823403905,
                -1.3450779462922717,
                1.0873227225862738,
                -0.7880781250653612,
                -0.13637996822188736,
                -2.5048628984782932
            ]
        },
        {
            "positions": [
                -0.05518809059229568,
                -1.3486757429421237,
                1.1947134813971787,
                -0.7609183795291954,
                -0.08514543519388096,
                -2.610108705821282
            ]
        },
        {
            "positions": [
                -0.15018087100799482,
                -1.3522735395919758,
                1.3021042402080836,
                -0.7337586339930294,
                -0.033910902165874335,
                -2.7153545131642716
            ]
        },
        {
            "positions": [
                -0.2451736514236944,
                -1.3558713362418278,
                1.409494999018989,
                -0.7065988884568635,
                0.017323630862132067,
                -2.8206003205072605
            ]
        },
        {
            "positions": [
                -0.34016643183939366,
                -1.35946913289168,
                1.516885757829894,
                -0.6794391429206976,
                0.06855816389013879,
                -2.9258461278502494
            ]
        },
        {
            "positions": [
                -0.224375262656688,
                -1.3032995348481058,
                1.6279958454219092,
                -0.6950391087317507,
                0.08290957300099576,
                -2.998930659211262
            ]
        },
        {
            "positions": [
                -0.10858409347398235,
                -1.2471299368045314,
                1.7391059330139242,
                -0.7106390745428036,
                0.09726098211185272,
                -3.072015190572275
            ]
        },
        {
            "positions": [
                0.0072070757087233095,
                -1.190960338760957,
                1.8502160206059395,
                -0.7262390403538566,
                0.11161239122270969,
                -3.1450997219332875
            ]
        },
        {
            "positions": [
                0.12299824489142894,
                -1.134790740717383,
                1.9613261081979547,
                -0.7418390061649096,
                0.12596380033356666,
                -3.2181842532943
            ]
        }
    ]
}