{
    "goal": {
        "global_pose": {
            "orientation": {
                "w": -0.00223480608172531,
                "x": 0.0024358444001904467,
                "y": 0.7094548369677653,
                "z": -0.704743149386269
            },
            "position": {
                "x": -0.37947507619857795,
                "y": -0.6371506643295288,
                "z": 0.19426114857196808
            }
        },
        "name": "move_to_magneteinheit_C"
    },
    "id": "PRMstar_move_to_magneteinheit_C_122",
    "joint_names": [
        "shoulder_pan_joint",
        "shoulder_lift_joint",
        "elbow_joint",
        "wrist_1_joint",
        "wrist_2_joint",
        "wrist_3_joint"
    ],
    "metrics": {
        "cart_traj_len": 1.722855503327764,
        "distance_elbow_joint": 0.7541797318981449,
        "distance_shoulder_lift_joint": 1.825468195299748,
        "distance_shoulder_pan_joint": 0.9604513052293802,
        "distance_wrist_1_joint": 2.273153719291476,
        "distance_wrist_2_joint": 1.2574137401056156,
        "distance_wrist_3_joint": 0.4141599836812797,
        "smoothness": 1.4489466365980543,
        "time": 5.023420227000001,
        "traj_len": 2.7358411276069456,
        "weighted_distance": 3.4414697590223415
    },
    "planner": "PRMstar",
    "start": {
        "state": {
            "elbow_joint": 1.9565354010623817,
            "shoulder_lift_joint": -1.4165861575791021,
            "shoulder_pan_joint": -1.6717766225146293,
            "wrist_1_joint": -0.5286633292919765,
            "wrist_2_joint": 1.472756589071564,
            "wrist_3_joint": -3.1238370188695823
        }
    },
    "waypoints": [
        {
            "positions": [
                -1.6717766225146293,
                -1.4165861575791021,
                1.9565354010623817,
                -0.5286633292919765,
                1.472756589071564,
                -3.1238370188695823
            ]
        },
        {
            "positions": [
                -1.687380851609197,
                -1.4435554415930079,
                1.9513014426495494,
                -0.44453588491632084,
                1.3785373113685586,
                -3.0517374336464034
            ]
        },
        {
            "positions": [
                -1.702985080703765,
                -1.4705247256069134,
                1.946067484236717,
                -0.36040844054066523,
                1.2843180336655535,
                -2.9796378484232244
            ]
        },
        {
            "positions": [
                -1.7849385263473934,
                -1.5619421462115162,
                1.90337459361314,
                -0.2576047024000143,
                1.2417988593686993,
                -2.9796280407041698
            ]
        },
        {
            "positions": [
                -1.8668919719910217,
                -1.653359566816119,
                1.8606817029895633,
                -0.1548009642593634,
                1.199279685071845,
                -2.979618232985115
            ]
        },
        {
            "positions": [
                -1.94884541763465,
                -1.7447769874207217,
                1.8179888123659864,
                -0.05199722611871249,
                1.1567605107749908,
                -2.979608425266061
            ]
        },
        {
            "positions": [
                -2.030798863278278,
                -1.8361944080253245,
                1.7752959217424094,
                0.05080651202193842,
                1.1142413364781365,
                -2.979598617547006
            ]
        },
        {
            "positions": [
                -2.1127523089219067,
                -1.9276118286299273,
                1.7326030311188325,
                0.15361025016258933,
                1.0717221621812822,
                -2.9795888098279515
            ]
        },
        {
            "positions": [
                -2.194705754565535,
                -2.01902924923453,
                1.6899101404952557,
                0.25641398830324025,
                1.029202987884428,
                -2.9795790021088973
            ]
        },
        {
            "positions": [
                -2.2766592002091635,
                -2.110446669839133,
                1.6472172498716788,
                0.35921772644389116,
                0.9866838135875737,
                -2.9795691943898426
            ]
        },
        {
            "positions": [
                -2.3586126458527916,
                -2.2018640904437357,
                1.604524359248102,
                0.4620214645845421,
                0.9441646392907195,
                -2.979559386670788
            ]
        },
        {
            "positions": [
                -2.38629840955171,
                -2.0586005523943527,
                1.6556729462605237,
                0.3719374726471573,
                0.9770263606398405,
                -2.973135880795798
            ]
        },
        {
            "positions": [
                -2.413984173250628,
                -1.91533701434497,
                1.7068215332729457,
                0.28185348070977256,
                1.0098880819889615,
                -2.966712374920809
            ]
        },
        {
            "positions": [
                -2.4416699369495465,
                -1.7720734762955872,
                1.7579701202853675,
                0.19176948877238786,
                1.0427498033380826,
                -2.960288869045819
            ]
        },
        {
            "positions": [
                -2.4693557006484648,
                -1.6288099382462042,
                1.8091187072977892,
                0.10168549683500311,
                1.0756115246872038,
                -2.95386536317083
            ]
        },
        {
            "positions": [
                -2.497041464347383,
                -1.4855464001968213,
                1.8602672943102112,
                0.011601504897618353,
                1.108473246036325,
                -2.94744185729584
            ]
        },
        {
            "positions": [
                -2.5247272280463013,
                -1.3422828621474385,
                1.911415881322633,
                -0.07848248703976635,
                1.1413349673854458,
                -2.9410183514208508
            ]
        },
        {
            "positions": [
                -2.5524129917452196,
                -1.1990193240980556,
                1.9625644683350547,
                -0.16856647897715116,
                1.174196688734567,
                -2.934594845545861
            ]
        },
        {
            "positions": [
                -2.532459257745522,
                -1.189682950075697,
                1.9735966135842828,
                -0.3315367244404672,
                1.049499253514336,
                -2.9908242981352506
            ]
        },
        {
            "positions": [
                -2.5125055237458245,
                -1.1803465760533385,
                1.984628758833511,
                -0.49450696990378323,
                0.9248018182941051,
                -3.0470537507246402
            ]
        },
        {
            "positions": [
                -2.4925517897461273,
                -1.1710102020309798,
                1.995660904082739,
                -0.6574772153670992,
                0.8001043830738741,
                -3.10328320331403
            ]
        },
        {
            "positions": [
                -2.4725980557464298,
                -1.1616738280086212,
                2.0066930493319672,
                -0.8204474608304153,
                0.6754069478536432,
                -3.1595126559034195
            ]
        }
    ]
}