{
    "goal": {
        "global_pose": {
            "orientation": {
                "w": 0.5084816262002911,
                "x": -0.4908360881923452,
                "y": 0.5182115481033761,
                "z": -0.48164630358495003
            },
            "position": {
                "x": 0.5540239810943604,
                "y": -0.46912469901144505,
                "z": 0.16403168439865112
            }
        },
        "name": "move_to_storage_B"
    },
    "id": "PRMstar_move_to_storage_B_92",
    "joint_names": [
        "shoulder_pan_joint",
        "shoulder_lift_joint",
        "elbow_joint",
        "wrist_1_joint",
        "wrist_2_joint",
        "wrist_3_joint"
    ],
    "metrics": {
        "cart_traj_len": 0.5098621515702952,
        "distance_elbow_joint": 0.3516794590678427,
        "distance_shoulder_lift_joint": 0.46036233967339646,
        "distance_shoulder_pan_joint": 0.18148598639011315,
        "distance_wrist_1_joint": 2.9866051837303793,
        "distance_wrist_2_joint": 2.714815342344942,
        "distance_wrist_3_joint": 4.290857390773567,
        "smoothness": 0.28638266639742666,
        "time": 5.035427757,
        "traj_len": 3.3144842286516076,
        "weighted_distance": 5.0268221581435215
    },
    "planner": "PRMstar",
    "start": {
        "state": {
            "elbow_joint": 1.664937868594044,
            "shoulder_lift_joint": -0.661644460510453,
            "shoulder_pan_joint": -0.9139846352900073,
            "wrist_1_joint": 2.146753192139373,
            "wrist_2_joint": -2.2341966793290973,
            "wrist_3_joint": 0.005466555786416001
        }
    },
    "waypoints": [
        {
            "positions": [
                -0.9139846352900073,
                -0.661644460510453,
                1.664937868594044,
                2.146753192139373,
                -2.2341966793290973,
                0.005466555786416001
            ]
        },
        {
            "positions": [
                -0.9275707793020643,
                -0.6676493432663158,
                1.6653812811415367,
                1.9971958138398884,
                -2.131907905452684,
                -0.09071247412202153
            ]
        },
        {
            "positions": [
                -0.9411569233141214,
                -0.6736542260221785,
                1.6658246936890297,
                1.8476384355404034,
                -2.0296191315762706,
                -0.18689150403045907
            ]
        },
        {
            "positions": [
                -0.9547430673261785,
                -0.6796591087780413,
                1.6662681062365226,
                1.6980810572409184,
                -1.927330357699857,
                -0.2830705339388966
            ]
        },
        {
            "positions": [
                -0.9683292113382356,
                -0.6856639915339039,
                1.6667115187840154,
                1.5485236789414336,
                -1.8250415838234437,
                -0.3792495638473341
            ]
        },
        {
            "positions": [
                -0.9819153553502926,
                -0.6916688742897666,
                1.6671549313315084,
                1.3989663006419488,
                -1.7227528099470302,
                -0.4754285937557717
            ]
        },
        {
            "positions": [
                -0.9955014993623497,
                -0.6976737570456294,
                1.6675983438790012,
                1.2494089223424638,
                -1.6204640360706168,
                -0.5716076236642093
            ]
        },
        {
            "positions": [
                -0.9998479829413832,
                -0.7161230197907694,
                1.682773082304344,
                1.1585714913018783,
                -1.5291126143712055,
                -0.41013878838929874
            ]
        },
        {
            "positions": [
                -1.0041944665204168,
                -0.7345722825359094,
                1.697947820729687,
                1.0677340602612926,
                -1.4377611926717941,
                -0.24866995311438822
            ]
        },
        {
            "positions": [
                -1.0085409500994502,
                -0.7530215452810494,
                1.7131225591550296,
                0.9768966292207071,
                -1.3464097709723828,
                -0.0872011178394777
            ]
        },
        {
            "positions": [
                -1.0128874336784837,
                -0.7714708080261894,
                1.7282972975803725,
                0.8860591981801214,
                -1.2550583492729714,
                0.07426771743543281
            ]
        },
        {
            "positions": [
                -1.0172339172575173,
                -0.7899200707713294,
                1.7434720360057154,
                0.7952217671395359,
                -1.16370692757356,
                0.23573655271034333
            ]
        },
        {
            "positions": [
                -1.0215804008365508,
                -0.8083693335164694,
                1.7586467744310583,
                0.7043843360989502,
                -1.0723555058741487,
                0.39720538798525384
            ]
        },
        {
            "positions": [
                -1.0259268844155842,
                -0.8268185962616095,
                1.7738215128564012,
                0.6135469050583646,
                -0.9810040841747374,
                0.5586742232601646
            ]
        },
        {
            "positions": [
                -1.0302733679946177,
                -0.8452678590067494,
                1.7889962512817439,
                0.522709474017779,
                -0.889652662475326,
                0.7201430585350749
            ]
        },
        {
            "positions": [
                -1.0346198515736513,
                -0.8637171217518894,
                1.8041709897070868,
                0.4318720429771934,
                -0.7983012407759147,
                0.8816118938099856
            ]
        },
        {
            "positions": [
                -1.0389663351526848,
                -0.8821663844970294,
                1.8193457281324297,
                0.3410346119366079,
                -0.7069498190765033,
                1.0430807290848958
            ]
        },
        {
            "positions": [
                -1.0433128187317182,
                -0.9006156472421695,
                1.8345204665577726,
                0.25019718089602216,
                -0.615598397377092,
                1.2045495643598065
            ]
        },
        {
            "positions": [
                -1.0476593023107519,
                -0.9190649099873094,
                1.8496952049831152,
                0.15935974985543666,
                -0.5242469756776806,
                1.3660183996347168
            ]
        },
        {
            "positions": [
                -1.0520057858897853,
                -0.9375141727324494,
                1.8648699434084581,
                0.06852231881485116,
                -0.4328955539782693,
                1.5274872349096271
            ]
        },
        {
            "positions": [
                -1.0563522694688188,
                -0.9559634354775894,
                1.880044681833801,
                -0.022315112225734568,
                -0.34154413227885794,
                1.6889560701845383
            ]
        },
        {
            "positions": [
                -1.0606987530478524,
                -0.9744126982227295,
                1.895219420259144,
                -0.1131525432663203,
                -0.2501927105794466,
                1.8504249054594486
            ]
        },
        {
            "positions": [
                -1.0650452366268859,
                -0.9928619609678695,
                1.9103941586844866,
                -0.2039899743069058,
                -0.15884128888003524,
                2.011893740734359
            ]
        },
        {
            "positions": [
                -1.0693917202059193,
                -1.0113112237130095,
                1.9255688971098295,
                -0.2948274053474913,
                -0.06748986718062389,
                2.173362576009269
            ]
        },
        {
            "positions": [
                -1.073738203784953,
                -1.0297604864581493,
                1.9407436355351724,
                -0.385664836388077,
                0.023861554518787464,
                2.3348314112841804
            ]
        },
        {
            "positions": [
                -1.0780846873639864,
                -1.0482097492032896,
                1.9559183739605153,
                -0.47650226742866253,
                0.11521297621819881,
                2.4963002465590907
            ]
        },
        {
            "positions": [
                -1.0824311709430199,
                -1.0666590119484294,
                1.9710931123858582,
                -0.567339698469248,
                0.20656439791761017,
                2.657769081834001
            ]
        },
        {
            "positions": [
                -1.0867776545220533,
                -1.0851082746935694,
                1.9862678508112008,
                -0.6581771295098338,
                0.2979158196170213,
                2.8192379171089117
            ]
        },
        {
            "positions": [
                -1.091124138101087,
                -1.1035575374387094,
                2.001442589236544,
                -0.7490145605504195,
                0.38926724131643287,
                2.9807067523838224
            ]
        },
        {
            "positions": [
                -1.0954706216801204,
                -1.1220068001838495,
                2.0166173276618866,
                -0.8398519915910052,
                0.4806186630158443,
                3.1421755876587327
            ]
        }
    ]
}