{
    "goal": {
        "global_pose": {
            "orientation": {
                "w": -0.4816463035849501,
                "x": 0.5182115481033762,
                "y": 0.4908360881923453,
                "z": -0.5084816262002911
            },
            "position": {
                "x": -0.8240239810943604,
                "y": 0.19912469901144506,
                "z": 0.16403168439865112
            }
        },
        "name": "move_to_storage_D"
    },
    "id": "PRMstar_move_to_storage_D_55",
    "joint_names": [
        "shoulder_pan_joint",
        "shoulder_lift_joint",
        "elbow_joint",
        "wrist_1_joint",
        "wrist_2_joint",
        "wrist_3_joint"
    ],
    "metrics": {
        "cart_traj_len": 4.243268922034962,
        "distance_elbow_joint": 4.442114146463096,
        "distance_shoulder_lift_joint": 1.320488018405347,
        "distance_shoulder_pan_joint": 2.8127527285413096,
        "distance_wrist_1_joint": 2.265775875636882,
        "distance_wrist_2_joint": 0.8676086510982207,
        "distance_wrist_3_joint": 3.2081366048151305,
        "smoothness": 0.10886794870778349,
        "time": 5.0655475690000005,
        "traj_len": 3.8622371787553367,
        "weighted_distance": 4.9463657124524625
    },
    "planner": "PRMstar",
    "start": {
        "state": {
            "elbow_joint": -2.384821988534728,
            "shoulder_lift_joint": -2.2788054721415256,
            "shoulder_pan_joint": -0.1854694642142757,
            "wrist_1_joint": 1.4845938289331202,
            "wrist_2_joint": 0.17898776772866878,
            "wrist_3_joint": 0.037105688729662994
        }
    },
    "waypoints": [
        {
            "positions": [
                -0.1854694642142757,
                -2.2788054721415256,
                -2.384821988534728,
                1.4845938289331202,
                0.17898776772866878,
                0.037105688729662994
            ]
        },
        {
            "positions": [
                -0.005435921938015009,
                -2.285757413735854,
                -2.413958966037705,
                1.4212172633343703,
                0.189980288563966,
                0.02808627361595898
            ]
        },
        {
            "positions": [
                0.1745976203382457,
                -2.2927093553301825,
                -2.4430959435406825,
                1.3578406977356203,
                0.2009728093992632,
                0.019066858502254966
            ]
        },
        {
            "positions": [
                0.35463116261450645,
                -2.299661296924511,
                -2.4722329210436595,
                1.2944641321368702,
                0.21196533023456043,
                0.010047443388550951
            ]
        },
        {
            "positions": [
                0.5346647048907671,
                -2.3066132385188394,
                -2.5013698985466366,
                1.2310875665381202,
                0.22295785106985766,
                0.0010280282748469372
            ]
        },
        {
            "positions": [
                0.5944538065889462,
                -2.269679517032324,
                -2.3777822917908886,
                1.1735941490169237,
                0.24649038157720143,
                0.09165828382799877
            ]
        },
        {
            "positions": [
                0.6542429082871253,
                -2.2327457955458088,
                -2.25419468503514,
                1.116100731495727,
                0.2700229120845452,
                0.1822885393811506
            ]
        },
        {
            "positions": [
                0.7140320099853043,
                -2.1958120740592935,
                -2.130607078279392,
                1.0586073139745305,
                0.2935554425918889,
                0.27291879493430243
            ]
        },
        {
            "positions": [
                0.7738211116834833,
                -2.1588783525727786,
                -2.007019471523644,
                1.0011138964533337,
                0.31708797309923276,
                0.3635490504874543
            ]
        },
        {
            "positions": [
                0.8336102133816623,
                -2.1219446310862633,
                -1.8834318647678958,
                0.9436204789321372,
                0.3406205036065765,
                0.4541793060406061
            ]
        },
        {
            "positions": [
                0.8933993150798414,
                -2.085010909599748,
                -1.7598442580121474,
                0.8861270614109406,
                0.36415303411392025,
                0.5448095615937579
            ]
        },
        {
            "positions": [
                0.9531884167780205,
                -2.0480771881132327,
                -1.6362566512563992,
                0.8286336438897439,
                0.387685564621264,
                0.6354398171469098
            ]
        },
        {
            "positions": [
                1.0129775184761995,
                -2.0111434666267174,
                -1.512669044500651,
                0.7711402263685474,
                0.4112180951286078,
                0.7260700727000616
            ]
        },
        {
            "positions": [
                1.0727666201743786,
                -1.9742097451402023,
                -1.389081437744903,
                0.7136468088473508,
                0.43475062563595157,
                0.8167003282532134
            ]
        },
        {
            "positions": [
                1.1325557218725577,
                -1.937276023653687,
                -1.2654938309891548,
                0.6561533913261541,
                0.4582831561432953,
                0.9073305838063652
            ]
        },
        {
            "positions": [
                1.1923448235707368,
                -1.900342302167172,
                -1.1419062242334064,
                0.5986599738049575,
                0.48181568665063906,
                0.9979608393595171
            ]
        },
        {
            "positions": [
                1.2521339252689159,
                -1.8634085806806566,
                -1.0183186174776582,
                0.5411665562837609,
                0.5053482171579828,
                1.088591094912669
            ]
        },
        {
            "positions": [
                1.311923026967095,
                -1.8264748591941413,
                -0.89473101072191,
                0.48367313876256424,
                0.5288807476653266,
                1.1792213504658209
            ]
        },
        {
            "positions": [
                1.371712128665274,
                -1.789541137707626,
                -0.7711434039661618,
                0.4261797212413676,
                0.5524132781726704,
                1.2698516060189726
            ]
        },
        {
            "positions": [
                1.431501230363453,
                -1.752607416221111,
                -0.6475557972104138,
                0.3686863037201711,
                0.5759458086800142,
                1.3604818615721244
            ]
        },
        {
            "positions": [
                1.491290332061632,
                -1.7156736947345956,
                -0.5239681904546656,
                0.31119288619897445,
                0.5994783391873579,
                1.4511121171252763
            ]
        },
        {
            "positions": [
                1.551079433759811,
                -1.6787399732480806,
                -0.4003805836989174,
                0.2536994686777778,
                0.6230108696947017,
                1.541742372678428
            ]
        },
        {
            "positions": [
                1.61086853545799,
                -1.6418062517615652,
                -0.2767929769431694,
                0.1962060511565813,
                0.6465434002020454,
                1.6323726282315798
            ]
        },
        {
            "positions": [
                1.670657637156169,
                -1.60487253027505,
                -0.15320537018742098,
                0.13871263363538455,
                0.6700759307093892,
                1.7230028837847318
            ]
        },
        {
            "positions": [
                1.730446738854348,
                -1.5679388087885346,
                -0.029617763431672994,
                0.08121921611418803,
                0.693608461216733,
                1.8136331393378835
            ]
        },
        {
            "positions": [
                1.7902358405525272,
                -1.5310050873020193,
                0.09396984332407543,
                0.023725798592991287,
                0.7171409917240767,
                1.9042633948910355
            ]
        },
        {
            "positions": [
                1.8500249422507062,
                -1.4940713658155043,
                0.21755745007982386,
                -0.033767618928205234,
                0.7406735222314205,
                1.9948936504441872
            ]
        },
        {
            "positions": [
                1.9098140439488853,
                -1.457137644328989,
                0.34114505683557184,
                -0.09126103644940198,
                0.7642060527387643,
                2.0855239059973387
            ]
        },
        {
            "positions": [
                1.9696031456470644,
                -1.4202039228424739,
                0.46473266359132026,
                -0.1487544539705985,
                0.787738583246108,
                2.1761541615504907
            ]
        },
        {
            "positions": [
                2.0293922473452435,
                -1.3832702013559586,
                0.5883202703470682,
                -0.20624787149179524,
                0.8112711137534518,
                2.2667844171036426
            ]
        },
        {
            "positions": [
                2.0891813490434226,
                -1.3463364798694433,
                0.7119078771028167,
                -0.26374128901299176,
                0.8348036442607956,
                2.3574146726567946
            ]
        },
        {
            "positions": [
                2.1489704507416016,
                -1.309402758382928,
                0.8354954838585646,
                -0.3212347065341885,
                0.8583361747681394,
                2.4480449282099466
            ]
        },
        {
            "positions": [
                2.2087595524397807,
                -1.2724690368964129,
                0.9590830906143131,
                -0.37872812405538503,
                0.8818687052754831,
                2.5386751837630985
            ]
        },
        {
            "positions": [
                2.26854865413796,
                -1.2355353154098976,
                1.0826706973700615,
                -0.4362215415765818,
                0.9054012357828269,
                2.6293054393162505
            ]
        },
        {
            "positions": [
                2.328337755836139,
                -1.1986015939233825,
                1.206258304125809,
                -0.49371495909777807,
                0.9289337662901707,
                2.7199356948694016
            ]
        },
        {
            "positions": [
                2.388126857534318,
                -1.1616678724368672,
                1.3298459108815575,
                -0.5512083766189748,
                0.9524662967975144,
                2.8105659504225535
            ]
        },
        {
            "positions": [
                2.447915959232497,
                -1.124734150950352,
                1.4534335176373054,
                -0.6087017941401713,
                0.9759988273048582,
                2.9011962059757055
            ]
        },
        {
            "positions": [
                2.507705060930676,
                -1.0878004294638366,
                1.5770211243930534,
                -0.6661952116613681,
                0.9995313578122019,
                2.9918264615288575
            ]
        },
        {
            "positions": [
                2.567494162628855,
                -1.0508667079773215,
                1.7006087311488018,
                -0.7236886291825646,
                1.0230638883195458,
                3.0824567170820094
            ]
        },
        {
            "positions": [
                2.627283264327034,
                -1.0139329864908062,
                1.82419633790455,
                -0.7811820467037613,
                1.0465964188268895,
                3.1730869726351614
            ]
        }
    ]
}