{
    "goal": {
        "global_pose": {
            "orientation": {
                "w": 0.7031023502349854,
                "x": -0.7110244035720825,
                "y": 0.007748599164187908,
                "z": 0.005598929710686207
            },
            "position": {
                "x": 0.11585023208521307,
                "y": 0.44412534475326537,
                "z": 0.3711530566215515
            }
        },
        "name": "move_to_auspresseinheit_A"
    },
    "id": "PRMstar_move_to_auspresseinheit_A_99",
    "joint_names": [
        "shoulder_pan_joint",
        "shoulder_lift_joint",
        "elbow_joint",
        "wrist_1_joint",
        "wrist_2_joint",
        "wrist_3_joint"
    ],
    "metrics": {
        "cart_traj_len": 0.6710955496391466,
        "distance_elbow_joint": 0.033671583040268516,
        "distance_shoulder_lift_joint": 0.5368800412957881,
        "distance_shoulder_pan_joint": 1.0435339542030073,
        "distance_wrist_1_joint": 0.5436401380643274,
        "distance_wrist_2_joint": 2.127067786949975,
        "distance_wrist_3_joint": 0.7593265960830697,
        "smoothness": 1.1850267104268446,
        "time": 5.015830263,
        "traj_len": 2.2459118637285025,
        "weighted_distance": 3.0386643804173037
    },
    "planner": "PRMstar",
    "start": {
        "state": {
            "elbow_joint": 2.4225746658250005,
            "shoulder_lift_joint": -1.3736534386056498,
            "shoulder_pan_joint": -0.3378633547517467,
            "wrist_1_joint": -1.0288598680537169,
            "wrist_2_joint": 1.233022673432363,
            "wrist_3_joint": -3.0940220416140027
        }
    },
    "waypoints": [
        {
            "positions": [
                -0.3378633547517467,
                -1.3736534386056498,
                2.4225746658250005,
                -1.0288598680537169,
                1.233022673432363,
                -3.0940220416140027
            ]
        },
        {
            "positions": [
                -0.28835185280063463,
                -1.423622248896464,
                2.41898214139522,
                -0.9681633764586378,
                1.0672743398598166,
                -3.0480318434721765
            ]
        },
        {
            "positions": [
                -0.23884035084952254,
                -1.473591059187278,
                2.41538961696544,
                -0.9074668848635588,
                0.9015260062872701,
                -3.0020416453303502
            ]
        },
        {
            "positions": [
                -0.18932884889841042,
                -1.5235598694780923,
                2.4117970925356595,
                -0.8467703932684796,
                0.7357776727147236,
                -2.956051447188524
            ]
        },
        {
            "positions": [
                -0.13981734694729833,
                -1.5735286797689065,
                2.4082045681058792,
                -0.7860739016734006,
                0.5700293391421771,
                -2.9100612490466977
            ]
        },
        {
            "positions": [
                -0.09030584499618624,
                -1.6234974900597205,
                2.4046120436760994,
                -0.7253774100783215,
                0.40428100556963065,
                -2.864071050904871
            ]
        },
        {
            "positions": [
                -0.04079434304507412,
                -1.6734663003505348,
                2.401019519246319,
                -0.6646809184832424,
                0.23853267199708417,
                -2.8180808527630448
            ]
        },
        {
            "positions": [
                0.00871715890603797,
                -1.7234351106413488,
                2.3974269948165388,
                -0.6039844268881633,
                0.07278433842453769,
                -2.7720906546212185
            ]
        },
        {
            "positions": [
                0.05822866085715005,
                -1.773403920932163,
                2.3938344703867585,
                -0.5432879352930843,
                -0.09296399514800877,
                -2.7261004564793923
            ]
        },
        {
            "positions": [
                0.16613565062283508,
                -1.7962588474270422,
                2.3946563683204296,
                -0.5336099010758018,
                0.04054952458025832,
                -2.791334624970802
            ]
        },
        {
            "positions": [
                0.27404264038852016,
                -1.8191137739219214,
                2.3954782662541008,
                -0.5239318668585193,
                0.1740630443085254,
                -2.856568793462212
            ]
        },
        {
            "positions": [
                0.38194963015420524,
                -1.8419687004168006,
                2.396300164187772,
                -0.5142538326412369,
                0.30757656403679257,
                -2.921802961953622
            ]
        },
        {
            "positions": [
                0.48985661991989027,
                -1.8648236269116796,
                2.3971220621214426,
                -0.5045757984239544,
                0.44109008376505954,
                -2.9870371304450316
            ]
        },
        {
            "positions": [
                0.5977636096855754,
                -1.8876785534065588,
                2.397943960055114,
                -0.4948977642066719,
                0.5746036034933267,
                -3.0522712989364416
            ]
        },
        {
            "positions": [
                0.7056705994512604,
                -1.910533479901438,
                2.398765857988785,
                -0.48521972998938945,
                0.7081171232215938,
                -3.1175054674278515
            ]
        }
    ]
}