{
    "goal": {
        "global_pose": {
            "orientation": {
                "w": 0.7047431468963623,
                "x": -0.7094548344612122,
                "y": 0.0024358443915843964,
                "z": -0.0022348060738295317
            },
            "position": {
                "x": 0.6094750761985779,
                "y": 0.3671506643295288,
                "z": 0.19426114857196808
            }
        },
        "name": "move_to_magneteinheit_A"
    },
    "id": "PRMstar_move_to_magneteinheit_A_19",
    "joint_names": [
        "shoulder_pan_joint",
        "shoulder_lift_joint",
        "elbow_joint",
        "wrist_1_joint",
        "wrist_2_joint",
        "wrist_3_joint"
    ],
    "metrics": {
        "cart_traj_len": 3.3116345574664754,
        "distance_elbow_joint": 3.976884052014462,
        "distance_shoulder_lift_joint": 0.6483665761567254,
        "distance_shoulder_pan_joint": 2.9502602966927607,
        "distance_wrist_1_joint": 0.7016298573100714,
        "distance_wrist_2_joint": 1.6963933208178912,
        "distance_wrist_3_joint": 2.926700925383747,
        "smoothness": 0.1420528293955976,
        "time": 5.068475909,
        "traj_len": 3.5916897177200116,
        "weighted_distance": 4.599093395145517
    },
    "planner": "PRMstar",
    "start": {
        "state": {
            "elbow_joint": -1.9196185241190666,
            "shoulder_lift_joint": -1.2443396400964142,
            "shoulder_pan_joint": 2.6996025414629847,
            "wrist_1_joint": -1.5485510000780065,
            "wrist_2_joint": -1.5709468930060704,
            "wrist_3_joint": 0.4420197071253992
        }
    },
    "waypoints": [
        {
            "positions": [
                2.6996025414629847,
                -1.2443396400964142,
                -1.9196185241190666,
                -1.5485510000780065,
                -1.5709468930060704,
                0.4420197071253992
            ]
        },
        {
            "positions": [
                2.5620778999875817,
                -1.258804082062139,
                -1.7453770955760148,
                -1.5353780275335454,
                -1.5261031167828096,
                0.43610822812737665
            ]
        },
        {
            "positions": [
                2.4245532585121787,
                -1.2732685240278636,
                -1.571135667032963,
                -1.5222050549890842,
                -1.4812593405595489,
                0.4301967491293542
            ]
        },
        {
            "positions": [
                2.2870286170367757,
                -1.2877329659935883,
                -1.3968942384899112,
                -1.509032082444623,
                -1.4364155643362881,
                0.42428527013133166
            ]
        },
        {
            "positions": [
                2.149503975561373,
                -1.3021974079593133,
                -1.2226528099468594,
                -1.495859109900162,
                -1.3915717881130276,
                0.4183737911333092
            ]
        },
        {
            "positions": [
                2.0119793340859697,
                -1.316661849925038,
                -1.0484113814038076,
                -1.4826861373557008,
                -1.3467280118897669,
                0.41246231213528667
            ]
        },
        {
            "positions": [
                1.8744546926105672,
                -1.3311262918907627,
                -0.8741699528607558,
                -1.4695131648112396,
                -1.3018842356665061,
                0.40655083313726414
            ]
        },
        {
            "positions": [
                1.7369300511351642,
                -1.3455907338564874,
                -0.699928524317704,
                -1.4563401922667785,
                -1.2570404594432454,
                0.4006393541392417
            ]
        },
        {
            "positions": [
                1.5994054096597612,
                -1.3600551758222121,
                -0.5256870957746522,
                -1.4431672197223173,
                -1.2121966832199846,
                0.39472787514121915
            ]
        },
        {
            "positions": [
                1.4618807681843582,
                -1.3745196177879369,
                -0.3514456672316004,
                -1.4299942471778562,
                -1.167352906996724,
                0.38881639614319663
            ]
        },
        {
            "positions": [
                1.3243561267089552,
                -1.3889840597536618,
                -0.17720423868854862,
                -1.416821274633395,
                -1.1225091307734631,
                0.38290491714517416
            ]
        },
        {
            "positions": [
                1.1868314852335522,
                -1.4034485017193865,
                -0.002962810145496597,
                -1.4036483020889339,
                -1.0776653545502024,
                0.37699343814715164
            ]
        },
        {
            "positions": [
                1.0493068437581494,
                -1.4179129436851112,
                0.17127861839755498,
                -1.3904753295444727,
                -1.0328215783269417,
                0.3710819591491291
            ]
        },
        {
            "positions": [
                0.9117822022827464,
                -1.432377385650836,
                0.345520046940607,
                -1.3773023570000116,
                -0.987977802103681,
                0.36517048015110665
            ]
        },
        {
            "positions": [
                0.7742575608073434,
                -1.4468418276165607,
                0.5197614754836586,
                -1.3641293844555504,
                -0.9431340258804203,
                0.3592590011530841
            ]
        },
        {
            "positions": [
                0.6367329193319406,
                -1.4613062695822854,
                0.6940029040267106,
                -1.3509564119110893,
                -0.8982902496571595,
                0.3533475221550616
            ]
        },
        {
            "positions": [
                0.49920827785653765,
                -1.47577071154801,
                0.8682443325697622,
                -1.3377834393666281,
                -0.8534464734338989,
                0.34743604315703913
            ]
        },
        {
            "positions": [
                0.36168363638113465,
                -1.490235153513735,
                1.0424857611128142,
                -1.324610466822167,
                -0.8086026972106382,
                0.3415245641590166
            ]
        },
        {
            "positions": [
                0.22415899490573166,
                -1.5046995954794598,
                1.2167271896558658,
                -1.3114374942777058,
                -0.7637589209873774,
                0.33561308516099414
            ]
        },
        {
            "positions": [
                0.08663435343032855,
                -1.5191640374451845,
                1.3909686181989178,
                -1.2982645217332447,
                -0.7189151447641167,
                0.3297016061629716
            ]
        },
        {
            "positions": [
                0.03637885499272375,
                -1.4782864862804104,
                1.5092885094591293,
                -1.2550468732056281,
                -0.6580686801572491,
                0.3808435197078743
            ]
        },
        {
            "positions": [
                -0.013876643444881043,
                -1.4374089351156365,
                1.627608400719341,
                -1.2118292246780118,
                -0.5972222155503816,
                0.4319854332527769
            ]
        },
        {
            "positions": [
                -0.06413214188248582,
                -1.3965313839508624,
                1.7459282919795525,
                -1.1686115761503952,
                -0.536375750943514,
                0.48312734679767955
            ]
        },
        {
            "positions": [
                -0.04896314536388511,
                -1.3720355041695893,
                1.7734511919432456,
                -1.1382410848849653,
                -0.47676705098695815,
                0.7157332684830503
            ]
        },
        {
            "positions": [
                -0.033794148845284394,
                -1.3475396243883164,
                1.8009740919069388,
                -1.1078705936195354,
                -0.41715835103040233,
                0.948339190168421
            ]
        },
        {
            "positions": [
                -0.018625152326683686,
                -1.3230437446070433,
                1.828496991870632,
                -1.0775001023541053,
                -0.3575496510738465,
                1.1809451118537917
            ]
        },
        {
            "positions": [
                -0.003456155808082964,
                -1.2985478648257702,
                1.8560198918343251,
                -1.0471296110886754,
                -0.2979409511172907,
                1.4135510335391626
            ]
        },
        {
            "positions": [
                0.011712840710517744,
                -1.2740519850444971,
                1.883542791798018,
                -1.0167591198232455,
                -0.23833225116073492,
                1.6461569552245332
            ]
        },
        {
            "positions": [
                0.026881837229118452,
                -1.2495561052632242,
                1.9110656917617113,
                -0.9863886285578156,
                -0.1787235512041791,
                1.8787628769099038
            ]
        },
        {
            "positions": [
                0.04205083374771916,
                -1.2250602254819511,
                1.9385885917254044,
                -0.9560181372923856,
                -0.11911485124762333,
                2.1113687985952745
            ]
        },
        {
            "positions": [
                0.057219830266319896,
                -1.200564345700678,
                1.9661114916890976,
                -0.9256476460269557,
                -0.059506151291067455,
                2.3439747202806456
            ]
        },
        {
            "positions": [
                0.0723888267849206,
                -1.1760684659194052,
                1.9936343916527908,
                -0.8952771547615257,
                0.00010254866548831121,
                2.576580641966016
            ]
        },
        {
            "positions": [
                0.08755782330352131,
                -1.151572586138132,
                2.021157291616484,
                -0.8649066634960958,
                0.059711248622044126,
                2.809186563651387
            ]
        },
        {
            "positions": [
                0.1049756473841631,
                -1.1485972223876808,
                2.003103173477028,
                -0.8559139031320154,
                0.09257883821693277,
                2.976635497117839
            ]
        },
        {
            "positions": [
                0.12239347146480488,
                -1.1456218586372293,
                1.9850490553375726,
                -0.8469211427679351,
                0.12544642781182144,
                3.1440844305842908
            ]
        }
    ]
}