{
    "goal": {
        "global_pose": {
            "orientation": {
                "w": -0.00223480608172531,
                "x": 0.0024358444001904467,
                "y": 0.7094548369677653,
                "z": -0.704743149386269
            },
            "position": {
                "x": 0.6205249238014221,
                "y": -0.6371506643295288,
                "z": 0.19426114857196808
            }
        },
        "name": "move_to_magneteinheit_B"
    },
    "id": "PRMstar_move_to_magneteinheit_B_64",
    "joint_names": [
        "shoulder_pan_joint",
        "shoulder_lift_joint",
        "elbow_joint",
        "wrist_1_joint",
        "wrist_2_joint",
        "wrist_3_joint"
    ],
    "metrics": {
        "cart_traj_len": 4.07140331036365,
        "distance_elbow_joint": 6.295035995914672,
        "distance_shoulder_lift_joint": 1.9492544113389672,
        "distance_shoulder_pan_joint": 3.1481118038182587,
        "distance_wrist_1_joint": 4.761734161254308,
        "distance_wrist_2_joint": 2.348269852605561,
        "distance_wrist_3_joint": 3.1711400115799533,
        "smoothness": 0.5755265038432631,
        "time": 5.068600867000001,
        "traj_len": 4.65548560694926,
        "weighted_distance": 5.926704841101125
    },
    "planner": "PRMstar",
    "start": {
        "state": {
            "elbow_joint": 2.6216224122426386,
            "shoulder_lift_joint": -1.4174107377796124,
            "shoulder_pan_joint": 0.7066234856936794,
            "wrist_1_joint": 1.9546482284002225,
            "wrist_2_joint": -0.7096286983471962,
            "wrist_3_joint": 0.005740856962016249
        }
    },
    "waypoints": [
        {
            "positions": [
                0.7066234856936794,
                -1.4174107377796124,
                2.6216224122426386,
                1.9546482284002225,
                -0.7096286983471962,
                0.005740856962016249
            ]
        },
        {
            "positions": [
                0.837824586457533,
                -1.4535888068481655,
                2.6403949144184864,
                2.0103438327163223,
                -0.6238997212832862,
                -0.0033251517447149513
            ]
        },
        {
            "positions": [
                0.7714923198872248,
                -1.4889769575433753,
                2.6350262569163383,
                1.9614132389474637,
                -0.48969461797202013,
                0.07601784125662414
            ]
        },
        {
            "positions": [
                0.7051600533169166,
                -1.5243651082385854,
                2.62965759941419,
                1.912482645178605,
                -0.35548951466075407,
                0.15536083425796324
            ]
        },
        {
            "positions": [
                0.6388277867466083,
                -1.5597532589337952,
                2.624288941912042,
                1.8635520514097463,
                -0.221284411349488,
                0.23470382725930236
            ]
        },
        {
            "positions": [
                0.5724955201763,
                -1.595141409629005,
                2.618920284409894,
                1.8146214576408877,
                -0.08707930803822195,
                0.31404682026064146
            ]
        },
        {
            "positions": [
                0.5061632536059919,
                -1.6305295603242151,
                2.6135516269077463,
                1.7656908638720288,
                0.04712579527304417,
                0.39338981326198064
            ]
        },
        {
            "positions": [
                0.43983098703568363,
                -1.665917711019425,
                2.6081829694055982,
                1.7167602701031703,
                0.18133089858431017,
                0.4727328062633197
            ]
        },
        {
            "positions": [
                0.37349872046537536,
                -1.7013058617146348,
                2.60281431190345,
                1.6678296763343115,
                0.3155360018955763,
                0.5520757992646588
            ]
        },
        {
            "positions": [
                0.30716645389506714,
                -1.7366940124098447,
                2.597445654401302,
                1.6188990825654528,
                0.4497411052068423,
                0.6314187922659978
            ]
        },
        {
            "positions": [
                0.24083418732475892,
                -1.7720821631050547,
                2.592076996899154,
                1.5699684887965941,
                0.5839462085181084,
                0.710761785267337
            ]
        },
        {
            "positions": [
                0.39063150864950125,
                -1.786817529093368,
                2.4202472517539872,
                1.5581896734698057,
                0.5793268655520383,
                0.7467980327106967
            ]
        },
        {
            "positions": [
                0.5404288299742436,
                -1.8015528950816815,
                2.2484175066088206,
                1.5464108581430172,
                0.5747075225859681,
                0.7828342801540563
            ]
        },
        {
            "positions": [
                0.6902261512989859,
                -1.8162882610699949,
                2.076587761463654,
                1.5346320428162288,
                0.570088179619898,
                0.818870527597416
            ]
        },
        {
            "positions": [
                0.8400234726237282,
                -1.8310236270583082,
                1.904758016318487,
                1.5228532274894402,
                0.5654688366538277,
                0.8549067750407756
            ]
        },
        {
            "positions": [
                0.9898207939484706,
                -1.8457589930466216,
                1.7329282711733203,
                1.5110744121626518,
                0.5608494936877576,
                0.8909430224841353
            ]
        },
        {
            "positions": [
                1.1396181152732128,
                -1.860494359034935,
                1.5610985260281534,
                1.4992955968358632,
                0.5562301507216875,
                0.9269792699274949
            ]
        },
        {
            "positions": [
                1.289415436597955,
                -1.8752297250232484,
                1.3892687808829867,
                1.4875167815090748,
                0.5516108077556173,
                0.9630155173708546
            ]
        },
        {
            "positions": [
                1.4392127579226974,
                -1.8899650910115617,
                1.21743903573782,
                1.4757379661822863,
                0.5469914647895472,
                0.9990517648142142
            ]
        },
        {
            "positions": [
                1.5890100792474398,
                -1.9047004569998751,
                1.0456092905926533,
                1.4639591508554979,
                0.542372121823477,
                1.0350880122575739
            ]
        },
        {
            "positions": [
                1.738807400572182,
                -1.9194358229881885,
                0.8737795454474866,
                1.4521803355287093,
                0.5377527788574069,
                1.0711242597009334
            ]
        },
        {
            "positions": [
                1.8886047218969244,
                -1.9341711889765019,
                0.7019498003023199,
                1.440401520201921,
                0.5331334358913368,
                1.1071605071442931
            ]
        },
        {
            "positions": [
                2.0384020432216667,
                -1.9489065549648152,
                0.5301200551571528,
                1.4286227048751323,
                0.5285140929252665,
                1.143196754587653
            ]
        },
        {
            "positions": [
                2.188199364546409,
                -1.9636419209531286,
                0.3582903100119861,
                1.416843889548344,
                0.5238947499591964,
                1.1792330020310124
            ]
        },
        {
            "positions": [
                2.3379966858711514,
                -1.978377286941442,
                0.1864605648668194,
                1.4050650742215556,
                0.5192754069931262,
                1.215269249474372
            ]
        },
        {
            "positions": [
                2.4877940071958937,
                -1.9931126529297554,
                0.014630819721652533,
                1.393286258894767,
                0.5146560640270561,
                1.2513054969177317
            ]
        },
        {
            "positions": [
                2.492821464277943,
                -1.9695313553852212,
                -0.09162945029140937,
                1.2345057576591691,
                0.4939243665269854,
                1.3201035785135673
            ]
        },
        {
            "positions": [
                2.497848921359992,
                -1.945950057840687,
                -0.19788972030447127,
                1.0757252564235713,
                0.4731926690269147,
                1.3889016601094029
            ]
        },
        {
            "positions": [
                2.5028763784420414,
                -1.9223687602961528,
                -0.30414999031753315,
                0.9169447551879735,
                0.45246097152684406,
                1.4576997417052384
            ]
        },
        {
            "positions": [
                2.5079038355240906,
                -1.8987874627516186,
                -0.4104102603305951,
                0.7581642539523756,
                0.43172927402677336,
                1.526497823301074
            ]
        },
        {
            "positions": [
                2.51293129260614,
                -1.8752061652070844,
                -0.516670530343657,
                0.5993837527167777,
                0.41099757652670266,
                1.5952959048969093
            ]
        },
        {
            "positions": [
                2.517958749688189,
                -1.8516248676625502,
                -0.6229308003567189,
                0.44060325148117996,
                0.39026587902663196,
                1.6640939864927449
            ]
        },
        {
            "positions": [
                2.522986206770238,
                -1.828043570118016,
                -0.7291910703697808,
                0.2818227502455819,
                0.36953418152656126,
                1.7328920680885804
            ]
        },
        {
            "positions": [
                2.5280136638522874,
                -1.8044622725734818,
                -0.8354513403828427,
                0.12304224900998428,
                0.3488024840264906,
                1.801690149684416
            ]
        },
        {
            "positions": [
                2.5330411209343366,
                -1.7808809750289476,
                -0.9417116103959045,
                -0.035738252225613554,
                0.3280707865264199,
                1.8704882312802513
            ]
        },
        {
            "positions": [
                2.538068578016386,
                -1.7572996774844134,
                -1.0479718804089666,
                -0.1945187534612116,
                0.3073390890263492,
                1.9392863128760869
            ]
        },
        {
            "positions": [
                2.543096035098435,
                -1.7337183799398792,
                -1.1542321504220283,
                -0.35329925469680923,
                0.2866073915262785,
                2.0080843944719224
            ]
        },
        {
            "positions": [
                2.5481234921804843,
                -1.7101370823953452,
                -1.2604924204350902,
                -0.5120797559324071,
                0.2658756940262078,
                2.076882476067758
            ]
        },
        {
            "positions": [
                2.5531509492625335,
                -1.6865557848508108,
                -1.3667526904481522,
                -0.6708602571680051,
                0.2451439965261371,
                2.1456805576635936
            ]
        },
        {
            "positions": [
                2.5581784063445827,
                -1.6629744873062768,
                -1.473012960461214,
                -0.8296407584036032,
                0.2244122990260664,
                2.214478639259429
            ]
        },
        {
            "positions": [
                2.563205863426632,
                -1.6393931897617426,
                -1.5792732304742758,
                -0.9884212596392008,
                0.20368060152599576,
                2.2832767208552642
            ]
        },
        {
            "positions": [
                2.568233320508681,
                -1.6158118922172084,
                -1.685533500487338,
                -1.1472017608747984,
                0.18294890402592506,
                2.3520748024511002
            ]
        },
        {
            "positions": [
                2.5732607775907304,
                -1.592230594672674,
                -1.7917937705004,
                -1.3059822621103965,
                0.16221720652585436,
                2.420872884046936
            ]
        },
        {
            "positions": [
                2.5782882346727796,
                -1.56864929712814,
                -1.8980540405134616,
                -1.464762763345994,
                0.14148550902578372,
                2.4896709656427713
            ]
        },
        {
            "positions": [
                2.583315691754829,
                -1.5450679995836059,
                -2.0043143105265235,
                -1.6235432645815921,
                0.12075381152571302,
                2.5584690472386065
            ]
        },
        {
            "positions": [
                2.588343148836878,
                -1.5214867020390717,
                -2.1105745805395855,
                -1.7823237658171902,
                0.10002211402564232,
                2.6272671288344425
            ]
        },
        {
            "positions": [
                2.593370605918927,
                -1.4979054044945375,
                -2.216834850552647,
                -1.9411042670527878,
                0.07929041652557162,
                2.6960652104302776
            ]
        },
        {
            "positions": [
                2.5983980630009764,
                -1.4743241069500033,
                -2.323095120565709,
                -2.099884768288385,
                0.058558719025500916,
                2.7648632920261136
            ]
        },
        {
            "positions": [
                2.6034255200830256,
                -1.450742809405469,
                -2.429355390578771,
                -2.2586652695239833,
                0.037827021525430216,
                2.8336613736219487
            ]
        },
        {
            "positions": [
                2.608452977165075,
                -1.4271615118609349,
                -2.5356156605918327,
                -2.4174457707595813,
                0.01709532402535957,
                2.9024594552177843
            ]
        },
        {
            "positions": [
                2.613480434247124,
                -1.4035802143164007,
                -2.6418759306048947,
                -2.5762262719951794,
                -0.00363637347471113,
                2.97125753681362
            ]
        },
        {
            "positions": [
                2.620233870961305,
                -1.5155830796843248,
                -2.4998769807884025,
                -2.5591593502485073,
                -0.07036671115291655,
                2.998042010287175
            ]
        },
        {
            "positions": [
                2.6269873076754857,
                -1.6275859450522492,
                -2.3578780309719103,
                -2.5420924285018347,
                -0.13709704883112198,
                3.0248264837607306
            ]
        },
        {
            "positions": [
                2.6337407443896668,
                -1.7395888104201733,
                -2.2158790811554177,
                -2.5250255067551626,
                -0.20382738650932739,
                3.0516109572342858
            ]
        },
        {
            "positions": [
                2.6404941811038474,
                -1.8515916757880975,
                -2.0738801313389255,
                -2.50795858500849,
                -0.2705577241875328,
                3.078395430707841
            ]
        },
        {
            "positions": [
                2.6472476178180284,
                -1.9635945411560218,
                -1.9318811815224333,
                -2.490891663261818,
                -0.3372880618657383,
                3.105179904181396
            ]
        },
        {
            "positions": [
                2.654001054532209,
                -2.0755974065239458,
                -1.789882231705941,
                -2.4738247415151453,
                -0.40401839954394364,
                3.1319643776549517
            ]
        },
        {
            "positions": [
                2.66075449124639,
                -2.18760027189187,
                -1.6478832818894487,
                -2.456757819768473,
                -0.4707487372221491,
                3.158748851128507
            ]
        }
    ]
}