{
    "goal": {
        "global_pose": {
            "orientation": {
                "w": 0.5084816262002911,
                "x": -0.4908360881923452,
                "y": 0.5182115481033761,
                "z": -0.48164630358495003
            },
            "position": {
                "x": 0.5540239810943604,
                "y": -0.46912469901144505,
                "z": 0.16403168439865112
            }
        },
        "name": "move_to_storage_B"
    },
    "id": "PRMstar_move_to_storage_B_66",
    "joint_names": [
        "shoulder_pan_joint",
        "shoulder_lift_joint",
        "elbow_joint",
        "wrist_1_joint",
        "wrist_2_joint",
        "wrist_3_joint"
    ],
    "metrics": {
        "cart_traj_len": 0.8228636991017834,
        "distance_elbow_joint": 0.8970837852583369,
        "distance_shoulder_lift_joint": 0.5657176431338415,
        "distance_shoulder_pan_joint": 0.5956719257960682,
        "distance_wrist_1_joint": 3.0647235042810648,
        "distance_wrist_2_joint": 2.7023791690009134,
        "distance_wrist_3_joint": 3.275139710531557,
        "smoothness": 0.4825001447738494,
        "time": 5.054200872,
        "traj_len": 3.331773662480959,
        "weighted_distance": 4.8392249206197135
    },
    "planner": "PRMstar",
    "start": {
        "state": {
            "elbow_joint": 1.664937868594044,
            "shoulder_lift_joint": -0.661644460510453,
            "shoulder_pan_joint": -0.9139846352900073,
            "wrist_1_joint": 2.146753192139373,
            "wrist_2_joint": -2.2341966793290973,
            "wrist_3_joint": 0.005466555786416001
        }
    },
    "waypoints": [
        {
            "positions": [
                -0.9139846352900073,
                -0.661644460510453,
                1.664937868594044,
                2.146753192139373,
                -2.2341966793290973,
                0.005466555786416001
            ]
        },
        {
            "positions": [
                -0.9349445935394185,
                -0.6389842239004458,
                1.5962534350181794,
                2.064144780607825,
                -2.1810608853310187,
                -0.003995355649663939
            ]
        },
        {
            "positions": [
                -0.9559045517888297,
                -0.6163239872904387,
                1.5275690014423149,
                1.9815363690762766,
                -2.1279250913329406,
                -0.01345726708574388
            ]
        },
        {
            "positions": [
                -0.8522283393852464,
                -0.6121542784370053,
                1.4594374555689957,
                2.0002992639888046,
                -2.0375899567923494,
                0.02259019294298699
            ]
        },
        {
            "positions": [
                -0.7485521269816632,
                -0.607984569583572,
                1.3913059096956768,
                2.019062158901333,
                -1.9472548222517583,
                0.05863765297171786
            ]
        },
        {
            "positions": [
                -0.7618751879235893,
                -0.627679098514609,
                1.415284826094137,
                1.9089859707708363,
                -1.8543533871777746,
                -0.06382853808989505
            ]
        },
        {
            "positions": [
                -0.7751982488655155,
                -0.647373627445646,
                1.4392637424925976,
                1.7989097826403397,
                -1.761451952103791,
                -0.18629472915150797
            ]
        },
        {
            "positions": [
                -0.7885213098074415,
                -0.6670681563766829,
                1.4632426588910579,
                1.688833594509843,
                -1.6685505170298074,
                -0.3087609202131209
            ]
        },
        {
            "positions": [
                -0.8018443707493677,
                -0.6867626853077199,
                1.4872215752895184,
                1.5787574063793464,
                -1.5756490819558238,
                -0.4312271112747338
            ]
        },
        {
            "positions": [
                -0.8151674316912938,
                -0.7064572142387568,
                1.5112004916879787,
                1.4686812182488498,
                -1.48274764688184,
                -0.5536933023363467
            ]
        },
        {
            "positions": [
                -0.8284904926332199,
                -0.7261517431697937,
                1.5351794080864392,
                1.358605030118353,
                -1.3898462118078565,
                -0.6761594933979597
            ]
        },
        {
            "positions": [
                -0.8418135535751461,
                -0.7458462721008307,
                1.5591583244848994,
                1.2485288419878566,
                -1.2969447767338727,
                -0.7986256844595724
            ]
        },
        {
            "positions": [
                -0.8551366145170722,
                -0.7655408010318676,
                1.5831372408833597,
                1.1384526538573598,
                -1.204043341659889,
                -0.9210918755211854
            ]
        },
        {
            "positions": [
                -0.8684596754589983,
                -0.7852353299629046,
                1.6071161572818202,
                1.0283764657268633,
                -1.1111419065859054,
                -1.0435580665827981
            ]
        },
        {
            "positions": [
                -0.8817827364009244,
                -0.8049298588939415,
                1.6310950736802805,
                0.9183002775963665,
                -1.0182404715119218,
                -1.1660242576444113
            ]
        },
        {
            "positions": [
                -0.8951057973428506,
                -0.8246243878249785,
                1.655073990078741,
                0.8082240894658701,
                -0.9253390364379381,
                -1.288490448706024
            ]
        },
        {
            "positions": [
                -0.9084288582847767,
                -0.8443189167560154,
                1.6790529064772013,
                0.6981479013353733,
                -0.8324376013639545,
                -1.4109566397676372
            ]
        },
        {
            "positions": [
                -0.9217519192267027,
                -0.8640134456870523,
                1.7030318228756616,
                0.5880717132048767,
                -0.7395361662899709,
                -1.53342283082925
            ]
        },
        {
            "positions": [
                -0.9350749801686289,
                -0.8837079746180894,
                1.727010739274122,
                0.47799552507438015,
                -0.6466347312159872,
                -1.6558890218908626
            ]
        },
        {
            "positions": [
                -0.948398041110555,
                -0.9034025035491262,
                1.7509896556725824,
                0.36791933694388357,
                -0.5537332961420036,
                -1.7783552129524756
            ]
        },
        {
            "positions": [
                -0.9617211020524812,
                -0.9230970324801633,
                1.7749685720710429,
                0.25784314881338677,
                -0.46083186106801977,
                -1.9008214040140887
            ]
        },
        {
            "positions": [
                -0.9750441629944073,
                -0.9427915614112001,
                1.7989474884695031,
                0.1477669606828902,
                -0.36793042599403636,
                -2.0232875950757014
            ]
        },
        {
            "positions": [
                -0.9883672239363335,
                -0.9624860903422371,
                1.8229264048679634,
                0.037690772552393614,
                -0.27502899092005273,
                -2.1457537861373144
            ]
        },
        {
            "positions": [
                -1.0016902848782596,
                -0.982180619273274,
                1.846905321266424,
                -0.07238541557810274,
                -0.1821275558460691,
                -2.2682199771989273
            ]
        },
        {
            "positions": [
                -1.0150133458201858,
                -1.0018751482043111,
                1.8708842376648844,
                -0.18246160370859998,
                -0.08922612077208525,
                -2.3906861682605403
            ]
        },
        {
            "positions": [
                -1.028336406762112,
                -1.021569677135348,
                1.8948631540633447,
                -0.29253779183909634,
                0.0036753143018983803,
                -2.513152359322153
            ]
        },
        {
            "positions": [
                -1.0416594677040378,
                -1.0412642060663848,
                1.918842070461805,
                -0.4026139799695927,
                0.09657674937588201,
                -2.635618550383766
            ]
        },
        {
            "positions": [
                -1.054982528645964,
                -1.0609587349974219,
                1.9428209868602653,
                -0.5126901681000895,
                0.18947818444986542,
                -2.758084741445379
            ]
        },
        {
            "positions": [
                -1.0683055895878901,
                -1.0806532639284587,
                1.966799903258726,
                -0.6227663562305863,
                0.28237961952384927,
                -2.880550932506992
            ]
        },
        {
            "positions": [
                -1.0816286505298163,
                -1.1003477928594956,
                1.9907788196571863,
                -0.7328425443610831,
                0.3752810545978331,
                -3.003017123568605
            ]
        },
        {
            "positions": [
                -1.0949517114717424,
                -1.1200423217905326,
                2.0147577360556466,
                -0.8429187324915792,
                0.4681824896718164,
                -3.1254833146302174
            ]
        }
    ]
}