{
    "goal": {
        "global_pose": {
            "orientation": {
                "w": 0.7047431468963623,
                "x": -0.7094548344612122,
                "y": 0.0024358443915843964,
                "z": -0.0022348060738295317
            },
            "position": {
                "x": 0.6094750761985779,
                "y": 0.3671506643295288,
                "z": 0.19426114857196808
            }
        },
        "name": "move_to_magneteinheit_A"
    },
    "id": "PRMstar_move_to_magneteinheit_A_2",
    "joint_names": [
        "shoulder_pan_joint",
        "shoulder_lift_joint",
        "elbow_joint",
        "wrist_1_joint",
        "wrist_2_joint",
        "wrist_3_joint"
    ],
    "metrics": {
        "cart_traj_len": 3.1209435867725523,
        "distance_elbow_joint": 3.9081115358215106,
        "distance_shoulder_lift_joint": 1.4518505975903686,
        "distance_shoulder_pan_joint": 2.723235774583718,
        "distance_wrist_1_joint": 3.4564345866406416,
        "distance_wrist_2_joint": 1.4392081023415244,
        "distance_wrist_3_joint": 1.428120820141894,
        "smoothness": 0.13191132949746148,
        "time": 5.033551446,
        "traj_len": 3.7956503286155927,
        "weighted_distance": 4.70731831793704
    },
    "planner": "PRMstar",
    "start": {
        "state": {
            "elbow_joint": -1.9196185241190666,
            "shoulder_lift_joint": -1.2443396400964142,
            "shoulder_pan_joint": 2.6996025414629847,
            "wrist_1_joint": -1.5485510000780065,
            "wrist_2_joint": -1.5709468930060704,
            "wrist_3_joint": 0.4420197071253992
        }
    },
    "waypoints": [
        {
            "positions": [
                2.6996025414629847,
                -1.2443396400964142,
                -1.9196185241190666,
                -1.5485510000780065,
                -1.5709468930060704,
                0.4420197071253992
            ]
        },
        {
            "positions": [
                2.5613922310338513,
                -1.1909780064274915,
                -1.8839829250211975,
                -1.4715777940238153,
                -1.525881709737188,
                0.46994750913329875
            ]
        },
        {
            "positions": [
                2.423181920604718,
                -1.1376163727585686,
                -1.8483473259233283,
                -1.3946045879696238,
                -1.4808165264683055,
                0.49787531114119826
            ]
        },
        {
            "positions": [
                2.2849716101755844,
                -1.084254739089646,
                -1.8127117268254591,
                -1.3176313819154326,
                -1.435751343199423,
                0.5258031131490979
            ]
        },
        {
            "positions": [
                2.146761299746451,
                -1.030893105420723,
                -1.77707612772759,
                -1.2406581758612412,
                -1.3906861599305407,
                0.5537309151569973
            ]
        },
        {
            "positions": [
                2.0085509893173175,
                -0.9775314717518004,
                -1.7414405286297208,
                -1.16368496980705,
                -1.3456209766616583,
                0.5816587171648969
            ]
        },
        {
            "positions": [
                1.870340678888184,
                -0.9241698380828777,
                -1.7058049295318518,
                -1.0867117637528585,
                -1.300555793392776,
                0.6095865191727965
            ]
        },
        {
            "positions": [
                1.7321303684590506,
                -0.8708082044139549,
                -1.6701693304339826,
                -1.0097385576986673,
                -1.2554906101238934,
                0.6375143211806961
            ]
        },
        {
            "positions": [
                1.593920058029917,
                -0.8174465707450321,
                -1.6345337313361135,
                -0.9327653516444759,
                -1.2104254268550112,
                0.6654421231885956
            ]
        },
        {
            "positions": [
                1.4557097476007836,
                -0.7640849370761094,
                -1.5988981322382443,
                -0.8557921455902846,
                -1.1653602435861288,
                0.6933699251964951
            ]
        },
        {
            "positions": [
                1.3174994371716502,
                -0.7107233034071866,
                -1.563262533140375,
                -0.7788189395360933,
                -1.1202950603172463,
                0.7212977272043948
            ]
        },
        {
            "positions": [
                1.1792891267425165,
                -0.6573616697382638,
                -1.527626934042506,
                -0.7018457334819019,
                -1.075229877048364,
                0.7492255292122942
            ]
        },
        {
            "positions": [
                1.0410788163133833,
                -0.6040000360693412,
                -1.491991334944637,
                -0.6248725274277107,
                -1.0301646937794815,
                0.7771533312201938
            ]
        },
        {
            "positions": [
                0.9028685058842498,
                -0.5506384024004184,
                -1.4563557358467678,
                -0.5478993213735193,
                -0.9850995105105991,
                0.8050811332280934
            ]
        },
        {
            "positions": [
                0.7646581954551164,
                -0.4972767687314955,
                -1.4207201367488986,
                -0.47092611531932804,
                -0.9400343272417165,
                0.8330089352359928
            ]
        },
        {
            "positions": [
                0.6264478850259829,
                -0.44391513506257274,
                -1.3850845376510295,
                -0.3939529092651366,
                -0.8949691439728341,
                0.8609367372438925
            ]
        },
        {
            "positions": [
                0.48823757459684947,
                -0.3905535013936501,
                -1.3494489385531603,
                -0.3169797032109454,
                -0.8499039607039518,
                0.888864539251792
            ]
        },
        {
            "positions": [
                0.350027264167716,
                -0.3371918677247273,
                -1.313813339455291,
                -0.24000649715675415,
                -0.8048387774350694,
                0.9167923412596916
            ]
        },
        {
            "positions": [
                0.21181695373858236,
                -0.28383023405580454,
                -1.278177740357422,
                -0.16303329110256273,
                -0.759773594166187,
                0.9447201432675911
            ]
        },
        {
            "positions": [
                0.1993946294831506,
                -0.30572368937619787,
                -1.1100959917470845,
                -0.05333988570711165,
                -0.7252543284699592,
                0.8992976343065235
            ]
        },
        {
            "positions": [
                0.18697230522771885,
                -0.3276171446965912,
                -0.9420142431367473,
                0.05635351968833943,
                -0.6907350627737314,
                0.8538751253454561
            ]
        },
        {
            "positions": [
                0.17454998097228708,
                -0.34951060001698453,
                -0.7739324945264099,
                0.16604692508379051,
                -0.6562157970775037,
                0.8084526163843885
            ]
        },
        {
            "positions": [
                0.1621276567168553,
                -0.37140405533737786,
                -0.6058507459160726,
                0.2757403304792416,
                -0.6216965313812759,
                0.7630301074233209
            ]
        },
        {
            "positions": [
                0.14970533246142356,
                -0.3932975106577712,
                -0.43776899730573515,
                0.38543373587469276,
                -0.5871772656850481,
                0.7176075984622534
            ]
        },
        {
            "positions": [
                0.1372830082059918,
                -0.4151909659781645,
                -0.26968724869539784,
                0.4951271412701438,
                -0.5526579999888204,
                0.6721850895011858
            ]
        },
        {
            "positions": [
                0.12486068395056005,
                -0.43708442129855785,
                -0.10160550008506064,
                0.6048205466655948,
                -0.5181387342925926,
                0.6267625805401182
            ]
        },
        {
            "positions": [
                0.11243835969512828,
                -0.4589778766189512,
                0.06647624852527678,
                0.714513952061046,
                -0.48361946859636484,
                0.5813400715790507
            ]
        },
        {
            "positions": [
                0.10001603543969652,
                -0.4808713319393445,
                0.23455799713561398,
                0.824207357456497,
                -0.44910020290013714,
                0.5359175626179832
            ]
        },
        {
            "positions": [
                0.08759371118426475,
                -0.5027647872597378,
                0.4026397457459516,
                0.9339007628519482,
                -0.4145809372039093,
                0.4904950536569156
            ]
        },
        {
            "positions": [
                0.07517138692883299,
                -0.5246582425801312,
                0.5707214943562888,
                1.043594168247399,
                -0.3800616715076816,
                0.44507254469584806
            ]
        },
        {
            "positions": [
                0.06274906267340122,
                -0.5465516979005245,
                0.7388032429666263,
                1.1532875736428503,
                -0.34554240581145385,
                0.3996500357347804
            ]
        },
        {
            "positions": [
                0.050326738417969474,
                -0.5684451532209178,
                0.9068849915769637,
                1.2629809790383013,
                -0.3110231401152261,
                0.3542275267737129
            ]
        },
        {
            "positions": [
                0.060892448637783994,
                -0.5979774778472958,
                1.061400423023461,
                1.3551099229703492,
                -0.2854110901937002,
                0.3063807028443095
            ]
        },
        {
            "positions": [
                0.07145815885759851,
                -0.6275098024736738,
                1.2159158544699584,
                1.4472388669023968,
                -0.2597990402721744,
                0.2585338789149062
            ]
        },
        {
            "positions": [
                0.08202386907741303,
                -0.6570421271000518,
                1.3704312859164558,
                1.5393678108344446,
                -0.2341869903506485,
                0.21068705498550283
            ]
        },
        {
            "positions": [
                0.09258957929722755,
                -0.6865744517264298,
                1.5249467173629532,
                1.6314967547664925,
                -0.20857494042912267,
                0.1628402310560995
            ]
        },
        {
            "positions": [
                0.10315528951704207,
                -0.716106776352808,
                1.6794621488094506,
                1.72362569869854,
                -0.1829628905075968,
                0.11499340712669612
            ]
        },
        {
            "positions": [
                0.11372099973685659,
                -0.745639100979186,
                1.833977580255948,
                1.815754642630588,
                -0.15735084058607093,
                0.06714658319729278
            ]
        },
        {
            "positions": [
                0.12428670995667111,
                -0.775171425605564,
                1.9884930117024453,
                1.9078835865626358,
                -0.13173879066454508,
                0.01929975926788942
            ]
        }
    ]
}