{
    "goal": {
        "global_pose": {
            "orientation": {
                "w": 0.7047431493862688,
                "x": -0.7094548369677653,
                "y": 0.0024358444001904,
                "z": -0.0022348060817251984
            },
            "position": {
                "x": -0.39052492380142206,
                "y": 0.3671506643295288,
                "z": 0.19426114857196808
            }
        },
        "name": "move_to_magneteinheit_D"
    },
    "id": "PRMstar_move_to_magneteinheit_D_65",
    "joint_names": [
        "shoulder_pan_joint",
        "shoulder_lift_joint",
        "elbow_joint",
        "wrist_1_joint",
        "wrist_2_joint",
        "wrist_3_joint"
    ],
    "metrics": {
        "cart_traj_len": 9.982152982559162,
        "distance_elbow_joint": 9.378078042769209,
        "distance_shoulder_lift_joint": 1.7916891603829124,
        "distance_shoulder_pan_joint": 9.107033728247304,
        "distance_wrist_1_joint": 8.696737227758861,
        "distance_wrist_2_joint": 4.132411536604256,
        "distance_wrist_3_joint": 11.848352998714635,
        "smoothness": 0.4620882662307593,
        "time": 5.107997598,
        "traj_len": 6.704796991294898,
        "weighted_distance": 9.026635998879621
    },
    "planner": "PRMstar",
    "start": {
        "state": {
            "elbow_joint": 0.749534889911806,
            "shoulder_lift_joint": -0.6476975780787326,
            "shoulder_pan_joint": -2.711696901376241,
            "wrist_1_joint": -0.07506478083263063,
            "wrist_2_joint": 0.43296659715538205,
            "wrist_3_joint": -3.14703540197715
        }
    },
    "waypoints": [
        {
            "positions": [
                -2.711696901376241,
                -0.6476975780787326,
                0.749534889911806,
                -0.07506478083263063,
                0.43296659715538205,
                -3.14703540197715
            ]
        },
        {
            "positions": [
                -2.7545683342292318,
                -0.7907742682133785,
                0.7368083738645914,
                -0.10480101267780827,
                0.4221495668283938,
                -3.0865517609620152
            ]
        },
        {
            "positions": [
                -2.797439767082222,
                -0.9338509583480243,
                0.7240818578173769,
                -0.1345372445229859,
                0.41133253650140555,
                -3.0260681199468804
            ]
        },
        {
            "positions": [
                -2.6545696763397273,
                -0.9352572216859752,
                0.6701376294874295,
                -0.069251451945622,
                0.39555136311423844,
                -2.921682391787735
            ]
        },
        {
            "positions": [
                -2.5116995855972326,
                -0.9366634850239262,
                0.6161934011574821,
                -0.003965659368258101,
                0.3797701897270714,
                -2.8172966636285888
            ]
        },
        {
            "positions": [
                -2.368829494854738,
                -0.9380697483618771,
                0.5622491728275348,
                0.061320133209105815,
                0.36398901633990427,
                -2.712910935469443
            ]
        },
        {
            "positions": [
                -2.2259594041122432,
                -0.939476011699828,
                0.5083049444975875,
                0.1266059257864697,
                0.3482078429527372,
                -2.6085252073102976
            ]
        },
        {
            "positions": [
                -2.0830893133697486,
                -0.9408822750377789,
                0.45436071616764007,
                0.19189171836383365,
                0.3324266695655701,
                -2.5041394791511515
            ]
        },
        {
            "positions": [
                -1.9402192226272539,
                -0.9422885383757298,
                0.40041648783769274,
                0.25717751094119756,
                0.316645496178403,
                -2.399753750992006
            ]
        },
        {
            "positions": [
                -1.7973491318847592,
                -0.9436948017136807,
                0.34647225950774535,
                0.32246330351856145,
                0.3008643227912359,
                -2.29536802283286
            ]
        },
        {
            "positions": [
                -1.6544790411422647,
                -0.9451010650516316,
                0.292528031177798,
                0.38774909609592534,
                0.28508314940406887,
                -2.1909822946737147
            ]
        },
        {
            "positions": [
                -1.51160895039977,
                -0.9465073283895825,
                0.23858380284785063,
                0.4530348886732892,
                0.26930197601690176,
                -2.0865965665145687
            ]
        },
        {
            "positions": [
                -1.3687388596572754,
                -0.9479135917275334,
                0.18463957451790325,
                0.5183206812506532,
                0.25352080262973464,
                -1.9822108383554229
            ]
        },
        {
            "positions": [
                -1.2258687689147807,
                -0.9493198550654843,
                0.13069534618795597,
                0.5836064738280171,
                0.23773962924256756,
                -1.8778251101962773
            ]
        },
        {
            "positions": [
                -1.082998678172286,
                -0.9507261184034352,
                0.07675111785800856,
                0.648892266405381,
                0.22195845585540047,
                -1.7734393820371315
            ]
        },
        {
            "positions": [
                -0.9547027024760447,
                -0.9475841224966929,
                0.060448159423619516,
                0.6043001049459106,
                0.2837823056451019,
                -1.6336309584613848
            ]
        },
        {
            "positions": [
                -0.8264067267798034,
                -0.9444421265899505,
                0.04414520098923048,
                0.5597079434864402,
                0.34560615543480333,
                -1.4938225348856382
            ]
        },
        {
            "positions": [
                -0.698110751083562,
                -0.9413001306832082,
                0.027842242554841433,
                0.5151157820269698,
                0.4074300052245048,
                -1.3540141113098914
            ]
        },
        {
            "positions": [
                -0.5698147753873207,
                -0.9381581347764657,
                0.011539284120452395,
                0.47052362056749936,
                0.4692538550142062,
                -1.2142056877341447
            ]
        },
        {
            "positions": [
                -0.44151879969107943,
                -0.9350161388697233,
                -0.00476367431393665,
                0.425931459108029,
                0.5310777048039076,
                -1.074397264158398
            ]
        },
        {
            "positions": [
                -0.31322282399483803,
                -0.931874142962981,
                -0.021066632748325695,
                0.38133929764855856,
                0.592901554593609,
                -0.9345888405826515
            ]
        },
        {
            "positions": [
                -0.18492684829859685,
                -0.9287321470562386,
                -0.037369591182714726,
                0.33674713618908814,
                0.6547254043833104,
                -0.7947804170069048
            ]
        },
        {
            "positions": [
                -0.05663087260235544,
                -0.9255901511494963,
                -0.05367254961710377,
                0.2921549747296177,
                0.7165492541730119,
                -0.654971993431158
            ]
        },
        {
            "positions": [
                0.07166510309388574,
                -0.9224481552427539,
                -0.0699755080514928,
                0.24756281327014734,
                0.7783731039627133,
                -0.5151635698554116
            ]
        },
        {
            "positions": [
                0.19996107879012714,
                -0.9193061593360115,
                -0.08627846648588186,
                0.20297065181067692,
                0.8401969537524148,
                -0.3753551462796647
            ]
        },
        {
            "positions": [
                0.32825705448636855,
                -0.9161641634292691,
                -0.10258142492027089,
                0.1583784903512065,
                0.9020208035421162,
                -0.23554672270391808
            ]
        },
        {
            "positions": [
                0.45655303018260995,
                -0.9130221675225267,
                -0.11888438335465995,
                0.11378632889173612,
                0.9638446533318177,
                -0.09573829912817144
            ]
        },
        {
            "positions": [
                0.5848490058788511,
                -0.9098801716157844,
                -0.13518734178904898,
                0.0691941674322657,
                1.025668503121519,
                0.04407012444757519
            ]
        },
        {
            "positions": [
                0.7131449815750923,
                -0.906738175709042,
                -0.151490300223438,
                0.02460200597279527,
                1.0874923529112204,
                0.18387854802332182
            ]
        },
        {
            "positions": [
                0.8414409572713335,
                -0.9035961798022997,
                -0.16779325865782704,
                -0.019990155486675043,
                1.1493162027009218,
                0.32368697159906823
            ]
        },
        {
            "positions": [
                0.9697369329675751,
                -0.9004541838955573,
                -0.1840962170922161,
                -0.06458231694614558,
                1.2111400524906233,
                0.4634953951748155
            ]
        },
        {
            "positions": [
                1.0980329086638163,
                -0.8973121879888148,
                -0.20039917552660516,
                -0.1091744784056159,
                1.2729639022803245,
                0.6033038187505619
            ]
        },
        {
            "positions": [
                1.2263288843600575,
                -0.8941701920820725,
                -0.21670213396099416,
                -0.15376663986508632,
                1.334787752070026,
                0.7431122423263083
            ]
        },
        {
            "positions": [
                1.3546248600562991,
                -0.8910281961753301,
                -0.23300509239538322,
                -0.19835880132455674,
                1.3966116018597274,
                0.8829206659020552
            ]
        },
        {
            "positions": [
                1.4829208357525403,
                -0.8878862002685878,
                -0.24930805082977228,
                -0.24295096278402717,
                1.458435451649429,
                1.022729089477802
            ]
        },
        {
            "positions": [
                1.611216811448782,
                -0.8847442043618454,
                -0.26561100926416137,
                -0.2875431242434976,
                1.5202593014391304,
                1.1625375130535485
            ]
        },
        {
            "positions": [
                1.739512787145023,
                -0.8816022084551031,
                -0.28191396769855037,
                -0.332135285702968,
                1.5820831512288318,
                1.3023459366292953
            ]
        },
        {
            "positions": [
                1.8678087628412643,
                -0.8784602125483607,
                -0.2982169261329394,
                -0.37672744716243833,
                1.643907001018533,
                1.4421543602050417
            ]
        },
        {
            "positions": [
                1.996104738537506,
                -0.8753182166416182,
                -0.3145198845673285,
                -0.42131960862190876,
                1.7057308508082347,
                1.5819627837807886
            ]
        },
        {
            "positions": [
                2.1244007142337473,
                -0.8721762207348759,
                -0.3308228430017175,
                -0.4659117700813792,
                1.767554700597936,
                1.7217712073565354
            ]
        },
        {
            "positions": [
                2.252696689929988,
                -0.8690342248281335,
                -0.3471258014361065,
                -0.5105039315408497,
                1.8293785503876374,
                1.8615796309322818
            ]
        },
        {
            "positions": [
                2.2752672808073284,
                -0.894576323259088,
                -0.2554061584271433,
                -0.5800809914229408,
                1.770991319949413,
                1.7345914088621033
            ]
        },
        {
            "positions": [
                2.297837871684669,
                -0.9201184216900424,
                -0.1636865154181802,
                -0.6496580513050318,
                1.7126040895111885,
                1.607603186791925
            ]
        },
        {
            "positions": [
                2.3204084625620087,
                -0.9456605201209968,
                -0.07196687240921701,
                -0.7192351111871229,
                1.6542168590729642,
                1.4806149647217464
            ]
        },
        {
            "positions": [
                2.342979053439349,
                -0.9712026185519512,
                0.019752770599746117,
                -0.7888121710692139,
                1.5958296286347398,
                1.353626742651568
            ]
        },
        {
            "positions": [
                2.3655496443166895,
                -0.9967447169829057,
                0.11147241360870924,
                -0.8583892309513049,
                1.5374423981965153,
                1.2266385205813894
            ]
        },
        {
            "positions": [
                2.38812023519403,
                -1.02228681541386,
                0.20319205661767248,
                -0.927966290833396,
                1.4790551677582908,
                1.0996502985112109
            ]
        },
        {
            "positions": [
                2.4106908260713698,
                -1.0478289138448145,
                0.29491169962663555,
                -0.9975433507154869,
                1.4206679373200664,
                0.9726620764410324
            ]
        },
        {
            "positions": [
                2.43326141694871,
                -1.073371012275769,
                0.38663134263559873,
                -1.067120410597578,
                1.362280706881842,
                0.845673854370854
            ]
        },
        {
            "positions": [
                2.4558320078260505,
                -1.0989131107067234,
                0.4783509856445618,
                -1.136697470479669,
                1.3038934764436174,
                0.7186856323006754
            ]
        },
        {
            "positions": [
                2.478402598703391,
                -1.1244552091376778,
                0.570070628653525,
                -1.2062745303617601,
                1.2455062460053932,
                0.5916974102304968
            ]
        },
        {
            "positions": [
                2.500973189580731,
                -1.1499973075686323,
                0.6617902716624882,
                -1.2758515902438512,
                1.1871190155671687,
                0.4647091881603185
            ]
        },
        {
            "positions": [
                2.523543780458071,
                -1.1755394059995867,
                0.7535099146714515,
                -1.3454286501259423,
                1.1287317851289442,
                0.3377209660901399
            ]
        },
        {
            "positions": [
                2.5461143713354115,
                -1.201081504430541,
                0.8452295576804143,
                -1.415005710008033,
                1.07034455469072,
                0.21073274401996156
            ]
        },
        {
            "positions": [
                2.568684962212752,
                -1.2266236028614954,
                0.9369492006893776,
                -1.4845827698901242,
                1.0119573242524953,
                0.08374452194978299
            ]
        },
        {
            "positions": [
                2.5912555530900923,
                -1.2521657012924499,
                1.0286688436983407,
                -1.5541598297722152,
                0.953570093814271,
                -0.043243700120395356
            ]
        },
        {
            "positions": [
                2.613826143967432,
                -1.2777077997234043,
                1.120388486707304,
                -1.6237368896543063,
                0.8951828633760466,
                -0.17023192219057393
            ]
        },
        {
            "positions": [
                2.6363967348447725,
                -1.3032498981543588,
                1.212108129716267,
                -1.6933139495363974,
                0.8367956329378221,
                -0.2972201442607525
            ]
        },
        {
            "positions": [
                2.658967325722113,
                -1.3287919965853132,
                1.30382777272523,
                -1.7628910094184884,
                0.7784084024995976,
                -0.42420836633093106
            ]
        },
        {
            "positions": [
                2.681537916599453,
                -1.3543340950162677,
                1.3955474157341934,
                -1.8324680693005795,
                0.7200211720613732,
                -0.5511965884011096
            ]
        },
        {
            "positions": [
                2.704108507476793,
                -1.3798761934472221,
                1.4872670587431565,
                -1.9020451291826705,
                0.6616339416231487,
                -0.6781848104712882
            ]
        },
        {
            "positions": [
                2.7266790983541336,
                -1.4054182918781764,
                1.5789867017521197,
                -1.9716221890647616,
                0.6032467111849242,
                -0.8051730325414668
            ]
        },
        {
            "positions": [
                2.749249689231474,
                -1.430960390309131,
                1.6707063447610828,
                -2.0411992489468527,
                0.5448594807467,
                -0.9321612546116449
            ]
        },
        {
            "positions": [
                2.7718202801088143,
                -1.4565024887400853,
                1.762425987770046,
                -2.1107763088289437,
                0.4864722503084755,
                -1.0591494766818235
            ]
        },
        {
            "positions": [
                2.7943908709861542,
                -1.48204458717104,
                1.8541456307790094,
                -2.180353368711035,
                0.42808501987025105,
                -1.186137698752002
            ]
        },
        {
            "positions": [
                2.8169614618634946,
                -1.5075866856019942,
                1.9458652737879722,
                -2.249930428593126,
                0.3696977894320266,
                -1.3131259208221806
            ]
        },
        {
            "positions": [
                2.839532052740835,
                -1.5331287840329484,
                2.037584916796935,
                -2.3195074884752165,
                0.31131055899380233,
                -1.4401141428923587
            ]
        },
        {
            "positions": [
                2.862102643618175,
                -1.558670882463903,
                2.1293045598058984,
                -2.3890845483573075,
                0.25292332855557786,
                -1.5671023649625373
            ]
        },
        {
            "positions": [
                2.8846732344955153,
                -1.5842129808948573,
                2.2210242028148617,
                -2.4586616082393986,
                0.1945360981173534,
                -1.6940905870327159
            ]
        },
        {
            "positions": [
                2.9072438253728556,
                -1.609755079325812,
                2.3127438458238245,
                -2.5282386681214897,
                0.13614886767912893,
                -1.8210788091028944
            ]
        },
        {
            "positions": [
                2.929814416250196,
                -1.6352971777567662,
                2.404463488832788,
                -2.5978157280035807,
                0.07776163724090468,
                -1.9480670311730726
            ]
        },
        {
            "positions": [
                2.9523850071275364,
                -1.6608392761877209,
                2.496183131841751,
                -2.667392787885672,
                0.01937440680268021,
                -2.075055253243251
            ]
        },
        {
            "positions": [
                2.9749555980048763,
                -1.686381374618675,
                2.5879027748507144,
                -2.736969847767763,
                -0.03901282363554426,
                -2.2020434753134297
            ]
        },
        {
            "positions": [
                2.9975261888822167,
                -1.7119234730496296,
                2.6796224178596773,
                -2.806546907649854,
                -0.09740005407376873,
                -2.3290316973836087
            ]
        },
        {
            "positions": [
                3.020096779759557,
                -1.737465571480584,
                2.7713420608686405,
                -2.876123967531945,
                -0.1557872845119932,
                -2.4560199194537864
            ]
        },
        {
            "positions": [
                2.942338562298978,
                -1.7483390394835783,
                2.646537513248382,
                -2.7709331542319844,
                -0.14887698323671228,
                -2.394612702572075
            ]
        },
        {
            "positions": [
                2.864580344838399,
                -1.7592125074865728,
                2.521732965628123,
                -2.6657423409320242,
                -0.14196668196143133,
                -2.333205485690364
            ]
        },
        {
            "positions": [
                2.7868221273778193,
                -1.770085975489567,
                2.3969284180078643,
                -2.5605515276320636,
                -0.13505638068615042,
                -2.271798268808652
            ]
        },
        {
            "positions": [
                2.70906390991724,
                -1.7809594434925615,
                2.2721238703876057,
                -2.4553607143321035,
                -0.12814607941086947,
                -2.210391051926941
            ]
        },
        {
            "positions": [
                2.631305692456661,
                -1.7918329114955558,
                2.1473193227673466,
                -2.350169901032143,
                -0.12123577813558856,
                -2.1489838350452297
            ]
        },
        {
            "positions": [
                2.553547474996082,
                -1.8027063794985503,
                2.022514775147088,
                -2.2449790877321827,
                -0.11432547686030763,
                -2.0875766181635185
            ]
        },
        {
            "positions": [
                2.475789257535503,
                -1.8135798475015446,
                1.8977102275268292,
                -2.139788274432222,
                -0.1074151755850267,
                -2.0261694012818072
            ]
        },
        {
            "positions": [
                2.3980310400749234,
                -1.824453315504539,
                1.7729056799065703,
                -2.034597461132262,
                -0.10050487430974576,
                -1.9647621844000958
            ]
        },
        {
            "positions": [
                2.3202728226143443,
                -1.8353267835075333,
                1.6481011322863117,
                -1.9294066478323013,
                -0.09359457303446483,
                -1.9033549675183845
            ]
        },
        {
            "positions": [
                2.242514605153765,
                -1.8462002515105276,
                1.5232965846660529,
                -1.824215834532341,
                -0.0866842717591839,
                -1.841947750636673
            ]
        },
        {
            "positions": [
                2.164756387693186,
                -1.857073719513522,
                1.398492037045794,
                -1.7190250212323805,
                -0.07977397048390297,
                -1.7805405337549618
            ]
        },
        {
            "positions": [
                2.086998170232607,
                -1.8679471875165163,
                1.2736874894255354,
                -1.6138342079324202,
                -0.07286366920862206,
                -1.7191333168732505
            ]
        },
        {
            "positions": [
                2.0092399527720275,
                -1.8788206555195108,
                1.1488829418052766,
                -1.5086433946324598,
                -0.06595336793334113,
                -1.6577260999915393
            ]
        },
        {
            "positions": [
                1.9314817353114484,
                -1.889694123522505,
                1.0240783941850178,
                -1.4034525813324992,
                -0.05904306665806018,
                -1.5963188831098278
            ]
        },
        {
            "positions": [
                1.8537235178508693,
                -1.9005675915254996,
                0.8992738465647592,
                -1.298261768032539,
                -0.052132765382779264,
                -1.5349116662281166
            ]
        },
        {
            "positions": [
                1.7759653003902902,
                -1.9114410595284939,
                0.7744692989445003,
                -1.1930709547325786,
                -0.045222464107498334,
                -1.4735044493464051
            ]
        },
        {
            "positions": [
                1.6982070829297111,
                -1.9223145275314881,
                0.6496647513242415,
                -1.0878801414326182,
                -0.0383121628322174,
                -1.4120972324646939
            ]
        },
        {
            "positions": [
                1.6204488654691318,
                -1.9331879955344826,
                0.5248602037039829,
                -0.9826893281326579,
                -0.03140186155693647,
                -1.3506900155829826
            ]
        },
        {
            "positions": [
                1.5426906480085525,
                -1.9440614635374769,
                0.40005565608372384,
                -0.8774985148326973,
                -0.024491560281655528,
                -1.2892827987012712
            ]
        },
        {
            "positions": [
                1.4649324305479734,
                -1.9549349315404714,
                0.27525110846346523,
                -0.7723077015327369,
                -0.01758125900637461,
                -1.22787558181956
            ]
        },
        {
            "positions": [
                1.3871742130873943,
                -1.9658083995434656,
                0.15044656084320662,
                -0.6671168882327767,
                -0.010670957731093694,
                -1.1664683649378487
            ]
        },
        {
            "positions": [
                1.309415995626815,
                -1.9766818675464601,
                0.02564201322294757,
                -0.5619260749328161,
                -0.0037606564558127498,
                -1.1050611480561372
            ]
        },
        {
            "positions": [
                1.2316577781662357,
                -1.9875553355494544,
                -0.09916253439731104,
                -0.4567352616328555,
                0.0031496448194681947,
                -1.043653931174426
            ]
        },
        {
            "positions": [
                1.1538995607056568,
                -1.9984288035524487,
                -0.22396708201756965,
                -0.35154444833289533,
                0.010059946094749084,
                -0.9822467142927147
            ]
        },
        {
            "positions": [
                1.0761413432450775,
                -2.009302271555443,
                -0.34877162963782826,
                -0.24635363503293517,
                0.016970247370030028,
                -0.9208394974110035
            ]
        },
        {
            "positions": [
                0.9983831257844984,
                -2.0201757395584377,
                -0.4735761772580873,
                -0.14116282173297456,
                0.023880548645310945,
                -0.859432280529292
            ]
        },
        {
            "positions": [
                0.9206249083239193,
                -2.031049207561432,
                -0.5983807248783464,
                -0.03597200843301396,
                0.03079084992059189,
                -0.7980250636475805
            ]
        },
        {
            "positions": [
                0.8428666908633398,
                -2.041922675564426,
                -0.723185272498605,
                0.06921880486694665,
                0.037701151195872834,
                -0.7366178467658693
            ]
        },
        {
            "positions": [
                0.7651084734027611,
                -2.0527961435674205,
                -0.8479898201188631,
                0.17440961816690637,
                0.04461145247115372,
                -0.6752106298841583
            ]
        },
        {
            "positions": [
                0.6873502559421816,
                -2.063669611570415,
                -0.9727943677391222,
                0.27960043146686697,
                0.05152175374643467,
                -0.6138034130024468
            ]
        },
        {
            "positions": [
                0.6095920384816025,
                -2.0745430795734094,
                -1.0975989153593813,
                0.3847912447668276,
                0.05843205502171561,
                -0.5523961961207353
            ]
        },
        {
            "positions": [
                0.5318338210210234,
                -2.0854165475764037,
                -1.2224034629796399,
                0.48998205806678774,
                0.06534235629699653,
                -0.49098897923902407
            ]
        },
        {
            "positions": [
                0.45407560356044385,
                -2.096290015579398,
                -1.347208010599899,
                0.5951728713667483,
                0.07225265757227747,
                -0.4295817623573126
            ]
        },
        {
            "positions": [
                0.3763173860998652,
                -2.1071634835823922,
                -1.4720125582201575,
                0.7003636846667085,
                0.07916295884755839,
                -0.36817454547560136
            ]
        },
        {
            "positions": [
                0.29855916863928567,
                -2.118036951585387,
                -1.5968171058404161,
                0.8055544979666691,
                0.0860732601228393,
                -0.3067673285938901
            ]
        },
        {
            "positions": [
                0.22080095117870657,
                -2.1289104195883812,
                -1.7216216534606748,
                0.9107453112666293,
                0.09298356139812025,
                -0.24536011171217886
            ]
        },
        {
            "positions": [
                0.14304273371812748,
                -2.1397838875913755,
                -1.8464262010809334,
                1.0159361245665899,
                0.09989386267340117,
                -0.18395289483046762
            ]
        },
        {
            "positions": [
                0.06528451625754794,
                -2.1506573555943698,
                -1.9712307487011929,
                1.1211269378665505,
                0.10680416394868214,
                -0.12254567794875593
            ]
        },
        {
            "positions": [
                -0.012473701203030707,
                -2.1615308235973645,
                -2.0960352963214506,
                1.2263177511665102,
                0.113714465223963,
                -0.061138461067045125
            ]
        },
        {
            "positions": [
                -0.09023191866361024,
                -2.1724042916003588,
                -2.22083984394171,
                1.3315085644664713,
                0.12062476649924397,
                0.00026875581466656584
            ]
        },
        {
            "positions": [
                -0.16799013612418923,
                -2.183277759603353,
                -2.345644391561969,
                1.4366993777664316,
                0.1275350677745249,
                0.06167597269637773
            ]
        },
        {
            "positions": [
                -0.18365753594000386,
                -2.2760029513110416,
                -2.3916074282479127,
                1.4526950516708674,
                0.17303018136041096,
                0.06611849596534476
            ]
        }
    ]
}