{
    "goal": {
        "global_pose": {
            "orientation": {
                "w": 0.7047431493862688,
                "x": -0.7094548369677653,
                "y": 0.0024358444001904,
                "z": -0.0022348060817251984
            },
            "position": {
                "x": -0.39052492380142206,
                "y": 0.3671506643295288,
                "z": 0.19426114857196808
            }
        },
        "name": "move_to_magneteinheit_D"
    },
    "id": "PRMstar_move_to_magneteinheit_D_61",
    "joint_names": [
        "shoulder_pan_joint",
        "shoulder_lift_joint",
        "elbow_joint",
        "wrist_1_joint",
        "wrist_2_joint",
        "wrist_3_joint"
    ],
    "metrics": {
        "cart_traj_len": 4.434287554480401,
        "distance_elbow_joint": 3.475622662768559,
        "distance_shoulder_lift_joint": 1.6278967306500693,
        "distance_shoulder_pan_joint": 3.421720334063893,
        "distance_wrist_1_joint": 1.5350162970611414,
        "distance_wrist_2_joint": 0.7466828708876235,
        "distance_wrist_3_joint": 3.2616263607786653,
        "smoothness": 0.5198586210014242,
        "time": 5.0618966940000005,
        "traj_len": 3.7508086136471896,
        "weighted_distance": 4.782626594844725
    },
    "planner": "PRMstar",
    "start": {
        "state": {
            "elbow_joint": 0.749534889911806,
            "shoulder_lift_joint": -0.6476975780787326,
            "shoulder_pan_joint": -2.711696901376241,
            "wrist_1_joint": -0.07506478083263063,
            "wrist_2_joint": 0.43296659715538205,
            "wrist_3_joint": -3.14703540197715
        }
    },
    "waypoints": [
        {
            "positions": [
                -2.711696901376241,
                -0.6476975780787326,
                0.749534889911806,
                -0.07506478083263063,
                0.43296659715538205,
                -3.14703540197715
            ]
        },
        {
            "positions": [
                -2.735104121341326,
                -0.752201648023756,
                0.8320847253266783,
                -0.07742614002098386,
                0.47891371423585305,
                -3.154310241502547
            ]
        },
        {
            "positions": [
                -2.7585113413064106,
                -0.8567057179687794,
                0.9146345607415506,
                -0.07978749920933709,
                0.524860831316324,
                -3.161585081027944
            ]
        },
        {
            "positions": [
                -2.691061319207149,
                -0.9555335474758198,
                0.8526723038775682,
                -0.02043616208374638,
                0.5649485101783358,
                -3.0967469523509648
            ]
        },
        {
            "positions": [
                -2.623611297107888,
                -1.0543613769828601,
                0.7907100470135859,
                0.03891517504184433,
                0.6050361890403475,
                -3.031908823673986
            ]
        },
        {
            "positions": [
                -2.5561612750086264,
                -1.1531892064899008,
                0.7287477901496036,
                0.09826651216743504,
                0.6451238679023592,
                -2.967070694997007
            ]
        },
        {
            "positions": [
                -2.488711252909365,
                -1.2520170359969411,
                0.6667855332856212,
                0.15761784929302575,
                0.685211546764371,
                -2.902232566320028
            ]
        },
        {
            "positions": [
                -2.392166411692584,
                -1.2867655638447995,
                0.5665948302052524,
                0.20227437829913314,
                0.6747990282452594,
                -2.7994781048451105
            ]
        },
        {
            "positions": [
                -2.295621570475803,
                -1.321514091692658,
                0.4664041271248835,
                0.24693090730524056,
                0.6643865097261478,
                -2.6967236433701935
            ]
        },
        {
            "positions": [
                -2.1990767292590223,
                -1.3562626195405163,
                0.3662134240445147,
                0.291587436311348,
                0.6539739912070361,
                -2.593969181895276
            ]
        },
        {
            "positions": [
                -2.1025318880422414,
                -1.3910111473883746,
                0.2660227209641458,
                0.3362439653174554,
                0.6435614726879245,
                -2.491214720420359
            ]
        },
        {
            "positions": [
                -2.0059870468254606,
                -1.425759675236233,
                0.16583201788377688,
                0.38090049432356277,
                0.6331489541688129,
                -2.388460258945442
            ]
        },
        {
            "positions": [
                -1.9094422056086797,
                -1.4605082030840912,
                0.06564131480340818,
                0.42555702332967016,
                0.6227364356497013,
                -2.285705797470525
            ]
        },
        {
            "positions": [
                -1.8128973643918989,
                -1.4952567309319498,
                -0.034549388276960746,
                0.4702135523357776,
                0.6123239171305896,
                -2.1829513359956074
            ]
        },
        {
            "positions": [
                -1.716352523175118,
                -1.530005258779808,
                -0.13474009135732956,
                0.5148700813418849,
                0.6019113986114781,
                -2.0801968745206905
            ]
        },
        {
            "positions": [
                -1.6198076819583371,
                -1.5647537866276664,
                -0.2349307944376985,
                0.5595266103479924,
                0.5914988800923665,
                -1.977442413045773
            ]
        },
        {
            "positions": [
                -1.5232628407415563,
                -1.599502314475525,
                -0.3351214975180674,
                0.6041831393540998,
                0.5810863615732549,
                -1.8746879515708559
            ]
        },
        {
            "positions": [
                -1.4267179995247754,
                -1.6342508423233832,
                -0.435312200598436,
                0.6488396683602072,
                0.5706738430541433,
                -1.7719334900959387
            ]
        },
        {
            "positions": [
                -1.3301731583079945,
                -1.6689993701712416,
                -0.5355029036788048,
                0.6934961973663145,
                0.5602613245350316,
                -1.6691790286210215
            ]
        },
        {
            "positions": [
                -1.2336283170912137,
                -1.7037478980190999,
                -0.6356936067591739,
                0.7381527263724221,
                0.54984880601592,
                -1.5664245671461043
            ]
        },
        {
            "positions": [
                -1.1370834758744328,
                -1.7384964258669582,
                -0.7358843098395427,
                0.7828092553785295,
                0.5394362874968084,
                -1.4636701056711872
            ]
        },
        {
            "positions": [
                -1.040538634657652,
                -1.7732449537148165,
                -0.8360750129199115,
                0.8274657843846369,
                0.5290237689776968,
                -1.36091564419627
            ]
        },
        {
            "positions": [
                -0.9439937934408711,
                -1.807993481562675,
                -0.9362657160002803,
                0.8721223133907443,
                0.5186112504585851,
                -1.2581611827213528
            ]
        },
        {
            "positions": [
                -0.8474489522240904,
                -1.8427420094105333,
                -1.0364564190806491,
                0.9167788423968517,
                0.5081987319394735,
                -1.1554067212464356
            ]
        },
        {
            "positions": [
                -0.7509041110073091,
                -1.8774905372583919,
                -1.1366471221610182,
                0.9614353714029591,
                0.4977862134203619,
                -1.0526522597715182
            ]
        },
        {
            "positions": [
                -0.6543592697905285,
                -1.9122390651062502,
                -1.236837825241387,
                1.0060919004090665,
                0.48737369490125027,
                -0.949897798296601
            ]
        },
        {
            "positions": [
                -0.5578144285737476,
                -1.9469875929541085,
                -1.337028528321756,
                1.0507484294151739,
                0.4769611763821387,
                -0.8471433368216839
            ]
        },
        {
            "positions": [
                -0.46126958735696677,
                -1.9817361208019668,
                -1.4372192314021246,
                1.0954049584212813,
                0.46654865786302707,
                -0.7443888753467669
            ]
        },
        {
            "positions": [
                -0.3647247461401859,
                -2.016484648649825,
                -1.5374099344824932,
                1.1400614874273887,
                0.45613613934391545,
                -0.6416344138718495
            ]
        },
        {
            "positions": [
                -0.26817990492340504,
                -2.0512331764976834,
                -1.6376006375628622,
                1.184718016433496,
                0.4457236208248039,
                -0.5388799523969325
            ]
        },
        {
            "positions": [
                -0.17163506370662418,
                -2.085981704345542,
                -1.7377913406432308,
                1.2293745454396034,
                0.43531110230569225,
                -0.43612549092201514
            ]
        },
        {
            "positions": [
                -0.07509022248984332,
                -2.1207302321934005,
                -1.8379820437236003,
                1.274031074445711,
                0.4248985837865806,
                -0.33337102944709773
            ]
        },
        {
            "positions": [
                0.021454618726937547,
                -2.155478760041259,
                -1.938172746803969,
                1.3186876034518185,
                0.414486065267469,
                -0.23061656797218077
            ]
        },
        {
            "positions": [
                0.11799945994371841,
                -2.190227287889117,
                -2.038363449884338,
                1.3633441324579259,
                0.4040735467483574,
                -0.12786210649726337
            ]
        },
        {
            "positions": [
                0.21454430116049927,
                -2.2249758157369754,
                -2.1385541529647067,
                1.4080006614640332,
                0.39366102822924576,
                -0.02510764502234626
            ]
        },
        {
            "positions": [
                0.0805942172715611,
                -2.241848646734251,
                -2.2243322457088923,
                1.422169134134388,
                0.3260318939814093,
                0.011758770218411999
            ]
        },
        {
            "positions": [
                -0.05335586661737707,
                -2.2587214777315263,
                -2.310110338453078,
                1.436337606804743,
                0.25840275973357285,
                0.04862518545917026
            ]
        },
        {
            "positions": [
                -0.18730595050631527,
                -2.275594308728802,
                -2.3958884311972635,
                1.450506079475098,
                0.19077362548573643,
                0.08549160069992852
            ]
        }
    ]
}