{
    "goal": {
        "global_pose": {
            "orientation": {
                "w": 0.7031023502349854,
                "x": -0.7110244035720825,
                "y": 0.007748599164187908,
                "z": 0.005598929710686207
            },
            "position": {
                "x": 0.11585023208521307,
                "y": 0.44412534475326537,
                "z": 0.3711530566215515
            }
        },
        "name": "move_to_auspresseinheit_A"
    },
    "id": "PRMstar_move_to_auspresseinheit_A_123",
    "joint_names": [
        "shoulder_pan_joint",
        "shoulder_lift_joint",
        "elbow_joint",
        "wrist_1_joint",
        "wrist_2_joint",
        "wrist_3_joint"
    ],
    "metrics": {
        "cart_traj_len": 0.9270207169611435,
        "distance_elbow_joint": 0.16333749459001856,
        "distance_shoulder_lift_joint": 1.1992199506152679,
        "distance_shoulder_pan_joint": 1.0432780503836954,
        "distance_wrist_1_joint": 1.9601675583897151,
        "distance_wrist_2_joint": 2.1423468008052016,
        "distance_wrist_3_joint": 0.23998355888120226,
        "smoothness": 1.173509273530142,
        "time": 5.029587379,
        "traj_len": 2.597755456863694,
        "weighted_distance": 3.3661275808594096
    },
    "planner": "PRMstar",
    "start": {
        "state": {
            "elbow_joint": 2.4225746658250005,
            "shoulder_lift_joint": -1.3736534386056498,
            "shoulder_pan_joint": -0.3378633547517467,
            "wrist_1_joint": -1.0288598680537169,
            "wrist_2_joint": 1.233022673432363,
            "wrist_3_joint": -3.0940220416140027
        }
    },
    "waypoints": [
        {
            "positions": [
                -0.3378633547517467,
                -1.3736534386056498,
                2.4225746658250005,
                -1.0288598680537169,
                1.233022673432363,
                -3.0940220416140027
            ]
        },
        {
            "positions": [
                -0.3132502429639615,
                -1.4698841248022714,
                2.4185455283044424,
                -1.10560854243356,
                1.086625516838414,
                -3.110120123902022
            ]
        },
        {
            "positions": [
                -0.28863713117617623,
                -1.566114810998893,
                2.4145163907838842,
                -1.1823572168134033,
                0.940228360244465,
                -3.1262182061900416
            ]
        },
        {
            "positions": [
                -0.264024019388391,
                -1.6623454971955143,
                2.410487253263326,
                -1.2591058911932465,
                0.7938312036505161,
                -3.1423162884780607
            ]
        },
        {
            "positions": [
                -0.23941090760060574,
                -1.7585761833921358,
                2.406458115742768,
                -1.3358545655730896,
                0.647434047056567,
                -3.15841437076608
            ]
        },
        {
            "positions": [
                -0.2147977958128205,
                -1.8548068695887574,
                2.4024289782222095,
                -1.412603239952933,
                0.501036890462618,
                -3.1745124530540996
            ]
        },
        {
            "positions": [
                -0.19018468402503524,
                -1.951037555785379,
                2.3983998407016514,
                -1.489351914332776,
                0.3546397338686691,
                -3.190610535342119
            ]
        },
        {
            "positions": [
                -0.16557157223725,
                -2.0472682419820005,
                2.3943707031810932,
                -1.5661005887126191,
                0.20824257727472006,
                -3.206708617630138
            ]
        },
        {
            "positions": [
                -0.14095846044946475,
                -2.143498928178622,
                2.390341565660535,
                -1.6428492630924625,
                0.061845420680771035,
                -3.2228066999181575
            ]
        },
        {
            "positions": [
                -0.11634534866167952,
                -2.2397296143752436,
                2.386312428139977,
                -1.7195979374723056,
                -0.084551735913178,
                -3.238904782206177
            ]
        },
        {
            "positions": [
                -0.03327607657191023,
                -2.198209136686722,
                2.3786235587121203,
                -1.5744377541509087,
                0.01673943764059238,
                -3.233694534797088
            ]
        },
        {
            "positions": [
                0.04979319551785906,
                -2.1566886589982,
                2.3709346892842635,
                -1.429277570829512,
                0.11803061119436276,
                -3.2284842873879986
            ]
        },
        {
            "positions": [
                0.13286246760762838,
                -2.115168181309678,
                2.3632458198564072,
                -1.284117387508115,
                0.21932178474813313,
                -3.223274039978909
            ]
        },
        {
            "positions": [
                0.21593173969739765,
                -2.0736477036211562,
                2.3555569504285505,
                -1.1389572041867182,
                0.3206129583019035,
                -3.21806379256982
            ]
        },
        {
            "positions": [
                0.2990010117871669,
                -2.0321272259326344,
                2.3478680810006938,
                -0.9937970208653213,
                0.4219041318556739,
                -3.2128535451607307
            ]
        },
        {
            "positions": [
                0.38207028387693626,
                -1.9906067482441125,
                2.3401792115728375,
                -0.8486368375439245,
                0.5231953054094443,
                -3.207643297751641
            ]
        },
        {
            "positions": [
                0.4651395559667055,
                -1.9490862705555907,
                2.3324903421449807,
                -0.7034766542225277,
                0.6244864789632146,
                -3.202433050342552
            ]
        },
        {
            "positions": [
                0.5482088280564748,
                -1.9075657928670688,
                2.324801472717124,
                -0.5583164709011308,
                0.725777652516985,
                -3.197222802933463
            ]
        },
        {
            "positions": [
                0.6268117618442117,
                -1.9080557695358185,
                2.3575836234581953,
                -0.504242459701155,
                0.7185561510022359,
                -3.170513383425306
            ]
        },
        {
            "positions": [
                0.7054146956319486,
                -1.908545746204568,
                2.390365774199266,
                -0.4501684485011792,
                0.7113346494874868,
                -3.143803963917149
            ]
        }
    ]
}