{
    "goal": {
        "global_pose": {
            "orientation": {
                "w": 0.005598929693374612,
                "x": 0.007748599140229565,
                "y": 0.7110244013736278,
                "z": -0.7031023480610252
            },
            "position": {
                "x": -0.8858502320852131,
                "y": -0.7141253447532654,
                "z": 0.3711530566215515
            }
        },
        "name": "move_to_auspresseinheit_C"
    },
    "id": "PRMstar_move_to_auspresseinheit_C_41",
    "joint_names": [
        "shoulder_pan_joint",
        "shoulder_lift_joint",
        "elbow_joint",
        "wrist_1_joint",
        "wrist_2_joint",
        "wrist_3_joint"
    ],
    "metrics": {
        "cart_traj_len": 0.4923077309047914,
        "distance_elbow_joint": 0.989515295256425,
        "distance_shoulder_lift_joint": 0.31979262209521087,
        "distance_shoulder_pan_joint": 0.25586794432586313,
        "distance_wrist_1_joint": 0.6547835590659123,
        "distance_wrist_2_joint": 1.3068310054682344,
        "distance_wrist_3_joint": 0.04200578608270922,
        "smoothness": 1.453382874993722e-15,
        "time": 5.002657922,
        "traj_len": 1.8891257799030627,
        "weighted_distance": 2.3694772311617434
    },
    "planner": "PRMstar",
    "start": {
        "state": {
            "elbow_joint": 1.7527959577737207,
            "shoulder_lift_joint": -0.9740617694225068,
            "shoulder_pan_joint": -2.967991417825858,
            "wrist_1_joint": -0.759517768980727,
            "wrist_2_joint": 1.7443932448377408,
            "wrist_3_joint": -3.0840537646736568
        }
    },
    "waypoints": [
        {
            "positions": [
                -2.967991417825858,
                -0.9740617694225068,
                1.7527959577737207,
                -0.759517768980727,
                1.7443932448377408,
                -3.0840537646736568
            ]
        },
        {
            "positions": [
                -2.9424046233932715,
                -0.9420825072129857,
                1.6538444282480782,
                -0.6940394130741357,
                1.6137101442909174,
                -3.088254343281928
            ]
        },
        {
            "positions": [
                -2.9168178289606854,
                -0.9101032450034646,
                1.5548928987224357,
                -0.6285610571675445,
                1.483027043744094,
                -3.0924549218901984
            ]
        },
        {
            "positions": [
                -2.891231034528099,
                -0.8781239827939435,
                1.4559413691967933,
                -0.5630827012609533,
                1.3523439431972706,
                -3.0966555004984695
            ]
        },
        {
            "positions": [
                -2.865644240095513,
                -0.8461447205844224,
                1.3569898396711506,
                -0.49760434535436204,
                1.2216608426504472,
                -3.1008560791067405
            ]
        },
        {
            "positions": [
                -2.8400574456629264,
                -0.8141654583749014,
                1.2580383101455082,
                -0.4321259894477708,
                1.0909777421036235,
                -3.1050566577150116
            ]
        },
        {
            "positions": [
                -2.81447065123034,
                -0.7821861961653802,
                1.1590867806198657,
                -0.3666476335411796,
                0.9602946415568002,
                -3.109257236323282
            ]
        },
        {
            "positions": [
                -2.788883856797754,
                -0.7502069339558592,
                1.0601352510942232,
                -0.3011692776345884,
                0.8296115410099768,
                -3.1134578149315533
            ]
        },
        {
            "positions": [
                -2.7632970623651674,
                -0.7182276717463381,
                0.9611837215685806,
                -0.2356909217279971,
                0.6989284404631533,
                -3.1176583935398243
            ]
        },
        {
            "positions": [
                -2.7377102679325813,
                -0.686248409536817,
                0.8622321920429381,
                -0.17021256582140587,
                0.5682453399163299,
                -3.121858972148095
            ]
        },
        {
            "positions": [
                -2.712123473499995,
                -0.6542691473272959,
                0.7632806625172956,
                -0.10473420991481462,
                0.43756223936950644,
                -3.126059550756366
            ]
        }
    ]
}