{
    "goal": {
        "global_pose": {
            "orientation": {
                "w": 0.7047431493862688,
                "x": -0.7094548369677653,
                "y": 0.0024358444001904,
                "z": -0.0022348060817251984
            },
            "position": {
                "x": -0.39052492380142206,
                "y": 0.3671506643295288,
                "z": 0.19426114857196808
            }
        },
        "name": "move_to_magneteinheit_D"
    },
    "id": "PRMstar_move_to_magneteinheit_D_89",
    "joint_names": [
        "shoulder_pan_joint",
        "shoulder_lift_joint",
        "elbow_joint",
        "wrist_1_joint",
        "wrist_2_joint",
        "wrist_3_joint"
    ],
    "metrics": {
        "cart_traj_len": 3.867410623669082,
        "distance_elbow_joint": 3.576597905637742,
        "distance_shoulder_lift_joint": 1.627680519758292,
        "distance_shoulder_pan_joint": 3.2956460659223277,
        "distance_wrist_1_joint": 1.6712108371556975,
        "distance_wrist_2_joint": 0.5992141330312128,
        "distance_wrist_3_joint": 3.230950782949105,
        "smoothness": 0.36333893052746086,
        "time": 5.044864194,
        "traj_len": 3.7418311352136637,
        "weighted_distance": 4.767979318384203
    },
    "planner": "PRMstar",
    "start": {
        "state": {
            "elbow_joint": 0.749534889911806,
            "shoulder_lift_joint": -0.6476975780787326,
            "shoulder_pan_joint": -2.711696901376241,
            "wrist_1_joint": -0.07506478083263063,
            "wrist_2_joint": 0.43296659715538205,
            "wrist_3_joint": -3.14703540197715
        }
    },
    "waypoints": [
        {
            "positions": [
                -2.711696901376241,
                -0.6476975780787326,
                0.749534889911806,
                -0.07506478083263063,
                0.43296659715538205,
                -3.14703540197715
            ]
        },
        {
            "positions": [
                -2.734045796636429,
                -0.7087128136340392,
                0.785551663547941,
                -0.08786016090555972,
                0.4468368296413221,
                -2.9223366077466975
            ]
        },
        {
            "positions": [
                -2.7563946918966167,
                -0.7697280491893458,
                0.821568437184076,
                -0.10065554097848879,
                0.4607070621272621,
                -2.697637813516245
            ]
        },
        {
            "positions": [
                -2.7787435871568045,
                -0.8307432847446523,
                0.8575852108202111,
                -0.11345092105141788,
                0.4745772946132021,
                -2.472939019285792
            ]
        },
        {
            "positions": [
                -2.8010924824169923,
                -0.8917585202999588,
                0.8936019844563461,
                -0.12624630112434695,
                0.48844752709914213,
                -2.2482402250553397
            ]
        },
        {
            "positions": [
                -2.82344137767718,
                -0.9527737558552655,
                0.9296187580924813,
                -0.13904168119727606,
                0.5023177595850822,
                -2.0235414308248867
            ]
        },
        {
            "positions": [
                -2.845790272937368,
                -1.013788991410572,
                0.9656355317286163,
                -0.15183706127020513,
                0.5161879920710222,
                -1.798842636594434
            ]
        },
        {
            "positions": [
                -2.7347959407229974,
                -1.032506117763841,
                0.83885590894579,
                -0.09654747957370496,
                0.4991565544573952,
                -1.7457870140355327
            ]
        },
        {
            "positions": [
                -2.6238016085086264,
                -1.05122324411711,
                0.7120762861629637,
                -0.04125789787720481,
                0.4821251168437683,
                -1.6927313914766313
            ]
        },
        {
            "positions": [
                -2.512807276294256,
                -1.0699403704703794,
                0.5852966633801375,
                0.014031683819295343,
                0.46509367923014133,
                -1.63967576891773
            ]
        },
        {
            "positions": [
                -2.401812944079885,
                -1.0886574968236484,
                0.45851704059731124,
                0.06932126551579551,
                0.44806224161651437,
                -1.5866201463588288
            ]
        },
        {
            "positions": [
                -2.2908186118655145,
                -1.1073746231769175,
                0.33173741781448496,
                0.1246108472122957,
                0.4310308040028874,
                -1.5335645237999274
            ]
        },
        {
            "positions": [
                -2.179824279651144,
                -1.1260917495301865,
                0.20495779503165878,
                0.17990042890879582,
                0.4139993663892605,
                -1.480508901241026
            ]
        },
        {
            "positions": [
                -2.068829947436773,
                -1.1448088758834558,
                0.0781781722488325,
                0.23519001060529604,
                0.3969679287756335,
                -1.4274532786821246
            ]
        },
        {
            "positions": [
                -1.9578356152224026,
                -1.1635260022367249,
                -0.048601450533993784,
                0.29047959230179615,
                0.37993649116200656,
                -1.3743976561232232
            ]
        },
        {
            "positions": [
                -1.8468412830080319,
                -1.182243128589994,
                -0.17538107331681996,
                0.3457691739982963,
                0.36290505354837965,
                -1.321342033564322
            ]
        },
        {
            "positions": [
                -1.7358469507936611,
                -1.2009602549432632,
                -0.30216069609964635,
                0.40105875569479654,
                0.3458736159347527,
                -1.2682864110054206
            ]
        },
        {
            "positions": [
                -1.6248526185792904,
                -1.2196773812965322,
                -0.4289403188824725,
                0.45634833739129665,
                0.3288421783211257,
                -1.2152307884465192
            ]
        },
        {
            "positions": [
                -1.51385828636492,
                -1.2383945076498013,
                -0.5557199416652987,
                0.5116379190877968,
                0.3118107407074988,
                -1.1621751658876178
            ]
        },
        {
            "positions": [
                -1.402863954150549,
                -1.2571116340030704,
                -0.6824995644481249,
                0.566927500784297,
                0.29477930309387185,
                -1.1091195433287164
            ]
        },
        {
            "positions": [
                -1.2918696219361783,
                -1.2758287603563394,
                -0.8092791872309513,
                0.6222170824807972,
                0.2777478654802449,
                -1.056063920769815
            ]
        },
        {
            "positions": [
                -1.1808752897218078,
                -1.2945458867096087,
                -0.9360588100137772,
                0.6775066641772972,
                0.260716427866618,
                -1.0030082982109136
            ]
        },
        {
            "positions": [
                -1.069880957507437,
                -1.3132630130628777,
                -1.0628384327966038,
                0.7327962458737974,
                0.243684990252991,
                -0.9499526756520124
            ]
        },
        {
            "positions": [
                -0.9588866252930663,
                -1.3319801394161468,
                -1.18961805557943,
                0.7880858275702977,
                0.22665355263936404,
                -0.896897053093111
            ]
        },
        {
            "positions": [
                -0.8478922930786958,
                -1.3506972657694158,
                -1.3163976783622562,
                0.8433754092667978,
                0.20962211502573713,
                -0.8438414305342097
            ]
        },
        {
            "positions": [
                -0.7368979608643249,
                -1.369414392122685,
                -1.4431773011450824,
                0.898664990963298,
                0.19259067741211017,
                -0.7907858079753083
            ]
        },
        {
            "positions": [
                -0.6259036286499544,
                -1.3881315184759542,
                -1.569956923927909,
                0.9539545726597982,
                0.1755592397984832,
                -0.7377301854164069
            ]
        },
        {
            "positions": [
                -0.5149092964355839,
                -1.4068486448292232,
                -1.6967365467107347,
                1.0092441543562982,
                0.1585278021848563,
                -0.6846745628575057
            ]
        },
        {
            "positions": [
                -0.403914964221213,
                -1.4255657711824923,
                -1.8235161694935613,
                1.0645337360527984,
                0.14149636457122933,
                -0.6316189402986041
            ]
        },
        {
            "positions": [
                -0.2929206320068425,
                -1.4442828975357616,
                -1.9502957922763875,
                1.1198233177492987,
                0.12446492695760236,
                -0.5785633177397027
            ]
        },
        {
            "positions": [
                -0.181926299792472,
                -1.4630000238890306,
                -2.0770754150592134,
                1.1751128994457987,
                0.10743348934397545,
                -0.5255076951808015
            ]
        },
        {
            "positions": [
                -0.07093196757810105,
                -1.4817171502422997,
                -2.20385503784204,
                1.2304024811422989,
                0.09040205173034849,
                -0.47245207262190025
            ]
        },
        {
            "positions": [
                -0.0030471589822318873,
                -1.5816605328583369,
                -2.2561088908083313,
                1.2717896930870372,
                0.09850932556968203,
                -0.3769389511601032
            ]
        },
        {
            "positions": [
                0.06483764961363728,
                -1.6816039154743738,
                -2.308362743774622,
                1.3131769050317752,
                0.10661659940901556,
                -0.2814258296983061
            ]
        },
        {
            "positions": [
                0.0021064566610885654,
                -1.8300474610650366,
                -2.3299874908540454,
                1.345533052635811,
                0.12511466193307355,
                -0.19009052703074109
            ]
        },
        {
            "positions": [
                -0.060624736291460146,
                -1.978491006655699,
                -2.3516122379334687,
                1.3778892002398466,
                0.14361272445713155,
                -0.09875522436317608
            ]
        },
        {
            "positions": [
                -0.12335592924400887,
                -2.126934552246362,
                -2.373236985012892,
                1.4102453478438823,
                0.16211078698118955,
                -0.007419921695611065
            ]
        },
        {
            "positions": [
                -0.18608712219655757,
                -2.2753780978370246,
                -2.3948617320923153,
                1.442601495447918,
                0.18060884950524755,
                0.08391538097195396
            ]
        }
    ]
}