{
    "goal": {
        "global_pose": {
            "orientation": {
                "w": -0.00223480608172531,
                "x": 0.0024358444001904467,
                "y": 0.7094548369677653,
                "z": -0.704743149386269
            },
            "position": {
                "x": -0.37947507619857795,
                "y": -0.6371506643295288,
                "z": 0.19426114857196808
            }
        },
        "name": "move_to_magneteinheit_C"
    },
    "id": "PRMstar_move_to_magneteinheit_C_55",
    "joint_names": [
        "shoulder_pan_joint",
        "shoulder_lift_joint",
        "elbow_joint",
        "wrist_1_joint",
        "wrist_2_joint",
        "wrist_3_joint"
    ],
    "metrics": {
        "cart_traj_len": 3.6097278054018886,
        "distance_elbow_joint": 0.45926213944784733,
        "distance_shoulder_lift_joint": 1.362834297289194,
        "distance_shoulder_pan_joint": 4.713894178481081,
        "distance_wrist_1_joint": 0.6519089975655389,
        "distance_wrist_2_joint": 2.82996388068531,
        "distance_wrist_3_joint": 2.041500703606229,
        "smoothness": 0.9537612070818238,
        "time": 5.033423341000001,
        "traj_len": 3.4726595279519126,
        "weighted_distance": 4.429925336000429
    },
    "planner": "PRMstar",
    "start": {
        "state": {
            "elbow_joint": 1.9565354010623817,
            "shoulder_lift_joint": -1.4165861575791021,
            "shoulder_pan_joint": -1.6717766225146293,
            "wrist_1_joint": -0.5286633292919765,
            "wrist_2_joint": 1.472756589071564,
            "wrist_3_joint": -3.1238370188695823
        }
    },
    "waypoints": [
        {
            "positions": [
                -1.6717766225146293,
                -1.4165861575791021,
                1.9565354010623817,
                -0.5286633292919765,
                1.472756589071564,
                -3.1238370188695823
            ]
        },
        {
            "positions": [
                -1.5413312894112423,
                -1.45361530690582,
                1.9430158581164676,
                -0.5169287084862934,
                1.352029462370097,
                -3.0570539209416743
            ]
        },
        {
            "positions": [
                -1.410885956307855,
                -1.490644456232538,
                1.9294963151705535,
                -0.5051940876806102,
                1.23130233566863,
                -2.9902708230137662
            ]
        },
        {
            "positions": [
                -1.280440623204468,
                -1.527673605559256,
                1.9159767722246395,
                -0.4934594668749271,
                1.110575208967163,
                -2.923487725085858
            ]
        },
        {
            "positions": [
                -1.149995290101081,
                -1.5647027548859738,
                1.9024572292787256,
                -0.48172484606924393,
                0.989848082265696,
                -2.85670462715795
            ]
        },
        {
            "positions": [
                -1.019549956997694,
                -1.6017319042126918,
                1.8889376863328116,
                -0.4699902252635608,
                0.869120955564229,
                -2.7899215292300417
            ]
        },
        {
            "positions": [
                -0.8891046238943068,
                -1.6387610535394097,
                1.8754181433868975,
                -0.4582556044578777,
                0.748393828862762,
                -2.7231384313021336
            ]
        },
        {
            "positions": [
                -0.7586592907909196,
                -1.6757902028661276,
                1.8618986004409834,
                -0.44652098365219456,
                0.6276667021612949,
                -2.6563553333742256
            ]
        },
        {
            "positions": [
                -0.6282139576875325,
                -1.7128193521928456,
                1.8483790574950694,
                -0.43478636284651145,
                0.506939575459828,
                -2.5895722354463175
            ]
        },
        {
            "positions": [
                -0.4977686245841455,
                -1.7498485015195635,
                1.8348595145491553,
                -0.4230517420408283,
                0.38621244875836114,
                -2.5227891375184095
            ]
        },
        {
            "positions": [
                -0.3673232914807585,
                -1.7868776508462814,
                1.8213399716032412,
                -0.4113171212351452,
                0.265485322056894,
                -2.4560060395905015
            ]
        },
        {
            "positions": [
                -0.23687795837737147,
                -1.8239068001729994,
                1.8078204286573274,
                -0.3995825004294621,
                0.1447581953554271,
                -2.3892229416625934
            ]
        },
        {
            "positions": [
                -0.10643262527398423,
                -1.8609359494997173,
                1.7943008857114133,
                -0.3878478796237789,
                0.024031068653959986,
                -2.322439843734685
            ]
        },
        {
            "positions": [
                0.024012707829403013,
                -1.8979650988264352,
                1.7807813427654993,
                -0.37611325881809576,
                -0.09669605804750692,
                -2.255656745806777
            ]
        },
        {
            "positions": [
                0.15445804093279003,
                -1.9349942481531532,
                1.7672617998195852,
                -0.36437863801241266,
                -0.21742318474897404,
                -2.188873647878869
            ]
        },
        {
            "positions": [
                0.28490337403617705,
                -1.972023397479871,
                1.7537422568736711,
                -0.35264401720672955,
                -0.33815031145044094,
                -2.122090549950961
            ]
        },
        {
            "positions": [
                0.12271430451086676,
                -1.924529452927611,
                1.7688286683595027,
                -0.380637528117335,
                -0.2782057832055407,
                -2.183252563756114
            ]
        },
        {
            "positions": [
                -0.039474765014443525,
                -1.8770355083753505,
                1.7839150798453343,
                -0.4086310390279404,
                -0.21826125496064036,
                -2.2444145775612676
            ]
        },
        {
            "positions": [
                -0.2016638345397539,
                -1.8295415638230903,
                1.7990014913311658,
                -0.4366245499385458,
                -0.15831672671574007,
                -2.305576591366421
            ]
        },
        {
            "positions": [
                -0.3638529040650641,
                -1.7820476192708299,
                1.8140879028169974,
                -0.4646180608491512,
                -0.09837219847083978,
                -2.3667386051715744
            ]
        },
        {
            "positions": [
                -0.5260419735903745,
                -1.7345536747185697,
                1.829174314302829,
                -0.4926115717597566,
                -0.03842767022593946,
                -2.427900618976728
            ]
        },
        {
            "positions": [
                -0.6882310431156848,
                -1.6870597301663093,
                1.8442607257886605,
                -0.5206050826703621,
                0.021516858018960805,
                -2.4890626327818812
            ]
        },
        {
            "positions": [
                -0.8504201126409949,
                -1.639565785614049,
                1.859347137274492,
                -0.5485985935809674,
                0.08146138626386107,
                -2.5502246465870346
            ]
        },
        {
            "positions": [
                -1.0126091821663052,
                -1.5920718410617887,
                1.8744335487603236,
                -0.5765921044915728,
                0.1414059145087614,
                -2.6113866603921876
            ]
        },
        {
            "positions": [
                -1.1747982516916158,
                -1.5445778965095285,
                1.8895199602461554,
                -0.6045856154021783,
                0.20135044275366165,
                -2.6725486741973414
            ]
        },
        {
            "positions": [
                -1.336987321216926,
                -1.497083951957268,
                1.904606371731987,
                -0.6325791263127837,
                0.261294970998562,
                -2.7337106880024944
            ]
        },
        {
            "positions": [
                -1.4991763907422364,
                -1.4495900074050079,
                1.9196927832178186,
                -0.6605726372233891,
                0.3212394992434623,
                -2.7948727018076482
            ]
        },
        {
            "positions": [
                -1.6613654602675467,
                -1.4020960628527475,
                1.9347791947036501,
                -0.6885661481339945,
                0.38118402748836255,
                -2.856034715612801
            ]
        },
        {
            "positions": [
                -1.8235545297928568,
                -1.3546021183004873,
                1.9498656061894817,
                -0.7165596590445998,
                0.4411285557332628,
                -2.9171967294179546
            ]
        },
        {
            "positions": [
                -1.985743599318167,
                -1.3071081737482269,
                1.9649520176753132,
                -0.7445531699552053,
                0.5010730839781631,
                -2.978358743223108
            ]
        },
        {
            "positions": [
                -2.1479326688434774,
                -1.2596142291959667,
                1.9800384291611448,
                -0.7725466808658107,
                0.5610176122230633,
                -3.0395207570282614
            ]
        },
        {
            "positions": [
                -2.3101217383687875,
                -1.2121202846437065,
                1.9951248406469764,
                -0.8005401917764161,
                0.6209621404679637,
                -3.100682770833415
            ]
        },
        {
            "positions": [
                -2.472310807894098,
                -1.164626340091446,
                2.010211252132808,
                -0.8285337026870215,
                0.680906668712864,
                -3.161844784638568
            ]
        }
    ]
}