{
    "goal": {
        "global_pose": {
            "orientation": {
                "w": 0.5084816217422485,
                "x": -0.49083608388900757,
                "y": 0.5182115435600281,
                "z": -0.4816462993621826
            },
            "position": {
                "x": 0.5540239810943604,
                "y": 0.030875300988554955,
                "z": 0.16403168439865112
            }
        },
        "name": "move_to_storage_A"
    },
    "id": "PRMstar_move_to_storage_A_114",
    "joint_names": [
        "shoulder_pan_joint",
        "shoulder_lift_joint",
        "elbow_joint",
        "wrist_1_joint",
        "wrist_2_joint",
        "wrist_3_joint"
    ],
    "metrics": {
        "cart_traj_len": 0.35302441362508696,
        "distance_elbow_joint": 0.4506131095488366,
        "distance_shoulder_lift_joint": 0.23524915831289217,
        "distance_shoulder_pan_joint": 0.4611737517462883,
        "distance_wrist_1_joint": 0.24324168741694352,
        "distance_wrist_2_joint": 1.1012733901745457,
        "distance_wrist_3_joint": 0.09800898526814272,
        "smoothness": 0.0,
        "time": 5.008007859999999,
        "traj_len": 1.6092110124118741,
        "weighted_distance": 2.032263056446046
    },
    "planner": "PRMstar",
    "start": {
        "state": {
            "elbow_joint": 1.971548259319323,
            "shoulder_lift_joint": -1.1394851275133948,
            "shoulder_pan_joint": 0.1228115487234821,
            "wrist_1_joint": -0.7804723859257726,
            "wrist_2_joint": 0.12958671773740124,
            "wrist_3_joint": -3.192489227718131
        }
    },
    "waypoints": [
        {
            "positions": [
                0.1228115487234821,
                -1.1394851275133948,
                1.971548259319323,
                -0.7804723859257726,
                0.12958671773740124,
                -3.192489227718131
            ]
        },
        {
            "positions": [
                0.05692958418829806,
                -1.1730921501295222,
                2.0359215606834424,
                -0.8152211984139074,
                0.2869114877623363,
                -3.1784879441083964
            ]
        },
        {
            "positions": [
                -0.008952380346885974,
                -1.2066991727456498,
                2.100294862047562,
                -0.8499700109020422,
                0.4442362577872714,
                -3.1644866604986617
            ]
        },
        {
            "positions": [
                -0.07483434488207,
                -1.240306195361777,
                2.1646681634116813,
                -0.8847188233901769,
                0.6015610278122066,
                -3.150485376888927
            ]
        },
        {
            "positions": [
                -0.14071630941725405,
                -1.2739132179779047,
                2.229041464775801,
                -0.9194676358783118,
                0.7588857978371416,
                -3.1364840932791926
            ]
        },
        {
            "positions": [
                -0.20659827395243813,
                -1.307520240594032,
                2.2934147661399207,
                -0.9542164483664466,
                0.9162105678620768,
                -3.122482809669458
            ]
        },
        {
            "positions": [
                -0.2724802384876221,
                -1.3411272632101596,
                2.35778806750404,
                -0.9889652608545814,
                1.0735353378870118,
                -3.108481526059723
            ]
        },
        {
            "positions": [
                -0.3383622030228062,
                -1.374734285826287,
                2.4221613688681596,
                -1.0237140733427161,
                1.230860107911947,
                -3.0944802424499884
            ]
        }
    ]
}{
    "goal": {
        "global_pose": {
            "orientation": {
                "w": 0.5084816217422485,
                "x": -0.49083608388900757,
                "y": 0.5182115435600281,
                "z": -0.4816462993621826
            },
            "position": {
                "x": 0.5540239810943604,
                "y": 0.030875300988554955,
                "z": 0.16403168439865112
            }
        },
        "name": "move_to_storage_A"
    },
    "id": "PRMstar_move_to_storage_A_114",
    "joint_names": [
        "shoulder_pan_joint",
        "shoulder_lift_joint",
        "elbow_joint",
        "wrist_1_joint",
        "wrist_2_joint",
        "wrist_3_joint"
    ],
    "metrics": {
        "cart_traj_len": 0.35319488571713625,
        "distance_elbow_joint": 0.44958617953905833,
        "distance_shoulder_lift_joint": 0.23508813544211282,
        "distance_shoulder_pan_joint": 0.4625970383218121,
        "distance_wrist_1_joint": 0.23593522872278694,
        "distance_wrist_2_joint": 1.0965465822676068,
        "distance_wrist_3_joint": 0.08806238644421693,
        "smoothness": 4.440892098500626e-16,
        "time": 5.007957498,
        "traj_len": 1.6024404983454437,
        "weighted_distance": 2.019015139768997
    },
    "planner": "PRMstar",
    "start": {
        "state": {
            "elbow_joint": 1.97154746011099,
            "shoulder_lift_joint": -1.13948474672311,
            "shoulder_pan_joint": 0.12281154466712228,
            "wrist_1_joint": -0.7804688027058302,
            "wrist_2_joint": 0.12958655903071145,
            "wrist_3_joint": 3.0906928834467795
        }
    },
    "waypoints": [
        {
            "positions": [
                0.12281154466712228,
                -1.13948474672311,
                1.97154746011099,
                -0.7804688027058302,
                0.12958655903071145,
                3.0906928834467795
            ]
        },
        {
            "positions": [
                0.056726253478291994,
                -1.1730687660719832,
                2.0357740571879983,
                -0.814173835380514,
                0.2862360707832267,
                3.1032732243673817
            ]
        },
        {
            "positions": [
                -0.009359037710538295,
                -1.2066527854208564,
                2.1000006542650067,
                -0.8478788680551979,
                0.44288558253574195,
                3.1158535652879844
            ]
        },
        {
            "positions": [
                -0.0754443288993686,
                -1.2402368047697296,
                2.164227251342015,
                -0.8815839007298817,
                0.5995350942882572,
                3.1284339062085866
            ]
        },
        {
            "positions": [
                -0.14152962008819886,
                -1.2738208241186029,
                2.228453848419023,
                -0.9152889334045655,
                0.7561846060407725,
                3.1410142471291893
            ]
        },
        {
            "positions": [
                -0.2076149112770292,
                -1.3074048434674763,
                2.2926804454960314,
                -0.9489939660792495,
                0.9128341177932878,
                3.1535945880497915
            ]
        },
        {
            "positions": [
                -0.27370020246585947,
                -1.3409888628163495,
                2.35690704257304,
                -0.9826989987539333,
                1.069483629545803,
                3.166174928970394
            ]
        },
        {
            "positions": [
                -0.3397854936546898,
                -1.3745728821652228,
                2.4211336396500482,
                -1.0164040314286171,
                1.2261331412983183,
                3.1787552698909964
            ]
        }
    ]
}{
    "goal": {
        "global_pose": {
            "orientation": {
                "w": 0.5084816217422485,
                "x": -0.49083608388900757,
                "y": 0.5182115435600281,
                "z": -0.4816462993621826
            },
            "position": {
                "x": 0.5540239810943604,
                "y": 0.030875300988554955,
                "z": 0.16403168439865112
            }
        },
        "name": "move_to_storage_A"
    },
    "id": "PRMstar_move_to_storage_A_114",
    "joint_names": [
        "shoulder_pan_joint",
        "shoulder_lift_joint",
        "elbow_joint",
        "wrist_1_joint",
        "wrist_2_joint",
        "wrist_3_joint"
    ],
    "metrics": {
        "cart_traj_len": 0.35220846149490825,
        "distance_elbow_joint": 0.44957848443081083,
        "distance_shoulder_lift_joint": 0.234463379226872,
        "distance_shoulder_pan_joint": 0.4603398659507002,
        "distance_wrist_1_joint": 0.2435881516620484,
        "distance_wrist_2_joint": 1.0978925106913344,
        "distance_wrist_3_joint": 0.09380567120656025,
        "smoothness": 6.661338165333112e-16,
        "time": 5.005246081,
        "traj_len": 1.606134509674805,
        "weighted_distance": 2.0270076635116183
    },
    "planner": "PRMstar",
    "start": {
        "state": {
            "elbow_joint": 1.9715472970024885,
            "shoulder_lift_joint": -1.1394870060712896,
            "shoulder_pan_joint": 0.12281152778156021,
            "wrist_1_joint": -0.780463741449964,
            "wrist_2_joint": 0.12958659822042276,
            "wrist_3_joint": 3.090690232415272
        }
    },
    "waypoints": [
        {
            "positions": [
                0.12281152778156021,
                -1.1394870060712896,
                1.9715472970024885,
                -0.780463741449964,
                0.12958659822042276,
                3.090690232415272
            ]
        },
        {
            "positions": [
                0.057048689788603044,
                -1.1729817745322713,
                2.035772794778319,
                -0.8152620488302567,
                0.28642838546204197,
                3.104091042587638
            ]
        },
        {
            "positions": [
                -0.008714148204354122,
                -1.2064765429932531,
                2.0999982925541487,
                -0.8500603562105492,
                0.4432701727036612,
                3.1174918527600033
            ]
        },
        {
            "positions": [
                -0.0744769861973113,
                -1.2399713114542348,
                2.164223790329979,
                -0.8848586635908419,
                0.6001119599452803,
                3.1308926629323692
            ]
        },
        {
            "positions": [
                -0.14023982419026845,
                -1.2734660799152164,
                2.228449288105809,
                -0.9196569709711345,
                0.7569537471868996,
                3.1442934731047347
            ]
        },
        {
            "positions": [
                -0.20600266218322563,
                -1.3069608483761983,
                2.292674785881639,
                -0.9544552783514271,
                0.9137955344285188,
                3.1576942832771007
            ]
        },
        {
            "positions": [
                -0.27176550017618284,
                -1.34045561683718,
                2.356900283657469,
                -0.9892535857317197,
                1.070637321670138,
                3.171095093449466
            ]
        },
        {
            "positions": [
                -0.33752833816913996,
                -1.3739503852981616,
                2.4211257814332994,
                -1.0240518931120124,
                1.2274791089117572,
                3.184495903621832
            ]
        }
    ]
}