{
    "goal": {
        "global_pose": {
            "orientation": {
                "w": 0.5084816262002911,
                "x": -0.4908360881923452,
                "y": 0.5182115481033761,
                "z": -0.48164630358495003
            },
            "position": {
                "x": 0.5540239810943604,
                "y": -0.46912469901144505,
                "z": 0.16403168439865112
            }
        },
        "name": "move_to_storage_B"
    },
    "id": "PRMstar_move_to_storage_B_150",
    "joint_names": [
        "shoulder_pan_joint",
        "shoulder_lift_joint",
        "elbow_joint",
        "wrist_1_joint",
        "wrist_2_joint",
        "wrist_3_joint"
    ],
    "metrics": {
        "cart_traj_len": 1.14739042343646,
        "distance_elbow_joint": 0.8056528634120772,
        "distance_shoulder_lift_joint": 0.6292070072016025,
        "distance_shoulder_pan_joint": 1.1570850346879966,
        "distance_wrist_1_joint": 2.999120959473987,
        "distance_wrist_2_joint": 2.7004337802966707,
        "distance_wrist_3_joint": 3.1294305266871563,
        "smoothness": 0.32090889273440854,
        "time": 5.036761189,
        "traj_len": 3.3794866728187425,
        "weighted_distance": 4.8352193295552235
    },
    "planner": "PRMstar",
    "start": {
        "state": {
            "elbow_joint": 1.664937868594044,
            "shoulder_lift_joint": -0.661644460510453,
            "shoulder_pan_joint": -0.9139846352900073,
            "wrist_1_joint": 2.146753192139373,
            "wrist_2_joint": -2.2341966793290973,
            "wrist_3_joint": 0.005466555786416001
        }
    },
    "waypoints": [
        {
            "positions": [
                -0.9139846352900073,
                -0.661644460510453,
                1.664937868594044,
                2.146753192139373,
                -2.2341966793290973,
                0.005466555786416001
            ]
        },
        {
            "positions": [
                -0.8793397245268249,
                -0.7249579992865479,
                1.7016260067305031,
                2.154896229403881,
                -2.1905231619472643,
                0.06215142504221692
            ]
        },
        {
            "positions": [
                -0.8340717830991261,
                -0.7163501781493166,
                1.6787807950905007,
                2.1076740219017482,
                -2.0837897451773553,
                0.19304946137772067
            ]
        },
        {
            "positions": [
                -0.7888038416714274,
                -0.7077423570120851,
                1.6559355834504985,
                2.0604518143996158,
                -1.9770563284074463,
                0.32394749771322445
            ]
        },
        {
            "positions": [
                -0.7435359002437286,
                -0.6991345358748537,
                1.633090371810496,
                2.0132296068974833,
                -1.8703229116375373,
                0.45484553404872813
            ]
        },
        {
            "positions": [
                -0.6982679588160299,
                -0.6905267147376224,
                1.6102451601704937,
                1.9660073993953504,
                -1.7635894948676283,
                0.585743570384232
            ]
        },
        {
            "positions": [
                -0.6530000173883311,
                -0.681918893600391,
                1.5873999485304915,
                1.9187851918932177,
                -1.6568560780977193,
                0.7166416067197356
            ]
        },
        {
            "positions": [
                -0.6077320759606324,
                -0.6733110724631596,
                1.564554736890489,
                1.871562984391085,
                -1.5501226613278103,
                0.8475396430552393
            ]
        },
        {
            "positions": [
                -0.5624641345329336,
                -0.6647032513259282,
                1.5417095252504867,
                1.8243407768889524,
                -1.4433892445579013,
                0.9784376793907431
            ]
        },
        {
            "positions": [
                -0.5171961931052349,
                -0.6560954301886969,
                1.5188643136104842,
                1.7771185693868197,
                -1.336655827787992,
                1.109335715726247
            ]
        },
        {
            "positions": [
                -0.4719282516775361,
                -0.6474876090514654,
                1.496019101970482,
                1.729896361884687,
                -1.229922411018083,
                1.2402337520617506
            ]
        },
        {
            "positions": [
                -0.42666031024983736,
                -0.638879787914234,
                1.4731738903304796,
                1.6826741543825543,
                -1.123188994248174,
                1.3711317883972542
            ]
        },
        {
            "positions": [
                -0.4601483457322287,
                -0.6628705507668937,
                1.5001995207742593,
                1.5567363620231467,
                -1.0437176894873867,
                1.4593200531010702
            ]
        },
        {
            "positions": [
                -0.49363638121462006,
                -0.6868613136195534,
                1.527225151218039,
                1.430798569663739,
                -0.9642463847265993,
                1.547508317804886
            ]
        },
        {
            "positions": [
                -0.5271244166970114,
                -0.7108520764722132,
                1.5542507816618187,
                1.3048607773043315,
                -0.884775079965812,
                1.635696582508702
            ]
        },
        {
            "positions": [
                -0.5606124521794027,
                -0.7348428393248728,
                1.5812764121055984,
                1.1789229849449239,
                -0.8053037752050245,
                1.723884847212518
            ]
        },
        {
            "positions": [
                -0.594100487661794,
                -0.7588336021775325,
                1.6083020425493784,
                1.0529851925855163,
                -0.7258324704442372,
                1.8120731119163338
            ]
        },
        {
            "positions": [
                -0.6275885231441853,
                -0.7828243650301921,
                1.635327672993158,
                0.9270474002261087,
                -0.6463611656834498,
                1.9002613766201497
            ]
        },
        {
            "positions": [
                -0.6610765586265767,
                -0.8068151278828518,
                1.6623533034369378,
                0.8011096078667012,
                -0.5668898609226625,
                1.9884496413239656
            ]
        },
        {
            "positions": [
                -0.694564594108968,
                -0.8308058907355116,
                1.6893789338807175,
                0.6751718155072934,
                -0.4874185561618749,
                2.0766379060277815
            ]
        },
        {
            "positions": [
                -0.7280526295913594,
                -0.8547966535881713,
                1.7164045643244972,
                0.5492340231478858,
                -0.40794725140108756,
                2.1648261707315974
            ]
        },
        {
            "positions": [
                -0.7615406650737506,
                -0.8787874164408309,
                1.7434301947682769,
                0.4232962307884782,
                -0.3284759466403002,
                2.2530144354354134
            ]
        },
        {
            "positions": [
                -0.795028700556142,
                -0.9027781792934906,
                1.7704558252120566,
                0.2973584384290704,
                -0.24900464187951277,
                2.3412027001392293
            ]
        },
        {
            "positions": [
                -0.8285167360385333,
                -0.9267689421461502,
                1.7974814556558363,
                0.171420646069663,
                -0.16953333711872554,
                2.429390964843045
            ]
        },
        {
            "positions": [
                -0.8620047715209247,
                -0.9507597049988099,
                1.824507086099616,
                0.0454828537102554,
                -0.09006203235793797,
                2.517579229546861
            ]
        },
        {
            "positions": [
                -0.8954928070033159,
                -0.9747504678514696,
                1.8515327165433957,
                -0.08045493864915199,
                -0.01059072759715085,
                2.605767494250677
            ]
        },
        {
            "positions": [
                -0.9289808424857073,
                -0.9987412307041293,
                1.8785583469871754,
                -0.20639273100855982,
                0.06888057716363671,
                2.693955758954493
            ]
        },
        {
            "positions": [
                -0.9624688779680988,
                -1.0227319935567891,
                1.9055839774309553,
                -0.3323305233679674,
                0.14835188192442428,
                2.782144023658309
            ]
        },
        {
            "positions": [
                -0.99595691345049,
                -1.0467227564094488,
                1.932609607874735,
                -0.4582683157273748,
                0.2278231866852114,
                2.8703322883621247
            ]
        },
        {
            "positions": [
                -1.0294449489328814,
                -1.0707135192621084,
                1.9596352383185147,
                -0.5842061080867826,
                0.30729449144599896,
                2.9585205530659406
            ]
        },
        {
            "positions": [
                -1.0629329844152726,
                -1.0947042821147681,
                1.9866608687622944,
                -0.71014390044619,
                0.3867657962067861,
                3.0467088177697565
            ]
        },
        {
            "positions": [
                -1.096421019897664,
                -1.1186950449674278,
                2.013686499206074,
                -0.8360816928055979,
                0.46623710096757354,
                3.1348970824735725
            ]
        }
    ]
}