{
    "goal": {
        "global_pose": {
            "orientation": {
                "w": 0.7031023480610252,
                "x": -0.7110244013736278,
                "y": 0.0077485991402295624,
                "z": 0.005598929693374583
            },
            "position": {
                "x": -0.8841497679147869,
                "y": 0.44412534475326537,
                "z": 0.3711530566215515
            }
        },
        "name": "move_to_auspresseinheit_D"
    },
    "id": "PRMstar_move_to_auspresseinheit_D_1",
    "joint_names": [
        "shoulder_pan_joint",
        "shoulder_lift_joint",
        "elbow_joint",
        "wrist_1_joint",
        "wrist_2_joint",
        "wrist_3_joint"
    ],
    "metrics": {
        "cart_traj_len": 0.3436040911630223,
        "distance_elbow_joint": 0.6323822579845515,
        "distance_shoulder_lift_joint": 0.11765069145636664,
        "distance_shoulder_pan_joint": 0.13487032604797158,
        "distance_wrist_1_joint": 0.513210892194512,
        "distance_wrist_2_joint": 1.4351659516352346,
        "distance_wrist_3_joint": 0.016849829960928986,
        "smoothness": 1.1842378991849393e-15,
        "time": 5.002020531,
        "traj_len": 1.6882327888296582,
        "weighted_distance": 2.1982280257132496
    },
    "planner": "PRMstar",
    "start": {
        "state": {
            "elbow_joint": -1.8275523626775212,
            "shoulder_lift_joint": -2.126789852344167,
            "shoulder_pan_joint": -0.03513704404078235,
            "wrist_1_joint": -2.347782403156801,
            "wrist_2_joint": -1.6058999987535132,
            "wrist_3_joint": -3.0880379163319196
        }
    },
    "waypoints": [
        {
            "positions": [
                -0.03513704404078235,
                -2.126789852344167,
                -1.8275523626775212,
                -2.347782403156801,
                -1.6058999987535132,
                -3.0880379163319196
            ]
        },
        {
            "positions": [
                -0.0519958347967788,
                -2.1414961887762125,
                -1.7485045804294523,
                -2.4119337646811148,
                -1.426504254799109,
                -3.0901441450770357
            ]
        },
        {
            "positions": [
                -0.06885462555277524,
                -2.1562025252082586,
                -1.6694567981813833,
                -2.4760851262054286,
                -1.2471085108447046,
                -3.092250373822152
            ]
        },
        {
            "positions": [
                -0.08571341630877169,
                -2.1709088616403043,
                -1.5904090159333144,
                -2.540236487729743,
                -1.0677127668903001,
                -3.094356602567268
            ]
        },
        {
            "positions": [
                -0.10257220706476813,
                -2.18561519807235,
                -1.5113612336852453,
                -2.604387849254057,
                -0.8883170229358959,
                -3.096462831312384
            ]
        },
        {
            "positions": [
                -0.11943099782076458,
                -2.200321534504396,
                -1.4323134514371765,
                -2.6685392107783708,
                -0.7089212789814916,
                -3.0985690600575
            ]
        },
        {
            "positions": [
                -0.13628978857676105,
                -2.2150278709364417,
                -1.3532656691891076,
                -2.732690572302685,
                -0.5295255350270871,
                -3.1006752888026163
            ]
        },
        {
            "positions": [
                -0.1531485793327575,
                -2.229734207368488,
                -1.2742178869410385,
                -2.796841933826999,
                -0.35012979107268283,
                -3.1027815175477325
            ]
        },
        {
            "positions": [
                -0.17000737008875394,
                -2.2444405438005335,
                -1.1951701046929697,
                -2.860993295351313,
                -0.17073404711827855,
                -3.1048877462928486
            ]
        }
    ]
}