{
    "goal": {
        "global_pose": {
            "orientation": {
                "w": 0.005598929693374612,
                "x": 0.007748599140229565,
                "y": 0.7110244013736278,
                "z": -0.7031023480610252
            },
            "position": {
                "x": 0.1141497679147869,
                "y": -0.7141253447532654,
                "z": 0.3711530566215515
            }
        },
        "name": "move_to_auspresseinheit_B"
    },
    "id": "PRMstar_move_to_auspresseinheit_B_18",
    "joint_names": [
        "shoulder_pan_joint",
        "shoulder_lift_joint",
        "elbow_joint",
        "wrist_1_joint",
        "wrist_2_joint",
        "wrist_3_joint"
    ],
    "metrics": {
        "cart_traj_len": 0.5649881845624448,
        "distance_elbow_joint": 0.06000915855198441,
        "distance_shoulder_lift_joint": 0.294509036314901,
        "distance_shoulder_pan_joint": 0.5780119050613044,
        "distance_wrist_1_joint": 0.31663517134204855,
        "distance_wrist_2_joint": 0.9921081409080881,
        "distance_wrist_3_joint": 0.0005205802462060483,
        "smoothness": 2.5376526478085547e-16,
        "time": 5.00925821,
        "traj_len": 1.4972621655623748,
        "weighted_distance": 1.8845632027520547
    },
    "planner": "PRMstar",
    "start": {
        "state": {
            "elbow_joint": 2.0193083361928714,
            "shoulder_lift_joint": -1.1220246554650708,
            "shoulder_pan_joint": -1.0952077554168747,
            "wrist_1_joint": -0.8559753972642168,
            "wrist_2_joint": 0.4759566250798843,
            "wrist_3_joint": -3.1240929996934557
        }
    },
    "waypoints": [
        {
            "positions": [
                -1.0952077554168747,
                -1.1220246554650708,
                2.0193083361928714,
                -0.8559753972642168,
                0.4759566250798843,
                -3.1240929996934557
            ]
        },
        {
            "positions": [
                -1.1915430729270922,
                -1.1711094948508876,
                2.0093068097675406,
                -0.8032028687072087,
                0.641307981897899,
                -3.124006236319088
            ]
        },
        {
            "positions": [
                -1.2878783904373095,
                -1.2201943342367045,
                1.99930528334221,
                -0.7504303401502006,
                0.8066593387159136,
                -3.12391947294472
            ]
        },
        {
            "positions": [
                -1.3842137079475267,
                -1.2692791736225213,
                1.9893037569168792,
                -0.6976578115931925,
                0.9720106955339283,
                -3.123832709570353
            ]
        },
        {
            "positions": [
                -1.4805490254577442,
                -1.318364013008338,
                1.9793022304915484,
                -0.6448852830361844,
                1.137362052351943,
                -3.123745946195985
            ]
        },
        {
            "positions": [
                -1.5768843429679618,
                -1.367448852394155,
                1.9693007040662178,
                -0.5921127544791763,
                1.3027134091699577,
                -3.1236591828216174
            ]
        },
        {
            "positions": [
                -1.673219660478179,
                -1.4165336917799718,
                1.959299177640887,
                -0.5393402259221682,
                1.4680647659879724,
                -3.1235724194472496
            ]
        }
    ]
}