{
    "goal": {
        "global_pose": {
            "orientation": {
                "w": 0.7031023502349854,
                "x": -0.7110244035720825,
                "y": 0.007748599164187908,
                "z": 0.005598929710686207
            },
            "position": {
                "x": 0.11585023208521307,
                "y": 0.44412534475326537,
                "z": 0.3711530566215515
            }
        },
        "name": "move_to_auspresseinheit_A"
    },
    "id": "PRMstar_move_to_auspresseinheit_A_13",
    "joint_names": [
        "shoulder_pan_joint",
        "shoulder_lift_joint",
        "elbow_joint",
        "wrist_1_joint",
        "wrist_2_joint",
        "wrist_3_joint"
    ],
    "metrics": {
        "cart_traj_len": 0.7275394487636023,
        "distance_elbow_joint": 0.04667615609528308,
        "distance_shoulder_lift_joint": 0.5382099819249815,
        "distance_shoulder_pan_joint": 1.0443880182192107,
        "distance_wrist_1_joint": 0.5722896390818764,
        "distance_wrist_2_joint": 0.5159169075704647,
        "distance_wrist_3_joint": 0.9397956394074551,
        "smoothness": 0.5454439860644196,
        "time": 5.012178068,
        "traj_len": 1.9124006751461031,
        "weighted_distance": 2.57392194282704
    },
    "planner": "PRMstar",
    "start": {
        "state": {
            "elbow_joint": 2.4225746658250005,
            "shoulder_lift_joint": -1.3736534386056498,
            "shoulder_pan_joint": -0.3378633547517467,
            "wrist_1_joint": -1.0288598680537169,
            "wrist_2_joint": 1.233022673432363,
            "wrist_3_joint": -3.0940220416140027
        }
    },
    "waypoints": [
        {
            "positions": [
                -0.3378633547517467,
                -1.3736534386056498,
                2.4225746658250005,
                -1.0288598680537169,
                1.233022673432363,
                -3.0940220416140027
            ]
        },
        {
            "positions": [
                -0.20812296789796575,
                -1.424469049642156,
                2.4239858272798465,
                -0.959033467845731,
                1.172827268830308,
                -3.0368061483917463
            ]
        },
        {
            "positions": [
                -0.07838258104418477,
                -1.475284660678662,
                2.425396988734693,
                -0.889207067637745,
                1.1126318642282533,
                -2.9795902551694904
            ]
        },
        {
            "positions": [
                0.0513578058095962,
                -1.5261002717151682,
                2.4268081501895393,
                -0.8193806674297591,
                1.0524364596261984,
                -2.9223743619472344
            ]
        },
        {
            "positions": [
                0.18109819266337718,
                -1.5769158827516743,
                2.4282193116443853,
                -0.7495542672217732,
                0.9922410550241435,
                -2.865158468724978
            ]
        },
        {
            "positions": [
                0.31083857951715815,
                -1.6277314937881804,
                2.4296304730992313,
                -0.6797278670137873,
                0.9320456504220886,
                -2.8079425755027216
            ]
        },
        {
            "positions": [
                0.44057896637093913,
                -1.6785471048246865,
                2.4310416345540777,
                -0.6099014668058014,
                0.8718502458200337,
                -2.7507266822804657
            ]
        },
        {
            "positions": [
                0.5703193532247202,
                -1.7293627158611926,
                2.432452796008924,
                -0.5400750665978155,
                0.8116548412179788,
                -2.6935107890582097
            ]
        },
        {
            "positions": [
                0.7000597400785011,
                -1.7801783268976987,
                2.43386395746377,
                -0.47024866638982954,
                0.751459436615924,
                -2.6362948958359533
            ]
        },
        {
            "positions": [
                0.7032922017729825,
                -1.846020873714165,
                2.4161705252355135,
                -0.477087885098824,
                0.7342826012389112,
                -2.877329142650656
            ]
        },
        {
            "positions": [
                0.7065246634674638,
                -1.9118634205306313,
                2.3984770930072568,
                -0.48392710380781845,
                0.7171057658618983,
                -3.118363389465359
            ]
        }
    ]
}