{
    "goal": {
        "global_pose": {
            "orientation": {
                "w": 0.005598929693374612,
                "x": 0.007748599140229565,
                "y": 0.7110244013736278,
                "z": -0.7031023480610252
            },
            "position": {
                "x": -0.8858502320852131,
                "y": -0.7141253447532654,
                "z": 0.3711530566215515
            }
        },
        "name": "move_to_auspresseinheit_C"
    },
    "id": "PRMstar_move_to_auspresseinheit_C_32",
    "joint_names": [
        "shoulder_pan_joint",
        "shoulder_lift_joint",
        "elbow_joint",
        "wrist_1_joint",
        "wrist_2_joint",
        "wrist_3_joint"
    ],
    "metrics": {
        "cart_traj_len": 0.4917829079649526,
        "distance_elbow_joint": 0.9896355847772942,
        "distance_shoulder_lift_joint": 0.3203964014998444,
        "distance_shoulder_pan_joint": 0.2553958728871031,
        "distance_wrist_1_joint": 0.6545259121951112,
        "distance_wrist_2_joint": 1.3142839013170449,
        "distance_wrist_3_joint": 0.051895111503223124,
        "smoothness": 6.45947944157498e-16,
        "time": 5.001843454,
        "traj_len": 1.8937087379477398,
        "weighted_distance": 2.378809118171995
    },
    "planner": "PRMstar",
    "start": {
        "state": {
            "elbow_joint": 1.7527959577737207,
            "shoulder_lift_joint": -0.9740617694225068,
            "shoulder_pan_joint": -2.967991417825858,
            "wrist_1_joint": -0.759517768980727,
            "wrist_2_joint": 1.7443932448377408,
            "wrist_3_joint": -3.0840537646736568
        }
    },
    "waypoints": [
        {
            "positions": [
                -2.967991417825858,
                -0.9740617694225068,
                1.7527959577737207,
                -0.759517768980727,
                1.7443932448377408,
                -3.0840537646736568
            ]
        },
        {
            "positions": [
                -2.9424518305371477,
                -0.9420221292725224,
                1.6538323992959914,
                -0.6940651777612159,
                1.6129648547060365,
                -3.089243275823979
            ]
        },
        {
            "positions": [
                -2.9169122432484373,
                -0.9099824891225379,
                1.5548688408182618,
                -0.6286125865417047,
                1.4815364645743319,
                -3.0944327869743016
            ]
        },
        {
            "positions": [
                -2.891372655959727,
                -0.8779428489725535,
                1.4559052823405323,
                -0.5631599953221936,
                1.3501080744426273,
                -3.0996222981246238
            ]
        },
        {
            "positions": [
                -2.8658330686710167,
                -0.845903208822569,
                1.356941723862803,
                -0.4977074041026825,
                1.2186796843109229,
                -3.104811809274946
            ]
        },
        {
            "positions": [
                -2.8402934813823064,
                -0.8138635686725846,
                1.2579781653850737,
                -0.43225481288317136,
                1.0872512941792185,
                -3.110001320425268
            ]
        },
        {
            "positions": [
                -2.814753894093596,
                -0.7818239285226002,
                1.1590146069073441,
                -0.3668022216636602,
                0.9558229040475139,
                -3.1151908315755907
            ]
        },
        {
            "positions": [
                -2.789214306804886,
                -0.7497842883726157,
                1.0600510484296146,
                -0.30134963044414914,
                0.8243945139158095,
                -3.120380342725913
            ]
        },
        {
            "positions": [
                -2.7636747195161755,
                -0.7177446482226313,
                0.9610874899518853,
                -0.235897039224638,
                0.6929661237841049,
                -3.125569853876235
            ]
        },
        {
            "positions": [
                -2.738135132227465,
                -0.6857050080726468,
                0.8621239314741559,
                -0.17044444800512681,
                0.5615377336524003,
                -3.1307593650265577
            ]
        },
        {
            "positions": [
                -2.712595544938755,
                -0.6536653679226624,
                0.7631603729964265,
                -0.1049918567856157,
                0.4301093435206959,
                -3.13594887617688
            ]
        }
    ]
}