{
    "goal": {
        "global_pose": {
            "orientation": {
                "w": 0.005598929693374612,
                "x": 0.007748599140229565,
                "y": 0.7110244013736278,
                "z": -0.7031023480610252
            },
            "position": {
                "x": -0.8858502320852131,
                "y": -0.7141253447532654,
                "z": 0.3711530566215515
            }
        },
        "name": "move_to_auspresseinheit_C"
    },
    "id": "PRMstar_move_to_auspresseinheit_C_139",
    "joint_names": [
        "shoulder_pan_joint",
        "shoulder_lift_joint",
        "elbow_joint",
        "wrist_1_joint",
        "wrist_2_joint",
        "wrist_3_joint"
    ],
    "metrics": {
        "cart_traj_len": 0.49207189078058483,
        "distance_elbow_joint": 0.9896477421001334,
        "distance_shoulder_lift_joint": 0.3206100059309567,
        "distance_shoulder_pan_joint": 0.2563830717247102,
        "distance_wrist_1_joint": 0.6591986451348321,
        "distance_wrist_2_joint": 1.3042416665058676,
        "distance_wrist_3_joint": 0.049355181684984206,
        "smoothness": 8.074349282788172e-16,
        "time": 5.0036704919999995,
        "traj_len": 1.891939828081613,
        "weighted_distance": 2.3752025151746854
    },
    "planner": "PRMstar",
    "start": {
        "state": {
            "elbow_joint": 1.7527959577737207,
            "shoulder_lift_joint": -0.9740617694225068,
            "shoulder_pan_joint": -2.967991417825858,
            "wrist_1_joint": -0.759517768980727,
            "wrist_2_joint": 1.7443932448377408,
            "wrist_3_joint": -3.0840537646736568
        }
    },
    "waypoints": [
        {
            "positions": [
                -2.967991417825858,
                -0.9740617694225068,
                1.7527959577737207,
                -0.759517768980727,
                1.7443932448377408,
                -3.0840537646736568
            ]
        },
        {
            "positions": [
                -2.942353110653387,
                -0.9420007688294111,
                1.6538311835637074,
                -0.6935979044672438,
                1.613969078187154,
                -3.0889892828421552
            ]
        },
        {
            "positions": [
                -2.916714803480916,
                -0.9099397682363154,
                1.554866409353694,
                -0.6276780399537606,
                1.4835449115365673,
                -3.0939248010106537
            ]
        },
        {
            "positions": [
                -2.891076496308445,
                -0.8778787676432198,
                1.4559016351436807,
                -0.5617581754402774,
                1.3531207448859806,
                -3.098860319179152
            ]
        },
        {
            "positions": [
                -2.8654381891359737,
                -0.8458177670501241,
                1.3569368609336672,
                -0.49583831092679415,
                1.2226965782353938,
                -3.1037958373476506
            ]
        },
        {
            "positions": [
                -2.839799881963503,
                -0.8137567664570284,
                1.257972086723654,
                -0.42991844641331095,
                1.092272411584807,
                -3.1087313555161487
            ]
        },
        {
            "positions": [
                -2.814161574791032,
                -0.7816957658639327,
                1.1590073125136406,
                -0.36399858189982776,
                0.9618482449342203,
                -3.113666873684647
            ]
        },
        {
            "positions": [
                -2.7885232676185607,
                -0.7496347652708371,
                1.0600425383036272,
                -0.29807871738634456,
                0.8314240782836336,
                -3.1186023918531456
            ]
        },
        {
            "positions": [
                -2.76288496044609,
                -0.7175737646777414,
                0.9610777640936139,
                -0.2321588528728613,
                0.7009999116330468,
                -3.123537910021644
            ]
        },
        {
            "positions": [
                -2.7372466532736186,
                -0.6855127640846457,
                0.8621129898836006,
                -0.16623898835937811,
                0.57057574498246,
                -3.1284734281901425
            ]
        },
        {
            "positions": [
                -2.7116083461011478,
                -0.6534517634915501,
                0.7631482156735873,
                -0.10031912384589496,
                0.4401515783318732,
                -3.133408946358641
            ]
        }
    ]
}