{
    "goal": {
        "global_pose": {
            "orientation": {
                "w": 0.7031023502349854,
                "x": -0.7110244035720825,
                "y": 0.007748599164187908,
                "z": 0.005598929710686207
            },
            "position": {
                "x": 0.11585023208521307,
                "y": 0.44412534475326537,
                "z": 0.3711530566215515
            }
        },
        "name": "move_to_auspresseinheit_A"
    },
    "id": "PRMstar_move_to_auspresseinheit_A_143",
    "joint_names": [
        "shoulder_pan_joint",
        "shoulder_lift_joint",
        "elbow_joint",
        "wrist_1_joint",
        "wrist_2_joint",
        "wrist_3_joint"
    ],
    "metrics": {
        "cart_traj_len": 0.6972575301155303,
        "distance_elbow_joint": 0.024434300478414883,
        "distance_shoulder_lift_joint": 0.6361603290600584,
        "distance_shoulder_pan_joint": 1.0456800275240044,
        "distance_wrist_1_joint": 0.5492879835888863,
        "distance_wrist_2_joint": 0.5176978427873158,
        "distance_wrist_3_joint": 0.34329459733799306,
        "smoothness": 0.42224562131827026,
        "time": 5.013488234,
        "traj_len": 1.7653767532106774,
        "weighted_distance": 2.2068371262575903
    },
    "planner": "PRMstar",
    "start": {
        "state": {
            "elbow_joint": 2.4225746658250005,
            "shoulder_lift_joint": -1.3736534386056498,
            "shoulder_pan_joint": -0.3378633547517467,
            "wrist_1_joint": -1.0288598680537169,
            "wrist_2_joint": 1.233022673432363,
            "wrist_3_joint": -3.0940220416140027
        }
    },
    "waypoints": [
        {
            "positions": [
                -0.3378633547517467,
                -1.3736534386056498,
                2.4225746658250005,
                -1.0288598680537169,
                1.233022673432363,
                -3.0940220416140027
            ]
        },
        {
            "positions": [
                -0.22829588701766848,
                -1.4910848847039269,
                2.4215306457166474,
                -0.9444228980289912,
                1.1909964897624394,
                -3.0629998687427973
            ]
        },
        {
            "positions": [
                -0.11872841928359024,
                -1.608516330802204,
                2.4204866256082944,
                -0.8599859280042654,
                1.1489703060925158,
                -3.031977695871592
            ]
        },
        {
            "positions": [
                -0.00916095154951202,
                -1.725947776900481,
                2.419442605499941,
                -0.7755489579795396,
                1.1069441224225924,
                -3.0009555230003864
            ]
        },
        {
            "positions": [
                0.10040651618456625,
                -1.843379222998758,
                2.418398585391588,
                -0.6911119879548139,
                1.0649179387526688,
                -2.969933350129181
            ]
        },
        {
            "positions": [
                0.20997398391864452,
                -1.960810669097035,
                2.417354565283235,
                -0.6066750179300882,
                1.0228917550827452,
                -2.9389111772579755
            ]
        },
        {
            "positions": [
                0.3344346561320478,
                -1.9485598944548668,
                2.412551015299073,
                -0.5748992345637738,
                0.9460000239733207,
                -2.985957110503467
            ]
        },
        {
            "positions": [
                0.4588953283454511,
                -1.9363091198126985,
                2.4077474653149102,
                -0.5431234511974594,
                0.8691082928638962,
                -3.033003043748958
            ]
        },
        {
            "positions": [
                0.5833560005588544,
                -1.9240583451705302,
                2.4029439153307477,
                -0.5113476678311449,
                0.7922165617544717,
                -3.08004897699445
            ]
        },
        {
            "positions": [
                0.7078166727722577,
                -1.911807570528362,
                2.3981403653465856,
                -0.47957188446483057,
                0.7153248306450473,
                -3.1270949102399412
            ]
        }
    ]
}