{
    "goal": {
        "global_pose": {
            "orientation": {
                "w": 0.7047431493862688,
                "x": -0.7094548369677653,
                "y": 0.0024358444001904,
                "z": -0.0022348060817251984
            },
            "position": {
                "x": -0.39052492380142206,
                "y": 0.3671506643295288,
                "z": 0.19426114857196808
            }
        },
        "name": "move_to_magneteinheit_D"
    },
    "id": "PRMstar_move_to_magneteinheit_D_131",
    "joint_names": [
        "shoulder_pan_joint",
        "shoulder_lift_joint",
        "elbow_joint",
        "wrist_1_joint",
        "wrist_2_joint",
        "wrist_3_joint"
    ],
    "metrics": {
        "cart_traj_len": 4.446183593057245,
        "distance_elbow_joint": 3.8259373267998127,
        "distance_shoulder_lift_joint": 1.404912695578539,
        "distance_shoulder_pan_joint": 3.3863918620530424,
        "distance_wrist_1_joint": 2.343928875309652,
        "distance_wrist_2_joint": 1.574643431110405,
        "distance_wrist_3_joint": 6.653930615355614,
        "smoothness": 0.7445706185687168,
        "time": 5.087542513,
        "traj_len": 4.3806100952044416,
        "weighted_distance": 6.034581869801615
    },
    "planner": "PRMstar",
    "start": {
        "state": {
            "elbow_joint": 0.749534889911806,
            "shoulder_lift_joint": -0.6476975780787326,
            "shoulder_pan_joint": -2.711696901376241,
            "wrist_1_joint": -0.07506478083263063,
            "wrist_2_joint": 0.43296659715538205,
            "wrist_3_joint": -3.14703540197715
        }
    },
    "waypoints": [
        {
            "positions": [
                -2.711696901376241,
                -0.6476975780787326,
                0.749534889911806,
                -0.07506478083263063,
                0.43296659715538205,
                -3.14703540197715
            ]
        },
        {
            "positions": [
                -2.787583794184206,
                -0.6513761980477207,
                0.6475466220133088,
                -0.0452106205249533,
                0.5363832302258357,
                -3.206259058565503
            ]
        },
        {
            "positions": [
                -2.863470686992171,
                -0.655054818016709,
                0.5455583541148117,
                -0.015356460217275977,
                0.6397998632962892,
                -3.2654827151538552
            ]
        },
        {
            "positions": [
                -2.939357579800136,
                -0.6587334379856971,
                0.44357008621631444,
                0.014497700090401355,
                0.7432164963667428,
                -3.324706371742208
            ]
        },
        {
            "positions": [
                -2.871361473261564,
                -0.6719221498393019,
                0.347154738037274,
                -0.033885673408063435,
                0.7265477135189021,
                -3.1802925722244577
            ]
        },
        {
            "positions": [
                -2.8033653667229923,
                -0.6851108616929067,
                0.2507393898582335,
                -0.08226904690652823,
                0.7098789306710614,
                -3.035878772706707
            ]
        },
        {
            "positions": [
                -2.73536926018442,
                -0.6982995735465115,
                0.15432404167919306,
                -0.13065242040499303,
                0.6932101478232207,
                -2.891464973188956
            ]
        },
        {
            "positions": [
                -2.6673731536458485,
                -0.7114882854001163,
                0.05790869350015265,
                -0.1790357939034578,
                0.67654136497538,
                -2.7470511736712058
            ]
        },
        {
            "positions": [
                -2.5993770471072764,
                -0.7246769972537213,
                -0.03850665467888781,
                -0.22741916740192258,
                0.6598725821275393,
                -2.6026373741534554
            ]
        },
        {
            "positions": [
                -2.531380940568704,
                -0.7378657091073261,
                -0.13492200285792832,
                -0.2758025409003874,
                0.6432037992796986,
                -2.4582235746357046
            ]
        },
        {
            "positions": [
                -2.4633848340301325,
                -0.7510544209609309,
                -0.23133735103696873,
                -0.3241859143988522,
                0.6265350164318579,
                -2.313809775117954
            ]
        },
        {
            "positions": [
                -2.3953887274915604,
                -0.7642431328145357,
                -0.32775269921600914,
                -0.37256928789731697,
                0.6098662335840173,
                -2.169395975600204
            ]
        },
        {
            "positions": [
                -2.3273926209529887,
                -0.7774318446681405,
                -0.42416804739504954,
                -0.42095266139578175,
                0.5931974507361766,
                -2.024982176082453
            ]
        },
        {
            "positions": [
                -2.2593965144144166,
                -0.7906205565217453,
                -0.5205833955740901,
                -0.4693360348942465,
                0.5765286678883359,
                -1.8805683765647025
            ]
        },
        {
            "positions": [
                -2.191400407875845,
                -0.8038092683753502,
                -0.6169987437531305,
                -0.5177194083927112,
                0.5598598850404951,
                -1.736154577046952
            ]
        },
        {
            "positions": [
                -2.1234043013372728,
                -0.8169979802289551,
                -0.7134140919321711,
                -0.5661027818911761,
                0.5431911021926544,
                -1.5917407775292012
            ]
        },
        {
            "positions": [
                -2.0554081947987006,
                -0.8301866920825599,
                -0.8098294401112115,
                -0.614486155389641,
                0.5265223193448137,
                -1.4473269780114508
            ]
        },
        {
            "positions": [
                -1.9874120882601287,
                -0.8433754039361647,
                -0.9062447882902519,
                -0.6628695288881057,
                0.5098535364969731,
                -1.3029131784937
            ]
        },
        {
            "positions": [
                -1.9194159817215568,
                -0.8565641157897695,
                -1.0026601364692924,
                -0.7112529023865706,
                0.49318475364913233,
                -1.1584993789759497
            ]
        },
        {
            "positions": [
                -1.851419875182985,
                -0.8697528276433744,
                -1.0990754846483326,
                -0.7596362758850352,
                0.47651597080129166,
                -1.0140855794581993
            ]
        },
        {
            "positions": [
                -1.783423768644413,
                -0.8829415394969792,
                -1.1954908328273732,
                -0.8080196493835001,
                0.4598471879534509,
                -0.8696717799404485
            ]
        },
        {
            "positions": [
                -1.715427662105841,
                -0.896130251350584,
                -1.2919061810064134,
                -0.8564030228819648,
                0.44317840510561024,
                -0.7252579804226982
            ]
        },
        {
            "positions": [
                -1.647431555567269,
                -0.9093189632041889,
                -1.388321529185454,
                -0.9047863963804297,
                0.42650962225776956,
                -0.5808441809049474
            ]
        },
        {
            "positions": [
                -1.579435449028697,
                -0.9225076750577936,
                -1.4847368773644947,
                -0.9531697698788943,
                0.4098408394099289,
                -0.43643038138719703
            ]
        },
        {
            "positions": [
                -1.5114393424901251,
                -0.9356963869113986,
                -1.5811522255435349,
                -1.0015531433773592,
                0.39317205656208815,
                -0.2920165818694467
            ]
        },
        {
            "positions": [
                -1.4434432359515532,
                -0.9488850987650033,
                -1.6775675737225755,
                -1.049936516875824,
                0.37650327371424747,
                -0.14760278235169588
            ]
        },
        {
            "positions": [
                -1.375447129412981,
                -0.9620738106186082,
                -1.773982921901616,
                -1.0983198903742888,
                0.35983449086640673,
                -0.0031889828339450865
            ]
        },
        {
            "positions": [
                -1.3074510228744092,
                -0.9752625224722131,
                -1.8703982700806567,
                -1.1467032638727537,
                0.34316570801856605,
                0.1412248166838057
            ]
        },
        {
            "positions": [
                -1.2394549163358373,
                -0.9884512343258178,
                -1.966813618259697,
                -1.1950866373712183,
                0.3264969251707253,
                0.28563861620155606
            ]
        },
        {
            "positions": [
                -1.1714588097972654,
                -1.0016399461794228,
                -2.0632289664387375,
                -1.2434700108696832,
                0.30982814232288464,
                0.4300524157193064
            ]
        },
        {
            "positions": [
                -1.1034627032586932,
                -1.0148286580330275,
                -2.1596443146177777,
                -1.291853384368148,
                0.29315935947504396,
                0.5744662152370572
            ]
        },
        {
            "positions": [
                -1.0354665967201213,
                -1.0280173698866324,
                -2.2560596627968184,
                -1.3402367578666128,
                0.2764905766272033,
                0.718880014754808
            ]
        },
        {
            "positions": [
                -0.9674704901815494,
                -1.041206081740237,
                -2.3524750109758585,
                -1.3886201313650774,
                0.25982179377936254,
                0.8632938142725579
            ]
        },
        {
            "positions": [
                -0.8994743836429776,
                -1.054394793593842,
                -2.448890359154899,
                -1.4370035048635423,
                0.24315301093152186,
                1.0077076137903092
            ]
        },
        {
            "positions": [
                -0.8210712391009771,
                -1.1016234124125697,
                -2.4575181298546247,
                -1.4766134806555078,
                0.22708847663679713,
                1.1889391735160286
            ]
        },
        {
            "positions": [
                -0.7426680945589765,
                -1.1488520312312973,
                -2.4661459005543502,
                -1.516223456447473,
                0.2110239423420724,
                1.3701707332417479
            ]
        },
        {
            "positions": [
                -0.664264950016976,
                -1.196080650050025,
                -2.474773671254076,
                -1.5558334322394385,
                0.19495940804734765,
                1.5514022929674671
            ]
        },
        {
            "positions": [
                -0.5858618054749755,
                -1.2433092688687526,
                -2.4834014419538017,
                -1.5954434080314037,
                0.17889487375262292,
                1.7326338526931866
            ]
        },
        {
            "positions": [
                -0.507458660932975,
                -1.2905378876874802,
                -2.4920292126535273,
                -1.6350533838233692,
                0.16283033945789818,
                1.913865412418906
            ]
        },
        {
            "positions": [
                -0.4290555163909745,
                -1.3377665065062079,
                -2.500656983353253,
                -1.6746633596153346,
                0.14676580516317345,
                2.095096972144625
            ]
        },
        {
            "positions": [
                -0.350652371848974,
                -1.3849951253249355,
                -2.5092847540529784,
                -1.7142733354072999,
                0.13070127086844874,
                2.2763285318703446
            ]
        },
        {
            "positions": [
                -0.2722492273069733,
                -1.4322237441436632,
                -2.5179125247527043,
                -1.7538833111992653,
                0.11463673657372397,
                2.457560091596064
            ]
        },
        {
            "positions": [
                -0.19384608276497284,
                -1.4794523629623908,
                -2.52654029545243,
                -1.7934932869912306,
                0.09857220227899924,
                2.6387916513217835
            ]
        },
        {
            "positions": [
                -0.11544293822297233,
                -1.5266809817811184,
                -2.5351680661521554,
                -1.833103262783196,
                0.08250766798427449,
                2.820023211047503
            ]
        },
        {
            "positions": [
                -0.08235445010402737,
                -1.4880065884853506,
                -2.4458643652273855,
                -1.9283809374471428,
                0.12432448716894101,
                2.8612320034453673
            ]
        },
        {
            "positions": [
                -0.049265961985082415,
                -1.4493321951895826,
                -2.356560664302616,
                -2.023658612111089,
                0.16614130635360752,
                2.9024407958432317
            ]
        },
        {
            "positions": [
                -0.016177473866137465,
                -1.4106578018938145,
                -2.2672569633778465,
                -2.118936286775036,
                0.20795812553827409,
                2.943649588241096
            ]
        },
        {
            "positions": [
                0.0169110142528075,
                -1.3719834085980467,
                -2.1779532624530766,
                -2.2142139614389826,
                0.2497749447229406,
                2.9848583806389604
            ]
        },
        {
            "positions": [
                -0.03370463314124391,
                -1.4647913382713171,
                -2.2239581542122697,
                -2.2078002782246737,
                0.1406705880284631,
                3.0265321039413076
            ]
        },
        {
            "positions": [
                -0.08432028053529532,
                -1.5575992679445874,
                -2.269963045971463,
                -2.201386595010365,
                0.03156623133398562,
                3.0682058272436548
            ]
        },
        {
            "positions": [
                -0.13493592792934672,
                -1.6504071976178576,
                -2.3159679377306563,
                -2.1949729117960555,
                -0.07753812536049187,
                3.1098795505460024
            ]
        },
        {
            "positions": [
                -0.18555157532339814,
                -1.743215127291128,
                -2.3619728294898494,
                -2.1885592285817466,
                -0.1866424820549694,
                3.1515532738483496
            ]
        }
    ]
}