{
    "goal": {
        "global_pose": {
            "orientation": {
                "w": -0.4816463035849501,
                "x": 0.5182115481033762,
                "y": 0.4908360881923453,
                "z": -0.5084816262002911
            },
            "position": {
                "x": -0.8240239810943604,
                "y": 0.19912469901144506,
                "z": 0.16403168439865112
            }
        },
        "name": "move_to_storage_D"
    },
    "id": "PRMstar_move_to_storage_D_80",
    "joint_names": [
        "shoulder_pan_joint",
        "shoulder_lift_joint",
        "elbow_joint",
        "wrist_1_joint",
        "wrist_2_joint",
        "wrist_3_joint"
    ],
    "metrics": {
        "cart_traj_len": 3.8884219428297975,
        "distance_elbow_joint": 4.209783298492313,
        "distance_shoulder_lift_joint": 1.265841827509148,
        "distance_shoulder_pan_joint": 2.8131412340256468,
        "distance_wrist_1_joint": 2.276283664649297,
        "distance_wrist_2_joint": 0.8708079224971176,
        "distance_wrist_3_joint": 3.138827621364957,
        "smoothness": 2.7328566976399815e-16,
        "time": 5.065540474,
        "traj_len": 3.8176806530324767,
        "weighted_distance": 4.898921554629632
    },
    "planner": "PRMstar",
    "start": {
        "state": {
            "elbow_joint": -2.384821988534728,
            "shoulder_lift_joint": -2.2788054721415256,
            "shoulder_pan_joint": -0.1854694642142757,
            "wrist_1_joint": 1.4845938289331202,
            "wrist_2_joint": 0.17898776772866878,
            "wrist_3_joint": 0.037105688729662994
        }
    },
    "waypoints": [
        {
            "positions": [
                -0.1854694642142757,
                -2.2788054721415256,
                -2.384821988534728,
                1.4845938289331202,
                0.17898776772866878,
                0.037105688729662994
            ]
        },
        {
            "positions": [
                -0.07301918720950412,
                -2.2320387472162952,
                -2.319363957132293,
                1.4667067654839716,
                0.21778993274362207,
                -0.06940867332123614
            ]
        },
        {
            "positions": [
                0.039431089795267465,
                -2.185272022291065,
                -2.253905925729858,
                1.448819702034823,
                0.2565920977585754,
                -0.17592303537213527
            ]
        },
        {
            "positions": [
                0.15188136680003908,
                -2.1385052973658345,
                -2.1884478943274233,
                1.4309326385856744,
                0.2953942627735287,
                -0.2824373974230344
            ]
        },
        {
            "positions": [
                0.26433164380481067,
                -2.0917385724406046,
                -2.1229898629249884,
                1.413045575136526,
                0.334196427788482,
                -0.38895175947393357
            ]
        },
        {
            "positions": [
                0.3767819208095823,
                -2.044971847515374,
                -2.0575318315225535,
                1.3951585116873775,
                0.3729985928034353,
                -0.4954661215248326
            ]
        },
        {
            "positions": [
                0.4892321978143539,
                -1.9982051225901438,
                -1.9920738001201184,
                1.377271448238229,
                0.41180075781838865,
                -0.6019804835757319
            ]
        },
        {
            "positions": [
                0.6016824748191255,
                -1.9514383976649134,
                -1.9266157687176835,
                1.3593843847890803,
                0.4506029228333419,
                -0.708494845626631
            ]
        },
        {
            "positions": [
                0.714132751823897,
                -1.9046716727396833,
                -1.8611577373152486,
                1.3414973213399317,
                0.4894050878482952,
                -0.81500920767753
            ]
        },
        {
            "positions": [
                0.8265830288286685,
                -1.857904947814453,
                -1.7956997059128137,
                1.3236102578907831,
                0.5282072528632485,
                -0.9215235697284292
            ]
        },
        {
            "positions": [
                0.9390333058334402,
                -1.8111382228892228,
                -1.7302416745103788,
                1.3057231944416345,
                0.5670094178782018,
                -1.0280379317793282
            ]
        },
        {
            "positions": [
                1.0514835828382116,
                -1.7643714979639924,
                -1.664783643107944,
                1.2878361309924862,
                0.6058115828931551,
                -1.1345522938302275
            ]
        },
        {
            "positions": [
                1.1639338598429834,
                -1.717604773038762,
                -1.5993256117055088,
                1.2699490675433376,
                0.6446137479081084,
                -1.2410666558811267
            ]
        },
        {
            "positions": [
                1.2763841368477549,
                -1.6708380481135316,
                -1.533867580303074,
                1.252062004094189,
                0.6834159129230617,
                -1.3475810179320258
            ]
        },
        {
            "positions": [
                1.3888344138525266,
                -1.6240713231883013,
                -1.468409548900639,
                1.2341749406450404,
                0.7222180779380151,
                -1.454095379982925
            ]
        },
        {
            "positions": [
                1.501284690857298,
                -1.5773045982630711,
                -1.4029515174982041,
                1.2162878771958918,
                0.7610202429529683,
                -1.560609742033824
            ]
        },
        {
            "positions": [
                1.550258042116171,
                -1.5527680350617366,
                -1.2626074815218655,
                1.128984498373628,
                0.7735756971822213,
                -1.627614619886062
            ]
        },
        {
            "positions": [
                1.5992313933750435,
                -1.5282314718604022,
                -1.1222634455455267,
                1.041681119551364,
                0.7861311514114743,
                -1.6946194977382998
            ]
        },
        {
            "positions": [
                1.6482047446339163,
                -1.5036949086590676,
                -0.981919409569188,
                0.9543777407291003,
                0.7986866056407272,
                -1.7616243755905376
            ]
        },
        {
            "positions": [
                1.6971780958927891,
                -1.479158345457733,
                -0.8415753735928493,
                0.8670743619068364,
                0.8112420598699801,
                -1.8286292534427753
            ]
        },
        {
            "positions": [
                1.746151447151662,
                -1.4546217822563987,
                -0.7012313376165106,
                0.7797709830845725,
                0.8237975140992331,
                -1.8956341312950131
            ]
        },
        {
            "positions": [
                1.7951247984105345,
                -1.4300852190550641,
                -0.5608873016401719,
                0.6924676042623087,
                0.836352968328486,
                -1.962639009147251
            ]
        },
        {
            "positions": [
                1.8440981496694073,
                -1.4055486558537296,
                -0.42054326566383304,
                0.6051642254400448,
                0.848908422557739,
                -2.029643886999489
            ]
        },
        {
            "positions": [
                1.8930715009282801,
                -1.3810120926523952,
                -0.28019922968749444,
                0.517860846617781,
                0.861463876786992,
                -2.0966487648517265
            ]
        },
        {
            "positions": [
                1.942044852187153,
                -1.3564755294510606,
                -0.13985519371115562,
                0.43055746779551707,
                0.874019331016245,
                -2.1636536427039643
            ]
        },
        {
            "positions": [
                1.9910182034460255,
                -1.331938966249726,
                0.000488842265182976,
                0.34325408897325327,
                0.8865747852454979,
                -2.230658520556202
            ]
        },
        {
            "positions": [
                2.0399915547048986,
                -1.3074024030483915,
                0.1408328782415218,
                0.25595071015098936,
                0.8991302394747509,
                -2.29766339840844
            ]
        },
        {
            "positions": [
                2.0889649059637714,
                -1.2828658398470572,
                0.2811769142178604,
                0.16864733132872556,
                0.9116856937040039,
                -2.364668276260678
            ]
        },
        {
            "positions": [
                2.1379382572226437,
                -1.2583292766457226,
                0.421520950194199,
                0.08134395250646165,
                0.9242411479332567,
                -2.4316731541129157
            ]
        },
        {
            "positions": [
                2.1869116084815166,
                -1.233792713444388,
                0.561864986170538,
                -0.005959426315802263,
                0.9367966021625097,
                -2.4986780319651536
            ]
        },
        {
            "positions": [
                2.2358849597403894,
                -1.2092561502430534,
                0.7022090221468766,
                -0.09326280513806617,
                0.9493520563917627,
                -2.565682909817391
            ]
        },
        {
            "positions": [
                2.284858310999262,
                -1.184719587041719,
                0.8425530581232152,
                -0.18056618396032986,
                0.9619075106210156,
                -2.632687787669629
            ]
        },
        {
            "positions": [
                2.333831662258135,
                -1.1601830238403845,
                0.9828970940995538,
                -0.2678695627825938,
                0.9744629648502686,
                -2.6996926655218667
            ]
        },
        {
            "positions": [
                2.382805013517008,
                -1.13564646063905,
                1.1232411300758929,
                -0.3551729416048577,
                0.9870184190795216,
                -2.7666975433741046
            ]
        },
        {
            "positions": [
                2.43177836477588,
                -1.1111098974377156,
                1.2635851660522315,
                -0.4424763204271216,
                0.9995738733087745,
                -2.8337024212263424
            ]
        },
        {
            "positions": [
                2.480751716034753,
                -1.086573334236381,
                1.40392920202857,
                -0.5297796992493853,
                1.0121293275380274,
                -2.9007072990785803
            ]
        },
        {
            "positions": [
                2.529725067293626,
                -1.0620367710350465,
                1.5442732380049087,
                -0.6170830780716492,
                1.0246847817672804,
                -2.967712176930818
            ]
        },
        {
            "positions": [
                2.5786984185524986,
                -1.037500207833712,
                1.6846172739812477,
                -0.7043864568939131,
                1.0372402359965334,
                -3.034717054783056
            ]
        },
        {
            "positions": [
                2.6276717698113714,
                -1.0129636446323775,
                1.8249613099575863,
                -0.7916898357161771,
                1.0497956902257863,
                -3.101721932635294
            ]
        }
    ]
}