{
    "goal": {
        "global_pose": {
            "orientation": {
                "w": -0.00223480608172531,
                "x": 0.0024358444001904467,
                "y": 0.7094548369677653,
                "z": -0.704743149386269
            },
            "position": {
                "x": 0.6205249238014221,
                "y": -0.6371506643295288,
                "z": 0.19426114857196808
            }
        },
        "name": "move_to_magneteinheit_B"
    },
    "id": "PRMstar_move_to_magneteinheit_B_57",
    "joint_names": [
        "shoulder_pan_joint",
        "shoulder_lift_joint",
        "elbow_joint",
        "wrist_1_joint",
        "wrist_2_joint",
        "wrist_3_joint"
    ],
    "metrics": {
        "cart_traj_len": 1.4988556099628185,
        "distance_elbow_joint": 0.9808319747472649,
        "distance_shoulder_lift_joint": 2.146150983804615,
        "distance_shoulder_pan_joint": 1.6216185277155302,
        "distance_wrist_1_joint": 0.8622508375800915,
        "distance_wrist_2_joint": 1.515174510549359,
        "distance_wrist_3_joint": 0.022634240210552832,
        "smoothness": 0.4849186662227468,
        "time": 5.029996301,
        "traj_len": 2.6736980148489873,
        "weighted_distance": 3.09376064089612
    },
    "planner": "PRMstar",
    "start": {
        "state": {
            "elbow_joint": 2.6216224122426386,
            "shoulder_lift_joint": -1.4174107377796124,
            "shoulder_pan_joint": 0.7066234856936794,
            "wrist_1_joint": 1.9546482284002225,
            "wrist_2_joint": -0.7096286983471962,
            "wrist_3_joint": 0.005740856962016249
        }
    },
    "waypoints": [
        {
            "positions": [
                0.7066234856936794,
                -1.4174107377796124,
                2.6216224122426386,
                1.9546482284002225,
                -0.7096286983471962,
                0.005740856962016249
            ]
        },
        {
            "positions": [
                0.6587756177529136,
                -1.4918026396770312,
                2.628693617222198,
                2.006470608233953,
                -0.8280071979535946,
                0.007264049233955453
            ]
        },
        {
            "positions": [
                0.6109277498121479,
                -1.5661945415744503,
                2.635764822201757,
                2.0582929880676835,
                -0.946385697559993,
                0.008787241505894657
            ]
        },
        {
            "positions": [
                0.5417657353109556,
                -1.6444963789892941,
                2.6353413140102795,
                2.119296082970463,
                -1.0952037552400675,
                0.010607926604725496
            ]
        },
        {
            "positions": [
                0.4726037208097632,
                -1.7227982164041378,
                2.6349178058188025,
                2.1802991778732417,
                -1.2440218129201421,
                0.012428611703556332
            ]
        },
        {
            "positions": [
                0.4034417063085709,
                -1.8011000538189816,
                2.634494297627325,
                2.241302272776021,
                -1.3928398706002167,
                0.01424929680238717
            ]
        },
        {
            "positions": [
                0.33427969180737854,
                -1.8794018912338253,
                2.6340707894358477,
                2.3023053676788003,
                -1.5416579282802914,
                0.016069981901218007
            ]
        },
        {
            "positions": [
                0.2651176773061862,
                -1.9577037286486692,
                2.6336472812443703,
                2.3633084625815797,
                -1.690475985960366,
                0.01789066700004885
            ]
        },
        {
            "positions": [
                0.19595566280499388,
                -2.036005566063513,
                2.6332237730528933,
                2.4243115574843586,
                -1.8392940436404404,
                0.019711352098879684
            ]
        },
        {
            "positions": [
                0.12679364830380152,
                -2.1143074034783567,
                2.632800264861416,
                2.485314652387138,
                -1.988112101320515,
                0.021532037197710522
            ]
        },
        {
            "positions": [
                0.03208558554692405,
                -1.9825570109232775,
                2.545188900547979,
                2.4551706147877583,
                -2.0096294747365184,
                0.020909940836359744
            ]
        },
        {
            "positions": [
                -0.06262247720995343,
                -1.8508066183681984,
                2.4575775362345422,
                2.4250265771883788,
                -2.031146848152522,
                0.020287844475008966
            ]
        },
        {
            "positions": [
                -0.15733053996683088,
                -1.719056225813119,
                2.369966171921105,
                2.3948825395889988,
                -2.052664221568526,
                0.019665748113658187
            ]
        },
        {
            "positions": [
                -0.25203860272370837,
                -1.5873058332580399,
                2.2823548076076685,
                2.364738501989619,
                -2.0741815949845295,
                0.01904365175230741
            ]
        },
        {
            "positions": [
                -0.3467466654805858,
                -1.4555554407029607,
                2.1947434432942314,
                2.3345944643902397,
                -2.095698968400533,
                0.01842155539095663
            ]
        },
        {
            "positions": [
                -0.4414547282374633,
                -1.3238050481478816,
                2.107132078980795,
                2.30445042679086,
                -2.117216341816537,
                0.017799459029605853
            ]
        },
        {
            "positions": [
                -0.5361627909943407,
                -1.1920546555928024,
                2.0195207146673577,
                2.2743063891914805,
                -2.1387337152325405,
                0.017177362668255074
            ]
        },
        {
            "positions": [
                -0.6308708537512182,
                -1.060304263037723,
                1.9319093503539209,
                2.2441623515921005,
                -2.160251088648544,
                0.016555266306904296
            ]
        },
        {
            "positions": [
                -0.7255789165080957,
                -0.9285538704826439,
                1.844297986040484,
                2.214018313992721,
                -2.181768462064548,
                0.015933169945553518
            ]
        },
        {
            "positions": [
                -0.8202869792649732,
                -0.7968034779275648,
                1.7566866217270471,
                2.1838742763933414,
                -2.2032858354805516,
                0.015311073584202741
            ]
        },
        {
            "positions": [
                -0.9149950420218506,
                -0.6650530853724856,
                1.6690752574136103,
                2.153730238793962,
                -2.2248032088965553,
                0.014688977222851963
            ]
        }
    ]
}