{
    "goal": {
        "global_pose": {
            "orientation": {
                "w": 0.7047431468963623,
                "x": -0.7094548344612122,
                "y": 0.0024358443915843964,
                "z": -0.0022348060738295317
            },
            "position": {
                "x": 0.6094750761985779,
                "y": 0.3671506643295288,
                "z": 0.19426114857196808
            }
        },
        "name": "move_to_magneteinheit_A"
    },
    "id": "PRMstar_move_to_magneteinheit_A_134",
    "joint_names": [
        "shoulder_pan_joint",
        "shoulder_lift_joint",
        "elbow_joint",
        "wrist_1_joint",
        "wrist_2_joint",
        "wrist_3_joint"
    ],
    "metrics": {
        "cart_traj_len": 3.5244618772216856,
        "distance_elbow_joint": 3.877494431446675,
        "distance_shoulder_lift_joint": 0.2850957817501223,
        "distance_shoulder_pan_joint": 2.6550459321787367,
        "distance_wrist_1_joint": 0.8285234745985831,
        "distance_wrist_2_joint": 1.694046148602389,
        "distance_wrist_3_joint": 2.602726674011563,
        "smoothness": 0.13750206375150448,
        "time": 5.042417843,
        "traj_len": 3.4558548063522676,
        "weighted_distance": 4.435195081821337
    },
    "planner": "PRMstar",
    "start": {
        "state": {
            "elbow_joint": -1.9196185241190666,
            "shoulder_lift_joint": -1.2443396400964142,
            "shoulder_pan_joint": 2.6996025414629847,
            "wrist_1_joint": -1.5485510000780065,
            "wrist_2_joint": -1.5709468930060704,
            "wrist_3_joint": 0.4420197071253992
        }
    },
    "waypoints": [
        {
            "positions": [
                2.6996025414629847,
                -1.2443396400964142,
                -1.9196185241190666,
                -1.5485510000780065,
                -1.5709468930060704,
                0.4420197071253992
            ]
        },
        {
            "positions": [
                2.6055376944855975,
                -1.2366999720822056,
                -1.8203922654805933,
                -1.5198256875370262,
                -1.5144808594456594,
                0.539663778074541
            ]
        },
        {
            "positions": [
                2.51147284750821,
                -1.229060304067997,
                -1.72116600684212,
                -1.4911003749960459,
                -1.4580148258852481,
                0.6373078490236828
            ]
        },
        {
            "positions": [
                2.417408000530823,
                -1.2214206360537883,
                -1.6219397482036468,
                -1.4623750624550653,
                -1.401548792324837,
                0.7349519199728246
            ]
        },
        {
            "positions": [
                2.3233431535534357,
                -1.2137809680395797,
                -1.5227134895651733,
                -1.433649749914085,
                -1.3450827587644258,
                0.8325959909219665
            ]
        },
        {
            "positions": [
                2.229278306576048,
                -1.2061413000253711,
                -1.4234872309267002,
                -1.4049244373731047,
                -1.2886167252040148,
                0.9302400618711082
            ]
        },
        {
            "positions": [
                2.1352134595986607,
                -1.1985016320111626,
                -1.3242609722882268,
                -1.3761991248321244,
                -1.2321506916436036,
                1.0278841328202502
            ]
        },
        {
            "positions": [
                2.0411486126212735,
                -1.1908619639969538,
                -1.2250347136497535,
                -1.347473812291144,
                -1.1756846580831926,
                1.1255282037693917
            ]
        },
        {
            "positions": [
                1.9470837656438862,
                -1.1832222959827452,
                -1.1258084550112801,
                -1.3187484997501635,
                -1.1192186245227815,
                1.2231722747185336
            ]
        },
        {
            "positions": [
                1.853018918666499,
                -1.1755826279685366,
                -1.0265821963728068,
                -1.2900231872091832,
                -1.0627525909623703,
                1.3208163456676754
            ]
        },
        {
            "positions": [
                1.7589540716891117,
                -1.167942959954328,
                -0.9273559377343336,
                -1.2612978746682029,
                -1.006286557401959,
                1.4184604166168173
            ]
        },
        {
            "positions": [
                1.6648892247117244,
                -1.1603032919401193,
                -0.8281296790958603,
                -1.2325725621272225,
                -0.9498205238415481,
                1.516104487565959
            ]
        },
        {
            "positions": [
                1.5708243777343371,
                -1.1526636239259107,
                -0.728903420457387,
                -1.203847249586242,
                -0.893354490281137,
                1.613748558515101
            ]
        },
        {
            "positions": [
                1.4767595307569499,
                -1.1450239559117021,
                -0.6296771618189136,
                -1.1751219370452617,
                -0.8368884567207259,
                1.7113926294642425
            ]
        },
        {
            "positions": [
                1.3826946837795626,
                -1.1373842878974936,
                -0.5304509031804403,
                -1.1463966245042814,
                -0.7804224231603147,
                1.8090367004133845
            ]
        },
        {
            "positions": [
                1.2886298368021754,
                -1.129744619883285,
                -0.4312246445419672,
                -1.117671311963301,
                -0.7239563895999037,
                1.906680771362526
            ]
        },
        {
            "positions": [
                1.1945649898247879,
                -1.1221049518690762,
                -0.3319983859034936,
                -1.0889459994223207,
                -0.6674903560394925,
                2.004324842311668
            ]
        },
        {
            "positions": [
                1.1005001428474006,
                -1.1144652838548676,
                -0.2327721272650205,
                -1.0602206868813404,
                -0.6110243224790814,
                2.10196891326081
            ]
        },
        {
            "positions": [
                1.0064352958700133,
                -1.106825615840659,
                -0.13354586862654716,
                -1.03149537434036,
                -0.5545582889186702,
                2.1996129842099514
            ]
        },
        {
            "positions": [
                0.9123704488926263,
                -1.0991859478264505,
                -0.03431960998807382,
                -1.0027700617993798,
                -0.4980922553582592,
                2.2972570551590934
            ]
        },
        {
            "positions": [
                0.8183056019152386,
                -1.0915462798122417,
                0.06490664865039952,
                -0.9740447492583992,
                -0.44162622179784794,
                2.3949011261082354
            ]
        },
        {
            "positions": [
                0.7242407549378516,
                -1.0839066117980332,
                0.16413290728887286,
                -0.9453194367174189,
                -0.3851601882374369,
                2.4925451970573773
            ]
        },
        {
            "positions": [
                0.6301759079604641,
                -1.0762669437838246,
                0.263359165927346,
                -0.9165941241764386,
                -0.3286941546770259,
                2.590189268006519
            ]
        },
        {
            "positions": [
                0.5361110609830768,
                -1.068627275769616,
                0.36258542456581955,
                -0.8878688116354582,
                -0.27222812111661465,
                2.687833338955661
            ]
        },
        {
            "positions": [
                0.44204621400568955,
                -1.0609876077554072,
                0.46181168320429267,
                -0.8591434990944777,
                -0.21576208755620363,
                2.7854774099048027
            ]
        },
        {
            "positions": [
                0.3479813670283023,
                -1.0533479397411987,
                0.5610379418427662,
                -0.8304181865534974,
                -0.15929605399579239,
                2.8831214808539443
            ]
        },
        {
            "positions": [
                0.2539165200509149,
                -1.04570827172699,
                0.6602642004812393,
                -0.8016928740125171,
                -0.10283002043538128,
                2.9807655518030862
            ]
        },
        {
            "positions": [
                0.21992586733482342,
                -1.0563464951847488,
                0.9033016404951879,
                -0.7921614928940918,
                -0.06711861618629877,
                2.9912702224754715
            ]
        },
        {
            "positions": [
                0.18593521461873191,
                -1.0669847186425074,
                1.1463390805091365,
                -0.7826301117756664,
                -0.03140721193721627,
                3.0017748931478567
            ]
        },
        {
            "positions": [
                0.15194456190264044,
                -1.0776229421002663,
                1.389376520523085,
                -0.7730987306572412,
                0.0043041923118662395,
                3.0122795638202415
            ]
        },
        {
            "positions": [
                0.11795390918654894,
                -1.088261165558025,
                1.6324139605370338,
                -0.7635673495388159,
                0.040015596560948746,
                3.022784234492627
            ]
        },
        {
            "positions": [
                0.08396325647045746,
                -1.0988993890157837,
                1.8754514005509824,
                -0.7540359684203906,
                0.07572700081003125,
                3.033288905165012
            ]
        },
        {
            "positions": [
                0.12336990365666672,
                -1.1321726851076883,
                1.957875907327608,
                -0.7200275254794234,
                0.12309925559631893,
                3.0447463811369624
            ]
        }
    ]
}