{
    "goal": {
        "global_pose": {
            "orientation": {
                "w": 0.7031023502349854,
                "x": -0.7110244035720825,
                "y": 0.007748599164187908,
                "z": 0.005598929710686207
            },
            "position": {
                "x": 0.11585023208521307,
                "y": 0.44412534475326537,
                "z": 0.3711530566215515
            }
        },
        "name": "move_to_auspresseinheit_A"
    },
    "id": "PRMstar_move_to_auspresseinheit_A_12",
    "joint_names": [
        "shoulder_pan_joint",
        "shoulder_lift_joint",
        "elbow_joint",
        "wrist_1_joint",
        "wrist_2_joint",
        "wrist_3_joint"
    ],
    "metrics": {
        "cart_traj_len": 0.6949728477171949,
        "distance_elbow_joint": 0.05376883751733175,
        "distance_shoulder_lift_joint": 0.5335512225493788,
        "distance_shoulder_pan_joint": 1.0390421812733337,
        "distance_wrist_1_joint": 0.8073783332427706,
        "distance_wrist_2_joint": 1.7993921331290128,
        "distance_wrist_3_joint": 0.12188792456278819,
        "smoothness": 0.964484940244486,
        "time": 5.012905005,
        "traj_len": 2.0868686188341172,
        "weighted_distance": 2.6843187120332743
    },
    "planner": "PRMstar",
    "start": {
        "state": {
            "elbow_joint": 2.4225746658250005,
            "shoulder_lift_joint": -1.3736534386056498,
            "shoulder_pan_joint": -0.3378633547517467,
            "wrist_1_joint": -1.0288598680537169,
            "wrist_2_joint": 1.233022673432363,
            "wrist_3_joint": -3.0940220416140027
        }
    },
    "waypoints": [
        {
            "positions": [
                -0.3378633547517467,
                -1.3736534386056498,
                2.4225746658250005,
                -1.0288598680537169,
                1.233022673432363,
                -3.0940220416140027
            ]
        },
        {
            "positions": [
                -0.26499482515364264,
                -1.4541592249086635,
                2.4245194948970177,
                -1.0487163121326453,
                1.0382711578004071,
                -3.1087477866906186
            ]
        },
        {
            "positions": [
                -0.1921262955555386,
                -1.5346650112116773,
                2.4264643239690344,
                -1.0685727562115739,
                0.8435196421684511,
                -3.1234735317672344
            ]
        },
        {
            "positions": [
                -0.11925776595743451,
                -1.6151707975146912,
                2.428409153041051,
                -1.0884292002905023,
                0.6487681265364951,
                -3.1381992768438502
            ]
        },
        {
            "positions": [
                -0.046389236359330455,
                -1.6956765838177048,
                2.4303539821130684,
                -1.1082856443694307,
                0.45401661090453915,
                -3.152925021920466
            ]
        },
        {
            "positions": [
                0.026479293238773627,
                -1.7761823701207184,
                2.4322988111850856,
                -1.1281420884483593,
                0.259265095272583,
                -3.167650766997082
            ]
        },
        {
            "positions": [
                0.09934782283687771,
                -1.8566881564237323,
                2.4342436402571024,
                -1.1479985325272877,
                0.06451357964062715,
                -3.1823765120736978
            ]
        },
        {
            "positions": [
                0.19965299011766258,
                -1.8651075738789484,
                2.427226996409564,
                -1.0332919210657543,
                0.16966075286350663,
                -3.1767876030565154
            ]
        },
        {
            "positions": [
                0.29995815739844744,
                -1.8735269913341643,
                2.4202103525620258,
                -0.9185853096042211,
                0.2748079260863861,
                -3.1711986940393335
            ]
        },
        {
            "positions": [
                0.4002633246792323,
                -1.8819464087893805,
                2.4131937087144877,
                -0.8038786981426878,
                0.3799550993092656,
                -3.165609785022151
            ]
        },
        {
            "positions": [
                0.5005684919600172,
                -1.8903658262445966,
                2.406177064866949,
                -0.6891720866811545,
                0.48510227253214505,
                -3.160020876004969
            ]
        },
        {
            "positions": [
                0.600873659240802,
                -1.8987852436998125,
                2.3991604210194106,
                -0.5744654752196211,
                0.5902494457550245,
                -3.154431966987787
            ]
        },
        {
            "positions": [
                0.7011788265215869,
                -1.9072046611550286,
                2.3921437771718725,
                -0.4597588637580878,
                0.6953966189779041,
                -3.1488430579706046
            ]
        }
    ]
}