{
    "goal": {
        "global_pose": {
            "orientation": {
                "w": 0.005598929693374612,
                "x": 0.007748599140229565,
                "y": 0.7110244013736278,
                "z": -0.7031023480610252
            },
            "position": {
                "x": 0.1141497679147869,
                "y": -0.7141253447532654,
                "z": 0.3711530566215515
            }
        },
        "name": "move_to_auspresseinheit_B"
    },
    "id": "PRMstar_move_to_auspresseinheit_B_53",
    "joint_names": [
        "shoulder_pan_joint",
        "shoulder_lift_joint",
        "elbow_joint",
        "wrist_1_joint",
        "wrist_2_joint",
        "wrist_3_joint"
    ],
    "metrics": {
        "cart_traj_len": 0.5644600270758159,
        "distance_elbow_joint": 0.060612338971212765,
        "distance_shoulder_lift_joint": 0.29421203724414813,
        "distance_shoulder_pan_joint": 0.5765283738843745,
        "distance_wrist_1_joint": 0.3176527912621685,
        "distance_wrist_2_joint": 0.9951930481584192,
        "distance_wrist_3_joint": 0.0020433177351604215,
        "smoothness": 5.075305295617109e-16,
        "time": 5.004894488000001,
        "traj_len": 1.4987467788974507,
        "weighted_distance": 1.8876372485587352
    },
    "planner": "PRMstar",
    "start": {
        "state": {
            "elbow_joint": 2.0193083361928714,
            "shoulder_lift_joint": -1.1220246554650708,
            "shoulder_pan_joint": -1.0952077554168747,
            "wrist_1_joint": -0.8559753972642168,
            "wrist_2_joint": 0.4759566250798843,
            "wrist_3_joint": -3.1240929996934557
        }
    },
    "waypoints": [
        {
            "positions": [
                -1.0952077554168747,
                -1.1220246554650708,
                2.0193083361928714,
                -0.8559753972642168,
                0.4759566250798843,
                -3.1240929996934557
            ]
        },
        {
            "positions": [
                -1.191295817730937,
                -1.171059995005762,
                2.0092062796976693,
                -0.8030332653871887,
                0.6418221331062874,
                -3.1237524467375954
            ]
        },
        {
            "positions": [
                -1.2873838800449995,
                -1.2200953345464536,
                1.9991042232024672,
                -0.7500911335101607,
                0.8076876411326908,
                -3.1234118937817357
            ]
        },
        {
            "positions": [
                -1.383471942359062,
                -1.2691306740871449,
                1.989002166707265,
                -0.6971490016331325,
                0.9735531491590939,
                -3.1230713408258755
            ]
        },
        {
            "positions": [
                -1.4795600046731243,
                -1.3181660136278361,
                1.978900110212063,
                -0.6442068697561045,
                1.1394186571854972,
                -3.1227307878700152
            ]
        },
        {
            "positions": [
                -1.5756480669871866,
                -1.3672013531685276,
                1.9687980537168608,
                -0.5912647378790763,
                1.3052841652119003,
                -3.1223902349141555
            ]
        },
        {
            "positions": [
                -1.6717361293012492,
                -1.416236692709219,
                1.9586959972216587,
                -0.5383226060020483,
                1.4711496732383036,
                -3.1220496819582952
            ]
        }
    ]
}