{
    "goal": {
        "global_pose": {
            "orientation": {
                "w": 0.005598929693374612,
                "x": 0.007748599140229565,
                "y": 0.7110244013736278,
                "z": -0.7031023480610252
            },
            "position": {
                "x": -0.8858502320852131,
                "y": -0.7141253447532654,
                "z": 0.3711530566215515
            }
        },
        "name": "move_to_auspresseinheit_C"
    },
    "id": "PRMstar_move_to_auspresseinheit_C_107",
    "joint_names": [
        "shoulder_pan_joint",
        "shoulder_lift_joint",
        "elbow_joint",
        "wrist_1_joint",
        "wrist_2_joint",
        "wrist_3_joint"
    ],
    "metrics": {
        "cart_traj_len": 0.49319154779514307,
        "distance_elbow_joint": 1.0004772248288112,
        "distance_shoulder_lift_joint": 0.3249934622273729,
        "distance_shoulder_pan_joint": 0.25589024101096713,
        "distance_wrist_1_joint": 0.6746758500776218,
        "distance_wrist_2_joint": 1.3120166308215884,
        "distance_wrist_3_joint": 0.051840586690209634,
        "smoothness": 9.689219149575435e-16,
        "time": 5.009095084999999,
        "traj_len": 1.9026019015171227,
        "weighted_distance": 2.3896166324195605
    },
    "planner": "PRMstar",
    "start": {
        "state": {
            "elbow_joint": 1.7527959577737207,
            "shoulder_lift_joint": -0.9740617694225068,
            "shoulder_pan_joint": -2.967991417825858,
            "wrist_1_joint": -0.759517768980727,
            "wrist_2_joint": 1.7443932448377408,
            "wrist_3_joint": -3.0840537646736568
        }
    },
    "waypoints": [
        {
            "positions": [
                -2.967991417825858,
                -0.9740617694225068,
                1.7527959577737207,
                -0.759517768980727,
                1.7443932448377408,
                -3.0840537646736568
            ]
        },
        {
            "positions": [
                -2.942402393724761,
                -0.9415624231997695,
                1.6527482352908396,
                -0.6920501839729648,
                1.613191581755582,
                -3.089237823342678
            ]
        },
        {
            "positions": [
                -2.9168133696236644,
                -0.9090630769770321,
                1.5527005128079585,
                -0.6245825989652026,
                1.4819899186734231,
                -3.094421882011699
            ]
        },
        {
            "positions": [
                -2.8912243455225677,
                -0.876563730754295,
                1.4526527903250774,
                -0.5571150139574405,
                1.3507882555912643,
                -3.0996059406807195
            ]
        },
        {
            "positions": [
                -2.865635321421471,
                -0.8440643845315576,
                1.3526050678421961,
                -0.4896474289496783,
                1.2195865925091054,
                -3.1047899993497405
            ]
        },
        {
            "positions": [
                -2.8400462973203746,
                -0.8115650383088203,
                1.252557345359315,
                -0.4221798439419161,
                1.0883849294269465,
                -3.1099740580187616
            ]
        },
        {
            "positions": [
                -2.814457273219278,
                -0.779065692086083,
                1.152509622876434,
                -0.3547122589341539,
                0.9571832663447878,
                -3.1151581166877826
            ]
        },
        {
            "positions": [
                -2.788868249118181,
                -0.7465663458633458,
                1.052461900393553,
                -0.2872446739263918,
                0.825981603262629,
                -3.1203421753568037
            ]
        },
        {
            "positions": [
                -2.7632792250170843,
                -0.7140669996406084,
                0.9524141779106716,
                -0.21977708891862957,
                0.6947799401804702,
                -3.1255262340258243
            ]
        },
        {
            "positions": [
                -2.7376902009159876,
                -0.6815676534178712,
                0.8523664554277905,
                -0.1523095039108674,
                0.5635782770983113,
                -3.1307102926948454
            ]
        },
        {
            "positions": [
                -2.712101176814891,
                -0.6490683071951339,
                0.7523187329449094,
                -0.08484191890310519,
                0.43237661401615246,
                -3.1358943513638664
            ]
        }
    ]
}