{
    "goal": {
        "global_pose": {
            "orientation": {
                "w": 0.005598929693374612,
                "x": 0.007748599140229565,
                "y": 0.7110244013736278,
                "z": -0.7031023480610252
            },
            "position": {
                "x": 0.1141497679147869,
                "y": -0.7141253447532654,
                "z": 0.3711530566215515
            }
        },
        "name": "move_to_auspresseinheit_B"
    },
    "id": "PRMstar_move_to_auspresseinheit_B_130",
    "joint_names": [
        "shoulder_pan_joint",
        "shoulder_lift_joint",
        "elbow_joint",
        "wrist_1_joint",
        "wrist_2_joint",
        "wrist_3_joint"
    ],
    "metrics": {
        "cart_traj_len": 0.5646220249191496,
        "distance_elbow_joint": 0.06116841303583276,
        "distance_shoulder_lift_joint": 0.2946344052614267,
        "distance_shoulder_pan_joint": 0.5766440763201954,
        "distance_wrist_1_joint": 0.31618969168035826,
        "distance_wrist_2_joint": 0.9916457335405464,
        "distance_wrist_3_joint": 0.0039748752337787074,
        "smoothness": 0.0,
        "time": 5.0023593140000004,
        "traj_len": 1.4980845086550152,
        "weighted_distance": 1.8868074546070142
    },
    "planner": "PRMstar",
    "start": {
        "state": {
            "elbow_joint": 2.0193083361928714,
            "shoulder_lift_joint": -1.1220246554650708,
            "shoulder_pan_joint": -1.0952077554168747,
            "wrist_1_joint": -0.8559753972642168,
            "wrist_2_joint": 0.4759566250798843,
            "wrist_3_joint": -3.1240929996934557
        }
    },
    "waypoints": [
        {
            "positions": [
                -1.0952077554168747,
                -1.1220246554650708,
                2.0193083361928714,
                -0.8559753972642168,
                0.4759566250798843,
                -3.1240929996934557
            ]
        },
        {
            "positions": [
                -1.1913151014702406,
                -1.1711303896753087,
                2.0091136006868995,
                -0.8032771153174905,
                0.6412309140033087,
                -3.123430520487826
            ]
        },
        {
            "positions": [
                -1.2874224475236065,
                -1.2202361238855464,
                1.998918865180927,
                -0.750578833370764,
                0.806505202926733,
                -3.122768041282196
            ]
        },
        {
            "positions": [
                -1.3835297935769724,
                -1.269341858095784,
                1.9887241296749552,
                -0.6978805514240376,
                0.9717794918501574,
                -3.122105562076566
            ]
        },
        {
            "positions": [
                -1.4796371396303383,
                -1.318447592306022,
                1.978529394168983,
                -0.6451822694773113,
                1.1370537807735819,
                -3.1214430828709365
            ]
        },
        {
            "positions": [
                -1.5757444856837042,
                -1.3675533265162598,
                1.9683346586630108,
                -0.592483987530585,
                1.3023280696970063,
                -3.120780603665307
            ]
        },
        {
            "positions": [
                -1.67185183173707,
                -1.4166590607264975,
                1.9581399231570387,
                -0.5397857055838585,
                1.4676023586204308,
                -3.120118124459677
            ]
        }
    ]
}