{
    "goal": {
        "global_pose": {
            "orientation": {
                "w": -0.4816463035849501,
                "x": 0.5182115481033762,
                "y": 0.4908360881923453,
                "z": -0.5084816262002911
            },
            "position": {
                "x": -0.8240239810943604,
                "y": 0.19912469901144506,
                "z": 0.16403168439865112
            }
        },
        "name": "move_to_storage_D"
    },
    "id": "PRMstar_move_to_storage_D_4",
    "joint_names": [
        "shoulder_pan_joint",
        "shoulder_lift_joint",
        "elbow_joint",
        "wrist_1_joint",
        "wrist_2_joint",
        "wrist_3_joint"
    ],
    "metrics": {
        "cart_traj_len": 0.6831590145528779,
        "distance_elbow_joint": 0.556085753276607,
        "distance_shoulder_lift_joint": 0.15115658864333925,
        "distance_shoulder_pan_joint": 0.9160916183359117,
        "distance_wrist_1_joint": 3.826745378735979,
        "distance_wrist_2_joint": 1.7755615864024932,
        "distance_wrist_3_joint": 3.156702854079078,
        "smoothness": 0.047111799874959816,
        "time": 5.040407006000001,
        "traj_len": 3.222164455684006,
        "weighted_distance": 4.722081792257524
    },
    "planner": "PRMstar",
    "start": {
        "state": {
            "elbow_joint": -2.384821988534728,
            "shoulder_lift_joint": -2.2788054721415256,
            "shoulder_pan_joint": -0.1854694642142757,
            "wrist_1_joint": 1.4845938289331202,
            "wrist_2_joint": 0.17898776772866878,
            "wrist_3_joint": 0.037105688729662994
        }
    },
    "waypoints": [
        {
            "positions": [
                -0.1854694642142757,
                -2.2788054721415256,
                -2.384821988534728,
                1.4845938289331202,
                0.17898776772866878,
                0.037105688729662994
            ]
        },
        {
            "positions": [
                -0.0076084743490667794,
                -2.2596515241934063,
                -2.365136562137222,
                1.4529761816602766,
                0.13651823800716348,
                0.14197117310665983
            ]
        },
        {
            "positions": [
                0.17025251551614215,
                -2.2404975762452874,
                -2.3454511357397156,
                1.421358534387433,
                0.09404870828565817,
                0.24683665748365666
            ]
        },
        {
            "positions": [
                0.3481135053813511,
                -2.221343628297168,
                -2.3257657093422095,
                1.3897408871145895,
                0.05157917856415288,
                0.3517021418606535
            ]
        },
        {
            "positions": [
                0.33217564501717256,
                -2.2174396805972107,
                -2.305056147922039,
                1.234245368909696,
                -0.0170938629874295,
                0.47012324190015714
            ]
        },
        {
            "positions": [
                0.316237784652994,
                -2.213535732897253,
                -2.2843465865018686,
                1.0787498507048023,
                -0.08576690453901188,
                0.5885443419396608
            ]
        },
        {
            "positions": [
                0.30029992428881547,
                -2.2096317851972955,
                -2.2636370250816986,
                0.9232543324999085,
                -0.15443994609059425,
                0.7069654419791644
            ]
        },
        {
            "positions": [
                0.2843620639246369,
                -2.2057278374973377,
                -2.242927463661528,
                0.7677588142950149,
                -0.22311298764217663,
                0.8253865420186681
            ]
        },
        {
            "positions": [
                0.2684242035604584,
                -2.2018238897973803,
                -2.2222179022413577,
                0.6122632960901212,
                -0.291786029193759,
                0.9438076420581718
            ]
        },
        {
            "positions": [
                0.2524863431962799,
                -2.197919942097423,
                -2.2015083408211873,
                0.4567677778852276,
                -0.3604590707453414,
                1.0622287420976755
            ]
        },
        {
            "positions": [
                0.23654848283210134,
                -2.194015994397465,
                -2.180798779401017,
                0.3012722596803339,
                -0.42913211229692383,
                1.180649842137179
            ]
        },
        {
            "positions": [
                0.2206106224679228,
                -2.1901120466975077,
                -2.160089217980847,
                0.14577674147544029,
                -0.49780515384850615,
                1.2990709421766826
            ]
        },
        {
            "positions": [
                0.20467276210374424,
                -2.18620809899755,
                -2.1393796565606764,
                -0.009718776729453316,
                -0.5664781954000886,
                1.4174920422161863
            ]
        },
        {
            "positions": [
                0.1887349017395657,
                -2.1823041512975925,
                -2.118670095140506,
                -0.16521429493434714,
                -0.635151236951671,
                1.5359131422556902
            ]
        },
        {
            "positions": [
                0.17279704137538718,
                -2.1784002035976346,
                -2.0979605337203355,
                -0.3207098131392405,
                -0.7038242785032534,
                1.6543342422951937
            ]
        },
        {
            "positions": [
                0.15685918101120863,
                -2.1744962558976773,
                -2.077250972300165,
                -0.47620533134413434,
                -0.7724973200548357,
                1.7727553423346971
            ]
        },
        {
            "positions": [
                0.1409213206470301,
                -2.17059230819772,
                -2.056541410879995,
                -0.6317008495490279,
                -0.841170361606418,
                1.8911764423742006
            ]
        },
        {
            "positions": [
                0.12498346028285154,
                -2.166688360497762,
                -2.0358318494598246,
                -0.7871963677539218,
                -0.9098434031580006,
                2.0095975424137045
            ]
        },
        {
            "positions": [
                0.10904559991867302,
                -2.1627844127978046,
                -2.015122288039654,
                -0.9426918859588151,
                -0.9785164447095829,
                2.128018642453208
            ]
        },
        {
            "positions": [
                0.09310773955449447,
                -2.158880465097847,
                -1.9944127266194838,
                -1.098187404163709,
                -1.0471894862611653,
                2.246439742492712
            ]
        },
        {
            "positions": [
                0.07716987919031593,
                -2.1549765173978894,
                -1.9737031651993133,
                -1.2536829223686028,
                -1.1158625278127476,
                2.3648608425322153
            ]
        },
        {
            "positions": [
                0.06123201882613738,
                -2.1510725696979316,
                -1.952993603779143,
                -1.4091784405734962,
                -1.18453556936433,
                2.483281942571719
            ]
        },
        {
            "positions": [
                0.04529415846195889,
                -2.147168621997974,
                -1.9322840423589727,
                -1.56467395877839,
                -1.2532086109159124,
                2.6017030426112226
            ]
        },
        {
            "positions": [
                0.029356298097780287,
                -2.143264674298017,
                -1.9115744809388024,
                -1.7201694769832838,
                -1.3218816524674948,
                2.7201241426507266
            ]
        },
        {
            "positions": [
                0.013418437733601796,
                -2.139360726598059,
                -1.890864919518632,
                -1.8756649951881772,
                -1.3905546940190772,
                2.83854524269023
            ]
        },
        {
            "positions": [
                -0.002519422630576751,
                -2.1354567788981016,
                -1.8701553580984616,
                -2.0311605133930706,
                -1.4592277355706595,
                2.9569663427297335
            ]
        },
        {
            "positions": [
                -0.018457282994755297,
                -2.1315528311981438,
                -1.8494457966782911,
                -2.186656031597965,
                -1.527900777122242,
                3.0753874427692374
            ]
        },
        {
            "positions": [
                -0.034395143358933865,
                -2.1276488834981864,
                -1.828736235258121,
                -2.3421515498028582,
                -1.5965738186738243,
                3.193808542808741
            ]
        }
    ]
}