{
    "goal": {
        "global_pose": {
            "orientation": {
                "w": 0.5084816217422485,
                "x": -0.49083608388900757,
                "y": 0.5182115435600281,
                "z": -0.4816462993621826
            },
            "position": {
                "x": 0.5540239810943604,
                "y": 0.030875300988554955,
                "z": 0.16403168439865112
            }
        },
        "name": "move_to_storage_A"
    },
    "id": "PRMstar_move_to_storage_A_58",
    "joint_names": [
        "shoulder_pan_joint",
        "shoulder_lift_joint",
        "elbow_joint",
        "wrist_1_joint",
        "wrist_2_joint",
        "wrist_3_joint"
    ],
    "metrics": {
        "cart_traj_len": 0.35375105128778356,
        "distance_elbow_joint": 0.4495872019725142,
        "distance_shoulder_lift_joint": 0.23652470168445894,
        "distance_shoulder_pan_joint": 0.463505779845633,
        "distance_wrist_1_joint": 0.2357023846401426,
        "distance_wrist_2_joint": 1.097322520782848,
        "distance_wrist_3_joint": 0.08665169720449706,
        "smoothness": 1.1102230244806396e-15,
        "time": 5.006739784,
        "traj_len": 1.6029018329673512,
        "weighted_distance": 2.0188171254380816
    },
    "planner": "PRMstar",
    "start": {
        "state": {
            "elbow_joint": 1.971548259319323,
            "shoulder_lift_joint": -1.1394851275133948,
            "shoulder_pan_joint": 0.1228115487234821,
            "wrist_1_joint": -0.7804723859257726,
            "wrist_2_joint": 0.12958671773740124,
            "wrist_3_joint": -3.192489227718131
        }
    },
    "waypoints": [
        {
            "positions": [
                0.1228115487234821,
                -1.1394851275133948,
                1.971548259319323,
                -0.7804723859257726,
                0.12958671773740124,
                -3.192489227718131
            ]
        },
        {
            "positions": [
                0.05659643731696311,
                -1.1732743706111746,
                2.0357750024582537,
                -0.8141441551600787,
                0.2863470778492367,
                -3.1801104138317746
            ]
        },
        {
            "positions": [
                -0.009618674089555884,
                -1.2070636137089545,
                2.1000017455971842,
                -0.8478159243943848,
                0.4431074379610721,
                -3.1677315999454176
            ]
        },
        {
            "positions": [
                -0.07583378549607489,
                -1.2408528568067343,
                2.1642284887361147,
                -0.8814876936286908,
                0.5998677980729076,
                -3.155352786059061
            ]
        },
        {
            "positions": [
                -0.14204889690259387,
                -1.2746420999045143,
                2.2284552318750452,
                -0.915159462862997,
                0.756628158184743,
                -3.142973972172704
            ]
        },
        {
            "positions": [
                -0.2082640083091129,
                -1.308431343002294,
                2.292681975013976,
                -0.948831232097303,
                0.9133885182965785,
                -3.1305951582863476
            ]
        },
        {
            "positions": [
                -0.2744791197156319,
                -1.342220586100074,
                2.3569087181529067,
                -0.9825030013316092,
                1.0701488784084139,
                -3.1182163443999906
            ]
        },
        {
            "positions": [
                -0.3406942311221509,
                -1.3760098291978538,
                2.421135461291837,
                -1.0161747705659152,
                1.2269092385202494,
                -3.105837530513634
            ]
        }
    ]
}{
    "goal": {
        "global_pose": {
            "orientation": {
                "w": 0.5084816217422485,
                "x": -0.49083608388900757,
                "y": 0.5182115435600281,
                "z": -0.4816462993621826
            },
            "position": {
                "x": 0.5540239810943604,
                "y": 0.030875300988554955,
                "z": 0.16403168439865112
            }
        },
        "name": "move_to_storage_A"
    },
    "id": "PRMstar_move_to_storage_A_58",
    "joint_names": [
        "shoulder_pan_joint",
        "shoulder_lift_joint",
        "elbow_joint",
        "wrist_1_joint",
        "wrist_2_joint",
        "wrist_3_joint"
    ],
    "metrics": {
        "cart_traj_len": 0.3528847968820982,
        "distance_elbow_joint": 0.4490104520606968,
        "distance_shoulder_lift_joint": 0.23323885812726775,
        "distance_shoulder_pan_joint": 0.4631097925612167,
        "distance_wrist_1_joint": 0.23714336100201705,
        "distance_wrist_2_joint": 1.0909248417811424,
        "distance_wrist_3_joint": 0.08820801252882582,
        "smoothness": 6.661338165333112e-16,
        "time": 5.006852351,
        "traj_len": 1.600510955308075,
        "weighted_distance": 2.016462135995114
    },
    "planner": "PRMstar",
    "start": {
        "state": {
            "elbow_joint": 1.97154746011099,
            "shoulder_lift_joint": -1.13948474672311,
            "shoulder_pan_joint": 0.12281154466712228,
            "wrist_1_joint": -0.7804688027058302,
            "wrist_2_joint": 0.12958655903071145,
            "wrist_3_joint": 3.0906928834467795
        }
    },
    "waypoints": [
        {
            "positions": [
                0.12281154466712228,
                -1.13948474672311,
                1.97154746011099,
                -0.7804688027058302,
                0.12958655903071145,
                3.0906928834467795
            ]
        },
        {
            "positions": [
                0.056653002872662755,
                -1.172804583598434,
                2.035691810405375,
                -0.8143464257061184,
                0.28543296499944604,
                3.1032940280937544
            ]
        },
        {
            "positions": [
                -0.009505538921796772,
                -1.2061244204737578,
                2.0998361606997604,
                -0.8482240487064064,
                0.4412793709681807,
                3.11589517274073
            ]
        },
        {
            "positions": [
                -0.07566408071625629,
                -1.2394442573490818,
                2.1639805109941457,
                -0.8821016717066946,
                0.5971257769369153,
                3.1284963173877047
            ]
        },
        {
            "positions": [
                -0.1418226225107158,
                -1.2727640942244058,
                2.228124861288531,
                -0.9159792947069828,
                0.7529721829056499,
                3.14109746203468
            ]
        },
        {
            "positions": [
                -0.20798116430517538,
                -1.3060839310997299,
                2.292269211582916,
                -0.9498569177072709,
                0.9088185888743846,
                3.153698606681655
            ]
        },
        {
            "positions": [
                -0.27413970609963484,
                -1.3394037679750537,
                2.3564135618773014,
                -0.9837345407075591,
                1.064664994843119,
                3.1662997513286304
            ]
        },
        {
            "positions": [
                -0.3402982478940944,
                -1.3727236048503777,
                2.4205579121716867,
                -1.0176121637078472,
                1.2205114008118538,
                3.1789008959756053
            ]
        }
    ]
}{
    "goal": {
        "global_pose": {
            "orientation": {
                "w": 0.5084816217422485,
                "x": -0.49083608388900757,
                "y": 0.5182115435600281,
                "z": -0.4816462993621826
            },
            "position": {
                "x": 0.5540239810943604,
                "y": 0.030875300988554955,
                "z": 0.16403168439865112
            }
        },
        "name": "move_to_storage_A"
    },
    "id": "PRMstar_move_to_storage_A_58",
    "joint_names": [
        "shoulder_pan_joint",
        "shoulder_lift_joint",
        "elbow_joint",
        "wrist_1_joint",
        "wrist_2_joint",
        "wrist_3_joint"
    ],
    "metrics": {
        "cart_traj_len": 0.3527589404963445,
        "distance_elbow_joint": 0.44797948640898744,
        "distance_shoulder_lift_joint": 0.23291736327929824,
        "distance_shoulder_pan_joint": 0.45956440926897785,
        "distance_wrist_1_joint": 0.23702235667448446,
        "distance_wrist_2_joint": 1.10467647566048,
        "distance_wrist_3_joint": 0.08976559983047183,
        "smoothness": 0.0,
        "time": 5.008585411,
        "traj_len": 1.6037224482817156,
        "weighted_distance": 2.0231548935063297
    },
    "planner": "PRMstar",
    "start": {
        "state": {
            "elbow_joint": 1.9715472970024885,
            "shoulder_lift_joint": -1.1394870060712896,
            "shoulder_pan_joint": 0.12281152778156021,
            "wrist_1_joint": -0.780463741449964,
            "wrist_2_joint": 0.12958659822042276,
            "wrist_3_joint": 3.090690232415272
        }
    },
    "waypoints": [
        {
            "positions": [
                0.12281152778156021,
                -1.1394870060712896,
                1.9715472970024885,
                -0.780463741449964,
                0.12958659822042276,
                3.090690232415272
            ]
        },
        {
            "positions": [
                0.05715946931456338,
                -1.1727609151111893,
                2.0355443664894866,
                -0.8143240781177475,
                0.2873975233147771,
                3.1035138895339105
            ]
        },
        {
            "positions": [
                -0.00849258915243345,
                -1.2060348241510892,
                2.099541435976485,
                -0.848184414785531,
                0.4452084484091313,
                3.1163375466525496
            ]
        },
        {
            "positions": [
                -0.07414464761943027,
                -1.2393087331909889,
                2.163538505463483,
                -0.8820447514533145,
                0.6030193735034857,
                3.1291612037711882
            ]
        },
        {
            "positions": [
                -0.1397967060864271,
                -1.2725826422308886,
                2.2275355749504815,
                -0.9159050881210979,
                0.7608302985978399,
                3.1419848608898273
            ]
        },
        {
            "positions": [
                -0.20544876455342395,
                -1.3058565512707885,
                2.2915326444374795,
                -0.9497654247888815,
                0.9186412236921943,
                3.154808518008466
            ]
        },
        {
            "positions": [
                -0.2711008230204207,
                -1.3391304603106882,
                2.3555297139244775,
                -0.9836257614566649,
                1.0764521487865486,
                3.167632175127105
            ]
        },
        {
            "positions": [
                -0.3367528814874176,
                -1.3724043693505878,
                2.419526783411476,
                -1.0174860981244485,
                1.2342630738809028,
                3.1804558322457437
            ]
        }
    ]
}