{
    "goal": {
        "global_pose": {
            "orientation": {
                "w": 0.7031023502349854,
                "x": -0.7110244035720825,
                "y": 0.007748599164187908,
                "z": 0.005598929710686207
            },
            "position": {
                "x": 0.11585023208521307,
                "y": 0.44412534475326537,
                "z": 0.3711530566215515
            }
        },
        "name": "move_to_auspresseinheit_A"
    },
    "id": "PRMstar_move_to_auspresseinheit_A_109",
    "joint_names": [
        "shoulder_pan_joint",
        "shoulder_lift_joint",
        "elbow_joint",
        "wrist_1_joint",
        "wrist_2_joint",
        "wrist_3_joint"
    ],
    "metrics": {
        "cart_traj_len": 0.6882142967380797,
        "distance_elbow_joint": 0.03210876638057947,
        "distance_shoulder_lift_joint": 0.5337660901256611,
        "distance_shoulder_pan_joint": 1.0419727400784669,
        "distance_wrist_1_joint": 0.5762607933948007,
        "distance_wrist_2_joint": 0.5338040941602138,
        "distance_wrist_3_joint": 0.05562843924059013,
        "smoothness": 9.868649107779169e-17,
        "time": 5.011588204,
        "traj_len": 1.6653951253021946,
        "weighted_distance": 1.9987152597147266
    },
    "planner": "PRMstar",
    "start": {
        "state": {
            "elbow_joint": 2.4225746658250005,
            "shoulder_lift_joint": -1.3736534386056498,
            "shoulder_pan_joint": -0.3378633547517467,
            "wrist_1_joint": -1.0288598680537169,
            "wrist_2_joint": 1.233022673432363,
            "wrist_3_joint": -3.0940220416140027
        }
    },
    "waypoints": [
        {
            "positions": [
                -0.3378633547517467,
                -1.3736534386056498,
                2.4225746658250005,
                -1.0288598680537169,
                1.233022673432363,
                -3.0940220416140027
            ]
        },
        {
            "positions": [
                -0.20761676224193837,
                -1.4403741998713575,
                2.418561070027428,
                -0.9568272688793668,
                1.1662971616623363,
                -3.1009755965190764
            ]
        },
        {
            "positions": [
                -0.07737016973213001,
                -1.507094961137065,
                2.4145474742298556,
                -0.8847946697050166,
                1.0995716498923096,
                -3.10792915142415
            ]
        },
        {
            "positions": [
                0.052876422777678345,
                -1.5738157224027727,
                2.4105338784322834,
                -0.8127620705306666,
                1.0328461381222829,
                -3.114882706329224
            ]
        },
        {
            "positions": [
                0.1831230152874867,
                -1.6405364836684804,
                2.4065202826347107,
                -0.7407294713563165,
                0.9661206263522562,
                -3.121836261234298
            ]
        },
        {
            "positions": [
                0.3133696077972951,
                -1.707257244934188,
                2.402506686837138,
                -0.6686968721819664,
                0.8993951145822294,
                -3.1287898161393715
            ]
        },
        {
            "positions": [
                0.4436162003071034,
                -1.7739780061998958,
                2.398493091039566,
                -0.5966642730076164,
                0.8326696028122027,
                -3.1357433710444456
            ]
        },
        {
            "positions": [
                0.5738627928169118,
                -1.8406987674656032,
                2.3944794952419937,
                -0.5246316738332663,
                0.765944091042176,
                -3.142696925949519
            ]
        },
        {
            "positions": [
                0.7041093853267202,
                -1.907419528731311,
                2.390465899444421,
                -0.4525990746589161,
                0.6992185792721493,
                -3.149650480854593
            ]
        }
    ]
}