{
    "goal": {
        "global_pose": {
            "orientation": {
                "w": 0.7031023502349854,
                "x": -0.7110244035720825,
                "y": 0.007748599164187908,
                "z": 0.005598929710686207
            },
            "position": {
                "x": 0.11585023208521307,
                "y": 0.44412534475326537,
                "z": 0.3711530566215515
            }
        },
        "name": "move_to_auspresseinheit_A"
    },
    "id": "PRMstar_move_to_auspresseinheit_A_73",
    "joint_names": [
        "shoulder_pan_joint",
        "shoulder_lift_joint",
        "elbow_joint",
        "wrist_1_joint",
        "wrist_2_joint",
        "wrist_3_joint"
    ],
    "metrics": {
        "cart_traj_len": 0.7219109399549222,
        "distance_elbow_joint": 0.17924521365368662,
        "distance_shoulder_lift_joint": 0.5372738357663218,
        "distance_shoulder_pan_joint": 1.0431324879870294,
        "distance_wrist_1_joint": 0.5537160164200912,
        "distance_wrist_2_joint": 0.8274413004594416,
        "distance_wrist_3_joint": 0.11295203865461989,
        "smoothness": 0.9773805402247044,
        "time": 5.063779631,
        "traj_len": 1.8038184201690564,
        "weighted_distance": 2.204727259125256
    },
    "planner": "PRMstar",
    "start": {
        "state": {
            "elbow_joint": 2.4225746658250005,
            "shoulder_lift_joint": -1.3736534386056498,
            "shoulder_pan_joint": -0.3378633547517467,
            "wrist_1_joint": -1.0288598680537169,
            "wrist_2_joint": 1.233022673432363,
            "wrist_3_joint": -3.0940220416140027
        }
    },
    "waypoints": [
        {
            "positions": [
                -0.3378633547517467,
                -1.3736534386056498,
                2.4225746658250005,
                -1.0288598680537169,
                1.233022673432363,
                -3.0940220416140027
            ]
        },
        {
            "positions": [
                -0.20936390632802873,
                -1.4393460866334828,
                2.407858007195874,
                -0.959792361141341,
                1.1363292974616237,
                -3.087991305212417
            ]
        },
        {
            "positions": [
                -0.08086445790431074,
                -1.5050387346613159,
                2.393141348566748,
                -0.8907248542289653,
                1.0396359214908846,
                -3.0819605688108314
            ]
        },
        {
            "positions": [
                0.04763499051940728,
                -1.570731382689149,
                2.3784246899376216,
                -0.8216573473165896,
                0.9429425455201452,
                -3.0759298324092454
            ]
        },
        {
            "positions": [
                0.17613443894312525,
                -1.636424030716982,
                2.3637080313084953,
                -0.7525898404042137,
                0.8462491695494061,
                -3.0698990960076595
            ]
        },
        {
            "positions": [
                0.3046338873668433,
                -1.702116678744815,
                2.348991372679369,
                -0.6835223334918379,
                0.7495557935786668,
                -3.0638683596060736
            ]
        },
        {
            "positions": [
                0.4331333357905613,
                -1.767809326772648,
                2.3342747140502427,
                -0.6144548265794622,
                0.6528624176079275,
                -3.057837623204488
            ]
        },
        {
            "positions": [
                0.5616327842142794,
                -1.833501974800481,
                2.3195580554211164,
                -0.5453873196670863,
                0.5561690416371883,
                -3.0518068868029022
            ]
        },
        {
            "positions": [
                0.6334509587247811,
                -1.8722146245862263,
                2.3576723570460176,
                -0.510265585650356,
                0.6314628759693217,
                -3.087175328724662
            ]
        },
        {
            "positions": [
                0.7052691332352827,
                -1.9109272743719716,
                2.395786658670919,
                -0.4751438516336257,
                0.7067567103014551,
                -3.1225437706464216
            ]
        }
    ]
}