{
    "goal": {
        "global_pose": {
            "orientation": {
                "w": 0.7047431468963623,
                "x": -0.7094548344612122,
                "y": 0.0024358443915843964,
                "z": -0.0022348060738295317
            },
            "position": {
                "x": 0.6094750761985779,
                "y": 0.3671506643295288,
                "z": 0.19426114857196808
            }
        },
        "name": "move_to_magneteinheit_A"
    },
    "id": "PRMstar_move_to_magneteinheit_A_101",
    "joint_names": [
        "shoulder_pan_joint",
        "shoulder_lift_joint",
        "elbow_joint",
        "wrist_1_joint",
        "wrist_2_joint",
        "wrist_3_joint"
    ],
    "metrics": {
        "cart_traj_len": 3.9345288918086543,
        "distance_elbow_joint": 3.906812468433941,
        "distance_shoulder_lift_joint": 0.2343300328213227,
        "distance_shoulder_pan_joint": 3.4312461759371082,
        "distance_wrist_1_joint": 0.6922171934881841,
        "distance_wrist_2_joint": 1.694059540620342,
        "distance_wrist_3_joint": 3.55869207516773,
        "smoothness": 0.03430686977538896,
        "time": 5.106036379000001,
        "traj_len": 3.6765959101414216,
        "weighted_distance": 4.798022339559562
    },
    "planner": "PRMstar",
    "start": {
        "state": {
            "elbow_joint": -1.9196185241190666,
            "shoulder_lift_joint": -1.2443396400964142,
            "shoulder_pan_joint": 2.6996025414629847,
            "wrist_1_joint": -1.5485510000780065,
            "wrist_2_joint": -1.5709468930060704,
            "wrist_3_joint": 0.4420197071253992
        }
    },
    "waypoints": [
        {
            "positions": [
                2.6996025414629847,
                -1.2443396400964142,
                -1.9196185241190666,
                -1.5485510000780065,
                -1.5709468930060704,
                0.4420197071253992
            ]
        },
        {
            "positions": [
                2.484994477319791,
                -1.2325027621784,
                -1.8955401663697204,
                -1.5322525130313636,
                -1.5035623489452585,
                0.3987148945572029
            ]
        },
        {
            "positions": [
                2.270386413176597,
                -1.220665884260386,
                -1.8714618086203743,
                -1.5159540259847206,
                -1.4361778048844467,
                0.35541008198900664
            ]
        },
        {
            "positions": [
                2.0557783490334036,
                -1.2088290063423717,
                -1.847383450871028,
                -1.4996555389380775,
                -1.3687932608236348,
                0.31210526942081035
            ]
        },
        {
            "positions": [
                1.8411702848902098,
                -1.1969921284243574,
                -1.823305093121682,
                -1.4833570518914345,
                -1.301408716762823,
                0.2688004568526141
            ]
        },
        {
            "positions": [
                1.626562220747016,
                -1.1851552505063432,
                -1.799226735372336,
                -1.4670585648447916,
                -1.2340241727020111,
                0.2254956442844178
            ]
        },
        {
            "positions": [
                1.4119541566038223,
                -1.1733183725883292,
                -1.7751483776229897,
                -1.4507600777981486,
                -1.166639628641199,
                0.18219083171622152
            ]
        },
        {
            "positions": [
                1.1973460924606285,
                -1.161481494670315,
                -1.7510700198736435,
                -1.4344615907515057,
                -1.0992550845803872,
                0.13888601914802523
            ]
        },
        {
            "positions": [
                0.982738028317435,
                -1.1496446167523007,
                -1.7269916621242973,
                -1.4181631037048625,
                -1.0318705405195754,
                0.09558120657982899
            ]
        },
        {
            "positions": [
                0.768129964174241,
                -1.1378077388342867,
                -1.7029133043749511,
                -1.4018646166582196,
                -0.9644859964587635,
                0.05227639401163264
            ]
        },
        {
            "positions": [
                0.5535219000310474,
                -1.1259708609162724,
                -1.678834946625605,
                -1.3855661296115767,
                -0.8971014523979517,
                0.008971581443436405
            ]
        },
        {
            "positions": [
                0.3389138358878534,
                -1.1141339829982582,
                -1.6547565888762588,
                -1.3692676425649337,
                -0.8297169083371398,
                -0.03433323112475989
            ]
        },
        {
            "positions": [
                0.12430577174465984,
                -1.1022971050802441,
                -1.6306782311269128,
                -1.3529691555182906,
                -0.762332364276328,
                -0.07763804369295613
            ]
        },
        {
            "positions": [
                -0.09030229239853416,
                -1.09046022716223,
                -1.6065998733775666,
                -1.3366706684716476,
                -0.694947820215516,
                -0.12094285626115242
            ]
        },
        {
            "positions": [
                -0.30491035654172777,
                -1.0786233492442157,
                -1.5825215156282204,
                -1.3203721814250047,
                -0.6275632761547042,
                -0.16424766882934866
            ]
        },
        {
            "positions": [
                -0.29268634773950086,
                -1.0814205906984464,
                -1.4135129261745203,
                -1.2979190710552826,
                -0.5897358340479478,
                -0.30488875825464434
            ]
        },
        {
            "positions": [
                -0.280462338937274,
                -1.084217832152677,
                -1.24450433672082,
                -1.2754659606855605,
                -0.5519083919411913,
                -0.44552984767993997
            ]
        },
        {
            "positions": [
                -0.26823833013504716,
                -1.0870150736069077,
                -1.0754957472671198,
                -1.2530128503158384,
                -0.514080949834435,
                -0.5861709371052356
            ]
        },
        {
            "positions": [
                -0.25601432133282026,
                -1.0898123150611385,
                -0.9064871578134196,
                -1.2305597399461161,
                -0.4762535077276786,
                -0.7268120265305313
            ]
        },
        {
            "positions": [
                -0.24379031253059338,
                -1.092609556515369,
                -0.7374785683597194,
                -1.208106629576394,
                -0.4384260656209222,
                -0.867453115955827
            ]
        },
        {
            "positions": [
                -0.2315663037283665,
                -1.0954067979695998,
                -0.568469978906019,
                -1.185653519206672,
                -0.40059862351416575,
                -1.0080942053811226
            ]
        },
        {
            "positions": [
                -0.21934229492613963,
                -1.0982040394238304,
                -0.3994613894523189,
                -1.1632004088369499,
                -0.3627711814074094,
                -1.1487352948064182
            ]
        },
        {
            "positions": [
                -0.20711828612391275,
                -1.1010012808780612,
                -0.23045279999861878,
                -1.1407472984672278,
                -0.32494373930065296,
                -1.2893763842317139
            ]
        },
        {
            "positions": [
                -0.19489427732168588,
                -1.103798522332292,
                -0.06144421054491844,
                -1.1182941880975057,
                -0.2871162971938966,
                -1.4300174736570095
            ]
        },
        {
            "positions": [
                -0.182670268519459,
                -1.1065957637865225,
                0.10756437890878168,
                -1.0958410777277834,
                -0.24928885508714016,
                -1.5706585630823051
            ]
        },
        {
            "positions": [
                -0.17044625971723212,
                -1.1093930052407532,
                0.27657296836248224,
                -1.0733879673580613,
                -0.21146141298038373,
                -1.7112996525076007
            ]
        },
        {
            "positions": [
                -0.15822225091500525,
                -1.112190246694984,
                0.44558155781618236,
                -1.0509348569883392,
                -0.17363397087362736,
                -1.8519407419328964
            ]
        },
        {
            "positions": [
                -0.14599824211277837,
                -1.1149874881492146,
                0.6145901472698827,
                -1.0284817466186171,
                -0.13580652876687094,
                -1.9925818313581922
            ]
        },
        {
            "positions": [
                -0.1337742333105515,
                -1.1177847296034453,
                0.7835987367235826,
                -1.006028636248895,
                -0.09797908666011457,
                -2.1332229207834876
            ]
        },
        {
            "positions": [
                -0.12155022450832462,
                -1.1205819710576759,
                0.9526073261772829,
                -0.9835755258791729,
                -0.060151644553358086,
                -2.2738640102087837
            ]
        },
        {
            "positions": [
                -0.10932621570609774,
                -1.1233792125119066,
                1.1216159156309828,
                -0.9611224155094508,
                -0.022324202446601715,
                -2.4145050996340793
            ]
        },
        {
            "positions": [
                -0.09710220690387086,
                -1.1261764539661374,
                1.2906245050846836,
                -0.9386693051397286,
                0.015503239660154655,
                -2.555146189059375
            ]
        },
        {
            "positions": [
                -0.08487819810164399,
                -1.128973695420368,
                1.4596330945383835,
                -0.9162161947700065,
                0.053330681766911026,
                -2.6957872784846706
            ]
        },
        {
            "positions": [
                -0.07265418929941711,
                -1.1317709368745987,
                1.6286416839920836,
                -0.8937630844002844,
                0.09115812387366753,
                -2.836428367909966
            ]
        },
        {
            "positions": [
                -0.007828485736054713,
                -1.1369263216541792,
                1.7481591040996807,
                -0.8812866584634638,
                0.1018096317872022,
                -2.9298430346207542
            ]
        },
        {
            "positions": [
                0.056997217827307683,
                -1.1420817064337594,
                1.8676765242072777,
                -0.868810232526643,
                0.11246113970073686,
                -3.0232577013315427
            ]
        },
        {
            "positions": [
                0.12182292139067008,
                -1.1472370912133398,
                1.9871939443148747,
                -0.8563338065898224,
                0.12311264761427153,
                -3.1166723680423307
            ]
        }
    ]
}