{
    "goal": {
        "global_pose": {
            "orientation": {
                "w": -0.00223480608172531,
                "x": 0.0024358444001904467,
                "y": 0.7094548369677653,
                "z": -0.704743149386269
            },
            "position": {
                "x": -0.37947507619857795,
                "y": -0.6371506643295288,
                "z": 0.19426114857196808
            }
        },
        "name": "move_to_magneteinheit_C"
    },
    "id": "PRMstar_move_to_magneteinheit_C_147",
    "joint_names": [
        "shoulder_pan_joint",
        "shoulder_lift_joint",
        "elbow_joint",
        "wrist_1_joint",
        "wrist_2_joint",
        "wrist_3_joint"
    ],
    "metrics": {
        "cart_traj_len": 2.1022016312007143,
        "distance_elbow_joint": 2.316813436275927,
        "distance_shoulder_lift_joint": 1.1468166263941313,
        "distance_shoulder_pan_joint": 1.1813258028430142,
        "distance_wrist_1_joint": 0.9835827028535721,
        "distance_wrist_2_joint": 2.1410692812403047,
        "distance_wrist_3_joint": 2.8954282201009827,
        "smoothness": 0.7700560117536924,
        "time": 5.046256233,
        "traj_len": 3.2657366810121,
        "weighted_distance": 4.424990903267913
    },
    "planner": "PRMstar",
    "start": {
        "state": {
            "elbow_joint": 1.9565354010623817,
            "shoulder_lift_joint": -1.4165861575791021,
            "shoulder_pan_joint": -1.6717766225146293,
            "wrist_1_joint": -0.5286633292919765,
            "wrist_2_joint": 1.472756589071564,
            "wrist_3_joint": -3.1238370188695823
        }
    },
    "waypoints": [
        {
            "positions": [
                -1.6717766225146293,
                -1.4165861575791021,
                1.9565354010623817,
                -0.5286633292919765,
                1.472756589071564,
                -3.1238370188695823
            ]
        },
        {
            "positions": [
                -1.632890182281277,
                -1.4345491702635014,
                1.9740389878653704,
                -0.5352318018033554,
                1.521911385379998,
                -2.9768757590586525
            ]
        },
        {
            "positions": [
                -1.5940037420479245,
                -1.4525121829479004,
                1.9915425746683593,
                -0.5418002743147344,
                1.571066181688432,
                -2.8299144992477228
            ]
        },
        {
            "positions": [
                -1.555117301814572,
                -1.4704751956322997,
                2.009046161471348,
                -0.5483687468261134,
                1.620220977996866,
                -2.682953239436793
            ]
        },
        {
            "positions": [
                -1.5406781917063501,
                -1.4851939283009372,
                1.9969858306078883,
                -0.5808308793508544,
                1.6989036082295463,
                -2.5308174586269456
            ]
        },
        {
            "positions": [
                -1.526239081598128,
                -1.4999126609695748,
                1.9849254997444286,
                -0.6132930118755954,
                1.777586238462227,
                -2.3786816778170987
            ]
        },
        {
            "positions": [
                -1.511799971489906,
                -1.5146313936382123,
                1.9728651688809689,
                -0.6457551444003364,
                1.8562688686949074,
                -2.2265458970072514
            ]
        },
        {
            "positions": [
                -1.5029011261472294,
                -1.527250848675264,
                1.9452830782022577,
                -0.6872272138430237,
                1.9444896343744416,
                -2.0471164642105317
            ]
        },
        {
            "positions": [
                -1.4940022808045526,
                -1.539870303712316,
                1.9177009875235467,
                -0.7286992832857108,
                2.032710400053976,
                -1.867687031413812
            ]
        },
        {
            "positions": [
                -1.485103435461876,
                -1.5524897587493678,
                1.8901188968448355,
                -0.770171352728398,
                2.12093116573351,
                -1.6882575986170925
            ]
        },
        {
            "positions": [
                -1.5702518039840359,
                -1.500297816347275,
                1.7679952715992147,
                -0.7938734584520601,
                2.0483472106815404,
                -1.726995122990089
            ]
        },
        {
            "positions": [
                -1.6554001725061958,
                -1.4481058739451826,
                1.6458716463535936,
                -0.8175755641757224,
                1.9757632556295708,
                -1.7657326473630857
            ]
        },
        {
            "positions": [
                -1.7405485410283557,
                -1.39591393154309,
                1.5237480211079728,
                -0.8412776698993846,
                1.9031793005776012,
                -1.8044701717360825
            ]
        },
        {
            "positions": [
                -1.8256969095505156,
                -1.3437219891409973,
                1.401624395862352,
                -0.8649797756230467,
                1.8305953455256314,
                -1.843207696109079
            ]
        },
        {
            "positions": [
                -1.9108452780726755,
                -1.2915300467389046,
                1.279500770616731,
                -0.888681881346709,
                1.7580113904736616,
                -1.8819452204820757
            ]
        },
        {
            "positions": [
                -1.9959936465948354,
                -1.2393381043368121,
                1.1573771453711101,
                -0.9123839870703712,
                1.685427435421692,
                -1.9206827448550723
            ]
        },
        {
            "positions": [
                -2.0738144017720415,
                -1.19014127781789,
                1.0642941269574706,
                -0.9284136594651792,
                1.6010292846262746,
                -1.9835659349323584
            ]
        },
        {
            "positions": [
                -2.1516351569492476,
                -1.140944451298968,
                0.971211108543831,
                -0.9444433318599872,
                1.5166311338308571,
                -2.046449125009645
            ]
        },
        {
            "positions": [
                -2.2294559121264537,
                -1.0917476247800457,
                0.8781280901301913,
                -0.9604730042547952,
                1.4322329830354397,
                -2.109332315086931
            ]
        },
        {
            "positions": [
                -2.2735352449839743,
                -1.0613514885319497,
                0.9246474009760195,
                -0.970743003066582,
                1.333404870840561,
                -2.186377256326405
            ]
        },
        {
            "positions": [
                -2.317614577841495,
                -1.030955352283854,
                0.9711667118218477,
                -0.9810130018783687,
                1.2345767586456824,
                -2.2634221975658786
            ]
        },
        {
            "positions": [
                -2.357073539291425,
                -0.9861599496934996,
                1.0720125876564843,
                -1.0301100117543194,
                1.1552760706145873,
                -2.319289294206751
            ]
        },
        {
            "positions": [
                -2.3965325007413547,
                -0.9413645471031452,
                1.1728584634911208,
                -1.0792070216302698,
                1.0759753825834921,
                -2.375156390847623
            ]
        },
        {
            "positions": [
                -2.435991462191285,
                -0.8965691445127908,
                1.2737043393257572,
                -1.1283040315062205,
                0.996674694552397,
                -2.431023487488495
            ]
        },
        {
            "positions": [
                -2.475450423641215,
                -0.8517737419224365,
                1.3745502151603939,
                -1.1774010413821712,
                0.9173740065213019,
                -2.4868905841293674
            ]
        },
        {
            "positions": [
                -2.476035656055847,
                -0.874492008846247,
                1.4691905127408365,
                -1.1372768837083853,
                0.8372570125402122,
                -2.5525518599017487
            ]
        },
        {
            "positions": [
                -2.4766208884704795,
                -0.8972102757700576,
                1.5638308103212792,
                -1.0971527260345992,
                0.7571400185591226,
                -2.6182131356741296
            ]
        },
        {
            "positions": [
                -2.4772061208851115,
                -0.9199285426938681,
                1.6584711079017218,
                -1.0570285683608134,
                0.6770230245780329,
                -2.683874411446511
            ]
        },
        {
            "positions": [
                -2.4770761680902114,
                -0.9719996040257765,
                1.7534891445321767,
                -1.0122651350446137,
                0.6671358653793839,
                -2.789619901786415
            ]
        },
        {
            "positions": [
                -2.476946215295311,
                -1.0240706653576848,
                1.848507181162632,
                -0.9675017017284139,
                0.6572487061807347,
                -2.8953653921263185
            ]
        },
        {
            "positions": [
                -2.4768162625004106,
                -1.076141726689593,
                1.9435252177930868,
                -0.9227382684122141,
                0.6473615469820857,
                -3.0011108824662225
            ]
        },
        {
            "positions": [
                -2.475736226509248,
                -1.119056238504482,
                1.977518956224541,
                -0.8826471595155039,
                0.6570240898955528,
                -3.074608640465904
            ]
        },
        {
            "positions": [
                -2.474656190518086,
                -1.1619707503193708,
                2.011512694655995,
                -0.8425560506187938,
                0.66668663280902,
                -3.1481063984655853
            ]
        }
    ]
}