{
    "goal": {
        "global_pose": {
            "orientation": {
                "w": 0.005598929693374612,
                "x": 0.007748599140229565,
                "y": 0.7110244013736278,
                "z": -0.7031023480610252
            },
            "position": {
                "x": 0.1141497679147869,
                "y": -0.7141253447532654,
                "z": 0.3711530566215515
            }
        },
        "name": "move_to_auspresseinheit_B"
    },
    "id": "PRMstar_move_to_auspresseinheit_B_17",
    "joint_names": [
        "shoulder_pan_joint",
        "shoulder_lift_joint",
        "elbow_joint",
        "wrist_1_joint",
        "wrist_2_joint",
        "wrist_3_joint"
    ],
    "metrics": {
        "cart_traj_len": 0.5652197153806653,
        "distance_elbow_joint": 0.06054772819267917,
        "distance_shoulder_lift_joint": 0.2956798897947954,
        "distance_shoulder_pan_joint": 0.5781196563516109,
        "distance_wrist_1_joint": 0.32047991917350616,
        "distance_wrist_2_joint": 0.9930381940597548,
        "distance_wrist_3_joint": 0.0005690105022111425,
        "smoothness": 0.0,
        "time": 5.003554969,
        "traj_len": 1.4994780418780922,
        "weighted_distance": 1.8876150381664798
    },
    "planner": "PRMstar",
    "start": {
        "state": {
            "elbow_joint": 2.0193083361928714,
            "shoulder_lift_joint": -1.1220246554650708,
            "shoulder_pan_joint": -1.0952077554168747,
            "wrist_1_joint": -0.8559753972642168,
            "wrist_2_joint": 0.4759566250798843,
            "wrist_3_joint": -3.1240929996934557
        }
    },
    "waypoints": [
        {
            "positions": [
                -1.0952077554168747,
                -1.1220246554650708,
                2.0193083361928714,
                -0.8559753972642168,
                0.4759566250798843,
                -3.1240929996934557
            ]
        },
        {
            "positions": [
                -1.1915610314754765,
                -1.1713046370975366,
                2.009217048160758,
                -0.8025620774019657,
                0.6414629907565101,
                -3.1241878347771577
            ]
        },
        {
            "positions": [
                -1.2879143075340782,
                -1.2205846187300027,
                1.999125760128645,
                -0.7491487575397148,
                0.8069693564331359,
                -3.1242826698608592
            ]
        },
        {
            "positions": [
                -1.38426758359268,
                -1.2698646003624685,
                1.9890344720965318,
                -0.6957354376774637,
                0.9724757221097617,
                -3.1243775049445612
            ]
        },
        {
            "positions": [
                -1.4806208596512818,
                -1.3191445819949343,
                1.9789431840644187,
                -0.6423221178152128,
                1.1379820877863875,
                -3.1244723400282632
            ]
        },
        {
            "positions": [
                -1.5769741357098837,
                -1.3684245636274004,
                1.9688518960323054,
                -0.5889087979529617,
                1.3034884534630133,
                -3.124567175111965
            ]
        },
        {
            "positions": [
                -1.6733274117684855,
                -1.4177045452598662,
                1.9587606080001922,
                -0.5354954780907106,
                1.4689948191396391,
                -3.124662010195667
            ]
        }
    ]
}