{
    "goal": {
        "global_pose": {
            "orientation": {
                "w": 0.005598929693374612,
                "x": 0.007748599140229565,
                "y": 0.7110244013736278,
                "z": -0.7031023480610252
            },
            "position": {
                "x": 0.1141497679147869,
                "y": -0.7141253447532654,
                "z": 0.3711530566215515
            }
        },
        "name": "move_to_auspresseinheit_B"
    },
    "id": "PRMstar_move_to_auspresseinheit_B_1",
    "joint_names": [
        "shoulder_pan_joint",
        "shoulder_lift_joint",
        "elbow_joint",
        "wrist_1_joint",
        "wrist_2_joint",
        "wrist_3_joint"
    ],
    "metrics": {
        "cart_traj_len": 0.5650534392152264,
        "distance_elbow_joint": 0.06051324763693344,
        "distance_shoulder_lift_joint": 0.29491823515468174,
        "distance_shoulder_pan_joint": 0.5764391100442008,
        "distance_wrist_1_joint": 0.31597973248612465,
        "distance_wrist_2_joint": 0.9985128389182929,
        "distance_wrist_3_joint": 0.0024911698143363914,
        "smoothness": 5.075305255429287e-16,
        "time": 5.002904395000001,
        "traj_len": 1.4996180627261628,
        "weighted_distance": 1.8890021823935674
    },
    "planner": "PRMstar",
    "start": {
        "state": {
            "elbow_joint": 2.0193083361928714,
            "shoulder_lift_joint": -1.1220246554650708,
            "shoulder_pan_joint": -1.0952077554168747,
            "wrist_1_joint": -0.8559753972642168,
            "wrist_2_joint": 0.4759566250798843,
            "wrist_3_joint": -3.1240929996934557
        }
    },
    "waypoints": [
        {
            "positions": [
                -1.0952077554168747,
                -1.1220246554650708,
                2.0193083361928714,
                -0.8559753972642168,
                0.4759566250798843,
                -3.1240929996934557
            ]
        },
        {
            "positions": [
                -1.1912809404242415,
                -1.1711776946575179,
                2.009222794920049,
                -0.8033121085165293,
                0.6423754315662664,
                -3.1245081946625115
            ]
        },
        {
            "positions": [
                -1.2873541254316083,
                -1.2203307338499647,
                1.999137253647227,
                -0.7506488197688419,
                0.8087942380526485,
                -3.124923389631568
            ]
        },
        {
            "positions": [
                -1.3834273104389752,
                -1.2694837730424116,
                1.9890517123744047,
                -0.6979855310211545,
                0.9752130445390308,
                -3.125338584600624
            ]
        },
        {
            "positions": [
                -1.4795004954463418,
                -1.3186368122348586,
                1.9789661711015825,
                -0.645322242273467,
                1.1416318510254129,
                -3.12575377956968
            ]
        },
        {
            "positions": [
                -1.5755736804537086,
                -1.3677898514273057,
                1.9688806298287602,
                -0.5926589535257796,
                1.3080506575117952,
                -3.1261689745387358
            ]
        },
        {
            "positions": [
                -1.6716468654610754,
                -1.4169428906197525,
                1.958795088555938,
                -0.5399956647780921,
                1.4744694639981772,
                -3.126584169507792
            ]
        }
    ]
}