{
    "goal": {
        "global_pose": {
            "orientation": {
                "w": 0.5084816217422485,
                "x": -0.49083608388900757,
                "y": 0.5182115435600281,
                "z": -0.4816462993621826
            },
            "position": {
                "x": 0.5540239810943604,
                "y": 0.030875300988554955,
                "z": 0.16403168439865112
            }
        },
        "name": "move_to_storage_A"
    },
    "id": "PRMstar_move_to_storage_A_123",
    "joint_names": [
        "shoulder_pan_joint",
        "shoulder_lift_joint",
        "elbow_joint",
        "wrist_1_joint",
        "wrist_2_joint",
        "wrist_3_joint"
    ],
    "metrics": {
        "cart_traj_len": 0.35221403436067666,
        "distance_elbow_joint": 0.44798701417095743,
        "distance_shoulder_lift_joint": 0.23417394842738237,
        "distance_shoulder_pan_joint": 0.45743436606416416,
        "distance_wrist_1_joint": 0.23635498769291552,
        "distance_wrist_2_joint": 1.1102786840466972,
        "distance_wrist_3_joint": 0.09583985018619279,
        "smoothness": 2.2204460668324854e-16,
        "time": 5.009152852,
        "traj_len": 1.6068817164272888,
        "weighted_distance": 2.029872464639172
    },
    "planner": "PRMstar",
    "start": {
        "state": {
            "elbow_joint": 1.971548259319323,
            "shoulder_lift_joint": -1.1394851275133948,
            "shoulder_pan_joint": 0.1228115487234821,
            "wrist_1_joint": -0.7804723859257726,
            "wrist_2_joint": 0.12958671773740124,
            "wrist_3_joint": -3.192489227718131
        }
    },
    "waypoints": [
        {
            "positions": [
                0.1228115487234821,
                -1.1394851275133948,
                1.971548259319323,
                -0.7804723859257726,
                0.12958671773740124,
                -3.192489227718131
            ]
        },
        {
            "positions": [
                0.05746378214288722,
                -1.1729385487173065,
                2.0355464042008884,
                -0.8142373841676177,
                0.2881979583155008,
                -3.178797820548675
            ]
        },
        {
            "positions": [
                -0.007883984437707658,
                -1.2063919699212184,
                2.0995445490824536,
                -0.8480023824094628,
                0.4468091988936004,
                -3.165106413379219
            ]
        },
        {
            "positions": [
                -0.07323175101830254,
                -1.2398453911251301,
                2.163542693964019,
                -0.8817673806513078,
                0.6054204394717,
                -3.151415006209763
            ]
        },
        {
            "positions": [
                -0.13857951759889742,
                -1.2732988123290419,
                2.2275408388455844,
                -0.9155323788931529,
                0.7640316800497996,
                -3.1377235990403065
            ]
        },
        {
            "positions": [
                -0.2039272841794923,
                -1.3067522335329538,
                2.2915389837271496,
                -0.949297377134998,
                0.9226429206278992,
                -3.1240321918708505
            ]
        },
        {
            "positions": [
                -0.2692750507600872,
                -1.3402056547368655,
                2.3555371286087152,
                -0.983062375376843,
                1.0812541612059987,
                -3.1103407847013944
            ]
        },
        {
            "positions": [
                -0.33462281734068205,
                -1.3736590759407772,
                2.4195352734902804,
                -1.0168273736186881,
                1.2398654017840984,
                -3.0966493775319384
            ]
        }
    ]
}{
    "goal": {
        "global_pose": {
            "orientation": {
                "w": 0.5084816217422485,
                "x": -0.49083608388900757,
                "y": 0.5182115435600281,
                "z": -0.4816462993621826
            },
            "position": {
                "x": 0.5540239810943604,
                "y": 0.030875300988554955,
                "z": 0.16403168439865112
            }
        },
        "name": "move_to_storage_A"
    },
    "id": "PRMstar_move_to_storage_A_123",
    "joint_names": [
        "shoulder_pan_joint",
        "shoulder_lift_joint",
        "elbow_joint",
        "wrist_1_joint",
        "wrist_2_joint",
        "wrist_3_joint"
    ],
    "metrics": {
        "cart_traj_len": 0.354000184376777,
        "distance_elbow_joint": 0.4483411223058096,
        "distance_shoulder_lift_joint": 0.23547050471977715,
        "distance_shoulder_pan_joint": 0.4620465330203901,
        "distance_wrist_1_joint": 0.23558372447617604,
        "distance_wrist_2_joint": 1.1044935651336902,
        "distance_wrist_3_joint": 0.09965740022733938,
        "smoothness": 4.440892098500626e-16,
        "time": 5.009718111000001,
        "traj_len": 1.6079778760552592,
        "weighted_distance": 2.031005893627029
    },
    "planner": "PRMstar",
    "start": {
        "state": {
            "elbow_joint": 1.97154746011099,
            "shoulder_lift_joint": -1.13948474672311,
            "shoulder_pan_joint": 0.12281154466712228,
            "wrist_1_joint": -0.7804688027058302,
            "wrist_2_joint": 0.12958655903071145,
            "wrist_3_joint": 3.0906928834467795
        }
    },
    "waypoints": [
        {
            "positions": [
                0.12281154466712228,
                -1.13948474672311,
                1.97154746011099,
                -0.7804688027058302,
                0.12958655903071145,
                3.0906928834467795
            ]
        },
        {
            "positions": [
                0.056804897092780846,
                -1.1731233902545066,
                2.035596191868963,
                -0.814123620488141,
                0.28737135404981007,
                3.104929654907828
            ]
        },
        {
            "positions": [
                -0.009201750481560592,
                -1.2067620337859035,
                2.0996449236269354,
                -0.8477784382704519,
                0.44515614906890866,
                3.1191664263688765
            ]
        },
        {
            "positions": [
                -0.07520839805590203,
                -1.2404006773173002,
                2.1636936553849084,
                -0.8814332560527628,
                0.6029409440880072,
                3.133403197829925
            ]
        },
        {
            "positions": [
                -0.14121504563024345,
                -1.2740393208486969,
                2.227742387142881,
                -0.9150880738350736,
                0.7607257391071058,
                3.1476399692909736
            ]
        },
        {
            "positions": [
                -0.20722169320458494,
                -1.3076779643800935,
                2.291791118900854,
                -0.9487428916173846,
                0.9185105341262045,
                3.161876740752022
            ]
        },
        {
            "positions": [
                -0.2732283407789263,
                -1.3413166079114904,
                2.3558398506588265,
                -0.9823977093996954,
                1.076295329145303,
                3.1761135122130706
            ]
        },
        {
            "positions": [
                -0.3392349883532678,
                -1.374955251442887,
                2.4198885824167995,
                -1.0160525271820062,
                1.2340801241644017,
                3.190350283674119
            ]
        }
    ]
}{
    "goal": {
        "global_pose": {
            "orientation": {
                "w": 0.5084816217422485,
                "x": -0.49083608388900757,
                "y": 0.5182115435600281,
                "z": -0.4816462993621826
            },
            "position": {
                "x": 0.5540239810943604,
                "y": 0.030875300988554955,
                "z": 0.16403168439865112
            }
        },
        "name": "move_to_storage_A"
    },
    "id": "PRMstar_move_to_storage_A_123",
    "joint_names": [
        "shoulder_pan_joint",
        "shoulder_lift_joint",
        "elbow_joint",
        "wrist_1_joint",
        "wrist_2_joint",
        "wrist_3_joint"
    ],
    "metrics": {
        "cart_traj_len": 0.3533773688318739,
        "distance_elbow_joint": 0.4491617302986324,
        "distance_shoulder_lift_joint": 0.23359095343401215,
        "distance_shoulder_pan_joint": 0.4636057514924022,
        "distance_wrist_1_joint": 0.24530641402033004,
        "distance_wrist_2_joint": 1.091860317244532,
        "distance_wrist_3_joint": 0.0948772992663347,
        "smoothness": 6.661338165333112e-16,
        "time": 5.003990722,
        "traj_len": 1.605740472727845,
        "weighted_distance": 2.026159864263868
    },
    "planner": "PRMstar",
    "start": {
        "state": {
            "elbow_joint": 1.9715472970024885,
            "shoulder_lift_joint": -1.1394870060712896,
            "shoulder_pan_joint": 0.12281152778156021,
            "wrist_1_joint": -0.780463741449964,
            "wrist_2_joint": 0.12958659822042276,
            "wrist_3_joint": 3.090690232415272
        }
    },
    "waypoints": [
        {
            "positions": [
                0.12281152778156021,
                -1.1394870060712896,
                1.9715472970024885,
                -0.780463741449964,
                0.12958659822042276,
                3.090690232415272
            ]
        },
        {
            "positions": [
                0.05658213471121705,
                -1.1728571422761485,
                2.035713258473722,
                -0.8155075148814397,
                0.2855666435410702,
                3.1042441323104626
            ]
        },
        {
            "positions": [
                -0.00964725835912611,
                -1.2062272784810073,
                2.0998792199449547,
                -0.8505512883129154,
                0.44154668886171766,
                3.1177980322056533
            ]
        },
        {
            "positions": [
                -0.07587665142946926,
                -1.2395974146858662,
                2.164045181416188,
                -0.8855950617443912,
                0.597526734182365,
                3.131351932100844
            ]
        },
        {
            "positions": [
                -0.14210604449981243,
                -1.272967550890725,
                2.2282111428874214,
                -0.9206388351758669,
                0.7535067795030125,
                3.1449058319960344
            ]
        },
        {
            "positions": [
                -0.20833543757015563,
                -1.306337687095584,
                2.2923771043586547,
                -0.9556826086073427,
                0.90948682482366,
                3.158459731891225
            ]
        },
        {
            "positions": [
                -0.27456483064049875,
                -1.339707823300443,
                2.3565430658298876,
                -0.9907263820388184,
                1.0654668701443073,
                3.172013631786416
            ]
        },
        {
            "positions": [
                -0.34079422371084195,
                -1.3730779595053018,
                2.420709027301121,
                -1.025770155470294,
                1.2214469154649548,
                3.1855675316816066
            ]
        }
    ]
}