{
    "goal": {
        "global_pose": {
            "orientation": {
                "w": -0.00223480608172531,
                "x": 0.0024358444001904467,
                "y": 0.7094548369677653,
                "z": -0.704743149386269
            },
            "position": {
                "x": -0.37947507619857795,
                "y": -0.6371506643295288,
                "z": 0.19426114857196808
            }
        },
        "name": "move_to_magneteinheit_C"
    },
    "id": "PRMstar_move_to_magneteinheit_C_98",
    "joint_names": [
        "shoulder_pan_joint",
        "shoulder_lift_joint",
        "elbow_joint",
        "wrist_1_joint",
        "wrist_2_joint",
        "wrist_3_joint"
    ],
    "metrics": {
        "cart_traj_len": 0.9347372834416519,
        "distance_elbow_joint": 0.3501550777218787,
        "distance_shoulder_lift_joint": 0.5509528891464524,
        "distance_shoulder_pan_joint": 1.1359129089377584,
        "distance_wrist_1_joint": 3.18080273436611,
        "distance_wrist_2_joint": 0.794694213404451,
        "distance_wrist_3_joint": 0.3890475824568491,
        "smoothness": 1.1589204744100858,
        "time": 5.04938541,
        "traj_len": 2.530131499751248,
        "weighted_distance": 3.339933759630236
    },
    "planner": "PRMstar",
    "start": {
        "state": {
            "elbow_joint": 1.9565354010623817,
            "shoulder_lift_joint": -1.4165861575791021,
            "shoulder_pan_joint": -1.6717766225146293,
            "wrist_1_joint": -0.5286633292919765,
            "wrist_2_joint": 1.472756589071564,
            "wrist_3_joint": -3.1238370188695823
        }
    },
    "waypoints": [
        {
            "positions": [
                -1.6717766225146293,
                -1.4165861575791021,
                1.9565354010623817,
                -0.5286633292919765,
                1.472756589071564,
                -3.1238370188695823
            ]
        },
        {
            "positions": [
                -1.7437777002104364,
                -1.451001366937086,
                1.9483705349939873,
                -0.3615187875780995,
                1.4619805704544202,
                -3.1092136620597524
            ]
        },
        {
            "positions": [
                -1.8157787779062438,
                -1.4854165762950702,
                1.9402056689255927,
                -0.19437424586422258,
                1.4512045518372765,
                -3.0945903052499224
            ]
        },
        {
            "positions": [
                -1.8877798556020509,
                -1.519831785653054,
                1.9320408028571983,
                -0.027229704150345646,
                1.4404285332201328,
                -3.0799669484400924
            ]
        },
        {
            "positions": [
                -2.0131446154534753,
                -1.5273846245472775,
                1.9113164329719776,
                0.12921565164675597,
                1.3840915685982398,
                -3.0571979278377466
            ]
        },
        {
            "positions": [
                -2.1385093753049,
                -1.534937463441501,
                1.890592063086757,
                0.2856610074438576,
                1.3277546039763466,
                -3.0344289072354007
            ]
        },
        {
            "positions": [
                -2.2638741351563243,
                -1.5424903023357244,
                1.8698676932015363,
                0.44210636324095925,
                1.2714176393544536,
                -3.011659886633055
            ]
        },
        {
            "positions": [
                -2.389238895007749,
                -1.5500431412299478,
                1.8491433233163155,
                0.5985517190380608,
                1.2150806747325607,
                -2.9888908660307094
            ]
        },
        {
            "positions": [
                -2.5146036548591733,
                -1.5575959801241712,
                1.8284189534310948,
                0.7549970748351625,
                1.1587437101106675,
                -2.9661218454283635
            ]
        },
        {
            "positions": [
                -2.639968414710598,
                -1.5651488190183946,
                1.8076945835458742,
                0.9114424306322642,
                1.1024067454887745,
                -2.9433528248260177
            ]
        },
        {
            "positions": [
                -2.6190032751178745,
                -1.5148500405549996,
                1.8328588660715457,
                0.6938553088270305,
                1.0493636992610669,
                -2.9694232483776783
            ]
        },
        {
            "positions": [
                -2.5980381355251505,
                -1.4645512620916046,
                1.858023148597217,
                0.4762681870217968,
                0.996320653033359,
                -2.9954936719293386
            ]
        },
        {
            "positions": [
                -2.5770729959324266,
                -1.4142524836282098,
                1.8831874311228884,
                0.2586810652165631,
                0.9432776068056514,
                -3.0215640954809992
            ]
        },
        {
            "positions": [
                -2.556107856339703,
                -1.3639537051648147,
                1.90835171364856,
                0.04109394341132944,
                0.8902345605779437,
                -3.04763451903266
            ]
        },
        {
            "positions": [
                -2.5351427167469796,
                -1.3136549267014197,
                1.9335159961742312,
                -0.17649317839390433,
                0.837191514350236,
                -3.0737049425843206
            ]
        },
        {
            "positions": [
                -2.5141775771542556,
                -1.263356148238025,
                1.9586802786999027,
                -0.394080300199138,
                0.7841484681225284,
                -3.0997753661359813
            ]
        },
        {
            "positions": [
                -2.4932124375615317,
                -1.2130573697746299,
                1.983844561225574,
                -0.6116674220043716,
                0.7311054218948206,
                -3.1258457896876415
            ]
        },
        {
            "positions": [
                -2.472247297968808,
                -1.1627585913112348,
                2.0090088437512454,
                -0.8292545438096053,
                0.6780623756671129,
                -3.151916213239302
            ]
        }
    ]
}