{
    "goal": {
        "global_pose": {
            "orientation": {
                "w": -0.00223480608172531,
                "x": 0.0024358444001904467,
                "y": 0.7094548369677653,
                "z": -0.704743149386269
            },
            "position": {
                "x": 0.6205249238014221,
                "y": -0.6371506643295288,
                "z": 0.19426114857196808
            }
        },
        "name": "move_to_magneteinheit_B"
    },
    "id": "PRMstar_move_to_magneteinheit_B_20",
    "joint_names": [
        "shoulder_pan_joint",
        "shoulder_lift_joint",
        "elbow_joint",
        "wrist_1_joint",
        "wrist_2_joint",
        "wrist_3_joint"
    ],
    "metrics": {
        "cart_traj_len": 1.5106908491234257,
        "distance_elbow_joint": 0.9583504001114107,
        "distance_shoulder_lift_joint": 0.7567646483493358,
        "distance_shoulder_pan_joint": 1.6217432035337151,
        "distance_wrist_1_joint": 0.6414677488341254,
        "distance_wrist_2_joint": 1.5197609589964558,
        "distance_wrist_3_joint": 0.10211076836440748,
        "smoothness": 0.23954131917126725,
        "time": 5.052489933,
        "traj_len": 2.366473690576223,
        "weighted_distance": 2.8223479538761422
    },
    "planner": "PRMstar",
    "start": {
        "state": {
            "elbow_joint": 2.6216224122426386,
            "shoulder_lift_joint": -1.4174107377796124,
            "shoulder_pan_joint": 0.7066234856936794,
            "wrist_1_joint": 1.9546482284002225,
            "wrist_2_joint": -0.7096286983471962,
            "wrist_3_joint": 0.005740856962016249
        }
    },
    "waypoints": [
        {
            "positions": [
                0.7066234856936794,
                -1.4174107377796124,
                2.6216224122426386,
                1.9546482284002225,
                -0.7096286983471962,
                0.005740856962016249
            ]
        },
        {
            "positions": [
                0.6206617059747449,
                -1.3546873651021965,
                2.571840024878896,
                1.8783268882830702,
                -0.7090722928594836,
                -0.01082146436253966
            ]
        },
        {
            "positions": [
                0.5346999262558105,
                -1.2919639924247805,
                2.5220576375151533,
                1.802005548165918,
                -0.708515887371771,
                -0.02738378568709557
            ]
        },
        {
            "positions": [
                0.448738146536876,
                -1.2292406197473646,
                2.472275250151411,
                1.7256842080487658,
                -0.7079594818840583,
                -0.043946107011651483
            ]
        },
        {
            "positions": [
                0.3350833245054667,
                -1.1818577422209406,
                2.404858313649729,
                1.760059518755655,
                -0.8344671270951681,
                -0.03957745664575651
            ]
        },
        {
            "positions": [
                0.22142850247405735,
                -1.1344748646945166,
                2.337441377148047,
                1.7944348294625438,
                -0.960974772306278,
                -0.03520880627986153
            ]
        },
        {
            "positions": [
                0.10777368044264801,
                -1.0870919871680926,
                2.270024440646365,
                1.828810140169433,
                -1.0874824175173878,
                -0.03084015591396655
            ]
        },
        {
            "positions": [
                -0.005881141588761296,
                -1.0397091096416686,
                2.2026075041446833,
                1.863185450876322,
                -1.2139900627284976,
                -0.026471505548071574
            ]
        },
        {
            "positions": [
                -0.11953596362017066,
                -0.9923262321152446,
                2.135190567643001,
                1.897560761583211,
                -1.3404977079396074,
                -0.022102855182176594
            ]
        },
        {
            "positions": [
                -0.23319078565157997,
                -0.9449433545888206,
                2.0677736311413195,
                1.9319360722901,
                -1.4670053531507175,
                -0.01773420481628162
            ]
        },
        {
            "positions": [
                -0.3468456076829894,
                -0.8975604770623966,
                2.0003566946396374,
                1.9663113829969892,
                -1.5935129983618272,
                -0.01336555445038664
            ]
        },
        {
            "positions": [
                -0.4605004297143986,
                -0.8501775995359726,
                1.9329397581379557,
                2.0006866937038783,
                -1.720020643572937,
                -0.008996904084491664
            ]
        },
        {
            "positions": [
                -0.574155251745808,
                -0.8027947220095486,
                1.8655228216362736,
                2.0350620044107672,
                -1.8465282887840466,
                -0.004628253718596688
            ]
        },
        {
            "positions": [
                -0.6878100737772173,
                -0.7554118444831246,
                1.7981058851345917,
                2.069437315117656,
                -1.9730359339951566,
                -0.00025960335270170526
            ]
        },
        {
            "positions": [
                -0.8014648958086266,
                -0.7080289669567006,
                1.7306889486329098,
                2.1038126258245455,
                -2.0995435792062667,
                0.0041090470131932635
            ]
        },
        {
            "positions": [
                -0.9151197178400359,
                -0.6606460894302766,
                1.6632720121312279,
                2.1381879365314345,
                -2.2260512244173762,
                0.008477697379088246
            ]
        }
    ]
}