{
    "goal": {
        "global_pose": {
            "orientation": {
                "w": 0.7047431493862688,
                "x": -0.7094548369677653,
                "y": 0.0024358444001904,
                "z": -0.0022348060817251984
            },
            "position": {
                "x": -0.39052492380142206,
                "y": 0.3671506643295288,
                "z": 0.19426114857196808
            }
        },
        "name": "move_to_magneteinheit_D"
    },
    "id": "PRMstar_move_to_magneteinheit_D_78",
    "joint_names": [
        "shoulder_pan_joint",
        "shoulder_lift_joint",
        "elbow_joint",
        "wrist_1_joint",
        "wrist_2_joint",
        "wrist_3_joint"
    ],
    "metrics": {
        "cart_traj_len": 5.01490597227532,
        "distance_elbow_joint": 3.3540431561490665,
        "distance_shoulder_lift_joint": 2.3866502262451132,
        "distance_shoulder_pan_joint": 2.945712669596366,
        "distance_wrist_1_joint": 2.7135058901074443,
        "distance_wrist_2_joint": 1.5682199457755015,
        "distance_wrist_3_joint": 3.8493137215382065,
        "smoothness": 0.7917534823868483,
        "time": 5.0709444580000005,
        "traj_len": 4.100907900625384,
        "weighted_distance": 5.3663580656131264
    },
    "planner": "PRMstar",
    "start": {
        "state": {
            "elbow_joint": 0.749534889911806,
            "shoulder_lift_joint": -0.6476975780787326,
            "shoulder_pan_joint": -2.711696901376241,
            "wrist_1_joint": -0.07506478083263063,
            "wrist_2_joint": 0.43296659715538205,
            "wrist_3_joint": -3.14703540197715
        }
    },
    "waypoints": [
        {
            "positions": [
                -2.711696901376241,
                -0.6476975780787326,
                0.749534889911806,
                -0.07506478083263063,
                0.43296659715538205,
                -3.14703540197715
            ]
        },
        {
            "positions": [
                -2.7161668315426573,
                -0.74937270576004,
                0.6837970982104046,
                0.012101059110723678,
                0.5155648824323439,
                -3.1858762017148345
            ]
        },
        {
            "positions": [
                -2.7206367617090734,
                -0.8510478334413474,
                0.6180593065090032,
                0.09926689905407798,
                0.5981631677093058,
                -3.224717001452519
            ]
        },
        {
            "positions": [
                -2.7251066918754896,
                -0.9527229611226546,
                0.5523215148076019,
                0.1864327389974323,
                0.6807614529862676,
                -3.263557801190204
            ]
        },
        {
            "positions": [
                -2.7295766220419058,
                -1.054398088803962,
                0.4865837231062005,
                0.2735985789407866,
                0.7633597382632293,
                -3.3023986009278885
            ]
        },
        {
            "positions": [
                -2.7340465522083215,
                -1.1560732164852694,
                0.42084593140479915,
                0.3607644188841409,
                0.8459580235401912,
                -3.341239400665573
            ]
        },
        {
            "positions": [
                -2.7385164823747377,
                -1.2577483441665767,
                0.35510813970339783,
                0.4479302588274952,
                0.9285563088171531,
                -3.380080200403258
            ]
        },
        {
            "positions": [
                -2.742986412541154,
                -1.359423471847884,
                0.28937034800199646,
                0.5350960987708495,
                1.011154594094115,
                -3.4189210001409425
            ]
        },
        {
            "positions": [
                -2.74745634270757,
                -1.4610985995291914,
                0.2236325563005951,
                0.6222619387142039,
                1.0937528793710767,
                -3.457761799878627
            ]
        },
        {
            "positions": [
                -2.6598182840627613,
                -1.4135973072882793,
                0.22978636397629715,
                0.5482173797693881,
                1.0350552208376074,
                -3.376692227977604
            ]
        },
        {
            "positions": [
                -2.5721802254179527,
                -1.3660960150473673,
                0.2359401716519992,
                0.47417282082457235,
                0.9763575623041382,
                -3.2956226560765813
            ]
        },
        {
            "positions": [
                -2.484542166773144,
                -1.3185947228064552,
                0.24209397932770127,
                0.40012826187975664,
                0.9176599037706689,
                -3.2145530841755585
            ]
        },
        {
            "positions": [
                -2.396904108128335,
                -1.2710934305655432,
                0.24824778700340333,
                0.3260837029349409,
                0.8589622452371997,
                -3.1334835122745357
            ]
        },
        {
            "positions": [
                -2.309266049483526,
                -1.223592138324631,
                0.2544015946791054,
                0.2520391439901251,
                0.8002645867037304,
                -3.0524139403735133
            ]
        },
        {
            "positions": [
                -2.2216279908387175,
                -1.176090846083719,
                0.26055540235480745,
                0.1779945850453094,
                0.741566928170261,
                -2.9713443684724905
            ]
        },
        {
            "positions": [
                -2.133989932193909,
                -1.128589553842807,
                0.2667092100305095,
                0.10395002610049364,
                0.6828692696367917,
                -2.8902747965714677
            ]
        },
        {
            "positions": [
                -2.0463518735491,
                -1.0810882616018949,
                0.2728630177062116,
                0.029905467155677858,
                0.6241716111033225,
                -2.809205224670445
            ]
        },
        {
            "positions": [
                -1.949301800432863,
                -1.1311662511753862,
                0.16904314209563492,
                0.08240176617184623,
                0.6238457413677116,
                -2.7257681041058865
            ]
        },
        {
            "positions": [
                -1.852251727316626,
                -1.1812442407488775,
                0.0652232664850583,
                0.13489806518801462,
                0.6235198716321008,
                -2.642330983541328
            ]
        },
        {
            "positions": [
                -1.755201654200389,
                -1.2313222303223688,
                -0.03859660912551832,
                0.18739436420418298,
                0.6231940018964899,
                -2.5588938629767695
            ]
        },
        {
            "positions": [
                -1.6581515810841516,
                -1.2814002198958598,
                -0.14241648473609497,
                0.23989066322035135,
                0.622868132160879,
                -2.475456742412211
            ]
        },
        {
            "positions": [
                -1.5611015079679147,
                -1.3314782094693511,
                -0.24623636034667162,
                0.2923869622365198,
                0.6225422624252682,
                -2.3920196218476524
            ]
        },
        {
            "positions": [
                -1.4640514348516775,
                -1.3815561990428424,
                -0.3500562359572482,
                0.34488326125268814,
                0.6222163926896573,
                -2.308582501283094
            ]
        },
        {
            "positions": [
                -1.3670013617354404,
                -1.4316341886163337,
                -0.4538761115678249,
                0.39737956026885657,
                0.6218905229540465,
                -2.2251453807185357
            ]
        },
        {
            "positions": [
                -1.2699512886192033,
                -1.481712178189825,
                -0.5576959871784015,
                0.4498758592850249,
                0.6215646532184356,
                -2.1417082601539774
            ]
        },
        {
            "positions": [
                -1.172901215502966,
                -1.5317901677633161,
                -0.6615158627889782,
                0.5023721583011933,
                0.6212387834828247,
                -2.0582711395894187
            ]
        },
        {
            "positions": [
                -1.075851142386729,
                -1.5818681573368076,
                -0.7653357383995548,
                0.5548684573173617,
                0.6209129137472138,
                -1.9748340190248603
            ]
        },
        {
            "positions": [
                -0.9788010692704918,
                -1.6319461469102987,
                -0.8691556140101316,
                0.6073647563335302,
                0.6205870440116029,
                -1.8913968984603018
            ]
        },
        {
            "positions": [
                -0.8817509961542549,
                -1.68202413648379,
                -0.972975489620708,
                0.6598610553496984,
                0.620261174275992,
                -1.8079597778957435
            ]
        },
        {
            "positions": [
                -0.7847009230380178,
                -1.7321021260572813,
                -1.076795365231285,
                0.7123573543658668,
                0.6199353045403811,
                -1.724522657331185
            ]
        },
        {
            "positions": [
                -0.6876508499217804,
                -1.7821801156307724,
                -1.1806152408418615,
                0.7648536533820353,
                0.6196094348047704,
                -1.6410855367666264
            ]
        },
        {
            "positions": [
                -0.5906007768055432,
                -1.832258105204264,
                -1.2844351164524381,
                0.8173499523982036,
                0.6192835650691595,
                -1.557648416202068
            ]
        },
        {
            "positions": [
                -0.4935507036893063,
                -1.882336094777755,
                -1.3882549920630147,
                0.8698462514143719,
                0.6189576953335486,
                -1.4742112956375097
            ]
        },
        {
            "positions": [
                -0.39650063057306917,
                -1.9324140843512463,
                -1.4920748676735913,
                0.9223425504305404,
                0.6186318255979377,
                -1.3907741750729512
            ]
        },
        {
            "positions": [
                -0.29945055745683197,
                -1.9824920739247376,
                -1.595894743284168,
                0.9748388494467087,
                0.6183059558623268,
                -1.3073370545083927
            ]
        },
        {
            "positions": [
                -0.25645362223635365,
                -2.006800782798816,
                -1.6998950747091384,
                1.0200753108144007,
                0.5780708020874322,
                -1.1813323208900648
            ]
        },
        {
            "positions": [
                -0.21345668701587533,
                -2.0311094916728947,
                -1.803895406134109,
                1.0653117721820926,
                0.5378356483125376,
                -1.0553275872717367
            ]
        },
        {
            "positions": [
                -0.17045975179539702,
                -2.055418200546973,
                -1.9078957375590795,
                1.1105482335497845,
                0.49760049453764293,
                -0.9293228536534088
            ]
        },
        {
            "positions": [
                -0.1274628165749187,
                -2.079726909421052,
                -2.01189606898405,
                1.1557846949174766,
                0.4573653407627483,
                -0.8033181200350809
            ]
        },
        {
            "positions": [
                -0.08446588135444039,
                -2.1040356182951307,
                -2.115896400409021,
                1.2010211562851685,
                0.41713018698785365,
                -0.6773133864167529
            ]
        },
        {
            "positions": [
                -0.04146894613396207,
                -2.1283443271692093,
                -2.219896731833991,
                1.2462576176528604,
                0.37689503321295903,
                -0.5513086527984249
            ]
        },
        {
            "positions": [
                -0.02659915752488045,
                -2.151185734553808,
                -2.295538029636504,
                1.2783741260277572,
                0.3379122731095666,
                -0.4401083530129939
            ]
        },
        {
            "positions": [
                -0.01172936891579883,
                -2.174027141938406,
                -2.371179327439017,
                1.3104906344026541,
                0.2989295130061742,
                -0.3289080532275629
            ]
        },
        {
            "positions": [
                -0.03430090806735271,
                -2.2018334638892094,
                -2.411015815743707,
                1.349963285254888,
                0.2614189153205333,
                -0.2068776817651709
            ]
        },
        {
            "positions": [
                -0.05687244721890659,
                -2.2296397858400123,
                -2.4508523040483974,
                1.3894359361071218,
                0.22390831763489238,
                -0.08484731030277895
            ]
        },
        {
            "positions": [
                -0.12141403530398584,
                -2.2519834571546324,
                -2.4232547843595826,
                1.4215820511324417,
                0.20511376672308018,
                -0.002010893272337652
            ]
        },
        {
            "positions": [
                -0.18595562338906507,
                -2.2743271284692526,
                -2.3956572646707675,
                1.4537281661577615,
                0.18631921581126795,
                0.08082552375810365
            ]
        }
    ]
}