{
    "goal": {
        "global_pose": {
            "orientation": {
                "w": -0.4816463035849501,
                "x": 0.5182115481033762,
                "y": 0.4908360881923453,
                "z": -0.5084816262002911
            },
            "position": {
                "x": -0.8240239810943604,
                "y": -0.300875300988555,
                "z": 0.16403168439865112
            }
        },
        "name": "move_to_storage_C"
    },
    "id": "PRMstar_move_to_storage_C_96",
    "joint_names": [
        "shoulder_pan_joint",
        "shoulder_lift_joint",
        "elbow_joint",
        "wrist_1_joint",
        "wrist_2_joint",
        "wrist_3_joint"
    ],
    "metrics": {
        "cart_traj_len": 0.5766559835155377,
        "distance_elbow_joint": 0.2567062742277888,
        "distance_shoulder_lift_joint": 0.18897250428761714,
        "distance_shoulder_pan_joint": 0.49537376584088877,
        "distance_wrist_1_joint": 0.07075066399329655,
        "distance_wrist_2_joint": 1.060574718341294,
        "distance_wrist_3_joint": 0.05773698773112068,
        "smoothness": 2.5376526478085547e-16,
        "time": 5.003215562,
        "traj_len": 1.4594913204339401,
        "weighted_distance": 1.8376382321389697
    },
    "planner": "PRMstar",
    "start": {
        "state": {
            "elbow_joint": 2.010868314990456,
            "shoulder_lift_joint": -1.1634956873337592,
            "shoulder_pan_joint": -2.4736205022346125,
            "wrist_1_joint": -0.8367026794202681,
            "wrist_2_joint": 0.6746043897044499,
            "wrist_3_joint": -3.1496632123970403
        }
    },
    "waypoints": [
        {
            "positions": [
                -2.4736205022346125,
                -1.1634956873337592,
                2.010868314990456,
                -0.8367026794202681,
                0.6746043897044499,
                -3.1496632123970403
            ]
        },
        {
            "positions": [
                -2.556182796541427,
                -1.1320002699524896,
                1.968083935952491,
                -0.8249109020880521,
                0.8513668427613322,
                -3.1400403811085202
            ]
        },
        {
            "positions": [
                -2.638745090848242,
                -1.1005048525712202,
                1.9252995569145261,
                -0.8131191247558359,
                1.0281292958182147,
                -3.13041754982
            ]
        },
        {
            "positions": [
                -2.7213073851550567,
                -1.0690094351899506,
                1.8825151778765614,
                -0.8013273474236198,
                1.204891748875097,
                -3.1207947185314797
            ]
        },
        {
            "positions": [
                -2.803869679461872,
                -1.037514017808681,
                1.8397307988385967,
                -0.7895355700914037,
                1.3816542019319793,
                -3.1111718872429597
            ]
        },
        {
            "positions": [
                -2.8864319737686865,
                -1.0060186004274116,
                1.7969464198006317,
                -0.7777437927591877,
                1.5584166549888616,
                -3.1015490559544396
            ]
        },
        {
            "positions": [
                -2.9689942680755013,
                -0.974523183046142,
                1.754162040762667,
                -0.7659520154269716,
                1.7351791080457437,
                -3.0919262246659196
            ]
        }
    ]
}