{
    "goal": {
        "global_pose": {
            "orientation": {
                "w": 0.7047431468963623,
                "x": -0.7094548344612122,
                "y": 0.0024358443915843964,
                "z": -0.0022348060738295317
            },
            "position": {
                "x": 0.6094750761985779,
                "y": 0.3671506643295288,
                "z": 0.19426114857196808
            }
        },
        "name": "move_to_magneteinheit_A"
    },
    "id": "PRMstar_move_to_magneteinheit_A_97",
    "joint_names": [
        "shoulder_pan_joint",
        "shoulder_lift_joint",
        "elbow_joint",
        "wrist_1_joint",
        "wrist_2_joint",
        "wrist_3_joint"
    ],
    "metrics": {
        "cart_traj_len": 3.145240674537249,
        "distance_elbow_joint": 3.8967485368795747,
        "distance_shoulder_lift_joint": 0.6831728175571112,
        "distance_shoulder_pan_joint": 2.848479761525007,
        "distance_wrist_1_joint": 1.445500596371714,
        "distance_wrist_2_joint": 1.6942585808977166,
        "distance_wrist_3_joint": 2.6745451487337633,
        "smoothness": 0.1989523245680429,
        "time": 5.053843415999999,
        "traj_len": 3.639052822090507,
        "weighted_distance": 4.661711586606559
    },
    "planner": "PRMstar",
    "start": {
        "state": {
            "elbow_joint": -1.9196185241190666,
            "shoulder_lift_joint": -1.2443396400964142,
            "shoulder_pan_joint": 2.6996025414629847,
            "wrist_1_joint": -1.5485510000780065,
            "wrist_2_joint": -1.5709468930060704,
            "wrist_3_joint": 0.4420197071253992
        }
    },
    "waypoints": [
        {
            "positions": [
                2.6996025414629847,
                -1.2443396400964142,
                -1.9196185241190666,
                -1.5485510000780065,
                -1.5709468930060704,
                0.4420197071253992
            ]
        },
        {
            "positions": [
                2.6048704799193345,
                -1.254729797185184,
                -1.7956388645808212,
                -1.509477182275317,
                -1.527200829245186,
                0.5203437166643112
            ]
        },
        {
            "positions": [
                2.5101384183756843,
                -1.2651199542739537,
                -1.671659205042576,
                -1.4704033644726275,
                -1.4834547654843016,
                0.5986677262032233
            ]
        },
        {
            "positions": [
                2.415406356832034,
                -1.2755101113627236,
                -1.5476795455043306,
                -1.431329546669938,
                -1.4397087017234174,
                0.6769917357421353
            ]
        },
        {
            "positions": [
                2.320674295288384,
                -1.2859002684514933,
                -1.4236998859660854,
                -1.3922557288672486,
                -1.395962637962533,
                0.7553157452810475
            ]
        },
        {
            "positions": [
                2.2259422337447337,
                -1.2962904255402632,
                -1.29972022642784,
                -1.353181911064559,
                -1.3522165742016485,
                0.8336397548199596
            ]
        },
        {
            "positions": [
                2.1312101722010834,
                -1.3066805826290329,
                -1.1757405668895948,
                -1.3141080932618698,
                -1.3084705104407641,
                0.9119637643588716
            ]
        },
        {
            "positions": [
                2.0364781106574332,
                -1.3170707397178028,
                -1.0517609073513494,
                -1.2750342754591801,
                -1.26472444667988,
                0.9902877738977837
            ]
        },
        {
            "positions": [
                1.9417460491137832,
                -1.3274608968065726,
                -0.9277812478131041,
                -1.2359604576564909,
                -1.2209783829189955,
                1.0686117834366957
            ]
        },
        {
            "positions": [
                1.8470139875701328,
                -1.3378510538953423,
                -0.8038015882748586,
                -1.1968866398538012,
                -1.177232319158111,
                1.1469357929756079
            ]
        },
        {
            "positions": [
                1.7522819260264826,
                -1.3482412109841122,
                -0.6798219287366134,
                -1.157812822051112,
                -1.1334862553972267,
                1.22525980251452
            ]
        },
        {
            "positions": [
                1.6575498644828326,
                -1.3586313680728819,
                -0.5558422691983682,
                -1.1187390042484224,
                -1.0897401916363423,
                1.3035838120534318
            ]
        },
        {
            "positions": [
                1.5628178029391824,
                -1.3690215251616518,
                -0.431862609660123,
                -1.079665186445733,
                -1.045994127875458,
                1.381907821592344
            ]
        },
        {
            "positions": [
                1.4680857413955322,
                -1.3794116822504217,
                -0.3078829501218774,
                -1.0405913686430435,
                -1.0022480641145735,
                1.460231831131256
            ]
        },
        {
            "positions": [
                1.373353679851882,
                -1.3898018393391913,
                -0.1839032905836322,
                -1.001517550840354,
                -0.9585020003536893,
                1.5385558406701683
            ]
        },
        {
            "positions": [
                1.2786216183082317,
                -1.400191996427961,
                -0.059923631045387005,
                -0.9624437330376645,
                -0.914755936592805,
                1.61687985020908
            ]
        },
        {
            "positions": [
                1.1838895567645817,
                -1.4105821535167309,
                0.06405602849285841,
                -0.9233699152349751,
                -0.8710098728319206,
                1.6952038597479921
            ]
        },
        {
            "positions": [
                1.0891574952209315,
                -1.4209723106055008,
                0.18803568803110338,
                -0.8842960974322857,
                -0.8272638090710362,
                1.7735278692869043
            ]
        },
        {
            "positions": [
                0.9944254336772811,
                -1.4313624676942704,
                0.31201534756934945,
                -0.8452222796295961,
                -0.7835177453101517,
                1.8518518788258165
            ]
        },
        {
            "positions": [
                0.8996933721336309,
                -1.4417526247830403,
                0.43599500710759465,
                -0.8061484618269066,
                -0.7397716815492674,
                1.9301758883647286
            ]
        },
        {
            "positions": [
                0.8049613105899807,
                -1.4521427818718102,
                0.5599746666458398,
                -0.7670746440242172,
                -0.696025617788383,
                2.008499897903641
            ]
        },
        {
            "positions": [
                0.7102292490463307,
                -1.46253293896058,
                0.683954326184085,
                -0.7280008262215277,
                -0.6522795540274987,
                2.0868239074425525
            ]
        },
        {
            "positions": [
                0.6154971875026805,
                -1.4729230960493496,
                0.8079339857223302,
                -0.6889270084188382,
                -0.6085334902666144,
                2.1651479169814647
            ]
        },
        {
            "positions": [
                0.5207651259590302,
                -1.4833132531381195,
                0.9319136452605754,
                -0.6498531906161489,
                -0.56478742650573,
                2.243471926520377
            ]
        },
        {
            "positions": [
                0.42603306441538,
                -1.4937034102268893,
                1.0558933047988206,
                -0.6107793728134594,
                -0.5210413627448456,
                2.3217959360592886
            ]
        },
        {
            "positions": [
                0.3313010028717298,
                -1.504093567315659,
                1.1798729643370667,
                -0.5717055550107698,
                -0.47729529898396117,
                2.400119945598201
            ]
        },
        {
            "positions": [
                0.2365689413280796,
                -1.514483724404429,
                1.3038526238753119,
                -0.5326317372080804,
                -0.43354923522307676,
                2.4784439551371134
            ]
        },
        {
            "positions": [
                0.14183687978442938,
                -1.5248738814931988,
                1.427832283413557,
                -0.49355791940539095,
                -0.38980317146219257,
                2.556767964676025
            ]
        },
        {
            "positions": [
                0.047104818240779125,
                -1.5352640385819685,
                1.5518119429518025,
                -0.4544841016027016,
                -0.34605710770130804,
                2.6350919742149372
            ]
        },
        {
            "positions": [
                0.026918095214072943,
                -1.4787537649708693,
                1.6083220801699394,
                -0.4965899878438356,
                -0.2764286295688058,
                2.6618683059095507
            ]
        },
        {
            "positions": [
                0.00673137218736676,
                -1.42224349135977,
                1.6648322173880763,
                -0.5386958740849697,
                -0.2068001514363036,
                2.6886446376041637
            ]
        },
        {
            "positions": [
                -0.013455350839339426,
                -1.3657332177486707,
                1.7213423546062132,
                -0.5808017603261038,
                -0.13717167330380134,
                2.715420969298777
            ]
        },
        {
            "positions": [
                0.020400116466331008,
                -1.310053818189106,
                1.785289269144787,
                -0.6370807701193555,
                -0.07205083300493952,
                2.8157069409388735
            ]
        },
        {
            "positions": [
                0.054255583772001445,
                -1.2543744186295411,
                1.8492361836833608,
                -0.6933597799126072,
                -0.006929992706077692,
                2.91599291257897
            ]
        },
        {
            "positions": [
                0.08811105107767188,
                -1.1986950190699763,
                1.9131830982219349,
                -0.7496387897058588,
                0.05819084759278412,
                3.016278884219066
            ]
        },
        {
            "positions": [
                0.1219665183833423,
                -1.1430156195104115,
                1.9771300127605087,
                -0.8059177994991106,
                0.12331168789164595,
                3.1165648558591625
            ]
        }
    ]
}