{
    "goal": {
        "global_pose": {
            "orientation": {
                "w": 0.005598929693374612,
                "x": 0.007748599140229565,
                "y": 0.7110244013736278,
                "z": -0.7031023480610252
            },
            "position": {
                "x": -0.8858502320852131,
                "y": -0.7141253447532654,
                "z": 0.3711530566215515
            }
        },
        "name": "move_to_auspresseinheit_C"
    },
    "id": "PRMstar_move_to_auspresseinheit_C_134",
    "joint_names": [
        "shoulder_pan_joint",
        "shoulder_lift_joint",
        "elbow_joint",
        "wrist_1_joint",
        "wrist_2_joint",
        "wrist_3_joint"
    ],
    "metrics": {
        "cart_traj_len": 0.49226455512828166,
        "distance_elbow_joint": 0.9864426255704618,
        "distance_shoulder_lift_joint": 0.3179848701225664,
        "distance_shoulder_pan_joint": 0.25647280086459023,
        "distance_wrist_1_joint": 0.6549765915202022,
        "distance_wrist_2_joint": 1.3078107246041144,
        "distance_wrist_3_joint": 0.04255414287671533,
        "smoothness": 9.689219149575435e-16,
        "time": 5.014107848999999,
        "traj_len": 1.8884495639435677,
        "weighted_distance": 2.3694170923322884
    },
    "planner": "PRMstar",
    "start": {
        "state": {
            "elbow_joint": 1.7527959577737207,
            "shoulder_lift_joint": -0.9740617694225068,
            "shoulder_pan_joint": -2.967991417825858,
            "wrist_1_joint": -0.759517768980727,
            "wrist_2_joint": 1.7443932448377408,
            "wrist_3_joint": -3.0840537646736568
        }
    },
    "waypoints": [
        {
            "positions": [
                -2.967991417825858,
                -0.9740617694225068,
                1.7527959577737207,
                -0.759517768980727,
                1.7443932448377408,
                -3.0840537646736568
            ]
        },
        {
            "positions": [
                -2.942344137739399,
                -0.9422632824102501,
                1.6541516952166744,
                -0.6940201098287068,
                1.6136121723773293,
                -3.088309178961328
            ]
        },
        {
            "positions": [
                -2.9166968576529397,
                -0.9104647953979935,
                1.5555074326596283,
                -0.6285224506766866,
                1.4828310999169179,
                -3.092564593249
            ]
        },
        {
            "positions": [
                -2.891049577566481,
                -0.8786663083857369,
                1.456863170102582,
                -0.5630247915246663,
                1.3520500274565066,
                -3.0968200075366714
            ]
        },
        {
            "positions": [
                -2.865402297480022,
                -0.8468678213734802,
                1.358218907545536,
                -0.4975271323726461,
                1.221268954996095,
                -3.101075421824343
            ]
        },
        {
            "positions": [
                -2.839755017393563,
                -0.8150693343612236,
                1.2595746449884897,
                -0.4320294732206259,
                1.0904878825356836,
                -3.1053308361120147
            ]
        },
        {
            "positions": [
                -2.8141077373071037,
                -0.7832708473489669,
                1.1609303824314436,
                -0.3665318140686057,
                0.9597068100752723,
                -3.109586250399686
            ]
        },
        {
            "positions": [
                -2.7884604572206446,
                -0.7514723603367104,
                1.0622861198743974,
                -0.30103415491658553,
                0.8289257376148608,
                -3.1138416646873575
            ]
        },
        {
            "positions": [
                -2.762813177134186,
                -0.7196738733244537,
                0.9636418573173512,
                -0.23553649576456526,
                0.6981446651544492,
                -3.118097078975029
            ]
        },
        {
            "positions": [
                -2.737165897047727,
                -0.687875386312197,
                0.864997594760305,
                -0.17003883661254504,
                0.5673635926940379,
                -3.1223524932627007
            ]
        },
        {
            "positions": [
                -2.7115186169612677,
                -0.6560768992999404,
                0.7663533322032589,
                -0.10454117746052477,
                0.4365825202336265,
                -3.126607907550372
            ]
        }
    ]
}