{
    "goal": {
        "global_pose": {
            "orientation": {
                "w": -0.4816463035849501,
                "x": 0.5182115481033762,
                "y": 0.4908360881923453,
                "z": -0.5084816262002911
            },
            "position": {
                "x": -0.8240239810943604,
                "y": -0.300875300988555,
                "z": 0.16403168439865112
            }
        },
        "name": "move_to_storage_C"
    },
    "id": "PRMstar_move_to_storage_C_126",
    "joint_names": [
        "shoulder_pan_joint",
        "shoulder_lift_joint",
        "elbow_joint",
        "wrist_1_joint",
        "wrist_2_joint",
        "wrist_3_joint"
    ],
    "metrics": {
        "cart_traj_len": 0.5765611063981145,
        "distance_elbow_joint": 0.25670587086046126,
        "distance_shoulder_lift_joint": 0.18985252992300683,
        "distance_shoulder_pan_joint": 0.49433061580773163,
        "distance_wrist_1_joint": 0.06694039785290551,
        "distance_wrist_2_joint": 1.0649634327197983,
        "distance_wrist_3_joint": 0.05946293012176751,
        "smoothness": 0.0,
        "time": 5.016366301,
        "traj_len": 1.4602245639920153,
        "weighted_distance": 1.8393165763679482
    },
    "planner": "PRMstar",
    "start": {
        "state": {
            "elbow_joint": 2.010868314990456,
            "shoulder_lift_joint": -1.1634956873337592,
            "shoulder_pan_joint": -2.4736205022346125,
            "wrist_1_joint": -0.8367026794202681,
            "wrist_2_joint": 0.6746043897044499,
            "wrist_3_joint": -3.1496632123970403
        }
    },
    "waypoints": [
        {
            "positions": [
                -2.4736205022346125,
                -1.1634956873337592,
                2.010868314990456,
                -0.8367026794202681,
                0.6746043897044499,
                -3.1496632123970403
            ]
        },
        {
            "positions": [
                -2.556008938202568,
                -1.131853599013258,
                1.968084003180379,
                -0.8255459464447839,
                0.8520982951577496,
                -3.1397527240434124
            ]
        },
        {
            "positions": [
                -2.638397374170523,
                -1.1002115106927568,
                1.925299691370302,
                -0.8143892134692996,
                1.0295922006110494,
                -3.1298422356897846
            ]
        },
        {
            "positions": [
                -2.7207858101384783,
                -1.0685694223722557,
                1.8825153795602252,
                -0.8032324804938153,
                1.2070861060643492,
                -3.1199317473361567
            ]
        },
        {
            "positions": [
                -2.8031742461064337,
                -1.0369273340517546,
                1.8397310677501484,
                -0.7920757475183311,
                1.3845800115176488,
                -3.1100212589825285
            ]
        },
        {
            "positions": [
                -2.8855626820743887,
                -1.0052852457312536,
                1.7969467559400714,
                -0.7809190145428468,
                1.5620739169709486,
                -3.1001107706289006
            ]
        },
        {
            "positions": [
                -2.967951118042344,
                -0.9736431574107524,
                1.7541624441299946,
                -0.7697622815673626,
                1.7395678224242483,
                -3.0902002822752728
            ]
        }
    ]
}