{
    "goal": {
        "global_pose": {
            "orientation": {
                "w": 0.7047431493862688,
                "x": -0.7094548369677653,
                "y": 0.0024358444001904,
                "z": -0.0022348060817251984
            },
            "position": {
                "x": -0.39052492380142206,
                "y": 0.3671506643295288,
                "z": 0.19426114857196808
            }
        },
        "name": "move_to_magneteinheit_D"
    },
    "id": "PRMstar_move_to_magneteinheit_D_143",
    "joint_names": [
        "shoulder_pan_joint",
        "shoulder_lift_joint",
        "elbow_joint",
        "wrist_1_joint",
        "wrist_2_joint",
        "wrist_3_joint"
    ],
    "metrics": {
        "cart_traj_len": 4.326340511423612,
        "distance_elbow_joint": 3.1221452211522607,
        "distance_shoulder_lift_joint": 1.635428214100943,
        "distance_shoulder_pan_joint": 3.1809986513529758,
        "distance_wrist_1_joint": 1.6821353253623044,
        "distance_wrist_2_joint": 0.5276027724765862,
        "distance_wrist_3_joint": 3.1361559286746106,
        "smoothness": 0.23568612609414322,
        "time": 5.035312088,
        "traj_len": 3.6447861546488123,
        "weighted_distance": 4.665459898906836
    },
    "planner": "PRMstar",
    "start": {
        "state": {
            "elbow_joint": 0.749534889911806,
            "shoulder_lift_joint": -0.6476975780787326,
            "shoulder_pan_joint": -2.711696901376241,
            "wrist_1_joint": -0.07506478083263063,
            "wrist_2_joint": 0.43296659715538205,
            "wrist_3_joint": -3.14703540197715
        }
    },
    "waypoints": [
        {
            "positions": [
                -2.711696901376241,
                -0.6476975780787326,
                0.749534889911806,
                -0.07506478083263063,
                0.43296659715538205,
                -3.14703540197715
            ]
        },
        {
            "positions": [
                -2.738255732097475,
                -0.8158436534098226,
                0.7346378437224308,
                -0.029662747518486916,
                0.414861321911417,
                -3.096272430765965
            ]
        },
        {
            "positions": [
                -2.6417663093940496,
                -0.8642059424966201,
                0.6567997325960022,
                0.028684684949226005,
                0.40097659891921705,
                -3.00933561003931
            ]
        },
        {
            "positions": [
                -2.545276886690624,
                -0.9125682315834176,
                0.5789616214695736,
                0.08703211741693892,
                0.3870918759270171,
                -2.922398789312655
            ]
        },
        {
            "positions": [
                -2.4487874639871983,
                -0.9609305206702152,
                0.5011235103431451,
                0.14537954988465185,
                0.3732071529348172,
                -2.835461968586
            ]
        },
        {
            "positions": [
                -2.352298041283772,
                -1.0092928097570126,
                0.42328539921671643,
                0.20372698235236478,
                0.35932242994261726,
                -2.748525147859345
            ]
        },
        {
            "positions": [
                -2.2558086185803465,
                -1.0576550988438103,
                0.3454472880902878,
                0.2620744148200777,
                0.3454377069504173,
                -2.66158832713269
            ]
        },
        {
            "positions": [
                -2.159319195876921,
                -1.1060173879306077,
                0.2676091769638592,
                0.3204218472877906,
                0.33155298395821736,
                -2.574651506406035
            ]
        },
        {
            "positions": [
                -2.0628297731734953,
                -1.1543796770174053,
                0.18977106583743064,
                0.37876927975550356,
                0.3176682609660174,
                -2.48771468567938
            ]
        },
        {
            "positions": [
                -1.9663403504700694,
                -1.202741966104203,
                0.11193295471100206,
                0.43711671222321646,
                0.3037835379738175,
                -2.400777864952725
            ]
        },
        {
            "positions": [
                -1.8698509277666437,
                -1.2511042551910003,
                0.034094843584573375,
                0.4954641446909294,
                0.28989881498161757,
                -2.31384104422607
            ]
        },
        {
            "positions": [
                -1.7733615050632179,
                -1.299466544277798,
                -0.0437432675418552,
                0.5538115771586423,
                0.2760140919894176,
                -2.2269042234994147
            ]
        },
        {
            "positions": [
                -1.6768720823597922,
                -1.3478288333645954,
                -0.12158137866828378,
                0.6121590096263552,
                0.26212936899721767,
                -2.13996740277276
            ]
        },
        {
            "positions": [
                -1.5803826596563666,
                -1.396191122451393,
                -0.19941948979471236,
                0.6705064420940681,
                0.24824464600501775,
                -2.0530305820461052
            ]
        },
        {
            "positions": [
                -1.4838932369529407,
                -1.4445534115381906,
                -0.27725760092114093,
                0.7288538745617811,
                0.2343599230128178,
                -1.96609376131945
            ]
        },
        {
            "positions": [
                -1.387403814249515,
                -1.492915700624988,
                -0.3550957120475695,
                0.787201307029494,
                0.22047520002061788,
                -1.879156940592795
            ]
        },
        {
            "positions": [
                -1.2909143915460892,
                -1.5412779897117856,
                -0.4329338231739983,
                0.845548739497207,
                0.2065904770284179,
                -1.7922201198661398
            ]
        },
        {
            "positions": [
                -1.1944249688426636,
                -1.589640278798583,
                -0.5107719343004267,
                0.9038961719649198,
                0.19270575403621798,
                -1.705283299139485
            ]
        },
        {
            "positions": [
                -1.0979355461392377,
                -1.6380025678853807,
                -0.5886100454268555,
                0.9622436044326328,
                0.17882103104401803,
                -1.6183464784128299
            ]
        },
        {
            "positions": [
                -1.0014461234358123,
                -1.6863648569721783,
                -0.666448156553284,
                1.0205910369003457,
                0.1649363080518181,
                -1.5314096576861749
            ]
        },
        {
            "positions": [
                -0.9049567007323864,
                -1.734727146058976,
                -0.7442862676797126,
                1.0789384693680586,
                0.15105158505961813,
                -1.44447283695952
            ]
        },
        {
            "positions": [
                -0.8084672780289608,
                -1.7830894351457731,
                -0.8221243788061412,
                1.1372859018357715,
                0.13716686206741824,
                -1.357536016232865
            ]
        },
        {
            "positions": [
                -0.7119778553255349,
                -1.831451724232571,
                -0.8999624899325698,
                1.1956333343034844,
                0.12328213907521829,
                -1.27059919550621
            ]
        },
        {
            "positions": [
                -0.6154884326221093,
                -1.8798140133193684,
                -0.9778006010589984,
                1.2539807667711973,
                0.10939741608301834,
                -1.183662374779555
            ]
        },
        {
            "positions": [
                -0.5189990099186836,
                -1.928176302406166,
                -1.0556387121854272,
                1.3123281992389104,
                0.09551269309081839,
                -1.0967255540528997
            ]
        },
        {
            "positions": [
                -0.422509587215258,
                -1.9765385914929634,
                -1.1334768233118555,
                1.370675631706623,
                0.0816279700986185,
                -1.009788733326245
            ]
        },
        {
            "positions": [
                -0.3260201645118319,
                -2.024900880579761,
                -1.2113149344382843,
                1.4290230641743362,
                0.06774324710641855,
                -0.9228519125995898
            ]
        },
        {
            "positions": [
                -0.22953074180840627,
                -2.0732631696665584,
                -1.2891530455647127,
                1.4873704966420491,
                0.0538585241142186,
                -0.835915091872935
            ]
        },
        {
            "positions": [
                -0.13304131910498074,
                -2.121625458753356,
                -1.3669911566911417,
                1.545717929109762,
                0.03997380112201866,
                -0.7489782711462796
            ]
        },
        {
            "positions": [
                -0.08330381447545263,
                -2.1421374467554064,
                -1.548403166750338,
                1.549962337726045,
                0.060510228556568235,
                -0.629824977206304
            ]
        },
        {
            "positions": [
                -0.033566309845924513,
                -2.1626494347574563,
                -1.7298151768095344,
                1.554206746342328,
                0.0810466559911178,
                -0.5106716832663285
            ]
        },
        {
            "positions": [
                0.0161711947836036,
                -2.1831614227595066,
                -1.9112271868687307,
                1.5584511549586106,
                0.10158308342566735,
                -0.39151838932635297
            ]
        },
        {
            "positions": [
                0.06590869941313171,
                -2.2036734107615565,
                -2.0926391969279274,
                1.5626955635748936,
                0.12211951086021694,
                -0.27236509538637743
            ]
        },
        {
            "positions": [
                0.11564620404265982,
                -2.224185398763607,
                -2.2740512069871235,
                1.5669399721911765,
                0.1426559382947665,
                -0.15321180144640192
            ]
        },
        {
            "positions": [
                -0.034622738203142905,
                -2.253655595471641,
                -2.323330769113789,
                1.546874686021928,
                0.15861985793000394,
                -0.0820456373744702
            ]
        },
        {
            "positions": [
                -0.18489168044894566,
                -2.2831257921796757,
                -2.3726103312404545,
                1.5268093998526793,
                0.17458377756524135,
                -0.010879473302538478
            ]
        }
    ]
}