{
    "goal": {
        "global_pose": {
            "orientation": {
                "w": 0.005598929693374612,
                "x": 0.007748599140229565,
                "y": 0.7110244013736278,
                "z": -0.7031023480610252
            },
            "position": {
                "x": 0.1141497679147869,
                "y": -0.7141253447532654,
                "z": 0.3711530566215515
            }
        },
        "name": "move_to_auspresseinheit_B"
    },
    "id": "PRMstar_move_to_auspresseinheit_B_34",
    "joint_names": [
        "shoulder_pan_joint",
        "shoulder_lift_joint",
        "elbow_joint",
        "wrist_1_joint",
        "wrist_2_joint",
        "wrist_3_joint"
    ],
    "metrics": {
        "cart_traj_len": 0.5640328435953433,
        "distance_elbow_joint": 0.059880238436107014,
        "distance_shoulder_lift_joint": 0.2956482481851732,
        "distance_shoulder_pan_joint": 0.5753579920598713,
        "distance_wrist_1_joint": 0.31558344524664383,
        "distance_wrist_2_joint": 0.9971648872194314,
        "distance_wrist_3_joint": 0.0018522358184709375,
        "smoothness": 5.075305255429287e-16,
        "time": 5.010662147000001,
        "traj_len": 1.498494927240562,
        "weighted_distance": 1.887310215907474
    },
    "planner": "PRMstar",
    "start": {
        "state": {
            "elbow_joint": 2.0193083361928714,
            "shoulder_lift_joint": -1.1220246554650708,
            "shoulder_pan_joint": -1.0952077554168747,
            "wrist_1_joint": -0.8559753972642168,
            "wrist_2_joint": 0.4759566250798843,
            "wrist_3_joint": -3.1240929996934557
        }
    },
    "waypoints": [
        {
            "positions": [
                -1.0952077554168747,
                -1.1220246554650708,
                2.0193083361928714,
                -0.8559753972642168,
                0.4759566250798843,
                -3.1240929996934557
            ]
        },
        {
            "positions": [
                -1.19110075409352,
                -1.171299363495933,
                2.0093282964535204,
                -0.8033781563897762,
                0.6421507729497895,
                -3.124401705663201
            ]
        },
        {
            "positions": [
                -1.2869937527701651,
                -1.2205740715267952,
                1.9993482567141692,
                -0.7507809155153355,
                0.8083449208196947,
                -3.124710411632946
            ]
        },
        {
            "positions": [
                -1.3828867514468102,
                -1.2698487795576574,
                1.989368216974818,
                -0.6981836746408949,
                0.9745390686896,
                -3.125019117602691
            ]
        },
        {
            "positions": [
                -1.4787797501234554,
                -1.3191234875885196,
                1.9793881772354667,
                -0.6455864337664543,
                1.1407332165595052,
                -3.1253278235724364
            ]
        },
        {
            "positions": [
                -1.5746727488001007,
                -1.3683981956193818,
                1.9694081374961157,
                -0.5929891928920136,
                1.3069273644294106,
                -3.1256365295421813
            ]
        },
        {
            "positions": [
                -1.670565747476746,
                -1.417672903650244,
                1.9594280977567644,
                -0.540391952017573,
                1.4731215122993158,
                -3.1259452355119266
            ]
        }
    ]
}