{
    "goal": {
        "global_pose": {
            "orientation": {
                "w": 0.7047431493862688,
                "x": -0.7094548369677653,
                "y": 0.0024358444001904,
                "z": -0.0022348060817251984
            },
            "position": {
                "x": -0.39052492380142206,
                "y": 0.3671506643295288,
                "z": 0.19426114857196808
            }
        },
        "name": "move_to_magneteinheit_D"
    },
    "id": "PRMstar_move_to_magneteinheit_D_35",
    "joint_names": [
        "shoulder_pan_joint",
        "shoulder_lift_joint",
        "elbow_joint",
        "wrist_1_joint",
        "wrist_2_joint",
        "wrist_3_joint"
    ],
    "metrics": {
        "cart_traj_len": 3.5075217510104215,
        "distance_elbow_joint": 3.2202847300222586,
        "distance_shoulder_lift_joint": 2.788473667718873,
        "distance_shoulder_pan_joint": 3.1835967299010433,
        "distance_wrist_1_joint": 1.5769415922749326,
        "distance_wrist_2_joint": 2.2657260079918435,
        "distance_wrist_3_joint": 3.9215710940790625,
        "smoothness": 0.35845279447376177,
        "time": 5.0515698790000005,
        "traj_len": 4.117838489060494,
        "weighted_distance": 5.351859827238836
    },
    "planner": "PRMstar",
    "start": {
        "state": {
            "elbow_joint": 0.749534889911806,
            "shoulder_lift_joint": -0.6476975780787326,
            "shoulder_pan_joint": -2.711696901376241,
            "wrist_1_joint": -0.07506478083263063,
            "wrist_2_joint": 0.43296659715538205,
            "wrist_3_joint": -3.14703540197715
        }
    },
    "waypoints": [
        {
            "positions": [
                -2.711696901376241,
                -0.6476975780787326,
                0.749534889911806,
                -0.07506478083263063,
                0.43296659715538205,
                -3.14703540197715
            ]
        },
        {
            "positions": [
                -2.7229328326764635,
                -0.620513069503281,
                0.7112912558773132,
                -0.04149060999482088,
                0.46332283943672325,
                -3.016151022547964
            ]
        },
        {
            "positions": [
                -2.734168763976686,
                -0.5933285609278293,
                0.6730476218428205,
                -0.007916439157011138,
                0.4936790817180644,
                -2.8852666431187783
            ]
        },
        {
            "positions": [
                -2.7379704564373295,
                -0.55846554789934,
                0.5922707371652443,
                0.03744361623600857,
                0.5451170283679629,
                -2.7099141391604715
            ]
        },
        {
            "positions": [
                -2.7417721488979736,
                -0.5236025348708508,
                0.511493852487668,
                0.08280367162902828,
                0.5965549750178615,
                -2.534561635202165
            ]
        },
        {
            "positions": [
                -2.7455738413586173,
                -0.4887395218423616,
                0.4307169678100918,
                0.12816372702204798,
                0.64799292166776,
                -2.3592091312438583
            ]
        },
        {
            "positions": [
                -2.7493755338192614,
                -0.45387650881387237,
                0.34994008313251546,
                0.17352378241506772,
                0.6994308683176585,
                -2.183856627285552
            ]
        },
        {
            "positions": [
                -2.753177226279905,
                -0.41901349578538316,
                0.26916319845493925,
                0.2188838378080874,
                0.7508688149675571,
                -2.008504123327245
            ]
        },
        {
            "positions": [
                -2.741998513135364,
                -0.38983345954940396,
                0.16851841554260336,
                0.25928669220997114,
                0.8054737719412565,
                -1.8549770904859988
            ]
        },
        {
            "positions": [
                -2.7308197999908232,
                -0.36065342331342476,
                0.06787363263026747,
                0.2996895466118549,
                0.860078728914956,
                -1.7014500576447524
            ]
        },
        {
            "positions": [
                -2.7196410868462824,
                -0.3314733870774456,
                -0.03277115028206845,
                0.3400924010137386,
                0.9146836858886553,
                -1.547923024803506
            ]
        },
        {
            "positions": [
                -2.7084623737017415,
                -0.3022933508414664,
                -0.1334159331944043,
                0.3804952554156223,
                0.9692886428623547,
                -1.3943959919622597
            ]
        },
        {
            "positions": [
                -2.6972836605572006,
                -0.2731133146054872,
                -0.23406071610674023,
                0.4208981098175061,
                1.0238935998360543,
                -1.2408689591210134
            ]
        },
        {
            "positions": [
                -2.6861049474126597,
                -0.24393327836950804,
                -0.33470549901907615,
                0.46130096421938976,
                1.0784985568097536,
                -1.087341926279767
            ]
        },
        {
            "positions": [
                -2.6749262342681193,
                -0.21475324213352884,
                -0.43535028193141206,
                0.5017038186212734,
                1.133103513783453,
                -0.9338148934385206
            ]
        },
        {
            "positions": [
                -2.6637475211235784,
                -0.18557320589754966,
                -0.5359950648437479,
                0.5421066730231572,
                1.1877084707571524,
                -0.7802878605972743
            ]
        },
        {
            "positions": [
                -2.6525688079790375,
                -0.15639316966157046,
                -0.636639847756084,
                0.5825095274250409,
                1.2423134277308518,
                -0.6267608277560279
            ]
        },
        {
            "positions": [
                -2.6413900948344966,
                -0.12721313342559126,
                -0.7372846306684198,
                0.6229123818269247,
                1.2969183847045513,
                -0.47323379491478157
            ]
        },
        {
            "positions": [
                -2.6302113816899557,
                -0.09803309718961212,
                -0.8379294135807556,
                0.6633152362288084,
                1.3515233416782506,
                -0.3197067620735352
            ]
        },
        {
            "positions": [
                -2.619032668545415,
                -0.06885306095363293,
                -0.9385741964930915,
                0.7037180906306921,
                1.40612829865195,
                -0.1661797292322889
            ]
        },
        {
            "positions": [
                -2.482982639121237,
                -0.13181595090894335,
                -1.0129282234390118,
                0.7328098354584532,
                1.343069438804551,
                -0.18536192361821646
            ]
        },
        {
            "positions": [
                -2.3469326096970593,
                -0.1947788408642538,
                -1.0872822503849322,
                0.7619015802862144,
                1.2800105789571519,
                -0.20454411800414404
            ]
        },
        {
            "positions": [
                -2.2108825802728815,
                -0.2577417308195642,
                -1.1616362773308526,
                0.7909933251139755,
                1.2169517191097527,
                -0.22372631239007162
            ]
        },
        {
            "positions": [
                -2.0748325508487038,
                -0.3207046207748746,
                -1.235990304276773,
                0.8200850699417366,
                1.1538928592623536,
                -0.24290850677599918
            ]
        },
        {
            "positions": [
                -1.938782521424526,
                -0.383667510730185,
                -1.3103443312226934,
                0.8491768147694977,
                1.0908339994149545,
                -0.26209070116192673
            ]
        },
        {
            "positions": [
                -1.8027324920003482,
                -0.4466304006854954,
                -1.3846983581686139,
                0.8782685595972588,
                1.0277751395675554,
                -0.2812728955478543
            ]
        },
        {
            "positions": [
                -1.6666824625761705,
                -0.5095932906408058,
                -1.4590523851145343,
                0.9073603044250199,
                0.9647162797201564,
                -0.3004550899337819
            ]
        },
        {
            "positions": [
                -1.5306324331519927,
                -0.5725561805961163,
                -1.5334064120604547,
                0.936452049252781,
                0.9016574198727573,
                -0.31963728431970945
            ]
        },
        {
            "positions": [
                -1.394582403727815,
                -0.6355190705514268,
                -1.607760439006375,
                0.9655437940805421,
                0.8385985600253582,
                -0.338819478705637
            ]
        },
        {
            "positions": [
                -1.2585323743036372,
                -0.6984819605067372,
                -1.6821144659522953,
                0.9946355389083033,
                0.775539700177959,
                -0.3580016730915646
            ]
        },
        {
            "positions": [
                -1.1224823448794592,
                -0.7614448504620477,
                -1.756468492898216,
                1.0237272837360645,
                0.7124808403305599,
                -0.37718386747749216
            ]
        },
        {
            "positions": [
                -0.9864323154552816,
                -0.824407740417358,
                -1.8308225198441361,
                1.0528190285638255,
                0.6494219804831608,
                -0.3963660618634197
            ]
        },
        {
            "positions": [
                -0.8503822860311039,
                -0.8873706303726685,
                -1.9051765467900568,
                1.0819107733915865,
                0.5863631206357617,
                -0.4155482562493473
            ]
        },
        {
            "positions": [
                -0.7143322566069263,
                -0.9503335203279788,
                -1.979530573735977,
                1.1110025182193477,
                0.5233042607883627,
                -0.4347304506352748
            ]
        },
        {
            "positions": [
                -0.5782822271827484,
                -1.013296410283289,
                -2.0538846006818976,
                1.140094263047109,
                0.46024540094096356,
                -0.45391264502120243
            ]
        },
        {
            "positions": [
                -0.4422321977585706,
                -1.0762593002385996,
                -2.128238627627818,
                1.16918600787487,
                0.39718654109356444,
                -0.47309483940713
            ]
        },
        {
            "positions": [
                -0.3061821683343928,
                -1.13922219019391,
                -2.202592654573738,
                1.198277752702631,
                0.3341276812461653,
                -0.49227703379305754
            ]
        },
        {
            "positions": [
                -0.17013213891021506,
                -1.2021850801492204,
                -2.2769466815196586,
                1.2273694975303922,
                0.2710688213987662,
                -0.5114592281789851
            ]
        },
        {
            "positions": [
                -0.03408210948603729,
                -1.2651479701045307,
                -2.351300708465579,
                1.2564612423581534,
                0.20800996155136708,
                -0.5306414225649126
            ]
        },
        {
            "positions": [
                0.10196791993814058,
                -1.3281108600598412,
                -2.4256547354114995,
                1.2855529871859144,
                0.14495110170396797,
                -0.5498236169508403
            ]
        },
        {
            "positions": [
                0.05413937680825139,
                -1.4865060853077687,
                -2.4181388846283407,
                1.3216069578953122,
                0.15018228662851676,
                -0.4569783613482322
            ]
        },
        {
            "positions": [
                0.0063108336783622015,
                -1.6449013105556962,
                -2.410623033845182,
                1.3576609286047103,
                0.1554134715530656,
                -0.3641331057456242
            ]
        },
        {
            "positions": [
                -0.041517709451526996,
                -1.803296535803624,
                -2.4031071830620228,
                1.3937148993141082,
                0.1606446564776144,
                -0.27128785014301615
            ]
        },
        {
            "positions": [
                -0.08934625258141618,
                -1.9616917610515514,
                -2.395591332278864,
                1.429768870023506,
                0.1658758414021632,
                -0.17844259454040812
            ]
        },
        {
            "positions": [
                -0.1371747957113054,
                -2.120086986299479,
                -2.3880754814957053,
                1.4658228407329041,
                0.17110702632671201,
                -0.08559733893780008
            ]
        },
        {
            "positions": [
                -0.18500333884119458,
                -2.2784822115474066,
                -2.3805596307125465,
                1.501876811442302,
                0.1763382112512608,
                0.007247916664807964
            ]
        }
    ]
}