{
    "goal": {
        "global_pose": {
            "orientation": {
                "w": 0.7031023502349854,
                "x": -0.7110244035720825,
                "y": 0.007748599164187908,
                "z": 0.005598929710686207
            },
            "position": {
                "x": 0.11585023208521307,
                "y": 0.44412534475326537,
                "z": 0.3711530566215515
            }
        },
        "name": "move_to_auspresseinheit_A"
    },
    "id": "PRMstar_move_to_auspresseinheit_A_9",
    "joint_names": [
        "shoulder_pan_joint",
        "shoulder_lift_joint",
        "elbow_joint",
        "wrist_1_joint",
        "wrist_2_joint",
        "wrist_3_joint"
    ],
    "metrics": {
        "cart_traj_len": 0.6908090671899382,
        "distance_elbow_joint": 0.02695720547893421,
        "distance_shoulder_lift_joint": 0.5366630077831949,
        "distance_shoulder_pan_joint": 1.04313639829053,
        "distance_wrist_1_joint": 0.5564412713832538,
        "distance_wrist_2_joint": 0.5294828478059064,
        "distance_wrist_3_joint": 0.11665352878338231,
        "smoothness": 0.12556906286471134,
        "time": 5.019600713,
        "traj_len": 1.676106875925638,
        "weighted_distance": 2.031887161306239
    },
    "planner": "PRMstar",
    "start": {
        "state": {
            "elbow_joint": 2.4225746658250005,
            "shoulder_lift_joint": -1.3736534386056498,
            "shoulder_pan_joint": -0.3378633547517467,
            "wrist_1_joint": -1.0288598680537169,
            "wrist_2_joint": 1.233022673432363,
            "wrist_3_joint": -3.0940220416140027
        }
    },
    "waypoints": [
        {
            "positions": [
                -0.3378633547517467,
                -1.3736534386056498,
                2.4225746658250005,
                -1.0288598680537169,
                1.233022673432363,
                -3.0940220416140027
            ]
        },
        {
            "positions": [
                -0.20541060506305062,
                -1.4449281700783065,
                2.4149175318315996,
                -0.9583161533041099,
                1.1549807669337278,
                -3.073595923189862
            ]
        },
        {
            "positions": [
                -0.07295785537435451,
                -1.516202901550963,
                2.407260397838199,
                -0.8877724385545029,
                1.0769388604350925,
                -3.053169804765721
            ]
        },
        {
            "positions": [
                0.05674729444450177,
                -1.5818884923572767,
                2.4053199082561765,
                -0.8185467982404964,
                1.0147056879669865,
                -3.0658033534215714
            ]
        },
        {
            "positions": [
                0.18645244426335805,
                -1.6475740831635903,
                2.4033794186741546,
                -0.7493211579264897,
                0.9524725154988806,
                -3.0784369020774216
            ]
        },
        {
            "positions": [
                0.31615759408221433,
                -1.7132596739699038,
                2.4014389290921327,
                -0.680095517612483,
                0.8902393430307746,
                -3.0910704507332714
            ]
        },
        {
            "positions": [
                0.4458627439010706,
                -1.7789452647762174,
                2.3994984395101104,
                -0.6108698772984764,
                0.8280061705626687,
                -3.1037039993891216
            ]
        },
        {
            "positions": [
                0.5755678937199269,
                -1.844630855582531,
                2.397557949928088,
                -0.5416442369844697,
                0.7657729980945627,
                -3.1163375480449718
            ]
        },
        {
            "positions": [
                0.7052730435387832,
                -1.9103164463888447,
                2.3956174603460663,
                -0.4724185966704631,
                0.7035398256264567,
                -3.128971096700822
            ]
        }
    ]
}