{
    "goal": {
        "global_pose": {
            "orientation": {
                "w": 0.7047431493862688,
                "x": -0.7094548369677653,
                "y": 0.0024358444001904,
                "z": -0.0022348060817251984
            },
            "position": {
                "x": -0.39052492380142206,
                "y": 0.3671506643295288,
                "z": 0.19426114857196808
            }
        },
        "name": "move_to_magneteinheit_D"
    },
    "id": "PRMstar_move_to_magneteinheit_D_11",
    "joint_names": [
        "shoulder_pan_joint",
        "shoulder_lift_joint",
        "elbow_joint",
        "wrist_1_joint",
        "wrist_2_joint",
        "wrist_3_joint"
    ],
    "metrics": {
        "cart_traj_len": 4.154802391299114,
        "distance_elbow_joint": 3.964733058717738,
        "distance_shoulder_lift_joint": 1.0979241701037596,
        "distance_shoulder_pan_joint": 4.148044497510366,
        "distance_wrist_1_joint": 2.872011644863102,
        "distance_wrist_2_joint": 2.2545065860281026,
        "distance_wrist_3_joint": 0.2600023144863637,
        "smoothness": 0.7435644383105539,
        "time": 5.044349721000001,
        "traj_len": 3.8206311352588638,
        "weighted_distance": 4.499304960943786
    },
    "planner": "PRMstar",
    "start": {
        "state": {
            "elbow_joint": 0.749534889911806,
            "shoulder_lift_joint": -0.6476975780787326,
            "shoulder_pan_joint": -2.711696901376241,
            "wrist_1_joint": -0.07506478083263063,
            "wrist_2_joint": 0.43296659715538205,
            "wrist_3_joint": -3.14703540197715
        }
    },
    "waypoints": [
        {
            "positions": [
                -2.711696901376241,
                -0.6476975780787326,
                0.749534889911806,
                -0.07506478083263063,
                0.43296659715538205,
                -3.14703540197715
            ]
        },
        {
            "positions": [
                -2.726577261579857,
                -0.6901620387539565,
                0.7031957997838519,
                0.0498098261150209,
                0.40857032520206144,
                -3.100695684177692
            ]
        },
        {
            "positions": [
                -2.741457621783473,
                -0.7326264994291805,
                0.6568567096558978,
                0.17468443306267242,
                0.3841740532487408,
                -3.054355966378234
            ]
        },
        {
            "positions": [
                -2.7563379819870892,
                -0.7750909601044044,
                0.6105176195279438,
                0.29955904001032396,
                0.3597777812954202,
                -3.008016248578776
            ]
        },
        {
            "positions": [
                -2.6327144499936685,
                -0.776741404553561,
                0.4847044952625009,
                0.2105955713430034,
                0.309617511081667,
                -3.0122239904065853
            ]
        },
        {
            "positions": [
                -2.5090909180002483,
                -0.7783918490027175,
                0.3588913709970581,
                0.12163210267568286,
                0.25945724086791383,
                -3.016431732234395
            ]
        },
        {
            "positions": [
                -2.3854673860068276,
                -0.7800422934518741,
                0.2330782467316152,
                0.03266863400836234,
                0.20929697065416067,
                -3.0206394740622047
            ]
        },
        {
            "positions": [
                -2.2618438540134074,
                -0.7816927379010307,
                0.10726512246617237,
                -0.05629483465895824,
                0.15913670044040748,
                -3.0248472158900146
            ]
        },
        {
            "positions": [
                -2.1382203220199867,
                -0.7833431823501873,
                -0.01854800179927052,
                -0.14525830332627876,
                0.10897643022665432,
                -3.029054957717824
            ]
        },
        {
            "positions": [
                -2.0145967900265664,
                -0.7849936267993438,
                -0.1443611260647134,
                -0.23422177199359928,
                0.05881616001290113,
                -3.033262699545634
            ]
        },
        {
            "positions": [
                -1.8909732580331458,
                -0.7866440712485004,
                -0.2701742503301563,
                -0.3231852406609199,
                0.008655889799147942,
                -3.0374704413734435
            ]
        },
        {
            "positions": [
                -1.7673497260397255,
                -0.788294515697657,
                -0.3959873745955991,
                -0.41214870932824044,
                -0.041504380414605246,
                -3.0416781832012534
            ]
        },
        {
            "positions": [
                -1.6437261940463048,
                -0.7899449601468136,
                -0.5218004988610421,
                -0.501112177995561,
                -0.09166465062835844,
                -3.045885925029063
            ]
        },
        {
            "positions": [
                -1.5201026620528844,
                -0.7915954045959702,
                -0.6476136231264848,
                -0.5900756466628815,
                -0.14182492084211157,
                -3.0500936668568723
            ]
        },
        {
            "positions": [
                -1.396479130059464,
                -0.7932458490451267,
                -0.7734267473919278,
                -0.679039115330202,
                -0.1919851910558648,
                -3.0543014086846823
            ]
        },
        {
            "positions": [
                -1.2728555980660434,
                -0.7948962934942834,
                -0.8992398716573706,
                -0.7680025839975225,
                -0.24214546126961795,
                -3.0585091505124917
            ]
        },
        {
            "positions": [
                -1.149232066072623,
                -0.7965467379434399,
                -1.0250529959228134,
                -0.8569660526648432,
                -0.2923057314833711,
                -3.0627168923403016
            ]
        },
        {
            "positions": [
                -1.0256085340792025,
                -0.7981971823925965,
                -1.1508661201882564,
                -0.9459295213321638,
                -0.3424660016971243,
                -3.066924634168111
            ]
        },
        {
            "positions": [
                -0.9019850020857818,
                -0.799847626841753,
                -1.2766792444536994,
                -1.0348929899994843,
                -0.39262627191087757,
                -3.071132375995921
            ]
        },
        {
            "positions": [
                -0.7783614700923616,
                -0.8014980712909097,
                -1.402492368719142,
                -1.123856458666805,
                -0.4427865421246307,
                -3.0753401178237305
            ]
        },
        {
            "positions": [
                -0.6547379380989407,
                -0.8031485157400662,
                -1.5283054929845852,
                -1.2128199273341256,
                -0.49294681233838394,
                -3.0795478596515404
            ]
        },
        {
            "positions": [
                -0.5311144061055204,
                -0.8047989601892228,
                -1.654118617250028,
                -1.3017833960014458,
                -0.5431070825521371,
                -3.08375560147935
            ]
        },
        {
            "positions": [
                -0.4074908741120997,
                -0.8064494046383794,
                -1.7799317415154707,
                -1.3907468646687664,
                -0.5932673527658903,
                -3.0879633433071594
            ]
        },
        {
            "positions": [
                -0.2838673421186795,
                -0.808099849087536,
                -1.9057448657809135,
                -1.479710333336087,
                -0.6434276229796434,
                -3.0921710851349693
            ]
        },
        {
            "positions": [
                -0.1602438101252588,
                -0.8097502935366926,
                -2.0315579900463567,
                -1.5686738020034077,
                -0.6935878931933968,
                -3.0963788269627788
            ]
        },
        {
            "positions": [
                -0.036620278131838546,
                -0.8114007379858491,
                -2.1573711143117995,
                -1.6576372706707279,
                -0.7437481634071499,
                -3.1005865687905887
            ]
        },
        {
            "positions": [
                0.08700325386158214,
                -0.8130511824350057,
                -2.2831842385772423,
                -1.746600739338049,
                -0.793908433620903,
                -3.104794310618398
            ]
        },
        {
            "positions": [
                0.21062678585500239,
                -0.8147016268841623,
                -2.408997362842685,
                -1.8355642080053691,
                -0.8440687038346562,
                -3.109002052446208
            ]
        },
        {
            "positions": [
                0.3342503178484231,
                -0.8163520713333189,
                -2.5348104871081283,
                -1.9245276766726898,
                -0.8942289740484095,
                -3.1132097942740176
            ]
        },
        {
            "positions": [
                0.4578738498418433,
                -0.8180025157824754,
                -2.6606236113735706,
                -2.0134911453400104,
                -0.9443892442621624,
                -3.1174175361018275
            ]
        },
        {
            "positions": [
                0.581497381835264,
                -0.819652960231632,
                -2.786436735639014,
                -2.102454614007331,
                -0.9945495144759158,
                -3.121625277929637
            ]
        },
        {
            "positions": [
                0.48580137520061845,
                -0.9353990587254896,
                -2.732841556493149,
                -2.1143763852576427,
                -0.8911757051763153,
                -3.120703511462496
            ]
        },
        {
            "positions": [
                0.3901053685659729,
                -1.051145157219347,
                -2.679246377347284,
                -2.126298156507954,
                -0.7878018958767148,
                -3.119781744995355
            ]
        },
        {
            "positions": [
                0.29440936193132733,
                -1.1668912557132045,
                -2.6256511982014197,
                -2.1382199277582656,
                -0.6844280865771142,
                -3.1188599785282136
            ]
        },
        {
            "positions": [
                0.19871335529668177,
                -1.2826373542070622,
                -2.572056019055555,
                -2.150141699008577,
                -0.5810542772775137,
                -3.117938212061073
            ]
        },
        {
            "positions": [
                0.10301734866203621,
                -1.3983834527009198,
                -2.51846083990969,
                -2.1620634702588886,
                -0.4776804679779132,
                -3.117016445593932
            ]
        },
        {
            "positions": [
                0.007321342027390654,
                -1.5141295511947772,
                -2.4648656607638255,
                -2.1739852415092003,
                -0.3743066586783126,
                -3.1160946791267907
            ]
        },
        {
            "positions": [
                -0.08837466460725496,
                -1.6298756496886346,
                -2.4112704816179606,
                -2.1859070127595115,
                -0.2709328493787121,
                -3.1151729126596495
            ]
        },
        {
            "positions": [
                -0.1840706712419005,
                -1.7456217481824923,
                -2.357675302472096,
                -2.197828784009823,
                -0.16755904007911157,
                -3.1142511461925086
            ]
        }
    ]
}