{
    "goal": {
        "global_pose": {
            "orientation": {
                "w": -0.4816463035849501,
                "x": 0.5182115481033762,
                "y": 0.4908360881923453,
                "z": -0.5084816262002911
            },
            "position": {
                "x": -0.8240239810943604,
                "y": -0.300875300988555,
                "z": 0.16403168439865112
            }
        },
        "name": "move_to_storage_C"
    },
    "id": "PRMstar_move_to_storage_C_34",
    "joint_names": [
        "shoulder_pan_joint",
        "shoulder_lift_joint",
        "elbow_joint",
        "wrist_1_joint",
        "wrist_2_joint",
        "wrist_3_joint"
    ],
    "metrics": {
        "cart_traj_len": 0.5764713414644503,
        "distance_elbow_joint": 0.2533420283529373,
        "distance_shoulder_lift_joint": 0.18791520133662976,
        "distance_shoulder_pan_joint": 0.4962119764697501,
        "distance_wrist_1_joint": 0.06520392184628199,
        "distance_wrist_2_joint": 1.0595883123921448,
        "distance_wrist_3_joint": 0.06300313693873472,
        "smoothness": 0.0,
        "time": 5.004113077,
        "traj_len": 1.457828720164505,
        "weighted_distance": 1.8374066195190368
    },
    "planner": "PRMstar",
    "start": {
        "state": {
            "elbow_joint": 2.010868314990456,
            "shoulder_lift_joint": -1.1634956873337592,
            "shoulder_pan_joint": -2.4736205022346125,
            "wrist_1_joint": -0.8367026794202681,
            "wrist_2_joint": 0.6746043897044499,
            "wrist_3_joint": -3.1496632123970403
        }
    },
    "waypoints": [
        {
            "positions": [
                -2.4736205022346125,
                -1.1634956873337592,
                2.010868314990456,
                -0.8367026794202681,
                0.6746043897044499,
                -3.1496632123970403
            ]
        },
        {
            "positions": [
                -2.556322498312904,
                -1.1321764871109876,
                1.9686446435982996,
                -0.8258353591125545,
                0.8512024417698074,
                -3.1391626895739178
            ]
        },
        {
            "positions": [
                -2.639024494391196,
                -1.1008572868882158,
                1.9264209722061434,
                -0.8149680388048408,
                1.0278004938351648,
                -3.1286621667507952
            ]
        },
        {
            "positions": [
                -2.7217264904694876,
                -1.0695380866654443,
                1.8841973008139872,
                -0.8041007184971272,
                1.2043985459005224,
                -3.1181616439276727
            ]
        },
        {
            "positions": [
                -2.804428486547779,
                -1.0382188864426727,
                1.841973629421831,
                -0.7932333981894134,
                1.3809965979658796,
                -3.1076611211045506
            ]
        },
        {
            "positions": [
                -2.887130482626071,
                -1.0068996862199011,
                1.7997499580296747,
                -0.7823660778816998,
                1.5575946500312372,
                -3.097160598281428
            ]
        },
        {
            "positions": [
                -2.9698324787043626,
                -0.9755804859971294,
                1.7575262866375185,
                -0.7714987575739861,
                1.7341927020965946,
                -3.0866600754583056
            ]
        }
    ]
}