{
    "goal": {
        "global_pose": {
            "orientation": {
                "w": 0.5084816217422485,
                "x": -0.49083608388900757,
                "y": 0.5182115435600281,
                "z": -0.4816462993621826
            },
            "position": {
                "x": 0.5540239810943604,
                "y": 0.030875300988554955,
                "z": 0.16403168439865112
            }
        },
        "name": "move_to_storage_A"
    },
    "id": "PRMstar_move_to_storage_A_65",
    "joint_names": [
        "shoulder_pan_joint",
        "shoulder_lift_joint",
        "elbow_joint",
        "wrist_1_joint",
        "wrist_2_joint",
        "wrist_3_joint"
    ],
    "metrics": {
        "cart_traj_len": 0.35299479085221686,
        "distance_elbow_joint": 0.44755668667973736,
        "distance_shoulder_lift_joint": 0.232558417522726,
        "distance_shoulder_pan_joint": 0.4616228278069148,
        "distance_wrist_1_joint": 0.23713123531862867,
        "distance_wrist_2_joint": 1.0971913681399064,
        "distance_wrist_3_joint": 0.09284676385632196,
        "smoothness": 2.2204460668324854e-16,
        "time": 5.003310206999999,
        "traj_len": 1.6027811139778991,
        "weighted_distance": 2.0221086594185325
    },
    "planner": "PRMstar",
    "start": {
        "state": {
            "elbow_joint": 1.971548259319323,
            "shoulder_lift_joint": -1.1394851275133948,
            "shoulder_pan_joint": 0.1228115487234821,
            "wrist_1_joint": -0.7804723859257726,
            "wrist_2_joint": 0.12958671773740124,
            "wrist_3_joint": -3.192489227718131
        }
    },
    "waypoints": [
        {
            "positions": [
                0.1228115487234821,
                -1.1394851275133948,
                1.971548259319323,
                -0.7804723859257726,
                0.12958671773740124,
                -3.192489227718131
            ]
        },
        {
            "positions": [
                0.05686543046535142,
                -1.1727077585880699,
                2.035484928845,
                -0.8143482766855767,
                0.28632834175738786,
                -3.179225404310085
            ]
        },
        {
            "positions": [
                -0.009080687792779263,
                -1.2059303896627451,
                2.0994215983706765,
                -0.8482241674453808,
                0.44306996577737445,
                -3.165961580902039
            ]
        },
        {
            "positions": [
                -0.07502680605090994,
                -1.2391530207374202,
                2.163358267896353,
                -0.8821000582051849,
                0.599811589797361,
                -3.152697757493993
            ]
        },
        {
            "positions": [
                -0.14097292430904063,
                -1.2723756518120954,
                2.22729493742203,
                -0.915975948964989,
                0.7565532138173477,
                -3.139433934085947
            ]
        },
        {
            "positions": [
                -0.20691904256717136,
                -1.3055982828867705,
                2.291231606947707,
                -0.949851839724793,
                0.9132948378373345,
                -3.126170110677901
            ]
        },
        {
            "positions": [
                -0.272865160825302,
                -1.3388209139614458,
                2.3551682764733837,
                -0.9837277304845972,
                1.0700364618573208,
                -3.112906287269855
            ]
        },
        {
            "positions": [
                -0.3388112790834327,
                -1.3720435450361208,
                2.4191049459990603,
                -1.0176036212444013,
                1.2267780858773076,
                -3.099642463861809
            ]
        }
    ]
}{
    "goal": {
        "global_pose": {
            "orientation": {
                "w": 0.5084816217422485,
                "x": -0.49083608388900757,
                "y": 0.5182115435600281,
                "z": -0.4816462993621826
            },
            "position": {
                "x": 0.5540239810943604,
                "y": 0.030875300988554955,
                "z": 0.16403168439865112
            }
        },
        "name": "move_to_storage_A"
    },
    "id": "PRMstar_move_to_storage_A_65",
    "joint_names": [
        "shoulder_pan_joint",
        "shoulder_lift_joint",
        "elbow_joint",
        "wrist_1_joint",
        "wrist_2_joint",
        "wrist_3_joint"
    ],
    "metrics": {
        "cart_traj_len": 0.3532064485993675,
        "distance_elbow_joint": 0.4483743230412909,
        "distance_shoulder_lift_joint": 0.23338144566865582,
        "distance_shoulder_pan_joint": 0.462433583453765,
        "distance_wrist_1_joint": 0.2424740124517648,
        "distance_wrist_2_joint": 1.0954480822007353,
        "distance_wrist_3_joint": 0.09585477039460999,
        "smoothness": 8.881784197001252e-16,
        "time": 5.0099274209999995,
        "traj_len": 1.6056046266783182,
        "weighted_distance": 2.0267209607275842
    },
    "planner": "PRMstar",
    "start": {
        "state": {
            "elbow_joint": 1.97154746011099,
            "shoulder_lift_joint": -1.13948474672311,
            "shoulder_pan_joint": 0.12281154466712228,
            "wrist_1_joint": -0.7804688027058302,
            "wrist_2_joint": 0.12958655903071145,
            "wrist_3_joint": 3.0906928834467795
        }
    },
    "waypoints": [
        {
            "positions": [
                0.12281154466712228,
                -1.13948474672311,
                1.97154746011099,
                -0.7804688027058302,
                0.12958655903071145,
                3.0906928834467795
            ]
        },
        {
            "positions": [
                0.05674960417372729,
                -1.1728249532472037,
                2.0356009348311743,
                -0.8151079473417966,
                0.28607914220224506,
                3.104386422074581
            ]
        },
        {
            "positions": [
                -0.0093123363196677,
                -1.2061651597712972,
                2.0996544095513587,
                -0.849747091977763,
                0.44257172537377865,
                3.1180799607023824
            ]
        },
        {
            "positions": [
                -0.0753742768130627,
                -1.239505366295391,
                2.163707884271543,
                -0.8843862366137294,
                0.5990643085453122,
                3.131773499330184
            ]
        },
        {
            "positions": [
                -0.14143621730645767,
                -1.2728455728194847,
                2.2277613589917276,
                -0.9190253812496958,
                0.7555568917168459,
                3.145467037957985
            ]
        },
        {
            "positions": [
                -0.2074981577998527,
                -1.3061857793435785,
                2.291814833711912,
                -0.9536645258856622,
                0.9120494748883796,
                3.1591605765857866
            ]
        },
        {
            "positions": [
                -0.2735600982932477,
                -1.339525985867672,
                2.3558683084320964,
                -0.9883036705216286,
                1.068542058059913,
                3.172854115213588
            ]
        },
        {
            "positions": [
                -0.3396220387866427,
                -1.3728661923917658,
                2.419921783152281,
                -1.022942815157595,
                1.2250346412314468,
                3.1865476538413895
            ]
        }
    ]
}{
    "goal": {
        "global_pose": {
            "orientation": {
                "w": 0.5084816217422485,
                "x": -0.49083608388900757,
                "y": 0.5182115435600281,
                "z": -0.4816462993621826
            },
            "position": {
                "x": 0.5540239810943604,
                "y": 0.030875300988554955,
                "z": 0.16403168439865112
            }
        },
        "name": "move_to_storage_A"
    },
    "id": "PRMstar_move_to_storage_A_65",
    "joint_names": [
        "shoulder_pan_joint",
        "shoulder_lift_joint",
        "elbow_joint",
        "wrist_1_joint",
        "wrist_2_joint",
        "wrist_3_joint"
    ],
    "metrics": {
        "cart_traj_len": 0.352859393252725,
        "distance_elbow_joint": 0.4473306137151094,
        "distance_shoulder_lift_joint": 0.23601411750103973,
        "distance_shoulder_pan_joint": 0.46142872935043017,
        "distance_wrist_1_joint": 0.23343086677063685,
        "distance_wrist_2_joint": 1.0984487746284874,
        "distance_wrist_3_joint": 0.08730041377974551,
        "smoothness": 8.881784197001252e-16,
        "time": 5.0065309760000005,
        "traj_len": 1.6012349970399251,
        "weighted_distance": 2.0175316564317063
    },
    "planner": "PRMstar",
    "start": {
        "state": {
            "elbow_joint": 1.9715472970024885,
            "shoulder_lift_joint": -1.1394870060712896,
            "shoulder_pan_joint": 0.12281152778156021,
            "wrist_1_joint": -0.780463741449964,
            "wrist_2_joint": 0.12958659822042276,
            "wrist_3_joint": 3.090690232415272
        }
    },
    "waypoints": [
        {
            "positions": [
                0.12281152778156021,
                -1.1394870060712896,
                1.9715472970024885,
                -0.780463741449964,
                0.12958659822042276,
                3.090690232415272
            ]
        },
        {
            "positions": [
                0.05689313787435592,
                -1.1732033085714382,
                2.035451670390361,
                -0.8138110081314835,
                0.28650785173877813,
                3.1031617200980928
            ]
        },
        {
            "positions": [
                -0.009025252032848374,
                -1.2069196110715867,
                2.099356043778234,
                -0.8471582748130031,
                0.4434291052571334,
                3.1156332077809132
            ]
        },
        {
            "positions": [
                -0.07494364194005268,
                -1.2406359135717353,
                2.1632604171661067,
                -0.8805055414945226,
                0.6003503587754888,
                3.128104695463734
            ]
        },
        {
            "positions": [
                -0.14086203184725696,
                -1.2743522160718836,
                2.2271647905539798,
                -0.9138528081760422,
                0.7572716122938441,
                3.140576183146555
            ]
        },
        {
            "positions": [
                -0.2067804217544613,
                -1.3080685185720322,
                2.2910691639418523,
                -0.9472000748575617,
                0.9141928658121995,
                3.153047670829376
            ]
        },
        {
            "positions": [
                -0.27269881166166554,
                -1.3417848210721808,
                2.354973537329725,
                -0.9805473415390813,
                1.071114119330555,
                3.1655191585121965
            ]
        },
        {
            "positions": [
                -0.33861720156886993,
                -1.3755011235723293,
                2.418877910717598,
                -1.0138946082206008,
                1.2280353728489102,
                3.1779906461950174
            ]
        }
    ]
}