{
    "goal": {
        "global_pose": {
            "orientation": {
                "w": 0.5084816262002911,
                "x": -0.4908360881923452,
                "y": 0.5182115481033761,
                "z": -0.48164630358495003
            },
            "position": {
                "x": 0.5540239810943604,
                "y": -0.46912469901144505,
                "z": 0.16403168439865112
            }
        },
        "name": "move_to_storage_B"
    },
    "id": "PRMstar_move_to_storage_B_8",
    "joint_names": [
        "shoulder_pan_joint",
        "shoulder_lift_joint",
        "elbow_joint",
        "wrist_1_joint",
        "wrist_2_joint",
        "wrist_3_joint"
    ],
    "metrics": {
        "cart_traj_len": 1.3208159018390653,
        "distance_elbow_joint": 1.871784009849404,
        "distance_shoulder_lift_joint": 0.9221986732861553,
        "distance_shoulder_pan_joint": 1.3474556428856677,
        "distance_wrist_1_joint": 2.9989292539267174,
        "distance_wrist_2_joint": 2.7043680065293563,
        "distance_wrist_3_joint": 3.1307659458473753,
        "smoothness": 0.24998487928514926,
        "time": 5.051429187,
        "traj_len": 3.602152347184205,
        "weighted_distance": 4.994029503765021
    },
    "planner": "PRMstar",
    "start": {
        "state": {
            "elbow_joint": 1.664937868594044,
            "shoulder_lift_joint": -0.661644460510453,
            "shoulder_pan_joint": -0.9139846352900073,
            "wrist_1_joint": 2.146753192139373,
            "wrist_2_joint": -2.2341966793290973,
            "wrist_3_joint": 0.005466555786416001
        }
    },
    "waypoints": [
        {
            "positions": [
                -0.9139846352900073,
                -0.661644460510453,
                1.664937868594044,
                2.146753192139373,
                -2.2341966793290973,
                0.005466555786416001
            ]
        },
        {
            "positions": [
                -0.7506148393618894,
                -0.6311664792186626,
                1.567560899086351,
                2.155210680817139,
                -2.2009885188302274,
                0.033792711015405326
            ]
        },
        {
            "positions": [
                -0.7206435029472156,
                -0.6167976738567474,
                1.5201386575648173,
                2.062944292301348,
                -2.0998345570663157,
                0.12894094296720834
            ]
        },
        {
            "positions": [
                -0.6906721665325418,
                -0.6024288684948322,
                1.4727164160432837,
                1.9706779037855569,
                -1.9986805953024038,
                0.22408917491901137
            ]
        },
        {
            "positions": [
                -0.660700830117868,
                -0.588060063132917,
                1.42529417452175,
                1.878411515269766,
                -1.8975266335384922,
                0.31923740687081437
            ]
        },
        {
            "positions": [
                -0.6307294937031941,
                -0.5736912577710018,
                1.3778719330002165,
                1.786145126753975,
                -1.7963726717745805,
                0.4143856388226174
            ]
        },
        {
            "positions": [
                -0.6007581572885203,
                -0.5593224524090866,
                1.3304496914786827,
                1.693878738238184,
                -1.6952187100106686,
                0.5095338707744205
            ]
        },
        {
            "positions": [
                -0.5707868208738465,
                -0.5449536470471714,
                1.2830274499571492,
                1.601612349722393,
                -1.594064748246757,
                0.6046821027262235
            ]
        },
        {
            "positions": [
                -0.5408154844591726,
                -0.5305848416852562,
                1.2356052084356155,
                1.509345961206602,
                -1.4929107864828453,
                0.6998303346780266
            ]
        },
        {
            "positions": [
                -0.5108441480444987,
                -0.516216036323341,
                1.188182966914082,
                1.417079572690811,
                -1.3917568247189336,
                0.7949785666298296
            ]
        },
        {
            "positions": [
                -0.4808728116298249,
                -0.5018472309614258,
                1.1407607253925482,
                1.32481318417502,
                -1.2906028629550215,
                0.8901267985816327
            ]
        },
        {
            "positions": [
                -0.4509014752151511,
                -0.4874784255995106,
                1.0933384838710145,
                1.2325467956592289,
                -1.1894489011911098,
                0.9852750305334357
            ]
        },
        {
            "positions": [
                -0.42093013880047725,
                -0.4731096202375954,
                1.045916242349481,
                1.1402804071434378,
                -1.0882949394271981,
                1.0804232624852386
            ]
        },
        {
            "positions": [
                -0.39095880238580344,
                -0.4587408148756802,
                0.9984940008279474,
                1.048014018627647,
                -0.9871409776632865,
                1.1755714944370415
            ]
        },
        {
            "positions": [
                -0.3609874659711296,
                -0.444372009513765,
                0.9510717593064137,
                0.9557476301118559,
                -0.8859870158993746,
                1.2707197263888448
            ]
        },
        {
            "positions": [
                -0.33101612955645576,
                -0.4300032041518498,
                0.9036495177848801,
                0.8634812415960649,
                -0.7848330541354629,
                1.3658679583406477
            ]
        },
        {
            "positions": [
                -0.37125229466972504,
                -0.4663483313585631,
                0.9620966577343665,
                0.7740737507524924,
                -0.7187801919598985,
                1.4590450395666026
            ]
        },
        {
            "positions": [
                -0.4114884597829943,
                -0.5026934585652764,
                1.0205437976838527,
                0.6846662599089199,
                -0.6527273297843341,
                1.5522221207925575
            ]
        },
        {
            "positions": [
                -0.4517246248962636,
                -0.5390385857719896,
                1.078990937633339,
                0.5952587690653475,
                -0.5866744676087698,
                1.6453992020185124
            ]
        },
        {
            "positions": [
                -0.49196079000953286,
                -0.5753837129787028,
                1.1374380775828254,
                0.505851278221775,
                -0.5206216054332055,
                1.7385762832444673
            ]
        },
        {
            "positions": [
                -0.5321969551228021,
                -0.6117288401854162,
                1.1958852175323118,
                0.4164437873782024,
                -0.45456874325764113,
                1.8317533644704223
            ]
        },
        {
            "positions": [
                -0.5724331202360714,
                -0.6480739673921294,
                1.2543323574817982,
                0.32703629653462996,
                -0.3885158810820768,
                1.9249304456963774
            ]
        },
        {
            "positions": [
                -0.6126692853493407,
                -0.6844190945988426,
                1.3127794974312845,
                0.2376288056910575,
                -0.3224630189065124,
                2.018107526922332
            ]
        },
        {
            "positions": [
                -0.65290545046261,
                -0.7207642218055559,
                1.3712266373807709,
                0.14822131484748502,
                -0.256410156730948,
                2.1112846081482872
            ]
        },
        {
            "positions": [
                -0.6931416155758792,
                -0.7571093490122691,
                1.4296737773302572,
                0.05881382400391255,
                -0.19035729455538375,
                2.204461689374242
            ]
        },
        {
            "positions": [
                -0.7333777806891485,
                -0.7934544762189825,
                1.4881209172797436,
                -0.030593666839660028,
                -0.12430443237981936,
                2.297638770600197
            ]
        },
        {
            "positions": [
                -0.7736139458024178,
                -0.8297996034256958,
                1.54656805722923,
                -0.1200011576832326,
                -0.05825157020425498,
                2.3908158518261518
            ]
        },
        {
            "positions": [
                -0.813850110915687,
                -0.866144730632409,
                1.605015197178716,
                -0.20940864852680496,
                0.007801291971309299,
                2.483992933052107
            ]
        },
        {
            "positions": [
                -0.8540862760289564,
                -0.9024898578391223,
                1.6634623371282025,
                -0.29881613937037765,
                0.0738541541468738,
                2.577170014278062
            ]
        },
        {
            "positions": [
                -0.8943224411422256,
                -0.9388349850458355,
                1.7219094770776888,
                -0.3882236302139499,
                0.13990701632243807,
                2.6703470955040167
            ]
        },
        {
            "positions": [
                -0.9345586062554949,
                -0.9751801122525489,
                1.7803566170271752,
                -0.4776311210575226,
                0.20595987849800246,
                2.763524176729972
            ]
        },
        {
            "positions": [
                -0.9747947713687641,
                -1.011525239459262,
                1.8388037569766613,
                -0.5670386119010948,
                0.27201274067356684,
                2.8567012579559266
            ]
        },
        {
            "positions": [
                -1.0150309364820336,
                -1.0478703666659754,
                1.8972508969261477,
                -0.6564461027446675,
                0.3380656028491311,
                2.9498783391818817
            ]
        },
        {
            "positions": [
                -1.0552671015953026,
                -1.0842154938726885,
                1.955698036875634,
                -0.7458535935882398,
                0.4041184650246954,
                3.0430554204078364
            ]
        },
        {
            "positions": [
                -1.095503266708572,
                -1.120560621079402,
                2.0141451768251204,
                -0.8352610844318125,
                0.4701713272002599,
                3.1362325016337915
            ]
        }
    ]
}