{
    "goal": {
        "global_pose": {
            "orientation": {
                "w": 0.5084816262002911,
                "x": -0.4908360881923452,
                "y": 0.5182115481033761,
                "z": -0.48164630358495003
            },
            "position": {
                "x": 0.5540239810943604,
                "y": -0.46912469901144505,
                "z": 0.16403168439865112
            }
        },
        "name": "move_to_storage_B"
    },
    "id": "PRMstar_move_to_storage_B_120",
    "joint_names": [
        "shoulder_pan_joint",
        "shoulder_lift_joint",
        "elbow_joint",
        "wrist_1_joint",
        "wrist_2_joint",
        "wrist_3_joint"
    ],
    "metrics": {
        "cart_traj_len": 0.8847967148907843,
        "distance_elbow_joint": 0.35936432680909425,
        "distance_shoulder_lift_joint": 0.46263981432339296,
        "distance_shoulder_pan_joint": 0.18243177053130777,
        "distance_wrist_1_joint": 3.0634612113839217,
        "distance_wrist_2_joint": 2.703724526588637,
        "distance_wrist_3_joint": 3.1861679360715986,
        "smoothness": 0.049319798787843795,
        "time": 5.030621043,
        "traj_len": 3.1555965498947978,
        "weighted_distance": 4.700777722443777
    },
    "planner": "PRMstar",
    "start": {
        "state": {
            "elbow_joint": 1.664937868594044,
            "shoulder_lift_joint": -0.661644460510453,
            "shoulder_pan_joint": -0.9139846352900073,
            "wrist_1_joint": 2.146753192139373,
            "wrist_2_joint": -2.2341966793290973,
            "wrist_3_joint": 0.005466555786416001
        }
    },
    "waypoints": [
        {
            "positions": [
                -0.9139846352900073,
                -0.661644460510453,
                1.664937868594044,
                2.146753192139373,
                -2.2341966793290973,
                0.005466555786416001
            ]
        },
        {
            "positions": [
                -0.9373159998194985,
                -0.7666905271771223,
                1.7195584329737965,
                2.1512508378765345,
                -2.116715758374176,
                0.01545424906256325
            ]
        },
        {
            "positions": [
                -0.9606473643489897,
                -0.8717365938437914,
                1.7741789973535493,
                2.1557484836136958,
                -1.9992348374192548,
                0.025441942338710496
            ]
        },
        {
            "positions": [
                -0.9839787288784809,
                -0.9767826605104606,
                1.8287995617333022,
                2.1602461293508575,
                -1.8817539164643333,
                0.03542963561485774
            ]
        },
        {
            "positions": [
                -1.0073100934079722,
                -1.0818287271771299,
                1.8834201261130548,
                2.1647437750880187,
                -1.764272995509412,
                0.04541732889100499
            ]
        },
        {
            "positions": [
                -1.0113603803358513,
                -1.0837585247978896,
                1.8898238565353314,
                2.0263132919773246,
                -1.6627365935653688,
                -0.09759254215294999
            ]
        },
        {
            "positions": [
                -1.0154106672637306,
                -1.0856883224186495,
                1.8962275869576077,
                1.88788280886663,
                -1.5612001916213256,
                -0.24060241319690498
            ]
        },
        {
            "positions": [
                -1.0194609541916098,
                -1.0876181200394093,
                1.9026313173798843,
                1.7494523257559358,
                -1.4596637896772822,
                -0.38361228424085997
            ]
        },
        {
            "positions": [
                -1.023511241119489,
                -1.0895479176601692,
                1.909035047802161,
                1.6110218426452412,
                -1.358127387733239,
                -0.5266221552848149
            ]
        },
        {
            "positions": [
                -1.0275615280473682,
                -1.091477715280929,
                1.9154387782244373,
                1.472591359534547,
                -1.2565909857891957,
                -0.6696320263287698
            ]
        },
        {
            "positions": [
                -1.0316118149752476,
                -1.0934075129016887,
                1.921842508646714,
                1.3341608764238526,
                -1.1550545838451525,
                -0.8126418973727249
            ]
        },
        {
            "positions": [
                -1.0356621019031267,
                -1.0953373105224486,
                1.9282462390689903,
                1.1957303933131582,
                -1.0535181819011092,
                -0.9556517684166798
            ]
        },
        {
            "positions": [
                -1.039712388831006,
                -1.0972671081432084,
                1.9346499694912669,
                1.0572999102024638,
                -0.9519817799570659,
                -1.098661639460635
            ]
        },
        {
            "positions": [
                -1.0437626757588852,
                -1.0991969057639683,
                1.9410536999135435,
                0.9188694270917692,
                -0.8504453780130226,
                -1.2416715105045901
            ]
        },
        {
            "positions": [
                -1.0478129626867645,
                -1.101126703384728,
                1.9474574303358199,
                0.780438943981075,
                -0.7489089760689793,
                -1.3846813815485448
            ]
        },
        {
            "positions": [
                -1.0518632496146436,
                -1.1030565010054878,
                1.9538611607580965,
                0.6420084608703807,
                -0.6473725741249361,
                -1.5276912525925
            ]
        },
        {
            "positions": [
                -1.0559135365425227,
                -1.1049862986262478,
                1.960264891180373,
                0.5035779777596865,
                -0.5458361721808929,
                -1.6707011236364548
            ]
        },
        {
            "positions": [
                -1.059963823470402,
                -1.1069160962470075,
                1.9666686216026494,
                0.3651474946489919,
                -0.4442997702368494,
                -1.81371099468041
            ]
        },
        {
            "positions": [
                -1.0640141103982812,
                -1.1088458938677674,
                1.973072352024926,
                0.22671701153829749,
                -0.3427633682928064,
                -1.9567208657243647
            ]
        },
        {
            "positions": [
                -1.0680643973261605,
                -1.1107756914885272,
                1.9794760824472024,
                0.08828652842760354,
                -0.24122696634876317,
                -2.0997307367683193
            ]
        },
        {
            "positions": [
                -1.0721146842540397,
                -1.1127054891092871,
                1.985879812869479,
                -0.050143954683091074,
                -0.13969056440471972,
                -2.2427406078122747
            ]
        },
        {
            "positions": [
                -1.076164971181919,
                -1.1146352867300469,
                1.9922835432917556,
                -0.1885744377937857,
                -0.03815416246067649,
                -2.3857504788562296
            ]
        },
        {
            "positions": [
                -1.0802152581097981,
                -1.1165650843508066,
                1.9986872737140322,
                -0.3270049209044803,
                0.06338223948336696,
                -2.528760349900185
            ]
        },
        {
            "positions": [
                -1.0842655450376775,
                -1.1184948819715665,
                2.005091004136309,
                -0.46543540401517447,
                0.1649186414274102,
                -2.67177022094414
            ]
        },
        {
            "positions": [
                -1.0883158319655566,
                -1.1204246795923263,
                2.011494734558585,
                -0.6038658871258686,
                0.2664550433714534,
                -2.8147800919880943
            ]
        },
        {
            "positions": [
                -1.092366118893436,
                -1.1223544772130862,
                2.0178984649808616,
                -0.7422963702365633,
                0.36799144531549666,
                -2.9577899630320497
            ]
        },
        {
            "positions": [
                -1.096416405821315,
                -1.124284274833846,
                2.024302195403138,
                -0.8807268533472574,
                0.4695278472595401,
                -3.1007998340760046
            ]
        }
    ]
}