{
    "goal": {
        "global_pose": {
            "orientation": {
                "w": 0.7031023480610252,
                "x": -0.7110244013736278,
                "y": 0.0077485991402295624,
                "z": 0.005598929693374583
            },
            "position": {
                "x": -0.8841497679147869,
                "y": 0.44412534475326537,
                "z": 0.3711530566215515
            }
        },
        "name": "move_to_auspresseinheit_D"
    },
    "id": "PRMstar_move_to_auspresseinheit_D_55",
    "joint_names": [
        "shoulder_pan_joint",
        "shoulder_lift_joint",
        "elbow_joint",
        "wrist_1_joint",
        "wrist_2_joint",
        "wrist_3_joint"
    ],
    "metrics": {
        "cart_traj_len": 0.3426405325701505,
        "distance_elbow_joint": 0.6333925855196494,
        "distance_shoulder_lift_joint": 0.11828513398688001,
        "distance_shoulder_pan_joint": 0.13298447612781336,
        "distance_wrist_1_joint": 0.5116661424928459,
        "distance_wrist_2_joint": 1.446144373254293,
        "distance_wrist_3_joint": 0.0162434663918245,
        "smoothness": 1.9737298371844314e-16,
        "time": 5.0037667279999996,
        "traj_len": 1.690773839924579,
        "weighted_distance": 2.2020475985555112
    },
    "planner": "PRMstar",
    "start": {
        "state": {
            "elbow_joint": -1.8275523626775212,
            "shoulder_lift_joint": -2.126789852344167,
            "shoulder_pan_joint": -0.03513704404078235,
            "wrist_1_joint": -2.347782403156801,
            "wrist_2_joint": -1.6058999987535132,
            "wrist_3_joint": -3.0880379163319196
        }
    },
    "waypoints": [
        {
            "positions": [
                -0.03513704404078235,
                -2.126789852344167,
                -1.8275523626775212,
                -2.347782403156801,
                -1.6058999987535132,
                -3.0880379163319196
            ]
        },
        {
            "positions": [
                -0.051760103556759016,
                -2.141575494092527,
                -1.748378289487565,
                -2.4117406709684066,
                -1.4251319520967265,
                -3.0900683496308976
            ]
        },
        {
            "positions": [
                -0.06838316307273569,
                -2.156361135840887,
                -1.6692042162976088,
                -2.4756989387800123,
                -1.24436390543994,
                -3.0920987829298756
            ]
        },
        {
            "positions": [
                -0.08500622258871235,
                -2.171146777589247,
                -1.5900301431076527,
                -2.539657206591618,
                -1.0635958587831533,
                -3.0941292162288536
            ]
        },
        {
            "positions": [
                -0.10162928210468902,
                -2.1859324193376066,
                -1.5108560699176965,
                -2.603615474403224,
                -0.8828278121263667,
                -3.0961596495278316
            ]
        },
        {
            "positions": [
                -0.1182523416206657,
                -2.2007180610859667,
                -1.4316819967277403,
                -2.6675737422148296,
                -0.7020597654695802,
                -3.09819008282681
            ]
        },
        {
            "positions": [
                -0.13487540113664237,
                -2.2155037028343267,
                -1.3525079235377842,
                -2.7315320100264353,
                -0.5212917188127935,
                -3.100220516125788
            ]
        },
        {
            "positions": [
                -0.15149846065261904,
                -2.230289344582687,
                -1.273333850347828,
                -2.795490277838041,
                -0.340523672156007,
                -3.102250949424766
            ]
        },
        {
            "positions": [
                -0.16812152016859572,
                -2.245074986331047,
                -1.1941597771578718,
                -2.859448545649647,
                -0.15975562549922023,
                -3.104281382723744
            ]
        }
    ]
}