{
    "goal": {
        "global_pose": {
            "orientation": {
                "w": -0.4816463035849501,
                "x": 0.5182115481033762,
                "y": 0.4908360881923453,
                "z": -0.5084816262002911
            },
            "position": {
                "x": -0.8240239810943604,
                "y": -0.300875300988555,
                "z": 0.16403168439865112
            }
        },
        "name": "move_to_storage_C"
    },
    "id": "PRMstar_move_to_storage_C_125",
    "joint_names": [
        "shoulder_pan_joint",
        "shoulder_lift_joint",
        "elbow_joint",
        "wrist_1_joint",
        "wrist_2_joint",
        "wrist_3_joint"
    ],
    "metrics": {
        "cart_traj_len": 0.5764599573740739,
        "distance_elbow_joint": 0.25801109676109424,
        "distance_shoulder_lift_joint": 0.18855945595921775,
        "distance_shoulder_pan_joint": 0.49523994028735796,
        "distance_wrist_1_joint": 0.07825375567628767,
        "distance_wrist_2_joint": 1.0613937010755796,
        "distance_wrist_3_joint": 0.06032744885525387,
        "smoothness": 0.0,
        "time": 5.011179917,
        "traj_len": 1.4634839932895716,
        "weighted_distance": 1.8444749261177735
    },
    "planner": "PRMstar",
    "start": {
        "state": {
            "elbow_joint": 2.010868314990456,
            "shoulder_lift_joint": -1.1634956873337592,
            "shoulder_pan_joint": -2.4736205022346125,
            "wrist_1_joint": -0.8367026794202681,
            "wrist_2_joint": 0.6746043897044499,
            "wrist_3_joint": -3.1496632123970403
        }
    },
    "waypoints": [
        {
            "positions": [
                -2.4736205022346125,
                -1.1634956873337592,
                2.010868314990456,
                -0.8367026794202681,
                0.6746043897044499,
                -3.1496632123970403
            ]
        },
        {
            "positions": [
                -2.5561604922825056,
                -1.1320691113405563,
                1.9678664655302733,
                -0.8236603868075535,
                0.8515033398837132,
                -3.1396086375878314
            ]
        },
        {
            "positions": [
                -2.6387004823303983,
                -1.1006425353473532,
                1.924864616070091,
                -0.8106180941948389,
                1.0284022900629766,
                -3.1295540627786225
            ]
        },
        {
            "positions": [
                -2.7212404723782915,
                -1.0692159593541504,
                1.8818627666099088,
                -0.7975758015821243,
                1.2053012402422398,
                -3.1194994879694136
            ]
        },
        {
            "positions": [
                -2.8037804624261846,
                -1.0377893833609473,
                1.8388609171497263,
                -0.7845335089694097,
                1.382200190421503,
                -3.109444913160204
            ]
        },
        {
            "positions": [
                -2.8863204524740773,
                -1.0063628073677444,
                1.7958590676895438,
                -0.771491216356695,
                1.5590991406007664,
                -3.0993903383509953
            ]
        },
        {
            "positions": [
                -2.9688604425219705,
                -0.9749362313745414,
                1.7528572182293616,
                -0.7584489237439804,
                1.7359980907800294,
                -3.0893357635417864
            ]
        }
    ]
}