{
    "goal": {
        "global_pose": {
            "orientation": {
                "w": 0.7031023502349854,
                "x": -0.7110244035720825,
                "y": 0.007748599164187908,
                "z": 0.005598929710686207
            },
            "position": {
                "x": 0.11585023208521307,
                "y": 0.44412534475326537,
                "z": 0.3711530566215515
            }
        },
        "name": "move_to_auspresseinheit_A"
    },
    "id": "PRMstar_move_to_auspresseinheit_A_93",
    "joint_names": [
        "shoulder_pan_joint",
        "shoulder_lift_joint",
        "elbow_joint",
        "wrist_1_joint",
        "wrist_2_joint",
        "wrist_3_joint"
    ],
    "metrics": {
        "cart_traj_len": 1.3254579968838989,
        "distance_elbow_joint": 0.5249195128107611,
        "distance_shoulder_lift_joint": 0.5313915322624905,
        "distance_shoulder_pan_joint": 2.9087725519977248,
        "distance_wrist_1_joint": 3.3985002795639025,
        "distance_wrist_2_joint": 0.6031233812512712,
        "distance_wrist_3_joint": 3.339905086533612,
        "smoothness": 0.9067092977965817,
        "time": 5.025421254,
        "traj_len": 3.3625306458707205,
        "weighted_distance": 4.689141305004804
    },
    "planner": "PRMstar",
    "start": {
        "state": {
            "elbow_joint": 2.4225746658250005,
            "shoulder_lift_joint": -1.3736534386056498,
            "shoulder_pan_joint": -0.3378633547517467,
            "wrist_1_joint": -1.0288598680537169,
            "wrist_2_joint": 1.233022673432363,
            "wrist_3_joint": -3.0940220416140027
        }
    },
    "waypoints": [
        {
            "positions": [
                -0.3378633547517467,
                -1.3736534386056498,
                2.4225746658250005,
                -1.0288598680537169,
                1.233022673432363,
                -3.0940220416140027
            ]
        },
        {
            "positions": [
                -0.4000850711885888,
                -1.3917501639079326,
                2.404047228670615,
                -0.896584866319281,
                1.1952489524717125,
                -2.9841211851738554
            ]
        },
        {
            "positions": [
                -0.4623067876254309,
                -1.4098468892102154,
                2.38551979151623,
                -0.7643098645848453,
                1.157475231511062,
                -2.8742203287337085
            ]
        },
        {
            "positions": [
                -0.524528504062273,
                -1.4279436145124982,
                2.3669923543618445,
                -0.6320348628504096,
                1.1197015105504113,
                -2.764319472293561
            ]
        },
        {
            "positions": [
                -0.5867502204991151,
                -1.4460403398147808,
                2.3484649172074596,
                -0.4997598611159737,
                1.0819277895897608,
                -2.654418615853414
            ]
        },
        {
            "positions": [
                -0.6489719369359572,
                -1.4641370651170635,
                2.3299374800530743,
                -0.36748485938153796,
                1.0441540686291102,
                -2.5445177594132673
            ]
        },
        {
            "positions": [
                -0.7111936533727994,
                -1.4822337904193463,
                2.311410042898689,
                -0.23520985764710212,
                1.0063803476684596,
                -2.43461690297312
            ]
        },
        {
            "positions": [
                -0.7734153698096414,
                -1.5003305157216291,
                2.2928826057443037,
                -0.10293485591266638,
                0.9686066267078091,
                -2.3247160465329726
            ]
        },
        {
            "positions": [
                -0.8356370862464835,
                -1.518427241023912,
                2.2743551685899184,
                0.02934014582176947,
                0.9308329057471585,
                -2.2148151900928257
            ]
        },
        {
            "positions": [
                -0.8978588026833256,
                -1.5365239663261947,
                2.255827731435533,
                0.1616151475562051,
                0.8930591847865079,
                -2.1049143336526783
            ]
        },
        {
            "positions": [
                -0.9600805191201676,
                -1.5546206916284775,
                2.2373002942811477,
                0.29389014929064095,
                0.8552854638258574,
                -1.9950134772125314
            ]
        },
        {
            "positions": [
                -1.0223022355570097,
                -1.57271741693076,
                2.218772857126763,
                0.4261651510250768,
                0.8175117428652068,
                -1.8851126207723843
            ]
        },
        {
            "positions": [
                -1.0845239519938519,
                -1.590814142233043,
                2.2002454199723775,
                0.5584401527595126,
                0.7797380219045562,
                -1.775211764332237
            ]
        },
        {
            "positions": [
                -1.146745668430694,
                -1.6089108675353256,
                2.1817179828179922,
                0.6907151544939485,
                0.7419643009439056,
                -1.6653109078920898
            ]
        },
        {
            "positions": [
                -1.2089673848675362,
                -1.6270075928376084,
                2.163190545663607,
                0.8229901562283841,
                0.7041905799832551,
                -1.5554100514519427
            ]
        },
        {
            "positions": [
                -1.2711891013043781,
                -1.6451043181398912,
                2.1446631085092216,
                0.95526515796282,
                0.6664168590226045,
                -1.4455091950117955
            ]
        },
        {
            "positions": [
                -1.1394926476080385,
                -1.662433694988441,
                2.1611303055422204,
                0.8609734743929957,
                0.6688513634787053,
                -1.5582686776738892
            ]
        },
        {
            "positions": [
                -1.007796193911699,
                -1.6797630718369911,
                2.1775975025752192,
                0.7666817908231713,
                0.6712858679348062,
                -1.671028160335983
            ]
        },
        {
            "positions": [
                -0.8760997402153593,
                -1.697092448685541,
                2.194064699608218,
                0.6723901072533469,
                0.673720372390907,
                -1.7837876429980766
            ]
        },
        {
            "positions": [
                -0.7444032865190198,
                -1.714421825534091,
                2.210531896641217,
                0.5780984236835226,
                0.6761548768470079,
                -1.8965471256601703
            ]
        },
        {
            "positions": [
                -0.6127068328226801,
                -1.731751202382641,
                2.2269990936742157,
                0.4838067401136983,
                0.6785893813031088,
                -2.0093066083222637
            ]
        },
        {
            "positions": [
                -0.4810103791263405,
                -1.7490805792311908,
                2.2434662907072145,
                0.38951505654387397,
                0.6810238857592096,
                -2.1220660909843576
            ]
        },
        {
            "positions": [
                -0.34931392543000095,
                -1.7664099560797408,
                2.2599334877402133,
                0.29522337297404966,
                0.6834583902153104,
                -2.234825573646451
            ]
        },
        {
            "positions": [
                -0.21761747173366142,
                -1.7837393329282907,
                2.276400684773212,
                0.20093168940422523,
                0.6858928946714112,
                -2.347585056308545
            ]
        },
        {
            "positions": [
                -0.08592101803732177,
                -1.8010687097768407,
                2.292867881806211,
                0.10664000583440092,
                0.6883273991275121,
                -2.4603445389706384
            ]
        },
        {
            "positions": [
                0.04577543565901787,
                -1.8183980866253906,
                2.3093350788392097,
                0.012348322264576606,
                0.6907619035836129,
                -2.573104021632732
            ]
        },
        {
            "positions": [
                0.1774718893553573,
                -1.8357274634739404,
                2.3258022758722086,
                -0.0819433613052476,
                0.6931964080397137,
                -2.685863504294826
            ]
        },
        {
            "positions": [
                0.30916834305169716,
                -1.8530568403224905,
                2.3422694729052074,
                -0.17623504487507202,
                0.6956309124958147,
                -2.7986229869569197
            ]
        },
        {
            "positions": [
                0.4408647967480368,
                -1.8703862171710404,
                2.358736669938206,
                -0.27052672844489645,
                0.6980654169519155,
                -2.911382469619013
            ]
        },
        {
            "positions": [
                0.5725612504443762,
                -1.8877155940195904,
                2.375203866971205,
                -0.36481841201472065,
                0.7004999214080163,
                -3.0241419522811066
            ]
        },
        {
            "positions": [
                0.7042577041407159,
                -1.9050449708681403,
                2.391671064004204,
                -0.4591100955845451,
                0.7029344258641171,
                -3.1369014349432005
            ]
        }
    ]
}