{
    "goal": {
        "global_pose": {
            "orientation": {
                "w": 0.7047431468963623,
                "x": -0.7094548344612122,
                "y": 0.0024358443915843964,
                "z": -0.0022348060738295317
            },
            "position": {
                "x": 0.6094750761985779,
                "y": 0.3671506643295288,
                "z": 0.19426114857196808
            }
        },
        "name": "move_to_magneteinheit_A"
    },
    "id": "PRMstar_move_to_magneteinheit_A_94",
    "joint_names": [
        "shoulder_pan_joint",
        "shoulder_lift_joint",
        "elbow_joint",
        "wrist_1_joint",
        "wrist_2_joint",
        "wrist_3_joint"
    ],
    "metrics": {
        "cart_traj_len": 3.7686638863784494,
        "distance_elbow_joint": 3.887379157719703,
        "distance_shoulder_lift_joint": 0.8158164629706937,
        "distance_shoulder_pan_joint": 2.5874206043145156,
        "distance_wrist_1_joint": 0.7937957373566068,
        "distance_wrist_2_joint": 1.7087304875108151,
        "distance_wrist_3_joint": 2.623165071542224,
        "smoothness": 0.014104396169147028,
        "time": 5.039841495,
        "traj_len": 3.5236781239799075,
        "weighted_distance": 4.490563872095177
    },
    "planner": "PRMstar",
    "start": {
        "state": {
            "elbow_joint": -1.9196185241190666,
            "shoulder_lift_joint": -1.2443396400964142,
            "shoulder_pan_joint": 2.6996025414629847,
            "wrist_1_joint": -1.5485510000780065,
            "wrist_2_joint": -1.5709468930060704,
            "wrist_3_joint": 0.4420197071253992
        }
    },
    "waypoints": [
        {
            "positions": [
                2.6996025414629847,
                -1.2443396400964142,
                -1.9196185241190666,
                -1.5485510000780065,
                -1.5709468930060704,
                0.4420197071253992
            ]
        },
        {
            "positions": [
                2.5880126961025645,
                -1.2233756534312448,
                -1.8190226991035314,
                -1.5258491693006655,
                -1.5032184389337067,
                0.5020932947512774
            ]
        },
        {
            "positions": [
                2.4764228507421446,
                -1.2024116667660756,
                -1.718426874087996,
                -1.5031473385233247,
                -1.4354899848613427,
                0.5621668823771556
            ]
        },
        {
            "positions": [
                2.3648330053817244,
                -1.1814476801009062,
                -1.6178310490724608,
                -1.480445507745984,
                -1.367761530788979,
                0.6222404700030338
            ]
        },
        {
            "positions": [
                2.253243160021304,
                -1.160483693435737,
                -1.5172352240569253,
                -1.457743676968643,
                -1.3000330767166153,
                0.6823140576289121
            ]
        },
        {
            "positions": [
                2.1416533146608843,
                -1.1395197067705676,
                -1.4166393990413901,
                -1.435041846191302,
                -1.2323046226442516,
                0.7423876452547903
            ]
        },
        {
            "positions": [
                2.030063469300464,
                -1.1185557201053982,
                -1.316043574025855,
                -1.4123400154139611,
                -1.1645761685718878,
                0.8024612328806685
            ]
        },
        {
            "positions": [
                1.918473623940044,
                -1.097591733440229,
                -1.2154477490103195,
                -1.3896381846366204,
                -1.096847714499524,
                0.8625348205065467
            ]
        },
        {
            "positions": [
                1.806883778579624,
                -1.0766277467750596,
                -1.114851923994784,
                -1.3669363538592794,
                -1.0291192604271602,
                0.922608408132425
            ]
        },
        {
            "positions": [
                1.6952939332192036,
                -1.0556637601098904,
                -1.0142560989792488,
                -1.3442345230819384,
                -0.9613908063547965,
                0.9826819957583032
            ]
        },
        {
            "positions": [
                1.5837040878587836,
                -1.034699773444721,
                -0.9136602739637136,
                -1.3215326923045976,
                -0.8936623522824327,
                1.0427555833841815
            ]
        },
        {
            "positions": [
                1.4721142424983635,
                -1.0137357867795518,
                -0.8130644489481782,
                -1.2988308615272568,
                -0.8259338982100689,
                1.1028291710100597
            ]
        },
        {
            "positions": [
                1.3605243971379435,
                -0.9927718001143824,
                -0.712468623932643,
                -1.2761290307499158,
                -0.7582054441377052,
                1.162902758635938
            ]
        },
        {
            "positions": [
                1.2489345517775232,
                -0.971807813449213,
                -0.6118727989171076,
                -1.2534271999725748,
                -0.6904769900653414,
                1.2229763462618162
            ]
        },
        {
            "positions": [
                1.1373447064171032,
                -0.9508438267840438,
                -0.5112769739015723,
                -1.230725369195234,
                -0.6227485359929776,
                1.2830499338876944
            ]
        },
        {
            "positions": [
                1.0257548610566831,
                -0.9298798401188744,
                -0.41068114888603713,
                -1.2080235384178932,
                -0.5550200819206139,
                1.3431235215135724
            ]
        },
        {
            "positions": [
                0.9141650156962629,
                -0.9089158534537051,
                -0.3100853238705017,
                -1.1853217076405522,
                -0.48729162784825,
                1.4031971091394508
            ]
        },
        {
            "positions": [
                0.802575170335843,
                -0.8879518667885358,
                -0.20948949885496626,
                -1.1626198768632112,
                -0.41956317377588626,
                1.463270696765329
            ]
        },
        {
            "positions": [
                0.6909853249754225,
                -0.8669878801233664,
                -0.10889367383943083,
                -1.1399180460858704,
                -0.35183471970352254,
                1.5233442843912073
            ]
        },
        {
            "positions": [
                0.5793954796150027,
                -0.8460238934581972,
                -0.008297848823895615,
                -1.1172162153085297,
                -0.2841062656311588,
                1.5834178720170855
            ]
        },
        {
            "positions": [
                0.46780563425458244,
                -0.8250599067930278,
                0.09229797619163937,
                -1.0945143845311887,
                -0.2163778115587951,
                1.6434914596429637
            ]
        },
        {
            "positions": [
                0.35621578889416217,
                -0.8040959201278585,
                0.19289380120717503,
                -1.0718125537538477,
                -0.14864935748643116,
                1.703565047268842
            ]
        },
        {
            "positions": [
                0.24462594353374253,
                -0.7831319334626892,
                0.2934896262227103,
                -1.0491107229765069,
                -0.08092090341406741,
                1.7636386348947202
            ]
        },
        {
            "positions": [
                0.2192190615873711,
                -0.7876447127542142,
                0.44184585615449024,
                -1.010531240072867,
                -0.059223632753363176,
                1.868657407365075
            ]
        },
        {
            "positions": [
                0.19381217964099967,
                -0.7921574920457393,
                0.5902020860862701,
                -0.9719517571692271,
                -0.037526362092658944,
                1.9736761798354299
            ]
        },
        {
            "positions": [
                0.16840529769462825,
                -0.7966702713372642,
                0.73855831601805,
                -0.9333722742655872,
                -0.01582909143195471,
                2.0786949523057845
            ]
        },
        {
            "positions": [
                0.1429984157482568,
                -0.8011830506287893,
                0.88691454594983,
                -0.8947927913619473,
                0.0058681792287495205,
                2.1837137247761396
            ]
        },
        {
            "positions": [
                0.11759153380188539,
                -0.8056958299203143,
                1.0352707758816098,
                -0.8562133084583075,
                0.027565449889453753,
                2.288732497246494
            ]
        },
        {
            "positions": [
                0.11849313324412154,
                -0.8610366399002048,
                1.1906857521681145,
                -0.8393036341688228,
                0.045935140658669056,
                2.418141210816682
            ]
        },
        {
            "positions": [
                0.1193947326863577,
                -0.9163774498800955,
                1.3461007284546191,
                -0.8223939598793382,
                0.06430483142788436,
                2.5475499243868707
            ]
        },
        {
            "positions": [
                0.12029633212859386,
                -0.9717182598599861,
                1.5015157047411238,
                -0.8054842855898536,
                0.08267452219709967,
                2.6769586379570587
            ]
        },
        {
            "positions": [
                0.12119793157083002,
                -1.0270590698398767,
                1.6569306810276285,
                -0.788574611300369,
                0.10104421296631497,
                2.8063673515272467
            ]
        },
        {
            "positions": [
                0.12209953101306617,
                -1.0823998798197674,
                1.8123456573141332,
                -0.7716649370108843,
                0.11941390373553029,
                2.935776065097435
            ]
        },
        {
            "positions": [
                0.12300113045530232,
                -1.1377406897996578,
                1.967760633600638,
                -0.7547552627213997,
                0.1377835945047456,
                3.065184778667623
            ]
        }
    ]
}