{
    "goal": {
        "global_pose": {
            "orientation": {
                "w": -0.00223480608172531,
                "x": 0.0024358444001904467,
                "y": 0.7094548369677653,
                "z": -0.704743149386269
            },
            "position": {
                "x": -0.37947507619857795,
                "y": -0.6371506643295288,
                "z": 0.19426114857196808
            }
        },
        "name": "move_to_magneteinheit_C"
    },
    "id": "PRMstar_move_to_magneteinheit_C_134",
    "joint_names": [
        "shoulder_pan_joint",
        "shoulder_lift_joint",
        "elbow_joint",
        "wrist_1_joint",
        "wrist_2_joint",
        "wrist_3_joint"
    ],
    "metrics": {
        "cart_traj_len": 1.138686306138097,
        "distance_elbow_joint": 1.5604285165502283,
        "distance_shoulder_lift_joint": 0.5091285655671571,
        "distance_shoulder_pan_joint": 0.9583069863616911,
        "distance_wrist_1_joint": 2.6134438508973203,
        "distance_wrist_2_joint": 1.7469770711426833,
        "distance_wrist_3_joint": 1.4727846758233722,
        "smoothness": 0.9776213583629763,
        "time": 5.035898844,
        "traj_len": 2.9767548885224753,
        "weighted_distance": 4.020828265423581
    },
    "planner": "PRMstar",
    "start": {
        "state": {
            "elbow_joint": 1.9565354010623817,
            "shoulder_lift_joint": -1.4165861575791021,
            "shoulder_pan_joint": -1.6717766225146293,
            "wrist_1_joint": -0.5286633292919765,
            "wrist_2_joint": 1.472756589071564,
            "wrist_3_joint": -3.1238370188695823
        }
    },
    "waypoints": [
        {
            "positions": [
                -1.6717766225146293,
                -1.4165861575791021,
                1.9565354010623817,
                -0.5286633292919765,
                1.472756589071564,
                -3.1238370188695823
            ]
        },
        {
            "positions": [
                -1.6854631775045763,
                -1.4223621039024705,
                2.0240360830638693,
                -0.6511529617169207,
                1.3670564783111352,
                -3.066218709697753
            ]
        },
        {
            "positions": [
                -1.6991497324945235,
                -1.428138050225839,
                2.0915367650653565,
                -0.7736425941418651,
                1.2613563675507065,
                -3.0086004005259244
            ]
        },
        {
            "positions": [
                -1.7128362874844705,
                -1.4339139965492076,
                2.159037447066844,
                -0.8961322265668095,
                1.1556562567902777,
                -2.9509820913540956
            ]
        },
        {
            "positions": [
                -1.7265228424744177,
                -1.439689942872576,
                2.2265381290683317,
                -1.0186218589917537,
                1.049956146029849,
                -2.8933637821822664
            ]
        },
        {
            "positions": [
                -1.7402093974643646,
                -1.4454658891959444,
                2.2940388110698193,
                -1.141111491416698,
                0.9442560352694204,
                -2.8357454730104372
            ]
        },
        {
            "positions": [
                -1.7538959524543118,
                -1.4512418355193129,
                2.361539493071307,
                -1.2636011238416422,
                0.8385559245089916,
                -2.7781271638386085
            ]
        },
        {
            "positions": [
                -1.7675825074442588,
                -1.4570177818426813,
                2.429040175072794,
                -1.3860907562665867,
                0.7328558137485629,
                -2.7205088546667797
            ]
        },
        {
            "positions": [
                -1.7812690624342058,
                -1.4627937281660497,
                2.4965408570742817,
                -1.508580388691531,
                0.6271557029881343,
                -2.6628905454949505
            ]
        },
        {
            "positions": [
                -1.794955617424153,
                -1.468569674489418,
                2.5640415390757694,
                -1.6310700211164753,
                0.5214555922277055,
                -2.6052722363231213
            ]
        },
        {
            "positions": [
                -1.8086421724141,
                -1.4743456208127868,
                2.6315422210772565,
                -1.7535596535414197,
                0.4157554814672768,
                -2.5476539271512926
            ]
        },
        {
            "positions": [
                -1.822328727404047,
                -1.4801215671361552,
                2.699042903078744,
                -1.876049285966364,
                0.3100553707068481,
                -2.490035617979464
            ]
        },
        {
            "positions": [
                -1.8360152823939941,
                -1.4858975134595236,
                2.766543585080232,
                -1.9985389183913083,
                0.2043552599464193,
                -2.4324173088076346
            ]
        },
        {
            "positions": [
                -1.9321603960982079,
                -1.4379984154981118,
                2.6847714090228334,
                -1.8815882834780933,
                0.23056382830526134,
                -2.4270417303888965
            ]
        },
        {
            "positions": [
                -2.0283055098024216,
                -1.3900993175367,
                2.602999232965435,
                -1.7646376485648783,
                0.2567723966641034,
                -2.421666151970158
            ]
        },
        {
            "positions": [
                -2.1244506235066356,
                -1.3422002195752882,
                2.5212270569080366,
                -1.647687013651663,
                0.28298096502294545,
                -2.4162905735514197
            ]
        },
        {
            "positions": [
                -2.2205957372108496,
                -1.2943011216138762,
                2.4394548808506387,
                -1.530736378738448,
                0.30918953338178756,
                -2.4109149951326816
            ]
        },
        {
            "positions": [
                -2.3167408509150635,
                -1.2464020236524644,
                2.3576827047932403,
                -1.4137857438252328,
                0.3353981017406296,
                -2.4055394167139434
            ]
        },
        {
            "positions": [
                -2.412885964619277,
                -1.1985029256910527,
                2.275910528735842,
                -1.2968351089120178,
                0.36160667009947167,
                -2.400163838295205
            ]
        },
        {
            "positions": [
                -2.509031078323491,
                -1.1506038277296409,
                2.1941383526784435,
                -1.1798844739988028,
                0.3878152384583137,
                -2.3947882598764667
            ]
        },
        {
            "positions": [
                -2.5516557269316187,
                -1.1057327826986745,
                2.1816000134910563,
                -1.159514311228172,
                0.3914916313694431,
                -2.4456113475919015
            ]
        },
        {
            "positions": [
                -2.535970150542678,
                -1.1176632784838518,
                2.148504661302416,
                -1.0986055803012016,
                0.4497795054883461,
                -2.584193913414866
            ]
        },
        {
            "positions": [
                -2.520284574153738,
                -1.1295937742690292,
                2.115409309113775,
                -1.0376968493742311,
                0.5080673796072491,
                -2.7227764792378304
            ]
        },
        {
            "positions": [
                -2.5045989977647976,
                -1.1415242700542063,
                2.0823139569251348,
                -0.9767881184472608,
                0.5663552537261521,
                -2.8613590450607944
            ]
        },
        {
            "positions": [
                -2.4889134213758575,
                -1.1534547658393837,
                2.049218604736494,
                -0.9158793875202904,
                0.6246431278450552,
                -2.999941610883759
            ]
        },
        {
            "positions": [
                -2.473227844986917,
                -1.165385261624561,
                2.0161232525478536,
                -0.8549706565933199,
                0.6829310019639582,
                -3.1385241767067233
            ]
        }
    ]
}