{
    "goal": {
        "global_pose": {
            "orientation": {
                "w": -0.00223480608172531,
                "x": 0.0024358444001904467,
                "y": 0.7094548369677653,
                "z": -0.704743149386269
            },
            "position": {
                "x": -0.37947507619857795,
                "y": -0.6371506643295288,
                "z": 0.19426114857196808
            }
        },
        "name": "move_to_magneteinheit_C"
    },
    "id": "PRMstar_move_to_magneteinheit_C_137",
    "joint_names": [
        "shoulder_pan_joint",
        "shoulder_lift_joint",
        "elbow_joint",
        "wrist_1_joint",
        "wrist_2_joint",
        "wrist_3_joint"
    ],
    "metrics": {
        "cart_traj_len": 0.7209815944529071,
        "distance_elbow_joint": 0.35333439263502786,
        "distance_shoulder_lift_joint": 0.318887825977036,
        "distance_shoulder_pan_joint": 0.885831599944811,
        "distance_wrist_1_joint": 2.218808636704111,
        "distance_wrist_2_joint": 1.3431730576439809,
        "distance_wrist_3_joint": 0.7648338371328203,
        "smoothness": 1.085596090154523,
        "time": 5.053182024000001,
        "traj_len": 2.425874965870621,
        "weighted_distance": 3.3130829628386187
    },
    "planner": "PRMstar",
    "start": {
        "state": {
            "elbow_joint": 1.9565354010623817,
            "shoulder_lift_joint": -1.4165861575791021,
            "shoulder_pan_joint": -1.6717766225146293,
            "wrist_1_joint": -0.5286633292919765,
            "wrist_2_joint": 1.472756589071564,
            "wrist_3_joint": -3.1238370188695823
        }
    },
    "waypoints": [
        {
            "positions": [
                -1.6717766225146293,
                -1.4165861575791021,
                1.9565354010623817,
                -0.5286633292919765,
                1.472756589071564,
                -3.1238370188695823
            ]
        },
        {
            "positions": [
                -1.6650665590192288,
                -1.4332388498799262,
                1.9748352515127605,
                -0.4097503215224789,
                1.4438978334286523,
                -3.0921467877881352
            ]
        },
        {
            "positions": [
                -1.6583564955238284,
                -1.4498915421807506,
                1.9931351019631396,
                -0.29083731375298144,
                1.4150390777857407,
                -3.060456556706688
            ]
        },
        {
            "positions": [
                -1.7608922498289912,
                -1.441964377260157,
                2.01411203455677,
                -0.20098060105558443,
                1.2885188190151868,
                -3.0218221113519435
            ]
        },
        {
            "positions": [
                -1.8634280041341538,
                -1.4340372123395633,
                2.0350889671503998,
                -0.11112388835818743,
                1.1619985602446328,
                -2.9831876659971988
            ]
        },
        {
            "positions": [
                -1.9659637584393166,
                -1.4261100474189696,
                2.05606589974403,
                -0.02126717566079045,
                1.035478301474079,
                -2.9445532206424545
            ]
        },
        {
            "positions": [
                -2.0684995127444794,
                -1.418182882498376,
                2.07704283233766,
                0.06858953703660658,
                0.908958042703525,
                -2.90591877528771
            ]
        },
        {
            "positions": [
                -2.171035267049642,
                -1.4102557175777821,
                2.0980197649312906,
                0.15844624973400362,
                0.782437783932971,
                -2.867284329932965
            ]
        },
        {
            "positions": [
                -2.2735710213548046,
                -1.4023285526571885,
                2.1189966975249206,
                0.24830296243140054,
                0.6559175251624172,
                -2.828649884578221
            ]
        },
        {
            "positions": [
                -2.3761067756599674,
                -1.3944013877365948,
                2.139973630118551,
                0.3381596751287976,
                0.5293972663918632,
                -2.790015439223476
            ]
        },
        {
            "positions": [
                -2.4786425299651302,
                -1.3864742228160012,
                2.160950562712181,
                0.42801638782619467,
                0.40287700762130924,
                -2.7513809938687315
            ]
        },
        {
            "positions": [
                -2.483307855790248,
                -1.3485672403792555,
                2.1361953393189284,
                0.2170917625466731,
                0.44362943492715495,
                -2.815977016132529
            ]
        },
        {
            "positions": [
                -2.4879731816153656,
                -1.3106602579425097,
                2.1114401159256757,
                0.006167137267151512,
                0.4843818622330007,
                -2.880573038396326
            ]
        },
        {
            "positions": [
                -2.4926385074404833,
                -1.2727532755057638,
                2.0866848925324226,
                -0.20475748801237004,
                0.5251342895388464,
                -2.945169060660124
            ]
        },
        {
            "positions": [
                -2.497303833265601,
                -1.234846293069018,
                2.06192966913917,
                -0.41568211329189164,
                0.5658867168446922,
                -3.0097650829239213
            ]
        },
        {
            "positions": [
                -2.5019691590907187,
                -1.1969393106322723,
                2.0371744457459173,
                -0.6266067385714131,
                0.6066391441505379,
                -3.0743611051877187
            ]
        },
        {
            "positions": [
                -2.4875697543971587,
                -1.1806242057188177,
                2.024602888736435,
                -0.730359635165579,
                0.6414048139827867,
                -3.10905995559421
            ]
        },
        {
            "positions": [
                -2.473170349703599,
                -1.164309100805363,
                2.0120313317269525,
                -0.834112531759745,
                0.6761704838150355,
                -3.143758806000701
            ]
        }
    ]
}