{
    "goal": {
        "global_pose": {
            "orientation": {
                "w": 0.7031023502349854,
                "x": -0.7110244035720825,
                "y": 0.007748599164187908,
                "z": 0.005598929710686207
            },
            "position": {
                "x": 0.11585023208521307,
                "y": 0.44412534475326537,
                "z": 0.3711530566215515
            }
        },
        "name": "move_to_auspresseinheit_A"
    },
    "id": "PRMstar_move_to_auspresseinheit_A_75",
    "joint_names": [
        "shoulder_pan_joint",
        "shoulder_lift_joint",
        "elbow_joint",
        "wrist_1_joint",
        "wrist_2_joint",
        "wrist_3_joint"
    ],
    "metrics": {
        "cart_traj_len": 1.2826815650856123,
        "distance_elbow_joint": 0.8218067128903037,
        "distance_shoulder_lift_joint": 1.1283296257066568,
        "distance_shoulder_pan_joint": 1.060091876962261,
        "distance_wrist_1_joint": 1.0955144745442473,
        "distance_wrist_2_joint": 3.455811567705201,
        "distance_wrist_3_joint": 3.8313523533204488,
        "smoothness": 0.9882435638175243,
        "time": 5.252428909,
        "traj_len": 3.375337999538582,
        "weighted_distance": 4.858697084612238
    },
    "planner": "PRMstar",
    "start": {
        "state": {
            "elbow_joint": 2.4225746658250005,
            "shoulder_lift_joint": -1.3736534386056498,
            "shoulder_pan_joint": -0.3378633547517467,
            "wrist_1_joint": -1.0288598680537169,
            "wrist_2_joint": 1.233022673432363,
            "wrist_3_joint": -3.0940220416140027
        }
    },
    "waypoints": [
        {
            "positions": [
                -0.3378633547517467,
                -1.3736534386056498,
                2.4225746658250005,
                -1.0288598680537169,
                1.233022673432363,
                -3.0940220416140027
            ]
        },
        {
            "positions": [
                -0.22969378114985745,
                -1.512324485403834,
                2.446781044429065,
                -1.0355836366366276,
                1.1297045669659185,
                -3.096432233157297
            ]
        },
        {
            "positions": [
                -0.12152420754796814,
                -1.650995532202018,
                2.470987423033129,
                -1.0423074052195385,
                1.0263864604994741,
                -3.098842424700591
            ]
        },
        {
            "positions": [
                -0.013354633946078831,
                -1.7896665790002024,
                2.4951938016371935,
                -1.0490311738024491,
                0.9230683540330296,
                -3.1012526162438854
            ]
        },
        {
            "positions": [
                0.09481493965581045,
                -1.9283376257983864,
                2.519400180241258,
                -1.0557549423853598,
                0.819750247566585,
                -3.1036628077871797
            ]
        },
        {
            "positions": [
                0.20298451325769978,
                -2.067008672596571,
                2.543606558845322,
                -1.0624787109682707,
                0.7164321411001404,
                -3.1060729993304736
            ]
        },
        {
            "positions": [
                0.31115408685958906,
                -2.205679719394755,
                2.5678129374493865,
                -1.0692024795511814,
                0.613114034633696,
                -3.108483190873768
            ]
        },
        {
            "positions": [
                0.3479171274915728,
                -2.2032095000950016,
                2.590590948044927,
                -1.0897514360119993,
                0.48906676154136514,
                -2.9362749669713466
            ]
        },
        {
            "positions": [
                0.38468016812355643,
                -2.200739280795249,
                2.613368958640468,
                -1.1103003924728174,
                0.3650194884490343,
                -2.7640667430689256
            ]
        },
        {
            "positions": [
                0.42144320875554014,
                -2.1982690614954956,
                2.6361469692360084,
                -1.1308493489336353,
                0.2409722153567035,
                -2.5918585191665047
            ]
        },
        {
            "positions": [
                0.45820624938752386,
                -2.1957988421957424,
                2.658924979831549,
                -1.1513983053944534,
                0.11692494226437261,
                -2.4196502952640833
            ]
        },
        {
            "positions": [
                0.4949692900195075,
                -2.1933286228959896,
                2.6817029904270897,
                -1.1719472618552713,
                -0.007122330827958212,
                -2.247442071361662
            ]
        },
        {
            "positions": [
                0.5317323306514912,
                -2.1908584035962364,
                2.70448100102263,
                -1.1924962183160894,
                -0.13116960392028898,
                -2.075233847459241
            ]
        },
        {
            "positions": [
                0.5684953712834748,
                -2.1883881842964836,
                2.7272590116181705,
                -1.2130451747769073,
                -0.25521687701261986,
                -1.9030256235568195
            ]
        },
        {
            "positions": [
                0.6052584119154586,
                -2.1859179649967304,
                2.750037022213711,
                -1.2335941312377254,
                -0.37926415010495074,
                -1.7308173996543983
            ]
        },
        {
            "positions": [
                0.6420214525474424,
                -2.183447745696977,
                2.772815032809252,
                -1.2541430876985433,
                -0.5033114231972816,
                -1.558609175751977
            ]
        },
        {
            "positions": [
                0.678784493179426,
                -2.1809775263972244,
                2.7955930434047924,
                -1.2746920441593614,
                -0.6273586962896124,
                -1.386400951849556
            ]
        },
        {
            "positions": [
                0.7155475338114097,
                -2.178507307097471,
                2.818371054000333,
                -1.2952410006201793,
                -0.7514059693819433,
                -1.2141927279471347
            ]
        },
        {
            "positions": [
                0.7150336116268631,
                -2.157804927665143,
                2.785601029022258,
                -1.2314615127757342,
                -0.6382226674672591,
                -1.3620850926497539
            ]
        },
        {
            "positions": [
                0.7145196894423166,
                -2.1371025482328148,
                2.7528310040441837,
                -1.1676820249312894,
                -0.5250393655525749,
                -1.5099774573523732
            ]
        },
        {
            "positions": [
                0.71400576725777,
                -2.116400168800486,
                2.7200609790661088,
                -1.1039025370868443,
                -0.41185606363789085,
                -1.6578698220549923
            ]
        },
        {
            "positions": [
                0.7134918450732235,
                -2.095697789368158,
                2.6872909540880343,
                -1.0401230492423994,
                -0.29867276172320667,
                -1.8057621867576117
            ]
        },
        {
            "positions": [
                0.7129779228886769,
                -2.0749954099358296,
                2.6545209291099594,
                -0.9763435613979543,
                -0.1854894598085225,
                -1.9536545514602308
            ]
        },
        {
            "positions": [
                0.7124640007041304,
                -2.0542930305035014,
                2.621750904131885,
                -0.9125640735535092,
                -0.07230615789383843,
                -2.10154691616285
            ]
        },
        {
            "positions": [
                0.7119500785195838,
                -2.0335906510711728,
                2.58898087915381,
                -0.8487845857090643,
                0.040877144020845746,
                -2.2494392808654693
            ]
        },
        {
            "positions": [
                0.7114361563350373,
                -2.0128882716388445,
                2.5562108541757356,
                -0.7850050978646193,
                0.15406044593552992,
                -2.397331645568088
            ]
        },
        {
            "positions": [
                0.7109222341504907,
                -1.9921858922065163,
                2.5234408291976607,
                -0.7212256100201743,
                0.2672437478502141,
                -2.5452240102707075
            ]
        },
        {
            "positions": [
                0.7104083119659442,
                -1.9714835127741879,
                2.490670804219586,
                -0.6574461221757292,
                0.3804270497648983,
                -2.693116374973327
            ]
        },
        {
            "positions": [
                0.7098943897813976,
                -1.9507811333418597,
                2.4579007792415113,
                -0.5936666343312843,
                0.4936103516795822,
                -2.841008739675946
            ]
        },
        {
            "positions": [
                0.7093804675968511,
                -1.9300787539095312,
                2.425130754263437,
                -0.5298871464868392,
                0.6067936535942664,
                -2.9889011043785656
            ]
        },
        {
            "positions": [
                0.7088665454123045,
                -1.909376374477203,
                2.392360729285362,
                -0.4661076586423943,
                0.7199769555089506,
                -3.1367934690811845
            ]
        }
    ]
}