{
    "goal": {
        "global_pose": {
            "orientation": {
                "w": -0.00223480608172531,
                "x": 0.0024358444001904467,
                "y": 0.7094548369677653,
                "z": -0.704743149386269
            },
            "position": {
                "x": -0.37947507619857795,
                "y": -0.6371506643295288,
                "z": 0.19426114857196808
            }
        },
        "name": "move_to_magneteinheit_C"
    },
    "id": "PRMstar_move_to_magneteinheit_C_123",
    "joint_names": [
        "shoulder_pan_joint",
        "shoulder_lift_joint",
        "elbow_joint",
        "wrist_1_joint",
        "wrist_2_joint",
        "wrist_3_joint"
    ],
    "metrics": {
        "cart_traj_len": 1.0017318571074478,
        "distance_elbow_joint": 0.6982897508582573,
        "distance_shoulder_lift_joint": 1.0722744609421337,
        "distance_shoulder_pan_joint": 0.7999595274600406,
        "distance_wrist_1_joint": 0.767342502818045,
        "distance_wrist_2_joint": 1.0234522658001173,
        "distance_wrist_3_joint": 0.08684391847822459,
        "smoothness": 1.315873573399908,
        "time": 5.074185529,
        "traj_len": 2.1090667192758077,
        "weighted_distance": 2.5323200887588104
    },
    "planner": "PRMstar",
    "start": {
        "state": {
            "elbow_joint": 1.9565354010623817,
            "shoulder_lift_joint": -1.4165861575791021,
            "shoulder_pan_joint": -1.6717766225146293,
            "wrist_1_joint": -0.5286633292919765,
            "wrist_2_joint": 1.472756589071564,
            "wrist_3_joint": -3.1238370188695823
        }
    },
    "waypoints": [
        {
            "positions": [
                -1.6717766225146293,
                -1.4165861575791021,
                1.9565354010623817,
                -0.5286633292919765,
                1.472756589071564,
                -3.1238370188695823
            ]
        },
        {
            "positions": [
                -1.6866006255954709,
                -1.4849160567482442,
                2.0192949605666355,
                -0.4904064162438952,
                1.3217359794577854,
                -3.120520749927382
            ]
        },
        {
            "positions": [
                -1.7014246286763124,
                -1.5532459559173863,
                2.0820545200708893,
                -0.45214950319581393,
                1.1707153698440067,
                -3.117204480985182
            ]
        },
        {
            "positions": [
                -1.716248631757154,
                -1.6215758550865282,
                2.144814079575143,
                -0.4138925901477327,
                1.019694760230228,
                -3.1138882120429816
            ]
        },
        {
            "positions": [
                -1.7310726348379957,
                -1.6899057542556704,
                2.2075736390793965,
                -0.37563567709965145,
                0.8686741506164495,
                -3.1105719431007812
            ]
        },
        {
            "positions": [
                -1.7458966379188372,
                -1.7582356534248125,
                2.2703331985836503,
                -0.3373787640515702,
                0.7176535410026708,
                -3.1072556741585813
            ]
        },
        {
            "positions": [
                -1.7607206409996787,
                -1.8265655525939546,
                2.333092758087904,
                -0.2991218510034889,
                0.5666329313888921,
                -3.103939405216381
            ]
        },
        {
            "positions": [
                -1.845888366316355,
                -1.7016259851508229,
                2.283406518758578,
                -0.3483139535846863,
                0.582241014748623,
                -3.1013929594313456
            ]
        },
        {
            "positions": [
                -1.931056091633031,
                -1.5766864177076911,
                2.233720279429252,
                -0.39750605616588375,
                0.5978490981083538,
                -3.0988465136463104
            ]
        },
        {
            "positions": [
                -2.016223816949707,
                -1.4517468502645594,
                2.1840340400999256,
                -0.44669815874708113,
                0.6134571814680848,
                -3.096300067861275
            ]
        },
        {
            "positions": [
                -2.1013915422663834,
                -1.3268072828214277,
                2.1343478007705996,
                -0.49589026132827857,
                0.6290652648278157,
                -3.09375362207624
            ]
        },
        {
            "positions": [
                -2.1865592675830596,
                -1.201867715378296,
                2.0846615614412736,
                -0.545082363909476,
                0.6446733481875465,
                -3.0912071762912046
            ]
        },
        {
            "positions": [
                -2.329147708778865,
                -1.1830691010224847,
                2.0480109628482213,
                -0.6910026197212611,
                0.6643174438469421,
                -3.1183142142411278
            ]
        },
        {
            "positions": [
                -2.47173614997467,
                -1.1642704866666733,
                2.0113603642551694,
                -0.8369228755330463,
                0.6839615395063376,
                -3.1454212521910514
            ]
        }
    ]
}