{
    "goal": {
        "global_pose": {
            "orientation": {
                "w": 0.7031023480610252,
                "x": -0.7110244013736278,
                "y": 0.0077485991402295624,
                "z": 0.005598929693374583
            },
            "position": {
                "x": -0.8841497679147869,
                "y": 0.44412534475326537,
                "z": 0.3711530566215515
            }
        },
        "name": "move_to_auspresseinheit_D"
    },
    "id": "PRMstar_move_to_auspresseinheit_D_73",
    "joint_names": [
        "shoulder_pan_joint",
        "shoulder_lift_joint",
        "elbow_joint",
        "wrist_1_joint",
        "wrist_2_joint",
        "wrist_3_joint"
    ],
    "metrics": {
        "cart_traj_len": 0.3430313165769326,
        "distance_elbow_joint": 0.6389685065485173,
        "distance_shoulder_lift_joint": 0.12107568118929413,
        "distance_shoulder_pan_joint": 0.1334387231328655,
        "distance_wrist_1_joint": 0.5386534608023501,
        "distance_wrist_2_joint": 1.4337066933368035,
        "distance_wrist_3_joint": 0.0008815308199232597,
        "smoothness": 5.921189511553294e-16,
        "time": 5.0092851529999995,
        "traj_len": 1.6931404536628831,
        "weighted_distance": 2.2001926760192516
    },
    "planner": "PRMstar",
    "start": {
        "state": {
            "elbow_joint": -1.8275523626775212,
            "shoulder_lift_joint": -2.126789852344167,
            "shoulder_pan_joint": -0.03513704404078235,
            "wrist_1_joint": -2.347782403156801,
            "wrist_2_joint": -1.6058999987535132,
            "wrist_3_joint": -3.0880379163319196
        }
    },
    "waypoints": [
        {
            "positions": [
                -0.03513704404078235,
                -2.126789852344167,
                -1.8275523626775212,
                -2.347782403156801,
                -1.6058999987535132,
                -3.0880379163319196
            ]
        },
        {
            "positions": [
                -0.051816884432390534,
                -2.1419243124928284,
                -1.7476812993589566,
                -2.4151140857570947,
                -1.4266866620864127,
                -3.087927724979429
            ]
        },
        {
            "positions": [
                -0.06849672482399873,
                -2.1570587726414905,
                -1.667810236040392,
                -2.4824457683573886,
                -1.2474733254193122,
                -3.087817533626939
            ]
        },
        {
            "positions": [
                -0.0851765652156069,
                -2.172193232790152,
                -1.5879391727218273,
                -2.549777450957682,
                -1.068259988752212,
                -3.0877073422744483
            ]
        },
        {
            "positions": [
                -0.1018564056072151,
                -2.1873276929388137,
                -1.5080681094032626,
                -2.617109133557976,
                -0.8890466520851115,
                -3.087597150921958
            ]
        },
        {
            "positions": [
                -0.11853624599882329,
                -2.2024621530874757,
                -1.4281970460846978,
                -2.68444081615827,
                -0.709833315418011,
                -3.0874869595694676
            ]
        },
        {
            "positions": [
                -0.13521608639043148,
                -2.2175966132361373,
                -1.3483259827661331,
                -2.7517724987585632,
                -0.5306199787509107,
                -3.087376768216977
            ]
        },
        {
            "positions": [
                -0.15189592678203967,
                -2.2327310733847994,
                -1.2684549194475685,
                -2.819104181358857,
                -0.35140664208381023,
                -3.087266576864487
            ]
        },
        {
            "positions": [
                -0.16857576717364786,
                -2.247865533533461,
                -1.1885838561290039,
                -2.886435863959151,
                -0.1721933054167098,
                -3.0871563855119963
            ]
        }
    ]
}