{
    "goal": {
        "global_pose": {
            "orientation": {
                "w": -0.00223480608172531,
                "x": 0.0024358444001904467,
                "y": 0.7094548369677653,
                "z": -0.704743149386269
            },
            "position": {
                "x": -0.37947507619857795,
                "y": -0.6371506643295288,
                "z": 0.19426114857196808
            }
        },
        "name": "move_to_magneteinheit_C"
    },
    "id": "PRMstar_move_to_magneteinheit_C_52",
    "joint_names": [
        "shoulder_pan_joint",
        "shoulder_lift_joint",
        "elbow_joint",
        "wrist_1_joint",
        "wrist_2_joint",
        "wrist_3_joint"
    ],
    "metrics": {
        "cart_traj_len": 1.0340706083347075,
        "distance_elbow_joint": 0.7801457030103389,
        "distance_shoulder_lift_joint": 1.380328943780206,
        "distance_shoulder_pan_joint": 1.621193508684039,
        "distance_wrist_1_joint": 1.6578918334876511,
        "distance_wrist_2_joint": 0.7889006229945726,
        "distance_wrist_3_joint": 2.8412559132622954,
        "smoothness": 1.1188168356668609,
        "time": 5.038685317,
        "traj_len": 3.011597005779343,
        "weighted_distance": 4.147170216934183
    },
    "planner": "PRMstar",
    "start": {
        "state": {
            "elbow_joint": 1.9565354010623817,
            "shoulder_lift_joint": -1.4165861575791021,
            "shoulder_pan_joint": -1.6717766225146293,
            "wrist_1_joint": -0.5286633292919765,
            "wrist_2_joint": 1.472756589071564,
            "wrist_3_joint": -3.1238370188695823
        }
    },
    "waypoints": [
        {
            "positions": [
                -1.6717766225146293,
                -1.4165861575791021,
                1.9565354010623817,
                -0.5286633292919765,
                1.472756589071564,
                -3.1238370188695823
            ]
        },
        {
            "positions": [
                -1.7726532162082438,
                -1.4635597964785823,
                1.9913464568534647,
                -0.47271523879943467,
                1.4500286208589745,
                -3.006272490258239
            ]
        },
        {
            "positions": [
                -1.8735298099018582,
                -1.5105334353780624,
                2.0261575126445477,
                -0.4167671483068929,
                1.427300652646385,
                -2.888707961646896
            ]
        },
        {
            "positions": [
                -1.9744064035954727,
                -1.5575070742775425,
                2.060968568435631,
                -0.3608190578143511,
                1.4045726844337956,
                -2.7711434330355527
            ]
        },
        {
            "positions": [
                -2.0752829972890874,
                -1.6044807131770227,
                2.0957796242267137,
                -0.3048709673218093,
                1.3818447162212062,
                -2.6535789044242097
            ]
        },
        {
            "positions": [
                -2.1761595909827016,
                -1.6514543520765028,
                2.130590680017797,
                -0.24892287682926745,
                1.3591167480086166,
                -2.5360143758128664
            ]
        },
        {
            "positions": [
                -2.2770361846763163,
                -1.6984279909759827,
                2.1654017358088797,
                -0.19297478633672566,
                1.3363887797960272,
                -2.418449847201523
            ]
        },
        {
            "positions": [
                -2.3779127783699305,
                -1.745401629875463,
                2.200212791599963,
                -0.1370266958441838,
                1.3136608115834378,
                -2.30088531859018
            ]
        },
        {
            "positions": [
                -2.478789372063545,
                -1.792375268774943,
                2.235023847391046,
                -0.08107860535164207,
                1.2909328433708482,
                -2.183320789978837
            ]
        },
        {
            "positions": [
                -2.57966596575716,
                -1.8393489076744232,
                2.269834903182129,
                -0.025130514859100228,
                1.2682048751582589,
                -2.065756261367494
            ]
        },
        {
            "positions": [
                -2.680542559450774,
                -1.8863225465739033,
                2.3046459589732122,
                0.030817575633441563,
                1.2454769069456695,
                -1.9481917327561504
            ]
        },
        {
            "positions": [
                -2.7814191531443884,
                -1.9332961854733834,
                2.339457014764295,
                0.08676566612598335,
                1.2227489387330799,
                -1.8306272041448073
            ]
        },
        {
            "positions": [
                -2.882295746838003,
                -1.9802698243728636,
                2.3742680705553783,
                0.14271375661852514,
                1.2000209705204905,
                -1.7130626755334641
            ]
        },
        {
            "positions": [
                -2.8480728814746143,
                -1.9122160512906599,
                2.3440669844289332,
                0.060504194320429416,
                1.1570072201501989,
                -1.8322694730273121
            ]
        },
        {
            "positions": [
                -2.8138500161112256,
                -1.8441622782084561,
                2.313865898302488,
                -0.021705367977666312,
                1.1139934697799072,
                -1.9514762705211603
            ]
        },
        {
            "positions": [
                -2.779627150747837,
                -1.7761085051262524,
                2.283664812176043,
                -0.10391493027576204,
                1.0709797194096158,
                -2.0706830680150086
            ]
        },
        {
            "positions": [
                -2.745404285384448,
                -1.7080547320440487,
                2.2534637260495973,
                -0.18612449257385777,
                1.0279659690393241,
                -2.1898898655088566
            ]
        },
        {
            "positions": [
                -2.711181420021059,
                -1.640000958961845,
                2.2232626399231523,
                -0.2683340548719535,
                0.9849522186690325,
                -2.3090966630027046
            ]
        },
        {
            "positions": [
                -2.6769585546576704,
                -1.5719471858796412,
                2.1930615537967073,
                -0.3505436171700492,
                0.9419384682987408,
                -2.4283034604965525
            ]
        },
        {
            "positions": [
                -2.6427356892942817,
                -1.5038934127974377,
                2.162860467670262,
                -0.43275317946814496,
                0.8989247179284492,
                -2.547510257990401
            ]
        },
        {
            "positions": [
                -2.608512823930893,
                -1.435839639715234,
                2.132659381543817,
                -0.5149627417662407,
                0.8559109675581578,
                -2.666717055484249
            ]
        },
        {
            "positions": [
                -2.574289958567504,
                -1.3677858666330303,
                2.1024582954173714,
                -0.5971723040643364,
                0.8128972171878661,
                -2.785923852978097
            ]
        },
        {
            "positions": [
                -2.540067093204115,
                -1.2997320935508263,
                2.0722572092909264,
                -0.6793818663624321,
                0.7698834668175745,
                -2.9051306504719454
            ]
        },
        {
            "positions": [
                -2.5058442278407265,
                -1.2316783204686228,
                2.042056123164481,
                -0.7615914286605279,
                0.7268697164472829,
                -3.0243374479657934
            ]
        },
        {
            "positions": [
                -2.4716213624773378,
                -1.163624547386419,
                2.011855037038036,
                -0.8438009909586236,
                0.6838559660769913,
                -3.1435442454596414
            ]
        }
    ]
}