{
    "goal": {
        "global_pose": {
            "orientation": {
                "w": 0.7031023502349854,
                "x": -0.7110244035720825,
                "y": 0.007748599164187908,
                "z": 0.005598929710686207
            },
            "position": {
                "x": 0.11585023208521307,
                "y": 0.44412534475326537,
                "z": 0.3711530566215515
            }
        },
        "name": "move_to_auspresseinheit_A"
    },
    "id": "PRMstar_move_to_auspresseinheit_A_20",
    "joint_names": [
        "shoulder_pan_joint",
        "shoulder_lift_joint",
        "elbow_joint",
        "wrist_1_joint",
        "wrist_2_joint",
        "wrist_3_joint"
    ],
    "metrics": {
        "cart_traj_len": 0.6897494965609886,
        "distance_elbow_joint": 0.03224180442095115,
        "distance_shoulder_lift_joint": 0.5348581248512119,
        "distance_shoulder_pan_joint": 1.0433673733404634,
        "distance_wrist_1_joint": 0.5777946911444718,
        "distance_wrist_2_joint": 0.5225978302571621,
        "distance_wrist_3_joint": 0.08791020654353776,
        "smoothness": 0.09627598784406817,
        "time": 5.029437203,
        "traj_len": 1.6729524890318308,
        "weighted_distance": 2.018658704448701
    },
    "planner": "PRMstar",
    "start": {
        "state": {
            "elbow_joint": 2.4225746658250005,
            "shoulder_lift_joint": -1.3736534386056498,
            "shoulder_pan_joint": -0.3378633547517467,
            "wrist_1_joint": -1.0288598680537169,
            "wrist_2_joint": 1.233022673432363,
            "wrist_3_joint": -3.0940220416140027
        }
    },
    "waypoints": [
        {
            "positions": [
                -0.3378633547517467,
                -1.3736534386056498,
                2.4225746658250005,
                -1.0288598680537169,
                1.233022673432363,
                -3.0940220416140027
            ]
        },
        {
            "positions": [
                -0.20485152794358627,
                -1.4434007379996239,
                2.4118361646755195,
                -0.9507406607468735,
                1.164594724668274,
                -3.074383624503926
            ]
        },
        {
            "positions": [
                -0.07480073558182873,
                -1.509845141636372,
                2.4087642642081666,
                -0.8793584487700694,
                1.0997133130264063,
                -3.0841367372801347
            ]
        },
        {
            "positions": [
                0.05525005677992881,
                -1.5762895452731205,
                2.4056923637408136,
                -0.8079762367932654,
                1.0348319013845388,
                -3.0938898500563434
            ]
        },
        {
            "positions": [
                0.18530084914168635,
                -1.6427339489098687,
                2.4026204632734607,
                -0.7365940248164613,
                0.9699504897426713,
                -3.103642962832552
            ]
        },
        {
            "positions": [
                0.31535164150344386,
                -1.7091783525466169,
                2.399548562806108,
                -0.6652118128396572,
                0.9050690781008037,
                -3.113396075608761
            ]
        },
        {
            "positions": [
                0.4454024338652014,
                -1.775622756183365,
                2.3964766623387552,
                -0.5938296008628532,
                0.8401876664589361,
                -3.1231491883849696
            ]
        },
        {
            "positions": [
                0.5754532262269589,
                -1.8420671598201133,
                2.3934047618714023,
                -0.5224473888860491,
                0.7753062548170686,
                -3.1329023011611783
            ]
        },
        {
            "positions": [
                0.7055040185887165,
                -1.9085115634568617,
                2.3903328614040493,
                -0.4510651769092451,
                0.7104248431752009,
                -3.142655413937387
            ]
        }
    ]
}