{
    "goal": {
        "global_pose": {
            "orientation": {
                "w": -0.4816463035849501,
                "x": 0.5182115481033762,
                "y": 0.4908360881923453,
                "z": -0.5084816262002911
            },
            "position": {
                "x": -0.8240239810943604,
                "y": -0.300875300988555,
                "z": 0.16403168439865112
            }
        },
        "name": "move_to_storage_C"
    },
    "id": "PRMstar_move_to_storage_C_58",
    "joint_names": [
        "shoulder_pan_joint",
        "shoulder_lift_joint",
        "elbow_joint",
        "wrist_1_joint",
        "wrist_2_joint",
        "wrist_3_joint"
    ],
    "metrics": {
        "cart_traj_len": 0.5766600544154824,
        "distance_elbow_joint": 0.254020274456461,
        "distance_shoulder_lift_joint": 0.18794391918497722,
        "distance_shoulder_pan_joint": 0.4954654123531359,
        "distance_wrist_1_joint": 0.0658535948458322,
        "distance_wrist_2_joint": 1.0661974984598412,
        "distance_wrist_3_joint": 0.05694893715877836,
        "smoothness": 0.0,
        "time": 5.002645558999999,
        "traj_len": 1.4582282525239407,
        "weighted_distance": 1.8364037148955716
    },
    "planner": "PRMstar",
    "start": {
        "state": {
            "elbow_joint": 2.010868314990456,
            "shoulder_lift_joint": -1.1634956873337592,
            "shoulder_pan_joint": -2.4736205022346125,
            "wrist_1_joint": -0.8367026794202681,
            "wrist_2_joint": 0.6746043897044499,
            "wrist_3_joint": -3.1496632123970403
        }
    },
    "waypoints": [
        {
            "positions": [
                -2.4736205022346125,
                -1.1634956873337592,
                2.010868314990456,
                -0.8367026794202681,
                0.6746043897044499,
                -3.1496632123970403
            ]
        },
        {
            "positions": [
                -2.5561980709601353,
                -1.1321717008029297,
                1.9685316025810455,
                -0.8257270802792961,
                0.8523039727810902,
                -3.140171722870577
            ]
        },
        {
            "positions": [
                -2.6387756396856576,
                -1.1008477142721,
                1.9261948901716355,
                -0.8147514811383241,
                1.0300035558577303,
                -3.130680233344114
            ]
        },
        {
            "positions": [
                -2.7213532084111804,
                -1.0695237277412706,
                1.8838581777622254,
                -0.803775881997352,
                1.2077031389343706,
                -3.121188743817651
            ]
        },
        {
            "positions": [
                -2.8039307771367032,
                -1.0381997412104411,
                1.8415214653528151,
                -0.7928002828563799,
                1.3854027220110106,
                -3.111697254291188
            ]
        },
        {
            "positions": [
                -2.8865083458622256,
                -1.0068757546796114,
                1.7991847529434049,
                -0.7818246837154079,
                1.563102305087651,
                -3.102205764764725
            ]
        },
        {
            "positions": [
                -2.9690859145877484,
                -0.975551768148782,
                1.7568480405339948,
                -0.7708490845744359,
                1.740801888164291,
                -3.092714275238262
            ]
        }
    ]
}