{
    "goal": {
        "global_pose": {
            "orientation": {
                "w": 0.7047431493862688,
                "x": -0.7094548369677653,
                "y": 0.0024358444001904,
                "z": -0.0022348060817251984
            },
            "position": {
                "x": -0.39052492380142206,
                "y": 0.3671506643295288,
                "z": 0.19426114857196808
            }
        },
        "name": "move_to_magneteinheit_D"
    },
    "id": "PRMstar_move_to_magneteinheit_D_132",
    "joint_names": [
        "shoulder_pan_joint",
        "shoulder_lift_joint",
        "elbow_joint",
        "wrist_1_joint",
        "wrist_2_joint",
        "wrist_3_joint"
    ],
    "metrics": {
        "cart_traj_len": 4.493478163825192,
        "distance_elbow_joint": 3.1266142795991625,
        "distance_shoulder_lift_joint": 1.8410889138198043,
        "distance_shoulder_pan_joint": 2.9040971893299177,
        "distance_wrist_1_joint": 1.5818006496392458,
        "distance_wrist_2_joint": 2.0727817569944884,
        "distance_wrist_3_joint": 3.162303729297115,
        "smoothness": 0.21367057917790774,
        "time": 5.089951071000001,
        "traj_len": 3.8325822259515485,
        "weighted_distance": 4.966676593448348
    },
    "planner": "PRMstar",
    "start": {
        "state": {
            "elbow_joint": 0.749534889911806,
            "shoulder_lift_joint": -0.6476975780787326,
            "shoulder_pan_joint": -2.711696901376241,
            "wrist_1_joint": -0.07506478083263063,
            "wrist_2_joint": 0.43296659715538205,
            "wrist_3_joint": -3.14703540197715
        }
    },
    "waypoints": [
        {
            "positions": [
                -2.711696901376241,
                -0.6476975780787326,
                0.749534889911806,
                -0.07506478083263063,
                0.43296659715538205,
                -3.14703540197715
            ]
        },
        {
            "positions": [
                -2.720232857242993,
                -0.6241638642497543,
                0.7040444740595648,
                -0.07418975446803025,
                0.5273646448729556,
                -2.9893369426805214
            ]
        },
        {
            "positions": [
                -2.728768813109745,
                -0.600630150420776,
                0.6585540582073237,
                -0.07331472810342987,
                0.6217626925905293,
                -2.8316384833838932
            ]
        },
        {
            "positions": [
                -2.7373047689764967,
                -0.5770964365917978,
                0.6130636423550826,
                -0.07243970173882949,
                0.716160740308103,
                -2.6739400240872646
            ]
        },
        {
            "positions": [
                -2.7170126552289733,
                -0.5703281645797706,
                0.524688965129487,
                -0.0591743256497204,
                0.7875697370046202,
                -2.4810909669932166
            ]
        },
        {
            "positions": [
                -2.6967205414814504,
                -0.5635598925677435,
                0.43631428790389154,
                -0.04590894956061131,
                0.8589787337011373,
                -2.288241909899169
            ]
        },
        {
            "positions": [
                -2.676428427733927,
                -0.5567916205557165,
                0.34793961067829604,
                -0.03264357347150223,
                0.9303877303976545,
                -2.095392852805121
            ]
        },
        {
            "positions": [
                -2.656136313986404,
                -0.5500233485436894,
                0.2595649334527005,
                -0.019378197382393138,
                1.0017967270941717,
                -1.9025437957110733
            ]
        },
        {
            "positions": [
                -2.6358442002388807,
                -0.5432550765316623,
                0.171190256227105,
                -0.006112821293284051,
                1.073205723790689,
                -1.7096947386170256
            ]
        },
        {
            "positions": [
                -2.5056965485153424,
                -0.6154031604029694,
                0.06959557322104769,
                0.02093524158329323,
                1.0148293389293888,
                -1.7053448909829831
            ]
        },
        {
            "positions": [
                -2.3755488967918037,
                -0.6875512442742765,
                -0.03199910978500961,
                0.04798330445987051,
                0.9564529540680886,
                -1.7009950433489407
            ]
        },
        {
            "positions": [
                -2.2454012450682654,
                -0.7596993281455835,
                -0.13359379279106687,
                0.07503136733644777,
                0.8980765692067885,
                -1.6966451957148982
            ]
        },
        {
            "positions": [
                -2.115253593344727,
                -0.8318474120168906,
                -0.2351884757971242,
                0.10207943021302507,
                0.8397001843454882,
                -1.6922953480808558
            ]
        },
        {
            "positions": [
                -1.9851059416211885,
                -0.9039954958881977,
                -0.3367831588031815,
                0.12912749308960234,
                0.7813237994841881,
                -1.6879455004468134
            ]
        },
        {
            "positions": [
                -1.8549582898976502,
                -0.9761435797595048,
                -0.4383778418092387,
                0.1561755559661796,
                0.7229474146228879,
                -1.683595652812771
            ]
        },
        {
            "positions": [
                -1.724810638174112,
                -1.048291663630812,
                -0.539972524815296,
                0.18322361884275687,
                0.6645710297615878,
                -1.6792458051787285
            ]
        },
        {
            "positions": [
                -1.5946629864505732,
                -1.120439747502119,
                -0.6415672078213535,
                0.2102716817193342,
                0.6061946449002875,
                -1.674895957544686
            ]
        },
        {
            "positions": [
                -1.464515334727035,
                -1.1925878313734262,
                -0.7431618908274107,
                0.23731974459591146,
                0.5478182600389874,
                -1.6705461099106436
            ]
        },
        {
            "positions": [
                -1.3343676830034965,
                -1.2647359152447333,
                -0.8447565738334679,
                0.2643678074724887,
                0.4894418751776872,
                -1.6661962622766011
            ]
        },
        {
            "positions": [
                -1.204220031279958,
                -1.3368839991160404,
                -0.9463512568395254,
                0.291415870349066,
                0.43106549031638697,
                -1.6618464146425589
            ]
        },
        {
            "positions": [
                -1.0740723795564198,
                -1.4090320829873473,
                -1.0479459398455824,
                0.31846393322564326,
                0.37268910545508693,
                -1.6574965670085164
            ]
        },
        {
            "positions": [
                -0.9439247278328813,
                -1.4811801668586546,
                -1.1495406228516398,
                0.34551199610222055,
                0.3143127205937867,
                -1.653146719374474
            ]
        },
        {
            "positions": [
                -0.813777076109343,
                -1.5533282507299613,
                -1.251135305857697,
                0.3725600589787978,
                0.25593633573248664,
                -1.6487968717404315
            ]
        },
        {
            "positions": [
                -0.6836294243858045,
                -1.6254763346012684,
                -1.3527299888637545,
                0.3996081218553751,
                0.19755995087118638,
                -1.644447024106389
            ]
        },
        {
            "positions": [
                -0.5534817726622658,
                -1.697624418472576,
                -1.4543246718698117,
                0.42665618473195244,
                0.13918356600988613,
                -1.6400971764723467
            ]
        },
        {
            "positions": [
                -0.4233341209387276,
                -1.7697725023438826,
                -1.555919354875869,
                0.4537042476085297,
                0.0808071811485861,
                -1.6357473288383042
            ]
        },
        {
            "positions": [
                -0.2931864692151893,
                -1.8419205862151897,
                -1.6575140378819264,
                0.48075231048510697,
                0.022430796287285837,
                -1.6313974812042618
            ]
        },
        {
            "positions": [
                -0.16303881749165106,
                -1.9140686700864968,
                -1.7591087208879834,
                0.5078003733616842,
                -0.03594558857401431,
                -1.6270476335702193
            ]
        },
        {
            "positions": [
                -0.032891165768112185,
                -1.986216753957804,
                -1.8607034038940409,
                0.5348484362382615,
                -0.09432197343531448,
                -1.6226977859361769
            ]
        },
        {
            "positions": [
                -0.03126348105197413,
                -2.025870301641465,
                -1.9319365897104714,
                0.6294288595602607,
                -0.07055235723965327,
                -1.4714346748550085
            ]
        },
        {
            "positions": [
                -0.02963579633583608,
                -2.0655238493251256,
                -2.003169775526902,
                0.72400928288226,
                -0.04678274104399204,
                -1.3201715637738403
            ]
        },
        {
            "positions": [
                -0.028008111619698024,
                -2.1051773970087866,
                -2.0744029613433326,
                0.8185897062042593,
                -0.023013124848330818,
                -1.1689084526926719
            ]
        },
        {
            "positions": [
                -0.026380426903559972,
                -2.1448309446924476,
                -2.1456361471597627,
                0.9131701295262584,
                0.0007564913473303986,
                -1.0176453416115034
            ]
        },
        {
            "positions": [
                -0.02475274218742192,
                -2.1844844923761086,
                -2.2168693329761933,
                1.0077505528482578,
                0.02452610754299163,
                -0.8663822305303351
            ]
        },
        {
            "positions": [
                -0.023125057471283864,
                -2.2241380400597692,
                -2.288102518792624,
                1.1023309761702569,
                0.048295723738652846,
                -0.7151191194491668
            ]
        },
        {
            "positions": [
                -0.02149737275514581,
                -2.2637915877434303,
                -2.3593357046090544,
                1.1969113994922562,
                0.07206533993431408,
                -0.5638560083679984
            ]
        },
        {
            "positions": [
                -0.07572468125791643,
                -2.2691615547637523,
                -2.3652502663018216,
                1.3001862225970426,
                0.10494121318883036,
                -0.37081456313867756
            ]
        },
        {
            "positions": [
                -0.12995198976068703,
                -2.2745315217840743,
                -2.3711648279945887,
                1.4034610457018288,
                0.13781708644334664,
                -0.17777311790935663
            ]
        },
        {
            "positions": [
                -0.18417929826345766,
                -2.2799014888043962,
                -2.377079389687356,
                1.5067358688066153,
                0.17069295969786294,
                0.015268327319964334
            ]
        }
    ]
}