{
    "goal": {
        "global_pose": {
            "orientation": {
                "w": 0.5084816217422485,
                "x": -0.49083608388900757,
                "y": 0.5182115435600281,
                "z": -0.4816462993621826
            },
            "position": {
                "x": 0.5540239810943604,
                "y": 0.030875300988554955,
                "z": 0.16403168439865112
            }
        },
        "name": "move_to_storage_A"
    },
    "id": "PRMstar_move_to_storage_A_145",
    "joint_names": [
        "shoulder_pan_joint",
        "shoulder_lift_joint",
        "elbow_joint",
        "wrist_1_joint",
        "wrist_2_joint",
        "wrist_3_joint"
    ],
    "metrics": {
        "cart_traj_len": 0.3535108767935351,
        "distance_elbow_joint": 0.44974453104577683,
        "distance_shoulder_lift_joint": 0.23396189180229743,
        "distance_shoulder_pan_joint": 0.46415187336978164,
        "distance_wrist_1_joint": 0.24218771530234273,
        "distance_wrist_2_joint": 1.0912659257482284,
        "distance_wrist_3_joint": 0.08992484739194762,
        "smoothness": 0.0,
        "time": 5.0026962269999995,
        "traj_len": 1.6035076503279848,
        "weighted_distance": 2.021024522487256
    },
    "planner": "PRMstar",
    "start": {
        "state": {
            "elbow_joint": 1.971548259319323,
            "shoulder_lift_joint": -1.1394851275133948,
            "shoulder_pan_joint": 0.1228115487234821,
            "wrist_1_joint": -0.7804723859257726,
            "wrist_2_joint": 0.12958671773740124,
            "wrist_3_joint": -3.192489227718131
        }
    },
    "waypoints": [
        {
            "positions": [
                0.1228115487234821,
                -1.1394851275133948,
                1.971548259319323,
                -0.7804723859257726,
                0.12958671773740124,
                -3.192489227718131
            ]
        },
        {
            "positions": [
                0.05650413824208472,
                -1.172908254913723,
                2.0357974780401484,
                -0.8150706309689645,
                0.28548184998714815,
                -3.179642820947853
            ]
        },
        {
            "positions": [
                -0.009803272239312655,
                -1.2063313823140511,
                2.1000466967609737,
                -0.8496688760121562,
                0.44137698223689503,
                -3.1667964141775746
            ]
        },
        {
            "positions": [
                -0.07611068272071003,
                -1.2397545097143794,
                2.164295915481799,
                -0.8842671210553481,
                0.597272114486642,
                -3.1539500074072966
            ]
        },
        {
            "positions": [
                -0.1424180932021074,
                -1.2731776371147077,
                2.228545134202624,
                -0.9188653660985399,
                0.7531672467363889,
                -3.141103600637018
            ]
        },
        {
            "positions": [
                -0.2087255036835048,
                -1.306600764515036,
                2.2927943529234494,
                -0.9534636111417317,
                0.9090623789861358,
                -3.12825719386674
            ]
        },
        {
            "positions": [
                -0.27503291416490216,
                -1.340023891915364,
                2.3570435716442746,
                -0.9880618561849235,
                1.0649575112358827,
                -3.1154107870964616
            ]
        },
        {
            "positions": [
                -0.34134032464629954,
                -1.3734470193156922,
                2.4212927903651,
                -1.0226601012281153,
                1.2208526434856297,
                -3.1025643803261835
            ]
        }
    ]
}{
    "goal": {
        "global_pose": {
            "orientation": {
                "w": 0.5084816217422485,
                "x": -0.49083608388900757,
                "y": 0.5182115435600281,
                "z": -0.4816462993621826
            },
            "position": {
                "x": 0.5540239810943604,
                "y": 0.030875300988554955,
                "z": 0.16403168439865112
            }
        },
        "name": "move_to_storage_A"
    },
    "id": "PRMstar_move_to_storage_A_145",
    "joint_names": [
        "shoulder_pan_joint",
        "shoulder_lift_joint",
        "elbow_joint",
        "wrist_1_joint",
        "wrist_2_joint",
        "wrist_3_joint"
    ],
    "metrics": {
        "cart_traj_len": 0.352658433804623,
        "distance_elbow_joint": 0.4477705758974637,
        "distance_shoulder_lift_joint": 0.23398512248900682,
        "distance_shoulder_pan_joint": 0.4576543450157013,
        "distance_wrist_1_joint": 0.23482636539954438,
        "distance_wrist_2_joint": 1.1126390123761618,
        "distance_wrist_3_joint": 0.08726487646097514,
        "smoothness": 0.0,
        "time": 5.0079255719999995,
        "traj_len": 1.6044127578771161,
        "weighted_distance": 2.0238911602001997
    },
    "planner": "PRMstar",
    "start": {
        "state": {
            "elbow_joint": 1.97154746011099,
            "shoulder_lift_joint": -1.13948474672311,
            "shoulder_pan_joint": 0.12281154466712228,
            "wrist_1_joint": -0.7804688027058302,
            "wrist_2_joint": 0.12958655903071145,
            "wrist_3_joint": 3.0906928834467795
        }
    },
    "waypoints": [
        {
            "positions": [
                0.12281154466712228,
                -1.13948474672311,
                1.97154746011099,
                -0.7804688027058302,
                0.12958655903071145,
                3.0906928834467795
            ]
        },
        {
            "positions": [
                0.0574323525220221,
                -1.172911192792968,
                2.035514685239199,
                -0.8140154263343365,
                0.28853498937016314,
                3.103159294369776
            ]
        },
        {
            "positions": [
                -0.007946839623078086,
                -1.2063376388628262,
                2.099481910367408,
                -0.8475620499628429,
                0.4474834197096148,
                3.1156257052927723
            ]
        },
        {
            "positions": [
                -0.07332603176817827,
                -1.2397640849326843,
                2.1634491354956173,
                -0.8811086735913491,
                0.6064318500490665,
                3.1280921162157687
            ]
        },
        {
            "positions": [
                -0.13870522391327844,
                -1.2731905310025424,
                2.227416360623826,
                -0.9146552972198555,
                0.7653802803885182,
                3.1405585271387655
            ]
        },
        {
            "positions": [
                -0.20408441605837863,
                -1.3066169770724005,
                2.2913835857520355,
                -0.9482019208483619,
                0.92432871072797,
                3.153024938061762
            ]
        },
        {
            "positions": [
                -0.2694636082034788,
                -1.3400434231422587,
                2.3553508108802443,
                -0.9817485444768682,
                1.0832771410674216,
                3.1654913489847583
            ]
        },
        {
            "positions": [
                -0.334842800348579,
                -1.3734698692121168,
                2.4193180360084536,
                -1.0152951681053746,
                1.2422255714068733,
                3.1779577599077546
            ]
        }
    ]
}{
    "goal": {
        "global_pose": {
            "orientation": {
                "w": 0.5084816217422485,
                "x": -0.49083608388900757,
                "y": 0.5182115435600281,
                "z": -0.4816462993621826
            },
            "position": {
                "x": 0.5540239810943604,
                "y": 0.030875300988554955,
                "z": 0.16403168439865112
            }
        },
        "name": "move_to_storage_A"
    },
    "id": "PRMstar_move_to_storage_A_145",
    "joint_names": [
        "shoulder_pan_joint",
        "shoulder_lift_joint",
        "elbow_joint",
        "wrist_1_joint",
        "wrist_2_joint",
        "wrist_3_joint"
    ],
    "metrics": {
        "cart_traj_len": 0.3531559789324526,
        "distance_elbow_joint": 0.4485906811353484,
        "distance_shoulder_lift_joint": 0.2355764666331701,
        "distance_shoulder_pan_joint": 0.461310779355272,
        "distance_wrist_1_joint": 0.2369931774816727,
        "distance_wrist_2_joint": 1.101350950696687,
        "distance_wrist_3_joint": 0.0907083217016833,
        "smoothness": 6.661338165333112e-16,
        "time": 5.020743056000001,
        "traj_len": 1.6045343178018454,
        "weighted_distance": 2.0234354816958113
    },
    "planner": "PRMstar",
    "start": {
        "state": {
            "elbow_joint": 1.9715472970024885,
            "shoulder_lift_joint": -1.1394870060712896,
            "shoulder_pan_joint": 0.12281152778156021,
            "wrist_1_joint": -0.780463741449964,
            "wrist_2_joint": 0.12958659822042276,
            "wrist_3_joint": 3.090690232415272
        }
    },
    "waypoints": [
        {
            "positions": [
                0.12281152778156021,
                -1.1394870060712896,
                1.9715472970024885,
                -0.780463741449964,
                0.12958659822042276,
                3.090690232415272
            ]
        },
        {
            "positions": [
                0.05690998787366422,
                -1.1731407870188852,
                2.035631680021824,
                -0.8143199096616315,
                0.28692244831994945,
                3.103648564086941
            ]
        },
        {
            "positions": [
                -0.00899155203423177,
                -1.206794567966481,
                2.0997160630411593,
                -0.8481760778732991,
                0.44425829841947617,
                3.11660689575861
            ]
        },
        {
            "positions": [
                -0.07489309194212776,
                -1.2404483489140767,
                2.163800446060495,
                -0.8820322460849666,
                0.6015941485190028,
                3.129565227430279
            ]
        },
        {
            "positions": [
                -0.14079463185002375,
                -1.2741021298616726,
                2.2278848290798305,
                -0.9158884142966341,
                0.7589299986185295,
                3.142523559101948
            ]
        },
        {
            "positions": [
                -0.2066961717579198,
                -1.3077559108092682,
                2.291969212099166,
                -0.9497445825083016,
                0.9162658487180563,
                3.155481890773617
            ]
        },
        {
            "positions": [
                -0.2725977116658157,
                -1.3414096917568639,
                2.3560535951185013,
                -0.9836007507199691,
                1.073601698817583,
                3.168440222445286
            ]
        },
        {
            "positions": [
                -0.33849925157371175,
                -1.3750634727044597,
                2.420137978137837,
                -1.0174569189316367,
                1.2309375489171097,
                3.181398554116955
            ]
        }
    ]
}