{
    "goal": {
        "global_pose": {
            "orientation": {
                "w": -0.4816463035849501,
                "x": 0.5182115481033762,
                "y": 0.4908360881923453,
                "z": -0.5084816262002911
            },
            "position": {
                "x": -0.8240239810943604,
                "y": 0.19912469901144506,
                "z": 0.16403168439865112
            }
        },
        "name": "move_to_storage_D"
    },
    "id": "PRMstar_move_to_storage_D_114",
    "joint_names": [
        "shoulder_pan_joint",
        "shoulder_lift_joint",
        "elbow_joint",
        "wrist_1_joint",
        "wrist_2_joint",
        "wrist_3_joint"
    ],
    "metrics": {
        "cart_traj_len": 3.764635752452468,
        "distance_elbow_joint": 4.229771097778231,
        "distance_shoulder_lift_joint": 1.2645234808840338,
        "distance_shoulder_pan_joint": 2.81406797663884,
        "distance_wrist_1_joint": 2.4274426460283274,
        "distance_wrist_2_joint": 1.3246549041113436,
        "distance_wrist_3_joint": 3.1973539491026517,
        "smoothness": 0.2769212520100069,
        "time": 5.097210647,
        "traj_len": 3.9061251969878565,
        "weighted_distance": 5.04029954495647
    },
    "planner": "PRMstar",
    "start": {
        "state": {
            "elbow_joint": -2.384821988534728,
            "shoulder_lift_joint": -2.2788054721415256,
            "shoulder_pan_joint": -0.1854694642142757,
            "wrist_1_joint": 1.4845938289331202,
            "wrist_2_joint": 0.17898776772866878,
            "wrist_3_joint": 0.037105688729662994
        }
    },
    "waypoints": [
        {
            "positions": [
                -0.1854694642142757,
                -2.2788054721415256,
                -2.384821988534728,
                1.4845938289331202,
                0.17898776772866878,
                0.037105688729662994
            ]
        },
        {
            "positions": [
                -0.13360572574309626,
                -2.1417937958757136,
                -2.395737240522332,
                1.5675594145026581,
                0.16384767880810536,
                0.014894187799486036
            ]
        },
        {
            "positions": [
                -0.046812246820324824,
                -2.1056471840179434,
                -2.294237586467552,
                1.5143471486149622,
                0.20331645594461345,
                0.0843623435104644
            ]
        },
        {
            "positions": [
                0.03998123210244661,
                -2.0695005721601727,
                -2.1927379324127725,
                1.4611348827272663,
                0.24278523308112154,
                0.15383049922144276
            ]
        },
        {
            "positions": [
                0.12677471102521803,
                -2.0333539603024025,
                -2.091238278357993,
                1.4079226168395704,
                0.28225401021762964,
                0.22329865493242113
            ]
        },
        {
            "positions": [
                0.21356818994798948,
                -1.997207348444632,
                -1.9897386243032131,
                1.3547103509518745,
                0.32172278735413773,
                0.2927668106433995
            ]
        },
        {
            "positions": [
                0.30036166887076093,
                -1.9610607365868615,
                -1.8882389702484335,
                1.3014980850641786,
                0.3611915644906458,
                0.3622349663543779
            ]
        },
        {
            "positions": [
                0.38715514779353233,
                -1.9249141247290913,
                -1.7867393161936538,
                1.2482858191764827,
                0.4006603416271539,
                0.4317031220653562
            ]
        },
        {
            "positions": [
                0.4739486267163038,
                -1.8887675128713208,
                -1.685239662138874,
                1.1950735532887868,
                0.440129118763662,
                0.5011712777763346
            ]
        },
        {
            "positions": [
                0.5607421056390752,
                -1.8526209010135504,
                -1.5837400080840944,
                1.141861287401091,
                0.4795978959001701,
                0.5706394334873129
            ]
        },
        {
            "positions": [
                0.6475355845618467,
                -1.8164742891557801,
                -1.4822403540293148,
                1.088649021513395,
                0.5190666730366782,
                0.6401075891982915
            ]
        },
        {
            "positions": [
                0.7343290634846181,
                -1.7803276772980097,
                -1.380740699974535,
                1.0354367556256991,
                0.5585354501731863,
                0.7095757449092698
            ]
        },
        {
            "positions": [
                0.8211225424073895,
                -1.7441810654402392,
                -1.2792410459197554,
                0.9822244897380034,
                0.5980042273096944,
                0.7790439006202481
            ]
        },
        {
            "positions": [
                0.9079160213301609,
                -1.708034453582469,
                -1.1777413918649757,
                0.9290122238503075,
                0.6374730044462025,
                0.8485120563312264
            ]
        },
        {
            "positions": [
                0.9947095002529325,
                -1.6718878417246985,
                -1.076241737810196,
                0.8757999579626116,
                0.6769417815827106,
                0.9179802120422049
            ]
        },
        {
            "positions": [
                1.0815029791757038,
                -1.635741229866928,
                -0.9747420837554164,
                0.8225876920749157,
                0.7164105587192187,
                0.9874483677531832
            ]
        },
        {
            "positions": [
                1.1682964580984752,
                -1.5995946180091578,
                -0.8732424297006367,
                0.7693754261872198,
                0.7558793358557268,
                1.0569165234641615
            ]
        },
        {
            "positions": [
                1.2550899370212467,
                -1.5634480061513871,
                -0.771742775645857,
                0.716163160299524,
                0.7953481129922348,
                1.12638467917514
            ]
        },
        {
            "positions": [
                1.341883415944018,
                -1.5273013942936169,
                -0.6702431215910776,
                0.6629508944118281,
                0.8348168901287429,
                1.1958528348861184
            ]
        },
        {
            "positions": [
                1.4286768948667896,
                -1.4911547824358464,
                -0.5687434675362975,
                0.6097386285241321,
                0.874285667265251,
                1.2653209905970968
            ]
        },
        {
            "positions": [
                1.515470373789561,
                -1.455008170578076,
                -0.467243813481518,
                0.5565263626364361,
                0.9137544444017591,
                1.3347891463080752
            ]
        },
        {
            "positions": [
                1.6022638527123325,
                -1.4188615587203057,
                -0.3657441594267383,
                0.5033140967487404,
                0.9532232215382672,
                1.4042573020190536
            ]
        },
        {
            "positions": [
                1.6890573316351039,
                -1.3827149468625353,
                -0.26424450537195865,
                0.4501018308610445,
                0.9926919986747753,
                1.473725457730032
            ]
        },
        {
            "positions": [
                1.7758508105578752,
                -1.3465683350047648,
                -0.16274485131717897,
                0.3968895649733486,
                1.0321607758112834,
                1.54319361344101
            ]
        },
        {
            "positions": [
                1.8626442894806468,
                -1.3104217231469946,
                -0.0612451972623993,
                0.3436772990856527,
                1.0716295529477915,
                1.6126617691519884
            ]
        },
        {
            "positions": [
                1.949437768403418,
                -1.274275111289224,
                0.04025445679238038,
                0.2904650331979568,
                1.1110983300842996,
                1.6821299248629669
            ]
        },
        {
            "positions": [
                2.0362312473261897,
                -1.2381284994314536,
                0.14175411084716005,
                0.2372527673102609,
                1.1505671072208077,
                1.7515980805739453
            ]
        },
        {
            "positions": [
                2.1230247262489614,
                -1.2019818875736834,
                0.24325376490193973,
                0.184040501422565,
                1.1900358843573158,
                1.8210662362849237
            ]
        },
        {
            "positions": [
                2.2098182051717323,
                -1.1658352757159127,
                0.3447534189567194,
                0.1308282355348691,
                1.2295046614938239,
                1.8905343919959021
            ]
        },
        {
            "positions": [
                2.296611684094504,
                -1.1296886638581425,
                0.4462530730114992,
                0.07761596964717313,
                1.268973438630332,
                1.9600025477068803
            ]
        },
        {
            "positions": [
                2.3267923048517822,
                -1.1191971481671743,
                0.5714226668530262,
                -6.89044985817816e-05,
                1.250392615415009,
                2.071823828458251
            ]
        },
        {
            "positions": [
                2.356972925609061,
                -1.108705632476206,
                0.6965922606945532,
                -0.07775377864433669,
                1.2318117921996858,
                2.183645109209622
            ]
        },
        {
            "positions": [
                2.387153546366339,
                -1.0982141167852377,
                0.8217618545360801,
                -0.15543865279009159,
                1.2132309689843628,
                2.295466389960993
            ]
        },
        {
            "positions": [
                2.417334167123617,
                -1.0877226010942695,
                0.9469314483776071,
                -0.2331235269358465,
                1.1946501457690397,
                2.407287670712364
            ]
        },
        {
            "positions": [
                2.447514787880895,
                -1.0772310854033014,
                1.0721010422191342,
                -0.31080840108160135,
                1.1760693225537167,
                2.519108951463735
            ]
        },
        {
            "positions": [
                2.4776954086381737,
                -1.066739569712333,
                1.197270636060661,
                -0.3884932752273563,
                1.1574884993383936,
                2.630930232215106
            ]
        },
        {
            "positions": [
                2.507876029395452,
                -1.0562480540213648,
                1.3224402299021882,
                -0.4661781493731112,
                1.1389076761230705,
                2.7427515129664766
            ]
        },
        {
            "positions": [
                2.53805665015273,
                -1.0457565383303966,
                1.447609823743715,
                -0.5438630235188662,
                1.1203268529077475,
                2.854572793717848
            ]
        },
        {
            "positions": [
                2.568237270910008,
                -1.0352650226394284,
                1.572779417585242,
                -0.6215478976646212,
                1.1017460296924244,
                2.9663940744692185
            ]
        },
        {
            "positions": [
                2.5984178916672866,
                -1.02477350694846,
                1.6979490114267692,
                -0.6992327718103759,
                1.0831652064771013,
                3.0782153552205895
            ]
        },
        {
            "positions": [
                2.6285985124245648,
                -1.0142819912574919,
                1.8231186052682962,
                -0.7769176459561309,
                1.0645843832617783,
                3.1900366359719605
            ]
        }
    ]
}