{
    "goal": {
        "global_pose": {
            "orientation": {
                "w": -0.4816463035849501,
                "x": 0.5182115481033762,
                "y": 0.4908360881923453,
                "z": -0.5084816262002911
            },
            "position": {
                "x": -0.8240239810943604,
                "y": 0.19912469901144506,
                "z": 0.16403168439865112
            }
        },
        "name": "move_to_storage_D"
    },
    "id": "PRMstar_move_to_storage_D_45",
    "joint_names": [
        "shoulder_pan_joint",
        "shoulder_lift_joint",
        "elbow_joint",
        "wrist_1_joint",
        "wrist_2_joint",
        "wrist_3_joint"
    ],
    "metrics": {
        "cart_traj_len": 3.859966176995379,
        "distance_elbow_joint": 4.210605314039626,
        "distance_shoulder_lift_joint": 1.2658974164503247,
        "distance_shoulder_pan_joint": 2.812405517828072,
        "distance_wrist_1_joint": 2.302812209899689,
        "distance_wrist_2_joint": 0.8724702871907531,
        "distance_wrist_3_joint": 3.1316470823657383,
        "smoothness": 0.08029566899969486,
        "time": 5.120718171,
        "traj_len": 3.8204499509578973,
        "weighted_distance": 4.902490641459311
    },
    "planner": "PRMstar",
    "start": {
        "state": {
            "elbow_joint": -2.384821988534728,
            "shoulder_lift_joint": -2.2788054721415256,
            "shoulder_pan_joint": -0.1854694642142757,
            "wrist_1_joint": 1.4845938289331202,
            "wrist_2_joint": 0.17898776772866878,
            "wrist_3_joint": 0.037105688729662994
        }
    },
    "waypoints": [
        {
            "positions": [
                -0.1854694642142757,
                -2.2788054721415256,
                -2.384821988534728,
                1.4845938289331202,
                0.17898776772866878,
                0.037105688729662994
            ]
        },
        {
            "positions": [
                -0.16290192726428582,
                -2.2791503146797796,
                -2.349684507526142,
                1.4974943421158424,
                0.1962189123082267,
                0.037503502443150455
            ]
        },
        {
            "positions": [
                -0.08107724380982517,
                -2.242579156452529,
                -2.236989088059024,
                1.4368461908899108,
                0.22082776048969485,
                -0.04062725764768513
            ]
        },
        {
            "positions": [
                0.0007474396446354725,
                -2.206007998225278,
                -2.1242936685919056,
                1.3761980396639792,
                0.24543660867116301,
                -0.11875801773852071
            ]
        },
        {
            "positions": [
                0.08257212309909612,
                -2.1694368399980277,
                -2.0115982491247877,
                1.3155498884380479,
                0.27004545685263115,
                -0.1968887778293563
            ]
        },
        {
            "positions": [
                0.16439680655355676,
                -2.132865681770777,
                -1.8989028296576693,
                1.2549017372121163,
                0.29465430503409934,
                -0.27501953792019185
            ]
        },
        {
            "positions": [
                0.2462214900080174,
                -2.096294523543526,
                -1.7862074101905514,
                1.1942535859861847,
                0.31926315321556753,
                -0.3531502980110275
            ]
        },
        {
            "positions": [
                0.32804617346247805,
                -2.0597233653162754,
                -1.673511990723433,
                1.1336054347602533,
                0.34387200139703566,
                -0.431281058101863
            ]
        },
        {
            "positions": [
                0.40987085691693864,
                -2.0231522070890247,
                -1.5608165712563151,
                1.0729572835343217,
                0.3684808495785038,
                -0.5094118181926987
            ]
        },
        {
            "positions": [
                0.49169554037139934,
                -1.9865810488617741,
                -1.448121151789197,
                1.0123091323083901,
                0.393089697759972,
                -0.5875425782835342
            ]
        },
        {
            "positions": [
                0.5735202238258601,
                -1.9500098906345236,
                -1.3354257323220788,
                0.9516609810824586,
                0.4176985459414402,
                -0.6656733383743698
            ]
        },
        {
            "positions": [
                0.6553449072803206,
                -1.9134387324072728,
                -1.2227303128549607,
                0.8910128298565271,
                0.4423073941229083,
                -0.7438040984652053
            ]
        },
        {
            "positions": [
                0.7371695907347813,
                -1.876867574180022,
                -1.1100348933878426,
                0.8303646786305955,
                0.4669162423043765,
                -0.821934858556041
            ]
        },
        {
            "positions": [
                0.818994274189242,
                -1.8402964159527715,
                -0.9973394739207244,
                0.769716527404664,
                0.49152509048584464,
                -0.9000656186468765
            ]
        },
        {
            "positions": [
                0.9008189576437027,
                -1.8037252577255207,
                -0.8846440544536063,
                0.7090683761787324,
                0.5161339386673128,
                -0.9781963787377121
            ]
        },
        {
            "positions": [
                0.9826436410981632,
                -1.7671540994982702,
                -0.7719486349864884,
                0.6484202249528009,
                0.540742786848781,
                -1.0563271388285478
            ]
        },
        {
            "positions": [
                1.0644683245526239,
                -1.7305829412710194,
                -0.65925321551937,
                0.5877720737268693,
                0.5653516350302492,
                -1.1344578989193834
            ]
        },
        {
            "positions": [
                1.1462930080070846,
                -1.6940117830437686,
                -0.5465577960522521,
                0.5271239225009378,
                0.5899604832117173,
                -1.2125886590102188
            ]
        },
        {
            "positions": [
                1.228117691461545,
                -1.657440624816518,
                -0.43386237658513394,
                0.4664757712750063,
                0.6145693313931855,
                -1.2907194191010545
            ]
        },
        {
            "positions": [
                1.309942374916006,
                -1.6208694665892673,
                -0.3211669571180158,
                0.4058276200490747,
                0.6391781795746536,
                -1.3688501791918901
            ]
        },
        {
            "positions": [
                1.3917670583704664,
                -1.5842983083620168,
                -0.20847153765089743,
                0.3451794688231431,
                0.6637870277561218,
                -1.4469809392827258
            ]
        },
        {
            "positions": [
                1.4735917418249271,
                -1.547727150134766,
                -0.09577611818377951,
                0.28453131759721173,
                0.6883958759375899,
                -1.5251116993735612
            ]
        },
        {
            "positions": [
                1.5554164252793876,
                -1.5111559919075153,
                0.016919301283338406,
                0.22388316637128014,
                0.713004724119058,
                -1.6032424594643968
            ]
        },
        {
            "positions": [
                1.6372411087338485,
                -1.4745848336802645,
                0.12961472075045677,
                0.16323501514534855,
                0.7376135723005264,
                -1.6813732195552324
            ]
        },
        {
            "positions": [
                1.719065792188309,
                -1.438013675453014,
                0.2423101402175747,
                0.10258686391941696,
                0.7622224204819945,
                -1.759503979646068
            ]
        },
        {
            "positions": [
                1.8008904756427697,
                -1.4014425172257634,
                0.35500555968469305,
                0.04193871269348559,
                0.7868312686634626,
                -1.8376347397369035
            ]
        },
        {
            "positions": [
                1.88271515909723,
                -1.3648713589985126,
                0.46770097915181097,
                -0.018709438532446,
                0.8114401168449308,
                -1.9157654998277391
            ]
        },
        {
            "positions": [
                1.9645398425516911,
                -1.3283002007712619,
                0.5803963986189293,
                -0.07935758975837759,
                0.8360489650263989,
                -1.9938962599185748
            ]
        },
        {
            "positions": [
                2.0463645260061516,
                -1.291729042544011,
                0.6930918180860473,
                -0.14000574098430918,
                0.860657813207867,
                -2.0720270200094104
            ]
        },
        {
            "positions": [
                2.128189209460612,
                -1.2551578843167606,
                0.8057872375531652,
                -0.20065389221024055,
                0.8852666613893352,
                -2.1501577801002463
            ]
        },
        {
            "positions": [
                2.2100138929150726,
                -1.21858672608951,
                0.9184826570202835,
                -0.26130204343617214,
                0.9098755095708033,
                -2.2282885401910817
            ]
        },
        {
            "positions": [
                2.2918385763695333,
                -1.182015567862259,
                1.031178076487402,
                -0.32195019466210373,
                0.9344843577522717,
                -2.3064193002819176
            ]
        },
        {
            "positions": [
                2.373663259823994,
                -1.1454444096350085,
                1.1438734959545198,
                -0.38259834588803526,
                0.9590932059337397,
                -2.384550060372753
            ]
        },
        {
            "positions": [
                2.4158753921222944,
                -1.1234699648237918,
                1.2575251342129161,
                -0.4509015140068835,
                0.9744873474313533,
                -2.502749344678811
            ]
        },
        {
            "positions": [
                2.458087524420595,
                -1.1014955200125753,
                1.3711767724713124,
                -0.5192046821257317,
                0.9898814889289671,
                -2.620948628984869
            ]
        },
        {
            "positions": [
                2.5002996567188953,
                -1.0795210752013586,
                1.4848284107297087,
                -0.5875078502445799,
                1.0052756304265809,
                -2.739147913290927
            ]
        },
        {
            "positions": [
                2.5425117890171953,
                -1.057546630390142,
                1.598480048988105,
                -0.655811018363428,
                1.0206697719241946,
                -2.857347197596985
            ]
        },
        {
            "positions": [
                2.5847239213154958,
                -1.0355721855789255,
                1.7121316872465016,
                -0.7241141864822763,
                1.0360639134218081,
                -2.975546481903043
            ]
        },
        {
            "positions": [
                2.6269360536137962,
                -1.0135977407677088,
                1.8257833255048979,
                -0.7924173546011245,
                1.051458054919422,
                -3.093745766209101
            ]
        }
    ]
}