{
    "goal": {
        "global_pose": {
            "orientation": {
                "w": 0.005598929693374612,
                "x": 0.007748599140229565,
                "y": 0.7110244013736278,
                "z": -0.7031023480610252
            },
            "position": {
                "x": -0.8858502320852131,
                "y": -0.7141253447532654,
                "z": 0.3711530566215515
            }
        },
        "name": "move_to_auspresseinheit_C"
    },
    "id": "PRMstar_move_to_auspresseinheit_C_138",
    "joint_names": [
        "shoulder_pan_joint",
        "shoulder_lift_joint",
        "elbow_joint",
        "wrist_1_joint",
        "wrist_2_joint",
        "wrist_3_joint"
    ],
    "metrics": {
        "cart_traj_len": 0.49222454246414443,
        "distance_elbow_joint": 0.9915615931114717,
        "distance_shoulder_lift_joint": 0.3216144256136878,
        "distance_shoulder_pan_joint": 0.2559815886988166,
        "distance_wrist_1_joint": 0.658081946788686,
        "distance_wrist_2_joint": 1.3108286116850598,
        "distance_wrist_3_joint": 0.03966196062017291,
        "smoothness": 4.844609574787718e-16,
        "time": 5.00687558,
        "traj_len": 1.8914888650261452,
        "weighted_distance": 2.3719115932580594
    },
    "planner": "PRMstar",
    "start": {
        "state": {
            "elbow_joint": 1.7527959577737207,
            "shoulder_lift_joint": -0.9740617694225068,
            "shoulder_pan_joint": -2.967991417825858,
            "wrist_1_joint": -0.759517768980727,
            "wrist_2_joint": 1.7443932448377408,
            "wrist_3_joint": -3.0840537646736568
        }
    },
    "waypoints": [
        {
            "positions": [
                -2.967991417825858,
                -0.9740617694225068,
                1.7527959577737207,
                -0.759517768980727,
                1.7443932448377408,
                -3.0840537646736568
            ]
        },
        {
            "positions": [
                -2.9423932589559763,
                -0.941900326861138,
                1.6536397984625735,
                -0.6937095743018584,
                1.6133103836692348,
                -3.088019960735674
            ]
        },
        {
            "positions": [
                -2.9167951000860945,
                -0.9097388842997692,
                1.5544836391514263,
                -0.6279013796229898,
                1.4822275225007289,
                -3.091986156797691
            ]
        },
        {
            "positions": [
                -2.891196941216213,
                -0.8775774417384005,
                1.455327479840279,
                -0.5620931849441212,
                1.3511446613322229,
                -3.0959523528597086
            ]
        },
        {
            "positions": [
                -2.865598782346331,
                -0.8454159991770316,
                1.356171320529132,
                -0.4962849902652526,
                1.220061800163717,
                -3.099918548921726
            ]
        },
        {
            "positions": [
                -2.84000062347645,
                -0.8132545566156628,
                1.2570151612179847,
                -0.43047679558638396,
                1.088978938995211,
                -3.103884744983743
            ]
        },
        {
            "positions": [
                -2.814402464606568,
                -0.781093114054294,
                1.1578590019068375,
                -0.36466860090751535,
                0.9578960778267049,
                -3.1078509410457604
            ]
        },
        {
            "positions": [
                -2.7888043057366865,
                -0.7489316714929253,
                1.0587028425956904,
                -0.2988604062286468,
                0.8268132166581991,
                -3.111817137107778
            ]
        },
        {
            "positions": [
                -2.7632061468668048,
                -0.7167702289315565,
                0.9595466832845432,
                -0.23305221154977818,
                0.695730355489693,
                -3.1157833331697953
            ]
        },
        {
            "positions": [
                -2.737607987996923,
                -0.6846087863701877,
                0.8603905239733961,
                -0.1672440168709095,
                0.564647494321187,
                -3.1197495292318123
            ]
        },
        {
            "positions": [
                -2.7120098291270414,
                -0.652447343808819,
                0.7612343646622489,
                -0.10143582219204092,
                0.4335646331526809,
                -3.1237157252938297
            ]
        }
    ]
}