{
    "goal": {
        "global_pose": {
            "orientation": {
                "w": 0.005598929693374612,
                "x": 0.007748599140229565,
                "y": 0.7110244013736278,
                "z": -0.7031023480610252
            },
            "position": {
                "x": 0.1141497679147869,
                "y": -0.7141253447532654,
                "z": 0.3711530566215515
            }
        },
        "name": "move_to_auspresseinheit_B"
    },
    "id": "PRMstar_move_to_auspresseinheit_B_6",
    "joint_names": [
        "shoulder_pan_joint",
        "shoulder_lift_joint",
        "elbow_joint",
        "wrist_1_joint",
        "wrist_2_joint",
        "wrist_3_joint"
    ],
    "metrics": {
        "cart_traj_len": 0.5648360336102705,
        "distance_elbow_joint": 0.05818137420894809,
        "distance_shoulder_lift_joint": 0.2968817940446151,
        "distance_shoulder_pan_joint": 0.5783942710957608,
        "distance_wrist_1_joint": 0.315550654662337,
        "distance_wrist_2_joint": 0.9913135297888744,
        "distance_wrist_3_joint": 0.009784868530510415,
        "smoothness": 0.0,
        "time": 5.009576689,
        "traj_len": 1.5000354970236691,
        "weighted_distance": 1.8911743478175878
    },
    "planner": "PRMstar",
    "start": {
        "state": {
            "elbow_joint": 2.0193083361928714,
            "shoulder_lift_joint": -1.1220246554650708,
            "shoulder_pan_joint": -1.0952077554168747,
            "wrist_1_joint": -0.8559753972642168,
            "wrist_2_joint": 0.4759566250798843,
            "wrist_3_joint": -3.1240929996934557
        }
    },
    "waypoints": [
        {
            "positions": [
                -1.0952077554168747,
                -1.1220246554650708,
                2.0193083361928714,
                -0.8559753972642168,
                0.4759566250798843,
                -3.1240929996934557
            ]
        },
        {
            "positions": [
                -1.1916068005995015,
                -1.1715049544725067,
                2.00961144049138,
                -0.8033836214871606,
                0.6411755467113633,
                -3.122462188271704
            ]
        },
        {
            "positions": [
                -1.2880058457821282,
                -1.2209852534799426,
                1.9999145447898887,
                -0.7507918457101045,
                0.8063944683428423,
                -3.120831376849952
            ]
        },
        {
            "positions": [
                -1.384404890964755,
                -1.2704655524873782,
                1.9902176490883974,
                -0.6982000699330483,
                0.9716133899743216,
                -3.1192005654282005
            ]
        },
        {
            "positions": [
                -1.4808039361473817,
                -1.3199458514948141,
                1.980520753386906,
                -0.6456082941559922,
                1.1368323116058006,
                -3.117569754006449
            ]
        },
        {
            "positions": [
                -1.5772029813300086,
                -1.36942615050225,
                1.9708238576854147,
                -0.593016518378936,
                1.3020512332372798,
                -3.115938942584697
            ]
        },
        {
            "positions": [
                -1.6736020265126355,
                -1.418906449509686,
                1.9611269619839233,
                -0.5404247426018798,
                1.4672701548687588,
                -3.1143081311629452
            ]
        }
    ]
}