{
    "goal": {
        "global_pose": {
            "orientation": {
                "w": 0.005598929693374612,
                "x": 0.007748599140229565,
                "y": 0.7110244013736278,
                "z": -0.7031023480610252
            },
            "position": {
                "x": 0.1141497679147869,
                "y": -0.7141253447532654,
                "z": 0.3711530566215515
            }
        },
        "name": "move_to_auspresseinheit_B"
    },
    "id": "PRMstar_move_to_auspresseinheit_B_90",
    "joint_names": [
        "shoulder_pan_joint",
        "shoulder_lift_joint",
        "elbow_joint",
        "wrist_1_joint",
        "wrist_2_joint",
        "wrist_3_joint"
    ],
    "metrics": {
        "cart_traj_len": 0.5639350308931272,
        "distance_elbow_joint": 0.06130379242720285,
        "distance_shoulder_lift_joint": 0.29604962331157836,
        "distance_shoulder_pan_joint": 0.5775193008926609,
        "distance_wrist_1_joint": 0.3261181342617905,
        "distance_wrist_2_joint": 0.9872147168376886,
        "distance_wrist_3_joint": 0.00012490156569100463,
        "smoothness": 0.0,
        "time": 5.008078964,
        "traj_len": 1.499443386492672,
        "weighted_distance": 1.8873031350388505
    },
    "planner": "PRMstar",
    "start": {
        "state": {
            "elbow_joint": 2.0193083361928714,
            "shoulder_lift_joint": -1.1220246554650708,
            "shoulder_pan_joint": -1.0952077554168747,
            "wrist_1_joint": -0.8559753972642168,
            "wrist_2_joint": 0.4759566250798843,
            "wrist_3_joint": -3.1240929996934557
        }
    },
    "waypoints": [
        {
            "positions": [
                -1.0952077554168747,
                -1.1220246554650708,
                2.0193083361928714,
                -0.8559753972642168,
                0.4759566250798843,
                -3.1240929996934557
            ]
        },
        {
            "positions": [
                -1.1914609722323182,
                -1.1713662593503338,
                2.009091037455004,
                -0.8016223748872517,
                0.6404924112194991,
                -3.1241138166210707
            ]
        },
        {
            "positions": [
                -1.2877141890477617,
                -1.220707863235597,
                1.9988737387171371,
                -0.7472693525102866,
                0.8050281973591138,
                -3.124134633548686
            ]
        },
        {
            "positions": [
                -1.383967405863205,
                -1.27004946712086,
                1.98865643997927,
                -0.6929163301333215,
                0.9695639834987286,
                -3.124155450476301
            ]
        },
        {
            "positions": [
                -1.4802206226786485,
                -1.319391071006123,
                1.9784391412414029,
                -0.6385633077563565,
                1.1340997696383432,
                -3.124176267403916
            ]
        },
        {
            "positions": [
                -1.576473839494092,
                -1.3687326748913862,
                1.9682218425035356,
                -0.5842102853793913,
                1.298635555777958,
                -3.1241970843315316
            ]
        },
        {
            "positions": [
                -1.6727270563095356,
                -1.4180742787766492,
                1.9580045437656686,
                -0.5298572630024263,
                1.463171341917573,
                -3.1242179012591467
            ]
        }
    ]
}