{
    "goal": {
        "global_pose": {
            "orientation": {
                "w": -0.00223480608172531,
                "x": 0.0024358444001904467,
                "y": 0.7094548369677653,
                "z": -0.704743149386269
            },
            "position": {
                "x": -0.37947507619857795,
                "y": -0.6371506643295288,
                "z": 0.19426114857196808
            }
        },
        "name": "move_to_magneteinheit_C"
    },
    "id": "PRMstar_move_to_magneteinheit_C_17",
    "joint_names": [
        "shoulder_pan_joint",
        "shoulder_lift_joint",
        "elbow_joint",
        "wrist_1_joint",
        "wrist_2_joint",
        "wrist_3_joint"
    ],
    "metrics": {
        "cart_traj_len": 0.6730778501267518,
        "distance_elbow_joint": 0.8330803050614404,
        "distance_shoulder_lift_joint": 0.5949331937032614,
        "distance_shoulder_pan_joint": 0.8016592617593779,
        "distance_wrist_1_joint": 0.3211639176231038,
        "distance_wrist_2_joint": 1.5879221931242746,
        "distance_wrist_3_joint": 0.08379945749783468,
        "smoothness": 1.4879802038920857,
        "time": 5.031592947,
        "traj_len": 2.0548864515513485,
        "weighted_distance": 2.5098293476872766
    },
    "planner": "PRMstar",
    "start": {
        "state": {
            "elbow_joint": 1.9565354010623817,
            "shoulder_lift_joint": -1.4165861575791021,
            "shoulder_pan_joint": -1.6717766225146293,
            "wrist_1_joint": -0.5286633292919765,
            "wrist_2_joint": 1.472756589071564,
            "wrist_3_joint": -3.1238370188695823
        }
    },
    "waypoints": [
        {
            "positions": [
                -1.6717766225146293,
                -1.4165861575791021,
                1.9565354010623817,
                -0.5286633292919765,
                1.472756589071564,
                -3.1238370188695823
            ]
        },
        {
            "positions": [
                -1.7490812344119855,
                -1.44105391818945,
                2.0201388875679456,
                -0.5739397663514748,
                1.3021494574256474,
                -3.1313291983868248
            ]
        },
        {
            "positions": [
                -1.8263858463093419,
                -1.465521678799798,
                2.0837423740735095,
                -0.6192162034109732,
                1.1315423257797308,
                -3.138821377904067
            ]
        },
        {
            "positions": [
                -1.903690458206698,
                -1.4899894394101458,
                2.1473458605790734,
                -0.6644926404704714,
                0.9609351941338141,
                -3.1463135574213092
            ]
        },
        {
            "positions": [
                -1.9809950701040544,
                -1.5144572000204937,
                2.210949347084637,
                -0.7097690775299698,
                0.7903280624878974,
                -3.1538057369385517
            ]
        },
        {
            "positions": [
                -2.058299682001411,
                -1.5389249606308415,
                2.2745528335902008,
                -0.7550455145894681,
                0.6197209308419808,
                -3.161297916455794
            ]
        },
        {
            "positions": [
                -2.135604293898767,
                -1.5633927212411896,
                2.3381563200957647,
                -0.8003219516489665,
                0.4491137991960643,
                -3.168790095973036
            ]
        },
        {
            "positions": [
                -2.212908905796123,
                -1.5878604818515374,
                2.4017598066013286,
                -0.8455983887084648,
                0.2785066675501475,
                -3.1762822754902786
            ]
        },
        {
            "positions": [
                -2.278040650415594,
                -1.481945764493831,
                2.304795831720705,
                -0.8466556032601187,
                0.37692473545086214,
                -3.1684437252709943
            ]
        },
        {
            "positions": [
                -2.343172395035065,
                -1.3760310471361243,
                2.207831856840082,
                -0.8477128178117725,
                0.47534280335157675,
                -3.1606051750517095
            ]
        },
        {
            "positions": [
                -2.408304139654536,
                -1.2701163297784177,
                2.1108678819594586,
                -0.8487700323634264,
                0.5737608712522914,
                -3.1527666248324246
            ]
        },
        {
            "positions": [
                -2.473435884274007,
                -1.1642016124207113,
                2.013903907078835,
                -0.8498272469150803,
                0.672178939153006,
                -3.1449280746131403
            ]
        }
    ]
}