{
    "goal": {
        "global_pose": {
            "orientation": {
                "w": -0.00223480608172531,
                "x": 0.0024358444001904467,
                "y": 0.7094548369677653,
                "z": -0.704743149386269
            },
            "position": {
                "x": -0.37947507619857795,
                "y": -0.6371506643295288,
                "z": 0.19426114857196808
            }
        },
        "name": "move_to_magneteinheit_C"
    },
    "id": "PRMstar_move_to_magneteinheit_C_87",
    "joint_names": [
        "shoulder_pan_joint",
        "shoulder_lift_joint",
        "elbow_joint",
        "wrist_1_joint",
        "wrist_2_joint",
        "wrist_3_joint"
    ],
    "metrics": {
        "cart_traj_len": 5.939177985429889,
        "distance_elbow_joint": 0.28943852095558853,
        "distance_shoulder_lift_joint": 2.5436501396113727,
        "distance_shoulder_pan_joint": 8.990492471897902,
        "distance_wrist_1_joint": 0.31724900412386214,
        "distance_wrist_2_joint": 2.9380525932424506,
        "distance_wrist_3_joint": 7.219271877674913,
        "smoothness": 0.5991035644458956,
        "time": 5.219476063,
        "traj_len": 4.722092185409565,
        "weighted_distance": 6.32392283003376
    },
    "planner": "PRMstar",
    "start": {
        "state": {
            "elbow_joint": 1.9565354010623817,
            "shoulder_lift_joint": -1.4165861575791021,
            "shoulder_pan_joint": -1.6717766225146293,
            "wrist_1_joint": -0.5286633292919765,
            "wrist_2_joint": 1.472756589071564,
            "wrist_3_joint": -3.1238370188695823
        }
    },
    "waypoints": [
        {
            "positions": [
                -1.6717766225146293,
                -1.4165861575791021,
                1.9565354010623817,
                -0.5286633292919765,
                1.472756589071564,
                -3.1238370188695823
            ]
        },
        {
            "positions": [
                -1.5255084445448355,
                -1.4575046729923729,
                1.9523862335726212,
                -0.5378139380059347,
                1.4062025267649707,
                -2.9951487336113956
            ]
        },
        {
            "positions": [
                -1.3792402665750414,
                -1.4984231884056436,
                1.9482370660828607,
                -0.546964546719893,
                1.3396484644583777,
                -2.866460448353209
            ]
        },
        {
            "positions": [
                -1.2329720886052475,
                -1.5393417038189143,
                1.9440878985931003,
                -0.5561151554338513,
                1.2730944021517847,
                -2.7377721630950216
            ]
        },
        {
            "positions": [
                -1.0867039106354537,
                -1.580260219232185,
                1.9399387311033398,
                -0.5652657641478095,
                1.2065403398451915,
                -2.609083877836835
            ]
        },
        {
            "positions": [
                -0.9404357326656597,
                -1.6211787346454558,
                1.9357895636135793,
                -0.5744163728617678,
                1.1399862775385983,
                -2.480395592578648
            ]
        },
        {
            "positions": [
                -0.7941675546958659,
                -1.6620972500587265,
                1.9316403961238189,
                -0.5835669815757261,
                1.0734322152320053,
                -2.3517073073204613
            ]
        },
        {
            "positions": [
                -0.6478993767260719,
                -1.7030157654719973,
                1.9274912286340582,
                -0.5927175902896844,
                1.0068781529254123,
                -2.2230190220622745
            ]
        },
        {
            "positions": [
                -0.501631198756278,
                -1.743934280885268,
                1.9233420611442977,
                -0.6018681990036426,
                0.940324090618819,
                -2.0943307368040873
            ]
        },
        {
            "positions": [
                -0.35536302078648396,
                -1.784852796298539,
                1.9191928936545373,
                -0.6110188077176009,
                0.8737700283122259,
                -1.9656424515459006
            ]
        },
        {
            "positions": [
                -0.2090948428166901,
                -1.8257713117118097,
                1.9150437261647768,
                -0.6201694164315592,
                0.8072159660056328,
                -1.8369541662877138
            ]
        },
        {
            "positions": [
                -0.06282666484689625,
                -1.8666898271250802,
                1.9108945586750163,
                -0.6293200251455174,
                0.7406619036990397,
                -1.7082658810295268
            ]
        },
        {
            "positions": [
                0.0834415131228976,
                -1.907608342538351,
                1.9067453911852559,
                -0.6384706338594757,
                0.6741078413924466,
                -1.57957759577134
            ]
        },
        {
            "positions": [
                0.22970969109269168,
                -1.948526857951622,
                1.9025962236954954,
                -0.647621242573434,
                0.6075537790858535,
                -1.450889310513153
            ]
        },
        {
            "positions": [
                0.37597786906248554,
                -1.9894453733648927,
                1.898447056205735,
                -0.6567718512873922,
                0.5409997167792604,
                -1.3222010252549663
            ]
        },
        {
            "positions": [
                0.5222460470322792,
                -2.0303638887781634,
                1.8942978887159745,
                -0.6659224600013505,
                0.4744456544726673,
                -1.1935127399967795
            ]
        },
        {
            "positions": [
                0.6685142250020732,
                -2.071282404191434,
                1.890148721226214,
                -0.6750730687153088,
                0.4078915921660742,
                -1.0648244547385928
            ]
        },
        {
            "positions": [
                0.8147824029718669,
                -2.112200919604705,
                1.8859995537364536,
                -0.684223677429267,
                0.3413375298594812,
                -0.936136169480406
            ]
        },
        {
            "positions": [
                0.9610505809416614,
                -2.1531194350179756,
                1.881850386246693,
                -0.6933742861432253,
                0.27478346755288796,
                -0.8074478842222188
            ]
        },
        {
            "positions": [
                1.1073187589114555,
                -2.1940379504312464,
                1.8777012187569326,
                -0.7025248948571836,
                0.20822940524629474,
                -0.678759598964032
            ]
        },
        {
            "positions": [
                1.2535869368812491,
                -2.234956465844517,
                1.8735520512671722,
                -0.7116755035711418,
                0.14167534293970174,
                -0.5500713137058453
            ]
        },
        {
            "positions": [
                1.3998551148510432,
                -2.275874981257788,
                1.8694028837774117,
                -0.7208261122851001,
                0.07512128063310852,
                -0.42138302844765807
            ]
        },
        {
            "positions": [
                1.5461232928208368,
                -2.3167934966710586,
                1.865253716287651,
                -0.7299767209990584,
                0.008567218326515524,
                -0.2926947431894713
            ]
        },
        {
            "positions": [
                1.6923914707906305,
                -2.3577120120843293,
                1.8611045487978906,
                -0.7391273297130166,
                -0.057986843980077474,
                -0.16400645793128454
            ]
        },
        {
            "positions": [
                1.8386596487604245,
                -2.3986305274976,
                1.85695538130813,
                -0.7482779384269749,
                -0.1245409062866707,
                -0.03531817267309778
            ]
        },
        {
            "positions": [
                1.984927826730219,
                -2.439549042910871,
                1.8528062138183696,
                -0.7574285471409332,
                -0.19109496859326391,
                0.09337011258508943
            ]
        },
        {
            "positions": [
                2.131196004700013,
                -2.4804675583241416,
                1.8486570463286092,
                -0.7665791558548914,
                -0.2576490308998569,
                0.2220583978432762
            ]
        },
        {
            "positions": [
                2.2774641826698065,
                -2.5213860737374123,
                1.8445078788388487,
                -0.7757297645688498,
                -0.32420309320645013,
                0.35074668310146295
            ]
        },
        {
            "positions": [
                2.4237323606396,
                -2.562304589150683,
                1.8403587113490882,
                -0.784880373282808,
                -0.39075715551304313,
                0.4794349683596497
            ]
        },
        {
            "positions": [
                2.254939826544991,
                -2.5141000474941384,
                1.846333257253995,
                -0.7869849236322228,
                -0.35370409176622103,
                0.3547453169649711
            ]
        },
        {
            "positions": [
                2.0861472924503817,
                -2.465895505837594,
                1.8523078031589018,
                -0.7890894739816378,
                -0.31665102801939893,
                0.23005566557029242
            ]
        },
        {
            "positions": [
                1.9173547583557724,
                -2.4176909641810496,
                1.8582823490638085,
                -0.7911940243310526,
                -0.2795979642725768,
                0.10536601417561381
            ]
        },
        {
            "positions": [
                1.7485622242611631,
                -2.369486422524505,
                1.864256894968715,
                -0.7932985746804674,
                -0.24254490052575473,
                -0.019323637219064882
            ]
        },
        {
            "positions": [
                1.5797696901665539,
                -2.3212818808679603,
                1.8702314408736218,
                -0.7954031250298823,
                -0.20549183677893262,
                -0.14401328861374352
            ]
        },
        {
            "positions": [
                1.4109771560719446,
                -2.273077339211416,
                1.8762059867785286,
                -0.7975076753792971,
                -0.16843877303211055,
                -0.2687029400084221
            ]
        },
        {
            "positions": [
                1.2421846219773354,
                -2.2248727975548714,
                1.8821805326834353,
                -0.7996122257287119,
                -0.13138570928528842,
                -0.3933925914031008
            ]
        },
        {
            "positions": [
                1.073392087882726,
                -2.176668255898327,
                1.888155078588342,
                -0.8017167760781267,
                -0.09433264553846632,
                -0.5180822427977795
            ]
        },
        {
            "positions": [
                0.9045995537881169,
                -2.128463714241782,
                1.8941296244932488,
                -0.8038213264275417,
                -0.05727958179164422,
                -0.6427718941924581
            ]
        },
        {
            "positions": [
                0.7358070196935074,
                -2.080259172585238,
                1.9001041703981556,
                -0.8059258767769565,
                -0.020226518044822117,
                -0.7674615455871368
            ]
        },
        {
            "positions": [
                0.5670144855988983,
                -2.0320546309286933,
                1.9060787163030621,
                -0.8080304271263713,
                0.01682654570199993,
                -0.8921511969818152
            ]
        },
        {
            "positions": [
                0.3982219515042891,
                -1.9838500892721487,
                1.912053262207969,
                -0.8101349774757862,
                0.05387960944882203,
                -1.016840848376494
            ]
        },
        {
            "positions": [
                0.22942941740967981,
                -1.9356455476156043,
                1.9180278081128757,
                -0.812239527825201,
                0.09093267319564419,
                -1.1415304997711726
            ]
        },
        {
            "positions": [
                0.060636883315070556,
                -1.8874410059590598,
                1.9240023540177824,
                -0.8143440781746158,
                0.1279857369424663,
                -1.2662201511658513
            ]
        },
        {
            "positions": [
                -0.1081556507795387,
                -1.8392364643025152,
                1.9299768999226892,
                -0.8164486285240308,
                0.16503880068928845,
                -1.39090980256053
            ]
        },
        {
            "positions": [
                -0.27694818487414796,
                -1.7910319226459708,
                1.935951445827596,
                -0.8185531788734456,
                0.2020918644361105,
                -1.5155994539552087
            ]
        },
        {
            "positions": [
                -0.4457407189687568,
                -1.7428273809894264,
                1.9419259917325027,
                -0.8206577292228604,
                0.23914492818293254,
                -1.6402891053498871
            ]
        },
        {
            "positions": [
                -0.6145332530633665,
                -1.6946228393328817,
                1.9479005376374094,
                -0.8227622795722753,
                0.2761979919297547,
                -1.7649787567445658
            ]
        },
        {
            "positions": [
                -0.7833257871579757,
                -1.646418297676337,
                1.953875083542316,
                -0.8248668299216901,
                0.31325105567657674,
                -1.8896684081392445
            ]
        },
        {
            "positions": [
                -0.9521183212525854,
                -1.5982137560197924,
                1.9598496294472227,
                -0.826971380271105,
                0.3503041194233989,
                -2.014358059533923
            ]
        },
        {
            "positions": [
                -1.1209108553471943,
                -1.5500092143632482,
                1.9658241753521295,
                -0.8290759306205198,
                0.38735718317022094,
                -2.139047710928602
            ]
        },
        {
            "positions": [
                -1.2897033894418035,
                -1.5018046727067036,
                1.9717987212570363,
                -0.8311804809699347,
                0.424410246917043,
                -2.26373736232328
            ]
        },
        {
            "positions": [
                -1.4584959235364128,
                -1.453600131050159,
                1.977773267161943,
                -0.8332850313193495,
                0.46146331066386514,
                -2.3884270137179593
            ]
        },
        {
            "positions": [
                -1.627288457631022,
                -1.4053955893936145,
                1.9837478130668498,
                -0.8353895816687643,
                0.4985163744106872,
                -2.5131166651126375
            ]
        },
        {
            "positions": [
                -1.7960809917256313,
                -1.3571910477370701,
                1.9897223589717563,
                -0.8374941320181792,
                0.5355694381575093,
                -2.6378063165073162
            ]
        },
        {
            "positions": [
                -1.9648735258202406,
                -1.3089865060805255,
                1.995696904876663,
                -0.839598682367594,
                0.5726225019043315,
                -2.762495967901995
            ]
        },
        {
            "positions": [
                -2.13366605991485,
                -1.260781964423981,
                2.00167145078157,
                -0.8417032327170089,
                0.6096755656511534,
                -2.8871856192966736
            ]
        },
        {
            "positions": [
                -2.302458594009459,
                -1.2125774227674364,
                2.0076459966864766,
                -0.8438077830664238,
                0.6467286293979757,
                -3.0118752706913523
            ]
        },
        {
            "positions": [
                -2.4712511281040683,
                -1.164372881110892,
                2.0136205425913833,
                -0.8459123334158386,
                0.6837816931447978,
                -3.136564922086031
            ]
        }
    ]
}