{
    "goal": {
        "global_pose": {
            "orientation": {
                "w": -0.00223480608172531,
                "x": 0.0024358444001904467,
                "y": 0.7094548369677653,
                "z": -0.704743149386269
            },
            "position": {
                "x": 0.6205249238014221,
                "y": -0.6371506643295288,
                "z": 0.19426114857196808
            }
        },
        "name": "move_to_magneteinheit_B"
    },
    "id": "PRMstar_move_to_magneteinheit_B_21",
    "joint_names": [
        "shoulder_pan_joint",
        "shoulder_lift_joint",
        "elbow_joint",
        "wrist_1_joint",
        "wrist_2_joint",
        "wrist_3_joint"
    ],
    "metrics": {
        "cart_traj_len": 3.1809650039653157,
        "distance_elbow_joint": 4.583751545294418,
        "distance_shoulder_lift_joint": 1.109212833946359,
        "distance_shoulder_pan_joint": 1.9535936430850884,
        "distance_wrist_1_joint": 2.1889328027946955,
        "distance_wrist_2_joint": 2.304312946758508,
        "distance_wrist_3_joint": 3.0008205532133148,
        "smoothness": 0.8209351683868584,
        "time": 5.0432777589999995,
        "traj_len": 3.8910955173437185,
        "weighted_distance": 5.06315229684751
    },
    "planner": "PRMstar",
    "start": {
        "state": {
            "elbow_joint": 2.6216224122426386,
            "shoulder_lift_joint": -1.4174107377796124,
            "shoulder_pan_joint": 0.7066234856936794,
            "wrist_1_joint": 1.9546482284002225,
            "wrist_2_joint": -0.7096286983471962,
            "wrist_3_joint": 0.005740856962016249
        }
    },
    "waypoints": [
        {
            "positions": [
                0.7066234856936794,
                -1.4174107377796124,
                2.6216224122426386,
                1.9546482284002225,
                -0.7096286983471962,
                0.005740856962016249
            ]
        },
        {
            "positions": [
                0.7483079717521088,
                -1.4642310768034916,
                2.613677865962737,
                1.9601035097771342,
                -0.6851243926263808,
                0.2237001879174052
            ]
        },
        {
            "positions": [
                0.7899924578105383,
                -1.5110514158273707,
                2.605733319682836,
                1.9655587911540457,
                -0.6606200869055654,
                0.44165951887279414
            ]
        },
        {
            "positions": [
                0.8316769438689677,
                -1.55787175485125,
                2.5977887734029346,
                1.9710140725309575,
                -0.63611578118475,
                0.6596188498281831
            ]
        },
        {
            "positions": [
                0.8902094835351037,
                -1.5866230456852375,
                2.543396809360865,
                1.975172999159601,
                -0.688222955677029,
                0.7850585502620677
            ]
        },
        {
            "positions": [
                0.9487420232012396,
                -1.6153743365192248,
                2.489004845318796,
                1.9793319257882447,
                -0.7403301301693079,
                0.9104982506959522
            ]
        },
        {
            "positions": [
                1.0072745628673754,
                -1.6441256273532123,
                2.4346128812767263,
                1.9834908524168882,
                -0.7924373046615869,
                1.0359379511298368
            ]
        },
        {
            "positions": [
                1.0658071025335114,
                -1.6728769181871996,
                2.380220917234657,
                1.9876497790455319,
                -0.8445444791538659,
                1.1613776515637215
            ]
        },
        {
            "positions": [
                1.1243396421996472,
                -1.7016282090211872,
                2.3258289531925875,
                1.9918087056741753,
                -0.8966516536461449,
                1.286817351997606
            ]
        },
        {
            "positions": [
                1.1715913690055477,
                -1.7005123006873561,
                2.162782289858413,
                1.921130089208511,
                -0.8460064315598704,
                1.2239540012717633
            ]
        },
        {
            "positions": [
                1.2188430958114482,
                -1.6993963923535254,
                1.9997356265242376,
                1.8504514727428465,
                -0.795361209473596,
                1.1610906505459206
            ]
        },
        {
            "positions": [
                1.2660948226173485,
                -1.6982804840196946,
                1.836688963190063,
                1.7797728562771822,
                -0.7447159873873216,
                1.098227299820078
            ]
        },
        {
            "positions": [
                1.313346549423249,
                -1.6971645756858635,
                1.6736422998558877,
                1.7090942398115176,
                -0.6940707653010472,
                1.0353639490942352
            ]
        },
        {
            "positions": [
                1.3605982762291495,
                -1.6960486673520325,
                1.510595636521713,
                1.6384156233458533,
                -0.6434255432147727,
                0.9725005983683926
            ]
        },
        {
            "positions": [
                1.40785000303505,
                -1.6949327590182017,
                1.347548973187538,
                1.567737006880189,
                -0.5927803211284983,
                0.90963724764255
            ]
        },
        {
            "positions": [
                1.4551017298409505,
                -1.693816850684371,
                1.1845023098533631,
                1.4970583904145245,
                -0.5421350990422239,
                0.8467738969167073
            ]
        },
        {
            "positions": [
                1.5023534566468508,
                -1.69270094235054,
                1.0214556465191882,
                1.42637977394886,
                -0.4914898769559495,
                0.7839105461908645
            ]
        },
        {
            "positions": [
                1.5496051834527513,
                -1.691585034016709,
                0.858408983185013,
                1.3557011574831956,
                -0.440844654869675,
                0.7210471954650218
            ]
        },
        {
            "positions": [
                1.5968569102586518,
                -1.690469125682878,
                0.6953623198508383,
                1.2850225410175313,
                -0.39019943278340063,
                0.6581838447391792
            ]
        },
        {
            "positions": [
                1.6441086370645523,
                -1.6893532173490473,
                0.5323156565166633,
                1.2143439245518668,
                -0.3395542106971262,
                0.5953204940133365
            ]
        },
        {
            "positions": [
                1.6913603638704529,
                -1.6882373090152163,
                0.3692689931824886,
                1.1436653080862025,
                -0.2889089886108518,
                0.5324571432874939
            ]
        },
        {
            "positions": [
                1.7386120906763534,
                -1.6871214006813853,
                0.20622232984831346,
                1.072986691620538,
                -0.23826376652457737,
                0.4695937925616511
            ]
        },
        {
            "positions": [
                1.7858638174822539,
                -1.6860054923475545,
                0.04317566651413873,
                1.0023080751548736,
                -0.18761854443830295,
                0.40673044183580853
            ]
        },
        {
            "positions": [
                1.8331155442881542,
                -1.6848895840137237,
                -0.11987099682003599,
                0.9316294586892093,
                -0.13697332235202864,
                0.34386709110996583
            ]
        },
        {
            "positions": [
                1.8803672710940547,
                -1.6837736756798927,
                -0.28291766015421116,
                0.8609508422235448,
                -0.0863281002657541,
                0.281003740384123
            ]
        },
        {
            "positions": [
                1.9276189978999552,
                -1.6826577673460617,
                -0.4459643234883863,
                0.7902722257578803,
                -0.03568287817947968,
                0.21814038965828053
            ]
        },
        {
            "positions": [
                1.9748707247058557,
                -1.6815418590122309,
                -0.6090109868225615,
                0.7195936092922157,
                0.01496234390679485,
                0.1552770389324376
            ]
        },
        {
            "positions": [
                2.022122451511756,
                -1.6804259506784,
                -0.7720576501567362,
                0.6489149928265514,
                0.06560756599306916,
                0.09241368820659512
            ]
        },
        {
            "positions": [
                2.0693741783176565,
                -1.679310042344569,
                -0.9351043134909109,
                0.5782363763608871,
                0.11625278807934358,
                0.02955033748075242
            ]
        },
        {
            "positions": [
                2.116625905123557,
                -1.678194134010738,
                -1.0981509768250861,
                0.5075577598952226,
                0.16689801016561812,
                -0.033313013245090284
            ]
        },
        {
            "positions": [
                2.1638776319294575,
                -1.6770782256769072,
                -1.2611976401592608,
                0.4368791434295582,
                0.2175432322518924,
                -0.0961763639709331
            ]
        },
        {
            "positions": [
                2.1808424596485465,
                -1.8038459442969261,
                -1.347065568197549,
                0.42650860387840017,
                0.35480562676705907,
                -0.11228928922498625
            ]
        },
        {
            "positions": [
                2.197807287367635,
                -1.9306136629169448,
                -1.4329334962358369,
                0.41613806432724215,
                0.4920680212822257,
                -0.1284022144790394
            ]
        },
        {
            "positions": [
                2.214772115086724,
                -2.0573813815369637,
                -1.518801424274125,
                0.40576752477608413,
                0.6293304157973925,
                -0.14451513973309257
            ]
        },
        {
            "positions": [
                2.234247471795018,
                -2.111803788986858,
                -1.5485072066370422,
                0.508622116990859,
                0.586425139953199,
                -0.10362023058733061
            ]
        },
        {
            "positions": [
                2.2537228285033115,
                -2.166226196436753,
                -1.5782129889999594,
                0.6114767092056339,
                0.5435198641090055,
                -0.06272532144156863
            ]
        },
        {
            "positions": [
                2.3334553776760023,
                -2.224669777418759,
                -1.6374568547401784,
                0.6485565695506825,
                0.48896260286186644,
                -0.07625946840425817
            ]
        },
        {
            "positions": [
                2.4131879268486927,
                -2.2831133584007652,
                -1.6967007204803974,
                0.6856364298957311,
                0.4344053416147273,
                -0.08979361536694769
            ]
        },
        {
            "positions": [
                2.4929204760213834,
                -2.3415569393827718,
                -1.7559445862206164,
                0.7227162902407797,
                0.3798480803675882,
                -0.10332776232963722
            ]
        },
        {
            "positions": [
                2.5726530251940742,
                -2.400000520364778,
                -1.8151884519608354,
                0.7597961505858283,
                0.3252908191204491,
                -0.11686190929232676
            ]
        },
        {
            "positions": [
                2.6018410597223056,
                -2.425841548588989,
                -1.7662082249305218,
                0.8303636568567976,
                0.3720383161251778,
                -0.06603352252407856
            ]
        },
        {
            "positions": [
                2.6310290942505365,
                -2.4516825768132002,
                -1.7172279979002079,
                0.9009311631277669,
                0.4187858131299065,
                -0.015205135755830351
            ]
        },
        {
            "positions": [
                2.660217128778768,
                -2.4775236050374114,
                -1.6682477708698942,
                0.9714986693987362,
                0.4655333101346352,
                0.03562325101241786
            ]
        }
    ]
}