{
    "goal": {
        "global_pose": {
            "orientation": {
                "w": -0.00223480608172531,
                "x": 0.0024358444001904467,
                "y": 0.7094548369677653,
                "z": -0.704743149386269
            },
            "position": {
                "x": 0.6205249238014221,
                "y": -0.6371506643295288,
                "z": 0.19426114857196808
            }
        },
        "name": "move_to_magneteinheit_B"
    },
    "id": "PRMstar_move_to_magneteinheit_B_41",
    "joint_names": [
        "shoulder_pan_joint",
        "shoulder_lift_joint",
        "elbow_joint",
        "wrist_1_joint",
        "wrist_2_joint",
        "wrist_3_joint"
    ],
    "metrics": {
        "cart_traj_len": 4.505668053281309,
        "distance_elbow_joint": 4.854700575010735,
        "distance_shoulder_lift_joint": 2.1278340333825887,
        "distance_shoulder_pan_joint": 4.303404858848417,
        "distance_wrist_1_joint": 1.9096068093873408,
        "distance_wrist_2_joint": 2.1549923770625887,
        "distance_wrist_3_joint": 3.0142643144477526,
        "smoothness": 0.6472474115509148,
        "time": 5.071674904,
        "traj_len": 4.285417478862406,
        "weighted_distance": 5.334597527788284
    },
    "planner": "PRMstar",
    "start": {
        "state": {
            "elbow_joint": 2.6216224122426386,
            "shoulder_lift_joint": -1.4174107377796124,
            "shoulder_pan_joint": 0.7066234856936794,
            "wrist_1_joint": 1.9546482284002225,
            "wrist_2_joint": -0.7096286983471962,
            "wrist_3_joint": 0.005740856962016249
        }
    },
    "waypoints": [
        {
            "positions": [
                0.7066234856936794,
                -1.4174107377796124,
                2.6216224122426386,
                1.9546482284002225,
                -0.7096286983471962,
                0.005740856962016249
            ]
        },
        {
            "positions": [
                0.607474226991992,
                -1.3583261794763848,
                2.5803164851078466,
                1.829736342179994,
                -0.6713808870846597,
                0.005129905150245325
            ]
        },
        {
            "positions": [
                0.5083249682903048,
                -1.2992416211731572,
                2.539010557973054,
                1.7048244559597654,
                -0.6331330758221232,
                0.004518953338474401
            ]
        },
        {
            "positions": [
                0.4091757095886175,
                -1.2401570628699297,
                2.497704630838262,
                1.579912569739537,
                -0.5948852645595867,
                0.003908001526703477
            ]
        },
        {
            "positions": [
                0.31002645088693015,
                -1.181072504566702,
                2.4563987037034702,
                1.4550006835193083,
                -0.5566374532970502,
                0.0032970497149325535
            ]
        },
        {
            "positions": [
                0.2108771921852428,
                -1.1219879462634745,
                2.415092776568678,
                1.33008879729908,
                -0.5183896420345135,
                0.0026860979031616294
            ]
        },
        {
            "positions": [
                0.11172793348355559,
                -1.062903387960247,
                2.373786849433886,
                1.2051769110788515,
                -0.4801418307719771,
                0.0020751460913907057
            ]
        },
        {
            "positions": [
                0.012578674781868138,
                -1.0038188296570192,
                2.332480922299094,
                1.080265024858623,
                -0.4418940195094405,
                0.0014641942796197816
            ]
        },
        {
            "positions": [
                -0.08657058391981909,
                -0.9447342713537916,
                2.2911749951643015,
                0.9553531386383944,
                -0.40364620824690406,
                0.0008532424678488583
            ]
        },
        {
            "positions": [
                -0.18571984262150648,
                -0.8856497130505641,
                2.2498690680295095,
                0.8304412524181659,
                -0.3653983969843675,
                0.0002422906560779342
            ]
        },
        {
            "positions": [
                -0.15798985565962678,
                -0.9059755004443624,
                2.17008598247013,
                0.8566760581826969,
                -0.40306701209361745,
                -0.16389091056015387
            ]
        },
        {
            "positions": [
                -0.13025986869774706,
                -0.9263012878381607,
                2.0903028969107504,
                0.8829108639472278,
                -0.44073562720286735,
                -0.32802411177638563
            ]
        },
        {
            "positions": [
                -0.10252988173586736,
                -0.9466270752319591,
                2.0105198113513705,
                0.9091456697117589,
                -0.4784042423121173,
                -0.49215731299261745
            ]
        },
        {
            "positions": [
                -0.07479989477398764,
                -0.9669528626257574,
                1.930736725791991,
                0.9353804754762899,
                -0.5160728574213672,
                -0.6562905142088492
            ]
        },
        {
            "positions": [
                -0.04706990781210793,
                -0.9872786500195557,
                1.8509536402326114,
                0.9616152812408209,
                -0.5537414725306172,
                -0.8204237154250812
            ]
        },
        {
            "positions": [
                -0.01933992085022823,
                -1.0076044374133541,
                1.771170554673232,
                0.9878500870053518,
                -0.5914100876398671,
                -0.9845569166413128
            ]
        },
        {
            "positions": [
                0.008390066111651495,
                -1.0279302248071525,
                1.6913874691138522,
                1.014084892769883,
                -0.6290787027491171,
                -1.1486901178575448
            ]
        },
        {
            "positions": [
                0.036120053073531194,
                -1.0482560122009508,
                1.6116043835544724,
                1.0403196985344139,
                -0.6667473178583669,
                -1.3128233190737764
            ]
        },
        {
            "positions": [
                0.06385004003541092,
                -1.068581799594749,
                1.531821297995093,
                1.0665545042989448,
                -0.704415932967617,
                -1.4769565202900083
            ]
        },
        {
            "positions": [
                0.19666327545061096,
                -1.133780438865714,
                1.4145253916404184,
                1.068372609202948,
                -0.7133723127884464,
                -1.4125718617688205
            ]
        },
        {
            "positions": [
                0.329476510865811,
                -1.1989790781366787,
                1.2972294852857438,
                1.070190714106951,
                -0.7223286926092759,
                -1.3481872032476325
            ]
        },
        {
            "positions": [
                0.46228974628101116,
                -1.2641777174076436,
                1.1799335789310692,
                1.0720088190109542,
                -0.7312850724301053,
                -1.2838025447264447
            ]
        },
        {
            "positions": [
                0.5951029816962111,
                -1.3293763566786083,
                1.0626376725763946,
                1.0738269239149574,
                -0.7402414522509349,
                -1.2194178862052567
            ]
        },
        {
            "positions": [
                0.7279162171114113,
                -1.3945749959495732,
                0.9453417662217201,
                1.0756450288189605,
                -0.7491978320717643,
                -1.155033227684069
            ]
        },
        {
            "positions": [
                0.8607294525266114,
                -1.4597736352205382,
                0.8280458598670455,
                1.0774631337229637,
                -0.7581542118925938,
                -1.090648569162881
            ]
        },
        {
            "positions": [
                0.9935426879418113,
                -1.5249722744915029,
                0.710749953512371,
                1.0792812386269668,
                -0.7671105917134232,
                -1.026263910641693
            ]
        },
        {
            "positions": [
                1.1263559233570113,
                -1.5901709137624676,
                0.5934540471576965,
                1.08109934353097,
                -0.7760669715342527,
                -0.9618792521205052
            ]
        },
        {
            "positions": [
                1.2591691587722116,
                -1.6553695530334327,
                0.47615814080302177,
                1.0829174484349728,
                -0.7850233513550822,
                -0.8974945935993174
            ]
        },
        {
            "positions": [
                1.3919823941874117,
                -1.7205681923043974,
                0.3588622344483472,
                1.084735553338976,
                -0.7939797311759117,
                -0.8331099350781295
            ]
        },
        {
            "positions": [
                1.5247956296026117,
                -1.785766831575362,
                0.24156632809367262,
                1.0865536582429791,
                -0.8029361109967411,
                -0.7687252765569416
            ]
        },
        {
            "positions": [
                1.6576088650178118,
                -1.8509654708463272,
                0.12427042173899805,
                1.0883717631469823,
                -0.8118924908175706,
                -0.7043406180357537
            ]
        },
        {
            "positions": [
                1.7904221004330116,
                -1.916164110117292,
                0.0069745153843236984,
                1.0901898680509854,
                -0.8208488706384001,
                -0.6399559595145659
            ]
        },
        {
            "positions": [
                1.9232353358482117,
                -1.9813627493882566,
                -0.11032139097035087,
                1.0920079729549885,
                -0.8298052504592295,
                -0.5755713009933779
            ]
        },
        {
            "positions": [
                2.056048571263412,
                -2.0465613886592213,
                -0.22761729732502545,
                1.0938260778589917,
                -0.838761630280059,
                -0.51118664247219
            ]
        },
        {
            "positions": [
                2.1888618066786116,
                -2.1117600279301865,
                -0.3449132036797,
                1.0956441827629948,
                -0.8477180101008885,
                -0.446801983951002
            ]
        },
        {
            "positions": [
                2.321675042093812,
                -2.176958667201151,
                -0.4622091100343747,
                1.097462287666998,
                -0.856674389921718,
                -0.38241732542981427
            ]
        },
        {
            "positions": [
                2.3838877222594497,
                -2.1819747899560693,
                -0.6107765597367815,
                1.118143676709311,
                -0.7432478330666399,
                -0.340980043283443
            ]
        },
        {
            "positions": [
                2.4461004024250874,
                -2.1869909127109874,
                -0.7593440094391882,
                1.138825065751624,
                -0.6298212762115619,
                -0.29954276113707173
            ]
        },
        {
            "positions": [
                2.508313082590725,
                -2.192007035465906,
                -0.907911459141595,
                1.1595064547939367,
                -0.516394719356484,
                -0.25810547899070047
            ]
        },
        {
            "positions": [
                2.570525762756363,
                -2.197023158220824,
                -1.0564789088440016,
                1.1801878438362496,
                -0.4029681625014058,
                -0.2166681968443292
            ]
        },
        {
            "positions": [
                2.632738442922001,
                -2.2020392809757423,
                -1.2050463585464084,
                1.2008692328785626,
                -0.2895416056463278,
                -0.17523091469795796
            ]
        },
        {
            "positions": [
                2.694951123087639,
                -2.2070554037306604,
                -1.3536138082488152,
                1.2215506219208756,
                -0.17611504879124984,
                -0.13379363255158672
            ]
        },
        {
            "positions": [
                2.7571638032532766,
                -2.2120715264855786,
                -1.502181257951222,
                1.2422320109631886,
                -0.06268849193617176,
                -0.09235635040521545
            ]
        },
        {
            "positions": [
                2.8193764834189143,
                -2.217087649240497,
                -1.6507487076536287,
                1.2629134000055013,
                0.05073806491890631,
                -0.050919068258844125
            ]
        },
        {
            "positions": [
                2.881589163584552,
                -2.2221037719954153,
                -1.7993161573560355,
                1.2835947890478143,
                0.16416462177398428,
                -0.009481786112472912
            ]
        },
        {
            "positions": [
                2.94380184375019,
                -2.2271198947503335,
                -1.9478836070584424,
                1.3042761780901273,
                0.27759117862906224,
                0.031955496033898356
            ]
        },
        {
            "positions": [
                2.8734168827098054,
                -2.2907706014887763,
                -1.8765849681310285,
                1.2263849511567966,
                0.3238963071819694,
                0.0262917658159432
            ]
        },
        {
            "positions": [
                2.8030319216694215,
                -2.354421308227219,
                -1.8052863292036143,
                1.1484937242234659,
                0.3702014357348765,
                0.020628035597988044
            ]
        },
        {
            "positions": [
                2.732646960629037,
                -2.4180720149656616,
                -1.7339876902762004,
                1.0706024972901351,
                0.4165065642877837,
                0.014964305380032888
            ]
        },
        {
            "positions": [
                2.6622619995886527,
                -2.4817227217041045,
                -1.6626890513487864,
                0.9927112703568045,
                0.46281169284069085,
                0.00930057516207773
            ]
        }
    ]
}