{
    "goal": {
        "global_pose": {
            "orientation": {
                "w": 0.5084816217422485,
                "x": -0.49083608388900757,
                "y": 0.5182115435600281,
                "z": -0.4816462993621826
            },
            "position": {
                "x": 0.5540239810943604,
                "y": 0.030875300988554955,
                "z": 0.16403168439865112
            }
        },
        "name": "move_to_storage_A"
    },
    "id": "PRMstar_move_to_storage_A_130",
    "joint_names": [
        "shoulder_pan_joint",
        "shoulder_lift_joint",
        "elbow_joint",
        "wrist_1_joint",
        "wrist_2_joint",
        "wrist_3_joint"
    ],
    "metrics": {
        "cart_traj_len": 0.35292621574587374,
        "distance_elbow_joint": 0.44715636235723166,
        "distance_shoulder_lift_joint": 0.2352403733691657,
        "distance_shoulder_pan_joint": 0.46210934117542546,
        "distance_wrist_1_joint": 0.23363847725741616,
        "distance_wrist_2_joint": 1.0956303693120977,
        "distance_wrist_3_joint": 0.08599951059575339,
        "smoothness": 6.661338165333112e-16,
        "time": 5.009437279,
        "traj_len": 1.5999295090931631,
        "weighted_distance": 2.0152027942190114
    },
    "planner": "PRMstar",
    "start": {
        "state": {
            "elbow_joint": 1.971548259319323,
            "shoulder_lift_joint": -1.1394851275133948,
            "shoulder_pan_joint": 0.1228115487234821,
            "wrist_1_joint": -0.7804723859257726,
            "wrist_2_joint": 0.12958671773740124,
            "wrist_3_joint": -3.192489227718131
        }
    },
    "waypoints": [
        {
            "positions": [
                0.1228115487234821,
                -1.1394851275133948,
                1.971548259319323,
                -0.7804723859257726,
                0.12958671773740124,
                -3.192489227718131
            ]
        },
        {
            "positions": [
                0.05679592855556419,
                -1.1730908951375614,
                2.0354277396560705,
                -0.8138493112482607,
                0.28610534192484377,
                -3.1802035833473092
            ]
        },
        {
            "positions": [
                -0.009219691612353725,
                -1.206696662761728,
                2.0993072199928178,
                -0.8472262365707487,
                0.44262396611228627,
                -3.1679179389764873
            ]
        },
        {
            "positions": [
                -0.07523531178027165,
                -1.2403024303858945,
                2.163186700329565,
                -0.8806031618932366,
                0.5991425902997288,
                -3.1556322946056654
            ]
        },
        {
            "positions": [
                -0.14125093194818955,
                -1.2739081980100608,
                2.2270661806663123,
                -0.9139800872157247,
                0.7556612144871714,
                -3.1433466502348435
            ]
        },
        {
            "positions": [
                -0.2072665521161075,
                -1.3075139656342274,
                2.29094566100306,
                -0.9473570125382127,
                0.9121798386746139,
                -3.1310610058640216
            ]
        },
        {
            "positions": [
                -0.2732821722840254,
                -1.341119733258394,
                2.3548251413398074,
                -0.9807339378607007,
                1.0686984628620564,
                -3.1187753614931997
            ]
        },
        {
            "positions": [
                -0.33929779245194336,
                -1.3747255008825605,
                2.4187046216765546,
                -1.0141108631831888,
                1.225217087049499,
                -3.1064897171223778
            ]
        }
    ]
}{
    "goal": {
        "global_pose": {
            "orientation": {
                "w": 0.5084816217422485,
                "x": -0.49083608388900757,
                "y": 0.5182115435600281,
                "z": -0.4816462993621826
            },
            "position": {
                "x": 0.5540239810943604,
                "y": 0.030875300988554955,
                "z": 0.16403168439865112
            }
        },
        "name": "move_to_storage_A"
    },
    "id": "PRMstar_move_to_storage_A_130",
    "joint_names": [
        "shoulder_pan_joint",
        "shoulder_lift_joint",
        "elbow_joint",
        "wrist_1_joint",
        "wrist_2_joint",
        "wrist_3_joint"
    ],
    "metrics": {
        "cart_traj_len": 0.3529086587060255,
        "distance_elbow_joint": 0.4493578649529173,
        "distance_shoulder_lift_joint": 0.2372046242033401,
        "distance_shoulder_pan_joint": 0.4620800136077707,
        "distance_wrist_1_joint": 0.23474425916797936,
        "distance_wrist_2_joint": 1.0973401434688181,
        "distance_wrist_3_joint": 0.0872289914454063,
        "smoothness": 0.0,
        "time": 5.005312941,
        "traj_len": 1.6024842891105773,
        "weighted_distance": 2.018538650205599
    },
    "planner": "PRMstar",
    "start": {
        "state": {
            "elbow_joint": 1.97154746011099,
            "shoulder_lift_joint": -1.13948474672311,
            "shoulder_pan_joint": 0.12281154466712228,
            "wrist_1_joint": -0.7804688027058302,
            "wrist_2_joint": 0.12958655903071145,
            "wrist_3_joint": 3.0906928834467795
        }
    },
    "waypoints": [
        {
            "positions": [
                0.12281154466712228,
                -1.13948474672311,
                1.97154746011099,
                -0.7804688027058302,
                0.12958655903071145,
                3.0906928834467795
            ]
        },
        {
            "positions": [
                0.05680011415172648,
                -1.1733711216093015,
                2.0357414408185495,
                -0.8140036968726844,
                0.28634943666911405,
                3.1031541679389805
            ]
        },
        {
            "positions": [
                -0.009211316363669328,
                -1.2072574964954927,
                2.099935421526109,
                -0.8475385910395385,
                0.44311231430751663,
                3.1156154524311814
            ]
        },
        {
            "positions": [
                -0.07522274687906515,
                -1.2411438713816842,
                2.1641294022336686,
                -0.8810734852063927,
                0.5998751919459192,
                3.1280767369233824
            ]
        },
        {
            "positions": [
                -0.14123417739446092,
                -1.2750302462678758,
                2.2283233829412286,
                -0.9146083793732469,
                0.7566380695843218,
                3.140538021415583
            ]
        },
        {
            "positions": [
                -0.20724560790985674,
                -1.3089166211540673,
                2.292517363648788,
                -0.9481432735401012,
                0.9134009472227245,
                3.152999305907784
            ]
        },
        {
            "positions": [
                -0.27325703842525256,
                -1.3428029960402585,
                2.3567113443563477,
                -0.9816781677069554,
                1.070163824861127,
                3.165460590399985
            ]
        },
        {
            "positions": [
                -0.3392684689406484,
                -1.37668937092645,
                2.420905325063907,
                -1.0152130618738096,
                1.2269267024995296,
                3.177921874892186
            ]
        }
    ]
}{
    "goal": {
        "global_pose": {
            "orientation": {
                "w": 0.5084816217422485,
                "x": -0.49083608388900757,
                "y": 0.5182115435600281,
                "z": -0.4816462993621826
            },
            "position": {
                "x": 0.5540239810943604,
                "y": 0.030875300988554955,
                "z": 0.16403168439865112
            }
        },
        "name": "move_to_storage_A"
    },
    "id": "PRMstar_move_to_storage_A_130",
    "joint_names": [
        "shoulder_pan_joint",
        "shoulder_lift_joint",
        "elbow_joint",
        "wrist_1_joint",
        "wrist_2_joint",
        "wrist_3_joint"
    ],
    "metrics": {
        "cart_traj_len": 0.35248884322375035,
        "distance_elbow_joint": 0.44796977912710245,
        "distance_shoulder_lift_joint": 0.2357696437424215,
        "distance_shoulder_pan_joint": 0.45864465246911224,
        "distance_wrist_1_joint": 0.23404553408237794,
        "distance_wrist_2_joint": 1.1078831207005817,
        "distance_wrist_3_joint": 0.088768673548965,
        "smoothness": 8.881784213138256e-16,
        "time": 5.001751354,
        "traj_len": 1.6040827296840277,
        "weighted_distance": 2.0230045490684025
    },
    "planner": "PRMstar",
    "start": {
        "state": {
            "elbow_joint": 1.9715472970024885,
            "shoulder_lift_joint": -1.1394870060712896,
            "shoulder_pan_joint": 0.12281152778156021,
            "wrist_1_joint": -0.780463741449964,
            "wrist_2_joint": 0.12958659822042276,
            "wrist_3_joint": 3.090690232415272
        }
    },
    "waypoints": [
        {
            "positions": [
                0.12281152778156021,
                -1.1394870060712896,
                1.9715472970024885,
                -0.780463741449964,
                0.12958659822042276,
                3.090690232415272
            ]
        },
        {
            "positions": [
                0.057290863143115614,
                -1.1731683837487783,
                2.035542979734932,
                -0.8138988177474465,
                0.287855615463363,
                3.1033714714936953
            ]
        },
        {
            "positions": [
                -0.008229801495328981,
                -1.2068497614262672,
                2.099538662467375,
                -0.8473338940449291,
                0.4461246327063032,
                3.116052710572119
            ]
        },
        {
            "positions": [
                -0.07375046613377359,
                -1.240531139103756,
                2.1635343451998184,
                -0.8807689703424116,
                0.6043936499492435,
                3.1287339496505426
            ]
        },
        {
            "positions": [
                -0.13927113077221817,
                -1.2742125167812448,
                2.227530027932261,
                -0.9142040466398942,
                0.7626626671921837,
                3.141415188728966
            ]
        },
        {
            "positions": [
                -0.2047917954106628,
                -1.3078938944587335,
                2.2915257106647045,
                -0.9476391229373768,
                0.920931684435124,
                3.1540964278073895
            ]
        },
        {
            "positions": [
                -0.27031246004910736,
                -1.3415752721362222,
                2.3555213933971477,
                -0.9810741992348594,
                1.0792007016780643,
                3.1667776668858134
            ]
        },
        {
            "positions": [
                -0.335833124687552,
                -1.375256649813711,
                2.419517076129591,
                -1.014509275532342,
                1.2374697189210044,
                3.179458905964237
            ]
        }
    ]
}