{
    "goal": {
        "global_pose": {
            "orientation": {
                "w": -0.4816463035849501,
                "x": 0.5182115481033762,
                "y": 0.4908360881923453,
                "z": -0.5084816262002911
            },
            "position": {
                "x": -0.8240239810943604,
                "y": -0.300875300988555,
                "z": 0.16403168439865112
            }
        },
        "name": "move_to_storage_C"
    },
    "id": "PRMstar_move_to_storage_C_129",
    "joint_names": [
        "shoulder_pan_joint",
        "shoulder_lift_joint",
        "elbow_joint",
        "wrist_1_joint",
        "wrist_2_joint",
        "wrist_3_joint"
    ],
    "metrics": {
        "cart_traj_len": 0.5765127445112079,
        "distance_elbow_joint": 0.2540744613815795,
        "distance_shoulder_lift_joint": 0.18741342660880345,
        "distance_shoulder_pan_joint": 0.496526678676525,
        "distance_wrist_1_joint": 0.06962245943012213,
        "distance_wrist_2_joint": 1.0585861555877516,
        "distance_wrist_3_joint": 0.057584003343619905,
        "smoothness": 2.5376526478085547e-16,
        "time": 5.005494363,
        "traj_len": 1.4573287841212776,
        "weighted_distance": 1.8349887756423786
    },
    "planner": "PRMstar",
    "start": {
        "state": {
            "elbow_joint": 2.010868314990456,
            "shoulder_lift_joint": -1.1634956873337592,
            "shoulder_pan_joint": -2.4736205022346125,
            "wrist_1_joint": -0.8367026794202681,
            "wrist_2_joint": 0.6746043897044499,
            "wrist_3_joint": -3.1496632123970403
        }
    },
    "waypoints": [
        {
            "positions": [
                -2.4736205022346125,
                -1.1634956873337592,
                2.010868314990456,
                -0.8367026794202681,
                0.6746043897044499,
                -3.1496632123970403
            ]
        },
        {
            "positions": [
                -2.5563749486807,
                -1.1322601162322918,
                1.9685225714268593,
                -0.8250989361819144,
                0.8510354156357418,
                -3.140065878506437
            ]
        },
        {
            "positions": [
                -2.6391293951267873,
                -1.1010245451308247,
                1.9261768278632627,
                -0.8134951929435608,
                1.0274664415670338,
                -3.130468544615834
            ]
        },
        {
            "positions": [
                -2.721883841572875,
                -1.0697889740293576,
                1.8838310842996662,
                -0.801891449705207,
                1.2038974674983258,
                -3.1208712107252303
            ]
        },
        {
            "positions": [
                -2.8046382880189626,
                -1.0385534029278902,
                1.8414853407360694,
                -0.7902877064668533,
                1.3803284934296176,
                -3.111273876834627
            ]
        },
        {
            "positions": [
                -2.88739273446505,
                -1.0073178318264229,
                1.7991395971724728,
                -0.7786839632284996,
                1.5567595193609096,
                -3.101676542944024
            ]
        },
        {
            "positions": [
                -2.9701471809111375,
                -0.9760822607249557,
                1.7567938536088763,
                -0.767080219990146,
                1.7331905452922016,
                -3.0920792090534204
            ]
        }
    ]
}