{
    "goal": {
        "global_pose": {
            "orientation": {
                "w": -0.00223480608172531,
                "x": 0.0024358444001904467,
                "y": 0.7094548369677653,
                "z": -0.704743149386269
            },
            "position": {
                "x": 0.6205249238014221,
                "y": -0.6371506643295288,
                "z": 0.19426114857196808
            }
        },
        "name": "move_to_magneteinheit_B"
    },
    "id": "PRMstar_move_to_magneteinheit_B_82",
    "joint_names": [
        "shoulder_pan_joint",
        "shoulder_lift_joint",
        "elbow_joint",
        "wrist_1_joint",
        "wrist_2_joint",
        "wrist_3_joint"
    ],
    "metrics": {
        "cart_traj_len": 4.08569653029694,
        "distance_elbow_joint": 4.2858783655624535,
        "distance_shoulder_lift_joint": 1.1780767956408646,
        "distance_shoulder_pan_joint": 5.142753556408243,
        "distance_wrist_1_joint": 1.1484178987296951,
        "distance_wrist_2_joint": 2.301627250190131,
        "distance_wrist_3_joint": 6.701617753947178,
        "smoothness": 0.5133877171821687,
        "time": 5.121242908,
        "traj_len": 4.5561356016341925,
        "weighted_distance": 6.132833951550681
    },
    "planner": "PRMstar",
    "start": {
        "state": {
            "elbow_joint": 2.6216224122426386,
            "shoulder_lift_joint": -1.4174107377796124,
            "shoulder_pan_joint": 0.7066234856936794,
            "wrist_1_joint": 1.9546482284002225,
            "wrist_2_joint": -0.7096286983471962,
            "wrist_3_joint": 0.005740856962016249
        }
    },
    "waypoints": [
        {
            "positions": [
                0.7066234856936794,
                -1.4174107377796124,
                2.6216224122426386,
                1.9546482284002225,
                -0.7096286983471962,
                0.005740856962016249
            ]
        },
        {
            "positions": [
                0.6524113887867531,
                -1.4372091444029684,
                2.6130384649071927,
                1.9492409064009615,
                -0.7069895622078495,
                -0.0018480472721516747
            ]
        },
        {
            "positions": [
                0.46367567486685757,
                -1.496660481889824,
                2.544138175004605,
                1.9382008143355205,
                -0.6817656585221415,
                -0.027335461302424802
            ]
        },
        {
            "positions": [
                0.274939960946962,
                -1.5561118193766792,
                2.475237885102017,
                1.9271607222700797,
                -0.6565417548364336,
                -0.05282287533269793
            ]
        },
        {
            "positions": [
                0.19903276547489576,
                -1.5497476682773934,
                2.276973868208902,
                1.9381274170449783,
                -0.58083925170538,
                -0.06224760982380236
            ]
        },
        {
            "positions": [
                0.12312557000282953,
                -1.5433835171781076,
                2.078709851315787,
                1.9490941118198768,
                -0.5051367485743262,
                -0.0716723443149068
            ]
        },
        {
            "positions": [
                0.0472183745307633,
                -1.537019366078822,
                1.8804458344226724,
                1.960060806594775,
                -0.4294342454432725,
                -0.08109707880601122
            ]
        },
        {
            "positions": [
                -0.028688820941302928,
                -1.5306552149795363,
                1.6821818175295575,
                1.9710275013696736,
                -0.3537317423122188,
                -0.09052181329711566
            ]
        },
        {
            "positions": [
                -0.10459601641336919,
                -1.5242910638802505,
                1.4839178006364426,
                1.9819941961445722,
                -0.27802923918116507,
                -0.0999465477882201
            ]
        },
        {
            "positions": [
                -0.1805032118854354,
                -1.5179269127809647,
                1.285653783743328,
                1.9929608909194707,
                -0.20232673605011142,
                -0.10937128227932452
            ]
        },
        {
            "positions": [
                -0.2564104073575017,
                -1.5115627616816791,
                1.0873897668502128,
                2.003927585694369,
                -0.12662423291905767,
                -0.11879601677042896
            ]
        },
        {
            "positions": [
                -0.33231760282956785,
                -1.5051986105823933,
                0.8891257499570981,
                2.0148942804692678,
                -0.05092172978800402,
                -0.12822075126153337
            ]
        },
        {
            "positions": [
                -0.4082247983016341,
                -1.4988344594831076,
                0.6908617330639834,
                2.025860975244166,
                0.024780773343049695,
                -0.13764548575263783
            ]
        },
        {
            "positions": [
                -0.2539354796613488,
                -1.5058587582658314,
                0.6311324965744889,
                2.019296903577699,
                0.00048121942440659815,
                -0.27741833781302
            ]
        },
        {
            "positions": [
                -0.09964616102106338,
                -1.512883057048555,
                0.5714032600849945,
                2.012732831911232,
                -0.0238183344942365,
                -0.4171911898734022
            ]
        },
        {
            "positions": [
                0.05464315761922195,
                -1.5199073558312788,
                0.5116740235955001,
                2.0061687602447655,
                -0.0481178884128796,
                -0.5569640419337843
            ]
        },
        {
            "positions": [
                0.20893247625950734,
                -1.5269316546140026,
                0.45194478710600566,
                1.9996046885782983,
                -0.0724174423315227,
                -0.6967368939941665
            ]
        },
        {
            "positions": [
                0.3632217948997927,
                -1.5339559533967264,
                0.39221555061651125,
                1.9930406169118315,
                -0.09671699625016579,
                -0.8365097460545488
            ]
        },
        {
            "positions": [
                0.5175111135400781,
                -1.54098025217945,
                0.33248631412701685,
                1.9864765452453645,
                -0.1210165501688089,
                -0.9762825981149309
            ]
        },
        {
            "positions": [
                0.6718004321803634,
                -1.5480045509621738,
                0.2727570776375224,
                1.9799124735788975,
                -0.145316104087452,
                -1.1160554501753133
            ]
        },
        {
            "positions": [
                0.8260897508206488,
                -1.5550288497448976,
                0.21302784114802797,
                1.9733484019124308,
                -0.16961565800609507,
                -1.2558283022356953
            ]
        },
        {
            "positions": [
                0.9803790694609342,
                -1.5620531485276214,
                0.1532986046585335,
                1.9667843302459638,
                -0.19391521192473818,
                -1.3956011542960778
            ]
        },
        {
            "positions": [
                1.1346683881012196,
                -1.569077447310345,
                0.09356936816903916,
                1.960220258579497,
                -0.21821476584338126,
                -1.5353740063564598
            ]
        },
        {
            "positions": [
                1.288957706741505,
                -1.5761017460930689,
                0.033840131679544694,
                1.95365618691303,
                -0.24251431976202434,
                -1.675146858416842
            ]
        },
        {
            "positions": [
                1.4432470253817902,
                -1.5831260448757927,
                -0.02588910480994966,
                1.947092115246563,
                -0.2668138736806675,
                -1.8149197104772241
            ]
        },
        {
            "positions": [
                1.5975363440220753,
                -1.5901503436585165,
                -0.08561834129944401,
                1.9405280435800962,
                -0.2911134275993106,
                -1.9546925625376061
            ]
        },
        {
            "positions": [
                1.751825662662361,
                -1.59717464244124,
                -0.1453475777889386,
                1.9339639719136292,
                -0.3154129815179537,
                -2.0944654145979884
            ]
        },
        {
            "positions": [
                1.9061149813026466,
                -1.604198941223964,
                -0.20507681427843294,
                1.9273999002471622,
                -0.3397125354365968,
                -2.2342382666583704
            ]
        },
        {
            "positions": [
                2.0604042999429315,
                -1.6112232400066877,
                -0.2648060507679274,
                1.9208358285806955,
                -0.3640120893552399,
                -2.3740111187187525
            ]
        },
        {
            "positions": [
                2.2146936185832167,
                -1.6182475387894115,
                -0.32453528725742176,
                1.9142717569142285,
                -0.38831164327388296,
                -2.513783970779135
            ]
        },
        {
            "positions": [
                2.3689829372235023,
                -1.6252718375721351,
                -0.38426452374691633,
                1.9077076852477615,
                -0.4126111971925261,
                -2.6535568228395174
            ]
        },
        {
            "positions": [
                2.5232722558637874,
                -1.632296136354859,
                -0.4439937602364107,
                1.9011436135812947,
                -0.43691075111116917,
                -2.7933296748998995
            ]
        },
        {
            "positions": [
                2.677561574504073,
                -1.6393204351375827,
                -0.503722996725905,
                1.8945795419148277,
                -0.46121030502981225,
                -2.9331025269602815
            ]
        },
        {
            "positions": [
                2.8318508931443582,
                -1.6463447339203063,
                -0.5634522332153994,
                1.8880154702483607,
                -0.4855098589484553,
                -3.0728753790206635
            ]
        },
        {
            "positions": [
                2.986140211784644,
                -1.6533690327030302,
                -0.623181469704894,
                1.881451398581894,
                -0.5098094128670984,
                -3.212648231081046
            ]
        },
        {
            "positions": [
                3.140429530424929,
                -1.660393331485754,
                -0.6829107061943884,
                1.874887326915427,
                -0.5341089667857415,
                -3.352421083141428
            ]
        },
        {
            "positions": [
                3.115205796546699,
                -1.7035796200198372,
                -0.734560456043095,
                1.829031722110336,
                -0.48103907002936813,
                -3.176449724518074
            ]
        },
        {
            "positions": [
                3.0899820626684686,
                -1.7467659085539202,
                -0.7862102058918014,
                1.7831761173052452,
                -0.42796917327299483,
                -3.000478365894719
            ]
        },
        {
            "positions": [
                3.0647583287902385,
                -1.7899521970880035,
                -0.8378599557405079,
                1.7373205125001543,
                -0.37489927651662147,
                -2.824507007271365
            ]
        },
        {
            "positions": [
                3.0395345949120083,
                -1.8331384856220865,
                -0.8895097055892144,
                1.6914649076950634,
                -0.32182937976024817,
                -2.6485356486480107
            ]
        },
        {
            "positions": [
                3.014310861033778,
                -1.8763247741561697,
                -0.9411594554379208,
                1.6456093028899725,
                -0.2687594830038748,
                -2.472564290024656
            ]
        },
        {
            "positions": [
                2.989087127155548,
                -1.919511062690253,
                -0.9928092052866273,
                1.5997536980848817,
                -0.21568958624750145,
                -2.296592931401302
            ]
        },
        {
            "positions": [
                2.9638633932773177,
                -1.962697351224336,
                -1.0444589551353338,
                1.5538980932797908,
                -0.1626196894911281,
                -2.1206215727779476
            ]
        },
        {
            "positions": [
                2.9386396593990876,
                -2.005883639758419,
                -1.0961087049840403,
                1.5080424884747,
                -0.10954979273475479,
                -1.9446502141545932
            ]
        },
        {
            "positions": [
                2.913415925520858,
                -2.0490699282925022,
                -1.1477584548327466,
                1.462186883669609,
                -0.056479895978381434,
                -1.768678855531239
            ]
        },
        {
            "positions": [
                2.888192191642627,
                -2.0922562168265855,
                -1.1994082046814531,
                1.4163312788645182,
                -0.003409999222008131,
                -1.5927074969078845
            ]
        },
        {
            "positions": [
                2.8629684577643975,
                -2.1354425053606687,
                -1.2510579545301597,
                1.3704756740594273,
                0.04965989753436528,
                -1.41673613828453
            ]
        },
        {
            "positions": [
                2.8377447238861673,
                -2.1786287938947515,
                -1.3027077043788662,
                1.3246200692543364,
                0.10272979429073859,
                -1.2407647796611756
            ]
        },
        {
            "positions": [
                2.812520990007937,
                -2.2218150824288347,
                -1.3543574542275727,
                1.2787644644492453,
                0.155799691047112,
                -1.0647934210378214
            ]
        },
        {
            "positions": [
                2.787297256129707,
                -2.265001370962918,
                -1.4060072040762792,
                1.2329088596441546,
                0.2088695878034853,
                -0.8888220624144672
            ]
        },
        {
            "positions": [
                2.7620735222514767,
                -2.308187659497001,
                -1.4576569539249857,
                1.1870532548390635,
                0.2619394845598587,
                -0.7128507037911125
            ]
        },
        {
            "positions": [
                2.7368497883732466,
                -2.3513739480310845,
                -1.5093067037736922,
                1.1411976500339729,
                0.3150093813162319,
                -0.5368793451677583
            ]
        },
        {
            "positions": [
                2.7116260544950164,
                -2.3945602365651677,
                -1.5609564536223988,
                1.0953420452288818,
                0.3680792780726053,
                -0.36090798654440404
            ]
        },
        {
            "positions": [
                2.686402320616786,
                -2.4377465250992505,
                -1.612606203471105,
                1.0494864404237911,
                0.4211491748289786,
                -0.1849366279210498
            ]
        },
        {
            "positions": [
                2.661178586738556,
                -2.4809328136333337,
                -1.6642559533198116,
                1.0036308356187,
                0.474219071585352,
                -0.008965269297695339
            ]
        }
    ]
}