{
    "goal": {
        "global_pose": {
            "orientation": {
                "w": 0.7031023480610252,
                "x": -0.7110244013736278,
                "y": 0.0077485991402295624,
                "z": 0.005598929693374583
            },
            "position": {
                "x": -0.8841497679147869,
                "y": 0.44412534475326537,
                "z": 0.3711530566215515
            }
        },
        "name": "move_to_auspresseinheit_D"
    },
    "id": "PRMstar_move_to_auspresseinheit_D_128",
    "joint_names": [
        "shoulder_pan_joint",
        "shoulder_lift_joint",
        "elbow_joint",
        "wrist_1_joint",
        "wrist_2_joint",
        "wrist_3_joint"
    ],
    "metrics": {
        "cart_traj_len": 0.34234044719063067,
        "distance_elbow_joint": 0.6272308414115579,
        "distance_shoulder_lift_joint": 0.11566864527211651,
        "distance_shoulder_pan_joint": 0.13421445911988397,
        "distance_wrist_1_joint": 0.5015025155100123,
        "distance_wrist_2_joint": 1.4364089674802416,
        "distance_wrist_3_joint": 0.026770180637707863,
        "smoothness": 7.894919286223335e-16,
        "time": 5.010258961,
        "traj_len": 1.6857626195379707,
        "weighted_distance": 2.198464794736816
    },
    "planner": "PRMstar",
    "start": {
        "state": {
            "elbow_joint": -1.8275523626775212,
            "shoulder_lift_joint": -2.126789852344167,
            "shoulder_pan_joint": -0.03513704404078235,
            "wrist_1_joint": -2.347782403156801,
            "wrist_2_joint": -1.6058999987535132,
            "wrist_3_joint": -3.0880379163319196
        }
    },
    "waypoints": [
        {
            "positions": [
                -0.03513704404078235,
                -2.126789852344167,
                -1.8275523626775212,
                -2.347782403156801,
                -1.6058999987535132,
                -3.0880379163319196
            ]
        },
        {
            "positions": [
                -0.05191385143076785,
                -2.1412484330031814,
                -1.7491485075010764,
                -2.4104702175955524,
                -1.426348877818483,
                -3.091384188911633
            ]
        },
        {
            "positions": [
                -0.06869065882075334,
                -2.155707013662196,
                -1.6707446523246317,
                -2.473158032034304,
                -1.2467977568834527,
                -3.0947304614913467
            ]
        },
        {
            "positions": [
                -0.08546746621073883,
                -2.1701655943212104,
                -1.5923407971481869,
                -2.5358458464730553,
                -1.0672466359484227,
                -3.09807673407106
            ]
        },
        {
            "positions": [
                -0.10224427360072433,
                -2.1846241749802253,
                -1.5139369419717421,
                -2.598533660911807,
                -0.8876955150133924,
                -3.1014230066507738
            ]
        },
        {
            "positions": [
                -0.11902108099070982,
                -2.19908275563924,
                -1.4355330867952976,
                -2.6612214753505588,
                -0.7081443940783622,
                -3.104769279230487
            ]
        },
        {
            "positions": [
                -0.13579788838069534,
                -2.2135413362982543,
                -1.3571292316188528,
                -2.7239092897893102,
                -0.528593273143332,
                -3.1081155518102004
            ]
        },
        {
            "positions": [
                -0.15257469577068083,
                -2.227999916957269,
                -1.278725376442408,
                -2.7865971042280617,
                -0.3490421522083018,
                -3.111461824389914
            ]
        },
        {
            "positions": [
                -0.16935150316066633,
                -2.2424584976162834,
                -1.2003215212659633,
                -2.849284918666813,
                -0.16949103127327156,
                -3.1148080969696275
            ]
        }
    ]
}