{
    "goal": {
        "global_pose": {
            "orientation": {
                "w": 0.005598929693374612,
                "x": 0.007748599140229565,
                "y": 0.7110244013736278,
                "z": -0.7031023480610252
            },
            "position": {
                "x": -0.8858502320852131,
                "y": -0.7141253447532654,
                "z": 0.3711530566215515
            }
        },
        "name": "move_to_auspresseinheit_C"
    },
    "id": "PRMstar_move_to_auspresseinheit_C_116",
    "joint_names": [
        "shoulder_pan_joint",
        "shoulder_lift_joint",
        "elbow_joint",
        "wrist_1_joint",
        "wrist_2_joint",
        "wrist_3_joint"
    ],
    "metrics": {
        "cart_traj_len": 0.4919923611677128,
        "distance_elbow_joint": 0.9865749817273031,
        "distance_shoulder_lift_joint": 0.31906799312707235,
        "distance_shoulder_pan_joint": 0.2567147598593653,
        "distance_wrist_1_joint": 0.655434432684643,
        "distance_wrist_2_joint": 1.305432492156382,
        "distance_wrist_3_joint": 0.04285983948652117,
        "smoothness": 1.1304088990788627e-15,
        "time": 5.009020297,
        "traj_len": 1.8884079270754206,
        "weighted_distance": 2.3691076596168767
    },
    "planner": "PRMstar",
    "start": {
        "state": {
            "elbow_joint": 1.7527959577737207,
            "shoulder_lift_joint": -0.9740617694225068,
            "shoulder_pan_joint": -2.967991417825858,
            "wrist_1_joint": -0.759517768980727,
            "wrist_2_joint": 1.7443932448377408,
            "wrist_3_joint": -3.0840537646736568
        }
    },
    "waypoints": [
        {
            "positions": [
                -2.967991417825858,
                -0.9740617694225068,
                1.7527959577737207,
                -0.759517768980727,
                1.7443932448377408,
                -3.0840537646736568
            ]
        },
        {
            "positions": [
                -2.9423199418399215,
                -0.9421549701097995,
                1.6541384596009903,
                -0.6939743257122627,
                1.6138499956221026,
                -3.088339748622309
            ]
        },
        {
            "positions": [
                -2.916648465853985,
                -0.9102481707970923,
                1.55548096142826,
                -0.6284308824437984,
                1.4833067464064644,
                -3.092625732570961
            ]
        },
        {
            "positions": [
                -2.890976989868048,
                -0.8783413714843851,
                1.4568234632555297,
                -0.5628874391753341,
                1.3527634971908262,
                -3.096911716519613
            ]
        },
        {
            "positions": [
                -2.8653055138821117,
                -0.8464345721716778,
                1.3581659650827995,
                -0.4973439959068698,
                1.222220247975188,
                -3.101197700468265
            ]
        },
        {
            "positions": [
                -2.8396340378961753,
                -0.8145277728589706,
                1.2595084669100691,
                -0.4318005526384055,
                1.0916769987595498,
                -3.1054836844169174
            ]
        },
        {
            "positions": [
                -2.813962561910239,
                -0.7826209735462634,
                1.1608509687373387,
                -0.3662571093699412,
                0.9611337495439116,
                -3.1097696683655696
            ]
        },
        {
            "positions": [
                -2.7882910859243024,
                -0.7507141742335561,
                1.0621934705646086,
                -0.30071366610147693,
                0.8305905003282735,
                -3.1140556523142218
            ]
        },
        {
            "positions": [
                -2.7626196099383655,
                -0.7188073749208489,
                0.9635359723918782,
                -0.2351702228330126,
                0.7000472511126352,
                -3.1183416362628735
            ]
        },
        {
            "positions": [
                -2.736948133952429,
                -0.6869005756081417,
                0.8648784742191479,
                -0.1696267795645483,
                0.569504001896997,
                -3.1226276202115257
            ]
        },
        {
            "positions": [
                -2.7112766579664926,
                -0.6549937762954344,
                0.7662209760464176,
                -0.10408333629608402,
                0.4389607526813588,
                -3.126913604160178
            ]
        }
    ]
}