{
    "goal": {
        "global_pose": {
            "orientation": {
                "w": 0.7031023502349854,
                "x": -0.7110244035720825,
                "y": 0.007748599164187908,
                "z": 0.005598929710686207
            },
            "position": {
                "x": 0.11585023208521307,
                "y": 0.44412534475326537,
                "z": 0.3711530566215515
            }
        },
        "name": "move_to_auspresseinheit_A"
    },
    "id": "PRMstar_move_to_auspresseinheit_A_63",
    "joint_names": [
        "shoulder_pan_joint",
        "shoulder_lift_joint",
        "elbow_joint",
        "wrist_1_joint",
        "wrist_2_joint",
        "wrist_3_joint"
    ],
    "metrics": {
        "cart_traj_len": 0.6810903205410466,
        "distance_elbow_joint": 0.5227839258614289,
        "distance_shoulder_lift_joint": 0.5533286428261799,
        "distance_shoulder_pan_joint": 1.0461385094139801,
        "distance_wrist_1_joint": 1.315783092672156,
        "distance_wrist_2_joint": 2.3137522341925045,
        "distance_wrist_3_joint": 0.6603176685259617,
        "smoothness": 1.1465335304432318,
        "time": 5.016073409,
        "traj_len": 2.532213275672531,
        "weighted_distance": 3.3707973444585475
    },
    "planner": "PRMstar",
    "start": {
        "state": {
            "elbow_joint": 2.4225746658250005,
            "shoulder_lift_joint": -1.3736534386056498,
            "shoulder_pan_joint": -0.3378633547517467,
            "wrist_1_joint": -1.0288598680537169,
            "wrist_2_joint": 1.233022673432363,
            "wrist_3_joint": -3.0940220416140027
        }
    },
    "waypoints": [
        {
            "positions": [
                -0.3378633547517467,
                -1.3736534386056498,
                2.4225746658250005,
                -1.0288598680537169,
                1.233022673432363,
                -3.0940220416140027
            ]
        },
        {
            "positions": [
                -0.2914262769747846,
                -1.4342516816489228,
                2.4501912115588564,
                -1.0715820758950918,
                1.0755562799589113,
                -3.0591090848749425
            ]
        },
        {
            "positions": [
                -0.24498919919782253,
                -1.4948499246921958,
                2.477807757292712,
                -1.1143042837364667,
                0.9180898864854595,
                -3.0241961281358827
            ]
        },
        {
            "positions": [
                -0.19855212142086046,
                -1.5554481677354688,
                2.505424303026568,
                -1.1570264915778417,
                0.7606234930120077,
                -2.9892831713968224
            ]
        },
        {
            "positions": [
                -0.15211504364389836,
                -1.6160464107787418,
                2.533040848760424,
                -1.1997486994192166,
                0.603157099538556,
                -2.9543702146577626
            ]
        },
        {
            "positions": [
                -0.10567796586693626,
                -1.6766446538220148,
                2.5606573944942794,
                -1.2424709072605917,
                0.4456907060651041,
                -2.9194572579187024
            ]
        },
        {
            "positions": [
                -0.059240888089974186,
                -1.7372428968652878,
                2.5882739402281354,
                -1.2851931151019667,
                0.2882243125916524,
                -2.8845443011796426
            ]
        },
        {
            "positions": [
                -0.012803810313012087,
                -1.7978411399085608,
                2.6158904859619914,
                -1.3279153229433416,
                0.13075791911820067,
                -2.8496313444405823
            ]
        },
        {
            "positions": [
                0.03363326746395001,
                -1.8584393829518338,
                2.643507031695847,
                -1.3706375307847165,
                -0.026708474355251033,
                -2.8147183877015225
            ]
        },
        {
            "positions": [
                0.08007034524091214,
                -1.9190376259951067,
                2.671123577429703,
                -1.4133597386260914,
                -0.1841748678287029,
                -2.7798054309624622
            ]
        },
        {
            "positions": [
                0.1585959464185773,
                -1.9180445690655163,
                2.6368442006476123,
                -1.2969493358636188,
                -0.07210553121227312,
                -2.823068063196765
            ]
        },
        {
            "positions": [
                0.23712154759624246,
                -1.917051512135926,
                2.6025648238655212,
                -1.180538933101146,
                0.03996380540415667,
                -2.8663306954310674
            ]
        },
        {
            "positions": [
                0.31564714877390765,
                -1.9160584552063356,
                2.56828544708343,
                -1.0641285303386734,
                0.15203314202058643,
                -2.90959332766537
            ]
        },
        {
            "positions": [
                0.3941727499515728,
                -1.9150653982767452,
                2.5340060703013396,
                -0.9477181275762008,
                0.26410247863701625,
                -2.952855959899673
            ]
        },
        {
            "positions": [
                0.47269835112923797,
                -1.914072341347155,
                2.499726693519249,
                -0.8313077248137282,
                0.37617181525344606,
                -2.9961185921339757
            ]
        },
        {
            "positions": [
                0.5512239523069031,
                -1.9130792844175646,
                2.465447316737158,
                -0.7148973220512554,
                0.48824115186987577,
                -3.0393812243682783
            ]
        },
        {
            "positions": [
                0.6297495534845683,
                -1.9120862274879742,
                2.431167939955067,
                -0.5984869192887827,
                0.6003104884863055,
                -3.082643856602581
            ]
        },
        {
            "positions": [
                0.7082751546622335,
                -1.9110931705583838,
                2.3968885631729764,
                -0.48207651652631006,
                0.7123798251027355,
                -3.1259064888368835
            ]
        }
    ]
}