{
    "goal": {
        "global_pose": {
            "orientation": {
                "w": -0.4816463035849501,
                "x": 0.5182115481033762,
                "y": 0.4908360881923453,
                "z": -0.5084816262002911
            },
            "position": {
                "x": -0.8240239810943604,
                "y": -0.300875300988555,
                "z": 0.16403168439865112
            }
        },
        "name": "move_to_storage_C"
    },
    "id": "PRMstar_move_to_storage_C_99",
    "joint_names": [
        "shoulder_pan_joint",
        "shoulder_lift_joint",
        "elbow_joint",
        "wrist_1_joint",
        "wrist_2_joint",
        "wrist_3_joint"
    ],
    "metrics": {
        "cart_traj_len": 0.5766586366891737,
        "distance_elbow_joint": 0.25432498902047374,
        "distance_shoulder_lift_joint": 0.1886696003174958,
        "distance_shoulder_pan_joint": 0.4957661953297503,
        "distance_wrist_1_joint": 0.06549645924082836,
        "distance_wrist_2_joint": 1.06175836451591,
        "distance_wrist_3_joint": 0.06833936677357944,
        "smoothness": 0.0,
        "time": 5.01532615,
        "traj_len": 1.4609431800032602,
        "weighted_distance": 1.8434447462568373
    },
    "planner": "PRMstar",
    "start": {
        "state": {
            "elbow_joint": 2.010868314990456,
            "shoulder_lift_joint": -1.1634956873337592,
            "shoulder_pan_joint": -2.4736205022346125,
            "wrist_1_joint": -0.8367026794202681,
            "wrist_2_joint": 0.6746043897044499,
            "wrist_3_joint": -3.1496632123970403
        }
    },
    "waypoints": [
        {
            "positions": [
                -2.4736205022346125,
                -1.1634956873337592,
                2.010868314990456,
                -0.8367026794202681,
                0.6746043897044499,
                -3.1496632123970403
            ]
        },
        {
            "positions": [
                -2.5562482014562375,
                -1.13205075394751,
                1.968480816820377,
                -0.8257866028801301,
                0.8515641171237682,
                -3.138273317934777
            ]
        },
        {
            "positions": [
                -2.6388759006778626,
                -1.1006058205612606,
                1.926093318650298,
                -0.814870526339992,
                1.0285238445430867,
                -3.126883423472514
            ]
        },
        {
            "positions": [
                -2.7215035998994876,
                -1.0691608871750113,
                1.8837058204802188,
                -0.8039544497998539,
                1.205483571962405,
                -3.1154935290102506
            ]
        },
        {
            "positions": [
                -2.8041312991211127,
                -1.037715953788762,
                1.84131832231014,
                -0.7930383732597158,
                1.3824432993817233,
                -3.1041036345479873
            ]
        },
        {
            "positions": [
                -2.8867589983427377,
                -1.0062710204025127,
                1.798930824140061,
                -0.7821222967195778,
                1.5594030268010417,
                -3.092713740085724
            ]
        },
        {
            "positions": [
                -2.969386697564363,
                -0.9748260870162634,
                1.756543325969982,
                -0.7712062201794397,
                1.7363627542203601,
                -3.081323845623461
            ]
        }
    ]
}