{
    "goal": {
        "global_pose": {
            "orientation": {
                "w": -0.00223480608172531,
                "x": 0.0024358444001904467,
                "y": 0.7094548369677653,
                "z": -0.704743149386269
            },
            "position": {
                "x": 0.6205249238014221,
                "y": -0.6371506643295288,
                "z": 0.19426114857196808
            }
        },
        "name": "move_to_magneteinheit_B"
    },
    "id": "PRMstar_move_to_magneteinheit_B_62",
    "joint_names": [
        "shoulder_pan_joint",
        "shoulder_lift_joint",
        "elbow_joint",
        "wrist_1_joint",
        "wrist_2_joint",
        "wrist_3_joint"
    ],
    "metrics": {
        "cart_traj_len": 4.3731309828724845,
        "distance_elbow_joint": 6.140653488548784,
        "distance_shoulder_lift_joint": 2.6085814525182274,
        "distance_shoulder_pan_joint": 2.44458184701991,
        "distance_wrist_1_joint": 6.000660351049286,
        "distance_wrist_2_joint": 5.404383606272089,
        "distance_wrist_3_joint": 3.899013910976408,
        "smoothness": 0.5331908324551524,
        "time": 5.067620139,
        "traj_len": 5.147608634733678,
        "weighted_distance": 6.760247512899134
    },
    "planner": "PRMstar",
    "start": {
        "state": {
            "elbow_joint": 2.6216224122426386,
            "shoulder_lift_joint": -1.4174107377796124,
            "shoulder_pan_joint": 0.7066234856936794,
            "wrist_1_joint": 1.9546482284002225,
            "wrist_2_joint": -0.7096286983471962,
            "wrist_3_joint": 0.005740856962016249
        }
    },
    "waypoints": [
        {
            "positions": [
                0.7066234856936794,
                -1.4174107377796124,
                2.6216224122426386,
                1.9546482284002225,
                -0.7096286983471962,
                0.005740856962016249
            ]
        },
        {
            "positions": [
                0.6453461581868117,
                -1.3918063501365303,
                2.5741507038721294,
                1.9682447081664352,
                -0.49919286798552626,
                0.03212219167354509
            ]
        },
        {
            "positions": [
                0.5840688306799441,
                -1.3662019624934483,
                2.5266789955016202,
                1.9818411879326476,
                -0.2887570376238563,
                0.05850352638507393
            ]
        },
        {
            "positions": [
                0.5227915031730764,
                -1.3405975748503665,
                2.479207287131111,
                1.99543766769886,
                -0.07832120726218639,
                0.08488486109660277
            ]
        },
        {
            "positions": [
                0.4615141756662088,
                -1.3149931872072844,
                2.431735578760602,
                2.009034147465073,
                0.13211462309948357,
                0.11126619580813162
            ]
        },
        {
            "positions": [
                0.4703102678833272,
                -1.312116277534971,
                2.355878161492172,
                2.0464386528351284,
                0.35323107400867426,
                0.08118772336709223
            ]
        },
        {
            "positions": [
                0.4791063601004456,
                -1.3092393678626577,
                2.2800207442237426,
                2.083843158205184,
                0.5743475249178649,
                0.05110925092605284
            ]
        },
        {
            "positions": [
                0.5787129185785465,
                -1.3482719526403426,
                2.247104062156873,
                2.04210141662965,
                0.5442179754564267,
                -0.08193678886209943
            ]
        },
        {
            "positions": [
                0.6783194770566473,
                -1.3873045374180275,
                2.2141873800900034,
                2.0003596750541166,
                0.5140884259949885,
                -0.2149828286502517
            ]
        },
        {
            "positions": [
                0.7779260355347482,
                -1.4263371221957124,
                2.181270698023134,
                1.958617933478583,
                0.4839588765335503,
                -0.34802886843840397
            ]
        },
        {
            "positions": [
                0.877532594012849,
                -1.4653697069733973,
                2.148354015956264,
                1.9168761919030493,
                0.4538293270721121,
                -0.48107490822655624
            ]
        },
        {
            "positions": [
                0.9771391524909498,
                -1.5044022917510822,
                2.115437333889395,
                1.8751344503275154,
                0.4236997776106739,
                -0.6141209480147085
            ]
        },
        {
            "positions": [
                1.0767457109690506,
                -1.543434876528767,
                2.0825206518225254,
                1.833392708751982,
                0.3935702281492357,
                -0.7471669878028608
            ]
        },
        {
            "positions": [
                1.1763522694471515,
                -1.582467461306452,
                2.0496039697556556,
                1.791650967176448,
                0.36344067868779745,
                -0.8802130275910132
            ]
        },
        {
            "positions": [
                1.2759588279252525,
                -1.621500046084137,
                2.0166872876887862,
                1.7499092256009143,
                0.3333111292263593,
                -1.0132590673791653
            ]
        },
        {
            "positions": [
                1.3755653864033532,
                -1.6605326308618218,
                1.9837706056219166,
                1.7081674840253807,
                0.30318157976492105,
                -1.1463051071673176
            ]
        },
        {
            "positions": [
                1.409023504273084,
                -1.6780948178598818,
                1.871911952413551,
                1.5662129973101504,
                0.2758012331846914,
                -1.204498907146858
            ]
        },
        {
            "positions": [
                1.4424816221428147,
                -1.6956570048579416,
                1.7600532992051856,
                1.4242585105949201,
                0.24842088660446182,
                -1.2626927071263983
            ]
        },
        {
            "positions": [
                1.4759397400125456,
                -1.7132191918560016,
                1.64819464599682,
                1.2823040238796901,
                0.22104054002423218,
                -1.3208865071059386
            ]
        },
        {
            "positions": [
                1.5093978578822762,
                -1.7307813788540616,
                1.5363359927884543,
                1.1403495371644596,
                0.19366019344400257,
                -1.379080307085479
            ]
        },
        {
            "positions": [
                1.542855975752007,
                -1.7483435658521216,
                1.424477339580089,
                0.9983950504492296,
                0.16627984686377295,
                -1.4372741070650192
            ]
        },
        {
            "positions": [
                1.5763140936217377,
                -1.7659057528501814,
                1.3126186863717233,
                0.8564405637339993,
                0.1388995002835433,
                -1.4954679070445596
            ]
        },
        {
            "positions": [
                1.6097722114914685,
                -1.7834679398482414,
                1.2007600331633577,
                0.7144860770187691,
                0.1115191537033137,
                -1.5536617070241
            ]
        },
        {
            "positions": [
                1.6432303293611992,
                -1.8010301268463014,
                1.0889013799549923,
                0.5725315903035388,
                0.08413880712308408,
                -1.6118555070036402
            ]
        },
        {
            "positions": [
                1.67668844723093,
                -1.8185923138443612,
                0.9770427267466266,
                0.4305771035883088,
                0.05675846054285444,
                -1.6700493069831808
            ]
        },
        {
            "positions": [
                1.7101465651006607,
                -1.8361545008424212,
                0.8651840735382612,
                0.28862261687307855,
                0.029378113962624852,
                -1.7282431069627209
            ]
        },
        {
            "positions": [
                1.7436046829703915,
                -1.8537166878404812,
                0.7533254203298954,
                0.14666813015784808,
                0.0019977673823951547,
                -1.7864369069422614
            ]
        },
        {
            "positions": [
                1.7770628008401221,
                -1.871278874838541,
                0.64146676712153,
                0.004713643442618043,
                -0.02538257919783443,
                -1.8446307069218015
            ]
        },
        {
            "positions": [
                1.810520918709853,
                -1.888841061836601,
                0.5296081139131643,
                -0.1372408432726122,
                -0.052762925778064074,
                -1.902824506901342
            ]
        },
        {
            "positions": [
                1.8439790365795836,
                -1.906403248834661,
                0.4177494607047989,
                -0.27919532998784247,
                -0.08014327235829366,
                -1.9610183068808822
            ]
        },
        {
            "positions": [
                1.8774371544493145,
                -1.923965435832721,
                0.30589080749643327,
                -0.42114981670307294,
                -0.1075236189385233,
                -2.0192121068604227
            ]
        },
        {
            "positions": [
                1.910895272319045,
                -1.9415276228307807,
                0.19403215428806786,
                -0.563104303418303,
                -0.1349039655187529,
                -2.077405906839963
            ]
        },
        {
            "positions": [
                1.944353390188776,
                -1.9590898098288407,
                0.08217350107970223,
                -0.705058790133533,
                -0.16228431209898253,
                -2.1355997068195034
            ]
        },
        {
            "positions": [
                1.9778115080585068,
                -1.9766519968269007,
                -0.029685152128663406,
                -0.847013276848763,
                -0.18966465867921217,
                -2.193793506799044
            ]
        },
        {
            "positions": [
                2.0112696259282377,
                -1.9942141838249605,
                -0.14154380533702882,
                -0.9889677635639935,
                -0.21704500525944176,
                -2.251987306778584
            ]
        },
        {
            "positions": [
                2.044727743797968,
                -2.0117763708230205,
                -0.2534024585453942,
                -1.1309222502792236,
                -0.24442535183967135,
                -2.310181106758124
            ]
        },
        {
            "positions": [
                2.078185861667699,
                -2.0293385578210805,
                -0.3652611117537599,
                -1.272876736994454,
                -0.27180569841990104,
                -2.3683749067376647
            ]
        },
        {
            "positions": [
                2.092008733597163,
                -1.990722503919134,
                -0.47090310840034316,
                -1.3608408765461768,
                -0.3543743293273282,
                -2.4177857001521272
            ]
        },
        {
            "positions": [
                2.105831605526627,
                -1.9521064500171879,
                -0.5765451050469265,
                -1.4488050160978996,
                -0.4369429602347553,
                -2.4671964935665898
            ]
        },
        {
            "positions": [
                2.1196544774560913,
                -1.9134903961152414,
                -0.6821871016935097,
                -1.5367691556496224,
                -0.5195115911421825,
                -2.5166072869810523
            ]
        },
        {
            "positions": [
                2.1334773493855552,
                -1.874874342213295,
                -0.787829098340093,
                -1.6247332952013451,
                -0.6020802220496096,
                -2.566018080395515
            ]
        },
        {
            "positions": [
                2.147300221315019,
                -1.8362582883113487,
                -0.8934710949866762,
                -1.712697434753068,
                -0.6846488529570368,
                -2.6154288738099774
            ]
        },
        {
            "positions": [
                2.161123093244483,
                -1.7976422344094023,
                -0.9991130916332596,
                -1.8006615743047907,
                -0.7672174838644639,
                -2.66483966722444
            ]
        },
        {
            "positions": [
                2.1749459651739476,
                -1.759026180507456,
                -1.1047550882798427,
                -1.8886257138565135,
                -0.849786114771891,
                -2.7142504606389024
            ]
        },
        {
            "positions": [
                2.1887688371034115,
                -1.7204101266055096,
                -1.210397084926426,
                -1.9765898534082362,
                -0.9323547456793182,
                -2.763661254053365
            ]
        },
        {
            "positions": [
                2.2025917090328755,
                -1.6817940727035632,
                -1.3160390815730094,
                -2.064553992959959,
                -1.0149233765867454,
                -2.8130720474678275
            ]
        },
        {
            "positions": [
                2.2164145809623395,
                -1.643178018801617,
                -1.4216810782195926,
                -2.152518132511682,
                -1.0974920074941725,
                -2.86248284088229
            ]
        },
        {
            "positions": [
                2.230237452891804,
                -1.6045619648996703,
                -1.527323074866176,
                -2.240482272063405,
                -1.1800606384015997,
                -2.911893634296753
            ]
        },
        {
            "positions": [
                2.244060324821268,
                -1.565945910997724,
                -1.632965071512759,
                -2.3284464116151273,
                -1.2626292693090269,
                -2.961304427711215
            ]
        },
        {
            "positions": [
                2.257883196750732,
                -1.5273298570957778,
                -1.7386070681593424,
                -2.4164105511668503,
                -1.3451979002164542,
                -3.010715221125678
            ]
        },
        {
            "positions": [
                2.2717060686801958,
                -1.4887138031938314,
                -1.8442490648059255,
                -2.504374690718573,
                -1.4277665311238812,
                -3.06012601454014
            ]
        },
        {
            "positions": [
                2.28552894060966,
                -1.450097749291885,
                -1.949891061452509,
                -2.592338830270296,
                -1.5103351620313084,
                -3.109536807954603
            ]
        },
        {
            "positions": [
                2.299351812539124,
                -1.4114816953899387,
                -2.0555330580990923,
                -2.6803029698220184,
                -1.5929037929387355,
                -3.1589476013690656
            ]
        },
        {
            "positions": [
                2.313174684468588,
                -1.372865641487992,
                -2.1611750547456756,
                -2.7682671093737414,
                -1.6754724238461627,
                -3.208358394783528
            ]
        },
        {
            "positions": [
                2.326997556398052,
                -1.3342495875860458,
                -2.266817051392259,
                -2.856231248925464,
                -1.7580410547535898,
                -3.2577691881979907
            ]
        },
        {
            "positions": [
                2.3408204283275165,
                -1.2956335336840996,
                -2.372459048038842,
                -2.944195388477187,
                -1.840609685661017,
                -3.307179981612453
            ]
        },
        {
            "positions": [
                2.3546433002569804,
                -1.2570174797821532,
                -2.4781010446854252,
                -3.0321595280289095,
                -1.9231783165684442,
                -3.3565907750269157
            ]
        },
        {
            "positions": [
                2.3684661721864444,
                -1.2184014258802067,
                -2.5837430413320086,
                -3.1201236675806325,
                -2.0057469474758713,
                -3.4060015684413782
            ]
        },
        {
            "positions": [
                2.3928428838924614,
                -1.2991825726053714,
                -2.50580237175083,
                -3.0644987846257563,
                -1.877387538258097,
                -3.3829831677846465
            ]
        },
        {
            "positions": [
                2.4172195955984783,
                -1.379963719330536,
                -2.427861702169652,
                -3.0088739016708805,
                -1.7490281290403222,
                -3.3599647671279147
            ]
        },
        {
            "positions": [
                2.4415963073044953,
                -1.460744866055701,
                -2.3499210325884734,
                -2.9532490187160043,
                -1.6206687198225478,
                -3.3369463664711825
            ]
        },
        {
            "positions": [
                2.4659730190105122,
                -1.5415260127808654,
                -2.271980363007295,
                -2.897624135761128,
                -1.4923093106047731,
                -3.3139279658144507
            ]
        },
        {
            "positions": [
                2.490349730716529,
                -1.6223071595060303,
                -2.1940396934261166,
                -2.8419992528062523,
                -1.3639499013869987,
                -3.290909565157719
            ]
        },
        {
            "positions": [
                2.514726442422546,
                -1.703088306231195,
                -2.116099023844938,
                -2.786374369851376,
                -1.2355904921692242,
                -3.2678911645009867
            ]
        },
        {
            "positions": [
                2.5391031541285636,
                -1.7838694529563597,
                -2.03815835426376,
                -2.7307494868965,
                -1.1072310829514496,
                -3.244872763844255
            ]
        },
        {
            "positions": [
                2.5634798658345805,
                -1.8646505996815244,
                -1.9602176846825814,
                -2.675124603941624,
                -0.9788716737336751,
                -3.221854363187523
            ]
        },
        {
            "positions": [
                2.5878565775405975,
                -1.945431746406689,
                -1.882277015101403,
                -2.619499720986748,
                -0.8505122645159005,
                -3.1988359625307914
            ]
        },
        {
            "positions": [
                2.6122332892466145,
                -2.026212893131854,
                -1.8043363455202246,
                -2.5638748380318717,
                -0.722152855298126,
                -3.1758175618740596
            ]
        },
        {
            "positions": [
                2.6366100009526314,
                -2.1069940398570184,
                -1.7263956759390462,
                -2.508249955076996,
                -0.5937934460803516,
                -3.1527991612173274
            ]
        },
        {
            "positions": [
                2.6609867126586484,
                -2.1877751865821833,
                -1.6484550063578678,
                -2.4526250721221197,
                -0.46543403686257684,
                -3.1297807605605956
            ]
        }
    ]
}