{
    "goal": {
        "global_pose": {
            "orientation": {
                "w": 0.005598929693374612,
                "x": 0.007748599140229565,
                "y": 0.7110244013736278,
                "z": -0.7031023480610252
            },
            "position": {
                "x": 0.1141497679147869,
                "y": -0.7141253447532654,
                "z": 0.3711530566215515
            }
        },
        "name": "move_to_auspresseinheit_B"
    },
    "id": "PRMstar_move_to_auspresseinheit_B_10",
    "joint_names": [
        "shoulder_pan_joint",
        "shoulder_lift_joint",
        "elbow_joint",
        "wrist_1_joint",
        "wrist_2_joint",
        "wrist_3_joint"
    ],
    "metrics": {
        "cart_traj_len": 0.564335127513843,
        "distance_elbow_joint": 0.05987587887771739,
        "distance_shoulder_lift_joint": 0.296039014235002,
        "distance_shoulder_pan_joint": 0.5768649830571662,
        "distance_wrist_1_joint": 0.3184112246369397,
        "distance_wrist_2_joint": 0.9930330339184559,
        "distance_wrist_3_joint": 0.009307348463752252,
        "smoothness": 2.5376526478085547e-16,
        "time": 5.005860846,
        "traj_len": 1.5011766995224225,
        "weighted_distance": 1.8930373579705007
    },
    "planner": "PRMstar",
    "start": {
        "state": {
            "elbow_joint": 2.0193083361928714,
            "shoulder_lift_joint": -1.1220246554650708,
            "shoulder_pan_joint": -1.0952077554168747,
            "wrist_1_joint": -0.8559753972642168,
            "wrist_2_joint": 0.4759566250798843,
            "wrist_3_joint": -3.1240929996934557
        }
    },
    "waypoints": [
        {
            "positions": [
                -1.0952077554168747,
                -1.1220246554650708,
                2.0193083361928714,
                -0.8559753972642168,
                0.4759566250798843,
                -3.1240929996934557
            ]
        },
        {
            "positions": [
                -1.1913519192597357,
                -1.1713644911709045,
                2.0093290230465852,
                -0.8029068598247269,
                0.6414621307329602,
                -3.122541774949497
            ]
        },
        {
            "positions": [
                -1.2874960831025968,
                -1.2207043268767381,
                1.999349709900299,
                -0.7498383223852368,
                0.8069676363860363,
                -3.1209905502055384
            ]
        },
        {
            "positions": [
                -1.3836402469454576,
                -1.2700441625825718,
                1.9893703967540128,
                -0.6967697849457469,
                0.9724731420391122,
                -3.1194393254615793
            ]
        },
        {
            "positions": [
                -1.4797844107883187,
                -1.3193839982884055,
                1.9793910836077264,
                -0.643701247506257,
                1.1379786476921883,
                -3.1178881007176207
            ]
        },
        {
            "positions": [
                -1.5759285746311797,
                -1.3687238339942391,
                1.9694117704614402,
                -0.590632710066767,
                1.3034841533452641,
                -3.116336875973662
            ]
        },
        {
            "positions": [
                -1.6720727384740408,
                -1.4180636697000728,
                1.959432457315154,
                -0.5375641726272771,
                1.4689896589983402,
                -3.1147856512297034
            ]
        }
    ]
}