{
    "goal": {
        "global_pose": {
            "orientation": {
                "w": -0.4816463035849501,
                "x": 0.5182115481033762,
                "y": 0.4908360881923453,
                "z": -0.5084816262002911
            },
            "position": {
                "x": -0.8240239810943604,
                "y": 0.19912469901144506,
                "z": 0.16403168439865112
            }
        },
        "name": "move_to_storage_D"
    },
    "id": "PRMstar_move_to_storage_D_133",
    "joint_names": [
        "shoulder_pan_joint",
        "shoulder_lift_joint",
        "elbow_joint",
        "wrist_1_joint",
        "wrist_2_joint",
        "wrist_3_joint"
    ],
    "metrics": {
        "cart_traj_len": 0.538580099106932,
        "distance_elbow_joint": 0.5754107581064176,
        "distance_shoulder_lift_joint": 0.15351582925829454,
        "distance_shoulder_pan_joint": 0.45363261098827046,
        "distance_wrist_1_joint": 3.822206649698617,
        "distance_wrist_2_joint": 1.7740952311450782,
        "distance_wrist_3_joint": 3.4120445444746714,
        "smoothness": 0.17519992151005045,
        "time": 5.0321407,
        "traj_len": 3.1923197871878917,
        "weighted_distance": 4.755133709315059
    },
    "planner": "PRMstar",
    "start": {
        "state": {
            "elbow_joint": -2.384821988534728,
            "shoulder_lift_joint": -2.2788054721415256,
            "shoulder_pan_joint": -0.1854694642142757,
            "wrist_1_joint": 1.4845938289331202,
            "wrist_2_joint": 0.17898776772866878,
            "wrist_3_joint": 0.037105688729662994
        }
    },
    "waypoints": [
        {
            "positions": [
                -0.1854694642142757,
                -2.2788054721415256,
                -2.384821988534728,
                1.4845938289331202,
                0.17898776772866878,
                0.037105688729662994
            ]
        },
        {
            "positions": [
                -0.08451492374467043,
                -2.2718412018948135,
                -2.3886238653484275,
                1.3834672722819865,
                0.10849210730595257,
                -0.005454915470832752
            ]
        },
        {
            "positions": [
                0.016439616724934852,
                -2.264876931648102,
                -2.3924257421621276,
                1.282340715630853,
                0.03799644688323636,
                -0.0480155196713285
            ]
        },
        {
            "positions": [
                0.1173941571945401,
                -2.25791266140139,
                -2.396227618975827,
                1.1812141589797194,
                -0.032499213539479856,
                -0.09057612387182426
            ]
        },
        {
            "positions": [
                0.11111211596206283,
                -2.2523867022964663,
                -2.3727274053231056,
                1.034596368157002,
                -0.09760789061768524,
                0.04627232328955841
            ]
        },
        {
            "positions": [
                0.10483007472958555,
                -2.2468607431915433,
                -2.349227191670384,
                0.8879785773342846,
                -0.16271656769589063,
                0.18312077045094108
            ]
        },
        {
            "positions": [
                0.09854803349710828,
                -2.24133478408662,
                -2.3257269780176624,
                0.7413607865115672,
                -0.22782524477409602,
                0.3199692176123238
            ]
        },
        {
            "positions": [
                0.092265992264631,
                -2.2358088249816968,
                -2.302226764364941,
                0.5947429956888499,
                -0.29293392185230144,
                0.45681766477370644
            ]
        },
        {
            "positions": [
                0.08598395103215373,
                -2.2302828658767733,
                -2.278726550712219,
                0.4481252048661325,
                -0.35804259893050683,
                0.5936661119350892
            ]
        },
        {
            "positions": [
                0.07970190979967645,
                -2.2247569067718502,
                -2.2552263370594976,
                0.3015074140434152,
                -0.4231512760087122,
                0.7305145590964719
            ]
        },
        {
            "positions": [
                0.07341986856719918,
                -2.2192309476669267,
                -2.231726123406776,
                0.15488962322069777,
                -0.48825995308691766,
                0.8673630062578547
            ]
        },
        {
            "positions": [
                0.0671378273347219,
                -2.2137049885620037,
                -2.2082259097540544,
                0.008271832397980461,
                -0.5533686301651229,
                1.004211453419237
            ]
        },
        {
            "positions": [
                0.060855786102244624,
                -2.2081790294570802,
                -2.184725696101333,
                -0.13834595842473685,
                -0.6184773072433284,
                1.14105990058062
            ]
        },
        {
            "positions": [
                0.05457374486976735,
                -2.202653070352157,
                -2.1612254824486112,
                -0.2849637492474544,
                -0.6835859843215337,
                1.2779083477420026
            ]
        },
        {
            "positions": [
                0.04829170363729007,
                -2.1971271112472337,
                -2.1377252687958896,
                -0.43158154007017147,
                -0.7486946613997391,
                1.4147567949033852
            ]
        },
        {
            "positions": [
                0.0420096624048128,
                -2.1916011521423107,
                -2.114225055143168,
                -0.578199330892889,
                -0.8138033384779445,
                1.551605242064768
            ]
        },
        {
            "positions": [
                0.03572762117233552,
                -2.186075193037387,
                -2.0907248414904465,
                -0.7248171217156063,
                -0.8789120155561498,
                1.6884536892261506
            ]
        },
        {
            "positions": [
                0.029445579939858246,
                -2.1805492339324637,
                -2.067224627837725,
                -0.8714349125383238,
                -0.9440206926343554,
                1.8253021363875335
            ]
        },
        {
            "positions": [
                0.02316353870738097,
                -2.1750232748275407,
                -2.0437244141850033,
                -1.018052703361041,
                -1.0091293697125607,
                1.9621505835489161
            ]
        },
        {
            "positions": [
                0.016881497474903695,
                -2.169497315722617,
                -2.0202242005322817,
                -1.1646704941837585,
                -1.0742380467907662,
                2.0989990307102984
            ]
        },
        {
            "positions": [
                0.01059945624242642,
                -2.163971356617694,
                -1.9967239868795599,
                -1.311288285006476,
                -1.1393467238689716,
                2.2358474778716815
            ]
        },
        {
            "positions": [
                0.004317415009949144,
                -2.1584453975127706,
                -1.9732237732268383,
                -1.457906075829193,
                -1.204455400947177,
                2.372695925033064
            ]
        },
        {
            "positions": [
                -0.001964626222528132,
                -2.1529194384078476,
                -1.9497235595741167,
                -1.6045238666519106,
                -1.2695640780253823,
                2.509544372194447
            ]
        },
        {
            "positions": [
                -0.008246667455005408,
                -2.147393479302924,
                -1.926223345921395,
                -1.7511416574746281,
                -1.3346727551035877,
                2.6463928193558295
            ]
        },
        {
            "positions": [
                -0.014528708687482683,
                -2.141867520198001,
                -1.9027231322686735,
                -1.8977594482973452,
                -1.3997814321817932,
                2.783241266517212
            ]
        },
        {
            "positions": [
                -0.02081074991995996,
                -2.1363415610930776,
                -1.879222918615952,
                -2.0443772391200623,
                -1.4648901092599984,
                2.920089713678595
            ]
        },
        {
            "positions": [
                -0.027092791152437234,
                -2.1308156019881546,
                -1.8557227049632303,
                -2.1909950299427803,
                -1.529998786338204,
                3.0569381608399775
            ]
        },
        {
            "positions": [
                -0.033374832384914524,
                -2.125289642883231,
                -1.8322224913105087,
                -2.3376128207654974,
                -1.5951074634164093,
                3.19378660800136
            ]
        }
    ]
}