{
    "goal": {
        "global_pose": {
            "orientation": {
                "w": 0.005598929693374612,
                "x": 0.007748599140229565,
                "y": 0.7110244013736278,
                "z": -0.7031023480610252
            },
            "position": {
                "x": 0.1141497679147869,
                "y": -0.7141253447532654,
                "z": 0.3711530566215515
            }
        },
        "name": "move_to_auspresseinheit_B"
    },
    "id": "PRMstar_move_to_auspresseinheit_B_70",
    "joint_names": [
        "shoulder_pan_joint",
        "shoulder_lift_joint",
        "elbow_joint",
        "wrist_1_joint",
        "wrist_2_joint",
        "wrist_3_joint"
    ],
    "metrics": {
        "cart_traj_len": 0.563850480221029,
        "distance_elbow_joint": 0.060305556377424185,
        "distance_shoulder_lift_joint": 0.2946211298833823,
        "distance_shoulder_pan_joint": 0.5772388908672954,
        "distance_wrist_1_joint": 0.318057706049542,
        "distance_wrist_2_joint": 0.9868826188676756,
        "distance_wrist_3_joint": 0.00047605775436831976,
        "smoothness": 0.0,
        "time": 5.004192146,
        "traj_len": 1.4958549260538896,
        "weighted_distance": 1.8824118572261601
    },
    "planner": "PRMstar",
    "start": {
        "state": {
            "elbow_joint": 2.0193083361928714,
            "shoulder_lift_joint": -1.1220246554650708,
            "shoulder_pan_joint": -1.0952077554168747,
            "wrist_1_joint": -0.8559753972642168,
            "wrist_2_joint": 0.4759566250798843,
            "wrist_3_joint": -3.1240929996934557
        }
    },
    "waypoints": [
        {
            "positions": [
                -1.0952077554168747,
                -1.1220246554650708,
                2.0193083361928714,
                -0.8559753972642168,
                0.4759566250798843,
                -3.1240929996934557
            ]
        },
        {
            "positions": [
                -1.1914142372280905,
                -1.1711281771123012,
                2.009257410129967,
                -0.8029657795892932,
                0.6404370615578302,
                -3.124013656734394
            ]
        },
        {
            "positions": [
                -1.2876207190393065,
                -1.2202316987595316,
                1.9992064840670634,
                -0.7499561619143694,
                0.8049174980357761,
                -3.123934313775333
            ]
        },
        {
            "positions": [
                -1.3838272008505224,
                -1.269335220406762,
                1.9891555580041593,
                -0.6969465442394458,
                0.969397934513722,
                -3.1238549708162715
            ]
        },
        {
            "positions": [
                -1.4800336826617382,
                -1.3184387420539923,
                1.9791046319412553,
                -0.6439369265645222,
                1.133878370991668,
                -3.12377562785721
            ]
        },
        {
            "positions": [
                -1.5762401644729542,
                -1.3675422637012227,
                1.9690537058783513,
                -0.5909273088895984,
                1.298358807469614,
                -3.123696284898149
            ]
        },
        {
            "positions": [
                -1.67244664628417,
                -1.416645785348453,
                1.9590027798154472,
                -0.5379176912146748,
                1.46283924394756,
                -3.1236169419390873
            ]
        }
    ]
}