{
    "goal": {
        "global_pose": {
            "orientation": {
                "w": 0.7031023480610252,
                "x": -0.7110244013736278,
                "y": 0.0077485991402295624,
                "z": 0.005598929693374583
            },
            "position": {
                "x": -0.8841497679147869,
                "y": 0.44412534475326537,
                "z": 0.3711530566215515
            }
        },
        "name": "move_to_auspresseinheit_D"
    },
    "id": "PRMstar_move_to_auspresseinheit_D_143",
    "joint_names": [
        "shoulder_pan_joint",
        "shoulder_lift_joint",
        "elbow_joint",
        "wrist_1_joint",
        "wrist_2_joint",
        "wrist_3_joint"
    ],
    "metrics": {
        "cart_traj_len": 0.34375909454126463,
        "distance_elbow_joint": 0.6405200679823817,
        "distance_shoulder_lift_joint": 0.12215927069001253,
        "distance_shoulder_pan_joint": 0.13440255612133828,
        "distance_wrist_1_joint": 0.5373839698821521,
        "distance_wrist_2_joint": 1.4401273605598268,
        "distance_wrist_3_joint": 0.0019325623732808772,
        "smoothness": 7.894919286223335e-16,
        "time": 5.014905859,
        "traj_len": 1.6960323663211716,
        "weighted_distance": 2.204064936157175
    },
    "planner": "PRMstar",
    "start": {
        "state": {
            "elbow_joint": -1.8275523626775212,
            "shoulder_lift_joint": -2.126789852344167,
            "shoulder_pan_joint": -0.03513704404078235,
            "wrist_1_joint": -2.347782403156801,
            "wrist_2_joint": -1.6058999987535132,
            "wrist_3_joint": -3.0880379163319196
        }
    },
    "waypoints": [
        {
            "positions": [
                -0.03513704404078235,
                -2.126789852344167,
                -1.8275523626775212,
                -2.347782403156801,
                -1.6058999987535132,
                -3.0880379163319196
            ]
        },
        {
            "positions": [
                -0.051937363555949634,
                -2.1420597611804184,
                -1.7474873541797236,
                -2.41495539939207,
                -1.4258840786835347,
                -3.0877963460352595
            ]
        },
        {
            "positions": [
                -0.06873768307111691,
                -2.15732967001667,
                -1.6674223456819257,
                -2.482128395627339,
                -1.2458681586135565,
                -3.0875547757385995
            ]
        },
        {
            "positions": [
                -0.0855380025862842,
                -2.1725995788529215,
                -1.587357337184128,
                -2.549301391862608,
                -1.0658522385435782,
                -3.0873132054419394
            ]
        },
        {
            "positions": [
                -0.1023383221014515,
                -2.187869487689173,
                -1.5072923286863302,
                -2.6164743880978767,
                -0.8858363184735998,
                -3.0870716351452794
            ]
        },
        {
            "positions": [
                -0.11913864161661877,
                -2.2031393965254247,
                -1.4272273201885326,
                -2.683647384333146,
                -0.7058203984036214,
                -3.086830064848619
            ]
        },
        {
            "positions": [
                -0.13593896113178605,
                -2.2184093053616762,
                -1.347162311690735,
                -2.750820380568415,
                -0.5258044783336431,
                -3.086588494551959
            ]
        },
        {
            "positions": [
                -0.15273928064695336,
                -2.233679214197928,
                -1.2670973031929371,
                -2.817993376803684,
                -0.34578855826366484,
                -3.0863469242552988
            ]
        },
        {
            "positions": [
                -0.16953960016212063,
                -2.2489491230341794,
                -1.1870322946951395,
                -2.885166373038953,
                -0.16577263819368643,
                -3.0861053539586387
            ]
        }
    ]
}