{
    "goal": {
        "global_pose": {
            "orientation": {
                "w": 0.5084816217422485,
                "x": -0.49083608388900757,
                "y": 0.5182115435600281,
                "z": -0.4816462993621826
            },
            "position": {
                "x": 0.5540239810943604,
                "y": 0.030875300988554955,
                "z": 0.16403168439865112
            }
        },
        "name": "move_to_storage_A"
    },
    "id": "PRMstar_move_to_storage_A_22",
    "joint_names": [
        "shoulder_pan_joint",
        "shoulder_lift_joint",
        "elbow_joint",
        "wrist_1_joint",
        "wrist_2_joint",
        "wrist_3_joint"
    ],
    "metrics": {
        "cart_traj_len": 0.35220125558567283,
        "distance_elbow_joint": 0.44783001375835707,
        "distance_shoulder_lift_joint": 0.23438266565201915,
        "distance_shoulder_pan_joint": 0.45628678046937293,
        "distance_wrist_1_joint": 0.2364002946748439,
        "distance_wrist_2_joint": 1.115117219371851,
        "distance_wrist_3_joint": 0.08624105103762769,
        "smoothness": 2.2204460668324854e-16,
        "time": 5.005326521000001,
        "traj_len": 1.6050725918051405,
        "weighted_distance": 2.0249092920637266
    },
    "planner": "PRMstar",
    "start": {
        "state": {
            "elbow_joint": 1.971548259319323,
            "shoulder_lift_joint": -1.1394851275133948,
            "shoulder_pan_joint": 0.1228115487234821,
            "wrist_1_joint": -0.7804723859257726,
            "wrist_2_joint": 0.12958671773740124,
            "wrist_3_joint": -3.192489227718131
        }
    },
    "waypoints": [
        {
            "positions": [
                0.1228115487234821,
                -1.1394851275133948,
                1.971548259319323,
                -0.7804723859257726,
                0.12958671773740124,
                -3.192489227718131
            ]
        },
        {
            "positions": [
                0.05762772294214312,
                -1.1729683654636833,
                2.035523975570517,
                -0.8142438565936074,
                0.28888917764766564,
                -3.1801690775698988
            ]
        },
        {
            "positions": [
                -0.007556102839195861,
                -1.2064516034139716,
                2.099499691821711,
                -0.8480153272614424,
                0.4481916375579301,
                -3.167848927421666
            ]
        },
        {
            "positions": [
                -0.07273992862053485,
                -1.2399348413642601,
                2.1634754080729044,
                -0.8817867979292772,
                0.6074940974681945,
                -3.1555287772734335
            ]
        },
        {
            "positions": [
                -0.13792375440187382,
                -1.2734180793145486,
                2.2274511243240984,
                -0.915558268597112,
                0.766796557378459,
                -3.143208627125201
            ]
        },
        {
            "positions": [
                -0.20310758018321284,
                -1.3069013172648372,
                2.2914268405752924,
                -0.9493297392649469,
                0.9260990172887235,
                -3.1308884769769687
            ]
        },
        {
            "positions": [
                -0.2682914059645518,
                -1.3403845552151255,
                2.355402556826486,
                -0.9831012099327816,
                1.0854014771989877,
                -3.118568326828736
            ]
        },
        {
            "positions": [
                -0.33347523174589083,
                -1.373867793165414,
                2.41937827307768,
                -1.0168726806006165,
                1.2447039371092523,
                -3.1062481766805035
            ]
        }
    ]
}{
    "goal": {
        "global_pose": {
            "orientation": {
                "w": 0.5084816217422485,
                "x": -0.49083608388900757,
                "y": 0.5182115435600281,
                "z": -0.4816462993621826
            },
            "position": {
                "x": 0.5540239810943604,
                "y": 0.030875300988554955,
                "z": 0.16403168439865112
            }
        },
        "name": "move_to_storage_A"
    },
    "id": "PRMstar_move_to_storage_A_22",
    "joint_names": [
        "shoulder_pan_joint",
        "shoulder_lift_joint",
        "elbow_joint",
        "wrist_1_joint",
        "wrist_2_joint",
        "wrist_3_joint"
    ],
    "metrics": {
        "cart_traj_len": 0.3528032916076945,
        "distance_elbow_joint": 0.44862239700544215,
        "distance_shoulder_lift_joint": 0.233843015922359,
        "distance_shoulder_pan_joint": 0.4615661384721046,
        "distance_wrist_1_joint": 0.2383565478155163,
        "distance_wrist_2_joint": 1.0968783002999363,
        "distance_wrist_3_joint": 0.09219778255004041,
        "smoothness": 0.0,
        "time": 5.009711262,
        "traj_len": 1.6035785550029655,
        "weighted_distance": 2.0226454447779356
    },
    "planner": "PRMstar",
    "start": {
        "state": {
            "elbow_joint": 1.97154746011099,
            "shoulder_lift_joint": -1.13948474672311,
            "shoulder_pan_joint": 0.12281154466712228,
            "wrist_1_joint": -0.7804688027058302,
            "wrist_2_joint": 0.12958655903071145,
            "wrist_3_joint": 3.0906928834467795
        }
    },
    "waypoints": [
        {
            "positions": [
                0.12281154466712228,
                -1.13948474672311,
                1.97154746011099,
                -0.7804688027058302,
                0.12958655903071145,
                3.0906928834467795
            ]
        },
        {
            "positions": [
                0.05687352488539306,
                -1.1728908918548755,
                2.0356363739689103,
                -0.8145197381080468,
                0.28628345907355945,
                3.1038639952396423
            ]
        },
        {
            "positions": [
                -0.009064494896336164,
                -1.206297036986641,
                2.0997252878268307,
                -0.8485706735102634,
                0.44298035911640754,
                3.1170351070325055
            ]
        },
        {
            "positions": [
                -0.07500251467806539,
                -1.2397031821184066,
                2.163814201684751,
                -0.88262160891248,
                0.5996772591592555,
                3.1302062188253683
            ]
        },
        {
            "positions": [
                -0.1409405344597946,
                -1.2731093272501721,
                2.227903115542671,
                -0.9166725443146966,
                0.7563741592021036,
                3.143377330618231
            ]
        },
        {
            "positions": [
                -0.20687855424152385,
                -1.3065154723819379,
                2.2919920294005913,
                -0.9507234797169133,
                0.9130710592449517,
                3.156548442411094
            ]
        },
        {
            "positions": [
                -0.27281657402325304,
                -1.3399216175137034,
                2.3560809432585117,
                -0.9847744151191299,
                1.0697679592877996,
                3.169719554203957
            ]
        },
        {
            "positions": [
                -0.3387545938049823,
                -1.373327762645469,
                2.420169857116432,
                -1.0188253505213465,
                1.2264648593306477,
                3.18289066599682
            ]
        }
    ]
}{
    "goal": {
        "global_pose": {
            "orientation": {
                "w": 0.5084816217422485,
                "x": -0.49083608388900757,
                "y": 0.5182115435600281,
                "z": -0.4816462993621826
            },
            "position": {
                "x": 0.5540239810943604,
                "y": 0.030875300988554955,
                "z": 0.16403168439865112
            }
        },
        "name": "move_to_storage_A"
    },
    "id": "PRMstar_move_to_storage_A_22",
    "joint_names": [
        "shoulder_pan_joint",
        "shoulder_lift_joint",
        "elbow_joint",
        "wrist_1_joint",
        "wrist_2_joint",
        "wrist_3_joint"
    ],
    "metrics": {
        "cart_traj_len": 0.3534154048642244,
        "distance_elbow_joint": 0.44922200895693143,
        "distance_shoulder_lift_joint": 0.2365103762116263,
        "distance_shoulder_pan_joint": 0.4642295278387705,
        "distance_wrist_1_joint": 0.23536842308233163,
        "distance_wrist_2_joint": 1.091497823386533,
        "distance_wrist_3_joint": 0.08943366257671581,
        "smoothness": 6.661338165333112e-16,
        "time": 5.003703544,
        "traj_len": 1.6019556242458493,
        "weighted_distance": 2.0179185795455683
    },
    "planner": "PRMstar",
    "start": {
        "state": {
            "elbow_joint": 1.9715472970024885,
            "shoulder_lift_joint": -1.1394870060712896,
            "shoulder_pan_joint": 0.12281152778156021,
            "wrist_1_joint": -0.780463741449964,
            "wrist_2_joint": 0.12958659822042276,
            "wrist_3_joint": 3.090690232415272
        }
    },
    "waypoints": [
        {
            "positions": [
                0.12281152778156021,
                -1.1394870060712896,
                1.9715472970024885,
                -0.780463741449964,
                0.12958659822042276,
                3.090690232415272
            ]
        },
        {
            "positions": [
                0.05649302380459301,
                -1.1732742026729506,
                2.0357218697106214,
                -0.8140878018902971,
                0.28551485870421317,
                3.1034664699262313
            ]
        },
        {
            "positions": [
                -0.009825480172374196,
                -1.2070613992746113,
                2.0998964424187547,
                -0.8477118623306301,
                0.4414431191880036,
                3.116242707437191
            ]
        },
        {
            "positions": [
                -0.0761439841493414,
                -1.2408485958762723,
                2.1640710151268876,
                -0.8813359227709633,
                0.597371379671794,
                3.1290189449481502
            ]
        },
        {
            "positions": [
                -0.1424624881263086,
                -1.2746357924779332,
                2.228245587835021,
                -0.9149599832112963,
                0.7532996401555844,
                3.1417951824591093
            ]
        },
        {
            "positions": [
                -0.20878099210327586,
                -1.3084229890795942,
                2.292420160543154,
                -0.9485840436516295,
                0.9092279006393749,
                3.1545714199700687
            ]
        },
        {
            "positions": [
                -0.275099496080243,
                -1.342210185681255,
                2.3565947332512867,
                -0.9822081040919626,
                1.0651561611231652,
                3.167347657481028
            ]
        },
        {
            "positions": [
                -0.34141800005721024,
                -1.375997382282916,
                2.42076930595942,
                -1.0158321645322956,
                1.2210844216069556,
                3.1801238949919877
            ]
        }
    ]
}