{
    "goal": {
        "global_pose": {
            "orientation": {
                "w": -0.4816463035849501,
                "x": 0.5182115481033762,
                "y": 0.4908360881923453,
                "z": -0.5084816262002911
            },
            "position": {
                "x": -0.8240239810943604,
                "y": 0.19912469901144506,
                "z": 0.16403168439865112
            }
        },
        "name": "move_to_storage_D"
    },
    "id": "PRMstar_move_to_storage_D_99",
    "joint_names": [
        "shoulder_pan_joint",
        "shoulder_lift_joint",
        "elbow_joint",
        "wrist_1_joint",
        "wrist_2_joint",
        "wrist_3_joint"
    ],
    "metrics": {
        "cart_traj_len": 3.9010778449194805,
        "distance_elbow_joint": 4.207636542828823,
        "distance_shoulder_lift_joint": 1.2661162461878102,
        "distance_shoulder_pan_joint": 2.8143019046616953,
        "distance_wrist_1_joint": 2.262881754097148,
        "distance_wrist_2_joint": 0.8754578821265382,
        "distance_wrist_3_joint": 3.134731340419633,
        "smoothness": 0.00032032038593341204,
        "time": 5.099533420999999,
        "traj_len": 3.8159043057081043,
        "weighted_distance": 4.89580718445739
    },
    "planner": "PRMstar",
    "start": {
        "state": {
            "elbow_joint": -2.384821988534728,
            "shoulder_lift_joint": -2.2788054721415256,
            "shoulder_pan_joint": -0.1854694642142757,
            "wrist_1_joint": 1.4845938289331202,
            "wrist_2_joint": 0.17898776772866878,
            "wrist_3_joint": 0.037105688729662994
        }
    },
    "waypoints": [
        {
            "positions": [
                -0.1854694642142757,
                -2.2788054721415256,
                -2.384821988534728,
                1.4845938289331202,
                0.17898776772866878,
                0.037105688729662994
            ]
        },
        {
            "positions": [
                -0.1533188737645778,
                -2.2713910422209107,
                -2.3806611150736954,
                1.4842517040229013,
                0.18524843615050474,
                0.02447418591061179
            ]
        },
        {
            "positions": [
                -0.07150437379315892,
                -2.2363597080321798,
                -2.2716413424424236,
                1.4216308025706108,
                0.2073151161426532,
                -0.05690888698484792
            ]
        },
        {
            "positions": [
                0.010310126178259965,
                -2.201328373843449,
                -2.1626215698111517,
                1.35900990111832,
                0.22938179613480164,
                -0.13829195988030762
            ]
        },
        {
            "positions": [
                0.0921246261496789,
                -2.166297039654718,
                -2.05360179717988,
                1.2963889996660296,
                0.2514484761269501,
                -0.21967503277576733
            ]
        },
        {
            "positions": [
                0.17393912612109774,
                -2.131265705465987,
                -1.9445820245486085,
                1.233768098213739,
                0.27351515611909855,
                -0.30105810567122704
            ]
        },
        {
            "positions": [
                0.2557536260925167,
                -2.096234371277256,
                -1.8355622519173367,
                1.1711471967614484,
                0.295581836111247,
                -0.38244117856668675
            ]
        },
        {
            "positions": [
                0.3375681260639356,
                -2.061203037088525,
                -1.7265424792860649,
                1.108526295309158,
                0.31764851610339545,
                -0.46382425146214645
            ]
        },
        {
            "positions": [
                0.4193826260353544,
                -2.0261717028997945,
                -1.617522706654793,
                1.0459053938568674,
                0.3397151960955439,
                -0.5452073243576061
            ]
        },
        {
            "positions": [
                0.5011971260067734,
                -1.9911403687110634,
                -1.5085029340235214,
                0.9832844924045767,
                0.3617818760876923,
                -0.6265903972530659
            ]
        },
        {
            "positions": [
                0.5830116259781923,
                -1.9561090345223324,
                -1.3994831613922496,
                0.9206635909522862,
                0.3838485560798408,
                -0.7079734701485255
            ]
        },
        {
            "positions": [
                0.6648261259496111,
                -1.9210777003336017,
                -1.2904633887609778,
                0.8580426894999956,
                0.4059152360719892,
                -0.7893565430439853
            ]
        },
        {
            "positions": [
                0.7466406259210301,
                -1.8860463661448708,
                -1.1814436161297062,
                0.795421788047705,
                0.4279819160641377,
                -0.870739615939445
            ]
        },
        {
            "positions": [
                0.8284551258924491,
                -1.8510150319561398,
                -1.0724238434984343,
                0.7328008865954144,
                0.45004859605628617,
                -0.9521226888349047
            ]
        },
        {
            "positions": [
                0.9102696258638676,
                -1.8159836977674089,
                -0.9634040708671627,
                0.6701799851431239,
                0.47211527604843456,
                -1.0335057617303645
            ]
        },
        {
            "positions": [
                0.9920841258352866,
                -1.780952363578678,
                -0.8543842982358909,
                0.6075590836908333,
                0.494181956040583,
                -1.114888834625824
            ]
        },
        {
            "positions": [
                1.0738986258067056,
                -1.745921029389947,
                -0.7453645256046193,
                0.5449381822385428,
                0.5162486360327314,
                -1.1962719075212838
            ]
        },
        {
            "positions": [
                1.1557131257781244,
                -1.710889695201216,
                -0.6363447529733475,
                0.48231728078625213,
                0.5383153160248799,
                -1.2776549804167434
            ]
        },
        {
            "positions": [
                1.2375276257495433,
                -1.675858361012485,
                -0.5273249803420756,
                0.41969637933396164,
                0.5603819960170284,
                -1.359038053312203
            ]
        },
        {
            "positions": [
                1.3193421257209623,
                -1.6408270268237541,
                -0.4183052077108038,
                0.35707547788167115,
                0.5824486760091768,
                -1.4404211262076627
            ]
        },
        {
            "positions": [
                1.401156625692381,
                -1.6057956926350232,
                -0.309285435079532,
                0.29445457642938044,
                0.6045153560013252,
                -1.5218041991031228
            ]
        },
        {
            "positions": [
                1.4829711256638,
                -1.5707643584462925,
                -0.20026566244826016,
                0.23183367497708995,
                0.6265820359934737,
                -1.6031872719985825
            ]
        },
        {
            "positions": [
                1.564785625635219,
                -1.5357330242575615,
                -0.09124588981698833,
                0.16921277352479924,
                0.6486487159856222,
                -1.6845703448940421
            ]
        },
        {
            "positions": [
                1.6466001256066378,
                -1.5007016900688306,
                0.01777388281428305,
                0.10659187207250875,
                0.6707153959777706,
                -1.7659534177895018
            ]
        },
        {
            "positions": [
                1.7284146255780568,
                -1.4656703558800996,
                0.12679365544555488,
                0.043970970620218264,
                0.692782075969919,
                -1.8473364906849614
            ]
        },
        {
            "positions": [
                1.8102291255494758,
                -1.430639021691369,
                0.2358134280768267,
                -0.018649930832072448,
                0.7148487559620675,
                -1.928719563580421
            ]
        },
        {
            "positions": [
                1.8920436255208946,
                -1.395607687502638,
                0.34483320070809853,
                -0.08127083228436294,
                0.736915435954216,
                -2.0101026364758807
            ]
        },
        {
            "positions": [
                1.973858125492313,
                -1.360576353313907,
                0.4538529733393699,
                -0.14389173373665343,
                0.7589821159463643,
                -2.0914857093713404
            ]
        },
        {
            "positions": [
                2.0556726254637323,
                -1.325545019125176,
                0.5628727459706417,
                -0.20651263518894392,
                0.7810487959385128,
                -2.1728687822668
            ]
        },
        {
            "positions": [
                2.1374871254351513,
                -1.2905136849364451,
                0.6718925186019136,
                -0.2691335366412346,
                0.8031154759306613,
                -2.2542518551622597
            ]
        },
        {
            "positions": [
                2.2193016254065703,
                -1.2554823507477142,
                0.7809122912331854,
                -0.3317544380935251,
                0.8251821559228096,
                -2.3356349280577193
            ]
        },
        {
            "positions": [
                2.3011161253779893,
                -1.2204510165589835,
                0.8899320638644568,
                -0.3943753395458156,
                0.8472488359149581,
                -2.417018000953179
            ]
        },
        {
            "positions": [
                2.382930625349408,
                -1.1854196823702525,
                0.9989518364957286,
                -0.4569962409981063,
                0.8693155159071067,
                -2.498401073848639
            ]
        },
        {
            "positions": [
                2.464745125320827,
                -1.1503883481815216,
                1.1079716091270004,
                -0.519617142450397,
                0.8913821958992552,
                -2.5797841467440987
            ]
        },
        {
            "positions": [
                2.5465596252922458,
                -1.1153570139927906,
                1.2169913817582723,
                -0.5822380439026875,
                0.9134488758914034,
                -2.6611672196395584
            ]
        },
        {
            "positions": [
                2.6283741252636648,
                -1.0803256798040597,
                1.3260111543895439,
                -0.6448589453549779,
                0.935515555883552,
                -2.742550292535018
            ]
        },
        {
            "positions": [
                2.6282213535357464,
                -1.0577801951872783,
                1.4916122876910607,
                -0.6893352719579945,
                0.9751589205407704,
                -2.8609087455866686
            ]
        },
        {
            "positions": [
                2.6280685818078284,
                -1.0352347105704969,
                1.6572134209925775,
                -0.733811598561011,
                1.0148022851979888,
                -2.9792671986383192
            ]
        },
        {
            "positions": [
                2.62791581007991,
                -1.0126892259537155,
                1.8228145542940943,
                -0.7782879251640276,
                1.054445649855207,
                -3.09762565168997
            ]
        }
    ]
}