{
    "goal": {
        "global_pose": {
            "orientation": {
                "w": -0.00223480608172531,
                "x": 0.0024358444001904467,
                "y": 0.7094548369677653,
                "z": -0.704743149386269
            },
            "position": {
                "x": 0.6205249238014221,
                "y": -0.6371506643295288,
                "z": 0.19426114857196808
            }
        },
        "name": "move_to_magneteinheit_B"
    },
    "id": "PRMstar_move_to_magneteinheit_B_22",
    "joint_names": [
        "shoulder_pan_joint",
        "shoulder_lift_joint",
        "elbow_joint",
        "wrist_1_joint",
        "wrist_2_joint",
        "wrist_3_joint"
    ],
    "metrics": {
        "cart_traj_len": 1.4838360803470052,
        "distance_elbow_joint": 0.9561849557023803,
        "distance_shoulder_lift_joint": 0.757034922167788,
        "distance_shoulder_pan_joint": 1.6222243601191908,
        "distance_wrist_1_joint": 1.9294890495173638,
        "distance_wrist_2_joint": 1.513998088246242,
        "distance_wrist_3_joint": 0.5930417047259843,
        "smoothness": 0.09212583939776212,
        "time": 5.051683365000001,
        "traj_len": 2.7151377645487806,
        "weighted_distance": 3.464324411439339
    },
    "planner": "PRMstar",
    "start": {
        "state": {
            "elbow_joint": 2.6216224122426386,
            "shoulder_lift_joint": -1.4174107377796124,
            "shoulder_pan_joint": 0.7066234856936794,
            "wrist_1_joint": 1.9546482284002225,
            "wrist_2_joint": -0.7096286983471962,
            "wrist_3_joint": 0.005740856962016249
        }
    },
    "waypoints": [
        {
            "positions": [
                0.7066234856936794,
                -1.4174107377796124,
                2.6216224122426386,
                1.9546482284002225,
                -0.7096286983471962,
                0.005740856962016249
            ]
        },
        {
            "positions": [
                0.6554153534559043,
                -1.3512497221481206,
                2.5813926093034163,
                1.8158951764123044,
                -0.7239848406270096,
                0.05467376266758174
            ]
        },
        {
            "positions": [
                0.6042072212181291,
                -1.2850887065166285,
                2.5411628063641936,
                1.6771421244243863,
                -0.738340982906823,
                0.10360666837314723
            ]
        },
        {
            "positions": [
                0.552999088980354,
                -1.2189276908851365,
                2.5009330034249713,
                1.5383890724364684,
                -0.7526971251866366,
                0.15253957407871274
            ]
        },
        {
            "positions": [
                0.5017909567425789,
                -1.1527666752536447,
                2.460703200485749,
                1.3996360204485503,
                -0.76705326746645,
                0.20147247978427824
            ]
        },
        {
            "positions": [
                0.45058282450480375,
                -1.086605659622153,
                2.4204733975465262,
                1.2608829684606322,
                -0.7814094097462634,
                0.2504053854898437
            ]
        },
        {
            "positions": [
                0.39937469226702865,
                -1.020444643990661,
                2.380243594607304,
                1.122129916472714,
                -0.7957655520260768,
                0.2993382911954092
            ]
        },
        {
            "positions": [
                0.2828526340620599,
                -0.969973425782731,
                2.297941537613183,
                1.101635872743851,
                -0.8545029034949292,
                0.29994382901948424
            ]
        },
        {
            "positions": [
                0.16633057585709113,
                -0.9195022075748011,
                2.2156394806190627,
                1.0811418290149881,
                -0.9132402549637815,
                0.3005493668435592
            ]
        },
        {
            "positions": [
                0.07616962166687426,
                -0.8979083415778863,
                2.169789311945829,
                1.1691403831926657,
                -1.0224391325995863,
                0.27569660060652246
            ]
        },
        {
            "positions": [
                -0.013991332523342614,
                -0.8763144755809716,
                2.123939143272595,
                1.257138937370343,
                -1.131638010235391,
                0.25084383436948565
            ]
        },
        {
            "positions": [
                -0.1041522867135595,
                -0.8547206095840569,
                2.0780889745993614,
                1.3451374915480205,
                -1.2408368878711957,
                0.2259910681324489
            ]
        },
        {
            "positions": [
                -0.19431324090377636,
                -0.8331267435871421,
                2.032238805926128,
                1.4331360457256979,
                -1.3500357655070003,
                0.20113830189541212
            ]
        },
        {
            "positions": [
                -0.2844741950939933,
                -0.8115328775902274,
                1.9863886372528943,
                1.5211345999033754,
                -1.4592346431428052,
                0.17628553565837535
            ]
        },
        {
            "positions": [
                -0.37463514928421016,
                -0.7899390115933127,
                1.9405384685796605,
                1.6091331540810527,
                -1.5684335207786098,
                0.15143276942133857
            ]
        },
        {
            "positions": [
                -0.4647961034744271,
                -0.768345145596398,
                1.8946882999064267,
                1.6971317082587305,
                -1.6776323984144148,
                0.1265800031843018
            ]
        },
        {
            "positions": [
                -0.5549570576646439,
                -0.7467512795994833,
                1.8488381312331932,
                1.7851302624364078,
                -1.7868312760502194,
                0.10172723694726504
            ]
        },
        {
            "positions": [
                -0.6451180118548608,
                -0.7251574136025685,
                1.8029879625599594,
                1.8731288166140851,
                -1.896030153686024,
                0.07687447071022824
            ]
        },
        {
            "positions": [
                -0.7352789660450777,
                -0.7035635476056538,
                1.7571377938867256,
                1.9611273707917627,
                -2.0052290313218286,
                0.05202170447319146
            ]
        },
        {
            "positions": [
                -0.8254399202352944,
                -0.681969681608739,
                1.711287625213492,
                2.04912592496944,
                -2.1144279089576337,
                0.027168938236154738
            ]
        },
        {
            "positions": [
                -0.9156008744255113,
                -0.6603758156118243,
                1.6654374565402583,
                2.1371244791471176,
                -2.2236267865934383,
                0.0023161719991179113
            ]
        }
    ]
}