{
    "goal": {
        "global_pose": {
            "orientation": {
                "w": 0.7047431493862688,
                "x": -0.7094548369677653,
                "y": 0.0024358444001904,
                "z": -0.0022348060817251984
            },
            "position": {
                "x": -0.39052492380142206,
                "y": 0.3671506643295288,
                "z": 0.19426114857196808
            }
        },
        "name": "move_to_magneteinheit_D"
    },
    "id": "PRMstar_move_to_magneteinheit_D_75",
    "joint_names": [
        "shoulder_pan_joint",
        "shoulder_lift_joint",
        "elbow_joint",
        "wrist_1_joint",
        "wrist_2_joint",
        "wrist_3_joint"
    ],
    "metrics": {
        "cart_traj_len": 7.044630248664714,
        "distance_elbow_joint": 3.1403103090769924,
        "distance_shoulder_lift_joint": 1.6300143590529521,
        "distance_shoulder_pan_joint": 8.727272884463448,
        "distance_wrist_1_joint": 1.5319801836673173,
        "distance_wrist_2_joint": 1.930176012782044,
        "distance_wrist_3_joint": 6.310081594747539,
        "smoothness": 0.36734798731509405,
        "time": 5.134369782,
        "traj_len": 4.823881771332116,
        "weighted_distance": 6.273129580180432
    },
    "planner": "PRMstar",
    "start": {
        "state": {
            "elbow_joint": 0.749534889911806,
            "shoulder_lift_joint": -0.6476975780787326,
            "shoulder_pan_joint": -2.711696901376241,
            "wrist_1_joint": -0.07506478083263063,
            "wrist_2_joint": 0.43296659715538205,
            "wrist_3_joint": -3.14703540197715
        }
    },
    "waypoints": [
        {
            "positions": [
                -2.711696901376241,
                -0.6476975780787326,
                0.749534889911806,
                -0.07506478083263063,
                0.43296659715538205,
                -3.14703540197715
            ]
        },
        {
            "positions": [
                -2.6954294058047363,
                -0.6949276767164585,
                0.5968497946560337,
                -0.048358464504477394,
                0.485610075526001,
                -3.0538008908726657
            ]
        },
        {
            "positions": [
                -2.6791619102332316,
                -0.7421577753541844,
                0.44416469940026143,
                -0.021652148176324167,
                0.53825355389662,
                -2.9605663797681814
            ]
        },
        {
            "positions": [
                -2.527937571592724,
                -0.7631203917818159,
                0.39920485633810887,
                0.006530934492225308,
                0.5579142792435166,
                -2.8369892779514676
            ]
        },
        {
            "positions": [
                -2.3767132329522163,
                -0.7840830082094473,
                0.35424501327595637,
                0.03471401716077478,
                0.5775750045904131,
                -2.713412176134754
            ]
        },
        {
            "positions": [
                -2.225488894311709,
                -0.8050456246370788,
                0.30928517021380386,
                0.06289709982932426,
                0.5972357299373097,
                -2.5898350743180396
            ]
        },
        {
            "positions": [
                -2.0742645556712014,
                -0.8260082410647103,
                0.2643253271516513,
                0.09108018249787372,
                0.6168964552842062,
                -2.466257972501326
            ]
        },
        {
            "positions": [
                -1.9230402170306937,
                -0.8469708574923418,
                0.21936548408949877,
                0.11926326516642322,
                0.6365571806311029,
                -2.342680870684612
            ]
        },
        {
            "positions": [
                -1.7718158783901863,
                -0.8679334739199732,
                0.17440564102734624,
                0.1474463478349727,
                0.6562179059779994,
                -2.2191037688678983
            ]
        },
        {
            "positions": [
                -1.6205915397496788,
                -0.8888960903476048,
                0.12944579796519373,
                0.17562943050352217,
                0.675878631324896,
                -2.0955266670511845
            ]
        },
        {
            "positions": [
                -1.4693672011091712,
                -0.9098587067752362,
                0.08448595490304117,
                0.20381251317207164,
                0.6955393566717926,
                -1.9719495652344707
            ]
        },
        {
            "positions": [
                -1.3181428624686637,
                -0.9308213232028677,
                0.03952611184088867,
                0.23199559584062113,
                0.7152000820186891,
                -1.8483724634177567
            ]
        },
        {
            "positions": [
                -1.166918523828156,
                -0.9517839396304991,
                -0.005433731221263893,
                0.2601786785091706,
                0.7348608073655857,
                -1.724795361601043
            ]
        },
        {
            "positions": [
                -1.0156941851876486,
                -0.9727465560581307,
                -0.0503935742834164,
                0.28836176117772006,
                0.7545215327124822,
                -1.6012182597843292
            ]
        },
        {
            "positions": [
                -0.864469846547141,
                -0.9937091724857621,
                -0.09535341734556896,
                0.3165448438462696,
                0.7741822580593789,
                -1.4776411579676152
            ]
        },
        {
            "positions": [
                -0.7132455079066335,
                -1.0146717889133936,
                -0.14031326040772146,
                0.34472792651481904,
                0.7938429834062755,
                -1.3540640561509014
            ]
        },
        {
            "positions": [
                -0.5620211692661261,
                -1.0356344053410251,
                -0.18527310346987397,
                0.3729110091833685,
                0.813503708753172,
                -1.2304869543341876
            ]
        },
        {
            "positions": [
                -0.41079683062561845,
                -1.0565970217686567,
                -0.23023294653202658,
                0.40109409185191797,
                0.8331644341000686,
                -1.1069098525174736
            ]
        },
        {
            "positions": [
                -0.2595724919851108,
                -1.077559638196288,
                -0.2751927895941791,
                0.42927717452046743,
                0.8528251594469651,
                -0.9833327507007599
            ]
        },
        {
            "positions": [
                -0.10834815334460313,
                -1.0985222546239195,
                -0.3201526326563316,
                0.45746025718901695,
                0.8724858847938617,
                -0.8597556488840459
            ]
        },
        {
            "positions": [
                0.04287618529590409,
                -1.119484871051551,
                -0.3651124757184841,
                0.4856433398575664,
                0.8921466101407582,
                -0.7361785470673321
            ]
        },
        {
            "positions": [
                0.19410052393641175,
                -1.1404474874791823,
                -0.4100723187806366,
                0.5138264225261158,
                0.9118073354876548,
                -0.6126014452506188
            ]
        },
        {
            "positions": [
                0.3453248625769194,
                -1.1614101039068139,
                -0.4550321618427892,
                0.5420095051946653,
                0.9314680608345514,
                -0.48902434343390455
            ]
        },
        {
            "positions": [
                0.49654920121742663,
                -1.1823727203344454,
                -0.4999920049049416,
                0.5701925878632147,
                0.9511287861814479,
                -0.3654472416171908
            ]
        },
        {
            "positions": [
                0.6477735398579343,
                -1.203335336762077,
                -0.5449518479670943,
                0.5983756705317642,
                0.9707895115283445,
                -0.241870139800477
            ]
        },
        {
            "positions": [
                0.798997878498442,
                -1.2242979531897082,
                -0.5899116910292466,
                0.6265587532003136,
                0.990450236875241,
                -0.11829303798376323
            ]
        },
        {
            "positions": [
                0.9502222171389496,
                -1.24526056961734,
                -0.6348715340913993,
                0.6547418358688633,
                1.0101109622221376,
                0.0052840638329509915
            ]
        },
        {
            "positions": [
                1.1014465557794568,
                -1.2662231860449713,
                -0.6798313771535518,
                0.6829249185374127,
                1.0297716875690341,
                0.12886116564966432
            ]
        },
        {
            "positions": [
                1.2526708944199645,
                -1.2871858024726028,
                -0.7247912202157043,
                0.7111080012059622,
                1.0494324129159307,
                0.25243826746637854
            ]
        },
        {
            "positions": [
                1.4038952330604717,
                -1.3081484189002341,
                -0.7697510632778568,
                0.7392910838745116,
                1.0690931382628275,
                0.37601536928309187
            ]
        },
        {
            "positions": [
                1.5551195717009794,
                -1.3291110353278657,
                -0.8147109063400093,
                0.7674741665430611,
                1.0887538636097238,
                0.4995924710998061
            ]
        },
        {
            "positions": [
                1.706343910341487,
                -1.3500736517554972,
                -0.8596707494021618,
                0.7956572492116105,
                1.1084145889566206,
                0.6231695729165199
            ]
        },
        {
            "positions": [
                1.8575682489819947,
                -1.3710362681831287,
                -0.9046305924643145,
                0.82384033188016,
                1.1280753143035172,
                0.7467466747332341
            ]
        },
        {
            "positions": [
                2.0087925876225023,
                -1.3919988846107603,
                -0.9495904355264668,
                0.8520234145487094,
                1.1477360396504137,
                0.8703237765499474
            ]
        },
        {
            "positions": [
                2.16001692626301,
                -1.4129615010383918,
                -0.9945502785886196,
                0.880206497217259,
                1.1673967649973103,
                0.9939008783666616
            ]
        },
        {
            "positions": [
                2.3112412649035177,
                -1.433924117466023,
                -1.039510121650772,
                0.9083895798858085,
                1.1870574903442068,
                1.1174779801833754
            ]
        },
        {
            "positions": [
                2.4624656035440253,
                -1.4548867338936546,
                -1.0844699647129246,
                0.936572662554358,
                1.2067182156911034,
                1.2410550820000896
            ]
        },
        {
            "positions": [
                2.613689942184532,
                -1.475849350321286,
                -1.129429807775077,
                0.9647557452229074,
                1.226378941038,
                1.364632183816803
            ]
        },
        {
            "positions": [
                2.7649142808250398,
                -1.4968119667489175,
                -1.1743896508372296,
                0.9929388278914569,
                1.2460396663848965,
                1.4882092856335172
            ]
        },
        {
            "positions": [
                2.9161386194655474,
                -1.517774583176549,
                -1.219349493899382,
                1.0211219105600065,
                1.265700391731793,
                1.61178638745023
            ]
        },
        {
            "positions": [
                2.768546364054992,
                -1.5539620762220316,
                -1.2751316808168014,
                1.0418739816207054,
                1.2134412384839057,
                1.5379168729111752
            ]
        },
        {
            "positions": [
                2.6209541086444372,
                -1.5901495692675143,
                -1.3309138677342207,
                1.0626260526814046,
                1.1611820852360184,
                1.4640473583721203
            ]
        },
        {
            "positions": [
                2.473361853233882,
                -1.626337062312997,
                -1.38669605465164,
                1.0833781237421036,
                1.1089229319881313,
                1.3901778438330656
            ]
        },
        {
            "positions": [
                2.325769597823327,
                -1.6625245553584795,
                -1.4424782415690593,
                1.1041301948028026,
                1.056663778740244,
                1.3163083292940108
            ]
        },
        {
            "positions": [
                2.1781773424127717,
                -1.6987120484039622,
                -1.4982604284864787,
                1.1248822658635016,
                1.0044046254923567,
                1.2424388147549559
            ]
        },
        {
            "positions": [
                2.030585087002217,
                -1.7348995414494448,
                -1.554042615403898,
                1.1456343369242008,
                0.9521454722444694,
                1.168569300215901
            ]
        },
        {
            "positions": [
                1.8829928315916615,
                -1.7710870344949274,
                -1.6098248023213173,
                1.1663864079848998,
                0.8998863189965822,
                1.0946997856768461
            ]
        },
        {
            "positions": [
                1.7354005761811064,
                -1.8072745275404103,
                -1.6656069892387366,
                1.1871384790455988,
                0.8476271657486949,
                1.0208302711377915
            ]
        },
        {
            "positions": [
                1.5878083207705513,
                -1.843462020585893,
                -1.7213891761561562,
                1.2078905501062978,
                0.7953680125008076,
                0.9469607565987366
            ]
        },
        {
            "positions": [
                1.4402160653599962,
                -1.8796495136313756,
                -1.7771713630735753,
                1.228642621166997,
                0.7431088592529204,
                0.8730912420596817
            ]
        },
        {
            "positions": [
                1.292623809949441,
                -1.9158370066768582,
                -1.8329535499909948,
                1.249394692227696,
                0.690849706005033,
                0.7992217275206268
            ]
        },
        {
            "positions": [
                1.145031554538886,
                -1.9520244997223408,
                -1.888735736908414,
                1.270146763288395,
                0.6385905527571458,
                0.725352212981572
            ]
        },
        {
            "positions": [
                0.9974392991283307,
                -1.9882119927678235,
                -1.9445179238258334,
                1.2908988343490941,
                0.5863313995092585,
                0.6514826984425172
            ]
        },
        {
            "positions": [
                0.8498470437177756,
                -2.024399485813306,
                -2.0003001107432525,
                1.3116509054097931,
                0.5340722462613713,
                0.5776131839034624
            ]
        },
        {
            "positions": [
                0.7022547883072203,
                -2.060586978858789,
                -2.056082297660672,
                1.332402976470492,
                0.48181309301348396,
                0.5037436693644075
            ]
        },
        {
            "positions": [
                0.5546625328966655,
                -2.0967744719042716,
                -2.111864484578091,
                1.353155047531191,
                0.42955393976559675,
                0.42987415482535263
            ]
        },
        {
            "positions": [
                0.40707027748611013,
                -2.132961964949754,
                -2.1676466714955107,
                1.3739071185918903,
                0.3772947865177094,
                0.35600464028629775
            ]
        },
        {
            "positions": [
                0.25947802207555526,
                -2.169149457995237,
                -2.2234288584129303,
                1.3946591896525893,
                0.3250356332698222,
                0.2821351257472431
            ]
        },
        {
            "positions": [
                0.11188576666499994,
                -2.2053369510407195,
                -2.2792110453303494,
                1.4154112607132885,
                0.2727764800219349,
                0.2082656112081882
            ]
        },
        {
            "positions": [
                -0.03570648874555493,
                -2.241524444086202,
                -2.3349932322477684,
                1.4361633317739875,
                0.22051732677404767,
                0.13439609666913332
            ]
        },
        {
            "positions": [
                -0.1832987441561104,
                -2.2777119371316847,
                -2.390775419165188,
                1.4569154028346865,
                0.16825817352616043,
                0.06052658213007855
            ]
        }
    ]
}