{
    "goal": {
        "global_pose": {
            "orientation": {
                "w": 0.005598929693374612,
                "x": 0.007748599140229565,
                "y": 0.7110244013736278,
                "z": -0.7031023480610252
            },
            "position": {
                "x": 0.1141497679147869,
                "y": -0.7141253447532654,
                "z": 0.3711530566215515
            }
        },
        "name": "move_to_auspresseinheit_B"
    },
    "id": "PRMstar_move_to_auspresseinheit_B_26",
    "joint_names": [
        "shoulder_pan_joint",
        "shoulder_lift_joint",
        "elbow_joint",
        "wrist_1_joint",
        "wrist_2_joint",
        "wrist_3_joint"
    ],
    "metrics": {
        "cart_traj_len": 0.5647982745176202,
        "distance_elbow_joint": 0.059134344912545656,
        "distance_shoulder_lift_joint": 0.29579517998010263,
        "distance_shoulder_pan_joint": 0.5788153579940285,
        "distance_wrist_1_joint": 0.31748760373474305,
        "distance_wrist_2_joint": 0.988182065803558,
        "distance_wrist_3_joint": 0.00037773486872971773,
        "smoothness": 0.0,
        "time": 5.004616348,
        "traj_len": 1.4965935611560368,
        "weighted_distance": 1.8831403098466848
    },
    "planner": "PRMstar",
    "start": {
        "state": {
            "elbow_joint": 2.0193083361928714,
            "shoulder_lift_joint": -1.1220246554650708,
            "shoulder_pan_joint": -1.0952077554168747,
            "wrist_1_joint": -0.8559753972642168,
            "wrist_2_joint": 0.4759566250798843,
            "wrist_3_joint": -3.1240929996934557
        }
    },
    "waypoints": [
        {
            "positions": [
                -1.0952077554168747,
                -1.1220246554650708,
                2.0193083361928714,
                -0.8559753972642168,
                0.4759566250798843,
                -3.1240929996934557
            ]
        },
        {
            "positions": [
                -1.1916769817492128,
                -1.1713238521284213,
                2.0094526120407803,
                -0.8030607966417596,
                0.640653636047144,
                -3.1240300438820006
            ]
        },
        {
            "positions": [
                -1.288146208081551,
                -1.2206230487917717,
                1.9995968878886896,
                -0.7501461960193024,
                0.8053506470144036,
                -3.123967088070546
            ]
        },
        {
            "positions": [
                -1.384615434413889,
                -1.2699222454551222,
                1.9897411637365985,
                -0.6972315953968453,
                0.9700476579816633,
                -3.123904132259091
            ]
        },
        {
            "positions": [
                -1.481084660746227,
                -1.3192214421184725,
                1.9798854395845076,
                -0.6443169947743881,
                1.134744668948923,
                -3.1238411764476357
            ]
        },
        {
            "positions": [
                -1.577553887078565,
                -1.368520638781823,
                1.9700297154324167,
                -0.5914023941519309,
                1.2994416799161828,
                -3.123778220636181
            ]
        },
        {
            "positions": [
                -1.6740231134109032,
                -1.4178198354451734,
                1.9601739912803258,
                -0.5384877935294737,
                1.4641386908834424,
                -3.123715264824726
            ]
        }
    ]
}