{
    "goal": {
        "global_pose": {
            "orientation": {
                "w": -0.4816463035849501,
                "x": 0.5182115481033762,
                "y": 0.4908360881923453,
                "z": -0.5084816262002911
            },
            "position": {
                "x": -0.8240239810943604,
                "y": 0.19912469901144506,
                "z": 0.16403168439865112
            }
        },
        "name": "move_to_storage_D"
    },
    "id": "PRMstar_move_to_storage_D_58",
    "joint_names": [
        "shoulder_pan_joint",
        "shoulder_lift_joint",
        "elbow_joint",
        "wrist_1_joint",
        "wrist_2_joint",
        "wrist_3_joint"
    ],
    "metrics": {
        "cart_traj_len": 0.6283773369299568,
        "distance_elbow_joint": 0.994382625309612,
        "distance_shoulder_lift_joint": 0.15990780868519083,
        "distance_shoulder_pan_joint": 0.7829608495142514,
        "distance_wrist_1_joint": 3.8230928598449108,
        "distance_wrist_2_joint": 1.787673696358281,
        "distance_wrist_3_joint": 3.1497067320651966,
        "smoothness": 0.14706152822048274,
        "time": 5.074317768999999,
        "traj_len": 3.2707376189137283,
        "weighted_distance": 4.7547770286429865
    },
    "planner": "PRMstar",
    "start": {
        "state": {
            "elbow_joint": -2.384821988534728,
            "shoulder_lift_joint": -2.2788054721415256,
            "shoulder_pan_joint": -0.1854694642142757,
            "wrist_1_joint": 1.4845938289331202,
            "wrist_2_joint": 0.17898776772866878,
            "wrist_3_joint": 0.037105688729662994
        }
    },
    "waypoints": [
        {
            "positions": [
                -0.1854694642142757,
                -2.2788054721415256,
                -2.384821988534728,
                1.4845938289331202,
                0.17898776772866878,
                0.037105688729662994
            ]
        },
        {
            "positions": [
                -0.0687608214515851,
                -2.279931823888186,
                -2.4395739561932013,
                1.4734275391841127,
                0.11989305983113449,
                0.12415965459113493
            ]
        },
        {
            "positions": [
                0.047947821311105504,
                -2.281058175634847,
                -2.494325923851675,
                1.4622612494351053,
                0.06079835193360021,
                0.21121362045260686
            ]
        },
        {
            "positions": [
                0.1646564640737961,
                -2.2821845273815073,
                -2.5490778915101484,
                1.4510949596860978,
                0.0017036440360659322,
                0.2982675863140788
            ]
        },
        {
            "positions": [
                0.28136510683648674,
                -2.2833108791281678,
                -2.6038298591686218,
                1.4399286699370903,
                -0.05739106386146836,
                0.38532155217555075
            ]
        },
        {
            "positions": [
                0.2681931785671747,
                -2.2768357790573948,
                -2.5715225777238,
                1.2824941824017202,
                -0.12202834989347436,
                0.5020503383680219
            ]
        },
        {
            "positions": [
                0.25502125029786266,
                -2.270360678986622,
                -2.5392152962789787,
                1.1250596948663503,
                -0.18666563592548036,
                0.6187791245604931
            ]
        },
        {
            "positions": [
                0.2418493220285506,
                -2.263885578915849,
                -2.506908014834157,
                0.9676252073309802,
                -0.2513029219574864,
                0.7355079107529643
            ]
        },
        {
            "positions": [
                0.22867739375923857,
                -2.257410478845076,
                -2.4746007333893356,
                0.8101907197956102,
                -0.31594020798949235,
                0.8522366969454356
            ]
        },
        {
            "positions": [
                0.2155054654899265,
                -2.2509353787743036,
                -2.4422934519445136,
                0.6527562322602402,
                -0.38057749402149843,
                0.9689654831379068
            ]
        },
        {
            "positions": [
                0.20233353722061448,
                -2.2444602787035306,
                -2.409986170499692,
                0.4953217447248701,
                -0.4452147800535044,
                1.085694269330378
            ]
        },
        {
            "positions": [
                0.1891616089513024,
                -2.2379851786327576,
                -2.3776788890548706,
                0.33788725718949997,
                -0.5098520660855104,
                1.2024230555228492
            ]
        },
        {
            "positions": [
                0.1759896806819904,
                -2.231510078561985,
                -2.345371607610049,
                0.18045276965413004,
                -0.5744893521175163,
                1.3191518417153203
            ]
        },
        {
            "positions": [
                0.16281775241267832,
                -2.225034978491212,
                -2.3130643261652275,
                0.023018282118759892,
                -0.6391266381495224,
                1.4358806279077916
            ]
        },
        {
            "positions": [
                0.14964582414336627,
                -2.218559878420439,
                -2.280757044720406,
                -0.13441620541661004,
                -0.7037639241815286,
                1.5526094141002629
            ]
        },
        {
            "positions": [
                0.13647389587405423,
                -2.2120847783496664,
                -2.2484497632755844,
                -0.29185069295197996,
                -0.7684012102135345,
                1.6693382002927337
            ]
        },
        {
            "positions": [
                0.12330196760474219,
                -2.2056096782788934,
                -2.2161424818307625,
                -0.4492851804873501,
                -0.8330384962455404,
                1.786066986485205
            ]
        },
        {
            "positions": [
                0.11013003933543014,
                -2.1991345782081204,
                -2.183835200385941,
                -0.6067196680227198,
                -0.8976757822775463,
                1.9027957726776763
            ]
        },
        {
            "positions": [
                0.09695811106611807,
                -2.192659478137348,
                -2.1515279189411194,
                -0.7641541555580904,
                -0.9623130683095524,
                2.0195245588701476
            ]
        },
        {
            "positions": [
                0.08378618279680605,
                -2.186184378066575,
                -2.119220637496298,
                -0.9215886430934601,
                -1.0269503543415583,
                2.136253345062619
            ]
        },
        {
            "positions": [
                0.07061425452749401,
                -2.179709277995802,
                -2.0869133560514763,
                -1.0790231306288303,
                -1.0915876403735643,
                2.2529821312550897
            ]
        },
        {
            "positions": [
                0.057442326258181936,
                -2.1732341779250293,
                -2.054606074606655,
                -1.2364576181642004,
                -1.1562249264055704,
                2.369710917447561
            ]
        },
        {
            "positions": [
                0.04427039798886989,
                -2.1667590778542563,
                -2.0222987931618333,
                -1.3938921056995706,
                -1.2208622124375765,
                2.4864397036400323
            ]
        },
        {
            "positions": [
                0.031098469719557875,
                -2.1602839777834832,
                -1.9899915117170117,
                -1.5513265932349403,
                -1.2854994984695824,
                2.6031684898325036
            ]
        },
        {
            "positions": [
                0.017926541450245803,
                -2.1538088777127107,
                -1.95768423027219,
                -1.7087610807703104,
                -1.3501367845015886,
                2.719897276024975
            ]
        },
        {
            "positions": [
                0.004754613180933787,
                -2.1473337776419377,
                -1.9253769488273684,
                -1.8661955683056806,
                -1.4147740705335945,
                2.836626062217446
            ]
        },
        {
            "positions": [
                -0.008417315088378285,
                -2.1408586775711647,
                -1.8930696673825467,
                -2.0236300558410503,
                -1.4794113565656004,
                2.953354848409917
            ]
        },
        {
            "positions": [
                -0.021589243357690358,
                -2.134383577500392,
                -1.8607623859377251,
                -2.181064543376421,
                -1.5440486425976065,
                3.0700836346023883
            ]
        },
        {
            "positions": [
                -0.034761171627002395,
                -2.127908477429619,
                -1.8284551044929036,
                -2.3384990309117906,
                -1.6086859286296125,
                3.1868124207948596
            ]
        }
    ]
}