{
    "goal": {
        "global_pose": {
            "orientation": {
                "w": 0.7047431493862688,
                "x": -0.7094548369677653,
                "y": 0.0024358444001904,
                "z": -0.0022348060817251984
            },
            "position": {
                "x": -0.39052492380142206,
                "y": 0.3671506643295288,
                "z": 0.19426114857196808
            }
        },
        "name": "move_to_magneteinheit_D"
    },
    "id": "PRMstar_move_to_magneteinheit_D_45",
    "joint_names": [
        "shoulder_pan_joint",
        "shoulder_lift_joint",
        "elbow_joint",
        "wrist_1_joint",
        "wrist_2_joint",
        "wrist_3_joint"
    ],
    "metrics": {
        "cart_traj_len": 4.200826261453937,
        "distance_elbow_joint": 3.497748710228949,
        "distance_shoulder_lift_joint": 1.6305250132957811,
        "distance_shoulder_pan_joint": 2.5665999004238023,
        "distance_wrist_1_joint": 1.9380967598381174,
        "distance_wrist_2_joint": 1.3946913607632547,
        "distance_wrist_3_joint": 3.3617058459420606,
        "smoothness": 0.2850561535583798,
        "time": 5.057853868,
        "traj_len": 3.7933319905449836,
        "weighted_distance": 4.944245888199478
    },
    "planner": "PRMstar",
    "start": {
        "state": {
            "elbow_joint": 0.749534889911806,
            "shoulder_lift_joint": -0.6476975780787326,
            "shoulder_pan_joint": -2.711696901376241,
            "wrist_1_joint": -0.07506478083263063,
            "wrist_2_joint": 0.43296659715538205,
            "wrist_3_joint": -3.14703540197715
        }
    },
    "waypoints": [
        {
            "positions": [
                -2.711696901376241,
                -0.6476975780787326,
                0.749534889911806,
                -0.07506478083263063,
                0.43296659715538205,
                -3.14703540197715
            ]
        },
        {
            "positions": [
                -2.7320855208386328,
                -0.6835294889827979,
                0.8025445719066815,
                -0.2769456480948319,
                0.42221472438510443,
                -3.220969183014494
            ]
        },
        {
            "positions": [
                -2.7037780612658664,
                -0.7660866192345283,
                0.5948601484592145,
                -0.2716538023155573,
                0.3868099096810356,
                -3.1873806157369655
            ]
        },
        {
            "positions": [
                -2.6754706016931,
                -0.8486437494862586,
                0.3871757250117476,
                -0.26636195653628275,
                0.35140509497696676,
                -3.153792048459437
            ]
        },
        {
            "positions": [
                -2.647163142120334,
                -0.931200879737989,
                0.17949130156428061,
                -0.26107011075700814,
                0.31600028027289795,
                -3.1202034811819086
            ]
        },
        {
            "positions": [
                -2.6188556825475677,
                -1.0137580099897194,
                -0.028193121883186345,
                -0.25577826497773354,
                0.2805954655688291,
                -3.0866149139043806
            ]
        },
        {
            "positions": [
                -2.5905482229748014,
                -1.09631514024145,
                -0.23587754533065342,
                -0.25048641919845893,
                0.2451906508647603,
                -3.053026346626852
            ]
        },
        {
            "positions": [
                -2.562240763402035,
                -1.1788722704931802,
                -0.44356196877812026,
                -0.24519457341918435,
                0.20978583616069146,
                -3.0194377793493237
            ]
        },
        {
            "positions": [
                -2.533933303829269,
                -1.2614294007449107,
                -0.6512463922255871,
                -0.23990272763990977,
                0.17438102145662265,
                -2.985849212071795
            ]
        },
        {
            "positions": [
                -2.5056258442565027,
                -1.343986530996641,
                -0.8589308156730542,
                -0.23461088186063517,
                0.1389762067525538,
                -2.9522606447942668
            ]
        },
        {
            "positions": [
                -2.4773183846837363,
                -1.4265436612483715,
                -1.066615239120521,
                -0.2293190360813606,
                0.10357139204848498,
                -2.9186720775167383
            ]
        },
        {
            "positions": [
                -2.44901092511097,
                -1.509100791500102,
                -1.2742996625679883,
                -0.22402719030208598,
                0.06816657734441617,
                -2.88508351023921
            ]
        },
        {
            "positions": [
                -2.420703465538204,
                -1.5916579217518323,
                -1.4819840860154547,
                -0.2187353445228114,
                0.03276176264034736,
                -2.851494942961682
            ]
        },
        {
            "positions": [
                -2.3923960059654377,
                -1.6742150520035626,
                -1.689668509462922,
                -0.2134434987435368,
                -0.002643052063721507,
                -2.8179063756841534
            ]
        },
        {
            "positions": [
                -2.3640885463926713,
                -1.756772182255293,
                -1.8973529329103889,
                -0.20815165296426222,
                -0.03804786676779034,
                -2.784317808406625
            ]
        },
        {
            "positions": [
                -2.274009523788098,
                -1.7778391874135577,
                -1.969114796025327,
                -0.11679809509138608,
                -0.07684800115161941,
                -2.740128586073944
            ]
        },
        {
            "positions": [
                -2.183930501183525,
                -1.7989061925718226,
                -2.0408766591402654,
                -0.02544453721850995,
                -0.1156481355354485,
                -2.6959393637412625
            ]
        },
        {
            "positions": [
                -2.0938514785789524,
                -1.8199731977300875,
                -2.1126385222552035,
                0.06590902065436618,
                -0.15444826991927757,
                -2.6517501414085816
            ]
        },
        {
            "positions": [
                -2.0037724559743793,
                -1.8410402028883521,
                -2.1844003853701417,
                0.15726257852724232,
                -0.19324840430310666,
                -2.6075609190759006
            ]
        },
        {
            "positions": [
                -1.9136934333698061,
                -1.8621072080466168,
                -2.25616224848508,
                0.24861613640011845,
                -0.23204853868693576,
                -2.563371696743219
            ]
        },
        {
            "positions": [
                -1.8236144107652332,
                -1.8831742132048817,
                -2.327924111600018,
                0.3399696942729946,
                -0.2708486730707648,
                -2.519182474410538
            ]
        },
        {
            "positions": [
                -1.705321556720608,
                -1.8927252609250451,
                -2.3513651415487673,
                0.414816274484446,
                -0.2880512040919093,
                -2.3947355999611655
            ]
        },
        {
            "positions": [
                -1.5870287026759828,
                -1.9022763086452084,
                -2.374806171497516,
                0.48966285469589743,
                -0.3052537351130538,
                -2.270288725511793
            ]
        },
        {
            "positions": [
                -1.4687358486313575,
                -1.9118273563653718,
                -2.3982472014462655,
                0.5645094349073488,
                -0.3224562661341983,
                -2.1458418510624204
            ]
        },
        {
            "positions": [
                -1.3504429945867322,
                -1.9213784040855353,
                -2.4216882313950143,
                0.6393560151188002,
                -0.33965879715534275,
                -2.021394976613048
            ]
        },
        {
            "positions": [
                -1.2321501405421071,
                -1.9309294518056987,
                -2.4451292613437636,
                0.7142025953302517,
                -0.35686132817648725,
                -1.8969481021636754
            ]
        },
        {
            "positions": [
                -1.1138572864974818,
                -1.940480499525862,
                -2.4685702912925125,
                0.7890491755417031,
                -0.37406385919763174,
                -1.772501227714303
            ]
        },
        {
            "positions": [
                -0.9955644324528565,
                -1.9500315472460255,
                -2.492011321241262,
                0.8638957557531545,
                -0.39126639021877624,
                -1.6480543532649303
            ]
        },
        {
            "positions": [
                -0.8860113718675706,
                -1.965844731244784,
                -2.4982493545372524,
                0.9305796737477599,
                -0.37985805193728917,
                -1.4939752340966042
            ]
        },
        {
            "positions": [
                -0.7764583112822848,
                -1.9816579152435425,
                -2.504487387833243,
                0.9972635917423653,
                -0.36844971365580204,
                -1.3398961149282778
            ]
        },
        {
            "positions": [
                -0.666905250696999,
                -1.997471099242301,
                -2.510725421129233,
                1.0639475097369706,
                -0.3570413753743149,
                -1.1858169957599514
            ]
        },
        {
            "positions": [
                -0.5573521901117131,
                -2.0132842832410596,
                -2.5169634544252237,
                1.130631427731576,
                -0.34563303709282783,
                -1.0317378765916252
            ]
        },
        {
            "positions": [
                -0.5042839115067859,
                -2.0511326129744103,
                -2.4990733112963426,
                1.177579830124363,
                -0.27065803419809253,
                -0.8748034825227898
            ]
        },
        {
            "positions": [
                -0.4512156329018586,
                -2.0889809427077606,
                -2.4811831681674614,
                1.2245282325171498,
                -0.1956830313033572,
                -0.7178690884539545
            ]
        },
        {
            "positions": [
                -0.3981473542969314,
                -2.1268292724411113,
                -2.4632930250385803,
                1.2714766349099367,
                -0.12070802840862188,
                -0.5609346943851191
            ]
        },
        {
            "positions": [
                -0.34507907569200413,
                -2.164677602174462,
                -2.4454028819096987,
                1.3184250373027235,
                -0.04573302551388658,
                -0.40400030031628376
            ]
        },
        {
            "positions": [
                -0.2920107970870769,
                -2.2025259319078128,
                -2.4275127387808175,
                1.3653734396955106,
                0.02924197738084877,
                -0.24706590624744829
            ]
        },
        {
            "positions": [
                -0.23894251848214965,
                -2.240374261641163,
                -2.4096225956519364,
                1.4123218420882975,
                0.10421698027558407,
                -0.09013151217861304
            ]
        },
        {
            "positions": [
                -0.18587423987722237,
                -2.2782225913745138,
                -2.391732452523055,
                1.4592702444810843,
                0.17919198317031942,
                0.06680288189022247
            ]
        }
    ]
}