{
    "goal": {
        "global_pose": {
            "orientation": {
                "w": -0.4816463035849501,
                "x": 0.5182115481033762,
                "y": 0.4908360881923453,
                "z": -0.5084816262002911
            },
            "position": {
                "x": -0.8240239810943604,
                "y": 0.19912469901144506,
                "z": 0.16403168439865112
            }
        },
        "name": "move_to_storage_D"
    },
    "id": "PRMstar_move_to_storage_D_145",
    "joint_names": [
        "shoulder_pan_joint",
        "shoulder_lift_joint",
        "elbow_joint",
        "wrist_1_joint",
        "wrist_2_joint",
        "wrist_3_joint"
    ],
    "metrics": {
        "cart_traj_len": 0.5519361104884398,
        "distance_elbow_joint": 0.5549353889533273,
        "distance_shoulder_lift_joint": 0.15205025898177338,
        "distance_shoulder_pan_joint": 0.24894235020855576,
        "distance_wrist_1_joint": 3.822261103022282,
        "distance_wrist_2_joint": 1.7842779066195016,
        "distance_wrist_3_joint": 3.1285153048335586,
        "smoothness": 0.008713129382805758,
        "time": 5.087627902,
        "traj_len": 3.1130342613949815,
        "weighted_distance": 4.642688007170835
    },
    "planner": "PRMstar",
    "start": {
        "state": {
            "elbow_joint": -2.384821988534728,
            "shoulder_lift_joint": -2.2788054721415256,
            "shoulder_pan_joint": -0.1854694642142757,
            "wrist_1_joint": 1.4845938289331202,
            "wrist_2_joint": 0.17898776772866878,
            "wrist_3_joint": 0.037105688729662994
        }
    },
    "waypoints": [
        {
            "positions": [
                -0.1854694642142757,
                -2.2788054721415256,
                -2.384821988534728,
                1.4845938289331202,
                0.17898776772866878,
                0.037105688729662994
            ]
        },
        {
            "positions": [
                -0.1438758625084745,
                -2.269520723173181,
                -2.3792084398547715,
                1.482899739175724,
                0.17387706561264807,
                0.004651338590646523
            ]
        },
        {
            "positions": [
                -0.06508541448090277,
                -2.2457990733769275,
                -2.3655494434576574,
                1.4789117662684885,
                0.15691819421382097,
                -0.06987850419900625
            ]
        },
        {
            "positions": [
                0.01370503354666898,
                -2.2220774235806737,
                -2.3518904470605433,
                1.4749237933612531,
                0.13995932281499388,
                -0.144408346988659
            ]
        },
        {
            "positions": [
                0.011631373028018525,
                -2.218105664813135,
                -2.3301402867489123,
                1.3160658322174859,
                0.06724059524391776,
                -0.2672000665351272
            ]
        },
        {
            "positions": [
                0.009557712509368071,
                -2.214133906045597,
                -2.3083901264372813,
                1.1572078710737186,
                -0.005478132327158353,
                -0.38999178608159535
            ]
        },
        {
            "positions": [
                0.007484051990717618,
                -2.2101621472780586,
                -2.2866399661256507,
                0.9983499099299513,
                -0.07819685989823447,
                -0.5127835056280636
            ]
        },
        {
            "positions": [
                0.005410391472067165,
                -2.20619038851052,
                -2.2648898058140197,
                0.839491948786184,
                -0.15091558746931058,
                -0.6355752251745317
            ]
        },
        {
            "positions": [
                0.0033367309534167115,
                -2.2022186297429815,
                -2.2431396455023886,
                0.6806339876424167,
                -0.2236343150403867,
                -0.758366944721
            ]
        },
        {
            "positions": [
                0.0012630704347662575,
                -2.1982468709754435,
                -2.2213894851907576,
                0.5217760264986494,
                -0.2963530426114628,
                -0.8811586642674681
            ]
        },
        {
            "positions": [
                -0.0008105900838841964,
                -2.194275112207905,
                -2.1996393248791266,
                0.362918065354882,
                -0.3690717701825389,
                -1.0039503838139363
            ]
        },
        {
            "positions": [
                -0.0028842506025346486,
                -2.1903033534403664,
                -2.1778891645674956,
                0.20406010421111498,
                -0.441790497753615,
                -1.1267421033604044
            ]
        },
        {
            "positions": [
                -0.0049579111211851025,
                -2.1863315946728283,
                -2.1561390042558646,
                0.04520214306734749,
                -0.5145092253246911,
                -1.2495338229068726
            ]
        },
        {
            "positions": [
                -0.007031571639835556,
                -2.18235983590529,
                -2.134388843944234,
                -0.11365581807641978,
                -0.5872279528957672,
                -1.372325542453341
            ]
        },
        {
            "positions": [
                -0.00910523215848601,
                -2.1783880771377513,
                -2.112638683632603,
                -0.27251377922018705,
                -0.6599466804668433,
                -1.495117261999809
            ]
        },
        {
            "positions": [
                -0.011178892677136464,
                -2.1744163183702128,
                -2.090888523320972,
                -0.4313717403639543,
                -0.7326654080379195,
                -1.6179089815462773
            ]
        },
        {
            "positions": [
                -0.013252553195786915,
                -2.1704445596026747,
                -2.069138363009341,
                -0.5902297015077216,
                -0.8053841356089955,
                -1.7407007010927453
            ]
        },
        {
            "positions": [
                -0.015326213714437372,
                -2.166472800835136,
                -2.04738820269771,
                -0.7490876626514891,
                -0.8781028631800717,
                -1.8634924206392138
            ]
        },
        {
            "positions": [
                -0.017399874233087826,
                -2.1625010420675976,
                -2.0256380423860794,
                -0.9079456237952561,
                -0.9508215907511478,
                -1.986284140185682
            ]
        },
        {
            "positions": [
                -0.019473534751738276,
                -2.1585292833000596,
                -2.0038878820744483,
                -1.0668035849390232,
                -1.023540318322224,
                -2.10907585973215
            ]
        },
        {
            "positions": [
                -0.021547195270388737,
                -2.154557524532521,
                -1.9821377217628173,
                -1.225661546082791,
                -1.0962590458933001,
                -2.2318675792786182
            ]
        },
        {
            "positions": [
                -0.023620855789039184,
                -2.1505857657649825,
                -1.9603875614511863,
                -1.3845195072265581,
                -1.1689777734643763,
                -2.3546592988250863
            ]
        },
        {
            "positions": [
                -0.025694516307689638,
                -2.1466140069974444,
                -1.9386374011395553,
                -1.5433774683703252,
                -1.2416965010354524,
                -2.4774510183715543
            ]
        },
        {
            "positions": [
                -0.027768176826340092,
                -2.142642248229906,
                -1.9168872408279243,
                -1.7022354295140927,
                -1.3144152286065285,
                -2.600242737918023
            ]
        },
        {
            "positions": [
                -0.029841837344990546,
                -2.1386704894623674,
                -1.8951370805162935,
                -1.8610933906578597,
                -1.3871339561776046,
                -2.723034457464491
            ]
        },
        {
            "positions": [
                -0.031915497863641,
                -2.134698730694829,
                -1.8733869202046627,
                -2.019951351801627,
                -1.4598526837486807,
                -2.845826177010959
            ]
        },
        {
            "positions": [
                -0.033989158382291454,
                -2.1307269719272908,
                -1.8516367598930317,
                -2.1788093129453947,
                -1.5325714113197568,
                -2.9686178965574275
            ]
        },
        {
            "positions": [
                -0.03606281890094191,
                -2.1267552131597522,
                -1.8298865995814007,
                -2.3376672740891618,
                -1.605290138890833,
                -3.0914096161038955
            ]
        }
    ]
}