{
    "goal": {
        "global_pose": {
            "orientation": {
                "w": -0.00223480608172531,
                "x": 0.0024358444001904467,
                "y": 0.7094548369677653,
                "z": -0.704743149386269
            },
            "position": {
                "x": 0.6205249238014221,
                "y": -0.6371506643295288,
                "z": 0.19426114857196808
            }
        },
        "name": "move_to_magneteinheit_B"
    },
    "id": "PRMstar_move_to_magneteinheit_B_69",
    "joint_names": [
        "shoulder_pan_joint",
        "shoulder_lift_joint",
        "elbow_joint",
        "wrist_1_joint",
        "wrist_2_joint",
        "wrist_3_joint"
    ],
    "metrics": {
        "cart_traj_len": 1.535665218938396,
        "distance_elbow_joint": 0.9725819757025937,
        "distance_shoulder_lift_joint": 1.1154641405923036,
        "distance_shoulder_pan_joint": 1.9633683177192705,
        "distance_wrist_1_joint": 1.4406910292107313,
        "distance_wrist_2_joint": 1.530330233835964,
        "distance_wrist_3_joint": 2.336699131345185,
        "smoothness": 1.0248626374920928,
        "time": 5.0485881070000005,
        "traj_len": 3.0592703097971006,
        "weighted_distance": 4.12353663184203
    },
    "planner": "PRMstar",
    "start": {
        "state": {
            "elbow_joint": 2.6216224122426386,
            "shoulder_lift_joint": -1.4174107377796124,
            "shoulder_pan_joint": 0.7066234856936794,
            "wrist_1_joint": 1.9546482284002225,
            "wrist_2_joint": -0.7096286983471962,
            "wrist_3_joint": 0.005740856962016249
        }
    },
    "waypoints": [
        {
            "positions": [
                0.7066234856936794,
                -1.4174107377796124,
                2.6216224122426386,
                1.9546482284002225,
                -0.7096286983471962,
                0.005740856962016249
            ]
        },
        {
            "positions": [
                0.6120472650545793,
                -1.3778241273778968,
                2.551589223848433,
                1.863023239138732,
                -0.7452941533326917,
                -0.018207673863917445
            ]
        },
        {
            "positions": [
                0.6311678543827691,
                -1.3979490855763985,
                2.552546786444516,
                1.9468501891861423,
                -0.8645900752913093,
                0.10499298380651109
            ]
        },
        {
            "positions": [
                0.6502884437109591,
                -1.4180740437749004,
                2.5535043490405993,
                2.0306771392335525,
                -0.9838859972499269,
                0.22819364147693963
            ]
        },
        {
            "positions": [
                0.6694090330391489,
                -1.4381990019734021,
                2.554461911636682,
                2.1145040892809623,
                -1.1031819192085446,
                0.3513942991473682
            ]
        },
        {
            "positions": [
                0.6885296223673388,
                -1.458323960171904,
                2.555419474232765,
                2.1983310393283726,
                -1.2224778411671622,
                0.47459495681779673
            ]
        },
        {
            "positions": [
                0.7076502116955287,
                -1.4784489183704057,
                2.5563770368288483,
                2.282157989375783,
                -1.3417737631257798,
                0.5977956144882253
            ]
        },
        {
            "positions": [
                0.7267708010237186,
                -1.4985738765689076,
                2.5573345994249315,
                2.3659849394231927,
                -1.4610696850843974,
                0.7209962721586538
            ]
        },
        {
            "positions": [
                0.7458913903519084,
                -1.5186988347674093,
                2.558292162021014,
                2.4498118894706034,
                -1.580365607043015,
                0.8441969298290823
            ]
        },
        {
            "positions": [
                0.7650119796800983,
                -1.538823792965911,
                2.5592497246170973,
                2.533638839518013,
                -1.6996615290016326,
                0.9673975874995109
            ]
        },
        {
            "positions": [
                0.7841325690082882,
                -1.558948751164413,
                2.5602072872131805,
                2.6174657895654234,
                -1.81895745096025,
                1.0905982451699394
            ]
        },
        {
            "positions": [
                0.7242826850833216,
                -1.535923973793515,
                2.522237906084837,
                2.685936018859208,
                -1.9531464455651841,
                1.1566985410876962
            ]
        },
        {
            "positions": [
                0.607364334426072,
                -1.4736576788625741,
                2.4610978101694587,
                2.6483536431285817,
                -1.9736330517521825,
                1.0754239421185792
            ]
        },
        {
            "positions": [
                0.4904459837688223,
                -1.411391383931633,
                2.3999577142540804,
                2.6107712673979555,
                -1.9941196579391807,
                0.9941493431494624
            ]
        },
        {
            "positions": [
                0.3735276331115726,
                -1.349125089000692,
                2.3388176183387017,
                2.57318889166733,
                -2.014606264126179,
                0.9128747441803454
            ]
        },
        {
            "positions": [
                0.25660928245432296,
                -1.2868587940697511,
                2.2776775224233234,
                2.5356065159367036,
                -2.035092870313177,
                0.8316001452112285
            ]
        },
        {
            "positions": [
                0.13969093179707326,
                -1.22459249913881,
                2.216537426507945,
                2.4980241402060774,
                -2.0555794765001756,
                0.7503255462421115
            ]
        },
        {
            "positions": [
                0.02277258113982361,
                -1.162326204207869,
                2.155397330592567,
                2.4604417644754513,
                -2.076066082687174,
                0.6690509472729946
            ]
        },
        {
            "positions": [
                -0.09414576951742604,
                -1.100059909276928,
                2.0942572346771886,
                2.4228593887448255,
                -2.096552688874172,
                0.5877763483038776
            ]
        },
        {
            "positions": [
                -0.21106412017467568,
                -1.0377936143459872,
                2.03311713876181,
                2.3852770130141994,
                -2.1170392950611703,
                0.5065017493347607
            ]
        },
        {
            "positions": [
                -0.32798247083192533,
                -0.975527319415046,
                1.9719770428464316,
                2.347694637283573,
                -2.1375259012481687,
                0.4252271503656436
            ]
        },
        {
            "positions": [
                -0.4449008214891751,
                -0.913261024484105,
                1.9108369469310533,
                2.310112261552947,
                -2.158012507435167,
                0.3439525513965267
            ]
        },
        {
            "positions": [
                -0.5618191721464246,
                -0.850994729553164,
                1.849696851015675,
                2.272529885822321,
                -2.1784991136221654,
                0.2626779524274099
            ]
        },
        {
            "positions": [
                -0.6787375228036744,
                -0.7887284346222231,
                1.7885567551002965,
                2.234947510091695,
                -2.1989857198091634,
                0.18140335345829295
            ]
        },
        {
            "positions": [
                -0.7956558734609241,
                -0.7264621396912819,
                1.727416659184918,
                2.197365134361069,
                -2.2194723259961617,
                0.1001287544891758
            ]
        },
        {
            "positions": [
                -0.9125742241181736,
                -0.664195844760341,
                1.6662765632695398,
                2.1597827586304428,
                -2.23995893218316,
                0.01885415552005904
            ]
        }
    ]
}