{
    "goal": {
        "global_pose": {
            "orientation": {
                "w": -0.4816463035849501,
                "x": 0.5182115481033762,
                "y": 0.4908360881923453,
                "z": -0.5084816262002911
            },
            "position": {
                "x": -0.8240239810943604,
                "y": -0.300875300988555,
                "z": 0.16403168439865112
            }
        },
        "name": "move_to_storage_C"
    },
    "id": "PRMstar_move_to_storage_C_17",
    "joint_names": [
        "shoulder_pan_joint",
        "shoulder_lift_joint",
        "elbow_joint",
        "wrist_1_joint",
        "wrist_2_joint",
        "wrist_3_joint"
    ],
    "metrics": {
        "cart_traj_len": 0.5759601114318064,
        "distance_elbow_joint": 0.25456257038653174,
        "distance_shoulder_lift_joint": 0.18958030819184857,
        "distance_shoulder_pan_joint": 0.4949042412238547,
        "distance_wrist_1_joint": 0.06565653002801475,
        "distance_wrist_2_joint": 1.0604256992676002,
        "distance_wrist_3_joint": 0.057843515878089224,
        "smoothness": 2.5376526478085547e-16,
        "time": 5.0081862820000005,
        "traj_len": 1.4570425062351264,
        "weighted_distance": 1.8343233428236505
    },
    "planner": "PRMstar",
    "start": {
        "state": {
            "elbow_joint": 2.010868314990456,
            "shoulder_lift_joint": -1.1634956873337592,
            "shoulder_pan_joint": -2.4736205022346125,
            "wrist_1_joint": -0.8367026794202681,
            "wrist_2_joint": 0.6746043897044499,
            "wrist_3_joint": -3.1496632123970403
        }
    },
    "waypoints": [
        {
            "positions": [
                -2.4736205022346125,
                -1.1634956873337592,
                2.010868314990456,
                -0.8367026794202681,
                0.6746043897044499,
                -3.1496632123970403
            ]
        },
        {
            "positions": [
                -2.556104542438588,
                -1.1318989693017845,
                1.968441219926034,
                -0.825759924415599,
                0.85134200624905,
                -3.140022626417359
            ]
        },
        {
            "positions": [
                -2.638588582642564,
                -1.1003022512698097,
                1.9260141248616118,
                -0.8148171694109299,
                1.02807962279365,
                -3.130382040437677
            ]
        },
        {
            "positions": [
                -2.72107262284654,
                -1.0687055332378348,
                1.88358702979719,
                -0.8038744144062607,
                1.20481723933825,
                -3.1207414544579954
            ]
        },
        {
            "positions": [
                -2.8035566630505158,
                -1.03710881520586,
                1.841159934732768,
                -0.7929316594015916,
                1.3815548558828499,
                -3.111100868478314
            ]
        },
        {
            "positions": [
                -2.8860407032544915,
                -1.0055120971738853,
                1.798732839668346,
                -0.7819889043969225,
                1.5582924724274503,
                -3.101460282498633
            ]
        },
        {
            "positions": [
                -2.968524743458467,
                -0.9739153791419106,
                1.756305744603924,
                -0.7710461493922534,
                1.73503008897205,
                -3.091819696518951
            ]
        }
    ]
}