{
    "goal": {
        "global_pose": {
            "orientation": {
                "w": 0.7047431468963623,
                "x": -0.7094548344612122,
                "y": 0.0024358443915843964,
                "z": -0.0022348060738295317
            },
            "position": {
                "x": 0.6094750761985779,
                "y": 0.3671506643295288,
                "z": 0.19426114857196808
            }
        },
        "name": "move_to_magneteinheit_A"
    },
    "id": "PRMstar_move_to_magneteinheit_A_70",
    "joint_names": [
        "shoulder_pan_joint",
        "shoulder_lift_joint",
        "elbow_joint",
        "wrist_1_joint",
        "wrist_2_joint",
        "wrist_3_joint"
    ],
    "metrics": {
        "cart_traj_len": 3.734780282445389,
        "distance_elbow_joint": 3.872828461574054,
        "distance_shoulder_lift_joint": 0.32645321158822527,
        "distance_shoulder_pan_joint": 2.951295769988665,
        "distance_wrist_1_joint": 0.8473867006473419,
        "distance_wrist_2_joint": 1.6973853557457972,
        "distance_wrist_3_joint": 2.5797426400393686,
        "smoothness": 0.14137547148250804,
        "time": 5.042161432,
        "traj_len": 3.503582757633027,
        "weighted_distance": 4.469826559952335
    },
    "planner": "PRMstar",
    "start": {
        "state": {
            "elbow_joint": -1.9196185241190666,
            "shoulder_lift_joint": -1.2443396400964142,
            "shoulder_pan_joint": 2.6996025414629847,
            "wrist_1_joint": -1.5485510000780065,
            "wrist_2_joint": -1.5709468930060704,
            "wrist_3_joint": 0.4420197071253992
        }
    },
    "waypoints": [
        {
            "positions": [
                2.6996025414629847,
                -1.2443396400964142,
                -1.9196185241190666,
                -1.5485510000780065,
                -1.5709468930060704,
                0.4420197071253992
            ]
        },
        {
            "positions": [
                2.593473008522962,
                -1.235851982938807,
                -1.7973011181136713,
                -1.5243359803736036,
                -1.517843896842014,
                0.5238401391642586
            ]
        },
        {
            "positions": [
                2.4873434755829384,
                -1.2273643257812001,
                -1.6749837121082758,
                -1.500120960669201,
                -1.4647409006779577,
                0.6056605712031182
            ]
        },
        {
            "positions": [
                2.3812139426429155,
                -1.218876668623593,
                -1.5526663061028803,
                -1.475905940964798,
                -1.4116379045139014,
                0.6874810032419777
            ]
        },
        {
            "positions": [
                2.2750844097028926,
                -1.2103890114659859,
                -1.430348900097485,
                -1.4516909212603955,
                -1.358534908349845,
                0.7693014352808372
            ]
        },
        {
            "positions": [
                2.1689548767628697,
                -1.201901354308379,
                -1.3080314940920896,
                -1.4274759015559926,
                -1.3054319121857887,
                0.8511218673196967
            ]
        },
        {
            "positions": [
                2.0628253438228468,
                -1.1934136971507718,
                -1.185714088086694,
                -1.40326088185159,
                -1.2523289160217324,
                0.9329422993585563
            ]
        },
        {
            "positions": [
                1.9566958108828236,
                -1.1849260399931647,
                -1.0633966820812988,
                -1.379045862147187,
                -1.199225919857676,
                1.0147627313974157
            ]
        },
        {
            "positions": [
                1.8505662779428005,
                -1.1764383828355576,
                -0.9410792760759032,
                -1.3548308424427844,
                -1.1461229236936197,
                1.0965831634362753
            ]
        },
        {
            "positions": [
                1.7444367450027776,
                -1.1679507256779507,
                -0.8187618700705079,
                -1.3306158227383815,
                -1.0930199275295633,
                1.1784035954751348
            ]
        },
        {
            "positions": [
                1.6383072120627544,
                -1.1594630685203435,
                -0.6964444640651124,
                -1.3064008030339789,
                -1.039916931365507,
                1.2602240275139942
            ]
        },
        {
            "positions": [
                1.5321776791227315,
                -1.1509754113627364,
                -0.5741270580597171,
                -1.282185783329576,
                -0.9868139352014507,
                1.3420444595528538
            ]
        },
        {
            "positions": [
                1.4260481461827084,
                -1.1424877542051295,
                -0.45180965205432155,
                -1.2579707636251731,
                -0.9337109390373943,
                1.4238648915917134
            ]
        },
        {
            "positions": [
                1.3199186132426854,
                -1.1340000970475224,
                -0.32949224604892624,
                -1.2337557439207705,
                -0.880607942873338,
                1.5056853236305727
            ]
        },
        {
            "positions": [
                1.2137890803026625,
                -1.1255124398899152,
                -0.20717484004353093,
                -1.2095407242163678,
                -0.8275049467092817,
                1.587505755669432
            ]
        },
        {
            "positions": [
                1.1076595473626396,
                -1.1170247827323083,
                -0.08485743403813562,
                -1.185325704511965,
                -0.7744019505452254,
                1.6693261877082919
            ]
        },
        {
            "positions": [
                1.0015300144226162,
                -1.1085371255747012,
                0.03745997196726014,
                -1.161110684807562,
                -0.721298954381169,
                1.7511466197471512
            ]
        },
        {
            "positions": [
                0.8954004814825933,
                -1.100049468417094,
                0.15977737797265545,
                -1.1368956651031594,
                -0.6681959582171126,
                1.832967051786011
            ]
        },
        {
            "positions": [
                0.7892709485425704,
                -1.0915618112594871,
                0.28209478397805077,
                -1.1126806453987566,
                -0.6150929620530563,
                1.9147874838248704
            ]
        },
        {
            "positions": [
                0.6831414156025475,
                -1.08307415410188,
                0.4044121899834461,
                -1.088465625694354,
                -0.561989965889,
                1.9966079158637298
            ]
        },
        {
            "positions": [
                0.5770118826625241,
                -1.0745864969442729,
                0.5267295959888418,
                -1.064250605989951,
                -0.5088869697249436,
                2.0784283479025896
            ]
        },
        {
            "positions": [
                0.4708823497225012,
                -1.0660988397866658,
                0.6490470019942371,
                -1.0400355862855482,
                -0.4557839735608873,
                2.160248779941449
            ]
        },
        {
            "positions": [
                0.3647528167824783,
                -1.0576111826290588,
                0.7713644079996325,
                -1.0158205665811455,
                -0.40268097739683095,
                2.2420692119803083
            ]
        },
        {
            "positions": [
                0.25862328384245536,
                -1.0491235254714517,
                0.8936818140050278,
                -0.9916055468767427,
                -0.3495779812327746,
                2.323889644019168
            ]
        },
        {
            "positions": [
                0.152493750902432,
                -1.0406358683138446,
                1.0159992200104235,
                -0.96739052717234,
                -0.2964749850687183,
                2.4057100760580274
            ]
        },
        {
            "positions": [
                0.04636421796240908,
                -1.0321482111562377,
                1.1383166260158188,
                -0.9431755074679372,
                -0.24337198890466194,
                2.4875305080968872
            ]
        },
        {
            "positions": [
                -0.05976531497761367,
                -1.0236605539986305,
                1.2606340320212142,
                -0.9189604877635345,
                -0.1902689927406057,
                2.5693509401357466
            ]
        },
        {
            "positions": [
                -0.022353482469533358,
                -1.0381594396982285,
                1.3939156296244013,
                -0.8776108048952085,
                -0.1327861090159704,
                2.649217594828141
            ]
        },
        {
            "positions": [
                0.015058350038546955,
                -1.0526583253978266,
                1.5271972272275887,
                -0.8362611220268826,
                -0.0753032252913351,
                2.7290842495205356
            ]
        },
        {
            "positions": [
                0.05247018254662726,
                -1.0671572110974248,
                1.6604788248307758,
                -0.7949114391585567,
                -0.017820341566699816,
                2.80895090421293
            ]
        },
        {
            "positions": [
                0.08988201505470758,
                -1.0816560967970228,
                1.7937604224339632,
                -0.7535617562902308,
                0.03966254215793552,
                2.8888175589053247
            ]
        },
        {
            "positions": [
                0.1272938475627879,
                -1.0961549824966208,
                1.9270420200371503,
                -0.7122120734219048,
                0.09714542588257083,
                2.968684213597719
            ]
        },
        {
            "positions": [
                0.12242509655512329,
                -1.1294346794890722,
                1.9532099374549878,
                -0.7011642994306646,
                0.12643846273972692,
                3.021762347164768
            ]
        }
    ]
}