{
    "goal": {
        "global_pose": {
            "orientation": {
                "w": 0.005598929693374612,
                "x": 0.007748599140229565,
                "y": 0.7110244013736278,
                "z": -0.7031023480610252
            },
            "position": {
                "x": 0.1141497679147869,
                "y": -0.7141253447532654,
                "z": 0.3711530566215515
            }
        },
        "name": "move_to_auspresseinheit_B"
    },
    "id": "PRMstar_move_to_auspresseinheit_B_72",
    "joint_names": [
        "shoulder_pan_joint",
        "shoulder_lift_joint",
        "elbow_joint",
        "wrist_1_joint",
        "wrist_2_joint",
        "wrist_3_joint"
    ],
    "metrics": {
        "cart_traj_len": 0.5647937190908218,
        "distance_elbow_joint": 0.06098306577394963,
        "distance_shoulder_lift_joint": 0.29668457943785764,
        "distance_shoulder_pan_joint": 0.5791805233806147,
        "distance_wrist_1_joint": 0.3258451450147737,
        "distance_wrist_2_joint": 0.9849530616039781,
        "distance_wrist_3_joint": 0.0009256114081139799,
        "smoothness": 0.0,
        "time": 5.018810697,
        "traj_len": 1.499523919989037,
        "weighted_distance": 1.8871198732603787
    },
    "planner": "PRMstar",
    "start": {
        "state": {
            "elbow_joint": 2.0193083361928714,
            "shoulder_lift_joint": -1.1220246554650708,
            "shoulder_pan_joint": -1.0952077554168747,
            "wrist_1_joint": -0.8559753972642168,
            "wrist_2_joint": 0.4759566250798843,
            "wrist_3_joint": -3.1240929996934557
        }
    },
    "waypoints": [
        {
            "positions": [
                -1.0952077554168747,
                -1.1220246554650708,
                2.0193083361928714,
                -0.8559753972642168,
                0.4759566250798843,
                -3.1240929996934557
            ]
        },
        {
            "positions": [
                -1.1917378426469771,
                -1.1714720853713805,
                2.0091444918972132,
                -0.8016678730950878,
                0.6401154686805473,
                -3.1239387311254365
            ]
        },
        {
            "positions": [
                -1.2882679298770796,
                -1.22091951527769,
                1.9989806476015548,
                -0.7473603489259589,
                0.8042743122812104,
                -3.123784462557418
            ]
        },
        {
            "positions": [
                -1.3847980171071819,
                -1.2703669451839996,
                1.9888168033058966,
                -0.6930528247568299,
                0.9684331558818733,
                -3.1236301939893987
            ]
        },
        {
            "positions": [
                -1.4813281043372843,
                -1.3198143750903093,
                1.9786529590102384,
                -0.6387453005877011,
                1.1325919994825364,
                -3.1234759254213795
            ]
        },
        {
            "positions": [
                -1.5778581915673868,
                -1.3692618049966188,
                1.96848911471458,
                -0.584437776418572,
                1.2967508430831993,
                -3.123321656853361
            ]
        },
        {
            "positions": [
                -1.6743882787974893,
                -1.4187092349029284,
                1.9583252704189218,
                -0.5301302522494431,
                1.4609096866838625,
                -3.1231673882853417
            ]
        }
    ]
}