{
    "goal": {
        "global_pose": {
            "orientation": {
                "w": 0.5084816217422485,
                "x": -0.49083608388900757,
                "y": 0.5182115435600281,
                "z": -0.4816462993621826
            },
            "position": {
                "x": 0.5540239810943604,
                "y": 0.030875300988554955,
                "z": 0.16403168439865112
            }
        },
        "name": "move_to_storage_A"
    },
    "id": "PRMstar_move_to_storage_A_3",
    "joint_names": [
        "shoulder_pan_joint",
        "shoulder_lift_joint",
        "elbow_joint",
        "wrist_1_joint",
        "wrist_2_joint",
        "wrist_3_joint"
    ],
    "metrics": {
        "cart_traj_len": 0.3531161871668243,
        "distance_elbow_joint": 0.4472165982615428,
        "distance_shoulder_lift_joint": 0.2325124514071446,
        "distance_shoulder_pan_joint": 0.45922888146120916,
        "distance_wrist_1_joint": 0.23643511208912316,
        "distance_wrist_2_joint": 1.1083305997884232,
        "distance_wrist_3_joint": 0.08755016244973168,
        "smoothness": 2.2204460668324854e-16,
        "time": 5.01031075,
        "traj_len": 1.6035191939784115,
        "weighted_distance": 2.0226566298396236
    },
    "planner": "PRMstar",
    "start": {
        "state": {
            "elbow_joint": 1.971548259319323,
            "shoulder_lift_joint": -1.1394851275133948,
            "shoulder_pan_joint": 0.1228115487234821,
            "wrist_1_joint": -0.7804723859257726,
            "wrist_2_joint": 0.12958671773740124,
            "wrist_3_joint": -3.192489227718131
        }
    },
    "waypoints": [
        {
            "positions": [
                0.1228115487234821,
                -1.1394851275133948,
                1.971548259319323,
                -0.7804723859257726,
                0.12958671773740124,
                -3.192489227718131
            ]
        },
        {
            "positions": [
                0.057207422800452226,
                -1.1727011920001298,
                2.0354363447852575,
                -0.814248830509933,
                0.28791966056431884,
                -3.1799820616538836
            ]
        },
        {
            "positions": [
                -0.008396703122577648,
                -1.2059172564868648,
                2.099324430251192,
                -0.8480252750940935,
                0.4462526033912364,
                -3.1674748955896366
            ]
        },
        {
            "positions": [
                -0.07400082904560754,
                -1.2391333209735997,
                2.163212515717127,
                -0.8818017196782539,
                0.604585546218154,
                -3.154967729525389
            ]
        },
        {
            "positions": [
                -0.1396049549686374,
                -1.2723493854603345,
                2.2271006011830616,
                -0.9155781642624145,
                0.7629184890450716,
                -3.1424605634611416
            ]
        },
        {
            "positions": [
                -0.20520908089166728,
                -1.3055654499470695,
                2.2909886866489964,
                -0.9493546088465749,
                0.9212514318719893,
                -3.129953397396894
            ]
        },
        {
            "positions": [
                -0.27081320681469717,
                -1.3387815144338044,
                2.354876772114931,
                -0.9831310534307354,
                1.0795843746989067,
                -3.117446231332647
            ]
        },
        {
            "positions": [
                -0.33641733273772706,
                -1.3719975789205394,
                2.418764857580866,
                -1.0169074980148958,
                1.2379173175258245,
                -3.1049390652683995
            ]
        }
    ]
}{
    "goal": {
        "global_pose": {
            "orientation": {
                "w": 0.5084816217422485,
                "x": -0.49083608388900757,
                "y": 0.5182115435600281,
                "z": -0.4816462993621826
            },
            "position": {
                "x": 0.5540239810943604,
                "y": 0.030875300988554955,
                "z": 0.16403168439865112
            }
        },
        "name": "move_to_storage_A"
    },
    "id": "PRMstar_move_to_storage_A_3",
    "joint_names": [
        "shoulder_pan_joint",
        "shoulder_lift_joint",
        "elbow_joint",
        "wrist_1_joint",
        "wrist_2_joint",
        "wrist_3_joint"
    ],
    "metrics": {
        "cart_traj_len": 0.3524918800449127,
        "distance_elbow_joint": 0.44836290316161165,
        "distance_shoulder_lift_joint": 0.23418169989532367,
        "distance_shoulder_pan_joint": 0.46087674836642634,
        "distance_wrist_1_joint": 0.24072572463670183,
        "distance_wrist_2_joint": 1.0972553722539864,
        "distance_wrist_3_joint": 0.0929247052589739,
        "smoothness": 0.0,
        "time": 5.009973593,
        "traj_len": 1.6044709886978399,
        "weighted_distance": 2.024390688820135
    },
    "planner": "PRMstar",
    "start": {
        "state": {
            "elbow_joint": 1.97154746011099,
            "shoulder_lift_joint": -1.13948474672311,
            "shoulder_pan_joint": 0.12281154466712228,
            "wrist_1_joint": -0.7804688027058302,
            "wrist_2_joint": 0.12958655903071145,
            "wrist_3_joint": 3.0906928834467795
        }
    },
    "waypoints": [
        {
            "positions": [
                0.12281154466712228,
                -1.13948474672311,
                1.97154746011099,
                -0.7804688027058302,
                0.12958655903071145,
                3.0906928834467795
            ]
        },
        {
            "positions": [
                0.05697200918620424,
                -1.1729392752795849,
                2.0355993034197915,
                -0.8148581919396447,
                0.28633732649556665,
                3.1039678413409186
            ]
        },
        {
            "positions": [
                -0.00886752629471381,
                -1.2063938038360595,
                2.0996511467285934,
                -0.8492475811734592,
                0.4430880939604218,
                3.1172427992350578
            ]
        },
        {
            "positions": [
                -0.07470706177563184,
                -1.2398483323925344,
                2.163702990037395,
                -0.8836369704072738,
                0.599838861425277,
                3.130517757129197
            ]
        },
        {
            "positions": [
                -0.1405465972565499,
                -1.2733028609490091,
                2.2277548333461965,
                -0.9180263596410884,
                0.7565896288901323,
                3.143792715023336
            ]
        },
        {
            "positions": [
                -0.20638613273746798,
                -1.306757389505484,
                2.291806676654998,
                -0.952415748874903,
                0.9133403963549875,
                3.157067672917475
            ]
        },
        {
            "positions": [
                -0.27222566821838595,
                -1.3402119180619587,
                2.3558585199638,
                -0.9868051381087175,
                1.0700911638198425,
                3.1703426308116143
            ]
        },
        {
            "positions": [
                -0.33806520369930404,
                -1.3736664466184336,
                2.4199103632726016,
                -1.021194527342532,
                1.2268419312846979,
                3.1836175887057534
            ]
        }
    ]
}{
    "goal": {
        "global_pose": {
            "orientation": {
                "w": 0.5084816217422485,
                "x": -0.49083608388900757,
                "y": 0.5182115435600281,
                "z": -0.4816462993621826
            },
            "position": {
                "x": 0.5540239810943604,
                "y": 0.030875300988554955,
                "z": 0.16403168439865112
            }
        },
        "name": "move_to_storage_A"
    },
    "id": "PRMstar_move_to_storage_A_3",
    "joint_names": [
        "shoulder_pan_joint",
        "shoulder_lift_joint",
        "elbow_joint",
        "wrist_1_joint",
        "wrist_2_joint",
        "wrist_3_joint"
    ],
    "metrics": {
        "cart_traj_len": 0.35311435159296145,
        "distance_elbow_joint": 0.4483500098457305,
        "distance_shoulder_lift_joint": 0.23623409172447318,
        "distance_shoulder_pan_joint": 0.45859784175251006,
        "distance_wrist_1_joint": 0.2332287196239109,
        "distance_wrist_2_joint": 1.1132111901947974,
        "distance_wrist_3_joint": 0.09049391215167857,
        "smoothness": 6.661338165333112e-16,
        "time": 5.013382142,
        "traj_len": 1.6062738761783748,
        "weighted_distance": 2.0267075515266546
    },
    "planner": "PRMstar",
    "start": {
        "state": {
            "elbow_joint": 1.9715472970024885,
            "shoulder_lift_joint": -1.1394870060712896,
            "shoulder_pan_joint": 0.12281152778156021,
            "wrist_1_joint": -0.780463741449964,
            "wrist_2_joint": 0.12958659822042276,
            "wrist_3_joint": 3.090690232415272
        }
    },
    "waypoints": [
        {
            "positions": [
                0.12281152778156021,
                -1.1394870060712896,
                1.9715472970024885,
                -0.780463741449964,
                0.12958659822042276,
                3.090690232415272
            ]
        },
        {
            "positions": [
                0.057297550388344484,
                -1.1732347334605,
                2.0355972984090216,
                -0.8137821299676655,
                0.28861676824825094,
                3.103617934151226
            ]
        },
        {
            "positions": [
                -0.00821642700487124,
                -1.2069824608497106,
                2.099647299815554,
                -0.847100518485367,
                0.44764693827607915,
                3.11654563588718
            ]
        },
        {
            "positions": [
                -0.07373040439808695,
                -1.240730188238921,
                2.1636973012220873,
                -0.8804189070030687,
                0.6066771083039073,
                3.1294733376231343
            ]
        },
        {
            "positions": [
                -0.1392443817913027,
                -1.2744779156281314,
                2.2277473026286203,
                -0.9137372955207702,
                0.7657072783317355,
                3.142401039359088
            ]
        },
        {
            "positions": [
                -0.20475835918451843,
                -1.3082256430173418,
                2.2917973040351534,
                -0.9470556840384718,
                0.9247374483595637,
                3.155328741095042
            ]
        },
        {
            "positions": [
                -0.2702723365777341,
                -1.3419733704065524,
                2.355847305441686,
                -0.9803740725561734,
                1.0837676183873919,
                3.1682564428309963
            ]
        },
        {
            "positions": [
                -0.3357863139709498,
                -1.3757210977957628,
                2.419897306848219,
                -1.013692461073875,
                1.2427977884152202,
                3.1811841445669504
            ]
        }
    ]
}