{
    "goal": {
        "global_pose": {
            "orientation": {
                "w": 0.7031023480610252,
                "x": -0.7110244013736278,
                "y": 0.0077485991402295624,
                "z": 0.005598929693374583
            },
            "position": {
                "x": -0.8841497679147869,
                "y": 0.44412534475326537,
                "z": 0.3711530566215515
            }
        },
        "name": "move_to_auspresseinheit_D"
    },
    "id": "PRMstar_move_to_auspresseinheit_D_127",
    "joint_names": [
        "shoulder_pan_joint",
        "shoulder_lift_joint",
        "elbow_joint",
        "wrist_1_joint",
        "wrist_2_joint",
        "wrist_3_joint"
    ],
    "metrics": {
        "cart_traj_len": 0.3437933161549887,
        "distance_elbow_joint": 0.6353132142551638,
        "distance_shoulder_lift_joint": 0.11909994328723927,
        "distance_shoulder_pan_joint": 0.13476162833165334,
        "distance_wrist_1_joint": 0.5217161376633919,
        "distance_wrist_2_joint": 1.434470046883667,
        "distance_wrist_3_joint": 0.005829053189372324,
        "smoothness": 9.86864913775177e-16,
        "time": 5.003901866,
        "traj_len": 1.6885467194041412,
        "weighted_distance": 2.1952299001554008
    },
    "planner": "PRMstar",
    "start": {
        "state": {
            "elbow_joint": -1.8275523626775212,
            "shoulder_lift_joint": -2.126789852344167,
            "shoulder_pan_joint": -0.03513704404078235,
            "wrist_1_joint": -2.347782403156801,
            "wrist_2_joint": -1.6058999987535132,
            "wrist_3_joint": -3.0880379163319196
        }
    },
    "waypoints": [
        {
            "positions": [
                -0.03513704404078235,
                -2.126789852344167,
                -1.8275523626775212,
                -2.347782403156801,
                -1.6058999987535132,
                -3.0880379163319196
            ]
        },
        {
            "positions": [
                -0.051982247582239016,
                -2.1416773452550717,
                -1.7481382108956258,
                -2.412996920364725,
                -1.4265912428930547,
                -3.0887665479805912
            ]
        },
        {
            "positions": [
                -0.06882745112369568,
                -2.1565648381659765,
                -1.6687240591137302,
                -2.4782114375726487,
                -1.2472824870325965,
                -3.089495179629263
            ]
        },
        {
            "positions": [
                -0.08567265466515235,
                -2.1714523310768814,
                -1.5893099073318346,
                -2.543425954780573,
                -1.067973731172138,
                -3.090223811277934
            ]
        },
        {
            "positions": [
                -0.10251785820660902,
                -2.1863398239877867,
                -1.5098957555499393,
                -2.6086404719884966,
                -0.8886649753116797,
                -3.0909524429266058
            ]
        },
        {
            "positions": [
                -0.11936306174806569,
                -2.2012273168986916,
                -1.430481603768044,
                -2.6738549891964207,
                -0.7093562194512213,
                -3.0916810745752774
            ]
        },
        {
            "positions": [
                -0.13620826528952235,
                -2.2161148098095964,
                -1.3510674519861483,
                -2.739069506404345,
                -0.5300474635907628,
                -3.0924097062239486
            ]
        },
        {
            "positions": [
                -0.15305346883097903,
                -2.2310023027205013,
                -1.2716533002042527,
                -2.8042840236122686,
                -0.3507387077303046,
                -3.0931383378726203
            ]
        },
        {
            "positions": [
                -0.1698986723724357,
                -2.245889795631406,
                -1.1922391484223573,
                -2.8694985408201927,
                -0.17142995186984608,
                -3.093866969521292
            ]
        }
    ]
}