{
    "goal": {
        "global_pose": {
            "orientation": {
                "w": -0.00223480608172531,
                "x": 0.0024358444001904467,
                "y": 0.7094548369677653,
                "z": -0.704743149386269
            },
            "position": {
                "x": -0.37947507619857795,
                "y": -0.6371506643295288,
                "z": 0.19426114857196808
            }
        },
        "name": "move_to_magneteinheit_C"
    },
    "id": "PRMstar_move_to_magneteinheit_C_81",
    "joint_names": [
        "shoulder_pan_joint",
        "shoulder_lift_joint",
        "elbow_joint",
        "wrist_1_joint",
        "wrist_2_joint",
        "wrist_3_joint"
    ],
    "metrics": {
        "cart_traj_len": 1.6461065184730377,
        "distance_elbow_joint": 0.5735726245299015,
        "distance_shoulder_lift_joint": 1.7862860502637503,
        "distance_shoulder_pan_joint": 0.8004197568947216,
        "distance_wrist_1_joint": 1.7906865579030278,
        "distance_wrist_2_joint": 0.7932479419912077,
        "distance_wrist_3_joint": 0.8386407492080101,
        "smoothness": 0.8766522282879461,
        "time": 5.028890314,
        "traj_len": 2.5657072476786236,
        "weighted_distance": 3.293033507133032
    },
    "planner": "PRMstar",
    "start": {
        "state": {
            "elbow_joint": 1.9565354010623817,
            "shoulder_lift_joint": -1.4165861575791021,
            "shoulder_pan_joint": -1.6717766225146293,
            "wrist_1_joint": -0.5286633292919765,
            "wrist_2_joint": 1.472756589071564,
            "wrist_3_joint": -3.1238370188695823
        }
    },
    "waypoints": [
        {
            "positions": [
                -1.6717766225146293,
                -1.4165861575791021,
                1.9565354010623817,
                -0.5286633292919765,
                1.472756589071564,
                -3.1238370188695823
            ]
        },
        {
            "positions": [
                -1.6874718138892641,
                -1.518526075922602,
                1.9415635453899731,
                -0.40357303567138786,
                1.4450581941524159,
                -3.0574024352657325
            ]
        },
        {
            "positions": [
                -1.703167005263899,
                -1.620465994266102,
                1.9265916897175646,
                -0.27848274205079926,
                1.4173597992332678,
                -2.990967851661883
            ]
        },
        {
            "positions": [
                -1.718862196638534,
                -1.7224059126096019,
                1.911619834045156,
                -0.15339244843021066,
                1.3896614043141198,
                -2.924533268058034
            ]
        },
        {
            "positions": [
                -1.7345573880131688,
                -1.8243458309531015,
                1.8966479783727472,
                -0.02830215480962206,
                1.3619630093949717,
                -2.858098684454184
            ]
        },
        {
            "positions": [
                -1.7502525793878037,
                -1.9262857492966017,
                1.8816761227003387,
                0.0967881388109666,
                1.3342646144758237,
                -2.7916641008503342
            ]
        },
        {
            "positions": [
                -1.7659477707624385,
                -2.0282256676401014,
                1.8667042670279301,
                0.22187843243155514,
                1.3065662195566756,
                -2.725229517246485
            ]
        },
        {
            "positions": [
                -1.8833401041298643,
                -2.054026528305239,
                1.8380728076130757,
                0.1329563285127906,
                1.2300214229489712,
                -2.7627197934110352
            ]
        },
        {
            "positions": [
                -2.00073243749729,
                -2.0798273889703762,
                1.8094413481982212,
                0.04403422459402606,
                1.153476626341267,
                -2.800210069575586
            ]
        },
        {
            "positions": [
                -2.118124770864716,
                -2.105628249635514,
                1.7808098887833665,
                -0.04488787932473848,
                1.0769318297335626,
                -2.837700345740137
            ]
        },
        {
            "positions": [
                -2.2355171042321413,
                -2.1314291103006515,
                1.752178429368512,
                -0.13380998324350302,
                1.0003870331258584,
                -2.875190621904687
            ]
        },
        {
            "positions": [
                -2.352909437599567,
                -2.1572299709657887,
                1.7235469699536576,
                -0.22273208716226756,
                0.923842236518154,
                -2.9126808980692376
            ]
        },
        {
            "positions": [
                -2.470301770966993,
                -2.1830308316309264,
                1.6949155105388032,
                -0.3116541910810321,
                0.8472974399104497,
                -2.9501711742337884
            ]
        },
        {
            "positions": [
                -2.4706175390407195,
                -2.0130572689289385,
                1.7469076328731903,
                -0.39608955319218364,
                0.8193326411054341,
                -2.9860197726667232
            ]
        },
        {
            "positions": [
                -2.4709333071144455,
                -1.8430837062269512,
                1.7988997552075776,
                -0.48052491530333513,
                0.7913678423004186,
                -3.021868371099658
            ]
        },
        {
            "positions": [
                -2.471249075188172,
                -1.6731101435249633,
                1.8508918775419647,
                -0.5649602774144866,
                0.7634030434954029,
                -3.057716969532593
            ]
        },
        {
            "positions": [
                -2.4715648432618984,
                -1.5031365808229757,
                1.9028839998763518,
                -0.6493956395256382,
                0.7354382446903873,
                -3.093565567965528
            ]
        },
        {
            "positions": [
                -2.4718806113356244,
                -1.333163018120988,
                1.9548761222107391,
                -0.7338310016367897,
                0.7074734458853718,
                -3.1294141663984627
            ]
        },
        {
            "positions": [
                -2.472196379409351,
                -1.1631894554190003,
                2.0068682445451262,
                -0.8182663637479413,
                0.6795086470803562,
                -3.1652627648313976
            ]
        }
    ]
}