{
    "goal": {
        "global_pose": {
            "orientation": {
                "w": 0.7031023502349854,
                "x": -0.7110244035720825,
                "y": 0.007748599164187908,
                "z": 0.005598929710686207
            },
            "position": {
                "x": 0.11585023208521307,
                "y": 0.44412534475326537,
                "z": 0.3711530566215515
            }
        },
        "name": "move_to_auspresseinheit_A"
    },
    "id": "PRMstar_move_to_auspresseinheit_A_71",
    "joint_names": [
        "shoulder_pan_joint",
        "shoulder_lift_joint",
        "elbow_joint",
        "wrist_1_joint",
        "wrist_2_joint",
        "wrist_3_joint"
    ],
    "metrics": {
        "cart_traj_len": 4.927776627477484,
        "distance_elbow_joint": 7.625411390960851,
        "distance_shoulder_lift_joint": 7.119469497809662,
        "distance_shoulder_pan_joint": 9.500973507139921,
        "distance_wrist_1_joint": 6.2780783316458555,
        "distance_wrist_2_joint": 4.682623828334375,
        "distance_wrist_3_joint": 9.163301166485997,
        "smoothness": 0.5502410020477199,
        "time": 5.131085387,
        "traj_len": 6.661070313573991,
        "weighted_distance": 8.582375091740568
    },
    "planner": "PRMstar",
    "start": {
        "state": {
            "elbow_joint": 2.4225746658250005,
            "shoulder_lift_joint": -1.3736534386056498,
            "shoulder_pan_joint": -0.3378633547517467,
            "wrist_1_joint": -1.0288598680537169,
            "wrist_2_joint": 1.233022673432363,
            "wrist_3_joint": -3.0940220416140027
        }
    },
    "waypoints": [
        {
            "positions": [
                -0.3378633547517467,
                -1.3736534386056498,
                2.4225746658250005,
                -1.0288598680537169,
                1.233022673432363,
                -3.0940220416140027
            ]
        },
        {
            "positions": [
                -0.4518087822743103,
                -1.4618646636850312,
                2.4304432841907273,
                -1.031085914176604,
                1.1396062650761785,
                -3.0044808529880718
            ]
        },
        {
            "positions": [
                -0.5657542097968739,
                -1.5500758887644124,
                2.4383119025564546,
                -1.0333119602994911,
                1.0461898567199939,
                -2.914939664362141
            ]
        },
        {
            "positions": [
                -0.6796996373194374,
                -1.6382871138437938,
                2.4461805209221814,
                -1.0355380064223783,
                0.9527734483638093,
                -2.8253984757362103
            ]
        },
        {
            "positions": [
                -0.793645064842001,
                -1.7264983389231752,
                2.4540491392879087,
                -1.0377640525452654,
                0.8593570400076247,
                -2.7358572871102793
            ]
        },
        {
            "positions": [
                -0.9075904923645646,
                -1.8147095640025563,
                2.4619177576536355,
                -1.0399900986681525,
                0.7659406316514401,
                -2.6463160984843483
            ]
        },
        {
            "positions": [
                -1.021535919887128,
                -1.9029207890819375,
                2.469786376019363,
                -1.0422161447910396,
                0.6725242232952554,
                -2.556774909858418
            ]
        },
        {
            "positions": [
                -1.1354813474096916,
                -1.991132014161319,
                2.4776549943850896,
                -1.0444421909139268,
                0.5791078149390708,
                -2.467233721232487
            ]
        },
        {
            "positions": [
                -1.2494267749322552,
                -2.0793432392407003,
                2.485523612750817,
                -1.0466682370368139,
                0.48569140658288623,
                -2.377692532606556
            ]
        },
        {
            "positions": [
                -1.3633722024548187,
                -2.1675544643200815,
                2.4933922311165437,
                -1.048894283159701,
                0.39227499822670164,
                -2.288151343980625
            ]
        },
        {
            "positions": [
                -1.4773176299773823,
                -2.255765689399463,
                2.501260849482271,
                -1.0511203292825881,
                0.29885858987051706,
                -2.198610155354694
            ]
        },
        {
            "positions": [
                -1.591263057499946,
                -2.3439769144788443,
                2.509129467847998,
                -1.053346375405475,
                0.20544218151433236,
                -2.1090689667287634
            ]
        },
        {
            "positions": [
                -1.7052084850225093,
                -2.4321881395582254,
                2.516998086213725,
                -1.0555724215283622,
                0.11202577315814777,
                -2.0195277781028325
            ]
        },
        {
            "positions": [
                -1.819153912545073,
                -2.5203993646376066,
                2.524866704579452,
                -1.0577984676512493,
                0.01860936480196318,
                -1.9299865894769015
            ]
        },
        {
            "positions": [
                -1.9330993400676366,
                -2.608610589716988,
                2.5327353229451792,
                -1.0600245137741364,
                -0.07480704355422141,
                -1.8404454008509707
            ]
        },
        {
            "positions": [
                -2.0470447675902004,
                -2.6968218147963694,
                2.540603941310906,
                -1.0622505598970235,
                -0.16822345191040622,
                -1.7509042122250398
            ]
        },
        {
            "positions": [
                -2.1609901951127637,
                -2.785033039875751,
                2.5484725596766333,
                -1.0644766060199107,
                -0.2616398602665906,
                -1.661363023599109
            ]
        },
        {
            "positions": [
                -2.2749356226353274,
                -2.873244264955132,
                2.55634117804236,
                -1.0667026521427978,
                -0.3550562686227754,
                -1.571821834973178
            ]
        },
        {
            "positions": [
                -2.3888810501578908,
                -2.9614554900345134,
                2.5642097964080874,
                -1.068928698265685,
                -0.44847267697895976,
                -1.4822806463472473
            ]
        },
        {
            "positions": [
                -2.5028264776804545,
                -3.0496667151138945,
                2.5720784147738143,
                -1.071154744388572,
                -0.5418890853351446,
                -1.3927394577213164
            ]
        },
        {
            "positions": [
                -2.616771905203018,
                -3.1378779401932757,
                2.5799470331395415,
                -1.0733807905114592,
                -0.6353054936913289,
                -1.3031982690953856
            ]
        },
        {
            "positions": [
                -2.7307173327255816,
                -3.2260891652726573,
                2.5878156515052684,
                -1.0756068366343463,
                -0.7287219020475137,
                -1.2136570804694546
            ]
        },
        {
            "positions": [
                -2.6000145888758754,
                -3.160345085236815,
                2.484439156345731,
                -1.0539016402039034,
                -0.7461139231563618,
                -1.2661022449022785
            ]
        },
        {
            "positions": [
                -2.469311845026169,
                -3.0946010052009725,
                2.3810626611861943,
                -1.0321964437734603,
                -0.7635059442652098,
                -1.3185474093351022
            ]
        },
        {
            "positions": [
                -2.3386091011764627,
                -3.0288569251651305,
                2.277686166026657,
                -1.0104912473430174,
                -0.7808979653740579,
                -1.370992573767926
            ]
        },
        {
            "positions": [
                -2.207906357326756,
                -2.963112845129288,
                2.1743096708671197,
                -0.9887860509125744,
                -0.7982899864829058,
                -1.4234377382007497
            ]
        },
        {
            "positions": [
                -2.07720361347705,
                -2.8973687650934457,
                2.070933175707583,
                -0.9670808544821315,
                -0.8156820075917539,
                -1.4758829026335736
            ]
        },
        {
            "positions": [
                -1.9465008696273438,
                -2.8316246850576032,
                1.9675566805480456,
                -0.9453756580516885,
                -0.833074028700602,
                -1.5283280670663975
            ]
        },
        {
            "positions": [
                -1.8157981257776374,
                -2.765880605021761,
                1.8641801853885083,
                -0.9236704616212457,
                -0.85046604980945,
                -1.5807732314992213
            ]
        },
        {
            "positions": [
                -1.685095381927931,
                -2.700136524985919,
                1.7608036902289714,
                -0.9019652651908027,
                -0.867858070918298,
                -1.633218395932045
            ]
        },
        {
            "positions": [
                -1.5543926380782247,
                -2.6343924449500764,
                1.6574271950694341,
                -0.8802600687603597,
                -0.8852500920271461,
                -1.6856635603648689
            ]
        },
        {
            "positions": [
                -1.4236898942285185,
                -2.568648364914234,
                1.554050699909897,
                -0.8585548723299168,
                -0.9026421131359941,
                -1.7381087247976925
            ]
        },
        {
            "positions": [
                -1.2929871503788122,
                -2.5029042848783916,
                1.4506742047503598,
                -0.8368496758994738,
                -0.9200341342448421,
                -1.7905538892305164
            ]
        },
        {
            "positions": [
                -1.1622844065291058,
                -2.4371602048425496,
                1.3472977095908227,
                -0.8151444794690308,
                -0.9374261553536902,
                -1.8429990536633403
            ]
        },
        {
            "positions": [
                -1.0315816626793994,
                -2.371416124806707,
                1.2439212144312857,
                -0.7934392830385879,
                -0.9548181764625382,
                -1.8954442180961641
            ]
        },
        {
            "positions": [
                -0.9008789188296933,
                -2.3056720447708647,
                1.1405447192717484,
                -0.7717340866081449,
                -0.9722101975713863,
                -1.9478893825289878
            ]
        },
        {
            "positions": [
                -0.7701761749799869,
                -2.2399279647350223,
                1.0371682241122113,
                -0.7500288901777019,
                -0.9896022186802342,
                -2.0003345469618115
            ]
        },
        {
            "positions": [
                -0.6394734311302805,
                -2.17418388469918,
                0.9337917289526743,
                -0.728323693747259,
                -1.0069942397890823,
                -2.0527797113946353
            ]
        },
        {
            "positions": [
                -0.5087706872805744,
                -2.1084398046633375,
                0.8304152337931372,
                -0.706618497316816,
                -1.0243862608979304,
                -2.105224875827459
            ]
        },
        {
            "positions": [
                -0.3780679434308678,
                -2.042695724627495,
                0.7270387386335999,
                -0.684913300886373,
                -1.0417782820067785,
                -2.157670040260283
            ]
        },
        {
            "positions": [
                -0.2473651995811621,
                -1.9769516445916533,
                0.6236622434740631,
                -0.6632081044559301,
                -1.0591703031156263,
                -2.2101152046931065
            ]
        },
        {
            "positions": [
                -0.1166624557314555,
                -1.9112075645558106,
                0.5202857483145258,
                -0.6415029080254872,
                -1.0765623242244744,
                -2.2625603691259304
            ]
        },
        {
            "positions": [
                0.014040288118250643,
                -1.8454634845199684,
                0.41690925315498895,
                -0.6197977115950442,
                -1.0939543453333225,
                -2.3150055335587543
            ]
        },
        {
            "positions": [
                0.14474303196795724,
                -1.779719404484126,
                0.3135327579954512,
                -0.5980925151646013,
                -1.1113463664421706,
                -2.367450697991578
            ]
        },
        {
            "positions": [
                0.2754457758176634,
                -1.7139753244482838,
                0.21015626283591438,
                -0.5763873187341583,
                -1.1287383875510186,
                -2.4198958624244016
            ]
        },
        {
            "positions": [
                0.40614851966737,
                -1.6482312444124414,
                0.10677976767637709,
                -0.5546821223037153,
                -1.1461304086598667,
                -2.472341026857226
            ]
        },
        {
            "positions": [
                0.5368512635170761,
                -1.5824871643765992,
                0.00340327251684025,
                -0.5329769258732724,
                -1.1635224297687146,
                -2.5247861912900493
            ]
        },
        {
            "positions": [
                0.6675540073667827,
                -1.5167430843407568,
                -0.09997322264269703,
                -0.5112717294428294,
                -1.1809144508775626,
                -2.5772313557228737
            ]
        },
        {
            "positions": [
                0.7982567512164884,
                -1.4509990043049146,
                -0.20334971780223388,
                -0.4895665330123865,
                -1.1983064719864107,
                -2.629676520155697
            ]
        },
        {
            "positions": [
                0.928959495066195,
                -1.3852549242690722,
                -0.3067262129617716,
                -0.4678613365819435,
                -1.2156984930952588,
                -2.682121684588521
            ]
        },
        {
            "positions": [
                1.0596622389159012,
                -1.31951084423323,
                -0.41010270812130845,
                -0.4461561401515005,
                -1.2330905142041066,
                -2.734566849021345
            ]
        },
        {
            "positions": [
                1.1903649827656078,
                -1.2537667641973873,
                -0.5134792032808457,
                -0.4244509437210575,
                -1.2504825353129547,
                -2.7870120134541683
            ]
        },
        {
            "positions": [
                1.321067726615314,
                -1.1880226841615453,
                -0.6168556984403826,
                -0.40274574729061463,
                -1.2678745564218028,
                -2.839457177886992
            ]
        },
        {
            "positions": [
                1.4517704704650205,
                -1.122278604125703,
                -0.7202321935999199,
                -0.38104055086017163,
                -1.2852665775306509,
                -2.891902342319816
            ]
        },
        {
            "positions": [
                1.5824732143147262,
                -1.0565345240898605,
                -0.8236086887594567,
                -0.35933535442972875,
                -1.302658598639499,
                -2.9443475067526395
            ]
        },
        {
            "positions": [
                1.7131759581644328,
                -0.9907904440540181,
                -0.926985183918994,
                -0.33763015799928575,
                -1.320050619748347,
                -2.9967926711854638
            ]
        },
        {
            "positions": [
                1.8438787020141394,
                -0.9250463640181761,
                -1.0303616790785313,
                -0.31592496156884275,
                -1.337442640857195,
                -3.049237835618287
            ]
        },
        {
            "positions": [
                1.974581445863846,
                -0.8593022839823332,
                -1.1337381742380686,
                -0.29421976513839976,
                -1.3548346619660432,
                -3.1016830000511115
            ]
        },
        {
            "positions": [
                2.1052841897135517,
                -0.7935582039464912,
                -1.2371146693976054,
                -0.2725145687079569,
                -1.372226683074891,
                -3.154128164483935
            ]
        },
        {
            "positions": [
                2.1193415131092888,
                -0.8573083442967447,
                -1.1440522554832127,
                -0.188340548340729,
                -1.320003593683022,
                -3.067517693091427
            ]
        },
        {
            "positions": [
                2.1333988365050254,
                -0.9210584846469982,
                -1.0509898415688197,
                -0.10416652797350112,
                -1.2677805042911525,
                -2.980907221698919
            ]
        },
        {
            "positions": [
                2.1474561599007624,
                -0.9848086249972517,
                -0.957927427654427,
                -0.019992507606273247,
                -1.2155574148992834,
                -2.894296750306411
            ]
        },
        {
            "positions": [
                2.161513483296499,
                -1.0485587653475053,
                -0.8648650137400341,
                0.06418151276095463,
                -1.1633343255074142,
                -2.807686278913903
            ]
        },
        {
            "positions": [
                2.175570806692236,
                -1.1123089056977586,
                -0.7718025998256413,
                0.1483555331281825,
                -1.111111236115545,
                -2.7210758075213954
            ]
        },
        {
            "positions": [
                2.189628130087973,
                -1.1760590460480123,
                -0.6787401859112484,
                0.23252955349541038,
                -1.0588881467236757,
                -2.6344653361288874
            ]
        },
        {
            "positions": [
                2.20368545348371,
                -1.2398091863982659,
                -0.5856777719968557,
                0.31670357386263825,
                -1.0066650573318066,
                -2.5478548647363795
            ]
        },
        {
            "positions": [
                2.217742776879447,
                -1.3035593267485193,
                -0.4926153580824628,
                0.40087759422986613,
                -0.9544419679399374,
                -2.4612443933438715
            ]
        },
        {
            "positions": [
                2.231800100275184,
                -1.3673094670987729,
                -0.39955294416806997,
                0.485051614597094,
                -0.902218878548068,
                -2.3746339219513635
            ]
        },
        {
            "positions": [
                2.2458574236709206,
                -1.4310596074490263,
                -0.3064905302536771,
                0.5692256349643219,
                -0.8499957891561989,
                -2.2880234505588555
            ]
        },
        {
            "positions": [
                2.2599147470666576,
                -1.4948097477992799,
                -0.21342811633928438,
                0.6533996553315498,
                -0.7977726997643296,
                -2.2014129791663475
            ]
        },
        {
            "positions": [
                2.2739720704623942,
                -1.5585598881495333,
                -0.12036570242489142,
                0.7375736756987776,
                -0.7455496103724605,
                -2.11480250777384
            ]
        },
        {
            "positions": [
                2.2880293938581313,
                -1.622310028499787,
                -0.02730328851049868,
                0.8217476960660055,
                -0.6933265209805912,
                -2.0281920363813315
            ]
        },
        {
            "positions": [
                2.3020867172538684,
                -1.6860601688500403,
                0.06575912540389406,
                0.9059217164332334,
                -0.6411034315887221,
                -1.941581564988824
            ]
        },
        {
            "positions": [
                2.316144040649605,
                -1.749810309200294,
                0.15882153931828702,
                0.9900957368004613,
                -0.5888803421968528,
                -1.854971093596316
            ]
        },
        {
            "positions": [
                2.330201364045342,
                -1.8135604495505473,
                0.25188395323267976,
                1.0742697571676891,
                -0.5366572528049837,
                -1.768360622203808
            ]
        },
        {
            "positions": [
                2.3442586874410787,
                -1.8773105899008007,
                0.3449463671470725,
                1.1584437775349168,
                -0.4844341634131145,
                -1.6817501508113002
            ]
        },
        {
            "positions": [
                2.3583160108368157,
                -1.9410607302510545,
                0.43800878106146546,
                1.2426177979021449,
                -0.43221107402124515,
                -1.595139679418792
            ]
        },
        {
            "positions": [
                2.372373334232553,
                -2.004810870601308,
                0.5310711949758582,
                1.3267918182693728,
                -0.379987984629376,
                -1.5085292080262842
            ]
        },
        {
            "positions": [
                2.3864306576282894,
                -2.0685610109515613,
                0.6241336088902512,
                1.4109658386366006,
                -0.32776489523750674,
                -1.4219187366337762
            ]
        },
        {
            "positions": [
                2.4004879810240265,
                -2.1323111513018147,
                0.7171960228046439,
                1.4951398590038283,
                -0.2755418058456376,
                -1.3353082652412684
            ]
        },
        {
            "positions": [
                2.4145453044197636,
                -2.1960612916520685,
                0.8102584367190366,
                1.5793138793710564,
                -0.22331871645376822,
                -1.2486977938487602
            ]
        },
        {
            "positions": [
                2.4286026278155,
                -2.259811432002322,
                0.9033208506334294,
                1.6634878997382843,
                -0.17109562706189907,
                -1.1620873224562525
            ]
        },
        {
            "positions": [
                2.4426599512112372,
                -2.3235615723525753,
                0.9963832645478226,
                1.7476619201055121,
                -0.11887253767002992,
                -1.0754768510637445
            ]
        },
        {
            "positions": [
                2.456717274606974,
                -2.3873117127028287,
                1.0894456784622153,
                1.83183594047274,
                -0.06664944827816077,
                -0.9888663796712369
            ]
        },
        {
            "positions": [
                2.470774598002711,
                -2.4510618530530826,
                1.182508092376608,
                1.9160099608399679,
                -0.014426358886291402,
                -0.9022559082787285
            ]
        },
        {
            "positions": [
                2.484831921398448,
                -2.514811993403336,
                1.2755705062910008,
                2.0001839812071958,
                0.03779673050557775,
                -0.8156454368862205
            ]
        },
        {
            "positions": [
                2.4988892447941846,
                -2.5785621337535893,
                1.3686329202053935,
                2.0843580015744236,
                0.0900198198974469,
                -0.7290349654937129
            ]
        },
        {
            "positions": [
                2.5129465681899217,
                -2.6423122741038427,
                1.4616953341197862,
                2.1685320219416515,
                0.14224290928931604,
                -0.642424494101205
            ]
        },
        {
            "positions": [
                2.5270038915856583,
                -2.7060624144540966,
                1.5547577480341794,
                2.2527060423088794,
                0.19446599868118541,
                -0.555814022708697
            ]
        },
        {
            "positions": [
                2.5410612149813954,
                -2.76981255480435,
                1.6478201619485722,
                2.3368800626761073,
                0.24668908807305456,
                -0.46920355131618896
            ]
        },
        {
            "positions": [
                2.4645470074205997,
                -2.7340522023477405,
                1.6790828808248859,
                2.2194282100196583,
                0.265791533934687,
                -0.5799344058228231
            ]
        },
        {
            "positions": [
                2.3880327998598037,
                -2.6982918498911306,
                1.7103455997011996,
                2.1019763573632093,
                0.2848939797963194,
                -0.6906652603294572
            ]
        },
        {
            "positions": [
                2.311518592299008,
                -2.662531497434521,
                1.741608318577513,
                1.9845245047067603,
                0.3039964256579519,
                -0.8013961148360913
            ]
        },
        {
            "positions": [
                2.235004384738212,
                -2.626771144977911,
                1.7728710374538268,
                1.8670726520503116,
                0.3230988715195843,
                -0.9121269693427254
            ]
        },
        {
            "positions": [
                2.1584901771774163,
                -2.5910107925213017,
                1.8041337563301405,
                1.7496207993938624,
                0.34220131738121673,
                -1.0228578238493595
            ]
        },
        {
            "positions": [
                2.0819759696166207,
                -2.5552504400646923,
                1.835396475206454,
                1.6321689467374136,
                0.3613037632428492,
                -1.1335886783559936
            ]
        },
        {
            "positions": [
                2.0054617620558246,
                -2.5194900876080824,
                1.8666591940827677,
                1.5147170940809647,
                0.38040620910448164,
                -1.244319532862628
            ]
        },
        {
            "positions": [
                1.928947554495029,
                -2.483729735151473,
                1.8979219129590814,
                1.397265241424516,
                0.39950865496611404,
                -1.3550503873692619
            ]
        },
        {
            "positions": [
                1.8524333469342331,
                -2.4479693826948634,
                1.9291846318353951,
                1.279813388768067,
                0.4186111008277465,
                -1.4657812418758962
            ]
        },
        {
            "positions": [
                1.7759191393734373,
                -2.4122090302382535,
                1.9604473507117088,
                1.1623615361116177,
                0.43771354668937895,
                -1.5765120963825303
            ]
        },
        {
            "positions": [
                1.6994049318126416,
                -2.376448677781644,
                1.9917100695880223,
                1.044909683455169,
                0.45681599255101135,
                -1.6872429508891644
            ]
        },
        {
            "positions": [
                1.6228907242518456,
                -2.3406883253250346,
                2.022972788464336,
                0.92745783079872,
                0.4759184384126438,
                -1.7979738053957985
            ]
        },
        {
            "positions": [
                1.54637651669105,
                -2.3049279728684247,
                2.0542355073406497,
                0.8100059781422713,
                0.49502088427427626,
                -1.9087046599024327
            ]
        },
        {
            "positions": [
                1.469862309130254,
                -2.269167620411815,
                2.0854982262169632,
                0.6925541254858221,
                0.5141233301359087,
                -2.019435514409067
            ]
        },
        {
            "positions": [
                1.3933481015694582,
                -2.2334072679552053,
                2.116760945093277,
                0.5751022728293731,
                0.5332257759975412,
                -2.1301663689157007
            ]
        },
        {
            "positions": [
                1.3168338940086626,
                -2.197646915498596,
                2.1480236639695907,
                0.45765042017292434,
                0.5523282218591735,
                -2.240897223422335
            ]
        },
        {
            "positions": [
                1.2403196864478665,
                -2.1618865630419863,
                2.1792863828459046,
                0.34019856751647515,
                0.5714306677208061,
                -2.3516280779289693
            ]
        },
        {
            "positions": [
                1.1638054788870709,
                -2.1261262105853764,
                2.210549101722218,
                0.22274671486002662,
                0.5905331135824384,
                -2.4623589324356034
            ]
        },
        {
            "positions": [
                1.087291271326275,
                -2.090365858128767,
                2.2418118205985316,
                0.10529486220357764,
                0.6096355594440708,
                -2.5730897869422376
            ]
        },
        {
            "positions": [
                1.0107770637654792,
                -2.054605505672157,
                2.2730745394748455,
                -0.012156990452871774,
                0.6287380053057033,
                -2.6838206414488717
            ]
        },
        {
            "positions": [
                0.9342628562046833,
                -2.0188451532155476,
                2.304337258351159,
                -0.1296088431093203,
                0.6478404511673357,
                -2.794551495955506
            ]
        },
        {
            "positions": [
                0.8577486486438877,
                -1.9830848007589381,
                2.3355999772274725,
                -0.24706069576576928,
                0.6669428970289681,
                -2.90528235046214
            ]
        },
        {
            "positions": [
                0.7812344410830916,
                -1.9473244483023282,
                2.3668626961037864,
                -0.36451254842221825,
                0.6860453428906006,
                -3.016013204968774
            ]
        },
        {
            "positions": [
                0.704720233522296,
                -1.9115640958457187,
                2.3981254149801,
                -0.48196440107866717,
                0.705147788752233,
                -3.126744059475408
            ]
        }
    ]
}