{
    "goal": {
        "global_pose": {
            "orientation": {
                "w": 0.7047431468963623,
                "x": -0.7094548344612122,
                "y": 0.0024358443915843964,
                "z": -0.0022348060738295317
            },
            "position": {
                "x": 0.6094750761985779,
                "y": 0.3671506643295288,
                "z": 0.19426114857196808
            }
        },
        "name": "move_to_magneteinheit_A"
    },
    "id": "PRMstar_move_to_magneteinheit_A_137",
    "joint_names": [
        "shoulder_pan_joint",
        "shoulder_lift_joint",
        "elbow_joint",
        "wrist_1_joint",
        "wrist_2_joint",
        "wrist_3_joint"
    ],
    "metrics": {
        "cart_traj_len": 3.5298151790158157,
        "distance_elbow_joint": 5.194299797837312,
        "distance_shoulder_lift_joint": 1.7324969225750135,
        "distance_shoulder_pan_joint": 5.181648042586854,
        "distance_wrist_1_joint": 3.4942399339959382,
        "distance_wrist_2_joint": 2.528110569279727,
        "distance_wrist_3_joint": 1.6100975001963675,
        "smoothness": 0.3508673154517521,
        "time": 5.055596179,
        "traj_len": 4.443072446682725,
        "weighted_distance": 5.383626869512746
    },
    "planner": "PRMstar",
    "start": {
        "state": {
            "elbow_joint": -1.9196185241190666,
            "shoulder_lift_joint": -1.2443396400964142,
            "shoulder_pan_joint": 2.6996025414629847,
            "wrist_1_joint": -1.5485510000780065,
            "wrist_2_joint": -1.5709468930060704,
            "wrist_3_joint": 0.4420197071253992
        }
    },
    "waypoints": [
        {
            "positions": [
                2.6996025414629847,
                -1.2443396400964142,
                -1.9196185241190666,
                -1.5485510000780065,
                -1.5709468930060704,
                0.4420197071253992
            ]
        },
        {
            "positions": [
                2.59184364413296,
                -1.2619639773607194,
                -1.793008701849185,
                -1.4805112481853904,
                -1.515845190548546,
                0.45785551848963946
            ]
        },
        {
            "positions": [
                2.4840847468029352,
                -1.2795883146250246,
                -1.6663988795793032,
                -1.412471496292774,
                -1.4607434880910217,
                0.4736913298538797
            ]
        },
        {
            "positions": [
                2.3763258494729107,
                -1.2972126518893299,
                -1.5397890573094213,
                -1.344431744400158,
                -1.4056417856334973,
                0.48952714121811997
            ]
        },
        {
            "positions": [
                2.2685669521428857,
                -1.3148369891536351,
                -1.4131792350395396,
                -1.2763919925075418,
                -1.3505400831759728,
                0.5053629525823602
            ]
        },
        {
            "positions": [
                2.160808054812861,
                -1.3324613264179404,
                -1.2865694127696576,
                -1.2083522406149254,
                -1.2954383807184484,
                0.5211987639466005
            ]
        },
        {
            "positions": [
                2.0530491574828362,
                -1.3500856636822456,
                -1.159959590499776,
                -1.1403124887223095,
                -1.240336678260924,
                0.5370345753108408
            ]
        },
        {
            "positions": [
                1.9452902601528117,
                -1.3677100009465508,
                -1.0333497682298942,
                -1.0722727368296932,
                -1.1852349758033998,
                0.552870386675081
            ]
        },
        {
            "positions": [
                1.837531362822787,
                -1.385334338210856,
                -0.9067399459600125,
                -1.004232984937077,
                -1.1301332733458753,
                0.5687061980393213
            ]
        },
        {
            "positions": [
                1.7297724654927622,
                -1.4029586754751613,
                -0.7801301236901306,
                -0.9361932330444608,
                -1.0750315708883509,
                0.5845420094035615
            ]
        },
        {
            "positions": [
                1.6220135681627375,
                -1.4205830127394665,
                -0.6535203014202486,
                -0.8681534811518445,
                -1.0199298684308267,
                0.6003778207678018
            ]
        },
        {
            "positions": [
                1.5142546708327127,
                -1.4382073500037718,
                -0.5269104791503669,
                -0.8001137292592283,
                -0.9648281659733021,
                0.616213632132042
            ]
        },
        {
            "positions": [
                1.4064957735026882,
                -1.455831687268077,
                -0.4003006568804852,
                -0.7320739773666123,
                -0.9097264635157778,
                0.6320494434962822
            ]
        },
        {
            "positions": [
                1.2987368761726634,
                -1.4734560245323822,
                -0.2736908346106035,
                -0.664034225473996,
                -0.8546247610582535,
                0.6478852548605225
            ]
        },
        {
            "positions": [
                1.1909779788426385,
                -1.4910803617966875,
                -0.14708101234072157,
                -0.5959944735813798,
                -0.799523058600729,
                0.6637210662247628
            ]
        },
        {
            "positions": [
                1.0832190815126137,
                -1.508704699060993,
                -0.020471190070839862,
                -0.5279547216887637,
                -0.7444213561432046,
                0.6795568775890031
            ]
        },
        {
            "positions": [
                0.9754601841825892,
                -1.526329036325298,
                0.10613863219904163,
                -0.45991496979614754,
                -0.6893196536856803,
                0.6953926889532434
            ]
        },
        {
            "positions": [
                0.8677012868525644,
                -1.5439533735896034,
                0.23274845446892378,
                -0.3918752179035312,
                -0.6342179512281559,
                0.7112285003174836
            ]
        },
        {
            "positions": [
                0.7599423895225397,
                -1.5615777108539084,
                0.3593582767388055,
                -0.32383546601091506,
                -0.5791162487706315,
                0.7270643116817239
            ]
        },
        {
            "positions": [
                0.6521834921925147,
                -1.5792020481182139,
                0.4859680990086872,
                -0.25579571411829893,
                -0.5240145463131072,
                0.7429001230459642
            ]
        },
        {
            "positions": [
                0.5444245948624902,
                -1.596826385382519,
                0.6125779212785694,
                -0.18775596222568258,
                -0.46891284385558274,
                0.7587359344102044
            ]
        },
        {
            "positions": [
                0.4366656975324652,
                -1.6144507226468243,
                0.7391877435484511,
                -0.11971621033306645,
                -0.4138111413980583,
                0.7745717457744447
            ]
        },
        {
            "positions": [
                0.3289068002024407,
                -1.6320750599111296,
                0.8657975658183328,
                -0.0516764584404501,
                -0.35870943894053386,
                0.7904075571386849
            ]
        },
        {
            "positions": [
                0.22114790287241615,
                -1.6496993971754348,
                0.992407388088214,
                0.016363293452165806,
                -0.30360773648300965,
                0.8062433685029251
            ]
        },
        {
            "positions": [
                0.11338900554239162,
                -1.6673237344397398,
                1.1190172103580962,
                0.08440304534478194,
                -0.2485060340254852,
                0.8220791798671654
            ]
        },
        {
            "positions": [
                0.005630108212366647,
                -1.6849480717040453,
                1.245627032627978,
                0.1524427972373983,
                -0.19340433156796077,
                0.8379149912314057
            ]
        },
        {
            "positions": [
                -0.10212878911765788,
                -1.7025724089683505,
                1.3722368548978596,
                0.22048254913001442,
                -0.13830262911043656,
                0.853750802595646
            ]
        },
        {
            "positions": [
                -0.20988768644768285,
                -1.7201967462326557,
                1.4988466771677413,
                0.28852230102263055,
                -0.08320092665291212,
                0.8695866139598862
            ]
        },
        {
            "positions": [
                -0.3176465837777078,
                -1.737821083496961,
                1.6254564994376235,
                0.3565620529152469,
                -0.028099224195387684,
                0.8854224253241265
            ]
        },
        {
            "positions": [
                -0.42540548110773235,
                -1.7554454207612662,
                1.7520663217075052,
                0.424601804807863,
                0.027002478262136753,
                0.9012582366883668
            ]
        },
        {
            "positions": [
                -0.5331643784377573,
                -1.7730697580255714,
                1.878676143977387,
                0.49264155670047916,
                0.08210418071966119,
                0.9170940480526071
            ]
        },
        {
            "positions": [
                -0.6409232757677819,
                -1.7906940952898767,
                2.005285966247269,
                0.5606813085930955,
                0.13720588317718563,
                0.9329298594168473
            ]
        },
        {
            "positions": [
                -0.7486821730978064,
                -1.8083184325541817,
                2.13189578851715,
                0.6287210604857114,
                0.19230758563470984,
                0.9487656707810875
            ]
        },
        {
            "positions": [
                -0.8564410704278309,
                -1.8259427698184871,
                2.2585056107870325,
                0.6967608123783278,
                0.24740928809223406,
                0.9646014821453277
            ]
        },
        {
            "positions": [
                -0.9641999677578559,
                -1.8435671070827924,
                2.385115433056914,
                0.7648005642709441,
                0.3025109905497585,
                0.980437293509568
            ]
        },
        {
            "positions": [
                -1.0719588650878804,
                -1.8611914443470976,
                2.511725255326796,
                0.83284031616356,
                0.35761269300728293,
                0.9962731048738083
            ]
        },
        {
            "positions": [
                -1.1797177624179054,
                -1.8788157816114028,
                2.6383350775966776,
                0.9008800680561764,
                0.41271439546480737,
                1.0121089162380486
            ]
        },
        {
            "positions": [
                -1.0928959131708411,
                -1.8056143962074012,
                2.5959119978552394,
                0.97053399244696,
                0.3764177767442174,
                0.9427750301658007
            ]
        },
        {
            "positions": [
                -1.0060740639237769,
                -1.7324130108033995,
                2.553488918113801,
                1.0401879168377437,
                0.34012115802362747,
                0.8734411440935528
            ]
        },
        {
            "positions": [
                -0.9192522146767124,
                -1.6592116253993978,
                2.5110658383723634,
                1.1098418412285274,
                0.3038245393030375,
                0.8041072580213049
            ]
        },
        {
            "positions": [
                -0.8324303654296481,
                -1.5860102399953964,
                2.468642758630925,
                1.179495765619311,
                0.26752792058244756,
                0.734773371949057
            ]
        },
        {
            "positions": [
                -0.7456085161825838,
                -1.5128088545913947,
                2.426219678889487,
                1.2491496900100947,
                0.23123130186185759,
                0.6654394858768091
            ]
        },
        {
            "positions": [
                -0.6587866669355195,
                -1.439607469187393,
                2.3837965991480488,
                1.3188036144008786,
                0.1949346831412676,
                0.5961055998045612
            ]
        },
        {
            "positions": [
                -0.5719648176884551,
                -1.3664060837833913,
                2.3413735194066105,
                1.3884575387916622,
                0.15863806442067768,
                0.5267717137323134
            ]
        },
        {
            "positions": [
                -0.4851429684413908,
                -1.2932046983793897,
                2.2989504396651728,
                1.4581114631824459,
                0.1223414457000877,
                0.45743782766006547
            ]
        },
        {
            "positions": [
                -0.39832111919432645,
                -1.220003312975388,
                2.2565273599237345,
                1.5277653875732295,
                0.08604482697949778,
                0.3881039415878176
            ]
        },
        {
            "positions": [
                -0.3114992699472622,
                -1.1468019275713863,
                2.2141042801822963,
                1.5974193119640132,
                0.0497482082589078,
                0.3187700555155697
            ]
        },
        {
            "positions": [
                -0.22467742070019792,
                -1.0736005421673847,
                2.171681200440858,
                1.6670732363547969,
                0.013451589538317876,
                0.2494361694433218
            ]
        },
        {
            "positions": [
                -0.13785557145313354,
                -1.000399156763383,
                2.12925812069942,
                1.7367271607455805,
                -0.02284502918227216,
                0.18010228337107392
            ]
        },
        {
            "positions": [
                -0.051033722206069054,
                -0.9271977713593814,
                2.0868350409579817,
                1.8063810851363642,
                -0.05914164790286208,
                0.11076839729882604
            ]
        },
        {
            "positions": [
                0.03578812704099521,
                -0.8539963859553799,
                2.044411961216544,
                1.8760350095271479,
                -0.095438266623452,
                0.04143451122657815
            ]
        },
        {
            "positions": [
                0.12260997628805954,
                -0.7807950005513781,
                2.0019888814751057,
                1.9456889339179315,
                -0.131734885344042,
                -0.02789937484566964
            ]
        }
    ]
}