{
    "goal": {
        "global_pose": {
            "orientation": {
                "w": 0.5084816262002911,
                "x": -0.4908360881923452,
                "y": 0.5182115481033761,
                "z": -0.48164630358495003
            },
            "position": {
                "x": 0.5540239810943604,
                "y": -0.46912469901144505,
                "z": 0.16403168439865112
            }
        },
        "name": "move_to_storage_B"
    },
    "id": "PRMstar_move_to_storage_B_83",
    "joint_names": [
        "shoulder_pan_joint",
        "shoulder_lift_joint",
        "elbow_joint",
        "wrist_1_joint",
        "wrist_2_joint",
        "wrist_3_joint"
    ],
    "metrics": {
        "cart_traj_len": 2.426176974053521,
        "distance_elbow_joint": 0.3504313219788737,
        "distance_shoulder_lift_joint": 1.159754105358652,
        "distance_shoulder_pan_joint": 2.689606454523621,
        "distance_wrist_1_joint": 2.9826669993539316,
        "distance_wrist_2_joint": 2.706684012700678,
        "distance_wrist_3_joint": 3.1309877481994355,
        "smoothness": 0.20227793204936453,
        "time": 5.029494225,
        "traj_len": 3.608341813370123,
        "weighted_distance": 4.997144899897208
    },
    "planner": "PRMstar",
    "start": {
        "state": {
            "elbow_joint": 1.664937868594044,
            "shoulder_lift_joint": -0.661644460510453,
            "shoulder_pan_joint": -0.9139846352900073,
            "wrist_1_joint": 2.146753192139373,
            "wrist_2_joint": -2.2341966793290973,
            "wrist_3_joint": 0.005466555786416001
        }
    },
    "waypoints": [
        {
            "positions": [
                -0.9139846352900073,
                -0.661644460510453,
                1.664937868594044,
                2.146753192139373,
                -2.2341966793290973,
                0.005466555786416001
            ]
        },
        {
            "positions": [
                -0.8095244125532273,
                -0.7291454202899414,
                1.6756380469295844,
                2.133228323337336,
                -2.160964317586744,
                0.10991657269701154
            ]
        },
        {
            "positions": [
                -0.7050641898164471,
                -0.7966463800694299,
                1.6863382252651251,
                2.1197034545352986,
                -2.087731955844391,
                0.21436658960760707
            ]
        },
        {
            "positions": [
                -0.6006039670796671,
                -0.8641473398489183,
                1.6970384036006656,
                2.106178585733261,
                -2.0144995941020376,
                0.31881660651820265
            ]
        },
        {
            "positions": [
                -0.4961437443428871,
                -0.9316482996284068,
                1.7077385819362063,
                2.0926537169312236,
                -1.9412672323596847,
                0.42326662342879817
            ]
        },
        {
            "positions": [
                -0.391683521606107,
                -0.9991492594078953,
                1.7184387602717468,
                2.0791288481291863,
                -1.8680348706173313,
                0.5277166403393937
            ]
        },
        {
            "positions": [
                -0.28722329886932696,
                -1.066650219187384,
                1.7291389386072873,
                2.065603979327149,
                -1.7948025088749782,
                0.6321666572499892
            ]
        },
        {
            "positions": [
                -0.18276307613254683,
                -1.1341511789668723,
                1.739839116942828,
                2.0520791105251117,
                -1.721570147132625,
                0.7366166741605849
            ]
        },
        {
            "positions": [
                -0.07830285339576692,
                -1.2016521387463608,
                1.7505392952783685,
                2.0385542417230744,
                -1.6483377853902719,
                0.8410666910711803
            ]
        },
        {
            "positions": [
                0.026157369341013204,
                -1.2691530985258492,
                1.7612394736139092,
                2.025029372921037,
                -1.5751054236479187,
                0.9455167079817759
            ]
        },
        {
            "positions": [
                0.13061759207779333,
                -1.3366540583053377,
                1.7719396519494497,
                2.0115045041189994,
                -1.5018730619055654,
                1.0499667248923714
            ]
        },
        {
            "positions": [
                0.23507781481457324,
                -1.4041550180848261,
                1.7826398302849904,
                1.997979635316962,
                -1.4286407001632124,
                1.154416741802967
            ]
        },
        {
            "positions": [
                0.3395380375513535,
                -1.4716559778643146,
                1.793340008620531,
                1.9844547665149248,
                -1.355408338420859,
                1.2588667587135625
            ]
        },
        {
            "positions": [
                0.27426150202034166,
                -1.4557585875004604,
                1.803432244163821,
                1.8562561949817664,
                -1.2723221715212027,
                1.34421164713503
            ]
        },
        {
            "positions": [
                0.20898496648932988,
                -1.4398611971366064,
                1.8135244797071115,
                1.728057623448608,
                -1.1892360046215464,
                1.4295565355564979
            ]
        },
        {
            "positions": [
                0.1437084309583181,
                -1.4239638067727522,
                1.8236167152504017,
                1.5998590519154499,
                -1.1061498377218901,
                1.5149014239779655
            ]
        },
        {
            "positions": [
                0.07843189542730628,
                -1.408066416408898,
                1.8337089507936921,
                1.4716604803822915,
                -1.0230636708222338,
                1.6002463123994333
            ]
        },
        {
            "positions": [
                0.013155359896294516,
                -1.3921690260450441,
                1.8438011863369823,
                1.3434619088491333,
                -0.9399775039225775,
                1.6855912008209009
            ]
        },
        {
            "positions": [
                -0.0521211756347173,
                -1.37627163568119,
                1.8538934218802727,
                1.215263337315975,
                -0.8568913370229213,
                1.7709360892423684
            ]
        },
        {
            "positions": [
                -0.11739771116572911,
                -1.3603742453173358,
                1.8639856574235631,
                1.0870647657828165,
                -0.773805170123265,
                1.856280977663836
            ]
        },
        {
            "positions": [
                -0.18267424669674093,
                -1.3444768549534816,
                1.8740778929668533,
                0.9588661942496581,
                -0.6907190032236087,
                1.9416258660853039
            ]
        },
        {
            "positions": [
                -0.2479507822277528,
                -1.3285794645896276,
                1.8841701285101435,
                0.8306676227164997,
                -0.6076328363239523,
                2.0269707545067717
            ]
        },
        {
            "positions": [
                -0.31322731775876445,
                -1.3126820742257734,
                1.894262364053434,
                0.7024690511833416,
                -0.5245466694242961,
                2.1123156429282393
            ]
        },
        {
            "positions": [
                -0.3785038532897763,
                -1.2967846838619193,
                1.9043545995967244,
                0.5742704796501832,
                -0.44146050252463975,
                2.197660531349707
            ]
        },
        {
            "positions": [
                -0.4437803888207881,
                -1.2808872934980653,
                1.9144468351400146,
                0.446071908117025,
                -0.35837433562498355,
                2.2830054197711744
            ]
        },
        {
            "positions": [
                -0.5090569243517999,
                -1.2649899031342111,
                1.9245390706833048,
                0.3178733365838664,
                -0.275288168725327,
                2.3683503081926425
            ]
        },
        {
            "positions": [
                -0.5743334598828117,
                -1.249092512770357,
                1.9346313062265952,
                0.18967476505070824,
                -0.19220200182567093,
                2.4536951966141096
            ]
        },
        {
            "positions": [
                -0.6396099954138235,
                -1.233195122406503,
                1.9447235417698856,
                0.06147619351755007,
                -0.10911583492601462,
                2.5390400850355777
            ]
        },
        {
            "positions": [
                -0.7048865309448353,
                -1.2172977320426488,
                1.9548157773131758,
                -0.06672237801560854,
                -0.02602966802635831,
                2.6243849734570452
            ]
        },
        {
            "positions": [
                -0.770163066475847,
                -1.2014003416787946,
                1.964908012856466,
                -0.19492094954876693,
                0.057056498873298,
                2.709729861878513
            ]
        },
        {
            "positions": [
                -0.8354396020068591,
                -1.1855029513149407,
                1.9750002483997564,
                -0.3231195210819253,
                0.14014266577295453,
                2.795074750299981
            ]
        },
        {
            "positions": [
                -0.9007161375378707,
                -1.1696055609510865,
                1.9850924839430468,
                -0.45131809261508327,
                0.22322883267261062,
                2.880419638721448
            ]
        },
        {
            "positions": [
                -0.9659926730688824,
                -1.1537081705872323,
                1.995184719486337,
                -0.5795166641482417,
                0.30631499957226693,
                2.965764527142916
            ]
        },
        {
            "positions": [
                -1.0312692085998945,
                -1.1378107802233783,
                2.005276955029627,
                -0.7077152356814,
                0.38940116647192324,
                3.0511094155643836
            ]
        },
        {
            "positions": [
                -1.096545744130906,
                -1.1219133898595242,
                2.0153691905729176,
                -0.8359138072145584,
                0.47248733337157955,
                3.1364543039858512
            ]
        }
    ]
}