{
    "goal": {
        "global_pose": {
            "orientation": {
                "w": 0.7047431493862688,
                "x": -0.7094548369677653,
                "y": 0.0024358444001904,
                "z": -0.0022348060817251984
            },
            "position": {
                "x": -0.39052492380142206,
                "y": 0.3671506643295288,
                "z": 0.19426114857196808
            }
        },
        "name": "move_to_magneteinheit_D"
    },
    "id": "PRMstar_move_to_magneteinheit_D_50",
    "joint_names": [
        "shoulder_pan_joint",
        "shoulder_lift_joint",
        "elbow_joint",
        "wrist_1_joint",
        "wrist_2_joint",
        "wrist_3_joint"
    ],
    "metrics": {
        "cart_traj_len": 4.494278747959951,
        "distance_elbow_joint": 3.13262970887138,
        "distance_shoulder_lift_joint": 1.1052361671651787,
        "distance_shoulder_pan_joint": 3.0880477094693215,
        "distance_wrist_1_joint": 2.2092092156875456,
        "distance_wrist_2_joint": 0.7235095628202859,
        "distance_wrist_3_joint": 0.6706128233638875,
        "smoothness": 0.47971116854223345,
        "time": 5.03727489,
        "traj_len": 3.305940892904409,
        "weighted_distance": 3.899126775652878
    },
    "planner": "PRMstar",
    "start": {
        "state": {
            "elbow_joint": 0.749534889911806,
            "shoulder_lift_joint": -0.6476975780787326,
            "shoulder_pan_joint": -2.711696901376241,
            "wrist_1_joint": -0.07506478083263063,
            "wrist_2_joint": 0.43296659715538205,
            "wrist_3_joint": -3.14703540197715
        }
    },
    "waypoints": [
        {
            "positions": [
                -2.711696901376241,
                -0.6476975780787326,
                0.749534889911806,
                -0.07506478083263063,
                0.43296659715538205,
                -3.14703540197715
            ]
        },
        {
            "positions": [
                -2.7312492866674893,
                -0.7408844352098949,
                0.7586944040456651,
                -0.14087922377165443,
                0.39168299090296477,
                -3.1575437705350806
            ]
        },
        {
            "positions": [
                -2.7508016719587376,
                -0.8340712923410571,
                0.7678539181795244,
                -0.20669366671067824,
                0.35039938465054743,
                -3.168052139093011
            ]
        },
        {
            "positions": [
                -2.633813954386844,
                -0.8682467761813647,
                0.659700783179523,
                -0.292936407020829,
                0.3258439028938853,
                -3.1521234576767028
            ]
        },
        {
            "positions": [
                -2.5168262368149503,
                -0.9024222600216724,
                0.5515476481795216,
                -0.3791791473309798,
                0.3012884211372232,
                -3.1361947762603943
            ]
        },
        {
            "positions": [
                -2.399838519243057,
                -0.9365977438619799,
                0.4433945131795201,
                -0.46542188764113057,
                0.2767329393805611,
                -3.120266094844086
            ]
        },
        {
            "positions": [
                -2.282850801671163,
                -0.9707732277022876,
                0.3352413781795187,
                -0.5516646279512813,
                0.25217745762389904,
                -3.1043374134277775
            ]
        },
        {
            "positions": [
                -2.1658630840992696,
                -1.0049487115425952,
                0.22708824317951726,
                -0.6379073682614321,
                0.22762197586723693,
                -3.088408732011469
            ]
        },
        {
            "positions": [
                -2.048875366527376,
                -1.0391241953829027,
                0.1189351081795158,
                -0.7241501085715829,
                0.2030664941105748,
                -3.0724800505951606
            ]
        },
        {
            "positions": [
                -1.9318876489554824,
                -1.0732996792232103,
                0.010781973179514348,
                -0.8103928488817337,
                0.1785110123539127,
                -3.0565513691788517
            ]
        },
        {
            "positions": [
                -1.8148999313835887,
                -1.1074751630635178,
                -0.097371161820487,
                -0.8966355891918845,
                0.15395553059725062,
                -3.0406226877625433
            ]
        },
        {
            "positions": [
                -1.697912213811695,
                -1.1416506469038255,
                -0.20552429682048856,
                -0.9828783295020352,
                0.1294000488405885,
                -3.024694006346235
            ]
        },
        {
            "positions": [
                -1.5809244962398015,
                -1.1758261307441331,
                -0.3136774318204899,
                -1.069121069812186,
                0.1048445670839264,
                -3.0087653249299264
            ]
        },
        {
            "positions": [
                -1.4639367786679078,
                -1.2100016145844408,
                -0.42183056682049125,
                -1.1553638101223367,
                0.08028908532726431,
                -2.992836643513618
            ]
        },
        {
            "positions": [
                -1.3469490610960142,
                -1.2441770984247484,
                -0.5299837018204928,
                -1.2416065504324876,
                0.0557336035706022,
                -2.9769079620973096
            ]
        },
        {
            "positions": [
                -1.2299613435241208,
                -1.2783525822650559,
                -0.6381368368204942,
                -1.3278492907426382,
                0.03117812181394014,
                -2.960979280681001
            ]
        },
        {
            "positions": [
                -1.112973625952227,
                -1.3125280661053635,
                -0.7462899718204957,
                -1.4140920310527891,
                0.006622640057277973,
                -2.9450505992646927
            ]
        },
        {
            "positions": [
                -0.9959859083803333,
                -1.346703549945671,
                -0.8544431068204971,
                -1.5003347713629398,
                -0.01793284169938414,
                -2.9291219178483843
            ]
        },
        {
            "positions": [
                -0.8789981908084399,
                -1.3808790337859786,
                -0.9625962418204984,
                -1.5865775116730907,
                -0.042488323456046195,
                -2.913193236432076
            ]
        },
        {
            "positions": [
                -0.762010473236546,
                -1.4150545176262863,
                -1.0707493768205003,
                -1.6728202519832416,
                -0.06704380521270836,
                -2.8972645550157674
            ]
        },
        {
            "positions": [
                -0.6450227556646526,
                -1.449230001466594,
                -1.1789025118205014,
                -1.7590629922933922,
                -0.09159928696937042,
                -2.8813358735994585
            ]
        },
        {
            "positions": [
                -0.5280350380927592,
                -1.4834054853069016,
                -1.2870556468205026,
                -1.845305732603543,
                -0.11615476872603248,
                -2.8654071921831505
            ]
        },
        {
            "positions": [
                -0.41104732052086534,
                -1.5175809691472093,
                -1.3952087818205041,
                -1.9315484729136938,
                -0.14071025048269464,
                -2.8494785107668417
            ]
        },
        {
            "positions": [
                -0.2940596029489715,
                -1.5517564529875167,
                -1.5033619168205057,
                -2.0177912132238447,
                -0.1652657322393567,
                -2.8335498293505332
            ]
        },
        {
            "positions": [
                -0.17707188537707808,
                -1.5859319368278242,
                -1.6115150518205068,
                -2.104033953533995,
                -0.1898212139960188,
                -2.817621147934225
            ]
        },
        {
            "positions": [
                -0.06008416780518422,
                -1.6201074206681318,
                -1.7196681868205088,
                -2.1902766938441465,
                -0.21437669575268092,
                -2.8016924665179164
            ]
        },
        {
            "positions": [
                0.0569035497667092,
                -1.6542829045084395,
                -1.8278213218205102,
                -2.276519434154297,
                -0.238932177509343,
                -2.785763785101608
            ]
        },
        {
            "positions": [
                -0.02350902262041695,
                -1.6871665180869302,
                -2.0006998020217193,
                -2.273934580032337,
                -0.2217285814574894,
                -2.8748663625204824
            ]
        },
        {
            "positions": [
                -0.10392159500754311,
                -1.7200501316654206,
                -2.173578282222928,
                -2.2713497259103774,
                -0.20452498540563574,
                -2.9639689399393565
            ]
        },
        {
            "positions": [
                -0.1843341673946693,
                -1.7529337452439113,
                -2.346456762424137,
                -2.2687648717884175,
                -0.18732138935378212,
                -3.053071517358231
            ]
        }
    ]
}