{
    "goal": {
        "global_pose": {
            "orientation": {
                "w": 0.7031023502349854,
                "x": -0.7110244035720825,
                "y": 0.007748599164187908,
                "z": 0.005598929710686207
            },
            "position": {
                "x": 0.11585023208521307,
                "y": 0.44412534475326537,
                "z": 0.3711530566215515
            }
        },
        "name": "move_to_auspresseinheit_A"
    },
    "id": "PRMstar_move_to_auspresseinheit_A_82",
    "joint_names": [
        "shoulder_pan_joint",
        "shoulder_lift_joint",
        "elbow_joint",
        "wrist_1_joint",
        "wrist_2_joint",
        "wrist_3_joint"
    ],
    "metrics": {
        "cart_traj_len": 0.7011274521186013,
        "distance_elbow_joint": 0.12134085098394598,
        "distance_shoulder_lift_joint": 0.534737615637422,
        "distance_shoulder_pan_joint": 1.04623960747284,
        "distance_wrist_1_joint": 0.5869870500094381,
        "distance_wrist_2_joint": 0.5197462232767086,
        "distance_wrist_3_joint": 0.7599010408906111,
        "smoothness": 0.6045052096399227,
        "time": 5.018255293,
        "traj_len": 1.8891671149665308,
        "weighted_distance": 2.489073671737809
    },
    "planner": "PRMstar",
    "start": {
        "state": {
            "elbow_joint": 2.4225746658250005,
            "shoulder_lift_joint": -1.3736534386056498,
            "shoulder_pan_joint": -0.3378633547517467,
            "wrist_1_joint": -1.0288598680537169,
            "wrist_2_joint": 1.233022673432363,
            "wrist_3_joint": -3.0940220416140027
        }
    },
    "waypoints": [
        {
            "positions": [
                -0.3378633547517467,
                -1.3736534386056498,
                2.4225746658250005,
                -1.0288598680537169,
                1.233022673432363,
                -3.0940220416140027
            ]
        },
        {
            "positions": [
                -0.2293718243740354,
                -1.4023469304841059,
                2.430405562332604,
                -0.9334899441278396,
                1.1944766434805647,
                -3.033340193536355
            ]
        },
        {
            "positions": [
                -0.12088029399632405,
                -1.4310404223625621,
                2.438236458840208,
                -0.8381200202019624,
                1.1559306135287661,
                -2.972658345458707
            ]
        },
        {
            "positions": [
                -0.012388763618612686,
                -1.4597339142410182,
                2.446067355347812,
                -0.7427500962760851,
                1.1173845835769676,
                -2.911976497381059
            ]
        },
        {
            "positions": [
                0.09610276675909862,
                -1.4884274061194742,
                2.4538982518554153,
                -0.647380172350208,
                1.0788385536251692,
                -2.8512946493034113
            ]
        },
        {
            "positions": [
                0.20459429713681004,
                -1.5171208979979305,
                2.461729148363019,
                -0.5520102484243306,
                1.0402925236733709,
                -2.7906128012257634
            ]
        },
        {
            "positions": [
                0.3130858275145214,
                -1.5458143898763865,
                2.4695600448706228,
                -0.4566403244984533,
                1.0017464937215723,
                -2.7299309531481155
            ]
        },
        {
            "positions": [
                0.4119084338161644,
                -1.6364585559680578,
                2.450971176886042,
                -0.460332201111997,
                0.9296289828300929,
                -2.8288834412542965
            ]
        },
        {
            "positions": [
                0.5107310401178073,
                -1.7271027220597293,
                2.432382308901461,
                -0.46402407772554066,
                0.8575114719386134,
                -2.9278359293604774
            ]
        },
        {
            "positions": [
                0.6095536464194503,
                -1.8177468881514005,
                2.41379344091688,
                -0.4677159543390843,
                0.7853939610471339,
                -3.0267884174666584
            ]
        },
        {
            "positions": [
                0.7083762527210933,
                -1.9083910542430718,
                2.395204572932299,
                -0.471407830952628,
                0.7132764501556544,
                -3.1257409055728393
            ]
        }
    ]
}