{
    "goal": {
        "global_pose": {
            "orientation": {
                "w": -0.4816463035849501,
                "x": 0.5182115481033762,
                "y": 0.4908360881923453,
                "z": -0.5084816262002911
            },
            "position": {
                "x": -0.8240239810943604,
                "y": 0.19912469901144506,
                "z": 0.16403168439865112
            }
        },
        "name": "move_to_storage_D"
    },
    "id": "PRMstar_move_to_storage_D_61",
    "joint_names": [
        "shoulder_pan_joint",
        "shoulder_lift_joint",
        "elbow_joint",
        "wrist_1_joint",
        "wrist_2_joint",
        "wrist_3_joint"
    ],
    "metrics": {
        "cart_traj_len": 1.8263557883834312,
        "distance_elbow_joint": 0.7848045380899349,
        "distance_shoulder_lift_joint": 0.6887799969526913,
        "distance_shoulder_pan_joint": 2.3184193528989585,
        "distance_wrist_1_joint": 3.8243780923999067,
        "distance_wrist_2_joint": 1.7734769929989962,
        "distance_wrist_3_joint": 3.1512042062894277,
        "smoothness": 0.1573905848827045,
        "time": 5.051031672,
        "traj_len": 3.5413363550543906,
        "weighted_distance": 4.943817014980194
    },
    "planner": "PRMstar",
    "start": {
        "state": {
            "elbow_joint": -2.384821988534728,
            "shoulder_lift_joint": -2.2788054721415256,
            "shoulder_pan_joint": -0.1854694642142757,
            "wrist_1_joint": 1.4845938289331202,
            "wrist_2_joint": 0.17898776772866878,
            "wrist_3_joint": 0.037105688729662994
        }
    },
    "waypoints": [
        {
            "positions": [
                -0.1854694642142757,
                -2.2788054721415256,
                -2.384821988534728,
                1.4845938289331202,
                0.17898776772866878,
                0.037105688729662994
            ]
        },
        {
            "positions": [
                -0.04824139325081464,
                -2.2320458374776826,
                -2.3103982790505757,
                1.477417195153232,
                0.14060744134843223,
                0.10006766926530597
            ]
        },
        {
            "positions": [
                0.08898667771264643,
                -2.1852862028138396,
                -2.2359745695664235,
                1.4702405613733436,
                0.1022271149681957,
                0.16302964980094894
            ]
        },
        {
            "positions": [
                0.22621474867610755,
                -2.1385265681499965,
                -2.1615508600822713,
                1.4630639275934554,
                0.06384678858795914,
                0.22599163033659195
            ]
        },
        {
            "positions": [
                0.3634428196395686,
                -2.0917669334861535,
                -2.087127150598119,
                1.4558872938135672,
                0.025466462207722612,
                0.2889536108722349
            ]
        },
        {
            "positions": [
                0.5006708906030298,
                -2.04500729882231,
                -2.012703441113967,
                1.4487106600336788,
                -0.012913864172513972,
                0.351915591407878
            ]
        },
        {
            "positions": [
                0.6378989615664908,
                -1.9982476641584672,
                -1.9382797316298146,
                1.4415340262537906,
                -0.0512941905527505,
                0.41487757194352093
            ]
        },
        {
            "positions": [
                0.775127032529952,
                -1.951488029494624,
                -1.8638560221456624,
                1.4343573924739024,
                -0.08967451693298703,
                0.4778395524791639
            ]
        },
        {
            "positions": [
                0.9123551034934129,
                -1.904728394830781,
                -1.7894323126615101,
                1.427180758694014,
                -0.12805484331322356,
                0.5408015330148068
            ]
        },
        {
            "positions": [
                1.049583174456874,
                -1.857968760166938,
                -1.715008603177358,
                1.4200041249141258,
                -0.16643516969346017,
                0.6037635135504499
            ]
        },
        {
            "positions": [
                1.004442894697382,
                -1.8691330637076922,
                -1.7197999012078815,
                1.2633462753982545,
                -0.22593742200916295,
                0.7114529461116432
            ]
        },
        {
            "positions": [
                0.9593026149378898,
                -1.8802973672484464,
                -1.724591199238405,
                1.106688425882383,
                -0.2854396743248657,
                0.8191423786728366
            ]
        },
        {
            "positions": [
                0.9141623351783978,
                -1.891461670789201,
                -1.7293824972689285,
                0.9500305763665118,
                -0.34494192664056855,
                0.9268318112340299
            ]
        },
        {
            "positions": [
                0.8690220554189058,
                -1.9026259743299552,
                -1.734173795299452,
                0.7933727268506404,
                -0.4044441789562713,
                1.0345212437952234
            ]
        },
        {
            "positions": [
                0.8238817756594137,
                -1.9137902778707094,
                -1.7389650933299756,
                0.6367148773347691,
                -0.46394643127197416,
                1.1422106763564166
            ]
        },
        {
            "positions": [
                0.7787414958999217,
                -1.924954581411464,
                -1.7437563913604992,
                0.4800570278188977,
                -0.5234486835876769,
                1.24990010891761
            ]
        },
        {
            "positions": [
                0.7336012161404295,
                -1.9361188849522182,
                -1.7485476893910228,
                0.32339917830302634,
                -0.5829509359033798,
                1.3575895414788035
            ]
        },
        {
            "positions": [
                0.6884609363809375,
                -1.9472831884929724,
                -1.7533389874215461,
                0.16674132878715509,
                -0.6424531882190825,
                1.4652789740399967
            ]
        },
        {
            "positions": [
                0.6433206566214454,
                -1.9584474920337267,
                -1.7581302854520697,
                0.010083479271283613,
                -0.7019554405347853,
                1.57296840660119
            ]
        },
        {
            "positions": [
                0.5981803768619534,
                -1.969611795574481,
                -1.7629215834825933,
                -0.14657437024458764,
                -0.7614576928504881,
                1.6806578391623836
            ]
        },
        {
            "positions": [
                0.5530400971024614,
                -1.9807760991152354,
                -1.767712881513117,
                -0.3032322197604589,
                -0.8209599451661909,
                1.7883472717235769
            ]
        },
        {
            "positions": [
                0.5078998173429693,
                -1.9919404026559897,
                -1.7725041795436405,
                -0.45989006927633036,
                -0.8804621974818937,
                1.8960367042847701
            ]
        },
        {
            "positions": [
                0.4627595375834773,
                -2.003104706196744,
                -1.7772954775741638,
                -0.6165479187922016,
                -0.9399644497975964,
                2.0037261368459633
            ]
        },
        {
            "positions": [
                0.4176192578239851,
                -2.0142690097374985,
                -1.7820867756046874,
                -0.7732057683080731,
                -0.9994667021132994,
                2.111415569407157
            ]
        },
        {
            "positions": [
                0.37247897806449315,
                -2.0254333132782527,
                -1.786878073635211,
                -0.9298636178239446,
                -1.0589689544290022,
                2.2191050019683503
            ]
        },
        {
            "positions": [
                0.32733869830500106,
                -2.036597616819007,
                -1.7916693716657346,
                -1.0865214673398156,
                -1.118471206744705,
                2.3267944345295435
            ]
        },
        {
            "positions": [
                0.282198418545509,
                -2.0477619203597612,
                -1.7964606696962582,
                -1.243179316855687,
                -1.1779734590604076,
                2.434483867090737
            ]
        },
        {
            "positions": [
                0.2370581387860169,
                -2.0589262239005155,
                -1.8012519677267815,
                -1.3998371663715585,
                -1.2374757113761103,
                2.5421732996519304
            ]
        },
        {
            "positions": [
                0.19191785902652492,
                -2.0700905274412698,
                -1.8060432657573051,
                -1.5564950158874296,
                -1.296977963691813,
                2.6498627322131236
            ]
        },
        {
            "positions": [
                0.14677757926703283,
                -2.081254830982024,
                -1.8108345637878287,
                -1.713152865403301,
                -1.3564802160075162,
                2.7575521647743173
            ]
        },
        {
            "positions": [
                0.10163729950754075,
                -2.0924191345227787,
                -1.8156258618183523,
                -1.8698107149191725,
                -1.415982468323219,
                2.8652415973355105
            ]
        },
        {
            "positions": [
                0.05649701974804877,
                -2.103583438063533,
                -1.8204171598488756,
                -2.0264685644350435,
                -1.4754847206389217,
                2.9729310298967038
            ]
        },
        {
            "positions": [
                0.011356739988556575,
                -2.1147477416042872,
                -1.8252084578793992,
                -2.1831264139509154,
                -1.5349869729546244,
                3.0806204624578974
            ]
        },
        {
            "positions": [
                -0.03378353977093535,
                -2.1259120451450415,
                -1.8299997559099228,
                -2.3397842634667865,
                -1.5944892252703273,
                3.1883098950190907
            ]
        }
    ]
}