{
    "goal": {
        "global_pose": {
            "orientation": {
                "w": 0.7047431493862688,
                "x": -0.7094548369677653,
                "y": 0.0024358444001904,
                "z": -0.0022348060817251984
            },
            "position": {
                "x": -0.39052492380142206,
                "y": 0.3671506643295288,
                "z": 0.19426114857196808
            }
        },
        "name": "move_to_magneteinheit_D"
    },
    "id": "PRMstar_move_to_magneteinheit_D_147",
    "joint_names": [
        "shoulder_pan_joint",
        "shoulder_lift_joint",
        "elbow_joint",
        "wrist_1_joint",
        "wrist_2_joint",
        "wrist_3_joint"
    ],
    "metrics": {
        "cart_traj_len": 4.6979184372167735,
        "distance_elbow_joint": 3.1227278365655544,
        "distance_shoulder_lift_joint": 1.6338408233145938,
        "distance_shoulder_pan_joint": 4.63046575807383,
        "distance_wrist_1_joint": 1.7961161866194304,
        "distance_wrist_2_joint": 1.001963662685656,
        "distance_wrist_3_joint": 3.174712776276472,
        "smoothness": 0.4092708865889532,
        "time": 5.039153749,
        "traj_len": 3.9191615230219248,
        "weighted_distance": 4.9504881017323505
    },
    "planner": "PRMstar",
    "start": {
        "state": {
            "elbow_joint": 0.749534889911806,
            "shoulder_lift_joint": -0.6476975780787326,
            "shoulder_pan_joint": -2.711696901376241,
            "wrist_1_joint": -0.07506478083263063,
            "wrist_2_joint": 0.43296659715538205,
            "wrist_3_joint": -3.14703540197715
        }
    },
    "waypoints": [
        {
            "positions": [
                -2.711696901376241,
                -0.6476975780787326,
                0.749534889911806,
                -0.07506478083263063,
                0.43296659715538205,
                -3.14703540197715
            ]
        },
        {
            "positions": [
                -2.712635358378762,
                -0.6982199654986434,
                0.7195841105541022,
                0.06185447202638866,
                0.4722018702111591,
                -3.154283555164043
            ]
        },
        {
            "positions": [
                -2.7135738153812823,
                -0.7487423529185542,
                0.6896333311963986,
                0.19877372488540795,
                0.5114371432669362,
                -3.161531708350936
            ]
        },
        {
            "positions": [
                -2.714512272383803,
                -0.799264740338465,
                0.6596825518386948,
                0.33569297774442725,
                0.5506724163227132,
                -3.1687798615378293
            ]
        },
        {
            "positions": [
                -2.5952456155653936,
                -0.8379668256818068,
                0.5697330776585742,
                0.37853932160205267,
                0.5296921092741954,
                -3.089395585605464
            ]
        },
        {
            "positions": [
                -2.475978958746984,
                -0.8766689110251485,
                0.47978360347845345,
                0.42138566545967815,
                0.5087118022256776,
                -3.010011309673098
            ]
        },
        {
            "positions": [
                -2.3567123019285745,
                -0.9153709963684904,
                0.3898341292983328,
                0.4642320093173036,
                0.4877314951771597,
                -2.9306270337407323
            ]
        },
        {
            "positions": [
                -2.237445645110165,
                -0.9540730817118321,
                0.29988465511821205,
                0.507078353174929,
                0.46675118812864186,
                -2.8512427578083663
            ]
        },
        {
            "positions": [
                -2.1181789882917554,
                -0.992775167055174,
                0.20993518093809138,
                0.5499246970325544,
                0.445770881080124,
                -2.771858481876001
            ]
        },
        {
            "positions": [
                -1.9989123314733455,
                -1.0314772523985158,
                0.11998570675797071,
                0.59277104089018,
                0.42479057403160614,
                -2.692474205943635
            ]
        },
        {
            "positions": [
                -1.879645674654936,
                -1.0701793377418576,
                0.03003623257785004,
                0.6356173847478054,
                0.4038102669830883,
                -2.6130899300112693
            ]
        },
        {
            "positions": [
                -1.7603790178365264,
                -1.1088814230851995,
                -0.05991324160227074,
                0.6784637286054308,
                0.3828299599345705,
                -2.5337056540789034
            ]
        },
        {
            "positions": [
                -1.6411123610181169,
                -1.1475835084285413,
                -0.1498627157823914,
                0.7213100724630562,
                0.36184965288605264,
                -2.454321378146538
            ]
        },
        {
            "positions": [
                -1.5218457041997073,
                -1.186285593771883,
                -0.23981218996251208,
                0.7641564163206818,
                0.3408693458375348,
                -2.3749371022141723
            ]
        },
        {
            "positions": [
                -1.4025790473812978,
                -1.2249876791152248,
                -0.32976166414263275,
                0.8070027601783072,
                0.319889038789017,
                -2.2955528262818063
            ]
        },
        {
            "positions": [
                -1.283312390562888,
                -1.2636897644585667,
                -0.4197111383227534,
                0.8498491040359326,
                0.2989087317404991,
                -2.2161685503494404
            ]
        },
        {
            "positions": [
                -1.1640457337444785,
                -1.3023918498019085,
                -0.5096606125028742,
                0.892695447893558,
                0.2779284246919812,
                -2.136784274417075
            ]
        },
        {
            "positions": [
                -1.044779076926069,
                -1.3410939351452502,
                -0.5996100866829948,
                0.9355417917511835,
                0.25694811764346337,
                -2.0573999984847093
            ]
        },
        {
            "positions": [
                -0.9255124201076594,
                -1.379796020488592,
                -0.6895595608631155,
                0.9783881356088089,
                0.23596781059494554,
                -1.9780157225523434
            ]
        },
        {
            "positions": [
                -0.8062457632892499,
                -1.418498105831934,
                -0.7795090350432363,
                1.0212344794664343,
                0.2149875035464277,
                -1.8986314466199776
            ]
        },
        {
            "positions": [
                -0.6869791064708402,
                -1.4572001911752757,
                -0.8694585092233569,
                1.0640808233240597,
                0.19400719649790987,
                -1.8192471706876119
            ]
        },
        {
            "positions": [
                -0.5677124496524306,
                -1.4959022765186174,
                -0.9594079834034777,
                1.1069271671816852,
                0.17302688944939199,
                -1.7398628947552461
            ]
        },
        {
            "positions": [
                -0.4484457928340211,
                -1.5346043618619594,
                -1.0493574575835982,
                1.1497735110393106,
                0.15204658240087415,
                -1.6604786188228806
            ]
        },
        {
            "positions": [
                -0.32917913601561155,
                -1.573306447205301,
                -1.139306931763719,
                1.1926198548969362,
                0.13106627535235632,
                -1.5810943428905149
            ]
        },
        {
            "positions": [
                -0.20991247919720202,
                -1.6120085325486428,
                -1.2292564059438396,
                1.2354661987545617,
                0.11008596830383849,
                -1.5017100669581491
            ]
        },
        {
            "positions": [
                -0.09064582237879248,
                -1.6507106178919848,
                -1.3192058801239603,
                1.278312542612187,
                0.08910566125532066,
                -1.4223257910257834
            ]
        },
        {
            "positions": [
                0.028620834439617493,
                -1.6894127032353266,
                -1.4091553543040813,
                1.3211588864698125,
                0.06812535420680271,
                -1.3429415150934174
            ]
        },
        {
            "positions": [
                0.14788749125802703,
                -1.7281147885786683,
                -1.4991048284842017,
                1.3640052303274381,
                0.047145047158284936,
                -1.2635572391610517
            ]
        },
        {
            "positions": [
                0.26715414807643656,
                -1.7668168739220103,
                -1.5890543026643225,
                1.4068515741850636,
                0.026164740109766993,
                -1.184172963228686
            ]
        },
        {
            "positions": [
                0.3864208048948461,
                -1.805518959265352,
                -1.6790037768444432,
                1.449697918042689,
                0.005184433061249161,
                -1.1047886872963204
            ]
        },
        {
            "positions": [
                0.5056874617132556,
                -1.8442210446086937,
                -1.768953251024564,
                1.4925442619003144,
                -0.01579587398726867,
                -1.0254044113639544
            ]
        },
        {
            "positions": [
                0.6249541185316652,
                -1.8829231299520355,
                -1.8589027252046844,
                1.5353906057579398,
                -0.036776181035786504,
                -0.9460201354315889
            ]
        },
        {
            "positions": [
                0.7442207753500747,
                -1.9216252152953774,
                -1.9488521993848051,
                1.5782369496155653,
                -0.057756488084304336,
                -0.866635859499223
            ]
        },
        {
            "positions": [
                0.8634874321684842,
                -1.9603273006387192,
                -2.038801673564926,
                1.6210832934731907,
                -0.07873679513282217,
                -0.7872515835668572
            ]
        },
        {
            "positions": [
                0.7322810968542366,
                -2.000478688233045,
                -2.0806005827010288,
                1.6085872794339895,
                -0.046880716124973465,
                -0.6908215787237545
            ]
        },
        {
            "positions": [
                0.6010747615399891,
                -2.040630075827371,
                -2.1223994918371316,
                1.5960912653947883,
                -0.015024637117124762,
                -0.5943915738806518
            ]
        },
        {
            "positions": [
                0.4698684262257415,
                -2.080781463421697,
                -2.1641984009732345,
                1.5835952513555873,
                0.01683144189072394,
                -0.497961569037549
            ]
        },
        {
            "positions": [
                0.3386620909114939,
                -2.120932851016023,
                -2.2059973101093373,
                1.5710992373163861,
                0.048687520898572645,
                -0.4015315641944463
            ]
        },
        {
            "positions": [
                0.20745575559724627,
                -2.1610842386103486,
                -2.2477962192454397,
                1.558603223277185,
                0.08054359990642135,
                -0.3051015593513436
            ]
        },
        {
            "positions": [
                0.07624942028299875,
                -2.2012356262046744,
                -2.2895951283815426,
                1.546107209237984,
                0.11239967891427005,
                -0.20867155450824082
            ]
        },
        {
            "positions": [
                -0.054956915031248776,
                -2.2413870137990006,
                -2.3313940375176454,
                1.5336111951987828,
                0.14425575792211875,
                -0.11224154966513811
            ]
        },
        {
            "positions": [
                -0.1861632503454964,
                -2.2815384013933264,
                -2.3731929466537482,
                1.5211151811595816,
                0.17611183692996743,
                -0.01581154482203543
            ]
        }
    ]
}