{
    "goal": {
        "global_pose": {
            "orientation": {
                "w": 0.005598929693374612,
                "x": 0.007748599140229565,
                "y": 0.7110244013736278,
                "z": -0.7031023480610252
            },
            "position": {
                "x": -0.8858502320852131,
                "y": -0.7141253447532654,
                "z": 0.3711530566215515
            }
        },
        "name": "move_to_auspresseinheit_C"
    },
    "id": "PRMstar_move_to_auspresseinheit_C_108",
    "joint_names": [
        "shoulder_pan_joint",
        "shoulder_lift_joint",
        "elbow_joint",
        "wrist_1_joint",
        "wrist_2_joint",
        "wrist_3_joint"
    ],
    "metrics": {
        "cart_traj_len": 0.4918918486489854,
        "distance_elbow_joint": 0.9895664385885796,
        "distance_shoulder_lift_joint": 0.31966062731680245,
        "distance_shoulder_pan_joint": 0.25587096061849524,
        "distance_wrist_1_joint": 0.661899613628639,
        "distance_wrist_2_joint": 1.3088899044535391,
        "distance_wrist_3_joint": 0.047322708209788455,
        "smoothness": 9.68921913573737e-16,
        "time": 5.003861534,
        "traj_len": 1.892936938414971,
        "weighted_distance": 2.3766878607250046
    },
    "planner": "PRMstar",
    "start": {
        "state": {
            "elbow_joint": 1.7527959577737207,
            "shoulder_lift_joint": -0.9740617694225068,
            "shoulder_pan_joint": -2.967991417825858,
            "wrist_1_joint": -0.759517768980727,
            "wrist_2_joint": 1.7443932448377408,
            "wrist_3_joint": -3.0840537646736568
        }
    },
    "waypoints": [
        {
            "positions": [
                -2.967991417825858,
                -0.9740617694225068,
                1.7527959577737207,
                -0.759517768980727,
                1.7443932448377408,
                -3.0840537646736568
            ]
        },
        {
            "positions": [
                -2.9424043217640086,
                -0.9420957066908265,
                1.6538393139148626,
                -0.6933278076178631,
                1.613504254392387,
                -3.0887860354946355
            ]
        },
        {
            "positions": [
                -2.9168172257021587,
                -0.9101296439591463,
                1.5548826700560048,
                -0.6271378462549991,
                1.482615263947033,
                -3.0935183063156146
            ]
        },
        {
            "positions": [
                -2.8912301296403093,
                -0.8781635812274661,
                1.4559260261971467,
                -0.5609478848921353,
                1.351726273501679,
                -3.0982505771365934
            ]
        },
        {
            "positions": [
                -2.86564303357846,
                -0.8461975184957857,
                1.356969382338289,
                -0.49475792352927134,
                1.220837283056325,
                -3.102982847957572
            ]
        },
        {
            "positions": [
                -2.8400559375166106,
                -0.8142314557641055,
                1.2580127384794308,
                -0.42856796216640747,
                1.0899482926109711,
                -3.1077151187785512
            ]
        },
        {
            "positions": [
                -2.8144688414547607,
                -0.7822653930324253,
                1.1590560946205728,
                -0.3623780008035436,
                0.9590593021656174,
                -3.11244738959953
            ]
        },
        {
            "positions": [
                -2.7888817453929113,
                -0.750299330300745,
                1.060099450761715,
                -0.2961880394406797,
                0.8281703117202635,
                -3.1171796604205086
            ]
        },
        {
            "positions": [
                -2.763294649331062,
                -0.7183332675690648,
                0.9611428069028569,
                -0.2299980780778157,
                0.6972813212749094,
                -3.1219119312414874
            ]
        },
        {
            "positions": [
                -2.737707553269212,
                -0.6863672048373846,
                0.862186163043999,
                -0.16380811671495188,
                0.5663923308295555,
                -3.1266442020624665
            ]
        },
        {
            "positions": [
                -2.7121204572073627,
                -0.6544011421057043,
                0.763229519185141,
                -0.097618155352088,
                0.43550334038420163,
                -3.1313764728834452
            ]
        }
    ]
}