{
    "goal": {
        "global_pose": {
            "orientation": {
                "w": -0.00223480608172531,
                "x": 0.0024358444001904467,
                "y": 0.7094548369677653,
                "z": -0.704743149386269
            },
            "position": {
                "x": -0.37947507619857795,
                "y": -0.6371506643295288,
                "z": 0.19426114857196808
            }
        },
        "name": "move_to_magneteinheit_C"
    },
    "id": "PRMstar_move_to_magneteinheit_C_100",
    "joint_names": [
        "shoulder_pan_joint",
        "shoulder_lift_joint",
        "elbow_joint",
        "wrist_1_joint",
        "wrist_2_joint",
        "wrist_3_joint"
    ],
    "metrics": {
        "cart_traj_len": 1.1232926634521654,
        "distance_elbow_joint": 1.0979980786772625,
        "distance_shoulder_lift_joint": 0.2526396519481655,
        "distance_shoulder_pan_joint": 1.2845734386098895,
        "distance_wrist_1_joint": 0.6391006963848307,
        "distance_wrist_2_joint": 2.3293592729938624,
        "distance_wrist_3_joint": 2.5235196176656944,
        "smoothness": 1.1191785034636548,
        "time": 5.05153362,
        "traj_len": 2.8508228209202526,
        "weighted_distance": 4.017796655007541
    },
    "planner": "PRMstar",
    "start": {
        "state": {
            "elbow_joint": 1.9565354010623817,
            "shoulder_lift_joint": -1.4165861575791021,
            "shoulder_pan_joint": -1.6717766225146293,
            "wrist_1_joint": -0.5286633292919765,
            "wrist_2_joint": 1.472756589071564,
            "wrist_3_joint": -3.1238370188695823
        }
    },
    "waypoints": [
        {
            "positions": [
                -1.6717766225146293,
                -1.4165861575791021,
                1.9565354010623817,
                -0.5286633292919765,
                1.472756589071564,
                -3.1238370188695823
            ]
        },
        {
            "positions": [
                -1.7546154726173622,
                -1.4107661422596756,
                1.9591084354152861,
                -0.5130355503100505,
                1.3220198760130928,
                -2.998660952130181
            ]
        },
        {
            "positions": [
                -1.8374543227200948,
                -1.4049461269402488,
                1.9616814697681904,
                -0.4974077713281245,
                1.1712831629546216,
                -2.8734848853907793
            ]
        },
        {
            "positions": [
                -1.9202931728228276,
                -1.3991261116208222,
                1.9642545041210948,
                -0.48177999234619856,
                1.0205464498961507,
                -2.748308818651378
            ]
        },
        {
            "positions": [
                -2.0031320229255605,
                -1.3933060963013955,
                1.966827538473999,
                -0.4661522133642726,
                0.8698097368376795,
                -2.6231327519119763
            ]
        },
        {
            "positions": [
                -2.0859708730282933,
                -1.387486080981969,
                1.9694005728269035,
                -0.4505244343823467,
                0.7190730237792085,
                -2.497956685172575
            ]
        },
        {
            "positions": [
                -2.1688097231310257,
                -1.3816660656625424,
                1.971973607179808,
                -0.4348966554004207,
                0.5683363107207374,
                -2.3727806184331737
            ]
        },
        {
            "positions": [
                -2.2516485732337586,
                -1.3758460503431156,
                1.9745466415327122,
                -0.41926887641849475,
                0.4175995976622664,
                -2.2476045516937724
            ]
        },
        {
            "positions": [
                -2.3344874233364914,
                -1.370026035023689,
                1.9771196758856167,
                -0.40364109743656873,
                0.26686288460379504,
                -2.1224284849543706
            ]
        },
        {
            "positions": [
                -2.4173262734392242,
                -1.3642060197042623,
                1.979692710238521,
                -0.3880133184546428,
                0.11612617154532412,
                -1.9972524182149693
            ]
        },
        {
            "positions": [
                -2.500165123541957,
                -1.3583860043848357,
                1.9822657445914253,
                -0.37238553947271685,
                -0.034610541513146964,
                -1.8720763514755678
            ]
        },
        {
            "positions": [
                -2.5361447300684405,
                -1.3404894222304817,
                2.0743101745011066,
                -0.4402036299257065,
                -0.044795134094531217,
                -2.0053548864425497
            ]
        },
        {
            "positions": [
                -2.5721243365949236,
                -1.3225928400761278,
                2.166354604410788,
                -0.5080217203786962,
                -0.05497972667591546,
                -2.1386334214095313
            ]
        },
        {
            "positions": [
                -2.608103943121407,
                -1.3046962579217738,
                2.25839903432047,
                -0.5758398108316859,
                -0.06516431925729971,
                -2.2719119563765133
            ]
        },
        {
            "positions": [
                -2.6440835496478905,
                -1.2867996757674198,
                2.350443464230151,
                -0.6436579012846755,
                -0.07534891183868396,
                -2.405190491343495
            ]
        },
        {
            "positions": [
                -2.6800631561743735,
                -1.2689030936130659,
                2.4424878941398322,
                -0.7114759917376652,
                -0.08553350442006821,
                -2.538469026310477
            ]
        },
        {
            "positions": [
                -2.716042762700857,
                -1.251006511458712,
                2.534532324049514,
                -0.7792940821906549,
                -0.09571809700145247,
                -2.6717475612774586
            ]
        },
        {
            "positions": [
                -2.6759915462969133,
                -1.236496510487416,
                2.4478654647678253,
                -0.7919464761652604,
                0.031096000818688616,
                -2.750428851355757
            ]
        },
        {
            "positions": [
                -2.6359403298929696,
                -1.2219865095161202,
                2.361198605486137,
                -0.8045988701398659,
                0.1579100986388297,
                -2.829110141434055
            ]
        },
        {
            "positions": [
                -2.595889113489026,
                -1.2074765085448242,
                2.274531746204449,
                -0.8172512641144714,
                0.2847241964589708,
                -2.9077914315123534
            ]
        },
        {
            "positions": [
                -2.5558378970850826,
                -1.1929665075735283,
                2.1878648869227604,
                -0.829903658089077,
                0.41153829427911187,
                -2.9864727215906512
            ]
        },
        {
            "positions": [
                -2.515786680681139,
                -1.1784565066022326,
                2.1011980276410718,
                -0.8425560520636824,
                0.5383523920992529,
                -3.0651540116689495
            ]
        },
        {
            "positions": [
                -2.475735464277195,
                -1.1639465056309366,
                2.0145311683593836,
                -0.8552084460382879,
                0.665166489919394,
                -3.143835301747248
            ]
        }
    ]
}