{
    "goal": {
        "global_pose": {
            "orientation": {
                "w": -0.4816463035849501,
                "x": 0.5182115481033762,
                "y": 0.4908360881923453,
                "z": -0.5084816262002911
            },
            "position": {
                "x": -0.8240239810943604,
                "y": -0.300875300988555,
                "z": 0.16403168439865112
            }
        },
        "name": "move_to_storage_C"
    },
    "id": "PRMstar_move_to_storage_C_148",
    "joint_names": [
        "shoulder_pan_joint",
        "shoulder_lift_joint",
        "elbow_joint",
        "wrist_1_joint",
        "wrist_2_joint",
        "wrist_3_joint"
    ],
    "metrics": {
        "cart_traj_len": 0.5761626145345857,
        "distance_elbow_joint": 0.25535597562409484,
        "distance_shoulder_lift_joint": 0.18947140527761275,
        "distance_shoulder_pan_joint": 0.49392930526830625,
        "distance_wrist_1_joint": 0.06572861626105764,
        "distance_wrist_2_joint": 1.0683258898145698,
        "distance_wrist_3_joint": 0.058258561611710835,
        "smoothness": 0.0,
        "time": 5.007421711,
        "traj_len": 1.4598183975609267,
        "weighted_distance": 1.8389239742731076
    },
    "planner": "PRMstar",
    "start": {
        "state": {
            "elbow_joint": 2.010868314990456,
            "shoulder_lift_joint": -1.1634956873337592,
            "shoulder_pan_joint": -2.4736205022346125,
            "wrist_1_joint": -0.8367026794202681,
            "wrist_2_joint": 0.6746043897044499,
            "wrist_3_joint": -3.1496632123970403
        }
    },
    "waypoints": [
        {
            "positions": [
                -2.4736205022346125,
                -1.1634956873337592,
                2.010868314990456,
                -0.8367026794202681,
                0.6746043897044499,
                -3.1496632123970403
            ]
        },
        {
            "positions": [
                -2.5559420531126635,
                -1.1319171197874904,
                1.9683089857197733,
                -0.8257479100434252,
                0.8526587046735449,
                -3.139953452128422
            ]
        },
        {
            "positions": [
                -2.6382636039907146,
                -1.1003385522412217,
                1.9257496564490908,
                -0.8147931406665823,
                1.03071301964264,
                -3.1302436918598033
            ]
        },
        {
            "positions": [
                -2.7205851548687656,
                -1.0687599846949527,
                1.8831903271784083,
                -0.8038383712897392,
                1.2087673346117347,
                -3.1205339315911846
            ]
        },
        {
            "positions": [
                -2.8029067057468167,
                -1.037181417148684,
                1.840630997907726,
                -0.7928836019128963,
                1.3868216495808299,
                -3.1108241713225664
            ]
        },
        {
            "positions": [
                -2.8852282566248677,
                -1.0056028496024152,
                1.7980716686370435,
                -0.7819288325360534,
                1.5648759645499246,
                -3.101114411053948
            ]
        },
        {
            "positions": [
                -2.9675498075029187,
                -0.9740242820561464,
                1.755512339366361,
                -0.7709740631592105,
                1.7429302795190196,
                -3.0914046507853294
            ]
        }
    ]
}