{
    "goal": {
        "global_pose": {
            "orientation": {
                "w": -0.00223480608172531,
                "x": 0.0024358444001904467,
                "y": 0.7094548369677653,
                "z": -0.704743149386269
            },
            "position": {
                "x": -0.37947507619857795,
                "y": -0.6371506643295288,
                "z": 0.19426114857196808
            }
        },
        "name": "move_to_magneteinheit_C"
    },
    "id": "PRMstar_move_to_magneteinheit_C_85",
    "joint_names": [
        "shoulder_pan_joint",
        "shoulder_lift_joint",
        "elbow_joint",
        "wrist_1_joint",
        "wrist_2_joint",
        "wrist_3_joint"
    ],
    "metrics": {
        "cart_traj_len": 1.222946228730291,
        "distance_elbow_joint": 0.18726657022856452,
        "distance_shoulder_lift_joint": 0.3052857880344164,
        "distance_shoulder_pan_joint": 1.4572548502266052,
        "distance_wrist_1_joint": 0.5479353550842488,
        "distance_wrist_2_joint": 1.709099442133088,
        "distance_wrist_3_joint": 0.474742678478119,
        "smoothness": 1.7629774830496205,
        "time": 5.146782758,
        "traj_len": 2.163696994540835,
        "weighted_distance": 2.808577013072388
    },
    "planner": "PRMstar",
    "start": {
        "state": {
            "elbow_joint": 1.9565354010623817,
            "shoulder_lift_joint": -1.4165861575791021,
            "shoulder_pan_joint": -1.6717766225146293,
            "wrist_1_joint": -0.5286633292919765,
            "wrist_2_joint": 1.472756589071564,
            "wrist_3_joint": -3.1238370188695823
        }
    },
    "waypoints": [
        {
            "positions": [
                -1.6717766225146293,
                -1.4165861575791021,
                1.9565354010623817,
                -0.5286633292919765,
                1.472756589071564,
                -3.1238370188695823
            ]
        },
        {
            "positions": [
                -1.5899513639528209,
                -1.4174377267140637,
                1.978286741177853,
                -0.5041612754848385,
                1.2674577641090607,
                -3.089398299264742
            ]
        },
        {
            "positions": [
                -1.5081261053910127,
                -1.4182892958490254,
                2.000038081293324,
                -0.47965922167770053,
                1.0621589391465576,
                -3.0549595796599016
            ]
        },
        {
            "positions": [
                -1.4263008468292044,
                -1.419140864983987,
                2.0217894214087955,
                -0.4551571678705626,
                0.8568601141840546,
                -3.0205208600550617
            ]
        },
        {
            "positions": [
                -1.344475588267396,
                -1.4199924341189485,
                2.043540761524267,
                -0.4306551140634246,
                0.6515612892215514,
                -2.9860821404502214
            ]
        },
        {
            "positions": [
                -1.5157056332527388,
                -1.398005697004602,
                2.038472587652897,
                -0.48866748773380886,
                0.5422406981045793,
                -2.963212879285166
            ]
        },
        {
            "positions": [
                -1.6869356782380818,
                -1.3760189598902555,
                2.0334044137815273,
                -0.5466798614041932,
                0.4329201069876073,
                -2.94034361812011
            ]
        },
        {
            "positions": [
                -1.8581657232234245,
                -1.3540322227759092,
                2.028336239910158,
                -0.6046922350745775,
                0.32359951587063523,
                -2.9174743569550547
            ]
        },
        {
            "positions": [
                -2.0293957682087673,
                -1.3320454856615627,
                2.023268066038788,
                -0.6627046087449617,
                0.21427892475366317,
                -2.8946050957899994
            ]
        },
        {
            "positions": [
                -2.076154539654339,
                -1.2775721194221914,
                2.0318817921966215,
                -0.723207684508277,
                0.2956541642043222,
                -2.9167032439575555
            ]
        },
        {
            "positions": [
                -2.12291331109991,
                -1.2230987531828204,
                2.0404955183544544,
                -0.7837107602715923,
                0.3770294036549813,
                -2.9388013921251117
            ]
        },
        {
            "positions": [
                -2.172893704948829,
                -1.1405300741021152,
                2.0572861064418633,
                -0.8659877338992936,
                0.49198402005655695,
                -2.9693943755654466
            ]
        },
        {
            "positions": [
                -2.3236615545977983,
                -1.1517386498409836,
                2.0343008695028004,
                -0.8586904738893797,
                0.5784423613127037,
                -3.054755113376991
            ]
        },
        {
            "positions": [
                -2.474429404246768,
                -1.1629472255798519,
                2.011315632563738,
                -0.8513932138794656,
                0.6649007025688504,
                -3.1401158511885354
            ]
        }
    ]
}