{
    "goal": {
        "global_pose": {
            "orientation": {
                "w": 0.005598929693374612,
                "x": 0.007748599140229565,
                "y": 0.7110244013736278,
                "z": -0.7031023480610252
            },
            "position": {
                "x": -0.8858502320852131,
                "y": -0.7141253447532654,
                "z": 0.3711530566215515
            }
        },
        "name": "move_to_auspresseinheit_C"
    },
    "id": "PRMstar_move_to_auspresseinheit_C_35",
    "joint_names": [
        "shoulder_pan_joint",
        "shoulder_lift_joint",
        "elbow_joint",
        "wrist_1_joint",
        "wrist_2_joint",
        "wrist_3_joint"
    ],
    "metrics": {
        "cart_traj_len": 0.49195471037279886,
        "distance_elbow_joint": 0.9871255944468563,
        "distance_shoulder_lift_joint": 0.3191114198913738,
        "distance_shoulder_pan_joint": 0.2561302739560829,
        "distance_wrist_1_joint": 0.6526367671805625,
        "distance_wrist_2_joint": 1.302708829855871,
        "distance_wrist_3_joint": 0.05152861219502691,
        "smoothness": 1.6148698667872622e-16,
        "time": 5.013992802,
        "traj_len": 1.8892436310666165,
        "weighted_distance": 2.3722656510079685
    },
    "planner": "PRMstar",
    "start": {
        "state": {
            "elbow_joint": 1.7527959577737207,
            "shoulder_lift_joint": -0.9740617694225068,
            "shoulder_pan_joint": -2.967991417825858,
            "wrist_1_joint": -0.759517768980727,
            "wrist_2_joint": 1.7443932448377408,
            "wrist_3_joint": -3.0840537646736568
        }
    },
    "waypoints": [
        {
            "positions": [
                -2.967991417825858,
                -0.9740617694225068,
                1.7527959577737207,
                -0.759517768980727,
                1.7443932448377408,
                -3.0840537646736568
            ]
        },
        {
            "positions": [
                -2.9423783904302496,
                -0.9421506274333694,
                1.654083398329035,
                -0.6942540922626708,
                1.6141223618521536,
                -3.0892066258931594
            ]
        },
        {
            "positions": [
                -2.9167653630346413,
                -0.910239485444232,
                1.5553708388843495,
                -0.6289904155446144,
                1.4838514788665667,
                -3.094359487112662
            ]
        },
        {
            "positions": [
                -2.891152335639033,
                -0.8783283434550946,
                1.4566582794396639,
                -0.5637267388265582,
                1.3535805958809795,
                -3.0995123483321647
            ]
        },
        {
            "positions": [
                -2.8655393082434246,
                -0.8464172014659572,
                1.357945719994978,
                -0.49846306210850194,
                1.2233097128953925,
                -3.1046652095516674
            ]
        },
        {
            "positions": [
                -2.8399262808478163,
                -0.8145060594768199,
                1.2592331605502924,
                -0.4331993853904457,
                1.0930388299098053,
                -3.10981807077117
            ]
        },
        {
            "positions": [
                -2.8143132534522084,
                -0.7825949174876825,
                1.1605206011056068,
                -0.3679357086723895,
                0.9627679469242182,
                -3.114970931990673
            ]
        },
        {
            "positions": [
                -2.7887002260566,
                -0.7506837754985451,
                1.0618080416609212,
                -0.30267203195433323,
                0.8324970639386311,
                -3.1201237932101757
            ]
        },
        {
            "positions": [
                -2.7630871986609917,
                -0.7187726335094078,
                0.9630954822162355,
                -0.2374083552362769,
                0.7022261809530439,
                -3.1252766544296784
            ]
        },
        {
            "positions": [
                -2.7374741712653834,
                -0.6868614915202703,
                0.8643829227715499,
                -0.17214467851822068,
                0.5719552979674567,
                -3.130429515649181
            ]
        },
        {
            "positions": [
                -2.711861143869775,
                -0.654950349531133,
                0.7656703633268643,
                -0.10688100180016442,
                0.4416844149818696,
                -3.1355823768686837
            ]
        }
    ]
}