{
    "goal": {
        "global_pose": {
            "orientation": {
                "w": 0.7047431493862688,
                "x": -0.7094548369677653,
                "y": 0.0024358444001904,
                "z": -0.0022348060817251984
            },
            "position": {
                "x": -0.39052492380142206,
                "y": 0.3671506643295288,
                "z": 0.19426114857196808
            }
        },
        "name": "move_to_magneteinheit_D"
    },
    "id": "PRMstar_move_to_magneteinheit_D_51",
    "joint_names": [
        "shoulder_pan_joint",
        "shoulder_lift_joint",
        "elbow_joint",
        "wrist_1_joint",
        "wrist_2_joint",
        "wrist_3_joint"
    ],
    "metrics": {
        "cart_traj_len": 4.691451526923725,
        "distance_elbow_joint": 3.214357452947096,
        "distance_shoulder_lift_joint": 2.6698547427364536,
        "distance_shoulder_pan_joint": 3.2153709272214885,
        "distance_wrist_1_joint": 2.33038803145053,
        "distance_wrist_2_joint": 2.5864089978498703,
        "distance_wrist_3_joint": 3.762793850173266,
        "smoothness": 0.843517570902091,
        "time": 5.070060475,
        "traj_len": 4.2165357821769645,
        "weighted_distance": 5.497413822155435
    },
    "planner": "PRMstar",
    "start": {
        "state": {
            "elbow_joint": 0.749534889911806,
            "shoulder_lift_joint": -0.6476975780787326,
            "shoulder_pan_joint": -2.711696901376241,
            "wrist_1_joint": -0.07506478083263063,
            "wrist_2_joint": 0.43296659715538205,
            "wrist_3_joint": -3.14703540197715
        }
    },
    "waypoints": [
        {
            "positions": [
                -2.711696901376241,
                -0.6476975780787326,
                0.749534889911806,
                -0.07506478083263063,
                0.43296659715538205,
                -3.14703540197715
            ]
        },
        {
            "positions": [
                -2.7671357936545435,
                -0.6084349034002796,
                0.7360520236254889,
                -0.16561273369582363,
                0.4165588588219525,
                -3.069165751810943
            ]
        },
        {
            "positions": [
                -2.8225746859328464,
                -0.5691722287218266,
                0.722569157339172,
                -0.2561606865590167,
                0.40015112048852297,
                -2.991296101644737
            ]
        },
        {
            "positions": [
                -2.878013578211149,
                -0.5299095540433736,
                0.709086291052855,
                -0.3467086394222097,
                0.3837433821550934,
                -2.91342645147853
            ]
        },
        {
            "positions": [
                -2.876208770557412,
                -0.6058019000868413,
                0.6467498796811031,
                -0.3158716686030684,
                0.29499591553595356,
                -2.8152884640510862
            ]
        },
        {
            "positions": [
                -2.8744039629036755,
                -0.6816942461303089,
                0.5844134683093511,
                -0.28503469778392715,
                0.20624844891681368,
                -2.717150476623642
            ]
        },
        {
            "positions": [
                -2.872599155249939,
                -0.7575865921737767,
                0.5220770569375992,
                -0.2541977269647859,
                0.1175009822976738,
                -2.6190124891961983
            ]
        },
        {
            "positions": [
                -2.8707943475962017,
                -0.8334789382172443,
                0.45974064556584726,
                -0.22336075614564457,
                0.02875351567853396,
                -2.5208745017687546
            ]
        },
        {
            "positions": [
                -2.868989539942465,
                -0.909371284260712,
                0.39740423419409526,
                -0.19252378532650327,
                -0.059993950940605945,
                -2.4227365143413104
            ]
        },
        {
            "positions": [
                -2.8671847322887283,
                -0.9852636303041797,
                0.3350678228223434,
                -0.16168681450736203,
                -0.1487414175597458,
                -2.3245985269138667
            ]
        },
        {
            "positions": [
                -2.8653799246349916,
                -1.0611559763476475,
                0.2727314114505914,
                -0.13084984368822072,
                -0.2374888841788857,
                -2.226460539486423
            ]
        },
        {
            "positions": [
                -2.755397101661905,
                -1.010779840921973,
                0.21017161789752503,
                -0.14721439611483622,
                -0.1600310523511456,
                -2.2603070224725252
            ]
        },
        {
            "positions": [
                -2.645414278688818,
                -0.9604037054962984,
                0.14761182434445871,
                -0.16357894854145172,
                -0.08257322052340549,
                -2.294153505458628
            ]
        },
        {
            "positions": [
                -2.5354314557157314,
                -0.910027570070624,
                0.0850520307913924,
                -0.1799435009680672,
                -0.005115388695665385,
                -2.3279999884447307
            ]
        },
        {
            "positions": [
                -2.4254486327426443,
                -0.8596514346449494,
                0.02249223723832605,
                -0.19630805339468269,
                0.07234244313207472,
                -2.361846471430833
            ]
        },
        {
            "positions": [
                -2.3154658097695577,
                -0.8092752992192749,
                -0.040067556314740294,
                -0.21267260582129818,
                0.14980027495981485,
                -2.395692954416935
            ]
        },
        {
            "positions": [
                -2.205482986796471,
                -0.7588991637936005,
                -0.10262734986780658,
                -0.22903715824791365,
                0.22725810678755493,
                -2.429539437403038
            ]
        },
        {
            "positions": [
                -2.0955001638233846,
                -0.7085230283679259,
                -0.16518714342087293,
                -0.24540171067452915,
                0.304715938615295,
                -2.4633859203891406
            ]
        },
        {
            "positions": [
                -1.9855173408502975,
                -0.6581468929422514,
                -0.22774693697393927,
                -0.26176626310114465,
                0.38217377044303513,
                -2.497232403375243
            ]
        },
        {
            "positions": [
                -1.895251583571232,
                -0.703304225632105,
                -0.3284400822519369,
                -0.21213141561277604,
                0.3463391774172475,
                -2.4278188989197793
            ]
        },
        {
            "positions": [
                -1.8049858262921663,
                -0.7484615583219588,
                -0.42913322752993444,
                -0.16249656812440744,
                0.3105045843914599,
                -2.358405394464316
            ]
        },
        {
            "positions": [
                -1.7147200690131008,
                -0.7936188910118125,
                -0.5298263728079321,
                -0.11286172063603886,
                0.2746699913656722,
                -2.2889918900088526
            ]
        },
        {
            "positions": [
                -1.624454311734035,
                -0.8387762237016662,
                -0.6305195180859297,
                -0.06322687314767025,
                0.2388353983398846,
                -2.2195783855533895
            ]
        },
        {
            "positions": [
                -1.5341885544549696,
                -0.8839335563915198,
                -0.7312126633639273,
                -0.013592025659301649,
                0.20300080531409698,
                -2.150164881097926
            ]
        },
        {
            "positions": [
                -1.443922797175904,
                -0.9290908890813736,
                -0.8319058086419249,
                0.03604282182906693,
                0.16716621228830933,
                -2.080751376642463
            ]
        },
        {
            "positions": [
                -1.3536570398968384,
                -0.9742482217712273,
                -0.9325989539199224,
                0.08567766931743553,
                0.13133161926252168,
                -2.011337872186999
            ]
        },
        {
            "positions": [
                -1.263391282617773,
                -1.019405554461081,
                -1.03329209919792,
                0.13531251680580414,
                0.09549702623673406,
                -1.9419243677315359
            ]
        },
        {
            "positions": [
                -1.1731255253387074,
                -1.0645628871509347,
                -1.1339852444759178,
                0.18494736429417274,
                0.05966243321094644,
                -1.8725108632760725
            ]
        },
        {
            "positions": [
                -1.0828597680596417,
                -1.1097202198407885,
                -1.2346783897539153,
                0.23458221178254135,
                0.023827840185158822,
                -1.803097358820609
            ]
        },
        {
            "positions": [
                -0.992594010780576,
                -1.154877552530642,
                -1.335371535031913,
                0.28421705927090996,
                -0.01200675284062891,
                -1.7336838543651458
            ]
        },
        {
            "positions": [
                -0.9023282535015105,
                -1.2000348852204958,
                -1.4360646803099106,
                0.3338519067592785,
                -0.047841345866416474,
                -1.6642703499096823
            ]
        },
        {
            "positions": [
                -0.8120624962224448,
                -1.2451922179103496,
                -1.5367578255879082,
                0.38348675424764717,
                -0.08367593889220415,
                -1.594856845454219
            ]
        },
        {
            "positions": [
                -0.7217967389433793,
                -1.2903495506002032,
                -1.6374509708659057,
                0.4331216017360157,
                -0.11951053191799177,
                -1.5254433409987556
            ]
        },
        {
            "positions": [
                -0.6315309816643135,
                -1.335506883290057,
                -1.7381441161439035,
                0.4827564492243844,
                -0.1553451249437794,
                -1.4560298365432922
            ]
        },
        {
            "positions": [
                -0.5412652243852483,
                -1.3806642159799107,
                -1.8388372614219008,
                0.5323912967127529,
                -0.191179717969567,
                -1.3866163320878289
            ]
        },
        {
            "positions": [
                -0.45099946710618255,
                -1.4258215486697643,
                -1.9395304066998986,
                0.5820261442011216,
                -0.22701431099535474,
                -1.3172028276323655
            ]
        },
        {
            "positions": [
                -0.36073370982711706,
                -1.470978881359618,
                -2.040223551977896,
                0.6316609916894902,
                -0.26284890402114225,
                -1.2477893231769022
            ]
        },
        {
            "positions": [
                -0.27046795254805134,
                -1.5161362140494719,
                -2.1409166972558937,
                0.6812958391778587,
                -0.29868349704693,
                -1.1783758187214386
            ]
        },
        {
            "positions": [
                -0.18020219526898584,
                -1.5612935467393254,
                -2.241609842533891,
                0.7309306866662273,
                -0.3345180900727175,
                -1.1089623142659752
            ]
        },
        {
            "positions": [
                -0.08993643798992018,
                -1.6064508794291792,
                -2.342302987811889,
                0.780565534154596,
                -0.37035268309850516,
                -1.039548809810512
            ]
        },
        {
            "positions": [
                -0.062032607782592786,
                -1.7160146574765844,
                -2.371470842348554,
                0.8618067205814061,
                -0.3564615179021976,
                -0.9377627307246529
            ]
        },
        {
            "positions": [
                -0.03412877757526539,
                -1.8255784355239897,
                -2.400638696885219,
                0.9430479070082161,
                -0.3425703527058901,
                -0.835976651638794
            ]
        },
        {
            "positions": [
                -0.006224947367937994,
                -1.935142213571395,
                -2.4298065514218843,
                1.0242890934350262,
                -0.3286791875095825,
                -0.734190572552935
            ]
        },
        {
            "positions": [
                -0.035769217291832904,
                -1.9919448622984417,
                -2.4239705494863166,
                1.0952746936313373,
                -0.24499736871571248,
                -0.5994563570576997
            ]
        },
        {
            "positions": [
                -0.06531348721572781,
                -2.0487475110254887,
                -2.418134547550749,
                1.1662602938276485,
                -0.1613155499218424,
                -0.46472214156246444
            ]
        },
        {
            "positions": [
                -0.09485775713962273,
                -2.1055501597525357,
                -2.4122985456151813,
                1.23724589402396,
                -0.07763373112797234,
                -0.32998792606722915
            ]
        },
        {
            "positions": [
                -0.12440202706351763,
                -2.1623528084795822,
                -2.4064625436796137,
                1.308231494220271,
                0.006048087665897706,
                -0.19525371057199392
            ]
        },
        {
            "positions": [
                -0.15394629698741255,
                -2.219155457206629,
                -2.400626541744046,
                1.3792170944165822,
                0.0897299064597678,
                -0.06051949507675858
            ]
        },
        {
            "positions": [
                -0.18349056691130747,
                -2.275958105933676,
                -2.3947905398084783,
                1.4502026946128934,
                0.17341172525363782,
                0.07421472041847661
            ]
        }
    ]
}