{
    "goal": {
        "global_pose": {
            "orientation": {
                "w": -0.00223480608172531,
                "x": 0.0024358444001904467,
                "y": 0.7094548369677653,
                "z": -0.704743149386269
            },
            "position": {
                "x": 0.6205249238014221,
                "y": -0.6371506643295288,
                "z": 0.19426114857196808
            }
        },
        "name": "move_to_magneteinheit_B"
    },
    "id": "PRMstar_move_to_magneteinheit_B_46",
    "joint_names": [
        "shoulder_pan_joint",
        "shoulder_lift_joint",
        "elbow_joint",
        "wrist_1_joint",
        "wrist_2_joint",
        "wrist_3_joint"
    ],
    "metrics": {
        "cart_traj_len": 3.450876550142225,
        "distance_elbow_joint": 4.28339337655631,
        "distance_shoulder_lift_joint": 1.1547094476276403,
        "distance_shoulder_pan_joint": 2.5564906660503093,
        "distance_wrist_1_joint": 1.3530052824423466,
        "distance_wrist_2_joint": 1.8171709794095767,
        "distance_wrist_3_joint": 3.494903366690127,
        "smoothness": 0.5223896690988025,
        "time": 5.071141967,
        "traj_len": 3.8287952568368433,
        "weighted_distance": 4.981932969642254
    },
    "planner": "PRMstar",
    "start": {
        "state": {
            "elbow_joint": 2.6216224122426386,
            "shoulder_lift_joint": -1.4174107377796124,
            "shoulder_pan_joint": 0.7066234856936794,
            "wrist_1_joint": 1.9546482284002225,
            "wrist_2_joint": -0.7096286983471962,
            "wrist_3_joint": 0.005740856962016249
        }
    },
    "waypoints": [
        {
            "positions": [
                0.7066234856936794,
                -1.4174107377796124,
                2.6216224122426386,
                1.9546482284002225,
                -0.7096286983471962,
                0.005740856962016249
            ]
        },
        {
            "positions": [
                0.6034651730466308,
                -1.3728831568564268,
                2.5965642116791154,
                1.8740562321753282,
                -0.7679091279387005,
                0.06551673200604893
            ]
        },
        {
            "positions": [
                0.5945504116007185,
                -1.3783509209472284,
                2.5623965629903718,
                1.7650458666534723,
                -0.8113887568738403,
                -0.08849583608384085
            ]
        },
        {
            "positions": [
                0.5856356501548062,
                -1.3838186850380303,
                2.5282289143016277,
                1.6560355011316163,
                -0.8548683858089801,
                -0.24250840417373062
            ]
        },
        {
            "positions": [
                0.5767208887088939,
                -1.389286449128832,
                2.494061265612884,
                1.5470251356097606,
                -0.8983480147441198,
                -0.3965209722636204
            ]
        },
        {
            "positions": [
                0.5678061272629816,
                -1.3947542132196338,
                2.45989361692414,
                1.4380147700879047,
                -0.9418276436792596,
                -0.5505335403535102
            ]
        },
        {
            "positions": [
                0.5588913658170693,
                -1.4002219773104354,
                2.425725968235396,
                1.3290044045660487,
                -0.9853072726143994,
                -0.7045461084433999
            ]
        },
        {
            "positions": [
                0.5922083315750256,
                -1.4212810764640535,
                2.413298343417248,
                1.2811897831181764,
                -0.9999020948043679,
                -0.858096499908816
            ]
        },
        {
            "positions": [
                0.625525297332982,
                -1.4423401756176715,
                2.4008707185990996,
                1.2333751616703041,
                -1.0144969169943363,
                -1.011646891374232
            ]
        },
        {
            "positions": [
                0.6588422630909383,
                -1.4633992747712896,
                2.3884430937809515,
                1.1855605402224318,
                -1.0290917391843049,
                -1.1651972828396482
            ]
        },
        {
            "positions": [
                0.771434995464882,
                -1.4840814834008071,
                2.3701388255410816,
                1.2001943256596008,
                -1.0051366782191302,
                -1.318681851366895
            ]
        },
        {
            "positions": [
                0.8840277278388258,
                -1.5047636920303247,
                2.3518345573012116,
                1.21482811109677,
                -0.9811816172539556,
                -1.4721664198941418
            ]
        },
        {
            "positions": [
                1.009054255066722,
                -1.515600975757299,
                2.2841265878704173,
                1.2464643147478733,
                -0.9361075502325465,
                -1.5440885206009347
            ]
        },
        {
            "positions": [
                1.1340807822946184,
                -1.5264382594842734,
                2.2164186184396226,
                1.2781005183989769,
                -0.8910334832111376,
                -1.6160106213077277
            ]
        },
        {
            "positions": [
                1.2591073095225147,
                -1.5372755432112477,
                2.1487106490088284,
                1.3097367220500802,
                -0.8459594161897286,
                -1.6879327220145206
            ]
        },
        {
            "positions": [
                1.32174807749023,
                -1.561648886392717,
                1.9668718614694827,
                1.313778154255119,
                -0.7910402088206415,
                -1.6242934457344549
            ]
        },
        {
            "positions": [
                1.3843888454579452,
                -1.5860222295741861,
                1.7850330739301372,
                1.317819586460158,
                -0.7361210014515545,
                -1.5606541694543894
            ]
        },
        {
            "positions": [
                1.4470296134256602,
                -1.6103955727556554,
                1.6031942863907915,
                1.321861018665197,
                -0.6812017940824673,
                -1.4970148931743237
            ]
        },
        {
            "positions": [
                1.5096703813933754,
                -1.6347689159371246,
                1.421355498851446,
                1.325902450870236,
                -0.6262825867133802,
                -1.4333756168942582
            ]
        },
        {
            "positions": [
                1.5723111493610906,
                -1.6591422591185938,
                1.2395167113121004,
                1.3299438830752748,
                -0.5713633793442932,
                -1.3697363406141925
            ]
        },
        {
            "positions": [
                1.6349519173288058,
                -1.6835156023000633,
                1.0576779237727547,
                1.3339853152803138,
                -0.516444171975206,
                -1.3060970643341268
            ]
        },
        {
            "positions": [
                1.697592685296521,
                -1.7078889454815325,
                0.8758391362334093,
                1.3380267474853527,
                -0.46152496460611897,
                -1.2424577880540613
            ]
        },
        {
            "positions": [
                1.7602334532642363,
                -1.7322622886630017,
                0.6940003486940636,
                1.3420681796903915,
                -0.40660575723703185,
                -1.1788185117739958
            ]
        },
        {
            "positions": [
                1.8228742212319515,
                -1.756635631844471,
                0.5121615611547179,
                1.3461096118954305,
                -0.3516865498679448,
                -1.11517923549393
            ]
        },
        {
            "positions": [
                1.8855149891996668,
                -1.7810089750259401,
                0.33032277361537243,
                1.3501510441004694,
                -0.2967673424988577,
                -1.0515399592138643
            ]
        },
        {
            "positions": [
                1.948155757167382,
                -1.8053823182074094,
                0.14848398607602675,
                1.3541924763055084,
                -0.24184813512977055,
                -0.9879006829337987
            ]
        },
        {
            "positions": [
                2.010796525135097,
                -1.8297556613888786,
                -0.03335480146331893,
                1.3582339085105473,
                -0.18692892776068348,
                -0.9242614066537331
            ]
        },
        {
            "positions": [
                2.0734372931028124,
                -1.854129004570348,
                -0.2151935890026646,
                1.362275340715586,
                -0.1320097203915963,
                -0.8606221303736675
            ]
        },
        {
            "positions": [
                2.1360780610705272,
                -1.8785023477518172,
                -0.39703237654200985,
                1.3663167729206251,
                -0.07709051302250935,
                -0.7969828540936019
            ]
        },
        {
            "positions": [
                2.1987188290382425,
                -1.9028756909332865,
                -0.578871164081356,
                1.370358205125664,
                -0.02217130565342218,
                -0.7333435778135363
            ]
        },
        {
            "positions": [
                2.2613595970059577,
                -1.9272490341147557,
                -0.7607099516207012,
                1.374399637330703,
                0.032747901715664884,
                -0.6697043015334707
            ]
        },
        {
            "positions": [
                2.324000364973673,
                -1.951622377296225,
                -0.9425487391600469,
                1.3784410695357419,
                0.08766710908475206,
                -0.606065025253405
            ]
        },
        {
            "positions": [
                2.386641132941388,
                -1.9759957204776941,
                -1.1243875266993926,
                1.382482501740781,
                0.142586316453839,
                -0.5424257489733395
            ]
        },
        {
            "positions": [
                2.4492819009091034,
                -2.0003690636591633,
                -1.3062263142387383,
                1.3865239339458197,
                0.19750552382292624,
                -0.4787864726932738
            ]
        },
        {
            "positions": [
                2.4185894330430435,
                -2.0968692934605007,
                -1.3558060044616138,
                1.3125495890048582,
                0.2173854898077867,
                -0.40953446298536794
            ]
        },
        {
            "positions": [
                2.387896965176984,
                -2.1933695232618384,
                -1.4053856946844894,
                1.2385752440638964,
                0.23726545579264718,
                -0.3402824532774621
            ]
        },
        {
            "positions": [
                2.3572044973109243,
                -2.2898697530631758,
                -1.4549653849073647,
                1.1646008991229349,
                0.25714542177750765,
                -0.2710304435695562
            ]
        },
        {
            "positions": [
                2.326512029444865,
                -2.3863699828645135,
                -1.5045450751302403,
                1.090626554181973,
                0.2770253877623681,
                -0.20177843386165034
            ]
        },
        {
            "positions": [
                2.295819561578805,
                -2.482870212665851,
                -1.5541247653531158,
                1.0166522092410115,
                0.2969053537472286,
                -0.13252642415374447
            ]
        },
        {
            "positions": [
                2.4782723974544885,
                -2.4827728072183355,
                -1.6079478648333931,
                1.0101109713228316,
                0.382760776567696,
                -0.069390554271371
            ]
        },
        {
            "positions": [
                2.660725233330172,
                -2.48267540177082,
                -1.6617709643136707,
                1.0035697334046516,
                0.4686161993881634,
                -0.006254684388997549
            ]
        }
    ]
}