{
    "goal": {
        "global_pose": {
            "orientation": {
                "w": 0.7031023502349854,
                "x": -0.7110244035720825,
                "y": 0.007748599164187908,
                "z": 0.005598929710686207
            },
            "position": {
                "x": 0.11585023208521307,
                "y": 0.44412534475326537,
                "z": 0.3711530566215515
            }
        },
        "name": "move_to_auspresseinheit_A"
    },
    "id": "PRMstar_move_to_auspresseinheit_A_105",
    "joint_names": [
        "shoulder_pan_joint",
        "shoulder_lift_joint",
        "elbow_joint",
        "wrist_1_joint",
        "wrist_2_joint",
        "wrist_3_joint"
    ],
    "metrics": {
        "cart_traj_len": 1.3896133994019848,
        "distance_elbow_joint": 0.6315546707989719,
        "distance_shoulder_lift_joint": 1.4343315646472945,
        "distance_shoulder_pan_joint": 1.0713795905606114,
        "distance_wrist_1_joint": 0.5749837342479773,
        "distance_wrist_2_joint": 0.5140370432089697,
        "distance_wrist_3_joint": 0.28252399875803214,
        "smoothness": 1.2916734083558974,
        "time": 5.020170269,
        "traj_len": 2.123396006924252,
        "weighted_distance": 2.4825147284950533
    },
    "planner": "PRMstar",
    "start": {
        "state": {
            "elbow_joint": 2.4225746658250005,
            "shoulder_lift_joint": -1.3736534386056498,
            "shoulder_pan_joint": -0.3378633547517467,
            "wrist_1_joint": -1.0288598680537169,
            "wrist_2_joint": 1.233022673432363,
            "wrist_3_joint": -3.0940220416140027
        }
    },
    "waypoints": [
        {
            "positions": [
                -0.3378633547517467,
                -1.3736534386056498,
                2.4225746658250005,
                -1.0288598680537169,
                1.233022673432363,
                -3.0940220416140027
            ]
        },
        {
            "positions": [
                -0.22419899599560728,
                -1.4829111193249105,
                2.385754355521338,
                -0.992951630506075,
                1.190684517790599,
                -3.1114005683689943
            ]
        },
        {
            "positions": [
                -0.1105346372394678,
                -1.5921688000441712,
                2.348934045217676,
                -0.9570433929584333,
                1.1483463621488348,
                -3.1287790951239858
            ]
        },
        {
            "positions": [
                0.0031297215166716796,
                -1.7014264807634318,
                2.3121137349140137,
                -0.9211351554107915,
                1.1060082065070709,
                -3.146157621878977
            ]
        },
        {
            "positions": [
                0.11679408027281113,
                -1.8106841614826927,
                2.2752934246103518,
                -0.8852269178631498,
                1.0636700508653067,
                -3.1635361486339684
            ]
        },
        {
            "positions": [
                0.23045843902895063,
                -1.9199418422019534,
                2.2384731143066894,
                -0.849318680315508,
                1.0213318952235426,
                -3.18091467538896
            ]
        },
        {
            "positions": [
                0.3441227977850901,
                -2.029199522921214,
                2.2016528040030274,
                -0.8134104427678662,
                0.9789937395817786,
                -3.1982932021439514
            ]
        },
        {
            "positions": [
                0.45778715654122965,
                -2.138457203640475,
                2.164832493699365,
                -0.7775022052202244,
                0.9366555839400145,
                -3.2156717288989425
            ]
        },
        {
            "positions": [
                0.5714515152973689,
                -2.2477148843597354,
                2.128012183395703,
                -0.7415939676725827,
                0.8943174282982504,
                -3.233050255653934
            ]
        },
        {
            "positions": [
                0.6851158740535085,
                -2.3569725650789963,
                2.0911918730920407,
                -0.7056857301249408,
                0.8519792726564863,
                -3.2504287824089255
            ]
        },
        {
            "positions": [
                0.6970261192102515,
                -2.2310587177348222,
                2.1670696664745983,
                -0.6367116625349931,
                0.8191177478453073,
                -3.2105998805938913
            ]
        },
        {
            "positions": [
                0.7089363643669944,
                -2.105144870390648,
                2.2429474598571564,
                -0.5677375949450455,
                0.7862562230341283,
                -3.170770978778857
            ]
        },
        {
            "positions": [
                0.7208466095237374,
                -1.979231023046474,
                2.318825253239714,
                -0.49876352735509777,
                0.7533946982229494,
                -3.130942076963823
            ]
        },
        {
            "positions": [
                0.7081769832386099,
                -1.9059601269050483,
                2.3913637511580528,
                -0.45387613380573955,
                0.7189856302233933,
                -3.13757262948183
            ]
        }
    ]
}