{
    "goal": {
        "global_pose": {
            "orientation": {
                "w": -0.4816463035849501,
                "x": 0.5182115481033762,
                "y": 0.4908360881923453,
                "z": -0.5084816262002911
            },
            "position": {
                "x": -0.8240239810943604,
                "y": -0.300875300988555,
                "z": 0.16403168439865112
            }
        },
        "name": "move_to_storage_C"
    },
    "id": "PRMstar_move_to_storage_C_5",
    "joint_names": [
        "shoulder_pan_joint",
        "shoulder_lift_joint",
        "elbow_joint",
        "wrist_1_joint",
        "wrist_2_joint",
        "wrist_3_joint"
    ],
    "metrics": {
        "cart_traj_len": 0.5768488820758174,
        "distance_elbow_joint": 0.2553072824645213,
        "distance_shoulder_lift_joint": 0.18905286829469226,
        "distance_shoulder_pan_joint": 0.4960162309007212,
        "distance_wrist_1_joint": 0.06898613670233211,
        "distance_wrist_2_joint": 1.0608268219518457,
        "distance_wrist_3_joint": 0.06671516693437729,
        "smoothness": 0.0,
        "time": 5.005523247,
        "traj_len": 1.4618154833112453,
        "weighted_distance": 1.843948968863136
    },
    "planner": "PRMstar",
    "start": {
        "state": {
            "elbow_joint": 2.010868314990456,
            "shoulder_lift_joint": -1.1634956873337592,
            "shoulder_pan_joint": -2.4736205022346125,
            "wrist_1_joint": -0.8367026794202681,
            "wrist_2_joint": 0.6746043897044499,
            "wrist_3_joint": -3.1496632123970403
        }
    },
    "waypoints": [
        {
            "positions": [
                -2.4736205022346125,
                -1.1634956873337592,
                2.010868314990456,
                -0.8367026794202681,
                0.6746043897044499,
                -3.1496632123970403
            ]
        },
        {
            "positions": [
                -2.5562898740513993,
                -1.1319868759513105,
                1.968317101246369,
                -0.8252049899698795,
                0.8514088600297576,
                -3.1385440179079773
            ]
        },
        {
            "positions": [
                -2.638959245868186,
                -1.1004780645688617,
                1.925765887502282,
                -0.8137073005194907,
                1.0282133303550651,
                -3.1274248234189144
            ]
        },
        {
            "positions": [
                -2.7216286176849733,
                -1.068969253186413,
                1.8832146737581952,
                -0.802209611069102,
                1.205017800680373,
                -3.116305628929852
            ]
        },
        {
            "positions": [
                -2.80429798950176,
                -1.0374604418039644,
                1.8406634600141083,
                -0.7907119216187134,
                1.3818222710056802,
                -3.105186434440789
            ]
        },
        {
            "positions": [
                -2.886967361318547,
                -1.0059516304215157,
                1.7981122462700214,
                -0.7792142321683246,
                1.558626741330988,
                -3.094067239951726
            ]
        },
        {
            "positions": [
                -2.9696367331353337,
                -0.9744428190390669,
                1.7555610325259345,
                -0.767716542717936,
                1.7354312116562955,
                -3.082948045462663
            ]
        }
    ]
}