{
    "goal": {
        "global_pose": {
            "orientation": {
                "w": 0.5084816262002911,
                "x": -0.4908360881923452,
                "y": 0.5182115481033761,
                "z": -0.48164630358495003
            },
            "position": {
                "x": 0.5540239810943604,
                "y": -0.46912469901144505,
                "z": 0.16403168439865112
            }
        },
        "name": "move_to_storage_B"
    },
    "id": "PRMstar_move_to_storage_B_132",
    "joint_names": [
        "shoulder_pan_joint",
        "shoulder_lift_joint",
        "elbow_joint",
        "wrist_1_joint",
        "wrist_2_joint",
        "wrist_3_joint"
    ],
    "metrics": {
        "cart_traj_len": 0.9970047274806285,
        "distance_elbow_joint": 0.7266691323640453,
        "distance_shoulder_lift_joint": 0.5843263422404066,
        "distance_shoulder_pan_joint": 0.9687399912030678,
        "distance_wrist_1_joint": 3.025923034882434,
        "distance_wrist_2_joint": 2.7021998573505406,
        "distance_wrist_3_joint": 3.123442332948968,
        "smoothness": 0.20046864699525174,
        "time": 5.0534540329999995,
        "traj_len": 3.336360395848965,
        "weighted_distance": 4.806902146821836
    },
    "planner": "PRMstar",
    "start": {
        "state": {
            "elbow_joint": 1.664937868594044,
            "shoulder_lift_joint": -0.661644460510453,
            "shoulder_pan_joint": -0.9139846352900073,
            "wrist_1_joint": 2.146753192139373,
            "wrist_2_joint": -2.2341966793290973,
            "wrist_3_joint": 0.005466555786416001
        }
    },
    "waypoints": [
        {
            "positions": [
                -0.9139846352900073,
                -0.661644460510453,
                1.664937868594044,
                2.146753192139373,
                -2.2341966793290973,
                0.005466555786416001
            ]
        },
        {
            "positions": [
                -0.7827353444605457,
                -0.6411821362262985,
                1.603437305888421,
                2.125682299877971,
                -2.1394442510815956,
                0.007562090850566486
            ]
        },
        {
            "positions": [
                -0.6514860536310841,
                -0.6207198119421439,
                1.5419367431827984,
                2.104611407616569,
                -2.0446918228340945,
                0.009657625914716972
            ]
        },
        {
            "positions": [
                -0.5202367628016226,
                -0.6002574876579894,
                1.4804361804771755,
                2.083540515355167,
                -1.949939394586593,
                0.011753160978867456
            ]
        },
        {
            "positions": [
                -0.5423518442906489,
                -0.6203705403267564,
                1.5012887744866823,
                1.9695901169667738,
                -1.8569416033324377,
                -0.10813744393484472
            ]
        },
        {
            "positions": [
                -0.564466925779675,
                -0.6404835929955235,
                1.522141368496189,
                1.8556397185783804,
                -1.7639438120782824,
                -0.2280280488485569
            ]
        },
        {
            "positions": [
                -0.5865820072687014,
                -0.6605966456642904,
                1.5429939625056959,
                1.741689320189987,
                -1.6709460208241271,
                -0.34791865376226905
            ]
        },
        {
            "positions": [
                -0.6086970887577277,
                -0.6807096983330575,
                1.5638465565152027,
                1.6277389218015936,
                -1.577948229569972,
                -0.4678092586759812
            ]
        },
        {
            "positions": [
                -0.630812170246754,
                -0.7008227510018246,
                1.5846991505247094,
                1.5137885234132002,
                -1.4849504383158167,
                -0.5876998635896934
            ]
        },
        {
            "positions": [
                -0.6529272517357803,
                -0.7209358036705916,
                1.6055517445342162,
                1.3998381250248069,
                -1.3919526470616614,
                -0.7075904685034056
            ]
        },
        {
            "positions": [
                -0.6750423332248064,
                -0.7410488563393586,
                1.6264043385437232,
                1.2858877266364135,
                -1.2989548558075064,
                -0.8274810734171176
            ]
        },
        {
            "positions": [
                -0.6971574147138327,
                -0.7611619090081256,
                1.64725693255323,
                1.17193732824802,
                -1.2059570645533508,
                -0.9473716783308299
            ]
        },
        {
            "positions": [
                -0.7192724962028589,
                -0.7812749616768927,
                1.6681095265627368,
                1.0579869298596267,
                -1.1129592732991958,
                -1.067262283244542
            ]
        },
        {
            "positions": [
                -0.7413875776918852,
                -0.8013880143456598,
                1.6889621205722436,
                0.9440365314712333,
                -1.0199614820450404,
                -1.1871528881582543
            ]
        },
        {
            "positions": [
                -0.7635026591809115,
                -0.8215010670144267,
                1.7098147145817504,
                0.83008613308284,
                -0.9269636907908854,
                -1.3070434930719663
            ]
        },
        {
            "positions": [
                -0.7856177406699378,
                -0.8416141196831938,
                1.7306673085912572,
                0.7161357346944466,
                -0.8339658995367298,
                -1.4269340979856786
            ]
        },
        {
            "positions": [
                -0.8077328221589641,
                -0.8617271723519608,
                1.751519902600764,
                0.6021853363060532,
                -0.7409681082825748,
                -1.5468247028993907
            ]
        },
        {
            "positions": [
                -0.8298479036479903,
                -0.8818402250207278,
                1.7723724966102707,
                0.4882349379176598,
                -0.6479703170284197,
                -1.6667153078131027
            ]
        },
        {
            "positions": [
                -0.8519629851370165,
                -0.901953277689495,
                1.7932250906197775,
                0.37428453952926666,
                -0.5549725257742644,
                -1.7866059127268148
            ]
        },
        {
            "positions": [
                -0.8740780666260429,
                -0.9220663303582619,
                1.8140776846292843,
                0.26033414114087305,
                -0.46197473452010884,
                -1.9064965176405273
            ]
        },
        {
            "positions": [
                -0.8961931481150691,
                -0.942179383027029,
                1.834930278638791,
                0.14638374275247967,
                -0.36897694326595376,
                -2.0263871225542394
            ]
        },
        {
            "positions": [
                -0.9183082296040954,
                -0.962292435695796,
                1.8557828726482979,
                0.03243334436408629,
                -0.27597915201179846,
                -2.1462777274679516
            ]
        },
        {
            "positions": [
                -0.9404233110931217,
                -0.982405488364563,
                1.8766354666578047,
                -0.08151705402430709,
                -0.18298136075764337,
                -2.266168332381664
            ]
        },
        {
            "positions": [
                -0.962538392582148,
                -1.0025185410333302,
                1.8974880606673117,
                -0.19546745241270047,
                -0.08998356950348785,
                -2.386058937295376
            ]
        },
        {
            "positions": [
                -0.9846534740711743,
                -1.022631593702097,
                1.9183406546768185,
                -0.30941785080109385,
                0.003014221750667234,
                -2.505949542209088
            ]
        },
        {
            "positions": [
                -1.0067685555602006,
                -1.0427446463708643,
                1.9391932486863253,
                -0.42336824918948723,
                0.09601201300482232,
                -2.6258401471228003
            ]
        },
        {
            "positions": [
                -1.0288836370492267,
                -1.0628576990396312,
                1.960045842695832,
                -0.5373186475778806,
                0.18900980425897784,
                -2.7457307520365126
            ]
        },
        {
            "positions": [
                -1.0509987185382532,
                -1.0829707517083982,
                1.9808984367053388,
                -0.651269045966274,
                0.28200759551313337,
                -2.865621356950225
            ]
        },
        {
            "positions": [
                -1.0731138000272793,
                -1.1030838043771651,
                2.0017510307148454,
                -0.7652194443546674,
                0.37500538676728845,
                -2.9855119618639367
            ]
        },
        {
            "positions": [
                -1.0952288815163056,
                -1.1231968570459323,
                2.0226036247243524,
                -0.8791698427430606,
                0.4680031780214437,
                -3.105402566777649
            ]
        }
    ]
}