{
    "goal": {
        "global_pose": {
            "orientation": {
                "w": -0.4816463035849501,
                "x": 0.5182115481033762,
                "y": 0.4908360881923453,
                "z": -0.5084816262002911
            },
            "position": {
                "x": -0.8240239810943604,
                "y": -0.300875300988555,
                "z": 0.16403168439865112
            }
        },
        "name": "move_to_storage_C"
    },
    "id": "PRMstar_move_to_storage_C_50",
    "joint_names": [
        "shoulder_pan_joint",
        "shoulder_lift_joint",
        "elbow_joint",
        "wrist_1_joint",
        "wrist_2_joint",
        "wrist_3_joint"
    ],
    "metrics": {
        "cart_traj_len": 0.5767906619551413,
        "distance_elbow_joint": 0.2548269357483042,
        "distance_shoulder_lift_joint": 0.18839431584735977,
        "distance_shoulder_pan_joint": 0.4960380795402415,
        "distance_wrist_1_joint": 0.06917833756452874,
        "distance_wrist_2_joint": 1.0622693645309473,
        "distance_wrist_3_joint": 0.05797393026363551,
        "smoothness": 2.5376526478085547e-16,
        "time": 5.011731411,
        "traj_len": 1.4589999874897248,
        "weighted_distance": 1.8374102770251843
    },
    "planner": "PRMstar",
    "start": {
        "state": {
            "elbow_joint": 2.010868314990456,
            "shoulder_lift_joint": -1.1634956873337592,
            "shoulder_pan_joint": -2.4736205022346125,
            "wrist_1_joint": -0.8367026794202681,
            "wrist_2_joint": 0.6746043897044499,
            "wrist_3_joint": -3.1496632123970403
        }
    },
    "waypoints": [
        {
            "positions": [
                -2.4736205022346125,
                -1.1634956873337592,
                2.010868314990456,
                -0.8367026794202681,
                0.6746043897044499,
                -3.1496632123970403
            ]
        },
        {
            "positions": [
                -2.5562935154913196,
                -1.1320966346925325,
                1.9683971590324052,
                -0.8251729564928466,
                0.8516492837929411,
                -3.1400008906864345
            ]
        },
        {
            "positions": [
                -2.638966528748026,
                -1.1006975820513059,
                1.9259260030743544,
                -0.8136432335654252,
                1.0286941778814325,
                -3.1303385689758283
            ]
        },
        {
            "positions": [
                -2.7216395420047332,
                -1.0692985294100792,
                1.8834548471163037,
                -0.8021135106380037,
                1.2057390719699237,
                -3.1206762472652225
            ]
        },
        {
            "positions": [
                -2.8043125552614403,
                -1.0378994767688527,
                1.840983691158253,
                -0.7905837877105822,
                1.382783966058415,
                -3.1110139255546168
            ]
        },
        {
            "positions": [
                -2.886985568518147,
                -1.006500424127626,
                1.7985125352002023,
                -0.7790540647831609,
                1.5598288601469061,
                -3.1013516038440105
            ]
        },
        {
            "positions": [
                -2.969658581774854,
                -0.9751013714863994,
                1.7560413792421516,
                -0.7675243418557394,
                1.7368737542353974,
                -3.0916892821334048
            ]
        }
    ]
}