{
    "goal": {
        "global_pose": {
            "orientation": {
                "w": 0.005598929693374612,
                "x": 0.007748599140229565,
                "y": 0.7110244013736278,
                "z": -0.7031023480610252
            },
            "position": {
                "x": 0.1141497679147869,
                "y": -0.7141253447532654,
                "z": 0.3711530566215515
            }
        },
        "name": "move_to_auspresseinheit_B"
    },
    "id": "PRMstar_move_to_auspresseinheit_B_37",
    "joint_names": [
        "shoulder_pan_joint",
        "shoulder_lift_joint",
        "elbow_joint",
        "wrist_1_joint",
        "wrist_2_joint",
        "wrist_3_joint"
    ],
    "metrics": {
        "cart_traj_len": 0.565344469688432,
        "distance_elbow_joint": 0.06209498519001433,
        "distance_shoulder_lift_joint": 0.29459052938319163,
        "distance_shoulder_pan_joint": 0.5785645355078883,
        "distance_wrist_1_joint": 0.31997535354297646,
        "distance_wrist_2_joint": 0.9864893028783726,
        "distance_wrist_3_joint": 0.002442432413172213,
        "smoothness": 2.5376526478085547e-16,
        "time": 5.009244755,
        "traj_len": 1.4980511135857866,
        "weighted_distance": 1.8856051177707671
    },
    "planner": "PRMstar",
    "start": {
        "state": {
            "elbow_joint": 2.0193083361928714,
            "shoulder_lift_joint": -1.1220246554650708,
            "shoulder_pan_joint": -1.0952077554168747,
            "wrist_1_joint": -0.8559753972642168,
            "wrist_2_joint": 0.4759566250798843,
            "wrist_3_joint": -3.1240929996934557
        }
    },
    "waypoints": [
        {
            "positions": [
                -1.0952077554168747,
                -1.1220246554650708,
                2.0193083361928714,
                -0.8559753972642168,
                0.4759566250798843,
                -3.1240929996934557
            ]
        },
        {
            "positions": [
                -1.1916351780015226,
                -1.171123077028936,
                2.008959171994536,
                -0.8026461716737208,
                0.6403715088929464,
                -3.1245000717623177
            ]
        },
        {
            "positions": [
                -1.2880626005861708,
                -1.2202214985928013,
                1.9986100077962,
                -0.7493169460832246,
                0.8047863927060084,
                -3.1249071438311797
            ]
        },
        {
            "positions": [
                -1.3844900231708188,
                -1.2693199201566667,
                1.9882608435978644,
                -0.6959877204927285,
                0.9692012765190705,
                -3.1253142159000418
            ]
        },
        {
            "positions": [
                -1.4809174457554668,
                -1.318418341720532,
                1.9779116793995286,
                -0.6426584949022325,
                1.1336161603321326,
                -3.125721287968904
            ]
        },
        {
            "positions": [
                -1.577344868340115,
                -1.3675167632843972,
                1.9675625152011929,
                -0.5893292693117365,
                1.2980310441451948,
                -3.126128360037766
            ]
        },
        {
            "positions": [
                -1.673772290924763,
                -1.4166151848482624,
                1.957213351002857,
                -0.5360000437212403,
                1.462445927958257,
                -3.126535432106628
            ]
        }
    ]
}