{
    "goal": {
        "global_pose": {
            "orientation": {
                "w": -0.00223480608172531,
                "x": 0.0024358444001904467,
                "y": 0.7094548369677653,
                "z": -0.704743149386269
            },
            "position": {
                "x": 0.6205249238014221,
                "y": -0.6371506643295288,
                "z": 0.19426114857196808
            }
        },
        "name": "move_to_magneteinheit_B"
    },
    "id": "PRMstar_move_to_magneteinheit_B_29",
    "joint_names": [
        "shoulder_pan_joint",
        "shoulder_lift_joint",
        "elbow_joint",
        "wrist_1_joint",
        "wrist_2_joint",
        "wrist_3_joint"
    ],
    "metrics": {
        "cart_traj_len": 2.7062989419149353,
        "distance_elbow_joint": 2.100251802758266,
        "distance_shoulder_lift_joint": 2.0505540662530195,
        "distance_shoulder_pan_joint": 2.13722197506839,
        "distance_wrist_1_joint": 0.6839960057317422,
        "distance_wrist_2_joint": 4.252635823892776,
        "distance_wrist_3_joint": 1.365200162309494,
        "smoothness": 0.7530052486928478,
        "time": 5.093377126,
        "traj_len": 3.5482192485828277,
        "weighted_distance": 4.500765711549224
    },
    "planner": "PRMstar",
    "start": {
        "state": {
            "elbow_joint": 2.6216224122426386,
            "shoulder_lift_joint": -1.4174107377796124,
            "shoulder_pan_joint": 0.7066234856936794,
            "wrist_1_joint": 1.9546482284002225,
            "wrist_2_joint": -0.7096286983471962,
            "wrist_3_joint": 0.005740856962016249
        }
    },
    "waypoints": [
        {
            "positions": [
                0.7066234856936794,
                -1.4174107377796124,
                2.6216224122426386,
                1.9546482284002225,
                -0.7096286983471962,
                0.005740856962016249
            ]
        },
        {
            "positions": [
                0.7839247049393658,
                -1.4417573297898594,
                2.6177671725102387,
                1.916300451589547,
                -0.6371930533831434,
                0.0401044733098585
            ]
        },
        {
            "positions": [
                0.8291413456620118,
                -1.4868262182061494,
                2.571273148517969,
                1.8659013512376748,
                -0.51895841391859,
                0.0691849232199931
            ]
        },
        {
            "positions": [
                0.8743579863846579,
                -1.5318951066224393,
                2.5247791245256996,
                1.8155022508858027,
                -0.40072377445403656,
                0.0982653731301277
            ]
        },
        {
            "positions": [
                0.919574627107304,
                -1.5769639950387293,
                2.4782851005334297,
                1.7651031505339305,
                -0.28248913498948314,
                0.12734582304026232
            ]
        },
        {
            "positions": [
                0.96479126782995,
                -1.6220328834550193,
                2.43179107654116,
                1.7147040501820583,
                -0.16425449552492977,
                0.1564262729503969
            ]
        },
        {
            "positions": [
                0.8664035755623972,
                -1.6561983107438174,
                2.328941466457127,
                1.7367817617035466,
                -0.10115867066739166,
                0.10572643684601606
            ]
        },
        {
            "positions": [
                0.7680158832948444,
                -1.6903637380326155,
                2.2260918563730936,
                1.7588594732250349,
                -0.03806284580985356,
                0.05502660074163521
            ]
        },
        {
            "positions": [
                0.6696281910272917,
                -1.7245291653214139,
                2.1232422462890606,
                1.7809371847465232,
                0.025032979047684534,
                0.004326764637254343
            ]
        },
        {
            "positions": [
                0.5712404987597388,
                -1.758694592610212,
                2.020392636205027,
                1.8030148962680117,
                0.08812880390522265,
                -0.04637307146712649
            ]
        },
        {
            "positions": [
                0.4728528064921861,
                -1.7928600198990101,
                1.917543026120994,
                1.8250926077895,
                0.15122462876276072,
                -0.09707290757150733
            ]
        },
        {
            "positions": [
                0.37446511422463324,
                -1.8270254471878082,
                1.8146934160369608,
                1.8471703193109883,
                0.21432045362029883,
                -0.14777274367588822
            ]
        },
        {
            "positions": [
                0.2760774219570806,
                -1.8611908744766066,
                1.7118438059529277,
                1.8692480308324766,
                0.2774162784778369,
                -0.198472579780269
            ]
        },
        {
            "positions": [
                0.1776897296895278,
                -1.8953563017654047,
                1.6089941958688945,
                1.891325742353965,
                0.34051210333537507,
                -0.2491724158846499
            ]
        },
        {
            "positions": [
                0.07930203742197506,
                -1.9295217290542028,
                1.5061445857848612,
                1.9134034538754532,
                0.40360792819291313,
                -0.2998722519890307
            ]
        },
        {
            "positions": [
                -0.019085654845577782,
                -1.963687156343001,
                1.403294975700828,
                1.9354811653969417,
                0.4667037530504512,
                -0.35057208809341156
            ]
        },
        {
            "positions": [
                -0.11747334711313062,
                -1.9978525836317993,
                1.300445365616795,
                1.95755887691843,
                0.5297995779079893,
                -0.40127192419779245
            ]
        },
        {
            "positions": [
                -0.21586103938068346,
                -2.032018010920597,
                1.1975957555327614,
                1.9796365884399183,
                0.5928954027655274,
                -0.45197176030217334
            ]
        },
        {
            "positions": [
                -0.314248731648236,
                -2.0661834382093955,
                1.0947461454487284,
                2.0017142999614066,
                0.6559912276230655,
                -0.5026715964065541
            ]
        },
        {
            "positions": [
                -0.3406454492860194,
                -1.974051311912653,
                1.1358198943352353,
                2.00496426519734,
                0.47622441406643684,
                -0.4614685647718988
            ]
        },
        {
            "positions": [
                -0.36704216692380287,
                -1.8819191856159103,
                1.176893643221742,
                2.0082142304332726,
                0.2964576005098082,
                -0.42026553313724346
            ]
        },
        {
            "positions": [
                -0.39343888456158627,
                -1.7897870593191678,
                1.217967392108249,
                2.011464195669206,
                0.11669078695317958,
                -0.37906250150258813
            ]
        },
        {
            "positions": [
                -0.41983560219936966,
                -1.697654933022425,
                1.2590411409947557,
                2.0147141609051387,
                -0.06307602660344913,
                -0.33785946986793275
            ]
        },
        {
            "positions": [
                -0.44623231983715306,
                -1.6055228067256826,
                1.3001148898812627,
                2.017964126141072,
                -0.24284284016007773,
                -0.2966564382332774
            ]
        },
        {
            "positions": [
                -0.47262903747493645,
                -1.51339068042894,
                1.3411886387677694,
                2.021214091377005,
                -0.42260965371670633,
                -0.2554534065986221
            ]
        },
        {
            "positions": [
                -0.49902575511271985,
                -1.4212585541321974,
                1.3822623876542763,
                2.024464056612938,
                -0.6023764672733349,
                -0.21425037496396676
            ]
        },
        {
            "positions": [
                -0.5254224727505032,
                -1.3291264278354546,
                1.423336136540783,
                2.027714021848871,
                -0.7821432808299638,
                -0.17304734332931138
            ]
        },
        {
            "positions": [
                -0.5518191903882868,
                -1.2369943015387124,
                1.46440988542729,
                2.0309639870848044,
                -0.9619100943865921,
                -0.1318443116946561
            ]
        },
        {
            "positions": [
                -0.5782159080260701,
                -1.1448621752419696,
                1.505483634313797,
                2.034213952320737,
                -1.141676907943221,
                -0.09064128006000072
            ]
        },
        {
            "positions": [
                -0.6046126256638535,
                -1.0527300489452271,
                1.5465573832003037,
                2.0374639175566704,
                -1.3214437214998496,
                -0.04943824842534539
            ]
        },
        {
            "positions": [
                -0.6310093433016369,
                -0.9605979226484844,
                1.5876311320868104,
                2.0407138827926032,
                -1.5012105350564782,
                -0.008235216790690059
            ]
        },
        {
            "positions": [
                -0.6574060609394203,
                -0.8684657963517419,
                1.6287048809733173,
                2.0439638480285365,
                -1.680977348613107,
                0.03296781484396527
            ]
        },
        {
            "positions": [
                -0.7430250156603364,
                -0.8004445550298811,
                1.6418438144532397,
                2.08222785791757,
                -1.8643264558418877,
                0.026375326272750795
            ]
        },
        {
            "positions": [
                -0.8286439703812525,
                -0.7324233137080203,
                1.6549827479331622,
                2.120491867806603,
                -2.0476755630706682,
                0.01978283770153632
            ]
        },
        {
            "positions": [
                -0.9142629251021686,
                -0.6644020723861593,
                1.6681216814130846,
                2.1587558776956364,
                -2.231024670299449,
                0.013190349130321839
            ]
        }
    ]
}