{
    "goal": {
        "global_pose": {
            "orientation": {
                "w": 0.5084816262002911,
                "x": -0.4908360881923452,
                "y": 0.5182115481033761,
                "z": -0.48164630358495003
            },
            "position": {
                "x": 0.5540239810943604,
                "y": -0.46912469901144505,
                "z": 0.16403168439865112
            }
        },
        "name": "move_to_storage_B"
    },
    "id": "PRMstar_move_to_storage_B_76",
    "joint_names": [
        "shoulder_pan_joint",
        "shoulder_lift_joint",
        "elbow_joint",
        "wrist_1_joint",
        "wrist_2_joint",
        "wrist_3_joint"
    ],
    "metrics": {
        "cart_traj_len": 0.6336077650751387,
        "distance_elbow_joint": 0.7679225831016216,
        "distance_shoulder_lift_joint": 0.45790132712074905,
        "distance_shoulder_pan_joint": 0.7252438586137461,
        "distance_wrist_1_joint": 3.046938337925867,
        "distance_wrist_2_joint": 2.7074823768786906,
        "distance_wrist_3_joint": 3.131129127321277,
        "smoothness": 0.24702641529121652,
        "time": 5.05124873,
        "traj_len": 3.2919018228012136,
        "weighted_distance": 4.78051216716463
    },
    "planner": "PRMstar",
    "start": {
        "state": {
            "elbow_joint": 1.664937868594044,
            "shoulder_lift_joint": -0.661644460510453,
            "shoulder_pan_joint": -0.9139846352900073,
            "wrist_1_joint": 2.146753192139373,
            "wrist_2_joint": -2.2341966793290973,
            "wrist_3_joint": 0.005466555786416001
        }
    },
    "waypoints": [
        {
            "positions": [
                -0.9139846352900073,
                -0.661644460510453,
                1.664937868594044,
                2.146753192139373,
                -2.2341966793290973,
                0.005466555786416001
            ]
        },
        {
            "positions": [
                -0.8146182907902513,
                -0.734996266655167,
                1.759327056066379,
                2.1638604372811097,
                -2.224459258638729,
                0.06298681340624303
            ]
        },
        {
            "positions": [
                -0.7152519462904954,
                -0.8083480727998811,
                1.8537162435387142,
                2.1809676824228466,
                -2.214721837948361,
                0.12050707102607006
            ]
        },
        {
            "positions": [
                -0.7455050613769842,
                -0.8157816922711237,
                1.8397566756823682,
                2.0789983084061405,
                -2.0734172198787633,
                0.21601615583606437
            ]
        },
        {
            "positions": [
                -0.7757581764634732,
                -0.8232153117423663,
                1.8257971078260222,
                1.9770289343894345,
                -1.9321126018091654,
                0.3115252406460587
            ]
        },
        {
            "positions": [
                -0.8060112915499621,
                -0.8306489312136089,
                1.8118375399696762,
                1.8750595603727285,
                -1.7908079837395678,
                0.40703432545605306
            ]
        },
        {
            "positions": [
                -0.8362644066364511,
                -0.8380825506848515,
                1.7978779721133302,
                1.7730901863560227,
                -1.64950336566997,
                0.5025434102660473
            ]
        },
        {
            "positions": [
                -0.8665175217229399,
                -0.8455161701560941,
                1.7839184042569842,
                1.6711208123393166,
                -1.5081987476003724,
                0.5980524950760416
            ]
        },
        {
            "positions": [
                -0.8967706368094288,
                -0.8529497896273367,
                1.7699588364006382,
                1.5691514383226106,
                -1.3668941295307748,
                0.6935615798860361
            ]
        },
        {
            "positions": [
                -0.9270237518959178,
                -0.8603834090985794,
                1.7559992685442922,
                1.4671820643059048,
                -1.225589511461177,
                0.7890706646960304
            ]
        },
        {
            "positions": [
                -0.9572768669824067,
                -0.8678170285698219,
                1.7420397006879462,
                1.3652126902891988,
                -1.0842848933915794,
                0.8845797495060246
            ]
        },
        {
            "positions": [
                -0.9875299820688956,
                -0.8752506480410646,
                1.7280801328316002,
                1.2632433162724928,
                -0.9429802753219818,
                0.9800888343160189
            ]
        },
        {
            "positions": [
                -1.0177830971553845,
                -0.8826842675123071,
                1.7141205649752542,
                1.1612739422557867,
                -0.801675657252384,
                1.0755979191260132
            ]
        },
        {
            "positions": [
                -1.0480362122418734,
                -0.8901178869835498,
                1.7001609971189082,
                1.059304568239081,
                -0.6603710391827864,
                1.1711070039360076
            ]
        },
        {
            "positions": [
                -1.0782893273283625,
                -0.8975515064547923,
                1.6862014292625622,
                0.9573351942223747,
                -0.5190664211131886,
                1.266616088746002
            ]
        },
        {
            "positions": [
                -1.1085424424148513,
                -0.904985125926035,
                1.6722418614062162,
                0.8553658202056686,
                -0.37776180304359097,
                1.3621251735559963
            ]
        },
        {
            "positions": [
                -1.1387955575013402,
                -0.9124187453972776,
                1.6582822935498702,
                0.7533964461889628,
                -0.23645718497399315,
                1.4576342583659907
            ]
        },
        {
            "positions": [
                -1.169048672587829,
                -0.9198523648685202,
                1.6443227256935242,
                0.6514270721722568,
                -0.09515256690439554,
                1.553143343175985
            ]
        },
        {
            "positions": [
                -1.162438268649929,
                -0.9380063123924004,
                1.6779364248127753,
                0.5165922324093656,
                -0.043476361044941916,
                1.6970935558970492
            ]
        },
        {
            "positions": [
                -1.155827864712029,
                -0.9561602599162805,
                1.7115501239320263,
                0.38175739264647435,
                0.008199844814511706,
                1.8410437686181136
            ]
        },
        {
            "positions": [
                -1.149217460774129,
                -0.9743142074401607,
                1.7451638230512774,
                0.2469225528835831,
                0.0598760506739653,
                1.9849939813391781
            ]
        },
        {
            "positions": [
                -1.142607056836229,
                -0.9924681549640408,
                1.7787775221705284,
                0.11208771312069188,
                0.11155225653341895,
                2.1289441940602423
            ]
        },
        {
            "positions": [
                -1.135996652898329,
                -1.010622102487921,
                1.8123912212897793,
                -0.022747126642199356,
                0.16322846239287253,
                2.272894406781307
            ]
        },
        {
            "positions": [
                -1.1293862489604287,
                -1.0287760500118013,
                1.8460049204090303,
                -0.1575819664050906,
                0.21490466825232613,
                2.4168446195023714
            ]
        },
        {
            "positions": [
                -1.1227758450225287,
                -1.0469299975356814,
                1.8796186195282814,
                -0.29241680616798194,
                0.2665808741117798,
                2.5607948322234355
            ]
        },
        {
            "positions": [
                -1.1161654410846287,
                -1.0650839450595615,
                1.9132323186475324,
                -0.42725164593087306,
                0.3182570799712334,
                2.7047450449445
            ]
        },
        {
            "positions": [
                -1.1095550371467287,
                -1.0832378925834418,
                1.9468460177667835,
                -0.5620864856937644,
                0.3699332858306871,
                2.8486952576655646
            ]
        },
        {
            "positions": [
                -1.1029446332088286,
                -1.101391840107322,
                1.9804597168860345,
                -0.6969213254566555,
                0.4216094916901406,
                2.9926454703866288
            ]
        },
        {
            "positions": [
                -1.0963342292709286,
                -1.119545787631202,
                2.0140734160052856,
                -0.8317561652195469,
                0.4732856975495943,
                3.1365956831076933
            ]
        }
    ]
}