{
    "goal": {
        "global_pose": {
            "orientation": {
                "w": 0.5084816262002911,
                "x": -0.4908360881923452,
                "y": 0.5182115481033761,
                "z": -0.48164630358495003
            },
            "position": {
                "x": 0.5540239810943604,
                "y": -0.46912469901144505,
                "z": 0.16403168439865112
            }
        },
        "name": "move_to_storage_B"
    },
    "id": "PRMstar_move_to_storage_B_55",
    "joint_names": [
        "shoulder_pan_joint",
        "shoulder_lift_joint",
        "elbow_joint",
        "wrist_1_joint",
        "wrist_2_joint",
        "wrist_3_joint"
    ],
    "metrics": {
        "cart_traj_len": 2.955915599149473,
        "distance_elbow_joint": 0.4061920503154055,
        "distance_shoulder_lift_joint": 2.19158536476251,
        "distance_shoulder_pan_joint": 2.398469304119138,
        "distance_wrist_1_joint": 2.981591982352548,
        "distance_wrist_2_joint": 2.705351760517281,
        "distance_wrist_3_joint": 3.1394165358402875,
        "smoothness": 0.24808720274139892,
        "time": 5.023150535,
        "traj_len": 3.717876678684645,
        "weighted_distance": 5.078226443597959
    },
    "planner": "PRMstar",
    "start": {
        "state": {
            "elbow_joint": 1.664937868594044,
            "shoulder_lift_joint": -0.661644460510453,
            "shoulder_pan_joint": -0.9139846352900073,
            "wrist_1_joint": 2.146753192139373,
            "wrist_2_joint": -2.2341966793290973,
            "wrist_3_joint": 0.005466555786416001
        }
    },
    "waypoints": [
        {
            "positions": [
                -0.9139846352900073,
                -0.661644460510453,
                1.664937868594044,
                2.146753192139373,
                -2.2341966793290973,
                0.005466555786416001
            ]
        },
        {
            "positions": [
                -0.8400554956613054,
                -0.74995108783803,
                1.6629928313459779,
                2.121635828027908,
                -2.079334030698734,
                0.037574995430032905
            ]
        },
        {
            "positions": [
                -0.7661263560326037,
                -0.838257715165607,
                1.6610477940979118,
                2.0965184639164427,
                -1.9244713820683708,
                0.06968343507364981
            ]
        },
        {
            "positions": [
                -0.6921972164039019,
                -0.926564342493184,
                1.659102756849846,
                2.0714010998049774,
                -1.7696087334380073,
                0.10179187471726672
            ]
        },
        {
            "positions": [
                -0.6182680767752,
                -1.014870969820761,
                1.65715771960178,
                2.046283735693512,
                -1.614746084807644,
                0.13390031436088362
            ]
        },
        {
            "positions": [
                -0.5443389371464983,
                -1.103177597148338,
                1.6552126823537139,
                2.021166371582047,
                -1.4598834361772808,
                0.16600875400450052
            ]
        },
        {
            "positions": [
                -0.47040979751779644,
                -1.191484224475915,
                1.6532676451056478,
                1.996049007470582,
                -1.3050207875469173,
                0.19811719364811745
            ]
        },
        {
            "positions": [
                -0.3964806578890947,
                -1.279790851803492,
                1.6513226078575818,
                1.9709316433591166,
                -1.150158138916554,
                0.23022563329173434
            ]
        },
        {
            "positions": [
                -0.32255151826039286,
                -1.368097479131069,
                1.649377570609516,
                1.9458142792476514,
                -0.9952954902861908,
                0.26233407293535127
            ]
        },
        {
            "positions": [
                -0.24862237863169112,
                -1.456404106458646,
                1.64743253336145,
                1.9206969151361861,
                -0.8404328416558275,
                0.2944425125789682
            ]
        },
        {
            "positions": [
                -0.17469323900298928,
                -1.544710733786223,
                1.6454874961133839,
                1.895579551024721,
                -0.6855701930254643,
                0.32655095222258507
            ]
        },
        {
            "positions": [
                -0.10076409937428754,
                -1.6330173611138,
                1.6435424588653178,
                1.8704621869132558,
                -0.530707544395101,
                0.358659391866202
            ]
        },
        {
            "positions": [
                -0.026834959745585585,
                -1.721323988441377,
                1.6415974216172518,
                1.8453448228017906,
                -0.37584489576473734,
                0.3907678315098189
            ]
        },
        {
            "positions": [
                0.04709417988311615,
                -1.809630615768954,
                1.639652384369186,
                1.8202274586903253,
                -0.2209822471343741,
                0.42287627115343585
            ]
        },
        {
            "positions": [
                0.12102331951181788,
                -1.897937243096531,
                1.6377073471211199,
                1.79511009457886,
                -0.06611959850401083,
                0.4549847107970527
            ]
        },
        {
            "positions": [
                0.19495245914051984,
                -1.9862438704241079,
                1.6357623098730538,
                1.7699927304673948,
                0.08874305012635231,
                0.48709315044066964
            ]
        },
        {
            "positions": [
                0.13354616344106218,
                -1.9449588249551149,
                1.6537154761394546,
                1.6459531342445104,
                0.10695314684358234,
                0.6136545762114332
            ]
        },
        {
            "positions": [
                0.07213986774160452,
                -1.9036737794861218,
                1.6716686424058553,
                1.5219135380216262,
                0.12516324356081238,
                0.7402160019821966
            ]
        },
        {
            "positions": [
                0.010733572042146866,
                -1.8623887340171286,
                1.689621808672256,
                1.3978739417987418,
                0.14337334027804238,
                0.8667774277529601
            ]
        },
        {
            "positions": [
                -0.05067272365731079,
                -1.8211036885481355,
                1.7075749749386568,
                1.2738343455758576,
                0.16158343699527242,
                0.9933388535237238
            ]
        },
        {
            "positions": [
                -0.11207901935676845,
                -1.7798186430791425,
                1.7255281412050576,
                1.1497947493529734,
                0.17979353371250245,
                1.1199002792944872
            ]
        },
        {
            "positions": [
                -0.1734853150562261,
                -1.7385335976101495,
                1.7434813074714581,
                1.025755153130089,
                0.19800363042973246,
                1.2464617050652507
            ]
        },
        {
            "positions": [
                -0.23489161075568377,
                -1.6972485521411564,
                1.7614344737378589,
                0.9017155569072046,
                0.2162137271469625,
                1.3730231308360141
            ]
        },
        {
            "positions": [
                -0.2962979064551414,
                -1.6559635066721632,
                1.7793876400042596,
                0.7776759606843203,
                0.23442382386419253,
                1.4995845566067778
            ]
        },
        {
            "positions": [
                -0.3577042021545991,
                -1.6146784612031704,
                1.7973408062706604,
                0.653636364461436,
                0.25263392058142253,
                1.6261459823775413
            ]
        },
        {
            "positions": [
                -0.41911049785405674,
                -1.5733934157341771,
                1.8152939725370612,
                0.5295967682385518,
                0.2708440172986526,
                1.7527074081483047
            ]
        },
        {
            "positions": [
                -0.4805167935535144,
                -1.532108370265184,
                1.833247138803462,
                0.4055571720156672,
                0.28905411401588266,
                1.8792688339190684
            ]
        },
        {
            "positions": [
                -0.5419230892529721,
                -1.490823324796191,
                1.8512003050698627,
                0.28151757579278325,
                0.3072642107331126,
                2.0058302596898314
            ]
        },
        {
            "positions": [
                -0.6033293849524297,
                -1.4495382793271978,
                1.8691534713362634,
                0.15747797956989862,
                0.32547430745034267,
                2.132391685460595
            ]
        },
        {
            "positions": [
                -0.6647356806518874,
                -1.408253233858205,
                1.8871066376026642,
                0.03343838334701443,
                0.3436844041675727,
                2.258953111231359
            ]
        },
        {
            "positions": [
                -0.726141976351345,
                -1.3669681883892117,
                1.9050598038690647,
                -0.09060121287586997,
                0.36189450088480274,
                2.3855145370021225
            ]
        },
        {
            "positions": [
                -0.7875482720508027,
                -1.3256831429202187,
                1.9230129701354657,
                -0.21464080909875416,
                0.38010459760203275,
                2.5120759627728857
            ]
        },
        {
            "positions": [
                -0.8489545677502603,
                -1.2843980974512257,
                1.9409661364018662,
                -0.33868040532163857,
                0.3983146943192628,
                2.6386373885436494
            ]
        },
        {
            "positions": [
                -0.910360863449718,
                -1.2431130519822327,
                1.958919302668267,
                -0.46272000154452275,
                0.4165247910364928,
                2.7651988143144126
            ]
        },
        {
            "positions": [
                -0.9717671591491757,
                -1.2018280065132396,
                1.9768724689346677,
                -0.5867595977674069,
                0.4347348877537228,
                2.8917602400851763
            ]
        },
        {
            "positions": [
                -1.0331734548486333,
                -1.1605429610442464,
                1.9948256352010685,
                -0.7107991939902911,
                0.4529449844709528,
                3.0183216658559395
            ]
        },
        {
            "positions": [
                -1.094579750548091,
                -1.1192579155752533,
                2.0127788014674692,
                -0.8348387902131756,
                0.4711550811881829,
                3.144883091626703
            ]
        }
    ]
}