{
    "goal": {
        "global_pose": {
            "orientation": {
                "w": -0.4816463035849501,
                "x": 0.5182115481033762,
                "y": 0.4908360881923453,
                "z": -0.5084816262002911
            },
            "position": {
                "x": -0.8240239810943604,
                "y": 0.19912469901144506,
                "z": 0.16403168439865112
            }
        },
        "name": "move_to_storage_D"
    },
    "id": "PRMstar_move_to_storage_D_31",
    "joint_names": [
        "shoulder_pan_joint",
        "shoulder_lift_joint",
        "elbow_joint",
        "wrist_1_joint",
        "wrist_2_joint",
        "wrist_3_joint"
    ],
    "metrics": {
        "cart_traj_len": 3.4806478435412695,
        "distance_elbow_joint": 4.209650108076616,
        "distance_shoulder_lift_joint": 1.265103708532495,
        "distance_shoulder_pan_joint": 2.8135173777314524,
        "distance_wrist_1_joint": 2.268926864940236,
        "distance_wrist_2_joint": 0.8760153770588793,
        "distance_wrist_3_joint": 3.1378580686217163,
        "smoothness": 4.782499207233181e-16,
        "time": 5.061483984,
        "traj_len": 3.8172072913271804,
        "weighted_distance": 4.898135347681191
    },
    "planner": "PRMstar",
    "start": {
        "state": {
            "elbow_joint": -2.384821988534728,
            "shoulder_lift_joint": -2.2788054721415256,
            "shoulder_pan_joint": -0.1854694642142757,
            "wrist_1_joint": 1.4845938289331202,
            "wrist_2_joint": 0.17898776772866878,
            "wrist_3_joint": 0.037105688729662994
        }
    },
    "waypoints": [
        {
            "positions": [
                -0.1854694642142757,
                -2.2788054721415256,
                -2.384821988534728,
                1.4845938289331202,
                0.17898776772866878,
                0.037105688729662994
            ]
        },
        {
            "positions": [
                -0.08667070581641595,
                -2.2494245273787565,
                -2.252732505360234,
                1.4397525109932208,
                0.18330055988449048,
                -0.043640241209153455
            ]
        },
        {
            "positions": [
                0.01212805258144381,
                -2.220043582615987,
                -2.1206430221857397,
                1.3949111930533213,
                0.1876133520403122,
                -0.1243861711479699
            ]
        },
        {
            "positions": [
                0.11092681097930354,
                -2.190662637853218,
                -1.9885535390112459,
                1.3500698751134221,
                0.1919261441961339,
                -0.20513210108678634
            ]
        },
        {
            "positions": [
                0.20972556937716333,
                -2.161281693090449,
                -1.8564640558367518,
                1.3052285571735227,
                0.19623893635195563,
                -0.28587803102560283
            ]
        },
        {
            "positions": [
                0.30852432777502314,
                -2.1319007483276793,
                -1.7243745726622577,
                1.2603872392336233,
                0.20055172850777733,
                -0.3666239609644193
            ]
        },
        {
            "positions": [
                0.4073230861728828,
                -2.10251980356491,
                -1.5922850894877638,
                1.2155459212937239,
                0.20486452066359906,
                -0.44736989090323565
            ]
        },
        {
            "positions": [
                0.5061218445707427,
                -2.073138858802141,
                -1.4601956063132695,
                1.1707046033538244,
                0.20917731281942076,
                -0.5281158208420521
            ]
        },
        {
            "positions": [
                0.6049206029686024,
                -2.0437579140393716,
                -1.3281061231387756,
                1.1258632854139252,
                0.21349010497524246,
                -0.6088617507808686
            ]
        },
        {
            "positions": [
                0.7037193613664622,
                -2.0143769692766025,
                -1.1960166399642815,
                1.0810219674740258,
                0.21780289713106418,
                -0.6896076807196849
            ]
        },
        {
            "positions": [
                0.802518119764322,
                -1.9849960245138334,
                -1.0639271567897874,
                1.0361806495341264,
                0.2221156892868859,
                -0.7703536106585015
            ]
        },
        {
            "positions": [
                0.9013168781621818,
                -1.955615079751064,
                -0.9318376736152933,
                0.9913393315942269,
                0.2264284814427076,
                -0.8510995405973178
            ]
        },
        {
            "positions": [
                1.0001156365600412,
                -1.9262341349882948,
                -0.7997481904407995,
                0.9464980136543276,
                0.2307412735985293,
                -0.9318454705361343
            ]
        },
        {
            "positions": [
                1.0989143949579012,
                -1.8968531902255257,
                -0.6676587072663052,
                0.9016566957144282,
                0.23505406575435103,
                -1.0125914004749508
            ]
        },
        {
            "positions": [
                1.197713153355761,
                -1.8674722454627564,
                -0.5355692240918111,
                0.8568153777745288,
                0.23936685791017273,
                -1.0933373304137672
            ]
        },
        {
            "positions": [
                1.2965119117536206,
                -1.838091300699987,
                -0.4034797409173172,
                0.8119740598346294,
                0.24367965006599446,
                -1.1740832603525837
            ]
        },
        {
            "positions": [
                1.3953106701514804,
                -1.808710355937218,
                -0.2713902577428233,
                0.76713274189473,
                0.24799244222181616,
                -1.2548291902914002
            ]
        },
        {
            "positions": [
                1.4941094285493404,
                -1.7793294111744486,
                -0.139300774568329,
                0.7222914239548306,
                0.25230523437763785,
                -1.3355751202302166
            ]
        },
        {
            "positions": [
                1.5929081869472,
                -1.7499484664116793,
                -0.00721129139383514,
                0.6774501060149313,
                0.25661802653345955,
                -1.4163210501690329
            ]
        },
        {
            "positions": [
                1.6917069453450597,
                -1.7205675216489102,
                0.12487819178065918,
                0.632608788075032,
                0.2609308186892813,
                -1.4970669801078496
            ]
        },
        {
            "positions": [
                1.7905057037429195,
                -1.691186576886141,
                0.25696767495515305,
                0.5877674701351325,
                0.265243610845103,
                -1.577812910046666
            ]
        },
        {
            "positions": [
                1.889304462140779,
                -1.6618056321233716,
                0.3890571581296469,
                0.5429261521952332,
                0.2695564030009247,
                -1.6585588399854823
            ]
        },
        {
            "positions": [
                1.988103220538639,
                -1.6324246873606025,
                0.5211466413041412,
                0.4980848342553338,
                0.2738691951567464,
                -1.7393047699242987
            ]
        },
        {
            "positions": [
                2.0869019789364986,
                -1.6030437425978332,
                0.6532361244786351,
                0.45324351631543425,
                0.27818198731256816,
                -1.8200506998631154
            ]
        },
        {
            "positions": [
                2.185700737334358,
                -1.5736627978350641,
                0.785325607653129,
                0.40840219837553504,
                0.28249477946838986,
                -1.9007966298019316
            ]
        },
        {
            "positions": [
                2.284499495732218,
                -1.5442818530722948,
                0.9174150908276235,
                0.3635608804356357,
                0.28680757162421155,
                -1.981542559740748
            ]
        },
        {
            "positions": [
                2.3109262971002917,
                -1.5034680000366591,
                0.9872160930364129,
                0.27526134840157795,
                0.3458995387906221,
                -2.06763562282931
            ]
        },
        {
            "positions": [
                2.3373530984683657,
                -1.4626541470010235,
                1.0570170952452023,
                0.1869618163675202,
                0.4049915059570326,
                -2.153728685917872
            ]
        },
        {
            "positions": [
                2.363779899836439,
                -1.4218402939653876,
                1.1268180974539916,
                0.09866228433346241,
                0.4640834731234431,
                -2.239821749006434
            ]
        },
        {
            "positions": [
                2.390206701204513,
                -1.381026440929752,
                1.196619099662781,
                0.010362752299404698,
                0.5231754402898536,
                -2.3259148120949957
            ]
        },
        {
            "positions": [
                2.4166335025725867,
                -1.3402125878941162,
                1.2664201018715704,
                -0.07793677973465307,
                0.5822674074562642,
                -2.4120078751835576
            ]
        },
        {
            "positions": [
                2.4430603039406606,
                -1.2993987348584806,
                1.3362211040803598,
                -0.1662363117687109,
                0.6413593746226747,
                -2.4981009382721195
            ]
        },
        {
            "positions": [
                2.469487105308734,
                -1.258584881822845,
                1.4060221062891491,
                -0.2545358438027685,
                0.700451341789085,
                -2.5841940013606814
            ]
        },
        {
            "positions": [
                2.495913906676808,
                -1.2177710287872092,
                1.4758231084979385,
                -0.34283537583682633,
                0.7595433089554956,
                -2.670287064449244
            ]
        },
        {
            "positions": [
                2.5223407080448816,
                -1.1769571757515735,
                1.545624110706728,
                -0.43113490787088404,
                0.818635276121906,
                -2.7563801275378057
            ]
        },
        {
            "positions": [
                2.5487675094129556,
                -1.1361433227159377,
                1.6154251129155173,
                -0.5194344399049419,
                0.8777272432883166,
                -2.8424731906263676
            ]
        },
        {
            "positions": [
                2.575194310781029,
                -1.095329469680302,
                1.6852261151243066,
                -0.6077339719389996,
                0.936819210454727,
                -2.9285662537149295
            ]
        },
        {
            "positions": [
                2.601621112149103,
                -1.0545156166446663,
                1.755027117333096,
                -0.6960335039730575,
                0.9959111776211377,
                -3.0146593168034914
            ]
        },
        {
            "positions": [
                2.6280479135171766,
                -1.0137017636090306,
                1.8248281195418854,
                -0.7843330360071152,
                1.055003144787548,
                -3.1007523798920533
            ]
        }
    ]
}