{
    "goal": {
        "global_pose": {
            "orientation": {
                "w": 0.5084816217422485,
                "x": -0.49083608388900757,
                "y": 0.5182115435600281,
                "z": -0.4816462993621826
            },
            "position": {
                "x": 0.5540239810943604,
                "y": 0.030875300988554955,
                "z": 0.16403168439865112
            }
        },
        "name": "move_to_storage_A"
    },
    "id": "PRMstar_move_to_storage_A_19",
    "joint_names": [
        "shoulder_pan_joint",
        "shoulder_lift_joint",
        "elbow_joint",
        "wrist_1_joint",
        "wrist_2_joint",
        "wrist_3_joint"
    ],
    "metrics": {
        "cart_traj_len": 0.3521688134173257,
        "distance_elbow_joint": 0.44762649915285535,
        "distance_shoulder_lift_joint": 0.2341196601009785,
        "distance_shoulder_pan_joint": 0.46138518229998854,
        "distance_wrist_1_joint": 0.2355673505789576,
        "distance_wrist_2_joint": 1.0927290345420697,
        "distance_wrist_3_joint": 0.10074736408903506,
        "smoothness": 8.881784197001252e-16,
        "time": 5.005285295,
        "traj_len": 1.6038002028818568,
        "weighted_distance": 2.025331134422957
    },
    "planner": "PRMstar",
    "start": {
        "state": {
            "elbow_joint": 1.971548259319323,
            "shoulder_lift_joint": -1.1394851275133948,
            "shoulder_pan_joint": 0.1228115487234821,
            "wrist_1_joint": -0.7804723859257726,
            "wrist_2_joint": 0.12958671773740124,
            "wrist_3_joint": -3.192489227718131
        }
    },
    "waypoints": [
        {
            "positions": [
                0.1228115487234821,
                -1.1394851275133948,
                1.971548259319323,
                -0.7804723859257726,
                0.12958671773740124,
                -3.192489227718131
            ]
        },
        {
            "positions": [
                0.05689937982348374,
                -1.172930793242106,
                2.0354949020554454,
                -0.8141248645799094,
                0.2856908655291255,
                -3.178096747133983
            ]
        },
        {
            "positions": [
                -0.009012789076514621,
                -1.2063764589708172,
                2.0994415447915675,
                -0.8477773432340462,
                0.4417950133208497,
                -3.1637042665498356
            ]
        },
        {
            "positions": [
                -0.07492495797651297,
                -1.2398221246995285,
                2.1633881875276897,
                -0.881429821888183,
                0.5978991611125739,
                -3.1493117859656876
            ]
        },
        {
            "positions": [
                -0.14083712687651134,
                -1.2732677904282397,
                2.227334830263812,
                -0.9150823005423199,
                0.7540033089042982,
                -3.1349193053815396
            ]
        },
        {
            "positions": [
                -0.20674929577650974,
                -1.306713456156951,
                2.291281472999934,
                -0.9487347791964567,
                0.9101074566960226,
                -3.1205268247973916
            ]
        },
        {
            "positions": [
                -0.27266146467650804,
                -1.340159121885662,
                2.355228115736056,
                -0.9823872578505934,
                1.0662116044877465,
                -3.106134344213244
            ]
        },
        {
            "positions": [
                -0.33857363357650644,
                -1.3736047876143733,
                2.4191747584721783,
                -1.0160397365047302,
                1.222315752279471,
                -3.091741863629096
            ]
        }
    ]
}{
    "goal": {
        "global_pose": {
            "orientation": {
                "w": 0.5084816217422485,
                "x": -0.49083608388900757,
                "y": 0.5182115435600281,
                "z": -0.4816462993621826
            },
            "position": {
                "x": 0.5540239810943604,
                "y": 0.030875300988554955,
                "z": 0.16403168439865112
            }
        },
        "name": "move_to_storage_A"
    },
    "id": "PRMstar_move_to_storage_A_19",
    "joint_names": [
        "shoulder_pan_joint",
        "shoulder_lift_joint",
        "elbow_joint",
        "wrist_1_joint",
        "wrist_2_joint",
        "wrist_3_joint"
    ],
    "metrics": {
        "cart_traj_len": 0.35270705796971474,
        "distance_elbow_joint": 0.4489144231029898,
        "distance_shoulder_lift_joint": 0.23575550341203333,
        "distance_shoulder_pan_joint": 0.4626796257763922,
        "distance_wrist_1_joint": 0.24048099154802016,
        "distance_wrist_2_joint": 1.0919176581612617,
        "distance_wrist_3_joint": 0.09743721556769458,
        "smoothness": 8.881784232165597e-16,
        "time": 5.0057932869999995,
        "traj_len": 1.6053614600981274,
        "weighted_distance": 2.025946321700815
    },
    "planner": "PRMstar",
    "start": {
        "state": {
            "elbow_joint": 1.97154746011099,
            "shoulder_lift_joint": -1.13948474672311,
            "shoulder_pan_joint": 0.12281154466712228,
            "wrist_1_joint": -0.7804688027058302,
            "wrist_2_joint": 0.12958655903071145,
            "wrist_3_joint": 3.0906928834467795
        }
    },
    "waypoints": [
        {
            "positions": [
                0.12281154466712228,
                -1.13948474672311,
                1.97154746011099,
                -0.7804688027058302,
                0.12958655903071145,
                3.0906928834467795
            ]
        },
        {
            "positions": [
                0.05671445527049483,
                -1.1731641043534005,
                2.0356780919828457,
                -0.814823230069833,
                0.2855747959108917,
                3.104612485670736
            ]
        },
        {
            "positions": [
                -0.009382634126132619,
                -1.206843461983691,
                2.0998087238547014,
                -0.8491776574338359,
                0.4415630327910719,
                3.118532087894692
            ]
        },
        {
            "positions": [
                -0.07547972352276007,
                -1.2405228196139815,
                2.163939355726557,
                -0.8835320847978388,
                0.5975512696712522,
                3.1324516901186485
            ]
        },
        {
            "positions": [
                -0.1415768129193875,
                -1.2742021772442718,
                2.2280699875984125,
                -0.9178865121618417,
                0.7535395065514324,
                3.146371292342605
            ]
        },
        {
            "positions": [
                -0.207673902316015,
                -1.3078815348745623,
                2.292200619470268,
                -0.9522409395258447,
                0.9095277434316127,
                3.1602908945665615
            ]
        },
        {
            "positions": [
                -0.2737709917126424,
                -1.3415608925048528,
                2.356331251342124,
                -0.9865953668898475,
                1.0655159803117928,
                3.1742104967905176
            ]
        },
        {
            "positions": [
                -0.3398680811092699,
                -1.3752402501351433,
                2.4204618832139797,
                -1.0209497942538504,
                1.2215042171919732,
                3.188130099014474
            ]
        }
    ]
}{
    "goal": {
        "global_pose": {
            "orientation": {
                "w": 0.5084816217422485,
                "x": -0.49083608388900757,
                "y": 0.5182115435600281,
                "z": -0.4816462993621826
            },
            "position": {
                "x": 0.5540239810943604,
                "y": 0.030875300988554955,
                "z": 0.16403168439865112
            }
        },
        "name": "move_to_storage_A"
    },
    "id": "PRMstar_move_to_storage_A_19",
    "joint_names": [
        "shoulder_pan_joint",
        "shoulder_lift_joint",
        "elbow_joint",
        "wrist_1_joint",
        "wrist_2_joint",
        "wrist_3_joint"
    ],
    "metrics": {
        "cart_traj_len": 0.35284845976363316,
        "distance_elbow_joint": 0.44894721108930824,
        "distance_shoulder_lift_joint": 0.2349496194953764,
        "distance_shoulder_pan_joint": 0.4603813525675015,
        "distance_wrist_1_joint": 0.23676852030414652,
        "distance_wrist_2_joint": 1.1030483093830987,
        "distance_wrist_3_joint": 0.0870002706506896,
        "smoothness": 6.661338165333112e-16,
        "time": 5.00503635,
        "traj_len": 1.603463527333915,
        "weighted_distance": 2.0211166850230953
    },
    "planner": "PRMstar",
    "start": {
        "state": {
            "elbow_joint": 1.9715472970024885,
            "shoulder_lift_joint": -1.1394870060712896,
            "shoulder_pan_joint": 0.12281152778156021,
            "wrist_1_joint": -0.780463741449964,
            "wrist_2_joint": 0.12958659822042276,
            "wrist_3_joint": 3.090690232415272
        }
    },
    "waypoints": [
        {
            "positions": [
                0.12281152778156021,
                -1.1394870060712896,
                1.9715472970024885,
                -0.780463741449964,
                0.12958659822042276,
                3.090690232415272
            ]
        },
        {
            "positions": [
                0.05704276312906001,
                -1.173051237427772,
                2.0356826128723897,
                -0.8142878157791278,
                0.287164928132294,
                3.1031188425082274
            ]
        },
        {
            "positions": [
                -0.008726001523440191,
                -1.2066154687842543,
                2.099817928742291,
                -0.8481118901082916,
                0.44474325804416526,
                3.115547452601183
            ]
        },
        {
            "positions": [
                -0.07449476617594039,
                -1.2401797001407366,
                2.163953244612192,
                -0.8819359644374554,
                0.6023215879560365,
                3.1279760626941386
            ]
        },
        {
            "positions": [
                -0.1402635308284406,
                -1.273743931497219,
                2.2280885604820932,
                -0.9157600387666192,
                0.7598999178679077,
                3.1404046727870947
            ]
        },
        {
            "positions": [
                -0.20603229548094085,
                -1.3073081628537013,
                2.2922238763519944,
                -0.9495841130957829,
                0.9174782477797789,
                3.1528332828800503
            ]
        },
        {
            "positions": [
                -0.27180106013344096,
                -1.3408723942101837,
                2.3563591922218956,
                -0.9834081874249467,
                1.0750565776916503,
                3.165261892973006
            ]
        },
        {
            "positions": [
                -0.3375698247859413,
                -1.374436625566666,
                2.420494508091797,
                -1.0172322617541105,
                1.2326349076035215,
                3.1776905030659615
            ]
        }
    ]
}