{
    "goal": {
        "global_pose": {
            "orientation": {
                "w": 0.7047431468963623,
                "x": -0.7094548344612122,
                "y": 0.0024358443915843964,
                "z": -0.0022348060738295317
            },
            "position": {
                "x": 0.6094750761985779,
                "y": 0.3671506643295288,
                "z": 0.19426114857196808
            }
        },
        "name": "move_to_magneteinheit_A"
    },
    "id": "PRMstar_move_to_magneteinheit_A_117",
    "joint_names": [
        "shoulder_pan_joint",
        "shoulder_lift_joint",
        "elbow_joint",
        "wrist_1_joint",
        "wrist_2_joint",
        "wrist_3_joint"
    ],
    "metrics": {
        "cart_traj_len": 3.3314809606818763,
        "distance_elbow_joint": 3.9181236534543764,
        "distance_shoulder_lift_joint": 0.5422141665042576,
        "distance_shoulder_pan_joint": 2.7101011921906846,
        "distance_wrist_1_joint": 3.4881125360249032,
        "distance_wrist_2_joint": 1.4759376138964635,
        "distance_wrist_3_joint": 0.4715156989895033,
        "smoothness": 0.05212038468212805,
        "time": 5.042300533,
        "traj_len": 3.5504936080860907,
        "weighted_distance": 4.302683628732255
    },
    "planner": "PRMstar",
    "start": {
        "state": {
            "elbow_joint": -1.9196185241190666,
            "shoulder_lift_joint": -1.2443396400964142,
            "shoulder_pan_joint": 2.6996025414629847,
            "wrist_1_joint": -1.5485510000780065,
            "wrist_2_joint": -1.5709468930060704,
            "wrist_3_joint": 0.4420197071253992
        }
    },
    "waypoints": [
        {
            "positions": [
                2.6996025414629847,
                -1.2443396400964142,
                -1.9196185241190666,
                -1.5485510000780065,
                -1.5709468930060704,
                0.4420197071253992
            ]
        },
        {
            "positions": [
                2.585345832630994,
                -1.2206410544006012,
                -1.828278262549685,
                -1.465722498433294,
                -1.511362461759137,
                0.42132873850688257
            ]
        },
        {
            "positions": [
                2.4710891237990036,
                -1.1969424687047883,
                -1.7369380009803033,
                -1.3828939967885814,
                -1.4517780305122039,
                0.4006377698883659
            ]
        },
        {
            "positions": [
                2.356832414967013,
                -1.1732438830089753,
                -1.6455977394109216,
                -1.3000654951438688,
                -1.3921935992652705,
                0.3799468012698493
            ]
        },
        {
            "positions": [
                2.2425757061350224,
                -1.1495452973131621,
                -1.55425747784154,
                -1.2172369934991563,
                -1.3326091680183372,
                0.35925583265133265
            ]
        },
        {
            "positions": [
                2.128318997303032,
                -1.1258467116173492,
                -1.4629172162721582,
                -1.1344084918544437,
                -1.2730247367714038,
                0.33856486403281605
            ]
        },
        {
            "positions": [
                2.0140622884710413,
                -1.1021481259215362,
                -1.3715769547027765,
                -1.0515799902097314,
                -1.2134403055244707,
                0.31787389541429945
            ]
        },
        {
            "positions": [
                1.899805579639051,
                -1.0784495402257233,
                -1.280236693133395,
                -0.9687514885650187,
                -1.1538558742775373,
                0.29718292679578284
            ]
        },
        {
            "positions": [
                1.7855488708070602,
                -1.0547509545299103,
                -1.1888964315640131,
                -0.885922986920306,
                -1.094271443030604,
                0.2764919581772662
            ]
        },
        {
            "positions": [
                1.6712921619750698,
                -1.0310523688340973,
                -1.0975561699946317,
                -0.8030944852755936,
                -1.0346870117836708,
                0.2558009895587496
            ]
        },
        {
            "positions": [
                1.5570354531430792,
                -1.0073537831382842,
                -1.0062159084252498,
                -0.720265983630881,
                -0.9751025805367375,
                0.23511002094023295
            ]
        },
        {
            "positions": [
                1.4427787443110887,
                -0.9836551974424712,
                -0.9148756468558681,
                -0.6374374819861683,
                -0.9155181492898041,
                0.21441905232171632
            ]
        },
        {
            "positions": [
                1.328522035479098,
                -0.9599566117466583,
                -0.8235353852864866,
                -0.554608980341456,
                -0.8559337180428709,
                0.19372808370319972
            ]
        },
        {
            "positions": [
                1.2142653266471075,
                -0.9362580260508453,
                -0.7321951237171047,
                -0.4717804786967432,
                -0.7963492867959376,
                0.17303711508468306
            ]
        },
        {
            "positions": [
                1.1000086178151172,
                -0.9125594403550323,
                -0.6408548621477232,
                -0.3889519770520309,
                -0.7367648555490044,
                0.15234614646616645
            ]
        },
        {
            "positions": [
                0.9857519089831266,
                -0.8888608546592194,
                -0.5495146005783416,
                -0.3061234754073183,
                -0.677180424302071,
                0.13165517784764985
            ]
        },
        {
            "positions": [
                0.8714952001511358,
                -0.8651622689634063,
                -0.45817433900895965,
                -0.22329497376260554,
                -0.6175959930551377,
                0.11096420922913319
            ]
        },
        {
            "positions": [
                0.7572384913191454,
                -0.8414636832675934,
                -0.3668340774395782,
                -0.1404664721178932,
                -0.5580115618082044,
                0.09027324061061659
            ]
        },
        {
            "positions": [
                0.6429817824871549,
                -0.8177650975717803,
                -0.2754938158701965,
                -0.057637970473180644,
                -0.4984271305612711,
                0.06958227199209999
            ]
        },
        {
            "positions": [
                0.5287250736551643,
                -0.7940665118759673,
                -0.18415355430081481,
                0.025190531171531916,
                -0.43884269931433795,
                0.048891303373583384
            ]
        },
        {
            "positions": [
                0.4144683648231736,
                -0.7703679261801544,
                -0.0928132927314331,
                0.10801903281624457,
                -0.3792582680674046,
                0.028200334755066725
            ]
        },
        {
            "positions": [
                0.36500369240918035,
                -0.762950001296854,
                0.03899251039335444,
                0.19090257433880406,
                -0.3481089755209247,
                0.020471114150910262
            ]
        },
        {
            "positions": [
                0.3155390199951871,
                -0.7555320764135535,
                0.17079831351814198,
                0.27378611586136353,
                -0.3169596829744448,
                0.012741893546753803
            ]
        },
        {
            "positions": [
                0.2660743475811938,
                -0.748114151530253,
                0.3026041166429295,
                0.35666965738392303,
                -0.28581039042796497,
                0.005012672942597343
            ]
        },
        {
            "positions": [
                0.21660967516720053,
                -0.7406962266469526,
                0.4344099197677171,
                0.43955319890648253,
                -0.25466109788148505,
                -0.002716547661559118
            ]
        },
        {
            "positions": [
                0.17752045358972787,
                -0.741465350729374,
                0.6176902262145412,
                0.5668637629052593,
                -0.22707497840888777,
                -0.007494415851333846
            ]
        },
        {
            "positions": [
                0.1384312320122552,
                -0.7422344748117955,
                0.8009705326613652,
                0.6941743269040361,
                -0.1994888589362905,
                -0.012272284041108575
            ]
        },
        {
            "positions": [
                0.09934201043478252,
                -0.743003598894217,
                0.9842508391081892,
                0.821484890902813,
                -0.17190273946369322,
                -0.017050152230883305
            ]
        },
        {
            "positions": [
                0.09071209954345522,
                -0.7470950288969848,
                1.1374394350106058,
                0.9684737209694222,
                -0.15995883676780828,
                -0.0189224112035668
            ]
        },
        {
            "positions": [
                0.08208218865212792,
                -0.7511864588997526,
                1.2906280309130227,
                1.1154625510360314,
                -0.14801493407192334,
                -0.020794670176250293
            ]
        },
        {
            "positions": [
                0.07345227776080063,
                -0.7552778889025205,
                1.4438166268154393,
                1.2624513811026408,
                -0.13607103137603843,
                -0.022666929148933784
            ]
        },
        {
            "positions": [
                0.06482236686947332,
                -0.7593693189052882,
                1.5970052227178562,
                1.4094402111692501,
                -0.12412712868015349,
                -0.02453918812161728
            ]
        },
        {
            "positions": [
                0.05619245597814602,
                -0.763460748908056,
                1.7501938186202728,
                1.5564290412358592,
                -0.11218322598426857,
                -0.026411447094300773
            ]
        },
        {
            "positions": [
                0.08953800933106945,
                -0.7713638643049023,
                1.8743494739777908,
                1.7479952885913779,
                -0.12077019942159936,
                -0.024869174709399176
            ]
        },
        {
            "positions": [
                0.12288356268399289,
                -0.7792669797017485,
                1.998505129335309,
                1.9395615359468965,
                -0.12935717285893017,
                -0.023326902324497578
            ]
        }
    ]
}