{
    "goal": {
        "global_pose": {
            "orientation": {
                "w": 0.5084816262002911,
                "x": -0.4908360881923452,
                "y": 0.5182115481033761,
                "z": -0.48164630358495003
            },
            "position": {
                "x": 0.5540239810943604,
                "y": -0.46912469901144505,
                "z": 0.16403168439865112
            }
        },
        "name": "move_to_storage_B"
    },
    "id": "PRMstar_move_to_storage_B_104",
    "joint_names": [
        "shoulder_pan_joint",
        "shoulder_lift_joint",
        "elbow_joint",
        "wrist_1_joint",
        "wrist_2_joint",
        "wrist_3_joint"
    ],
    "metrics": {
        "cart_traj_len": 2.328772897678207,
        "distance_elbow_joint": 1.1522055919232699,
        "distance_shoulder_lift_joint": 1.7770076555373582,
        "distance_shoulder_pan_joint": 0.3470993336078453,
        "distance_wrist_1_joint": 3.0162482118558107,
        "distance_wrist_2_joint": 2.7030178665955873,
        "distance_wrist_3_joint": 3.11065408178621,
        "smoothness": 0.21210593690989604,
        "time": 5.034380288,
        "traj_len": 3.4794012044180938,
        "weighted_distance": 4.903754376325337
    },
    "planner": "PRMstar",
    "start": {
        "state": {
            "elbow_joint": 1.664937868594044,
            "shoulder_lift_joint": -0.661644460510453,
            "shoulder_pan_joint": -0.9139846352900073,
            "wrist_1_joint": 2.146753192139373,
            "wrist_2_joint": -2.2341966793290973,
            "wrist_3_joint": 0.005466555786416001
        }
    },
    "waypoints": [
        {
            "positions": [
                -0.9139846352900073,
                -0.661644460510453,
                1.664937868594044,
                2.146753192139373,
                -2.2341966793290973,
                0.005466555786416001
            ]
        },
        {
            "positions": [
                -0.9110178086618894,
                -0.7160742744587193,
                1.6697750797607565,
                2.087511687684887,
                -2.2135926466742095,
                -0.08147478230307129
            ]
        },
        {
            "positions": [
                -0.9080509820337717,
                -0.7705040884069856,
                1.674612290927469,
                2.028270183230401,
                -2.1929886140193218,
                -0.16841612039255857
            ]
        },
        {
            "positions": [
                -0.9003596903600996,
                -0.8714438867712396,
                1.6348349703225125,
                1.9982906199074073,
                -2.163284350936835,
                -0.3195119569893349
            ]
        },
        {
            "positions": [
                -0.8926683986864274,
                -0.9723836851354937,
                1.595057649717556,
                1.9683110565844135,
                -2.1335800878543485,
                -0.47060779358611116
            ]
        },
        {
            "positions": [
                -0.8849771070127553,
                -1.0733234834997478,
                1.5552803291125994,
                1.9383314932614197,
                -2.103875824771862,
                -0.6217036301828874
            ]
        },
        {
            "positions": [
                -0.8772858153390832,
                -1.1742632818640018,
                1.5155030085076429,
                1.908351929938426,
                -2.074171561689375,
                -0.7727994667796638
            ]
        },
        {
            "positions": [
                -0.8695945236654111,
                -1.275203080228256,
                1.4757256879026863,
                1.8783723666154322,
                -2.0444672986068886,
                -0.9238953033764401
            ]
        },
        {
            "positions": [
                -0.861903231991739,
                -1.37614287859251,
                1.4359483672977298,
                1.8483928032924384,
                -2.0147630355244024,
                -1.0749911399732164
            ]
        },
        {
            "positions": [
                -0.8542119403180669,
                -1.477082676956764,
                1.3961710466927733,
                1.8184132399694446,
                -1.9850587724419158,
                -1.2260869765699924
            ]
        },
        {
            "positions": [
                -0.8465206486443948,
                -1.5780224753210181,
                1.3563937260878167,
                1.7884336766464508,
                -1.9553545093594291,
                -1.377182813166769
            ]
        },
        {
            "positions": [
                -0.8388293569707227,
                -1.678962273685272,
                1.3166164054828602,
                1.758454113323457,
                -1.9256502462769425,
                -1.5282786497635452
            ]
        },
        {
            "positions": [
                -0.8311380652970506,
                -1.7799020720495262,
                1.2768390848779037,
                1.7284745500004632,
                -1.8959459831944558,
                -1.6793744863603215
            ]
        },
        {
            "positions": [
                -0.8437215302310929,
                -1.7485330223353222,
                1.3123037498083931,
                1.6047617133472776,
                -1.7833380226963156,
                -1.7472703453907725
            ]
        },
        {
            "positions": [
                -0.8563049951651353,
                -1.717163972621118,
                1.3477684147388826,
                1.4810488766940917,
                -1.6707300621981753,
                -1.8151662044212236
            ]
        },
        {
            "positions": [
                -0.8688884600991775,
                -1.685794922906914,
                1.3832330796693721,
                1.357336040040906,
                -1.558122101700035,
                -1.8830620634516748
            ]
        },
        {
            "positions": [
                -0.8814719250332198,
                -1.65442587319271,
                1.4186977445998616,
                1.2336232033877201,
                -1.4455141412018946,
                -1.9509579224821259
            ]
        },
        {
            "positions": [
                -0.8940553899672622,
                -1.6230568234785059,
                1.4541624095303511,
                1.1099103667345345,
                -1.3329061807037543,
                -2.018853781512577
            ]
        },
        {
            "positions": [
                -0.9066388549013045,
                -1.591687773764302,
                1.4896270744608406,
                0.9861975300813487,
                -1.220298220205614,
                -2.086749640543028
            ]
        },
        {
            "positions": [
                -0.9192223198353467,
                -1.560318724050098,
                1.5250917393913301,
                0.8624846934281629,
                -1.1076902597074738,
                -2.154645499573479
            ]
        },
        {
            "positions": [
                -0.9318057847693891,
                -1.528949674335894,
                1.5605564043218196,
                0.7387718567749771,
                -0.9950822992093334,
                -2.22254135860393
            ]
        },
        {
            "positions": [
                -0.9443892497034314,
                -1.4975806246216898,
                1.5960210692523091,
                0.6150590201217914,
                -0.8824743387111933,
                -2.2904372176343815
            ]
        },
        {
            "positions": [
                -0.9569727146374737,
                -1.4662115749074858,
                1.6314857341827986,
                0.4913461834686057,
                -0.7698663782130528,
                -2.3583330766648323
            ]
        },
        {
            "positions": [
                -0.9695561795715161,
                -1.4348425251932817,
                1.6669503991132881,
                0.3676333468154196,
                -0.6572584177149126,
                -2.4262289356952835
            ]
        },
        {
            "positions": [
                -0.9821396445055584,
                -1.4034734754790776,
                1.7024150640437776,
                0.24392051016223415,
                -0.5446504572167723,
                -2.4941247947257343
            ]
        },
        {
            "positions": [
                -0.9947231094396007,
                -1.3721044257648736,
                1.7378797289742671,
                0.12020767350904826,
                -0.4320424967186318,
                -2.5620206537561856
            ]
        },
        {
            "positions": [
                -1.007306574373643,
                -1.3407353760506697,
                1.7733443939047566,
                -0.003505163144137402,
                -0.3194345362204918,
                -2.629916512786637
            ]
        },
        {
            "positions": [
                -1.0198900393076853,
                -1.3093663263364657,
                1.8088090588352461,
                -0.1272179997973233,
                -0.2068265757223513,
                -2.697812371817088
            ]
        },
        {
            "positions": [
                -1.0324735042417277,
                -1.2779972766222616,
                1.8442737237657356,
                -0.25093083645050895,
                -0.09421861522421104,
                -2.765708230847539
            ]
        },
        {
            "positions": [
                -1.0450569691757698,
                -1.2466282269080575,
                1.8797383886962251,
                -0.37464367310369484,
                0.018389345273929214,
                -2.8336040898779897
            ]
        },
        {
            "positions": [
                -1.0576404341098122,
                -1.2152591771938535,
                1.9152030536267146,
                -0.4983565097568805,
                0.13099730577206925,
                -2.901499948908441
            ]
        },
        {
            "positions": [
                -1.0702238990438546,
                -1.1838901274796494,
                1.9506677185572041,
                -0.6220693464100666,
                0.24360526627020995,
                -2.9693958079388922
            ]
        },
        {
            "positions": [
                -1.0828073639778968,
                -1.1525210777654453,
                1.9861323834876936,
                -0.7457821830632518,
                0.3562132267683502,
                -3.037291666969343
            ]
        },
        {
            "positions": [
                -1.0953908289119392,
                -1.1211520280512413,
                2.021597048418183,
                -0.8694950197164381,
                0.46882118726649025,
                -3.1051875259997943
            ]
        }
    ]
}