{
    "goal": {
        "global_pose": {
            "orientation": {
                "w": 0.7031023502349854,
                "x": -0.7110244035720825,
                "y": 0.007748599164187908,
                "z": 0.005598929710686207
            },
            "position": {
                "x": 0.11585023208521307,
                "y": 0.44412534475326537,
                "z": 0.3711530566215515
            }
        },
        "name": "move_to_auspresseinheit_A"
    },
    "id": "PRMstar_move_to_auspresseinheit_A_118",
    "joint_names": [
        "shoulder_pan_joint",
        "shoulder_lift_joint",
        "elbow_joint",
        "wrist_1_joint",
        "wrist_2_joint",
        "wrist_3_joint"
    ],
    "metrics": {
        "cart_traj_len": 0.7245043657052159,
        "distance_elbow_joint": 0.1907682592804547,
        "distance_shoulder_lift_joint": 0.5330590100236048,
        "distance_shoulder_pan_joint": 1.0425335660880264,
        "distance_wrist_1_joint": 0.5758005653164925,
        "distance_wrist_2_joint": 1.8979893436170567,
        "distance_wrist_3_joint": 0.3860072380678168,
        "smoothness": 1.0446265780513762,
        "time": 5.031299519999999,
        "traj_len": 2.1508505253488566,
        "weighted_distance": 2.805701760248697
    },
    "planner": "PRMstar",
    "start": {
        "state": {
            "elbow_joint": 2.4225746658250005,
            "shoulder_lift_joint": -1.3736534386056498,
            "shoulder_pan_joint": -0.3378633547517467,
            "wrist_1_joint": -1.0288598680537169,
            "wrist_2_joint": 1.233022673432363,
            "wrist_3_joint": -3.0940220416140027
        }
    },
    "waypoints": [
        {
            "positions": [
                -0.3378633547517467,
                -1.3736534386056498,
                2.4225746658250005,
                -1.0288598680537169,
                1.233022673432363,
                -3.0940220416140027
            ]
        },
        {
            "positions": [
                -0.32732282830685666,
                -1.4324029507017275,
                2.4065524201364963,
                -0.9631916441235661,
                1.0593911639739884,
                -3.0701102469628014
            ]
        },
        {
            "positions": [
                -0.3167823018619666,
                -1.4911524627978054,
                2.3905301744479917,
                -0.8975234201934151,
                0.8857596545156137,
                -3.0461984523116
            ]
        },
        {
            "positions": [
                -0.30624177541707653,
                -1.5499019748938831,
                2.3745079287594875,
                -0.8318551962632643,
                0.7121281450572391,
                -3.022286657660399
            ]
        },
        {
            "positions": [
                -0.29570124897218647,
                -1.608651486989961,
                2.358485683070983,
                -0.7661869723331134,
                0.5384966355988644,
                -2.998374863009197
            ]
        },
        {
            "positions": [
                -0.2851607225272964,
                -1.6674009990860388,
                2.3424634373824786,
                -0.7005187484029626,
                0.3648651261404897,
                -2.974463068357996
            ]
        },
        {
            "positions": [
                -0.27462019608240634,
                -1.7261505111821167,
                2.326441191693974,
                -0.6348505244728118,
                0.19123361668211514,
                -2.9505512737067945
            ]
        },
        {
            "positions": [
                -0.2640796696375163,
                -1.7849000232781944,
                2.31041894600547,
                -0.5691823005426608,
                0.017602107223740338,
                -2.926639479055593
            ]
        },
        {
            "positions": [
                -0.10262135614188361,
                -1.8052020941700377,
                2.3235210359156238,
                -0.5498284675750881,
                0.13136357012514605,
                -2.963076924973828
            ]
        },
        {
            "positions": [
                0.05883695735374905,
                -1.825504165061881,
                2.3366231258257777,
                -0.5304746346075153,
                0.24512503302655178,
                -2.9995143708920624
            ]
        },
        {
            "positions": [
                0.22029527084938177,
                -1.8458062359537246,
                2.3497252157359316,
                -0.5111208016399427,
                0.3588864959279575,
                -3.0359518168102966
            ]
        },
        {
            "positions": [
                0.3817535843450144,
                -1.866108306845568,
                2.362827305646086,
                -0.4917669686723699,
                0.4726479588293632,
                -3.072389262728531
            ]
        },
        {
            "positions": [
                0.5432118978406472,
                -1.8864103777374113,
                2.37592939555624,
                -0.47241313570479715,
                0.586409421730769,
                -3.108826708646766
            ]
        },
        {
            "positions": [
                0.7046702113362798,
                -1.9067124486292546,
                2.389031485466394,
                -0.4530593027372244,
                0.7001708846321747,
                -3.1452641545650004
            ]
        }
    ]
}