{
    "goal": {
        "global_pose": {
            "orientation": {
                "w": 0.5084816262002911,
                "x": -0.4908360881923452,
                "y": 0.5182115481033761,
                "z": -0.48164630358495003
            },
            "position": {
                "x": 0.5540239810943604,
                "y": -0.46912469901144505,
                "z": 0.16403168439865112
            }
        },
        "name": "move_to_storage_B"
    },
    "id": "PRMstar_move_to_storage_B_91",
    "joint_names": [
        "shoulder_pan_joint",
        "shoulder_lift_joint",
        "elbow_joint",
        "wrist_1_joint",
        "wrist_2_joint",
        "wrist_3_joint"
    ],
    "metrics": {
        "cart_traj_len": 0.6484778632170297,
        "distance_elbow_joint": 0.3572200244199313,
        "distance_shoulder_lift_joint": 0.4607478677940997,
        "distance_shoulder_pan_joint": 0.18408929665244045,
        "distance_wrist_1_joint": 3.0143503900869253,
        "distance_wrist_2_joint": 2.711616798628731,
        "distance_wrist_3_joint": 3.1293254841003684,
        "smoothness": 0.03851430015604832,
        "time": 5.073734552,
        "traj_len": 3.139641677275051,
        "weighted_distance": 4.673539132028199
    },
    "planner": "PRMstar",
    "start": {
        "state": {
            "elbow_joint": 1.664937868594044,
            "shoulder_lift_joint": -0.661644460510453,
            "shoulder_pan_joint": -0.9139846352900073,
            "wrist_1_joint": 2.146753192139373,
            "wrist_2_joint": -2.2341966793290973,
            "wrist_3_joint": 0.005466555786416001
        }
    },
    "waypoints": [
        {
            "positions": [
                -0.9139846352900073,
                -0.661644460510453,
                1.664937868594044,
                2.146753192139373,
                -2.2341966793290973,
                0.005466555786416001
            ]
        },
        {
            "positions": [
                -0.9124045067471265,
                -0.6616155408644916,
                1.6650417276693867,
                2.14312876237079,
                -2.2130030940879744,
                0.005068801538705727
            ]
        },
        {
            "positions": [
                -0.914937744832325,
                -0.6789902542845748,
                1.6769397017872134,
                2.0251458130186233,
                -2.0910973459055886,
                -0.11673193834906428
            ]
        },
        {
            "positions": [
                -0.9174709829175235,
                -0.6963649677046581,
                1.6888376759050399,
                1.9071628636664564,
                -1.9691915977232026,
                -0.2385326782368343
            ]
        },
        {
            "positions": [
                -0.9200042210027221,
                -0.7137396811247413,
                1.7007356500228665,
                1.7891799143142895,
                -1.8472858495408169,
                -0.3603334181246043
            ]
        },
        {
            "positions": [
                -0.9225374590879205,
                -0.7311143945448244,
                1.712633624140693,
                1.6711969649621228,
                -1.725380101358431,
                -0.48213415801237436
            ]
        },
        {
            "positions": [
                -0.9250706971731191,
                -0.7484891079649076,
                1.7245315982585196,
                1.553214015609956,
                -1.6034743531760451,
                -0.6039348979001443
            ]
        },
        {
            "positions": [
                -0.9276039352583175,
                -0.7658638213849909,
                1.736429572376346,
                1.4352310662577892,
                -1.4815686049936594,
                -0.7257356377879143
            ]
        },
        {
            "positions": [
                -0.9301371733435161,
                -0.7832385348050741,
                1.7483275464941728,
                1.3172481169056223,
                -1.3596628568112736,
                -0.8475363776756843
            ]
        },
        {
            "positions": [
                -0.9326704114287145,
                -0.8006132482251573,
                1.7602255206119994,
                1.1992651675534556,
                -1.2377571086288877,
                -0.9693371175634544
            ]
        },
        {
            "positions": [
                -0.9352036495139131,
                -0.8179879616452406,
                1.7721234947298259,
                1.0812822182012887,
                -1.1158513604465017,
                -1.0911378574512245
            ]
        },
        {
            "positions": [
                -0.9377368875991116,
                -0.8353626750653238,
                1.7840214688476526,
                0.963299268849122,
                -0.9939456122641162,
                -1.2129385973389943
            ]
        },
        {
            "positions": [
                -0.9402701256843101,
                -0.852737388485407,
                1.795919442965479,
                0.8453163194969551,
                -0.8720398640817302,
                -1.3347393372267644
            ]
        },
        {
            "positions": [
                -0.9428033637695087,
                -0.8701121019054902,
                1.8078174170833057,
                0.7273333701447884,
                -0.7501341158993444,
                -1.4565400771145343
            ]
        },
        {
            "positions": [
                -0.9453366018547071,
                -0.8874868153255734,
                1.8197153912011323,
                0.6093504207926215,
                -0.6282283677169584,
                -1.5783408170023046
            ]
        },
        {
            "positions": [
                -0.9478698399399057,
                -0.9048615287456566,
                1.8316133653189588,
                0.49136747144045456,
                -0.5063226195345727,
                -1.7001415568900744
            ]
        },
        {
            "positions": [
                -0.9504030780251042,
                -0.9222362421657399,
                1.8435113394367855,
                0.3733845220882879,
                -0.38441687135218694,
                -1.8219422967778443
            ]
        },
        {
            "positions": [
                -0.9529363161103027,
                -0.9396109555858231,
                1.855409313554612,
                0.25540157273612096,
                -0.26251112316980096,
                -1.9437430366656145
            ]
        },
        {
            "positions": [
                -0.9554695541955012,
                -0.9569856690059062,
                1.8673072876724386,
                0.13741862338395405,
                -0.1406053749874152,
                -2.0655437765533846
            ]
        },
        {
            "positions": [
                -0.9580027922806997,
                -0.9743603824259894,
                1.8792052617902653,
                0.019435674031787364,
                -0.018699626805029013,
                -2.1873445164411547
            ]
        },
        {
            "positions": [
                -0.9605360303658982,
                -0.9917350958460727,
                1.8911032359080917,
                -0.09854727532037932,
                0.10320612137735674,
                -2.3091452563289243
            ]
        },
        {
            "positions": [
                -0.9630692684510967,
                -1.009109809266156,
                1.9030012100259184,
                -0.216530224672546,
                0.22511186955974205,
                -2.4309459962166944
            ]
        },
        {
            "positions": [
                -0.9656025065362952,
                -1.0264845226862391,
                1.9148991841437448,
                -0.33451317402471314,
                0.34701761774212825,
                -2.5527467361044645
            ]
        },
        {
            "positions": [
                -0.9681357446214938,
                -1.0438592361063224,
                1.9267971582615715,
                -0.4524961233768797,
                0.4689233659245138,
                -2.6745474759922345
            ]
        },
        {
            "positions": [
                -1.0103950546998912,
                -1.0700176537417583,
                1.958584069845706,
                -0.5908631482337705,
                0.47175561704955365,
                -2.824317960099474
            ]
        },
        {
            "positions": [
                -1.0526543647782887,
                -1.096176071377194,
                1.9903709814298407,
                -0.7292301730906612,
                0.4745878681745935,
                -2.9740884442067133
            ]
        },
        {
            "positions": [
                -1.0949136748566861,
                -1.1223344890126299,
                2.022157893013975,
                -0.867597197947552,
                0.47742011929963335,
                -3.1238589283139526
            ]
        }
    ]
}