{
    "goal": {
        "global_pose": {
            "orientation": {
                "w": 0.7047431468963623,
                "x": -0.7094548344612122,
                "y": 0.0024358443915843964,
                "z": -0.0022348060738295317
            },
            "position": {
                "x": 0.6094750761985779,
                "y": 0.3671506643295288,
                "z": 0.19426114857196808
            }
        },
        "name": "move_to_magneteinheit_A"
    },
    "id": "PRMstar_move_to_magneteinheit_A_52",
    "joint_names": [
        "shoulder_pan_joint",
        "shoulder_lift_joint",
        "elbow_joint",
        "wrist_1_joint",
        "wrist_2_joint",
        "wrist_3_joint"
    ],
    "metrics": {
        "cart_traj_len": 3.2368611592079652,
        "distance_elbow_joint": 3.8725246130657105,
        "distance_shoulder_lift_joint": 1.3984188096345536,
        "distance_shoulder_pan_joint": 3.10284466922897,
        "distance_wrist_1_joint": 1.3187529485307736,
        "distance_wrist_2_joint": 1.7050302730987101,
        "distance_wrist_3_joint": 2.7074223650655926,
        "smoothness": 0.42266095897768335,
        "time": 5.026984847,
        "traj_len": 3.7556615500633592,
        "weighted_distance": 4.7480123873453595
    },
    "planner": "PRMstar",
    "start": {
        "state": {
            "elbow_joint": -1.9196185241190666,
            "shoulder_lift_joint": -1.2443396400964142,
            "shoulder_pan_joint": 2.6996025414629847,
            "wrist_1_joint": -1.5485510000780065,
            "wrist_2_joint": -1.5709468930060704,
            "wrist_3_joint": 0.4420197071253992
        }
    },
    "waypoints": [
        {
            "positions": [
                2.6996025414629847,
                -1.2443396400964142,
                -1.9196185241190666,
                -1.5485510000780065,
                -1.5709468930060704,
                0.4420197071253992
            ]
        },
        {
            "positions": [
                2.6016684734558417,
                -1.2628160644665791,
                -1.8141657646968616,
                -1.5111543349820538,
                -1.5216521952043154,
                0.527612480713911
            ]
        },
        {
            "positions": [
                2.5037344054486983,
                -1.2812924888367438,
                -1.7087130052746566,
                -1.473757669886101,
                -1.4723574974025606,
                0.6132052543024228
            ]
        },
        {
            "positions": [
                2.405800337441555,
                -1.2997689132069088,
                -1.6032602458524516,
                -1.4363610047901483,
                -1.4230627996008056,
                0.6987980278909346
            ]
        },
        {
            "positions": [
                2.307866269434412,
                -1.3182453375770735,
                -1.4978074864302466,
                -1.3989643396941953,
                -1.3737681017990508,
                0.7843908014794464
            ]
        },
        {
            "positions": [
                2.2099322014272684,
                -1.3367217619472385,
                -1.3923547270080414,
                -1.3615676745982426,
                -1.3244734039972959,
                0.8699835750679583
            ]
        },
        {
            "positions": [
                2.1119981334201254,
                -1.3551981863174034,
                -1.2869019675858366,
                -1.3241710095022898,
                -1.275178706195541,
                0.95557634865647
            ]
        },
        {
            "positions": [
                2.014064065412982,
                -1.3736746106875681,
                -1.1814492081636314,
                -1.286774344406337,
                -1.225884008393786,
                1.041169122244982
            ]
        },
        {
            "positions": [
                1.916129997405839,
                -1.392151035057733,
                -1.0759964487414264,
                -1.2493776793103843,
                -1.176589310592031,
                1.1267618958334937
            ]
        },
        {
            "positions": [
                1.8181959293986956,
                -1.4106274594278978,
                -0.9705436893192214,
                -1.2119810142144316,
                -1.1272946127902763,
                1.2123546694220055
            ]
        },
        {
            "positions": [
                1.7202618613915526,
                -1.4291038837980627,
                -0.8650909298970164,
                -1.1745843491184789,
                -1.0779999149885213,
                1.2979474430105173
            ]
        },
        {
            "positions": [
                1.6223277933844094,
                -1.4475803081682275,
                -0.7596381704748114,
                -1.1371876840225261,
                -1.0287052171867663,
                1.383540216599029
            ]
        },
        {
            "positions": [
                1.5243937253772661,
                -1.4660567325383924,
                -0.6541854110526064,
                -1.0997910189265732,
                -0.9794105193850116,
                1.469132990187541
            ]
        },
        {
            "positions": [
                1.4264596573701227,
                -1.4845331569085574,
                -0.5487326516304014,
                -1.0623943538306204,
                -0.9301158215832567,
                1.554725763776053
            ]
        },
        {
            "positions": [
                1.3285255893629795,
                -1.503009581278722,
                -0.4432798922081962,
                -1.0249976887346677,
                -0.8808211237815017,
                1.6403185373645646
            ]
        },
        {
            "positions": [
                1.2305915213558363,
                -1.521486005648887,
                -0.3378271327859912,
                -0.9876010236387149,
                -0.8315264259797468,
                1.7259113109530766
            ]
        },
        {
            "positions": [
                1.1326574533486933,
                -1.5399624300190518,
                -0.2323743733637862,
                -0.9502043585427622,
                -0.7822317281779919,
                1.8115040845415882
            ]
        },
        {
            "positions": [
                1.03472338534155,
                -1.5584388543892167,
                -0.1269216139415814,
                -0.9128076934468095,
                -0.7329370303762371,
                1.8970968581300998
            ]
        },
        {
            "positions": [
                0.9367893173344066,
                -1.5769152787593814,
                -0.02146885451937619,
                -0.8754110283508566,
                -0.6836423325744821,
                1.9826896317186118
            ]
        },
        {
            "positions": [
                0.8388552493272636,
                -1.5953917031295464,
                0.08398390490282859,
                -0.8380143632549039,
                -0.6343476347727273,
                2.0682824053071234
            ]
        },
        {
            "positions": [
                0.7409211813201202,
                -1.6138681274997113,
                0.1894366643250338,
                -0.800617698158951,
                -0.5850529369709723,
                2.1538751788956354
            ]
        },
        {
            "positions": [
                0.642987113312977,
                -1.632344551869876,
                0.29488942374723903,
                -0.7632210330629983,
                -0.5357582391692175,
                2.2394679524841474
            ]
        },
        {
            "positions": [
                0.545053045305834,
                -1.650820976240041,
                0.4003421831694438,
                -0.7258243679670455,
                -0.4864635413674625,
                2.325060726072659
            ]
        },
        {
            "positions": [
                0.44711897729869055,
                -1.6692974006102057,
                0.505794942591649,
                -0.6884277028710927,
                -0.4371688435657075,
                2.410653499661171
            ]
        },
        {
            "positions": [
                0.34918490929154755,
                -1.6877738249803707,
                0.6112477020138538,
                -0.6510310377751399,
                -0.38787414576395274,
                2.4962462732496826
            ]
        },
        {
            "positions": [
                0.2512508412844041,
                -1.7062502493505356,
                0.7167004614360586,
                -0.6136343726791873,
                -0.33857944796219797,
                2.5818390468381947
            ]
        },
        {
            "positions": [
                0.15331677327726068,
                -1.7247266737207003,
                0.8221532208582638,
                -0.5762377075832344,
                -0.28928475016044297,
                2.6674318204267067
            ]
        },
        {
            "positions": [
                0.05538270527011768,
                -1.7432030980908653,
                0.927605980280469,
                -0.5388410424872816,
                -0.23999005235868798,
                2.7530245940152183
            ]
        },
        {
            "positions": [
                -0.042551362737025755,
                -1.76167952246103,
                1.0330587397026743,
                -0.5014443773913289,
                -0.19069535455693298,
                2.8386173676037303
            ]
        },
        {
            "positions": [
                -0.14048543074416886,
                -1.780155946831195,
                1.138511499124879,
                -0.4640477122953761,
                -0.14140065675517827,
                2.924210141192242
            ]
        },
        {
            "positions": [
                -0.09730274320555699,
                -1.6541054555288557,
                1.255564781612828,
                -0.48669594270548866,
                -0.09611382861776756,
                2.9130203549903704
            ]
        },
        {
            "positions": [
                -0.0541200556669451,
                -1.5280549642265164,
                1.3726180641007768,
                -0.5093441731156012,
                -0.05082700048035685,
                2.9018305687884993
            ]
        },
        {
            "positions": [
                -0.010937368128333208,
                -1.402004472924177,
                1.4896713465887257,
                -0.5319924035257138,
                -0.005540172342946126,
                2.890640782586628
            ]
        },
        {
            "positions": [
                0.03224531941027867,
                -1.2759539816218377,
                1.6067246290766746,
                -0.5546406339358262,
                0.03974665579446457,
                2.8794509963847563
            ]
        },
        {
            "positions": [
                0.07542800694889057,
                -1.1499034903194982,
                1.7237779115646237,
                -0.5772888643459387,
                0.08503348393187532,
                2.8682612101828853
            ]
        },
        {
            "positions": [
                0.11861069448750244,
                -1.023852999017159,
                1.8408311940525726,
                -0.5999370947560513,
                0.13032031206928602,
                2.8570714239810138
            ]
        },
        {
            "positions": [
                0.12044098038257507,
                -1.0770027765600274,
                1.8968686414996085,
                -0.6491172338997853,
                0.12843877805760934,
                2.9361180308747747
            ]
        },
        {
            "positions": [
                0.1222712662776477,
                -1.1301525541028958,
                1.9529060889466445,
                -0.6982973730435191,
                0.12655724404593266,
                3.0151646377685357
            ]
        }
    ]
}