{
    "goal": {
        "global_pose": {
            "orientation": {
                "w": 0.5084816217422485,
                "x": -0.49083608388900757,
                "y": 0.5182115435600281,
                "z": -0.4816462993621826
            },
            "position": {
                "x": 0.5540239810943604,
                "y": 0.030875300988554955,
                "z": 0.16403168439865112
            }
        },
        "name": "move_to_storage_A"
    },
    "id": "PRMstar_move_to_storage_A_62",
    "joint_names": [
        "shoulder_pan_joint",
        "shoulder_lift_joint",
        "elbow_joint",
        "wrist_1_joint",
        "wrist_2_joint",
        "wrist_3_joint"
    ],
    "metrics": {
        "cart_traj_len": 0.3527887954202597,
        "distance_elbow_joint": 0.4492329706532885,
        "distance_shoulder_lift_joint": 0.23546972798238253,
        "distance_shoulder_pan_joint": 0.4620482208744265,
        "distance_wrist_1_joint": 0.23954856980245787,
        "distance_wrist_2_joint": 1.0954398688808495,
        "distance_wrist_3_joint": 0.09471129780817256,
        "smoothness": 0.0,
        "time": 5.0047038100000005,
        "traj_len": 1.605132597638456,
        "weighted_distance": 2.0250584412063843
    },
    "planner": "PRMstar",
    "start": {
        "state": {
            "elbow_joint": 1.971548259319323,
            "shoulder_lift_joint": -1.1394851275133948,
            "shoulder_pan_joint": 0.1228115487234821,
            "wrist_1_joint": -0.7804723859257726,
            "wrist_2_joint": 0.12958671773740124,
            "wrist_3_joint": -3.192489227718131
        }
    },
    "waypoints": [
        {
            "positions": [
                0.1228115487234821,
                -1.1394851275133948,
                1.971548259319323,
                -0.7804723859257726,
                0.12958671773740124,
                -3.192489227718131
            ]
        },
        {
            "positions": [
                0.05680466002713547,
                -1.1731236600823065,
                2.0357243979840787,
                -0.8146936101832666,
                0.2860781275775226,
                -3.1789590423169636
            ]
        },
        {
            "positions": [
                -0.009202228669211165,
                -1.2067621926512184,
                2.099900536648834,
                -0.8489148344407605,
                0.44256953741764393,
                -3.165428856915796
            ]
        },
        {
            "positions": [
                -0.0752091173655578,
                -1.2404007252201301,
                2.1640766753135896,
                -0.8831360586982545,
                0.5990609472577653,
                -3.1518986715146284
            ]
        },
        {
            "positions": [
                -0.14121600606190443,
                -1.274039257789042,
                2.228252813978345,
                -0.9173572829557486,
                0.7555523570978867,
                -3.1383684861134613
            ]
        },
        {
            "positions": [
                -0.20722289475825112,
                -1.3076777903579537,
                2.2924289526431005,
                -0.9515785072132426,
                0.9120437669380081,
                -3.1248383007122937
            ]
        },
        {
            "positions": [
                -0.2732297834545977,
                -1.3413163229268656,
                2.356605091307856,
                -0.9857997314707365,
                1.0685351767781293,
                -3.111308115311126
            ]
        },
        {
            "positions": [
                -0.3392366721509444,
                -1.3749548554957773,
                2.4207812299726115,
                -1.0200209557282305,
                1.2250265866182508,
                -3.0977779299099586
            ]
        }
    ]
}{
    "goal": {
        "global_pose": {
            "orientation": {
                "w": 0.5084816217422485,
                "x": -0.49083608388900757,
                "y": 0.5182115435600281,
                "z": -0.4816462993621826
            },
            "position": {
                "x": 0.5540239810943604,
                "y": 0.030875300988554955,
                "z": 0.16403168439865112
            }
        },
        "name": "move_to_storage_A"
    },
    "id": "PRMstar_move_to_storage_A_62",
    "joint_names": [
        "shoulder_pan_joint",
        "shoulder_lift_joint",
        "elbow_joint",
        "wrist_1_joint",
        "wrist_2_joint",
        "wrist_3_joint"
    ],
    "metrics": {
        "cart_traj_len": 0.35299107617540343,
        "distance_elbow_joint": 0.4483017859836713,
        "distance_shoulder_lift_joint": 0.23553345290590144,
        "distance_shoulder_pan_joint": 0.4588328334539676,
        "distance_wrist_1_joint": 0.23359128555391218,
        "distance_wrist_2_joint": 1.1109766759397854,
        "distance_wrist_3_joint": 0.09337223032215114,
        "smoothness": 4.440892098500626e-16,
        "time": 5.005003971000001,
        "traj_len": 1.606427173624559,
        "weighted_distance": 2.0277871402830696
    },
    "planner": "PRMstar",
    "start": {
        "state": {
            "elbow_joint": 1.97154746011099,
            "shoulder_lift_joint": -1.13948474672311,
            "shoulder_pan_joint": 0.12281154466712228,
            "wrist_1_joint": -0.7804688027058302,
            "wrist_2_joint": 0.12958655903071145,
            "wrist_3_joint": 3.0906928834467795
        }
    },
    "waypoints": [
        {
            "positions": [
                0.12281154466712228,
                -1.13948474672311,
                1.97154746011099,
                -0.7804688027058302,
                0.12958655903071145,
                3.0906928834467795
            ]
        },
        {
            "positions": [
                0.0572639970308412,
                -1.1731323828525244,
                2.0355905723943715,
                -0.8138389863563891,
                0.2882975127363951,
                3.104031773492801
            ]
        },
        {
            "positions": [
                -0.00828355060543988,
                -1.2067800189819389,
                2.099633684677753,
                -0.847209170006948,
                0.4470084664420787,
                3.1173706635388228
            ]
        },
        {
            "positions": [
                -0.07383109824172095,
                -1.2404276551113533,
                2.1636767969611346,
                -0.8805793536575068,
                0.6057194201477624,
                3.130709553584844
            ]
        },
        {
            "positions": [
                -0.13937864587800203,
                -1.2740752912407678,
                2.2277199092445166,
                -0.9139495373080657,
                0.764430373853446,
                3.144048443630866
            ]
        },
        {
            "positions": [
                -0.20492619351428315,
                -1.3077229273701825,
                2.291763021527898,
                -0.9473197209586246,
                0.9231413275591297,
                3.1573873336768874
            ]
        },
        {
            "positions": [
                -0.27047374115056416,
                -1.341370563499597,
                2.3558061338112797,
                -0.9806899046091835,
                1.0818522812648133,
                3.1707262237229092
            ]
        },
        {
            "positions": [
                -0.3360212887868453,
                -1.3750181996290114,
                2.4198492460946612,
                -1.0140600882597424,
                1.240563234970497,
                3.1840651137689306
            ]
        }
    ]
}{
    "goal": {
        "global_pose": {
            "orientation": {
                "w": 0.5084816217422485,
                "x": -0.49083608388900757,
                "y": 0.5182115435600281,
                "z": -0.4816462993621826
            },
            "position": {
                "x": 0.5540239810943604,
                "y": 0.030875300988554955,
                "z": 0.16403168439865112
            }
        },
        "name": "move_to_storage_A"
    },
    "id": "PRMstar_move_to_storage_A_62",
    "joint_names": [
        "shoulder_pan_joint",
        "shoulder_lift_joint",
        "elbow_joint",
        "wrist_1_joint",
        "wrist_2_joint",
        "wrist_3_joint"
    ],
    "metrics": {
        "cart_traj_len": 0.3534374554781014,
        "distance_elbow_joint": 0.44913199038681517,
        "distance_shoulder_lift_joint": 0.23362246582383794,
        "distance_shoulder_pan_joint": 0.4600239881379374,
        "distance_wrist_1_joint": 0.2403009004775174,
        "distance_wrist_2_joint": 1.108307172677681,
        "distance_wrist_3_joint": 0.0893006782382817,
        "smoothness": 6.661338165333112e-16,
        "time": 5.001790701,
        "traj_len": 1.6064517408693204,
        "weighted_distance": 2.026794667787991
    },
    "planner": "PRMstar",
    "start": {
        "state": {
            "elbow_joint": 1.9715472970024885,
            "shoulder_lift_joint": -1.1394870060712896,
            "shoulder_pan_joint": 0.12281152778156021,
            "wrist_1_joint": -0.780463741449964,
            "wrist_2_joint": 0.12958659822042276,
            "wrist_3_joint": 3.090690232415272
        }
    },
    "waypoints": [
        {
            "positions": [
                0.12281152778156021,
                -1.1394870060712896,
                1.9715472970024885,
                -0.780463741449964,
                0.12958659822042276,
                3.090690232415272
            ]
        },
        {
            "positions": [
                0.057093815190426306,
                -1.1728616440461237,
                2.035709009914891,
                -0.8147924415181808,
                0.2879161943172343,
                3.1034474721635976
            ]
        },
        {
            "positions": [
                -0.008623897400707597,
                -1.2062362820209576,
                2.099870722827293,
                -0.8491211415863975,
                0.4462457904140459,
                3.116204711911924
            ]
        },
        {
            "positions": [
                -0.0743416099918415,
                -1.2396109199957916,
                2.164032435739695,
                -0.8834498416546143,
                0.6045753865108574,
                3.1289619516602496
            ]
        },
        {
            "positions": [
                -0.1400593225829754,
                -1.2729855579706255,
                2.228194148652097,
                -0.917778541722831,
                0.7629049826076689,
                3.141719191408576
            ]
        },
        {
            "positions": [
                -0.2057770351741093,
                -1.3063601959454596,
                2.2923558615644994,
                -0.9521072417910479,
                0.9212345787044806,
                3.1544764311569016
            ]
        },
        {
            "positions": [
                -0.2714947477652432,
                -1.3397348339202935,
                2.3565175744769014,
                -0.9864359418592646,
                1.079564174801292,
                3.167233670905228
            ]
        },
        {
            "positions": [
                -0.33721246035637714,
                -1.3731094718951276,
                2.4206792873893037,
                -1.0207646419274814,
                1.2378937708981037,
                3.1799909106535535
            ]
        }
    ]
}