{
    "goal": {
        "global_pose": {
            "orientation": {
                "w": 0.5084816217422485,
                "x": -0.49083608388900757,
                "y": 0.5182115435600281,
                "z": -0.4816462993621826
            },
            "position": {
                "x": 0.5540239810943604,
                "y": 0.030875300988554955,
                "z": 0.16403168439865112
            }
        },
        "name": "move_to_storage_A"
    },
    "id": "PRMstar_move_to_storage_A_113",
    "joint_names": [
        "shoulder_pan_joint",
        "shoulder_lift_joint",
        "elbow_joint",
        "wrist_1_joint",
        "wrist_2_joint",
        "wrist_3_joint"
    ],
    "metrics": {
        "cart_traj_len": 0.3526359750437734,
        "distance_elbow_joint": 0.4499065159709559,
        "distance_shoulder_lift_joint": 0.23350758134112737,
        "distance_shoulder_pan_joint": 0.4605883525471139,
        "distance_wrist_1_joint": 0.24015873996031367,
        "distance_wrist_2_joint": 1.1002143667954134,
        "distance_wrist_3_joint": 0.09068041302558383,
        "smoothness": 6.661338200497456e-16,
        "time": 5.006462292,
        "traj_len": 1.604698092988369,
        "weighted_distance": 2.0240528408239253
    },
    "planner": "PRMstar",
    "start": {
        "state": {
            "elbow_joint": 1.971548259319323,
            "shoulder_lift_joint": -1.1394851275133948,
            "shoulder_pan_joint": 0.1228115487234821,
            "wrist_1_joint": -0.7804723859257726,
            "wrist_2_joint": 0.12958671773740124,
            "wrist_3_joint": -3.192489227718131
        }
    },
    "waypoints": [
        {
            "positions": [
                0.1228115487234821,
                -1.1394851275133948,
                1.971548259319323,
                -0.7804723859257726,
                0.12958671773740124,
                -3.192489227718131
            ]
        },
        {
            "positions": [
                0.05701321264532298,
                -1.1728433534192702,
                2.0358206187437453,
                -0.8147807773486746,
                0.2867601987081746,
                -3.1795348830001906
            ]
        },
        {
            "positions": [
                -0.008785123432836134,
                -1.2062015793251455,
                2.1000929781681674,
                -0.8490891687715765,
                0.4439336796789479,
                -3.16658053828225
            ]
        },
        {
            "positions": [
                -0.07458345951099526,
                -1.2395598052310208,
                2.16436533759259,
                -0.8833975601944785,
                0.6011071606497213,
                -3.1536261935643095
            ]
        },
        {
            "positions": [
                -0.14038179558915437,
                -1.2729180311368962,
                2.228637697017012,
                -0.9177059516173804,
                0.7582806416204946,
                -3.140671848846369
            ]
        },
        {
            "positions": [
                -0.20618013166731353,
                -1.3062762570427715,
                2.292910056441434,
                -0.9520143430402823,
                0.915454122591268,
                -3.1277175041284284
            ]
        },
        {
            "positions": [
                -0.27197846774547263,
                -1.3396344829486468,
                2.3571824158658568,
                -0.9863227344631843,
                1.0726276035620412,
                -3.114763159410488
            ]
        },
        {
            "positions": [
                -0.3377768038236318,
                -1.3729927088545222,
                2.421454775290279,
                -1.0206311258860863,
                1.2298010845328147,
                -3.1018088146925473
            ]
        }
    ]
}{
    "goal": {
        "global_pose": {
            "orientation": {
                "w": 0.5084816217422485,
                "x": -0.49083608388900757,
                "y": 0.5182115435600281,
                "z": -0.4816462993621826
            },
            "position": {
                "x": 0.5540239810943604,
                "y": 0.030875300988554955,
                "z": 0.16403168439865112
            }
        },
        "name": "move_to_storage_A"
    },
    "id": "PRMstar_move_to_storage_A_113",
    "joint_names": [
        "shoulder_pan_joint",
        "shoulder_lift_joint",
        "elbow_joint",
        "wrist_1_joint",
        "wrist_2_joint",
        "wrist_3_joint"
    ],
    "metrics": {
        "cart_traj_len": 0.3536127195493359,
        "distance_elbow_joint": 0.4517121683316976,
        "distance_shoulder_lift_joint": 0.2331154057418532,
        "distance_shoulder_pan_joint": 0.463843561795483,
        "distance_wrist_1_joint": 0.25305277457136466,
        "distance_wrist_2_joint": 1.0930181881821657,
        "distance_wrist_3_joint": 0.09362831376533487,
        "smoothness": 0.0,
        "time": 5.007047855000001,
        "traj_len": 1.6088413260442742,
        "weighted_distance": 2.030196542867734
    },
    "planner": "PRMstar",
    "start": {
        "state": {
            "elbow_joint": 1.97154746011099,
            "shoulder_lift_joint": -1.13948474672311,
            "shoulder_pan_joint": 0.12281154466712228,
            "wrist_1_joint": -0.7804688027058302,
            "wrist_2_joint": 0.12958655903071145,
            "wrist_3_joint": 3.0906928834467795
        }
    },
    "waypoints": [
        {
            "positions": [
                0.12281154466712228,
                -1.13948474672311,
                1.97154746011099,
                -0.7804688027058302,
                0.12958655903071145,
                3.0906928834467795
            ]
        },
        {
            "positions": [
                0.056548178696339005,
                -1.1727869475433748,
                2.036077769872661,
                -0.816619199073168,
                0.28573201448530655,
                3.1040683568418275
            ]
        },
        {
            "positions": [
                -0.009715187274444273,
                -1.2060891483636393,
                2.1006080796343323,
                -0.8527695954405058,
                0.4418774699399016,
                3.117443830236875
            ]
        },
        {
            "positions": [
                -0.07597855324522755,
                -1.2393913491839041,
                2.1651383893960032,
                -0.8889199918078436,
                0.5980229253944968,
                3.130819303631923
            ]
        },
        {
            "positions": [
                -0.14224191921601081,
                -1.272693550004169,
                2.229668699157674,
                -0.9250703881751814,
                0.7541683808490919,
                3.144194777026971
            ]
        },
        {
            "positions": [
                -0.20850528518679412,
                -1.3059957508244338,
                2.294199008919345,
                -0.9612207845425192,
                0.910313836303687,
                3.157570250422019
            ]
        },
        {
            "positions": [
                -0.27476865115757737,
                -1.3392979516446983,
                2.3587293186810165,
                -0.997371180909857,
                1.066459291758282,
                3.1709457238170664
            ]
        },
        {
            "positions": [
                -0.3410320171283607,
                -1.3726001524649631,
                2.4232596284426875,
                -1.0335215772771948,
                1.2226047472128772,
                3.1843211972121144
            ]
        }
    ]
}{
    "goal": {
        "global_pose": {
            "orientation": {
                "w": 0.5084816217422485,
                "x": -0.49083608388900757,
                "y": 0.5182115435600281,
                "z": -0.4816462993621826
            },
            "position": {
                "x": 0.5540239810943604,
                "y": 0.030875300988554955,
                "z": 0.16403168439865112
            }
        },
        "name": "move_to_storage_A"
    },
    "id": "PRMstar_move_to_storage_A_113",
    "joint_names": [
        "shoulder_pan_joint",
        "shoulder_lift_joint",
        "elbow_joint",
        "wrist_1_joint",
        "wrist_2_joint",
        "wrist_3_joint"
    ],
    "metrics": {
        "cart_traj_len": 0.3533866305353037,
        "distance_elbow_joint": 0.45134185571211916,
        "distance_shoulder_lift_joint": 0.23213644289018864,
        "distance_shoulder_pan_joint": 0.46322166840984363,
        "distance_wrist_1_joint": 0.25375491909164993,
        "distance_wrist_2_joint": 1.0933981232210546,
        "distance_wrist_3_joint": 0.09020958332778894,
        "smoothness": 0.0,
        "time": 5.011945186,
        "traj_len": 1.607501972830094,
        "weighted_distance": 2.0277166472712422
    },
    "planner": "PRMstar",
    "start": {
        "state": {
            "elbow_joint": 1.9715472970024885,
            "shoulder_lift_joint": -1.1394870060712896,
            "shoulder_pan_joint": 0.12281152778156021,
            "wrist_1_joint": -0.780463741449964,
            "wrist_2_joint": 0.12958659822042276,
            "wrist_3_joint": 3.090690232415272
        }
    },
    "waypoints": [
        {
            "positions": [
                0.12281152778156021,
                -1.1394870060712896,
                1.9715472970024885,
                -0.780463741449964,
                0.12958659822042276,
                3.090690232415272
            ]
        },
        {
            "positions": [
                0.05663700372301113,
                -1.1726493550556023,
                2.036024704961363,
                -0.8167144441773425,
                0.28578633010914484,
                3.1035773157478133
            ]
        },
        {
            "positions": [
                -0.009537520335537952,
                -1.205811704039915,
                2.100502112920237,
                -0.8529651469047211,
                0.44198606199786694,
                3.116464399080354
            ]
        },
        {
            "positions": [
                -0.07571204439408702,
                -1.2389740530242277,
                2.164979520879111,
                -0.8892158496320997,
                0.598185793886589,
                3.1293514824128956
            ]
        },
        {
            "positions": [
                -0.1418865684526361,
                -1.2721364020085402,
                2.229456928837985,
                -0.9254665523594783,
                0.754385525775311,
                3.142238565745437
            ]
        },
        {
            "positions": [
                -0.20806109251118524,
                -1.3052987509928529,
                2.2939343367968594,
                -0.9617172550868568,
                0.9105852576640332,
                3.1551256490779784
            ]
        },
        {
            "positions": [
                -0.2742356165697343,
                -1.3384610999771656,
                2.3584117447557333,
                -0.9979679578142353,
                1.0667849895527552,
                3.1680127324105194
            ]
        },
        {
            "positions": [
                -0.3404101406282834,
                -1.3716234489614783,
                2.4228891527146077,
                -1.034218660541614,
                1.2229847214414773,
                3.180899815743061
            ]
        }
    ]
}