{
    "goal": {
        "global_pose": {
            "orientation": {
                "w": 0.7031023480610252,
                "x": -0.7110244013736278,
                "y": 0.0077485991402295624,
                "z": 0.005598929693374583
            },
            "position": {
                "x": -0.8841497679147869,
                "y": 0.44412534475326537,
                "z": 0.3711530566215515
            }
        },
        "name": "move_to_auspresseinheit_D"
    },
    "id": "PRMstar_move_to_auspresseinheit_D_8",
    "joint_names": [
        "shoulder_pan_joint",
        "shoulder_lift_joint",
        "elbow_joint",
        "wrist_1_joint",
        "wrist_2_joint",
        "wrist_3_joint"
    ],
    "metrics": {
        "cart_traj_len": 0.34328175631850494,
        "distance_elbow_joint": 0.6315206709227441,
        "distance_shoulder_lift_joint": 0.11735096650973187,
        "distance_shoulder_pan_joint": 0.1344801986262896,
        "distance_wrist_1_joint": 0.5089901326522348,
        "distance_wrist_2_joint": 1.4346985036955564,
        "distance_wrist_3_joint": 0.027929710809125208,
        "smoothness": 1.9737298371844314e-16,
        "time": 5.003260595,
        "traj_len": 1.689665701615465,
        "weighted_distance": 2.2032971295723423
    },
    "planner": "PRMstar",
    "start": {
        "state": {
            "elbow_joint": -1.8275523626775212,
            "shoulder_lift_joint": -2.126789852344167,
            "shoulder_pan_joint": -0.03513704404078235,
            "wrist_1_joint": -2.347782403156801,
            "wrist_2_joint": -1.6058999987535132,
            "wrist_3_joint": -3.0880379163319196
        }
    },
    "waypoints": [
        {
            "positions": [
                -0.03513704404078235,
                -2.126789852344167,
                -1.8275523626775212,
                -2.347782403156801,
                -1.6058999987535132,
                -3.0880379163319196
            ]
        },
        {
            "positions": [
                -0.05194706886906855,
                -2.1414587231578834,
                -1.7486122788121783,
                -2.4114061697383304,
                -1.4265626857915685,
                -3.0915291301830603
            ]
        },
        {
            "positions": [
                -0.06875709369735475,
                -2.1561275939715996,
                -1.6696721949468352,
                -2.4750299363198596,
                -1.247225372829624,
                -3.095020344034201
            ]
        },
        {
            "positions": [
                -0.08556711852564095,
                -2.170796464785316,
                -1.590732111081492,
                -2.5386537029013887,
                -1.0678880598676797,
                -3.0985115578853417
            ]
        },
        {
            "positions": [
                -0.10237714335392714,
                -2.1854653355990328,
                -1.5117920272161491,
                -2.6022774694829183,
                -0.888550746905735,
                -3.1020027717364824
            ]
        },
        {
            "positions": [
                -0.11918716818221334,
                -2.2001342064127494,
                -1.4328519433508062,
                -2.665901236064448,
                -0.7092134339437904,
                -3.1054939855876227
            ]
        },
        {
            "positions": [
                -0.13599719301049956,
                -2.214803077226466,
                -1.353911859485463,
                -2.729525002645977,
                -0.5298761209818459,
                -3.1089851994387634
            ]
        },
        {
            "positions": [
                -0.15280721783878576,
                -2.229471948040182,
                -1.27497177562012,
                -2.793148769227506,
                -0.35053880801990145,
                -3.112476413289904
            ]
        },
        {
            "positions": [
                -0.16961724266707195,
                -2.2441408188538987,
                -1.196031691754777,
                -2.8567725358090357,
                -0.17120149505795684,
                -3.115967627141045
            ]
        }
    ]
}