{
    "goal": {
        "global_pose": {
            "orientation": {
                "w": 0.005598929693374612,
                "x": 0.007748599140229565,
                "y": 0.7110244013736278,
                "z": -0.7031023480610252
            },
            "position": {
                "x": -0.8858502320852131,
                "y": -0.7141253447532654,
                "z": 0.3711530566215515
            }
        },
        "name": "move_to_auspresseinheit_C"
    },
    "id": "PRMstar_move_to_auspresseinheit_C_69",
    "joint_names": [
        "shoulder_pan_joint",
        "shoulder_lift_joint",
        "elbow_joint",
        "wrist_1_joint",
        "wrist_2_joint",
        "wrist_3_joint"
    ],
    "metrics": {
        "cart_traj_len": 0.49305837369443584,
        "distance_elbow_joint": 0.9899235869245221,
        "distance_shoulder_lift_joint": 0.31903944006607354,
        "distance_shoulder_pan_joint": 0.25685007610657573,
        "distance_wrist_1_joint": 0.6611692360637837,
        "distance_wrist_2_joint": 1.3010652475060345,
        "distance_wrist_3_joint": 0.04311565449220023,
        "smoothness": 6.459479416000911e-16,
        "time": 5.004354844,
        "traj_len": 1.8897521639514505,
        "weighted_distance": 2.370575675593042
    },
    "planner": "PRMstar",
    "start": {
        "state": {
            "elbow_joint": 1.7527959577737207,
            "shoulder_lift_joint": -0.9740617694225068,
            "shoulder_pan_joint": -2.967991417825858,
            "wrist_1_joint": -0.759517768980727,
            "wrist_2_joint": 1.7443932448377408,
            "wrist_3_joint": -3.0840537646736568
        }
    },
    "waypoints": [
        {
            "positions": [
                -2.967991417825858,
                -0.9740617694225068,
                1.7527959577737207,
                -0.759517768980727,
                1.7443932448377408,
                -3.0840537646736568
            ]
        },
        {
            "positions": [
                -2.9423064102152003,
                -0.9421578254158994,
                1.6538035990812685,
                -0.6934008453743487,
                1.6142867200871374,
                -3.0883653301228766
            ]
        },
        {
            "positions": [
                -2.9166214026045427,
                -0.9102538814092921,
                1.5548112403888164,
                -0.6272839217679702,
                1.484180195336534,
                -3.092676895572097
            ]
        },
        {
            "positions": [
                -2.890936394993885,
                -0.8783499374026847,
                1.455818881696364,
                -0.5611669981615919,
                1.3540736705859304,
                -3.0969884610213168
            ]
        },
        {
            "positions": [
                -2.8652513873832275,
                -0.8464459933960773,
                1.3568265230039118,
                -0.4950500745552135,
                1.223967145835327,
                -3.101300026470537
            ]
        },
        {
            "positions": [
                -2.8395663797725703,
                -0.81454204938947,
                1.2578341643114597,
                -0.4289331509488351,
                1.0938606210847235,
                -3.105611591919757
            ]
        },
        {
            "positions": [
                -2.8138813721619127,
                -0.7826381053828626,
                1.1588418056190073,
                -0.3628162273424567,
                0.9637540963341201,
                -3.1099231573689767
            ]
        },
        {
            "positions": [
                -2.788196364551255,
                -0.7507341613762553,
                1.0598494469265551,
                -0.2966993037360784,
                0.8336475715835168,
                -3.114234722818197
            ]
        },
        {
            "positions": [
                -2.7625113569405975,
                -0.7188302173696479,
                0.960857088234103,
                -0.2305823801297,
                0.7035410468329133,
                -3.118546288267417
            ]
        },
        {
            "positions": [
                -2.73682634932994,
                -0.6869262733630406,
                0.8618647295416507,
                -0.16446545652332156,
                0.5734345220823098,
                -3.122857853716637
            ]
        },
        {
            "positions": [
                -2.7111413417192822,
                -0.6550223293564332,
                0.7628723708491986,
                -0.09834853291694318,
                0.44332799733170636,
                -3.127169419165857
            ]
        }
    ]
}