{
    "goal": {
        "global_pose": {
            "orientation": {
                "w": 0.5084816262002911,
                "x": -0.4908360881923452,
                "y": 0.5182115481033761,
                "z": -0.48164630358495003
            },
            "position": {
                "x": 0.5540239810943604,
                "y": -0.46912469901144505,
                "z": 0.16403168439865112
            }
        },
        "name": "move_to_storage_B"
    },
    "id": "PRMstar_move_to_storage_B_142",
    "joint_names": [
        "shoulder_pan_joint",
        "shoulder_lift_joint",
        "elbow_joint",
        "wrist_1_joint",
        "wrist_2_joint",
        "wrist_3_joint"
    ],
    "metrics": {
        "cart_traj_len": 0.9529305302309385,
        "distance_elbow_joint": 0.9833462096049028,
        "distance_shoulder_lift_joint": 0.5867736062935702,
        "distance_shoulder_pan_joint": 0.18095498670526122,
        "distance_wrist_1_joint": 2.982600853226749,
        "distance_wrist_2_joint": 2.705873488260897,
        "distance_wrist_3_joint": 3.129290650961277,
        "smoothness": 0.1016766048059803,
        "time": 5.038605458,
        "traj_len": 3.250975206772986,
        "weighted_distance": 4.745091720763979
    },
    "planner": "PRMstar",
    "start": {
        "state": {
            "elbow_joint": 1.664937868594044,
            "shoulder_lift_joint": -0.661644460510453,
            "shoulder_pan_joint": -0.9139846352900073,
            "wrist_1_joint": 2.146753192139373,
            "wrist_2_joint": -2.2341966793290973,
            "wrist_3_joint": 0.005466555786416001
        }
    },
    "waypoints": [
        {
            "positions": [
                -0.9139846352900073,
                -0.661644460510453,
                1.664937868594044,
                2.146753192139373,
                -2.2341966793290973,
                0.005466555786416001
            ]
        },
        {
            "positions": [
                -0.9239343266875526,
                -0.7281630761375936,
                1.724007347334351,
                2.144540865709888,
                -2.1826619388921733,
                0.12769400068554354
            ]
        },
        {
            "positions": [
                -0.933884018085098,
                -0.7946816917647341,
                1.7830768260746577,
                2.142328539280402,
                -2.13112719845525,
                0.24992144558467105
            ]
        },
        {
            "positions": [
                -0.9441217417522771,
                -0.8206072519416021,
                1.819568316766582,
                2.0514306475989197,
                -2.0403322295027237,
                0.3726495151905871
            ]
        },
        {
            "positions": [
                -0.9543594654194564,
                -0.8465328121184701,
                1.8560598074585062,
                1.9605327559174375,
                -1.9495372605501982,
                0.4953775847965031
            ]
        },
        {
            "positions": [
                -0.9645971890866355,
                -0.8724583722953382,
                1.8925512981504304,
                1.869634864235955,
                -1.8587422915976721,
                0.6181056544024192
            ]
        },
        {
            "positions": [
                -0.9748349127538147,
                -0.8983839324722062,
                1.9290427888423547,
                1.7787369725544726,
                -1.7679473226451465,
                0.7408337240083351
            ]
        },
        {
            "positions": [
                -0.9850726364209939,
                -0.9243094926490741,
                1.965534279534279,
                1.6878390808729904,
                -1.6771523536926205,
                0.8635617936142512
            ]
        },
        {
            "positions": [
                -0.995310360088173,
                -0.9502350528259422,
                2.0020257702262034,
                1.596941189191508,
                -1.5863573847400947,
                0.9862898632201673
            ]
        },
        {
            "positions": [
                -1.005548083755352,
                -0.9761606130028102,
                2.0385172609181277,
                1.5060432975100255,
                -1.4955624157875689,
                1.1090179328260832
            ]
        },
        {
            "positions": [
                -1.0157858074225314,
                -1.0020861731796782,
                2.075008751610052,
                1.415145405828543,
                -1.404767446835043,
                1.2317460024319993
            ]
        },
        {
            "positions": [
                -1.0260235310897106,
                -1.0280117333565462,
                2.111500242301976,
                1.3242475141470609,
                -1.3139724778825173,
                1.3544740720379151
            ]
        },
        {
            "positions": [
                -1.0362612547568897,
                -1.0539372935334141,
                2.1479917329939004,
                1.2333496224655787,
                -1.2231775089299914,
                1.4772021416438312
            ]
        },
        {
            "positions": [
                -1.0464989784240688,
                -1.0798628537102823,
                2.1844832236858247,
                1.1424517307840962,
                -1.1323825399774656,
                1.5999302112497473
            ]
        },
        {
            "positions": [
                -1.056736702091248,
                -1.1057884138871503,
                2.220974714377749,
                1.0515538391026138,
                -1.0415875710249396,
                1.7226582808556634
            ]
        },
        {
            "positions": [
                -1.0669744257584273,
                -1.1317139740640183,
                2.257466205069673,
                0.9606559474211314,
                -0.9507926020724138,
                1.8453863504615795
            ]
        },
        {
            "positions": [
                -1.0772121494256064,
                -1.1576395342408863,
                2.2939576957615975,
                0.8697580557396491,
                -0.859997633119888,
                1.9681144200674954
            ]
        },
        {
            "positions": [
                -1.0874498730927855,
                -1.1835650944177543,
                2.3304491864535217,
                0.7788601640581667,
                -0.7692026641673622,
                2.0908424896734115
            ]
        },
        {
            "positions": [
                -1.0881307593566476,
                -1.1776693696553662,
                2.3015551053857557,
                0.6320685435903901,
                -0.6563954393401655,
                2.1857438275892553
            ]
        },
        {
            "positions": [
                -1.0888116456205097,
                -1.171773644892978,
                2.27266102431799,
                0.4852769231226136,
                -0.5435882145129689,
                2.280645165505099
            ]
        },
        {
            "positions": [
                -1.0894925318843718,
                -1.16587792013059,
                2.243766943250224,
                0.3384853026548371,
                -0.4307809896857724,
                2.3755465034209426
            ]
        },
        {
            "positions": [
                -1.0901734181482339,
                -1.159982195368202,
                2.214872862182458,
                0.1916936821870605,
                -0.31797376485857576,
                2.4704478413367865
            ]
        },
        {
            "positions": [
                -1.090854304412096,
                -1.1540864706058138,
                2.185978781114692,
                0.044902061719284014,
                -0.20516654003137924,
                2.5653491792526304
            ]
        },
        {
            "positions": [
                -1.091535190675958,
                -1.1481907458434257,
                2.1570847000469264,
                -0.10188955874849248,
                -0.09235931520418261,
                2.6602505171684743
            ]
        },
        {
            "positions": [
                -1.0922160769398201,
                -1.1422950210810376,
                2.1281906189791604,
                -0.2486811792162691,
                0.020447909623014016,
                2.755151855084318
            ]
        },
        {
            "positions": [
                -1.0928969632036822,
                -1.1363992963186496,
                2.0992965379113944,
                -0.3954727996840457,
                0.13325513445021064,
                2.8500531930001616
            ]
        },
        {
            "positions": [
                -1.0935778494675443,
                -1.1305035715562615,
                2.0704024568436283,
                -0.5422644201518223,
                0.24606235927740738,
                2.9449545309160055
            ]
        },
        {
            "positions": [
                -1.0942587357314064,
                -1.1246078467938734,
                2.0415083757758627,
                -0.6890560406195987,
                0.3588695841046037,
                3.0398558688318493
            ]
        },
        {
            "positions": [
                -1.0949396219952685,
                -1.1187121220314853,
                2.0126142947080967,
                -0.8358476610873753,
                0.47167680893180053,
                3.134757206747693
            ]
        }
    ]
}