{
    "goal": {
        "global_pose": {
            "orientation": {
                "w": 0.7047431493862688,
                "x": -0.7094548369677653,
                "y": 0.0024358444001904,
                "z": -0.0022348060817251984
            },
            "position": {
                "x": -0.39052492380142206,
                "y": 0.3671506643295288,
                "z": 0.19426114857196808
            }
        },
        "name": "move_to_magneteinheit_D"
    },
    "id": "PRMstar_move_to_magneteinheit_D_22",
    "joint_names": [
        "shoulder_pan_joint",
        "shoulder_lift_joint",
        "elbow_joint",
        "wrist_1_joint",
        "wrist_2_joint",
        "wrist_3_joint"
    ],
    "metrics": {
        "cart_traj_len": 4.26858556482925,
        "distance_elbow_joint": 3.7279194745685817,
        "distance_shoulder_lift_joint": 1.671546130850779,
        "distance_shoulder_pan_joint": 2.961711248787365,
        "distance_wrist_1_joint": 2.3289493926857316,
        "distance_wrist_2_joint": 0.26340353171433273,
        "distance_wrist_3_joint": 3.240532940459057,
        "smoothness": 0.2801762990486331,
        "time": 5.047931692,
        "traj_len": 3.767500858535516,
        "weighted_distance": 4.823637789509493
    },
    "planner": "PRMstar",
    "start": {
        "state": {
            "elbow_joint": 0.749534889911806,
            "shoulder_lift_joint": -0.6476975780787326,
            "shoulder_pan_joint": -2.711696901376241,
            "wrist_1_joint": -0.07506478083263063,
            "wrist_2_joint": 0.43296659715538205,
            "wrist_3_joint": -3.14703540197715
        }
    },
    "waypoints": [
        {
            "positions": [
                -2.711696901376241,
                -0.6476975780787326,
                0.749534889911806,
                -0.07506478083263063,
                0.43296659715538205,
                -3.14703540197715
            ]
        },
        {
            "positions": [
                -2.7272659406522806,
                -0.725885907303704,
                0.8223277388413395,
                0.05059370331764185,
                0.39979844995131075,
                -3.095767984615422
            ]
        },
        {
            "positions": [
                -2.74283497992832,
                -0.8040742365286753,
                0.8951205877708729,
                0.17625218746791432,
                0.3666303027472394,
                -3.044500567253694
            ]
        },
        {
            "positions": [
                -2.75840401920436,
                -0.8822625657536467,
                0.9679134367004063,
                0.3019106716181868,
                0.33346215554316805,
                -2.9932331498919664
            ]
        },
        {
            "positions": [
                -2.7739730584803994,
                -0.960450894978618,
                1.0407062856299398,
                0.4275691557684593,
                0.30029400833909675,
                -2.9419657325302384
            ]
        },
        {
            "positions": [
                -2.65938658546874,
                -1.0179405387291223,
                0.9402043016583177,
                0.4891822410774444,
                0.29815250190568443,
                -2.8884628662857814
            ]
        },
        {
            "positions": [
                -2.5448001124570814,
                -1.0754301824796264,
                0.8397023176866956,
                0.5507953263864296,
                0.2960109954722721,
                -2.8349600000413244
            ]
        },
        {
            "positions": [
                -2.430213639445422,
                -1.1329198262301308,
                0.7392003337150734,
                0.6124084116954147,
                0.2938694890388598,
                -2.7814571337968674
            ]
        },
        {
            "positions": [
                -2.315627166433763,
                -1.190409469980635,
                0.6386983497434512,
                0.6740214970043998,
                0.29172798260544747,
                -2.7279542675524104
            ]
        },
        {
            "positions": [
                -2.2010406934221036,
                -1.2478991137311393,
                0.538196365771829,
                0.735634582313385,
                0.28958647617203515,
                -2.6744514013079534
            ]
        },
        {
            "positions": [
                -2.086454220410445,
                -1.3053887574816434,
                0.4376943818002069,
                0.7972476676223701,
                0.2874449697386228,
                -2.6209485350634965
            ]
        },
        {
            "positions": [
                -1.9718677473987856,
                -1.3628784012321478,
                0.3371923978285847,
                0.8588607529313553,
                0.2853034633052105,
                -2.5674456688190395
            ]
        },
        {
            "positions": [
                -1.8572812743871265,
                -1.420368044982652,
                0.23669041385696254,
                0.9204738382403405,
                0.2831619568717982,
                -2.5139428025745825
            ]
        },
        {
            "positions": [
                -1.7426948013754673,
                -1.4778576887331563,
                0.1361884298853403,
                0.9820869235493257,
                0.28102045043838586,
                -2.4604399363301255
            ]
        },
        {
            "positions": [
                -1.6281083283638083,
                -1.5353473324836604,
                0.03568644591371828,
                1.0437000088583108,
                0.27887894400497354,
                -2.406937070085669
            ]
        },
        {
            "positions": [
                -1.5135218553521492,
                -1.5928369762341648,
                -0.06481553805790408,
                1.105313094167296,
                0.2767374375715612,
                -2.3534342038412115
            ]
        },
        {
            "positions": [
                -1.39893538234049,
                -1.650326619984669,
                -0.165317522029526,
                1.166926179476281,
                0.27459593113814895,
                -2.299931337596755
            ]
        },
        {
            "positions": [
                -1.284348909328831,
                -1.707816263735173,
                -0.2658195060011481,
                1.2285392647852662,
                0.27245442470473663,
                -2.246428471352298
            ]
        },
        {
            "positions": [
                -1.1697624363171717,
                -1.7653059074856774,
                -0.3663214899727705,
                1.2901523500942513,
                0.2703129182713243,
                -2.192925605107841
            ]
        },
        {
            "positions": [
                -1.0551759633055127,
                -1.8227955512361818,
                -0.4668234739443926,
                1.3517654354032365,
                0.268171411837912,
                -2.139422738863384
            ]
        },
        {
            "positions": [
                -0.9405894902938536,
                -1.880285194986686,
                -0.5673254579160147,
                1.4133785207122216,
                0.26602990540449967,
                -2.085919872618927
            ]
        },
        {
            "positions": [
                -0.8260030172821946,
                -1.93777483873719,
                -0.6678274418876369,
                1.4749916060212067,
                0.26388839897108735,
                -2.03241700637447
            ]
        },
        {
            "positions": [
                -0.7114165442705351,
                -1.9952644824876944,
                -0.7683294258592592,
                1.536604691330192,
                0.261746892537675,
                -1.978914140130013
            ]
        },
        {
            "positions": [
                -0.5968300712588763,
                -2.0527541262381988,
                -0.8688314098308814,
                1.5982177766391772,
                0.2596053861042627,
                -1.925411273885556
            ]
        },
        {
            "positions": [
                -0.4822435982472171,
                -2.1102437699887027,
                -0.9693333938025033,
                1.6598308619481623,
                0.2574638796708504,
                -1.871908407641099
            ]
        },
        {
            "positions": [
                -0.36765712523555827,
                -2.167733413739207,
                -1.0698353777741256,
                1.7214439472571472,
                0.25532237323743806,
                -1.818405541396642
            ]
        },
        {
            "positions": [
                -0.253070652223899,
                -2.2252230574897114,
                -1.170337361745748,
                1.7830570325661326,
                0.25318086680402574,
                -1.764902675152185
            ]
        },
        {
            "positions": [
                -0.13848417921223974,
                -2.2827127012402157,
                -1.27083934571737,
                1.8446701178751177,
                0.2510393603706134,
                -1.711399808907728
            ]
        },
        {
            "positions": [
                -0.11892155394827139,
                -2.2809931320499626,
                -1.4002380936459948,
                1.8177570111636674,
                0.2452470547808979,
                -1.5754606073461817
            ]
        },
        {
            "positions": [
                -0.09935892868430304,
                -2.279273562859709,
                -1.5296368415746198,
                1.7908439044522173,
                0.23945474919118237,
                -1.4395214057846353
            ]
        },
        {
            "positions": [
                -0.0797963034203347,
                -2.2775539936694558,
                -1.6590355895032447,
                1.763930797740767,
                0.23366244360146682,
                -1.3035822042230891
            ]
        },
        {
            "positions": [
                -0.06023367815636635,
                -2.275834424479202,
                -1.7884343374318696,
                1.737017691029317,
                0.2278701380117513,
                -1.1676430026615425
            ]
        },
        {
            "positions": [
                -0.040671052892398,
                -2.274114855288949,
                -1.9178330853604946,
                1.7101045843178666,
                0.22207783242203577,
                -1.0317038010999964
            ]
        },
        {
            "positions": [
                -0.03703058581461722,
                -2.2694729442791863,
                -2.055057021257906,
                1.6693772497000106,
                0.2130892701058184,
                -0.8520441866644308
            ]
        },
        {
            "positions": [
                -0.03339011873683644,
                -2.264831033269424,
                -2.1922809571553166,
                1.6286499150821543,
                0.20410070778960104,
                -0.6723845722288654
            ]
        },
        {
            "positions": [
                -0.02974965165905566,
                -2.2601891222596615,
                -2.329504893052728,
                1.5879225804642982,
                0.19511214547338368,
                -0.49272495779329983
            ]
        },
        {
            "positions": [
                -0.07281159788669293,
                -2.262644752672651,
                -2.3555591538061904,
                1.5437899978501304,
                0.18735943057541155,
                -0.3244153234860971
            ]
        },
        {
            "positions": [
                -0.12888646720380617,
                -2.268420651820527,
                -2.3758004735133493,
                1.4896228108736325,
                0.17846124800823043,
                -0.11545889250209504
            ]
        },
        {
            "positions": [
                -0.1849613365209194,
                -2.2741965509684032,
                -2.3960417932205083,
                1.4354556238971343,
                0.16956306544104932,
                0.09349753848190702
            ]
        }
    ]
}