{
    "goal": {
        "global_pose": {
            "orientation": {
                "w": -0.4816463035849501,
                "x": 0.5182115481033762,
                "y": 0.4908360881923453,
                "z": -0.5084816262002911
            },
            "position": {
                "x": -0.8240239810943604,
                "y": -0.300875300988555,
                "z": 0.16403168439865112
            }
        },
        "name": "move_to_storage_C"
    },
    "id": "PRMstar_move_to_storage_C_30",
    "joint_names": [
        "shoulder_pan_joint",
        "shoulder_lift_joint",
        "elbow_joint",
        "wrist_1_joint",
        "wrist_2_joint",
        "wrist_3_joint"
    ],
    "metrics": {
        "cart_traj_len": 0.5766207991372422,
        "distance_elbow_joint": 0.2564546916813608,
        "distance_shoulder_lift_joint": 0.188486731208647,
        "distance_shoulder_pan_joint": 0.4934110175175479,
        "distance_wrist_1_joint": 0.07062070527189923,
        "distance_wrist_2_joint": 1.078557246617351,
        "distance_wrist_3_joint": 0.05575204902533404,
        "smoothness": 5.075305295617109e-16,
        "time": 5.011809061999999,
        "traj_len": 1.4639953692966858,
        "weighted_distance": 1.8449836018951653
    },
    "planner": "PRMstar",
    "start": {
        "state": {
            "elbow_joint": 2.010868314990456,
            "shoulder_lift_joint": -1.1634956873337592,
            "shoulder_pan_joint": -2.4736205022346125,
            "wrist_1_joint": -0.8367026794202681,
            "wrist_2_joint": 0.6746043897044499,
            "wrist_3_joint": -3.1496632123970403
        }
    },
    "waypoints": [
        {
            "positions": [
                -2.4736205022346125,
                -1.1634956873337592,
                2.010868314990456,
                -0.8367026794202681,
                0.6746043897044499,
                -3.1496632123970403
            ]
        },
        {
            "positions": [
                -2.5558556718208703,
                -1.132081232132318,
                1.9681258663768957,
                -0.8249325618749516,
                0.8543639308073417,
                -3.140371204226151
            ]
        },
        {
            "positions": [
                -2.6380908414071285,
                -1.1006667769308769,
                1.9253834177633355,
                -0.813162444329635,
                1.0341234719102337,
                -3.1310791960552624
            ]
        },
        {
            "positions": [
                -2.7203260109933867,
                -1.0692523217294356,
                1.8826409691497754,
                -0.8013923267843185,
                1.2138830130131253,
                -3.1217871878843733
            ]
        },
        {
            "positions": [
                -2.8025611805796444,
                -1.0378378665279946,
                1.8398985205362153,
                -0.789622209239002,
                1.3936425541160173,
                -3.112495179713484
            ]
        },
        {
            "positions": [
                -2.884796350165902,
                -1.0064234113265533,
                1.7971560719226551,
                -0.7778520916936854,
                1.573402095218909,
                -3.1032031715425954
            ]
        },
        {
            "positions": [
                -2.9670315197521604,
                -0.9750089561251122,
                1.754413623309095,
                -0.7660819741483689,
                1.7531616363218008,
                -3.0939111633717062
            ]
        }
    ]
}