{
    "goal": {
        "global_pose": {
            "orientation": {
                "w": 0.005598929693374612,
                "x": 0.007748599140229565,
                "y": 0.7110244013736278,
                "z": -0.7031023480610252
            },
            "position": {
                "x": -0.8858502320852131,
                "y": -0.7141253447532654,
                "z": 0.3711530566215515
            }
        },
        "name": "move_to_auspresseinheit_C"
    },
    "id": "PRMstar_move_to_auspresseinheit_C_93",
    "joint_names": [
        "shoulder_pan_joint",
        "shoulder_lift_joint",
        "elbow_joint",
        "wrist_1_joint",
        "wrist_2_joint",
        "wrist_3_joint"
    ],
    "metrics": {
        "cart_traj_len": 0.4932801341303609,
        "distance_elbow_joint": 0.9910370204986526,
        "distance_shoulder_lift_joint": 0.3205227594318135,
        "distance_shoulder_pan_joint": 0.2574545112495987,
        "distance_wrist_1_joint": 0.661773781434433,
        "distance_wrist_2_joint": 1.3005072196670522,
        "distance_wrist_3_joint": 0.042657680243309404,
        "smoothness": 8.074349268950106e-16,
        "time": 5.007602019,
        "traj_len": 1.8904901408166241,
        "weighted_distance": 2.3709806692828526
    },
    "planner": "PRMstar",
    "start": {
        "state": {
            "elbow_joint": 1.7527959577737207,
            "shoulder_lift_joint": -0.9740617694225068,
            "shoulder_pan_joint": -2.967991417825858,
            "wrist_1_joint": -0.759517768980727,
            "wrist_2_joint": 1.7443932448377408,
            "wrist_3_joint": -3.0840537646736568
        }
    },
    "waypoints": [
        {
            "positions": [
                -2.967991417825858,
                -0.9740617694225068,
                1.7527959577737207,
                -0.759517768980727,
                1.7443932448377408,
                -3.0840537646736568
            ]
        },
        {
            "positions": [
                -2.942245966700898,
                -0.9420094934793254,
                1.6536922557238554,
                -0.6933403908372837,
                1.6143425228710355,
                -3.0883195326979878
            ]
        },
        {
            "positions": [
                -2.916500515575938,
                -0.9099572175361441,
                1.55458855367399,
                -0.6271630126938403,
                1.4842918009043304,
                -3.0925853007223187
            ]
        },
        {
            "positions": [
                -2.8907550644509783,
                -0.8779049415929627,
                1.4554848516241248,
                -0.5609856345503971,
                1.3542410789376251,
                -3.0968510687466497
            ]
        },
        {
            "positions": [
                -2.8650096133260186,
                -0.8458526656497813,
                1.3563811495742595,
                -0.49480825640695375,
                1.22419035697092,
                -3.1011168367709807
            ]
        },
        {
            "positions": [
                -2.839264162201059,
                -0.8138003897066,
                1.2572774475243944,
                -0.4286308782635105,
                1.0941396350042147,
                -3.1053826047953113
            ]
        },
        {
            "positions": [
                -2.8135187110760986,
                -0.7817481137634187,
                1.1581737454745291,
                -0.3624535001200672,
                0.9640889130375095,
                -3.1096483728196422
            ]
        },
        {
            "positions": [
                -2.787773259951139,
                -0.7496958378202373,
                1.0590700434246638,
                -0.2962761219766239,
                0.8340381910708043,
                -3.1139141408439732
            ]
        },
        {
            "positions": [
                -2.762027808826179,
                -0.717643561877056,
                0.9599663413747985,
                -0.23009874383318052,
                0.703987469104099,
                -3.118179908868304
            ]
        },
        {
            "positions": [
                -2.736282357701219,
                -0.6855912859338746,
                0.8608626393249333,
                -0.16392136568973725,
                0.5739367471373937,
                -3.122445676892635
            ]
        },
        {
            "positions": [
                -2.7105369065762592,
                -0.6535390099906933,
                0.761758937275068,
                -0.097743987546294,
                0.44388602517068865,
                -3.126711444916966
            ]
        }
    ]
}