{
    "goal": {
        "global_pose": {
            "orientation": {
                "w": 0.005598929693374612,
                "x": 0.007748599140229565,
                "y": 0.7110244013736278,
                "z": -0.7031023480610252
            },
            "position": {
                "x": -0.8858502320852131,
                "y": -0.7141253447532654,
                "z": 0.3711530566215515
            }
        },
        "name": "move_to_auspresseinheit_C"
    },
    "id": "PRMstar_move_to_auspresseinheit_C_95",
    "joint_names": [
        "shoulder_pan_joint",
        "shoulder_lift_joint",
        "elbow_joint",
        "wrist_1_joint",
        "wrist_2_joint",
        "wrist_3_joint"
    ],
    "metrics": {
        "cart_traj_len": 0.49313911381609,
        "distance_elbow_joint": 0.9923805448457651,
        "distance_shoulder_lift_joint": 0.32111008106206507,
        "distance_shoulder_pan_joint": 0.2566246940565384,
        "distance_wrist_1_joint": 0.6595184717198421,
        "distance_wrist_2_joint": 1.3055641250245755,
        "distance_wrist_3_joint": 0.03610689105821985,
        "smoothness": 0.0,
        "time": 5.013994852,
        "traj_len": 1.8897896199754634,
        "weighted_distance": 2.368248548321705
    },
    "planner": "PRMstar",
    "start": {
        "state": {
            "elbow_joint": 1.7527959577737207,
            "shoulder_lift_joint": -0.9740617694225068,
            "shoulder_pan_joint": -2.967991417825858,
            "wrist_1_joint": -0.759517768980727,
            "wrist_2_joint": 1.7443932448377408,
            "wrist_3_joint": -3.0840537646736568
        }
    },
    "waypoints": [
        {
            "positions": [
                -2.967991417825858,
                -0.9740617694225068,
                1.7527959577737207,
                -0.759517768980727,
                1.7443932448377408,
                -3.0840537646736568
            ]
        },
        {
            "positions": [
                -2.942328948420204,
                -0.9419507613163003,
                1.653557903289144,
                -0.6935659218087428,
                1.6138368323352832,
                -3.0876644537794786
            ]
        },
        {
            "positions": [
                -2.9166664790145505,
                -0.9098397532100938,
                1.5543198488045675,
                -0.6276140746367586,
                1.4832804198328258,
                -3.091275142885301
            ]
        },
        {
            "positions": [
                -2.8910040096088965,
                -0.8777287451038872,
                1.4550817943199912,
                -0.5616622274647743,
                1.3527240073303681,
                -3.0948858319911228
            ]
        },
        {
            "positions": [
                -2.8653415402032425,
                -0.8456177369976807,
                1.3558437398354146,
                -0.49571038029279013,
                1.2221675948279107,
                -3.0984965210969446
            ]
        },
        {
            "positions": [
                -2.8396790707975885,
                -0.8135067288914742,
                1.256605685350838,
                -0.4297585331208059,
                1.091611182325453,
                -3.1021072102027665
            ]
        },
        {
            "positions": [
                -2.814016601391935,
                -0.7813957207852678,
                1.1573676308662617,
                -0.3638066859488217,
                0.9610547698229955,
                -3.1057178993085888
            ]
        },
        {
            "positions": [
                -2.788354131986281,
                -0.7492847126790613,
                1.0581295763816851,
                -0.29785483877683755,
                0.830498357320538,
                -3.1093285884144106
            ]
        },
        {
            "positions": [
                -2.762691662580627,
                -0.7171737045728548,
                0.9588915218971086,
                -0.23190299160485328,
                0.6999419448180804,
                -3.1129392775202325
            ]
        },
        {
            "positions": [
                -2.7370291931749735,
                -0.6850626964666482,
                0.859653467412532,
                -0.16595114443286907,
                0.5693855323156227,
                -3.1165499666260548
            ]
        },
        {
            "positions": [
                -2.7113667237693195,
                -0.6529516883604417,
                0.7604154129279556,
                -0.09999929726088488,
                0.43882911981316536,
                -3.1201606557318766
            ]
        }
    ]
}