{
    "goal": {
        "global_pose": {
            "orientation": {
                "w": -0.00223480608172531,
                "x": 0.0024358444001904467,
                "y": 0.7094548369677653,
                "z": -0.704743149386269
            },
            "position": {
                "x": 0.6205249238014221,
                "y": -0.6371506643295288,
                "z": 0.19426114857196808
            }
        },
        "name": "move_to_magneteinheit_B"
    },
    "id": "PRMstar_move_to_magneteinheit_B_36",
    "joint_names": [
        "shoulder_pan_joint",
        "shoulder_lift_joint",
        "elbow_joint",
        "wrist_1_joint",
        "wrist_2_joint",
        "wrist_3_joint"
    ],
    "metrics": {
        "cart_traj_len": 1.4886882984081597,
        "distance_elbow_joint": 0.9577031272283729,
        "distance_shoulder_lift_joint": 0.7561433707087137,
        "distance_shoulder_pan_joint": 1.6207240354559773,
        "distance_wrist_1_joint": 0.18450632152122015,
        "distance_wrist_2_joint": 1.594127142334098,
        "distance_wrist_3_joint": 0.30158561020014046,
        "smoothness": 0.18750106526711924,
        "time": 5.045925392,
        "traj_len": 2.3269700486788656,
        "weighted_distance": 2.79223822259207
    },
    "planner": "PRMstar",
    "start": {
        "state": {
            "elbow_joint": 2.6216224122426386,
            "shoulder_lift_joint": -1.4174107377796124,
            "shoulder_pan_joint": 0.7066234856936794,
            "wrist_1_joint": 1.9546482284002225,
            "wrist_2_joint": -0.7096286983471962,
            "wrist_3_joint": 0.005740856962016249
        }
    },
    "waypoints": [
        {
            "positions": [
                0.7066234856936794,
                -1.4174107377796124,
                2.6216224122426386,
                1.9546482284002225,
                -0.7096286983471962,
                0.005740856962016249
            ]
        },
        {
            "positions": [
                0.5641696412951076,
                -1.4170175033571728,
                2.59346546970742,
                1.9907055934694695,
                -0.6904475639136058,
                0.0817194429348385
            ]
        },
        {
            "positions": [
                0.42171579689653593,
                -1.4166242689347333,
                2.565308527172202,
                2.0267629585387166,
                -0.6712664294800155,
                0.15769802890766077
            ]
        },
        {
            "positions": [
                0.31896069330739485,
                -1.3585198918682844,
                2.495970893160053,
                2.0354084655681572,
                -0.7909406505159322,
                0.1461881490419303
            ]
        },
        {
            "positions": [
                0.21620558971825377,
                -1.3004155148018357,
                2.426633259147904,
                2.0440539725975975,
                -0.910614871551849,
                0.13467826917619985
            ]
        },
        {
            "positions": [
                0.11345048612911268,
                -1.2423111377353868,
                2.357295625135755,
                2.052699479627038,
                -1.0302890925877657,
                0.12316838931046939
            ]
        },
        {
            "positions": [
                0.010695382539971598,
                -1.184206760668938,
                2.287957991123606,
                2.0613449866564784,
                -1.1499633136236822,
                0.11165850944473893
            ]
        },
        {
            "positions": [
                -0.09205972104916949,
                -1.1261023836024893,
                2.2186203571114573,
                2.069990493685919,
                -1.2696375346595992,
                0.10014862957900847
            ]
        },
        {
            "positions": [
                -0.19481482463831057,
                -1.0679980065360404,
                2.1492827230993083,
                2.0786360007153593,
                -1.3893117556955157,
                0.08863874971327802
            ]
        },
        {
            "positions": [
                -0.29756992822745154,
                -1.0098936294695915,
                2.0799450890871594,
                2.0872815077448,
                -1.5089859767314322,
                0.07712886984754756
            ]
        },
        {
            "positions": [
                -0.40032503181659274,
                -0.9517892524031426,
                2.0106074550750104,
                2.09592701477424,
                -1.6286601977673492,
                0.0656189899818171
            ]
        },
        {
            "positions": [
                -0.5030801354057337,
                -0.8936848753366939,
                1.9412698210628614,
                2.104572521803681,
                -1.7483344188032657,
                0.054109110116086656
            ]
        },
        {
            "positions": [
                -0.6058352389948749,
                -0.835580498270245,
                1.8719321870507124,
                2.113218028833121,
                -1.8680086398391826,
                0.04259923025035618
            ]
        },
        {
            "positions": [
                -0.7085903425840159,
                -0.7774761212037963,
                1.8025945530385634,
                2.1218635358625617,
                -1.9876828608750992,
                0.031089350384625736
            ]
        },
        {
            "positions": [
                -0.8113454461731571,
                -0.7193717441373474,
                1.7332569190264144,
                2.130509042892002,
                -2.107357081911016,
                0.019579470518895276
            ]
        },
        {
            "positions": [
                -0.9141005497622979,
                -0.6612673670708986,
                1.6639192850142657,
                2.1391545499214426,
                -2.2270313029469326,
                0.008069590653164817
            ]
        }
    ]
}