{
    "goal": {
        "global_pose": {
            "orientation": {
                "w": 0.7047431468963623,
                "x": -0.7094548344612122,
                "y": 0.0024358443915843964,
                "z": -0.0022348060738295317
            },
            "position": {
                "x": 0.6094750761985779,
                "y": 0.3671506643295288,
                "z": 0.19426114857196808
            }
        },
        "name": "move_to_magneteinheit_A"
    },
    "id": "PRMstar_move_to_magneteinheit_A_9",
    "joint_names": [
        "shoulder_pan_joint",
        "shoulder_lift_joint",
        "elbow_joint",
        "wrist_1_joint",
        "wrist_2_joint",
        "wrist_3_joint"
    ],
    "metrics": {
        "cart_traj_len": 3.5463955506683913,
        "distance_elbow_joint": 3.8791036798112613,
        "distance_shoulder_lift_joint": 0.3905782402443756,
        "distance_shoulder_pan_joint": 2.5764747831080563,
        "distance_wrist_1_joint": 1.2042063964824654,
        "distance_wrist_2_joint": 1.7052072510416718,
        "distance_wrist_3_joint": 2.584316878946103,
        "smoothness": 0.11125187800035695,
        "time": 5.03075727,
        "traj_len": 3.512817562816767,
        "weighted_distance": 4.518620877552162
    },
    "planner": "PRMstar",
    "start": {
        "state": {
            "elbow_joint": -1.9196185241190666,
            "shoulder_lift_joint": -1.2443396400964142,
            "shoulder_pan_joint": 2.6996025414629847,
            "wrist_1_joint": -1.5485510000780065,
            "wrist_2_joint": -1.5709468930060704,
            "wrist_3_joint": 0.4420197071253992
        }
    },
    "waypoints": [
        {
            "positions": [
                2.6996025414629847,
                -1.2443396400964142,
                -1.9196185241190666,
                -1.5485510000780065,
                -1.5709468930060704,
                0.4420197071253992
            ]
        },
        {
            "positions": [
                2.597315936221219,
                -1.244855497480683,
                -1.7924446895550579,
                -1.5566748586823105,
                -1.511865502121616,
                0.5282205690361346
            ]
        },
        {
            "positions": [
                2.4950293309794525,
                -1.2453713548649517,
                -1.665270854991049,
                -1.5647987172866145,
                -1.452784111237162,
                0.61442143094687
            ]
        },
        {
            "positions": [
                2.3927427257376865,
                -1.2458872122492204,
                -1.53809702042704,
                -1.5729225758909184,
                -1.3937027203527077,
                0.7006222928576054
            ]
        },
        {
            "positions": [
                2.29045612049592,
                -1.2464030696334891,
                -1.4109231858630313,
                -1.5810464344952224,
                -1.3346213294682534,
                0.7868231547683409
            ]
        },
        {
            "positions": [
                2.1881695152541543,
                -1.2469189270177579,
                -1.2837493512990226,
                -1.5891702930995264,
                -1.2755399385837993,
                0.8730240166790761
            ]
        },
        {
            "positions": [
                2.085882910012388,
                -1.2474347844020266,
                -1.1565755167350138,
                -1.5972941517038304,
                -1.216458547699345,
                0.9592248785898116
            ]
        },
        {
            "positions": [
                1.983596304770622,
                -1.2479506417862953,
                -1.0294016821710048,
                -1.6054180103081344,
                -1.1573771568148907,
                1.045425740500547
            ]
        },
        {
            "positions": [
                1.8813096995288558,
                -1.248466499170564,
                -0.902227847606996,
                -1.6135418689124383,
                -1.0982957659304367,
                1.1316266024112824
            ]
        },
        {
            "positions": [
                1.7790230942870897,
                -1.2489823565548328,
                -0.7750540130429873,
                -1.6216657275167423,
                -1.0392143750459824,
                1.217827464322018
            ]
        },
        {
            "positions": [
                1.6767364890453236,
                -1.2494982139391015,
                -0.6478801784789785,
                -1.6297895861210463,
                -0.9801329841615282,
                1.3040283262327532
            ]
        },
        {
            "positions": [
                1.5744498838035574,
                -1.2500140713233703,
                -0.5207063439149695,
                -1.6379134447253505,
                -0.9210515932770739,
                1.3902291881434887
            ]
        },
        {
            "positions": [
                1.4721632785617915,
                -1.2505299287076388,
                -0.39353250935096096,
                -1.6460373033296545,
                -0.8619702023926198,
                1.476430050054224
            ]
        },
        {
            "positions": [
                1.3698766733200254,
                -1.2510457860919075,
                -0.2663586747869522,
                -1.6541611619339585,
                -0.8028888115081656,
                1.5626309119649595
            ]
        },
        {
            "positions": [
                1.267590068078259,
                -1.2515616434761763,
                -0.13918484022294297,
                -1.6622850205382624,
                -0.7438074206237112,
                1.648831773875695
            ]
        },
        {
            "positions": [
                1.165303462836493,
                -1.252077500860445,
                -0.012011005658934426,
                -1.6704088791425664,
                -0.684726029739257,
                1.7350326357864305
            ]
        },
        {
            "positions": [
                1.063016857594727,
                -1.2525933582447137,
                0.11516282890507457,
                -1.6785327377468704,
                -0.6256446388548028,
                1.8212334976971656
            ]
        },
        {
            "positions": [
                0.9607302523529611,
                -1.2531092156289825,
                0.2423366634690831,
                -1.6866565963511744,
                -0.5665632479703486,
                1.907434359607901
            ]
        },
        {
            "positions": [
                0.8584436471111947,
                -1.2536250730132512,
                0.3695104980330921,
                -1.6947804549554784,
                -0.5074818570858943,
                1.9936352215186366
            ]
        },
        {
            "positions": [
                0.7561570418694286,
                -1.25414093039752,
                0.4966843325971011,
                -1.7029043135597823,
                -0.44840046620144025,
                2.079836083429372
            ]
        },
        {
            "positions": [
                0.6538704366276624,
                -1.2546567877817887,
                0.6238581671611096,
                -1.7110281721640863,
                -0.38931907531698595,
                2.166036945340107
            ]
        },
        {
            "positions": [
                0.5515838313858965,
                -1.2551726451660574,
                0.7510320017251182,
                -1.7191520307683903,
                -0.3302376844325319,
                2.2522378072508427
            ]
        },
        {
            "positions": [
                0.44929722614413015,
                -1.2556885025503262,
                0.8782058362891276,
                -1.7272758893726943,
                -0.27115629354807735,
                2.338438669161578
            ]
        },
        {
            "positions": [
                0.3470106209023641,
                -1.256204359934595,
                1.0053796708531362,
                -1.7353997479769983,
                -0.21207490266362322,
                2.4246395310723137
            ]
        },
        {
            "positions": [
                0.3142552238520959,
                -1.2142792578888564,
                1.1135738525356742,
                -1.6378022067702316,
                -0.15934949320399733,
                2.4787516020199973
            ]
        },
        {
            "positions": [
                0.2814998268018277,
                -1.1723541558431179,
                1.221768034218212,
                -1.5402046655634647,
                -0.10662408374437143,
                2.5328636729676806
            ]
        },
        {
            "positions": [
                0.24874442975155947,
                -1.1304290537973793,
                1.32996221590075,
                -1.442607124356698,
                -0.05389867428474554,
                2.586975743915364
            ]
        },
        {
            "positions": [
                0.21598903270129127,
                -1.0885039517516406,
                1.4381563975832878,
                -1.3450095831499314,
                -0.0011732648251196465,
                2.6410878148630474
            ]
        },
        {
            "positions": [
                0.18323363565102305,
                -1.046578849705902,
                1.5463505792658259,
                -1.2474120419431645,
                0.05155214463450625,
                2.695199885810731
            ]
        },
        {
            "positions": [
                0.15047823860075485,
                -1.0046537476601636,
                1.654544760948364,
                -1.1498145007363978,
                0.10427755409413215,
                2.7493119567584143
            ]
        },
        {
            "positions": [
                0.14364061853929821,
                -1.0364444746931045,
                1.7307798596343213,
                -1.0418714004006795,
                0.11177325507949959,
                2.8185681140866863
            ]
        },
        {
            "positions": [
                0.13680299847784155,
                -1.0682352017260452,
                1.8070149583202788,
                -0.9339283000649612,
                0.11926895606486701,
                2.8878242714149582
            ]
        },
        {
            "positions": [
                0.12996537841638492,
                -1.1000259287589862,
                1.8832500570062363,
                -0.8259851997292428,
                0.12676465705023446,
                2.95708042874323
            ]
        },
        {
            "positions": [
                0.12312775835492827,
                -1.1318166557919271,
                1.9594851556921937,
                -0.7180420993935245,
                0.13426035803560188,
                3.026336586071502
            ]
        }
    ]
}