{
    "goal": {
        "global_pose": {
            "orientation": {
                "w": 0.7047431493862688,
                "x": -0.7094548369677653,
                "y": 0.0024358444001904,
                "z": -0.0022348060817251984
            },
            "position": {
                "x": -0.39052492380142206,
                "y": 0.3671506643295288,
                "z": 0.19426114857196808
            }
        },
        "name": "move_to_magneteinheit_D"
    },
    "id": "PRMstar_move_to_magneteinheit_D_34",
    "joint_names": [
        "shoulder_pan_joint",
        "shoulder_lift_joint",
        "elbow_joint",
        "wrist_1_joint",
        "wrist_2_joint",
        "wrist_3_joint"
    ],
    "metrics": {
        "cart_traj_len": 4.097396374777223,
        "distance_elbow_joint": 3.1351368718025343,
        "distance_shoulder_lift_joint": 1.7113508915196518,
        "distance_shoulder_pan_joint": 3.6419672543543395,
        "distance_wrist_1_joint": 2.109533692004166,
        "distance_wrist_2_joint": 2.1304883215770722,
        "distance_wrist_3_joint": 3.7495037994720066,
        "smoothness": 0.536752443161141,
        "time": 5.081947823999999,
        "traj_len": 4.059307925093854,
        "weighted_distance": 5.3119686033762505
    },
    "planner": "PRMstar",
    "start": {
        "state": {
            "elbow_joint": 0.749534889911806,
            "shoulder_lift_joint": -0.6476975780787326,
            "shoulder_pan_joint": -2.711696901376241,
            "wrist_1_joint": -0.07506478083263063,
            "wrist_2_joint": 0.43296659715538205,
            "wrist_3_joint": -3.14703540197715
        }
    },
    "waypoints": [
        {
            "positions": [
                -2.711696901376241,
                -0.6476975780787326,
                0.749534889911806,
                -0.07506478083263063,
                0.43296659715538205,
                -3.14703540197715
            ]
        },
        {
            "positions": [
                -2.7992823642675893,
                -0.6394522304001118,
                0.6276071232451668,
                -0.1179079417228684,
                0.41821567946516475,
                -3.20350488008708
            ]
        },
        {
            "positions": [
                -2.886867827158938,
                -0.631206882721491,
                0.5056793565785276,
                -0.16075110261310618,
                0.4034647617749474,
                -3.2599743581970095
            ]
        },
        {
            "positions": [
                -2.974453290050286,
                -0.6229615350428702,
                0.38375158991188846,
                -0.20359426350334395,
                0.3887138440847301,
                -3.3164438363069397
            ]
        },
        {
            "positions": [
                -3.0620387529416346,
                -0.6147161873642494,
                0.2618238232452493,
                -0.24643742439358174,
                0.37396292639451273,
                -3.3729133144168695
            ]
        },
        {
            "positions": [
                -3.149624215832983,
                -0.6064708396856285,
                0.13989605657861018,
                -0.2892805852838195,
                0.3592120087042954,
                -3.4293827925267992
            ]
        },
        {
            "positions": [
                -3.048142533994791,
                -0.6474757988645736,
                0.05426781529433225,
                -0.21300962669118934,
                0.31248018888437634,
                -3.3914485419783786
            ]
        },
        {
            "positions": [
                -2.9466608521565987,
                -0.6884807580435186,
                -0.03136042598994568,
                -0.13673866809855917,
                0.2657483690644573,
                -3.3535142914299576
            ]
        },
        {
            "positions": [
                -2.845179170318407,
                -0.7294857172224637,
                -0.1169886672742236,
                -0.060467709505929,
                0.21901654924453823,
                -3.315580040881537
            ]
        },
        {
            "positions": [
                -2.743697488480215,
                -0.7704906764014088,
                -0.20261690855850154,
                0.015803249086701165,
                0.17228472942461917,
                -3.2776457903331164
            ]
        },
        {
            "positions": [
                -2.6422158066420227,
                -0.8114956355803538,
                -0.2882451498427795,
                0.09207420767933133,
                0.12555290960470009,
                -3.2397115397846954
            ]
        },
        {
            "positions": [
                -2.540734124803831,
                -0.8525005947592988,
                -0.3738733911270574,
                0.1683451662719615,
                0.07882108978478103,
                -3.201777289236275
            ]
        },
        {
            "positions": [
                -2.439252442965639,
                -0.8935055539382439,
                -0.45950163241133535,
                0.24461612486459172,
                0.032089269964861944,
                -3.163843038687854
            ]
        },
        {
            "positions": [
                -2.337770761127447,
                -0.9345105131171889,
                -0.5451298736956133,
                0.32088708345722183,
                -0.014642549855057085,
                -3.125908788139433
            ]
        },
        {
            "positions": [
                -2.236289079289255,
                -0.9755154722961339,
                -0.6307581149798912,
                0.39715804204985206,
                -0.06137436967497617,
                -3.0879745375910126
            ]
        },
        {
            "positions": [
                -2.1348073974510626,
                -1.016520431475079,
                -0.7163863562641691,
                0.47342900064248217,
                -0.10810618949489526,
                -3.050040287042592
            ]
        },
        {
            "positions": [
                -2.033325715612871,
                -1.057525390654024,
                -0.8020145975484471,
                0.5496999592351123,
                -0.15483800931481423,
                -3.012106036494171
            ]
        },
        {
            "positions": [
                -1.931844033774679,
                -1.098530349832969,
                -0.887642838832725,
                0.6259709178277425,
                -0.20156982913473337,
                -2.9741717859457504
            ]
        },
        {
            "positions": [
                -1.830362351936487,
                -1.1395353090119142,
                -0.9732710801170029,
                0.7022418764203726,
                -0.2483016489546524,
                -2.93623753539733
            ]
        },
        {
            "positions": [
                -1.7288806700982948,
                -1.1805402681908592,
                -1.0588993214012807,
                0.778512835013003,
                -0.29503346877457154,
                -2.8983032848489088
            ]
        },
        {
            "positions": [
                -1.627398988260103,
                -1.2215452273698042,
                -1.1445275626855587,
                0.854783793605633,
                -0.34176528859449057,
                -2.860369034300488
            ]
        },
        {
            "positions": [
                -1.5259173064219111,
                -1.2625501865487494,
                -1.2301558039698366,
                0.9310547521982632,
                -0.3884971084144096,
                -2.8224347837520676
            ]
        },
        {
            "positions": [
                -1.4244356245837189,
                -1.3035551457276944,
                -1.3157840452541145,
                1.0073257107908935,
                -0.43522892823432874,
                -2.7845005332036465
            ]
        },
        {
            "positions": [
                -1.322953942745527,
                -1.3445601049066394,
                -1.4014122865383924,
                1.0835966693835237,
                -0.48196074805424777,
                -2.746566282655226
            ]
        },
        {
            "positions": [
                -1.2214722609073352,
                -1.3855650640855846,
                -1.4870405278226704,
                1.1598676279761535,
                -0.5286925678741667,
                -2.7086320321068054
            ]
        },
        {
            "positions": [
                -1.119990579069143,
                -1.4265700232645295,
                -1.5726687691069483,
                1.2361385865687837,
                -0.5754243876940859,
                -2.6706977815583843
            ]
        },
        {
            "positions": [
                -1.018508897230951,
                -1.4675749824434745,
                -1.6582970103912262,
                1.312409545161414,
                -0.622156207514005,
                -2.6327635310099637
            ]
        },
        {
            "positions": [
                -0.9170272153927592,
                -1.5085799416224195,
                -1.7439252516755042,
                1.3886805037540442,
                -0.6688880273339239,
                -2.594829280461543
            ]
        },
        {
            "positions": [
                -0.8155455335545669,
                -1.5495849008013647,
                -1.829553492959782,
                1.4649514623466744,
                -0.7156198471538433,
                -2.556895029913122
            ]
        },
        {
            "positions": [
                -0.7140638517163753,
                -1.5905898599803097,
                -1.9151817342440602,
                1.5412224209393046,
                -0.7623516669737621,
                -2.5189607793647015
            ]
        },
        {
            "positions": [
                -0.639372016849924,
                -1.6356896434067558,
                -1.9552180925470775,
                1.5343718054487578,
                -0.7057228661752061,
                -2.3644109807578557
            ]
        },
        {
            "positions": [
                -0.5646801819834726,
                -1.6807894268332018,
                -1.995254450850095,
                1.527521189958211,
                -0.6490940653766499,
                -2.20986118215101
            ]
        },
        {
            "positions": [
                -0.4899883471170212,
                -1.725889210259648,
                -2.035290809153112,
                1.5206705744676643,
                -0.5924652645780939,
                -2.0553113835441637
            ]
        },
        {
            "positions": [
                -0.41529651225056985,
                -1.7709889936860939,
                -2.0753271674561296,
                1.5138199589771173,
                -0.5358364637795379,
                -1.9007615849373178
            ]
        },
        {
            "positions": [
                -0.3406046773841185,
                -1.81608877711254,
                -2.1153635257591468,
                1.5069693434865705,
                -0.4792076629809818,
                -1.7462117863304718
            ]
        },
        {
            "positions": [
                -0.2659128425176671,
                -1.861188560538986,
                -2.155399884062164,
                1.5001187279960237,
                -0.42257886218242574,
                -1.591661987723626
            ]
        },
        {
            "positions": [
                -0.19122100765121575,
                -1.9062883439654321,
                -2.195436242365181,
                1.493268112505477,
                -0.36595006138386965,
                -1.43711218911678
            ]
        },
        {
            "positions": [
                -0.14922430516387908,
                -1.9474676202901364,
                -2.225786188152674,
                1.488759221917197,
                -0.3107333978822361,
                -1.286801307206999
            ]
        },
        {
            "positions": [
                -0.10722760267654241,
                -1.988646896614841,
                -2.256136133940167,
                1.484250331328917,
                -0.2555167343806026,
                -1.1364904252972183
            ]
        },
        {
            "positions": [
                -0.06523090018920576,
                -2.0298261729395453,
                -2.28648607972766,
                1.479741440740637,
                -0.200300070878969,
                -0.9861795433874375
            ]
        },
        {
            "positions": [
                -0.08916022503997002,
                -2.0791799369140715,
                -2.306309260160274,
                1.4790746605143996,
                -0.12567637860834194,
                -0.7813889114308382
            ]
        },
        {
            "positions": [
                -0.11308954989073429,
                -2.128533700888598,
                -2.326132440592888,
                1.4784078802881624,
                -0.05105268633771487,
                -0.576598279474239
            ]
        },
        {
            "positions": [
                -0.13701887474149854,
                -2.1778874648631237,
                -2.3459556210255017,
                1.477741100061925,
                0.02357100593291217,
                -0.37180764751763973
            ]
        },
        {
            "positions": [
                -0.1609481995922628,
                -2.22724122883765,
                -2.3657788014581156,
                1.4770743198356877,
                0.09819469820353927,
                -0.16701701556104043
            ]
        },
        {
            "positions": [
                -0.18487752444302707,
                -2.2765949928121763,
                -2.3856019818907295,
                1.4764075396094503,
                0.17281839047416628,
                0.037773616395558755
            ]
        }
    ]
}