{
    "goal": {
        "global_pose": {
            "orientation": {
                "w": -0.00223480608172531,
                "x": 0.0024358444001904467,
                "y": 0.7094548369677653,
                "z": -0.704743149386269
            },
            "position": {
                "x": -0.37947507619857795,
                "y": -0.6371506643295288,
                "z": 0.19426114857196808
            }
        },
        "name": "move_to_magneteinheit_C"
    },
    "id": "PRMstar_move_to_magneteinheit_C_131",
    "joint_names": [
        "shoulder_pan_joint",
        "shoulder_lift_joint",
        "elbow_joint",
        "wrist_1_joint",
        "wrist_2_joint",
        "wrist_3_joint"
    ],
    "metrics": {
        "cart_traj_len": 4.4491862437724015,
        "distance_elbow_joint": 1.229534629336138,
        "distance_shoulder_lift_joint": 1.9195389906124,
        "distance_shoulder_pan_joint": 6.897711400437121,
        "distance_wrist_1_joint": 3.333240210668142,
        "distance_wrist_2_joint": 0.80886327398125,
        "distance_wrist_3_joint": 0.7454935531775329,
        "smoothness": 0.8424648517804817,
        "time": 5.03381753,
        "traj_len": 3.8645028216075334,
        "weighted_distance": 4.535137555710636
    },
    "planner": "PRMstar",
    "start": {
        "state": {
            "elbow_joint": 1.9565354010623817,
            "shoulder_lift_joint": -1.4165861575791021,
            "shoulder_pan_joint": -1.6717766225146293,
            "wrist_1_joint": -0.5286633292919765,
            "wrist_2_joint": 1.472756589071564,
            "wrist_3_joint": -3.1238370188695823
        }
    },
    "waypoints": [
        {
            "positions": [
                -1.6717766225146293,
                -1.4165861575791021,
                1.9565354010623817,
                -0.5286633292919765,
                1.472756589071564,
                -3.1238370188695823
            ]
        },
        {
            "positions": [
                -1.5024775771928591,
                -1.4628914738232748,
                1.9922774099121365,
                -0.6302887332553567,
                1.4508385110612574,
                -3.103500074767573
            ]
        },
        {
            "positions": [
                -1.3331785318710891,
                -1.5091967900674472,
                2.0280194187618914,
                -0.731914137218737,
                1.4289204330509508,
                -3.0831631306655636
            ]
        },
        {
            "positions": [
                -1.163879486549319,
                -1.55550210631162,
                2.0637614276116465,
                -0.8335395411821171,
                1.407002355040644,
                -3.062826186563554
            ]
        },
        {
            "positions": [
                -0.9945804412275489,
                -1.6018074225557923,
                2.0995034364614016,
                -0.9351649451454974,
                1.3850842770303375,
                -3.042489242461545
            ]
        },
        {
            "positions": [
                -0.8252813959057786,
                -1.648112738799965,
                2.1352454453111562,
                -1.0367903491088777,
                1.363166199020031,
                -3.0221522983595355
            ]
        },
        {
            "positions": [
                -0.6559823505840086,
                -1.6944180550441374,
                2.1709874541609113,
                -1.1384157530722578,
                1.3412481210097245,
                -3.001815354257526
            ]
        },
        {
            "positions": [
                -0.48668330526223835,
                -1.7407233712883101,
                2.2067294630106664,
                -1.2400411570356382,
                1.3193300429994177,
                -2.9814784101555167
            ]
        },
        {
            "positions": [
                -0.31738425994046837,
                -1.7870286875324828,
                2.242471471860421,
                -1.3416665609990184,
                1.2974119649891112,
                -2.9611414660535074
            ]
        },
        {
            "positions": [
                -0.14808521461869817,
                -1.8333340037766552,
                2.278213480710176,
                -1.4432919649623988,
                1.2754938869788046,
                -2.940804521951498
            ]
        },
        {
            "positions": [
                0.021213830703072034,
                -1.879639320020828,
                2.3139554895599312,
                -1.544917368925779,
                1.253575808968498,
                -2.9204675778494886
            ]
        },
        {
            "positions": [
                0.19051287602484224,
                -1.9259446362650006,
                2.349697498409686,
                -1.6465427728891593,
                1.2316577309581915,
                -2.9001306337474793
            ]
        },
        {
            "positions": [
                0.3598119213466122,
                -1.972249952509173,
                2.385439507259441,
                -1.7481681768525392,
                1.209739652947885,
                -2.87979368964547
            ]
        },
        {
            "positions": [
                0.5291109666683822,
                -2.018555268753346,
                2.421181516109196,
                -1.8497935808159196,
                1.1878215749375782,
                -2.8594567455434605
            ]
        },
        {
            "positions": [
                0.6984100119901526,
                -2.0648605849975183,
                2.4569235249589507,
                -1.9514189847793,
                1.1659034969272717,
                -2.839119801441451
            ]
        },
        {
            "positions": [
                0.8677090573119226,
                -2.111165901241691,
                2.492665533808706,
                -2.05304438874268,
                1.143985418916965,
                -2.818782857339442
            ]
        },
        {
            "positions": [
                1.0370081026336926,
                -2.1574712174858632,
                2.528407542658461,
                -2.15466979270606,
                1.1220673409066584,
                -2.7984459132374324
            ]
        },
        {
            "positions": [
                1.2063071479554626,
                -2.203776533730036,
                2.5641495515082156,
                -2.2562951966694405,
                1.1001492628963518,
                -2.778108969135423
            ]
        },
        {
            "positions": [
                1.3756061932772332,
                -2.2500818499742086,
                2.5998915603579706,
                -2.357920600632821,
                1.0782311848860453,
                -2.7577720250334137
            ]
        },
        {
            "positions": [
                1.1830897640449702,
                -2.1957796850633438,
                2.570582636855943,
                -2.282721453666456,
                1.0575142913962587,
                -2.7767434530004818
            ]
        },
        {
            "positions": [
                0.9905733348127075,
                -2.1414775201524794,
                2.541273713353916,
                -2.207522306700091,
                1.0367973979064722,
                -2.7957148809675503
            ]
        },
        {
            "positions": [
                0.7980569055804446,
                -2.0871753552416146,
                2.511964789851888,
                -2.132323159733726,
                1.0160805044166856,
                -2.8146863089346184
            ]
        },
        {
            "positions": [
                0.6055404763481818,
                -2.0328731903307498,
                2.482655866349861,
                -2.0571240127673613,
                0.9953636109268991,
                -2.8336577369016864
            ]
        },
        {
            "positions": [
                0.4130240471159189,
                -1.9785710254198852,
                2.4533469428478334,
                -1.9819248658009962,
                0.9746467174371125,
                -2.8526291648687545
            ]
        },
        {
            "positions": [
                0.22050761788365603,
                -1.9242688605090206,
                2.4240380193458058,
                -1.9067257188346314,
                0.953929823947326,
                -2.871600592835823
            ]
        },
        {
            "positions": [
                0.027991188651393273,
                -1.8699666955981558,
                2.3947290958437786,
                -1.8315265718682665,
                0.9332129304575394,
                -2.890572020802891
            ]
        },
        {
            "positions": [
                -0.1645252405808697,
                -1.8156645306872912,
                2.365420172341751,
                -1.7563274249019014,
                0.9124960369677527,
                -2.909543448769959
            ]
        },
        {
            "positions": [
                -0.3570416698131327,
                -1.7613623657764264,
                2.3361112488397238,
                -1.6811282779355365,
                0.8917791434779662,
                -2.9285148767370277
            ]
        },
        {
            "positions": [
                -0.5495580990453954,
                -1.7070602008655618,
                2.306802325337696,
                -1.6059291309691717,
                0.8710622499881796,
                -2.947486304704096
            ]
        },
        {
            "positions": [
                -0.7420745282776586,
                -1.652758035954697,
                2.2774934018356685,
                -1.5307299840028068,
                0.850345356498393,
                -2.966457732671164
            ]
        },
        {
            "positions": [
                -0.9345909575099212,
                -1.5984558710438326,
                2.2481844783336413,
                -1.455530837036442,
                0.8296284630086065,
                -2.9854291606382324
            ]
        },
        {
            "positions": [
                -1.1271073867421841,
                -1.5441537061329678,
                2.2188755548316137,
                -1.3803316900700768,
                0.8089115695188198,
                -3.0044005886053005
            ]
        },
        {
            "positions": [
                -1.3196238159744467,
                -1.489851541222103,
                2.1895666313295865,
                -1.3051325431037122,
                0.7881946760290334,
                -3.0233720165723685
            ]
        },
        {
            "positions": [
                -1.5121402452067096,
                -1.4355493763112384,
                2.160257707827559,
                -1.229933396137347,
                0.7674777825392467,
                -3.042343444539437
            ]
        },
        {
            "positions": [
                -1.7046566744389726,
                -1.3812472114003738,
                2.1309487843255313,
                -1.154734249170982,
                0.7467608890494601,
                -3.061314872506505
            ]
        },
        {
            "positions": [
                -1.8971731036712356,
                -1.326945046489509,
                2.101639860823504,
                -1.0795351022046173,
                0.7260439955596736,
                -3.080286300473573
            ]
        },
        {
            "positions": [
                -2.0896895329034986,
                -1.2726428815786441,
                2.0723309373214764,
                -1.0043359552382523,
                0.705327102069887,
                -3.0992577284406413
            ]
        },
        {
            "positions": [
                -2.282205962135761,
                -1.2183407166677798,
                2.0430220138194493,
                -0.9291368082718876,
                0.6846102085801005,
                -3.11822915640771
            ]
        },
        {
            "positions": [
                -2.474722391368024,
                -1.164038551756915,
                2.0137130903174216,
                -0.8539376613055224,
                0.6638933150903139,
                -3.137200584374778
            ]
        }
    ]
}