{
    "goal": {
        "global_pose": {
            "orientation": {
                "w": 0.7047431493862688,
                "x": -0.7094548369677653,
                "y": 0.0024358444001904,
                "z": -0.0022348060817251984
            },
            "position": {
                "x": -0.39052492380142206,
                "y": 0.3671506643295288,
                "z": 0.19426114857196808
            }
        },
        "name": "move_to_magneteinheit_D"
    },
    "id": "PRMstar_move_to_magneteinheit_D_31",
    "joint_names": [
        "shoulder_pan_joint",
        "shoulder_lift_joint",
        "elbow_joint",
        "wrist_1_joint",
        "wrist_2_joint",
        "wrist_3_joint"
    ],
    "metrics": {
        "cart_traj_len": 6.624771697142147,
        "distance_elbow_joint": 3.09336977621071,
        "distance_shoulder_lift_joint": 3.99518476098247,
        "distance_shoulder_pan_joint": 4.313744734687338,
        "distance_wrist_1_joint": 2.850116558647661,
        "distance_wrist_2_joint": 1.3297372494609263,
        "distance_wrist_3_joint": 5.460376632286609,
        "smoothness": 0.8057682436299457,
        "time": 5.057567558000001,
        "traj_len": 4.587213719925824,
        "weighted_distance": 6.0119162323636495
    },
    "planner": "PRMstar",
    "start": {
        "state": {
            "elbow_joint": 0.749534889911806,
            "shoulder_lift_joint": -0.6476975780787326,
            "shoulder_pan_joint": -2.711696901376241,
            "wrist_1_joint": -0.07506478083263063,
            "wrist_2_joint": 0.43296659715538205,
            "wrist_3_joint": -3.14703540197715
        }
    },
    "waypoints": [
        {
            "positions": [
                -2.711696901376241,
                -0.6476975780787326,
                0.749534889911806,
                -0.07506478083263063,
                0.43296659715538205,
                -3.14703540197715
            ]
        },
        {
            "positions": [
                -2.735217091977832,
                -0.7719234289981489,
                0.7169255303580074,
                -0.06577539367852601,
                0.41459063600892015,
                -2.9754046954190163
            ]
        },
        {
            "positions": [
                -2.7587372825794225,
                -0.8961492799175652,
                0.6843161708042089,
                -0.0564860065244214,
                0.3962146748624582,
                -2.8037739888608826
            ]
        },
        {
            "positions": [
                -2.7822574731810135,
                -1.0203751308369815,
                0.6517068112504103,
                -0.04719661937031679,
                0.3778387137159963,
                -2.632143282302749
            ]
        },
        {
            "positions": [
                -2.8057776637826044,
                -1.1446009817563978,
                0.6190974516966118,
                -0.03790723221621218,
                0.3594627525695344,
                -2.460512575744615
            ]
        },
        {
            "positions": [
                -2.829297854384195,
                -1.2688268326758143,
                0.5864880921428133,
                -0.028617845062107565,
                0.34108679142307247,
                -2.288881869186481
            ]
        },
        {
            "positions": [
                -2.852818044985786,
                -1.3930526835952304,
                0.5538787325890147,
                -0.019328457908002958,
                0.32271083027661057,
                -2.1172511626283477
            ]
        },
        {
            "positions": [
                -2.876338235587377,
                -1.517278534514647,
                0.5212693730352161,
                -0.010039070753898344,
                0.3043348691301486,
                -1.9456204560702137
            ]
        },
        {
            "positions": [
                -2.8998584261889673,
                -1.6415043854340632,
                0.48866001348141763,
                -0.0007496835997937296,
                0.2859589079836867,
                -1.77398974951208
            ]
        },
        {
            "positions": [
                -2.923378616790558,
                -1.7657302363534795,
                0.456050653927619,
                0.008539703554310885,
                0.26758294683722483,
                -1.602359042953946
            ]
        },
        {
            "positions": [
                -2.9468988073921487,
                -1.8899560872728958,
                0.4234412943738205,
                0.0178290907084155,
                0.2492069856907629,
                -1.4307283363958123
            ]
        },
        {
            "positions": [
                -2.9704189979937397,
                -2.014181938192312,
                0.390831934820022,
                0.0271184778625201,
                0.230831024544301,
                -1.2590976298376788
            ]
        },
        {
            "positions": [
                -2.9939391885953306,
                -2.138407789111728,
                0.3582225752662235,
                0.03640786501662471,
                0.2124550633978391,
                -1.0874669232795449
            ]
        },
        {
            "positions": [
                -3.017459379196921,
                -2.2626336400311446,
                0.32561321571242485,
                0.04569725217072933,
                0.19407910225137714,
                -0.9158362167214111
            ]
        },
        {
            "positions": [
                -3.040979569798512,
                -2.386859490950561,
                0.29300385615862634,
                0.05498663932483394,
                0.17570314110491525,
                -0.7442055101632774
            ]
        },
        {
            "positions": [
                -2.981784629296776,
                -2.2837374293771333,
                0.27762634516873747,
                0.0310492284402778,
                0.20123958363886832,
                -0.9065331259571029
            ]
        },
        {
            "positions": [
                -2.922589688795039,
                -2.1806153678037052,
                0.2622488341788486,
                0.007111817555721656,
                0.2267760261728214,
                -1.0688607417509284
            ]
        },
        {
            "positions": [
                -2.8633947482933024,
                -2.0774933062302776,
                0.2468713231889597,
                -0.016825593328834487,
                0.2523124687067745,
                -1.2311883575447538
            ]
        },
        {
            "positions": [
                -2.804199807791566,
                -1.9743712446568495,
                0.23149381219907084,
                -0.04076300421339063,
                0.2778489112407275,
                -1.3935159733385794
            ]
        },
        {
            "positions": [
                -2.74500486728983,
                -1.871249183083422,
                0.21611630120918193,
                -0.06470041509794677,
                0.3033853537746806,
                -1.555843589132405
            ]
        },
        {
            "positions": [
                -2.6858099267880933,
                -1.7681271215099938,
                0.20073879021929308,
                -0.08863782598250292,
                0.3289217963086337,
                -1.7181712049262303
            ]
        },
        {
            "positions": [
                -2.6266149862863566,
                -1.6650050599365662,
                0.18536127922940418,
                -0.11257523686705906,
                0.35445823884258676,
                -1.880498820720056
            ]
        },
        {
            "positions": [
                -2.5674200457846204,
                -1.5618829983631384,
                0.1699837682395153,
                -0.1365126477516152,
                0.3799946813765398,
                -2.0428264365138813
            ]
        },
        {
            "positions": [
                -2.508225105282884,
                -1.4587609367897105,
                0.1546062572496264,
                -0.16045005863617137,
                0.40553112391049295,
                -2.205154052307707
            ]
        },
        {
            "positions": [
                -2.4490301647811474,
                -1.3556388752162827,
                0.13922874625973752,
                -0.1843874695207275,
                0.431067566444446,
                -2.3674816681015325
            ]
        },
        {
            "positions": [
                -2.3898352242794108,
                -1.2525168136428548,
                0.12385123526984868,
                -0.20832488040528363,
                0.45660400897839903,
                -2.529809283895358
            ]
        },
        {
            "positions": [
                -2.3306402837776745,
                -1.149394752069427,
                0.1084737242799598,
                -0.23226229128983977,
                0.48214045151235213,
                -2.6921368996891832
            ]
        },
        {
            "positions": [
                -2.2714453432759383,
                -1.0462726904959991,
                0.0930962132900709,
                -0.2561997021743959,
                0.5076768940463052,
                -2.854464515483009
            ]
        },
        {
            "positions": [
                -2.2122504027742016,
                -0.9431506289225713,
                0.07771870230018202,
                -0.28013711305895206,
                0.5332133365802583,
                -3.0167921312768344
            ]
        },
        {
            "positions": [
                -2.0826769575292428,
                -0.9446241791530946,
                -0.03547237147048567,
                -0.38951536331809394,
                0.5225263279874643,
                -2.9981028221234576
            ]
        },
        {
            "positions": [
                -1.9531035122842835,
                -0.9460977293836179,
                -0.14866344524115335,
                -0.49889361357723583,
                0.5118393193946704,
                -2.9794135129700807
            ]
        },
        {
            "positions": [
                -1.8235300670393244,
                -0.9475712796141412,
                -0.261854519011821,
                -0.6082718638363777,
                0.5011523108018765,
                -2.9607242038167034
            ]
        },
        {
            "positions": [
                -1.6939566217943653,
                -0.9490448298446645,
                -0.3750455927824887,
                -0.7176501140955196,
                0.49046530220908263,
                -2.9420348946633266
            ]
        },
        {
            "positions": [
                -1.5643831765494065,
                -0.950518380075188,
                -0.4882366665531564,
                -0.8270283643546614,
                0.4797782936162887,
                -2.9233455855099497
            ]
        },
        {
            "positions": [
                -1.4348097313044472,
                -0.9519919303057113,
                -0.601427740323824,
                -0.9364066146138033,
                0.4690912850234948,
                -2.904656276356573
            ]
        },
        {
            "positions": [
                -1.3052362860594884,
                -0.9534654805362346,
                -0.7146188140944918,
                -1.045784864872945,
                0.4584042764307009,
                -2.885966967203196
            ]
        },
        {
            "positions": [
                -1.1756628408145293,
                -0.9549390307667579,
                -0.8278098878651594,
                -1.1551631151320871,
                0.447717267837907,
                -2.8672776580498187
            ]
        },
        {
            "positions": [
                -1.0460893955695703,
                -0.9564125809972812,
                -0.9410009616358272,
                -1.264541365391229,
                0.4370302592451131,
                -2.848588348896442
            ]
        },
        {
            "positions": [
                -0.9165159503246112,
                -0.9578861312278045,
                -1.0541920354064949,
                -1.3739196156503708,
                0.42634325065231915,
                -2.829899039743065
            ]
        },
        {
            "positions": [
                -0.7869425050796521,
                -0.9593596814583278,
                -1.1673831091771627,
                -1.4832978659095128,
                0.4156562420595252,
                -2.811209730589688
            ]
        },
        {
            "positions": [
                -0.6573690598346931,
                -0.9608332316888512,
                -1.28057418294783,
                -1.5926761161686545,
                0.4049692334667313,
                -2.7925204214363113
            ]
        },
        {
            "positions": [
                -0.527795614589734,
                -0.9623067819193745,
                -1.393765256718498,
                -1.7020543664277965,
                0.3942822248739374,
                -2.773831112282934
            ]
        },
        {
            "positions": [
                -0.39822216934477517,
                -0.9637803321498978,
                -1.5069563304891656,
                -1.8114326166869381,
                0.3835952162811435,
                -2.755141803129557
            ]
        },
        {
            "positions": [
                -0.2686487240998159,
                -0.9652538823804211,
                -1.6201474042598334,
                -1.9208108669460802,
                0.3729082076883496,
                -2.7364524939761803
            ]
        },
        {
            "positions": [
                -0.13907527885485704,
                -0.9667274326109445,
                -1.733338478030501,
                -2.0301891172052224,
                0.36222119909555567,
                -2.7177631848228034
            ]
        },
        {
            "positions": [
                -0.009501833609897758,
                -0.9682009828414678,
                -1.8465295518011686,
                -2.139567367464364,
                0.3515341905027618,
                -2.6990738756694266
            ]
        },
        {
            "positions": [
                0.12007161163506108,
                -0.9696745330719911,
                -1.9597206255718365,
                -2.248945617723506,
                0.3408471819099679,
                -2.6803845665160493
            ]
        },
        {
            "positions": [
                0.24964505688001992,
                -0.9711480833025145,
                -2.072911699342504,
                -2.358323867982648,
                0.33016017331717395,
                -2.6616952573626724
            ]
        },
        {
            "positions": [
                0.3792185021249791,
                -0.9726216335330378,
                -2.1861027731131717,
                -2.4677021182417898,
                0.31947316472438003,
                -2.6430059482092956
            ]
        },
        {
            "positions": [
                0.2986093600761824,
                -1.0844563451719218,
                -2.2086359321397047,
                -2.4395054923955652,
                0.24786981814163173,
                -2.701745081965244
            ]
        },
        {
            "positions": [
                0.21800021802738567,
                -1.1962910568108058,
                -2.231169091166238,
                -2.4113088665493403,
                0.17626647155888345,
                -2.7604842157211933
            ]
        },
        {
            "positions": [
                0.13739107597858896,
                -1.3081257684496896,
                -2.253702250192771,
                -2.383112240703116,
                0.10466312497613514,
                -2.819223349477142
            ]
        },
        {
            "positions": [
                0.05678193392979225,
                -1.4199604800885737,
                -2.2762354092193045,
                -2.3549156148568913,
                0.03305977839338686,
                -2.877962483233091
            ]
        },
        {
            "positions": [
                -0.023827208119004517,
                -1.5317951917274577,
                -2.2987685682458374,
                -2.3267189890106668,
                -0.038543568189361443,
                -2.9367016169890396
            ]
        },
        {
            "positions": [
                -0.10443635016780117,
                -1.6436299033663417,
                -2.321301727272371,
                -2.298522363164442,
                -0.11014691477210975,
                -2.9954407507449883
            ]
        },
        {
            "positions": [
                -0.185045492216598,
                -1.7554646150052258,
                -2.343834886298904,
                -2.2703257373182173,
                -0.181750261354858,
                -3.0541798845009374
            ]
        }
    ]
}