{
    "goal": {
        "global_pose": {
            "orientation": {
                "w": -0.00223480608172531,
                "x": 0.0024358444001904467,
                "y": 0.7094548369677653,
                "z": -0.704743149386269
            },
            "position": {
                "x": 0.6205249238014221,
                "y": -0.6371506643295288,
                "z": 0.19426114857196808
            }
        },
        "name": "move_to_magneteinheit_B"
    },
    "id": "PRMstar_move_to_magneteinheit_B_103",
    "joint_names": [
        "shoulder_pan_joint",
        "shoulder_lift_joint",
        "elbow_joint",
        "wrist_1_joint",
        "wrist_2_joint",
        "wrist_3_joint"
    ],
    "metrics": {
        "cart_traj_len": 3.2851649910414125,
        "distance_elbow_joint": 6.043150238680571,
        "distance_shoulder_lift_joint": 1.285565348609671,
        "distance_shoulder_pan_joint": 2.107374414805176,
        "distance_wrist_1_joint": 1.3565740566217843,
        "distance_wrist_2_joint": 2.3489423114113417,
        "distance_wrist_3_joint": 1.7657374971459632,
        "smoothness": 0.6388923295402166,
        "time": 5.134328714,
        "traj_len": 3.8610029613138748,
        "weighted_distance": 4.705776793431618
    },
    "planner": "PRMstar",
    "start": {
        "state": {
            "elbow_joint": 2.6216224122426386,
            "shoulder_lift_joint": -1.4174107377796124,
            "shoulder_pan_joint": 0.7066234856936794,
            "wrist_1_joint": 1.9546482284002225,
            "wrist_2_joint": -0.7096286983471962,
            "wrist_3_joint": 0.005740856962016249
        }
    },
    "waypoints": [
        {
            "positions": [
                0.7066234856936794,
                -1.4174107377796124,
                2.6216224122426386,
                1.9546482284002225,
                -0.7096286983471962,
                0.005740856962016249
            ]
        },
        {
            "positions": [
                0.7783760785246583,
                -1.361363138982815,
                2.6110844475507635,
                2.001907177090011,
                -0.7962940658488986,
                -0.011950949571929851
            ]
        },
        {
            "positions": [
                0.8501286713556372,
                -1.3053155401860175,
                2.6005464828588885,
                2.0491661257798004,
                -0.882959433350601,
                -0.029642756105875953
            ]
        },
        {
            "positions": [
                0.8781868696509407,
                -1.3827383060558698,
                2.546053884557691,
                1.9412806155080085,
                -0.9864179354108527,
                -0.035313011729561625
            ]
        },
        {
            "positions": [
                0.9062450679462442,
                -1.460161071925722,
                2.491561286256494,
                1.8333951052362165,
                -1.0898764374711043,
                -0.0409832673532473
            ]
        },
        {
            "positions": [
                0.9343032662415476,
                -1.5375838377955744,
                2.437068687955297,
                1.7255095949644244,
                -1.193334939531356,
                -0.04665352297693298
            ]
        },
        {
            "positions": [
                0.9623614645368511,
                -1.6150066036654267,
                2.3825760896541,
                1.6176240846926324,
                -1.2967934415916076,
                -0.05232377860061865
            ]
        },
        {
            "positions": [
                1.0363436785834286,
                -1.6252797509287287,
                2.1772808681089417,
                1.5871353539067456,
                -1.2659336014673155,
                -0.08642561431491878
            ]
        },
        {
            "positions": [
                1.1103258926300064,
                -1.6355528981920306,
                1.9719856465637835,
                1.556646623120859,
                -1.2350737613430236,
                -0.12052745002921891
            ]
        },
        {
            "positions": [
                1.1843081066765837,
                -1.6458260454553328,
                1.7666904250186253,
                1.5261578923349723,
                -1.2042139212187315,
                -0.15462928574351903
            ]
        },
        {
            "positions": [
                1.2582903207231615,
                -1.6560991927186348,
                1.561395203473467,
                1.4956691615490856,
                -1.1733540810944396,
                -0.18873112145781917
            ]
        },
        {
            "positions": [
                1.3322725347697388,
                -1.6663723399819368,
                1.3560999819283086,
                1.465180430763199,
                -1.1424942409701475,
                -0.22283295717211932
            ]
        },
        {
            "positions": [
                1.4062547488163166,
                -1.6766454872452388,
                1.1508047603831504,
                1.4346916999773123,
                -1.1116344008458556,
                -0.2569347928864194
            ]
        },
        {
            "positions": [
                1.480236962862894,
                -1.6869186345085407,
                0.9455095388379919,
                1.4042029691914255,
                -1.0807745607215635,
                -0.29103662860071955
            ]
        },
        {
            "positions": [
                1.5542191769094718,
                -1.697191781771843,
                0.7402143172928339,
                1.373714238405539,
                -1.0499147205972716,
                -0.3251384643150197
            ]
        },
        {
            "positions": [
                1.628201390956049,
                -1.707464929035145,
                0.5349190957476755,
                1.3432255076196522,
                -1.0190548804729795,
                -0.35924030002931984
            ]
        },
        {
            "positions": [
                1.7021836050026269,
                -1.7177380762984469,
                0.32962387420251726,
                1.3127367768337654,
                -0.9881950403486877,
                -0.39334213574362
            ]
        },
        {
            "positions": [
                1.7761658190492042,
                -1.7280112235617489,
                0.12432865265735904,
                1.282248046047879,
                -0.9573352002243956,
                -0.42744397145792007
            ]
        },
        {
            "positions": [
                1.850148033095782,
                -1.7382843708250508,
                -0.08096656888779918,
                1.2517593152619921,
                -0.9264753601001037,
                -0.4615458071722202
            ]
        },
        {
            "positions": [
                1.9241302471423594,
                -1.748557518088353,
                -0.2862617904329574,
                1.2212705844761056,
                -0.8956155199758116,
                -0.4956476428865203
            ]
        },
        {
            "positions": [
                1.9981124611889372,
                -1.758830665351655,
                -0.4915570119781161,
                1.1907818536902188,
                -0.8647556798515196,
                -0.5297494786008206
            ]
        },
        {
            "positions": [
                2.0720946752355145,
                -1.769103812614957,
                -0.6968522335232739,
                1.160293122904332,
                -0.8338958397272276,
                -0.5638513143151206
            ]
        },
        {
            "positions": [
                2.1460768892820923,
                -1.779376959878259,
                -0.9021474550684321,
                1.1298043921184455,
                -0.8030359996029357,
                -0.5979531500294207
            ]
        },
        {
            "positions": [
                2.2200591033286696,
                -1.7896501071415611,
                -1.1074426766135907,
                1.0993156613325588,
                -0.7721761594786436,
                -0.6320549857437209
            ]
        },
        {
            "positions": [
                2.2940413173752474,
                -1.7999232544048631,
                -1.312737898158749,
                1.0688269305466722,
                -0.7413163193543516,
                -0.666156821458021
            ]
        },
        {
            "positions": [
                2.3680235314218248,
                -1.810196401668165,
                -1.5180331197039068,
                1.0383381997607855,
                -0.7104564792300596,
                -0.700258657172321
            ]
        },
        {
            "positions": [
                2.4420057454684025,
                -1.820469548931467,
                -1.7233283412490654,
                1.0078494689748987,
                -0.6795966391057676,
                -0.7343604928866213
            ]
        },
        {
            "positions": [
                2.51598795951498,
                -1.830742696194769,
                -1.9286235627942232,
                0.977360738189012,
                -0.6487367989814756,
                -0.7684623286009213
            ]
        },
        {
            "positions": [
                2.5899701735615577,
                -1.841015843458071,
                -2.133918784339382,
                0.9468720074031254,
                -0.6178769588571836,
                -0.8025641643152215
            ]
        },
        {
            "positions": [
                2.663952387608135,
                -1.8512889907213732,
                -2.3392140058845405,
                0.9163832766172386,
                -0.5870171187328916,
                -0.8366660000295216
            ]
        },
        {
            "positions": [
                2.737934601654713,
                -1.8615621379846752,
                -2.5445092274296983,
                0.885894545831352,
                -0.5561572786085996,
                -0.8707678357438218
            ]
        },
        {
            "positions": [
                2.7303282717702984,
                -1.923284493306417,
                -2.4568073675288753,
                0.8957730037607279,
                -0.4540431380902074,
                -0.7818449552998092
            ]
        },
        {
            "positions": [
                2.7227219418858843,
                -1.985006848628159,
                -2.369105507628052,
                0.9056514616901037,
                -0.35192899757181517,
                -0.6929220748557968
            ]
        },
        {
            "positions": [
                2.71511561200147,
                -2.0467292039499005,
                -2.2814036477272284,
                0.9155299196194796,
                -0.249814857053423,
                -0.6039991944117844
            ]
        },
        {
            "positions": [
                2.707509282117056,
                -2.1084515592716424,
                -2.1937017878264053,
                0.9254083775488554,
                -0.1477007165350307,
                -0.5150763139677719
            ]
        },
        {
            "positions": [
                2.6999029522326414,
                -2.1701739145933843,
                -2.1059999279255823,
                0.9352868354782313,
                -0.045586576016638514,
                -0.4261534335237594
            ]
        },
        {
            "positions": [
                2.692296622348227,
                -2.231896269915126,
                -2.018298068024759,
                0.9451652934076072,
                0.05652756450175367,
                -0.3372305530797469
            ]
        },
        {
            "positions": [
                2.684690292463813,
                -2.293618625236868,
                -1.9305962081239356,
                0.955043751336983,
                0.15864170502014585,
                -0.2483076726357345
            ]
        },
        {
            "positions": [
                2.6770839625793985,
                -2.35534098055861,
                -1.8428943482231124,
                0.964922209266359,
                0.26075584553853826,
                -0.15938479219172197
            ]
        },
        {
            "positions": [
                2.6694776326949845,
                -2.4170633358803517,
                -1.7551924883222891,
                0.9748006671957348,
                0.36286998605693044,
                -0.07046191174770944
            ]
        },
        {
            "positions": [
                2.66187130281057,
                -2.4787856912020936,
                -1.667490628421466,
                0.9846791251251107,
                0.46498412657532256,
                0.018460968696302992
            ]
        }
    ]
}