{
    "goal": {
        "global_pose": {
            "orientation": {
                "w": 0.5084816262002911,
                "x": -0.4908360881923452,
                "y": 0.5182115481033761,
                "z": -0.48164630358495003
            },
            "position": {
                "x": 0.5540239810943604,
                "y": -0.46912469901144505,
                "z": 0.16403168439865112
            }
        },
        "name": "move_to_storage_B"
    },
    "id": "PRMstar_move_to_storage_B_107",
    "joint_names": [
        "shoulder_pan_joint",
        "shoulder_lift_joint",
        "elbow_joint",
        "wrist_1_joint",
        "wrist_2_joint",
        "wrist_3_joint"
    ],
    "metrics": {
        "cart_traj_len": 0.6561675564685653,
        "distance_elbow_joint": 0.3505021361612566,
        "distance_shoulder_lift_joint": 0.4586526385369609,
        "distance_shoulder_pan_joint": 0.24697762426238212,
        "distance_wrist_1_joint": 3.0060776438880534,
        "distance_wrist_2_joint": 2.744382974793009,
        "distance_wrist_3_joint": 3.135467721698711,
        "smoothness": 0.13951304780333626,
        "time": 5.035784059,
        "traj_len": 3.153103350564389,
        "weighted_distance": 4.686518622753873
    },
    "planner": "PRMstar",
    "start": {
        "state": {
            "elbow_joint": 1.664937868594044,
            "shoulder_lift_joint": -0.661644460510453,
            "shoulder_pan_joint": -0.9139846352900073,
            "wrist_1_joint": 2.146753192139373,
            "wrist_2_joint": -2.2341966793290973,
            "wrist_3_joint": 0.005466555786416001
        }
    },
    "waypoints": [
        {
            "positions": [
                -0.9139846352900073,
                -0.661644460510453,
                1.664937868594044,
                2.146753192139373,
                -2.2341966793290973,
                0.005466555786416001
            ]
        },
        {
            "positions": [
                -0.881517468247768,
                -0.7198387319434154,
                1.8190289309696537,
                2.1571694370531933,
                -2.256283494740731,
                -0.0488857064057561
            ]
        },
        {
            "positions": [
                -0.8900978865365737,
                -0.7358570666275753,
                1.8268853739210795,
                2.037342981094224,
                -2.147391648365476,
                -0.17213032478601764
            ]
        },
        {
            "positions": [
                -0.8986783048253795,
                -0.7518754013117352,
                1.8347418168725054,
                1.9175165251352546,
                -2.0384998019902207,
                -0.2953749431662792
            ]
        },
        {
            "positions": [
                -0.9072587231141851,
                -0.7678937359958953,
                1.8425982598239312,
                1.7976900691762854,
                -1.929607955614966,
                -0.41861956154654073
            ]
        },
        {
            "positions": [
                -0.9158391414029908,
                -0.7839120706800552,
                1.850454702775357,
                1.677863613217316,
                -1.8207161092397108,
                -0.5418641799268022
            ]
        },
        {
            "positions": [
                -0.9244195596917966,
                -0.7999304053642151,
                1.8583111457267831,
                1.5580371572583465,
                -1.7118242628644558,
                -0.6651087983070638
            ]
        },
        {
            "positions": [
                -0.9329999779806023,
                -0.815948740048375,
                1.866167588678209,
                1.4382107012993774,
                -1.602932416489201,
                -0.7883534166873253
            ]
        },
        {
            "positions": [
                -0.941580396269408,
                -0.831967074732535,
                1.8740240316296348,
                1.318384245340408,
                -1.4940405701139459,
                -0.911598035067587
            ]
        },
        {
            "positions": [
                -0.9501608145582137,
                -0.847985409416695,
                1.8818804745810607,
                1.1985577893814385,
                -1.3851487237386908,
                -1.0348426534478485
            ]
        },
        {
            "positions": [
                -0.9587412328470194,
                -0.8640037441008549,
                1.8897369175324865,
                1.0787313334224693,
                -1.2762568773634357,
                -1.15808727182811
            ]
        },
        {
            "positions": [
                -0.9673216511358251,
                -0.8800220787850148,
                1.8975933604839124,
                0.9589048774634998,
                -1.1673650309881807,
                -1.2813318902083717
            ]
        },
        {
            "positions": [
                -0.9759020694246309,
                -0.8960404134691747,
                1.9054498034353382,
                0.8390784215045306,
                -1.0584731846129258,
                -1.4045765085886333
            ]
        },
        {
            "positions": [
                -0.9844824877134366,
                -0.9120587481533347,
                1.913306246386764,
                0.7192519655455614,
                -0.9495813382376708,
                -1.5278211269688946
            ]
        },
        {
            "positions": [
                -0.9930629060022422,
                -0.9280770828374947,
                1.9211626893381901,
                0.5994255095865919,
                -0.8406894918624157,
                -1.6510657453491564
            ]
        },
        {
            "positions": [
                -1.001643324291048,
                -0.9440954175216546,
                1.929019132289616,
                0.47959905362762245,
                -0.7317976454871606,
                -1.774310363729418
            ]
        },
        {
            "positions": [
                -1.0102237425798537,
                -0.9601137522058145,
                1.9368755752410418,
                0.35977259766865344,
                -0.6229057991119058,
                -1.8975549821096793
            ]
        },
        {
            "positions": [
                -1.0188041608686593,
                -0.9761320868899744,
                1.9447320181924677,
                0.23994614170968398,
                -0.5140139527366507,
                -2.0207996004899407
            ]
        },
        {
            "positions": [
                -1.0273845791574652,
                -0.9921504215741344,
                1.9525884611438935,
                0.1201196857507143,
                -0.40512210636139545,
                -2.1440442188702025
            ]
        },
        {
            "positions": [
                -1.0359649974462708,
                -1.0081687562582944,
                1.9604449040953194,
                0.0002932297917452864,
                -0.29623025998614083,
                -2.267288837250464
            ]
        },
        {
            "positions": [
                -1.0445454157350766,
                -1.0241870909424544,
                1.9683013470467452,
                -0.11953322616722417,
                -0.18733841361088555,
                -2.390533455630725
            ]
        },
        {
            "positions": [
                -1.0531258340238823,
                -1.0402054256266142,
                1.976157789998171,
                -0.23935968212619363,
                -0.07844656723563048,
                -2.513778074010987
            ]
        },
        {
            "positions": [
                -1.061706252312688,
                -1.056223760310774,
                1.9840142329495971,
                -0.35918613808516264,
                0.030445279139624137,
                -2.6370226923912483
            ]
        },
        {
            "positions": [
                -1.0702866706014937,
                -1.072242094994934,
                1.991870675901023,
                -0.4790125940441321,
                0.1393371255148792,
                -2.76026731077151
            ]
        },
        {
            "positions": [
                -1.0788670888902994,
                -1.088260429679094,
                1.9997271188524488,
                -0.5988390500031016,
                0.24822897189013426,
                -2.8835119291517715
            ]
        },
        {
            "positions": [
                -1.0874475071791052,
                -1.104278764363254,
                2.0075835618038744,
                -0.7186655059620706,
                0.35712081826538933,
                -3.006756547532033
            ]
        },
        {
            "positions": [
                -1.0960279254679108,
                -1.120297099047414,
                2.0154400047553005,
                -0.8384919619210403,
                0.4660126646406445,
                -3.1300011659122946
            ]
        }
    ]
}