{
    "goal": {
        "global_pose": {
            "orientation": {
                "w": 0.005598929693374612,
                "x": 0.007748599140229565,
                "y": 0.7110244013736278,
                "z": -0.7031023480610252
            },
            "position": {
                "x": 0.1141497679147869,
                "y": -0.7141253447532654,
                "z": 0.3711530566215515
            }
        },
        "name": "move_to_auspresseinheit_B"
    },
    "id": "PRMstar_move_to_auspresseinheit_B_45",
    "joint_names": [
        "shoulder_pan_joint",
        "shoulder_lift_joint",
        "elbow_joint",
        "wrist_1_joint",
        "wrist_2_joint",
        "wrist_3_joint"
    ],
    "metrics": {
        "cart_traj_len": 0.5639229840879423,
        "distance_elbow_joint": 0.05968187348792231,
        "distance_shoulder_lift_joint": 0.2953540940227515,
        "distance_shoulder_pan_joint": 0.5767051907424428,
        "distance_wrist_1_joint": 0.3215704471655405,
        "distance_wrist_2_joint": 0.9952202151522178,
        "distance_wrist_3_joint": 0.0013954288519224534,
        "smoothness": 0.0,
        "time": 5.008229941000001,
        "traj_len": 1.499975749611572,
        "weighted_distance": 1.8893143649071218
    },
    "planner": "PRMstar",
    "start": {
        "state": {
            "elbow_joint": 2.0193083361928714,
            "shoulder_lift_joint": -1.1220246554650708,
            "shoulder_pan_joint": -1.0952077554168747,
            "wrist_1_joint": -0.8559753972642168,
            "wrist_2_joint": 0.4759566250798843,
            "wrist_3_joint": -3.1240929996934557
        }
    },
    "waypoints": [
        {
            "positions": [
                -1.0952077554168747,
                -1.1220246554650708,
                2.0193083361928714,
                -0.8559753972642168,
                0.4759566250798843,
                -3.1240929996934557
            ]
        },
        {
            "positions": [
                -1.1913252872072817,
                -1.1712503378021961,
                2.009361357278218,
                -0.8023803227366267,
                0.6418266609385872,
                -3.1238604282181353
            ]
        },
        {
            "positions": [
                -1.287442818997689,
                -1.2204760201393212,
                1.999414378363564,
                -0.7487852482090366,
                0.8076966967972903,
                -3.123627856742815
            ]
        },
        {
            "positions": [
                -1.383560350788096,
                -1.2697017024764465,
                1.9894673994489103,
                -0.6951901736814465,
                0.9735667326559931,
                -3.1233952852674944
            ]
        },
        {
            "positions": [
                -1.479677882578503,
                -1.3189273848135719,
                1.9795204205342565,
                -0.6415950991538565,
                1.1394367685146962,
                -3.123162713792174
            ]
        },
        {
            "positions": [
                -1.5757954143689104,
                -1.368153067150697,
                1.969573441619603,
                -0.5880000246262663,
                1.305306804373399,
                -3.1229301423168536
            ]
        },
        {
            "positions": [
                -1.6719129461593174,
                -1.4173787494878223,
                1.9596264627049491,
                -0.5344049500986763,
                1.4711768402321022,
                -3.122697570841533
            ]
        }
    ]
}