{
    "goal": {
        "global_pose": {
            "orientation": {
                "w": -0.4816463035849501,
                "x": 0.5182115481033762,
                "y": 0.4908360881923453,
                "z": -0.5084816262002911
            },
            "position": {
                "x": -0.8240239810943604,
                "y": 0.19912469901144506,
                "z": 0.16403168439865112
            }
        },
        "name": "move_to_storage_D"
    },
    "id": "PRMstar_move_to_storage_D_52",
    "joint_names": [
        "shoulder_pan_joint",
        "shoulder_lift_joint",
        "elbow_joint",
        "wrist_1_joint",
        "wrist_2_joint",
        "wrist_3_joint"
    ],
    "metrics": {
        "cart_traj_len": 4.198042554770614,
        "distance_elbow_joint": 4.208757029694093,
        "distance_shoulder_lift_joint": 1.264239194743585,
        "distance_shoulder_pan_joint": 2.811984395345237,
        "distance_wrist_1_joint": 2.2638561750786774,
        "distance_wrist_2_joint": 0.8713680977519246,
        "distance_wrist_3_joint": 4.201486123203919,
        "smoothness": 0.13674667790947692,
        "time": 5.028352217999999,
        "traj_len": 3.9524284959778133,
        "weighted_distance": 5.211514898285898
    },
    "planner": "PRMstar",
    "start": {
        "state": {
            "elbow_joint": -2.384821988534728,
            "shoulder_lift_joint": -2.2788054721415256,
            "shoulder_pan_joint": -0.1854694642142757,
            "wrist_1_joint": 1.4845938289331202,
            "wrist_2_joint": 0.17898776772866878,
            "wrist_3_joint": 0.037105688729662994
        }
    },
    "waypoints": [
        {
            "positions": [
                -0.1854694642142757,
                -2.2788054721415256,
                -2.384821988534728,
                1.4845938289331202,
                0.17898776772866878,
                0.037105688729662994
            ]
        },
        {
            "positions": [
                -0.04289010353892864,
                -2.2386310175803077,
                -2.364311371414818,
                1.450945358113856,
                0.26509168442045966,
                -0.029271502200472158
            ]
        },
        {
            "positions": [
                0.09968925713641844,
                -2.19845656301909,
                -2.343800754294908,
                1.417296887294592,
                0.3511956011122505,
                -0.09564869313060731
            ]
        },
        {
            "positions": [
                0.24226861781176554,
                -2.1582821084578723,
                -2.323290137174998,
                1.3836484164753275,
                0.4372995178040414,
                -0.16202588406074245
            ]
        },
        {
            "positions": [
                0.3848479784871126,
                -2.1181076538966543,
                -2.302779520055088,
                1.3499999456560634,
                0.5234034344958323,
                -0.2284030749908776
            ]
        },
        {
            "positions": [
                0.5274273391624597,
                -2.077933199335437,
                -2.2822689029351784,
                1.3163514748367993,
                0.6095073511876231,
                -0.2947802659210128
            ]
        },
        {
            "positions": [
                0.6700066998378068,
                -2.037758744774219,
                -2.2617582858152683,
                1.282703004017535,
                0.695611267879414,
                -0.36115745685114786
            ]
        },
        {
            "positions": [
                0.8125860605131539,
                -1.9975842902130012,
                -2.2412476686953586,
                1.2490545331982708,
                0.7817151845712048,
                -0.42753464778128303
            ]
        },
        {
            "positions": [
                0.9551654211885009,
                -1.9574098356517835,
                -2.2207370515754485,
                1.2154060623790066,
                0.8678191012629957,
                -0.49391183871141825
            ]
        },
        {
            "positions": [
                1.0073950933742029,
                -1.927945974456351,
                -2.0943410486774856,
                1.1530726746126139,
                0.8735233751447956,
                -0.37920969509382957
            ]
        },
        {
            "positions": [
                1.0596247655599047,
                -1.8984821132609184,
                -1.9679450457795227,
                1.0907392868462213,
                0.8792276490265956,
                -0.26450755147624094
            ]
        },
        {
            "positions": [
                1.1118544377456065,
                -1.8690182520654857,
                -1.8415490428815597,
                1.0284058990798286,
                0.8849319229083954,
                -0.14980540785865226
            ]
        },
        {
            "positions": [
                1.1640841099313084,
                -1.8395543908700531,
                -1.7151530399835968,
                0.9660725113134361,
                0.8906361967901953,
                -0.03510326424106358
            ]
        },
        {
            "positions": [
                1.2163137821170102,
                -1.8100905296746206,
                -1.5887570370856339,
                0.9037391235470433,
                0.8963404706719953,
                0.07959887937652504
            ]
        },
        {
            "positions": [
                1.268543454302712,
                -1.780626668479188,
                -1.462361034187671,
                0.8414057357806507,
                0.9020447445537952,
                0.19430102299411373
            ]
        },
        {
            "positions": [
                1.3207731264884142,
                -1.7511628072837553,
                -1.335965031289708,
                0.7790723480142581,
                0.9077490184355952,
                0.3090031666117024
            ]
        },
        {
            "positions": [
                1.373002798674116,
                -1.7216989460883227,
                -1.209569028391745,
                0.7167389602478654,
                0.913453292317395,
                0.4237053102292911
            ]
        },
        {
            "positions": [
                1.4252324708598179,
                -1.6922350848928902,
                -1.0831730254937821,
                0.6544055724814728,
                0.919157566199195,
                0.5384074538468797
            ]
        },
        {
            "positions": [
                1.47746214304552,
                -1.6627712236974577,
                -0.9567770225958192,
                0.5920721847150802,
                0.9248618400809949,
                0.6531095974644683
            ]
        },
        {
            "positions": [
                1.5296918152312218,
                -1.6333073625020251,
                -0.8303810196978563,
                0.5297387969486875,
                0.9305661139627949,
                0.7678117410820571
            ]
        },
        {
            "positions": [
                1.5819214874169236,
                -1.6038435013065926,
                -0.7039850167998933,
                0.4674054091822948,
                0.9362703878445948,
                0.8825138846996456
            ]
        },
        {
            "positions": [
                1.6341511596026255,
                -1.5743796401111598,
                -0.5775890139019304,
                0.40507202141590215,
                0.9419746617263947,
                0.9972160283172344
            ]
        },
        {
            "positions": [
                1.6863808317883273,
                -1.5449157789157273,
                -0.45119301100396747,
                0.3427386336495095,
                0.9476789356081946,
                1.111918171934823
            ]
        },
        {
            "positions": [
                1.7386105039740292,
                -1.5154519177202947,
                -0.32479700810600454,
                0.2804052458831169,
                0.9533832094899946,
                1.2266203155524118
            ]
        },
        {
            "positions": [
                1.790840176159731,
                -1.485988056524862,
                -0.1984010052080416,
                0.21807185811672425,
                0.9590874833717945,
                1.3413224591700004
            ]
        },
        {
            "positions": [
                1.8430698483454329,
                -1.4565241953294294,
                -0.07200500231007867,
                0.1557384703503315,
                0.9647917572535945,
                1.456024602787589
            ]
        },
        {
            "positions": [
                1.895299520531135,
                -1.427060334133997,
                0.054391000587884264,
                0.09340508258393898,
                0.9704960311353944,
                1.5707267464051777
            ]
        },
        {
            "positions": [
                1.9475291927168368,
                -1.3975964729385644,
                0.1807870034858472,
                0.031071694817546236,
                0.9762003050171943,
                1.6854288900227665
            ]
        },
        {
            "positions": [
                1.9997588649025388,
                -1.3681326117431318,
                0.30718300638381013,
                -0.03126169294884629,
                0.9819045788989942,
                1.8001310336403549
            ]
        },
        {
            "positions": [
                2.0519885370882407,
                -1.3386687505476993,
                0.43357900928177306,
                -0.09359508071523903,
                0.9876088527807941,
                1.9148331772579437
            ]
        },
        {
            "positions": [
                2.1042182092739425,
                -1.3092048893522665,
                0.559975012179736,
                -0.15592846848163155,
                0.9933131266625941,
                2.0295353208755325
            ]
        },
        {
            "positions": [
                2.1564478814596444,
                -1.279741028156834,
                0.6863710150776989,
                -0.2182618562480243,
                0.999017400544394,
                2.1442374644931212
            ]
        },
        {
            "positions": [
                2.2086775536453462,
                -1.2502771669614015,
                0.8127670179756619,
                -0.28059524401441704,
                1.004721674426194,
                2.2589396081107096
            ]
        },
        {
            "positions": [
                2.260907225831048,
                -1.2208133057659687,
                0.9391630208736248,
                -0.34292863178080957,
                1.0104259483079938,
                2.3736417517282984
            ]
        },
        {
            "positions": [
                2.31313689801675,
                -1.1913494445705362,
                1.0655590237715877,
                -0.4052620195472023,
                1.0161302221897937,
                2.488343895345887
            ]
        },
        {
            "positions": [
                2.365366570202452,
                -1.1618855833751036,
                1.1919550266695507,
                -0.46759540731359484,
                1.0218344960715937,
                2.6030460389634755
            ]
        },
        {
            "positions": [
                2.4175962423881536,
                -1.132421722179671,
                1.3183510295675136,
                -0.5299287950799876,
                1.0275387699533935,
                2.7177481825810643
            ]
        },
        {
            "positions": [
                2.4698259145738555,
                -1.1029578609842385,
                1.4447470324654765,
                -0.5922621828463801,
                1.0332430438351936,
                2.832450326198653
            ]
        },
        {
            "positions": [
                2.5220555867595578,
                -1.073493999788806,
                1.5711430353634395,
                -0.6545955706127728,
                1.0389473177169934,
                2.947152469816242
            ]
        },
        {
            "positions": [
                2.5742852589452596,
                -1.0440301385933732,
                1.6975390382614024,
                -0.7169289583791654,
                1.0446515915987935,
                3.0618546134338303
            ]
        },
        {
            "positions": [
                2.6265149311309615,
                -1.0145662773979407,
                1.8239350411593651,
                -0.7792623461455581,
                1.0503558654805933,
                3.176556757051419
            ]
        }
    ]
}