{
    "goal": {
        "global_pose": {
            "orientation": {
                "w": 0.7047431493862688,
                "x": -0.7094548369677653,
                "y": 0.0024358444001904,
                "z": -0.0022348060817251984
            },
            "position": {
                "x": -0.39052492380142206,
                "y": 0.3671506643295288,
                "z": 0.19426114857196808
            }
        },
        "name": "move_to_magneteinheit_D"
    },
    "id": "PRMstar_move_to_magneteinheit_D_112",
    "joint_names": [
        "shoulder_pan_joint",
        "shoulder_lift_joint",
        "elbow_joint",
        "wrist_1_joint",
        "wrist_2_joint",
        "wrist_3_joint"
    ],
    "metrics": {
        "cart_traj_len": 4.285514498206908,
        "distance_elbow_joint": 3.126566256596354,
        "distance_shoulder_lift_joint": 1.632210400738025,
        "distance_shoulder_pan_joint": 2.680818474694828,
        "distance_wrist_1_joint": 2.4557554171755407,
        "distance_wrist_2_joint": 3.2591328813877363,
        "distance_wrist_3_joint": 3.131711146233367,
        "smoothness": 0.1690029332504053,
        "time": 5.064176173,
        "traj_len": 4.035615761792226,
        "weighted_distance": 5.316437262665277
    },
    "planner": "PRMstar",
    "start": {
        "state": {
            "elbow_joint": 0.749534889911806,
            "shoulder_lift_joint": -0.6476975780787326,
            "shoulder_pan_joint": -2.711696901376241,
            "wrist_1_joint": -0.07506478083263063,
            "wrist_2_joint": 0.43296659715538205,
            "wrist_3_joint": -3.14703540197715
        }
    },
    "waypoints": [
        {
            "positions": [
                -2.711696901376241,
                -0.6476975780787326,
                0.749534889911806,
                -0.07506478083263063,
                0.43296659715538205,
                -3.14703540197715
            ]
        },
        {
            "positions": [
                -2.718237952888812,
                -0.7599806009013914,
                0.6157074991905432,
                -0.10683156292091966,
                0.4359194958570209,
                -3.073532805742679
            ]
        },
        {
            "positions": [
                -2.621101271719802,
                -0.8136899338088484,
                0.5255732962357949,
                -0.1240981712970497,
                0.35969355916140267,
                -3.0283515396082903
            ]
        },
        {
            "positions": [
                -2.5239645905507917,
                -0.8673992667163053,
                0.4354390932810464,
                -0.14136477967317973,
                0.2834676224657844,
                -2.983170273473902
            ]
        },
        {
            "positions": [
                -2.4268279093817817,
                -0.9211085996237621,
                0.34530489032629796,
                -0.15863138804930976,
                0.2072416857701662,
                -2.9379890073395134
            ]
        },
        {
            "positions": [
                -2.3296912282127717,
                -0.9748179325312191,
                0.2551706873715496,
                -0.1758979964254398,
                0.13101574907454794,
                -2.8928077412051247
            ]
        },
        {
            "positions": [
                -2.2325545470437613,
                -1.028527265438676,
                0.16503648441680113,
                -0.19316460480156986,
                0.054789812378929714,
                -2.8476264750707365
            ]
        },
        {
            "positions": [
                -2.1354178658747514,
                -1.0822365983461328,
                0.07490228146205269,
                -0.2104312131776999,
                -0.02143612431668851,
                -2.802445208936348
            ]
        },
        {
            "positions": [
                -2.038281184705741,
                -1.1359459312535898,
                -0.0152319214926957,
                -0.22769782155382995,
                -0.09766206101230684,
                -2.757263942801959
            ]
        },
        {
            "positions": [
                -1.941144503536731,
                -1.1896552641610467,
                -0.10536612444744409,
                -0.24496442992995995,
                -0.173887997707925,
                -2.7120826766675705
            ]
        },
        {
            "positions": [
                -1.844007822367721,
                -1.2433645970685037,
                -0.1955003274021926,
                -0.26223103830609,
                -0.2501139344035433,
                -2.6669014105331823
            ]
        },
        {
            "positions": [
                -1.7468711411987108,
                -1.2970739299759604,
                -0.285634530356941,
                -0.27949764668222005,
                -0.32633987109916146,
                -2.6217201443987936
            ]
        },
        {
            "positions": [
                -1.6497344600297006,
                -1.3507832628834175,
                -0.3757687333116895,
                -0.2967642550583501,
                -0.40256580779477974,
                -2.576538878264405
            ]
        },
        {
            "positions": [
                -1.5525977788606906,
                -1.4044925957908743,
                -0.46590293626643786,
                -0.3140308634344801,
                -0.4787917444903979,
                -2.5313576121300168
            ]
        },
        {
            "positions": [
                -1.4554610976916804,
                -1.4582019286983312,
                -0.5560371392211861,
                -0.33129747181061014,
                -0.5550176811860161,
                -2.486176345995628
            ]
        },
        {
            "positions": [
                -1.3583244165226702,
                -1.5119112616057881,
                -0.6461713421759346,
                -0.34856408018674023,
                -0.6312436178816345,
                -2.4409950798612394
            ]
        },
        {
            "positions": [
                -1.26118773535366,
                -1.565620594513245,
                -0.7363055451306831,
                -0.3658306885628702,
                -0.7074695545772527,
                -2.3958138137268508
            ]
        },
        {
            "positions": [
                -1.16405105418465,
                -1.619329927420702,
                -0.8264397480854314,
                -0.38309729693900024,
                -0.7836954912728709,
                -2.3506325475924625
            ]
        },
        {
            "positions": [
                -1.06691437301564,
                -1.6730392603281588,
                -0.9165739510401799,
                -0.4003639053151303,
                -0.859921427968489,
                -2.305451281458074
            ]
        },
        {
            "positions": [
                -0.9697776918466297,
                -1.726748593235616,
                -1.0067081539949285,
                -0.41763051369126036,
                -0.9361473646641074,
                -2.2602700153236857
            ]
        },
        {
            "positions": [
                -0.8726410106776197,
                -1.7804579261430729,
                -1.0968423569496766,
                -0.4348971220673904,
                -1.0123733013597256,
                -2.215088749189297
            ]
        },
        {
            "positions": [
                -0.7755043295086095,
                -1.8341672590505296,
                -1.186976559904425,
                -0.45216373044352043,
                -1.0885992380553438,
                -2.1699074830549083
            ]
        },
        {
            "positions": [
                -0.6783676483395995,
                -1.8878765919579865,
                -1.2771107628591736,
                -0.4694303388196504,
                -1.164825174750962,
                -2.1247262169205197
            ]
        },
        {
            "positions": [
                -0.5812309671705891,
                -1.9415859248654435,
                -1.367244965813922,
                -0.4866969471957805,
                -1.2410511114465803,
                -2.0795449507861314
            ]
        },
        {
            "positions": [
                -0.4840942860015792,
                -1.9952952577729004,
                -1.4573791687686706,
                -0.5039635555719105,
                -1.3172770481421985,
                -2.0343636846517428
            ]
        },
        {
            "positions": [
                -0.4294448735690759,
                -2.015656118104981,
                -1.557097913736574,
                -0.4731054487431166,
                -1.2773219749295204,
                -2.0113718395954785
            ]
        },
        {
            "positions": [
                -0.3747954611365726,
                -2.036016978437061,
                -1.6568166587044773,
                -0.4422473419143227,
                -1.2373669017168423,
                -1.9883799945392142
            ]
        },
        {
            "positions": [
                -0.33903788298873133,
                -2.0542547846010266,
                -1.732671095981177,
                -0.369302618588123,
                -1.174759788271416,
                -1.9195810371921254
            ]
        },
        {
            "positions": [
                -0.30328030484089014,
                -2.0724925907649925,
                -1.808525533257877,
                -0.29635789526192335,
                -1.1121526748259898,
                -1.8507820798450365
            ]
        },
        {
            "positions": [
                -0.2675227266930489,
                -2.090730396928958,
                -1.8843799705345767,
                -0.22341317193572366,
                -1.0495455613805635,
                -1.7819831224979477
            ]
        },
        {
            "positions": [
                -0.24564699492809908,
                -2.1067264483914205,
                -1.9412276141141487,
                -0.12685923002426314,
                -0.9753506934544083,
                -1.6869799545472834
            ]
        },
        {
            "positions": [
                -0.22377126316314927,
                -2.1227224998538836,
                -1.9980752576937206,
                -0.030305288112802614,
                -0.901155825528253,
                -1.5919767865966192
            ]
        },
        {
            "positions": [
                -0.20189553139819943,
                -2.1387185513163463,
                -2.0549229012732924,
                0.06624865379865788,
                -0.8269609576020978,
                -1.496973618645955
            ]
        },
        {
            "positions": [
                -0.18001979963324966,
                -2.1547146027788093,
                -2.1117705448528645,
                0.16280259571011843,
                -0.7527660896759425,
                -1.4019704506952908
            ]
        },
        {
            "positions": [
                -0.15814406786829982,
                -2.170710654241272,
                -2.1686181884324363,
                0.25935653762157895,
                -0.6785712217497872,
                -1.3069672827446264
            ]
        },
        {
            "positions": [
                -0.13626833610335,
                -2.186706705703735,
                -2.2254658320120084,
                0.35591047953303945,
                -0.6043763538236321,
                -1.2119641147939624
            ]
        },
        {
            "positions": [
                -0.11439260433840022,
                -2.2027027571661977,
                -2.28231347559158,
                0.4524644214445,
                -0.5301814858974768,
                -1.116960946843298
            ]
        },
        {
            "positions": [
                -0.12319661366738117,
                -2.2123534098725175,
                -2.294153211978201,
                0.5862680046219813,
                -0.44069550134220725,
                -0.9792563604558586
            ]
        },
        {
            "positions": [
                -0.13200062299636212,
                -2.2220040625788378,
                -2.305992948364822,
                0.7200715877994626,
                -0.35120951678693774,
                -0.8415517740684193
            ]
        },
        {
            "positions": [
                -0.14080463232534307,
                -2.2316547152851576,
                -2.3178326847514428,
                0.8538751709769438,
                -0.2617235322316682,
                -0.7038471876809801
            ]
        },
        {
            "positions": [
                -0.14960864165432403,
                -2.241305367991478,
                -2.3296724211380635,
                0.987678754154425,
                -0.17223754767639865,
                -0.5661426012935408
            ]
        },
        {
            "positions": [
                -0.15841265098330498,
                -2.2509560206977977,
                -2.3415121575246842,
                1.1214823373319063,
                -0.08275156312112908,
                -0.42843801490610145
            ]
        },
        {
            "positions": [
                -0.16721666031228594,
                -2.2606066734041175,
                -2.353351893911305,
                1.2552859205093876,
                0.006734421434140381,
                -0.29073342851866224
            ]
        },
        {
            "positions": [
                -0.17602066964126686,
                -2.2702573261104377,
                -2.365191630297926,
                1.3890895036868687,
                0.09622040598940995,
                -0.15302884213122292
            ]
        },
        {
            "positions": [
                -0.18482467897024782,
                -2.2799079788167576,
                -2.377031366684547,
                1.52289308686435,
                0.1857063905446795,
                -0.015324255743783512
            ]
        }
    ]
}