{
    "goal": {
        "global_pose": {
            "orientation": {
                "w": 0.005598929693374612,
                "x": 0.007748599140229565,
                "y": 0.7110244013736278,
                "z": -0.7031023480610252
            },
            "position": {
                "x": -0.8858502320852131,
                "y": -0.7141253447532654,
                "z": 0.3711530566215515
            }
        },
        "name": "move_to_auspresseinheit_C"
    },
    "id": "PRMstar_move_to_auspresseinheit_C_10",
    "joint_names": [
        "shoulder_pan_joint",
        "shoulder_lift_joint",
        "elbow_joint",
        "wrist_1_joint",
        "wrist_2_joint",
        "wrist_3_joint"
    ],
    "metrics": {
        "cart_traj_len": 0.4923430669881061,
        "distance_elbow_joint": 0.9864933509452873,
        "distance_shoulder_lift_joint": 0.31848857069046965,
        "distance_shoulder_pan_joint": 0.2567359309151964,
        "distance_wrist_1_joint": 0.6538708537455095,
        "distance_wrist_2_joint": 1.3081609970778887,
        "distance_wrist_3_joint": 0.052720411805948775,
        "smoothness": 0.0,
        "time": 5.0104723589999995,
        "traj_len": 1.8911557617447328,
        "weighted_distance": 2.3756983793435555
    },
    "planner": "PRMstar",
    "start": {
        "state": {
            "elbow_joint": 1.7527959577737207,
            "shoulder_lift_joint": -0.9740617694225068,
            "shoulder_pan_joint": -2.967991417825858,
            "wrist_1_joint": -0.759517768980727,
            "wrist_2_joint": 1.7443932448377408,
            "wrist_3_joint": -3.0840537646736568
        }
    },
    "waypoints": [
        {
            "positions": [
                -2.967991417825858,
                -0.9740617694225068,
                1.7527959577737207,
                -0.759517768980727,
                1.7443932448377408,
                -3.0840537646736568
            ]
        },
        {
            "positions": [
                -2.9423178247343382,
                -0.9422129123534598,
                1.6541466226791919,
                -0.694130683606176,
                1.6135771451299519,
                -3.0893258058542514
            ]
        },
        {
            "positions": [
                -2.9166442316428185,
                -0.9103640552844129,
                1.555497287584663,
                -0.6287435982316251,
                1.4827610454221631,
                -3.0945978470348465
            ]
        },
        {
            "positions": [
                -2.890970638551299,
                -0.8785151982153658,
                1.4568479524901345,
                -0.5633565128570741,
                1.3519449457143742,
                -3.0998698882154416
            ]
        },
        {
            "positions": [
                -2.8652970454597795,
                -0.8466663411463189,
                1.3581986173956058,
                -0.4979694274825232,
                1.2211288460065854,
                -3.1051419293960363
            ]
        },
        {
            "positions": [
                -2.8396234523682597,
                -0.814817484077272,
                1.259549282301077,
                -0.43258234210797225,
                1.0903127462987965,
                -3.110413970576631
            ]
        },
        {
            "positions": [
                -2.81394985927674,
                -0.782968627008225,
                1.1608999472065484,
                -0.3671952567334213,
                0.9594966465910076,
                -3.115686011757226
            ]
        },
        {
            "positions": [
                -2.7882762661852203,
                -0.7511197699391781,
                1.0622506121120194,
                -0.3018081713588704,
                0.8286805468832188,
                -3.120958052937821
            ]
        },
        {
            "positions": [
                -2.762602673093701,
                -0.7192709128701311,
                0.9636012770174908,
                -0.23642108598431943,
                0.6978644471754298,
                -3.126230094118416
            ]
        },
        {
            "positions": [
                -2.7369290800021813,
                -0.6874220558010841,
                0.864951941922962,
                -0.17103400060976848,
                0.5670483474676409,
                -3.1315021352990104
            ]
        },
        {
            "positions": [
                -2.7112554869106615,
                -0.6555731987320371,
                0.7663026068284333,
                -0.10564691523521756,
                0.43623224775985214,
                -3.1367741764796055
            ]
        }
    ]
}