{
    "goal": {
        "global_pose": {
            "orientation": {
                "w": 0.7047431468963623,
                "x": -0.7094548344612122,
                "y": 0.0024358443915843964,
                "z": -0.0022348060738295317
            },
            "position": {
                "x": 0.6094750761985779,
                "y": 0.3671506643295288,
                "z": 0.19426114857196808
            }
        },
        "name": "move_to_magneteinheit_A"
    },
    "id": "PRMstar_move_to_magneteinheit_A_121",
    "joint_names": [
        "shoulder_pan_joint",
        "shoulder_lift_joint",
        "elbow_joint",
        "wrist_1_joint",
        "wrist_2_joint",
        "wrist_3_joint"
    ],
    "metrics": {
        "cart_traj_len": 3.3377088476549726,
        "distance_elbow_joint": 3.90372253771604,
        "distance_shoulder_lift_joint": 0.46044768652508705,
        "distance_shoulder_pan_joint": 2.6196393523565487,
        "distance_wrist_1_joint": 1.7937964029085816,
        "distance_wrist_2_joint": 1.6982728990646199,
        "distance_wrist_3_joint": 3.5967465636611182,
        "smoothness": 0.09748001938371509,
        "time": 5.076997802,
        "traj_len": 3.75134981603049,
        "weighted_distance": 4.975760029535933
    },
    "planner": "PRMstar",
    "start": {
        "state": {
            "elbow_joint": -1.9196185241190666,
            "shoulder_lift_joint": -1.2443396400964142,
            "shoulder_pan_joint": 2.6996025414629847,
            "wrist_1_joint": -1.5485510000780065,
            "wrist_2_joint": -1.5709468930060704,
            "wrist_3_joint": 0.4420197071253992
        }
    },
    "waypoints": [
        {
            "positions": [
                2.6996025414629847,
                -1.2443396400964142,
                -1.9196185241190666,
                -1.5485510000780065,
                -1.5709468930060704,
                0.4420197071253992
            ]
        },
        {
            "positions": [
                2.6102396917834554,
                -1.2549904435866495,
                -1.8171937033396757,
                -1.5802879693883585,
                -1.559513109370996,
                0.3110670551700675
            ]
        },
        {
            "positions": [
                2.5208768421039256,
                -1.265641247076885,
                -1.7147688825602847,
                -1.6120249386987104,
                -1.5480793257359216,
                0.18011440321473582
            ]
        },
        {
            "positions": [
                2.4315139924243963,
                -1.2762920505671203,
                -1.6123440617808935,
                -1.6437619080090624,
                -1.536645542100847,
                0.04916175125940414
            ]
        },
        {
            "positions": [
                2.342151142744867,
                -1.2869428540573555,
                -1.5099192410015025,
                -1.6754988773194144,
                -1.5252117584657725,
                -0.08179090069592754
            ]
        },
        {
            "positions": [
                2.252788293065337,
                -1.297593657547591,
                -1.4074944202221116,
                -1.7072358466297664,
                -1.513777974830698,
                -0.21274355265125922
            ]
        },
        {
            "positions": [
                2.1634254433858078,
                -1.3082444610378263,
                -1.3050695994427204,
                -1.7389728159401183,
                -1.5023441911956237,
                -0.3436962046065909
            ]
        },
        {
            "positions": [
                2.0740625937062784,
                -1.3188952645280616,
                -1.2026447786633296,
                -1.77070978525047,
                -1.4909104075605493,
                -0.47464885656192257
            ]
        },
        {
            "positions": [
                1.984699744026749,
                -1.3295460680182971,
                -1.1002199578839384,
                -1.802446754560822,
                -1.4794766239254749,
                -0.6056015085172543
            ]
        },
        {
            "positions": [
                1.8953368943472193,
                -1.3401968715085324,
                -0.9977951371045475,
                -1.834183723871174,
                -1.4680428402904002,
                -0.7365541604725859
            ]
        },
        {
            "positions": [
                1.80597404466769,
                -1.350847674998768,
                -0.8953703163251563,
                -1.865920693181526,
                -1.4566090566553258,
                -0.8675068124279176
            ]
        },
        {
            "positions": [
                1.7166111949881606,
                -1.3614984784890032,
                -0.7929454955457653,
                -1.897657662491878,
                -1.4451752730202514,
                -0.9984594643832493
            ]
        },
        {
            "positions": [
                1.627248345308631,
                -1.3721492819792385,
                -0.6905206747663744,
                -1.92939463180223,
                -1.433741489385177,
                -1.1294121163385809
            ]
        },
        {
            "positions": [
                1.5378854956291017,
                -1.3828000854694737,
                -0.5880958539869834,
                -1.961131601112582,
                -1.4223077057501026,
                -1.2603647682939125
            ]
        },
        {
            "positions": [
                1.4485226459495721,
                -1.3934508889597093,
                -0.4856710332075924,
                -1.9928685704229339,
                -1.4108739221150282,
                -1.3913174202492442
            ]
        },
        {
            "positions": [
                1.3591597962700426,
                -1.4041016924499445,
                -0.38324621242820145,
                -2.024605539733286,
                -1.3994401384799535,
                -1.5222700722045759
            ]
        },
        {
            "positions": [
                1.2697969465905132,
                -1.41475249594018,
                -0.28082139164881026,
                -2.056342509043638,
                -1.388006354844879,
                -1.6532227241599076
            ]
        },
        {
            "positions": [
                1.1804340969109837,
                -1.4254032994304153,
                -0.17839657086941935,
                -2.0880794783539898,
                -1.3765725712098047,
                -1.7841753761152395
            ]
        },
        {
            "positions": [
                1.1005059576539247,
                -1.4173259314988655,
                -0.05572344252303485,
                -2.05029235696822,
                -1.3292612423563535,
                -1.8555868988124913
            ]
        },
        {
            "positions": [
                1.0205778183968655,
                -1.4092485635673158,
                0.06694968582334965,
                -2.01250523558245,
                -1.2819499135029022,
                -1.9269984215097429
            ]
        },
        {
            "positions": [
                0.9406496791398065,
                -1.401171195635766,
                0.18962281416973414,
                -1.9747181141966803,
                -1.2346385846494512,
                -1.9984099442069947
            ]
        },
        {
            "positions": [
                0.8607215398827474,
                -1.3930938277042162,
                0.31229594251611864,
                -1.9369309928109104,
                -1.187327255796,
                -2.0698214669042465
            ]
        },
        {
            "positions": [
                0.7807934006256882,
                -1.3850164597726664,
                0.4349690708625032,
                -1.8991438714251405,
                -1.1400159269425487,
                -2.141232989601498
            ]
        },
        {
            "positions": [
                0.7008652613686293,
                -1.3769390918411166,
                0.5576421992088876,
                -1.8613567500393708,
                -1.0927045980890977,
                -2.2126445122987497
            ]
        },
        {
            "positions": [
                0.62093712211157,
                -1.3688617239095668,
                0.6803153275552722,
                -1.823569628653601,
                -1.0453932692356465,
                -2.2840560349960017
            ]
        },
        {
            "positions": [
                0.541008982854511,
                -1.360784355978017,
                0.8029884559016567,
                -1.785782507267831,
                -0.9980819403821952,
                -2.3554675576932533
            ]
        },
        {
            "positions": [
                0.46108084359745194,
                -1.3527069880464673,
                0.9256615842480411,
                -1.7479953858820612,
                -0.950770611528744,
                -2.426879080390505
            ]
        },
        {
            "positions": [
                0.38115270434039283,
                -1.3446296201149175,
                1.0483347125944258,
                -1.7102082644962913,
                -0.9034592826752929,
                -2.4982906030877565
            ]
        },
        {
            "positions": [
                0.30122456508333384,
                -1.3365522521833677,
                1.1710078409408102,
                -1.6724211431105216,
                -0.8561479538218417,
                -2.5697021257850086
            ]
        },
        {
            "positions": [
                0.2212964258262747,
                -1.328474884251818,
                1.2936809692871947,
                -1.6346340217247517,
                -0.8088366249683905,
                -2.64111364848226
            ]
        },
        {
            "positions": [
                0.1812732372137271,
                -1.311950744226719,
                1.391975128865577,
                -1.5617288056862313,
                -0.7262284264417863,
                -2.698256806293989
            ]
        },
        {
            "positions": [
                0.14125004860117946,
                -1.2954266042016203,
                1.4902692884439592,
                -1.4888235896477109,
                -0.6436202279151821,
                -2.7553999641057176
            ]
        },
        {
            "positions": [
                0.10122685998863185,
                -1.2789024641765214,
                1.5885634480223416,
                -1.4159183736091905,
                -0.561012029388578,
                -2.8125431219174466
            ]
        },
        {
            "positions": [
                0.10477080513566436,
                -1.2567552655203227,
                1.6544868756181135,
                -1.3189005702945573,
                -0.4462890234807234,
                -2.869573744353825
            ]
        },
        {
            "positions": [
                0.1083147502826969,
                -1.2346080668641242,
                1.7204103032138856,
                -1.2218827669799242,
                -0.33156601757286885,
                -2.9266043667902037
            ]
        },
        {
            "positions": [
                0.11185869542972941,
                -1.2124608682079254,
                1.7863337308096574,
                -1.124864963665291,
                -0.21684301166501424,
                -2.9836349892265828
            ]
        },
        {
            "positions": [
                0.11540264057676193,
                -1.1903136695517267,
                1.8522571584054293,
                -1.027847160350658,
                -0.10212000575715968,
                -3.0406656116629613
            ]
        },
        {
            "positions": [
                0.11894658572379446,
                -1.1681664708955282,
                1.9181805860012013,
                -0.9308293570360247,
                0.012603000150694932,
                -3.09769623409934
            ]
        },
        {
            "positions": [
                0.12249053087082698,
                -1.1460192722393294,
                1.9841040135969732,
                -0.8338115537213916,
                0.12732600605854946,
                -3.1547268565357185
            ]
        }
    ]
}