{
    "goal": {
        "global_pose": {
            "orientation": {
                "w": -0.4816463035849501,
                "x": 0.5182115481033762,
                "y": 0.4908360881923453,
                "z": -0.5084816262002911
            },
            "position": {
                "x": -0.8240239810943604,
                "y": -0.300875300988555,
                "z": 0.16403168439865112
            }
        },
        "name": "move_to_storage_C"
    },
    "id": "PRMstar_move_to_storage_C_121",
    "joint_names": [
        "shoulder_pan_joint",
        "shoulder_lift_joint",
        "elbow_joint",
        "wrist_1_joint",
        "wrist_2_joint",
        "wrist_3_joint"
    ],
    "metrics": {
        "cart_traj_len": 0.5765108753618922,
        "distance_elbow_joint": 0.2542323661126047,
        "distance_shoulder_lift_joint": 0.18843389753782125,
        "distance_shoulder_pan_joint": 0.4946001288783526,
        "distance_wrist_1_joint": 0.06514933677391266,
        "distance_wrist_2_joint": 1.0705214873601698,
        "distance_wrist_3_joint": 0.06109209470989985,
        "smoothness": 7.612957943425664e-16,
        "time": 5.005620134999999,
        "traj_len": 1.4608317190466398,
        "weighted_distance": 1.8417069052720205
    },
    "planner": "PRMstar",
    "start": {
        "state": {
            "elbow_joint": 2.010868314990456,
            "shoulder_lift_joint": -1.1634956873337592,
            "shoulder_pan_joint": -2.4736205022346125,
            "wrist_1_joint": -0.8367026794202681,
            "wrist_2_joint": 0.6746043897044499,
            "wrist_3_joint": -3.1496632123970403
        }
    },
    "waypoints": [
        {
            "positions": [
                -2.4736205022346125,
                -1.1634956873337592,
                2.010868314990456,
                -0.8367026794202681,
                0.6746043897044499,
                -3.1496632123970403
            ]
        },
        {
            "positions": [
                -2.5560538570476714,
                -1.1320900377441223,
                1.9684962539716884,
                -0.825844456624616,
                0.8530246375978116,
                -3.139481196612057
            ]
        },
        {
            "positions": [
                -2.63848721186073,
                -1.1006843881544854,
                1.926124192952921,
                -0.8149862338289638,
                1.0314448854911733,
                -3.129299180827074
            ]
        },
        {
            "positions": [
                -2.720920566673789,
                -1.0692787385648486,
                1.8837521319341535,
                -0.8041280110333118,
                1.2098651333845347,
                -3.1191171650420904
            ]
        },
        {
            "positions": [
                -2.8033539214868477,
                -1.0378730889752117,
                1.841380070915386,
                -0.7932697882376597,
                1.3882853812778966,
                -3.108935149257107
            ]
        },
        {
            "positions": [
                -2.885787276299906,
                -1.0064674393855748,
                1.7990080098966186,
                -0.7824115654420075,
                1.566705629171258,
                -3.098753133472124
            ]
        },
        {
            "positions": [
                -2.968220631112965,
                -0.9750617897959379,
                1.7566359488778511,
                -0.7715533426463554,
                1.7451258770646199,
                -3.0885711176871404
            ]
        }
    ]
}