{
    "goal": {
        "global_pose": {
            "orientation": {
                "w": 0.5084816217422485,
                "x": -0.49083608388900757,
                "y": 0.5182115435600281,
                "z": -0.4816462993621826
            },
            "position": {
                "x": 0.5540239810943604,
                "y": 0.030875300988554955,
                "z": 0.16403168439865112
            }
        },
        "name": "move_to_storage_A"
    },
    "id": "PRMstar_move_to_storage_A_105",
    "joint_names": [
        "shoulder_pan_joint",
        "shoulder_lift_joint",
        "elbow_joint",
        "wrist_1_joint",
        "wrist_2_joint",
        "wrist_3_joint"
    ],
    "metrics": {
        "cart_traj_len": 0.35268375571630095,
        "distance_elbow_joint": 0.4473536588147853,
        "distance_shoulder_lift_joint": 0.23545928695011775,
        "distance_shoulder_pan_joint": 0.4626640076981042,
        "distance_wrist_1_joint": 0.23422716434248703,
        "distance_wrist_2_joint": 1.0915170581175968,
        "distance_wrist_3_joint": 0.09151924168767023,
        "smoothness": 0.0,
        "time": 5.006011374,
        "traj_len": 1.600856151442334,
        "weighted_distance": 2.017801557003608
    },
    "planner": "PRMstar",
    "start": {
        "state": {
            "elbow_joint": 1.971548259319323,
            "shoulder_lift_joint": -1.1394851275133948,
            "shoulder_pan_joint": 0.1228115487234821,
            "wrist_1_joint": -0.7804723859257726,
            "wrist_2_joint": 0.12958671773740124,
            "wrist_3_joint": -3.192489227718131
        }
    },
    "waypoints": [
        {
            "positions": [
                0.1228115487234821,
                -1.1394851275133948,
                1.971548259319323,
                -0.7804723859257726,
                0.12958671773740124,
                -3.192489227718131
            ]
        },
        {
            "positions": [
                0.056716690480895796,
                -1.1731221685062687,
                2.0354559248642925,
                -0.8139334094032707,
                0.2855177260399151,
                -3.1794150503341783
            ]
        },
        {
            "positions": [
                -0.009378167761690509,
                -1.2067592094991428,
                2.099363590409262,
                -0.8473944328807689,
                0.44144873434242893,
                -3.1663408729502254
            ]
        },
        {
            "positions": [
                -0.07547302600427683,
                -1.2403962504920167,
                2.163271255954231,
                -0.880855456358267,
                0.5973797426449428,
                -3.1532666955662725
            ]
        },
        {
            "positions": [
                -0.14156788424686312,
                -1.2740332914848906,
                2.2271789214992004,
                -0.9143164798357653,
                0.7533107509474566,
                -3.1401925181823196
            ]
        },
        {
            "positions": [
                -0.20766274248944944,
                -1.3076703324777648,
                2.2910865870441697,
                -0.9477775033132634,
                0.9092417592499704,
                -3.1271183407983667
            ]
        },
        {
            "positions": [
                -0.27375760073203576,
                -1.3413073734706387,
                2.354994252589139,
                -0.9812385267907615,
                1.0651727675524842,
                -3.114044163414414
            ]
        },
        {
            "positions": [
                -0.3398524589746221,
                -1.3749444144635126,
                2.4189019181341083,
                -1.0146995502682596,
                1.221103775854998,
                -3.100969986030461
            ]
        }
    ]
}{
    "goal": {
        "global_pose": {
            "orientation": {
                "w": 0.5084816217422485,
                "x": -0.49083608388900757,
                "y": 0.5182115435600281,
                "z": -0.4816462993621826
            },
            "position": {
                "x": 0.5540239810943604,
                "y": 0.030875300988554955,
                "z": 0.16403168439865112
            }
        },
        "name": "move_to_storage_A"
    },
    "id": "PRMstar_move_to_storage_A_105",
    "joint_names": [
        "shoulder_pan_joint",
        "shoulder_lift_joint",
        "elbow_joint",
        "wrist_1_joint",
        "wrist_2_joint",
        "wrist_3_joint"
    ],
    "metrics": {
        "cart_traj_len": 0.3537540472196467,
        "distance_elbow_joint": 0.4492727481771901,
        "distance_shoulder_lift_joint": 0.23546516439028986,
        "distance_shoulder_pan_joint": 0.46247532695682014,
        "distance_wrist_1_joint": 0.237000240366962,
        "distance_wrist_2_joint": 1.101140281096963,
        "distance_wrist_3_joint": 0.08809637595737163,
        "smoothness": 0.0,
        "time": 5.01173678,
        "traj_len": 1.6041976614325295,
        "weighted_distance": 2.0218267508182457
    },
    "planner": "PRMstar",
    "start": {
        "state": {
            "elbow_joint": 1.97154746011099,
            "shoulder_lift_joint": -1.13948474672311,
            "shoulder_pan_joint": 0.12281154466712228,
            "wrist_1_joint": -0.7804688027058302,
            "wrist_2_joint": 0.12958655903071145,
            "wrist_3_joint": 3.0906928834467795
        }
    },
    "waypoints": [
        {
            "positions": [
                0.12281154466712228,
                -1.13948474672311,
                1.97154746011099,
                -0.7804688027058302,
                0.12958655903071145,
                3.0906928834467795
            ]
        },
        {
            "positions": [
                0.05674364081614798,
                -1.1731226273502942,
                2.03572928127916,
                -0.8143259799011104,
                0.2868923134731347,
                3.1032780800121182
            ]
        },
        {
            "positions": [
                -0.009324263034826322,
                -1.2067605079774786,
                2.09991110244733,
                -0.8481831570963907,
                0.44419806791555805,
                3.115863276577457
            ]
        },
        {
            "positions": [
                -0.07539216688580062,
                -1.2403983886046628,
                2.1640929236154998,
                -0.8820403342916711,
                0.6015038223579813,
                3.1284484731427957
            ]
        },
        {
            "positions": [
                -0.1414600707367749,
                -1.274036269231847,
                2.22827474478367,
                -0.9158975114869513,
                0.7588095768004046,
                3.141033669708135
            ]
        },
        {
            "positions": [
                -0.20752797458774924,
                -1.3076741498590314,
                2.29245656595184,
                -0.9497546886822317,
                0.916115331242828,
                3.1536188662734737
            ]
        },
        {
            "positions": [
                -0.2735958784387235,
                -1.3413120304862156,
                2.35663838712001,
                -0.9836118658775119,
                1.073421085685251,
                3.1662040628388124
            ]
        },
        {
            "positions": [
                -0.33966378228969785,
                -1.3749499111133998,
                2.42082020828818,
                -1.0174690430727922,
                1.2307268401276745,
                3.178789259404151
            ]
        }
    ]
}{
    "goal": {
        "global_pose": {
            "orientation": {
                "w": 0.5084816217422485,
                "x": -0.49083608388900757,
                "y": 0.5182115435600281,
                "z": -0.4816462993621826
            },
            "position": {
                "x": 0.5540239810943604,
                "y": 0.030875300988554955,
                "z": 0.16403168439865112
            }
        },
        "name": "move_to_storage_A"
    },
    "id": "PRMstar_move_to_storage_A_105",
    "joint_names": [
        "shoulder_pan_joint",
        "shoulder_lift_joint",
        "elbow_joint",
        "wrist_1_joint",
        "wrist_2_joint",
        "wrist_3_joint"
    ],
    "metrics": {
        "cart_traj_len": 0.353319922899947,
        "distance_elbow_joint": 0.4487719352483692,
        "distance_shoulder_lift_joint": 0.23277975988820776,
        "distance_shoulder_pan_joint": 0.4638388526759104,
        "distance_wrist_1_joint": 0.24155590355911527,
        "distance_wrist_2_joint": 1.090315396292973,
        "distance_wrist_3_joint": 0.09708897895899105,
        "smoothness": 4.440892098500626e-16,
        "time": 5.009103575,
        "traj_len": 1.6044783658945254,
        "weighted_distance": 2.024944464520851
    },
    "planner": "PRMstar",
    "start": {
        "state": {
            "elbow_joint": 1.9715472970024885,
            "shoulder_lift_joint": -1.1394870060712896,
            "shoulder_pan_joint": 0.12281152778156021,
            "wrist_1_joint": -0.780463741449964,
            "wrist_2_joint": 0.12958659822042276,
            "wrist_3_joint": 3.090690232415272
        }
    },
    "waypoints": [
        {
            "positions": [
                0.12281152778156021,
                -1.1394870060712896,
                1.9715472970024885,
                -0.780463741449964,
                0.12958659822042276,
                3.090690232415272
            ]
        },
        {
            "positions": [
                0.05654883454214445,
                -1.1727412574838907,
                2.0356575734665414,
                -0.8149717276726948,
                0.28534594054799034,
                3.1045600865522704
            ]
        },
        {
            "positions": [
                -0.009713858697271316,
                -1.2059955088964918,
                2.099767849930594,
                -0.8494797138954255,
                0.44110528287555795,
                3.1184299406892695
            ]
        },
        {
            "positions": [
                -0.07597655193668709,
                -1.2392497603090928,
                2.1638781263946467,
                -0.8839877001181562,
                0.5968646252031254,
                3.132299794826268
            ]
        },
        {
            "positions": [
                -0.14223924517610284,
                -1.272504011721694,
                2.2279884028586996,
                -0.918495686340887,
                0.752623967530693,
                3.1461696489632667
            ]
        },
        {
            "positions": [
                -0.20850193841551865,
                -1.3057582631342952,
                2.2920986793227525,
                -0.9530036725636177,
                0.9083833098582607,
                3.1600395031002653
            ]
        },
        {
            "positions": [
                -0.27476463165493437,
                -1.3390125145468963,
                2.356208955786805,
                -0.9875116587863485,
                1.0641426521858282,
                3.1739093572372643
            ]
        },
        {
            "positions": [
                -0.34102732489435017,
                -1.3722667659594974,
                2.4203192322508578,
                -1.0220196450090793,
                1.2199019945133958,
                3.187779211374263
            ]
        }
    ]
}