{
    "goal": {
        "global_pose": {
            "orientation": {
                "w": 0.005598929693374612,
                "x": 0.007748599140229565,
                "y": 0.7110244013736278,
                "z": -0.7031023480610252
            },
            "position": {
                "x": -0.8858502320852131,
                "y": -0.7141253447532654,
                "z": 0.3711530566215515
            }
        },
        "name": "move_to_auspresseinheit_C"
    },
    "id": "PRMstar_move_to_auspresseinheit_C_101",
    "joint_names": [
        "shoulder_pan_joint",
        "shoulder_lift_joint",
        "elbow_joint",
        "wrist_1_joint",
        "wrist_2_joint",
        "wrist_3_joint"
    ],
    "metrics": {
        "cart_traj_len": 0.4930191639123422,
        "distance_elbow_joint": 0.9940078416604938,
        "distance_shoulder_lift_joint": 0.32183732266800347,
        "distance_shoulder_pan_joint": 0.255644901228274,
        "distance_wrist_1_joint": 0.6563209783085511,
        "distance_wrist_2_joint": 1.3168050031591862,
        "distance_wrist_3_joint": 0.03402475551817963,
        "smoothness": 6.459479467149049e-16,
        "time": 5.012447748,
        "traj_len": 1.8917295796552656,
        "weighted_distance": 2.370615172280559
    },
    "planner": "PRMstar",
    "start": {
        "state": {
            "elbow_joint": 1.7527959577737207,
            "shoulder_lift_joint": -0.9740617694225068,
            "shoulder_pan_joint": -2.967991417825858,
            "wrist_1_joint": -0.759517768980727,
            "wrist_2_joint": 1.7443932448377408,
            "wrist_3_joint": -3.0840537646736568
        }
    },
    "waypoints": [
        {
            "positions": [
                -2.967991417825858,
                -0.9740617694225068,
                1.7527959577737207,
                -0.759517768980727,
                1.7443932448377408,
                -3.0840537646736568
            ]
        },
        {
            "positions": [
                -2.9424269277030306,
                -0.9418780371557064,
                1.6533951736076713,
                -0.6938856711498719,
                1.6127127445218221,
                -3.0874562402254746
            ]
        },
        {
            "positions": [
                -2.9168624375802032,
                -0.9096943048889061,
                1.553994389441622,
                -0.6282535733190168,
                1.4810322442059036,
                -3.090858715777293
            ]
        },
        {
            "positions": [
                -2.891297947457376,
                -0.8775105726221057,
                1.4545936052755726,
                -0.5626214754881617,
                1.349351743889985,
                -3.0942611913291107
            ]
        },
        {
            "positions": [
                -2.8657334573345485,
                -0.8453268403553054,
                1.3551928211095232,
                -0.49698937765730655,
                1.2176712435740664,
                -3.0976636668809285
            ]
        },
        {
            "positions": [
                -2.8401689672117207,
                -0.813143108088505,
                1.2557920369434736,
                -0.43135727982645145,
                1.0859907432581477,
                -3.101066142432747
            ]
        },
        {
            "positions": [
                -2.8146044770888934,
                -0.7809593758217047,
                1.1563912527774245,
                -0.36572518199559634,
                0.9543102429422291,
                -3.1044686179845646
            ]
        },
        {
            "positions": [
                -2.789039986966066,
                -0.7487756435549043,
                1.056990468611375,
                -0.3000930841647413,
                0.8226297426263105,
                -3.1078710935363825
            ]
        },
        {
            "positions": [
                -2.7634754968432387,
                -0.7165919112881041,
                0.9575896844453256,
                -0.23446098633388612,
                0.6909492423103918,
                -3.1112735690882003
            ]
        },
        {
            "positions": [
                -2.7379110067204113,
                -0.6844081790213037,
                0.8581889002792762,
                -0.16882888850303102,
                0.5592687419944731,
                -3.1146760446400186
            ]
        },
        {
            "positions": [
                -2.712346516597584,
                -0.6522244467545033,
                0.7587881161132268,
                -0.10319679067217595,
                0.4275882416785547,
                -3.1180785201918364
            ]
        }
    ]
}