{
    "goal": {
        "global_pose": {
            "orientation": {
                "w": 0.7031023480610252,
                "x": -0.7110244013736278,
                "y": 0.0077485991402295624,
                "z": 0.005598929693374583
            },
            "position": {
                "x": -0.8841497679147869,
                "y": 0.44412534475326537,
                "z": 0.3711530566215515
            }
        },
        "name": "move_to_auspresseinheit_D"
    },
    "id": "PRMstar_move_to_auspresseinheit_D_149",
    "joint_names": [
        "shoulder_pan_joint",
        "shoulder_lift_joint",
        "elbow_joint",
        "wrist_1_joint",
        "wrist_2_joint",
        "wrist_3_joint"
    ],
    "metrics": {
        "cart_traj_len": 0.34268677833878947,
        "distance_elbow_joint": 0.6354546924607245,
        "distance_shoulder_lift_joint": 0.11948692273126182,
        "distance_shoulder_pan_joint": 0.13335833332398536,
        "distance_wrist_1_joint": 0.525548129135669,
        "distance_wrist_2_joint": 1.4395029444401781,
        "distance_wrist_3_joint": 0.008890643909608809,
        "smoothness": 1.9737298371844314e-16,
        "time": 5.010558437,
        "traj_len": 1.6918160851586166,
        "weighted_distance": 2.2011528859660094
    },
    "planner": "PRMstar",
    "start": {
        "state": {
            "elbow_joint": -1.8275523626775212,
            "shoulder_lift_joint": -2.126789852344167,
            "shoulder_pan_joint": -0.03513704404078235,
            "wrist_1_joint": -2.347782403156801,
            "wrist_2_joint": -1.6058999987535132,
            "wrist_3_joint": -3.0880379163319196
        }
    },
    "waypoints": [
        {
            "positions": [
                -0.03513704404078235,
                -2.126789852344167,
                -1.8275523626775212,
                -2.347782403156801,
                -1.6058999987535132,
                -3.0880379163319196
            ]
        },
        {
            "positions": [
                -0.051806835706280516,
                -2.1417257176855746,
                -1.7481205261199306,
                -2.4134759192987594,
                -1.4259621306984909,
                -3.0891492468206208
            ]
        },
        {
            "positions": [
                -0.06847662737177869,
                -2.1566615830269824,
                -1.66868868956234,
                -2.479169435440718,
                -1.2460242626434685,
                -3.090260577309322
            ]
        },
        {
            "positions": [
                -0.08514641903727685,
                -2.17159744836839,
                -1.5892568530047495,
                -2.544862951582677,
                -1.0660863945884465,
                -3.091371907798023
            ]
        },
        {
            "positions": [
                -0.10181621070277502,
                -2.1865333137097975,
                -1.509825016447159,
                -2.6105564677246353,
                -0.8861485265334241,
                -3.0924832382867242
            ]
        },
        {
            "positions": [
                -0.1184860023682732,
                -2.2014691790512053,
                -1.4303931798895684,
                -2.676249983866594,
                -0.7062106584784018,
                -3.093594568775425
            ]
        },
        {
            "positions": [
                -0.13515579403377137,
                -2.216405044392613,
                -1.3509613433319778,
                -2.741943500008553,
                -0.5262727904233797,
                -3.094705899264126
            ]
        },
        {
            "positions": [
                -0.15182558569926954,
                -2.231340909734021,
                -1.2715295067743873,
                -2.8076370161505113,
                -0.3463349223683574,
                -3.0958172297528272
            ]
        },
        {
            "positions": [
                -0.16849537736476772,
                -2.2462767750754287,
                -1.1920976702167967,
                -2.87333053229247,
                -0.1663970543133351,
                -3.0969285602415284
            ]
        }
    ]
}