{
    "goal": {
        "global_pose": {
            "orientation": {
                "w": 0.7047431493862688,
                "x": -0.7094548369677653,
                "y": 0.0024358444001904,
                "z": -0.0022348060817251984
            },
            "position": {
                "x": -0.39052492380142206,
                "y": 0.3671506643295288,
                "z": 0.19426114857196808
            }
        },
        "name": "move_to_magneteinheit_D"
    },
    "id": "PRMstar_move_to_magneteinheit_D_126",
    "joint_names": [
        "shoulder_pan_joint",
        "shoulder_lift_joint",
        "elbow_joint",
        "wrist_1_joint",
        "wrist_2_joint",
        "wrist_3_joint"
    ],
    "metrics": {
        "cart_traj_len": 4.126846377096709,
        "distance_elbow_joint": 3.29908643861647,
        "distance_shoulder_lift_joint": 1.7442537501526532,
        "distance_shoulder_pan_joint": 3.6715154304482005,
        "distance_wrist_1_joint": 3.3808435115878126,
        "distance_wrist_2_joint": 1.3986966654349189,
        "distance_wrist_3_joint": 3.128440013393083,
        "smoothness": 0.8563226086045733,
        "time": 5.074214335,
        "traj_len": 4.077111208887137,
        "weighted_distance": 5.259206785575372
    },
    "planner": "PRMstar",
    "start": {
        "state": {
            "elbow_joint": 0.749534889911806,
            "shoulder_lift_joint": -0.6476975780787326,
            "shoulder_pan_joint": -2.711696901376241,
            "wrist_1_joint": -0.07506478083263063,
            "wrist_2_joint": 0.43296659715538205,
            "wrist_3_joint": -3.14703540197715
        }
    },
    "waypoints": [
        {
            "positions": [
                -2.711696901376241,
                -0.6476975780787326,
                0.749534889911806,
                -0.07506478083263063,
                0.43296659715538205,
                -3.14703540197715
            ]
        },
        {
            "positions": [
                -2.756097574544345,
                -0.6295362583461962,
                0.7314565105950331,
                0.016616766371353786,
                0.32515446787211394,
                -3.135697460412568
            ]
        },
        {
            "positions": [
                -2.8004982477124485,
                -0.6113749386136599,
                0.7133781312782602,
                0.1082983135753382,
                0.21734233858884583,
                -3.124359518847986
            ]
        },
        {
            "positions": [
                -2.8448989208805524,
                -0.5932136188811235,
                0.6952997519614874,
                0.19997986077932262,
                0.10953020930557775,
                -3.113021577283404
            ]
        },
        {
            "positions": [
                -2.7726381172586536,
                -0.7153861586331062,
                0.7079454607718041,
                0.1259122272404418,
                0.15584729019686064,
                -3.0753919206395612
            ]
        },
        {
            "positions": [
                -2.7003773136367553,
                -0.8375586983850889,
                0.7205911695821207,
                0.05184459370156097,
                0.20216437108814356,
                -3.0377622639957185
            ]
        },
        {
            "positions": [
                -2.6281165100148565,
                -0.9597312381370716,
                0.7332368783924373,
                -0.022223039837319852,
                0.24848145197942645,
                -3.0001326073518757
            ]
        },
        {
            "positions": [
                -2.555855706392958,
                -1.0819037778890543,
                0.745882587202754,
                -0.09629067337620068,
                0.29479853287070934,
                -2.9625029507080325
            ]
        },
        {
            "positions": [
                -2.4835949027710593,
                -1.2040763176410372,
                0.7585282960130707,
                -0.17035830691508153,
                0.3411156137619923,
                -2.9248732940641897
            ]
        },
        {
            "positions": [
                -2.411334099149161,
                -1.3262488573930198,
                0.7711740048233873,
                -0.24442594045396232,
                0.3874326946532751,
                -2.887243637420347
            ]
        },
        {
            "positions": [
                -2.339073295527262,
                -1.4484213971450026,
                0.783819713633704,
                -0.3184935739928431,
                0.43374977554455807,
                -2.849613980776504
            ]
        },
        {
            "positions": [
                -2.243005891041066,
                -1.4555335924538673,
                0.683175511290718,
                -0.23646186976182146,
                0.4149126386121163,
                -2.7607763343461804
            ]
        },
        {
            "positions": [
                -2.1469384865548697,
                -1.462645787762732,
                0.582531308947732,
                -0.1544301655307998,
                0.39607550167967454,
                -2.671938687915856
            ]
        },
        {
            "positions": [
                -2.0508710820686735,
                -1.4697579830715968,
                0.48188710660474604,
                -0.07239846129977812,
                0.3772383647472327,
                -2.5831010414855324
            ]
        },
        {
            "positions": [
                -1.9548036775824773,
                -1.4768701783804614,
                0.38124290426176005,
                0.009633242931243513,
                0.35840122781479095,
                -2.4942633950552087
            ]
        },
        {
            "positions": [
                -1.858736273096281,
                -1.483982373689326,
                0.2805987019187741,
                0.0916649471622652,
                0.3395640908823492,
                -2.4054257486248845
            ]
        },
        {
            "positions": [
                -1.7626688686100849,
                -1.4910945689981907,
                0.17995449957578813,
                0.17369665139328688,
                0.3207269539499074,
                -2.3165881021945607
            ]
        },
        {
            "positions": [
                -1.6666014641238884,
                -1.4982067643070556,
                0.07931029723280214,
                0.25572835562430857,
                0.30188981701746564,
                -2.227750455764237
            ]
        },
        {
            "positions": [
                -1.5705340596376922,
                -1.5053189596159202,
                -0.02133390511018385,
                0.33776005985533014,
                0.2830526800850238,
                -2.138912809333913
            ]
        },
        {
            "positions": [
                -1.474466655151496,
                -1.5124311549247849,
                -0.12197810745316984,
                0.4197917640863518,
                0.2642155431525821,
                -2.050075162903589
            ]
        },
        {
            "positions": [
                -1.3783992506652998,
                -1.5195433502336495,
                -0.22262230979615572,
                0.5018234683173735,
                0.24537840622014032,
                -1.9612375164732652
            ]
        },
        {
            "positions": [
                -1.2823318461791036,
                -1.5266555455425141,
                -0.3232665121391418,
                0.5838551725483951,
                0.22654126928769852,
                -1.8723998700429412
            ]
        },
        {
            "positions": [
                -1.1862644416929073,
                -1.533767740851379,
                -0.4239107144821277,
                0.6658868767794168,
                0.20770413235525675,
                -1.7835622236126172
            ]
        },
        {
            "positions": [
                -1.090197037206711,
                -1.5408799361602437,
                -0.5245549168251136,
                0.7479185810104385,
                0.188866995422815,
                -1.6947245771822934
            ]
        },
        {
            "positions": [
                -0.9941296327205147,
                -1.5479921314691083,
                -0.6251991191680997,
                0.8299502852414602,
                0.17002985849037322,
                -1.6058869307519694
            ]
        },
        {
            "positions": [
                -0.8980622282343182,
                -1.555104326777973,
                -0.7258433215110858,
                0.9119819894724819,
                0.1511927215579314,
                -1.5170492843216454
            ]
        },
        {
            "positions": [
                -0.8019948237481223,
                -1.5622165220868376,
                -0.8264875238540716,
                0.9940136937035033,
                0.13235558462548963,
                -1.4282116378913217
            ]
        },
        {
            "positions": [
                -0.7059274192619258,
                -1.5693287173957025,
                -0.9271317261970577,
                1.0760453979345252,
                0.11351844769304786,
                -1.3393739914609974
            ]
        },
        {
            "positions": [
                -0.6098600147757298,
                -1.576440912704567,
                -1.0277759285400436,
                1.1580771021655467,
                0.0946813107606061,
                -1.2505363450306737
            ]
        },
        {
            "positions": [
                -0.5137926102895334,
                -1.5835531080134317,
                -1.1284201308830297,
                1.2401088063965686,
                0.07584417382816427,
                -1.1616986986003497
            ]
        },
        {
            "positions": [
                -0.4177252058033374,
                -1.5906653033222964,
                -1.2290643332260154,
                1.32214051062759,
                0.05700703689572256,
                -1.072861052170026
            ]
        },
        {
            "positions": [
                -0.3216578013171407,
                -1.5977774986311613,
                -1.3297085355690017,
                1.404172214858612,
                0.03816989996328074,
                -0.9840234057397019
            ]
        },
        {
            "positions": [
                -0.22559039683094495,
                -1.604889693940026,
                -1.4303527379119876,
                1.4862039190896335,
                0.019332763030838973,
                -0.8951857593093782
            ]
        },
        {
            "positions": [
                -0.1295229923447483,
                -1.6120018892488905,
                -1.5309969402549735,
                1.5682356233206551,
                0.0004956260983972061,
                -0.806348112879054
            ]
        },
        {
            "positions": [
                -0.033455587858552516,
                -1.6191140845577552,
                -1.6316411425979593,
                1.6502673275516768,
                -0.01834151083404456,
                -0.7175104664487302
            ]
        },
        {
            "positions": [
                0.06261181662764415,
                -1.62622627986662,
                -1.7322853449409457,
                1.7322990317826985,
                -0.037178647766486383,
                -0.6286728200184064
            ]
        },
        {
            "positions": [
                0.15867922111384036,
                -1.6333384751754847,
                -1.832929547283931,
                1.8143307360137202,
                -0.056015784698928095,
                -0.5398351735880826
            ]
        },
        {
            "positions": [
                0.25474662560003647,
                -1.6404506704843493,
                -1.9335737496269172,
                1.8963624402447419,
                -0.07485292163136992,
                -0.4509975271577583
            ]
        },
        {
            "positions": [
                0.22210186629591402,
                -1.730217478253284,
                -2.0120974805748677,
                1.8587321933064036,
                -0.05015293294789302,
                -0.3729610180987121
            ]
        },
        {
            "positions": [
                0.18945710699179158,
                -1.8199842860222186,
                -2.090621211522818,
                1.8211019463680653,
                -0.02545294426441612,
                -0.29492450903966594
            ]
        },
        {
            "positions": [
                0.15681234768766913,
                -1.9097510937911533,
                -2.1691449424707687,
                1.783471699429727,
                -0.000752955580939213,
                -0.2168879999806197
            ]
        },
        {
            "positions": [
                0.12416758838354669,
                -1.999517901560088,
                -2.247668673418719,
                1.7458414524913888,
                0.02394703310253768,
                -0.1388514909215735
            ]
        },
        {
            "positions": [
                0.04714538157184428,
                -2.070384278629108,
                -2.278879411404097,
                1.6903543441881999,
                0.059856547961612175,
                -0.10878746533719694
            ]
        },
        {
            "positions": [
                -0.02987682523985813,
                -2.1412506556981277,
                -2.3100901493894748,
                1.6348672358850111,
                0.09576606282068667,
                -0.07872343975282035
            ]
        },
        {
            "positions": [
                -0.10689903205156054,
                -2.2121170327671473,
                -2.3413008873748526,
                1.5793801275818224,
                0.13167557767976118,
                -0.04865941416844377
            ]
        },
        {
            "positions": [
                -0.18392123886326292,
                -2.2829834098361674,
                -2.3725116253602305,
                1.5238930192786335,
                0.16758509253883566,
                -0.018595388584067202
            ]
        }
    ]
}