{
    "goal": {
        "global_pose": {
            "orientation": {
                "w": -0.00223480608172531,
                "x": 0.0024358444001904467,
                "y": 0.7094548369677653,
                "z": -0.704743149386269
            },
            "position": {
                "x": 0.6205249238014221,
                "y": -0.6371506643295288,
                "z": 0.19426114857196808
            }
        },
        "name": "move_to_magneteinheit_B"
    },
    "id": "PRMstar_move_to_magneteinheit_B_27",
    "joint_names": [
        "shoulder_pan_joint",
        "shoulder_lift_joint",
        "elbow_joint",
        "wrist_1_joint",
        "wrist_2_joint",
        "wrist_3_joint"
    ],
    "metrics": {
        "cart_traj_len": 3.1095796840418832,
        "distance_elbow_joint": 4.312828802625607,
        "distance_shoulder_lift_joint": 1.0598488035074105,
        "distance_shoulder_pan_joint": 2.066673539436113,
        "distance_wrist_1_joint": 1.3353389476666604,
        "distance_wrist_2_joint": 1.2682456580058297,
        "distance_wrist_3_joint": 0.8082277310605869,
        "smoothness": 0.23616769940376414,
        "time": 5.071781827,
        "traj_len": 3.294110423513791,
        "weighted_distance": 3.8821648020268107
    },
    "planner": "PRMstar",
    "start": {
        "state": {
            "elbow_joint": 2.6216224122426386,
            "shoulder_lift_joint": -1.4174107377796124,
            "shoulder_pan_joint": 0.7066234856936794,
            "wrist_1_joint": 1.9546482284002225,
            "wrist_2_joint": -0.7096286983471962,
            "wrist_3_joint": 0.005740856962016249
        }
    },
    "waypoints": [
        {
            "positions": [
                0.7066234856936794,
                -1.4174107377796124,
                2.6216224122426386,
                1.9546482284002225,
                -0.7096286983471962,
                0.005740856962016249
            ]
        },
        {
            "positions": [
                0.7157792871373717,
                -1.5336720711112906,
                2.501481809488932,
                1.9907334336459372,
                -0.7186070644212869,
                -0.07388527173133115
            ]
        },
        {
            "positions": [
                0.724935088581064,
                -1.6499334044429688,
                2.381341206735225,
                2.026818638891652,
                -0.7275854304953775,
                -0.15351140042467853
            ]
        },
        {
            "positions": [
                0.7340908900247562,
                -1.7661947377746472,
                2.2612006039815182,
                2.062903844137367,
                -0.736563796569468,
                -0.23313752911802593
            ]
        },
        {
            "positions": [
                0.7432466914684486,
                -1.8824560711063254,
                2.141060001227811,
                2.0989890493830816,
                -0.7455421626435587,
                -0.31276365781137333
            ]
        },
        {
            "positions": [
                0.7524024929121409,
                -1.9987174044380036,
                2.0209193984741045,
                2.1350742546287966,
                -0.7545205287176493,
                -0.39238978650472073
            ]
        },
        {
            "positions": [
                0.845965233330652,
                -2.002666972025471,
                1.846182287015272,
                2.085578182032043,
                -0.7055990749859637,
                -0.3742822839281978
            ]
        },
        {
            "positions": [
                0.939527973749163,
                -2.006616539612938,
                1.6714451755564395,
                2.0360821094352897,
                -0.6566776212542781,
                -0.3561747813516749
            ]
        },
        {
            "positions": [
                1.033090714167674,
                -2.010566107200405,
                1.4967080640976067,
                1.9865860368385364,
                -0.6077561675225925,
                -0.33806727877515197
            ]
        },
        {
            "positions": [
                1.126653454586185,
                -2.014515674787872,
                1.3219709526387742,
                1.9370899642417831,
                -0.5588347137909069,
                -0.31995977619862903
            ]
        },
        {
            "positions": [
                1.2202161950046961,
                -2.0184652423753393,
                1.1472338411799416,
                1.8875938916450297,
                -0.5099132600592213,
                -0.30185227362210615
            ]
        },
        {
            "positions": [
                1.3137789354232072,
                -2.0224148099628065,
                0.9724967297211091,
                1.8380978190482764,
                -0.4609918063275357,
                -0.28374477104558327
            ]
        },
        {
            "positions": [
                1.4073416758417183,
                -2.0263643775502733,
                0.7977596182622766,
                1.788601746451523,
                -0.4120703525958501,
                -0.26563726846906033
            ]
        },
        {
            "positions": [
                1.5009044162602292,
                -2.0303139451377405,
                0.6230225068034438,
                1.7391056738547697,
                -0.3631488988641645,
                -0.2475297658925374
            ]
        },
        {
            "positions": [
                1.5944671566787405,
                -2.034263512725208,
                0.4482853953446113,
                1.6896096012580162,
                -0.3142274451324789,
                -0.22942226331601448
            ]
        },
        {
            "positions": [
                1.6880298970972514,
                -2.038213080312675,
                0.2735482838857788,
                1.6401135286612627,
                -0.2653059914007933,
                -0.21131476073949157
            ]
        },
        {
            "positions": [
                1.7815926375157627,
                -2.042162647900142,
                0.09881117242694604,
                1.5906174560645092,
                -0.2163845376691077,
                -0.19320725816296863
            ]
        },
        {
            "positions": [
                1.8751553779342736,
                -2.046112215487609,
                -0.07592593903188627,
                1.5411213834677562,
                -0.16746308393742215,
                -0.17509975558644575
            ]
        },
        {
            "positions": [
                1.9687181183527847,
                -2.0500617830750762,
                -0.250663050490719,
                1.4916253108710027,
                -0.11854163020573649,
                -0.1569922530099228
            ]
        },
        {
            "positions": [
                2.0622808587712957,
                -2.0540113506625435,
                -0.4254001619495513,
                1.4421292382742492,
                -0.06962017647405094,
                -0.13888475043339993
            ]
        },
        {
            "positions": [
                2.155843599189807,
                -2.0579609182500103,
                -0.6001372734083841,
                1.3926331656774957,
                -0.020698722742365283,
                -0.12077724785687699
            ]
        },
        {
            "positions": [
                2.249406339608318,
                -2.0619104858374775,
                -0.7748743848672168,
                1.3431370930807425,
                0.028222730989320266,
                -0.10266974528035405
            ]
        },
        {
            "positions": [
                2.342969080026829,
                -2.0658600534249447,
                -0.9496114963260496,
                1.293641020483989,
                0.07714418472100593,
                -0.08456224270383111
            ]
        },
        {
            "positions": [
                2.4365318204453397,
                -2.069809621012412,
                -1.1243486077848819,
                1.2441449478872357,
                0.12606563845269148,
                -0.06645474012730823
            ]
        },
        {
            "positions": [
                2.530094560863851,
                -2.0737591885998787,
                -1.2990857192437146,
                1.1946488752904822,
                0.17498709218437714,
                -0.048347237550785294
            ]
        },
        {
            "positions": [
                2.6236573012823623,
                -2.077708756187346,
                -1.473822830702547,
                1.145152802693729,
                0.22390854591606268,
                -0.03023973497426241
            ]
        },
        {
            "positions": [
                2.717220041700873,
                -2.081658323774813,
                -1.6485599421613797,
                1.0956567300969755,
                0.27282999964774834,
                -0.01213223239773947
            ]
        },
        {
            "positions": [
                2.7147179729161937,
                -2.181627101191893,
                -1.6644032436046827,
                1.0604196768237055,
                0.3295959759885555,
                0.0024611278417376696
            ]
        },
        {
            "positions": [
                2.712215904131514,
                -2.2815958786089725,
                -1.6802465450479855,
                1.0251826235504353,
                0.3863619523293626,
                0.01705448808121481
            ]
        },
        {
            "positions": [
                2.661143058271954,
                -2.477259541287023,
                -1.6692866997130025,
                0.9801613331907105,
                0.46883329891772746,
                0.016401675073300735
            ]
        }
    ]
}