{
    "goal": {
        "global_pose": {
            "orientation": {
                "w": 0.005598929693374612,
                "x": 0.007748599140229565,
                "y": 0.7110244013736278,
                "z": -0.7031023480610252
            },
            "position": {
                "x": 0.1141497679147869,
                "y": -0.7141253447532654,
                "z": 0.3711530566215515
            }
        },
        "name": "move_to_auspresseinheit_B"
    },
    "id": "PRMstar_move_to_auspresseinheit_B_58",
    "joint_names": [
        "shoulder_pan_joint",
        "shoulder_lift_joint",
        "elbow_joint",
        "wrist_1_joint",
        "wrist_2_joint",
        "wrist_3_joint"
    ],
    "metrics": {
        "cart_traj_len": 0.5647463930392063,
        "distance_elbow_joint": 0.05821504544067313,
        "distance_shoulder_lift_joint": 0.2964985261726225,
        "distance_shoulder_pan_joint": 0.5794503293959299,
        "distance_wrist_1_joint": 0.31561492296754035,
        "distance_wrist_2_joint": 0.9849604058913548,
        "distance_wrist_3_joint": 0.0033585183283535436,
        "smoothness": 5.075305255429287e-16,
        "time": 5.005697927,
        "traj_len": 1.496027322008684,
        "weighted_distance": 1.8829206339386895
    },
    "planner": "PRMstar",
    "start": {
        "state": {
            "elbow_joint": 2.0193083361928714,
            "shoulder_lift_joint": -1.1220246554650708,
            "shoulder_pan_joint": -1.0952077554168747,
            "wrist_1_joint": -0.8559753972642168,
            "wrist_2_joint": 0.4759566250798843,
            "wrist_3_joint": -3.1240929996934557
        }
    },
    "waypoints": [
        {
            "positions": [
                -1.0952077554168747,
                -1.1220246554650708,
                2.0193083361928714,
                -0.8559753972642168,
                0.4759566250798843,
                -3.1240929996934557
            ]
        },
        {
            "positions": [
                -1.1917828103161963,
                -1.1714410764938412,
                2.009605828619426,
                -0.8033729101029601,
                0.6401166927284434,
                -3.12353324663873
            ]
        },
        {
            "positions": [
                -1.2883578652155179,
                -1.2208574975226116,
                1.9999033210459805,
                -0.7507704229417034,
                0.8042767603770025,
                -3.1229734935840043
            ]
        },
        {
            "positions": [
                -1.3849329201148395,
                -1.270273918551382,
                1.9902008134725349,
                -0.6981679357804467,
                0.9684368280255617,
                -3.1224137405292787
            ]
        },
        {
            "positions": [
                -1.481507975014161,
                -1.3196903395801525,
                1.9804983058990893,
                -0.64556544861919,
                1.1325968956741208,
                -3.1218539874745534
            ]
        },
        {
            "positions": [
                -1.578083029913483,
                -1.369106760608923,
                1.9707957983256439,
                -0.5929629614579331,
                1.29675696332268,
                -3.121294234419828
            ]
        },
        {
            "positions": [
                -1.6746580848128045,
                -1.4185231816376933,
                1.9610932907521983,
                -0.5403604742966764,
                1.4609170309712392,
                -3.120734481365102
            ]
        }
    ]
}