{
    "goal": {
        "global_pose": {
            "orientation": {
                "w": 0.7047431493862688,
                "x": -0.7094548369677653,
                "y": 0.0024358444001904,
                "z": -0.0022348060817251984
            },
            "position": {
                "x": -0.39052492380142206,
                "y": 0.3671506643295288,
                "z": 0.19426114857196808
            }
        },
        "name": "move_to_magneteinheit_D"
    },
    "id": "PRMstar_move_to_magneteinheit_D_36",
    "joint_names": [
        "shoulder_pan_joint",
        "shoulder_lift_joint",
        "elbow_joint",
        "wrist_1_joint",
        "wrist_2_joint",
        "wrist_3_joint"
    ],
    "metrics": {
        "cart_traj_len": 3.5671050433102636,
        "distance_elbow_joint": 3.5182772112220695,
        "distance_shoulder_lift_joint": 1.64125722351998,
        "distance_shoulder_pan_joint": 2.880372998574184,
        "distance_wrist_1_joint": 3.1768664928218024,
        "distance_wrist_2_joint": 1.810460423412356,
        "distance_wrist_3_joint": 4.04230468671559,
        "smoothness": 0.30559489809908624,
        "time": 5.05560464,
        "traj_len": 4.1315298663165905,
        "weighted_distance": 5.490125255941919
    },
    "planner": "PRMstar",
    "start": {
        "state": {
            "elbow_joint": 0.749534889911806,
            "shoulder_lift_joint": -0.6476975780787326,
            "shoulder_pan_joint": -2.711696901376241,
            "wrist_1_joint": -0.07506478083263063,
            "wrist_2_joint": 0.43296659715538205,
            "wrist_3_joint": -3.14703540197715
        }
    },
    "waypoints": [
        {
            "positions": [
                -2.711696901376241,
                -0.6476975780787326,
                0.749534889911806,
                -0.07506478083263063,
                0.43296659715538205,
                -3.14703540197715
            ]
        },
        {
            "positions": [
                -2.712704285163908,
                -0.6458581105372652,
                0.6940562926908701,
                0.07091631670235105,
                0.4729842860979132,
                -3.151521727339409
            ]
        },
        {
            "positions": [
                -2.7137116689515755,
                -0.6440186429957977,
                0.6385776954699343,
                0.21689741423733272,
                0.5130019750404443,
                -3.1560080527016683
            ]
        },
        {
            "positions": [
                -2.757352007335946,
                -0.6936016937358499,
                0.5358103103684244,
                0.34778437483385277,
                0.5269278087310529,
                -3.104978383112868
            ]
        },
        {
            "positions": [
                -2.8009923457203163,
                -0.7431847444759021,
                0.4330429252669146,
                0.4786713354303728,
                0.5408536424216615,
                -3.0539487135240675
            ]
        },
        {
            "positions": [
                -2.8446326841046865,
                -0.7927677952159542,
                0.33027554016540484,
                0.6095582960268928,
                0.5547794761122701,
                -3.0029190439352673
            ]
        },
        {
            "positions": [
                -2.888273022489057,
                -0.8423508459560064,
                0.227508155063895,
                0.740445256623413,
                0.5687053098028787,
                -2.951889374346467
            ]
        },
        {
            "positions": [
                -2.780501929185207,
                -0.8504939672975403,
                0.12025058317242222,
                0.8328652919526911,
                0.5253009138960556,
                -2.9776484681065516
            ]
        },
        {
            "positions": [
                -2.6727308358813575,
                -0.8586370886390743,
                0.012993011280949457,
                0.9252853272819691,
                0.4818965179892326,
                -3.0034075618666365
            ]
        },
        {
            "positions": [
                -2.5649597425775075,
                -0.8667802099806082,
                -0.09426456061052335,
                1.017705362611247,
                0.4384921220824095,
                -3.029166655626721
            ]
        },
        {
            "positions": [
                -2.4571886492736574,
                -0.8749233313221422,
                -0.20152213250199608,
                1.1101253979405252,
                0.3950877261755865,
                -3.054925749386806
            ]
        },
        {
            "positions": [
                -2.349417555969808,
                -0.8830664526636761,
                -0.3087797043934689,
                1.2025454332698033,
                0.3516833302687634,
                -3.0806848431468903
            ]
        },
        {
            "positions": [
                -2.241646462665958,
                -0.8912095740052101,
                -0.4160372762849417,
                1.2949654685990815,
                0.30827893436194037,
                -3.1064439369069747
            ]
        },
        {
            "positions": [
                -2.1338753693621078,
                -0.899352695346744,
                -0.5232948481764144,
                1.3873855039283596,
                0.2648745384551174,
                -3.1322030306670596
            ]
        },
        {
            "positions": [
                -2.026104276058258,
                -0.907495816688278,
                -0.6305524200678871,
                1.4798055392576375,
                0.22147014254829434,
                -3.157962124427144
            ]
        },
        {
            "positions": [
                -1.918333182754408,
                -0.9156389380298119,
                -0.7378099919593599,
                1.5722255745869158,
                0.17806574664147123,
                -3.183721218187229
            ]
        },
        {
            "positions": [
                -1.810562089450558,
                -0.9237820593713458,
                -0.8450675638508328,
                1.6646456099161937,
                0.1346613507346482,
                -3.2094803119473134
            ]
        },
        {
            "positions": [
                -1.702790996146708,
                -0.9319251807128798,
                -0.9523251357423056,
                1.7570656452454718,
                0.09125695482782514,
                -3.2352394057073983
            ]
        },
        {
            "positions": [
                -1.5950199028428582,
                -0.9400683020544137,
                -1.0595827076337785,
                1.84948568057475,
                0.04785255892100204,
                -3.2609984994674828
            ]
        },
        {
            "positions": [
                -1.4872488095390084,
                -0.9482114233959477,
                -1.166840279525251,
                1.9419057159040278,
                0.004448163014179052,
                -3.286757593227567
            ]
        },
        {
            "positions": [
                -1.3794777162351586,
                -0.9563545447374816,
                -1.2740978514167236,
                2.0343257512333057,
                -0.03895623289264394,
                -3.312516686987652
            ]
        },
        {
            "positions": [
                -1.2717066229313085,
                -0.9644976660790155,
                -1.3813554233081966,
                2.126745786562584,
                -0.08236062879946704,
                -3.3382757807477366
            ]
        },
        {
            "positions": [
                -1.1639355296274587,
                -0.9726407874205495,
                -1.4886129951996692,
                2.2191658218918624,
                -0.12576502470629003,
                -3.3640348745078215
            ]
        },
        {
            "positions": [
                -1.0561644363236087,
                -0.9807839087620834,
                -1.595870567091142,
                2.3115858572211403,
                -0.16916942061311313,
                -3.389793968267906
            ]
        },
        {
            "positions": [
                -0.9809051216060021,
                -1.066694093851985,
                -1.6934766623830328,
                2.310228508391688,
                -0.19903761310370072,
                -3.3069347168266425
            ]
        },
        {
            "positions": [
                -0.9056458068883954,
                -1.1526042789418869,
                -1.791082757674924,
                2.3088711595622358,
                -0.22890580559428828,
                -3.224075465385379
            ]
        },
        {
            "positions": [
                -0.8303864921707887,
                -1.2385144640317887,
                -1.888688852966815,
                2.3075138107327833,
                -0.25877399808487583,
                -3.1412162139441158
            ]
        },
        {
            "positions": [
                -0.755127177453182,
                -1.3244246491216904,
                -1.986294948258706,
                2.306156461903331,
                -0.2886421905754634,
                -3.0583569625028524
            ]
        },
        {
            "positions": [
                -0.6798678627355754,
                -1.4103348342115922,
                -2.083901043550597,
                2.3047991130738783,
                -0.31851038306605095,
                -2.975497711061589
            ]
        },
        {
            "positions": [
                -0.6046085480179688,
                -1.4962450193014938,
                -2.181507138842488,
                2.3034417642444263,
                -0.34837857555663854,
                -2.8926384596203256
            ]
        },
        {
            "positions": [
                -0.5293492333003622,
                -1.5821552043913956,
                -2.279113234134379,
                2.3020844154149738,
                -0.3782467680472261,
                -2.8097792081790622
            ]
        },
        {
            "positions": [
                -0.4540899185827555,
                -1.6680653894812973,
                -2.37671932942627,
                2.3007270665855213,
                -0.4081149605378137,
                -2.7269199567377984
            ]
        },
        {
            "positions": [
                -0.3788306038651489,
                -1.7539755745711991,
                -2.474325424718161,
                2.2993697177560692,
                -0.43798315302840124,
                -2.644060705296535
            ]
        },
        {
            "positions": [
                -0.3035712891475423,
                -1.839885759661101,
                -2.571931520010052,
                2.2980123689266168,
                -0.4678513455189888,
                -2.5612014538552716
            ]
        },
        {
            "positions": [
                -0.29364669380422104,
                -1.8766950239754128,
                -2.555530619901701,
                2.233292171720491,
                -0.41467092423207286,
                -2.3476417664134552
            ]
        },
        {
            "positions": [
                -0.2837220984608998,
                -1.9135042882897246,
                -2.5391297197933502,
                2.1685719745143652,
                -0.36149050294515694,
                -2.134082078971639
            ]
        },
        {
            "positions": [
                -0.27379750311757856,
                -1.9503135526040363,
                -2.522728819684999,
                2.1038517773082397,
                -0.3083100816582409,
                -1.9205223915298224
            ]
        },
        {
            "positions": [
                -0.26387290777425726,
                -1.9871228169183481,
                -2.506327919576648,
                2.0391315801021137,
                -0.255129660371325,
                -1.706962704088006
            ]
        },
        {
            "positions": [
                -0.253948312430936,
                -2.02393208123266,
                -2.489927019468297,
                1.974411382895988,
                -0.20194923908440904,
                -1.4934030166461894
            ]
        },
        {
            "positions": [
                -0.24402371708761478,
                -2.0607413455469716,
                -2.473526119359946,
                1.9096911856898622,
                -0.14876881779749307,
                -1.279843329204373
            ]
        },
        {
            "positions": [
                -0.23409912174429354,
                -2.0975506098612837,
                -2.457125219251595,
                1.8449709884837366,
                -0.0955883965105771,
                -1.0662836417625563
            ]
        },
        {
            "positions": [
                -0.2241745264009723,
                -2.1343598741755954,
                -2.440724319143244,
                1.7802507912776109,
                -0.04240797522366119,
                -0.8527239543207401
            ]
        },
        {
            "positions": [
                -0.21424993105765103,
                -2.1711691384899074,
                -2.4243234190348932,
                1.7155305940714851,
                0.010772446063254837,
                -0.6391642668789235
            ]
        },
        {
            "positions": [
                -0.20432533571432976,
                -2.207978402804219,
                -2.407922518926542,
                1.6508103968653591,
                0.06395286735017075,
                -0.42560457943710706
            ]
        },
        {
            "positions": [
                -0.19440074037100852,
                -2.2447876671185307,
                -2.391521618818191,
                1.5860901996592336,
                0.11713328863708666,
                -0.21204489199529064
            ]
        },
        {
            "positions": [
                -0.18447614502768728,
                -2.281596931432843,
                -2.37512071870984,
                1.5213700024531078,
                0.17031370992400272,
                0.001514795446525817
            ]
        }
    ]
}