{
    "goal": {
        "global_pose": {
            "orientation": {
                "w": -0.00223480608172531,
                "x": 0.0024358444001904467,
                "y": 0.7094548369677653,
                "z": -0.704743149386269
            },
            "position": {
                "x": 0.6205249238014221,
                "y": -0.6371506643295288,
                "z": 0.19426114857196808
            }
        },
        "name": "move_to_magneteinheit_B"
    },
    "id": "PRMstar_move_to_magneteinheit_B_112",
    "joint_names": [
        "shoulder_pan_joint",
        "shoulder_lift_joint",
        "elbow_joint",
        "wrist_1_joint",
        "wrist_2_joint",
        "wrist_3_joint"
    ],
    "metrics": {
        "cart_traj_len": 1.2949649992134173,
        "distance_elbow_joint": 0.9516548172917567,
        "distance_shoulder_lift_joint": 0.7531227512863433,
        "distance_shoulder_pan_joint": 1.6214613389973827,
        "distance_wrist_1_joint": 1.6354950656795841,
        "distance_wrist_2_joint": 1.9061942715511375,
        "distance_wrist_3_joint": 0.3182468998374637,
        "smoothness": 0.5215537648654237,
        "time": 5.030854767,
        "traj_len": 2.680704225505617,
        "weighted_distance": 3.3711063883463117
    },
    "planner": "PRMstar",
    "start": {
        "state": {
            "elbow_joint": 2.6216224122426386,
            "shoulder_lift_joint": -1.4174107377796124,
            "shoulder_pan_joint": 0.7066234856936794,
            "wrist_1_joint": 1.9546482284002225,
            "wrist_2_joint": -0.7096286983471962,
            "wrist_3_joint": 0.005740856962016249
        }
    },
    "waypoints": [
        {
            "positions": [
                0.7066234856936794,
                -1.4174107377796124,
                2.6216224122426386,
                1.9546482284002225,
                -0.7096286983471962,
                0.005740856962016249
            ]
        },
        {
            "positions": [
                0.5133740760475298,
                -1.3869947761869164,
                2.60987687304381,
                1.852255792628891,
                -0.6816512362950168,
                0.0292130659827742
            ]
        },
        {
            "positions": [
                0.3201246664013802,
                -1.3565788145942206,
                2.598131333844982,
                1.7498633568575594,
                -0.6536737742428373,
                0.052685275003532143
            ]
        },
        {
            "positions": [
                0.1268752567552306,
                -1.3261628530015246,
                2.5863857946461533,
                1.6474709210862277,
                -0.6256963121906579,
                0.0761574840242901
            ]
        },
        {
            "positions": [
                -0.06637415289091897,
                -1.2957468914088288,
                2.5746402554473247,
                1.5450784853148962,
                -0.5977188501384785,
                0.09962969304504804
            ]
        },
        {
            "positions": [
                -0.25962356253706864,
                -1.2653309298161328,
                2.562894716248496,
                1.4426860495435645,
                -0.5697413880862989,
                0.123101902065806
            ]
        },
        {
            "positions": [
                -0.4528729721832182,
                -1.234914968223437,
                2.551149177049668,
                1.340293613772233,
                -0.5417639260341195,
                0.14657411108656396
            ]
        },
        {
            "positions": [
                -0.6461223818293678,
                -1.204499006630741,
                2.5394036378508393,
                1.2379011780009015,
                -0.5137864639819401,
                0.1700463201073219
            ]
        },
        {
            "positions": [
                -0.6685153377855624,
                -1.159481421619285,
                2.4669506342758427,
                1.31446351260759,
                -0.6563158004140968,
                0.15721786704964208
            ]
        },
        {
            "positions": [
                -0.6909082937417569,
                -1.114463836607829,
                2.3944976307008465,
                1.3910258472142787,
                -0.7988451368462536,
                0.14438941399196223
            ]
        },
        {
            "positions": [
                -0.7133012496979515,
                -1.069446251596373,
                2.32204462712585,
                1.4675881818209673,
                -0.9413744732784104,
                0.1315609609342824
            ]
        },
        {
            "positions": [
                -0.7356942056541461,
                -1.024428666584917,
                2.2495916235508533,
                1.5441505164276559,
                -1.083903809710567,
                0.11873250787660258
            ]
        },
        {
            "positions": [
                -0.7580871616103406,
                -0.979411081573461,
                2.177138619975857,
                1.6207128510343445,
                -1.226433146142724,
                0.10590405481892273
            ]
        },
        {
            "positions": [
                -0.7804801175665352,
                -0.9343934965620051,
                2.1046856164008605,
                1.697275185641033,
                -1.3689624825748807,
                0.09307560176124291
            ]
        },
        {
            "positions": [
                -0.8028730735227299,
                -0.8893759115505491,
                2.0322326128258643,
                1.7738375202477217,
                -1.5114918190070377,
                0.08024714870356307
            ]
        },
        {
            "positions": [
                -0.8252660294789244,
                -0.844358326539093,
                1.9597796092508677,
                1.8503998548544103,
                -1.6540211554391941,
                0.06741869564588325
            ]
        },
        {
            "positions": [
                -0.847658985435119,
                -0.799340741527637,
                1.8873266056758713,
                1.9269621894610989,
                -1.796550491871351,
                0.054590242588203414
            ]
        },
        {
            "positions": [
                -0.8700519413913136,
                -0.754323156516181,
                1.814873602100875,
                2.0035245240677875,
                -1.939079828303508,
                0.04176178953052356
            ]
        },
        {
            "positions": [
                -0.8924448973475081,
                -0.7093055715047251,
                1.7424205985258783,
                2.080086858674476,
                -2.0816091647356645,
                0.028933336472843768
            ]
        },
        {
            "positions": [
                -0.9148378533037027,
                -0.664287986493269,
                1.6699675949508819,
                2.1566491932811647,
                -2.2241385011678214,
                0.016104883415163904
            ]
        }
    ]
}