{
    "goal": {
        "global_pose": {
            "orientation": {
                "w": 0.005598929693374612,
                "x": 0.007748599140229565,
                "y": 0.7110244013736278,
                "z": -0.7031023480610252
            },
            "position": {
                "x": -0.8858502320852131,
                "y": -0.7141253447532654,
                "z": 0.3711530566215515
            }
        },
        "name": "move_to_auspresseinheit_C"
    },
    "id": "PRMstar_move_to_auspresseinheit_C_100",
    "joint_names": [
        "shoulder_pan_joint",
        "shoulder_lift_joint",
        "elbow_joint",
        "wrist_1_joint",
        "wrist_2_joint",
        "wrist_3_joint"
    ],
    "metrics": {
        "cart_traj_len": 0.4932615813823479,
        "distance_elbow_joint": 0.9937523254420124,
        "distance_shoulder_lift_joint": 0.32207455721376665,
        "distance_shoulder_pan_joint": 0.25612855537416657,
        "distance_wrist_1_joint": 0.6551362129189826,
        "distance_wrist_2_joint": 1.3207652354324495,
        "distance_wrist_3_joint": 0.048252181104783354,
        "smoothness": 3.2297397080004555e-16,
        "time": 5.002462115,
        "traj_len": 1.896340968150549,
        "weighted_distance": 2.3808643132373506
    },
    "planner": "PRMstar",
    "start": {
        "state": {
            "elbow_joint": 1.7527959577737207,
            "shoulder_lift_joint": -0.9740617694225068,
            "shoulder_pan_joint": -2.967991417825858,
            "wrist_1_joint": -0.759517768980727,
            "wrist_2_joint": 1.7443932448377408,
            "wrist_3_joint": -3.0840537646736568
        }
    },
    "waypoints": [
        {
            "positions": [
                -2.967991417825858,
                -0.9740617694225068,
                1.7527959577737207,
                -0.759517768980727,
                1.7443932448377408,
                -3.0840537646736568
            ]
        },
        {
            "positions": [
                -2.9423785622884413,
                -0.9418543137011302,
                1.6534207252295194,
                -0.6940041476888287,
                1.612316721294496,
                -3.088878982784135
            ]
        },
        {
            "positions": [
                -2.9167657067510246,
                -0.9096468579797534,
                1.5540454926853182,
                -0.6284905263969305,
                1.480240197751251,
                -3.0937042008946136
            ]
        },
        {
            "positions": [
                -2.891152851213608,
                -0.8774394022583768,
                1.454670260141117,
                -0.5629769051050322,
                1.3481636742080059,
                -3.0985294190050916
            ]
        },
        {
            "positions": [
                -2.8655399956761913,
                -0.8452319465370001,
                1.3552950275969158,
                -0.4974632838131339,
                1.216087150664761,
                -3.10335463711557
            ]
        },
        {
            "positions": [
                -2.8399271401387747,
                -0.8130244908156234,
                1.2559197950527143,
                -0.4319496625212357,
                1.0840106271215162,
                -3.1081798552260484
            ]
        },
        {
            "positions": [
                -2.814314284601358,
                -0.7808170350942468,
                1.1565445625085133,
                -0.36643604122933743,
                0.9519341035782711,
                -3.113005073336527
            ]
        },
        {
            "positions": [
                -2.7887014290639414,
                -0.7486095793728701,
                1.057169329964312,
                -0.3009224199374392,
                0.8198575800350263,
                -3.1178302914470053
            ]
        },
        {
            "positions": [
                -2.7630885735265247,
                -0.7164021236514935,
                0.9577940974201107,
                -0.23540879864554087,
                0.6877810564917812,
                -3.1226555095574833
            ]
        },
        {
            "positions": [
                -2.737475717989108,
                -0.6841946679301167,
                0.8584188648759095,
                -0.16989517735364257,
                0.5557045329485362,
                -3.1274807276679617
            ]
        },
        {
            "positions": [
                -2.7118628624516914,
                -0.6519872122087401,
                0.7590436323317082,
                -0.10438155606174433,
                0.42362800940529133,
                -3.13230594577844
            ]
        }
    ]
}