{
    "goal": {
        "global_pose": {
            "orientation": {
                "w": 0.5084816217422485,
                "x": -0.49083608388900757,
                "y": 0.5182115435600281,
                "z": -0.4816462993621826
            },
            "position": {
                "x": 0.5540239810943604,
                "y": 0.030875300988554955,
                "z": 0.16403168439865112
            }
        },
        "name": "move_to_storage_A"
    },
    "id": "PRMstar_move_to_storage_A_129",
    "joint_names": [
        "shoulder_pan_joint",
        "shoulder_lift_joint",
        "elbow_joint",
        "wrist_1_joint",
        "wrist_2_joint",
        "wrist_3_joint"
    ],
    "metrics": {
        "cart_traj_len": 0.3536682182189656,
        "distance_elbow_joint": 0.4490521151023177,
        "distance_shoulder_lift_joint": 0.23678647825263122,
        "distance_shoulder_pan_joint": 0.4620409855656188,
        "distance_wrist_1_joint": 0.2340108288454007,
        "distance_wrist_2_joint": 1.103000050982249,
        "distance_wrist_3_joint": 0.08853842910763143,
        "smoothness": 0.0,
        "time": 5.003527662000001,
        "traj_len": 1.6041910384539146,
        "weighted_distance": 2.0217607736571512
    },
    "planner": "PRMstar",
    "start": {
        "state": {
            "elbow_joint": 1.971548259319323,
            "shoulder_lift_joint": -1.1394851275133948,
            "shoulder_pan_joint": 0.1228115487234821,
            "wrist_1_joint": -0.7804723859257726,
            "wrist_2_joint": 0.12958671773740124,
            "wrist_3_joint": -3.192489227718131
        }
    },
    "waypoints": [
        {
            "positions": [
                0.1228115487234821,
                -1.1394851275133948,
                1.971548259319323,
                -0.7804723859257726,
                0.12958671773740124,
                -3.192489227718131
            ]
        },
        {
            "positions": [
                0.056805693642679414,
                -1.1733117672637707,
                2.035698561476797,
                -0.8139025043322584,
                0.28715815359200825,
                -3.179840880702755
            ]
        },
        {
            "positions": [
                -0.009200161438123272,
                -1.2071384070141467,
                2.099848863634271,
                -0.8473326227387442,
                0.4447295894466152,
                -3.167192533687379
            ]
        },
        {
            "positions": [
                -0.07520601651892594,
                -1.2409650467645226,
                2.163999165791745,
                -0.88076274114523,
                0.6023010253012222,
                -3.154544186672003
            ]
        },
        {
            "positions": [
                -0.14121187159972864,
                -1.2747916865148983,
                2.2281494679492186,
                -0.9141928595517159,
                0.7598724611558293,
                -3.1418958396566277
            ]
        },
        {
            "positions": [
                -0.20721772668053134,
                -1.3086183262652742,
                2.292299770106693,
                -0.9476229779582017,
                0.9174438970104364,
                -3.1292474926412517
            ]
        },
        {
            "positions": [
                -0.273223581761334,
                -1.34244496601565,
                2.356450072264167,
                -0.9810530963646875,
                1.0750153328650431,
                -3.1165991456258757
            ]
        },
        {
            "positions": [
                -0.3392294368421367,
                -1.376271605766026,
                2.4206003744216407,
                -1.0144832147711733,
                1.2325867687196503,
                -3.1039507986104997
            ]
        }
    ]
}{
    "goal": {
        "global_pose": {
            "orientation": {
                "w": 0.5084816217422485,
                "x": -0.49083608388900757,
                "y": 0.5182115435600281,
                "z": -0.4816462993621826
            },
            "position": {
                "x": 0.5540239810943604,
                "y": 0.030875300988554955,
                "z": 0.16403168439865112
            }
        },
        "name": "move_to_storage_A"
    },
    "id": "PRMstar_move_to_storage_A_129",
    "joint_names": [
        "shoulder_pan_joint",
        "shoulder_lift_joint",
        "elbow_joint",
        "wrist_1_joint",
        "wrist_2_joint",
        "wrist_3_joint"
    ],
    "metrics": {
        "cart_traj_len": 0.35236312335870523,
        "distance_elbow_joint": 0.44928072443165856,
        "distance_shoulder_lift_joint": 0.23264101133239645,
        "distance_shoulder_pan_joint": 0.4586501383139145,
        "distance_wrist_1_joint": 0.2458238633834786,
        "distance_wrist_2_joint": 1.1053577930523037,
        "distance_wrist_3_joint": 0.08856392075866593,
        "smoothness": 1.1102230244806396e-15,
        "time": 5.013746706999999,
        "traj_len": 1.6063366556461374,
        "weighted_distance": 2.026974826983683
    },
    "planner": "PRMstar",
    "start": {
        "state": {
            "elbow_joint": 1.97154746011099,
            "shoulder_lift_joint": -1.13948474672311,
            "shoulder_pan_joint": 0.12281154466712228,
            "wrist_1_joint": -0.7804688027058302,
            "wrist_2_joint": 0.12958655903071145,
            "wrist_3_joint": 3.0906928834467795
        }
    },
    "waypoints": [
        {
            "positions": [
                0.12281154466712228,
                -1.13948474672311,
                1.97154746011099,
                -0.7804688027058302,
                0.12958655903071145,
                3.0906928834467795
            ]
        },
        {
            "positions": [
                0.05729009633656307,
                -1.1727191769134524,
                2.035730420744084,
                -0.8155864974748985,
                0.2874948151810406,
                3.103344872126589
            ]
        },
        {
            "positions": [
                -0.008231351993996147,
                -1.2059536071037946,
                2.099913381377178,
                -0.8507041922439669,
                0.4454030713313697,
                3.115996860806398
            ]
        },
        {
            "positions": [
                -0.07375280032455535,
                -1.239188037294137,
                2.1640963420102723,
                -0.8858218870130353,
                0.6033113274816988,
                3.1286488494862077
            ]
        },
        {
            "positions": [
                -0.13927424865511456,
                -1.2724224674844793,
                2.228279302643366,
                -0.9209395817821037,
                0.7612195836320279,
                3.1413008381660172
            ]
        },
        {
            "positions": [
                -0.2047956969856738,
                -1.3056568976748217,
                2.29246226327646,
                -0.9560572765511721,
                0.919127839782357,
                3.153952826845827
            ]
        },
        {
            "positions": [
                -0.27031714531623297,
                -1.338891327865164,
                2.3566452239095543,
                -0.9911749713202405,
                1.0770360959326861,
                3.166604815525636
            ]
        },
        {
            "positions": [
                -0.3358385936467922,
                -1.3721257580555064,
                2.4208281845426485,
                -1.0262926660893088,
                1.2349443520830152,
                3.1792568042054454
            ]
        }
    ]
}{
    "goal": {
        "global_pose": {
            "orientation": {
                "w": 0.5084816217422485,
                "x": -0.49083608388900757,
                "y": 0.5182115435600281,
                "z": -0.4816462993621826
            },
            "position": {
                "x": 0.5540239810943604,
                "y": 0.030875300988554955,
                "z": 0.16403168439865112
            }
        },
        "name": "move_to_storage_A"
    },
    "id": "PRMstar_move_to_storage_A_129",
    "joint_names": [
        "shoulder_pan_joint",
        "shoulder_lift_joint",
        "elbow_joint",
        "wrist_1_joint",
        "wrist_2_joint",
        "wrist_3_joint"
    ],
    "metrics": {
        "cart_traj_len": 0.3528047664960042,
        "distance_elbow_joint": 0.4504524531429843,
        "distance_shoulder_lift_joint": 0.23301272458045297,
        "distance_shoulder_pan_joint": 0.4618600055625514,
        "distance_wrist_1_joint": 0.2525021076967091,
        "distance_wrist_2_joint": 1.0948663216606187,
        "distance_wrist_3_joint": 0.08988480571127155,
        "smoothness": 0.0,
        "time": 5.006836489,
        "traj_len": 1.6070402665629095,
        "weighted_distance": 2.0272435618678037
    },
    "planner": "PRMstar",
    "start": {
        "state": {
            "elbow_joint": 1.9715472970024885,
            "shoulder_lift_joint": -1.1394870060712896,
            "shoulder_pan_joint": 0.12281152778156021,
            "wrist_1_joint": -0.780463741449964,
            "wrist_2_joint": 0.12958659822042276,
            "wrist_3_joint": 3.090690232415272
        }
    },
    "waypoints": [
        {
            "positions": [
                0.12281152778156021,
                -1.1394870060712896,
                1.9715472970024885,
                -0.780463741449964,
                0.12958659822042276,
                3.090690232415272
            ]
        },
        {
            "positions": [
                0.05683152698691002,
                -1.1727745381542114,
                2.0358976474514865,
                -0.8165354711209224,
                0.28599607274336825,
                3.1035309189454536
            ]
        },
        {
            "positions": [
                -0.00914847380774017,
                -1.2060620702371334,
                2.100247997900484,
                -0.8526072007918809,
                0.44240554726631376,
                3.116371605475635
            ]
        },
        {
            "positions": [
                -0.07512847460239036,
                -1.2393496023200552,
                2.164598348349482,
                -0.8886789304628393,
                0.5988150217892593,
                3.1292122920058167
            ]
        },
        {
            "positions": [
                -0.14110847539704055,
                -1.272637134402977,
                2.2289486987984795,
                -0.9247506601337978,
                0.7552244963122048,
                3.1420529785359985
            ]
        },
        {
            "positions": [
                -0.20708847619169077,
                -1.305924666485899,
                2.2932990492474774,
                -0.9608223898047562,
                0.9116339708351504,
                3.1548936650661803
            ]
        },
        {
            "positions": [
                -0.27306847698634096,
                -1.3392121985688208,
                2.357649399696475,
                -0.9968941194757146,
                1.0680434453580958,
                3.1677343515963616
            ]
        },
        {
            "positions": [
                -0.3390484777809912,
                -1.3724997306517426,
                2.421999750145473,
                -1.032965849146673,
                1.2244529198810414,
                3.1805750381265434
            ]
        }
    ]
}