{
    "goal": {
        "global_pose": {
            "orientation": {
                "w": -0.4816463035849501,
                "x": 0.5182115481033762,
                "y": 0.4908360881923453,
                "z": -0.5084816262002911
            },
            "position": {
                "x": -0.8240239810943604,
                "y": 0.19912469901144506,
                "z": 0.16403168439865112
            }
        },
        "name": "move_to_storage_D"
    },
    "id": "PRMstar_move_to_storage_D_17",
    "joint_names": [
        "shoulder_pan_joint",
        "shoulder_lift_joint",
        "elbow_joint",
        "wrist_1_joint",
        "wrist_2_joint",
        "wrist_3_joint"
    ],
    "metrics": {
        "cart_traj_len": 3.6638598515296166,
        "distance_elbow_joint": 4.207758328056112,
        "distance_shoulder_lift_joint": 1.2648523443111317,
        "distance_shoulder_pan_joint": 2.81157585653035,
        "distance_wrist_1_joint": 2.2610439820700226,
        "distance_wrist_2_joint": 1.9880917889302891,
        "distance_wrist_3_joint": 3.1335046350578537,
        "smoothness": 0.08166756279403667,
        "time": 5.045257962,
        "traj_len": 3.958134274497994,
        "weighted_distance": 5.1169299365998535
    },
    "planner": "PRMstar",
    "start": {
        "state": {
            "elbow_joint": -2.384821988534728,
            "shoulder_lift_joint": -2.2788054721415256,
            "shoulder_pan_joint": -0.1854694642142757,
            "wrist_1_joint": 1.4845938289331202,
            "wrist_2_joint": 0.17898776772866878,
            "wrist_3_joint": 0.037105688729662994
        }
    },
    "waypoints": [
        {
            "positions": [
                -0.1854694642142757,
                -2.2788054721415256,
                -2.384821988534728,
                1.4845938289331202,
                0.17898776772866878,
                0.037105688729662994
            ]
        },
        {
            "positions": [
                -0.10496576751724519,
                -2.26623873182039,
                -2.230919444552075,
                1.442660577255788,
                0.2319137153082484,
                -0.011121782342672519
            ]
        },
        {
            "positions": [
                -0.024462070820214676,
                -2.2536719914992545,
                -2.0770169005694212,
                1.4007273255784554,
                0.284839662887828,
                -0.05934925341500803
            ]
        },
        {
            "positions": [
                0.056041625876815826,
                -2.241105251178119,
                -1.923114356586768,
                1.358794073901123,
                0.3377656104674076,
                -0.10757672448734354
            ]
        },
        {
            "positions": [
                0.13654532257384636,
                -2.2285385108569837,
                -1.7692118126041145,
                1.3168608222237905,
                0.3906915580469872,
                -0.15580419555967906
            ]
        },
        {
            "positions": [
                0.21704901927087686,
                -2.215971770535848,
                -1.6153092686214614,
                1.2749275705464582,
                0.4436175056265669,
                -0.20403166663201455
            ]
        },
        {
            "positions": [
                0.29755271596790733,
                -2.2034050302147126,
                -1.461406724638808,
                1.232994318869126,
                0.49654345320614646,
                -0.25225913770435004
            ]
        },
        {
            "positions": [
                0.37805641266493795,
                -2.190838289893577,
                -1.3075041806561547,
                1.1910610671917934,
                0.549469400785726,
                -0.30048660877668554
            ]
        },
        {
            "positions": [
                0.45856010936196845,
                -2.1782715495724414,
                -1.1536016366735014,
                1.149127815514461,
                0.6023953483653056,
                -0.34871407984902114
            ]
        },
        {
            "positions": [
                0.539063806058999,
                -2.165704809251306,
                -0.999699092690848,
                1.1071945638371288,
                0.6553212959448853,
                -0.39694155092135663
            ]
        },
        {
            "positions": [
                0.6195675027560295,
                -2.1531380689301702,
                -0.8457965487081947,
                1.0652613121597962,
                0.7082472435244649,
                -0.4451690219936921
            ]
        },
        {
            "positions": [
                0.70007119945306,
                -2.1405713286090347,
                -0.6918940047255415,
                1.023328060482464,
                0.7611731911040445,
                -0.4933964930660276
            ]
        },
        {
            "positions": [
                0.7805748961500905,
                -2.1280045882878995,
                -0.5379914607428882,
                0.9813948088051314,
                0.814099138683624,
                -0.5416239641383631
            ]
        },
        {
            "positions": [
                0.8610785928471211,
                -2.115437847966764,
                -0.3840889167602346,
                0.9394615571277991,
                0.8670250862632037,
                -0.5898514352106986
            ]
        },
        {
            "positions": [
                0.9415822895441516,
                -2.1028711076456283,
                -0.23018637277758147,
                0.8975283054504667,
                0.9199510338427833,
                -0.6380789062830341
            ]
        },
        {
            "positions": [
                1.022085986241182,
                -2.0903043673244928,
                -0.0762838287949279,
                0.8555950537731343,
                0.972876981422363,
                -0.6863063773553697
            ]
        },
        {
            "positions": [
                1.1025896829382125,
                -2.077737627003357,
                0.07761871518772523,
                0.8136618020958019,
                1.0258029290019426,
                -0.7345338484277052
            ]
        },
        {
            "positions": [
                1.183093379635243,
                -2.0651708866822216,
                0.2315212591703788,
                0.7717285504184694,
                1.0787288765815222,
                -0.7827613195000407
            ]
        },
        {
            "positions": [
                1.2635970763322735,
                -2.052604146361086,
                0.38542380315303193,
                0.7297952987411371,
                1.1316548241611017,
                -0.8309887905723762
            ]
        },
        {
            "positions": [
                1.3441007730293042,
                -2.0400374060399504,
                0.5393263471356855,
                0.6878620470638046,
                1.1845807717406815,
                -0.8792162616447118
            ]
        },
        {
            "positions": [
                1.4246044697263345,
                -2.0274706657188153,
                0.6932288911183386,
                0.6459287953864723,
                1.2375067193202611,
                -0.9274437327170472
            ]
        },
        {
            "positions": [
                1.5051081664233652,
                -2.0149039253976797,
                0.8471314351009918,
                0.6039955437091399,
                1.2904326668998407,
                -0.9756712037893829
            ]
        },
        {
            "positions": [
                1.5856118631203955,
                -2.002337185076544,
                1.0010339790836449,
                0.5620622920318076,
                1.3433586144794203,
                -1.0238986748617183
            ]
        },
        {
            "positions": [
                1.6661155598174262,
                -1.9897704447554085,
                1.1549365230662985,
                0.520129040354475,
                1.3962845620589999,
                -1.0721261459340539
            ]
        },
        {
            "positions": [
                1.7466192565144565,
                -1.977203704434273,
                1.3088390670489516,
                0.47819578867714263,
                1.4492105096385794,
                -1.1203536170063892
            ]
        },
        {
            "positions": [
                1.8271229532114872,
                -1.9646369641131374,
                1.4627416110316052,
                0.4362625369998103,
                1.5021364572181592,
                -1.1685810880787249
            ]
        },
        {
            "positions": [
                1.9076266499085177,
                -1.952070223792002,
                1.6166441550142587,
                0.394329285322478,
                1.5550624047977388,
                -1.2168085591510602
            ]
        },
        {
            "positions": [
                1.9881303466055484,
                -1.9395034834708664,
                1.7705466989969119,
                0.3523960336451455,
                1.6079883523773184,
                -1.2650360302233958
            ]
        },
        {
            "positions": [
                2.0365450947995902,
                -1.872671028758174,
                1.7741981375986424,
                0.26921911973648516,
                1.5676813305166457,
                -1.39852896693931
            ]
        },
        {
            "positions": [
                2.0849598429936322,
                -1.8058385740454816,
                1.7778495762003732,
                0.18604220582782488,
                1.527374308655973,
                -1.532021903655224
            ]
        },
        {
            "positions": [
                2.133374591187674,
                -1.7390061193327893,
                1.7815010148021038,
                0.10286529191916455,
                1.4870672867953005,
                -1.6655148403711382
            ]
        },
        {
            "positions": [
                2.181789339381716,
                -1.6721736646200966,
                1.7851524534038343,
                0.01968837801050427,
                1.4467602649346278,
                -1.7990077770870525
            ]
        },
        {
            "positions": [
                2.2302040875757574,
                -1.6053412099074043,
                1.788803892005565,
                -0.06348853589815606,
                1.4064532430739551,
                -1.9325007138029666
            ]
        },
        {
            "positions": [
                2.2786188357697994,
                -1.5385087551947119,
                1.7924553306072957,
                -0.1466654498068164,
                1.3661462212132824,
                -2.0659936505188807
            ]
        },
        {
            "positions": [
                2.327033583963841,
                -1.4716763004820195,
                1.7961067692090262,
                -0.22984236371547662,
                1.32583919935261,
                -2.199486587234795
            ]
        },
        {
            "positions": [
                2.375448332157883,
                -1.404843845769327,
                1.7997582078107568,
                -0.31301927762413695,
                1.2855321774919373,
                -2.332979523950709
            ]
        },
        {
            "positions": [
                2.423863080351925,
                -1.3380113910566345,
                1.8034096464124876,
                -0.3961961915327973,
                1.2452251556312646,
                -2.466472460666623
            ]
        },
        {
            "positions": [
                2.4722778285459666,
                -1.2711789363439423,
                1.8070610850142181,
                -0.4793731054414576,
                1.2049181337705919,
                -2.599965397382537
            ]
        },
        {
            "positions": [
                2.5206925767400086,
                -1.2043464816312497,
                1.8107125236159487,
                -0.5625500193501178,
                1.1646111119099194,
                -2.7334583340984513
            ]
        },
        {
            "positions": [
                2.56910732493405,
                -1.1375140269185573,
                1.8143639622176795,
                -0.6457269332587783,
                1.1243040900492467,
                -2.8669512708143654
            ]
        },
        {
            "positions": [
                2.617522073128092,
                -1.070681572205865,
                1.81801540081941,
                -0.7289038471674385,
                1.083997068188574,
                -3.0004442075302795
            ]
        },
        {
            "positions": [
                2.6261063923160743,
                -1.013953127830394,
                1.8229363395213847,
                -0.7764501531369036,
                1.0488971480956788,
                -3.0963989463281907
            ]
        }
    ]
}