{
    "goal": {
        "global_pose": {
            "orientation": {
                "w": 0.005598929693374612,
                "x": 0.007748599140229565,
                "y": 0.7110244013736278,
                "z": -0.7031023480610252
            },
            "position": {
                "x": -0.8858502320852131,
                "y": -0.7141253447532654,
                "z": 0.3711530566215515
            }
        },
        "name": "move_to_auspresseinheit_C"
    },
    "id": "PRMstar_move_to_auspresseinheit_C_12",
    "joint_names": [
        "shoulder_pan_joint",
        "shoulder_lift_joint",
        "elbow_joint",
        "wrist_1_joint",
        "wrist_2_joint",
        "wrist_3_joint"
    ],
    "metrics": {
        "cart_traj_len": 0.49269660889321665,
        "distance_elbow_joint": 0.9944952863720864,
        "distance_shoulder_lift_joint": 0.32275799438906694,
        "distance_shoulder_pan_joint": 0.2564772303622527,
        "distance_wrist_1_joint": 0.6665834403953894,
        "distance_wrist_2_joint": 1.3082569431649633,
        "distance_wrist_3_joint": 0.05004367601432769,
        "smoothness": 3.2297397335745243e-16,
        "time": 5.0055684220000005,
        "traj_len": 1.8970014682909675,
        "weighted_distance": 2.381919878225776
    },
    "planner": "PRMstar",
    "start": {
        "state": {
            "elbow_joint": 1.7527959577737207,
            "shoulder_lift_joint": -0.9740617694225068,
            "shoulder_pan_joint": -2.967991417825858,
            "wrist_1_joint": -0.759517768980727,
            "wrist_2_joint": 1.7443932448377408,
            "wrist_3_joint": -3.0840537646736568
        }
    },
    "waypoints": [
        {
            "positions": [
                -2.967991417825858,
                -0.9740617694225068,
                1.7527959577737207,
                -0.759517768980727,
                1.7443932448377408,
                -3.0840537646736568
            ]
        },
        {
            "positions": [
                -2.9423436947896326,
                -0.9417859699836001,
                1.653346429136512,
                -0.692859424941188,
                1.6135675505212446,
                -3.0890581322750896
            ]
        },
        {
            "positions": [
                -2.9166959717534073,
                -0.9095101705446934,
                1.5538969004993033,
                -0.626201080901649,
                1.482741856204748,
                -3.0940624998765225
            ]
        },
        {
            "positions": [
                -2.891048248717182,
                -0.8772343711057867,
                1.4544473718620947,
                -0.5595427368621102,
                1.3519161618882518,
                -3.099066867477955
            ]
        },
        {
            "positions": [
                -2.8654005256809567,
                -0.8449585716668799,
                1.3549978432248861,
                -0.4928843928225712,
                1.2210904675717553,
                -3.1040712350793878
            ]
        },
        {
            "positions": [
                -2.839752802644732,
                -0.8126827722279732,
                1.2555483145876773,
                -0.4262260487830323,
                1.0902647732552593,
                -3.1090756026808206
            ]
        },
        {
            "positions": [
                -2.8141050796085065,
                -0.7804069727890666,
                1.1560987859504688,
                -0.35956770474349337,
                0.9594390789387629,
                -3.1140799702822535
            ]
        },
        {
            "positions": [
                -2.788457356572281,
                -0.7481311733501599,
                1.0566492573132602,
                -0.2929093607039544,
                0.8286133846222665,
                -3.1190843378836863
            ]
        },
        {
            "positions": [
                -2.762809633536056,
                -0.7158553739112532,
                0.9571997286760515,
                -0.22625101666441538,
                0.69778769030577,
                -3.1240887054851187
            ]
        },
        {
            "positions": [
                -2.7371619104998306,
                -0.6835795744723465,
                0.8577502000388428,
                -0.15959267262487653,
                0.5669619959892738,
                -3.1290930730865516
            ]
        },
        {
            "positions": [
                -2.7115141874636053,
                -0.6513037750334398,
                0.7583006714016343,
                -0.0929343285853376,
                0.4361363016727775,
                -3.1340974406879845
            ]
        }
    ]
}