{
    "goal": {
        "global_pose": {
            "orientation": {
                "w": 0.7047431493862688,
                "x": -0.7094548369677653,
                "y": 0.0024358444001904,
                "z": -0.0022348060817251984
            },
            "position": {
                "x": -0.39052492380142206,
                "y": 0.3671506643295288,
                "z": 0.19426114857196808
            }
        },
        "name": "move_to_magneteinheit_D"
    },
    "id": "PRMstar_move_to_magneteinheit_D_140",
    "joint_names": [
        "shoulder_pan_joint",
        "shoulder_lift_joint",
        "elbow_joint",
        "wrist_1_joint",
        "wrist_2_joint",
        "wrist_3_joint"
    ],
    "metrics": {
        "cart_traj_len": 4.658628253947603,
        "distance_elbow_joint": 3.862752907549259,
        "distance_shoulder_lift_joint": 2.227642649163205,
        "distance_shoulder_pan_joint": 3.5522048539508866,
        "distance_wrist_1_joint": 1.952263317535951,
        "distance_wrist_2_joint": 1.997390111670891,
        "distance_wrist_3_joint": 4.504863651077165,
        "smoothness": 0.30164659097908975,
        "time": 5.134448395,
        "traj_len": 4.25407069651497,
        "weighted_distance": 5.572835743345442
    },
    "planner": "PRMstar",
    "start": {
        "state": {
            "elbow_joint": 0.749534889911806,
            "shoulder_lift_joint": -0.6476975780787326,
            "shoulder_pan_joint": -2.711696901376241,
            "wrist_1_joint": -0.07506478083263063,
            "wrist_2_joint": 0.43296659715538205,
            "wrist_3_joint": -3.14703540197715
        }
    },
    "waypoints": [
        {
            "positions": [
                -2.711696901376241,
                -0.6476975780787326,
                0.749534889911806,
                -0.07506478083263063,
                0.43296659715538205,
                -3.14703540197715
            ]
        },
        {
            "positions": [
                -2.767278059780815,
                -0.6102916066899791,
                0.7007034682285533,
                -0.011164170361777248,
                0.514366804377165,
                -3.055740030212882
            ]
        },
        {
            "positions": [
                -2.822859218185389,
                -0.5728856353012255,
                0.6518720465453008,
                0.05273644010907613,
                0.5957670115989477,
                -2.964444658448614
            ]
        },
        {
            "positions": [
                -2.878440376589963,
                -0.5354796639124718,
                0.6030406248620482,
                0.11663705057992951,
                0.6771672188207307,
                -2.8731492866843467
            ]
        },
        {
            "positions": [
                -2.934021534994537,
                -0.49807369252371825,
                0.5542092031787957,
                0.1805376610507829,
                0.7585674260425135,
                -2.7818539149200787
            ]
        },
        {
            "positions": [
                -2.989602693399111,
                -0.4606677211349647,
                0.5053777814955431,
                0.24443827152163627,
                0.8399676332642965,
                -2.6905585431558108
            ]
        },
        {
            "positions": [
                -3.045183851803685,
                -0.42326174974621106,
                0.4565463598122905,
                0.30833888199248966,
                0.9213678404860792,
                -2.5992631713915433
            ]
        },
        {
            "positions": [
                -3.100765010208259,
                -0.38585577835745744,
                0.407714938129038,
                0.37223949246334304,
                1.0027680477078622,
                -2.5079677996272753
            ]
        },
        {
            "positions": [
                -3.156346168612833,
                -0.34844980696870387,
                0.3588835164457854,
                0.43614010293419636,
                1.084168254929645,
                -2.4166724278630074
            ]
        },
        {
            "positions": [
                -3.0494824038379322,
                -0.37160731582594286,
                0.24444067993861635,
                0.42658333925621583,
                1.0944041889440186,
                -2.2875004220272865
            ]
        },
        {
            "positions": [
                -2.942618639063031,
                -0.3947648246831819,
                0.12999784343144724,
                0.41702657557823536,
                1.104640122958392,
                -2.1583284161915657
            ]
        },
        {
            "positions": [
                -2.8357548742881296,
                -0.4179223335404209,
                0.015555006924278192,
                0.40746981190025483,
                1.1148760569727656,
                -2.029156410355845
            ]
        },
        {
            "positions": [
                -2.7288911095132287,
                -0.4410798423976599,
                -0.09888782958289094,
                0.39791304822227436,
                1.1251119909871392,
                -1.8999844045201235
            ]
        },
        {
            "positions": [
                -2.6220273447383278,
                -0.4642373512548989,
                -0.21333066609006002,
                0.38835628454429383,
                1.1353479250015128,
                -1.7708123986844027
            ]
        },
        {
            "positions": [
                -2.5151635799634264,
                -0.48739486011213795,
                -0.32777350259722904,
                0.3787995208663133,
                1.1455838590158862,
                -1.6416403928486818
            ]
        },
        {
            "positions": [
                -2.408299815188525,
                -0.510552368969377,
                -0.44221633910439817,
                0.3692427571883328,
                1.1558197930302598,
                -1.512468387012961
            ]
        },
        {
            "positions": [
                -2.301436050413624,
                -0.5337098778266159,
                -0.5566591756115673,
                0.3596859935103523,
                1.1660557270446334,
                -1.3832963811772399
            ]
        },
        {
            "positions": [
                -2.194572285638723,
                -0.5568673866838549,
                -0.6711020121187364,
                0.3501292298323718,
                1.176291661059007,
                -1.2541243753415188
            ]
        },
        {
            "positions": [
                -2.087708520863822,
                -0.5800248955410939,
                -0.7855448486259055,
                0.3405724661543913,
                1.1865275950733805,
                -1.1249523695057981
            ]
        },
        {
            "positions": [
                -1.9808447560889209,
                -0.6031824043983329,
                -0.8999876851330745,
                0.33101570247641077,
                1.196763529087754,
                -0.995780363670077
            ]
        },
        {
            "positions": [
                -1.8739809913140197,
                -0.626339913255572,
                -1.0144305216402434,
                0.3214589387984303,
                1.2069994631021277,
                -0.8666083578343562
            ]
        },
        {
            "positions": [
                -1.7671172265391186,
                -0.649497422112811,
                -1.1288733581474126,
                0.31190217512044977,
                1.217235397116501,
                -0.7374363519986351
            ]
        },
        {
            "positions": [
                -1.6602534617642175,
                -0.67265493097005,
                -1.2433161946545819,
                0.3023454114424693,
                1.2274713311308747,
                -0.6082643461629142
            ]
        },
        {
            "positions": [
                -1.5533896969893166,
                -0.695812439827289,
                -1.3577590311617507,
                0.29278864776448876,
                1.2377072651452483,
                -0.4790923403271934
            ]
        },
        {
            "positions": [
                -1.4465259322144153,
                -0.718969948684528,
                -1.47220186766892,
                0.28323188408650823,
                1.247943199159622,
                -0.3499203344914723
            ]
        },
        {
            "positions": [
                -1.3396621674395142,
                -0.742127457541767,
                -1.5866447041760887,
                0.27367512040852776,
                1.2581791331739953,
                -0.22074832865575145
            ]
        },
        {
            "positions": [
                -1.2327984026646128,
                -0.765284966399006,
                -1.7010875406832584,
                0.26411835673054723,
                1.268415067188369,
                -0.09157632282003014
            ]
        },
        {
            "positions": [
                -1.1259346378897117,
                -0.7884424752562451,
                -1.8155303771904272,
                0.25456159305256676,
                1.2786510012027426,
                0.03759568301569072
            ]
        },
        {
            "positions": [
                -1.0190708731148108,
                -0.811599984113484,
                -1.9299732136975964,
                0.24500482937458626,
                1.288886935217116,
                0.16676768885141113
            ]
        },
        {
            "positions": [
                -0.9122071083399095,
                -0.8347574929707231,
                -2.0444160502047657,
                0.23544806569660573,
                1.2991228692314896,
                0.29593969468713244
            ]
        },
        {
            "positions": [
                -0.8053433435650086,
                -0.8579150018279621,
                -2.1588588867119345,
                0.22589130201862523,
                1.3093588032458632,
                0.4251117005228534
            ]
        },
        {
            "positions": [
                -0.6982385418045822,
                -0.9047728936818977,
                -2.2552967254528102,
                0.2575710199071131,
                1.2924008226439028,
                0.49547881021699214
            ]
        },
        {
            "positions": [
                -0.5911337400441559,
                -0.9516307855358332,
                -2.3517345641936855,
                0.28925073779560107,
                1.2754428420419424,
                0.565845919911131
            ]
        },
        {
            "positions": [
                -0.48402893828372945,
                -0.9984886773897689,
                -2.448172402934561,
                0.32093045568408896,
                1.2584848614399817,
                0.6362130296052697
            ]
        },
        {
            "positions": [
                -0.3769241365233031,
                -1.0453465692437045,
                -2.5446102416754366,
                0.35261017357257685,
                1.2415268808380213,
                0.7065801392994084
            ]
        },
        {
            "positions": [
                -0.3201055818778935,
                -1.202884178968508,
                -2.5526529727880507,
                0.3892412381869706,
                1.1250082399831527,
                0.7090119015066592
            ]
        },
        {
            "positions": [
                -0.263287027232484,
                -1.3604217886933117,
                -2.560695703900665,
                0.42587230280136434,
                1.008489599128284,
                0.7114436637139099
            ]
        },
        {
            "positions": [
                -0.24755625003501092,
                -1.5085917748685311,
                -2.52108533108349,
                0.45953460869119955,
                0.8921466234006178,
                0.6738690222898827
            ]
        },
        {
            "positions": [
                -0.23182547283753785,
                -1.6567617610437508,
                -2.4814749582663156,
                0.49319691458103476,
                0.7758036476729515,
                0.6362943808658554
            ]
        },
        {
            "positions": [
                -0.2174505231738107,
                -1.724840309764411,
                -2.446384344128313,
                0.6111359928564173,
                0.7057491687408006,
                0.5649568962341338
            ]
        },
        {
            "positions": [
                -0.20307557351008357,
                -1.792918858485071,
                -2.411293729990311,
                0.7290750711317999,
                0.6356946898086497,
                0.4936194116024122
            ]
        },
        {
            "positions": [
                -0.1887006238463564,
                -1.8609974072057311,
                -2.3762031158523085,
                0.8470141494071824,
                0.5656402108764989,
                0.4222819269706906
            ]
        },
        {
            "positions": [
                -0.1743256741826293,
                -1.9290759559263915,
                -2.3411125017143064,
                0.964953227682565,
                0.49558573194434796,
                0.350944442338969
            ]
        },
        {
            "positions": [
                -0.15995072451890213,
                -1.9971545046470514,
                -2.306021887576304,
                1.0828923059579476,
                0.4255312530121971,
                0.27960695770724736
            ]
        },
        {
            "positions": [
                -0.14557577485517498,
                -2.0652330533677117,
                -2.2709312734383014,
                1.20083138423333,
                0.3554767740800462,
                0.2082694730755258
            ]
        },
        {
            "positions": [
                -0.13120082519144782,
                -2.133311602088372,
                -2.2358406593002993,
                1.3187704625087129,
                0.2854222951478953,
                0.13693198844380416
            ]
        },
        {
            "positions": [
                -0.1168258755277207,
                -2.201390150809032,
                -2.2007500451622968,
                1.4367095407840953,
                0.21536781621574444,
                0.06559450381208251
            ]
        },
        {
            "positions": [
                -0.18486116915690112,
                -2.2768446850218798,
                -2.3933267001607166,
                1.4567009348721776,
                0.18836089766545333,
                0.06612992929636267
            ]
        }
    ]
}