{
    "goal": {
        "global_pose": {
            "orientation": {
                "w": -0.4816463035849501,
                "x": 0.5182115481033762,
                "y": 0.4908360881923453,
                "z": -0.5084816262002911
            },
            "position": {
                "x": -0.8240239810943604,
                "y": -0.300875300988555,
                "z": 0.16403168439865112
            }
        },
        "name": "move_to_storage_C"
    },
    "id": "PRMstar_move_to_storage_C_69",
    "joint_names": [
        "shoulder_pan_joint",
        "shoulder_lift_joint",
        "elbow_joint",
        "wrist_1_joint",
        "wrist_2_joint",
        "wrist_3_joint"
    ],
    "metrics": {
        "cart_traj_len": 0.5771035439844049,
        "distance_elbow_joint": 0.25607696211751985,
        "distance_shoulder_lift_joint": 0.18923089413832228,
        "distance_shoulder_pan_joint": 0.49633002661096937,
        "distance_wrist_1_joint": 0.07365498237824863,
        "distance_wrist_2_joint": 1.0619917915838863,
        "distance_wrist_3_joint": 0.05649322943683055,
        "smoothness": 0.0,
        "time": 5.0065325000000005,
        "traj_len": 1.4607456610463634,
        "weighted_distance": 1.839133252133073
    },
    "planner": "PRMstar",
    "start": {
        "state": {
            "elbow_joint": 2.010868314990456,
            "shoulder_lift_joint": -1.1634956873337592,
            "shoulder_pan_joint": -2.4736205022346125,
            "wrist_1_joint": -0.8367026794202681,
            "wrist_2_joint": 0.6746043897044499,
            "wrist_3_joint": -3.1496632123970403
        }
    },
    "waypoints": [
        {
            "positions": [
                -2.4736205022346125,
                -1.1634956873337592,
                2.010868314990456,
                -0.8367026794202681,
                0.6746043897044499,
                -3.1496632123970403
            ]
        },
        {
            "positions": [
                -2.5563421733364406,
                -1.131957204977372,
                1.9681888213042025,
                -0.8244268490238933,
                0.8516030216350976,
                -3.1402476741575684
            ]
        },
        {
            "positions": [
                -2.639063844438269,
                -1.1004187226209852,
                1.9255093276179491,
                -0.8121510186275186,
                1.0286016535657454,
                -3.1308321359180966
            ]
        },
        {
            "positions": [
                -2.7217855155400974,
                -1.068880240264598,
                1.8828298339316958,
                -0.7998751882311438,
                1.2056002854963932,
                -3.121416597678625
            ]
        },
        {
            "positions": [
                -2.8045071866419256,
                -1.037341757908211,
                1.8401503402454427,
                -0.787599357834769,
                1.3825989174270408,
                -3.1120010594391534
            ]
        },
        {
            "positions": [
                -2.8872288577437537,
                -1.005803275551824,
                1.7974708465591893,
                -0.7753235274383943,
                1.5595975493576886,
                -3.1025855211996816
            ]
        },
        {
            "positions": [
                -2.969950528845582,
                -0.9742647931954369,
                1.754791352872936,
                -0.7630476970420195,
                1.7365961812883364,
                -3.0931699829602097
            ]
        }
    ]
}