{
    "goal": {
        "global_pose": {
            "orientation": {
                "w": 0.7047431468963623,
                "x": -0.7094548344612122,
                "y": 0.0024358443915843964,
                "z": -0.0022348060738295317
            },
            "position": {
                "x": 0.6094750761985779,
                "y": 0.3671506643295288,
                "z": 0.19426114857196808
            }
        },
        "name": "move_to_magneteinheit_A"
    },
    "id": "PRMstar_move_to_magneteinheit_A_14",
    "joint_names": [
        "shoulder_pan_joint",
        "shoulder_lift_joint",
        "elbow_joint",
        "wrist_1_joint",
        "wrist_2_joint",
        "wrist_3_joint"
    ],
    "metrics": {
        "cart_traj_len": 3.8529618602297275,
        "distance_elbow_joint": 3.9033299327265114,
        "distance_shoulder_lift_joint": 0.6014882594478859,
        "distance_shoulder_pan_joint": 2.7223058876786426,
        "distance_wrist_1_joint": 0.7062925633609659,
        "distance_wrist_2_joint": 1.7223129253454148,
        "distance_wrist_3_joint": 2.701385702032567,
        "smoothness": 0.12107482677060566,
        "time": 5.038559462,
        "traj_len": 3.5152688760025153,
        "weighted_distance": 4.493160598438864
    },
    "planner": "PRMstar",
    "start": {
        "state": {
            "elbow_joint": -1.9196185241190666,
            "shoulder_lift_joint": -1.2443396400964142,
            "shoulder_pan_joint": 2.6996025414629847,
            "wrist_1_joint": -1.5485510000780065,
            "wrist_2_joint": -1.5709468930060704,
            "wrist_3_joint": 0.4420197071253992
        }
    },
    "waypoints": [
        {
            "positions": [
                2.6996025414629847,
                -1.2443396400964142,
                -1.9196185241190666,
                -1.5485510000780065,
                -1.5709468930060704,
                0.4420197071253992
            ]
        },
        {
            "positions": [
                2.6062751657425784,
                -1.229757644578084,
                -1.8102763565111448,
                -1.5414168639840606,
                -1.5063944307003843,
                0.5461623476971678
            ]
        },
        {
            "positions": [
                2.512947790022172,
                -1.2151756490597538,
                -1.7009341889032228,
                -1.5342827278901148,
                -1.4418419683946981,
                0.6503049882689362
            ]
        },
        {
            "positions": [
                2.419620414301766,
                -1.2005936535414237,
                -1.591592021295301,
                -1.5271485917961687,
                -1.377289506089012,
                0.7544476288407048
            ]
        },
        {
            "positions": [
                2.3262930385813596,
                -1.1860116580230933,
                -1.482249853687379,
                -1.5200144557022228,
                -1.312737043783326,
                0.8585902694124734
            ]
        },
        {
            "positions": [
                2.2329656628609533,
                -1.171429662504763,
                -1.3729076860794571,
                -1.512880319608277,
                -1.2481845814776398,
                0.962732909984242
            ]
        },
        {
            "positions": [
                2.139638287140547,
                -1.156847666986433,
                -1.2635655184715353,
                -1.505746183514331,
                -1.1836321191719537,
                1.0668755505560106
            ]
        },
        {
            "positions": [
                2.0463109114201408,
                -1.1422656714681028,
                -1.1542233508636133,
                -1.4986120474203852,
                -1.1190796568662675,
                1.171018191127779
            ]
        },
        {
            "positions": [
                1.9529835356997347,
                -1.1276836759497726,
                -1.0448811832556915,
                -1.4914779113264391,
                -1.0545271945605816,
                1.2751608316995475
            ]
        },
        {
            "positions": [
                1.8596561599793284,
                -1.1131016804314422,
                -0.9355390156477694,
                -1.4843437752324933,
                -0.9899747322548954,
                1.379303472271316
            ]
        },
        {
            "positions": [
                1.766328784258922,
                -1.098519684913112,
                -0.8261968480398476,
                -1.4772096391385474,
                -0.9254222699492093,
                1.483446112843085
            ]
        },
        {
            "positions": [
                1.6730014085385159,
                -1.0839376893947819,
                -0.7168546804319258,
                -1.4700755030446016,
                -0.8608698076435232,
                1.587588753414853
            ]
        },
        {
            "positions": [
                1.5796740328181096,
                -1.0693556938764517,
                -0.6075125128240038,
                -1.4629413669506555,
                -0.796317345337837,
                1.6917313939866219
            ]
        },
        {
            "positions": [
                1.4863466570977033,
                -1.0547736983581215,
                -0.49817034521608194,
                -1.4558072308567096,
                -0.731764883032151,
                1.7958740345583903
            ]
        },
        {
            "positions": [
                1.393019281377297,
                -1.0401917028397913,
                -0.3888281776081599,
                -1.4486730947627637,
                -0.6672124207264648,
                1.9000166751301588
            ]
        },
        {
            "positions": [
                1.2996919056568907,
                -1.0256097073214612,
                -0.2794860100002381,
                -1.4415389586688179,
                -0.6026599584207787,
                2.0041593157019273
            ]
        },
        {
            "positions": [
                1.2063645299364847,
                -1.0110277118031308,
                -0.17014384239231628,
                -1.434404822574872,
                -0.5381074961150927,
                2.1083019562736958
            ]
        },
        {
            "positions": [
                1.1130371542160782,
                -0.9964457162848006,
                -0.06080167478439402,
                -1.427270686480926,
                -0.47355503380940633,
                2.2124445968454647
            ]
        },
        {
            "positions": [
                1.0197097784956721,
                -0.9818637207664704,
                0.04854049282352779,
                -1.42013655038698,
                -0.40900257150372044,
                2.316587237417233
            ]
        },
        {
            "positions": [
                0.9263824027752658,
                -0.9672817252481403,
                0.15788266043144938,
                -1.4130024142930342,
                -0.3444501091980343,
                2.4207298779890016
            ]
        },
        {
            "positions": [
                0.8330550270548593,
                -0.95269972972981,
                0.2672248280393714,
                -1.4058682781990883,
                -0.2798976468923482,
                2.5248725185607706
            ]
        },
        {
            "positions": [
                0.7397276513344533,
                -0.9381177342114798,
                0.37656699564729346,
                -1.3987341421051425,
                -0.21534518458666208,
                2.629015159132539
            ]
        },
        {
            "positions": [
                0.646400275614047,
                -0.9235357386931496,
                0.48590916325521505,
                -1.3916000060111964,
                -0.15079272228097595,
                2.733157799704307
            ]
        },
        {
            "positions": [
                0.5530728998936407,
                -0.9089537431748194,
                0.5952513308631375,
                -1.3844658699172505,
                -0.08624025997528983,
                2.837300440276076
            ]
        },
        {
            "positions": [
                0.4597455241732345,
                -0.8943717476564892,
                0.7045934984710592,
                -1.3773317338233046,
                -0.02168779766960363,
                2.9414430808478444
            ]
        },
        {
            "positions": [
                0.39151253683265574,
                -0.897558184062691,
                0.8838716019617113,
                -1.3054293262731365,
                0.00516902631973596,
                2.949811253719305
            ]
        },
        {
            "positions": [
                0.32327954949207705,
                -0.9007446204688928,
                1.0631497054523633,
                -1.233526918722968,
                0.03202585030907555,
                2.9581794265907657
            ]
        },
        {
            "positions": [
                0.25504656215149824,
                -0.9039310568750946,
                1.2424278089430154,
                -1.1616245111727999,
                0.05888267429841515,
                2.966547599462226
            ]
        },
        {
            "positions": [
                0.18681357481091954,
                -0.9071174932812963,
                1.4217059124336675,
                -1.0897221036226317,
                0.08573949828775473,
                2.9749157723336865
            ]
        },
        {
            "positions": [
                0.11858058747034078,
                -0.9103039296874982,
                1.6009840159243196,
                -1.0178196960724633,
                0.11259632227709435,
                2.983283945205147
            ]
        },
        {
            "positions": [
                0.05034760012976201,
                -0.9134903660936999,
                1.7802621194149717,
                -0.9459172885222951,
                0.13945314626643393,
                2.991652118076608
            ]
        },
        {
            "positions": [
                0.08687307330247207,
                -1.029691240379075,
                1.8819867640112085,
                -0.8940878626196678,
                0.13349670322997875,
                3.067528763617287
            ]
        },
        {
            "positions": [
                0.12339854647518211,
                -1.14589211466445,
                1.983711408607445,
                -0.8422584367170406,
                0.12754026019352355,
                3.143405409157966
            ]
        }
    ]
}