{
    "goal": {
        "global_pose": {
            "orientation": {
                "w": -0.4816463035849501,
                "x": 0.5182115481033762,
                "y": 0.4908360881923453,
                "z": -0.5084816262002911
            },
            "position": {
                "x": -0.8240239810943604,
                "y": 0.19912469901144506,
                "z": 0.16403168439865112
            }
        },
        "name": "move_to_storage_D"
    },
    "id": "PRMstar_move_to_storage_D_91",
    "joint_names": [
        "shoulder_pan_joint",
        "shoulder_lift_joint",
        "elbow_joint",
        "wrist_1_joint",
        "wrist_2_joint",
        "wrist_3_joint"
    ],
    "metrics": {
        "cart_traj_len": 3.80900040888847,
        "distance_elbow_joint": 4.21194968038279,
        "distance_shoulder_lift_joint": 1.264831483900566,
        "distance_shoulder_pan_joint": 2.811814634757943,
        "distance_wrist_1_joint": 2.2742014732040587,
        "distance_wrist_2_joint": 0.8695138585137899,
        "distance_wrist_3_joint": 3.126704611754026,
        "smoothness": 2.2773805685194764e-16,
        "time": 5.071467486,
        "traj_len": 3.8156278307132068,
        "weighted_distance": 4.894501026431506
    },
    "planner": "PRMstar",
    "start": {
        "state": {
            "elbow_joint": -2.384821988534728,
            "shoulder_lift_joint": -2.2788054721415256,
            "shoulder_pan_joint": -0.1854694642142757,
            "wrist_1_joint": 1.4845938289331202,
            "wrist_2_joint": 0.17898776772866878,
            "wrist_3_joint": 0.037105688729662994
        }
    },
    "waypoints": [
        {
            "positions": [
                -0.1854694642142757,
                -2.2788054721415256,
                -2.384821988534728,
                1.4845938289331202,
                0.17898776772866878,
                0.037105688729662994
            ]
        },
        {
            "positions": [
                -0.07142946107404938,
                -2.267868013968503,
                -2.211041423591136,
                1.480589615054289,
                0.21221963558761558,
                -0.017549973511484858
            ]
        },
        {
            "positions": [
                0.042610542066176954,
                -2.25693055579548,
                -2.0372608586475445,
                1.476585401175458,
                0.2454515034465624,
                -0.07220563575263271
            ]
        },
        {
            "positions": [
                0.15665054520640329,
                -2.245993097622457,
                -1.8634802937039527,
                1.4725811872966268,
                0.27868337130550924,
                -0.12686129799378057
            ]
        },
        {
            "positions": [
                0.27069054834662964,
                -2.2350556394494343,
                -1.6896997287603608,
                1.4685769734177958,
                0.31191523916445607,
                -0.18151696023492842
            ]
        },
        {
            "positions": [
                0.384730551486856,
                -2.2241181812764115,
                -1.515919163816769,
                1.4645727595389646,
                0.34514710702340284,
                -0.23617262247607626
            ]
        },
        {
            "positions": [
                0.4987705546270823,
                -2.2131807231033886,
                -1.3421385988731773,
                1.4605685456601336,
                0.3783789748823497,
                -0.2908282847172241
            ]
        },
        {
            "positions": [
                0.6128105577673085,
                -2.2022432649303663,
                -1.1683580339295856,
                1.4565643317813024,
                0.41161084274129645,
                -0.3454839469583719
            ]
        },
        {
            "positions": [
                0.726850560907535,
                -2.1913058067573434,
                -0.9945774689859936,
                1.4525601179024714,
                0.4448427106002433,
                -0.40013960919951985
            ]
        },
        {
            "positions": [
                0.8408905640477612,
                -2.1803683485843206,
                -0.8207969040424021,
                1.4485559040236402,
                0.4780745784591901,
                -0.45479527144066767
            ]
        },
        {
            "positions": [
                0.9549305671879876,
                -2.1694308904112978,
                -0.6470163390988102,
                1.4445516901448092,
                0.5113064463181369,
                -0.5094509336818155
            ]
        },
        {
            "positions": [
                1.0689705703282137,
                -2.158493432238275,
                -0.47323577415521845,
                1.440547476265978,
                0.5445383141770838,
                -0.5641065959229633
            ]
        },
        {
            "positions": [
                1.1830105734684402,
                -2.147555974065252,
                -0.2994552092116267,
                1.436543262387147,
                0.5777701820360306,
                -0.6187622581641112
            ]
        },
        {
            "positions": [
                1.2970505766086664,
                -2.1366185158922293,
                -0.12567464426803499,
                1.4325390485083158,
                0.6110020498949773,
                -0.673417920405259
            ]
        },
        {
            "positions": [
                1.3533766716005016,
                -2.092201807262011,
                -0.04269788408999854,
                1.3452729145856497,
                0.6293813352238453,
                -0.7701617313293458
            ]
        },
        {
            "positions": [
                1.4097027665923367,
                -2.0477850986317927,
                0.0402788760880379,
                1.2580067806629833,
                0.6477606205527134,
                -0.8669055422534326
            ]
        },
        {
            "positions": [
                1.4660288615841717,
                -2.0033683900015746,
                0.1232556362660743,
                1.1707406467403172,
                0.6661399058815815,
                -0.9636493531775194
            ]
        },
        {
            "positions": [
                1.5223549565760068,
                -1.9589516813713563,
                0.2062323964441108,
                1.0834745128176508,
                0.6845191912104495,
                -1.0603931641016064
            ]
        },
        {
            "positions": [
                1.578681051567842,
                -1.914534972741138,
                0.2892091566221472,
                0.9962083788949847,
                0.7028984765393175,
                -1.157136975025693
            ]
        },
        {
            "positions": [
                1.6350071465596772,
                -1.87011826411092,
                0.3721859168001836,
                0.9089422449723185,
                0.7212777618681856,
                -1.25388078594978
            ]
        },
        {
            "positions": [
                1.6913332415515123,
                -1.8257015554807017,
                0.4551626769782201,
                0.8216761110496522,
                0.7396570471970536,
                -1.3506245968738666
            ]
        },
        {
            "positions": [
                1.7476593365433473,
                -1.7812848468504834,
                0.5381394371562566,
                0.734409977126986,
                0.7580363325259216,
                -1.4473684077979536
            ]
        },
        {
            "positions": [
                1.8039854315351824,
                -1.736868138220265,
                0.621116197334293,
                0.6471438432043196,
                0.7764156178547896,
                -1.5441122187220404
            ]
        },
        {
            "positions": [
                1.8603115265270174,
                -1.692451429590047,
                0.7040929575123294,
                0.5598777092816535,
                0.7947949031836578,
                -1.6408560296461272
            ]
        },
        {
            "positions": [
                1.9166376215188525,
                -1.6480347209598287,
                0.7870697176903658,
                0.47261157535898723,
                0.8131741885125258,
                -1.737599840570214
            ]
        },
        {
            "positions": [
                1.9729637165106877,
                -1.6036180123296107,
                0.8700464778684022,
                0.3853454414363211,
                0.8315534738413938,
                -1.8343436514943008
            ]
        },
        {
            "positions": [
                2.029289811502523,
                -1.5592013036993921,
                0.9530232380464387,
                0.29807930751365475,
                0.8499327591702619,
                -1.9310874624183876
            ]
        },
        {
            "positions": [
                2.085615906494358,
                -1.514784595069174,
                1.0359999982244752,
                0.2108131735909886,
                0.8683120444991299,
                -2.0278312733424744
            ]
        },
        {
            "positions": [
                2.141942001486193,
                -1.470367886438956,
                1.1189767584025114,
                0.12354703966832248,
                0.8866913298279979,
                -2.124575084266561
            ]
        },
        {
            "positions": [
                2.1982680964780283,
                -1.4259511778087375,
                1.201953518580548,
                0.03628090574565612,
                0.9050706151568659,
                -2.221318895190648
            ]
        },
        {
            "positions": [
                2.254594191469863,
                -1.3815344691785194,
                1.2849302787585843,
                -0.05098522817701023,
                0.9234499004857339,
                -2.318062706114735
            ]
        },
        {
            "positions": [
                2.3109202864616982,
                -1.337117760548301,
                1.367907038936621,
                -0.1382513620996766,
                0.9418291858146021,
                -2.414806517038822
            ]
        },
        {
            "positions": [
                2.3672463814535334,
                -1.2927010519180828,
                1.4508837991146573,
                -0.22551749602234272,
                0.9602084711434701,
                -2.5115503279629086
            ]
        },
        {
            "positions": [
                2.4235724764453686,
                -1.2482843432878648,
                1.5338605592926937,
                -0.31278362994500886,
                0.9785877564723382,
                -2.608294138886995
            ]
        },
        {
            "positions": [
                2.4798985714372037,
                -1.2038676346576462,
                1.6168373194707302,
                -0.4000497638676752,
                0.9969670418012062,
                -2.705037949811082
            ]
        },
        {
            "positions": [
                2.536224666429039,
                -1.1594509260274282,
                1.6998140796487666,
                -0.48731589779034135,
                1.0153463271300742,
                -2.8017817607351687
            ]
        },
        {
            "positions": [
                2.5662648344672485,
                -1.1109586134319387,
                1.742251950381865,
                -0.5880798132838737,
                1.026398093500869,
                -2.8977208148315667
            ]
        },
        {
            "positions": [
                2.5963050025054577,
                -1.062466300836449,
                1.784689821114963,
                -0.6888437287774061,
                1.037449859871664,
                -2.9936598689279648
            ]
        },
        {
            "positions": [
                2.6263451705436673,
                -1.0139739882409595,
                1.8271276918480615,
                -0.7896076442709385,
                1.0485016262424587,
                -3.089598923024363
            ]
        }
    ]
}