{
    "goal": {
        "global_pose": {
            "orientation": {
                "w": 0.005598929693374612,
                "x": 0.007748599140229565,
                "y": 0.7110244013736278,
                "z": -0.7031023480610252
            },
            "position": {
                "x": 0.1141497679147869,
                "y": -0.7141253447532654,
                "z": 0.3711530566215515
            }
        },
        "name": "move_to_auspresseinheit_B"
    },
    "id": "PRMstar_move_to_auspresseinheit_B_88",
    "joint_names": [
        "shoulder_pan_joint",
        "shoulder_lift_joint",
        "elbow_joint",
        "wrist_1_joint",
        "wrist_2_joint",
        "wrist_3_joint"
    ],
    "metrics": {
        "cart_traj_len": 0.5639890578479387,
        "distance_elbow_joint": 0.059724574999098,
        "distance_shoulder_lift_joint": 0.29475068675186655,
        "distance_shoulder_pan_joint": 0.5764846200658789,
        "distance_wrist_1_joint": 0.3158241036310291,
        "distance_wrist_2_joint": 0.992501200354873,
        "distance_wrist_3_joint": 0.0010108830977353378,
        "smoothness": 0.0,
        "time": 5.003741656,
        "traj_len": 1.4967618611190228,
        "weighted_distance": 1.884315031803826
    },
    "planner": "PRMstar",
    "start": {
        "state": {
            "elbow_joint": 2.0193083361928714,
            "shoulder_lift_joint": -1.1220246554650708,
            "shoulder_pan_joint": -1.0952077554168747,
            "wrist_1_joint": -0.8559753972642168,
            "wrist_2_joint": 0.4759566250798843,
            "wrist_3_joint": -3.1240929996934557
        }
    },
    "waypoints": [
        {
            "positions": [
                -1.0952077554168747,
                -1.1220246554650708,
                2.0193083361928714,
                -0.8559753972642168,
                0.4759566250798843,
                -3.1240929996934557
            ]
        },
        {
            "positions": [
                -1.1912885254278545,
                -1.1711497699237152,
                2.0093542403596882,
                -0.8033380466590453,
                0.6413734918056965,
                -3.124261480209745
            ]
        },
        {
            "positions": [
                -1.2873692954388343,
                -1.2202748843823596,
                1.9994001445265055,
                -0.7507006960538738,
                0.8067903585315086,
                -3.124429960726034
            ]
        },
        {
            "positions": [
                -1.383450065449814,
                -1.269399998841004,
                1.9894460486933223,
                -0.6980633454487022,
                0.9722072252573208,
                -3.1245984412423233
            ]
        },
        {
            "positions": [
                -1.479530835460794,
                -1.3185251132996485,
                1.9794919528601393,
                -0.6454259948435308,
                1.1376240919831329,
                -3.1247669217586127
            ]
        },
        {
            "positions": [
                -1.5756116054717737,
                -1.367650227758293,
                1.9695378570269564,
                -0.5927886442383592,
                1.303040958708945,
                -3.1249354022749016
            ]
        },
        {
            "positions": [
                -1.6716923754827535,
                -1.4167753422169374,
                1.9595837611937734,
                -0.5401512936331877,
                1.4684578254347573,
                -3.125103882791191
            ]
        }
    ]
}