{
    "goal": {
        "global_pose": {
            "orientation": {
                "w": 0.7031023480610252,
                "x": -0.7110244013736278,
                "y": 0.0077485991402295624,
                "z": 0.005598929693374583
            },
            "position": {
                "x": -0.8841497679147869,
                "y": 0.44412534475326537,
                "z": 0.3711530566215515
            }
        },
        "name": "move_to_auspresseinheit_D"
    },
    "id": "PRMstar_move_to_auspresseinheit_D_81",
    "joint_names": [
        "shoulder_pan_joint",
        "shoulder_lift_joint",
        "elbow_joint",
        "wrist_1_joint",
        "wrist_2_joint",
        "wrist_3_joint"
    ],
    "metrics": {
        "cart_traj_len": 0.34337002810050843,
        "distance_elbow_joint": 0.6357637251868504,
        "distance_shoulder_lift_joint": 0.11954374617767449,
        "distance_shoulder_pan_joint": 0.13416175953919532,
        "distance_wrist_1_joint": 0.5227140612147134,
        "distance_wrist_2_joint": 1.4434964858306496,
        "distance_wrist_3_joint": 0.0010832227076242873,
        "smoothness": 5.921189480296099e-16,
        "time": 5.014379829999999,
        "traj_len": 1.6901961426582146,
        "weighted_distance": 2.196620129452819
    },
    "planner": "PRMstar",
    "start": {
        "state": {
            "elbow_joint": -1.8275523626775212,
            "shoulder_lift_joint": -2.126789852344167,
            "shoulder_pan_joint": -0.03513704404078235,
            "wrist_1_joint": -2.347782403156801,
            "wrist_2_joint": -1.6058999987535132,
            "wrist_3_joint": -3.0880379163319196
        }
    },
    "waypoints": [
        {
            "positions": [
                -0.03513704404078235,
                -2.126789852344167,
                -1.8275523626775212,
                -2.347782403156801,
                -1.6058999987535132,
                -3.0880379163319196
            ]
        },
        {
            "positions": [
                -0.05190726398318177,
                -2.141732820616376,
                -1.748081897029165,
                -2.41312166080864,
                -1.425462938024682,
                -3.0881733191703726
            ]
        },
        {
            "positions": [
                -0.06867748392558118,
                -2.1566757888885855,
                -1.6686114313808087,
                -2.4784609184604793,
                -1.2450258772958507,
                -3.0883087220088257
            ]
        },
        {
            "positions": [
                -0.08544770386798059,
                -2.171618757160795,
                -1.5891409657324522,
                -2.5438001761123186,
                -1.0645888165670196,
                -3.0884441248472787
            ]
        },
        {
            "positions": [
                -0.10221792381038,
                -2.186561725433004,
                -1.509670500084096,
                -2.609139433764158,
                -0.8841517558381884,
                -3.0885795276857317
            ]
        },
        {
            "positions": [
                -0.11898814375277941,
                -2.201504693705213,
                -1.4302000344357397,
                -2.6744786914159966,
                -0.7037146951093571,
                -3.0887149305241848
            ]
        },
        {
            "positions": [
                -0.13575836369517885,
                -2.2164476619774227,
                -1.3507295687873833,
                -2.739817949067836,
                -0.5232776343805261,
                -3.088850333362638
            ]
        },
        {
            "positions": [
                -0.15252858363757826,
                -2.2313906302496322,
                -1.271259103139027,
                -2.805157206719675,
                -0.34284057365169485,
                -3.088985736201091
            ]
        },
        {
            "positions": [
                -0.16929880357997767,
                -2.2463335985218413,
                -1.1917886374906708,
                -2.8704964643715143,
                -0.16240351292286354,
                -3.089121139039544
            ]
        }
    ]
}