{
    "goal": {
        "global_pose": {
            "orientation": {
                "w": -0.4816463035849501,
                "x": 0.5182115481033762,
                "y": 0.4908360881923453,
                "z": -0.5084816262002911
            },
            "position": {
                "x": -0.8240239810943604,
                "y": 0.19912469901144506,
                "z": 0.16403168439865112
            }
        },
        "name": "move_to_storage_D"
    },
    "id": "PRMstar_move_to_storage_D_68",
    "joint_names": [
        "shoulder_pan_joint",
        "shoulder_lift_joint",
        "elbow_joint",
        "wrist_1_joint",
        "wrist_2_joint",
        "wrist_3_joint"
    ],
    "metrics": {
        "cart_traj_len": 0.5208586167135412,
        "distance_elbow_joint": 0.5563825671011631,
        "distance_shoulder_lift_joint": 0.15314292645067606,
        "distance_shoulder_pan_joint": 0.15856648126162026,
        "distance_wrist_1_joint": 3.834848084462763,
        "distance_wrist_2_joint": 1.7868898474348887,
        "distance_wrist_3_joint": 3.1253845570313357,
        "smoothness": 0.0006833427635616799,
        "time": 5.040096107999999,
        "traj_len": 3.1008409284809257,
        "weighted_distance": 4.635485034999333
    },
    "planner": "PRMstar",
    "start": {
        "state": {
            "elbow_joint": -2.384821988534728,
            "shoulder_lift_joint": -2.2788054721415256,
            "shoulder_pan_joint": -0.1854694642142757,
            "wrist_1_joint": 1.4845938289331202,
            "wrist_2_joint": 0.17898776772866878,
            "wrist_3_joint": 0.037105688729662994
        }
    },
    "waypoints": [
        {
            "positions": [
                -0.1854694642142757,
                -2.2788054721415256,
                -2.384821988534728,
                1.4845938289331202,
                0.17898776772866878,
                0.037105688729662994
            ]
        },
        {
            "positions": [
                -0.14687587955787362,
                -2.2746973779469175,
                -2.3723466577552625,
                1.3945195697875303,
                0.11329296354040257,
                -0.08192863242025228
            ]
        },
        {
            "positions": [
                -0.10828229490147154,
                -2.270589283752309,
                -2.3598713269757976,
                1.3044453106419402,
                0.04759815935213635,
                -0.20096295357016755
            ]
        },
        {
            "positions": [
                -0.06968871024506945,
                -2.266481189557701,
                -2.347395996196332,
                1.2143710514963502,
                -0.018096644836129855,
                -0.31999727472008277
            ]
        },
        {
            "positions": [
                -0.031095125588667352,
                -2.2623730953630927,
                -2.334920665416867,
                1.1242967923507603,
                -0.08379144902439609,
                -0.43903159586999807
            ]
        },
        {
            "positions": [
                -0.03129475142847746,
                -2.255863069188224,
                -2.3108025109414716,
                0.9588419805469316,
                -0.15636814572353053,
                -0.565186227890554
            ]
        },
        {
            "positions": [
                -0.031494377268287556,
                -2.2493530430133553,
                -2.2866843564660764,
                0.7933871687431029,
                -0.228944842422665,
                -0.6913408599111099
            ]
        },
        {
            "positions": [
                -0.03169400310809766,
                -2.2428430168384867,
                -2.2625662019906807,
                0.6279323569392742,
                -0.30152153912179946,
                -0.8174954919316658
            ]
        },
        {
            "positions": [
                -0.03189362894790776,
                -2.236332990663618,
                -2.2384480475152855,
                0.4624775451354455,
                -0.37409823582093393,
                -0.9436501239522217
            ]
        },
        {
            "positions": [
                -0.032093254787717865,
                -2.2298229644887493,
                -2.2143298930398903,
                0.2970227333316168,
                -0.4466749325200684,
                -1.0698047559727777
            ]
        },
        {
            "positions": [
                -0.03229288062752797,
                -2.2233129383138803,
                -2.190211738564495,
                0.13156792152778807,
                -0.5192516292192029,
                -1.1959593879933337
            ]
        },
        {
            "positions": [
                -0.03249250646733807,
                -2.216802912139012,
                -2.1660935840890994,
                -0.03388689027604075,
                -0.5918283259183372,
                -1.3221140200138897
            ]
        },
        {
            "positions": [
                -0.032692132307148174,
                -2.210292885964143,
                -2.141975429613704,
                -0.19934170207986934,
                -0.6644050226174717,
                -1.4482686520344452
            ]
        },
        {
            "positions": [
                -0.03289175814695828,
                -2.2037828597892744,
                -2.117857275138309,
                -0.36479651388369816,
                -0.7369817193166062,
                -1.5744232840550012
            ]
        },
        {
            "positions": [
                -0.03309138398676838,
                -2.1972728336144054,
                -2.0937391206629137,
                -0.5302513256875268,
                -0.8095584160157406,
                -1.7005779160755572
            ]
        },
        {
            "positions": [
                -0.03329100982657848,
                -2.190762807439537,
                -2.069620966187518,
                -0.6957061374913558,
                -0.8821351127148752,
                -1.8267325480961132
            ]
        },
        {
            "positions": [
                -0.03349063566638858,
                -2.184252781264668,
                -2.045502811712123,
                -0.8611609492951842,
                -0.9547118094140096,
                -1.9528871801166692
            ]
        },
        {
            "positions": [
                -0.033690261506198686,
                -2.1777427550897994,
                -2.0213846572367276,
                -1.0266157610990132,
                -1.0272885061131443,
                -2.079041812137225
            ]
        },
        {
            "positions": [
                -0.03388988734600879,
                -2.1712327289149305,
                -1.9972665027613323,
                -1.1920705729028418,
                -1.0998652028122784,
                -2.205196444157781
            ]
        },
        {
            "positions": [
                -0.03408951318581889,
                -2.164722702740062,
                -1.9731483482859369,
                -1.3575253847066704,
                -1.172441899511413,
                -2.331351076178337
            ]
        },
        {
            "positions": [
                -0.034289139025628995,
                -2.158212676565193,
                -1.9490301938105414,
                -1.522980196510499,
                -1.2450185962105473,
                -2.4575057081988927
            ]
        },
        {
            "positions": [
                -0.0344887648654391,
                -2.1517026503903245,
                -1.9249120393351462,
                -1.688435008314328,
                -1.317595292909682,
                -2.583660340219449
            ]
        },
        {
            "positions": [
                -0.0346883907052492,
                -2.1451926242154555,
                -1.900793884859751,
                -1.8538898201181566,
                -1.3901719896088163,
                -2.7098149722400047
            ]
        },
        {
            "positions": [
                -0.034888016545059304,
                -2.138682598040587,
                -1.8766757303843555,
                -2.019344631921985,
                -1.4627486863079509,
                -2.8359696042605607
            ]
        },
        {
            "positions": [
                -0.0350876423848694,
                -2.132172571865718,
                -1.85255757590896,
                -2.184799443725814,
                -1.5353253830070852,
                -2.9621242362811167
            ]
        },
        {
            "positions": [
                -0.03528726822467951,
                -2.1256625456908496,
                -1.8284394214335649,
                -2.350254255529643,
                -1.6079020797062198,
                -3.0882788683016726
            ]
        }
    ]
}