{
    "goal": {
        "global_pose": {
            "orientation": {
                "w": 0.7031023480610252,
                "x": -0.7110244013736278,
                "y": 0.0077485991402295624,
                "z": 0.005598929693374583
            },
            "position": {
                "x": -0.8841497679147869,
                "y": 0.44412534475326537,
                "z": 0.3711530566215515
            }
        },
        "name": "move_to_auspresseinheit_D"
    },
    "id": "PRMstar_move_to_auspresseinheit_D_27",
    "joint_names": [
        "shoulder_pan_joint",
        "shoulder_lift_joint",
        "elbow_joint",
        "wrist_1_joint",
        "wrist_2_joint",
        "wrist_3_joint"
    ],
    "metrics": {
        "cart_traj_len": 0.34201205168267684,
        "distance_elbow_joint": 0.6312272208620002,
        "distance_shoulder_lift_joint": 0.1179774668481457,
        "distance_shoulder_pan_joint": 0.13368183009555468,
        "distance_wrist_1_joint": 0.5180757633591275,
        "distance_wrist_2_joint": 1.4343024619162383,
        "distance_wrist_3_joint": 0.002981532378527163,
        "smoothness": 5.921189480296099e-16,
        "time": 5.00432083,
        "traj_len": 1.684709552255104,
        "weighted_distance": 2.190111313493452
    },
    "planner": "PRMstar",
    "start": {
        "state": {
            "elbow_joint": -1.8275523626775212,
            "shoulder_lift_joint": -2.126789852344167,
            "shoulder_pan_joint": -0.03513704404078235,
            "wrist_1_joint": -2.347782403156801,
            "wrist_2_joint": -1.6058999987535132,
            "wrist_3_joint": -3.0880379163319196
        }
    },
    "waypoints": [
        {
            "positions": [
                -0.03513704404078235,
                -2.126789852344167,
                -1.8275523626775212,
                -2.347782403156801,
                -1.6058999987535132,
                -3.0880379163319196
            ]
        },
        {
            "positions": [
                -0.051847272802726684,
                -2.141537035700185,
                -1.7486489600697712,
                -2.412541873576692,
                -1.4266121910139833,
                -3.0884106078792355
            ]
        },
        {
            "positions": [
                -0.06855750156467103,
                -2.1562842190562033,
                -1.6697455574620212,
                -2.477301343996583,
                -1.2473243832744536,
                -3.0887832994265514
            ]
        },
        {
            "positions": [
                -0.08526773032661536,
                -2.1710314024122215,
                -1.590842154854271,
                -2.5420608144164736,
                -1.068036575534924,
                -3.0891559909738673
            ]
        },
        {
            "positions": [
                -0.1019779590885597,
                -2.1857785857682397,
                -1.511938752246521,
                -2.6068202848363646,
                -0.888748767795394,
                -3.089528682521183
            ]
        },
        {
            "positions": [
                -0.11868818785050403,
                -2.200525769124258,
                -1.433035349638771,
                -2.6715797552562557,
                -0.7094609600558642,
                -3.089901374068499
            ]
        },
        {
            "positions": [
                -0.13539841661244836,
                -2.215272952480276,
                -1.354131947031021,
                -2.7363392256761463,
                -0.5301731523163344,
                -3.090274065615815
            ]
        },
        {
            "positions": [
                -0.1521086453743927,
                -2.2300201358362943,
                -1.275228544423271,
                -2.8010986960960373,
                -0.35088534457680476,
                -3.090646757163131
            ]
        },
        {
            "positions": [
                -0.16881887413633703,
                -2.2447673191923125,
                -1.196325141815521,
                -2.8658581665159284,
                -0.17159753683727494,
                -3.0910194487104468
            ]
        }
    ]
}