{
    "goal": {
        "global_pose": {
            "orientation": {
                "w": 0.005598929693374612,
                "x": 0.007748599140229565,
                "y": 0.7110244013736278,
                "z": -0.7031023480610252
            },
            "position": {
                "x": 0.1141497679147869,
                "y": -0.7141253447532654,
                "z": 0.3711530566215515
            }
        },
        "name": "move_to_auspresseinheit_B"
    },
    "id": "PRMstar_move_to_auspresseinheit_B_109",
    "joint_names": [
        "shoulder_pan_joint",
        "shoulder_lift_joint",
        "elbow_joint",
        "wrist_1_joint",
        "wrist_2_joint",
        "wrist_3_joint"
    ],
    "metrics": {
        "cart_traj_len": 0.5652166515291525,
        "distance_elbow_joint": 0.06040938748392466,
        "distance_shoulder_lift_joint": 0.295935118493986,
        "distance_shoulder_pan_joint": 0.576689801943008,
        "distance_wrist_1_joint": 0.317515202699284,
        "distance_wrist_2_joint": 0.9987155962434215,
        "distance_wrist_3_joint": 0.0020058018989623783,
        "smoothness": 0.0,
        "time": 5.006382533,
        "traj_len": 1.5004235764485263,
        "weighted_distance": 1.8898447850295055
    },
    "planner": "PRMstar",
    "start": {
        "state": {
            "elbow_joint": 2.0193083361928714,
            "shoulder_lift_joint": -1.1220246554650708,
            "shoulder_pan_joint": -1.0952077554168747,
            "wrist_1_joint": -0.8559753972642168,
            "wrist_2_joint": 0.4759566250798843,
            "wrist_3_joint": -3.1240929996934557
        }
    },
    "waypoints": [
        {
            "positions": [
                -1.0952077554168747,
                -1.1220246554650708,
                2.0193083361928714,
                -0.8559753972642168,
                0.4759566250798843,
                -3.1240929996934557
            ]
        },
        {
            "positions": [
                -1.191322722407376,
                -1.1713471752140685,
                2.0092401049455506,
                -0.8030561968143362,
                0.6424092244537879,
                -3.124427300009949
            ]
        },
        {
            "positions": [
                -1.2874376893978774,
                -1.2206696949630662,
                1.9991718736982298,
                -0.7501369963644554,
                0.8088618238276915,
                -3.124761600326443
            ]
        },
        {
            "positions": [
                -1.3835526563883787,
                -1.269992214712064,
                1.989103642450909,
                -0.6972177959145748,
                0.9753144232015951,
                -3.125095900642937
            ]
        },
        {
            "positions": [
                -1.47966762337888,
                -1.3193147344610614,
                1.9790354112035884,
                -0.6442985954646941,
                1.1417670225754986,
                -3.1254302009594306
            ]
        },
        {
            "positions": [
                -1.5757825903693814,
                -1.368637254210059,
                1.9689671799562676,
                -0.5913793950148134,
                1.3082196219494022,
                -3.125764501275924
            ]
        },
        {
            "positions": [
                -1.6718975573598827,
                -1.4179597739590568,
                1.9588989487089468,
                -0.5384601945649328,
                1.4746722213233059,
                -3.126098801592418
            ]
        }
    ]
}