{
    "goal": {
        "global_pose": {
            "orientation": {
                "w": 0.005598929693374612,
                "x": 0.007748599140229565,
                "y": 0.7110244013736278,
                "z": -0.7031023480610252
            },
            "position": {
                "x": 0.1141497679147869,
                "y": -0.7141253447532654,
                "z": 0.3711530566215515
            }
        },
        "name": "move_to_auspresseinheit_B"
    },
    "id": "PRMstar_move_to_auspresseinheit_B_110",
    "joint_names": [
        "shoulder_pan_joint",
        "shoulder_lift_joint",
        "elbow_joint",
        "wrist_1_joint",
        "wrist_2_joint",
        "wrist_3_joint"
    ],
    "metrics": {
        "cart_traj_len": 0.5639028397170436,
        "distance_elbow_joint": 0.06219904846661772,
        "distance_shoulder_lift_joint": 0.29443718840113986,
        "distance_shoulder_pan_joint": 0.5766907661622436,
        "distance_wrist_1_joint": 0.32328823652284444,
        "distance_wrist_2_joint": 0.9879964267379646,
        "distance_wrist_3_joint": 0.0019972319122327775,
        "smoothness": 0.0,
        "time": 5.016179705,
        "traj_len": 1.498869206503037,
        "weighted_distance": 1.887296485793453
    },
    "planner": "PRMstar",
    "start": {
        "state": {
            "elbow_joint": 2.0193083361928714,
            "shoulder_lift_joint": -1.1220246554650708,
            "shoulder_pan_joint": -1.0952077554168747,
            "wrist_1_joint": -0.8559753972642168,
            "wrist_2_joint": 0.4759566250798843,
            "wrist_3_joint": -3.1240929996934557
        }
    },
    "waypoints": [
        {
            "positions": [
                -1.0952077554168747,
                -1.1220246554650708,
                2.0193083361928714,
                -0.8559753972642168,
                0.4759566250798843,
                -3.1240929996934557
            ]
        },
        {
            "positions": [
                -1.191322883110582,
                -1.171097520198594,
                2.008941828115102,
                -0.8020940245104093,
                0.6406226962028784,
                -3.124425871678828
            ]
        },
        {
            "positions": [
                -1.287438010804289,
                -1.2201703849321175,
                1.9985753200373322,
                -0.748212651756602,
                0.8052887673258724,
                -3.1247587436642
            ]
        },
        {
            "positions": [
                -1.3835531384979964,
                -1.2692432496656407,
                1.9882088119595624,
                -0.6943312790027946,
                0.9699548384488665,
                -3.125091615649572
            ]
        },
        {
            "positions": [
                -1.4796682661917036,
                -1.318316114399164,
                1.977842303881793,
                -0.6404499062489872,
                1.1346209095718607,
                -3.125424487634944
            ]
        },
        {
            "positions": [
                -1.5757833938854109,
                -1.3673889791326874,
                1.9674757958040234,
                -0.5865685334951798,
                1.2992869806948548,
                -3.1257573596203163
            ]
        },
        {
            "positions": [
                -1.6718985215791182,
                -1.4164618438662107,
                1.9571092877262537,
                -0.5326871607413723,
                1.463953051817849,
                -3.1260902316056884
            ]
        }
    ]
}