{
    "goal": {
        "global_pose": {
            "orientation": {
                "w": 0.7031023502349854,
                "x": -0.7110244035720825,
                "y": 0.007748599164187908,
                "z": 0.005598929710686207
            },
            "position": {
                "x": 0.11585023208521307,
                "y": 0.44412534475326537,
                "z": 0.3711530566215515
            }
        },
        "name": "move_to_auspresseinheit_A"
    },
    "id": "PRMstar_move_to_auspresseinheit_A_97",
    "joint_names": [
        "shoulder_pan_joint",
        "shoulder_lift_joint",
        "elbow_joint",
        "wrist_1_joint",
        "wrist_2_joint",
        "wrist_3_joint"
    ],
    "metrics": {
        "cart_traj_len": 4.4803198893630105,
        "distance_elbow_joint": 5.609971430241847,
        "distance_shoulder_lift_joint": 0.5372666559722783,
        "distance_shoulder_pan_joint": 4.583677403806511,
        "distance_wrist_1_joint": 0.8641501594220884,
        "distance_wrist_2_joint": 0.781187512520367,
        "distance_wrist_3_joint": 0.8371657884322983,
        "smoothness": 0.8246184909711644,
        "time": 5.0188043449999995,
        "traj_len": 3.635026678085787,
        "weighted_distance": 4.066090038255725
    },
    "planner": "PRMstar",
    "start": {
        "state": {
            "elbow_joint": 2.4225746658250005,
            "shoulder_lift_joint": -1.3736534386056498,
            "shoulder_pan_joint": -0.3378633547517467,
            "wrist_1_joint": -1.0288598680537169,
            "wrist_2_joint": 1.233022673432363,
            "wrist_3_joint": -3.0940220416140027
        }
    },
    "waypoints": [
        {
            "positions": [
                -0.3378633547517467,
                -1.3736534386056498,
                2.4225746658250005,
                -1.0288598680537169,
                1.233022673432363,
                -3.0940220416140027
            ]
        },
        {
            "positions": [
                -0.4557685139792577,
                -1.3930789281247289,
                2.2346710526269846,
                -1.0393375326887824,
                1.2419007395824035,
                -3.067160315305044
            ]
        },
        {
            "positions": [
                -0.5736736732067688,
                -1.4125044176438077,
                2.046767439428969,
                -1.0498151973238479,
                1.2507788057324443,
                -3.0402985889960856
            ]
        },
        {
            "positions": [
                -0.6915788324342798,
                -1.4319299071628868,
                1.8588638262309534,
                -1.0602928619589134,
                1.2596568718824848,
                -3.013436862687127
            ]
        },
        {
            "positions": [
                -0.8094839916617907,
                -1.4513553966819657,
                1.6709602130329377,
                -1.0707705265939789,
                1.2685349380325253,
                -2.9865751363781685
            ]
        },
        {
            "positions": [
                -0.9273891508893017,
                -1.4707808862010447,
                1.483056599834922,
                -1.0812481912290444,
                1.2774130041825658,
                -2.95971341006921
            ]
        },
        {
            "positions": [
                -1.0452943101168128,
                -1.4902063757201236,
                1.2951529866369065,
                -1.0917258558641099,
                1.2862910703326065,
                -2.9328516837602514
            ]
        },
        {
            "positions": [
                -1.163199469344324,
                -1.5096318652392027,
                1.1072493734388908,
                -1.1022035204991756,
                1.295169136482647,
                -2.9059899574512924
            ]
        },
        {
            "positions": [
                -1.2811046285718348,
                -1.5290573547582815,
                0.919345760240875,
                -1.112681185134241,
                1.3040472026326875,
                -2.8791282311423343
            ]
        },
        {
            "positions": [
                -1.3990097877993457,
                -1.5484828442773606,
                0.7314421470428594,
                -1.1231588497693066,
                1.312925268782728,
                -2.8522665048333753
            ]
        },
        {
            "positions": [
                -1.5169149470268568,
                -1.5679083337964395,
                0.5435385338448437,
                -1.133636514404372,
                1.3218033349327687,
                -2.8254047785244167
            ]
        },
        {
            "positions": [
                -1.6348201062543677,
                -1.5873338233155185,
                0.35563492064682833,
                -1.1441141790394376,
                1.3306814010828092,
                -2.798543052215458
            ]
        },
        {
            "positions": [
                -1.752725265481879,
                -1.6067593128345976,
                0.16773130744881248,
                -1.154591843674503,
                1.3395594672328497,
                -2.7716813259064996
            ]
        },
        {
            "positions": [
                -1.87063042470939,
                -1.6261848023536765,
                -0.020172305749203367,
                -1.1650695083095686,
                1.3484375333828904,
                -2.744819599597541
            ]
        },
        {
            "positions": [
                -1.988535583936901,
                -1.6456102918727553,
                -0.20807591894721877,
                -1.175547172944634,
                1.357315599532931,
                -2.7179578732885825
            ]
        },
        {
            "positions": [
                -2.106440743164412,
                -1.6650357813918344,
                -0.3959795321452348,
                -1.1860248375796996,
                1.3661936656829714,
                -2.691096146979624
            ]
        },
        {
            "positions": [
                -1.9656857423947196,
                -1.677329997051139,
                -0.25640867053165417,
                -1.1506755780848943,
                1.3337928396694834,
                -2.71280814166952
            ]
        },
        {
            "positions": [
                -1.8249307416250273,
                -1.6896242127104437,
                -0.1168378089180736,
                -1.115326318590089,
                1.3013920136559955,
                -2.734520136359416
            ]
        },
        {
            "positions": [
                -1.684175740855335,
                -1.7019184283697484,
                0.02273305269550696,
                -1.0799770590952837,
                1.2689911876425075,
                -2.756232131049312
            ]
        },
        {
            "positions": [
                -1.5434207400856428,
                -1.714212644029053,
                0.16230391430908758,
                -1.0446277996004785,
                1.2365903616290197,
                -2.7779441257392077
            ]
        },
        {
            "positions": [
                -1.4026657393159505,
                -1.726506859688358,
                0.30187477592266815,
                -1.0092785401056732,
                1.2041895356155317,
                -2.7996561204291037
            ]
        },
        {
            "positions": [
                -1.2619107385462582,
                -1.7388010753476626,
                0.4414456375362487,
                -0.9739292806108679,
                1.1717887096020438,
                -2.8213681151189998
            ]
        },
        {
            "positions": [
                -1.121155737776566,
                -1.7510952910069673,
                0.5810164991498292,
                -0.9385800211160626,
                1.1393878835885558,
                -2.843080109808896
            ]
        },
        {
            "positions": [
                -0.9804007370068735,
                -1.763389506666272,
                0.7205873607634099,
                -0.9032307616212573,
                1.106987057575068,
                -2.864792104498792
            ]
        },
        {
            "positions": [
                -0.8396457362371812,
                -1.7756837223255766,
                0.8601582223769906,
                -0.867881502126452,
                1.07458623156158,
                -2.886504099188688
            ]
        },
        {
            "positions": [
                -0.6988907354674889,
                -1.7879779379848812,
                0.999729083990571,
                -0.8325322426316467,
                1.0421854055480921,
                -2.9082160938785835
            ]
        },
        {
            "positions": [
                -0.5581357346977964,
                -1.800272153644186,
                1.1392999456041517,
                -0.7971829831368413,
                1.009784579534604,
                -2.9299280885684795
            ]
        },
        {
            "positions": [
                -0.4173807339281044,
                -1.8125663693034906,
                1.2788708072177322,
                -0.7618337236420362,
                0.9773837535211163,
                -2.9516400832583756
            ]
        },
        {
            "positions": [
                -0.2766257331584119,
                -1.8248605849627952,
                1.4184416688313128,
                -0.7264844641472308,
                0.9449829275076282,
                -2.9733520779482716
            ]
        },
        {
            "positions": [
                -0.13587073238871983,
                -1.8371548006221,
                1.5580125304448933,
                -0.6911352046524256,
                0.9125821014941404,
                -2.9950640726381677
            ]
        },
        {
            "positions": [
                0.004884268380972667,
                -1.8494490162814046,
                1.6975833920584738,
                -0.6557859451576202,
                0.8801812754806524,
                -3.0167760673280637
            ]
        },
        {
            "positions": [
                0.14563926915066494,
                -1.8617432319407095,
                1.8371542536720546,
                -0.620436685662815,
                0.8477804494671645,
                -3.0384880620179597
            ]
        },
        {
            "positions": [
                0.2863942699203572,
                -1.8740374476000141,
                1.976725115285635,
                -0.5850874261680097,
                0.8153796234536765,
                -3.0602000567078553
            ]
        },
        {
            "positions": [
                0.4271492706900495,
                -1.8863316632593188,
                2.1162959768992162,
                -0.5497381666732044,
                0.7829787974401886,
                -3.0819120513977514
            ]
        },
        {
            "positions": [
                0.5679042714597418,
                -1.8986258789186234,
                2.2558668385127962,
                -0.5143889071783991,
                0.7505779714267007,
                -3.1036240460876474
            ]
        },
        {
            "positions": [
                0.708659272229434,
                -1.910920094577928,
                2.395437700126377,
                -0.4790396476835939,
                0.7181771454132128,
                -3.1253360407775435
            ]
        }
    ]
}