{
    "goal": {
        "global_pose": {
            "orientation": {
                "w": 0.005598929693374612,
                "x": 0.007748599140229565,
                "y": 0.7110244013736278,
                "z": -0.7031023480610252
            },
            "position": {
                "x": -0.8858502320852131,
                "y": -0.7141253447532654,
                "z": 0.3711530566215515
            }
        },
        "name": "move_to_auspresseinheit_C"
    },
    "id": "PRMstar_move_to_auspresseinheit_C_104",
    "joint_names": [
        "shoulder_pan_joint",
        "shoulder_lift_joint",
        "elbow_joint",
        "wrist_1_joint",
        "wrist_2_joint",
        "wrist_3_joint"
    ],
    "metrics": {
        "cart_traj_len": 0.49307601801541784,
        "distance_elbow_joint": 0.9954812993413049,
        "distance_shoulder_lift_joint": 0.3225413803812489,
        "distance_shoulder_pan_joint": 0.2557931854025557,
        "distance_wrist_1_joint": 0.6613829655209644,
        "distance_wrist_2_joint": 1.317444692062081,
        "distance_wrist_3_joint": 0.03878392624765192,
        "smoothness": 4.844609600361787e-16,
        "time": 5.0159068719999995,
        "traj_len": 1.8951061840846297,
        "weighted_distance": 2.3765148766700697
    },
    "planner": "PRMstar",
    "start": {
        "state": {
            "elbow_joint": 1.7527959577737207,
            "shoulder_lift_joint": -0.9740617694225068,
            "shoulder_pan_joint": -2.967991417825858,
            "wrist_1_joint": -0.759517768980727,
            "wrist_2_joint": 1.7443932448377408,
            "wrist_3_joint": -3.0840537646736568
        }
    },
    "waypoints": [
        {
            "positions": [
                -2.967991417825858,
                -0.9740617694225068,
                1.7527959577737207,
                -0.759517768980727,
                1.7443932448377408,
                -3.0840537646736568
            ]
        },
        {
            "positions": [
                -2.9424120992856024,
                -0.9418076313843818,
                1.6532478278395901,
                -0.6933794724286305,
                1.6126487756315326,
                -3.0879321572984217
            ]
        },
        {
            "positions": [
                -2.916832780745347,
                -0.909553493346257,
                1.5536996979054596,
                -0.627241175876534,
                1.4809043064253247,
                -3.091810549923187
            ]
        },
        {
            "positions": [
                -2.8912534622050914,
                -0.8772993553081321,
                1.4541515679713293,
                -0.5611028793244377,
                1.3491598372191165,
                -3.0956889425479526
            ]
        },
        {
            "positions": [
                -2.865674143664836,
                -0.8450452172700071,
                1.3546034380371987,
                -0.4949645827723412,
                1.2174153680129085,
                -3.0995673351727175
            ]
        },
        {
            "positions": [
                -2.84009482512458,
                -0.8127910792318823,
                1.2550553081030682,
                -0.42882628622024477,
                1.0856708988067003,
                -3.1034457277974825
            ]
        },
        {
            "positions": [
                -2.8145155065843244,
                -0.7805369411937575,
                1.1555071781689379,
                -0.36268798966814836,
                0.9539264296004922,
                -3.107324120422248
            ]
        },
        {
            "positions": [
                -2.788936188044069,
                -0.7482828031556326,
                1.0559590482348074,
                -0.2965496931160519,
                0.8221819603942842,
                -3.1112025130470133
            ]
        },
        {
            "positions": [
                -2.7633568695038133,
                -0.7160286651175076,
                0.9564109183006767,
                -0.23041139656395537,
                0.690437491188076,
                -3.1150809056717783
            ]
        },
        {
            "positions": [
                -2.737777550963558,
                -0.6837745270793827,
                0.8568627883665462,
                -0.16427310001185902,
                0.5586930219818678,
                -3.1189592982965433
            ]
        },
        {
            "positions": [
                -2.7121982324233023,
                -0.6515203890412579,
                0.7573146584324157,
                -0.09813480345976253,
                0.42694855277565974,
                -3.1228376909213087
            ]
        }
    ]
}