{
    "goal": {
        "global_pose": {
            "orientation": {
                "w": -0.00223480608172531,
                "x": 0.0024358444001904467,
                "y": 0.7094548369677653,
                "z": -0.704743149386269
            },
            "position": {
                "x": 0.6205249238014221,
                "y": -0.6371506643295288,
                "z": 0.19426114857196808
            }
        },
        "name": "move_to_magneteinheit_B"
    },
    "id": "PRMstar_move_to_magneteinheit_B_104",
    "joint_names": [
        "shoulder_pan_joint",
        "shoulder_lift_joint",
        "elbow_joint",
        "wrist_1_joint",
        "wrist_2_joint",
        "wrist_3_joint"
    ],
    "metrics": {
        "cart_traj_len": 1.4504036815831427,
        "distance_elbow_joint": 1.072245666195367,
        "distance_shoulder_lift_joint": 0.7563445564177308,
        "distance_shoulder_pan_joint": 1.6201180958165298,
        "distance_wrist_1_joint": 0.978343704851222,
        "distance_wrist_2_joint": 1.5305908032909639,
        "distance_wrist_3_joint": 0.46006435658999184,
        "smoothness": 0.5031996520740113,
        "time": 5.042631728,
        "traj_len": 2.5333194001471284,
        "weighted_distance": 3.1379564057653786
    },
    "planner": "PRMstar",
    "start": {
        "state": {
            "elbow_joint": 2.6216224122426386,
            "shoulder_lift_joint": -1.4174107377796124,
            "shoulder_pan_joint": 0.7066234856936794,
            "wrist_1_joint": 1.9546482284002225,
            "wrist_2_joint": -0.7096286983471962,
            "wrist_3_joint": 0.005740856962016249
        }
    },
    "waypoints": [
        {
            "positions": [
                0.7066234856936794,
                -1.4174107377796124,
                2.6216224122426386,
                1.9546482284002225,
                -0.7096286983471962,
                0.005740856962016249
            ]
        },
        {
            "positions": [
                0.6424184234984933,
                -1.3640416977656487,
                2.6505188817694947,
                1.75769812611252,
                -0.7118358368142867,
                -0.03189765309345808
            ]
        },
        {
            "positions": [
                0.5782133613033071,
                -1.310672657751685,
                2.6794153512963508,
                1.5607480238248175,
                -0.7140429752813773,
                -0.0695361631489324
            ]
        },
        {
            "positions": [
                0.46567847217806757,
                -1.2720602061283048,
                2.612574486244421,
                1.5969417931097245,
                -0.8271843360237698,
                -0.05001600067060226
            ]
        },
        {
            "positions": [
                0.35314358305282795,
                -1.2334477545049247,
                2.545733621192491,
                1.6331355623946318,
                -0.9403256967661624,
                -0.030495838192272105
            ]
        },
        {
            "positions": [
                0.24060869392758832,
                -1.1948353028815446,
                2.478892756140561,
                1.6693293316795388,
                -1.053467057508555,
                -0.010975675713941951
            ]
        },
        {
            "positions": [
                0.12807380480234876,
                -1.1562228512581645,
                2.4120518910886313,
                1.705523100964446,
                -1.1666084182509475,
                0.008544486764388196
            ]
        },
        {
            "positions": [
                0.015538915677109078,
                -1.1176103996347846,
                2.3452110260367016,
                1.741716870249353,
                -1.2797497789933403,
                0.028064649242718356
            ]
        },
        {
            "positions": [
                -0.09699597344813049,
                -1.0789979480114045,
                2.2783701609847715,
                1.77791063953426,
                -1.3928911397357329,
                0.0475848117210485
            ]
        },
        {
            "positions": [
                -0.20953086257337017,
                -1.0403854963880244,
                2.2115292959328414,
                1.8141044088191673,
                -1.5060325004781254,
                0.06710497419937866
            ]
        },
        {
            "positions": [
                -0.3220657516986096,
                -1.0017730447646442,
                2.1446884308809118,
                1.8502981781040744,
                -1.619173861220518,
                0.0866251366777088
            ]
        },
        {
            "positions": [
                -0.4346006408238492,
                -0.9631605931412641,
                2.077847565828982,
                1.8864919473889816,
                -1.7323152219629105,
                0.10614529915603896
            ]
        },
        {
            "positions": [
                -0.547135529949089,
                -0.924548141517884,
                2.011006700777052,
                1.9226857166738887,
                -1.845456582705303,
                0.12566546163436912
            ]
        },
        {
            "positions": [
                -0.6596704190743286,
                -0.885935689894504,
                1.9441658357251221,
                1.958879485958796,
                -1.9585979434476957,
                0.14518562411269925
            ]
        },
        {
            "positions": [
                -0.772205308199568,
                -0.8473232382711239,
                1.8773249706731923,
                1.995073255243703,
                -2.0717393041900882,
                0.1647057865910294
            ]
        },
        {
            "positions": [
                -0.8193017421739955,
                -0.7852375526347097,
                1.8065375218336934,
                2.0451126781960136,
                -2.127899370006112,
                0.11452399101133562
            ]
        },
        {
            "positions": [
                -0.8663981761484231,
                -0.7231518669982957,
                1.7357500729941948,
                2.095152101148324,
                -2.184059435822136,
                0.06434219543164182
            ]
        },
        {
            "positions": [
                -0.9134946101228506,
                -0.6610661813618816,
                1.664962624154696,
                2.1451915241006345,
                -2.24021950163816,
                0.014160399851948035
            ]
        }
    ]
}