{
    "goal": {
        "global_pose": {
            "orientation": {
                "w": 0.7031023502349854,
                "x": -0.7110244035720825,
                "y": 0.007748599164187908,
                "z": 0.005598929710686207
            },
            "position": {
                "x": 0.11585023208521307,
                "y": 0.44412534475326537,
                "z": 0.3711530566215515
            }
        },
        "name": "move_to_auspresseinheit_A"
    },
    "id": "PRMstar_move_to_auspresseinheit_A_84",
    "joint_names": [
        "shoulder_pan_joint",
        "shoulder_lift_joint",
        "elbow_joint",
        "wrist_1_joint",
        "wrist_2_joint",
        "wrist_3_joint"
    ],
    "metrics": {
        "cart_traj_len": 0.7406675858495562,
        "distance_elbow_joint": 0.04624703511545647,
        "distance_shoulder_lift_joint": 0.6837091608894537,
        "distance_shoulder_pan_joint": 1.0410319547732132,
        "distance_wrist_1_joint": 0.5463628338305974,
        "distance_wrist_2_joint": 0.5321032468600391,
        "distance_wrist_3_joint": 0.3518208462574006,
        "smoothness": 0.5016824397400647,
        "time": 5.014618865,
        "traj_len": 1.7892107415634861,
        "weighted_distance": 2.232349177644841
    },
    "planner": "PRMstar",
    "start": {
        "state": {
            "elbow_joint": 2.4225746658250005,
            "shoulder_lift_joint": -1.3736534386056498,
            "shoulder_pan_joint": -0.3378633547517467,
            "wrist_1_joint": -1.0288598680537169,
            "wrist_2_joint": 1.233022673432363,
            "wrist_3_joint": -3.0940220416140027
        }
    },
    "waypoints": [
        {
            "positions": [
                -0.3378633547517467,
                -1.3736534386056498,
                2.4225746658250005,
                -1.0288598680537169,
                1.233022673432363,
                -3.0940220416140027
            ]
        },
        {
            "positions": [
                -0.26000441948410596,
                -1.4957220191884373,
                2.415363926576748,
                -0.9737709871224828,
                1.1398346705833293,
                -3.061808969785022
            ]
        },
        {
            "positions": [
                -0.18214548421646523,
                -1.6177905997712247,
                2.408153187328495,
                -0.9186821061912487,
                1.0466466677342954,
                -3.0295958979560416
            ]
        },
        {
            "positions": [
                -0.10428654894882453,
                -1.7398591803540122,
                2.4009424480802424,
                -0.8635932252600145,
                0.9534586648852615,
                -2.9973828261270614
            ]
        },
        {
            "positions": [
                -0.026427613681183737,
                -1.8619277609367997,
                2.3937317088319894,
                -0.8085043443287804,
                0.8602706620362277,
                -2.965169754298081
            ]
        },
        {
            "positions": [
                0.051431321586456996,
                -1.9839963415195871,
                2.386520969583737,
                -0.7534154633975463,
                0.7670826591871939,
                -2.9329566824691002
            ]
        },
        {
            "positions": [
                0.21436564119520937,
                -1.965654777025708,
                2.389069304302285,
                -0.6856858561039396,
                0.7505418510334764,
                -2.980645554247225
            ]
        },
        {
            "positions": [
                0.3772999608039618,
                -1.9473132125318289,
                2.3916176390208332,
                -0.617956248810333,
                0.734001042879759,
                -3.0283344260253493
            ]
        },
        {
            "positions": [
                0.5402342804127142,
                -1.92897164803795,
                2.3941659737393817,
                -0.5502266415167262,
                0.7174602347260415,
                -3.0760232978034736
            ]
        },
        {
            "positions": [
                0.7031686000214665,
                -1.9106300835440708,
                2.3967143084579297,
                -0.4824970342231195,
                0.700919426572324,
                -3.1237121695815984
            ]
        }
    ]
}