{
    "goal": {
        "global_pose": {
            "orientation": {
                "w": 0.5084816217422485,
                "x": -0.49083608388900757,
                "y": 0.5182115435600281,
                "z": -0.4816462993621826
            },
            "position": {
                "x": 0.5540239810943604,
                "y": 0.030875300988554955,
                "z": 0.16403168439865112
            }
        },
        "name": "move_to_storage_A"
    },
    "id": "PRMstar_move_to_storage_A_78",
    "joint_names": [
        "shoulder_pan_joint",
        "shoulder_lift_joint",
        "elbow_joint",
        "wrist_1_joint",
        "wrist_2_joint",
        "wrist_3_joint"
    ],
    "metrics": {
        "cart_traj_len": 0.35341878665351556,
        "distance_elbow_joint": 0.4500599610228211,
        "distance_shoulder_lift_joint": 0.2366415353675002,
        "distance_shoulder_pan_joint": 0.46259574574540197,
        "distance_wrist_1_joint": 0.23607923175945722,
        "distance_wrist_2_joint": 1.0990006143217528,
        "distance_wrist_3_joint": 0.0880042780358048,
        "smoothness": 0.0,
        "time": 5.007627489,
        "traj_len": 1.6038645099423885,
        "weighted_distance": 2.0207597008069906
    },
    "planner": "PRMstar",
    "start": {
        "state": {
            "elbow_joint": 1.971548259319323,
            "shoulder_lift_joint": -1.1394851275133948,
            "shoulder_pan_joint": 0.1228115487234821,
            "wrist_1_joint": -0.7804723859257726,
            "wrist_2_joint": 0.12958671773740124,
            "wrist_3_joint": -3.192489227718131
        }
    },
    "waypoints": [
        {
            "positions": [
                0.1228115487234821,
                -1.1394851275133948,
                1.971548259319323,
                -0.7804723859257726,
                0.12958671773740124,
                -3.192489227718131
            ]
        },
        {
            "positions": [
                0.05672644218842468,
                -1.1732910611373235,
                2.0358425394654405,
                -0.8141979904628379,
                0.28658680549765164,
                -3.1799171879987305
            ]
        },
        {
            "positions": [
                -0.009358664346632739,
                -1.207096994761252,
                2.1001368196115577,
                -0.8479235949999032,
                0.443586893257902,
                -3.16734514827933
            ]
        },
        {
            "positions": [
                -0.07544377088169016,
                -1.2409029283851807,
                2.164431099757675,
                -0.8816491995369685,
                0.6005869810181524,
                -3.154773108559929
            ]
        },
        {
            "positions": [
                -0.14152887741674758,
                -1.2747088620091092,
                2.2287253799037923,
                -0.9153748040740339,
                0.7575870687784029,
                -3.1422010688405284
            ]
        },
        {
            "positions": [
                -0.20761398395180503,
                -1.3085147956330379,
                2.2930196600499095,
                -0.9491004086110992,
                0.9145871565386533,
                -3.1296290291211277
            ]
        },
        {
            "positions": [
                -0.2736990904868624,
                -1.3423207292569663,
                2.357313940196027,
                -0.9828260131481645,
                1.0715872442989036,
                -3.117056989401727
            ]
        },
        {
            "positions": [
                -0.33978419702191986,
                -1.376126662880895,
                2.421608220342144,
                -1.0165516176852298,
                1.228587332059154,
                -3.1044849496823264
            ]
        }
    ]
}{
    "goal": {
        "global_pose": {
            "orientation": {
                "w": 0.5084816217422485,
                "x": -0.49083608388900757,
                "y": 0.5182115435600281,
                "z": -0.4816462993621826
            },
            "position": {
                "x": 0.5540239810943604,
                "y": 0.030875300988554955,
                "z": 0.16403168439865112
            }
        },
        "name": "move_to_storage_A"
    },
    "id": "PRMstar_move_to_storage_A_78",
    "joint_names": [
        "shoulder_pan_joint",
        "shoulder_lift_joint",
        "elbow_joint",
        "wrist_1_joint",
        "wrist_2_joint",
        "wrist_3_joint"
    ],
    "metrics": {
        "cart_traj_len": 0.3534024727344819,
        "distance_elbow_joint": 0.44971742666749837,
        "distance_shoulder_lift_joint": 0.2355595779684454,
        "distance_shoulder_pan_joint": 0.4643861269138014,
        "distance_wrist_1_joint": 0.23855654625164902,
        "distance_wrist_2_joint": 1.0903378886339763,
        "distance_wrist_3_joint": 0.09798370338761275,
        "smoothness": 1.3322676295501878e-15,
        "time": 5.002766556,
        "traj_len": 1.6051608236631565,
        "weighted_distance": 2.025192117178969
    },
    "planner": "PRMstar",
    "start": {
        "state": {
            "elbow_joint": 1.97154746011099,
            "shoulder_lift_joint": -1.13948474672311,
            "shoulder_pan_joint": 0.12281154466712228,
            "wrist_1_joint": -0.7804688027058302,
            "wrist_2_joint": 0.12958655903071145,
            "wrist_3_joint": 3.0906928834467795
        }
    },
    "waypoints": [
        {
            "positions": [
                0.12281154466712228,
                -1.13948474672311,
                1.97154746011099,
                -0.7804688027058302,
                0.12958655903071145,
                3.0906928834467795
            ]
        },
        {
            "positions": [
                0.056470669393722084,
                -1.1731361150043165,
                2.0357928067777755,
                -0.8145483093132087,
                0.2853491145498509,
                3.1046905553592956
            ]
        },
        {
            "positions": [
                -0.009870205879678115,
                -1.206787483285523,
                2.1000381534445607,
                -0.848627815920587,
                0.4411116700689903,
                3.1186882272718117
            ]
        },
        {
            "positions": [
                -0.0762110811530783,
                -1.2404388515667295,
                2.1642835001113463,
                -0.8827073225279655,
                0.5968742255881299,
                3.132685899184328
            ]
        },
        {
            "positions": [
                -0.1425519564264785,
                -1.2740902198479358,
                2.228528846778132,
                -0.9167868291353439,
                0.7526367811072693,
                3.146683571096844
            ]
        },
        {
            "positions": [
                -0.2088928316998787,
                -1.3077415881291423,
                2.2927741934449175,
                -0.9508663357427223,
                0.9083993366264088,
                3.16068124300936
            ]
        },
        {
            "positions": [
                -0.27523370697327887,
                -1.3413929564103488,
                2.3570195401117027,
                -0.9849458423501007,
                1.0641618921455482,
                3.174678914921876
            ]
        },
        {
            "positions": [
                -0.3415745822466791,
                -1.3750443246915554,
                2.4212648867784883,
                -1.0190253489574792,
                1.2199244476646878,
                3.1886765868343923
            ]
        }
    ]
}{
    "goal": {
        "global_pose": {
            "orientation": {
                "w": 0.5084816217422485,
                "x": -0.49083608388900757,
                "y": 0.5182115435600281,
                "z": -0.4816462993621826
            },
            "position": {
                "x": 0.5540239810943604,
                "y": 0.030875300988554955,
                "z": 0.16403168439865112
            }
        },
        "name": "move_to_storage_A"
    },
    "id": "PRMstar_move_to_storage_A_78",
    "joint_names": [
        "shoulder_pan_joint",
        "shoulder_lift_joint",
        "elbow_joint",
        "wrist_1_joint",
        "wrist_2_joint",
        "wrist_3_joint"
    ],
    "metrics": {
        "cart_traj_len": 0.35319941109835934,
        "distance_elbow_joint": 0.45060267824826505,
        "distance_shoulder_lift_joint": 0.23465730515303385,
        "distance_shoulder_pan_joint": 0.46405102810422505,
        "distance_wrist_1_joint": 0.23943418432335717,
        "distance_wrist_2_joint": 1.0903271760475313,
        "distance_wrist_3_joint": 0.0980330070986759,
        "smoothness": 4.440892098500626e-16,
        "time": 5.010495584999999,
        "traj_len": 1.605336531377483,
        "weighted_distance": 2.0255697355419113
    },
    "planner": "PRMstar",
    "start": {
        "state": {
            "elbow_joint": 1.9715472970024885,
            "shoulder_lift_joint": -1.1394870060712896,
            "shoulder_pan_joint": 0.12281152778156021,
            "wrist_1_joint": -0.780463741449964,
            "wrist_2_joint": 0.12958659822042276,
            "wrist_3_joint": 3.090690232415272
        }
    },
    "waypoints": [
        {
            "positions": [
                0.12281152778156021,
                -1.1394870060712896,
                1.9715472970024885,
                -0.780463741449964,
                0.12958659822042276,
                3.090690232415272
            ]
        },
        {
            "positions": [
                0.05651852376667092,
                -1.1730094782360088,
                2.035919108180812,
                -0.8146686249247294,
                0.2853476233700701,
                3.1046949477150827
            ]
        },
        {
            "positions": [
                -0.009774480248218365,
                -1.206531950400728,
                2.1002909193591357,
                -0.8488735083994946,
                0.44110864851971743,
                3.1186996630148935
            ]
        },
        {
            "positions": [
                -0.07606748426310767,
                -1.240054422565447,
                2.1646627305374593,
                -0.88307839187426,
                0.5968696736693647,
                3.1327043783147044
            ]
        },
        {
            "positions": [
                -0.14236048827799694,
                -1.273576894730166,
                2.229034541715783,
                -0.9172832753490252,
                0.752630698819012,
                3.1467090936145152
            ]
        },
        {
            "positions": [
                -0.20865349229288624,
                -1.3070993668948852,
                2.2934063528941064,
                -0.9514881588237906,
                0.9083917239686594,
                3.160713808914326
            ]
        },
        {
            "positions": [
                -0.27494649630777557,
                -1.3406218390596043,
                2.35777816407243,
                -0.9856930422985558,
                1.0641527491183067,
                3.174718524214137
            ]
        },
        {
            "positions": [
                -0.3412395003226648,
                -1.3741443112243235,
                2.4221499752507536,
                -1.0198979257733212,
                1.219913774267954,
                3.1887232395139478
            ]
        }
    ]
}