{
    "goal": {
        "global_pose": {
            "orientation": {
                "w": -0.00223480608172531,
                "x": 0.0024358444001904467,
                "y": 0.7094548369677653,
                "z": -0.704743149386269
            },
            "position": {
                "x": -0.37947507619857795,
                "y": -0.6371506643295288,
                "z": 0.19426114857196808
            }
        },
        "name": "move_to_magneteinheit_C"
    },
    "id": "PRMstar_move_to_magneteinheit_C_18",
    "joint_names": [
        "shoulder_pan_joint",
        "shoulder_lift_joint",
        "elbow_joint",
        "wrist_1_joint",
        "wrist_2_joint",
        "wrist_3_joint"
    ],
    "metrics": {
        "cart_traj_len": 0.669010267834161,
        "distance_elbow_joint": 0.7688186175270499,
        "distance_shoulder_lift_joint": 0.680602797178623,
        "distance_shoulder_pan_joint": 0.8016606394976871,
        "distance_wrist_1_joint": 1.799070254952246,
        "distance_wrist_2_joint": 1.2175454759908089,
        "distance_wrist_3_joint": 1.472115664582836,
        "smoothness": 1.2025442831033912,
        "time": 5.0331685020000005,
        "traj_len": 2.5961150686611045,
        "weighted_distance": 3.563798606801172
    },
    "planner": "PRMstar",
    "start": {
        "state": {
            "elbow_joint": 1.9565354010623817,
            "shoulder_lift_joint": -1.4165861575791021,
            "shoulder_pan_joint": -1.6717766225146293,
            "wrist_1_joint": -0.5286633292919765,
            "wrist_2_joint": 1.472756589071564,
            "wrist_3_joint": -3.1238370188695823
        }
    },
    "waypoints": [
        {
            "positions": [
                -1.6717766225146293,
                -1.4165861575791021,
                1.9565354010623817,
                -0.5286633292919765,
                1.472756589071564,
                -3.1238370188695823
            ]
        },
        {
            "positions": [
                -1.6953727343554303,
                -1.443415876880513,
                2.0083689387140886,
                -0.6613780454918786,
                1.401998309743545,
                -3.038806178576758
            ]
        },
        {
            "positions": [
                -1.7189688461962314,
                -1.470245596181924,
                2.060202476365795,
                -0.7940927616917808,
                1.3312400304155259,
                -2.9537753382839336
            ]
        },
        {
            "positions": [
                -1.7425649580370324,
                -1.497075315483335,
                2.112036014017502,
                -0.926807477891683,
                1.2604817510875068,
                -2.868744497991109
            ]
        },
        {
            "positions": [
                -1.7661610698778332,
                -1.5239050347847458,
                2.163869551669209,
                -1.0595221940915853,
                1.1897234717594878,
                -2.783713657698285
            ]
        },
        {
            "positions": [
                -1.7897571817186342,
                -1.550734754086157,
                2.215703089320916,
                -1.1922369102914874,
                1.1189651924314687,
                -2.698682817405461
            ]
        },
        {
            "positions": [
                -1.8133532935594352,
                -1.5775644733875678,
                2.267536626972623,
                -1.3249516264913896,
                1.0482069131034497,
                -2.6136519771126365
            ]
        },
        {
            "positions": [
                -1.8369494054002362,
                -1.6043941926889789,
                2.3193701646243294,
                -1.457666342691292,
                0.9774486337754307,
                -2.528621136819812
            ]
        },
        {
            "positions": [
                -1.8605455172410372,
                -1.6312239119903897,
                2.3712037022760364,
                -1.590381058891194,
                0.9066903544474116,
                -2.443590296526988
            ]
        },
        {
            "positions": [
                -1.9867487183242023,
                -1.574416111211426,
                2.3621761467854223,
                -1.5039139862997595,
                0.9603466082547991,
                -2.4324713599799965
            ]
        },
        {
            "positions": [
                -2.112951919407367,
                -1.5176083104324625,
                2.353148591294808,
                -1.4174469137083248,
                1.0140028620621866,
                -2.4213524234330057
            ]
        },
        {
            "positions": [
                -2.239155120490532,
                -1.4608005096534988,
                2.3441210358041937,
                -1.33097984111689,
                1.067659115869574,
                -2.410233486886015
            ]
        },
        {
            "positions": [
                -2.365358321573697,
                -1.4039927088745352,
                2.3350934803135797,
                -1.2445127685254556,
                1.1213153696769615,
                -2.3991145503390237
            ]
        },
        {
            "positions": [
                -2.383371478313467,
                -1.3642037355992884,
                2.2820867979217567,
                -1.1792653960275739,
                1.0485063319874437,
                -2.523680083014403
            ]
        },
        {
            "positions": [
                -2.401384635053237,
                -1.3244147623240417,
                2.2290801155299333,
                -1.1140180235296924,
                0.9756972942979261,
                -2.648245615689783
            ]
        },
        {
            "positions": [
                -2.4193977917930067,
                -1.2846257890487949,
                2.1760734331381104,
                -1.0487706510318107,
                0.9028882566084082,
                -2.7728111483651623
            ]
        },
        {
            "positions": [
                -2.4374109485327766,
                -1.2448368157735479,
                2.1230667507462875,
                -0.9835232785339291,
                0.8300792189188905,
                -2.8973766810405417
            ]
        },
        {
            "positions": [
                -2.4554241052725465,
                -1.205047842498301,
                2.070060068354464,
                -0.9182759060360474,
                0.7572701812293726,
                -3.0219422137159215
            ]
        },
        {
            "positions": [
                -2.4734372620123164,
                -1.1652588692230543,
                2.017053385962641,
                -0.8530285335381658,
                0.6844611435398549,
                -3.146507746391301
            ]
        }
    ]
}