{
    "goal": {
        "global_pose": {
            "orientation": {
                "w": -0.00223480608172531,
                "x": 0.0024358444001904467,
                "y": 0.7094548369677653,
                "z": -0.704743149386269
            },
            "position": {
                "x": 0.6205249238014221,
                "y": -0.6371506643295288,
                "z": 0.19426114857196808
            }
        },
        "name": "move_to_magneteinheit_B"
    },
    "id": "PRMstar_move_to_magneteinheit_B_13",
    "joint_names": [
        "shoulder_pan_joint",
        "shoulder_lift_joint",
        "elbow_joint",
        "wrist_1_joint",
        "wrist_2_joint",
        "wrist_3_joint"
    ],
    "metrics": {
        "cart_traj_len": 4.174802882117896,
        "distance_elbow_joint": 6.923933339856365,
        "distance_shoulder_lift_joint": 3.1856554541746585,
        "distance_shoulder_pan_joint": 3.2307837545033733,
        "distance_wrist_1_joint": 4.110389887480247,
        "distance_wrist_2_joint": 2.9838234837459474,
        "distance_wrist_3_joint": 5.220826327441991,
        "smoothness": 0.9021373407549027,
        "time": 5.096202908,
        "traj_len": 5.065117199749932,
        "weighted_distance": 6.572007172341852
    },
    "planner": "PRMstar",
    "start": {
        "state": {
            "elbow_joint": 2.6216224122426386,
            "shoulder_lift_joint": -1.4174107377796124,
            "shoulder_pan_joint": 0.7066234856936794,
            "wrist_1_joint": 1.9546482284002225,
            "wrist_2_joint": -0.7096286983471962,
            "wrist_3_joint": 0.005740856962016249
        }
    },
    "waypoints": [
        {
            "positions": [
                0.7066234856936794,
                -1.4174107377796124,
                2.6216224122426386,
                1.9546482284002225,
                -0.7096286983471962,
                0.005740856962016249
            ]
        },
        {
            "positions": [
                0.6456452450773829,
                -1.4182170252174031,
                2.6268594620387953,
                1.9849972983166293,
                -0.6458442122528936,
                -0.00020000511001314059
            ]
        },
        {
            "positions": [
                0.6637016874386494,
                -1.4384437045096723,
                2.6746831559221036,
                2.015362676073888,
                -0.522733718885847,
                0.06511150689816339
            ]
        },
        {
            "positions": [
                0.681758129799916,
                -1.4586703838019417,
                2.7225068498054124,
                2.0457280538311466,
                -0.39962322551880036,
                0.13042301890633992
            ]
        },
        {
            "positions": [
                0.6998145721611826,
                -1.478897063094211,
                2.770330543688721,
                2.076093431588405,
                -0.27651273215175376,
                0.19573453091451645
            ]
        },
        {
            "positions": [
                0.7178710145224492,
                -1.4991237423864803,
                2.8181542375720294,
                2.1064588093456638,
                -0.15340223878470716,
                0.26104604292269296
            ]
        },
        {
            "positions": [
                0.7979829194187879,
                -1.5241836109391695,
                2.65061869372537,
                2.0345486335386065,
                -0.1199906255718455,
                0.2530557270601115
            ]
        },
        {
            "positions": [
                0.8780948243151265,
                -1.549243479491859,
                2.4830831498787105,
                1.9626384577315497,
                -0.08657901235898385,
                0.24506541119753006
            ]
        },
        {
            "positions": [
                0.9582067292114652,
                -1.5743033480445483,
                2.3155476060320512,
                1.8907282819244924,
                -0.053167399146122216,
                0.2370750953349486
            ]
        },
        {
            "positions": [
                1.038318634107804,
                -1.5993632165972376,
                2.1480120621853915,
                1.8188181061174353,
                -0.01975578593326055,
                0.22908477947236716
            ]
        },
        {
            "positions": [
                1.1184305390041427,
                -1.6244230851499268,
                1.9804765183387323,
                1.7469079303103783,
                0.013655827279601074,
                0.22109446360978569
            ]
        },
        {
            "positions": [
                1.1985424439004813,
                -1.6494829537026163,
                1.8129409744920728,
                1.6749977545033212,
                0.047067440492462725,
                0.21310414774720424
            ]
        },
        {
            "positions": [
                1.27865434879682,
                -1.6745428222553056,
                1.6454054306454133,
                1.6030875786962642,
                0.08047905370532438,
                0.2051138318846228
            ]
        },
        {
            "positions": [
                1.3587662536931586,
                -1.6996026908079949,
                1.4778698867987539,
                1.531177402889207,
                0.11389066691818606,
                0.19712351602204134
            ]
        },
        {
            "positions": [
                1.4388781585894974,
                -1.7246625593606844,
                1.3103343429520944,
                1.4592672270821498,
                0.14730228013104768,
                0.1891332001594599
            ]
        },
        {
            "positions": [
                1.5189900634858362,
                -1.7497224279133736,
                1.1427987991054351,
                1.3873570512750928,
                0.1807138933439093,
                0.18114288429687841
            ]
        },
        {
            "positions": [
                1.5991019683821748,
                -1.774782296466063,
                0.9752632552587757,
                1.3154468754680355,
                0.21412550655677098,
                0.173152568434297
            ]
        },
        {
            "positions": [
                1.6792138732785133,
                -1.7998421650187522,
                0.8077277114121162,
                1.2435366996609787,
                0.2475371197696326,
                0.16516225257171552
            ]
        },
        {
            "positions": [
                1.7593257781748521,
                -1.8249020335714414,
                0.6401921675654565,
                1.1716265238539214,
                0.2809487329824943,
                0.15717193670913407
            ]
        },
        {
            "positions": [
                1.839437683071191,
                -1.849961902124131,
                0.47265662371879724,
                1.0997163480468644,
                0.3143603461953559,
                0.14918162084655262
            ]
        },
        {
            "positions": [
                1.9195495879675295,
                -1.8750217706768202,
                0.305121079872138,
                1.0278061722398073,
                0.3477719594082176,
                0.1411913049839712
            ]
        },
        {
            "positions": [
                1.9996614928638683,
                -1.9000816392295095,
                0.1375855360254783,
                0.95589599643275,
                0.38118357262107927,
                0.13320098912138972
            ]
        },
        {
            "positions": [
                2.079773397760207,
                -1.925141507782199,
                -0.029950007821180957,
                0.883985820625693,
                0.41459518583394084,
                0.12521067325880827
            ]
        },
        {
            "positions": [
                2.1598853026565457,
                -1.9502013763348882,
                -0.19748555166784065,
                0.8120756448186359,
                0.4480067990468025,
                0.1172203573962268
            ]
        },
        {
            "positions": [
                2.239997207552884,
                -1.9752612448875775,
                -0.3650210955144999,
                0.7401654690115789,
                0.4814184122596642,
                0.10923004153364535
            ]
        },
        {
            "positions": [
                2.320109112449223,
                -2.000321113440267,
                -0.5325566393611592,
                0.6682552932045218,
                0.5148300254725258,
                0.1012397256710639
            ]
        },
        {
            "positions": [
                2.4002210173455616,
                -2.0253809819929565,
                -0.7000921832078189,
                0.5963451173974645,
                0.5482416386853876,
                0.09324940980848245
            ]
        },
        {
            "positions": [
                2.4803329222419004,
                -2.0504408505456455,
                -0.867627727054478,
                0.5244349415904075,
                0.5816532518982491,
                0.085259093945901
            ]
        },
        {
            "positions": [
                2.5090545920608327,
                -1.9972617694430517,
                -0.9637564673202546,
                0.47689144227129976,
                0.5368327157204665,
                0.20159889533554132
            ]
        },
        {
            "positions": [
                2.537776261879765,
                -1.9440826883404576,
                -1.0598852075860312,
                0.42934794295219203,
                0.492012179542684,
                0.3179386967251816
            ]
        },
        {
            "positions": [
                2.5664979316986973,
                -1.8909036072378638,
                -1.1560139478518077,
                0.3818044436330843,
                0.44719164336490147,
                0.4342784981148219
            ]
        },
        {
            "positions": [
                2.5952196015176296,
                -1.8377245261352697,
                -1.2521426881175843,
                0.3342609443139765,
                0.4023711071871189,
                0.5506182995044623
            ]
        },
        {
            "positions": [
                2.6239412713365615,
                -1.7845454450326759,
                -1.3482714283833608,
                0.2867174449948688,
                0.3575505710093363,
                0.6669581008941026
            ]
        },
        {
            "positions": [
                2.652662941155494,
                -1.731366363930082,
                -1.4444001686491375,
                0.23917394567576106,
                0.31273003483155376,
                0.7832979022837429
            ]
        },
        {
            "positions": [
                2.681384610974426,
                -1.678187282827488,
                -1.5405289089149141,
                0.19163044635665333,
                0.26790949865377117,
                0.8996377036733831
            ]
        },
        {
            "positions": [
                2.7101062807933585,
                -1.6250082017248941,
                -1.6366576491806906,
                0.14408694703754554,
                0.22308896247598858,
                1.0159775050630235
            ]
        },
        {
            "positions": [
                2.738827950612291,
                -1.5718291206223,
                -1.7327863894464672,
                0.09654344771843781,
                0.178268426298206,
                1.132317306452664
            ]
        },
        {
            "positions": [
                2.767549620431223,
                -1.5186500395197062,
                -1.828915129712244,
                0.048999948399330084,
                0.13344789012042346,
                1.248657107842304
            ]
        },
        {
            "positions": [
                2.7962712902501554,
                -1.4654709584171122,
                -1.9250438699780203,
                0.001456449080222355,
                0.08862735394264087,
                1.3649969092319445
            ]
        },
        {
            "positions": [
                2.8249929600690877,
                -1.4122918773145186,
                -2.021172610243797,
                -0.046087050238885374,
                0.0438068177648584,
                1.4813367106215847
            ]
        },
        {
            "positions": [
                2.85371462988802,
                -1.3591127962119245,
                -2.1173013505095737,
                -0.0936305495579931,
                -0.0010137184129243026,
                1.597676512011225
            ]
        },
        {
            "positions": [
                2.882436299706952,
                -1.3059337151093304,
                -2.21343009077535,
                -0.14117404887710083,
                -0.04583425459070678,
                1.7140163134008652
            ]
        },
        {
            "positions": [
                2.9111579695258847,
                -1.2527546340067366,
                -2.3095588310411266,
                -0.18871754819620867,
                -0.09065479076848937,
                1.8303561147905056
            ]
        },
        {
            "positions": [
                2.9398796393448166,
                -1.1995755529041428,
                -2.4056875713069035,
                -0.2362610475153164,
                -0.13547532694627196,
                1.946695916180146
            ]
        },
        {
            "positions": [
                2.968601309163749,
                -1.1463964718015487,
                -2.50181631157268,
                -0.28380454683442413,
                -0.18029586312405443,
                2.063035717569786
            ]
        },
        {
            "positions": [
                2.997322978982681,
                -1.0932173906989546,
                -2.5979450518384564,
                -0.33134804615353186,
                -0.22511639930183713,
                2.179375518959427
            ]
        },
        {
            "positions": [
                3.0260446488016135,
                -1.040038309596361,
                -2.694073792104233,
                -0.3788915454726396,
                -0.2699369354796196,
                2.295715320349067
            ]
        },
        {
            "positions": [
                3.054766318620546,
                -0.986859228493767,
                -2.7902025323700097,
                -0.4264350447917473,
                -0.3147574716574022,
                2.412055121738707
            ]
        },
        {
            "positions": [
                3.0243677988126634,
                -1.0622592367665709,
                -2.731720582249665,
                -0.3578609343595964,
                -0.27956601009246984,
                2.2873378476300767
            ]
        },
        {
            "positions": [
                2.9939692790047805,
                -1.1376592450393745,
                -2.6732386321293204,
                -0.28928682392744554,
                -0.2443745485275375,
                2.162620573521446
            ]
        },
        {
            "positions": [
                2.963570759196898,
                -1.2130592533121785,
                -2.6147566820089763,
                -0.22071271349529462,
                -0.20918308696260518,
                2.0379032994128154
            ]
        },
        {
            "positions": [
                2.9331722393890156,
                -1.2884592615849821,
                -2.5562747318886316,
                -0.1521386030631437,
                -0.17399162539767282,
                1.9131860253041848
            ]
        },
        {
            "positions": [
                2.902773719581133,
                -1.363859269857786,
                -2.497792781768287,
                -0.0835644926309928,
                -0.13880016383274046,
                1.7884687511955542
            ]
        },
        {
            "positions": [
                2.8723751997732503,
                -1.4392592781305897,
                -2.4393108316479424,
                -0.014990382198841912,
                -0.10360870226780813,
                1.6637514770869235
            ]
        },
        {
            "positions": [
                2.841976679965368,
                -1.5146592864033936,
                -2.3808288815275978,
                0.05358372823330898,
                -0.06841724070287578,
                1.5390342029782929
            ]
        },
        {
            "positions": [
                2.8115781601574854,
                -1.5900592946761973,
                -2.3223469314072536,
                0.12215783866545993,
                -0.033225779137943445,
                1.4143169288696624
            ]
        },
        {
            "positions": [
                2.781179640349603,
                -1.6654593029490012,
                -2.263864981286909,
                0.19073194909761082,
                0.001965682426988913,
                1.2895996547610318
            ]
        },
        {
            "positions": [
                2.75078112054172,
                -1.7408593112218052,
                -2.2053830311665643,
                0.2593060595297617,
                0.03715714399192127,
                1.1648823806524011
            ]
        },
        {
            "positions": [
                2.7203826007338376,
                -1.816259319494609,
                -2.1469010810462197,
                0.3278801699619126,
                0.07234860555685363,
                1.0401651065437703
            ]
        },
        {
            "positions": [
                2.689984080925955,
                -1.8916593277674125,
                -2.0884191309258755,
                0.3964542803940635,
                0.10754006712178593,
                0.9154478324351398
            ]
        },
        {
            "positions": [
                2.6595855611180728,
                -1.9670593360402164,
                -2.029937180805531,
                0.4650283908262145,
                0.1427315286867183,
                0.7907305583265092
            ]
        },
        {
            "positions": [
                2.62918704131019,
                -2.0424593443130203,
                -1.9714552306851862,
                0.5336025012583653,
                0.17792299025165065,
                0.6660132842178788
            ]
        },
        {
            "positions": [
                2.5987885215023074,
                -2.1178593525858243,
                -1.9129732805648416,
                0.6021766116905163,
                0.21311445181658295,
                0.5412960101092479
            ]
        },
        {
            "positions": [
                2.568390001694425,
                -2.1932593608586277,
                -1.8544913304444972,
                0.6707507221226672,
                0.2483059133815153,
                0.41657873600061746
            ]
        },
        {
            "positions": [
                2.537991481886542,
                -2.2686593691314316,
                -1.7960093803241526,
                0.7393248325548181,
                0.28349737494644767,
                0.2918614618919868
            ]
        },
        {
            "positions": [
                2.5075929620786597,
                -2.3440593774042355,
                -1.7375274302038082,
                0.807898942986969,
                0.31868883651138,
                0.16714418778335638
            ]
        },
        {
            "positions": [
                2.4771944422707772,
                -2.4194593856770394,
                -1.6790454800834635,
                0.8764730534191199,
                0.3538802980763124,
                0.042426913674725356
            ]
        },
        {
            "positions": [
                2.551618419375494,
                -2.47068811594633,
                -1.671417882832737,
                0.8658710383128805,
                0.35687134692643513,
                -0.003863649382560525
            ]
        },
        {
            "positions": [
                2.6603070062649223,
                -2.4759029478505132,
                -1.6711577877850747,
                0.9780463773931662,
                0.48137333828744916,
                0.03127402006383006
            ]
        }
    ]
}