{
    "goal": {
        "global_pose": {
            "orientation": {
                "w": -0.00223480608172531,
                "x": 0.0024358444001904467,
                "y": 0.7094548369677653,
                "z": -0.704743149386269
            },
            "position": {
                "x": -0.37947507619857795,
                "y": -0.6371506643295288,
                "z": 0.19426114857196808
            }
        },
        "name": "move_to_magneteinheit_C"
    },
    "id": "PRMstar_move_to_magneteinheit_C_32",
    "joint_names": [
        "shoulder_pan_joint",
        "shoulder_lift_joint",
        "elbow_joint",
        "wrist_1_joint",
        "wrist_2_joint",
        "wrist_3_joint"
    ],
    "metrics": {
        "cart_traj_len": 1.4216013916688528,
        "distance_elbow_joint": 0.2592045025186014,
        "distance_shoulder_lift_joint": 0.8435838386150996,
        "distance_shoulder_pan_joint": 1.6499745174637763,
        "distance_wrist_1_joint": 0.3871158517039728,
        "distance_wrist_2_joint": 1.1614149285785498,
        "distance_wrist_3_joint": 0.3769455487372757,
        "smoothness": 1.3572544938894027,
        "time": 5.016499735,
        "traj_len": 2.162923759085668,
        "weighted_distance": 2.642094068229659
    },
    "planner": "PRMstar",
    "start": {
        "state": {
            "elbow_joint": 1.9565354010623817,
            "shoulder_lift_joint": -1.4165861575791021,
            "shoulder_pan_joint": -1.6717766225146293,
            "wrist_1_joint": -0.5286633292919765,
            "wrist_2_joint": 1.472756589071564,
            "wrist_3_joint": -3.1238370188695823
        }
    },
    "waypoints": [
        {
            "positions": [
                -1.6717766225146293,
                -1.4165861575791021,
                1.9565354010623817,
                -0.5286633292919765,
                1.472756589071564,
                -3.1238370188695823
            ]
        },
        {
            "positions": [
                -1.6011009652341515,
                -1.4658760486474482,
                1.9826306311325517,
                -0.520941006565924,
                1.3101581538373746,
                -3.1586851420116555
            ]
        },
        {
            "positions": [
                -1.5304253079536738,
                -1.5151659397157944,
                2.0087258612027217,
                -0.5132186838398715,
                1.1475597186031852,
                -3.193533265153729
            ]
        },
        {
            "positions": [
                -1.4597496506731962,
                -1.5644558307841407,
                2.0348210912728915,
                -0.505496361113819,
                0.9849612833689959,
                -3.2283813882958023
            ]
        },
        {
            "positions": [
                -1.3890739933927183,
                -1.6137457218524869,
                2.0609163213430617,
                -0.4977740383877665,
                0.8223628481348066,
                -3.2632295114378755
            ]
        },
        {
            "positions": [
                -1.3183983361122404,
                -1.663035612920833,
                2.087011551413232,
                -0.49005171566171407,
                0.6597644129006172,
                -3.298077634579949
            ]
        },
        {
            "positions": [
                -1.2477226788317628,
                -1.7123255039891792,
                2.1131067814834017,
                -0.48232939293566157,
                0.4971659776664279,
                -3.3329257577220224
            ]
        },
        {
            "positions": [
                -1.4228541893718927,
                -1.6340620051027475,
                2.098444906898033,
                -0.5310125236996127,
                0.5237123086912012,
                -3.30894621345276
            ]
        },
        {
            "positions": [
                -1.5979856999120228,
                -1.5557985062163155,
                2.083783032312664,
                -0.5796956544635639,
                0.5502586397159747,
                -3.2849666691834978
            ]
        },
        {
            "positions": [
                -1.7731172104521526,
                -1.4775350073298839,
                2.069121157727295,
                -0.6283787852275149,
                0.576804970740748,
                -3.2609871249142355
            ]
        },
        {
            "positions": [
                -1.9482487209922827,
                -1.399271508443452,
                2.054459283141927,
                -0.677061915991466,
                0.6033513017655214,
                -3.2370075806449736
            ]
        },
        {
            "positions": [
                -2.123380231532413,
                -1.3210080095570202,
                2.039797408556558,
                -0.7257450467554172,
                0.6298976327902948,
                -3.2130280363757113
            ]
        },
        {
            "positions": [
                -2.2985117420725425,
                -1.2427445106705886,
                2.025135533971189,
                -0.7744281775193683,
                0.6564439638150681,
                -3.189048492106449
            ]
        },
        {
            "positions": [
                -2.4736432526126726,
                -1.1644810117841566,
                2.0104736593858203,
                -0.8231113082833195,
                0.6829902948398415,
                -3.1650689478371867
            ]
        }
    ]
}