{
    "goal": {
        "global_pose": {
            "orientation": {
                "w": -0.00223480608172531,
                "x": 0.0024358444001904467,
                "y": 0.7094548369677653,
                "z": -0.704743149386269
            },
            "position": {
                "x": 0.6205249238014221,
                "y": -0.6371506643295288,
                "z": 0.19426114857196808
            }
        },
        "name": "move_to_magneteinheit_B"
    },
    "id": "PRMstar_move_to_magneteinheit_B_30",
    "joint_names": [
        "shoulder_pan_joint",
        "shoulder_lift_joint",
        "elbow_joint",
        "wrist_1_joint",
        "wrist_2_joint",
        "wrist_3_joint"
    ],
    "metrics": {
        "cart_traj_len": 1.404225532491869,
        "distance_elbow_joint": 0.957970937305469,
        "distance_shoulder_lift_joint": 0.7575130138968822,
        "distance_shoulder_pan_joint": 1.6203328136755555,
        "distance_wrist_1_joint": 0.18327159368380208,
        "distance_wrist_2_joint": 1.6406994698239463,
        "distance_wrist_3_joint": 1.8818509737324947,
        "smoothness": 0.48281220905126626,
        "time": 5.044010338,
        "traj_len": 2.653608637707933,
        "weighted_distance": 3.5537743053113107
    },
    "planner": "PRMstar",
    "start": {
        "state": {
            "elbow_joint": 2.6216224122426386,
            "shoulder_lift_joint": -1.4174107377796124,
            "shoulder_pan_joint": 0.7066234856936794,
            "wrist_1_joint": 1.9546482284002225,
            "wrist_2_joint": -0.7096286983471962,
            "wrist_3_joint": 0.005740856962016249
        }
    },
    "waypoints": [
        {
            "positions": [
                0.7066234856936794,
                -1.4174107377796124,
                2.6216224122426386,
                1.9546482284002225,
                -0.7096286983471962,
                0.005740856962016249
            ]
        },
        {
            "positions": [
                0.5084206180306692,
                -1.403354863949287,
                2.6148530807372254,
                1.9617343152697702,
                -0.6790178604152505,
                0.08748610123288096
            ]
        },
        {
            "positions": [
                0.31021775036765886,
                -1.3892989901189616,
                2.6080837492318123,
                1.9688204021393176,
                -0.6484070224833047,
                0.1692313455037457
            ]
        },
        {
            "positions": [
                0.20416431320376843,
                -1.3558028955080235,
                2.5545615038100458,
                1.9828003522258295,
                -0.7570384049899626,
                0.24621481204392048
            ]
        },
        {
            "positions": [
                0.098110876039878,
                -1.3223068008970855,
                2.5010392583882792,
                1.9967803023123414,
                -0.8656697874966203,
                0.3231982785840953
            ]
        },
        {
            "positions": [
                -0.00794256112401237,
                -1.2888107062861474,
                2.4475170129665127,
                2.0107602523988533,
                -0.974301170003278,
                0.40018174512427
            ]
        },
        {
            "positions": [
                -0.11399599828790286,
                -1.2553146116752094,
                2.393994767544746,
                2.024740202485365,
                -1.0829325525099358,
                0.47716521166444487
            ]
        },
        {
            "positions": [
                -0.22004943545179323,
                -1.2218185170642712,
                2.3404725221229796,
                2.038720152571877,
                -1.1915639350165936,
                0.5541486782046197
            ]
        },
        {
            "positions": [
                -0.3261028726156836,
                -1.188322422453333,
                2.286950276701213,
                2.0527001026583886,
                -1.3001953175232512,
                0.6311321447447944
            ]
        },
        {
            "positions": [
                -0.432156309779574,
                -1.1548263278423951,
                2.2334280312794466,
                2.0666800527449007,
                -1.408826700029909,
                0.7081156112849691
            ]
        },
        {
            "positions": [
                -0.5382097469434646,
                -1.121330233231457,
                2.17990578585768,
                2.0806600028314124,
                -1.5174580825365669,
                0.7850990778251441
            ]
        },
        {
            "positions": [
                -0.644263184107355,
                -1.087834138620519,
                2.1263835404359135,
                2.0946399529179245,
                -1.6260894650432247,
                0.8620825443653188
            ]
        },
        {
            "positions": [
                -0.7503166212712453,
                -1.0543380440095809,
                2.072861295014147,
                2.108619903004436,
                -1.7347208475498825,
                0.9390660109054936
            ]
        },
        {
            "positions": [
                -0.7736584365156212,
                -0.9979894268486021,
                2.0144027492888643,
                2.1128056057300917,
                -1.8051728431060936,
                0.8035623223642054
            ]
        },
        {
            "positions": [
                -0.797000251759997,
                -0.9416408096876235,
                1.955944203563582,
                2.1169913084557472,
                -1.8756248386623044,
                0.6680586338229173
            ]
        },
        {
            "positions": [
                -0.8203420670043728,
                -0.8852921925266448,
                1.8974856578382995,
                2.121177011181403,
                -1.9460768342185155,
                0.5325549452816292
            ]
        },
        {
            "positions": [
                -0.8436838822487487,
                -0.8289435753656662,
                1.839027112113017,
                2.125362713907058,
                -2.0165288297747264,
                0.3970512567403409
            ]
        },
        {
            "positions": [
                -0.8670256974931245,
                -0.7725949582046875,
                1.7805685663877346,
                2.1295484166327134,
                -2.0869808253309374,
                0.26154756819905267
            ]
        },
        {
            "positions": [
                -0.8903675127375004,
                -0.7162463410437088,
                1.722110020662452,
                2.133734119358369,
                -2.1574328208871485,
                0.12604387965776465
            ]
        },
        {
            "positions": [
                -0.9137093279818762,
                -0.6598977238827302,
                1.6636514749371696,
                2.1379198220840245,
                -2.2278848164433596,
                -0.009459808883523638
            ]
        }
    ]
}