{
    "goal": {
        "global_pose": {
            "orientation": {
                "w": 0.005598929693374612,
                "x": 0.007748599140229565,
                "y": 0.7110244013736278,
                "z": -0.7031023480610252
            },
            "position": {
                "x": 0.1141497679147869,
                "y": -0.7141253447532654,
                "z": 0.3711530566215515
            }
        },
        "name": "move_to_auspresseinheit_B"
    },
    "id": "PRMstar_move_to_auspresseinheit_B_16",
    "joint_names": [
        "shoulder_pan_joint",
        "shoulder_lift_joint",
        "elbow_joint",
        "wrist_1_joint",
        "wrist_2_joint",
        "wrist_3_joint"
    ],
    "metrics": {
        "cart_traj_len": 0.5647217367752226,
        "distance_elbow_joint": 0.060110040364312,
        "distance_shoulder_lift_joint": 0.2945985219322218,
        "distance_shoulder_pan_joint": 0.5771134884079856,
        "distance_wrist_1_joint": 0.31764095027244155,
        "distance_wrist_2_joint": 0.9954409794956851,
        "distance_wrist_3_joint": 7.854043644650588e-05,
        "smoothness": 0.0,
        "time": 5.004537066,
        "traj_len": 1.4983265735176337,
        "weighted_distance": 1.886324874339018
    },
    "planner": "PRMstar",
    "start": {
        "state": {
            "elbow_joint": 2.0193083361928714,
            "shoulder_lift_joint": -1.1220246554650708,
            "shoulder_pan_joint": -1.0952077554168747,
            "wrist_1_joint": -0.8559753972642168,
            "wrist_2_joint": 0.4759566250798843,
            "wrist_3_joint": -3.1240929996934557
        }
    },
    "waypoints": [
        {
            "positions": [
                -1.0952077554168747,
                -1.1220246554650708,
                2.0193083361928714,
                -0.8559753972642168,
                0.4759566250798843,
                -3.1240929996934557
            ]
        },
        {
            "positions": [
                -1.1913933368182055,
                -1.1711244091204411,
                2.0092899961321526,
                -0.8030352388854766,
                0.6418634549958318,
                -3.124079909620715
            ]
        },
        {
            "positions": [
                -1.2875789182195365,
                -1.2202241627758115,
                1.999271656071434,
                -0.7500950805067362,
                0.8077702849117794,
                -3.1240668195479735
            ]
        },
        {
            "positions": [
                -1.3837644996208676,
                -1.2693239164311816,
                1.9892533160107155,
                -0.697154922127996,
                0.9736771148277268,
                -3.124053729475232
            ]
        },
        {
            "positions": [
                -1.4799500810221984,
                -1.318423670086552,
                1.9792349759499968,
                -0.6442147637492558,
                1.1395839447436744,
                -3.1240406394024913
            ]
        },
        {
            "positions": [
                -1.5761356624235292,
                -1.3675234237419223,
                1.969216635889278,
                -0.5912746053705155,
                1.3054907746596218,
                -3.1240275493297505
            ]
        },
        {
            "positions": [
                -1.6723212438248602,
                -1.4166231773972926,
                1.9591982958285594,
                -0.5383344469917752,
                1.4713976045755695,
                -3.124014459257009
            ]
        }
    ]
}