{
    "goal": {
        "global_pose": {
            "orientation": {
                "w": 0.7031023502349854,
                "x": -0.7110244035720825,
                "y": 0.007748599164187908,
                "z": 0.005598929710686207
            },
            "position": {
                "x": 0.11585023208521307,
                "y": 0.44412534475326537,
                "z": 0.3711530566215515
            }
        },
        "name": "move_to_auspresseinheit_A"
    },
    "id": "PRMstar_move_to_auspresseinheit_A_56",
    "joint_names": [
        "shoulder_pan_joint",
        "shoulder_lift_joint",
        "elbow_joint",
        "wrist_1_joint",
        "wrist_2_joint",
        "wrist_3_joint"
    ],
    "metrics": {
        "cart_traj_len": 0.6878220701789227,
        "distance_elbow_joint": 0.0315848262733347,
        "distance_shoulder_lift_joint": 0.533120796621751,
        "distance_shoulder_pan_joint": 1.0416721985700663,
        "distance_wrist_1_joint": 0.5768505305269012,
        "distance_wrist_2_joint": 0.5333594041479065,
        "distance_wrist_3_joint": 0.06208817635245989,
        "smoothness": 2.9605947479623483e-16,
        "time": 5.005871135,
        "traj_len": 1.6669360913041686,
        "weighted_distance": 2.003262893349784
    },
    "planner": "PRMstar",
    "start": {
        "state": {
            "elbow_joint": 2.4225746658250005,
            "shoulder_lift_joint": -1.3736534386056498,
            "shoulder_pan_joint": -0.3378633547517467,
            "wrist_1_joint": -1.0288598680537169,
            "wrist_2_joint": 1.233022673432363,
            "wrist_3_joint": -3.0940220416140027
        }
    },
    "waypoints": [
        {
            "positions": [
                -0.3378633547517467,
                -1.3736534386056498,
                2.4225746658250005,
                -1.0288598680537169,
                1.233022673432363,
                -3.0940220416140027
            ]
        },
        {
            "positions": [
                -0.20765432993048843,
                -1.4402935381833686,
                2.4186265625408336,
                -0.9567535517378543,
                1.1663527479138747,
                -3.1017830636580603
            ]
        },
        {
            "positions": [
                -0.07744530510923014,
                -1.5069336377610876,
                2.414678459256667,
                -0.8846472354219916,
                1.0996828223953865,
                -3.109544085702118
            ]
        },
        {
            "positions": [
                0.052763719712028145,
                -1.5735737373388066,
                2.4107303559725,
                -0.8125409191061289,
                1.0330128968768981,
                -3.117305107746175
            ]
        },
        {
            "positions": [
                0.18297274453328644,
                -1.6402138369165253,
                2.406782252688333,
                -0.7404346027902663,
                0.9663429713584097,
                -3.1250661297902327
            ]
        },
        {
            "positions": [
                0.3131817693545447,
                -1.706853936494244,
                2.4028341494041663,
                -0.6683282864744037,
                0.8996730458399215,
                -3.1328271518342903
            ]
        },
        {
            "positions": [
                0.443390794175803,
                -1.773494036071963,
                2.3988860461199994,
                -0.596221970158541,
                0.8330031203214332,
                -3.1405881738783474
            ]
        },
        {
            "positions": [
                0.5735998189970613,
                -1.840134135649682,
                2.3949379428358326,
                -0.5241156538426783,
                0.7663331948029448,
                -3.148349195922405
            ]
        },
        {
            "positions": [
                0.7038088438183195,
                -1.9067742352274009,
                2.3909898395516658,
                -0.4520093375268157,
                0.6996632692844565,
                -3.1561102179664626
            ]
        }
    ]
}