{
    "goal": {
        "global_pose": {
            "orientation": {
                "w": 0.7031023480610252,
                "x": -0.7110244013736278,
                "y": 0.0077485991402295624,
                "z": 0.005598929693374583
            },
            "position": {
                "x": -0.8841497679147869,
                "y": 0.44412534475326537,
                "z": 0.3711530566215515
            }
        },
        "name": "move_to_auspresseinheit_D"
    },
    "id": "PRMstar_move_to_auspresseinheit_D_33",
    "joint_names": [
        "shoulder_pan_joint",
        "shoulder_lift_joint",
        "elbow_joint",
        "wrist_1_joint",
        "wrist_2_joint",
        "wrist_3_joint"
    ],
    "metrics": {
        "cart_traj_len": 0.34282507737995965,
        "distance_elbow_joint": 0.6283351254606928,
        "distance_shoulder_lift_joint": 0.11515263976429058,
        "distance_shoulder_pan_joint": 0.13367132909880836,
        "distance_wrist_1_joint": 0.5015594911332721,
        "distance_wrist_2_joint": 1.4352418793424444,
        "distance_wrist_3_joint": 0.03628699585138051,
        "smoothness": 7.89491931748053e-16,
        "time": 5.009204836,
        "traj_len": 1.6882675915419596,
        "weighted_distance": 2.2044552213255244
    },
    "planner": "PRMstar",
    "start": {
        "state": {
            "elbow_joint": -1.8275523626775212,
            "shoulder_lift_joint": -2.126789852344167,
            "shoulder_pan_joint": -0.03513704404078235,
            "wrist_1_joint": -2.347782403156801,
            "wrist_2_joint": -1.6058999987535132,
            "wrist_3_joint": -3.0880379163319196
        }
    },
    "waypoints": [
        {
            "positions": [
                -0.03513704404078235,
                -2.126789852344167,
                -1.8275523626775212,
                -2.347782403156801,
                -1.6058999987535132,
                -3.0880379163319196
            ]
        },
        {
            "positions": [
                -0.05184596017813339,
                -2.141183932314703,
                -1.7490104719949346,
                -2.4104773395484598,
                -1.4264947638357077,
                -3.092573790813342
            ]
        },
        {
            "positions": [
                -0.06855487631548443,
                -2.1555780122852397,
                -1.670468581312348,
                -2.4731722759401187,
                -1.247089528917902,
                -3.0971096652947647
            ]
        },
        {
            "positions": [
                -0.08526379245283548,
                -2.169972092255776,
                -1.5919266906297613,
                -2.535867212331778,
                -1.0676842940000966,
                -3.1016455397761873
            ]
        },
        {
            "positions": [
                -0.10197270859018653,
                -2.184366172226312,
                -1.5133847999471748,
                -2.598562148723437,
                -0.888279059082291,
                -3.10618141425761
            ]
        },
        {
            "positions": [
                -0.11868162472753757,
                -2.1987602521968483,
                -1.4348429092645882,
                -2.661257085115096,
                -0.7088738241644854,
                -3.1107172887390324
            ]
        },
        {
            "positions": [
                -0.1353905408648886,
                -2.2131543321673846,
                -1.3563010185820015,
                -2.723952021506755,
                -0.5294685892466799,
                -3.115253163220455
            ]
        },
        {
            "positions": [
                -0.15209945700223967,
                -2.227548412137921,
                -1.277759127899415,
                -2.786646957898414,
                -0.35006335432887425,
                -3.1197890377018775
            ]
        },
        {
            "positions": [
                -0.1688083731395907,
                -2.2419424921084574,
                -1.1992172372168284,
                -2.849341894290073,
                -0.17065811941106873,
                -3.1243249121833
            ]
        }
    ]
}