{
    "goal": {
        "global_pose": {
            "orientation": {
                "w": 0.7047431468963623,
                "x": -0.7094548344612122,
                "y": 0.0024358443915843964,
                "z": -0.0022348060738295317
            },
            "position": {
                "x": 0.6094750761985779,
                "y": 0.3671506643295288,
                "z": 0.19426114857196808
            }
        },
        "name": "move_to_magneteinheit_A"
    },
    "id": "PRMstar_move_to_magneteinheit_A_65",
    "joint_names": [
        "shoulder_pan_joint",
        "shoulder_lift_joint",
        "elbow_joint",
        "wrist_1_joint",
        "wrist_2_joint",
        "wrist_3_joint"
    ],
    "metrics": {
        "cart_traj_len": 3.598598459911818,
        "distance_elbow_joint": 3.906110166498695,
        "distance_shoulder_lift_joint": 0.8770357733255345,
        "distance_shoulder_pan_joint": 2.602474068789546,
        "distance_wrist_1_joint": 3.452742645133526,
        "distance_wrist_2_joint": 1.4470039711689922,
        "distance_wrist_3_joint": 0.43344769924715015,
        "smoothness": 0.09968735580369993,
        "time": 5.0380563380000005,
        "traj_len": 3.566344672653422,
        "weighted_distance": 4.299471634859366
    },
    "planner": "PRMstar",
    "start": {
        "state": {
            "elbow_joint": -1.9196185241190666,
            "shoulder_lift_joint": -1.2443396400964142,
            "shoulder_pan_joint": 2.6996025414629847,
            "wrist_1_joint": -1.5485510000780065,
            "wrist_2_joint": -1.5709468930060704,
            "wrist_3_joint": 0.4420197071253992
        }
    },
    "waypoints": [
        {
            "positions": [
                2.6996025414629847,
                -1.2443396400964142,
                -1.9196185241190666,
                -1.5485510000780065,
                -1.5709468930060704,
                0.4420197071253992
            ]
        },
        {
            "positions": [
                2.584541114308302,
                -1.213660970265438,
                -1.8148426844009242,
                -1.495474494909449,
                -1.515935473239797,
                0.4229198693488022
            ]
        },
        {
            "positions": [
                2.4694796871536195,
                -1.1829823004344617,
                -1.7100668446827818,
                -1.4423979897408916,
                -1.4609240534735233,
                0.4038200315722053
            ]
        },
        {
            "positions": [
                2.3544182599989365,
                -1.1523036306034857,
                -1.6052910049646394,
                -1.389321484572334,
                -1.4059126337072498,
                0.38472019379560835
            ]
        },
        {
            "positions": [
                2.239356832844254,
                -1.1216249607725095,
                -1.500515165246497,
                -1.3362449794037765,
                -1.3509012139409762,
                0.36562035601901144
            ]
        },
        {
            "positions": [
                2.1242954056895713,
                -1.0909462909415333,
                -1.3957393255283543,
                -1.283168474235219,
                -1.2958897941747027,
                0.3465205182424145
            ]
        },
        {
            "positions": [
                2.0092339785348887,
                -1.060267621110557,
                -1.2909634858102121,
                -1.2300919690666614,
                -1.2408783744084293,
                0.3274206804658175
            ]
        },
        {
            "positions": [
                1.8941725513802061,
                -1.0295889512795808,
                -1.1861876460920695,
                -1.177015463898104,
                -1.1858669546421556,
                0.3083208426892206
            ]
        },
        {
            "positions": [
                1.779111124225523,
                -0.9989102814486047,
                -1.081411806373927,
                -1.1239389587295465,
                -1.1308555348758822,
                0.28922100491262365
            ]
        },
        {
            "positions": [
                1.6640496970708405,
                -0.9682316116176286,
                -0.9766359666557847,
                -1.070862453560989,
                -1.0758441151096085,
                0.27012116713602674
            ]
        },
        {
            "positions": [
                1.548988269916158,
                -0.9375529417866524,
                -0.8718601269376423,
                -1.0177859483924316,
                -1.020832695343335,
                0.2510213293594298
            ]
        },
        {
            "positions": [
                1.433926842761475,
                -0.9068742719556762,
                -0.7670842872194996,
                -0.964709443223874,
                -0.9658212755770615,
                0.23192149158283282
            ]
        },
        {
            "positions": [
                1.3188654156067925,
                -0.8761956021247,
                -0.6623084475013574,
                -0.9116329380553165,
                -0.9108098558107881,
                0.2128216538062359
            ]
        },
        {
            "positions": [
                1.20380398845211,
                -0.8455169322937238,
                -0.5575326077832148,
                -0.858556432886759,
                -0.8557984360445144,
                0.19372181602963895
            ]
        },
        {
            "positions": [
                1.0887425612974273,
                -0.8148382624627477,
                -0.4527567680650726,
                -0.8054799277182015,
                -0.800787016278241,
                0.17462197825304204
            ]
        },
        {
            "positions": [
                0.9736811341427445,
                -0.7841595926317715,
                -0.3479809283469302,
                -0.7524034225496441,
                -0.7457755965119675,
                0.15552214047644508
            ]
        },
        {
            "positions": [
                0.8586197069880617,
                -0.7534809228007953,
                -0.24320508862878754,
                -0.6993269173810865,
                -0.6907641767456939,
                0.13642230269984812
            ]
        },
        {
            "positions": [
                0.7435582798333791,
                -0.7228022529698191,
                -0.13842924891064534,
                -0.6462504122125291,
                -0.6357527569794205,
                0.11732246492325121
            ]
        },
        {
            "positions": [
                0.6284968526786963,
                -0.6921235831388429,
                -0.0336534091925027,
                -0.5931739070439715,
                -0.5807413372131468,
                0.09822262714665425
            ]
        },
        {
            "positions": [
                0.5134354255240137,
                -0.6614449133078668,
                0.07112243052563949,
                -0.5400974018754141,
                -0.5257299174468735,
                0.07912278937005734
            ]
        },
        {
            "positions": [
                0.3983739983693312,
                -0.6307662434768906,
                0.17589827024378232,
                -0.48702089670685655,
                -0.4707184976805998,
                0.06002295159346037
            ]
        },
        {
            "positions": [
                0.3232191450280982,
                -0.6007576169290462,
                0.25463120655377147,
                -0.39492767556757946,
                -0.4449660184521249,
                0.05907559797823876
            ]
        },
        {
            "positions": [
                0.24806429168686517,
                -0.5707489903812017,
                0.33336414286376065,
                -0.30283445442830237,
                -0.41921353922365,
                0.05812824436301716
            ]
        },
        {
            "positions": [
                0.2355023102110682,
                -0.5876536128766063,
                0.4761362939143798,
                -0.10991677657360979,
                -0.39388102743189773,
                0.053976782821218414
            ]
        },
        {
            "positions": [
                0.22294032873527125,
                -0.6045582353720109,
                0.6189084449649989,
                0.08300090128108278,
                -0.36854851564014546,
                0.049825321279419674
            ]
        },
        {
            "positions": [
                0.2103783472594743,
                -0.6214628578674155,
                0.761680596015618,
                0.27591857913577533,
                -0.3432160038483932,
                0.045673859737620934
            ]
        },
        {
            "positions": [
                0.19781636578367734,
                -0.6383674803628202,
                0.9044527470662371,
                0.46883625699046794,
                -0.3178834920566409,
                0.04152239819582219
            ]
        },
        {
            "positions": [
                0.18525438430788038,
                -0.6552721028582248,
                1.0472248981168562,
                0.6617539348451605,
                -0.29255098026488857,
                0.03737093665402344
            ]
        },
        {
            "positions": [
                0.17269240283208342,
                -0.6721767253536294,
                1.1899970491674754,
                0.854671612699853,
                -0.26721846847313635,
                0.0332194751122247
            ]
        },
        {
            "positions": [
                0.16013042135628647,
                -0.689081347849034,
                1.3327692002180944,
                1.0475892905545456,
                -0.24188595668138405,
                0.029068013570425953
            ]
        },
        {
            "positions": [
                0.14756843988048948,
                -0.7059859703444387,
                1.4755413512687137,
                1.2405069684092382,
                -0.21655344488963174,
                0.024916552028627213
            ]
        },
        {
            "positions": [
                0.13500645840469253,
                -0.7228905928398432,
                1.6183135023193327,
                1.433424646263931,
                -0.19122093309787946,
                0.020765090486828466
            ]
        },
        {
            "positions": [
                0.12244447692889557,
                -0.7397952153352478,
                1.7610856533699517,
                1.6263423241186235,
                -0.1658884213061272,
                0.016613628945029726
            ]
        },
        {
            "positions": [
                0.10988249545309861,
                -0.7566998378306524,
                1.903857804420571,
                1.8192600019733163,
                -0.14055590951437488,
                0.012462167403230978
            ]
        },
        {
            "positions": [
                0.1226365182327589,
                -0.7741941139915238,
                1.9864916423796288,
                1.9041916450555192,
                -0.12394292183707745,
                0.01635232692821304
            ]
        }
    ]
}