{
    "goal": {
        "global_pose": {
            "orientation": {
                "w": 0.7031023480610252,
                "x": -0.7110244013736278,
                "y": 0.0077485991402295624,
                "z": 0.005598929693374583
            },
            "position": {
                "x": -0.8841497679147869,
                "y": 0.44412534475326537,
                "z": 0.3711530566215515
            }
        },
        "name": "move_to_auspresseinheit_D"
    },
    "id": "PRMstar_move_to_auspresseinheit_D_3",
    "joint_names": [
        "shoulder_pan_joint",
        "shoulder_lift_joint",
        "elbow_joint",
        "wrist_1_joint",
        "wrist_2_joint",
        "wrist_3_joint"
    ],
    "metrics": {
        "cart_traj_len": 0.3422461567650818,
        "distance_elbow_joint": 0.6320624276336382,
        "distance_shoulder_lift_joint": 0.11773562709406082,
        "distance_shoulder_pan_joint": 0.1330330380047509,
        "distance_wrist_1_joint": 0.5152281391603877,
        "distance_wrist_2_joint": 1.4347684112032209,
        "distance_wrist_3_joint": 0.014011625787116344,
        "smoothness": 1.9737298371844314e-16,
        "time": 5.014183590999999,
        "traj_len": 1.6872579141563315,
        "weighted_distance": 2.19655618430784
    },
    "planner": "PRMstar",
    "start": {
        "state": {
            "elbow_joint": -1.8275523626775212,
            "shoulder_lift_joint": -2.126789852344167,
            "shoulder_pan_joint": -0.03513704404078235,
            "wrist_1_joint": -2.347782403156801,
            "wrist_2_joint": -1.6058999987535132,
            "wrist_3_joint": -3.0880379163319196
        }
    },
    "waypoints": [
        {
            "positions": [
                -0.03513704404078235,
                -2.126789852344167,
                -1.8275523626775212,
                -2.347782403156801,
                -1.6058999987535132,
                -3.0880379163319196
            ]
        },
        {
            "positions": [
                -0.05176617379137621,
                -2.1415068057309243,
                -1.7485445592233164,
                -2.4121859205518494,
                -1.4265539473531106,
                -3.089789369555309
            ]
        },
        {
            "positions": [
                -0.06839530354197007,
                -2.1562237591176823,
                -1.6695367557691116,
                -2.476589437946898,
                -1.247207895952708,
                -3.0915408227786987
            ]
        },
        {
            "positions": [
                -0.08502443329256393,
                -2.1709407125044398,
                -1.5905289523149069,
                -2.540992955341946,
                -1.0678618445523054,
                -3.0932922760020882
            ]
        },
        {
            "positions": [
                -0.10165356304315779,
                -2.1856576658911973,
                -1.511521148860702,
                -2.6053964727369947,
                -0.8885157931519028,
                -3.0950437292254778
            ]
        },
        {
            "positions": [
                -0.11828269279375164,
                -2.2003746192779547,
                -1.4325133454064973,
                -2.6697999901320433,
                -0.7091697417515002,
                -3.0967951824488673
            ]
        },
        {
            "positions": [
                -0.13491182254434553,
                -2.2150915726647122,
                -1.3535055419522926,
                -2.7342035075270914,
                -0.5298236903510976,
                -3.098546635672257
            ]
        },
        {
            "positions": [
                -0.15154095229493939,
                -2.22980852605147,
                -1.2744977384980878,
                -2.79860702492214,
                -0.35047763895069495,
                -3.1002980888956464
            ]
        },
        {
            "positions": [
                -0.16817008204553324,
                -2.2445254794382277,
                -1.195489935043883,
                -2.8630105423171885,
                -0.1711315875502923,
                -3.102049542119036
            ]
        }
    ]
}