{
    "goal": {
        "global_pose": {
            "orientation": {
                "w": 0.005598929693374612,
                "x": 0.007748599140229565,
                "y": 0.7110244013736278,
                "z": -0.7031023480610252
            },
            "position": {
                "x": -0.8858502320852131,
                "y": -0.7141253447532654,
                "z": 0.3711530566215515
            }
        },
        "name": "move_to_auspresseinheit_C"
    },
    "id": "PRMstar_move_to_auspresseinheit_C_146",
    "joint_names": [
        "shoulder_pan_joint",
        "shoulder_lift_joint",
        "elbow_joint",
        "wrist_1_joint",
        "wrist_2_joint",
        "wrist_3_joint"
    ],
    "metrics": {
        "cart_traj_len": 0.49303593223980136,
        "distance_elbow_joint": 0.9969460585620862,
        "distance_shoulder_lift_joint": 0.3230158922938171,
        "distance_shoulder_pan_joint": 0.2568195918291134,
        "distance_wrist_1_joint": 0.6777776301205027,
        "distance_wrist_2_joint": 1.302859013501286,
        "distance_wrist_3_joint": 0.055539635922196684,
        "smoothness": 1.6148698667872622e-16,
        "time": 5.009684106,
        "traj_len": 1.9007782148975199,
        "weighted_distance": 2.3884458833507582
    },
    "planner": "PRMstar",
    "start": {
        "state": {
            "elbow_joint": 1.7527959577737207,
            "shoulder_lift_joint": -0.9740617694225068,
            "shoulder_pan_joint": -2.967991417825858,
            "wrist_1_joint": -0.759517768980727,
            "wrist_2_joint": 1.7443932448377408,
            "wrist_3_joint": -3.0840537646736568
        }
    },
    "waypoints": [
        {
            "positions": [
                -2.967991417825858,
                -0.9740617694225068,
                1.7527959577737207,
                -0.759517768980727,
                1.7443932448377408,
                -3.0840537646736568
            ]
        },
        {
            "positions": [
                -2.9423094586429466,
                -0.941760180193125,
                1.653101351917512,
                -0.6917400059686767,
                1.6141073434876123,
                -3.0896077282658765
            ]
        },
        {
            "positions": [
                -2.916627499460035,
                -0.9094585909637434,
                1.5534067460613035,
                -0.6239622429566264,
                1.4838214421374836,
                -3.095161691858096
            ]
        },
        {
            "positions": [
                -2.890945540277124,
                -0.8771570017343616,
                1.4537121402050948,
                -0.5561844799445762,
                1.353535540787355,
                -3.100715655450316
            ]
        },
        {
            "positions": [
                -2.8652635810942124,
                -0.8448554125049799,
                1.3540175343488863,
                -0.48840671693252585,
                1.2232496394372263,
                -3.1062696190425356
            ]
        },
        {
            "positions": [
                -2.839581621911301,
                -0.8125538232755982,
                1.2543229284926776,
                -0.4206289539204756,
                1.0929637380870978,
                -3.111823582634755
            ]
        },
        {
            "positions": [
                -2.81389966272839,
                -0.7802522340462166,
                1.1546283226364689,
                -0.35285119090842537,
                0.9626778367369692,
                -3.1173775462269746
            ]
        },
        {
            "positions": [
                -2.7882177035454787,
                -0.7479506448168348,
                1.0549337167802604,
                -0.2850734278963751,
                0.8323919353868406,
                -3.1229315098191943
            ]
        },
        {
            "positions": [
                -2.7625357443625673,
                -0.7156490555874531,
                0.9552391109240517,
                -0.21729566488432472,
                0.702106034036712,
                -3.128485473411414
            ]
        },
        {
            "positions": [
                -2.736853785179656,
                -0.6833474663580714,
                0.8555445050678431,
                -0.14951790187227454,
                0.5718201326865833,
                -3.1340394370036337
            ]
        },
        {
            "positions": [
                -2.7111718259967446,
                -0.6510458771286897,
                0.7558498992116345,
                -0.08174013886022419,
                0.4415342313364547,
                -3.1395934005958535
            ]
        }
    ]
}