{
    "goal": {
        "global_pose": {
            "orientation": {
                "w": 0.7047431493862688,
                "x": -0.7094548369677653,
                "y": 0.0024358444001904,
                "z": -0.0022348060817251984
            },
            "position": {
                "x": -0.39052492380142206,
                "y": 0.3671506643295288,
                "z": 0.19426114857196808
            }
        },
        "name": "move_to_magneteinheit_D"
    },
    "id": "PRMstar_move_to_magneteinheit_D_141",
    "joint_names": [
        "shoulder_pan_joint",
        "shoulder_lift_joint",
        "elbow_joint",
        "wrist_1_joint",
        "wrist_2_joint",
        "wrist_3_joint"
    ],
    "metrics": {
        "cart_traj_len": 4.038495120016086,
        "distance_elbow_joint": 3.3574368153066563,
        "distance_shoulder_lift_joint": 1.6337875364205743,
        "distance_shoulder_pan_joint": 2.721174709178393,
        "distance_wrist_1_joint": 3.851484293700726,
        "distance_wrist_2_joint": 3.3010335092234513,
        "distance_wrist_3_joint": 3.3452374366529076,
        "smoothness": 0.300020209321837,
        "time": 5.066187557,
        "traj_len": 4.267335737961417,
        "weighted_distance": 5.661549874081539
    },
    "planner": "PRMstar",
    "start": {
        "state": {
            "elbow_joint": 0.749534889911806,
            "shoulder_lift_joint": -0.6476975780787326,
            "shoulder_pan_joint": -2.711696901376241,
            "wrist_1_joint": -0.07506478083263063,
            "wrist_2_joint": 0.43296659715538205,
            "wrist_3_joint": -3.14703540197715
        }
    },
    "waypoints": [
        {
            "positions": [
                -2.711696901376241,
                -0.6476975780787326,
                0.749534889911806,
                -0.07506478083263063,
                0.43296659715538205,
                -3.14703540197715
            ]
        },
        {
            "positions": [
                -2.7245593899353313,
                -0.7047773630842094,
                0.7790367740247109,
                0.07448677179316165,
                0.3285199626336015,
                -3.148989818740757
            ]
        },
        {
            "positions": [
                -2.7374218784944215,
                -0.7618571480896861,
                0.8085386581376159,
                0.22403832441895394,
                0.22407332811182099,
                -3.1509442355043635
            ]
        },
        {
            "positions": [
                -2.750284367053512,
                -0.8189369330951629,
                0.838040542250521,
                0.3735898770447462,
                0.11962669359004047,
                -3.1528986522679703
            ]
        },
        {
            "positions": [
                -2.7631468556126024,
                -0.8760167181006396,
                0.867542426363426,
                0.5231414296705384,
                0.015180059068259935,
                -3.154853069031577
            ]
        },
        {
            "positions": [
                -2.6582057103349968,
                -0.9191347765849599,
                0.7713219058846903,
                0.608250674669583,
                -0.039239556434774725,
                -3.1586366228702145
            ]
        },
        {
            "positions": [
                -2.5532645650573906,
                -0.9622528350692802,
                0.6751013854059544,
                0.6933599196686276,
                -0.09365917193780939,
                -3.1624201767088524
            ]
        },
        {
            "positions": [
                -2.448323419779785,
                -1.0053708935536005,
                0.5788808649272188,
                0.7784691646676722,
                -0.14807878744084402,
                -3.16620373054749
            ]
        },
        {
            "positions": [
                -2.343382274502179,
                -1.0484889520379208,
                0.48266034444848294,
                0.8635784096667168,
                -0.20249840294387872,
                -3.1699872843861274
            ]
        },
        {
            "positions": [
                -2.238441129224573,
                -1.091607010522241,
                0.3864398239697472,
                0.9486876546657614,
                -0.25691801844691337,
                -3.1737708382247654
            ]
        },
        {
            "positions": [
                -2.133499983946967,
                -1.1347250690065613,
                0.29021930349101144,
                1.033796899664806,
                -0.311337633949948,
                -3.177554392063403
            ]
        },
        {
            "positions": [
                -2.028558838669361,
                -1.1778431274908816,
                0.19399878301227558,
                1.1189061446638506,
                -0.3657572494529827,
                -3.1813379459020403
            ]
        },
        {
            "positions": [
                -1.9236176933917553,
                -1.2209611859752019,
                0.09777826253353983,
                1.2040153896628953,
                -0.42017686495601736,
                -3.1851214997406783
            ]
        },
        {
            "positions": [
                -1.8186765481141496,
                -1.2640792444595221,
                0.0015577420548040788,
                1.2891246346619398,
                -0.474596480459052,
                -3.1889050535793158
            ]
        },
        {
            "positions": [
                -1.7137354028365435,
                -1.3071973029438424,
                -0.09466277842393167,
                1.3742338796609845,
                -0.5290160959620867,
                -3.1926886074179532
            ]
        },
        {
            "positions": [
                -1.6087942575589376,
                -1.3503153614281627,
                -0.19088329890266753,
                1.459343124660029,
                -0.5834357114651213,
                -3.196472161256591
            ]
        },
        {
            "positions": [
                -1.503853112281332,
                -1.393433419912483,
                -0.28710381938140317,
                1.5444523696590737,
                -0.6378553269681559,
                -3.2002557150952287
            ]
        },
        {
            "positions": [
                -1.3989119670037258,
                -1.4365514783968032,
                -0.38332433986013903,
                1.6295616146581184,
                -0.6922749424711907,
                -3.204039268933866
            ]
        },
        {
            "positions": [
                -1.2939708217261199,
                -1.4796695368811237,
                -0.4795448603388749,
                1.7146708596571631,
                -0.7466945579742253,
                -3.2078228227725036
            ]
        },
        {
            "positions": [
                -1.1890296764485142,
                -1.5227875953654437,
                -0.5757653808176105,
                1.7997801046562074,
                -0.80111417347726,
                -3.2116063766111416
            ]
        },
        {
            "positions": [
                -1.084088531170908,
                -1.5659056538497642,
                -0.6719859012963464,
                1.8848893496552521,
                -0.8555337889802946,
                -3.215389930449779
            ]
        },
        {
            "positions": [
                -0.9791473858933022,
                -1.6090237123340845,
                -0.7682064217750822,
                1.9699985946542968,
                -0.9099534044833294,
                -3.2191734842884165
            ]
        },
        {
            "positions": [
                -0.8742062406156965,
                -1.6521417708184047,
                -0.8644269422538179,
                2.055107839653341,
                -0.9643730199863639,
                -3.2229570381270545
            ]
        },
        {
            "positions": [
                -0.7692650953380906,
                -1.695259829302725,
                -0.9606474627325535,
                2.140217084652386,
                -1.0187926354893986,
                -3.226740591965692
            ]
        },
        {
            "positions": [
                -0.6643239500604845,
                -1.7383778877870455,
                -1.0568679832112893,
                2.2253263296514305,
                -1.0732122509924331,
                -3.2305241458043295
            ]
        },
        {
            "positions": [
                -0.5593828047828788,
                -1.7814959462713655,
                -1.1530885036900251,
                2.310435574650475,
                -1.1276318664954679,
                -3.2343076996429674
            ]
        },
        {
            "positions": [
                -0.4544416595052727,
                -1.824614004755686,
                -1.249309024168761,
                2.3955448196495195,
                -1.1820514819985024,
                -3.238091253481605
            ]
        },
        {
            "positions": [
                -0.34950051422766704,
                -1.8677320632400063,
                -1.3455295446474969,
                2.480654064648564,
                -1.2364710975015372,
                -3.2418748073202424
            ]
        },
        {
            "positions": [
                -0.24455936895006136,
                -1.9108501217243266,
                -1.4417500651262323,
                2.565763309647609,
                -1.2908907130045717,
                -3.2456583611588803
            ]
        },
        {
            "positions": [
                -0.13961822367245533,
                -1.9539681802086468,
                -1.5379705856049684,
                2.6508725546466536,
                -1.3453103285076065,
                -3.2494419149975178
            ]
        },
        {
            "positions": [
                -0.14218467495033796,
                -1.9721635654470169,
                -1.5842992670986706,
                2.5883421680787957,
                -1.2607127405320253,
                -3.0692846414623767
            ]
        },
        {
            "positions": [
                -0.14475112622822062,
                -1.990358950685387,
                -1.630627948592373,
                2.5258117815109378,
                -1.176115152556444,
                -2.8891273679272356
            ]
        },
        {
            "positions": [
                -0.14731757750610325,
                -2.008554335923757,
                -1.6769566300860754,
                2.46328139494308,
                -1.0915175645808626,
                -2.7089700943920945
            ]
        },
        {
            "positions": [
                -0.14988402878398588,
                -2.026749721162127,
                -1.7232853115797777,
                2.400751008375222,
                -1.0069199766052814,
                -2.5288128208569534
            ]
        },
        {
            "positions": [
                -0.1524504800618685,
                -2.0449451064004966,
                -1.76961399307348,
                2.3382206218073645,
                -0.9223223886297002,
                -2.3486555473218123
            ]
        },
        {
            "positions": [
                -0.15501693133975117,
                -2.0631404916388667,
                -1.8159426745671823,
                2.2756902352395065,
                -0.8377248006541189,
                -2.168498273786671
            ]
        },
        {
            "positions": [
                -0.1575833826176338,
                -2.0813358768772368,
                -1.8622713560608846,
                2.2131598486716486,
                -0.7531272126785377,
                -1.98834100025153
            ]
        },
        {
            "positions": [
                -0.16014983389551643,
                -2.099531262115607,
                -1.9086000375545868,
                2.1506294621037907,
                -0.6685296247029564,
                -1.808183726716389
            ]
        },
        {
            "positions": [
                -0.1627162851733991,
                -2.117726647353977,
                -1.9549287190482891,
                2.0880990755359328,
                -0.5839320367273751,
                -1.6280264531812478
            ]
        },
        {
            "positions": [
                -0.16528273645128172,
                -2.135922032592347,
                -2.0012574005419914,
                2.025568688968075,
                -0.4993344487517939,
                -1.4478691796461067
            ]
        },
        {
            "positions": [
                -0.16784918772916435,
                -2.154117417830717,
                -2.0475860820356937,
                1.963038302400217,
                -0.4147368607762125,
                -1.2677119061109654
            ]
        },
        {
            "positions": [
                -0.17041563900704698,
                -2.172312803069087,
                -2.093914763529396,
                1.9005079158323592,
                -0.3301392728006314,
                -1.0875546325758245
            ]
        },
        {
            "positions": [
                -0.1729820902849296,
                -2.190508188307457,
                -2.1402434450230983,
                1.8379775292645013,
                -0.24554168482505023,
                -0.9073973590406834
            ]
        },
        {
            "positions": [
                -0.17554854156281227,
                -2.2087035735458267,
                -2.186572126516801,
                1.7754471426966434,
                -0.16094409684946887,
                -0.7272400855055423
            ]
        },
        {
            "positions": [
                -0.1781149928406949,
                -2.2268989587841967,
                -2.2329008080105033,
                1.7129167561287855,
                -0.0763465088738875,
                -0.5470828119704012
            ]
        },
        {
            "positions": [
                -0.18068144411857753,
                -2.245094344022567,
                -2.2792294895042056,
                1.6503863695609278,
                0.008251079101693648,
                -0.3669255384352601
            ]
        },
        {
            "positions": [
                -0.1832478953964602,
                -2.263289729260937,
                -2.325558170997908,
                1.5878559829930698,
                0.0928486670772748,
                -0.186768264900119
            ]
        },
        {
            "positions": [
                -0.18581434667434282,
                -2.281485114499307,
                -2.37188685249161,
                1.525325596425212,
                0.17744625505285616,
                -0.006610991364977735
            ]
        }
    ]
}