{
    "goal": {
        "global_pose": {
            "orientation": {
                "w": -0.4816463035849501,
                "x": 0.5182115481033762,
                "y": 0.4908360881923453,
                "z": -0.5084816262002911
            },
            "position": {
                "x": -0.8240239810943604,
                "y": 0.19912469901144506,
                "z": 0.16403168439865112
            }
        },
        "name": "move_to_storage_D"
    },
    "id": "PRMstar_move_to_storage_D_66",
    "joint_names": [
        "shoulder_pan_joint",
        "shoulder_lift_joint",
        "elbow_joint",
        "wrist_1_joint",
        "wrist_2_joint",
        "wrist_3_joint"
    ],
    "metrics": {
        "cart_traj_len": 0.6901785998374913,
        "distance_elbow_joint": 0.5566477597268156,
        "distance_shoulder_lift_joint": 0.1511998443428677,
        "distance_shoulder_pan_joint": 0.1794377736487683,
        "distance_wrist_1_joint": 3.822906625980557,
        "distance_wrist_2_joint": 1.7816702983156985,
        "distance_wrist_3_joint": 3.1190956242254004,
        "smoothness": 0.0026324314767980387,
        "time": 5.038116562,
        "traj_len": 3.100154500382216,
        "weighted_distance": 4.631816716903549
    },
    "planner": "PRMstar",
    "start": {
        "state": {
            "elbow_joint": -2.384821988534728,
            "shoulder_lift_joint": -2.2788054721415256,
            "shoulder_pan_joint": -0.1854694642142757,
            "wrist_1_joint": 1.4845938289331202,
            "wrist_2_joint": 0.17898776772866878,
            "wrist_3_joint": 0.037105688729662994
        }
    },
    "waypoints": [
        {
            "positions": [
                -0.1854694642142757,
                -2.2788054721415256,
                -2.384821988534728,
                1.4845938289331202,
                0.17898776772866878,
                0.037105688729662994
            ]
        },
        {
            "positions": [
                -0.16193464971823335,
                -2.2737571050721677,
                -2.323115209294817,
                1.4346838278438592,
                0.05338508624691643,
                -0.07320553538286331
            ]
        },
        {
            "positions": [
                -0.13839983522219096,
                -2.26870873800281,
                -2.261408430054906,
                1.3847738267545984,
                -0.07221759523483592,
                -0.18351675949538962
            ]
        },
        {
            "positions": [
                -0.1148650207261486,
                -2.263660370933452,
                -2.1997016508149954,
                1.3348638256653373,
                -0.19782027671658828,
                -0.29382798360791595
            ]
        },
        {
            "positions": [
                -0.09133020623010622,
                -2.2586120038640947,
                -2.1379948715750845,
                1.2849538245760763,
                -0.32342295819834066,
                -0.4041392077204422
            ]
        },
        {
            "positions": [
                -0.06779539173406385,
                -2.2535636367947367,
                -2.0762880923351736,
                1.2350438234868153,
                -0.449025639680093,
                -0.5144504318329686
            ]
        },
        {
            "positions": [
                -0.04426057723802149,
                -2.248515269725379,
                -2.0145813130952632,
                1.1851338223975545,
                -0.5746283211618454,
                -0.6247616559454948
            ]
        },
        {
            "positions": [
                -0.020725762741979084,
                -2.2434669026560212,
                -1.9528745338553521,
                1.1352238213082935,
                -0.7002310026435977,
                -0.7350728800580212
            ]
        },
        {
            "positions": [
                -0.021542100085116398,
                -2.2370301651639455,
                -1.9459467391304943,
                0.9422495647329752,
                -0.7503671986404551,
                -0.865457160915672
            ]
        },
        {
            "positions": [
                -0.022358437428253712,
                -2.2305934276718697,
                -1.9390189444056367,
                0.7492753081576569,
                -0.8005033946373123,
                -0.995841441773323
            ]
        },
        {
            "positions": [
                -0.023174774771391023,
                -2.224156690179794,
                -1.9320911496807789,
                0.5563010515823386,
                -0.8506395906341697,
                -1.126225722630974
            ]
        },
        {
            "positions": [
                -0.023991112114528337,
                -2.2177199526877183,
                -1.925163354955921,
                0.36332679500702025,
                -0.900775786631027,
                -1.2566100034886247
            ]
        },
        {
            "positions": [
                -0.02480744945766565,
                -2.2112832151956425,
                -1.9182355602310632,
                0.17035253843170195,
                -0.9509119826278843,
                -1.3869942843462757
            ]
        },
        {
            "positions": [
                -0.02562378680080296,
                -2.204846477703567,
                -1.9113077655062056,
                -0.022621718143616354,
                -1.0010481786247416,
                -1.5173785652039267
            ]
        },
        {
            "positions": [
                -0.02644012414394028,
                -2.198409740211491,
                -1.9043799707813478,
                -0.21559597471893466,
                -1.051184374621599,
                -1.6477628460615774
            ]
        },
        {
            "positions": [
                -0.02725646148707759,
                -2.1919730027194153,
                -1.89745217605649,
                -0.40857023129425296,
                -1.1013205706184563,
                -1.7781471269192282
            ]
        },
        {
            "positions": [
                -0.028072798830214903,
                -2.1855362652273396,
                -1.8905243813316321,
                -0.6015444878695713,
                -1.1514567666153137,
                -1.9085314077768794
            ]
        },
        {
            "positions": [
                -0.028889136173352217,
                -2.179099527735264,
                -1.8835965866067745,
                -0.7945187444448896,
                -1.201592962612171,
                -2.03891568863453
            ]
        },
        {
            "positions": [
                -0.02970547351648953,
                -2.172662790243188,
                -1.8766687918819167,
                -0.9874930010202079,
                -1.2517291586090282,
                -2.1692999694921813
            ]
        },
        {
            "positions": [
                -0.030521810859626842,
                -2.1662260527511124,
                -1.8697409971570589,
                -1.1804672575955262,
                -1.3018653546058856,
                -2.299684250349832
            ]
        },
        {
            "positions": [
                -0.031338148202764156,
                -2.1597893152590366,
                -1.8628132024322013,
                -1.3734415141708445,
                -1.352001550602743,
                -2.430068531207483
            ]
        },
        {
            "positions": [
                -0.03215448554590147,
                -2.153352577766961,
                -1.8558854077073434,
                -1.5664157707461628,
                -1.4021377465996003,
                -2.5604528120651335
            ]
        },
        {
            "positions": [
                -0.032970822889038784,
                -2.146915840274885,
                -1.8489576129824856,
                -1.759390027321481,
                -1.4522739425964577,
                -2.6908370929227847
            ]
        },
        {
            "positions": [
                -0.033787160232176094,
                -2.1404791027828094,
                -1.842029818257628,
                -1.9523642838967994,
                -1.5024101385933148,
                -2.8212213737804355
            ]
        },
        {
            "positions": [
                -0.034603497575313405,
                -2.1340423652907337,
                -1.8351020235327702,
                -2.1453385404721175,
                -1.5525463345901722,
                -2.9516056546380867
            ]
        },
        {
            "positions": [
                -0.03541983491845072,
                -2.127605627798658,
                -1.8281742288079124,
                -2.338312797047436,
                -1.6026825305870296,
                -3.0819899354957374
            ]
        }
    ]
}