{
    "goal": {
        "global_pose": {
            "orientation": {
                "w": 0.7047431468963623,
                "x": -0.7094548344612122,
                "y": 0.0024358443915843964,
                "z": -0.0022348060738295317
            },
            "position": {
                "x": 0.6094750761985779,
                "y": 0.3671506643295288,
                "z": 0.19426114857196808
            }
        },
        "name": "move_to_magneteinheit_A"
    },
    "id": "PRMstar_move_to_magneteinheit_A_104",
    "joint_names": [
        "shoulder_pan_joint",
        "shoulder_lift_joint",
        "elbow_joint",
        "wrist_1_joint",
        "wrist_2_joint",
        "wrist_3_joint"
    ],
    "metrics": {
        "cart_traj_len": 3.608747545513548,
        "distance_elbow_joint": 3.9076989312314288,
        "distance_shoulder_lift_joint": 0.40962995749833553,
        "distance_shoulder_pan_joint": 2.577875771053398,
        "distance_wrist_1_joint": 0.6912677147068041,
        "distance_wrist_2_joint": 1.9847776012630267,
        "distance_wrist_3_joint": 2.707482181310662,
        "smoothness": 0.06768424257406358,
        "time": 5.083756431,
        "traj_len": 3.5041021898717024,
        "weighted_distance": 4.5132850381573295
    },
    "planner": "PRMstar",
    "start": {
        "state": {
            "elbow_joint": -1.9196185241190666,
            "shoulder_lift_joint": -1.2443396400964142,
            "shoulder_pan_joint": 2.6996025414629847,
            "wrist_1_joint": -1.5485510000780065,
            "wrist_2_joint": -1.5709468930060704,
            "wrist_3_joint": 0.4420197071253992
        }
    },
    "waypoints": [
        {
            "positions": [
                2.6996025414629847,
                -1.2443396400964142,
                -1.9196185241190666,
                -1.5485510000780065,
                -1.5709468930060704,
                0.4420197071253992
            ]
        },
        {
            "positions": [
                2.5962234730215727,
                -1.2333285795708342,
                -1.7963636227769189,
                -1.5209166960667269,
                -1.4910039741460024,
                0.4836423190274671
            ]
        },
        {
            "positions": [
                2.4928444045801608,
                -1.2223175190452544,
                -1.673108721434771,
                -1.4932823920554474,
                -1.4110610552859342,
                0.5252649309295351
            ]
        },
        {
            "positions": [
                2.389465336138749,
                -1.2113064585196744,
                -1.5498538200926235,
                -1.4656480880441678,
                -1.3311181364258662,
                0.566887542831603
            ]
        },
        {
            "positions": [
                2.2860862676973364,
                -1.2002953979940947,
                -1.4265989187504757,
                -1.4380137840328884,
                -1.2511752175657982,
                0.6085101547336709
            ]
        },
        {
            "positions": [
                2.1827071992559244,
                -1.1892843374685147,
                -1.3033440174083282,
                -1.4103794800216087,
                -1.1712322987057302,
                0.6501327666357388
            ]
        },
        {
            "positions": [
                2.0793281308145124,
                -1.178273276942935,
                -1.1800891160661804,
                -1.3827451760103293,
                -1.091289379845662,
                0.6917553785378068
            ]
        },
        {
            "positions": [
                1.9759490623731004,
                -1.167262216417355,
                -1.0568342147240326,
                -1.3551108719990497,
                -1.0113464609855938,
                0.7333779904398747
            ]
        },
        {
            "positions": [
                1.8725699939316884,
                -1.1562511558917752,
                -0.9335793133818848,
                -1.32747656798777,
                -0.9314035421255259,
                0.7750006023419427
            ]
        },
        {
            "positions": [
                1.7691909254902765,
                -1.1452400953661952,
                -0.810324412039737,
                -1.2998422639764906,
                -0.8514606232654578,
                0.8166232142440106
            ]
        },
        {
            "positions": [
                1.6658118570488645,
                -1.1342290348406152,
                -0.6870695106975895,
                -1.2722079599652112,
                -0.7715177044053898,
                0.8582458261460786
            ]
        },
        {
            "positions": [
                1.5624327886074523,
                -1.1232179743150355,
                -0.5638146093554417,
                -1.2445736559539315,
                -0.6915747855453217,
                0.8998684380481465
            ]
        },
        {
            "positions": [
                1.4590537201660403,
                -1.1122069137894555,
                -0.4405597080132939,
                -1.216939351942652,
                -0.6116318666852537,
                0.9414910499502145
            ]
        },
        {
            "positions": [
                1.3556746517246283,
                -1.1011958532638757,
                -0.31730480667114636,
                -1.1893050479313725,
                -0.5316889478251856,
                0.9831136618522823
            ]
        },
        {
            "positions": [
                1.252295583283216,
                -1.0901847927382957,
                -0.19404990532899835,
                -1.1616707439200928,
                -0.4517460289651174,
                1.0247362737543504
            ]
        },
        {
            "positions": [
                1.1489165148418041,
                -1.0791737322127157,
                -0.07079500398685079,
                -1.1340364399088134,
                -0.3718031101050494,
                1.0663588856564181
            ]
        },
        {
            "positions": [
                1.0455374464003921,
                -1.068162671687136,
                0.05245989735529699,
                -1.1064021358975338,
                -0.2918601912449814,
                1.107981497558486
            ]
        },
        {
            "positions": [
                0.9421583779589802,
                -1.0571516111615562,
                0.17571479869744433,
                -1.0787678318862541,
                -0.21191727238491342,
                1.149604109460554
            ]
        },
        {
            "positions": [
                0.838779309517568,
                -1.0461405506359762,
                0.29896970003959256,
                -1.0511335278749747,
                -0.1319743535248452,
                1.191226721362622
            ]
        },
        {
            "positions": [
                0.735400241076156,
                -1.0351294901103962,
                0.42222460138174034,
                -1.023499223863695,
                -0.05203143466477722,
                1.23284933326469
            ]
        },
        {
            "positions": [
                0.6320211726347442,
                -1.0241184295848165,
                0.5454795027238877,
                -0.9958649198524157,
                0.02791148419529077,
                1.2744719451667579
            ]
        },
        {
            "positions": [
                0.5286421041933322,
                -1.0131073690592365,
                0.6687344040660355,
                -0.9682306158411361,
                0.10785440305535876,
                1.3160945570688258
            ]
        },
        {
            "positions": [
                0.4252630357519198,
                -1.0020963085336567,
                0.7919893054081832,
                -0.9405963118298565,
                0.18779732191542697,
                1.3577171689708938
            ]
        },
        {
            "positions": [
                0.32188396731050783,
                -0.9910852480080767,
                0.9152442067503309,
                -0.912962007818577,
                0.26774024077549496,
                1.3993397808729617
            ]
        },
        {
            "positions": [
                0.29527561263560725,
                -1.0078476652501271,
                1.0425320867253602,
                -0.9090782162539746,
                0.25193931832742034,
                1.5994273027262638
            ]
        },
        {
            "positions": [
                0.2686672579607067,
                -1.0246100824921778,
                1.1698199667003895,
                -0.9051944246893721,
                0.23613839587934574,
                1.7995148245795658
            ]
        },
        {
            "positions": [
                0.2420589032858061,
                -1.0413724997342282,
                1.2971078466754187,
                -0.9013106331247697,
                0.2203374734312711,
                1.9996023464328676
            ]
        },
        {
            "positions": [
                0.21545054861090554,
                -1.0581349169762788,
                1.4243957266504481,
                -0.8974268415601673,
                0.2045365509831965,
                2.1996898682861694
            ]
        },
        {
            "positions": [
                0.18884219393600496,
                -1.0748973342183292,
                1.5516836066254776,
                -0.8935430499955649,
                0.18873562853512188,
                2.3997773901394717
            ]
        },
        {
            "positions": [
                0.16223383926110438,
                -1.0916597514603799,
                1.6789714866005068,
                -0.8896592584309624,
                0.17293470608704725,
                2.599864911992774
            ]
        },
        {
            "positions": [
                0.1356254845862038,
                -1.1084221687024303,
                1.806259366575536,
                -0.88577546686636,
                0.15713378363897262,
                2.7999524338460757
            ]
        },
        {
            "positions": [
                0.12867612749789487,
                -1.1279414910602525,
                1.8971698868439488,
                -0.8715293761187812,
                0.1393917784665031,
                2.9747271611410686
            ]
        },
        {
            "positions": [
                0.12172677040958595,
                -1.1474608134180748,
                1.9880804071123617,
                -0.8572832853712024,
                0.12164977329403359,
                3.1495018884360615
            ]
        }
    ]
}