{
    "goal": {
        "global_pose": {
            "orientation": {
                "w": 0.7031023502349854,
                "x": -0.7110244035720825,
                "y": 0.007748599164187908,
                "z": 0.005598929710686207
            },
            "position": {
                "x": 0.11585023208521307,
                "y": 0.44412534475326537,
                "z": 0.3711530566215515
            }
        },
        "name": "move_to_auspresseinheit_A"
    },
    "id": "PRMstar_move_to_auspresseinheit_A_41",
    "joint_names": [
        "shoulder_pan_joint",
        "shoulder_lift_joint",
        "elbow_joint",
        "wrist_1_joint",
        "wrist_2_joint",
        "wrist_3_joint"
    ],
    "metrics": {
        "cart_traj_len": 0.6694449516259835,
        "distance_elbow_joint": 0.5228152930655314,
        "distance_shoulder_lift_joint": 0.5350556943901912,
        "distance_shoulder_pan_joint": 1.042928850812165,
        "distance_wrist_1_joint": 1.9576085760033175,
        "distance_wrist_2_joint": 0.7310070254368464,
        "distance_wrist_3_joint": 0.47390649490844083,
        "smoothness": 1.2379379933463295,
        "time": 5.0137428260000005,
        "traj_len": 2.294193090089954,
        "weighted_distance": 2.983244965783658
    },
    "planner": "PRMstar",
    "start": {
        "state": {
            "elbow_joint": 2.4225746658250005,
            "shoulder_lift_joint": -1.3736534386056498,
            "shoulder_pan_joint": -0.3378633547517467,
            "wrist_1_joint": -1.0288598680537169,
            "wrist_2_joint": 1.233022673432363,
            "wrist_3_joint": -3.0940220416140027
        }
    },
    "waypoints": [
        {
            "positions": [
                -0.3378633547517467,
                -1.3736534386056498,
                2.4225746658250005,
                -1.0288598680537169,
                1.233022673432363,
                -3.0940220416140027
            ]
        },
        {
            "positions": [
                -0.3155945014916913,
                -1.404515389265522,
                2.4637448600962006,
                -1.1457624029777775,
                1.1276546408239752,
                -3.057394986710802
            ]
        },
        {
            "positions": [
                -0.2933256482316359,
                -1.4353773399253944,
                2.504915054367401,
                -1.2626649379018382,
                1.0222866082155873,
                -3.020767931807601
            ]
        },
        {
            "positions": [
                -0.27105679497158053,
                -1.4662392905852668,
                2.546085248638601,
                -1.3795674728258986,
                0.9169185756071994,
                -2.9841408769044
            ]
        },
        {
            "positions": [
                -0.2487879417115251,
                -1.497101241245139,
                2.5872554429098016,
                -1.4964700077499593,
                0.8115505429988115,
                -2.9475138220011994
            ]
        },
        {
            "positions": [
                -0.22651908845146967,
                -1.5279631919050112,
                2.6284256371810018,
                -1.61337254267402,
                0.7061825103904236,
                -2.9108867670979985
            ]
        },
        {
            "positions": [
                -0.20425023519141428,
                -1.5588251425648836,
                2.669595831452202,
                -1.7302750775980806,
                0.6008144777820357,
                -2.8742597121947977
            ]
        },
        {
            "positions": [
                -0.09058576878493521,
                -1.6025606413687532,
                2.6351215655224105,
                -1.5732509067907114,
                0.6131643315053505,
                -2.9060277328809523
            ]
        },
        {
            "positions": [
                0.023078697621543853,
                -1.6462961401726228,
                2.6006472995926195,
                -1.4162267359833423,
                0.6255141852286654,
                -2.937795753567107
            ]
        },
        {
            "positions": [
                0.1367431640280229,
                -1.6900316389764927,
                2.566173033662828,
                -1.2592025651759728,
                0.6378640389519803,
                -2.969563774253261
            ]
        },
        {
            "positions": [
                0.250407630434502,
                -1.7337671377803623,
                2.5316987677330367,
                -1.1021783943686039,
                0.6502138926752952,
                -3.0013317949394156
            ]
        },
        {
            "positions": [
                0.3640720968409811,
                -1.777502636584232,
                2.4972245018032457,
                -0.9451542235612346,
                0.66256374639861,
                -3.03309981562557
            ]
        },
        {
            "positions": [
                0.47773656324746006,
                -1.8212381353881018,
                2.4627502358734543,
                -0.7881300527538653,
                0.6749136001219249,
                -3.0648678363117243
            ]
        },
        {
            "positions": [
                0.5914010296539391,
                -1.8649736341919714,
                2.4282759699436633,
                -0.6311058819464961,
                0.6872634538452398,
                -3.096635856997879
            ]
        },
        {
            "positions": [
                0.7050654960604182,
                -1.908709132995841,
                2.393801704013872,
                -0.47408171113912695,
                0.6996133075685547,
                -3.1284038776840335
            ]
        }
    ]
}