{
    "goal": {
        "global_pose": {
            "orientation": {
                "w": 0.7047431493862688,
                "x": -0.7094548369677653,
                "y": 0.0024358444001904,
                "z": -0.0022348060817251984
            },
            "position": {
                "x": -0.39052492380142206,
                "y": 0.3671506643295288,
                "z": 0.19426114857196808
            }
        },
        "name": "move_to_magneteinheit_D"
    },
    "id": "PRMstar_move_to_magneteinheit_D_110",
    "joint_names": [
        "shoulder_pan_joint",
        "shoulder_lift_joint",
        "elbow_joint",
        "wrist_1_joint",
        "wrist_2_joint",
        "wrist_3_joint"
    ],
    "metrics": {
        "cart_traj_len": 4.4109604301013805,
        "distance_elbow_joint": 3.123060748283777,
        "distance_shoulder_lift_joint": 3.8475857459950222,
        "distance_shoulder_pan_joint": 3.3893003532481014,
        "distance_wrist_1_joint": 2.353097016192358,
        "distance_wrist_2_joint": 2.741194120879095,
        "distance_wrist_3_joint": 3.132613988997254,
        "smoothness": 0.37844576731668395,
        "time": 5.070618056,
        "traj_len": 4.311247148285007,
        "weighted_distance": 5.472327757788413
    },
    "planner": "PRMstar",
    "start": {
        "state": {
            "elbow_joint": 0.749534889911806,
            "shoulder_lift_joint": -0.6476975780787326,
            "shoulder_pan_joint": -2.711696901376241,
            "wrist_1_joint": -0.07506478083263063,
            "wrist_2_joint": 0.43296659715538205,
            "wrist_3_joint": -3.14703540197715
        }
    },
    "waypoints": [
        {
            "positions": [
                -2.711696901376241,
                -0.6476975780787326,
                0.749534889911806,
                -0.07506478083263063,
                0.43296659715538205,
                -3.14703540197715
            ]
        },
        {
            "positions": [
                -2.750472168336066,
                -0.846216288880559,
                0.7231406647660216,
                -0.04075840650165192,
                0.4432612531905414,
                -3.0987227171461837
            ]
        },
        {
            "positions": [
                -2.7892474352958905,
                -1.0447349996823854,
                0.6967464396202372,
                -0.006452032170673208,
                0.45355590922570077,
                -3.050410032315217
            ]
        },
        {
            "positions": [
                -2.828022702255715,
                -1.2432537104842116,
                0.6703522144744529,
                0.027854342160305495,
                0.4638505652608601,
                -3.0020973474842507
            ]
        },
        {
            "positions": [
                -2.8667979692155403,
                -1.4417724212860379,
                0.6439579893286685,
                0.06216071649128421,
                0.4741452212960195,
                -2.953784662653284
            ]
        },
        {
            "positions": [
                -2.905573236175365,
                -1.6402911320878644,
                0.6175637641828842,
                0.09646709082226293,
                0.4844398773311788,
                -2.9054719778223177
            ]
        },
        {
            "positions": [
                -2.9443485031351897,
                -1.8388098428896906,
                0.5911695390370998,
                0.13077346515324162,
                0.4947345333663382,
                -2.8571592929913514
            ]
        },
        {
            "positions": [
                -2.9831237700950144,
                -2.037328553691517,
                0.5647753138913154,
                0.16507983948422034,
                0.5050291894014975,
                -2.8088466081603847
            ]
        },
        {
            "positions": [
                -2.9229181580951935,
                -1.9681674754375205,
                0.5187389057281252,
                0.22046417398254026,
                0.42858009404695235,
                -2.7444164361764427
            ]
        },
        {
            "positions": [
                -2.8627125460953726,
                -1.8990063971835238,
                0.4727024975649349,
                0.2758485084808602,
                0.35213099869240716,
                -2.6799862641925003
            ]
        },
        {
            "positions": [
                -2.8025069340955517,
                -1.8298453189295274,
                0.42666608940174466,
                0.33123284297918004,
                0.27568190333786197,
                -2.6155560922085583
            ]
        },
        {
            "positions": [
                -2.742301322095731,
                -1.7606842406755308,
                0.3806296812385544,
                0.38661717747749996,
                0.19923280798331677,
                -2.5511259202246164
            ]
        },
        {
            "positions": [
                -2.68209571009591,
                -1.691523162421534,
                0.33459327307536413,
                0.4420015119758199,
                0.12278371262877158,
                -2.486695748240674
            ]
        },
        {
            "positions": [
                -2.621890098096089,
                -1.6223620841675375,
                0.2885568649121739,
                0.49738584647413975,
                0.046334617274226386,
                -2.422265576256732
            ]
        },
        {
            "positions": [
                -2.5616844860962678,
                -1.5532010059135408,
                0.24252045674898365,
                0.5527701809724597,
                -0.030114478080318863,
                -2.3578354042727896
            ]
        },
        {
            "positions": [
                -2.5014788740964473,
                -1.4840399276595444,
                0.19648404858579338,
                0.6081545154707796,
                -0.106563573434864,
                -2.2934052322888476
            ]
        },
        {
            "positions": [
                -2.441273262096626,
                -1.4148788494055475,
                0.1504476404226031,
                0.6635388499690995,
                -0.18301266878940914,
                -2.228975060304905
            ]
        },
        {
            "positions": [
                -2.3810676500968055,
                -1.3457177711515511,
                0.10441123225941285,
                0.7189231844674194,
                -0.2594617641439544,
                -2.1645448883209633
            ]
        },
        {
            "positions": [
                -2.320862038096984,
                -1.2765566928975545,
                0.05837482409622263,
                0.7743075189657393,
                -0.33591085949849964,
                -2.1001147163370213
            ]
        },
        {
            "positions": [
                -2.2606564260971633,
                -1.2073956146435578,
                0.01233841593303242,
                0.8296918534640592,
                -0.4123599548530448,
                -2.035684544353079
            ]
        },
        {
            "positions": [
                -2.2004508140973424,
                -1.1382345363895614,
                -0.0336979922301579,
                0.8850761879623791,
                -0.4888090502075899,
                -1.971254372369137
            ]
        },
        {
            "positions": [
                -2.1402452020975216,
                -1.0690734581355645,
                -0.07973440039334811,
                0.940460522460699,
                -0.5652581455621353,
                -1.906824200385195
            ]
        },
        {
            "positions": [
                -2.0800395900977007,
                -0.9999123798815681,
                -0.12577080855653844,
                0.9958448569590189,
                -0.6417072409166804,
                -1.8423940284012528
            ]
        },
        {
            "positions": [
                -2.01983397809788,
                -0.9307513016275715,
                -0.17180721671972865,
                1.0512291914573388,
                -0.7181563362712257,
                -1.7779638564173106
            ]
        },
        {
            "positions": [
                -1.902543349752776,
                -0.9681322684197649,
                -0.27132641292464393,
                1.101193336475451,
                -0.734417986541239,
                -1.7105578267966068
            ]
        },
        {
            "positions": [
                -1.7852527214076719,
                -1.0055132352119582,
                -0.3708456091295592,
                1.1511574814935632,
                -0.7506796368112524,
                -1.643151797175903
            ]
        },
        {
            "positions": [
                -1.667962093062568,
                -1.0428942020041516,
                -0.47036480533447456,
                1.2011216265116753,
                -0.7669412870812657,
                -1.5757457675551994
            ]
        },
        {
            "positions": [
                -1.550671464717464,
                -1.0802751687963448,
                -0.5698840015393898,
                1.2510857715297874,
                -0.783202937351279,
                -1.5083397379344956
            ]
        },
        {
            "positions": [
                -1.43338083637236,
                -1.1176561355885384,
                -0.6694031977443051,
                1.3010499165478997,
                -0.7994645876212924,
                -1.4409337083137916
            ]
        },
        {
            "positions": [
                -1.316090208027256,
                -1.1550371023807315,
                -0.7689223939492205,
                1.3510140615660118,
                -0.8157262378913057,
                -1.373527678693088
            ]
        },
        {
            "positions": [
                -1.1987995796821522,
                -1.192418069172925,
                -0.8684415901541356,
                1.4009782065841239,
                -0.8319878881613191,
                -1.3061216490723841
            ]
        },
        {
            "positions": [
                -1.0815089513370482,
                -1.2297990359651183,
                -0.9679607863590509,
                1.4509423516022362,
                -0.8482495384313324,
                -1.2387156194516804
            ]
        },
        {
            "positions": [
                -0.9642183229919443,
                -1.2671800027573117,
                -1.0674799825639663,
                1.5009064966203483,
                -0.8645111887013458,
                -1.1713095898309767
            ]
        },
        {
            "positions": [
                -0.8469276946468403,
                -1.304560969549505,
                -1.1669991787688816,
                1.5508706416384603,
                -0.8807728389713592,
                -1.1039035602102727
            ]
        },
        {
            "positions": [
                -0.7296370663017364,
                -1.3419419363416984,
                -1.266518374973797,
                1.6008347866565726,
                -0.8970344892413725,
                -1.036497530589569
            ]
        },
        {
            "positions": [
                -0.6123464379566324,
                -1.3793229031338918,
                -1.3660375711787123,
                1.650798931674685,
                -0.9132961395113859,
                -0.9690915009688653
            ]
        },
        {
            "positions": [
                -0.4950558096115285,
                -1.416703869926085,
                -1.4655567673836274,
                1.7007630766927968,
                -0.9295577897813991,
                -0.9016854713481616
            ]
        },
        {
            "positions": [
                -0.37776518126642467,
                -1.4540848367182784,
                -1.5650759635885425,
                1.750727221710909,
                -0.9458194400514125,
                -0.8342794417274578
            ]
        },
        {
            "positions": [
                -0.2604745529213206,
                -1.4914658035104718,
                -1.6645951597934578,
                1.8006913667290212,
                -0.9620810903214259,
                -0.766873412106754
            ]
        },
        {
            "positions": [
                -0.14318392457621676,
                -1.5288467703026651,
                -1.7641143559983732,
                1.8506555117471333,
                -0.9783427405914392,
                -0.6994673824860502
            ]
        },
        {
            "positions": [
                -0.0258932962311127,
                -1.5662277370948585,
                -1.8636335522032885,
                1.9006196567652456,
                -0.9946043908614526,
                -0.6320613528653464
            ]
        },
        {
            "positions": [
                -0.029460472973551848,
                -1.6433233135834515,
                -1.925234055890283,
                1.8618484439285754,
                -0.8723012074364647,
                -0.5651147708870764
            ]
        },
        {
            "positions": [
                -0.033027649715990995,
                -1.7204188900720445,
                -1.9868345595772774,
                1.823077231091905,
                -0.7499980240114767,
                -0.49816818890880654
            ]
        },
        {
            "positions": [
                -0.036594826458430145,
                -1.7975144665606375,
                -2.0484350632642716,
                1.7843060182552348,
                -0.6276948405864888,
                -0.43122160693053657
            ]
        },
        {
            "positions": [
                -0.040162003200869295,
                -1.8746100430492305,
                -2.1100355669512663,
                1.7455348054185644,
                -0.5053916571615009,
                -0.36427502495226666
            ]
        },
        {
            "positions": [
                -0.04372917994330844,
                -1.9517056195378237,
                -2.1716360706382605,
                1.7067635925818943,
                -0.383088473736513,
                -0.2973284429739967
            ]
        },
        {
            "positions": [
                -0.04729635668574759,
                -2.0288011960264165,
                -2.2332365743252547,
                1.667992379745224,
                -0.2607852903115251,
                -0.23038186099572677
            ]
        },
        {
            "positions": [
                -0.05086353342818674,
                -2.1058967725150097,
                -2.2948370780122493,
                1.6292211669085537,
                -0.13848210688653723,
                -0.1634352790174568
            ]
        },
        {
            "positions": [
                -0.09608779125097057,
                -2.164640788325294,
                -2.3210666714654895,
                1.5938831373292903,
                -0.03402355208816604,
                -0.11376399033826975
            ]
        },
        {
            "positions": [
                -0.1413120490737544,
                -2.223384804135578,
                -2.3472962649187292,
                1.5585451077500272,
                0.07043500271020514,
                -0.06409270165908271
            ]
        },
        {
            "positions": [
                -0.18653630689653822,
                -2.282128819945862,
                -2.3735258583719694,
                1.5232070781707638,
                0.17489355750857635,
                -0.01442141297989565
            ]
        }
    ]
}