{
    "goal": {
        "global_pose": {
            "orientation": {
                "w": -0.4816463035849501,
                "x": 0.5182115481033762,
                "y": 0.4908360881923453,
                "z": -0.5084816262002911
            },
            "position": {
                "x": -0.8240239810943604,
                "y": -0.300875300988555,
                "z": 0.16403168439865112
            }
        },
        "name": "move_to_storage_C"
    },
    "id": "PRMstar_move_to_storage_C_115",
    "joint_names": [
        "shoulder_pan_joint",
        "shoulder_lift_joint",
        "elbow_joint",
        "wrist_1_joint",
        "wrist_2_joint",
        "wrist_3_joint"
    ],
    "metrics": {
        "cart_traj_len": 0.5757962346812673,
        "distance_elbow_joint": 0.25462970348920777,
        "distance_shoulder_lift_joint": 0.18845940595811594,
        "distance_shoulder_pan_joint": 0.49406255215620165,
        "distance_wrist_1_joint": 0.064955001023151,
        "distance_wrist_2_joint": 1.0656056433584293,
        "distance_wrist_3_joint": 0.06450814270714345,
        "smoothness": 0.0,
        "time": 5.0033640649999995,
        "traj_len": 1.4602124669691905,
        "weighted_distance": 1.8416833002685657
    },
    "planner": "PRMstar",
    "start": {
        "state": {
            "elbow_joint": 2.010868314990456,
            "shoulder_lift_joint": -1.1634956873337592,
            "shoulder_pan_joint": -2.4736205022346125,
            "wrist_1_joint": -0.8367026794202681,
            "wrist_2_joint": 0.6746043897044499,
            "wrist_3_joint": -3.1496632123970403
        }
    },
    "waypoints": [
        {
            "positions": [
                -2.4736205022346125,
                -1.1634956873337592,
                2.010868314990456,
                -0.8367026794202681,
                0.6746043897044499,
                -3.1496632123970403
            ]
        },
        {
            "positions": [
                -2.555964260927313,
                -1.1320857863407399,
                1.9684300310755878,
                -0.8258768459164096,
                0.8522053302641881,
                -3.138911855279183
            ]
        },
        {
            "positions": [
                -2.638308019620013,
                -1.1006758853477205,
                1.92599174716072,
                -0.8150510124125511,
                1.0298062708239264,
                -3.128160498161326
            ]
        },
        {
            "positions": [
                -2.720651778312713,
                -1.0692659843547012,
                1.883553463245852,
                -0.8042251789086926,
                1.2074072113836647,
                -3.117409141043469
            ]
        },
        {
            "positions": [
                -2.8029955370054136,
                -1.037856083361682,
                1.841115179330984,
                -0.7933993454048341,
                1.3850081519434028,
                -3.1066577839256113
            ]
        },
        {
            "positions": [
                -2.885339295698114,
                -1.0064461823686626,
                1.798676895416116,
                -0.7825735119009756,
                1.562609092503141,
                -3.095906426807754
            ]
        },
        {
            "positions": [
                -2.967683054390814,
                -0.9750362813756432,
                1.756238611501248,
                -0.7717476783971171,
                1.7402100330628791,
                -3.085155069689897
            ]
        }
    ]
}