{
    "goal": {
        "global_pose": {
            "orientation": {
                "w": -0.4816463035849501,
                "x": 0.5182115481033762,
                "y": 0.4908360881923453,
                "z": -0.5084816262002911
            },
            "position": {
                "x": -0.8240239810943604,
                "y": -0.300875300988555,
                "z": 0.16403168439865112
            }
        },
        "name": "move_to_storage_C"
    },
    "id": "PRMstar_move_to_storage_C_13",
    "joint_names": [
        "shoulder_pan_joint",
        "shoulder_lift_joint",
        "elbow_joint",
        "wrist_1_joint",
        "wrist_2_joint",
        "wrist_3_joint"
    ],
    "metrics": {
        "cart_traj_len": 0.5760592268501391,
        "distance_elbow_joint": 0.2545707368425991,
        "distance_shoulder_lift_joint": 0.18972050106556515,
        "distance_shoulder_pan_joint": 0.4941873264463643,
        "distance_wrist_1_joint": 0.06574796672878891,
        "distance_wrist_2_joint": 1.0678111520818492,
        "distance_wrist_3_joint": 0.05431535990408998,
        "smoothness": 0.0,
        "time": 5.004037,
        "traj_len": 1.4582019898043126,
        "weighted_distance": 1.8353590606984986
    },
    "planner": "PRMstar",
    "start": {
        "state": {
            "elbow_joint": 2.010868314990456,
            "shoulder_lift_joint": -1.1634956873337592,
            "shoulder_pan_joint": -2.4736205022346125,
            "wrist_1_joint": -0.8367026794202681,
            "wrist_2_joint": 0.6746043897044499,
            "wrist_3_joint": -3.1496632123970403
        }
    },
    "waypoints": [
        {
            "positions": [
                -2.4736205022346125,
                -1.1634956873337592,
                2.010868314990456,
                -0.8367026794202681,
                0.6746043897044499,
                -3.1496632123970403
            ]
        },
        {
            "positions": [
                -2.55598505664234,
                -1.1318756038228317,
                1.9684398588500227,
                -0.8257446849654699,
                0.8525729150514247,
                -3.1406106524130255
            ]
        },
        {
            "positions": [
                -2.6383496110500673,
                -1.1002555203119042,
                1.9260114027095894,
                -0.8147866905106718,
                1.0305414403983997,
                -3.1315580924290103
            ]
        },
        {
            "positions": [
                -2.7207141654577947,
                -1.0686354368009767,
                1.8835829465691563,
                -0.8038286960558736,
                1.2085099657453746,
                -3.122505532444995
            ]
        },
        {
            "positions": [
                -2.803078719865522,
                -1.037015353290049,
                1.8411544904287231,
                -0.7928707016010755,
                1.3864784910923493,
                -3.1134529724609803
            ]
        },
        {
            "positions": [
                -2.8854432742732494,
                -1.0053952697791215,
                1.7987260342882898,
                -0.7819127071462774,
                1.5644470164393243,
                -3.1044004124769655
            ]
        },
        {
            "positions": [
                -2.967807828680977,
                -0.973775186268194,
                1.7562975781478567,
                -0.7709547126914792,
                1.7424155417862992,
                -3.0953478524929503
            ]
        }
    ]
}