{
    "goal": {
        "global_pose": {
            "orientation": {
                "w": 0.7047431493862688,
                "x": -0.7094548369677653,
                "y": 0.0024358444001904,
                "z": -0.0022348060817251984
            },
            "position": {
                "x": -0.39052492380142206,
                "y": 0.3671506643295288,
                "z": 0.19426114857196808
            }
        },
        "name": "move_to_magneteinheit_D"
    },
    "id": "PRMstar_move_to_magneteinheit_D_100",
    "joint_names": [
        "shoulder_pan_joint",
        "shoulder_lift_joint",
        "elbow_joint",
        "wrist_1_joint",
        "wrist_2_joint",
        "wrist_3_joint"
    ],
    "metrics": {
        "cart_traj_len": 5.045245549127878,
        "distance_elbow_joint": 3.4064492832210043,
        "distance_shoulder_lift_joint": 1.9932978985966332,
        "distance_shoulder_pan_joint": 2.988822181807494,
        "distance_wrist_1_joint": 2.088761930651999,
        "distance_wrist_2_joint": 1.2710149873248373,
        "distance_wrist_3_joint": 6.290821938050531,
        "smoothness": 0.22216532152490845,
        "time": 5.063630326,
        "traj_len": 4.247254197673186,
        "weighted_distance": 5.8292871788693335
    },
    "planner": "PRMstar",
    "start": {
        "state": {
            "elbow_joint": 0.749534889911806,
            "shoulder_lift_joint": -0.6476975780787326,
            "shoulder_pan_joint": -2.711696901376241,
            "wrist_1_joint": -0.07506478083263063,
            "wrist_2_joint": 0.43296659715538205,
            "wrist_3_joint": -3.14703540197715
        }
    },
    "waypoints": [
        {
            "positions": [
                -2.711696901376241,
                -0.6476975780787326,
                0.749534889911806,
                -0.07506478083263063,
                0.43296659715538205,
                -3.14703540197715
            ]
        },
        {
            "positions": [
                -2.7185052407831676,
                -0.7755562855226668,
                0.7846744094724656,
                -0.07895465681896553,
                0.4590396873516469,
                -2.9772922875309744
            ]
        },
        {
            "positions": [
                -2.734746290807784,
                -0.9002686194353583,
                0.8214939936672876,
                -0.16799003703752913,
                0.559849435853661,
                -2.9793271516011055
            ]
        },
        {
            "positions": [
                -2.7509873408324,
                -1.0249809533480498,
                0.8583135778621096,
                -0.25702541725609274,
                0.660659184355675,
                -2.9813620156712366
            ]
        },
        {
            "positions": [
                -2.7672283908570163,
                -1.1496932872607413,
                0.8951331620569316,
                -0.34606079747465635,
                0.7614689328576891,
                -2.9833968797413677
            ]
        },
        {
            "positions": [
                -2.6757820813202584,
                -1.18565179722452,
                0.8421056476169576,
                -0.37699895646263765,
                0.7535155323972208,
                -2.8069937851081748
            ]
        },
        {
            "positions": [
                -2.5843357717835005,
                -1.2216103071882984,
                0.7890781331769837,
                -0.407937115450619,
                0.7455621319367526,
                -2.630590690474982
            ]
        },
        {
            "positions": [
                -2.492889462246743,
                -1.2575688171520771,
                0.7360506187370097,
                -0.4388752744386003,
                0.7376087314762843,
                -2.4541875958417894
            ]
        },
        {
            "positions": [
                -2.401443152709985,
                -1.2935273271158556,
                0.6830231042970357,
                -0.4698134334265816,
                0.7296553310158159,
                -2.2777845012085964
            ]
        },
        {
            "positions": [
                -2.309996843173227,
                -1.3294858370796343,
                0.6299955898570617,
                -0.5007515924145629,
                0.7217019305553476,
                -2.1013814065754035
            ]
        },
        {
            "positions": [
                -2.2185505336364693,
                -1.3654443470434128,
                0.5769680754170878,
                -0.5316897514025443,
                0.7137485300948794,
                -1.9249783119422106
            ]
        },
        {
            "positions": [
                -2.1271042240997113,
                -1.4014028570071915,
                0.5239405609771138,
                -0.5626279103905256,
                0.705795129634411,
                -1.7485752173090177
            ]
        },
        {
            "positions": [
                -2.035657914562954,
                -1.4373613669709702,
                0.4709130465371399,
                -0.5935660693785069,
                0.6978417291739427,
                -1.572172122675825
            ]
        },
        {
            "positions": [
                -1.9442116050261957,
                -1.4733198769347486,
                0.4178855320971659,
                -0.6245042283664882,
                0.6898883287134745,
                -1.395769028042632
            ]
        },
        {
            "positions": [
                -1.8527652954894378,
                -1.5092783868985273,
                0.36485801765719195,
                -0.6554423873544695,
                0.6819349282530062,
                -1.219365933409439
            ]
        },
        {
            "positions": [
                -1.76131898595268,
                -1.5452368968623058,
                0.31183050321721806,
                -0.6863805463424508,
                0.6739815277925378,
                -1.0429628387762464
            ]
        },
        {
            "positions": [
                -1.6698726764159222,
                -1.5811954068260845,
                0.25880298877724406,
                -0.7173187053304322,
                0.6660281273320696,
                -0.8665597441430535
            ]
        },
        {
            "positions": [
                -1.5784263668791643,
                -1.617153916789863,
                0.20577547433727006,
                -0.7482568643184135,
                0.6580747268716013,
                -0.6901566495098606
            ]
        },
        {
            "positions": [
                -1.4869800573424066,
                -1.6531124267536417,
                0.15274795989729606,
                -0.7791950233063949,
                0.650121326411133,
                -0.5137535548766676
            ]
        },
        {
            "positions": [
                -1.3955337478056486,
                -1.6890709367174201,
                0.09972044545732206,
                -0.8101331822943761,
                0.6421679259506647,
                -0.3373504602434747
            ]
        },
        {
            "positions": [
                -1.304087438268891,
                -1.7250294466811988,
                0.04669293101734817,
                -0.8410713412823574,
                0.6342145254901964,
                -0.16094736561028222
            ]
        },
        {
            "positions": [
                -1.212641128732133,
                -1.7609879566449773,
                -0.006334583422625717,
                -0.8720095002703387,
                0.6262611250297281,
                0.015455729022910258
            ]
        },
        {
            "positions": [
                -1.1211948191953751,
                -1.796946466608756,
                -0.05936209786259983,
                -0.9029476592583201,
                0.6183077245692599,
                0.19185882365610363
            ]
        },
        {
            "positions": [
                -1.0297485096586174,
                -1.8329049765725345,
                -0.1123896123025736,
                -0.9338858182463013,
                0.6103543241087915,
                0.3682619182892961
            ]
        },
        {
            "positions": [
                -0.9383022001218593,
                -1.8688634865363132,
                -0.16541712674254772,
                -0.9648239772342827,
                0.6024009236483232,
                0.5446650129224895
            ]
        },
        {
            "positions": [
                -0.8468558905851016,
                -1.9048219965000919,
                -0.2184446411825216,
                -0.9957621362222641,
                0.594447523187855,
                0.721068107555682
            ]
        },
        {
            "positions": [
                -0.7554095810483439,
                -1.9407805064638703,
                -0.2714721556224955,
                -1.0267002952102453,
                0.5864941227273867,
                0.8974712021888749
            ]
        },
        {
            "positions": [
                -0.663963271511586,
                -1.976739016427649,
                -0.3244996700624696,
                -1.0576384541982267,
                0.5785407222669183,
                1.0738742968220683
            ]
        },
        {
            "positions": [
                -0.572516961974828,
                -2.0126975263914275,
                -0.3775271845024435,
                -1.088576613186208,
                0.5705873218064501,
                1.2502773914552607
            ]
        },
        {
            "positions": [
                -0.48107065243807057,
                -2.048656036355206,
                -0.4305546989424174,
                -1.1195147721741892,
                0.5626339213459818,
                1.4266804860884532
            ]
        },
        {
            "positions": [
                -0.3896243429013122,
                -2.084614546318985,
                -0.4835822133823915,
                -1.1504529311621705,
                0.5546805208855135,
                1.6030835807216466
            ]
        },
        {
            "positions": [
                -0.29817803336455473,
                -2.1205730562827636,
                -0.5366097278223654,
                -1.1813910901501519,
                0.5467271204250452,
                1.779486675354839
            ]
        },
        {
            "positions": [
                -0.2067317238277968,
                -2.1565315662465423,
                -0.5896372422623395,
                -1.2123292491381332,
                0.5387737199645768,
                1.9558897699880324
            ]
        },
        {
            "positions": [
                -0.11528541429103872,
                -2.1924900762103205,
                -0.6426647567023134,
                -1.2432674081261146,
                0.5308203195041086,
                2.132292864621225
            ]
        },
        {
            "positions": [
                -0.10654482373701966,
                -2.160844209997656,
                -0.7810962560710761,
                -1.3167008613159075,
                0.477351972280783,
                2.2153902625095623
            ]
        },
        {
            "positions": [
                -0.0978042331830006,
                -2.129198343784992,
                -0.9195277554398389,
                -1.3901343145057004,
                0.4238836250574575,
                2.2984876603978996
            ]
        },
        {
            "positions": [
                -0.08906364262898155,
                -2.0975524775723278,
                -1.0579592548086016,
                -1.4635677676954932,
                0.370415277834132,
                2.3815850582862375
            ]
        },
        {
            "positions": [
                -0.08032305207496249,
                -2.0659066113596634,
                -1.1963907541773644,
                -1.5370012208852861,
                0.3169469306108065,
                2.464682456174575
            ]
        },
        {
            "positions": [
                -0.07158246152094344,
                -2.0342607451469994,
                -1.3348222535461272,
                -1.610434674075079,
                0.26347858338748087,
                2.547779854062912
            ]
        },
        {
            "positions": [
                -0.06284187096692437,
                -2.002614878934335,
                -1.4732537529148901,
                -1.683868127264872,
                0.21001023616415537,
                2.6308772519512496
            ]
        },
        {
            "positions": [
                -0.054101280412905316,
                -1.9709690127216708,
                -1.611685252283653,
                -1.7573015804546648,
                0.15654188894082982,
                2.713974649839587
            ]
        },
        {
            "positions": [
                -0.04536068985888626,
                -1.9393231465090066,
                -1.7501167516524154,
                -1.8307350336444577,
                0.10307354171750432,
                2.7970720477279243
            ]
        },
        {
            "positions": [
                -0.036620099304867204,
                -1.9076772802963422,
                -1.8885482510211784,
                -1.9041684868342506,
                0.04960519449417877,
                2.8801694456162616
            ]
        },
        {
            "positions": [
                -0.027879508750848145,
                -1.8760314140836778,
                -2.026979750389941,
                -1.9776019400240434,
                -0.003863152729146835,
                2.9632668435045995
            ]
        },
        {
            "positions": [
                -0.019138918196829086,
                -1.8443855478710138,
                -2.165411249758704,
                -2.0510353932138363,
                -0.05733149995247222,
                3.046364241392937
            ]
        },
        {
            "positions": [
                -0.010398327642810026,
                -1.8127396816583494,
                -2.3038427491274667,
                -2.124468846403629,
                -0.11079984717579784,
                3.129461639281274
            ]
        },
        {
            "positions": [
                -0.03980843249489557,
                -1.8012805140061703,
                -2.314155265776047,
                -2.131028490583796,
                -0.12250715910730509,
                3.1298142580098265
            ]
        },
        {
            "positions": [
                -0.18685895675532327,
                -1.7439846757452753,
                -2.3657178490189468,
                -2.1638267114846297,
                -0.18104371876484138,
                3.1315773516525898
            ]
        }
    ]
}