{
    "goal": {
        "global_pose": {
            "orientation": {
                "w": -0.4816463035849501,
                "x": 0.5182115481033762,
                "y": 0.4908360881923453,
                "z": -0.5084816262002911
            },
            "position": {
                "x": -0.8240239810943604,
                "y": -0.300875300988555,
                "z": 0.16403168439865112
            }
        },
        "name": "move_to_storage_C"
    },
    "id": "PRMstar_move_to_storage_C_15",
    "joint_names": [
        "shoulder_pan_joint",
        "shoulder_lift_joint",
        "elbow_joint",
        "wrist_1_joint",
        "wrist_2_joint",
        "wrist_3_joint"
    ],
    "metrics": {
        "cart_traj_len": 0.576350812268452,
        "distance_elbow_joint": 0.254752687705214,
        "distance_shoulder_lift_joint": 0.18801400229258614,
        "distance_shoulder_pan_joint": 0.49474940033231274,
        "distance_wrist_1_joint": 0.0669975088649225,
        "distance_wrist_2_joint": 1.0672373771006005,
        "distance_wrist_3_joint": 0.06779869784404946,
        "smoothness": 0.0,
        "time": 5.013012794,
        "traj_len": 1.46271995752423,
        "weighted_distance": 1.8464511788274574
    },
    "planner": "PRMstar",
    "start": {
        "state": {
            "elbow_joint": 2.010868314990456,
            "shoulder_lift_joint": -1.1634956873337592,
            "shoulder_pan_joint": -2.4736205022346125,
            "wrist_1_joint": -0.8367026794202681,
            "wrist_2_joint": 0.6746043897044499,
            "wrist_3_joint": -3.1496632123970403
        }
    },
    "waypoints": [
        {
            "positions": [
                -2.4736205022346125,
                -1.1634956873337592,
                2.010868314990456,
                -0.8367026794202681,
                0.6746043897044499,
                -3.1496632123970403
            ]
        },
        {
            "positions": [
                -2.5560787356233314,
                -1.1321600202849949,
                1.9684095337062535,
                -0.825536427942781,
                0.8524772858878833,
                -3.1383634294230323
            ]
        },
        {
            "positions": [
                -2.63853696901205,
                -1.1008243532362305,
                1.9259507524220512,
                -0.814370176465294,
                1.0303501820713168,
                -3.127063646449024
            ]
        },
        {
            "positions": [
                -2.720995202400769,
                -1.0694886861874662,
                1.8834919711378488,
                -0.8032039249878069,
                1.20822307825475,
                -3.1157638634750153
            ]
        },
        {
            "positions": [
                -2.803453435789488,
                -1.0381530191387018,
                1.8410331898536465,
                -0.7920376735103197,
                1.3860959744381836,
                -3.1044640805010073
            ]
        },
        {
            "positions": [
                -2.8859116691782063,
                -1.0068173520899375,
                1.7985744085694442,
                -0.7808714220328327,
                1.563968870621617,
                -3.0931642975269993
            ]
        },
        {
            "positions": [
                -2.9683699025669252,
                -0.975481685041173,
                1.7561156272852418,
                -0.7697051705553456,
                1.7418417668050503,
                -3.081864514552991
            ]
        }
    ]
}