{
    "goal": {
        "global_pose": {
            "orientation": {
                "w": 0.7031023480610252,
                "x": -0.7110244013736278,
                "y": 0.0077485991402295624,
                "z": 0.005598929693374583
            },
            "position": {
                "x": -0.8841497679147869,
                "y": 0.44412534475326537,
                "z": 0.3711530566215515
            }
        },
        "name": "move_to_auspresseinheit_D"
    },
    "id": "PRMstar_move_to_auspresseinheit_D_46",
    "joint_names": [
        "shoulder_pan_joint",
        "shoulder_lift_joint",
        "elbow_joint",
        "wrist_1_joint",
        "wrist_2_joint",
        "wrist_3_joint"
    ],
    "metrics": {
        "cart_traj_len": 0.3426234256693538,
        "distance_elbow_joint": 0.6302476394761707,
        "distance_shoulder_lift_joint": 0.11640852910883392,
        "distance_shoulder_pan_joint": 0.13373941580452325,
        "distance_wrist_1_joint": 0.5138798842635226,
        "distance_wrist_2_joint": 1.4315899516971857,
        "distance_wrist_3_joint": 0.01580709485031928,
        "smoothness": 1.5789838586790672e-15,
        "time": 5.013214189,
        "traj_len": 1.6857261091887243,
        "weighted_distance": 2.195166631684689
    },
    "planner": "PRMstar",
    "start": {
        "state": {
            "elbow_joint": -1.8275523626775212,
            "shoulder_lift_joint": -2.126789852344167,
            "shoulder_pan_joint": -0.03513704404078235,
            "wrist_1_joint": -2.347782403156801,
            "wrist_2_joint": -1.6058999987535132,
            "wrist_3_joint": -3.0880379163319196
        }
    },
    "waypoints": [
        {
            "positions": [
                -0.03513704404078235,
                -2.126789852344167,
                -1.8275523626775212,
                -2.347782403156801,
                -1.6058999987535132,
                -3.0880379163319196
            ]
        },
        {
            "positions": [
                -0.051854471016347756,
                -2.141340918482771,
                -1.7487714077429999,
                -2.4120173886897414,
                -1.426951254791365,
                -3.0900138031882096
            ]
        },
        {
            "positions": [
                -0.06857189799191316,
                -2.155891984621375,
                -1.6699904528084786,
                -2.4762523742226814,
                -1.2480025108292168,
                -3.0919896900444996
            ]
        },
        {
            "positions": [
                -0.08528932496747857,
                -2.1704430507599795,
                -1.5912094978739573,
                -2.540487359755622,
                -1.0690537668670685,
                -3.093965576900789
            ]
        },
        {
            "positions": [
                -0.10200675194304398,
                -2.184994116898584,
                -1.512428542939436,
                -2.604722345288562,
                -0.8901050229049203,
                -3.0959414637570792
            ]
        },
        {
            "positions": [
                -0.1187241789186094,
                -2.199545183037188,
                -1.4336475880049147,
                -2.6689573308215024,
                -0.7111562789427721,
                -3.0979173506133693
            ]
        },
        {
            "positions": [
                -0.13544160589417478,
                -2.2140962491757925,
                -1.3548666330703931,
                -2.733192316354443,
                -0.5322075349806239,
                -3.099893237469659
            ]
        },
        {
            "positions": [
                -0.1521590328697402,
                -2.2286473153143964,
                -1.2760856781358718,
                -2.797427301887383,
                -0.3532587910184757,
                -3.101869124325949
            ]
        },
        {
            "positions": [
                -0.1688764598453056,
                -2.2431983814530008,
                -1.1973047232013505,
                -2.8616622874203235,
                -0.17431004705632747,
                -3.103845011182239
            ]
        }
    ]
}