{
    "goal": {
        "global_pose": {
            "orientation": {
                "w": -0.4816463035849501,
                "x": 0.5182115481033762,
                "y": 0.4908360881923453,
                "z": -0.5084816262002911
            },
            "position": {
                "x": -0.8240239810943604,
                "y": 0.19912469901144506,
                "z": 0.16403168439865112
            }
        },
        "name": "move_to_storage_D"
    },
    "id": "PRMstar_move_to_storage_D_40",
    "joint_names": [
        "shoulder_pan_joint",
        "shoulder_lift_joint",
        "elbow_joint",
        "wrist_1_joint",
        "wrist_2_joint",
        "wrist_3_joint"
    ],
    "metrics": {
        "cart_traj_len": 3.98840150199882,
        "distance_elbow_joint": 4.210932480918696,
        "distance_shoulder_lift_joint": 1.2633303434055423,
        "distance_shoulder_pan_joint": 2.813831970198229,
        "distance_wrist_1_joint": 2.2646123300808494,
        "distance_wrist_2_joint": 1.0407583109439154,
        "distance_wrist_3_joint": 3.135922426137453,
        "smoothness": 0.012423043605787736,
        "time": 5.041112172,
        "traj_len": 3.8378884639453346,
        "weighted_distance": 4.930172751028542
    },
    "planner": "PRMstar",
    "start": {
        "state": {
            "elbow_joint": -2.384821988534728,
            "shoulder_lift_joint": -2.2788054721415256,
            "shoulder_pan_joint": -0.1854694642142757,
            "wrist_1_joint": 1.4845938289331202,
            "wrist_2_joint": 0.17898776772866878,
            "wrist_3_joint": 0.037105688729662994
        }
    },
    "waypoints": [
        {
            "positions": [
                -0.1854694642142757,
                -2.2788054721415256,
                -2.384821988534728,
                1.4845938289331202,
                0.17898776772866878,
                0.037105688729662994
            ]
        },
        {
            "positions": [
                -0.06951280784770247,
                -2.2132728639788155,
                -2.362461504627878,
                1.4004350212771999,
                0.2359822963308037,
                0.023242313202475568
            ]
        },
        {
            "positions": [
                0.04644384851887076,
                -2.1477402558161054,
                -2.3401010207210273,
                1.3162762136212796,
                0.29297682493293864,
                0.009378937675288142
            ]
        },
        {
            "positions": [
                0.16240050488544402,
                -2.0822076476533953,
                -2.3177405368141772,
                1.2321174059653592,
                0.3499713535350736,
                -0.004484437851899288
            ]
        },
        {
            "positions": [
                0.27835716125201726,
                -2.0166750394906847,
                -2.295380052907327,
                1.1479585983094387,
                0.40696588213720847,
                -0.01834781337908671
            ]
        },
        {
            "positions": [
                0.3943138176185905,
                -1.9511424313279746,
                -2.273019569000477,
                1.0637997906535184,
                0.46396041073934347,
                -0.03221118890627414
            ]
        },
        {
            "positions": [
                0.5102704739851638,
                -1.8856098231652645,
                -2.2506590850936266,
                0.979640982997598,
                0.5209549393414783,
                -0.04607456443346157
            ]
        },
        {
            "positions": [
                0.626227130351737,
                -1.8200772150025544,
                -2.2282986011867765,
                0.8954821753416776,
                0.5779494679436132,
                -0.05993793996064901
            ]
        },
        {
            "positions": [
                0.7080767982215901,
                -1.7807395839678428,
                -2.1348674659541143,
                0.8313700382791029,
                0.6076724794093978,
                -0.12898097425368146
            ]
        },
        {
            "positions": [
                0.7899264660914431,
                -1.7414019529331315,
                -2.041436330721452,
                0.7672579012165281,
                0.6373954908751825,
                -0.19802400854671393
            ]
        },
        {
            "positions": [
                0.8717761339612962,
                -1.70206432189842,
                -1.94800519548879,
                0.7031457641539534,
                0.6671185023409671,
                -0.26706704283974636
            ]
        },
        {
            "positions": [
                0.9536258018311492,
                -1.6627266908637084,
                -1.8545740602561278,
                0.6390336270913787,
                0.6968415138067517,
                -0.33611007713277885
            ]
        },
        {
            "positions": [
                1.0354754697010022,
                -1.6233890598289968,
                -1.7611429250234658,
                0.574921490028804,
                0.7265645252725365,
                -0.4051531114258113
            ]
        },
        {
            "positions": [
                1.1173251375708553,
                -1.5840514287942855,
                -1.6677117897908036,
                0.5108093529662292,
                0.756287536738321,
                -0.4741961457188437
            ]
        },
        {
            "positions": [
                1.199174805440708,
                -1.544713797759574,
                -1.5742806545581414,
                0.4466972159036544,
                0.7860105482041058,
                -0.5432391800118762
            ]
        },
        {
            "positions": [
                1.2810244733105614,
                -1.5053761667248624,
                -1.4808495193254791,
                0.38258507884107973,
                0.8157335596698904,
                -0.6122822143049087
            ]
        },
        {
            "positions": [
                1.3628741411804142,
                -1.466038535690151,
                -1.387418384092817,
                0.31847294177850494,
                0.845456571135675,
                -0.6813252485979411
            ]
        },
        {
            "positions": [
                1.4447238090502674,
                -1.4267009046554395,
                -1.293987248860155,
                0.25436080471593026,
                0.8751795826014597,
                -0.7503682828909736
            ]
        },
        {
            "positions": [
                1.5265734769201202,
                -1.387363273620728,
                -1.2005561136274927,
                0.19024866765335535,
                0.9049025940672443,
                -0.8194113171840061
            ]
        },
        {
            "positions": [
                1.6084231447899733,
                -1.3480256425860164,
                -1.1071249783948305,
                0.12613653059078067,
                0.9346256055330289,
                -0.8884543514770384
            ]
        },
        {
            "positions": [
                1.6902728126598263,
                -1.3086880115513049,
                -1.0136938431621683,
                0.06202439352820588,
                0.9643486169988136,
                -0.957497385770071
            ]
        },
        {
            "positions": [
                1.7721224805296794,
                -1.2693503805165935,
                -0.9202627079295063,
                -0.0020877435343688022,
                0.9940716284645982,
                -1.0265404200631034
            ]
        },
        {
            "positions": [
                1.8539721483995324,
                -1.230012749481882,
                -0.826831572696844,
                -0.0661998805969436,
                1.0237946399303828,
                -1.095583454356136
            ]
        },
        {
            "positions": [
                1.9358218162693854,
                -1.1906751184471704,
                -0.733400437464182,
                -0.13031201765951816,
                1.0535176513961675,
                -1.1646264886491684
            ]
        },
        {
            "positions": [
                2.0176714841392385,
                -1.1513374874124591,
                -0.6399693022315196,
                -0.19442415472209296,
                1.083240662861952,
                -1.2336695229422008
            ]
        },
        {
            "positions": [
                2.0995211520090917,
                -1.1119998563777476,
                -0.5465381669988576,
                -0.25853629178466775,
                1.1129636743277367,
                -1.3027125572352332
            ]
        },
        {
            "positions": [
                2.1813708198789445,
                -1.072662225343036,
                -0.45310703176619543,
                -0.3226484288472426,
                1.1426866857935214,
                -1.3717555915282658
            ]
        },
        {
            "positions": [
                2.2157547957331762,
                -1.0682632179117242,
                -0.27778260683156747,
                -0.35783074210112614,
                1.1367590401874397,
                -1.5046064489036137
            ]
        },
        {
            "positions": [
                2.2501387715874075,
                -1.0638642104804126,
                -0.1024581818969395,
                -0.39301305535500974,
                1.130831394581358,
                -1.637457306278962
            ]
        },
        {
            "positions": [
                2.284522747441639,
                -1.0594652030491007,
                0.07286624303768846,
                -0.4281953686088933,
                1.1249037489752762,
                -1.7703081636543099
            ]
        },
        {
            "positions": [
                2.3189067232958704,
                -1.0550661956177891,
                0.24819066797231643,
                -0.46337768186277684,
                1.1189761033691945,
                -1.903159021029658
            ]
        },
        {
            "positions": [
                2.353290699150102,
                -1.0506671881864773,
                0.4235150929069444,
                -0.49855999511666044,
                1.1130484577631128,
                -2.036009878405006
            ]
        },
        {
            "positions": [
                2.3876746750043334,
                -1.0462681807551655,
                0.5988395178415724,
                -0.533742308370544,
                1.107120812157031,
                -2.168860735780354
            ]
        },
        {
            "positions": [
                2.422058650858565,
                -1.0418691733238539,
                0.7741639427762002,
                -0.5689246216244276,
                1.1011931665509491,
                -2.301711593155702
            ]
        },
        {
            "positions": [
                2.4564426267127963,
                -1.037470165892542,
                0.9494883677108283,
                -0.6041069348783111,
                1.0952655209448674,
                -2.4345624505310504
            ]
        },
        {
            "positions": [
                2.490826602567028,
                -1.0330711584612302,
                1.124812792645456,
                -0.6392892481321947,
                1.0893378753387857,
                -2.5674133079063983
            ]
        },
        {
            "positions": [
                2.5252105784212593,
                -1.0286721510299186,
                1.3001372175800843,
                -0.6744715613860783,
                1.083410229732704,
                -2.7002641652817463
            ]
        },
        {
            "positions": [
                2.559594554275491,
                -1.0242731435986068,
                1.475461642514712,
                -0.7096538746399619,
                1.0774825841266222,
                -2.8331150226570943
            ]
        },
        {
            "positions": [
                2.5939785301297222,
                -1.0198741361672952,
                1.6507860674493402,
                -0.7448361878938454,
                1.0715549385205405,
                -2.965965880032442
            ]
        },
        {
            "positions": [
                2.628362505983954,
                -1.0154751287359833,
                1.826110492383968,
                -0.780018501147729,
                1.0656272929144588,
                -3.09881673740779
            ]
        }
    ]
}