{
    "goal": {
        "global_pose": {
            "orientation": {
                "w": 0.7047431468963623,
                "x": -0.7094548344612122,
                "y": 0.0024358443915843964,
                "z": -0.0022348060738295317
            },
            "position": {
                "x": 0.6094750761985779,
                "y": 0.3671506643295288,
                "z": 0.19426114857196808
            }
        },
        "name": "move_to_magneteinheit_A"
    },
    "id": "PRMstar_move_to_magneteinheit_A_133",
    "joint_names": [
        "shoulder_pan_joint",
        "shoulder_lift_joint",
        "elbow_joint",
        "wrist_1_joint",
        "wrist_2_joint",
        "wrist_3_joint"
    ],
    "metrics": {
        "cart_traj_len": 3.423163471786063,
        "distance_elbow_joint": 3.938398771536341,
        "distance_shoulder_lift_joint": 0.821307205779115,
        "distance_shoulder_pan_joint": 2.9285270358562987,
        "distance_wrist_1_joint": 3.5590955009496694,
        "distance_wrist_2_joint": 1.4315452745818371,
        "distance_wrist_3_joint": 0.9279922431633952,
        "smoothness": 0.13947376835851716,
        "time": 5.033188534000001,
        "traj_len": 3.6887485726011007,
        "weighted_distance": 4.522553625301193
    },
    "planner": "PRMstar",
    "start": {
        "state": {
            "elbow_joint": -1.9196185241190666,
            "shoulder_lift_joint": -1.2443396400964142,
            "shoulder_pan_joint": 2.6996025414629847,
            "wrist_1_joint": -1.5485510000780065,
            "wrist_2_joint": -1.5709468930060704,
            "wrist_3_joint": 0.4420197071253992
        }
    },
    "waypoints": [
        {
            "positions": [
                2.6996025414629847,
                -1.2443396400964142,
                -1.9196185241190666,
                -1.5485510000780065,
                -1.5709468930060704,
                0.4420197071253992
            ]
        },
        {
            "positions": [
                2.5433986896559317,
                -1.2584035340052437,
                -1.8461951771988319,
                -1.516466896352634,
                -1.5072795365692515,
                0.39873386179092185
            ]
        },
        {
            "positions": [
                2.387194837848879,
                -1.2724674279140733,
                -1.772771830278597,
                -1.4843827926272615,
                -1.4436121801324324,
                0.3554480164564445
            ]
        },
        {
            "positions": [
                2.230990986041826,
                -1.2865313218229029,
                -1.6993484833583625,
                -1.4522986889018887,
                -1.3799448236956136,
                0.3121621711219672
            ]
        },
        {
            "positions": [
                2.0747871342347732,
                -1.3005952157317324,
                -1.6259251364381277,
                -1.4202145851765162,
                -1.3162774672587945,
                0.2688763257874898
            ]
        },
        {
            "positions": [
                1.9185832824277205,
                -1.314659109640562,
                -1.552501789517893,
                -1.3881304814511437,
                -1.2526101108219756,
                0.2255904804530125
            ]
        },
        {
            "positions": [
                1.7623794306206677,
                -1.3287230035493915,
                -1.4790784425976584,
                -1.3560463777257712,
                -1.1889427543851565,
                0.18230463511853517
            ]
        },
        {
            "positions": [
                1.606175578813615,
                -1.3427868974582213,
                -1.4056550956774236,
                -1.3239622740003987,
                -1.1252753979483376,
                0.13901878978405785
            ]
        },
        {
            "positions": [
                1.449971727006562,
                -1.356850791367051,
                -1.3322317487571889,
                -1.2918781702750262,
                -1.0616080415115188,
                0.09573294444958047
            ]
        },
        {
            "positions": [
                1.2937678751995092,
                -1.3709146852758805,
                -1.258808401836954,
                -1.2597940665496536,
                -0.9979406850746998,
                0.0524470991151032
            ]
        },
        {
            "positions": [
                1.1375640233924562,
                -1.38497857918471,
                -1.1853850549167193,
                -1.2277099628242811,
                -0.9342733286378807,
                0.009161253780625822
            ]
        },
        {
            "positions": [
                0.9813601715854035,
                -1.3990424730935396,
                -1.1119617079964847,
                -1.1956258590989084,
                -0.8706059722010618,
                -0.0341245915538515
            ]
        },
        {
            "positions": [
                0.8251563197783505,
                -1.4131063670023691,
                -1.03853836107625,
                -1.1635417553735359,
                -0.8069386157642428,
                -0.07741043688832883
            ]
        },
        {
            "positions": [
                0.6689524679712979,
                -1.4271702609111987,
                -0.9651150141560153,
                -1.1314576516481634,
                -0.7432712593274239,
                -0.12069628222280612
            ]
        },
        {
            "positions": [
                0.6288665350141464,
                -1.4008972762943623,
                -0.8254350925785536,
                -1.0003545276637709,
                -0.7107730136891373,
                -0.1303855213466555
            ]
        },
        {
            "positions": [
                0.5887806020569948,
                -1.3746242916775258,
                -0.6857551710010921,
                -0.8692514036793784,
                -0.6782747680508506,
                -0.14007476047050485
            ]
        },
        {
            "positions": [
                0.5486946690998432,
                -1.3483513070606894,
                -0.5460752494236303,
                -0.7381482796949859,
                -0.645776522412564,
                -0.1497639995943542
            ]
        },
        {
            "positions": [
                0.5086087361426916,
                -1.322078322443853,
                -0.4063953278461687,
                -0.6070451557105934,
                -0.6132782767742774,
                -0.1594532387182036
            ]
        },
        {
            "positions": [
                0.46852280318554007,
                -1.2958053378270167,
                -0.26671540626870693,
                -0.47594203172620086,
                -0.5807800311359907,
                -0.16914247784205297
            ]
        },
        {
            "positions": [
                0.42843687022838856,
                -1.26953235321018,
                -0.12703548469124537,
                -0.34483890774180836,
                -0.5482817854977041,
                -0.17883171696590233
            ]
        },
        {
            "positions": [
                0.388350937271237,
                -1.2432593685933437,
                0.012644436886216304,
                -0.21373578375741586,
                -0.5157835398594175,
                -0.1885209560897517
            ]
        },
        {
            "positions": [
                0.3482650043140854,
                -1.2169863839765074,
                0.15232435846367787,
                -0.08263265977302336,
                -0.4832852942211308,
                -0.19821019521360106
            ]
        },
        {
            "positions": [
                0.30817907135693384,
                -1.1907133993596708,
                0.29200428004113965,
                0.048470464211369135,
                -0.4507870485828442,
                -0.20789943433745045
            ]
        },
        {
            "positions": [
                0.26809313839978227,
                -1.1644404147428344,
                0.43168420161860144,
                0.17957358819576164,
                -0.41828880294455756,
                -0.21758867346129981
            ]
        },
        {
            "positions": [
                0.2280072054426307,
                -1.138167430125998,
                0.571364123196063,
                0.31067671218015436,
                -0.3857905573062709,
                -0.22727791258514918
            ]
        },
        {
            "positions": [
                0.18792127248547918,
                -1.1118944455091617,
                0.7110440447735246,
                0.44177983616454664,
                -0.3532923116679843,
                -0.23696715170899854
            ]
        },
        {
            "positions": [
                0.14783533952832761,
                -1.0856214608923254,
                0.8507239663509863,
                0.5728829601489391,
                -0.3207940660296977,
                -0.2466563908328479
            ]
        },
        {
            "positions": [
                0.10774940657117604,
                -1.0593484762754888,
                0.9904038879284479,
                0.7039860841333316,
                -0.288295820391411,
                -0.2563456299566973
            ]
        },
        {
            "positions": [
                0.06766347361402447,
                -1.0330754916586524,
                1.1300838095059098,
                0.8350892081177241,
                -0.25579757475312437,
                -0.26603486908054663
            ]
        },
        {
            "positions": [
                0.0275775406568729,
                -1.006802507041816,
                1.269763731083371,
                0.9661923321021166,
                -0.22329932911483774,
                -0.27572410820439597
            ]
        },
        {
            "positions": [
                -0.01250839230027867,
                -0.9805295224249795,
                1.409443652660833,
                1.0972954560865091,
                -0.19080108347655111,
                -0.2854133473282454
            ]
        },
        {
            "positions": [
                -0.052594325257430206,
                -0.9542565378081431,
                1.5491235742382945,
                1.2283985800709019,
                -0.1583028378382645,
                -0.29510258645209475
            ]
        },
        {
            "positions": [
                -0.01732829143025301,
                -0.9211439654358882,
                1.6430549088740904,
                1.384827764231054,
                -0.15452259395545814,
                -0.25692859653491446
            ]
        },
        {
            "positions": [
                0.017937742396924188,
                -0.8880313930636332,
                1.7369862435098866,
                1.541256948391206,
                -0.15074235007265183,
                -0.21875460661773416
            ]
        },
        {
            "positions": [
                0.05320377622410138,
                -0.8549188206913781,
                1.8309175781456826,
                1.6976861325513581,
                -0.14696210618984548,
                -0.18058061670055392
            ]
        },
        {
            "positions": [
                0.08846981005127857,
                -0.8218062483191232,
                1.9248489127814787,
                1.85411531671151,
                -0.14318186230703916,
                -0.1424066267833736
            ]
        },
        {
            "positions": [
                0.12373584387845576,
                -0.7886936759468682,
                2.0187802474172747,
                2.0105445008716623,
                -0.13940161842423282,
                -0.10423263686619334
            ]
        }
    ]
}