{
    "goal": {
        "global_pose": {
            "orientation": {
                "w": 0.5084816262002911,
                "x": -0.4908360881923452,
                "y": 0.5182115481033761,
                "z": -0.48164630358495003
            },
            "position": {
                "x": 0.5540239810943604,
                "y": -0.46912469901144505,
                "z": 0.16403168439865112
            }
        },
        "name": "move_to_storage_B"
    },
    "id": "PRMstar_move_to_storage_B_59",
    "joint_names": [
        "shoulder_pan_joint",
        "shoulder_lift_joint",
        "elbow_joint",
        "wrist_1_joint",
        "wrist_2_joint",
        "wrist_3_joint"
    ],
    "metrics": {
        "cart_traj_len": 1.9774188408916187,
        "distance_elbow_joint": 0.5136195928415339,
        "distance_shoulder_lift_joint": 1.44641954512516,
        "distance_shoulder_pan_joint": 1.3647267721808667,
        "distance_wrist_1_joint": 3.443317284326416,
        "distance_wrist_2_joint": 2.825347606453949,
        "distance_wrist_3_joint": 3.1259455517895702,
        "smoothness": 0.21453256328118206,
        "time": 5.054898544,
        "traj_len": 3.5664234679462132,
        "weighted_distance": 5.023935941776826
    },
    "planner": "PRMstar",
    "start": {
        "state": {
            "elbow_joint": 1.664937868594044,
            "shoulder_lift_joint": -0.661644460510453,
            "shoulder_pan_joint": -0.9139846352900073,
            "wrist_1_joint": 2.146753192139373,
            "wrist_2_joint": -2.2341966793290973,
            "wrist_3_joint": 0.005466555786416001
        }
    },
    "waypoints": [
        {
            "positions": [
                -0.9139846352900073,
                -0.661644460510453,
                1.664937868594044,
                2.146753192139373,
                -2.2341966793290973,
                0.005466555786416001
            ]
        },
        {
            "positions": [
                -0.82943942092578,
                -0.7976694180180832,
                1.667881053854159,
                2.1798781380960084,
                -2.2314579499903258,
                0.09299608393317733
            ]
        },
        {
            "positions": [
                -0.7448942065615528,
                -0.9336943755257134,
                1.6708242391142742,
                2.2130030840526436,
                -2.2287192206515547,
                0.18052561207993867
            ]
        },
        {
            "positions": [
                -0.6603489921973256,
                -1.0697193330333437,
                1.6737674243743894,
                2.2461280300092787,
                -2.225980491312783,
                0.2680551402267
            ]
        },
        {
            "positions": [
                -0.5758037778330984,
                -1.2057442905409739,
                1.6767106096345044,
                2.2792529759659144,
                -2.223241761974012,
                0.35558466837346137
            ]
        },
        {
            "positions": [
                -0.49125856346887115,
                -1.341769248048604,
                1.6796537948946195,
                2.3123779219225495,
                -2.2205030326352406,
                0.4431141965202227
            ]
        },
        {
            "positions": [
                -0.40671334910464396,
                -1.4777942055562343,
                1.6825969801547347,
                2.3455028678791847,
                -2.2177643032964696,
                0.530643724666984
            ]
        },
        {
            "positions": [
                -0.32216813474041667,
                -1.6138191630638645,
                1.6855401654148499,
                2.37862781383582,
                -2.215025573957698,
                0.6181732528137454
            ]
        },
        {
            "positions": [
                -0.3435103246013244,
                -1.6132879396457669,
                1.7042015335798564,
                2.260973237282805,
                -2.090265772538313,
                0.728175132477327
            ]
        },
        {
            "positions": [
                -0.36485251446223216,
                -1.6127567162276695,
                1.7228629017448631,
                2.14331866072979,
                -1.9655059711189278,
                0.8381770121409087
            ]
        },
        {
            "positions": [
                -0.3861947043231399,
                -1.6122254928095718,
                1.7415242699098696,
                2.025664084176775,
                -1.8407461696995429,
                0.9481788918044903
            ]
        },
        {
            "positions": [
                -0.4075368941840477,
                -1.6116942693914744,
                1.7601856380748762,
                1.9080095076237598,
                -1.7159863682801577,
                1.058180771468072
            ]
        },
        {
            "positions": [
                -0.42887908404495545,
                -1.6111630459733768,
                1.778847006239883,
                1.7903549310707447,
                -1.5912265668607728,
                1.1681826511316538
            ]
        },
        {
            "positions": [
                -0.4502212739058632,
                -1.6106318225552791,
                1.7975083744048894,
                1.6727003545177297,
                -1.4664667654413877,
                1.2781845307952353
            ]
        },
        {
            "positions": [
                -0.47156346376677094,
                -1.6101005991371817,
                1.8161697425698962,
                1.5550457779647147,
                -1.3417069640220025,
                1.388186410458817
            ]
        },
        {
            "positions": [
                -0.4929056536276787,
                -1.609569375719084,
                1.8348311107349027,
                1.4373912014116996,
                -1.2169471626026174,
                1.4981882901223988
            ]
        },
        {
            "positions": [
                -0.5142478434885864,
                -1.6090381523009867,
                1.8534924788999092,
                1.3197366248586846,
                -1.0921873611832322,
                1.6081901697859804
            ]
        },
        {
            "positions": [
                -0.5355900333494942,
                -1.608506928882889,
                1.872153847064916,
                1.2020820483056696,
                -0.9674275597638473,
                1.718192049449562
            ]
        },
        {
            "positions": [
                -0.5569322232104019,
                -1.6079757054647916,
                1.8908152152299225,
                1.0844274717526545,
                -0.8426677583444622,
                1.8281939291131437
            ]
        },
        {
            "positions": [
                -0.5782744130713097,
                -1.607444482046694,
                1.909476583394929,
                0.9667728951996395,
                -0.7179079569250773,
                1.9381958087767253
            ]
        },
        {
            "positions": [
                -0.5996166029322174,
                -1.6069132586285964,
                1.9281379515599357,
                0.8491183186466245,
                -0.5931481555056919,
                2.048197688440307
            ]
        },
        {
            "positions": [
                -0.6209587927931253,
                -1.606382035210499,
                1.9467993197249422,
                0.7314637420936094,
                -0.46838835408630697,
                2.158199568103889
            ]
        },
        {
            "positions": [
                -0.6423009826540329,
                -1.6058508117924013,
                1.9654606878899488,
                0.6138091655405946,
                -0.34362855266692205,
                2.2682014477674706
            ]
        },
        {
            "positions": [
                -0.6636431725149408,
                -1.6053195883743039,
                1.9841220560549555,
                0.49615458898757936,
                -0.21886875124753669,
                2.378203327431052
            ]
        },
        {
            "positions": [
                -0.6849853623758484,
                -1.6047883649562062,
                2.0027834242199622,
                0.3785000124345643,
                -0.09410894982815154,
                2.4882052070946337
            ]
        },
        {
            "positions": [
                -0.7063275522367563,
                -1.6042571415381086,
                2.0214447923849685,
                0.2608454358815493,
                0.030650851591233597,
                2.598207086758215
            ]
        },
        {
            "positions": [
                -0.727669742097664,
                -1.6037259181200112,
                2.0401061605499753,
                0.14319085932853426,
                0.1554106530106183,
                2.7082089664217968
            ]
        },
        {
            "positions": [
                -0.7490119319585717,
                -1.6031946947019136,
                2.058767528714982,
                0.025536282775519226,
                0.28017045443000343,
                2.8182108460853783
            ]
        },
        {
            "positions": [
                -0.7703541218194795,
                -1.6026634712838161,
                2.0774288968799883,
                -0.09211829377749581,
                0.4049302558493886,
                2.9282127257489607
            ]
        },
        {
            "positions": [
                -0.7916963116803872,
                -1.6021322478657185,
                2.096090265044995,
                -0.20977287033051106,
                0.5296900572687738,
                3.0382146054125423
            ]
        },
        {
            "positions": [
                -0.8523727306186484,
                -1.505620662390998,
                2.0795968257668784,
                -0.33438126602323864,
                0.5173978832975583,
                3.056854105845231
            ]
        },
        {
            "positions": [
                -0.9130491495569096,
                -1.4091090769162775,
                2.063103386488762,
                -0.4589896617159662,
                0.5051057093263427,
                3.0754936062779197
            ]
        },
        {
            "positions": [
                -0.9737255684951708,
                -1.312597491441557,
                2.0466099472106456,
                -0.5835980574086939,
                0.4928135353551272,
                3.0941331067106086
            ]
        },
        {
            "positions": [
                -1.034401987433432,
                -1.2160859059668365,
                2.030116507932529,
                -0.7082064531014214,
                0.4805213613839116,
                3.112772607143297
            ]
        },
        {
            "positions": [
                -1.0950784063716932,
                -1.119574320492116,
                2.0136230686544123,
                -0.832814848794149,
                0.46822918741269604,
                3.131412107575986
            ]
        }
    ]
}