{
    "goal": {
        "global_pose": {
            "orientation": {
                "w": 0.7031023480610252,
                "x": -0.7110244013736278,
                "y": 0.0077485991402295624,
                "z": 0.005598929693374583
            },
            "position": {
                "x": -0.8841497679147869,
                "y": 0.44412534475326537,
                "z": 0.3711530566215515
            }
        },
        "name": "move_to_auspresseinheit_D"
    },
    "id": "PRMstar_move_to_auspresseinheit_D_58",
    "joint_names": [
        "shoulder_pan_joint",
        "shoulder_lift_joint",
        "elbow_joint",
        "wrist_1_joint",
        "wrist_2_joint",
        "wrist_3_joint"
    ],
    "metrics": {
        "cart_traj_len": 0.3422344803811581,
        "distance_elbow_joint": 0.6304548620570973,
        "distance_shoulder_lift_joint": 0.1169240710533539,
        "distance_shoulder_pan_joint": 0.13299042721793866,
        "distance_wrist_1_joint": 0.5062559923560581,
        "distance_wrist_2_joint": 1.437366399502342,
        "distance_wrist_3_joint": 0.016182575539420263,
        "smoothness": 1.9737298371844314e-16,
        "time": 5.007669469,
        "traj_len": 1.6852816760785747,
        "weighted_distance": 2.1945755559249838
    },
    "planner": "PRMstar",
    "start": {
        "state": {
            "elbow_joint": -1.8275523626775212,
            "shoulder_lift_joint": -2.126789852344167,
            "shoulder_pan_joint": -0.03513704404078235,
            "wrist_1_joint": -2.347782403156801,
            "wrist_2_joint": -1.6058999987535132,
            "wrist_3_joint": -3.0880379163319196
        }
    },
    "waypoints": [
        {
            "positions": [
                -0.03513704404078235,
                -2.126789852344167,
                -1.8275523626775212,
                -2.347782403156801,
                -1.6058999987535132,
                -3.0880379163319196
            ]
        },
        {
            "positions": [
                -0.051760847443024685,
                -2.141405361225836,
                -1.748745504920384,
                -2.4110644022013084,
                -1.4262291988157205,
                -3.0900607382743472
            ]
        },
        {
            "positions": [
                -0.06838465084526701,
                -2.1560208701075054,
                -1.669938647163247,
                -2.4743464012458154,
                -1.2465583988779276,
                -3.092083560216775
            ]
        },
        {
            "positions": [
                -0.08500845424750936,
                -2.1706363789891747,
                -1.5911317894061097,
                -2.5376284002903224,
                -1.066887598940135,
                -3.094106382159202
            ]
        },
        {
            "positions": [
                -0.10163225764975167,
                -2.1852518878708436,
                -1.5123249316489726,
                -2.60091039933483,
                -0.8872167990023422,
                -3.0961292041016297
            ]
        },
        {
            "positions": [
                -0.11825606105199402,
                -2.199867396752513,
                -1.4335180738918354,
                -2.6641923983793374,
                -0.7075459990645494,
                -3.0981520260440574
            ]
        },
        {
            "positions": [
                -0.13487986445423636,
                -2.214482905634182,
                -1.3547112161346981,
                -2.7274743974238445,
                -0.5278751991267567,
                -3.1001748479864846
            ]
        },
        {
            "positions": [
                -0.15150366785647867,
                -2.2290984145158514,
                -1.275904358377561,
                -2.7907563964683515,
                -0.34820439918896384,
                -3.102197669928912
            ]
        },
        {
            "positions": [
                -0.16812747125872102,
                -2.2437139233975207,
                -1.1970975006204239,
                -2.854038395512859,
                -0.16853359925117126,
                -3.10422049187134
            ]
        }
    ]
}