{
    "goal": {
        "global_pose": {
            "orientation": {
                "w": 0.7047431493862688,
                "x": -0.7094548369677653,
                "y": 0.0024358444001904,
                "z": -0.0022348060817251984
            },
            "position": {
                "x": -0.39052492380142206,
                "y": 0.3671506643295288,
                "z": 0.19426114857196808
            }
        },
        "name": "move_to_magneteinheit_D"
    },
    "id": "PRMstar_move_to_magneteinheit_D_13",
    "joint_names": [
        "shoulder_pan_joint",
        "shoulder_lift_joint",
        "elbow_joint",
        "wrist_1_joint",
        "wrist_2_joint",
        "wrist_3_joint"
    ],
    "metrics": {
        "cart_traj_len": 3.741246636907347,
        "distance_elbow_joint": 3.4521240324183684,
        "distance_shoulder_lift_joint": 1.626085199059342,
        "distance_shoulder_pan_joint": 2.5570246496748457,
        "distance_wrist_1_joint": 1.5947916161558808,
        "distance_wrist_2_joint": 1.0937424707096035,
        "distance_wrist_3_joint": 3.238768424685799,
        "smoothness": 0.08959939885056822,
        "time": 5.079420591,
        "traj_len": 3.682734906656171,
        "weighted_distance": 4.767452918376954
    },
    "planner": "PRMstar",
    "start": {
        "state": {
            "elbow_joint": 0.749534889911806,
            "shoulder_lift_joint": -0.6476975780787326,
            "shoulder_pan_joint": -2.711696901376241,
            "wrist_1_joint": -0.07506478083263063,
            "wrist_2_joint": 0.43296659715538205,
            "wrist_3_joint": -3.14703540197715
        }
    },
    "waypoints": [
        {
            "positions": [
                -2.711696901376241,
                -0.6476975780787326,
                0.749534889911806,
                -0.07506478083263063,
                0.43296659715538205,
                -3.14703540197715
            ]
        },
        {
            "positions": [
                -2.72653292192372,
                -0.6960560322387306,
                0.5956591555947212,
                -0.10889757235492839,
                0.4045953302644223,
                -3.1561455445772753
            ]
        },
        {
            "positions": [
                -2.696687198655834,
                -0.7523772236550377,
                0.404196726191285,
                -0.10906231400065683,
                0.36490591082537505,
                -3.120191549248981
            ]
        },
        {
            "positions": [
                -2.666841475387947,
                -0.8086984150713448,
                0.21273429678784878,
                -0.10922705564638527,
                0.32521649138632786,
                -3.084237553920687
            ]
        },
        {
            "positions": [
                -2.6369957521200607,
                -0.8650196064876517,
                0.021271867384412557,
                -0.10939179729211371,
                0.28552707194728066,
                -3.0482835585923933
            ]
        },
        {
            "positions": [
                -2.607150028852174,
                -0.9213407979039588,
                -0.1701905620190236,
                -0.10955653893784215,
                0.24583765250823342,
                -3.012329563264099
            ]
        },
        {
            "positions": [
                -2.5773043055842875,
                -0.9776619893202659,
                -0.36165299142245977,
                -0.10972128058357057,
                0.2061482330691862,
                -2.976375567935805
            ]
        },
        {
            "positions": [
                -2.547458582316401,
                -1.033983180736573,
                -0.553115420825896,
                -0.10988602222929901,
                0.16645881363013898,
                -2.9404215726075114
            ]
        },
        {
            "positions": [
                -2.5176128590485143,
                -1.09030437215288,
                -0.7445778502293322,
                -0.11005076387502745,
                0.1267693941910918,
                -2.9044675772792172
            ]
        },
        {
            "positions": [
                -2.487767135780628,
                -1.146625563569187,
                -0.9360402796327684,
                -0.11021550552075589,
                0.08707997475204456,
                -2.868513581950923
            ]
        },
        {
            "positions": [
                -2.425861057268132,
                -1.1855795072610755,
                -1.0694754124186892,
                -0.07588175524368374,
                0.05697281269760715,
                -2.80244761609279
            ]
        },
        {
            "positions": [
                -2.363954978755636,
                -1.2245334509529637,
                -1.2029105452046098,
                -0.04154800496661157,
                0.026865650643169744,
                -2.736381650234657
            ]
        },
        {
            "positions": [
                -2.3020489002431406,
                -1.263487394644852,
                -1.3363456779905305,
                -0.007214254689539415,
                -0.0032415114112676613,
                -2.6703156843765243
            ]
        },
        {
            "positions": [
                -2.2401428217306445,
                -1.3024413383367404,
                -1.4697808107764514,
                0.027119495587532752,
                -0.03334867346570507,
                -2.6042497185183913
            ]
        },
        {
            "positions": [
                -2.1782367432181484,
                -1.3413952820286288,
                -1.6032159435623718,
                0.06145324586460492,
                -0.06345583552014249,
                -2.538183752660258
            ]
        },
        {
            "positions": [
                -2.116330664705653,
                -1.380349225720517,
                -1.7366510763482927,
                0.09578699614167706,
                -0.09356299757457988,
                -2.4721177868021256
            ]
        },
        {
            "positions": [
                -2.054424586193157,
                -1.4193031694124052,
                -1.8700862091342136,
                0.1301207464187492,
                -0.12367015962901727,
                -2.4060518209439925
            ]
        },
        {
            "positions": [
                -1.992518507680661,
                -1.4582571131042936,
                -2.003521341920134,
                0.1644544966958214,
                -0.15377732168345468,
                -2.3399858550858594
            ]
        },
        {
            "positions": [
                -1.8906186690374858,
                -1.4914415457955463,
                -2.0531473263833404,
                0.23534948143533035,
                -0.1613205225874483,
                -2.2317352041692353
            ]
        },
        {
            "positions": [
                -1.7887188303943105,
                -1.5246259784867993,
                -2.1027733108465467,
                0.30624446617483936,
                -0.1688637234914419,
                -2.1234845532526117
            ]
        },
        {
            "positions": [
                -1.6868189917511354,
                -1.557810411178052,
                -2.152399295309753,
                0.3771394509143483,
                -0.17640692439543554,
                -2.0152339023359875
            ]
        },
        {
            "positions": [
                -1.58491915310796,
                -1.590994843869305,
                -2.2020252797729594,
                0.44803443565385725,
                -0.18395012529942914,
                -1.9069832514193634
            ]
        },
        {
            "positions": [
                -1.483019314464785,
                -1.6241792765605576,
                -2.2516512642361652,
                0.5189294203933662,
                -0.19149332620342277,
                -1.7987326005027395
            ]
        },
        {
            "positions": [
                -1.3811194758216097,
                -1.6573637092518103,
                -2.3012772486993716,
                0.5898244051328752,
                -0.19903652710741637,
                -1.6904819495861156
            ]
        },
        {
            "positions": [
                -1.2792196371784343,
                -1.6905481419430632,
                -2.350903233162578,
                0.6607193898723841,
                -0.20657972801141,
                -1.5822312986694915
            ]
        },
        {
            "positions": [
                -1.177319798535259,
                -1.723732574634316,
                -2.400529217625784,
                0.731614374611893,
                -0.21412292891540363,
                -1.4739806477528674
            ]
        },
        {
            "positions": [
                -1.0754199598920837,
                -1.7569170073255687,
                -2.4501552020889905,
                0.8025093593514021,
                -0.22166612981939723,
                -1.3657299968362433
            ]
        },
        {
            "positions": [
                -0.9735201212489086,
                -1.7901014400168216,
                -2.499781186552197,
                0.873404344090911,
                -0.22920933072339084,
                -1.2574793459196196
            ]
        },
        {
            "positions": [
                -0.8716202826057333,
                -1.8232858727080743,
                -2.549407171015403,
                0.94429932883042,
                -0.23675253162738447,
                -1.1492286950029955
            ]
        },
        {
            "positions": [
                -0.8003644237509849,
                -1.8650778202329574,
                -2.545984611817354,
                0.995410489625688,
                -0.20300282995235774,
                -1.0355752172103285
            ]
        },
        {
            "positions": [
                -0.7291085648962365,
                -1.9068697677578403,
                -2.5425620526193042,
                1.046521650420956,
                -0.169253128277331,
                -0.9219217394176613
            ]
        },
        {
            "positions": [
                -0.6578527060414882,
                -1.9486617152827235,
                -2.5391394934212546,
                1.097632811216224,
                -0.13550342660230424,
                -0.8082682616249943
            ]
        },
        {
            "positions": [
                -0.5865968471867398,
                -1.9904536628076066,
                -2.5357169342232053,
                1.148743972011492,
                -0.10175372492727754,
                -0.6946147838323272
            ]
        },
        {
            "positions": [
                -0.5195547547883421,
                -2.0376751818626846,
                -2.5124683117733784,
                1.1988575410007434,
                -0.053582969056155935,
                -0.5665935302755395
            ]
        },
        {
            "positions": [
                -0.4525126623899446,
                -2.0848967009177626,
                -2.4892196893235514,
                1.2489711099899947,
                -0.005412213185034334,
                -0.43857227671875176
            ]
        },
        {
            "positions": [
                -0.38547056999154694,
                -2.1321182199728406,
                -2.465971066873725,
                1.2990846789792458,
                0.04275854268608727,
                -0.310551023161964
            ]
        },
        {
            "positions": [
                -0.31842847759314935,
                -2.1793397390279186,
                -2.442722444423898,
                1.3491982479684972,
                0.09092929855720887,
                -0.1825297696051763
            ]
        },
        {
            "positions": [
                -0.2513863851947517,
                -2.2265612580829965,
                -2.419473821974071,
                1.3993118169577485,
                0.13910005442833046,
                -0.05450851604838847
            ]
        },
        {
            "positions": [
                -0.1843442927963541,
                -2.2737827771380745,
                -2.396225199524244,
                1.4494253859469999,
                0.18727081029945208,
                0.07351273750839926
            ]
        }
    ]
}