{
    "goal": {
        "global_pose": {
            "orientation": {
                "w": -0.4816463035849501,
                "x": 0.5182115481033762,
                "y": 0.4908360881923453,
                "z": -0.5084816262002911
            },
            "position": {
                "x": -0.8240239810943604,
                "y": 0.19912469901144506,
                "z": 0.16403168439865112
            }
        },
        "name": "move_to_storage_D"
    },
    "id": "PRMstar_move_to_storage_D_11",
    "joint_names": [
        "shoulder_pan_joint",
        "shoulder_lift_joint",
        "elbow_joint",
        "wrist_1_joint",
        "wrist_2_joint",
        "wrist_3_joint"
    ],
    "metrics": {
        "cart_traj_len": 0.8867973011820874,
        "distance_elbow_joint": 0.5948009937833345,
        "distance_shoulder_lift_joint": 0.9581750935583195,
        "distance_shoulder_pan_joint": 0.5716300726727378,
        "distance_wrist_1_joint": 3.830135802051602,
        "distance_wrist_2_joint": 1.7764813389892633,
        "distance_wrist_3_joint": 3.1226314298893767,
        "smoothness": 0.09553424032385702,
        "time": 5.045865519,
        "traj_len": 3.2945188921820794,
        "weighted_distance": 4.76505348676846
    },
    "planner": "PRMstar",
    "start": {
        "state": {
            "elbow_joint": -2.384821988534728,
            "shoulder_lift_joint": -2.2788054721415256,
            "shoulder_pan_joint": -0.1854694642142757,
            "wrist_1_joint": 1.4845938289331202,
            "wrist_2_joint": 0.17898776772866878,
            "wrist_3_joint": 0.037105688729662994
        }
    },
    "waypoints": [
        {
            "positions": [
                -0.1854694642142757,
                -2.2788054721415256,
                -2.384821988534728,
                1.4845938289331202,
                0.17898776772866878,
                0.037105688729662994
            ]
        },
        {
            "positions": [
                -0.14027794389686374,
                -2.209412431437596,
                -2.387266605178635,
                1.436194646117024,
                0.11345368195259878,
                -0.12041949374196362
            ]
        },
        {
            "positions": [
                -0.09508642357945177,
                -2.1400193907336655,
                -2.3897112218225427,
                1.387795463300928,
                0.04791959617652877,
                -0.2779446762135902
            ]
        },
        {
            "positions": [
                -0.0498949032620398,
                -2.0706263500297357,
                -2.39215583846645,
                1.3393962804848316,
                -0.017614489599541233,
                -0.4354698586852168
            ]
        },
        {
            "positions": [
                -0.004703382944627826,
                -2.001233309325806,
                -2.394600455110357,
                1.2909970976687355,
                -0.08314857537561124,
                -0.5929950411568434
            ]
        },
        {
            "positions": [
                0.040488137372784144,
                -1.931840268621876,
                -2.3970450717542646,
                1.2425979148526394,
                -0.14868266115168124,
                -0.75052022362847
            ]
        },
        {
            "positions": [
                0.08567965769019611,
                -1.862447227917946,
                -2.399489688398172,
                1.194198732036543,
                -0.21421674692775125,
                -0.9080454061000967
            ]
        },
        {
            "positions": [
                0.13087117800760809,
                -1.793054187214016,
                -2.4019343050420794,
                1.145799549220447,
                -0.2797508327038213,
                -1.0655705885717233
            ]
        },
        {
            "positions": [
                0.17606269832502003,
                -1.7236611465100862,
                -2.4043789216859865,
                1.0974003664043508,
                -0.34528491847989123,
                -1.2230957710433499
            ]
        },
        {
            "positions": [
                0.16555780281834795,
                -1.7438126849064302,
                -2.3756167186543826,
                0.9252532494282092,
                -0.4078953511189264,
                -1.316217269549168
            ]
        },
        {
            "positions": [
                0.15505290731167587,
                -1.7639642233027741,
                -2.346854515622779,
                0.7531061324520676,
                -0.4705057837579616,
                -1.4093387680549863
            ]
        },
        {
            "positions": [
                0.1445480118050038,
                -1.7841157616991181,
                -2.318092312591175,
                0.580959015475926,
                -0.5331162163969967,
                -1.5024602665608044
            ]
        },
        {
            "positions": [
                0.1340431162983317,
                -1.804267300095462,
                -2.2893301095595713,
                0.4088118984997843,
                -0.595726649036032,
                -1.5955817650666226
            ]
        },
        {
            "positions": [
                0.12353822079165963,
                -1.8244188384918063,
                -2.2605679065279674,
                0.23666478152364268,
                -0.6583370816750671,
                -1.6887032635724408
            ]
        },
        {
            "positions": [
                0.11303332528498755,
                -1.8445703768881503,
                -2.231805703496364,
                0.06451766454750119,
                -0.7209475143141022,
                -1.781824762078259
            ]
        },
        {
            "positions": [
                0.10252842977831547,
                -1.8647219152844943,
                -2.20304350046476,
                -0.10762945242864053,
                -0.7835579469531374,
                -1.8749462605840772
            ]
        },
        {
            "positions": [
                0.09202353427164338,
                -1.8848734536808383,
                -2.174281297433156,
                -0.27977656940478224,
                -0.8461683795921726,
                -1.9680677590898954
            ]
        },
        {
            "positions": [
                0.0815186387649713,
                -1.9050249920771822,
                -2.1455190944015525,
                -0.45192368638092395,
                -0.9087788122312077,
                -2.0611892575957134
            ]
        },
        {
            "positions": [
                0.07101374325829922,
                -1.9251765304735262,
                -2.1167568913699486,
                -0.6240708033570654,
                -0.971389244870243,
                -2.1543107561015318
            ]
        },
        {
            "positions": [
                0.060508847751627126,
                -1.9453280688698702,
                -2.0879946883383447,
                -0.7962179203332072,
                -1.0339996775092781,
                -2.24743225460735
            ]
        },
        {
            "positions": [
                0.050003952244955074,
                -1.9654796072662142,
                -2.059232485306741,
                -0.9683650373093484,
                -1.0966101101483132,
                -2.340553753113168
            ]
        },
        {
            "positions": [
                0.03949905673828297,
                -1.9856311456625582,
                -2.0304702822751373,
                -1.1405121542854904,
                -1.1592205427873485,
                -2.433675251618986
            ]
        },
        {
            "positions": [
                0.028994161231610915,
                -2.0057826840589024,
                -2.0017080792435333,
                -1.3126592712616318,
                -1.2218309754263836,
                -2.5267967501248045
            ]
        },
        {
            "positions": [
                0.018489265724938808,
                -2.025934222455246,
                -1.9729458762119296,
                -1.4848063882377733,
                -1.2844414080654187,
                -2.619918248630623
            ]
        },
        {
            "positions": [
                0.007984370218266729,
                -2.0460857608515903,
                -1.944183673180326,
                -1.6569535052139153,
                -1.347051840704454,
                -2.713039747136441
            ]
        },
        {
            "positions": [
                -0.002520525288405351,
                -2.066237299247934,
                -1.915421470148722,
                -1.8291006221900568,
                -1.4096622733434891,
                -2.806161245642259
            ]
        },
        {
            "positions": [
                -0.01302542079507743,
                -2.0863888376442783,
                -1.886659267117118,
                -2.0012477391661987,
                -1.4722727059825242,
                -2.8992827441480773
            ]
        },
        {
            "positions": [
                -0.02353031630174951,
                -2.106540376040622,
                -1.8578970640855146,
                -2.1733948561423397,
                -1.5348831386215593,
                -2.9924042426538957
            ]
        },
        {
            "positions": [
                -0.03403521180842159,
                -2.1266919144369663,
                -1.8291348610539107,
                -2.3455419731184817,
                -1.5974935712605947,
                -3.0855257411597137
            ]
        }
    ]
}