{
    "goal": {
        "global_pose": {
            "orientation": {
                "w": 0.005598929693374612,
                "x": 0.007748599140229565,
                "y": 0.7110244013736278,
                "z": -0.7031023480610252
            },
            "position": {
                "x": -0.8858502320852131,
                "y": -0.7141253447532654,
                "z": 0.3711530566215515
            }
        },
        "name": "move_to_auspresseinheit_C"
    },
    "id": "PRMstar_move_to_auspresseinheit_C_117",
    "joint_names": [
        "shoulder_pan_joint",
        "shoulder_lift_joint",
        "elbow_joint",
        "wrist_1_joint",
        "wrist_2_joint",
        "wrist_3_joint"
    ],
    "metrics": {
        "cart_traj_len": 0.4937761998543084,
        "distance_elbow_joint": 0.9947298438228542,
        "distance_shoulder_lift_joint": 0.3221974445861978,
        "distance_shoulder_pan_joint": 0.2568655098156767,
        "distance_wrist_1_joint": 0.660426071726807,
        "distance_wrist_2_joint": 1.3152976244562973,
        "distance_wrist_3_joint": 0.04571527025466082,
        "smoothness": 3.2297397335745243e-16,
        "time": 5.007814131,
        "traj_len": 1.8961096394097294,
        "weighted_distance": 2.379576853424768
    },
    "planner": "PRMstar",
    "start": {
        "state": {
            "elbow_joint": 1.7527959577737207,
            "shoulder_lift_joint": -0.9740617694225068,
            "shoulder_pan_joint": -2.967991417825858,
            "wrist_1_joint": -0.759517768980727,
            "wrist_2_joint": 1.7443932448377408,
            "wrist_3_joint": -3.0840537646736568
        }
    },
    "waypoints": [
        {
            "positions": [
                -2.967991417825858,
                -0.9740617694225068,
                1.7527959577737207,
                -0.759517768980727,
                1.7443932448377408,
                -3.0840537646736568
            ]
        },
        {
            "positions": [
                -2.94230486684429,
                -0.941842024963887,
                1.6533229733914352,
                -0.6934751618080462,
                1.612863482392111,
                -3.088625291699123
            ]
        },
        {
            "positions": [
                -2.916618315862723,
                -0.9096222805052672,
                1.5538499890091497,
                -0.6274325546353656,
                1.4813337199464813,
                -3.093196818724589
            ]
        },
        {
            "positions": [
                -2.890931764881155,
                -0.8774025360466474,
                1.4543770046268645,
                -0.5613899474626849,
                1.3498039575008516,
                -3.097768345750055
            ]
        },
        {
            "positions": [
                -2.865245213899587,
                -0.8451827915880277,
                1.354904020244579,
                -0.49534734029000416,
                1.2182741950552218,
                -3.102339872775521
            ]
        },
        {
            "positions": [
                -2.8395586629180194,
                -0.8129630471294078,
                1.2554310358622935,
                -0.4293047331173235,
                1.086744432609592,
                -3.106911399800987
            ]
        },
        {
            "positions": [
                -2.813872111936452,
                -0.7807433026707881,
                1.1559580514800083,
                -0.3632621259446428,
                0.9552146701639624,
                -3.1114829268264534
            ]
        },
        {
            "positions": [
                -2.7881855609548842,
                -0.7485235582121683,
                1.0564850670977228,
                -0.2972195187719621,
                0.8236849077183328,
                -3.1160544538519193
            ]
        },
        {
            "positions": [
                -2.7624990099733164,
                -0.7163038137535485,
                0.9570120827154373,
                -0.23117691159928133,
                0.692155145272703,
                -3.1206259808773855
            ]
        },
        {
            "positions": [
                -2.736812458991749,
                -0.6840840692949287,
                0.8575390983331518,
                -0.1651343044266007,
                0.5606253828270733,
                -3.1251975079028513
            ]
        },
        {
            "positions": [
                -2.7111259080101813,
                -0.651864324836309,
                0.7580661139508664,
                -0.09909169725391995,
                0.4290956203814436,
                -3.1297690349283176
            ]
        }
    ]
}