{
    "goal": {
        "global_pose": {
            "orientation": {
                "w": -0.00223480608172531,
                "x": 0.0024358444001904467,
                "y": 0.7094548369677653,
                "z": -0.704743149386269
            },
            "position": {
                "x": 0.6205249238014221,
                "y": -0.6371506643295288,
                "z": 0.19426114857196808
            }
        },
        "name": "move_to_magneteinheit_B"
    },
    "id": "PRMstar_move_to_magneteinheit_B_3",
    "joint_names": [
        "shoulder_pan_joint",
        "shoulder_lift_joint",
        "elbow_joint",
        "wrist_1_joint",
        "wrist_2_joint",
        "wrist_3_joint"
    ],
    "metrics": {
        "cart_traj_len": 1.4414299949778715,
        "distance_elbow_joint": 0.9580528397429189,
        "distance_shoulder_lift_joint": 0.7575751634106861,
        "distance_shoulder_pan_joint": 1.6207246839140592,
        "distance_wrist_1_joint": 1.3298415429696533,
        "distance_wrist_2_joint": 1.5234900206190936,
        "distance_wrist_3_joint": 1.3090140438896531,
        "smoothness": 0.42611036616215303,
        "time": 5.022725701,
        "traj_len": 2.7383751193994703,
        "weighted_distance": 3.6013966660053036
    },
    "planner": "PRMstar",
    "start": {
        "state": {
            "elbow_joint": 2.6216224122426386,
            "shoulder_lift_joint": -1.4174107377796124,
            "shoulder_pan_joint": 0.7066234856936794,
            "wrist_1_joint": 1.9546482284002225,
            "wrist_2_joint": -0.7096286983471962,
            "wrist_3_joint": 0.005740856962016249
        }
    },
    "waypoints": [
        {
            "positions": [
                0.7066234856936794,
                -1.4174107377796124,
                2.6216224122426386,
                1.9546482284002225,
                -0.7096286983471962,
                0.005740856962016249
            ]
        },
        {
            "positions": [
                0.646105250855679,
                -1.3876330286014227,
                2.5960121639623086,
                1.8589235870213412,
                -0.7636188555165409,
                -0.10469794434470657
            ]
        },
        {
            "positions": [
                0.5855870160176786,
                -1.357855319423233,
                2.570401915681978,
                1.7631989456424602,
                -0.8176090126858854,
                -0.21513674565142937
            ]
        },
        {
            "positions": [
                0.5250687811796783,
                -1.3280776102450433,
                2.544791667401648,
                1.667474304263579,
                -0.87159916985523,
                -0.3255755469581522
            ]
        },
        {
            "positions": [
                0.4645505463416779,
                -1.2982999010668534,
                2.519181419121318,
                1.5717496628846979,
                -0.9255893270245745,
                -0.436014348264875
            ]
        },
        {
            "positions": [
                0.4040323115036775,
                -1.2685221918886638,
                2.493571170840988,
                1.4760250215058166,
                -0.9795794841939192,
                -0.546453149571598
            ]
        },
        {
            "positions": [
                0.3435140766656772,
                -1.238744482710474,
                2.467960922560658,
                1.3803003801269353,
                -1.0335696413632638,
                -0.6568919508783208
            ]
        },
        {
            "positions": [
                0.253684414173816,
                -1.1973938464003635,
                2.410504397556305,
                1.4342642154623901,
                -1.1192517183349084,
                -0.6107218625890839
            ]
        },
        {
            "positions": [
                0.16385475168195476,
                -1.156043210090253,
                2.3530478725519526,
                1.4882280507978447,
                -1.204933795306553,
                -0.5645517742998469
            ]
        },
        {
            "positions": [
                0.07402508919009354,
                -1.1146925737801425,
                2.2955913475475995,
                1.5421918861332995,
                -1.290615872278198,
                -0.5183816860106101
            ]
        },
        {
            "positions": [
                -0.015804573301767655,
                -1.073341937470032,
                2.238134822543247,
                1.5961557214687543,
                -1.3762979492498426,
                -0.4722115977213732
            ]
        },
        {
            "positions": [
                -0.1056342357936289,
                -1.0319913011599213,
                2.1806782975388943,
                1.650119556804209,
                -1.4619800262214873,
                -0.42604150943213626
            ]
        },
        {
            "positions": [
                -0.1954638982854901,
                -0.9906406648498107,
                2.1232217725345413,
                1.7040833921396636,
                -1.5476621031931321,
                -0.3798714211428994
            ]
        },
        {
            "positions": [
                -0.2852935607773513,
                -0.9492900285397001,
                2.0657652475301886,
                1.7580472274751184,
                -1.6333441801647768,
                -0.3337013328536625
            ]
        },
        {
            "positions": [
                -0.3751232232692125,
                -0.9079393922295896,
                2.008308722525836,
                1.8120110628105732,
                -1.7190262571364214,
                -0.28753124456442564
            ]
        },
        {
            "positions": [
                -0.4649528857610738,
                -0.866588755919479,
                1.9508521975214834,
                1.8659748981460278,
                -1.8047083341080663,
                -0.24136115627518867
            ]
        },
        {
            "positions": [
                -0.5547825482529349,
                -0.8252381196093685,
                1.8933956725171306,
                1.9199387334814826,
                -1.890390411079711,
                -0.19519106798595182
            ]
        },
        {
            "positions": [
                -0.644612210744796,
                -0.783887483299258,
                1.8359391475127778,
                1.9739025688169374,
                -1.9760724880513556,
                -0.1490209796967149
            ]
        },
        {
            "positions": [
                -0.7344418732366573,
                -0.7425368469891473,
                1.7784826225084251,
                2.027866404152392,
                -2.0617545650230005,
                -0.10285089140747805
            ]
        },
        {
            "positions": [
                -0.8242715357285186,
                -0.7011862106790367,
                1.7210260975040725,
                2.081830239487847,
                -2.147436641994645,
                -0.056680803118241085
            ]
        },
        {
            "positions": [
                -0.9141011982203798,
                -0.6598355743689263,
                1.6635695724997197,
                2.1357940748233015,
                -2.2331187189662898,
                -0.010510714829004215
            ]
        }
    ]
}