{
    "goal": {
        "global_pose": {
            "orientation": {
                "w": 0.7047431468963623,
                "x": -0.7094548344612122,
                "y": 0.0024358443915843964,
                "z": -0.0022348060738295317
            },
            "position": {
                "x": 0.6094750761985779,
                "y": 0.3671506643295288,
                "z": 0.19426114857196808
            }
        },
        "name": "move_to_magneteinheit_A"
    },
    "id": "PRMstar_move_to_magneteinheit_A_130",
    "joint_names": [
        "shoulder_pan_joint",
        "shoulder_lift_joint",
        "elbow_joint",
        "wrist_1_joint",
        "wrist_2_joint",
        "wrist_3_joint"
    ],
    "metrics": {
        "cart_traj_len": 4.02263606568981,
        "distance_elbow_joint": 3.912831531634807,
        "distance_shoulder_lift_joint": 0.46747804107998203,
        "distance_shoulder_pan_joint": 4.547313784223469,
        "distance_wrist_1_joint": 3.4706960687750685,
        "distance_wrist_2_joint": 1.4472698707518732,
        "distance_wrist_3_joint": 0.4432396425661964,
        "smoothness": 0.17029978108689464,
        "time": 5.060132078,
        "traj_len": 3.7800567375413032,
        "weighted_distance": 4.482552193080493
    },
    "planner": "PRMstar",
    "start": {
        "state": {
            "elbow_joint": -1.9196185241190666,
            "shoulder_lift_joint": -1.2443396400964142,
            "shoulder_pan_joint": 2.6996025414629847,
            "wrist_1_joint": -1.5485510000780065,
            "wrist_2_joint": -1.5709468930060704,
            "wrist_3_joint": 0.4420197071253992
        }
    },
    "waypoints": [
        {
            "positions": [
                2.6996025414629847,
                -1.2443396400964142,
                -1.9196185241190666,
                -1.5485510000780065,
                -1.5709468930060704,
                0.4420197071253992
            ]
        },
        {
            "positions": [
                2.55116561801364,
                -1.2341478618525379,
                -1.8161880507566386,
                -1.4717129207236326,
                -1.5328296873024652,
                0.43607109295360513
            ]
        },
        {
            "positions": [
                2.4027286945642956,
                -1.2239560836086618,
                -1.7127575773942105,
                -1.3948748413692589,
                -1.49471248159886,
                0.4301224787818111
            ]
        },
        {
            "positions": [
                2.254291771114951,
                -1.2137643053647857,
                -1.6093271040317825,
                -1.318036762014885,
                -1.4565952758952547,
                0.42417386461001705
            ]
        },
        {
            "positions": [
                2.105854847665606,
                -1.2035725271209095,
                -1.5058966306693544,
                -1.241198682660511,
                -1.4184780701916495,
                0.418225250438223
            ]
        },
        {
            "positions": [
                1.9574179242162613,
                -1.1933807488770332,
                -1.4024661573069264,
                -1.164360603306137,
                -1.3803608644880443,
                0.41227663626642896
            ]
        },
        {
            "positions": [
                1.8089810007669167,
                -1.183188970633157,
                -1.2990356839444983,
                -1.0875225239517632,
                -1.342243658784439,
                0.4063280220946349
            ]
        },
        {
            "positions": [
                1.660544077317572,
                -1.172997192389281,
                -1.1956052105820703,
                -1.0106844445973895,
                -1.3041264530808339,
                0.4003794079228408
            ]
        },
        {
            "positions": [
                1.5121071538682274,
                -1.1628054141454047,
                -1.0921747372196422,
                -0.9338463652430156,
                -1.2660092473772289,
                0.3944307937510468
            ]
        },
        {
            "positions": [
                1.3636702304188826,
                -1.1526136359015284,
                -0.9887442638572141,
                -0.8570082858886416,
                -1.2278920416736234,
                0.38848217957925274
            ]
        },
        {
            "positions": [
                1.215233306969538,
                -1.1424218576576524,
                -0.8853137904947861,
                -0.7801702065342678,
                -1.1897748359700184,
                0.3825335654074587
            ]
        },
        {
            "positions": [
                1.0667963835201935,
                -1.1322300794137763,
                -0.781883317132358,
                -0.703332127179894,
                -1.1516576302664132,
                0.37658495123566466
            ]
        },
        {
            "positions": [
                0.9183594600708487,
                -1.1220383011699,
                -0.67845284376993,
                -0.6264940478255201,
                -1.113540424562808,
                0.3706363370638706
            ]
        },
        {
            "positions": [
                0.7699225366215041,
                -1.1118465229260237,
                -0.5750223704075019,
                -0.5496559684711463,
                -1.0754232188592028,
                0.36468772289207657
            ]
        },
        {
            "positions": [
                0.6214856131721591,
                -1.1016547446821476,
                -0.47159189704507387,
                -0.47281788911677225,
                -1.0373060131555976,
                0.35873910872028253
            ]
        },
        {
            "positions": [
                0.4730486897228148,
                -1.0914629664382716,
                -0.3681614236826458,
                -0.39597980976239855,
                -0.9991888074519923,
                0.3527904945484885
            ]
        },
        {
            "positions": [
                0.32461176627347,
                -1.0812711881943953,
                -0.26473095032021776,
                -0.3191417304080246,
                -0.9610716017483871,
                0.34684188037669444
            ]
        },
        {
            "positions": [
                0.1761748428241252,
                -1.071079409950519,
                -0.1613004769577897,
                -0.2423036510536507,
                -0.9229543960447819,
                0.34089326620490035
            ]
        },
        {
            "positions": [
                0.02773791937478043,
                -1.060887631706643,
                -0.05787000359536165,
                -0.16546557169927678,
                -0.8848371903411767,
                0.3349446520331063
            ]
        },
        {
            "positions": [
                -0.12069900407456391,
                -1.0506958534627668,
                0.0455604697670664,
                -0.08862749234490308,
                -0.8467199846375716,
                0.32899603786131226
            ]
        },
        {
            "positions": [
                -0.2691359275239087,
                -1.0405040752188905,
                0.14899094312949446,
                -0.011789412990529158,
                -0.8086027789339663,
                0.3230474236895182
            ]
        },
        {
            "positions": [
                -0.4175728509732535,
                -1.0303122969750143,
                0.2524214164919223,
                0.06504866636384476,
                -0.7704855732303612,
                0.3170988095177242
            ]
        },
        {
            "positions": [
                -0.5660097744225978,
                -1.0201205187311382,
                0.35585188985435057,
                0.14188674571821847,
                -0.7323683675267559,
                0.31115019534593014
            ]
        },
        {
            "positions": [
                -0.714446697871943,
                -1.0099287404872621,
                0.45928236321677884,
                0.2187248250725926,
                -0.6942511618231507,
                0.3052015811741361
            ]
        },
        {
            "positions": [
                -0.8628836213212874,
                -0.9997369622433858,
                0.5627128365792067,
                0.29556290442696626,
                -0.6561339561195455,
                0.29925296700234205
            ]
        },
        {
            "positions": [
                -0.7871276504413489,
                -0.9825927035336202,
                0.6727513112666325,
                0.42068460937081964,
                -0.6151757304375955,
                0.27613966681440827
            ]
        },
        {
            "positions": [
                -0.7113716795614106,
                -0.9654484448238545,
                0.7827897859540582,
                0.5458063143146731,
                -0.5742175047556456,
                0.2530263666264745
            ]
        },
        {
            "positions": [
                -0.6356157086814721,
                -0.9483041861140888,
                0.8928282606414841,
                0.6709280192585265,
                -0.5332592790736956,
                0.22991306643854068
            ]
        },
        {
            "positions": [
                -0.5598597378015338,
                -0.9311599274043232,
                1.0028667353289098,
                0.7960497242023798,
                -0.4923010533917457,
                0.20679976625060686
            ]
        },
        {
            "positions": [
                -0.4841037669215953,
                -0.9140156686945575,
                1.1129052100163357,
                0.9211714291462334,
                -0.4513428277097957,
                0.18368646606267308
            ]
        },
        {
            "positions": [
                -0.4083477960416569,
                -0.8968714099847919,
                1.2229436847037616,
                1.0462931340900867,
                -0.41038460202784577,
                0.1605731658747393
            ]
        },
        {
            "positions": [
                -0.3325918251617185,
                -0.8797271512750262,
                1.3329821593911872,
                1.17141483903394,
                -0.3694263763458958,
                0.13745986568680552
            ]
        },
        {
            "positions": [
                -0.25683585428178,
                -0.8625828925652604,
                1.4430206340786131,
                1.2965365439777936,
                -0.32846815066394586,
                0.1143465654988717
            ]
        },
        {
            "positions": [
                -0.18107988340184167,
                -0.8454386338554948,
                1.553059108766039,
                1.421658248921647,
                -0.2875099249819959,
                0.09123326531093792
            ]
        },
        {
            "positions": [
                -0.1053239125219032,
                -0.8282943751457291,
                1.6630975834534647,
                1.5467799538655005,
                -0.24655169930004595,
                0.06811996512300411
            ]
        },
        {
            "positions": [
                -0.029567941641964857,
                -0.8111501164359635,
                1.7731360581408906,
                1.6719016588093538,
                -0.205593473618096,
                0.04500666493507033
            ]
        },
        {
            "positions": [
                0.046188029237973605,
                -0.7940058577261978,
                1.8831745328283165,
                1.7970233637532074,
                -0.16463524793614603,
                0.021893364747136546
            ]
        },
        {
            "positions": [
                0.12194400011791191,
                -0.7768615990164321,
                1.9932130075157422,
                1.9221450686970607,
                -0.12367702225419612,
                -0.001219935440797258
            ]
        }
    ]
}