{
    "goal": {
        "global_pose": {
            "orientation": {
                "w": -0.4816463035849501,
                "x": 0.5182115481033762,
                "y": 0.4908360881923453,
                "z": -0.5084816262002911
            },
            "position": {
                "x": -0.8240239810943604,
                "y": -0.300875300988555,
                "z": 0.16403168439865112
            }
        },
        "name": "move_to_storage_C"
    },
    "id": "PRMstar_move_to_storage_C_16",
    "joint_names": [
        "shoulder_pan_joint",
        "shoulder_lift_joint",
        "elbow_joint",
        "wrist_1_joint",
        "wrist_2_joint",
        "wrist_3_joint"
    ],
    "metrics": {
        "cart_traj_len": 0.5766283751493311,
        "distance_elbow_joint": 0.25652168782035156,
        "distance_shoulder_lift_joint": 0.18977137462479277,
        "distance_shoulder_pan_joint": 0.49436903451168224,
        "distance_wrist_1_joint": 0.06832887289535039,
        "distance_wrist_2_joint": 1.0673353363041254,
        "distance_wrist_3_joint": 0.05617544265839891,
        "smoothness": 2.5376526478085547e-16,
        "time": 5.015716116,
        "traj_len": 1.4603087854336496,
        "weighted_distance": 1.8386181885674293
    },
    "planner": "PRMstar",
    "start": {
        "state": {
            "elbow_joint": 2.010868314990456,
            "shoulder_lift_joint": -1.1634956873337592,
            "shoulder_pan_joint": -2.4736205022346125,
            "wrist_1_joint": -0.8367026794202681,
            "wrist_2_joint": 0.6746043897044499,
            "wrist_3_joint": -3.1496632123970403
        }
    },
    "waypoints": [
        {
            "positions": [
                -2.4736205022346125,
                -1.1634956873337592,
                2.010868314990456,
                -0.8367026794202681,
                0.6746043897044499,
                -3.1496632123970403
            ]
        },
        {
            "positions": [
                -2.5560153413198927,
                -1.1318671248962937,
                1.9681147003537305,
                -0.8253145339377097,
                0.8524936124218041,
                -3.1403006386206407
            ]
        },
        {
            "positions": [
                -2.6384101804051734,
                -1.1002385624588282,
                1.9253610857170054,
                -0.8139263884551513,
                1.0303828351391584,
                -3.1309380648442406
            ]
        },
        {
            "positions": [
                -2.7208050194904536,
                -1.0686100000213627,
                1.88260747108028,
                -0.8025382429725929,
                1.2082720578565125,
                -3.1215754910678406
            ]
        },
        {
            "positions": [
                -2.803199858575734,
                -1.0369814375838973,
                1.8398538564435547,
                -0.7911500974900345,
                1.3861612805738668,
                -3.112212917291441
            ]
        },
        {
            "positions": [
                -2.8855946976610145,
                -1.0053528751464318,
                1.7971002418068296,
                -0.7797619520074761,
                1.564050503291221,
                -3.1028503435150414
            ]
        },
        {
            "positions": [
                -2.9679895367462947,
                -0.9737243127089664,
                1.7543466271701043,
                -0.7683738065249177,
                1.7419397260085752,
                -3.0934877697386414
            ]
        }
    ]
}