{
    "goal": {
        "global_pose": {
            "orientation": {
                "w": 0.7031023480610252,
                "x": -0.7110244013736278,
                "y": 0.0077485991402295624,
                "z": 0.005598929693374583
            },
            "position": {
                "x": -0.8841497679147869,
                "y": 0.44412534475326537,
                "z": 0.3711530566215515
            }
        },
        "name": "move_to_auspresseinheit_D"
    },
    "id": "PRMstar_move_to_auspresseinheit_D_17",
    "joint_names": [
        "shoulder_pan_joint",
        "shoulder_lift_joint",
        "elbow_joint",
        "wrist_1_joint",
        "wrist_2_joint",
        "wrist_3_joint"
    ],
    "metrics": {
        "cart_traj_len": 0.3429763205205509,
        "distance_elbow_joint": 0.6340567790695661,
        "distance_shoulder_lift_joint": 0.1191763840934783,
        "distance_shoulder_pan_joint": 0.13406499902091024,
        "distance_wrist_1_joint": 0.5148107787220355,
        "distance_wrist_2_joint": 1.434251965141409,
        "distance_wrist_3_joint": 0.022471162016071133,
        "smoothness": 7.894919286223335e-16,
        "time": 5.010073665,
        "traj_len": 1.6908081109527096,
        "weighted_distance": 2.202915598918637
    },
    "planner": "PRMstar",
    "start": {
        "state": {
            "elbow_joint": -1.8275523626775212,
            "shoulder_lift_joint": -2.126789852344167,
            "shoulder_pan_joint": -0.03513704404078235,
            "wrist_1_joint": -2.347782403156801,
            "wrist_2_joint": -1.6058999987535132,
            "wrist_3_joint": -3.0880379163319196
        }
    },
    "waypoints": [
        {
            "positions": [
                -0.03513704404078235,
                -2.126789852344167,
                -1.8275523626775212,
                -2.347782403156801,
                -1.6058999987535132,
                -3.0880379163319196
            ]
        },
        {
            "positions": [
                -0.05189516891839613,
                -2.1416869003558516,
                -1.7482952652938255,
                -2.4121337504970555,
                -1.4266185031108372,
                -3.0908468115839285
            ]
        },
        {
            "positions": [
                -0.0686532937960099,
                -2.1565839483675364,
                -1.6690381679101296,
                -2.4764850978373096,
                -1.247337007468161,
                -3.0936557068359374
            ]
        },
        {
            "positions": [
                -0.08541141867362369,
                -2.171480996379221,
                -1.589781070526434,
                -2.5408364451775642,
                -1.0680555118254849,
                -3.0964646020879463
            ]
        },
        {
            "positions": [
                -0.10216954355123747,
                -2.186378044390906,
                -1.510523973142738,
                -2.6051877925178184,
                -0.8887740161828087,
                -3.099273497339955
            ]
        },
        {
            "positions": [
                -0.11892766842885125,
                -2.201275092402591,
                -1.4312668757590423,
                -2.669539139858073,
                -0.7094925205401326,
                -3.102082392591964
            ]
        },
        {
            "positions": [
                -0.13568579330646502,
                -2.2161721404142756,
                -1.3520097783753466,
                -2.7338904871983276,
                -0.5302110248974565,
                -3.104891287843973
            ]
        },
        {
            "positions": [
                -0.15244391818407882,
                -2.2310691884259604,
                -1.2727526809916507,
                -2.7982418345385818,
                -0.35092952925478027,
                -3.107700183095982
            ]
        },
        {
            "positions": [
                -0.1692020430616926,
                -2.245966236437645,
                -1.193495583607955,
                -2.8625931818788364,
                -0.17164803361210432,
                -3.1105090783479907
            ]
        }
    ]
}