{
    "goal": {
        "global_pose": {
            "orientation": {
                "w": 0.5084816217422485,
                "x": -0.49083608388900757,
                "y": 0.5182115435600281,
                "z": -0.4816462993621826
            },
            "position": {
                "x": 0.5540239810943604,
                "y": 0.030875300988554955,
                "z": 0.16403168439865112
            }
        },
        "name": "move_to_storage_A"
    },
    "id": "PRMstar_move_to_storage_A_14",
    "joint_names": [
        "shoulder_pan_joint",
        "shoulder_lift_joint",
        "elbow_joint",
        "wrist_1_joint",
        "wrist_2_joint",
        "wrist_3_joint"
    ],
    "metrics": {
        "cart_traj_len": 0.35229072362829184,
        "distance_elbow_joint": 0.4476191339797071,
        "distance_shoulder_lift_joint": 0.23495336856819193,
        "distance_shoulder_pan_joint": 0.46054160864904536,
        "distance_wrist_1_joint": 0.23611639646691185,
        "distance_wrist_2_joint": 1.0975272698513006,
        "distance_wrist_3_joint": 0.09510512873216737,
        "smoothness": 4.440892098500626e-16,
        "time": 5.011245636,
        "traj_len": 1.603702873429902,
        "weighted_distance": 2.0237877433243514
    },
    "planner": "PRMstar",
    "start": {
        "state": {
            "elbow_joint": 1.971548259319323,
            "shoulder_lift_joint": -1.1394851275133948,
            "shoulder_pan_joint": 0.1228115487234821,
            "wrist_1_joint": -0.7804723859257726,
            "wrist_2_joint": 0.12958671773740124,
            "wrist_3_joint": -3.192489227718131
        }
    },
    "waypoints": [
        {
            "positions": [
                0.1228115487234821,
                -1.1394851275133948,
                1.971548259319323,
                -0.7804723859257726,
                0.12958671773740124,
                -3.192489227718131
            ]
        },
        {
            "positions": [
                0.05701989034504705,
                -1.173049894451708,
                2.0354938498878528,
                -0.81420329970676,
                0.28637632771615845,
                -3.1789027807563928
            ]
        },
        {
            "positions": [
                -0.008771768033388,
                -1.206614661390021,
                2.0994394404563823,
                -0.8479342134877474,
                0.44316593769491563,
                -3.165316333794655
            ]
        },
        {
            "positions": [
                -0.07456342641182304,
                -1.2401794283283343,
                2.163385031024912,
                -0.8816651272687348,
                0.5999555476736729,
                -3.1517298868329164
            ]
        },
        {
            "positions": [
                -0.1403550847902581,
                -1.2737441952666473,
                2.2273306215934414,
                -0.9153960410497223,
                0.7567451576524301,
                -3.1381434398711785
            ]
        },
        {
            "positions": [
                -0.2061467431686932,
                -1.3073089622049605,
                2.291276212161971,
                -0.9491269548307096,
                0.9135347676311873,
                -3.12455699290944
            ]
        },
        {
            "positions": [
                -0.2719384015471282,
                -1.3408737291432735,
                2.3552218027305005,
                -0.9828578686116971,
                1.0703243776099445,
                -3.110970545947702
            ]
        },
        {
            "positions": [
                -0.33773005992556326,
                -1.3744384960815867,
                2.41916739329903,
                -1.0165887823926845,
                1.2271139875887018,
                -3.097384098985964
            ]
        }
    ]
}{
    "goal": {
        "global_pose": {
            "orientation": {
                "w": 0.5084816217422485,
                "x": -0.49083608388900757,
                "y": 0.5182115435600281,
                "z": -0.4816462993621826
            },
            "position": {
                "x": 0.5540239810943604,
                "y": 0.030875300988554955,
                "z": 0.16403168439865112
            }
        },
        "name": "move_to_storage_A"
    },
    "id": "PRMstar_move_to_storage_A_14",
    "joint_names": [
        "shoulder_pan_joint",
        "shoulder_lift_joint",
        "elbow_joint",
        "wrist_1_joint",
        "wrist_2_joint",
        "wrist_3_joint"
    ],
    "metrics": {
        "cart_traj_len": 0.35259009391770346,
        "distance_elbow_joint": 0.4484951951908105,
        "distance_shoulder_lift_joint": 0.2334418329873964,
        "distance_shoulder_pan_joint": 0.46092366475616814,
        "distance_wrist_1_joint": 0.23977357959556755,
        "distance_wrist_2_joint": 1.0977045858000585,
        "distance_wrist_3_joint": 0.09245516449183322,
        "smoothness": 1.7763568394002505e-15,
        "time": 5.011036164999999,
        "traj_len": 1.6039931492440465,
        "weighted_distance": 2.0236557308991876
    },
    "planner": "PRMstar",
    "start": {
        "state": {
            "elbow_joint": 1.97154746011099,
            "shoulder_lift_joint": -1.13948474672311,
            "shoulder_pan_joint": 0.12281154466712228,
            "wrist_1_joint": -0.7804688027058302,
            "wrist_2_joint": 0.12958655903071145,
            "wrist_3_joint": 3.0906928834467795
        }
    },
    "waypoints": [
        {
            "positions": [
                0.12281154466712228,
                -1.13948474672311,
                1.97154746011099,
                -0.7804688027058302,
                0.12958655903071145,
                3.0906928834467795
            ]
        },
        {
            "positions": [
                0.05696530684481255,
                -1.1728335800070238,
                2.0356182022811056,
                -0.8147221712194826,
                0.2864014998592912,
                3.10390076408847
            ]
        },
        {
            "positions": [
                -0.00888093097749719,
                -1.2061824132909376,
                2.0996889444512217,
                -0.8489755397331352,
                0.443216440687871,
                3.1171086447301604
            ]
        },
        {
            "positions": [
                -0.07472716879980691,
                -1.2395312465748514,
                2.1637596866213373,
                -0.8832289082467877,
                0.6000313815164507,
                3.130316525371851
            ]
        },
        {
            "positions": [
                -0.14057340662211665,
                -1.272880079858765,
                2.227830428791453,
                -0.9174822767604403,
                0.7568463223450306,
                3.143524406013541
            ]
        },
        {
            "positions": [
                -0.2064196444444264,
                -1.3062289131426787,
                2.2919011709615686,
                -0.9517356452740927,
                0.9136612631736104,
                3.156732286655232
            ]
        },
        {
            "positions": [
                -0.2722658822667361,
                -1.3395777464265926,
                2.3559719131316847,
                -0.9859890137877452,
                1.07047620400219,
                3.169940167296922
            ]
        },
        {
            "positions": [
                -0.33811212008904584,
                -1.3729265797105064,
                2.4200426553018004,
                -1.0202423823013977,
                1.22729114483077,
                3.1831480479386127
            ]
        }
    ]
}{
    "goal": {
        "global_pose": {
            "orientation": {
                "w": 0.5084816217422485,
                "x": -0.49083608388900757,
                "y": 0.5182115435600281,
                "z": -0.4816462993621826
            },
            "position": {
                "x": 0.5540239810943604,
                "y": 0.030875300988554955,
                "z": 0.16403168439865112
            }
        },
        "name": "move_to_storage_A"
    },
    "id": "PRMstar_move_to_storage_A_14",
    "joint_names": [
        "shoulder_pan_joint",
        "shoulder_lift_joint",
        "elbow_joint",
        "wrist_1_joint",
        "wrist_2_joint",
        "wrist_3_joint"
    ],
    "metrics": {
        "cart_traj_len": 0.3530199580047667,
        "distance_elbow_joint": 0.44897006033189113,
        "distance_shoulder_lift_joint": 0.23298312657508036,
        "distance_shoulder_pan_joint": 0.459827887459896,
        "distance_wrist_1_joint": 0.2403750497324233,
        "distance_wrist_2_joint": 1.1057044182267795,
        "distance_wrist_3_joint": 0.09866585078240186,
        "smoothness": 6.661338165333112e-16,
        "time": 5.016790965,
        "traj_len": 1.6082681347053023,
        "weighted_distance": 2.0322247815220833
    },
    "planner": "PRMstar",
    "start": {
        "state": {
            "elbow_joint": 1.9715472970024885,
            "shoulder_lift_joint": -1.1394870060712896,
            "shoulder_pan_joint": 0.12281152778156021,
            "wrist_1_joint": -0.780463741449964,
            "wrist_2_joint": 0.12958659822042276,
            "wrist_3_joint": 3.090690232415272
        }
    },
    "waypoints": [
        {
            "positions": [
                0.12281152778156021,
                -1.1394870060712896,
                1.9715472970024885,
                -0.780463741449964,
                0.12958659822042276,
                3.090690232415272
            ]
        },
        {
            "positions": [
                0.057121829573003643,
                -1.1727703098677296,
                2.0356858770499016,
                -0.8148030342688816,
                0.2875443722528198,
                3.104785353955615
            ]
        },
        {
            "positions": [
                -0.008567868635552922,
                -1.2060536136641697,
                2.0998244570973146,
                -0.8491423270877992,
                0.4455021462852169,
                3.118880475495958
            ]
        },
        {
            "positions": [
                -0.0742575668441095,
                -1.2393369174606097,
                2.1639630371447276,
                -0.8834816199067168,
                0.603459920317614,
                3.1329755970363014
            ]
        },
        {
            "positions": [
                -0.13994726505266605,
                -1.2726202212570499,
                2.2281016171921406,
                -0.9178209127256345,
                0.7614176943500109,
                3.147070718576644
            ]
        },
        {
            "positions": [
                -0.20563696326122263,
                -1.3059035250534898,
                2.2922401972395536,
                -0.952160205544552,
                0.919375468382408,
                3.1611658401169875
            ]
        },
        {
            "positions": [
                -0.27132666146977924,
                -1.3391868288499298,
                2.3563787772869667,
                -0.9864994983634696,
                1.0773332424148052,
                3.1752609616573304
            ]
        },
        {
            "positions": [
                -0.33701635967833576,
                -1.37247013264637,
                2.4205173573343797,
                -1.0208387911823873,
                1.2352910164472022,
                3.1893560831976737
            ]
        }
    ]
}