{
    "goal": {
        "global_pose": {
            "orientation": {
                "w": 0.005598929693374612,
                "x": 0.007748599140229565,
                "y": 0.7110244013736278,
                "z": -0.7031023480610252
            },
            "position": {
                "x": -0.8858502320852131,
                "y": -0.7141253447532654,
                "z": 0.3711530566215515
            }
        },
        "name": "move_to_auspresseinheit_C"
    },
    "id": "PRMstar_move_to_auspresseinheit_C_77",
    "joint_names": [
        "shoulder_pan_joint",
        "shoulder_lift_joint",
        "elbow_joint",
        "wrist_1_joint",
        "wrist_2_joint",
        "wrist_3_joint"
    ],
    "metrics": {
        "cart_traj_len": 0.49282293478809175,
        "distance_elbow_joint": 0.9948521678577378,
        "distance_shoulder_lift_joint": 0.32355893143695946,
        "distance_shoulder_pan_joint": 0.25587173597525714,
        "distance_wrist_1_joint": 0.6559716215089474,
        "distance_wrist_2_joint": 1.3210275822829223,
        "distance_wrist_3_joint": 0.034107880759687514,
        "smoothness": 4.844609574787718e-16,
        "time": 5.00280526,
        "traj_len": 1.8935125877113972,
        "weighted_distance": 2.3728895644620205
    },
    "planner": "PRMstar",
    "start": {
        "state": {
            "elbow_joint": 1.7527959577737207,
            "shoulder_lift_joint": -0.9740617694225068,
            "shoulder_pan_joint": -2.967991417825858,
            "wrist_1_joint": -0.759517768980727,
            "wrist_2_joint": 1.7443932448377408,
            "wrist_3_joint": -3.0840537646736568
        }
    },
    "waypoints": [
        {
            "positions": [
                -2.967991417825858,
                -0.9740617694225068,
                1.7527959577737207,
                -0.759517768980727,
                1.7443932448377408,
                -3.0840537646736568
            ]
        },
        {
            "positions": [
                -2.9424042442283325,
                -0.9417058762788109,
                1.6533107409879468,
                -0.6939206068298323,
                1.6122904866094485,
                -3.0874645527496254
            ]
        },
        {
            "positions": [
                -2.9168170706308065,
                -0.9093499831351148,
                1.553825524202173,
                -0.6283234446789375,
                1.4801877283811564,
                -3.0908753408255945
            ]
        },
        {
            "positions": [
                -2.8912298970332806,
                -0.8769940899914189,
                1.4543403074163994,
                -0.5627262825280428,
                1.348084970152864,
                -3.094286128901563
            ]
        },
        {
            "positions": [
                -2.865642723435755,
                -0.844638196847723,
                1.3548550906306256,
                -0.497129120377148,
                1.215982211924572,
                -3.0976969169775317
            ]
        },
        {
            "positions": [
                -2.8400555498382296,
                -0.812282303704027,
                1.2553698738448518,
                -0.4315319582262533,
                1.0838794536962797,
                -3.1011077050535008
            ]
        },
        {
            "positions": [
                -2.8144683762407037,
                -0.7799264105603311,
                1.1558846570590782,
                -0.36593479607535856,
                0.9517766954679875,
                -3.1045184931294694
            ]
        },
        {
            "positions": [
                -2.7888812026431777,
                -0.7475705174166352,
                1.0563994402733043,
                -0.30033763392446383,
                0.8196739372396953,
                -3.107929281205438
            ]
        },
        {
            "positions": [
                -2.7632940290456522,
                -0.7152146242729391,
                0.9569142234875304,
                -0.23474047177356905,
                0.687571179011403,
                -3.1113400692814066
            ]
        },
        {
            "positions": [
                -2.7377068554481268,
                -0.6828587311292432,
                0.8574290067017566,
                -0.16914330962267432,
                0.5554684207831107,
                -3.1147508573573757
            ]
        },
        {
            "positions": [
                -2.712119681850601,
                -0.6505028379855473,
                0.7579437899159829,
                -0.10354614747177955,
                0.42336566255481856,
                -3.1181616454333443
            ]
        }
    ]
}