{
    "goal": {
        "global_pose": {
            "orientation": {
                "w": 0.7031023480610252,
                "x": -0.7110244013736278,
                "y": 0.0077485991402295624,
                "z": 0.005598929693374583
            },
            "position": {
                "x": -0.8841497679147869,
                "y": 0.44412534475326537,
                "z": 0.3711530566215515
            }
        },
        "name": "move_to_auspresseinheit_D"
    },
    "id": "PRMstar_move_to_auspresseinheit_D_105",
    "joint_names": [
        "shoulder_pan_joint",
        "shoulder_lift_joint",
        "elbow_joint",
        "wrist_1_joint",
        "wrist_2_joint",
        "wrist_3_joint"
    ],
    "metrics": {
        "cart_traj_len": 0.34344547381941787,
        "distance_elbow_joint": 0.6339113448644731,
        "distance_shoulder_lift_joint": 0.11813391505445159,
        "distance_shoulder_pan_joint": 0.13360855716400158,
        "distance_wrist_1_joint": 0.5083486618478483,
        "distance_wrist_2_joint": 1.4470649530975348,
        "distance_wrist_3_joint": 0.030858448738828148,
        "smoothness": 0.0,
        "time": 5.005479606,
        "traj_len": 1.6946757450223737,
        "weighted_distance": 2.211121071581151
    },
    "planner": "PRMstar",
    "start": {
        "state": {
            "elbow_joint": -1.8275523626775212,
            "shoulder_lift_joint": -2.126789852344167,
            "shoulder_pan_joint": -0.03513704404078235,
            "wrist_1_joint": -2.347782403156801,
            "wrist_2_joint": -1.6058999987535132,
            "wrist_3_joint": -3.0880379163319196
        }
    },
    "waypoints": [
        {
            "positions": [
                -0.03513704404078235,
                -2.126789852344167,
                -1.8275523626775212,
                -2.347782403156801,
                -1.6058999987535132,
                -3.0880379163319196
            ]
        },
        {
            "positions": [
                -0.05183811368628255,
                -2.141556591725973,
                -1.7483134445694621,
                -2.411325985887782,
                -1.4250168796163214,
                -3.0918952224242733
            ]
        },
        {
            "positions": [
                -0.06853918333178274,
                -2.15632333110778,
                -1.6690745264614029,
                -2.4748695686187627,
                -1.2441337604791296,
                -3.0957525285166265
            ]
        },
        {
            "positions": [
                -0.08524025297728294,
                -2.171090070489586,
                -1.5898356083533438,
                -2.538413151349744,
                -1.0632506413419376,
                -3.09960983460898
            ]
        },
        {
            "positions": [
                -0.10194132262278313,
                -2.1858568098713924,
                -1.5105966902452845,
                -2.601956734080725,
                -0.8823675222047458,
                -3.1034671407013334
            ]
        },
        {
            "positions": [
                -0.11864239226828333,
                -2.200623549253199,
                -1.4313577721372255,
                -2.665500316811706,
                -0.701484403067554,
                -3.107324446793687
            ]
        },
        {
            "positions": [
                -0.13534346191378355,
                -2.2153902886350054,
                -1.3521188540291664,
                -2.7290438995426873,
                -0.520601283930362,
                -3.111181752886041
            ]
        },
        {
            "positions": [
                -0.15204453155928374,
                -2.230157028016812,
                -1.2728799359211074,
                -2.7925874822736683,
                -0.3397181647931702,
                -3.115039058978394
            ]
        },
        {
            "positions": [
                -0.16874560120478393,
                -2.2449237673986184,
                -1.193641017813048,
                -2.856131065004649,
                -0.1588350456559784,
                -3.1188963650707477
            ]
        }
    ]
}