{
    "goal": {
        "global_pose": {
            "orientation": {
                "w": 0.7031023502349854,
                "x": -0.7110244035720825,
                "y": 0.007748599164187908,
                "z": 0.005598929710686207
            },
            "position": {
                "x": 0.11585023208521307,
                "y": 0.44412534475326537,
                "z": 0.3711530566215515
            }
        },
        "name": "move_to_auspresseinheit_A"
    },
    "id": "PRMstar_move_to_auspresseinheit_A_146",
    "joint_names": [
        "shoulder_pan_joint",
        "shoulder_lift_joint",
        "elbow_joint",
        "wrist_1_joint",
        "wrist_2_joint",
        "wrist_3_joint"
    ],
    "metrics": {
        "cart_traj_len": 0.6880262045922404,
        "distance_elbow_joint": 0.03246257449824341,
        "distance_shoulder_lift_joint": 0.5316568700573401,
        "distance_shoulder_pan_joint": 1.042397056544688,
        "distance_wrist_1_joint": 0.5756455213701654,
        "distance_wrist_2_joint": 0.5332965706199387,
        "distance_wrist_3_joint": 0.058691800113662485,
        "smoothness": 5.921189480296099e-16,
        "time": 5.006020986,
        "traj_len": 1.6655780957985842,
        "weighted_distance": 2.0001190178140567
    },
    "planner": "PRMstar",
    "start": {
        "state": {
            "elbow_joint": 2.4225746658250005,
            "shoulder_lift_joint": -1.3736534386056498,
            "shoulder_pan_joint": -0.3378633547517467,
            "wrist_1_joint": -1.0288598680537169,
            "wrist_2_joint": 1.233022673432363,
            "wrist_3_joint": -3.0940220416140027
        }
    },
    "waypoints": [
        {
            "positions": [
                -0.3378633547517467,
                -1.3736534386056498,
                2.4225746658250005,
                -1.0288598680537169,
                1.233022673432363,
                -3.0940220416140027
            ]
        },
        {
            "positions": [
                -0.20756372268366072,
                -1.4401105473628173,
                2.41851684401272,
                -0.9569041778824462,
                1.1663606021048707,
                -3.1013585166282107
            ]
        },
        {
            "positions": [
                -0.07726409061557471,
                -1.5065676561199848,
                2.4144590222004396,
                -0.8849484877111755,
                1.0996985307773783,
                -3.1086949916424182
            ]
        },
        {
            "positions": [
                0.05303554145251127,
                -1.5730247648771523,
                2.410401200388159,
                -0.8129927975399048,
                1.033036459449886,
                -3.1160314666566262
            ]
        },
        {
            "positions": [
                0.1833351735205973,
                -1.63948187363432,
                2.4063433785758788,
                -0.7410371073686342,
                0.9663743881223936,
                -3.1233679416708338
            ]
        },
        {
            "positions": [
                0.31363480558868334,
                -1.7059389823914874,
                2.4022855567635983,
                -0.6690814171973635,
                0.8997123167949013,
                -3.1307044166850417
            ]
        },
        {
            "positions": [
                0.44393443765676927,
                -1.772396091148655,
                2.398227734951318,
                -0.5971257270260928,
                0.833050245467409,
                -3.1380408916992497
            ]
        },
        {
            "positions": [
                0.5742340697248554,
                -1.8388531999058224,
                2.3941699131390375,
                -0.5251700368548221,
                0.7663881741399167,
                -3.1453773667134572
            ]
        },
        {
            "positions": [
                0.7045337017929414,
                -1.90531030866299,
                2.390112091326757,
                -0.45321434668355143,
                0.6997261028124243,
                -3.1527138417276652
            ]
        }
    ]
}