{
    "goal": {
        "global_pose": {
            "orientation": {
                "w": 0.7047431468963623,
                "x": -0.7094548344612122,
                "y": 0.0024358443915843964,
                "z": -0.0022348060738295317
            },
            "position": {
                "x": 0.6094750761985779,
                "y": 0.3671506643295288,
                "z": 0.19426114857196808
            }
        },
        "name": "move_to_magneteinheit_A"
    },
    "id": "PRMstar_move_to_magneteinheit_A_87",
    "joint_names": [
        "shoulder_pan_joint",
        "shoulder_lift_joint",
        "elbow_joint",
        "wrist_1_joint",
        "wrist_2_joint",
        "wrist_3_joint"
    ],
    "metrics": {
        "cart_traj_len": 3.2775927690446838,
        "distance_elbow_joint": 3.925082643289013,
        "distance_shoulder_lift_joint": 0.46149552075048483,
        "distance_shoulder_pan_joint": 3.2720931696639663,
        "distance_wrist_1_joint": 3.51618909650964,
        "distance_wrist_2_joint": 1.4382903309639232,
        "distance_wrist_3_joint": 0.5266713370117805,
        "smoothness": 0.0967113499649125,
        "time": 5.027484856,
        "traj_len": 3.6248892532308914,
        "weighted_distance": 4.375802120718662
    },
    "planner": "PRMstar",
    "start": {
        "state": {
            "elbow_joint": -1.9196185241190666,
            "shoulder_lift_joint": -1.2443396400964142,
            "shoulder_pan_joint": 2.6996025414629847,
            "wrist_1_joint": -1.5485510000780065,
            "wrist_2_joint": -1.5709468930060704,
            "wrist_3_joint": 0.4420197071253992
        }
    },
    "waypoints": [
        {
            "positions": [
                2.6996025414629847,
                -1.2443396400964142,
                -1.9196185241190666,
                -1.5485510000780065,
                -1.5709468930060704,
                0.4420197071253992
            ]
        },
        {
            "positions": [
                2.5826364247867963,
                -1.233368113847823,
                -1.823647873258921,
                -1.4397894662836384,
                -1.5380401920700066,
                0.4215067007246601
            ]
        },
        {
            "positions": [
                2.465670308110608,
                -1.2223965875992318,
                -1.7276772223987753,
                -1.3310279324892702,
                -1.5051334911339431,
                0.4009936943239211
            ]
        },
        {
            "positions": [
                2.34870419143442,
                -1.2114250613506405,
                -1.6317065715386296,
                -1.222266398694902,
                -1.4722267901978794,
                0.38048068792318207
            ]
        },
        {
            "positions": [
                2.2317380747582316,
                -1.200453535102049,
                -1.535735920678484,
                -1.113504864900534,
                -1.4393200892618156,
                0.359967681522443
            ]
        },
        {
            "positions": [
                2.114771958082043,
                -1.189482008853458,
                -1.4397652698183383,
                -1.0047433311061658,
                -1.406413388325752,
                0.339454675121704
            ]
        },
        {
            "positions": [
                1.9978058414058548,
                -1.1785104826048667,
                -1.3437946189581926,
                -0.8959817973117976,
                -1.3735066873896882,
                0.31894166872096497
            ]
        },
        {
            "positions": [
                1.8808397247296664,
                -1.1675389563562755,
                -1.247823968098047,
                -0.7872202635174294,
                -1.3405999864536247,
                0.2984286623202259
            ]
        },
        {
            "positions": [
                1.7638736080534783,
                -1.1565674301076843,
                -1.1518533172379013,
                -0.6784587297230613,
                -1.307693285517561,
                0.27791565591948686
            ]
        },
        {
            "positions": [
                1.64690749137729,
                -1.145595903859093,
                -1.0558826663777556,
                -0.5696971959286932,
                -1.2747865845814972,
                0.25740264951874786
            ]
        },
        {
            "positions": [
                1.5299413747011017,
                -1.1346243776105016,
                -0.95991201551761,
                -0.460935662134325,
                -1.2418798836454334,
                0.2368896431180088
            ]
        },
        {
            "positions": [
                1.4129752580249133,
                -1.1236528513619104,
                -0.8639413646574643,
                -0.35217412833995687,
                -1.20897318270937,
                0.21637663671726978
            ]
        },
        {
            "positions": [
                1.2960091413487251,
                -1.1126813251133192,
                -0.7679707137973186,
                -0.24341259454558872,
                -1.1760664817733062,
                0.19586363031653076
            ]
        },
        {
            "positions": [
                1.1790430246725367,
                -1.101709798864728,
                -0.672000062937173,
                -0.13465106075122057,
                -1.1431597808372425,
                0.1753506239157917
            ]
        },
        {
            "positions": [
                1.0620769079963484,
                -1.0907382726161368,
                -0.5760294120770271,
                -0.025889526956852205,
                -1.1102530799011787,
                0.15483761751505265
            ]
        },
        {
            "positions": [
                0.9451107913201602,
                -1.0797667463675455,
                -0.4800587612168816,
                0.08287200683751572,
                -1.0773463789651152,
                0.13432461111431365
            ]
        },
        {
            "positions": [
                0.8281446746439718,
                -1.0687952201189541,
                -0.38408811035673596,
                0.19163354063188387,
                -1.0444396780290515,
                0.1138116047135746
            ]
        },
        {
            "positions": [
                0.7111785579677834,
                -1.057823693870363,
                -0.28811745949659007,
                0.30039507442625224,
                -1.0115329770929877,
                0.09329859831283555
            ]
        },
        {
            "positions": [
                0.5942124412915955,
                -1.0468521676217717,
                -0.19214680863644462,
                0.40915660822062017,
                -0.9786262761569241,
                0.07278559191209655
            ]
        },
        {
            "positions": [
                0.47724632461540706,
                -1.0358806413731805,
                -0.09617615777629895,
                0.5179181420149883,
                -0.9457195752208604,
                0.052272585511357494
            ]
        },
        {
            "positions": [
                0.36028020793921867,
                -1.0249091151245893,
                -0.0002055069161532863,
                0.6266796758093565,
                -0.9128128742847966,
                0.03175957911061844
            ]
        },
        {
            "positions": [
                0.24331409126303027,
                -1.013937588875998,
                0.09576514394399238,
                0.7354412096037246,
                -0.879906173348733,
                0.011246572709879443
            ]
        },
        {
            "positions": [
                0.12634797458684188,
                -1.0029660626274066,
                0.19173579480413805,
                0.8442027433980928,
                -0.8469994724126694,
                -0.00926643369085961
            ]
        },
        {
            "positions": [
                0.00938185791065349,
                -0.9919945363788154,
                0.2877064456642837,
                0.9529642771924609,
                -0.8140927714766056,
                -0.029779440091598663
            ]
        },
        {
            "positions": [
                -0.10758425876553446,
                -0.9810230101302242,
                0.3836770965244294,
                1.061725810986829,
                -0.781186070540542,
                -0.05029244649233766
            ]
        },
        {
            "positions": [
                -0.22455037544172296,
                -0.970051483881633,
                0.47964774738457483,
                1.170487344781197,
                -0.7482793696044783,
                -0.07080545289307674
            ]
        },
        {
            "positions": [
                -0.18589034735736082,
                -0.9492506655998881,
                0.6491828998051716,
                1.2590596505201344,
                -0.679876835430886,
                -0.06926698878270957
            ]
        },
        {
            "positions": [
                -0.14723031927299868,
                -0.9284498473181433,
                0.8187180522257684,
                1.3476319562590717,
                -0.6114743012572935,
                -0.0677285246723424
            ]
        },
        {
            "positions": [
                -0.10857029118863651,
                -0.9076490290363984,
                0.9882532046463651,
                1.436204261998009,
                -0.5430717670837011,
                -0.06619006056197524
            ]
        },
        {
            "positions": [
                -0.06991026310427437,
                -0.8868482107546536,
                1.1577883570669618,
                1.5247765677369465,
                -0.47466923291010876,
                -0.06465159645160806
            ]
        },
        {
            "positions": [
                -0.03125023501991217,
                -0.8660473924729087,
                1.3273235094875586,
                1.613348873475884,
                -0.40626669873651633,
                -0.06311313234124089
            ]
        },
        {
            "positions": [
                0.007409793064449943,
                -0.8452465741911639,
                1.4968586619081554,
                1.7019211792148212,
                -0.337864164562924,
                -0.06157466823087372
            ]
        },
        {
            "positions": [
                0.04606982114881214,
                -0.824445755909419,
                1.6663938143287522,
                1.7904934849537588,
                -0.2694616303893316,
                -0.06003620412050655
            ]
        },
        {
            "positions": [
                0.08472984923317423,
                -0.8036449376276742,
                1.835928966749349,
                1.879065790692696,
                -0.20105909621573925,
                -0.05849774001013938
            ]
        },
        {
            "positions": [
                0.12338987731753642,
                -0.7828441193459293,
                2.005464119169946,
                1.9676380964316336,
                -0.13265656204214682,
                -0.05695927589977221
            ]
        }
    ]
}