{
    "goal": {
        "global_pose": {
            "orientation": {
                "w": -0.4816463035849501,
                "x": 0.5182115481033762,
                "y": 0.4908360881923453,
                "z": -0.5084816262002911
            },
            "position": {
                "x": -0.8240239810943604,
                "y": -0.300875300988555,
                "z": 0.16403168439865112
            }
        },
        "name": "move_to_storage_C"
    },
    "id": "PRMstar_move_to_storage_C_45",
    "joint_names": [
        "shoulder_pan_joint",
        "shoulder_lift_joint",
        "elbow_joint",
        "wrist_1_joint",
        "wrist_2_joint",
        "wrist_3_joint"
    ],
    "metrics": {
        "cart_traj_len": 0.5769811598053934,
        "distance_elbow_joint": 0.2560257873351661,
        "distance_shoulder_lift_joint": 0.18897758090194283,
        "distance_shoulder_pan_joint": 0.49544025456914964,
        "distance_wrist_1_joint": 0.06688134868816142,
        "distance_wrist_2_joint": 1.0627880166106096,
        "distance_wrist_3_joint": 0.05611966439767668,
        "smoothness": 0.0,
        "time": 5.011433257,
        "traj_len": 1.4581607087364226,
        "weighted_distance": 1.8352496687363358
    },
    "planner": "PRMstar",
    "start": {
        "state": {
            "elbow_joint": 2.010868314990456,
            "shoulder_lift_joint": -1.1634956873337592,
            "shoulder_pan_joint": -2.4736205022346125,
            "wrist_1_joint": -0.8367026794202681,
            "wrist_2_joint": 0.6746043897044499,
            "wrist_3_joint": -3.1496632123970403
        }
    },
    "waypoints": [
        {
            "positions": [
                -2.4736205022346125,
                -1.1634956873337592,
                2.010868314990456,
                -0.8367026794202681,
                0.6746043897044499,
                -3.1496632123970403
            ]
        },
        {
            "positions": [
                -2.5561938779961375,
                -1.131999423850102,
                1.9681973504345949,
                -0.8255557879722412,
                0.8517357258062181,
                -3.1403099349974273
            ]
        },
        {
            "positions": [
                -2.6387672537576625,
                -1.1005031603664448,
                1.9255263858787337,
                -0.8144088965242143,
                1.0288670619079865,
                -3.1309566575978147
            ]
        },
        {
            "positions": [
                -2.7213406295191875,
                -1.0690068968827877,
                1.8828554213228728,
                -0.8032620050761874,
                1.2059983980097546,
                -3.121603380198202
            ]
        },
        {
            "positions": [
                -2.803914005280712,
                -1.0375106333991306,
                1.8401844567670118,
                -0.7921151136281604,
                1.383129734111523,
                -3.112250102798589
            ]
        },
        {
            "positions": [
                -2.886487381042237,
                -1.0060143699154735,
                1.7975134922111506,
                -0.7809682221801336,
                1.5602610702132913,
                -3.102896825398976
            ]
        },
        {
            "positions": [
                -2.969060756803762,
                -0.9745181064318164,
                1.7548425276552897,
                -0.7698213307321067,
                1.7373924063150594,
                -3.0935435479993636
            ]
        }
    ]
}