{
    "goal": {
        "global_pose": {
            "orientation": {
                "w": 0.005598929693374612,
                "x": 0.007748599140229565,
                "y": 0.7110244013736278,
                "z": -0.7031023480610252
            },
            "position": {
                "x": 0.1141497679147869,
                "y": -0.7141253447532654,
                "z": 0.3711530566215515
            }
        },
        "name": "move_to_auspresseinheit_B"
    },
    "id": "PRMstar_move_to_auspresseinheit_B_44",
    "joint_names": [
        "shoulder_pan_joint",
        "shoulder_lift_joint",
        "elbow_joint",
        "wrist_1_joint",
        "wrist_2_joint",
        "wrist_3_joint"
    ],
    "metrics": {
        "cart_traj_len": 0.5641242684280822,
        "distance_elbow_joint": 0.0585367143392288,
        "distance_shoulder_lift_joint": 0.296484348305196,
        "distance_shoulder_pan_joint": 0.5753842782849088,
        "distance_wrist_1_joint": 0.31557875056649953,
        "distance_wrist_2_joint": 1.0019088519579546,
        "distance_wrist_3_joint": 0.006543338921142894,
        "smoothness": 5.075305295617109e-16,
        "time": 5.009094406,
        "traj_len": 1.5014780325981898,
        "weighted_distance": 1.8934124122181282
    },
    "planner": "PRMstar",
    "start": {
        "state": {
            "elbow_joint": 2.0193083361928714,
            "shoulder_lift_joint": -1.1220246554650708,
            "shoulder_pan_joint": -1.0952077554168747,
            "wrist_1_joint": -0.8559753972642168,
            "wrist_2_joint": 0.4759566250798843,
            "wrist_3_joint": -3.1240929996934557
        }
    },
    "waypoints": [
        {
            "positions": [
                -1.0952077554168747,
                -1.1220246554650708,
                2.0193083361928714,
                -0.8559753972642168,
                0.4759566250798843,
                -3.1240929996934557
            ]
        },
        {
            "positions": [
                -1.1911051351310262,
                -1.1714387135159368,
                2.009552217136333,
                -0.8033789388364668,
                0.6429414337395434,
                -3.1251835561803127
            ]
        },
        {
            "positions": [
                -1.2870025148451776,
                -1.2208527715668027,
                1.999796098079795,
                -0.750782480408717,
                0.8099262423992024,
                -3.12627411266717
            ]
        },
        {
            "positions": [
                -1.382899894559329,
                -1.2702668296176687,
                1.990039979023257,
                -0.698186021980967,
                0.9769110510588617,
                -3.1273646691540273
            ]
        },
        {
            "positions": [
                -1.4787972742734805,
                -1.3196808876685349,
                1.980283859966719,
                -0.6455895635532172,
                1.1438958597185207,
                -3.1284552256408844
            ]
        },
        {
            "positions": [
                -1.574694653987632,
                -1.3690949457194008,
                1.9705277409101807,
                -0.5929931051254671,
                1.31088066837818,
                -3.1295457821277415
            ]
        },
        {
            "positions": [
                -1.6705920337017834,
                -1.4185090037702668,
                1.9607716218536426,
                -0.5403966466977173,
                1.477865477037839,
                -3.1306363386145986
            ]
        }
    ]
}