{
    "goal": {
        "global_pose": {
            "orientation": {
                "w": -0.00223480608172531,
                "x": 0.0024358444001904467,
                "y": 0.7094548369677653,
                "z": -0.704743149386269
            },
            "position": {
                "x": 0.6205249238014221,
                "y": -0.6371506643295288,
                "z": 0.19426114857196808
            }
        },
        "name": "move_to_magneteinheit_B"
    },
    "id": "PRMstar_move_to_magneteinheit_B_91",
    "joint_names": [
        "shoulder_pan_joint",
        "shoulder_lift_joint",
        "elbow_joint",
        "wrist_1_joint",
        "wrist_2_joint",
        "wrist_3_joint"
    ],
    "metrics": {
        "cart_traj_len": 4.049536690530489,
        "distance_elbow_joint": 4.5131649256519335,
        "distance_shoulder_lift_joint": 2.87475114582185,
        "distance_shoulder_pan_joint": 4.387595299224806,
        "distance_wrist_1_joint": 2.522870585537044,
        "distance_wrist_2_joint": 1.1872111866226565,
        "distance_wrist_3_joint": 6.585996732840974,
        "smoothness": 1.0045134359179555,
        "time": 5.0720370699999995,
        "traj_len": 4.698041067902587,
        "weighted_distance": 6.241287135963296
    },
    "planner": "PRMstar",
    "start": {
        "state": {
            "elbow_joint": 2.6216224122426386,
            "shoulder_lift_joint": -1.4174107377796124,
            "shoulder_pan_joint": 0.7066234856936794,
            "wrist_1_joint": 1.9546482284002225,
            "wrist_2_joint": -0.7096286983471962,
            "wrist_3_joint": 0.005740856962016249
        }
    },
    "waypoints": [
        {
            "positions": [
                0.7066234856936794,
                -1.4174107377796124,
                2.6216224122426386,
                1.9546482284002225,
                -0.7096286983471962,
                0.005740856962016249
            ]
        },
        {
            "positions": [
                0.4959000508070132,
                -1.4765636609129926,
                2.6357634633512137,
                1.9530524164811014,
                -0.6878585158947678,
                0.06435909560435342
            ]
        },
        {
            "positions": [
                0.28517661592034704,
                -1.535716584046373,
                2.649904514459789,
                1.9514566045619801,
                -0.6660883334423393,
                0.12297733424669059
            ]
        },
        {
            "positions": [
                0.07445318103368082,
                -1.5948695071797532,
                2.664045565568364,
                1.949860792642859,
                -0.6443181509899109,
                0.18159557288902778
            ]
        },
        {
            "positions": [
                0.13829856302220955,
                -1.6285769224235915,
                2.5979212801805573,
                1.894963148463234,
                -0.6221085281285816,
                0.3331524230274824
            ]
        },
        {
            "positions": [
                0.20214394501073832,
                -1.6622843376674301,
                2.5317969947927503,
                1.840065504283609,
                -0.5998989052672524,
                0.48470927316593704
            ]
        },
        {
            "positions": [
                0.26598932699926703,
                -1.6959917529112685,
                2.4656727094049438,
                1.785167860103984,
                -0.5776892824059232,
                0.6362661233043917
            ]
        },
        {
            "positions": [
                0.3298347089877958,
                -1.7296991681551068,
                2.399548424017137,
                1.7302702159243588,
                -0.555479659544594,
                0.7878229734428464
            ]
        },
        {
            "positions": [
                0.39368009097632456,
                -1.7634065833989454,
                2.33342413862933,
                1.6753725717447336,
                -0.5332700366832648,
                0.9393798235813009
            ]
        },
        {
            "positions": [
                0.4575254729648533,
                -1.7971139986427838,
                2.2672998532415236,
                1.6204749275651087,
                -0.5110604138219355,
                1.0909366737197557
            ]
        },
        {
            "positions": [
                0.521370854953382,
                -1.8308214138866221,
                2.201175567853717,
                1.5655772833854837,
                -0.4888507909606063,
                1.24249352385821
            ]
        },
        {
            "positions": [
                0.5852162369419108,
                -1.8645288291304607,
                2.13505128246591,
                1.5106796392058586,
                -0.466641168099277,
                1.3940503739966648
            ]
        },
        {
            "positions": [
                0.6490616189304396,
                -1.898236244374299,
                2.0689269970781035,
                1.4557819950262336,
                -0.4444315452379478,
                1.5456072241351193
            ]
        },
        {
            "positions": [
                0.7129070009189683,
                -1.9319436596181374,
                2.002802711690297,
                1.4008843508466085,
                -0.4222219223766186,
                1.697164074273574
            ]
        },
        {
            "positions": [
                0.776752382907497,
                -1.9656510748619758,
                1.9366784263024903,
                1.3459867066669835,
                -0.4000122995152894,
                1.8487209244120286
            ]
        },
        {
            "positions": [
                0.8405977648960258,
                -1.9993584901058143,
                1.8705541409146833,
                1.2910890624873583,
                -0.37780267665396017,
                2.0002777745504834
            ]
        },
        {
            "positions": [
                0.9044431468845545,
                -2.0330659053496527,
                1.8044298555268767,
                1.2361914183077334,
                -0.35559305379263095,
                2.151834624688938
            ]
        },
        {
            "positions": [
                1.0023010838546023,
                -1.9898231659032004,
                1.741030748589081,
                1.2560416604489044,
                -0.33985686138756926,
                2.0145446910228753
            ]
        },
        {
            "positions": [
                1.10015902082465,
                -1.946580426456748,
                1.6776316416512855,
                1.2758919025900755,
                -0.3241206689825076,
                1.8772547573568124
            ]
        },
        {
            "positions": [
                1.1980169577946975,
                -1.9033376870102956,
                1.6142325347134898,
                1.2957421447312465,
                -0.30838447657744583,
                1.7399648236907495
            ]
        },
        {
            "positions": [
                1.2958748947647452,
                -1.860094947563843,
                1.5508334277756943,
                1.3155923868724175,
                -0.29264828417238414,
                1.6026748900246868
            ]
        },
        {
            "positions": [
                1.3937328317347928,
                -1.8168522081173908,
                1.4874343208378986,
                1.3354426290135886,
                -0.27691209176732245,
                1.4653849563586239
            ]
        },
        {
            "positions": [
                1.4915907687048406,
                -1.7736094686709383,
                1.424035213900103,
                1.3552928711547596,
                -0.26117589936226077,
                1.328095022692561
            ]
        },
        {
            "positions": [
                1.5894487056748883,
                -1.730366729224486,
                1.3606361069623074,
                1.3751431132959306,
                -0.24543970695719905,
                1.1908050890264983
            ]
        },
        {
            "positions": [
                1.687306642644936,
                -1.6871239897780335,
                1.2972370000245117,
                1.3949933554371017,
                -0.22970351455213733,
                1.0535151553604354
            ]
        },
        {
            "positions": [
                1.7851645796149835,
                -1.6438812503315812,
                1.233837893086716,
                1.4148435975782725,
                -0.21396732214707564,
                0.9162252216943725
            ]
        },
        {
            "positions": [
                1.8830225165850312,
                -1.6006385108851287,
                1.1704387861489205,
                1.4346938397194435,
                -0.19823112974201396,
                0.7789352880283098
            ]
        },
        {
            "positions": [
                1.9808804535550788,
                -1.5573957714386764,
                1.1070396792111246,
                1.4545440818606146,
                -0.1824949373369522,
                0.6416453543622467
            ]
        },
        {
            "positions": [
                2.0787383905251264,
                -1.5141530319922238,
                1.043640572273329,
                1.4743943240017856,
                -0.16675874493189055,
                0.504355420696184
            ]
        },
        {
            "positions": [
                2.1765963274951745,
                -1.4709102925457715,
                0.9802414653355334,
                1.4942445661429566,
                -0.15102255252682883,
                0.3670654870301211
            ]
        },
        {
            "positions": [
                2.2744542644652217,
                -1.4276675530993193,
                0.9168423583977379,
                1.5140948082841277,
                -0.13528636012176715,
                0.22977555336405842
            ]
        },
        {
            "positions": [
                2.3723122014352698,
                -1.3844248136528667,
                0.8534432514599422,
                1.5339450504252987,
                -0.11955016771670543,
                0.09248561969799551
            ]
        },
        {
            "positions": [
                2.4701701384053174,
                -1.3411820742064142,
                0.7900441445221467,
                1.5537952925664698,
                -0.10381397531164371,
                -0.044804313968067166
            ]
        },
        {
            "positions": [
                2.568028075375365,
                -1.297939334759962,
                0.726645037584351,
                1.5736455347076408,
                -0.08807778290658203,
                -0.1820942476341303
            ]
        },
        {
            "positions": [
                2.6658860123454127,
                -1.2546965953135096,
                0.6632459306465552,
                1.5934957768488118,
                -0.07234159050152034,
                -0.31938418130019297
            ]
        },
        {
            "positions": [
                2.7637439493154603,
                -1.2114538558670571,
                0.5998468237087595,
                1.6133460189899829,
                -0.05660539809645859,
                -0.45667411496625565
            ]
        },
        {
            "positions": [
                2.861601886285508,
                -1.1682111164206046,
                0.536447716770964,
                1.633196261131154,
                -0.04086920569139696,
                -0.5939640486323183
            ]
        },
        {
            "positions": [
                2.9594598232555556,
                -1.1249683769741523,
                0.4730486098331683,
                1.653046503272325,
                -0.025133013286335215,
                -0.7312539822983813
            ]
        },
        {
            "positions": [
                2.9228857534867703,
                -1.1965590699061794,
                0.3459451468721809,
                1.5885492161690218,
                -0.011358070578322057,
                -0.6607446005300313
            ]
        },
        {
            "positions": [
                2.8863116837179854,
                -1.2681497628382066,
                0.21884168391119352,
                1.5240519290657186,
                0.002416872129691102,
                -0.5902352187616811
            ]
        },
        {
            "positions": [
                2.8497376139492,
                -1.339740455770234,
                0.09173822095020612,
                1.4595546419624152,
                0.01619181483770426,
                -0.5197258369933309
            ]
        },
        {
            "positions": [
                2.813163544180415,
                -1.411331148702261,
                -0.035365242010781284,
                1.395057354859112,
                0.02996675754571742,
                -0.44921645522498077
            ]
        },
        {
            "positions": [
                2.7765894744116295,
                -1.4829218416342882,
                -0.16246870497176868,
                1.330560067755809,
                0.04374170025373057,
                -0.3787070734566306
            ]
        },
        {
            "positions": [
                2.740015404642844,
                -1.5545125345663156,
                -0.2895721679327561,
                1.2660627806525055,
                0.05751664296174373,
                -0.3081976916882805
            ]
        },
        {
            "positions": [
                2.7034413348740594,
                -1.6261032274983427,
                -0.4166756308937435,
                1.2015654935492024,
                0.0712915856697569,
                -0.23768830991993034
            ]
        },
        {
            "positions": [
                2.666867265105274,
                -1.6976939204303698,
                -0.5437790938547309,
                1.1370682064458992,
                0.08506652837777005,
                -0.1671789281515802
            ]
        },
        {
            "positions": [
                2.6302931953364888,
                -1.769284613362397,
                -0.6708825568157182,
                1.072570919342596,
                0.09884147108578321,
                -0.09666954638323
            ]
        },
        {
            "positions": [
                2.593719125567704,
                -1.840875306294424,
                -0.7979860197767057,
                1.008073632239293,
                0.11261641379379636,
                -0.02616016461487991
            ]
        },
        {
            "positions": [
                2.5571450557989186,
                -1.9124659992264514,
                -0.9250894827376932,
                0.9435763451359895,
                0.12639135650180952,
                0.04434921715347018
            ]
        },
        {
            "positions": [
                2.5205709860301333,
                -1.9840566921584786,
                -1.0521929456986805,
                0.8790790580326864,
                0.14016629920982268,
                0.11485859892182038
            ]
        },
        {
            "positions": [
                2.483996916261348,
                -2.0556473850905057,
                -1.1792964086596678,
                0.8145817709293832,
                0.15394124191783584,
                0.18536798069017058
            ]
        },
        {
            "positions": [
                2.4474228464925627,
                -2.127238078022533,
                -1.3063998716206553,
                0.75008448382608,
                0.167716184625849,
                0.25587736245852066
            ]
        },
        {
            "positions": [
                2.410848776723778,
                -2.1988287709545604,
                -1.4335033345816428,
                0.6855871967227767,
                0.18149112733386216,
                0.32638674422687075
            ]
        },
        {
            "positions": [
                2.3742747069549925,
                -2.2704194638865873,
                -1.56060679754263,
                0.6210899096194735,
                0.19526607004187532,
                0.39689612599522106
            ]
        },
        {
            "positions": [
                2.4103561063395578,
                -2.308093260895145,
                -1.6052816960739689,
                0.6615510059935907,
                0.24085672990551696,
                0.29753375167219587
            ]
        },
        {
            "positions": [
                2.4464375057241234,
                -2.3457670579037027,
                -1.6499565946053074,
                0.7020121023677078,
                0.28644738976915857,
                0.19817137734917067
            ]
        },
        {
            "positions": [
                2.482518905108689,
                -2.38344085491226,
                -1.694631493136646,
                0.7424731987418249,
                0.3320380496328002,
                0.09880900302614548
            ]
        },
        {
            "positions": [
                2.5186003044932543,
                -2.4211146519208175,
                -1.7393063916679847,
                0.7829342951159421,
                0.37762870949644184,
                -0.0005533712968797053
            ]
        },
        {
            "positions": [
                2.5890541237453077,
                -2.4485407393856398,
                -1.7056114841230552,
                0.8798131507812637,
                0.4276055988859511,
                0.015054004973639167
            ]
        },
        {
            "positions": [
                2.659507942997361,
                -2.475966826850462,
                -1.6719165765781259,
                0.9766920064465852,
                0.4775824882754604,
                0.03066138124415804
            ]
        }
    ]
}