{
    "goal": {
        "global_pose": {
            "orientation": {
                "w": 0.7031023502349854,
                "x": -0.7110244035720825,
                "y": 0.007748599164187908,
                "z": 0.005598929710686207
            },
            "position": {
                "x": 0.11585023208521307,
                "y": 0.44412534475326537,
                "z": 0.3711530566215515
            }
        },
        "name": "move_to_auspresseinheit_A"
    },
    "id": "PRMstar_move_to_auspresseinheit_A_87",
    "joint_names": [
        "shoulder_pan_joint",
        "shoulder_lift_joint",
        "elbow_joint",
        "wrist_1_joint",
        "wrist_2_joint",
        "wrist_3_joint"
    ],
    "metrics": {
        "cart_traj_len": 0.6956786795274814,
        "distance_elbow_joint": 0.3539906579811052,
        "distance_shoulder_lift_joint": 1.1254076089129474,
        "distance_shoulder_pan_joint": 1.0407799504919222,
        "distance_wrist_1_joint": 0.5502241906970975,
        "distance_wrist_2_joint": 1.1193178987267414,
        "distance_wrist_3_joint": 0.02674063076586064,
        "smoothness": 0.9324990202648856,
        "time": 5.023908060999999,
        "traj_len": 2.053402283425163,
        "weighted_distance": 2.4371057196049652
    },
    "planner": "PRMstar",
    "start": {
        "state": {
            "elbow_joint": 2.4225746658250005,
            "shoulder_lift_joint": -1.3736534386056498,
            "shoulder_pan_joint": -0.3378633547517467,
            "wrist_1_joint": -1.0288598680537169,
            "wrist_2_joint": 1.233022673432363,
            "wrist_3_joint": -3.0940220416140027
        }
    },
    "waypoints": [
        {
            "positions": [
                -0.3378633547517467,
                -1.3736534386056498,
                2.4225746658250005,
                -1.0288598680537169,
                1.233022673432363,
                -3.0940220416140027
            ]
        },
        {
            "positions": [
                -0.33631098234568874,
                -1.5122320101435331,
                2.449921044878807,
                -0.9791516564025237,
                1.0950162479994718,
                -3.0951973349067825
            ]
        },
        {
            "positions": [
                -0.3347586099396308,
                -1.6508105816814165,
                2.4772674239326142,
                -0.9294434447513303,
                0.9570098225665808,
                -3.0963726281995623
            ]
        },
        {
            "positions": [
                -0.3332062375335728,
                -1.7893891532192998,
                2.5046138029864213,
                -0.8797352331001371,
                0.8190033971336897,
                -3.0975479214923416
            ]
        },
        {
            "positions": [
                -0.3316538651275148,
                -1.9279677247571834,
                2.531960182040228,
                -0.8300270214489439,
                0.6809969717007986,
                -3.0987232147851214
            ]
        },
        {
            "positions": [
                -0.3301014927214569,
                -2.0665462962950665,
                2.5593065610940346,
                -0.7803188097977506,
                0.5429905462679075,
                -3.099898508077901
            ]
        },
        {
            "positions": [
                -0.3285491203153989,
                -2.20512486783295,
                2.5866529401478418,
                -0.7306105981465574,
                0.4049841208350164,
                -3.101073801370681
            ]
        },
        {
            "positions": [
                -0.15663816763946986,
                -2.156135504552009,
                2.5550008762047978,
                -0.688614778014901,
                0.45353067852324885,
                -3.104355279872211
            ]
        },
        {
            "positions": [
                0.01527278503645918,
                -2.1071461412710675,
                2.523348812261754,
                -0.6466189578832447,
                0.5020772362114813,
                -3.107636758373742
            ]
        },
        {
            "positions": [
                0.18718373771238822,
                -2.0581567779901264,
                2.49169674831871,
                -0.6046231377515884,
                0.5506237938997137,
                -3.110918236875272
            ]
        },
        {
            "positions": [
                0.35909469038831726,
                -2.0091674147091854,
                2.460044684375666,
                -0.5626273176199321,
                0.5991703515879462,
                -3.1141997153768024
            ]
        },
        {
            "positions": [
                0.5310056430642462,
                -1.960178051428244,
                2.428392620432622,
                -0.5206314974882758,
                0.6477169092761786,
                -3.117481193878333
            ]
        },
        {
            "positions": [
                0.7029165957401754,
                -1.9111886881473028,
                2.396740556489578,
                -0.4786356773566194,
                0.6962634669644111,
                -3.1207626723798634
            ]
        }
    ]
}