{
    "goal": {
        "global_pose": {
            "orientation": {
                "w": 0.5084816262002911,
                "x": -0.4908360881923452,
                "y": 0.5182115481033761,
                "z": -0.48164630358495003
            },
            "position": {
                "x": 0.5540239810943604,
                "y": -0.46912469901144505,
                "z": 0.16403168439865112
            }
        },
        "name": "move_to_storage_B"
    },
    "id": "PRMstar_move_to_storage_B_147",
    "joint_names": [
        "shoulder_pan_joint",
        "shoulder_lift_joint",
        "elbow_joint",
        "wrist_1_joint",
        "wrist_2_joint",
        "wrist_3_joint"
    ],
    "metrics": {
        "cart_traj_len": 0.9587060281911044,
        "distance_elbow_joint": 0.6309181654214808,
        "distance_shoulder_lift_joint": 0.4591303440910399,
        "distance_shoulder_pan_joint": 0.5785527118353927,
        "distance_wrist_1_joint": 2.981083917300064,
        "distance_wrist_2_joint": 2.698729692027536,
        "distance_wrist_3_joint": 3.2055559816281005,
        "smoothness": 0.3316617843318469,
        "time": 5.054649347,
        "traj_len": 3.248687552274551,
        "weighted_distance": 4.758665399551372
    },
    "planner": "PRMstar",
    "start": {
        "state": {
            "elbow_joint": 1.664937868594044,
            "shoulder_lift_joint": -0.661644460510453,
            "shoulder_pan_joint": -0.9139846352900073,
            "wrist_1_joint": 2.146753192139373,
            "wrist_2_joint": -2.2341966793290973,
            "wrist_3_joint": 0.005466555786416001
        }
    },
    "waypoints": [
        {
            "positions": [
                -0.9139846352900073,
                -0.661644460510453,
                1.664937868594044,
                2.146753192139373,
                -2.2341966793290973,
                0.005466555786416001
            ]
        },
        {
            "positions": [
                -0.9276969437427192,
                -0.6651540988622924,
                1.6459293723184336,
                2.1275610048786624,
                -2.1981456673925717,
                0.011767266093954194
            ]
        },
        {
            "positions": [
                -0.8288114519155696,
                -0.6964108285702079,
                1.5847822014262398,
                2.0372067298994763,
                -2.123886099185766,
                -0.0056934242865997915
            ]
        },
        {
            "positions": [
                -0.72992596008842,
                -0.7276675582781233,
                1.5236350305340458,
                1.9468524549202906,
                -2.04962653097896,
                -0.02315411466715378
            ]
        },
        {
            "positions": [
                -0.7362507395398534,
                -0.7713966890249732,
                1.5619476861680042,
                1.8990852125638769,
                -1.9192791162980583,
                0.06629622617210419
            ]
        },
        {
            "positions": [
                -0.7425755189912868,
                -0.8151258197718229,
                1.6002603418019623,
                1.8513179702074634,
                -1.7889317016171566,
                0.15574656701136216
            ]
        },
        {
            "positions": [
                -0.7489002984427202,
                -0.8588549505186727,
                1.6385729974359204,
                1.8035507278510496,
                -1.658584286936255,
                0.24519690785062015
            ]
        },
        {
            "positions": [
                -0.7552250778941535,
                -0.9025840812655224,
                1.6768856530698788,
                1.755783485494636,
                -1.5282368722553534,
                0.3346472486898781
            ]
        },
        {
            "positions": [
                -0.7615498573455869,
                -0.9463132120123723,
                1.7151983087038372,
                1.7080162431382224,
                -1.3978894575744516,
                0.4240975895291361
            ]
        },
        {
            "positions": [
                -0.7678746367970203,
                -0.990042342759222,
                1.7535109643377953,
                1.6602490007818087,
                -1.26754204289355,
                0.5135479303683941
            ]
        },
        {
            "positions": [
                -0.7843306739480094,
                -0.9965789658513355,
                1.766497934015682,
                1.5355200144846837,
                -1.1809382901139505,
                0.6449295226445895
            ]
        },
        {
            "positions": [
                -0.8007867110989985,
                -1.003115588943449,
                1.7794849036935687,
                1.4107910281875586,
                -1.0943345373343512,
                0.7763111149207849
            ]
        },
        {
            "positions": [
                -0.8172427482499875,
                -1.0096522120355627,
                1.7924718733714553,
                1.2860620418904338,
                -1.0077307845547516,
                0.90769270719698
            ]
        },
        {
            "positions": [
                -0.8336987854009765,
                -1.0161888351276762,
                1.805458843049342,
                1.1613330555933088,
                -0.9211270317751521,
                1.0390742994731754
            ]
        },
        {
            "positions": [
                -0.8501548225519656,
                -1.0227254582197898,
                1.8184458127272287,
                1.036604069296184,
                -0.8345232789955527,
                1.1704558917493708
            ]
        },
        {
            "positions": [
                -0.8666108597029547,
                -1.0292620813119033,
                1.8314327824051153,
                0.911875082999059,
                -0.7479195262159533,
                1.3018374840255662
            ]
        },
        {
            "positions": [
                -0.8830668968539438,
                -1.035798704404017,
                1.844419752083002,
                0.787146096701934,
                -0.6613157734363538,
                1.4332190763017616
            ]
        },
        {
            "positions": [
                -0.8995229340049329,
                -1.0423353274961304,
                1.8574067217608885,
                0.6624171104048089,
                -0.5747120206567542,
                1.564600668577957
            ]
        },
        {
            "positions": [
                -0.915978971155922,
                -1.048871950588244,
                1.8703936914387753,
                0.5376881241076841,
                -0.4881082678771548,
                1.6959822608541522
            ]
        },
        {
            "positions": [
                -0.9324350083069111,
                -1.0554085736803573,
                1.883380661116662,
                0.41295913781055904,
                -0.40150451509755536,
                1.8273638531303475
            ]
        },
        {
            "positions": [
                -0.9488910454579,
                -1.061945196772471,
                1.8963676307945485,
                0.288230151513434,
                -0.31490076231795583,
                1.958745445406543
            ]
        },
        {
            "positions": [
                -0.9653470826088891,
                -1.0684818198645845,
                1.9093546004724353,
                0.1635011652163092,
                -0.22829700953835652,
                2.090127037682738
            ]
        },
        {
            "positions": [
                -0.9818031197598782,
                -1.075018442956698,
                1.922341570150322,
                0.038772178919184164,
                -0.141693256758757,
                2.221508629958934
            ]
        },
        {
            "positions": [
                -0.9982591569108673,
                -1.0815550660488116,
                1.9353285398282085,
                -0.08595680737794065,
                -0.055089503979157683,
                2.352890222235129
            ]
        },
        {
            "positions": [
                -1.0147151940618564,
                -1.0880916891409251,
                1.9483155095060951,
                -0.2106857936750659,
                0.031514248800441846,
                2.4842718145113243
            ]
        },
        {
            "positions": [
                -1.0311712312128454,
                -1.0946283122330387,
                1.961302479183982,
                -0.33541477997219094,
                0.1181180015800416,
                2.61565340678752
            ]
        },
        {
            "positions": [
                -1.0476272683638346,
                -1.1011649353251522,
                1.9742894488618685,
                -0.4601437662693155,
                0.2047217543596409,
                2.7470349990637146
            ]
        },
        {
            "positions": [
                -1.0640833055148236,
                -1.1077015584172658,
                1.9872764185397551,
                -0.5848727525664406,
                0.29132550713924044,
                2.87841659133991
            ]
        },
        {
            "positions": [
                -1.0805393426658125,
                -1.1142381815093794,
                2.000263388217642,
                -0.7096017388635656,
                0.37792925991883974,
                3.0097981836161054
            ]
        },
        {
            "positions": [
                -1.0969953798168017,
                -1.120774804601493,
                2.0132503578955285,
                -0.8343307251606905,
                0.46453301269843916,
                3.141179775892301
            ]
        }
    ]
}