{
    "goal": {
        "global_pose": {
            "orientation": {
                "w": -0.4816463035849501,
                "x": 0.5182115481033762,
                "y": 0.4908360881923453,
                "z": -0.5084816262002911
            },
            "position": {
                "x": -0.8240239810943604,
                "y": -0.300875300988555,
                "z": 0.16403168439865112
            }
        },
        "name": "move_to_storage_C"
    },
    "id": "PRMstar_move_to_storage_C_39",
    "joint_names": [
        "shoulder_pan_joint",
        "shoulder_lift_joint",
        "elbow_joint",
        "wrist_1_joint",
        "wrist_2_joint",
        "wrist_3_joint"
    ],
    "metrics": {
        "cart_traj_len": 0.5767132031675217,
        "distance_elbow_joint": 0.2587533225340861,
        "distance_shoulder_lift_joint": 0.18998610809885752,
        "distance_shoulder_pan_joint": 0.49545518687284806,
        "distance_wrist_1_joint": 0.07820901702533123,
        "distance_wrist_2_joint": 1.058836894982698,
        "distance_wrist_3_joint": 0.05625131084263302,
        "smoothness": 2.5376526478085547e-16,
        "time": 5.0116562,
        "traj_len": 1.4620163611794685,
        "weighted_distance": 1.840391364370565
    },
    "planner": "PRMstar",
    "start": {
        "state": {
            "elbow_joint": 2.010868314990456,
            "shoulder_lift_joint": -1.1634956873337592,
            "shoulder_pan_joint": -2.4736205022346125,
            "wrist_1_joint": -0.8367026794202681,
            "wrist_2_joint": 0.6746043897044499,
            "wrist_3_joint": -3.1496632123970403
        }
    },
    "waypoints": [
        {
            "positions": [
                -2.4736205022346125,
                -1.1634956873337592,
                2.010868314990456,
                -0.8367026794202681,
                0.6746043897044499,
                -3.1496632123970403
            ]
        },
        {
            "positions": [
                -2.5561963667134204,
                -1.1318313359839496,
                1.9677427612347749,
                -0.8236678432493796,
                0.8510772055348996,
                -3.140287993923268
            ]
        },
        {
            "positions": [
                -2.6387722311922284,
                -1.10016698463414,
                1.9246172074790937,
                -0.8106330070784911,
                1.0275500213653492,
                -3.130912775449496
            ]
        },
        {
            "positions": [
                -2.7213480956710363,
                -1.0685026332843304,
                1.8814916537234128,
                -0.7975981709076025,
                1.204022837195799,
                -3.1215375569757238
            ]
        },
        {
            "positions": [
                -2.8039239601498447,
                -1.0368382819345208,
                1.8383660999677318,
                -0.7845633347367139,
                1.3804956530262484,
                -3.1121623385019515
            ]
        },
        {
            "positions": [
                -2.8864998246286526,
                -1.0051739305847112,
                1.7952405462120506,
                -0.7715284985658254,
                1.5569684688566983,
                -3.1027871200281796
            ]
        },
        {
            "positions": [
                -2.9690756891074606,
                -0.9735095792349017,
                1.7521149924563697,
                -0.7584936623949369,
                1.733441284687148,
                -3.0934119015544073
            ]
        }
    ]
}