{
    "goal": {
        "global_pose": {
            "orientation": {
                "w": -0.00223480608172531,
                "x": 0.0024358444001904467,
                "y": 0.7094548369677653,
                "z": -0.704743149386269
            },
            "position": {
                "x": -0.37947507619857795,
                "y": -0.6371506643295288,
                "z": 0.19426114857196808
            }
        },
        "name": "move_to_magneteinheit_C"
    },
    "id": "PRMstar_move_to_magneteinheit_C_130",
    "joint_names": [
        "shoulder_pan_joint",
        "shoulder_lift_joint",
        "elbow_joint",
        "wrist_1_joint",
        "wrist_2_joint",
        "wrist_3_joint"
    ],
    "metrics": {
        "cart_traj_len": 3.0844997057163193,
        "distance_elbow_joint": 1.2859728286117664,
        "distance_shoulder_lift_joint": 0.2538697418106244,
        "distance_shoulder_pan_joint": 3.6998259577578767,
        "distance_wrist_1_joint": 1.800472736554943,
        "distance_wrist_2_joint": 2.170680315478039,
        "distance_wrist_3_joint": 0.09924545066296275,
        "smoothness": 1.117315976635283,
        "time": 5.039125261000001,
        "traj_len": 3.0512402446998843,
        "weighted_distance": 3.6714725906964247
    },
    "planner": "PRMstar",
    "start": {
        "state": {
            "elbow_joint": 1.9565354010623817,
            "shoulder_lift_joint": -1.4165861575791021,
            "shoulder_pan_joint": -1.6717766225146293,
            "wrist_1_joint": -0.5286633292919765,
            "wrist_2_joint": 1.472756589071564,
            "wrist_3_joint": -3.1238370188695823
        }
    },
    "waypoints": [
        {
            "positions": [
                -1.6717766225146293,
                -1.4165861575791021,
                1.9565354010623817,
                -0.5286633292919765,
                1.472756589071564,
                -3.1238370188695823
            ]
        },
        {
            "positions": [
                -1.551031675896616,
                -1.412184244459925,
                1.9051942122862324,
                -0.4661621292631391,
                1.3490778365478473,
                -3.1295953151738543
            ]
        },
        {
            "positions": [
                -1.430286729278603,
                -1.407782331340748,
                1.8538530235100832,
                -0.40366092923430175,
                1.2253990840241304,
                -3.1353536114781257
            ]
        },
        {
            "positions": [
                -1.30954178266059,
                -1.403380418221571,
                1.802511834733934,
                -0.34115972920546445,
                1.1017203315004136,
                -3.1411119077823972
            ]
        },
        {
            "positions": [
                -1.1887968360425767,
                -1.398978505102394,
                1.7511706459577847,
                -0.2786585291766271,
                0.978041578976697,
                -3.146870204086669
            ]
        },
        {
            "positions": [
                -1.0680518894245634,
                -1.394576591983217,
                1.6998294571816355,
                -0.21615732914778973,
                0.8543628264529802,
                -3.152628500390941
            ]
        },
        {
            "positions": [
                -0.9473069428065504,
                -1.3901746788640401,
                1.6484882684054862,
                -0.15365612911895238,
                0.7306840739292635,
                -3.1583867966952126
            ]
        },
        {
            "positions": [
                -0.8265619961885372,
                -1.385772765744863,
                1.597147079629337,
                -0.09115492909011502,
                0.6070053214055467,
                -3.164145092999484
            ]
        },
        {
            "positions": [
                -0.705817049570524,
                -1.381370852625686,
                1.545805890853188,
                -0.028653729061277722,
                0.48332656888183,
                -3.169903389303756
            ]
        },
        {
            "positions": [
                -0.585072102952511,
                -1.376968939506509,
                1.4944647020770387,
                0.03384747096755969,
                0.3596478163581134,
                -3.175661685608028
            ]
        },
        {
            "positions": [
                -0.4643271563344977,
                -1.372567026387332,
                1.4431235133008893,
                0.09634867099639699,
                0.23596906383439653,
                -3.1814199819122995
            ]
        },
        {
            "positions": [
                -0.3435822097164847,
                -1.368165113268155,
                1.3917823245247403,
                0.1588498710252343,
                0.1122903113106799,
                -3.187178278216571
            ]
        },
        {
            "positions": [
                -0.22283726309847152,
                -1.363763200148978,
                1.340441135748591,
                0.22135107105407167,
                -0.011388441213037004,
                -3.192936574520843
            ]
        },
        {
            "positions": [
                -0.3959823860478345,
                -1.3482980628889394,
                1.3919702560022815,
                0.14054658365338743,
                0.04142196534030437,
                -3.1906176595199427
            ]
        },
        {
            "positions": [
                -0.5691275089971974,
                -1.3328329256289009,
                1.443499376255972,
                0.059742096252703186,
                0.09423237189364575,
                -3.1882987445190425
            ]
        },
        {
            "positions": [
                -0.7422726319465603,
                -1.3173677883688624,
                1.4950284965096623,
                -0.021062391147981058,
                0.14704277844698713,
                -3.1859798295181423
            ]
        },
        {
            "positions": [
                -0.9154177548959234,
                -1.301902651108824,
                1.5465576167633528,
                -0.1018668785486653,
                0.1998531850003285,
                -3.183660914517242
            ]
        },
        {
            "positions": [
                -1.0885628778452863,
                -1.2864375138487856,
                1.5980867370170433,
                -0.18267136594934955,
                0.2526635915536699,
                -3.181341999516342
            ]
        },
        {
            "positions": [
                -1.2617080007946493,
                -1.270972376588747,
                1.6496158572707338,
                -0.26347585335003376,
                0.30547399810701126,
                -3.1790230845154417
            ]
        },
        {
            "positions": [
                -1.4348531237440123,
                -1.2555072393287086,
                1.701144977524424,
                -0.3442803407507179,
                0.3582844046603526,
                -3.176704169514542
            ]
        },
        {
            "positions": [
                -1.6079982466933753,
                -1.24004210206867,
                1.7526740977781146,
                -0.42508482815140225,
                0.411094811213694,
                -3.1743852545136417
            ]
        },
        {
            "positions": [
                -1.781143369642738,
                -1.2245769648086315,
                1.804203218031805,
                -0.5058893155520864,
                0.46390521776703536,
                -3.1720663395127415
            ]
        },
        {
            "positions": [
                -1.954288492592101,
                -1.2091118275485933,
                1.8557323382854956,
                -0.5866938029527707,
                0.5167156243203768,
                -3.1697474245118413
            ]
        },
        {
            "positions": [
                -2.127433615541464,
                -1.1936466902885547,
                1.9072614585391858,
                -0.6674982903534549,
                0.569526030873718,
                -3.167428509510941
            ]
        },
        {
            "positions": [
                -2.300578738490827,
                -1.1781815530285162,
                1.9587905787928763,
                -0.7483027777541392,
                0.6223364374270595,
                -3.165109594510041
            ]
        },
        {
            "positions": [
                -2.47372386144019,
                -1.1627164157684777,
                2.010319699046567,
                -0.8291072651548234,
                0.6751468439804008,
                -3.1627906795091407
            ]
        }
    ]
}