{
    "goal": {
        "global_pose": {
            "orientation": {
                "w": 0.7031023502349854,
                "x": -0.7110244035720825,
                "y": 0.007748599164187908,
                "z": 0.005598929710686207
            },
            "position": {
                "x": 0.11585023208521307,
                "y": 0.44412534475326537,
                "z": 0.3711530566215515
            }
        },
        "name": "move_to_auspresseinheit_A"
    },
    "id": "PRMstar_move_to_auspresseinheit_A_111",
    "joint_names": [
        "shoulder_pan_joint",
        "shoulder_lift_joint",
        "elbow_joint",
        "wrist_1_joint",
        "wrist_2_joint",
        "wrist_3_joint"
    ],
    "metrics": {
        "cart_traj_len": 1.1585185393226836,
        "distance_elbow_joint": 0.11804544901418224,
        "distance_shoulder_lift_joint": 0.8388109693014321,
        "distance_shoulder_pan_joint": 2.868747055870079,
        "distance_wrist_1_joint": 1.6288047195470758,
        "distance_wrist_2_joint": 0.5162531473725743,
        "distance_wrist_3_joint": 0.8229395061977018,
        "smoothness": 1.134562128187128,
        "time": 5.026285821,
        "traj_len": 2.606453691762631,
        "weighted_distance": 3.253388652869205
    },
    "planner": "PRMstar",
    "start": {
        "state": {
            "elbow_joint": 2.4225746658250005,
            "shoulder_lift_joint": -1.3736534386056498,
            "shoulder_pan_joint": -0.3378633547517467,
            "wrist_1_joint": -1.0288598680537169,
            "wrist_2_joint": 1.233022673432363,
            "wrist_3_joint": -3.0940220416140027
        }
    },
    "waypoints": [
        {
            "positions": [
                -0.3378633547517467,
                -1.3736534386056498,
                2.4225746658250005,
                -1.0288598680537169,
                1.233022673432363,
                -3.0940220416140027
            ]
        },
        {
            "positions": [
                -0.4392272613584901,
                -1.4500333312802618,
                2.427660327056586,
                -0.9076531225240372,
                1.209342162836704,
                -3.0502063814939606
            ]
        },
        {
            "positions": [
                -0.5405911679652335,
                -1.5264132239548738,
                2.432745988288172,
                -0.7864463769943576,
                1.185661652241045,
                -3.006390721373919
            ]
        },
        {
            "positions": [
                -0.6419550745719769,
                -1.602793116629486,
                2.4378316495197576,
                -0.665239631464678,
                1.1619811416453858,
                -2.962575061253877
            ]
        },
        {
            "positions": [
                -0.7433189811787203,
                -1.679173009304098,
                2.4429173107513433,
                -0.5440328859349983,
                1.1383006310497268,
                -2.918759401133835
            ]
        },
        {
            "positions": [
                -0.8446828877854637,
                -1.75555290197871,
                2.448002971982929,
                -0.42282614040531863,
                1.1146201204540678,
                -2.874943741013793
            ]
        },
        {
            "positions": [
                -0.9460467943922071,
                -1.831932794653322,
                2.4530886332145148,
                -0.30161939487563905,
                1.0909396098584088,
                -2.8311280808937513
            ]
        },
        {
            "positions": [
                -1.0474107009989506,
                -1.9083126873279341,
                2.4581742944461005,
                -0.18041264934595935,
                1.0672590992627495,
                -2.787312420773709
            ]
        },
        {
            "positions": [
                -1.148774607605694,
                -1.984692580002546,
                2.463259955677686,
                -0.05920590381627977,
                1.0435785886670905,
                -2.7434967606536675
            ]
        },
        {
            "positions": [
                -1.2501385142124373,
                -2.061072472677158,
                2.468345616909272,
                0.06200084171339995,
                1.0198980780714315,
                -2.6996811005336254
            ]
        },
        {
            "positions": [
                -1.0327527479447274,
                -2.0442511465404998,
                2.460315117139282,
                0.0022292850711822312,
                0.9862171278479156,
                -2.7473031633244394
            ]
        },
        {
            "positions": [
                -0.8153669816770176,
                -2.027429820403842,
                2.452284617369292,
                -0.05754227157103549,
                0.9525361776243998,
                -2.7949252261152533
            ]
        },
        {
            "positions": [
                -0.5979812154093078,
                -2.0106084942671836,
                2.444254117599302,
                -0.1173138282132532,
                0.9188552274008839,
                -2.842547288906067
            ]
        },
        {
            "positions": [
                -0.38059544914159793,
                -1.9937871681305253,
                2.4362236178293117,
                -0.17708538485547093,
                0.8851742771773681,
                -2.8901693516968807
            ]
        },
        {
            "positions": [
                -0.16320968287388804,
                -1.9769658419938672,
                2.4281931180593213,
                -0.23685694149768868,
                0.8514933269538522,
                -2.9377914144876947
            ]
        },
        {
            "positions": [
                0.05417608339382163,
                -1.9601445158572088,
                2.420162618289331,
                -0.2966284981399063,
                0.8178123767303364,
                -2.9854134772785086
            ]
        },
        {
            "positions": [
                0.27156184966153174,
                -1.9433231897205507,
                2.412132118519341,
                -0.3564000547821241,
                0.7841314265068204,
                -3.0330355400693225
            ]
        },
        {
            "positions": [
                0.4889476159292414,
                -1.9265018635838924,
                2.404101618749351,
                -0.4161716114243418,
                0.7504504762833046,
                -3.080657602860136
            ]
        },
        {
            "positions": [
                0.7063333821969513,
                -1.9096805374472343,
                2.396071118979361,
                -0.47594316806655956,
                0.7167695260597887,
                -3.12827966565095
            ]
        }
    ]
}