{
    "goal": {
        "global_pose": {
            "orientation": {
                "w": 0.5084816262002911,
                "x": -0.4908360881923452,
                "y": 0.5182115481033761,
                "z": -0.48164630358495003
            },
            "position": {
                "x": 0.5540239810943604,
                "y": -0.46912469901144505,
                "z": 0.16403168439865112
            }
        },
        "name": "move_to_storage_B"
    },
    "id": "PRMstar_move_to_storage_B_115",
    "joint_names": [
        "shoulder_pan_joint",
        "shoulder_lift_joint",
        "elbow_joint",
        "wrist_1_joint",
        "wrist_2_joint",
        "wrist_3_joint"
    ],
    "metrics": {
        "cart_traj_len": 0.6598624192188972,
        "distance_elbow_joint": 0.3505928140975323,
        "distance_shoulder_lift_joint": 0.4595337058664122,
        "distance_shoulder_pan_joint": 0.1806009779843475,
        "distance_wrist_1_joint": 3.1431623006478535,
        "distance_wrist_2_joint": 2.8079299706648184,
        "distance_wrist_3_joint": 3.358215689350541,
        "smoothness": 0.4961660129257564,
        "time": 5.068489541,
        "traj_len": 3.2093668314188553,
        "weighted_distance": 4.792448133117902
    },
    "planner": "PRMstar",
    "start": {
        "state": {
            "elbow_joint": 1.664937868594044,
            "shoulder_lift_joint": -0.661644460510453,
            "shoulder_pan_joint": -0.9139846352900073,
            "wrist_1_joint": 2.146753192139373,
            "wrist_2_joint": -2.2341966793290973,
            "wrist_3_joint": 0.005466555786416001
        }
    },
    "waypoints": [
        {
            "positions": [
                -0.9139846352900073,
                -0.661644460510453,
                1.664937868594044,
                2.146753192139373,
                -2.2341966793290973,
                0.005466555786416001
            ]
        },
        {
            "positions": [
                -0.9246256201450256,
                -0.699067927692097,
                1.7387003210260805,
                2.1867057728574513,
                -2.2566588762427315,
                0.06095309549841045
            ]
        },
        {
            "positions": [
                -0.9352666050000438,
                -0.7364913948737409,
                1.8124627734581173,
                2.2266583535755293,
                -2.2791210731563654,
                0.1164396352104049
            ]
        },
        {
            "positions": [
                -0.9416393653310162,
                -0.7518788657338659,
                1.8205854898274556,
                2.1041280680070615,
                -2.1686008500828633,
                -0.013450069186657171
            ]
        },
        {
            "positions": [
                -0.9480121256619887,
                -0.7672663365939909,
                1.828708206196794,
                1.9815977824385935,
                -2.0580806270093612,
                -0.14333977358371924
            ]
        },
        {
            "positions": [
                -0.9543848859929611,
                -0.7826538074541158,
                1.8368309225661323,
                1.8590674968701255,
                -1.9475604039358594,
                -0.2732294779807813
            ]
        },
        {
            "positions": [
                -0.9607576463239336,
                -0.7980412783142408,
                1.8449536389354708,
                1.7365372113016577,
                -1.8370401808623573,
                -0.4031191823778434
            ]
        },
        {
            "positions": [
                -0.967130406654906,
                -0.8134287491743658,
                1.853076355304809,
                1.6140069257331897,
                -1.7265199577888555,
                -0.5330088867749055
            ]
        },
        {
            "positions": [
                -0.9735031669858785,
                -0.8288162200344907,
                1.8611990716741476,
                1.491476640164722,
                -1.6159997347153534,
                -0.6628985911719675
            ]
        },
        {
            "positions": [
                -0.9798759273168509,
                -0.8442036908946158,
                1.8693217880434858,
                1.368946354596254,
                -1.5054795116418513,
                -0.7927882955690297
            ]
        },
        {
            "positions": [
                -0.9862486876478233,
                -0.8595911617547407,
                1.877444504412824,
                1.2464160690277861,
                -1.3949592885683493,
                -0.9226779999660917
            ]
        },
        {
            "positions": [
                -0.9926214479787957,
                -0.8749786326148656,
                1.8855672207821625,
                1.123885783459318,
                -1.2844390654948474,
                -1.0525677043631538
            ]
        },
        {
            "positions": [
                -0.9989942083097682,
                -0.8903661034749907,
                1.8936899371515008,
                1.00135549789085,
                -1.1739188424213454,
                -1.182457408760216
            ]
        },
        {
            "positions": [
                -1.0053669686407407,
                -0.9057535743351156,
                1.9018126535208393,
                0.8788252123223823,
                -1.0633986193478433,
                -1.312347113157278
            ]
        },
        {
            "positions": [
                -1.0117397289717132,
                -0.9211410451952405,
                1.9099353698901775,
                0.7562949267539145,
                -0.9528783962743415,
                -1.4422368175543399
            ]
        },
        {
            "positions": [
                -1.0181124893026854,
                -0.9365285160553656,
                1.918058086259516,
                0.6337646411854463,
                -0.8423581732008394,
                -1.5721265219514022
            ]
        },
        {
            "positions": [
                -1.024485249633658,
                -0.9519159869154905,
                1.9261808026288543,
                0.5112343556169783,
                -0.7318379501273373,
                -1.7020162263484644
            ]
        },
        {
            "positions": [
                -1.0308580099646303,
                -0.9673034577756154,
                1.9343035189981928,
                0.3887040700485107,
                -0.6213177270538355,
                -1.831905930745526
            ]
        },
        {
            "positions": [
                -1.0372307702956027,
                -0.9826909286357405,
                1.942426235367531,
                0.2661737844800427,
                -0.5107975039803334,
                -1.9617956351425883
            ]
        },
        {
            "positions": [
                -1.0436035306265752,
                -0.9980783994958655,
                1.9505489517368693,
                0.14364349891157469,
                -0.40027728090683135,
                -2.0916853395396506
            ]
        },
        {
            "positions": [
                -1.0499762909575476,
                -1.0134658703559905,
                1.9586716681062077,
                0.021113213343106896,
                -0.2897570578333295,
                -2.2215750439367126
            ]
        },
        {
            "positions": [
                -1.05634905128852,
                -1.0288533412161154,
                1.966794384475546,
                -0.1014170722253609,
                -0.17923683475982743,
                -2.3514647483337745
            ]
        },
        {
            "positions": [
                -1.0627218116194925,
                -1.0442408120762403,
                1.9749171008448845,
                -0.22394735779382913,
                -0.06871661168632537,
                -2.481354452730837
            ]
        },
        {
            "positions": [
                -1.069094571950465,
                -1.0596282829363652,
                1.9830398172142227,
                -0.3464776433622969,
                0.041803611387176254,
                -2.6112441571278984
            ]
        },
        {
            "positions": [
                -1.0754673322814374,
                -1.0750157537964902,
                1.9911625335835612,
                -0.4690079289307647,
                0.15232383446067876,
                -2.7411338615249607
            ]
        },
        {
            "positions": [
                -1.0818400926124099,
                -1.0904032246566153,
                1.9992852499528995,
                -0.5915382144992329,
                0.26284405753418083,
                -2.871023565922023
            ]
        },
        {
            "positions": [
                -1.0882128529433823,
                -1.1057906955167403,
                2.007407966322238,
                -0.7140685000677003,
                0.37336428060768245,
                -3.0009132703190846
            ]
        },
        {
            "positions": [
                -1.0945856132743548,
                -1.1211781663768652,
                2.015530682691576,
                -0.8365987856361686,
                0.48388450368118474,
                -3.130802974716147
            ]
        }
    ]
}