{
    "goal": {
        "global_pose": {
            "orientation": {
                "w": 0.5084816262002911,
                "x": -0.4908360881923452,
                "y": 0.5182115481033761,
                "z": -0.48164630358495003
            },
            "position": {
                "x": 0.5540239810943604,
                "y": -0.46912469901144505,
                "z": 0.16403168439865112
            }
        },
        "name": "move_to_storage_B"
    },
    "id": "PRMstar_move_to_storage_B_63",
    "joint_names": [
        "shoulder_pan_joint",
        "shoulder_lift_joint",
        "elbow_joint",
        "wrist_1_joint",
        "wrist_2_joint",
        "wrist_3_joint"
    ],
    "metrics": {
        "cart_traj_len": 1.3702345645797789,
        "distance_elbow_joint": 0.3578283718340938,
        "distance_shoulder_lift_joint": 0.461996578747778,
        "distance_shoulder_pan_joint": 1.6158958869567022,
        "distance_wrist_1_joint": 3.0143395835456053,
        "distance_wrist_2_joint": 2.7114751961886947,
        "distance_wrist_3_joint": 3.154932700331496,
        "smoothness": 0.11942248651041111,
        "time": 5.044481682000001,
        "traj_len": 3.363995885491594,
        "weighted_distance": 4.832406077514768
    },
    "planner": "PRMstar",
    "start": {
        "state": {
            "elbow_joint": 1.664937868594044,
            "shoulder_lift_joint": -0.661644460510453,
            "shoulder_pan_joint": -0.9139846352900073,
            "wrist_1_joint": 2.146753192139373,
            "wrist_2_joint": -2.2341966793290973,
            "wrist_3_joint": 0.005466555786416001
        }
    },
    "waypoints": [
        {
            "positions": [
                -0.9139846352900073,
                -0.661644460510453,
                1.664937868594044,
                2.146753192139373,
                -2.2341966793290973,
                0.005466555786416001
            ]
        },
        {
            "positions": [
                -0.8243914013538914,
                -0.6864277182461889,
                1.689548180184739,
                2.0227018476782552,
                -2.126058182737485,
                0.02267518263880137
            ]
        },
        {
            "positions": [
                -0.7347981674177756,
                -0.7112109759819247,
                1.7141584917754342,
                1.8986505032171368,
                -2.0179196861458726,
                0.03988380949118674
            ]
        },
        {
            "positions": [
                -0.6452049334816599,
                -0.7359942337176606,
                1.7387688033661293,
                1.7745991587560186,
                -1.9097811895542605,
                0.05709243634357211
            ]
        },
        {
            "positions": [
                -0.555611699545544,
                -0.7607774914533965,
                1.7633791149568245,
                1.6505478142949004,
                -1.8016426929626481,
                0.07430106319595749
            ]
        },
        {
            "positions": [
                -0.4660184656094281,
                -0.7855607491891323,
                1.7879894265475196,
                1.5264964698337822,
                -1.6935041963710358,
                0.09150969004834286
            ]
        },
        {
            "positions": [
                -0.3764252316733123,
                -0.8103440069248682,
                1.8125997381382146,
                1.402445125372664,
                -1.5853656997794237,
                0.10871831690072822
            ]
        },
        {
            "positions": [
                -0.2868319977371965,
                -0.835127264660604,
                1.8372100497289099,
                1.2783937809115458,
                -1.4772272031878113,
                0.1259269437531136
            ]
        },
        {
            "positions": [
                -0.19723876380108063,
                -0.8599105223963399,
                1.861820361319605,
                1.1543424364504276,
                -1.369088706596199,
                0.14313557060549897
            ]
        },
        {
            "positions": [
                -0.24005543120430803,
                -0.8724691184373824,
                1.8694844508009636,
                1.0580601113143961,
                -1.2811664578602087,
                0.2868147937251377
            ]
        },
        {
            "positions": [
                -0.2828720986075354,
                -0.8850277144784248,
                1.8771485402823223,
                0.9617777861783647,
                -1.1932442091242184,
                0.4304940168447764
            ]
        },
        {
            "positions": [
                -0.3256887660107628,
                -0.8975863105194672,
                1.8848126297636811,
                0.8654954610423333,
                -1.105321960388228,
                0.5741732399644152
            ]
        },
        {
            "positions": [
                -0.3685054334139902,
                -0.9101449065605096,
                1.8924767192450398,
                0.7692131359063019,
                -1.0173997116522377,
                0.7178524630840538
            ]
        },
        {
            "positions": [
                -0.41132210081721765,
                -0.9227035026015521,
                1.9001408087263985,
                0.6729308107702705,
                -0.9294774629162474,
                0.8615316862036926
            ]
        },
        {
            "positions": [
                -0.454138768220445,
                -0.9352620986425945,
                1.9078048982077571,
                0.5766484856342391,
                -0.841555214180257,
                1.0052109093233312
            ]
        },
        {
            "positions": [
                -0.4969554356236724,
                -0.9478206946836369,
                1.9154689876891158,
                0.4803661604982077,
                -0.7536329654442667,
                1.1488901324429701
            ]
        },
        {
            "positions": [
                -0.5397721030268998,
                -0.9603792907246793,
                1.9231330771704744,
                0.3840838353621763,
                -0.6657107167082764,
                1.2925693555626085
            ]
        },
        {
            "positions": [
                -0.5825887704301271,
                -0.9729378867657218,
                1.9307971666518333,
                0.28780151022614486,
                -0.5777884679722861,
                1.4362485786822474
            ]
        },
        {
            "positions": [
                -0.6254054378333547,
                -0.9854964828067643,
                1.938461256133192,
                0.19151918509011345,
                -0.4898662192362958,
                1.5799278018018863
            ]
        },
        {
            "positions": [
                -0.668222105236582,
                -0.9980550788478066,
                1.9461253456145506,
                0.09523685995408204,
                -0.4019439705003053,
                1.7236070249215252
            ]
        },
        {
            "positions": [
                -0.7110387726398094,
                -1.010613674888849,
                1.9537894350959093,
                -0.0010454651819493677,
                -0.3140217217643151,
                1.8672862480411636
            ]
        },
        {
            "positions": [
                -0.7538554400430368,
                -1.0231722709298916,
                1.961453524577268,
                -0.09732779031798078,
                -0.22609947302832478,
                2.0109654711608025
            ]
        },
        {
            "positions": [
                -0.7966721074462642,
                -1.035730866970934,
                1.9691176140586268,
                -0.1936101154540122,
                -0.13817722429233448,
                2.154644694280441
            ]
        },
        {
            "positions": [
                -0.8394887748494917,
                -1.0482894630119763,
                1.9767817035399855,
                -0.2898924405900436,
                -0.05025497555634395,
                2.29832391740008
            ]
        },
        {
            "positions": [
                -0.882305442252719,
                -1.060848059053019,
                1.9844457930213442,
                -0.386174765726075,
                0.03766727317964613,
                2.4420031405197182
            ]
        },
        {
            "positions": [
                -0.9251221096559464,
                -1.0734066550940613,
                1.9921098825027028,
                -0.4824570908621064,
                0.12558952191563666,
                2.585682363639357
            ]
        },
        {
            "positions": [
                -0.9679387770591737,
                -1.0859652511351037,
                1.9997739719840615,
                -0.5787394159981378,
                0.21351177065162674,
                2.729361586758996
            ]
        },
        {
            "positions": [
                -1.0107554444624012,
                -1.098523847176146,
                2.0074380614654204,
                -0.6750217411341692,
                0.30143401938761727,
                2.873040809878635
            ]
        },
        {
            "positions": [
                -1.0535721118656287,
                -1.1110824432171886,
                2.015102150946779,
                -0.7713040662702007,
                0.38935626812360735,
                3.0167200329982733
            ]
        },
        {
            "positions": [
                -1.096388779268856,
                -1.123641039258231,
                2.0227662404281377,
                -0.8675863914062321,
                0.4772785168595979,
                3.160399256117912
            ]
        }
    ]
}