{
    "goal": {
        "global_pose": {
            "orientation": {
                "w": 0.5084816262002911,
                "x": -0.4908360881923452,
                "y": 0.5182115481033761,
                "z": -0.48164630358495003
            },
            "position": {
                "x": 0.5540239810943604,
                "y": -0.46912469901144505,
                "z": 0.16403168439865112
            }
        },
        "name": "move_to_storage_B"
    },
    "id": "PRMstar_move_to_storage_B_67",
    "joint_names": [
        "shoulder_pan_joint",
        "shoulder_lift_joint",
        "elbow_joint",
        "wrist_1_joint",
        "wrist_2_joint",
        "wrist_3_joint"
    ],
    "metrics": {
        "cart_traj_len": 0.7897856416802753,
        "distance_elbow_joint": 0.7133846873183489,
        "distance_shoulder_lift_joint": 0.47899918966598953,
        "distance_shoulder_pan_joint": 0.49664350143667246,
        "distance_wrist_1_joint": 2.982884442594722,
        "distance_wrist_2_joint": 2.7069119862294517,
        "distance_wrist_3_joint": 3.145204029500487,
        "smoothness": 0.23019211271166543,
        "time": 5.040517337,
        "traj_len": 3.244075806257565,
        "weighted_distance": 4.743862595456451
    },
    "planner": "PRMstar",
    "start": {
        "state": {
            "elbow_joint": 1.664937868594044,
            "shoulder_lift_joint": -0.661644460510453,
            "shoulder_pan_joint": -0.9139846352900073,
            "wrist_1_joint": 2.146753192139373,
            "wrist_2_joint": -2.2341966793290973,
            "wrist_3_joint": 0.005466555786416001
        }
    },
    "waypoints": [
        {
            "positions": [
                -0.9139846352900073,
                -0.661644460510453,
                1.664937868594044,
                2.146753192139373,
                -2.2341966793290973,
                0.005466555786416001
            ]
        },
        {
            "positions": [
                -0.8436038307050606,
                -0.6515584438585612,
                1.6950502039462585,
                2.144584826698802,
                -2.2243057136946036,
                0.0782348610746178
            ]
        },
        {
            "positions": [
                -0.8605463017801233,
                -0.6709656878410106,
                1.7201136785687823,
                2.044337095087653,
                -2.1150867942464484,
                0.1992684943678062
            ]
        },
        {
            "positions": [
                -0.877488772855186,
                -0.6903729318234599,
                1.7451771531913058,
                1.944089363476504,
                -2.005867874798293,
                0.32030212766099453
            ]
        },
        {
            "positions": [
                -0.8944312439302486,
                -0.7097801758059094,
                1.7702406278138296,
                1.843841631865355,
                -1.8966489553501378,
                0.4413357609541829
            ]
        },
        {
            "positions": [
                -0.9113737150053114,
                -0.7291874197883588,
                1.7953041024363532,
                1.7435939002542058,
                -1.7874300359019826,
                0.5623693942473713
            ]
        },
        {
            "positions": [
                -0.928316186080374,
                -0.7485946637708081,
                1.820367577058877,
                1.6433461686430568,
                -1.6782111164538271,
                0.6834030275405596
            ]
        },
        {
            "positions": [
                -0.9452586571554367,
                -0.7680019077532575,
                1.8454310516814005,
                1.5430984370319079,
                -1.568992197005672,
                0.8044366608337481
            ]
        },
        {
            "positions": [
                -0.9622011282304994,
                -0.7874091517357069,
                1.8704945263039243,
                1.4428507054207589,
                -1.4597732775575167,
                0.9254702941269364
            ]
        },
        {
            "positions": [
                -0.979143599305562,
                -0.8068163957181562,
                1.895558000926448,
                1.3426029738096097,
                -1.3505543581093615,
                1.0465039274201249
            ]
        },
        {
            "positions": [
                -0.9960860703806248,
                -0.8262236397006056,
                1.9206214755489717,
                1.2423552421984607,
                -1.241335438661206,
                1.1675375607133132
            ]
        },
        {
            "positions": [
                -1.0130285414556874,
                -0.8456308836830551,
                1.9456849501714952,
                1.1421075105873117,
                -1.132116519213051,
                1.2885711940065014
            ]
        },
        {
            "positions": [
                -1.0299710125307502,
                -0.8650381276655044,
                1.970748424794019,
                1.0418597789761626,
                -1.0228975997648955,
                1.40960482729969
            ]
        },
        {
            "positions": [
                -1.0469134836058127,
                -0.8844453716479538,
                1.9958118994165428,
                0.9416120473650138,
                -0.9136786803167405,
                1.5306384605928782
            ]
        },
        {
            "positions": [
                -1.0638559546808755,
                -0.9038526156304032,
                2.0208753740390666,
                0.8413643157538646,
                -0.8044597608685851,
                1.6516720938860665
            ]
        },
        {
            "positions": [
                -1.0807984257559382,
                -0.9232598596128525,
                2.04593884866159,
                0.7411165841427159,
                -0.6952408414204299,
                1.7727057271792548
            ]
        },
        {
            "positions": [
                -1.097740896831001,
                -0.9426671035953019,
                2.0710023232841137,
                0.6408688525315667,
                -0.5860219219722747,
                1.8937393604724433
            ]
        },
        {
            "positions": [
                -1.1146833679060635,
                -0.9620743475777513,
                2.0960657979066375,
                0.5406211209204175,
                -0.4768030025241192,
                2.014772993765632
            ]
        },
        {
            "positions": [
                -1.1316258389811262,
                -0.9814815915602007,
                2.1211292725291613,
                0.4403733893092687,
                -0.367584083075964,
                2.13580662705882
            ]
        },
        {
            "positions": [
                -1.148568310056189,
                -1.00088883554265,
                2.1461927471516846,
                0.34012565769811953,
                -0.2583651636278086,
                2.256840260352009
            ]
        },
        {
            "positions": [
                -1.1655107811312515,
                -1.0202960795250995,
                2.1712562217742084,
                0.23987792608697078,
                -0.1491462441796534,
                2.377873893645197
            ]
        },
        {
            "positions": [
                -1.1824532522063143,
                -1.0397033235075488,
                2.196319696396732,
                0.1396301944758215,
                -0.03992732473149832,
                2.4989075269383854
            ]
        },
        {
            "positions": [
                -1.169965641441961,
                -1.051241651131136,
                2.170319287894495,
                0.00023570234279723934,
                0.033307336930194845,
                2.592016535273888
            ]
        },
        {
            "positions": [
                -1.157478030677608,
                -1.0627799787547232,
                2.144318879392258,
                -0.13915878979022703,
                0.10654199859188801,
                2.68512554360939
            ]
        },
        {
            "positions": [
                -1.1449904199132548,
                -1.0743183063783104,
                2.1183184708900207,
                -0.27855328192325124,
                0.1797766602535812,
                2.7782345519448928
            ]
        },
        {
            "positions": [
                -1.1325028091489016,
                -1.0858566340018974,
                2.092318062387783,
                -0.4179477740562756,
                0.2530113219152743,
                2.8713435602803954
            ]
        },
        {
            "positions": [
                -1.1200151983845483,
                -1.0973949616254846,
                2.066317653885546,
                -0.5573422661892999,
                0.32624598357696755,
                2.964452568615898
            ]
        },
        {
            "positions": [
                -1.1075275876201953,
                -1.1089332892490718,
                2.0403172453833087,
                -0.6967367583223241,
                0.39948064523866067,
                3.0575615769514
            ]
        },
        {
            "positions": [
                -1.095039976855842,
                -1.120471616872659,
                2.0143168368810715,
                -0.8361312504553484,
                0.47271530690035385,
                3.150670585286903
            ]
        }
    ]
}