{
    "goal": {
        "global_pose": {
            "orientation": {
                "w": 0.7047431468963623,
                "x": -0.7094548344612122,
                "y": 0.0024358443915843964,
                "z": -0.0022348060738295317
            },
            "position": {
                "x": 0.6094750761985779,
                "y": 0.3671506643295288,
                "z": 0.19426114857196808
            }
        },
        "name": "move_to_magneteinheit_A"
    },
    "id": "PRMstar_move_to_magneteinheit_A_73",
    "joint_names": [
        "shoulder_pan_joint",
        "shoulder_lift_joint",
        "elbow_joint",
        "wrist_1_joint",
        "wrist_2_joint",
        "wrist_3_joint"
    ],
    "metrics": {
        "cart_traj_len": 3.420126202541368,
        "distance_elbow_joint": 3.8718770244054044,
        "distance_shoulder_lift_joint": 0.6207530720067038,
        "distance_shoulder_pan_joint": 2.8015686949473637,
        "distance_wrist_1_joint": 1.0461254120984673,
        "distance_wrist_2_joint": 1.9155546959192815,
        "distance_wrist_3_joint": 2.5789342768989476,
        "smoothness": 0.34351835507330003,
        "time": 5.074986774999999,
        "traj_len": 3.5825707496539647,
        "weighted_distance": 4.577593454872528
    },
    "planner": "PRMstar",
    "start": {
        "state": {
            "elbow_joint": -1.9196185241190666,
            "shoulder_lift_joint": -1.2443396400964142,
            "shoulder_pan_joint": 2.6996025414629847,
            "wrist_1_joint": -1.5485510000780065,
            "wrist_2_joint": -1.5709468930060704,
            "wrist_3_joint": 0.4420197071253992
        }
    },
    "waypoints": [
        {
            "positions": [
                2.6996025414629847,
                -1.2443396400964142,
                -1.9196185241190666,
                -1.5485510000780065,
                -1.5709468930060704,
                0.4420197071253992
            ]
        },
        {
            "positions": [
                2.571545982706042,
                -1.2506926613985057,
                -1.8364779779820073,
                -1.4855508558155142,
                -1.5483593736793497,
                0.5149137110835074
            ]
        },
        {
            "positions": [
                2.443489423949099,
                -1.2570456827005971,
                -1.753337431844948,
                -1.4225507115530216,
                -1.5257718543526293,
                0.5878077150416156
            ]
        },
        {
            "positions": [
                2.3154328651921556,
                -1.2633987040026884,
                -1.6701968857078888,
                -1.3595505672905293,
                -1.5031843350259086,
                0.6607017189997236
            ]
        },
        {
            "positions": [
                2.1873763064352127,
                -1.2697517253047799,
                -1.5870563395708295,
                -1.296550423028037,
                -1.480596815699188,
                0.7335957229578318
            ]
        },
        {
            "positions": [
                2.05931974767827,
                -1.2761047466068713,
                -1.5039157934337704,
                -1.2335502787655446,
                -1.4580092963724673,
                0.80648972691594
            ]
        },
        {
            "positions": [
                1.931263188921327,
                -1.2824577679089628,
                -1.420775247296711,
                -1.1705501345030522,
                -1.435421777045747,
                0.8793837308740482
            ]
        },
        {
            "positions": [
                1.803206630164384,
                -1.2888107892110543,
                -1.3376347011596517,
                -1.1075499902405597,
                -1.4128342577190263,
                0.9522777348321564
            ]
        },
        {
            "positions": [
                1.675150071407441,
                -1.2951638105131458,
                -1.2544941550225923,
                -1.0445498459780673,
                -1.3902467383923056,
                1.0251717387902646
            ]
        },
        {
            "positions": [
                1.5470935126504979,
                -1.301516831815237,
                -1.171353608885533,
                -0.9815497017155749,
                -1.367659219065585,
                1.0980657427483727
            ]
        },
        {
            "positions": [
                1.4190369538935552,
                -1.3078698531173285,
                -1.0882130627484738,
                -0.9185495574530825,
                -1.3450716997388645,
                1.170959746706481
            ]
        },
        {
            "positions": [
                1.2909803951366121,
                -1.31422287441942,
                -1.0050725166114145,
                -0.8555494131905901,
                -1.3224841804121439,
                1.243853750664589
            ]
        },
        {
            "positions": [
                1.2156706419465013,
                -1.306454008375094,
                -0.8696916022214776,
                -0.8420712324215982,
                -1.2581351566681038,
                1.3327288571400275
            ]
        },
        {
            "positions": [
                1.1403608887563905,
                -1.2986851423307681,
                -0.7343106878315406,
                -0.8285930516526062,
                -1.193786132924064,
                1.421603963615466
            ]
        },
        {
            "positions": [
                1.0650511355662797,
                -1.2909162762864421,
                -0.5989297734416038,
                -0.8151148708836143,
                -1.129437109180024,
                1.5104790700909048
            ]
        },
        {
            "positions": [
                0.9897413823761689,
                -1.2831474102421163,
                -0.4635488590516669,
                -0.8016366901146224,
                -1.065088085435984,
                1.5993541765663433
            ]
        },
        {
            "positions": [
                0.9144316291860581,
                -1.2753785441977903,
                -0.32816794466173005,
                -0.7881585093456305,
                -1.000739061691944,
                1.6882292830417818
            ]
        },
        {
            "positions": [
                0.8391218759959472,
                -1.2676096781534645,
                -0.19278703027179311,
                -0.7746803285766385,
                -0.936390037947904,
                1.7771043895172203
            ]
        },
        {
            "positions": [
                0.7638121228058364,
                -1.2598408121091385,
                -0.05740611588185629,
                -0.7612021478076466,
                -0.8720410142038642,
                1.8659794959926588
            ]
        },
        {
            "positions": [
                0.6885023696157256,
                -1.2520719460648126,
                0.07797479850808076,
                -0.7477239670386546,
                -0.8076919904598242,
                1.9548546024680973
            ]
        },
        {
            "positions": [
                0.6131926164256148,
                -1.2443030800204866,
                0.21335571289801747,
                -0.7342457862696627,
                -0.7433429667157841,
                2.043729708943536
            ]
        },
        {
            "positions": [
                0.537882863235504,
                -1.2365342139761608,
                0.3487366272879544,
                -0.7207676055006708,
                -0.6789939429717442,
                2.1326048154189747
            ]
        },
        {
            "positions": [
                0.46257311004539314,
                -1.2287653479318348,
                0.48411754167789134,
                -0.7072894247316789,
                -0.6146449192277043,
                2.221479921894413
            ]
        },
        {
            "positions": [
                0.38726335685528235,
                -1.220996481887509,
                0.6194984560678283,
                -0.6938112439626869,
                -0.5502958954836642,
                2.3103550283698517
            ]
        },
        {
            "positions": [
                0.31195360366517166,
                -1.213227615843183,
                0.754879370457765,
                -0.680333063193695,
                -0.48594687173962436,
                2.39923013484529
            ]
        },
        {
            "positions": [
                0.23664385047506076,
                -1.2054587497988571,
                0.8902602848477019,
                -0.6668548824247031,
                -0.4215978479955844,
                2.4881052413207287
            ]
        },
        {
            "positions": [
                0.16133409728494996,
                -1.1976898837545311,
                1.0256411992376389,
                -0.6533767016557112,
                -0.3572488242515445,
                2.576980347796167
            ]
        },
        {
            "positions": [
                0.08602434409483917,
                -1.1899210177102053,
                1.161022113627576,
                -0.6398985208867192,
                -0.2928998005075045,
                2.6658554542716058
            ]
        },
        {
            "positions": [
                0.010714590904728455,
                -1.1821521516658793,
                1.2964030280175127,
                -0.6264203401177273,
                -0.2285507767634645,
                2.7547305607470443
            ]
        },
        {
            "positions": [
                0.011173136412524369,
                -1.1229427102094676,
                1.4138351270298315,
                -0.6201275082550161,
                -0.11280350386731755,
                2.815109071562601
            ]
        },
        {
            "positions": [
                0.011631681920320283,
                -1.0637332687530558,
                1.53126722604215,
                -0.6138346763923048,
                0.002943769028829396,
                2.875487582378158
            ]
        },
        {
            "positions": [
                0.012090227428116197,
                -1.0045238272966441,
                1.6486993250544688,
                -0.6075418445295935,
                0.11869104192497634,
                2.9358660931937144
            ]
        },
        {
            "positions": [
                0.012548772935912111,
                -0.9453143858402324,
                1.7661314240667876,
                -0.6012490126668822,
                0.23443831482112326,
                2.996244604009271
            ]
        },
        {
            "positions": [
                0.06797205411487367,
                -1.0362950603924876,
                1.8591949621765629,
                -0.6506607250105537,
                0.17935357077507927,
                3.008599294016809
            ]
        },
        {
            "positions": [
                0.12339533529383524,
                -1.1272757349447429,
                1.9522585002863382,
                -0.7000724373542252,
                0.12426882672903526,
                3.020953984024347
            ]
        }
    ]
}