{
    "goal": {
        "global_pose": {
            "orientation": {
                "w": -0.4816463035849501,
                "x": 0.5182115481033762,
                "y": 0.4908360881923453,
                "z": -0.5084816262002911
            },
            "position": {
                "x": -0.8240239810943604,
                "y": -0.300875300988555,
                "z": 0.16403168439865112
            }
        },
        "name": "move_to_storage_C"
    },
    "id": "PRMstar_move_to_storage_C_150",
    "joint_names": [
        "shoulder_pan_joint",
        "shoulder_lift_joint",
        "elbow_joint",
        "wrist_1_joint",
        "wrist_2_joint",
        "wrist_3_joint"
    ],
    "metrics": {
        "cart_traj_len": 0.5767062259893101,
        "distance_elbow_joint": 0.2558733482310136,
        "distance_shoulder_lift_joint": 0.18845331885421268,
        "distance_shoulder_pan_joint": 0.49568764728904613,
        "distance_wrist_1_joint": 0.06778686871129935,
        "distance_wrist_2_joint": 1.0591690100678122,
        "distance_wrist_3_joint": 0.054673148017023276,
        "smoothness": 2.5376526478085547e-16,
        "time": 5.005166813,
        "traj_len": 1.4565861942124836,
        "weighted_distance": 1.8324697858310148
    },
    "planner": "PRMstar",
    "start": {
        "state": {
            "elbow_joint": 2.010868314990456,
            "shoulder_lift_joint": -1.1634956873337592,
            "shoulder_pan_joint": -2.4736205022346125,
            "wrist_1_joint": -0.8367026794202681,
            "wrist_2_joint": 0.6746043897044499,
            "wrist_3_joint": -3.1496632123970403
        }
    },
    "waypoints": [
        {
            "positions": [
                -2.4736205022346125,
                -1.1634956873337592,
                2.010868314990456,
                -0.8367026794202681,
                0.6746043897044499,
                -3.1496632123970403
            ]
        },
        {
            "positions": [
                -2.5562351101161203,
                -1.1320868008580571,
                1.9682227569519535,
                -0.8254048679683849,
                0.8511325580490853,
                -3.14055102106087
            ]
        },
        {
            "positions": [
                -2.638849717997628,
                -1.1006779143823548,
                1.9255771989134514,
                -0.8141070565165016,
                1.0276607263937207,
                -3.1314388297246993
            ]
        },
        {
            "positions": [
                -2.7214643258791353,
                -1.0692690279066528,
                1.882931640874949,
                -0.8028092450646185,
                1.204188894738356,
                -3.122326638388529
            ]
        },
        {
            "positions": [
                -2.804078933760643,
                -1.0378601414309507,
                1.8402860828364467,
                -0.7915114336127352,
                1.3807170630829915,
                -3.113214447052358
            ]
        },
        {
            "positions": [
                -2.886693541642151,
                -1.0064512549552487,
                1.7976405247979446,
                -0.780213622160852,
                1.5572452314276268,
                -3.1041022557161875
            ]
        },
        {
            "positions": [
                -2.9693081495236586,
                -0.9750423684795465,
                1.7549949667594422,
                -0.7689158107089687,
                1.733773399772262,
                -3.094990064380017
            ]
        }
    ]
}