{
    "goal": {
        "global_pose": {
            "orientation": {
                "w": -0.00223480608172531,
                "x": 0.0024358444001904467,
                "y": 0.7094548369677653,
                "z": -0.704743149386269
            },
            "position": {
                "x": 0.6205249238014221,
                "y": -0.6371506643295288,
                "z": 0.19426114857196808
            }
        },
        "name": "move_to_magneteinheit_B"
    },
    "id": "PRMstar_move_to_magneteinheit_B_67",
    "joint_names": [
        "shoulder_pan_joint",
        "shoulder_lift_joint",
        "elbow_joint",
        "wrist_1_joint",
        "wrist_2_joint",
        "wrist_3_joint"
    ],
    "metrics": {
        "cart_traj_len": 1.3534441984211096,
        "distance_elbow_joint": 0.9530251605449309,
        "distance_shoulder_lift_joint": 0.7522392128260098,
        "distance_shoulder_pan_joint": 1.6215421638920129,
        "distance_wrist_1_joint": 0.20115173576648404,
        "distance_wrist_2_joint": 1.8680294830794308,
        "distance_wrist_3_joint": 2.2835044509841986,
        "smoothness": 0.48172262519876574,
        "time": 5.024502496,
        "traj_len": 2.7711896736046535,
        "weighted_distance": 3.7836070525237395
    },
    "planner": "PRMstar",
    "start": {
        "state": {
            "elbow_joint": 2.6216224122426386,
            "shoulder_lift_joint": -1.4174107377796124,
            "shoulder_pan_joint": 0.7066234856936794,
            "wrist_1_joint": 1.9546482284002225,
            "wrist_2_joint": -0.7096286983471962,
            "wrist_3_joint": 0.005740856962016249
        }
    },
    "waypoints": [
        {
            "positions": [
                0.7066234856936794,
                -1.4174107377796124,
                2.6216224122426386,
                1.9546482284002225,
                -0.7096286983471962,
                0.005740856962016249
            ]
        },
        {
            "positions": [
                0.541551850987329,
                -1.411493193703035,
                2.6031286881260485,
                1.9765478726131485,
                -0.6899672456764225,
                0.13333815479901023
            ]
        },
        {
            "positions": [
                0.37648021628097866,
                -1.4055756496264578,
                2.5846349640094584,
                1.9984475168260742,
                -0.6703057930056489,
                0.2609354526360042
            ]
        },
        {
            "positions": [
                0.21140858157462827,
                -1.3996581055498807,
                2.5661412398928682,
                2.020347161039,
                -0.6506443403348752,
                0.3885327504729981
            ]
        },
        {
            "positions": [
                0.04633694686827794,
                -1.3937405614733034,
                2.547647515776278,
                2.042246805251926,
                -0.6309828876641015,
                0.5161300483099921
            ]
        },
        {
            "positions": [
                -0.11873468783807262,
                -1.387823017396726,
                2.529153791659688,
                2.064146449464852,
                -0.6113214349933278,
                0.643727346146986
            ]
        },
        {
            "positions": [
                -0.28380632254442284,
                -1.3819054733201488,
                2.510660067543098,
                2.086046093677778,
                -0.5916599823225541,
                0.7713246439839799
            ]
        },
        {
            "positions": [
                -0.4488779572507734,
                -1.3759879292435717,
                2.492166343426508,
                2.1079457378907036,
                -0.5719985296517804,
                0.898921941820974
            ]
        },
        {
            "positions": [
                -0.6139495919571235,
                -1.3700703851669944,
                2.4736726193099177,
                2.1298453821036296,
                -0.5523370769810068,
                1.026519239657968
            ]
        },
        {
            "positions": [
                -0.7790212266634742,
                -1.3641528410904171,
                2.4551788951933275,
                2.1517450263165556,
                -0.5326756243102331,
                1.154116537494962
            ]
        },
        {
            "positions": [
                -0.7903460142913792,
                -1.305904398079016,
                2.389630424902026,
                2.1520829378040682,
                -0.6735986583971054,
                1.059522473290691
            ]
        },
        {
            "positions": [
                -0.8016708019192841,
                -1.2476559550676147,
                2.3240819546107243,
                2.152420849291581,
                -0.8145216924839777,
                0.9649284090864199
            ]
        },
        {
            "positions": [
                -0.8129955895471891,
                -1.1894075120562135,
                2.2585334843194227,
                2.1527587607790934,
                -0.95544472657085,
                0.8703343448821488
            ]
        },
        {
            "positions": [
                -0.8243203771750941,
                -1.1311590690448123,
                2.192985014028121,
                2.153096672266606,
                -1.0963677606577222,
                0.7757402806778778
            ]
        },
        {
            "positions": [
                -0.835645164802999,
                -1.0729106260334111,
                2.1274365437368195,
                2.1534345837541187,
                -1.2372907947445948,
                0.6811462164736066
            ]
        },
        {
            "positions": [
                -0.846969952430904,
                -1.01466218302201,
                2.061888073445518,
                2.153772495241631,
                -1.378213828831467,
                0.5865521522693357
            ]
        },
        {
            "positions": [
                -0.858294740058809,
                -0.9564137400106085,
                1.996339603154216,
                2.1541104067291434,
                -1.5191368629183393,
                0.4919580880650646
            ]
        },
        {
            "positions": [
                -0.8696195276867139,
                -0.8981652969992074,
                1.9307911328629144,
                2.154448318216656,
                -1.6600598970052114,
                0.3973640238607936
            ]
        },
        {
            "positions": [
                -0.8809443153146189,
                -0.8399168539878061,
                1.8652426625716125,
                2.1547862297041687,
                -1.8009829310920837,
                0.30276995965652254
            ]
        },
        {
            "positions": [
                -0.8922691029425239,
                -0.7816684109764049,
                1.799694192280311,
                2.1551241411916813,
                -1.9419059651789563,
                0.20817589545225135
            ]
        },
        {
            "positions": [
                -0.9035938905704288,
                -0.7234199679650037,
                1.7341457219890093,
                2.155462052679194,
                -2.0828289992658284,
                0.11358183124798038
            ]
        },
        {
            "positions": [
                -0.9149186781983338,
                -0.6651715249536025,
                1.6685972516977077,
                2.1557999641667065,
                -2.2237520333527008,
                0.018987767043709212
            ]
        }
    ]
}