{
    "goal": {
        "global_pose": {
            "orientation": {
                "w": 0.7047431468963623,
                "x": -0.7094548344612122,
                "y": 0.0024358443915843964,
                "z": -0.0022348060738295317
            },
            "position": {
                "x": 0.6094750761985779,
                "y": 0.3671506643295288,
                "z": 0.19426114857196808
            }
        },
        "name": "move_to_magneteinheit_A"
    },
    "id": "PRMstar_move_to_magneteinheit_A_75",
    "joint_names": [
        "shoulder_pan_joint",
        "shoulder_lift_joint",
        "elbow_joint",
        "wrist_1_joint",
        "wrist_2_joint",
        "wrist_3_joint"
    ],
    "metrics": {
        "cart_traj_len": 3.78892225574948,
        "distance_elbow_joint": 3.8783720569019984,
        "distance_shoulder_lift_joint": 0.7205681192756372,
        "distance_shoulder_pan_joint": 3.1819305040181485,
        "distance_wrist_1_joint": 0.9495357463790982,
        "distance_wrist_2_joint": 1.8469432543990987,
        "distance_wrist_3_joint": 2.6509884190963504,
        "smoothness": 0.29367963344208053,
        "time": 5.037227711,
        "traj_len": 3.637078236726608,
        "weighted_distance": 4.618094189061243
    },
    "planner": "PRMstar",
    "start": {
        "state": {
            "elbow_joint": -1.9196185241190666,
            "shoulder_lift_joint": -1.2443396400964142,
            "shoulder_pan_joint": 2.6996025414629847,
            "wrist_1_joint": -1.5485510000780065,
            "wrist_2_joint": -1.5709468930060704,
            "wrist_3_joint": 0.4420197071253992
        }
    },
    "waypoints": [
        {
            "positions": [
                2.6996025414629847,
                -1.2443396400964142,
                -1.9196185241190666,
                -1.5485510000780065,
                -1.5709468930060704,
                0.4420197071253992
            ]
        },
        {
            "positions": [
                2.562517609934744,
                -1.2588192952786916,
                -1.8515252828338138,
                -1.5354774475259758,
                -1.5040769159089875,
                0.5291159166767714
            ]
        },
        {
            "positions": [
                2.4254326784065037,
                -1.2732989504609689,
                -1.783432041548561,
                -1.5224038949739451,
                -1.4372069388119044,
                0.6162121262281436
            ]
        },
        {
            "positions": [
                2.288347746878263,
                -1.2877786056432463,
                -1.715338800263308,
                -1.5093303424219144,
                -1.3703369617148216,
                0.7033083357795158
            ]
        },
        {
            "positions": [
                2.151262815350023,
                -1.3022582608255238,
                -1.6472455589780552,
                -1.4962567898698838,
                -1.3034669846177387,
                0.7904045453308881
            ]
        },
        {
            "positions": [
                2.0141778838217825,
                -1.3167379160078012,
                -1.5791523176928022,
                -1.483183237317853,
                -1.2365970075206558,
                0.8775007548822602
            ]
        },
        {
            "positions": [
                1.877092952293542,
                -1.3312175711900784,
                -1.5110590764075493,
                -1.4701096847658224,
                -1.1697270304235727,
                0.9645969644336325
            ]
        },
        {
            "positions": [
                1.7400080207653015,
                -1.345697226372356,
                -1.4429658351222965,
                -1.4570361322137917,
                -1.1028570533264899,
                1.0516931739850048
            ]
        },
        {
            "positions": [
                1.6029230892370612,
                -1.3601768815546333,
                -1.3748725938370436,
                -1.443962579661761,
                -1.0359870762294068,
                1.138789383536377
            ]
        },
        {
            "positions": [
                1.4658381577088206,
                -1.3746565367369106,
                -1.3067793525517908,
                -1.4308890271097303,
                -0.9691170991323239,
                1.225885593087749
            ]
        },
        {
            "positions": [
                1.3287532261805801,
                -1.389136191919188,
                -1.2386861112665377,
                -1.4178154745576996,
                -0.902247122035241,
                1.3129818026391213
            ]
        },
        {
            "positions": [
                1.1916682946523396,
                -1.4036158471014655,
                -1.1705928699812849,
                -1.404741922005669,
                -0.835377144938158,
                1.4000780121904937
            ]
        },
        {
            "positions": [
                1.0545833631240993,
                -1.4180955022837427,
                -1.102499628696032,
                -1.3916683694536383,
                -0.7685071678410751,
                1.4871742217418658
            ]
        },
        {
            "positions": [
                0.9174984315958585,
                -1.4325751574660202,
                -1.0344063874107792,
                -1.3785948169016076,
                -0.7016371907439921,
                1.5742704312932383
            ]
        },
        {
            "positions": [
                0.7804135000676182,
                -1.4470548126482976,
                -0.9663131461255263,
                -1.3655212643495769,
                -0.6347672136469092,
                1.6613666408446104
            ]
        },
        {
            "positions": [
                0.6433285685393777,
                -1.461534467830575,
                -0.8982199048402735,
                -1.3524477117975462,
                -0.5678972365498263,
                1.7484628503959825
            ]
        },
        {
            "positions": [
                0.5062436370111376,
                -1.4760141230128523,
                -0.8301266635550206,
                -1.3393741592455155,
                -0.5010272594527434,
                1.8355590599473546
            ]
        },
        {
            "positions": [
                0.36915870548289664,
                -1.4904937781951297,
                -0.7620334222697678,
                -1.3263006066934848,
                -0.4341572823556603,
                1.9226552694987271
            ]
        },
        {
            "positions": [
                0.23207377395465656,
                -1.5049734333774072,
                -0.6939401809845149,
                -1.3132270541414541,
                -0.36728730525857745,
                2.009751479050099
            ]
        },
        {
            "positions": [
                0.09498884242641603,
                -1.5194530885596844,
                -0.6258469396992619,
                -1.3001535015894234,
                -0.3004173281614946,
                2.0968476886014713
            ]
        },
        {
            "positions": [
                -0.042096089101824496,
                -1.5339327437419619,
                -0.557753698414009,
                -1.2870799490373928,
                -0.2335473510644117,
                2.1839438981528434
            ]
        },
        {
            "positions": [
                -0.17918102063006494,
                -1.5484123989242393,
                -0.4896604571287562,
                -1.274006396485362,
                -0.16667737396732862,
                2.271040107704216
            ]
        },
        {
            "positions": [
                -0.16451772043962215,
                -1.5231615144085335,
                -0.298854965213834,
                -1.2228875417355463,
                -0.13553748029001758,
                2.3368464243519793
            ]
        },
        {
            "positions": [
                -0.14985442024917936,
                -1.4979106298928277,
                -0.10804947329891174,
                -1.1717686869857304,
                -0.10439758661270657,
                2.402652740999743
            ]
        },
        {
            "positions": [
                -0.13519112005873657,
                -1.472659745377122,
                0.08275601861601051,
                -1.1206498322359146,
                -0.07325769293539552,
                2.4684590576475065
            ]
        },
        {
            "positions": [
                -0.12052781986829378,
                -1.4474088608614162,
                0.27356151053093275,
                -1.069530977486099,
                -0.042117799258084496,
                2.53426537429527
            ]
        },
        {
            "positions": [
                -0.10586451967785099,
                -1.4221579763457104,
                0.464367002445855,
                -1.0184121227362832,
                -0.01097790558077344,
                2.6000716909430333
            ]
        },
        {
            "positions": [
                -0.0912012194874082,
                -1.3969070918300046,
                0.6551724943607773,
                -0.9672932679864674,
                0.020161988096537575,
                2.6658780075907966
            ]
        },
        {
            "positions": [
                -0.0765379192969654,
                -1.3716562073142988,
                0.8459779862756995,
                -0.9161744132366516,
                0.05130188177384862,
                2.7316843242385604
            ]
        },
        {
            "positions": [
                -0.061874619106522616,
                -1.346405322798593,
                1.0367834781906218,
                -0.8650555584868359,
                0.08244177545115963,
                2.797490640886324
            ]
        },
        {
            "positions": [
                -0.047211318916079825,
                -1.3211544382828873,
                1.227588970105544,
                -0.8139367037370201,
                0.11358166912847067,
                2.863296957534087
            ]
        },
        {
            "positions": [
                -0.032548018725637035,
                -1.2959035537671815,
                1.4183944620204663,
                -0.7628178489872043,
                0.14472156280578174,
                2.929103274181851
            ]
        },
        {
            "positions": [
                -0.017884718535194244,
                -1.2706526692514757,
                1.6091999539353885,
                -0.7116989942373886,
                0.1758614564830927,
                2.9949095908296144
            ]
        },
        {
            "positions": [
                -0.0032214183447514394,
                -1.24540178473577,
                1.8000054458503107,
                -0.6605801394875728,
                0.20700135016040375,
                3.0607159074773778
            ]
        },
        {
            "positions": [
                0.06037225147514094,
                -1.1886594116060984,
                1.8793794893166214,
                -0.691362582381905,
                0.17250384454409173,
                3.044569798105192
            ]
        },
        {
            "positions": [
                0.12396592129503332,
                -1.1319170384764272,
                1.958753532782932,
                -0.7221450252762373,
                0.1380063389277797,
                3.028423688733006
            ]
        }
    ]
}