{
    "goal": {
        "global_pose": {
            "orientation": {
                "w": 0.005598929693374612,
                "x": 0.007748599140229565,
                "y": 0.7110244013736278,
                "z": -0.7031023480610252
            },
            "position": {
                "x": 0.1141497679147869,
                "y": -0.7141253447532654,
                "z": 0.3711530566215515
            }
        },
        "name": "move_to_auspresseinheit_B"
    },
    "id": "PRMstar_move_to_auspresseinheit_B_50",
    "joint_names": [
        "shoulder_pan_joint",
        "shoulder_lift_joint",
        "elbow_joint",
        "wrist_1_joint",
        "wrist_2_joint",
        "wrist_3_joint"
    ],
    "metrics": {
        "cart_traj_len": 0.5639681230924203,
        "distance_elbow_joint": 0.061577591148844535,
        "distance_shoulder_lift_joint": 0.2948026164005797,
        "distance_shoulder_pan_joint": 0.5757248575615499,
        "distance_wrist_1_joint": 0.3208146787583235,
        "distance_wrist_2_joint": 0.9937974315316902,
        "distance_wrist_3_joint": 0.0006300347481946744,
        "smoothness": 5.075305255429287e-16,
        "time": 5.004491874,
        "traj_len": 1.4991154759221128,
        "weighted_distance": 1.8876491702473701
    },
    "planner": "PRMstar",
    "start": {
        "state": {
            "elbow_joint": 2.0193083361928714,
            "shoulder_lift_joint": -1.1220246554650708,
            "shoulder_pan_joint": -1.0952077554168747,
            "wrist_1_joint": -0.8559753972642168,
            "wrist_2_joint": 0.4759566250798843,
            "wrist_3_joint": -3.1240929996934557
        }
    },
    "waypoints": [
        {
            "positions": [
                -1.0952077554168747,
                -1.1220246554650708,
                2.0193083361928714,
                -0.8559753972642168,
                0.4759566250798843,
                -3.1240929996934557
            ]
        },
        {
            "positions": [
                -1.1911618983437997,
                -1.1711584248651674,
                2.0090454043347306,
                -0.8025062841378295,
                0.641589530335166,
                -3.1241980054848213
            ]
        },
        {
            "positions": [
                -1.2871160412707245,
                -1.220292194265264,
                1.99878247247659,
                -0.7490371710114423,
                0.8072224355904476,
                -3.1243030112761874
            ]
        },
        {
            "positions": [
                -1.3830701841976496,
                -1.2694259636653606,
                1.9885195406184493,
                -0.695568057885055,
                0.9728553408457294,
                -3.124408017067553
            ]
        },
        {
            "positions": [
                -1.4790243271245744,
                -1.3185597330654573,
                1.9782566087603084,
                -0.6420989447586678,
                1.138488246101011,
                -3.1245130228589186
            ]
        },
        {
            "positions": [
                -1.5749784700514997,
                -1.3676935024655539,
                1.9679936769021675,
                -0.5886298316322806,
                1.304121151356293,
                -3.1246180286502847
            ]
        },
        {
            "positions": [
                -1.6709326129784245,
                -1.4168272718656505,
                1.9577307450440269,
                -0.5351607185058933,
                1.4697540566115745,
                -3.1247230344416503
            ]
        }
    ]
}