{
    "goal": {
        "global_pose": {
            "orientation": {
                "w": 0.5084816217422485,
                "x": -0.49083608388900757,
                "y": 0.5182115435600281,
                "z": -0.4816462993621826
            },
            "position": {
                "x": 0.5540239810943604,
                "y": 0.030875300988554955,
                "z": 0.16403168439865112
            }
        },
        "name": "move_to_storage_A"
    },
    "id": "PRMstar_move_to_storage_A_100",
    "joint_names": [
        "shoulder_pan_joint",
        "shoulder_lift_joint",
        "elbow_joint",
        "wrist_1_joint",
        "wrist_2_joint",
        "wrist_3_joint"
    ],
    "metrics": {
        "cart_traj_len": 0.352484604938582,
        "distance_elbow_joint": 0.4484620935686301,
        "distance_shoulder_lift_joint": 0.23285714911865218,
        "distance_shoulder_pan_joint": 0.4591927321559408,
        "distance_wrist_1_joint": 0.24272796329301982,
        "distance_wrist_2_joint": 1.103883411546295,
        "distance_wrist_3_joint": 0.105880565679906,
        "smoothness": 2.2204460668324854e-16,
        "time": 5.00602578,
        "traj_len": 1.6102806945878856,
        "weighted_distance": 2.03749268012466
    },
    "planner": "PRMstar",
    "start": {
        "state": {
            "elbow_joint": 1.971548259319323,
            "shoulder_lift_joint": -1.1394851275133948,
            "shoulder_pan_joint": 0.1228115487234821,
            "wrist_1_joint": -0.7804723859257726,
            "wrist_2_joint": 0.12958671773740124,
            "wrist_3_joint": -3.192489227718131
        }
    },
    "waypoints": [
        {
            "positions": [
                0.1228115487234821,
                -1.1394851275133948,
                1.971548259319323,
                -0.7804723859257726,
                0.12958671773740124,
                -3.192489227718131
            ]
        },
        {
            "positions": [
                0.057212586986919126,
                -1.1727504345303452,
                2.0356142726862703,
                -0.8151478092533468,
                0.2872843479583005,
                -3.177363432621002
            ]
        },
        {
            "positions": [
                -0.008386374749643849,
                -1.2060157415472954,
                2.0996802860532173,
                -0.8498232325809212,
                0.4449819781791998,
                -3.162237637523872
            ]
        },
        {
            "positions": [
                -0.07398533648620681,
                -1.2392810485642458,
                2.1637462994201644,
                -0.8844986559084954,
                0.602679608400099,
                -3.147111842426743
            ]
        },
        {
            "positions": [
                -0.1395842982227698,
                -1.272546355581196,
                2.2278123127871114,
                -0.9191740792360696,
                0.7603772386209984,
                -3.1319860473296135
            ]
        },
        {
            "positions": [
                -0.2051832599593328,
                -1.3058116625981464,
                2.291878326154059,
                -0.953849502563644,
                0.9180748688418977,
                -3.116860252232484
            ]
        },
        {
            "positions": [
                -0.2707822216958957,
                -1.3390769696150966,
                2.355944339521006,
                -0.9885249258912181,
                1.0757724990627968,
                -3.1017344571353545
            ]
        },
        {
            "positions": [
                -0.3363811834324587,
                -1.372342276632047,
                2.420010352887953,
                -1.0232003492187924,
                1.2334701292836963,
                -3.086608662038225
            ]
        }
    ]
}{
    "goal": {
        "global_pose": {
            "orientation": {
                "w": 0.5084816217422485,
                "x": -0.49083608388900757,
                "y": 0.5182115435600281,
                "z": -0.4816462993621826
            },
            "position": {
                "x": 0.5540239810943604,
                "y": 0.030875300988554955,
                "z": 0.16403168439865112
            }
        },
        "name": "move_to_storage_A"
    },
    "id": "PRMstar_move_to_storage_A_100",
    "joint_names": [
        "shoulder_pan_joint",
        "shoulder_lift_joint",
        "elbow_joint",
        "wrist_1_joint",
        "wrist_2_joint",
        "wrist_3_joint"
    ],
    "metrics": {
        "cart_traj_len": 0.35322443979662566,
        "distance_elbow_joint": 0.4496045802404858,
        "distance_shoulder_lift_joint": 0.23538120972330479,
        "distance_shoulder_pan_joint": 0.4621660445386193,
        "distance_wrist_1_joint": 0.23844038581548,
        "distance_wrist_2_joint": 1.0984911209872716,
        "distance_wrist_3_joint": 0.08810082659722118,
        "smoothness": 4.440892098500626e-16,
        "time": 5.0111476239999995,
        "traj_len": 1.6038030327638062,
        "weighted_distance": 2.0212167938891605
    },
    "planner": "PRMstar",
    "start": {
        "state": {
            "elbow_joint": 1.97154746011099,
            "shoulder_lift_joint": -1.13948474672311,
            "shoulder_pan_joint": 0.12281154466712228,
            "wrist_1_joint": -0.7804688027058302,
            "wrist_2_joint": 0.12958655903071145,
            "wrist_3_joint": 3.0906928834467795
        }
    },
    "waypoints": [
        {
            "positions": [
                0.12281154466712228,
                -1.13948474672311,
                1.97154746011099,
                -0.7804688027058302,
                0.12958655903071145,
                3.0906928834467795
            ]
        },
        {
            "positions": [
                0.0567878240187481,
                -1.1731106338264392,
                2.0357766858596307,
                -0.8145317149651845,
                0.2865138620288931,
                3.1032787158178112
            ]
        },
        {
            "positions": [
                -0.00923589662962608,
                -1.2067365209297685,
                2.1000059116082714,
                -0.8485946272245387,
                0.44344116502707476,
                3.1158645481888425
            ]
        },
        {
            "positions": [
                -0.07525961727800028,
                -1.2403624080330977,
                2.164235137356912,
                -0.882657539483893,
                0.6003684680252565,
                3.1284503805598742
            ]
        },
        {
            "positions": [
                -0.14128333792637443,
                -1.273988295136427,
                2.2284643631055534,
                -0.9167204517432473,
                0.7572957710234381,
                3.141036212930906
            ]
        },
        {
            "positions": [
                -0.20730705857474863,
                -1.3076141822397562,
                2.292693588854194,
                -0.9507833640026015,
                0.9142230740216198,
                3.1536220453019377
            ]
        },
        {
            "positions": [
                -0.2733307792231228,
                -1.3412400693430855,
                2.356922814602835,
                -0.9848462762619559,
                1.0711503770198014,
                3.166207877672969
            ]
        },
        {
            "positions": [
                -0.339354499871497,
                -1.3748659564464147,
                2.4211520403514757,
                -1.0189091885213102,
                1.2280776800179831,
                3.1787937100440007
            ]
        }
    ]
}{
    "goal": {
        "global_pose": {
            "orientation": {
                "w": 0.5084816217422485,
                "x": -0.49083608388900757,
                "y": 0.5182115435600281,
                "z": -0.4816462993621826
            },
            "position": {
                "x": 0.5540239810943604,
                "y": 0.030875300988554955,
                "z": 0.16403168439865112
            }
        },
        "name": "move_to_storage_A"
    },
    "id": "PRMstar_move_to_storage_A_100",
    "joint_names": [
        "shoulder_pan_joint",
        "shoulder_lift_joint",
        "elbow_joint",
        "wrist_1_joint",
        "wrist_2_joint",
        "wrist_3_joint"
    ],
    "metrics": {
        "cart_traj_len": 0.35278810007841355,
        "distance_elbow_joint": 0.4483363051422571,
        "distance_shoulder_lift_joint": 0.23438821941628984,
        "distance_shoulder_pan_joint": 0.45830855764270606,
        "distance_wrist_1_joint": 0.23570793751294183,
        "distance_wrist_2_joint": 1.1111341103264092,
        "distance_wrist_3_joint": 0.08646041666202686,
        "smoothness": 4.440892133664971e-16,
        "time": 5.016261894,
        "traj_len": 1.6044736042399173,
        "weighted_distance": 2.0233878589795964
    },
    "planner": "PRMstar",
    "start": {
        "state": {
            "elbow_joint": 1.9715472970024885,
            "shoulder_lift_joint": -1.1394870060712896,
            "shoulder_pan_joint": 0.12281152778156021,
            "wrist_1_joint": -0.780463741449964,
            "wrist_2_joint": 0.12958659822042276,
            "wrist_3_joint": 3.090690232415272
        }
    },
    "waypoints": [
        {
            "positions": [
                0.12281152778156021,
                -1.1394870060712896,
                1.9715472970024885,
                -0.780463741449964,
                0.12958659822042276,
                3.090690232415272
            ]
        },
        {
            "positions": [
                0.057338876689745064,
                -1.172971037416474,
                2.0355953405942397,
                -0.8141363039518128,
                0.2883200425527669,
                3.103041720509847
            ]
        },
        {
            "positions": [
                -0.008133774402070082,
                -1.2064550687616582,
                2.0996433841859905,
                -0.8478088664536616,
                0.44705348688511104,
                3.1153932086044223
            ]
        },
        {
            "positions": [
                -0.07360642549388524,
                -1.2399391001068425,
                2.1636914277777417,
                -0.8814814289555105,
                0.6057869312174552,
                3.1277446966989975
            ]
        },
        {
            "positions": [
                -0.13907907658570037,
                -1.2734231314520266,
                2.2277394713694925,
                -0.9151539914573593,
                0.7645203755497993,
                3.140096184793573
            ]
        },
        {
            "positions": [
                -0.20455172767751553,
                -1.3069071627972109,
                2.2917875149612437,
                -0.9488265539592082,
                0.9232538198821436,
                3.1524476728881483
            ]
        },
        {
            "positions": [
                -0.2700243787693307,
                -1.3403911941423952,
                2.3558355585529944,
                -0.982499116461057,
                1.0819872642144877,
                3.1647991609827235
            ]
        },
        {
            "positions": [
                -0.3354970298611458,
                -1.3738752254875795,
                2.4198836021447456,
                -1.0161716789629058,
                1.240720708546832,
                3.1771506490772987
            ]
        }
    ]
}