{
    "goal": {
        "global_pose": {
            "orientation": {
                "w": -0.4816463035849501,
                "x": 0.5182115481033762,
                "y": 0.4908360881923453,
                "z": -0.5084816262002911
            },
            "position": {
                "x": -0.8240239810943604,
                "y": -0.300875300988555,
                "z": 0.16403168439865112
            }
        },
        "name": "move_to_storage_C"
    },
    "id": "PRMstar_move_to_storage_C_31",
    "joint_names": [
        "shoulder_pan_joint",
        "shoulder_lift_joint",
        "elbow_joint",
        "wrist_1_joint",
        "wrist_2_joint",
        "wrist_3_joint"
    ],
    "metrics": {
        "cart_traj_len": 0.5759899192874259,
        "distance_elbow_joint": 0.2582285845181924,
        "distance_shoulder_lift_joint": 0.18908047179502974,
        "distance_shoulder_pan_joint": 0.49466704126809535,
        "distance_wrist_1_joint": 0.07859582528538278,
        "distance_wrist_2_joint": 1.0604656211285906,
        "distance_wrist_3_joint": 0.06053906424022726,
        "smoothness": 0.0,
        "time": 5.006170731999999,
        "traj_len": 1.4634126582189722,
        "weighted_distance": 1.8443741982390518
    },
    "planner": "PRMstar",
    "start": {
        "state": {
            "elbow_joint": 2.010868314990456,
            "shoulder_lift_joint": -1.1634956873337592,
            "shoulder_pan_joint": -2.4736205022346125,
            "wrist_1_joint": -0.8367026794202681,
            "wrist_2_joint": 0.6746043897044499,
            "wrist_3_joint": -3.1496632123970403
        }
    },
    "waypoints": [
        {
            "positions": [
                -2.4736205022346125,
                -1.1634956873337592,
                2.010868314990456,
                -0.8367026794202681,
                0.6746043897044499,
                -3.1496632123970403
            ]
        },
        {
            "positions": [
                -2.5560650091126282,
                -1.131982275367921,
                1.9678302175707572,
                -0.8236033752060377,
                0.8513486598925484,
                -3.139573368357002
            ]
        },
        {
            "positions": [
                -2.6385095159906444,
                -1.1004688634020825,
                1.9247921201510583,
                -0.8105040709918072,
                1.0280929300806467,
                -3.1294835243169645
            ]
        },
        {
            "positions": [
                -2.72095402286866,
                -1.0689554514362443,
                1.8817540227313596,
                -0.7974047667775768,
                1.204837200268745,
                -3.119393680276927
            ]
        },
        {
            "positions": [
                -2.803398529746676,
                -1.037442039470406,
                1.838715925311661,
                -0.7843054625633462,
                1.3815814704568434,
                -3.1093038362368888
            ]
        },
        {
            "positions": [
                -2.885843036624692,
                -1.0059286275045678,
                1.795677827891962,
                -0.7712061583491158,
                1.5583257406449422,
                -3.0992139921968507
            ]
        },
        {
            "positions": [
                -2.968287543502708,
                -0.9744152155387295,
                1.7526397304722634,
                -0.7581068541348853,
                1.7350700108330404,
                -3.089124148156813
            ]
        }
    ]
}