{
    "goal": {
        "global_pose": {
            "orientation": {
                "w": 0.7047431493862688,
                "x": -0.7094548369677653,
                "y": 0.0024358444001904,
                "z": -0.0022348060817251984
            },
            "position": {
                "x": -0.39052492380142206,
                "y": 0.3671506643295288,
                "z": 0.19426114857196808
            }
        },
        "name": "move_to_magneteinheit_D"
    },
    "id": "PRMstar_move_to_magneteinheit_D_44",
    "joint_names": [
        "shoulder_pan_joint",
        "shoulder_lift_joint",
        "elbow_joint",
        "wrist_1_joint",
        "wrist_2_joint",
        "wrist_3_joint"
    ],
    "metrics": {
        "cart_traj_len": 4.720090724986387,
        "distance_elbow_joint": 3.357065062458301,
        "distance_shoulder_lift_joint": 2.4526417360090464,
        "distance_shoulder_pan_joint": 3.9074109888822104,
        "distance_wrist_1_joint": 2.150548376085772,
        "distance_wrist_2_joint": 1.3603820899739745,
        "distance_wrist_3_joint": 3.421786868771379,
        "smoothness": 0.47147414346811817,
        "time": 5.062468963000001,
        "traj_len": 4.080420949140013,
        "weighted_distance": 5.19656995774936
    },
    "planner": "PRMstar",
    "start": {
        "state": {
            "elbow_joint": 0.749534889911806,
            "shoulder_lift_joint": -0.6476975780787326,
            "shoulder_pan_joint": -2.711696901376241,
            "wrist_1_joint": -0.07506478083263063,
            "wrist_2_joint": 0.43296659715538205,
            "wrist_3_joint": -3.14703540197715
        }
    },
    "waypoints": [
        {
            "positions": [
                -2.711696901376241,
                -0.6476975780787326,
                0.749534889911806,
                -0.07506478083263063,
                0.43296659715538205,
                -3.14703540197715
            ]
        },
        {
            "positions": [
                -2.7205237843944063,
                -0.6015446128766464,
                0.6768818056199691,
                -0.10271298725825881,
                0.46755083818631704,
                -3.0285624075642446
            ]
        },
        {
            "positions": [
                -2.7293506674125716,
                -0.5553916476745601,
                0.6042287213281323,
                -0.130361193683887,
                0.502135079217252,
                -2.910089413151339
            ]
        },
        {
            "positions": [
                -2.736877434090906,
                -0.5084649869584768,
                0.5161221301051151,
                -0.1596166298263149,
                0.5388224080392143,
                -2.770723876110788
            ]
        },
        {
            "positions": [
                -2.7444042007692406,
                -0.4615383262423933,
                0.42801553888209776,
                -0.18887206596874276,
                0.5755097368611767,
                -2.6313583390702373
            ]
        },
        {
            "positions": [
                -2.751930967447575,
                -0.41461166552631,
                0.3399089476590805,
                -0.21812750211117066,
                0.612197065683139,
                -2.4919928020296864
            ]
        },
        {
            "positions": [
                -2.7594577341259097,
                -0.36768500481022665,
                0.2518023564360632,
                -0.24738293825359853,
                0.6488843945051015,
                -2.3526272649891355
            ]
        },
        {
            "positions": [
                -2.766984500804244,
                -0.3207583440941433,
                0.1636957652130459,
                -0.27663837439602645,
                0.6855717233270638,
                -2.2132617279485847
            ]
        },
        {
            "positions": [
                -2.7745112674825787,
                -0.2738316833780599,
                0.07558917399002858,
                -0.3058938105384543,
                0.7222590521490262,
                -2.073896190908034
            ]
        },
        {
            "positions": [
                -2.7679501767700407,
                -0.26204446602444254,
                -0.029626980265231515,
                -0.31991770100844735,
                0.7403651388056132,
                -1.9285430057360367
            ]
        },
        {
            "positions": [
                -2.7613890860575023,
                -0.25025724867082516,
                -0.13484313452049163,
                -0.3339415914784404,
                0.7584712254622002,
                -1.7831898205640395
            ]
        },
        {
            "positions": [
                -2.7548279953449644,
                -0.2384700313172078,
                -0.24005928877575172,
                -0.3479654819484334,
                0.7765773121187872,
                -1.6378366353920424
            ]
        },
        {
            "positions": [
                -2.6609941280899196,
                -0.27430454247110336,
                -0.33795840390111687,
                -0.3344971419637628,
                0.799526042398448,
                -1.5147391346605328
            ]
        },
        {
            "positions": [
                -2.567160260834875,
                -0.310139053624999,
                -0.43585751902648207,
                -0.3210288019790922,
                0.822474772678109,
                -1.3916416339290232
            ]
        },
        {
            "positions": [
                -2.450752635634633,
                -0.385824033959809,
                -0.5079804089624029,
                -0.26239817277023897,
                0.811917171386131,
                -1.3295333305373298
            ]
        },
        {
            "positions": [
                -2.334345010434391,
                -0.4615090142946191,
                -0.5801032988983239,
                -0.20376754356138568,
                0.801359570094153,
                -1.2674250271456364
            ]
        },
        {
            "positions": [
                -2.217937385234149,
                -0.5371939946294292,
                -0.6522261888342448,
                -0.1451369143525324,
                0.790801968802175,
                -1.2053167237539428
            ]
        },
        {
            "positions": [
                -2.101529760033907,
                -0.6128789749642392,
                -0.7243490787701656,
                -0.08650628514367914,
                0.780244367510197,
                -1.1432084203622495
            ]
        },
        {
            "positions": [
                -1.9851221348336652,
                -0.6885639552990492,
                -0.7964719687060866,
                -0.027875655934825883,
                0.7696867662182191,
                -1.081100116970556
            ]
        },
        {
            "positions": [
                -1.8687145096334232,
                -0.7642489356338593,
                -0.8685948586420075,
                0.03075497327402743,
                0.759129164926241,
                -1.0189918135788627
            ]
        },
        {
            "positions": [
                -1.7523068844331813,
                -0.8399339159686694,
                -0.9407177485779283,
                0.08938560248288069,
                0.748571563634263,
                -0.9568835101871693
            ]
        },
        {
            "positions": [
                -1.6358992592329393,
                -0.9156188963034795,
                -1.012840638513849,
                0.14801623169173395,
                0.7380139623422851,
                -0.8947752067954758
            ]
        },
        {
            "positions": [
                -1.5194916340326972,
                -0.9913038766382896,
                -1.0849635284497703,
                0.20664686090058726,
                0.7274563610503071,
                -0.8326669034037825
            ]
        },
        {
            "positions": [
                -1.4030840088324552,
                -1.0669888569730996,
                -1.157086418385691,
                0.26527749010944046,
                0.7168987597583291,
                -0.7705586000120891
            ]
        },
        {
            "positions": [
                -1.2866763836322133,
                -1.1426738373079097,
                -1.229209308321612,
                0.3239081193182939,
                0.7063411584663511,
                -0.7084502966203955
            ]
        },
        {
            "positions": [
                -1.1702687584319713,
                -1.2183588176427196,
                -1.301332198257533,
                0.3825387485271471,
                0.6957835571743731,
                -0.6463419932287022
            ]
        },
        {
            "positions": [
                -1.0538611332317294,
                -1.2940437979775299,
                -1.3734550881934537,
                0.4411693777360004,
                0.6852259558823951,
                -0.5842336898370087
            ]
        },
        {
            "positions": [
                -0.9374535080314874,
                -1.3697287783123397,
                -1.4455779781293745,
                0.4998000069448536,
                0.6746683545904172,
                -0.5221253864453154
            ]
        },
        {
            "positions": [
                -0.8210458828312452,
                -1.44541375864715,
                -1.5177008680652957,
                0.5584306361537069,
                0.6641107532984392,
                -0.4600170830536219
            ]
        },
        {
            "positions": [
                -0.7046382576310035,
                -1.52109873898196,
                -1.5898237580012164,
                0.6170612653625601,
                0.6535531520064612,
                -0.3979087796619285
            ]
        },
        {
            "positions": [
                -0.5882306324307613,
                -1.59678371931677,
                -1.6619466479371372,
                0.6756918945714134,
                0.6429955507144832,
                -0.3358004762702351
            ]
        },
        {
            "positions": [
                -0.4718230072305194,
                -1.67246869965158,
                -1.7340695378730584,
                0.7343225237802667,
                0.6324379494225052,
                -0.27369217287854175
            ]
        },
        {
            "positions": [
                -0.35541538203027745,
                -1.7481536799863902,
                -1.8061924278089792,
                0.79295315298912,
                0.6218803481305272,
                -0.21158386948684815
            ]
        },
        {
            "positions": [
                -0.2390077568300355,
                -1.8238386603212002,
                -1.8783153177449,
                0.8515837821979731,
                0.6113227468385493,
                -0.149475566095155
            ]
        },
        {
            "positions": [
                -0.12260013162979368,
                -1.8995236406560103,
                -1.950438207680821,
                0.9102144114068267,
                0.6007651455465712,
                -0.08736726270346135
            ]
        },
        {
            "positions": [
                -0.04194796475574421,
                -1.9291643239628014,
                -2.0276607041283112,
                0.9585379807509823,
                0.5178101264275522,
                -0.05576351026944285
            ]
        },
        {
            "positions": [
                0.03870420211830526,
                -1.9588050072695922,
                -2.104883200575802,
                1.006861550095138,
                0.4348551073085333,
                -0.02415975783542436
            ]
        },
        {
            "positions": [
                0.11935636899235473,
                -1.9884456905763832,
                -2.182105697023292,
                1.0551851194392936,
                0.35190008818951424,
                0.007443994598594142
            ]
        },
        {
            "positions": [
                0.2000085358664042,
                -2.018086373883174,
                -2.2593281934707825,
                1.1035086887834493,
                0.26894506907049526,
                0.03904774703261263
            ]
        },
        {
            "positions": [
                0.28066070274045374,
                -2.047727057189965,
                -2.3365506899182726,
                1.151832258127605,
                0.18599004995147622,
                0.07065149946663113
            ]
        },
        {
            "positions": [
                0.36131286961450315,
                -2.077367740496756,
                -2.4137731863657628,
                1.2001558274717605,
                0.10303503083245724,
                0.10225525190064963
            ]
        },
        {
            "positions": [
                0.4419650364885527,
                -2.107008423803547,
                -2.4909956828132533,
                1.2484793968159162,
                0.020080011713438206,
                0.13385900433466813
            ]
        },
        {
            "positions": [
                0.28493495678736713,
                -2.1507273729938428,
                -2.461862060379943,
                1.3187800958673213,
                0.06219980008508242,
                0.09863588871977827
            ]
        },
        {
            "positions": [
                0.12790487708618153,
                -2.194446322184138,
                -2.4327284379466323,
                1.3890807949187263,
                0.10431958845672663,
                0.06341277310488842
            ]
        },
        {
            "positions": [
                -0.029125202615004064,
                -2.238165271374434,
                -2.4035948155133218,
                1.4593814939701313,
                0.14643937682837085,
                0.028189657489998576
            ]
        },
        {
            "positions": [
                -0.18615528231618958,
                -2.28188422056473,
                -2.3744611930800112,
                1.5296821930215363,
                0.18855916520001506,
                -0.007033458124891296
            ]
        }
    ]
}