{
    "goal": {
        "global_pose": {
            "orientation": {
                "w": -0.00223480608172531,
                "x": 0.0024358444001904467,
                "y": 0.7094548369677653,
                "z": -0.704743149386269
            },
            "position": {
                "x": -0.37947507619857795,
                "y": -0.6371506643295288,
                "z": 0.19426114857196808
            }
        },
        "name": "move_to_magneteinheit_C"
    },
    "id": "PRMstar_move_to_magneteinheit_C_40",
    "joint_names": [
        "shoulder_pan_joint",
        "shoulder_lift_joint",
        "elbow_joint",
        "wrist_1_joint",
        "wrist_2_joint",
        "wrist_3_joint"
    ],
    "metrics": {
        "cart_traj_len": 0.891146091948429,
        "distance_elbow_joint": 0.05890904535168229,
        "distance_shoulder_lift_joint": 0.25233920750809435,
        "distance_shoulder_pan_joint": 0.8888418924574208,
        "distance_wrist_1_joint": 0.32462458028241903,
        "distance_wrist_2_joint": 2.642582468927199,
        "distance_wrist_3_joint": 0.02322899764909403,
        "smoothness": 1.2468248930019168,
        "time": 5.19501706,
        "traj_len": 2.0470774758606254,
        "weighted_distance": 2.684062450220508
    },
    "planner": "PRMstar",
    "start": {
        "state": {
            "elbow_joint": 1.9565354010623817,
            "shoulder_lift_joint": -1.4165861575791021,
            "shoulder_pan_joint": -1.6717766225146293,
            "wrist_1_joint": -0.5286633292919765,
            "wrist_2_joint": 1.472756589071564,
            "wrist_3_joint": -3.1238370188695823
        }
    },
    "waypoints": [
        {
            "positions": [
                -1.6717766225146293,
                -1.4165861575791021,
                1.9565354010623817,
                -0.5286633292919765,
                1.472756589071564,
                -3.1238370188695823
            ]
        },
        {
            "positions": [
                -1.6645833564255303,
                -1.410600914612826,
                1.9634672169050114,
                -0.5794059905831399,
                1.1859870810134885,
                -3.1263447599959675
            ]
        },
        {
            "positions": [
                -1.6573900903364311,
                -1.4046156716465497,
                1.9703990327476408,
                -0.6301486518743032,
                0.8992175729554132,
                -3.128852501122353
            ]
        },
        {
            "positions": [
                -1.650196824247332,
                -1.3986304286802733,
                1.9773308485902705,
                -0.6808913131654667,
                0.6124480648973377,
                -3.1313602422487383
            ]
        },
        {
            "positions": [
                -1.643003558158233,
                -1.3926451857139972,
                1.9842626644329002,
                -0.73163397445663,
                0.3256785568392624,
                -3.1338679833751235
            ]
        },
        {
            "positions": [
                -1.635810292069134,
                -1.386659942747721,
                1.9911944802755297,
                -0.7823766357477935,
                0.03890904878118695,
                -3.136375724501509
            ]
        },
        {
            "positions": [
                -1.6286170259800348,
                -1.3806746997814447,
                1.9981262961181594,
                -0.8331192970389569,
                -0.24786045927688843,
                -3.1388834656278943
            ]
        },
        {
            "positions": [
                -1.7695640753005057,
                -1.3446034081630387,
                2.0010126545008102,
                -0.83648073246153,
                -0.09419955584709733,
                -3.1375197071460974
            ]
        },
        {
            "positions": [
                -1.9105111246209767,
                -1.3085321165446324,
                2.003899012883461,
                -0.8398421678841032,
                0.05946134758269378,
                -3.1361559486643005
            ]
        },
        {
            "positions": [
                -2.051458173941448,
                -1.2724608249262261,
                2.006785371266112,
                -0.8432036033066762,
                0.2131222510124849,
                -3.1347921901825035
            ]
        },
        {
            "positions": [
                -2.192405223261919,
                -1.23638953330782,
                2.0096717296487623,
                -0.8465650387292493,
                0.366783154442276,
                -3.133428431700706
            ]
        },
        {
            "positions": [
                -2.33335227258239,
                -1.200318241689414,
                2.012558088031413,
                -0.8499264741518224,
                0.520444057872067,
                -3.1320646732189092
            ]
        },
        {
            "positions": [
                -2.474299321902861,
                -1.1642469500710078,
                2.015444446414064,
                -0.8532879095743955,
                0.6741049613018583,
                -3.1307009147371123
            ]
        }
    ]
}