{
    "goal": {
        "global_pose": {
            "orientation": {
                "w": -0.4816463035849501,
                "x": 0.5182115481033762,
                "y": 0.4908360881923453,
                "z": -0.5084816262002911
            },
            "position": {
                "x": -0.8240239810943604,
                "y": -0.300875300988555,
                "z": 0.16403168439865112
            }
        },
        "name": "move_to_storage_C"
    },
    "id": "PRMstar_move_to_storage_C_78",
    "joint_names": [
        "shoulder_pan_joint",
        "shoulder_lift_joint",
        "elbow_joint",
        "wrist_1_joint",
        "wrist_2_joint",
        "wrist_3_joint"
    ],
    "metrics": {
        "cart_traj_len": 0.5761405411792637,
        "distance_elbow_joint": 0.25506655450217064,
        "distance_shoulder_lift_joint": 0.18905826298510586,
        "distance_shoulder_pan_joint": 0.4951744464720367,
        "distance_wrist_1_joint": 0.06959059812194057,
        "distance_wrist_2_joint": 1.0618080559164826,
        "distance_wrist_3_joint": 0.05567331847086043,
        "smoothness": 0.0,
        "time": 5.017583738,
        "traj_len": 1.4582082280897324,
        "weighted_distance": 1.835515330213491
    },
    "planner": "PRMstar",
    "start": {
        "state": {
            "elbow_joint": 2.010868314990456,
            "shoulder_lift_joint": -1.1634956873337592,
            "shoulder_pan_joint": -2.4736205022346125,
            "wrist_1_joint": -0.8367026794202681,
            "wrist_2_joint": 0.6746043897044499,
            "wrist_3_joint": -3.1496632123970403
        }
    },
    "waypoints": [
        {
            "positions": [
                -2.4736205022346125,
                -1.1634956873337592,
                2.010868314990456,
                -0.8367026794202681,
                0.6746043897044499,
                -3.1496632123970403
            ]
        },
        {
            "positions": [
                -2.5561495766466185,
                -1.1319859768362415,
                1.9683572225734274,
                -0.8251042463999447,
                0.8515723990238637,
                -3.14038432598523
            ]
        },
        {
            "positions": [
                -2.638678651058625,
                -1.100476266338724,
                1.925846130156399,
                -0.8135058133796212,
                1.0285404083432774,
                -3.13110543957342
            ]
        },
        {
            "positions": [
                -2.721207725470631,
                -1.0689665558412063,
                1.8833350377393705,
                -0.8019073803592978,
                1.2055084176626911,
                -3.1218265531616103
            ]
        },
        {
            "positions": [
                -2.803736799882637,
                -1.0374568453436885,
                1.840823945322342,
                -0.7903089473389744,
                1.3824764269821048,
                -3.1125476667498
            ]
        },
        {
            "positions": [
                -2.886265874294643,
                -1.005947134846171,
                1.7983128529053136,
                -0.778710514318651,
                1.559444436301519,
                -3.1032687803379897
            ]
        },
        {
            "positions": [
                -2.968794948706649,
                -0.9744374243486533,
                1.7558017604882852,
                -0.7671120812983275,
                1.7364124456209324,
                -3.09398989392618
            ]
        }
    ]
}