{
    "goal": {
        "global_pose": {
            "orientation": {
                "w": 0.7031023480610252,
                "x": -0.7110244013736278,
                "y": 0.0077485991402295624,
                "z": 0.005598929693374583
            },
            "position": {
                "x": -0.8841497679147869,
                "y": 0.44412534475326537,
                "z": 0.3711530566215515
            }
        },
        "name": "move_to_auspresseinheit_D"
    },
    "id": "PRMstar_move_to_auspresseinheit_D_98",
    "joint_names": [
        "shoulder_pan_joint",
        "shoulder_lift_joint",
        "elbow_joint",
        "wrist_1_joint",
        "wrist_2_joint",
        "wrist_3_joint"
    ],
    "metrics": {
        "cart_traj_len": 0.3429100543158564,
        "distance_elbow_joint": 0.6349627487477343,
        "distance_shoulder_lift_joint": 0.11913089062480564,
        "distance_shoulder_pan_joint": 0.1336840733587621,
        "distance_wrist_1_joint": 0.523711983803413,
        "distance_wrist_2_joint": 1.4367231406007872,
        "distance_wrist_3_joint": 0.01538209376812727,
        "smoothness": 1.9737298371844314e-16,
        "time": 5.0168582420000005,
        "traj_len": 1.692215982344934,
        "weighted_distance": 2.2033597624636982
    },
    "planner": "PRMstar",
    "start": {
        "state": {
            "elbow_joint": -1.8275523626775212,
            "shoulder_lift_joint": -2.126789852344167,
            "shoulder_pan_joint": -0.03513704404078235,
            "wrist_1_joint": -2.347782403156801,
            "wrist_2_joint": -1.6058999987535132,
            "wrist_3_joint": -3.0880379163319196
        }
    },
    "waypoints": [
        {
            "positions": [
                -0.03513704404078235,
                -2.126789852344167,
                -1.8275523626775212,
                -2.347782403156801,
                -1.6058999987535132,
                -3.0880379163319196
            ]
        },
        {
            "positions": [
                -0.05184755321062761,
                -2.1416812136722676,
                -1.7481820190840545,
                -2.4132464011322274,
                -1.4263096061784148,
                -3.0899606780529356
            ]
        },
        {
            "positions": [
                -0.06855806238047288,
                -2.1565725750003684,
                -1.6688116754905877,
                -2.478710399107654,
                -1.2467192136033165,
                -3.0918834397739516
            ]
        },
        {
            "positions": [
                -0.08526857155031814,
                -2.171463936328469,
                -1.5894413318971208,
                -2.5441743970830806,
                -1.067128821028218,
                -3.093806201494967
            ]
        },
        {
            "positions": [
                -0.1019790807201634,
                -2.1863552976565694,
                -1.510070988303654,
                -2.609638395058507,
                -0.8875384284531196,
                -3.0957289632159832
            ]
        },
        {
            "positions": [
                -0.11868958989000866,
                -2.20124665898467,
                -1.4307006447101873,
                -2.675102393033934,
                -0.7079480358780212,
                -3.0976517249369993
            ]
        },
        {
            "positions": [
                -0.13540009905985392,
                -2.216138020312771,
                -1.3513303011167204,
                -2.7405663910093607,
                -0.5283576433029227,
                -3.099574486658015
            ]
        },
        {
            "positions": [
                -0.15211060822969918,
                -2.2310293816408717,
                -1.2719599575232536,
                -2.8060303889847873,
                -0.34876725072782433,
                -3.101497248379031
            ]
        },
        {
            "positions": [
                -0.16882111739954445,
                -2.2459207429689725,
                -1.192589613929787,
                -2.871494386960214,
                -0.1691768581527259,
                -3.103420010100047
            ]
        }
    ]
}