{
    "goal": {
        "global_pose": {
            "orientation": {
                "w": 0.7047431493862688,
                "x": -0.7094548369677653,
                "y": 0.0024358444001904,
                "z": -0.0022348060817251984
            },
            "position": {
                "x": -0.39052492380142206,
                "y": 0.3671506643295288,
                "z": 0.19426114857196808
            }
        },
        "name": "move_to_magneteinheit_D"
    },
    "id": "PRMstar_move_to_magneteinheit_D_10",
    "joint_names": [
        "shoulder_pan_joint",
        "shoulder_lift_joint",
        "elbow_joint",
        "wrist_1_joint",
        "wrist_2_joint",
        "wrist_3_joint"
    ],
    "metrics": {
        "cart_traj_len": 4.543266810863026,
        "distance_elbow_joint": 3.1396314419425417,
        "distance_shoulder_lift_joint": 1.629165833602807,
        "distance_shoulder_pan_joint": 3.262002773102241,
        "distance_wrist_1_joint": 2.678389974611474,
        "distance_wrist_2_joint": 2.054950352815464,
        "distance_wrist_3_joint": 3.2996342300517316,
        "smoothness": 0.23271123118855241,
        "time": 5.03859482,
        "traj_len": 4.007963897807246,
        "weighted_distance": 5.23415546135732
    },
    "planner": "PRMstar",
    "start": {
        "state": {
            "elbow_joint": 0.749534889911806,
            "shoulder_lift_joint": -0.6476975780787326,
            "shoulder_pan_joint": -2.711696901376241,
            "wrist_1_joint": -0.07506478083263063,
            "wrist_2_joint": 0.43296659715538205,
            "wrist_3_joint": -3.14703540197715
        }
    },
    "waypoints": [
        {
            "positions": [
                -2.711696901376241,
                -0.6476975780787326,
                0.749534889911806,
                -0.07506478083263063,
                0.43296659715538205,
                -3.14703540197715
            ]
        },
        {
            "positions": [
                -2.736787354371852,
                -0.71931544140236,
                0.7435098766803458,
                -0.21768892213015523,
                0.35382818437164815,
                -3.147751249718456
            ]
        },
        {
            "positions": [
                -2.761877807367463,
                -0.7909333047259874,
                0.7374848634488858,
                -0.3603130634276798,
                0.2746897715879142,
                -3.148467097459762
            ]
        },
        {
            "positions": [
                -2.7869682603630737,
                -0.8625511680496147,
                0.7314598502174258,
                -0.5029372047252044,
                0.1955513588041803,
                -3.149182945201068
            ]
        },
        {
            "positions": [
                -2.8120587133586845,
                -0.9341690313732421,
                0.7254348369859657,
                -0.645561346022729,
                0.11641294602044638,
                -3.149898792942374
            ]
        },
        {
            "positions": [
                -2.691687347545033,
                -0.9756522627460585,
                0.6387985561197036,
                -0.6299902855132653,
                0.07805819393230204,
                -3.058155452297308
            ]
        },
        {
            "positions": [
                -2.5713159817313813,
                -1.017135494118875,
                0.5521622752534414,
                -0.6144192250038016,
                0.03970344184415771,
                -2.9664121116522417
            ]
        },
        {
            "positions": [
                -2.45094461591773,
                -1.0586187254916914,
                0.46552599438717934,
                -0.5988481644943381,
                0.001348689756013377,
                -2.8746687710071757
            ]
        },
        {
            "positions": [
                -2.330573250104078,
                -1.1001019568645078,
                0.37888971352091716,
                -0.5832771039848744,
                -0.03700606233213097,
                -2.7829254303621096
            ]
        },
        {
            "positions": [
                -2.2102018842904267,
                -1.1415851882373242,
                0.2922534326546551,
                -0.5677060434754108,
                -0.07536081442027528,
                -2.6911820897170435
            ]
        },
        {
            "positions": [
                -2.0898305184767754,
                -1.1830684196101406,
                0.20561715178839302,
                -0.5521349829659471,
                -0.11371556650841963,
                -2.5994387490719775
            ]
        },
        {
            "positions": [
                -1.9694591526631235,
                -1.224551650982957,
                0.11898087092213083,
                -0.5365639224564834,
                -0.15207031859656395,
                -2.5076954084269114
            ]
        },
        {
            "positions": [
                -1.8490877868494722,
                -1.2660348823557734,
                0.03234459005586865,
                -0.5209928619470198,
                -0.19042507068470832,
                -2.4159520677818453
            ]
        },
        {
            "positions": [
                -1.7287164210358203,
                -1.3075181137285898,
                -0.054291690810393534,
                -0.5054218014375562,
                -0.2287798227728527,
                -2.3242087271367793
            ]
        },
        {
            "positions": [
                -1.608345055222169,
                -1.3490013451014062,
                -0.1409279716766555,
                -0.48985074092809255,
                -0.26713457486099695,
                -2.2324653864917137
            ]
        },
        {
            "positions": [
                -1.4879736894085174,
                -1.3904845764742226,
                -0.22756425254291768,
                -0.4742796804186289,
                -0.3054893269491413,
                -2.1407220458466476
            ]
        },
        {
            "positions": [
                -1.367602323594866,
                -1.431967807847039,
                -0.31420053340917964,
                -0.4587086199091652,
                -0.34384407903728564,
                -2.0489787052015815
            ]
        },
        {
            "positions": [
                -1.2472309577812142,
                -1.4734510392198557,
                -0.40083681427544204,
                -0.44313755939970156,
                -0.38219883112543,
                -1.9572353645565153
            ]
        },
        {
            "positions": [
                -1.1268595919675628,
                -1.514934270592672,
                -0.487473095141704,
                -0.42756649889023796,
                -0.4205535832135743,
                -1.8654920239114492
            ]
        },
        {
            "positions": [
                -1.0064882261539112,
                -1.5564175019654884,
                -0.574109376007966,
                -0.41199543838077435,
                -0.4589083353017186,
                -1.7737486832663834
            ]
        },
        {
            "positions": [
                -0.8861168603402596,
                -1.5979007333383048,
                -0.6607456568742284,
                -0.3964243778713107,
                -0.497263087389863,
                -1.682005342621317
            ]
        },
        {
            "positions": [
                -0.765745494526608,
                -1.6393839647111212,
                -0.7473819377404903,
                -0.380853317361847,
                -0.5356178394780073,
                -1.5902620019762512
            ]
        },
        {
            "positions": [
                -0.6453741287129562,
                -1.6808671960839376,
                -0.8340182186067527,
                -0.36528225685238336,
                -0.5739725915661518,
                -1.498518661331185
            ]
        },
        {
            "positions": [
                -0.5250027628993048,
                -1.722350427456754,
                -0.9206544994730147,
                -0.34971119634291975,
                -0.6123273436542961,
                -1.406775320686119
            ]
        },
        {
            "positions": [
                -0.40463139708565343,
                -1.7638336588295704,
                -1.0072907803392765,
                -0.3341401358334561,
                -0.6506820957424403,
                -1.315031980041053
            ]
        },
        {
            "positions": [
                -0.2842600312720016,
                -1.8053168902023868,
                -1.0939270612055392,
                -0.3185690753239924,
                -0.6890368478305847,
                -1.223288639395987
            ]
        },
        {
            "positions": [
                -0.16388866545835035,
                -1.8468001215752032,
                -1.180563342071801,
                -0.3029980148145288,
                -0.727391599918729,
                -1.131545298750921
            ]
        },
        {
            "positions": [
                -0.13918818003264066,
                -1.880438355620492,
                -1.2665500298868786,
                -0.18834153871080966,
                -0.7015649200955477,
                -1.0288564243093923
            ]
        },
        {
            "positions": [
                -0.11448769460693099,
                -1.9140765896657805,
                -1.3525367177019563,
                -0.07368506260709048,
                -0.6757382402723664,
                -0.9261675498678638
            ]
        },
        {
            "positions": [
                -0.08978720918122132,
                -1.9477148237110693,
                -1.438523405517034,
                0.04097141349662864,
                -0.649911560449185,
                -0.8234786754263352
            ]
        },
        {
            "positions": [
                -0.06508672375551164,
                -1.9813530577563578,
                -1.5245100933321116,
                0.15562788960034785,
                -0.6240848806260036,
                -0.7207898009848066
            ]
        },
        {
            "positions": [
                -0.04038623832980197,
                -2.0149912918016466,
                -1.6104967811471893,
                0.270284365704067,
                -0.5982582008028223,
                -0.618100926543278
            ]
        },
        {
            "positions": [
                -0.0156857529040923,
                -2.0486295258469354,
                -1.696483468962267,
                0.3849408418077861,
                -0.572431520979641,
                -0.5154120521017495
            ]
        },
        {
            "positions": [
                0.009014732521617386,
                -2.082267759892224,
                -1.7824701567773447,
                0.4995973179115053,
                -0.5466048411564597,
                -0.4127231776602208
            ]
        },
        {
            "positions": [
                0.03371521794732707,
                -2.1159059939375124,
                -1.8684568445924223,
                0.6142537940152245,
                -0.5207781613332783,
                -0.3100343032186922
            ]
        },
        {
            "positions": [
                0.058415703373036726,
                -2.149544227982801,
                -1.9544435324075,
                0.7289102701189436,
                -0.49495148151009694,
                -0.20734542877716355
            ]
        },
        {
            "positions": [
                0.08311618879874641,
                -2.18318246202809,
                -2.0404302202225777,
                0.8435667462226629,
                -0.4691248016869156,
                -0.10465655433563498
            ]
        },
        {
            "positions": [
                0.05202048428665805,
                -2.2063803850783943,
                -2.110975929935034,
                0.9580152948348555,
                -0.37894952358831346,
                -0.05297317772727329
            ]
        },
        {
            "positions": [
                0.02092477977456969,
                -2.229578308128699,
                -2.1815216396474906,
                1.0724638434470481,
                -0.28877424548971137,
                -0.0012898011189116099
            ]
        },
        {
            "positions": [
                -0.010170924737518669,
                -2.252776231179004,
                -2.2520673493599466,
                1.1869123920592406,
                -0.19859896739110927,
                0.05039357548945006
            ]
        },
        {
            "positions": [
                -0.04126662924960703,
                -2.275974154229308,
                -2.322613059072403,
                1.3013609406714333,
                -0.10842368929250712,
                0.10207695209781176
            ]
        },
        {
            "positions": [
                -0.11230824970661445,
                -2.2764187829554237,
                -2.356354805551568,
                1.3818465020350397,
                0.029388433265058328,
                0.07967940507465057
            ]
        },
        {
            "positions": [
                -0.18334987016362186,
                -2.2768634116815396,
                -2.390096552030734,
                1.4623320633986459,
                0.16720055582262378,
                0.05728185805148937
            ]
        }
    ]
}