{
    "goal": {
        "global_pose": {
            "orientation": {
                "w": 0.5084816262002911,
                "x": -0.4908360881923452,
                "y": 0.5182115481033761,
                "z": -0.48164630358495003
            },
            "position": {
                "x": 0.5540239810943604,
                "y": -0.46912469901144505,
                "z": 0.16403168439865112
            }
        },
        "name": "move_to_storage_B"
    },
    "id": "PRMstar_move_to_storage_B_131",
    "joint_names": [
        "shoulder_pan_joint",
        "shoulder_lift_joint",
        "elbow_joint",
        "wrist_1_joint",
        "wrist_2_joint",
        "wrist_3_joint"
    ],
    "metrics": {
        "cart_traj_len": 0.8517152414552864,
        "distance_elbow_joint": 1.0262114963561935,
        "distance_shoulder_lift_joint": 0.7622614664795504,
        "distance_shoulder_pan_joint": 0.6291169533759468,
        "distance_wrist_1_joint": 3.016565914841423,
        "distance_wrist_2_joint": 2.7009814637686995,
        "distance_wrist_3_joint": 4.740208415769176,
        "smoothness": 0.22401138987191918,
        "time": 5.072974229000001,
        "traj_len": 3.588223196874881,
        "weighted_distance": 5.2984252302679025
    },
    "planner": "PRMstar",
    "start": {
        "state": {
            "elbow_joint": 1.664937868594044,
            "shoulder_lift_joint": -0.661644460510453,
            "shoulder_pan_joint": -0.9139846352900073,
            "wrist_1_joint": 2.146753192139373,
            "wrist_2_joint": -2.2341966793290973,
            "wrist_3_joint": 0.005466555786416001
        }
    },
    "waypoints": [
        {
            "positions": [
                -0.9139846352900073,
                -0.661644460510453,
                1.664937868594044,
                2.146753192139373,
                -2.2341966793290973,
                0.005466555786416001
            ]
        },
        {
            "positions": [
                -0.935300793448651,
                -0.6937894052151011,
                1.7012722637529227,
                2.0231776248049296,
                -2.1127539524546517,
                -0.03622133179809051
            ]
        },
        {
            "positions": [
                -0.9566169516072949,
                -0.7259343499197491,
                1.7376066589118013,
                1.8996020574704862,
                -1.9913112255802061,
                -0.07790921938259703
            ]
        },
        {
            "positions": [
                -0.9779331097659386,
                -0.7580792946243973,
                1.7739410540706801,
                1.7760264901360427,
                -1.8698684987057606,
                -0.11959710696710354
            ]
        },
        {
            "positions": [
                -0.9992492679245825,
                -0.7902242393290453,
                1.8102754492295587,
                1.652450922801599,
                -1.748425771831315,
                -0.16128499455161005
            ]
        },
        {
            "positions": [
                -1.0205654260832262,
                -0.8223691840336934,
                1.8466098443884376,
                1.5288753554671557,
                -1.6269830449568694,
                -0.20297288213611656
            ]
        },
        {
            "positions": [
                -1.04188158424187,
                -0.8545141287383415,
                1.8829442395473162,
                1.4052997881327123,
                -1.505540318082424,
                -0.2446607697206231
            ]
        },
        {
            "positions": [
                -1.0631977424005137,
                -0.8866590734429896,
                1.919278634706195,
                1.2817242207982686,
                -1.3840975912079785,
                -0.28634865730512954
            ]
        },
        {
            "positions": [
                -1.0845139005591575,
                -0.9188040181476377,
                1.9556130298650736,
                1.158148653463825,
                -1.262654864333533,
                -0.3280365448896361
            ]
        },
        {
            "positions": [
                -1.1058300587178014,
                -0.9509489628522858,
                1.9919474250239524,
                1.0345730861293816,
                -1.1412121374590873,
                -0.36972443247414255
            ]
        },
        {
            "positions": [
                -1.127146216876445,
                -0.9830939075569338,
                2.028281820182831,
                0.9109975187949382,
                -1.0197694105846418,
                -0.4114123200586491
            ]
        },
        {
            "positions": [
                -1.1484623750350889,
                -1.0152388522615818,
                2.06461621534171,
                0.7874219514604945,
                -0.8983266837101962,
                -0.4531002076431556
            ]
        },
        {
            "positions": [
                -1.1697785331937327,
                -1.04738379696623,
                2.1009506105005884,
                0.6638463841260511,
                -0.7768839568357508,
                -0.49478809522766215
            ]
        },
        {
            "positions": [
                -1.1910946913523766,
                -1.079528741670878,
                2.137285005659467,
                0.5402708167916075,
                -0.655441229961305,
                -0.5364759828121687
            ]
        },
        {
            "positions": [
                -1.2124108495110202,
                -1.111673686375526,
                2.173619400818346,
                0.4166952494571641,
                -0.5339985030868597,
                -0.5781638703966752
            ]
        },
        {
            "positions": [
                -1.233727007669664,
                -1.1438186310801743,
                2.2099537959772246,
                0.29311968212272044,
                -0.4125557762124139,
                -0.6198517579811818
            ]
        },
        {
            "positions": [
                -1.2550431658283079,
                -1.1759635757848224,
                2.2462881911361032,
                0.16954411478827702,
                -0.29111304933796855,
                -0.6615396455656882
            ]
        },
        {
            "positions": [
                -1.2763593239869517,
                -1.2081085204894704,
                2.2826225862949823,
                0.045968547453833164,
                -0.16967032246352298,
                -0.7032275331501947
            ]
        },
        {
            "positions": [
                -1.2976754821455954,
                -1.2402534651941184,
                2.318956981453861,
                -0.07760701988061003,
                -0.04822759558907741,
                -0.7449154207347012
            ]
        },
        {
            "positions": [
                -1.3189916403042392,
                -1.2723984098987666,
                2.3552913766127395,
                -0.20118258721505383,
                0.07321513128536794,
                -0.7866033083192078
            ]
        },
        {
            "positions": [
                -1.304050977080125,
                -1.2622979087593509,
                2.332900844056906,
                -0.24575792958085374,
                0.0994531081623169,
                -0.5233940715416376
            ]
        },
        {
            "positions": [
                -1.2891103138560105,
                -1.2521974076199351,
                2.3105103115010732,
                -0.2903332719466537,
                0.12569108503926585,
                -0.2601848347640674
            ]
        },
        {
            "positions": [
                -1.2741696506318962,
                -1.2420969064805192,
                2.28811977894524,
                -0.33490861431245356,
                0.1519290619162148,
                0.003024402013502958
            ]
        },
        {
            "positions": [
                -1.259228987407782,
                -1.2319964053411034,
                2.2657292463894065,
                -0.3794839566782535,
                0.17816703879316373,
                0.266233638791073
            ]
        },
        {
            "positions": [
                -1.2442883241836675,
                -1.2218959042016877,
                2.2433387138335736,
                -0.42405929904405343,
                0.20440501567011266,
                0.5294428755686432
            ]
        },
        {
            "positions": [
                -1.2293476609595533,
                -1.211795403062272,
                2.2209481812777403,
                -0.46863464140985334,
                0.23064299254706164,
                0.7926521123462137
            ]
        },
        {
            "positions": [
                -1.214406997735439,
                -1.2016949019228562,
                2.198557648721907,
                -0.5132099837756532,
                0.25688096942401056,
                1.0558613491237838
            ]
        },
        {
            "positions": [
                -1.1994663345113246,
                -1.1915944007834403,
                2.176167116166074,
                -0.5577853261414532,
                0.2831189463009595,
                1.3190705859013536
            ]
        },
        {
            "positions": [
                -1.1845256712872103,
                -1.1814938996440245,
                2.1537765836102407,
                -0.6023606685072531,
                0.3093569231779084,
                1.5822798226789239
            ]
        },
        {
            "positions": [
                -1.169585008063096,
                -1.1713933985046088,
                2.1313860510544074,
                -0.6469360108730531,
                0.33559490005485737,
                1.845489059456494
            ]
        },
        {
            "positions": [
                -1.1546443448389816,
                -1.161292897365193,
                2.1089955184985745,
                -0.6915113532388529,
                0.3618328769318063,
                2.1086982962340644
            ]
        },
        {
            "positions": [
                -1.1397036816148673,
                -1.1511923962257773,
                2.086604985942741,
                -0.7360866956046528,
                0.38807085380875533,
                2.371907533011635
            ]
        },
        {
            "positions": [
                -1.124763018390753,
                -1.1410918950863613,
                2.064214453386908,
                -0.7806620379704527,
                0.41430883068570423,
                2.635116769789205
            ]
        },
        {
            "positions": [
                -1.1098223551666386,
                -1.1309913939469456,
                2.041823920831075,
                -0.8252373803362527,
                0.4405468075626532,
                2.898326006566775
            ]
        },
        {
            "positions": [
                -1.0948816919425244,
                -1.1208908928075298,
                2.0194333882752415,
                -0.8698127227020527,
                0.46678478443960214,
                3.1615352433443453
            ]
        }
    ]
}