{
    "goal": {
        "global_pose": {
            "orientation": {
                "w": 0.7031023480610252,
                "x": -0.7110244013736278,
                "y": 0.0077485991402295624,
                "z": 0.005598929693374583
            },
            "position": {
                "x": -0.8841497679147869,
                "y": 0.44412534475326537,
                "z": 0.3711530566215515
            }
        },
        "name": "move_to_auspresseinheit_D"
    },
    "id": "PRMstar_move_to_auspresseinheit_D_93",
    "joint_names": [
        "shoulder_pan_joint",
        "shoulder_lift_joint",
        "elbow_joint",
        "wrist_1_joint",
        "wrist_2_joint",
        "wrist_3_joint"
    ],
    "metrics": {
        "cart_traj_len": 0.34290007514805454,
        "distance_elbow_joint": 0.6361692706676005,
        "distance_shoulder_lift_joint": 0.1200784702012716,
        "distance_shoulder_pan_joint": 0.13404304610241558,
        "distance_wrist_1_joint": 0.5313454984557109,
        "distance_wrist_2_joint": 1.4369081381350606,
        "distance_wrist_3_joint": 0.006503599023836681,
        "smoothness": 0.0,
        "time": 5.008065436,
        "traj_len": 1.6926452737020523,
        "weighted_distance": 2.201433364248017
    },
    "planner": "PRMstar",
    "start": {
        "state": {
            "elbow_joint": -1.8275523626775212,
            "shoulder_lift_joint": -2.126789852344167,
            "shoulder_pan_joint": -0.03513704404078235,
            "wrist_1_joint": -2.347782403156801,
            "wrist_2_joint": -1.6058999987535132,
            "wrist_3_joint": -3.0880379163319196
        }
    },
    "waypoints": [
        {
            "positions": [
                -0.03513704404078235,
                -2.126789852344167,
                -1.8275523626775212,
                -2.347782403156801,
                -1.6058999987535132,
                -3.0880379163319196
            ]
        },
        {
            "positions": [
                -0.051892424803584296,
                -2.1417996611193257,
                -1.748031203844071,
                -2.4142005904637647,
                -1.4262864814866307,
                -3.0888508662098992
            ]
        },
        {
            "positions": [
                -0.06864780556638625,
                -2.1568094698944846,
                -1.668510045010621,
                -2.4806187777707285,
                -1.246672964219748,
                -3.089663816087879
            ]
        },
        {
            "positions": [
                -0.0854031863291882,
                -2.1718192786696435,
                -1.588988886177171,
                -2.5470369650776923,
                -1.0670594469528654,
                -3.0904767659658585
            ]
        },
        {
            "positions": [
                -0.10215856709199014,
                -2.186829087444803,
                -1.509467727343721,
                -2.613455152384656,
                -0.8874459296859829,
                -3.091289715843838
            ]
        },
        {
            "positions": [
                -0.11891394785479209,
                -2.2018388962199618,
                -1.4299465685102708,
                -2.6798733396916203,
                -0.7078324124191003,
                -3.0921026657218174
            ]
        },
        {
            "positions": [
                -0.13566932861759404,
                -2.2168487049951207,
                -1.350425409676821,
                -2.746291526998584,
                -0.5282188951522178,
                -3.092915615599797
            ]
        },
        {
            "positions": [
                -0.15242470938039598,
                -2.2318585137702796,
                -1.2709042508433708,
                -2.812709714305548,
                -0.3486053778853351,
                -3.0937285654777766
            ]
        },
        {
            "positions": [
                -0.16918009014319793,
                -2.2468683225454384,
                -1.1913830920099207,
                -2.8791279016125118,
                -0.16899186061845253,
                -3.0945415153557563
            ]
        }
    ]
}