{
    "goal": {
        "global_pose": {
            "orientation": {
                "w": 0.5084816262002911,
                "x": -0.4908360881923452,
                "y": 0.5182115481033761,
                "z": -0.48164630358495003
            },
            "position": {
                "x": 0.5540239810943604,
                "y": -0.46912469901144505,
                "z": 0.16403168439865112
            }
        },
        "name": "move_to_storage_B"
    },
    "id": "PRMstar_move_to_storage_B_86",
    "joint_names": [
        "shoulder_pan_joint",
        "shoulder_lift_joint",
        "elbow_joint",
        "wrist_1_joint",
        "wrist_2_joint",
        "wrist_3_joint"
    ],
    "metrics": {
        "cart_traj_len": 1.52404114567338,
        "distance_elbow_joint": 0.8609530439234927,
        "distance_shoulder_lift_joint": 1.8229812375616823,
        "distance_shoulder_pan_joint": 0.25750378621219505,
        "distance_wrist_1_joint": 2.983902632190604,
        "distance_wrist_2_joint": 2.700668048644464,
        "distance_wrist_3_joint": 3.1430589469904104,
        "smoothness": 0.17620635163594248,
        "time": 5.034951636,
        "traj_len": 3.4306074819954047,
        "weighted_distance": 4.8723460745660025
    },
    "planner": "PRMstar",
    "start": {
        "state": {
            "elbow_joint": 1.664937868594044,
            "shoulder_lift_joint": -0.661644460510453,
            "shoulder_pan_joint": -0.9139846352900073,
            "wrist_1_joint": 2.146753192139373,
            "wrist_2_joint": -2.2341966793290973,
            "wrist_3_joint": 0.005466555786416001
        }
    },
    "waypoints": [
        {
            "positions": [
                -0.9139846352900073,
                -0.661644460510453,
                1.664937868594044,
                2.146753192139373,
                -2.2341966793290973,
                0.005466555786416001
            ]
        },
        {
            "positions": [
                -0.9116340577722283,
                -0.7329250842731423,
                1.702774014236236,
                2.10333550465433,
                -2.174187516232745,
                0.17724691346642266
            ]
        },
        {
            "positions": [
                -0.9092834802544492,
                -0.8042057080358315,
                1.740610159878428,
                2.0599178171692865,
                -2.1141783531363925,
                0.34902727114642934
            ]
        },
        {
            "positions": [
                -0.9069329027366702,
                -0.8754863317985208,
                1.7784463055206199,
                2.0165001296842435,
                -2.05416919004004,
                0.5208076288264359
            ]
        },
        {
            "positions": [
                -0.9045823252188911,
                -0.9467669555612099,
                1.816282451162812,
                1.9730824421992001,
                -1.9941600269436874,
                0.6925879865064426
            ]
        },
        {
            "positions": [
                -0.9022317477011121,
                -1.0180475793238992,
                1.854118596805004,
                1.9296647547141568,
                -1.934150863847335,
                0.8643683441864493
            ]
        },
        {
            "positions": [
                -0.8998811701833331,
                -1.0893282030865885,
                1.8919547424471959,
                1.8862470672291134,
                -1.8741417007509824,
                1.036148701866456
            ]
        },
        {
            "positions": [
                -0.897530592665554,
                -1.1606088268492778,
                1.929790888089388,
                1.84282937974407,
                -1.81413253765463,
                1.2079290595464627
            ]
        },
        {
            "positions": [
                -0.895180015147775,
                -1.231889450611967,
                1.96762703373158,
                1.7994116922590269,
                -1.7541233745582776,
                1.3797094172264692
            ]
        },
        {
            "positions": [
                -0.892829437629996,
                -1.3031700743746564,
                2.005463179373772,
                1.7559940047739837,
                -1.6941142114619252,
                1.5514897749064758
            ]
        },
        {
            "positions": [
                -0.8904788601122169,
                -1.3744506981373454,
                2.043299325015964,
                1.7125763172889403,
                -1.6341050483655728,
                1.7232701325864825
            ]
        },
        {
            "positions": [
                -0.8881282825944379,
                -1.4457313219000347,
                2.081135470658156,
                1.669158629803897,
                -1.5740958852692202,
                1.8950504902664893
            ]
        },
        {
            "positions": [
                -0.8857777050766589,
                -1.517011945662724,
                2.118971616300348,
                1.6257409423188536,
                -1.5140867221728678,
                2.066830847946496
            ]
        },
        {
            "positions": [
                -0.8834271275588799,
                -1.588292569425413,
                2.15680776194254,
                1.5823232548338104,
                -1.4540775590765154,
                2.2386112056265026
            ]
        },
        {
            "positions": [
                -0.8810765500411009,
                -1.6595731931881024,
                2.194643907584732,
                1.538905567348767,
                -1.3940683959801627,
                2.4103915633065096
            ]
        },
        {
            "positions": [
                -0.8787259725233217,
                -1.7308538169507917,
                2.232480053226924,
                1.495487879863724,
                -1.3340592328838103,
                2.582171920986516
            ]
        },
        {
            "positions": [
                -0.8763753950055427,
                -1.802134440713481,
                2.270316198869116,
                1.4520701923786805,
                -1.274050069787458,
                2.7539522786665227
            ]
        },
        {
            "positions": [
                -0.8910350314007248,
                -1.7566350235562374,
                2.253277884625888,
                1.2994555502166865,
                -1.158015307180603,
                2.780257160273876
            ]
        },
        {
            "positions": [
                -0.9056946677959068,
                -1.7111356063989938,
                2.23623957038266,
                1.1468409080546924,
                -1.041980544573748,
                2.80656204188123
            ]
        },
        {
            "positions": [
                -0.9203543041910889,
                -1.6656361892417502,
                2.219201256139432,
                0.9942262658926984,
                -0.9259457819668929,
                2.8328669234885835
            ]
        },
        {
            "positions": [
                -0.9350139405862709,
                -1.6201367720845066,
                2.202162941896204,
                0.8416116237307043,
                -0.809911019360038,
                2.859171805095937
            ]
        },
        {
            "positions": [
                -0.9496735769814529,
                -1.5746373549272628,
                2.185124627652976,
                0.6889969815687103,
                -0.693876256753183,
                2.885476686703291
            ]
        },
        {
            "positions": [
                -0.9643332133766349,
                -1.5291379377700192,
                2.1680863134097477,
                0.5363823394067162,
                -0.5778414941463279,
                2.9117815683106443
            ]
        },
        {
            "positions": [
                -0.978992849771817,
                -1.4836385206127756,
                2.15104799916652,
                0.38376769724472215,
                -0.46180673153947294,
                2.9380864499179977
            ]
        },
        {
            "positions": [
                -0.993652486166999,
                -1.438139103455532,
                2.1340096849232917,
                0.2311530550827281,
                -0.34577196893261797,
                2.9643913315253516
            ]
        },
        {
            "positions": [
                -1.008312122562181,
                -1.3926396862982884,
                2.116971370680064,
                0.07853841292073405,
                -0.229737206325763,
                2.990696213132705
            ]
        },
        {
            "positions": [
                -1.022971758957363,
                -1.3471402691410448,
                2.0999330564368357,
                -0.07407622924126,
                -0.11370244371890803,
                3.0170010947400585
            ]
        },
        {
            "positions": [
                -1.0376313953525451,
                -1.3016408519838012,
                2.0828947421936075,
                -0.22669087140325384,
                0.002332318887946938,
                3.0433059763474124
            ]
        },
        {
            "positions": [
                -1.0522910317477272,
                -1.2561414348265574,
                2.0658564279503797,
                -0.3793055135652481,
                0.11836708149480213,
                3.069610857954766
            ]
        },
        {
            "positions": [
                -1.0669506681429093,
                -1.2106420176693138,
                2.0488181137071515,
                -0.5319201557272422,
                0.2344018441016571,
                3.0959157395621193
            ]
        },
        {
            "positions": [
                -1.0816103045380911,
                -1.1651426005120702,
                2.0317797994639237,
                -0.6845347978892362,
                0.35043660670851207,
                3.122220621169473
            ]
        },
        {
            "positions": [
                -1.0962699409332732,
                -1.1196431833548266,
                2.0147414852206955,
                -0.8371494400512302,
                0.46647136931536703,
                3.1485255027768266
            ]
        }
    ]
}