{
    "goal": {
        "global_pose": {
            "orientation": {
                "w": -0.00223480608172531,
                "x": 0.0024358444001904467,
                "y": 0.7094548369677653,
                "z": -0.704743149386269
            },
            "position": {
                "x": -0.37947507619857795,
                "y": -0.6371506643295288,
                "z": 0.19426114857196808
            }
        },
        "name": "move_to_magneteinheit_C"
    },
    "id": "PRMstar_move_to_magneteinheit_C_14",
    "joint_names": [
        "shoulder_pan_joint",
        "shoulder_lift_joint",
        "elbow_joint",
        "wrist_1_joint",
        "wrist_2_joint",
        "wrist_3_joint"
    ],
    "metrics": {
        "cart_traj_len": 1.0658970527628728,
        "distance_elbow_joint": 0.8476582828378789,
        "distance_shoulder_lift_joint": 1.8512361962703205,
        "distance_shoulder_pan_joint": 0.8001540119969237,
        "distance_wrist_1_joint": 1.2815753878933465,
        "distance_wrist_2_joint": 0.7878445697520583,
        "distance_wrist_3_joint": 3.14180486376072,
        "smoothness": 1.0746905833606357,
        "time": 5.0261874319999995,
        "traj_len": 2.9513172165172703,
        "weighted_distance": 4.130775108581693
    },
    "planner": "PRMstar",
    "start": {
        "state": {
            "elbow_joint": 1.9565354010623817,
            "shoulder_lift_joint": -1.4165861575791021,
            "shoulder_pan_joint": -1.6717766225146293,
            "wrist_1_joint": -0.5286633292919765,
            "wrist_2_joint": 1.472756589071564,
            "wrist_3_joint": -3.1238370188695823
        }
    },
    "waypoints": [
        {
            "positions": [
                -1.6717766225146293,
                -1.4165861575791021,
                1.9565354010623817,
                -0.5286633292919765,
                1.472756589071564,
                -3.1238370188695823
            ]
        },
        {
            "positions": [
                -1.6969049474104132,
                -1.4965236588942359,
                2.0016262147189487,
                -0.47958604167908325,
                1.4626859918918,
                -2.9684629728038434
            ]
        },
        {
            "positions": [
                -1.722033272306197,
                -1.5764611602093697,
                2.046717028375516,
                -0.43050875406619,
                1.4526153947120362,
                -2.8130889267381045
            ]
        },
        {
            "positions": [
                -1.747161597201981,
                -1.6563986615245034,
                2.091807842032083,
                -0.3814314664532968,
                1.4425447975322725,
                -2.6577148806723656
            ]
        },
        {
            "positions": [
                -1.7722899220977648,
                -1.7363361628396372,
                2.13689865568865,
                -0.3323541788404035,
                1.4324742003525086,
                -2.5023408346066267
            ]
        },
        {
            "positions": [
                -1.7974182469935487,
                -1.816273664154771,
                2.1819894693452166,
                -0.2832768912275103,
                1.4224036031727447,
                -2.346966788540888
            ]
        },
        {
            "positions": [
                -1.8225465718893323,
                -1.8962111654699045,
                2.2270802830017837,
                -0.2341996036146171,
                1.4123330059929808,
                -2.191592742475149
            ]
        },
        {
            "positions": [
                -1.8476748967851162,
                -1.9761486667850383,
                2.272171096658351,
                -0.1851223160017239,
                1.402262408813217,
                -2.03621869640941
            ]
        },
        {
            "positions": [
                -1.8728032216809,
                -2.056086168100172,
                2.317261910314918,
                -0.1360450283888306,
                1.3921918116334533,
                -1.8808446503436707
            ]
        },
        {
            "positions": [
                -1.897931546576684,
                -2.136023669415306,
                2.362352723971485,
                -0.08696774077593739,
                1.3821212144536894,
                -1.7254706042779318
            ]
        },
        {
            "positions": [
                -1.9230598714724678,
                -2.2159611707304396,
                2.407443537628052,
                -0.03789045316304418,
                1.3720506172739255,
                -1.5700965582121928
            ]
        },
        {
            "positions": [
                -1.9749398286905053,
                -2.118514276818681,
                2.3844961224561416,
                -0.11307022398255995,
                1.3643878481906742,
                -1.6860993142613234
            ]
        },
        {
            "positions": [
                -2.026819785908543,
                -2.021067382906923,
                2.361548707284231,
                -0.18824999480207572,
                1.3567250791074228,
                -1.8021020703104542
            ]
        },
        {
            "positions": [
                -2.07869974312658,
                -1.9236204889951647,
                2.3386012921123203,
                -0.2634297656215914,
                1.3490623100241714,
                -1.9181048263595848
            ]
        },
        {
            "positions": [
                -2.1305797003446174,
                -1.8261735950834064,
                2.31565387694041,
                -0.33860953644110725,
                1.34139954094092,
                -2.0341075824087156
            ]
        },
        {
            "positions": [
                -2.1824596575626547,
                -1.728726701171648,
                2.2927064617684993,
                -0.41378930726062296,
                1.3337367718576685,
                -2.1501103384578464
            ]
        },
        {
            "positions": [
                -2.2343396147806924,
                -1.6312798072598897,
                2.269759046596589,
                -0.4889690780801387,
                1.3260740027744171,
                -2.2661130945069767
            ]
        },
        {
            "positions": [
                -2.2862195719987297,
                -1.5338329133481314,
                2.2468116314246784,
                -0.5641488488996544,
                1.3184112336911658,
                -2.3821158505561075
            ]
        },
        {
            "positions": [
                -2.338099529216767,
                -1.4363860194363731,
                2.2238642162527675,
                -0.6393286197191703,
                1.3107484646079144,
                -2.4981186066052383
            ]
        },
        {
            "positions": [
                -2.3899794864348047,
                -1.3389391255246148,
                2.200916801080857,
                -0.714508390538686,
                1.303085695524663,
                -2.6141213626543687
            ]
        },
        {
            "positions": [
                -2.441859443652842,
                -1.2414922316128565,
                2.1779693859089466,
                -0.7896881613582017,
                1.2954229264414117,
                -2.7301241187034995
            ]
        },
        {
            "positions": [
                -2.44937724136752,
                -1.2221441706125065,
                2.136150387270671,
                -0.7994393622505159,
                1.1427951996609351,
                -2.8371333293565053
            ]
        },
        {
            "positions": [
                -2.4568950390821973,
                -1.2027961096121564,
                2.094331388632395,
                -0.80919056314283,
                0.9901674728804586,
                -2.944142540009511
            ]
        },
        {
            "positions": [
                -2.464412836796875,
                -1.1834480486118066,
                2.0525123899941193,
                -0.8189417640351442,
                0.8375397460999822,
                -3.0511517506625174
            ]
        },
        {
            "positions": [
                -2.471930634511553,
                -1.1640999876114566,
                2.0106933913558436,
                -0.8286929649274584,
                0.6849120193195056,
                -3.1581609613155233
            ]
        }
    ]
}