{
    "goal": {
        "global_pose": {
            "orientation": {
                "w": -0.4816463035849501,
                "x": 0.5182115481033762,
                "y": 0.4908360881923453,
                "z": -0.5084816262002911
            },
            "position": {
                "x": -0.8240239810943604,
                "y": -0.300875300988555,
                "z": 0.16403168439865112
            }
        },
        "name": "move_to_storage_C"
    },
    "id": "PRMstar_move_to_storage_C_138",
    "joint_names": [
        "shoulder_pan_joint",
        "shoulder_lift_joint",
        "elbow_joint",
        "wrist_1_joint",
        "wrist_2_joint",
        "wrist_3_joint"
    ],
    "metrics": {
        "cart_traj_len": 0.57601748645507,
        "distance_elbow_joint": 0.25414775352199803,
        "distance_shoulder_lift_joint": 0.18886675781607665,
        "distance_shoulder_pan_joint": 0.49506340282873396,
        "distance_wrist_1_joint": 0.06601916007137698,
        "distance_wrist_2_joint": 1.061868766598356,
        "distance_wrist_3_joint": 0.061138139855310136,
        "smoothness": 2.5376526478085547e-16,
        "time": 5.004277996,
        "traj_len": 1.4584594545930483,
        "weighted_distance": 1.8377345257333022
    },
    "planner": "PRMstar",
    "start": {
        "state": {
            "elbow_joint": 2.010868314990456,
            "shoulder_lift_joint": -1.1634956873337592,
            "shoulder_pan_joint": -2.4736205022346125,
            "wrist_1_joint": -0.8367026794202681,
            "wrist_2_joint": 0.6746043897044499,
            "wrist_3_joint": -3.1496632123970403
        }
    },
    "waypoints": [
        {
            "positions": [
                -2.4736205022346125,
                -1.1634956873337592,
                2.010868314990456,
                -0.8367026794202681,
                0.6746043897044499,
                -3.1496632123970403
            ]
        },
        {
            "positions": [
                -2.556131069372735,
                -1.132017894364413,
                1.968510356070123,
                -0.8256994860750386,
                0.8515825174708426,
                -3.1394735224211554
            ]
        },
        {
            "positions": [
                -2.638641636510857,
                -1.100540101395067,
                1.9261523971497898,
                -0.8146962927298091,
                1.0285606452372353,
                -3.12928383244527
            ]
        },
        {
            "positions": [
                -2.7211522036489795,
                -1.069062308425721,
                1.8837944382294567,
                -0.8036930993845797,
                1.205538773003628,
                -3.119094142469385
            ]
        },
        {
            "positions": [
                -2.803662770787102,
                -1.0375845154563748,
                1.8414364793091238,
                -0.7926899060393501,
                1.3825169007700207,
                -3.1089044524935003
            ]
        },
        {
            "positions": [
                -2.886173337925224,
                -1.0061067224870286,
                1.799078520388791,
                -0.7816867126941206,
                1.5594950285364133,
                -3.098714762517615
            ]
        },
        {
            "positions": [
                -2.9686839050633465,
                -0.9746289295176825,
                1.7567205614684578,
                -0.7706835193488911,
                1.736473156302806,
                -3.08852507254173
            ]
        }
    ]
}