{
    "goal": {
        "global_pose": {
            "orientation": {
                "w": -0.4816463035849501,
                "x": 0.5182115481033762,
                "y": 0.4908360881923453,
                "z": -0.5084816262002911
            },
            "position": {
                "x": -0.8240239810943604,
                "y": -0.300875300988555,
                "z": 0.16403168439865112
            }
        },
        "name": "move_to_storage_C"
    },
    "id": "PRMstar_move_to_storage_C_134",
    "joint_names": [
        "shoulder_pan_joint",
        "shoulder_lift_joint",
        "elbow_joint",
        "wrist_1_joint",
        "wrist_2_joint",
        "wrist_3_joint"
    ],
    "metrics": {
        "cart_traj_len": 0.5768526947015711,
        "distance_elbow_joint": 0.2554498833956329,
        "distance_shoulder_lift_joint": 0.18794798055102446,
        "distance_shoulder_pan_joint": 0.4970288288910161,
        "distance_wrist_1_joint": 0.07519763100766386,
        "distance_wrist_2_joint": 1.0573921525134202,
        "distance_wrist_3_joint": 0.059737643307801847,
        "smoothness": 2.5376526478085547e-16,
        "time": 5.011465384,
        "traj_len": 1.4603951929757095,
        "weighted_distance": 1.83978781108128
    },
    "planner": "PRMstar",
    "start": {
        "state": {
            "elbow_joint": 2.010868314990456,
            "shoulder_lift_joint": -1.1634956873337592,
            "shoulder_pan_joint": -2.4736205022346125,
            "wrist_1_joint": -0.8367026794202681,
            "wrist_2_joint": 0.6746043897044499,
            "wrist_3_joint": -3.1496632123970403
        }
    },
    "waypoints": [
        {
            "positions": [
                -2.4736205022346125,
                -1.1634956873337592,
                2.010868314990456,
                -0.8367026794202681,
                0.6746043897044499,
                -3.1496632123970403
            ]
        },
        {
            "positions": [
                -2.556458640383115,
                -1.1321710239085885,
                1.968293334424517,
                -0.8241697409189908,
                0.8508364151233533,
                -3.139706938512407
            ]
        },
        {
            "positions": [
                -2.6392967785316177,
                -1.1008463604834178,
                1.9257183538585783,
                -0.8116368024177135,
                1.0270684405422568,
                -3.129750664627773
            ]
        },
        {
            "positions": [
                -2.7221349166801208,
                -1.069521697058247,
                1.8831433732926395,
                -0.7991038639164362,
                1.20330046596116,
                -3.1197943907431394
            ]
        },
        {
            "positions": [
                -2.8049730548286234,
                -1.0381970336330761,
                1.8405683927267005,
                -0.7865709254151588,
                1.3795324913800635,
                -3.109838116858506
            ]
        },
        {
            "positions": [
                -2.887811192977126,
                -1.0068723702079054,
                1.7979934121607617,
                -0.7740379869138816,
                1.5557645167989667,
                -3.099881842973872
            ]
        },
        {
            "positions": [
                -2.9706493311256286,
                -0.9755477067827347,
                1.755418431594823,
                -0.7615050484126042,
                1.7319965422178702,
                -3.0899255690892384
            ]
        }
    ]
}