{
    "goal": {
        "global_pose": {
            "orientation": {
                "w": -0.00223480608172531,
                "x": 0.0024358444001904467,
                "y": 0.7094548369677653,
                "z": -0.704743149386269
            },
            "position": {
                "x": -0.37947507619857795,
                "y": -0.6371506643295288,
                "z": 0.19426114857196808
            }
        },
        "name": "move_to_magneteinheit_C"
    },
    "id": "PRMstar_move_to_magneteinheit_C_66",
    "joint_names": [
        "shoulder_pan_joint",
        "shoulder_lift_joint",
        "elbow_joint",
        "wrist_1_joint",
        "wrist_2_joint",
        "wrist_3_joint"
    ],
    "metrics": {
        "cart_traj_len": 0.75332212000913,
        "distance_elbow_joint": 0.4917640095671123,
        "distance_shoulder_lift_joint": 0.7713997513367856,
        "distance_shoulder_pan_joint": 1.1476482139517816,
        "distance_wrist_1_joint": 0.9104678586467341,
        "distance_wrist_2_joint": 1.6542584770387743,
        "distance_wrist_3_joint": 0.6910483889930146,
        "smoothness": 1.3688565798377823,
        "time": 5.022113367999999,
        "traj_len": 2.380459346330914,
        "weighted_distance": 3.1005499210955696
    },
    "planner": "PRMstar",
    "start": {
        "state": {
            "elbow_joint": 1.9565354010623817,
            "shoulder_lift_joint": -1.4165861575791021,
            "shoulder_pan_joint": -1.6717766225146293,
            "wrist_1_joint": -0.5286633292919765,
            "wrist_2_joint": 1.472756589071564,
            "wrist_3_joint": -3.1238370188695823
        }
    },
    "waypoints": [
        {
            "positions": [
                -1.6717766225146293,
                -1.4165861575791021,
                1.9565354010623817,
                -0.5286633292919765,
                1.472756589071564,
                -3.1238370188695823
            ]
        },
        {
            "positions": [
                -1.780052449983299,
                -1.4454626813257387,
                1.986864012767118,
                -0.49499590988541137,
                1.3368505613930632,
                -3.0865709386382756
            ]
        },
        {
            "positions": [
                -1.8883282774519687,
                -1.4743392050723754,
                2.0171926244718543,
                -0.46132849047884633,
                1.2009445337145626,
                -3.0493048584069684
            ]
        },
        {
            "positions": [
                -1.9966041049206384,
                -1.503215728819012,
                2.047521236176591,
                -0.42766107107228124,
                1.0650385060360619,
                -3.0120387781756617
            ]
        },
        {
            "positions": [
                -2.1048799323893084,
                -1.5320922525656484,
                2.0778498478813274,
                -0.3939936516657162,
                0.9291324783575612,
                -2.9747726979443545
            ]
        },
        {
            "positions": [
                -2.213155759857978,
                -1.560968776312285,
                2.1081784595860635,
                -0.36032623225915106,
                0.7932264506790605,
                -2.9375066177130478
            ]
        },
        {
            "positions": [
                -2.321431587326648,
                -1.5898453000589217,
                2.1385070712908,
                -0.326658812852586,
                0.6573204230005598,
                -2.9002405374817406
            ]
        },
        {
            "positions": [
                -2.4297074147953177,
                -1.6187218238055583,
                2.1688356829955366,
                -0.292991393446021,
                0.5214143953220591,
                -2.862974457250434
            ]
        },
        {
            "positions": [
                -2.537983242263987,
                -1.647598347552195,
                2.1991642947002727,
                -0.2593239740394559,
                0.38550836764355845,
                -2.8257083770191267
            ]
        },
        {
            "positions": [
                -2.646259069732657,
                -1.6764748712988315,
                2.2294929064050093,
                -0.2256565546328908,
                0.24960233996505782,
                -2.78844229678782
            ]
        },
        {
            "positions": [
                -2.617398108610365,
                -1.5912230316959888,
                2.1930251557009286,
                -0.3269000686308322,
                0.32145304462043583,
                -2.8477179079396953
            ]
        },
        {
            "positions": [
                -2.5885371474880725,
                -1.5059711920931462,
                2.156557404996848,
                -0.4281435826287736,
                0.39330374927581385,
                -2.9069935190915706
            ]
        },
        {
            "positions": [
                -2.55967618636578,
                -1.4207193524903035,
                2.1200896542927667,
                -0.529387096626715,
                0.4651544539311919,
                -2.966269130243446
            ]
        },
        {
            "positions": [
                -2.530815225243488,
                -1.335467512887461,
                2.083621903588686,
                -0.6306306106246564,
                0.5370051585865698,
                -3.0255447413953216
            ]
        },
        {
            "positions": [
                -2.5019542641211956,
                -1.2502156732846181,
                2.0471541528846053,
                -0.7318741246225978,
                0.608855863241948,
                -3.084820352547197
            ]
        },
        {
            "positions": [
                -2.4730933029989033,
                -1.1649638336817754,
                2.0106864021805246,
                -0.8331176386205392,
                0.680706567897326,
                -3.144095963699072
            ]
        }
    ]
}