{
    "goal": {
        "global_pose": {
            "orientation": {
                "w": -0.4816463035849501,
                "x": 0.5182115481033762,
                "y": 0.4908360881923453,
                "z": -0.5084816262002911
            },
            "position": {
                "x": -0.8240239810943604,
                "y": -0.300875300988555,
                "z": 0.16403168439865112
            }
        },
        "name": "move_to_storage_C"
    },
    "id": "PRMstar_move_to_storage_C_135",
    "joint_names": [
        "shoulder_pan_joint",
        "shoulder_lift_joint",
        "elbow_joint",
        "wrist_1_joint",
        "wrist_2_joint",
        "wrist_3_joint"
    ],
    "metrics": {
        "cart_traj_len": 0.5762956158516341,
        "distance_elbow_joint": 0.25558335247074115,
        "distance_shoulder_lift_joint": 0.19003582757269966,
        "distance_shoulder_pan_joint": 0.49515784110223615,
        "distance_wrist_1_joint": 0.068633481851894,
        "distance_wrist_2_joint": 1.0604424992734032,
        "distance_wrist_3_joint": 0.06625888103350608,
        "smoothness": 0.0,
        "time": 5.016646389,
        "traj_len": 1.4615443487299589,
        "weighted_distance": 1.8432866370960292
    },
    "planner": "PRMstar",
    "start": {
        "state": {
            "elbow_joint": 2.010868314990456,
            "shoulder_lift_joint": -1.1634956873337592,
            "shoulder_pan_joint": -2.4736205022346125,
            "wrist_1_joint": -0.8367026794202681,
            "wrist_2_joint": 0.6746043897044499,
            "wrist_3_joint": -3.1496632123970403
        }
    },
    "waypoints": [
        {
            "positions": [
                -2.4736205022346125,
                -1.1634956873337592,
                2.010868314990456,
                -0.8367026794202681,
                0.6746043897044499,
                -3.1496632123970403
            ]
        },
        {
            "positions": [
                -2.5561468090849853,
                -1.131823049404976,
                1.9682710895786657,
                -0.8252637657782858,
                0.8513448062500171,
                -3.1386200655581225
            ]
        },
        {
            "positions": [
                -2.638673115935358,
                -1.1001504114761926,
                1.9256738641668754,
                -0.8138248521363034,
                1.0280852227955843,
                -3.127576918719205
            ]
        },
        {
            "positions": [
                -2.7211994227857303,
                -1.0684777735474094,
                1.8830766387550852,
                -0.802385938494321,
                1.2048256393411516,
                -3.1165337718802872
            ]
        },
        {
            "positions": [
                -2.803725729636103,
                -1.036805135618626,
                1.8404794133432951,
                -0.7909470248523388,
                1.3815660558867187,
                -3.1054906250413694
            ]
        },
        {
            "positions": [
                -2.886252036486476,
                -1.0051324976898428,
                1.7978821879315048,
                -0.7795081112103565,
                1.558306472432286,
                -3.094447478202452
            ]
        },
        {
            "positions": [
                -2.9687783433368486,
                -0.9734598597610595,
                1.7552849625197147,
                -0.7680691975683741,
                1.735046888977853,
                -3.083404331363534
            ]
        }
    ]
}