{
    "goal": {
        "global_pose": {
            "orientation": {
                "w": -0.4816463035849501,
                "x": 0.5182115481033762,
                "y": 0.4908360881923453,
                "z": -0.5084816262002911
            },
            "position": {
                "x": -0.8240239810943604,
                "y": -0.300875300988555,
                "z": 0.16403168439865112
            }
        },
        "name": "move_to_storage_C"
    },
    "id": "PRMstar_move_to_storage_C_124",
    "joint_names": [
        "shoulder_pan_joint",
        "shoulder_lift_joint",
        "elbow_joint",
        "wrist_1_joint",
        "wrist_2_joint",
        "wrist_3_joint"
    ],
    "metrics": {
        "cart_traj_len": 0.5763510960883166,
        "distance_elbow_joint": 0.2560527256215366,
        "distance_shoulder_lift_joint": 0.18870192880940795,
        "distance_shoulder_pan_joint": 0.49363326172124555,
        "distance_wrist_1_joint": 0.06818460965010953,
        "distance_wrist_2_joint": 1.0728655365362725,
        "distance_wrist_3_joint": 0.055937317562966715,
        "smoothness": 2.5376526478085547e-16,
        "time": 5.008753381,
        "traj_len": 1.4612923663324662,
        "weighted_distance": 1.840733593221424
    },
    "planner": "PRMstar",
    "start": {
        "state": {
            "elbow_joint": 2.010868314990456,
            "shoulder_lift_joint": -1.1634956873337592,
            "shoulder_pan_joint": -2.4736205022346125,
            "wrist_1_joint": -0.8367026794202681,
            "wrist_2_joint": 0.6746043897044499,
            "wrist_3_joint": -3.1496632123970403
        }
    },
    "waypoints": [
        {
            "positions": [
                -2.4736205022346125,
                -1.1634956873337592,
                2.010868314990456,
                -0.8367026794202681,
                0.6746043897044499,
                -3.1496632123970403
            ]
        },
        {
            "positions": [
                -2.5558927125214868,
                -1.1320453658655245,
                1.9681928607201997,
                -0.8253385778119166,
                0.8534153124604953,
                -3.140340326136546
            ]
        },
        {
            "positions": [
                -2.638164922808361,
                -1.1005950443972898,
                1.9255174064499436,
                -0.8139744762035649,
                1.0322262352165408,
                -3.1310174398760515
            ]
        },
        {
            "positions": [
                -2.7204371330952353,
                -1.0691447229290552,
                1.8828419521796875,
                -0.8026103745952133,
                1.2110371579725863,
                -3.1216945536155567
            ]
        },
        {
            "positions": [
                -2.8027093433821095,
                -1.0376944014608205,
                1.8401664979094314,
                -0.7912462729868618,
                1.3898480807286315,
                -3.1123716673550623
            ]
        },
        {
            "positions": [
                -2.884981553668984,
                -1.0062440799925858,
                1.7974910436391753,
                -0.7798821713785101,
                1.568659003484677,
                -3.103048781094568
            ]
        },
        {
            "positions": [
                -2.967253763955858,
                -0.9747937585243512,
                1.7548155893689192,
                -0.7685180697701586,
                1.7474699262407225,
                -3.0937258948340736
            ]
        }
    ]
}