{
    "goal": {
        "global_pose": {
            "orientation": {
                "w": 0.7047431468963623,
                "x": -0.7094548344612122,
                "y": 0.0024358443915843964,
                "z": -0.0022348060738295317
            },
            "position": {
                "x": 0.6094750761985779,
                "y": 0.3671506643295288,
                "z": 0.19426114857196808
            }
        },
        "name": "move_to_magneteinheit_A"
    },
    "id": "PRMstar_move_to_magneteinheit_A_46",
    "joint_names": [
        "shoulder_pan_joint",
        "shoulder_lift_joint",
        "elbow_joint",
        "wrist_1_joint",
        "wrist_2_joint",
        "wrist_3_joint"
    ],
    "metrics": {
        "cart_traj_len": 3.3141676872934123,
        "distance_elbow_joint": 3.870928405553301,
        "distance_shoulder_lift_joint": 0.9372093452534354,
        "distance_shoulder_pan_joint": 2.5755239465546094,
        "distance_wrist_1_joint": 1.0112052456373006,
        "distance_wrist_2_joint": 2.210071800970593,
        "distance_wrist_3_joint": 2.949900753073939,
        "smoothness": 0.19613155355910328,
        "time": 5.0507385000000005,
        "traj_len": 3.6816897611074153,
        "weighted_distance": 4.761923776143309
    },
    "planner": "PRMstar",
    "start": {
        "state": {
            "elbow_joint": -1.9196185241190666,
            "shoulder_lift_joint": -1.2443396400964142,
            "shoulder_pan_joint": 2.6996025414629847,
            "wrist_1_joint": -1.5485510000780065,
            "wrist_2_joint": -1.5709468930060704,
            "wrist_3_joint": 0.4420197071253992
        }
    },
    "waypoints": [
        {
            "positions": [
                2.6996025414629847,
                -1.2443396400964142,
                -1.9196185241190666,
                -1.5485510000780065,
                -1.5709468930060704,
                0.4420197071253992
            ]
        },
        {
            "positions": [
                2.4950161131787447,
                -1.212574552801259,
                -1.9161306573009655,
                -1.4949014468206459,
                -1.6076905255267837,
                0.4147481380041933
            ]
        },
        {
            "positions": [
                2.2904296848945043,
                -1.180809465506104,
                -1.9126427904828645,
                -1.441251893563285,
                -1.644434158047497,
                0.3874765688829874
            ]
        },
        {
            "positions": [
                2.0858432566102643,
                -1.149044378210949,
                -1.9091549236647634,
                -1.3876023403059243,
                -1.6811777905682104,
                0.36020499976178155
            ]
        },
        {
            "positions": [
                1.881256828326024,
                -1.1172792909157938,
                -1.9056670568466623,
                -1.3339527870485637,
                -1.717921423088924,
                0.3329334306405757
            ]
        },
        {
            "positions": [
                1.6766704000417838,
                -1.0855142036206387,
                -1.9021791900285612,
                -1.2803032337912028,
                -1.7546650556096373,
                0.30566186151936975
            ]
        },
        {
            "positions": [
                1.4720839717575436,
                -1.0537491163254837,
                -1.89869132321046,
                -1.2266536805338422,
                -1.7914086881303506,
                0.27839029239816393
            ]
        },
        {
            "positions": [
                1.2674975434733033,
                -1.0219840290303286,
                -1.895203456392359,
                -1.1730041272764815,
                -1.828152320651064,
                0.251118723276958
            ]
        },
        {
            "positions": [
                1.2004058899670926,
                -1.0017020406829202,
                -1.7340681119324122,
                -1.1365518756875566,
                -1.7630957835488765,
                0.2959498966738407
            ]
        },
        {
            "positions": [
                1.1333142364608821,
                -0.9814200523355119,
                -1.5729327674724654,
                -1.1000996240986316,
                -1.6980392464466894,
                0.34078107007072334
            ]
        },
        {
            "positions": [
                1.0662225829546714,
                -0.9611380639881035,
                -1.4117974230125185,
                -1.0636473725097066,
                -1.632982709344502,
                0.38561224346760603
            ]
        },
        {
            "positions": [
                0.9991309294484607,
                -0.9408560756406952,
                -1.2506620785525717,
                -1.027195120920782,
                -1.5679261722423148,
                0.4304434168644887
            ]
        },
        {
            "positions": [
                0.9320392759422502,
                -0.9205740872932869,
                -1.089526734092625,
                -0.990742869331857,
                -1.5028696351401274,
                0.4752745902613714
            ]
        },
        {
            "positions": [
                0.8649476224360395,
                -0.9002920989458786,
                -0.928391389632678,
                -0.954290617742932,
                -1.4378130980379402,
                0.5201057636582541
            ]
        },
        {
            "positions": [
                0.7978559689298288,
                -0.8800101105984702,
                -0.767256045172731,
                -0.917838366154007,
                -1.3727565609357528,
                0.5649369370551367
            ]
        },
        {
            "positions": [
                0.7307643154236182,
                -0.8597281222510619,
                -0.6061207007127845,
                -0.8813861145650821,
                -1.3077000238335654,
                0.6097681104520194
            ]
        },
        {
            "positions": [
                0.6636726619174076,
                -0.8394461339036535,
                -0.44498535625283764,
                -0.8449338629761572,
                -1.2426434867313783,
                0.6545992838489021
            ]
        },
        {
            "positions": [
                0.596581008411197,
                -0.8191641455562453,
                -0.2838500117928908,
                -0.8084816113872324,
                -1.177586949629191,
                0.6994304572457848
            ]
        },
        {
            "positions": [
                0.5294893549049864,
                -0.7988821572088369,
                -0.122714667332944,
                -0.7720293597983074,
                -1.1125304125270037,
                0.7442616306426675
            ]
        },
        {
            "positions": [
                0.4623977013987757,
                -0.7786001688614286,
                0.03842067712700303,
                -0.7355771082093825,
                -1.0474738754248163,
                0.7890928040395502
            ]
        },
        {
            "positions": [
                0.39530604789256496,
                -0.7583181805140202,
                0.19955602158694985,
                -0.6991248566204575,
                -0.982417338322629,
                0.8339239774364329
            ]
        },
        {
            "positions": [
                0.32821439438635436,
                -0.7380361921666119,
                0.3606913660468969,
                -0.6626726050315327,
                -0.9173608012204417,
                0.8787551508333156
            ]
        },
        {
            "positions": [
                0.26112274088014387,
                -0.7177542038192035,
                0.5218267105068436,
                -0.6262203534426077,
                -0.8523042641182544,
                0.9235863242301982
            ]
        },
        {
            "positions": [
                0.2598231712695287,
                -0.730370026862539,
                0.62218459431626,
                -0.6211404828018229,
                -0.7844389554123412,
                0.9927408106205464
            ]
        },
        {
            "positions": [
                0.2585236016589136,
                -0.7429858499058746,
                0.7225424781256766,
                -0.616060612161038,
                -0.7165736467064281,
                1.0618952970108948
            ]
        },
        {
            "positions": [
                0.24864211570363579,
                -0.7720060835793943,
                0.8206847054615106,
                -0.6209294540862588,
                -0.6474406974711284,
                1.2119077137671823
            ]
        },
        {
            "positions": [
                0.238760629748358,
                -0.8010263172529141,
                0.9188269327973446,
                -0.6257982960114794,
                -0.5783077482358288,
                1.3619201305234698
            ]
        },
        {
            "positions": [
                0.2288791437930802,
                -0.8300465509264338,
                1.0169691601331787,
                -0.6306671379367002,
                -0.5091747990005291,
                1.5119325472797573
            ]
        },
        {
            "positions": [
                0.2189976578378024,
                -0.8590667845999536,
                1.1151113874690126,
                -0.6355359798619209,
                -0.4400418497652293,
                1.6619449640360449
            ]
        },
        {
            "positions": [
                0.20911617188252457,
                -0.8880870182734732,
                1.2132536148048467,
                -0.6404048217871416,
                -0.37090890052992964,
                1.8119573807923324
            ]
        },
        {
            "positions": [
                0.1992346859272468,
                -0.9171072519469929,
                1.3113958421406808,
                -0.6452736637123623,
                -0.30177595129463,
                1.9619697975486199
            ]
        },
        {
            "positions": [
                0.18935319997196898,
                -0.9461274856205127,
                1.4095380694765147,
                -0.650142505637583,
                -0.2326430020593303,
                2.1119822143049074
            ]
        },
        {
            "positions": [
                0.17947171401669118,
                -0.9751477192940324,
                1.5076802968123488,
                -0.6550113475628038,
                -0.16351005282403053,
                2.261994631061195
            ]
        },
        {
            "positions": [
                0.16959022806141338,
                -1.0041679529675522,
                1.605822524148183,
                -0.6598801894880244,
                -0.09437710358873086,
                2.4120070478174824
            ]
        },
        {
            "positions": [
                0.1597087421061356,
                -1.033188186641072,
                1.7039647514840168,
                -0.6647490314132452,
                -0.025244154353431143,
                2.56201946457377
            ]
        },
        {
            "positions": [
                0.14783202637354867,
                -1.0649181620258574,
                1.7864131281340896,
                -0.6747578442359535,
                0.024741914655891324,
                2.7113858072166654
            ]
        },
        {
            "positions": [
                0.13595531064096178,
                -1.0966481374106427,
                1.8688615047841626,
                -0.6847666570586619,
                0.0747279836652138,
                2.8607521498595605
            ]
        },
        {
            "positions": [
                0.12407859490837486,
                -1.1283781127954282,
                1.9513098814342353,
                -0.6947754698813703,
                0.12471405267453628,
                3.010118492502456
            ]
        }
    ]
}