{
    "goal": {
        "global_pose": {
            "orientation": {
                "w": -0.00223480608172531,
                "x": 0.0024358444001904467,
                "y": 0.7094548369677653,
                "z": -0.704743149386269
            },
            "position": {
                "x": -0.37947507619857795,
                "y": -0.6371506643295288,
                "z": 0.19426114857196808
            }
        },
        "name": "move_to_magneteinheit_C"
    },
    "id": "PRMstar_move_to_magneteinheit_C_106",
    "joint_names": [
        "shoulder_pan_joint",
        "shoulder_lift_joint",
        "elbow_joint",
        "wrist_1_joint",
        "wrist_2_joint",
        "wrist_3_joint"
    ],
    "metrics": {
        "cart_traj_len": 5.383257377469452,
        "distance_elbow_joint": 0.17235807476503373,
        "distance_shoulder_lift_joint": 3.804751431429783,
        "distance_shoulder_pan_joint": 8.377700544174902,
        "distance_wrist_1_joint": 0.4573680616840258,
        "distance_wrist_2_joint": 4.699337392660208,
        "distance_wrist_3_joint": 5.394616583415411,
        "smoothness": 0.5884162599034621,
        "time": 5.160231587,
        "traj_len": 4.786035111460149,
        "weighted_distance": 6.233142923863083
    },
    "planner": "PRMstar",
    "start": {
        "state": {
            "elbow_joint": 1.9565354010623817,
            "shoulder_lift_joint": -1.4165861575791021,
            "shoulder_pan_joint": -1.6717766225146293,
            "wrist_1_joint": -0.5286633292919765,
            "wrist_2_joint": 1.472756589071564,
            "wrist_3_joint": -3.1238370188695823
        }
    },
    "waypoints": [
        {
            "positions": [
                -1.6717766225146293,
                -1.4165861575791021,
                1.9565354010623817,
                -0.5286633292919765,
                1.472756589071564,
                -3.1238370188695823
            ]
        },
        {
            "positions": [
                -1.5411881325827492,
                -1.4778243042036208,
                1.9603997846905645,
                -0.5416364810244159,
                1.377802255817557,
                -3.0312733405541135
            ]
        },
        {
            "positions": [
                -1.4105996426508691,
                -1.5390624508281392,
                1.9642641683187474,
                -0.5546096327568553,
                1.2828479225635503,
                -2.938709662238645
            ]
        },
        {
            "positions": [
                -1.280011152718989,
                -1.6003005974526578,
                1.9681285519469303,
                -0.5675827844892947,
                1.1878935893095433,
                -2.846145983923176
            ]
        },
        {
            "positions": [
                -1.1494226627871091,
                -1.6615387440771765,
                1.9719929355751131,
                -0.580555936221734,
                1.0929392560555364,
                -2.7535823056077073
            ]
        },
        {
            "positions": [
                -1.0188341728552288,
                -1.7227768907016952,
                1.9758573192032958,
                -0.5935290879541734,
                0.9979849228015296,
                -2.661018627292239
            ]
        },
        {
            "positions": [
                -0.8882456829233488,
                -1.7840150373262136,
                1.9797217028314786,
                -0.6065022396866128,
                0.9030305895475227,
                -2.56845494897677
            ]
        },
        {
            "positions": [
                -0.7576571929914687,
                -1.8452531839507322,
                1.9835860864596615,
                -0.6194753914190522,
                0.8080762562935158,
                -2.475891270661301
            ]
        },
        {
            "positions": [
                -0.6270687030595887,
                -1.9064913305752507,
                1.9874504700878444,
                -0.6324485431514916,
                0.7131219230395089,
                -2.383327592345833
            ]
        },
        {
            "positions": [
                -0.4964802131277086,
                -1.9677294771997693,
                1.9913148537160272,
                -0.645421694883931,
                0.618167589785502,
                -2.290763914030364
            ]
        },
        {
            "positions": [
                -0.3658917231958285,
                -2.028967623824288,
                1.99517923734421,
                -0.6583948466163704,
                0.5232132565314952,
                -2.198200235714895
            ]
        },
        {
            "positions": [
                -0.23530323326394842,
                -2.0902057704488066,
                1.999043620972393,
                -0.6713679983488097,
                0.4282589232774885,
                -2.1056365573994267
            ]
        },
        {
            "positions": [
                -0.10471474333206832,
                -2.1514439170733253,
                2.0029080046005756,
                -0.6843411500812491,
                0.33330459002348145,
                -2.013072879083958
            ]
        },
        {
            "positions": [
                0.025873746599811787,
                -2.2126820636978435,
                2.0067723882287587,
                -0.6973143018136885,
                0.23835025676947463,
                -1.9205092007684892
            ]
        },
        {
            "positions": [
                0.1564622365316919,
                -2.2739202103223626,
                2.0106367718569413,
                -0.7102874535461279,
                0.1433959235154676,
                -1.8279455224530203
            ]
        },
        {
            "positions": [
                0.287050726463572,
                -2.335158356946881,
                2.0145011554851244,
                -0.7232606052785673,
                0.048441590261460776,
                -1.7353818441375517
            ]
        },
        {
            "positions": [
                0.4176392163954519,
                -2.3963965035713994,
                2.018365539113307,
                -0.7362337570110067,
                -0.04651274299254604,
                -1.642818165822083
            ]
        },
        {
            "positions": [
                0.5482277063273318,
                -2.457634650195918,
                2.02222992274149,
                -0.7492069087434461,
                -0.14146707624655264,
                -1.5502544875066144
            ]
        },
        {
            "positions": [
                0.6788161962592121,
                -2.5188727968204367,
                2.026094306369673,
                -0.7621800604758855,
                -0.2364214095005599,
                -1.4576908091911456
            ]
        },
        {
            "positions": [
                0.809404686191092,
                -2.5801109434449554,
                2.029958689997856,
                -0.7751532122083248,
                -0.3313757427545665,
                -1.365127130875677
            ]
        },
        {
            "positions": [
                0.9399931761229723,
                -2.6413490900694736,
                2.0338230736260385,
                -0.7881263639407643,
                -0.42633007600857353,
                -1.272563452560208
            ]
        },
        {
            "positions": [
                1.0705816660548522,
                -2.7025872366939927,
                2.037687457254221,
                -0.8010995156732036,
                -0.5212844092625804,
                -1.1799997742447395
            ]
        },
        {
            "positions": [
                1.2011701559867325,
                -2.763825383318511,
                2.0415518408824043,
                -0.814072667405643,
                -0.616238742516587,
                -1.087436095929271
            ]
        },
        {
            "positions": [
                1.3317586459186128,
                -2.8250635299430296,
                2.045416224510587,
                -0.8270458191380824,
                -0.711193075770594,
                -0.9948724176138022
            ]
        },
        {
            "positions": [
                1.4623471358504927,
                -2.886301676567548,
                2.04928060813877,
                -0.8400189708705217,
                -0.806147409024601,
                -0.9023087392983333
            ]
        },
        {
            "positions": [
                1.5929356257823726,
                -2.9475398231920664,
                2.0531449917669526,
                -0.8529921226029611,
                -0.9011017422786076,
                -0.8097450609828649
            ]
        },
        {
            "positions": [
                1.723524115714253,
                -3.0087779698165855,
                2.0570093753951357,
                -0.8659652743354005,
                -0.9960560755326147,
                -0.7171813826673961
            ]
        },
        {
            "positions": [
                1.8541126056461328,
                -3.0700161164411037,
                2.0608737590233184,
                -0.8789384260678399,
                -1.0910104087866217,
                -0.6246177043519272
            ]
        },
        {
            "positions": [
                1.984701095578013,
                -3.131254263065623,
                2.0647381426515015,
                -0.8919115778002793,
                -1.1859647420406287,
                -0.5320540260364583
            ]
        },
        {
            "positions": [
                2.1152895855098928,
                -3.192492409690141,
                2.068602526279684,
                -0.9048847295327187,
                -1.2809190752946353,
                -0.43949034772098994
            ]
        },
        {
            "positions": [
                1.9569918497805694,
                -3.122532231092943,
                2.0665235280194176,
                -0.9020865687932952,
                -1.2138272915603592,
                -0.5329479309026044
            ]
        },
        {
            "positions": [
                1.798694114051246,
                -3.052572052495745,
                2.0644445297591507,
                -0.8992884080538716,
                -1.146735507826083,
                -0.6264055140842189
            ]
        },
        {
            "positions": [
                1.6403963783219229,
                -2.9826118738985468,
                2.0623655314988842,
                -0.896490247314448,
                -1.0796437240918069,
                -0.7198630972658334
            ]
        },
        {
            "positions": [
                1.4820986425925995,
                -2.912651695301349,
                2.0602865332386178,
                -0.8936920865750244,
                -1.0125519403575307,
                -0.8133206804474479
            ]
        },
        {
            "positions": [
                1.3238009068632761,
                -2.842691516704151,
                2.0582075349783513,
                -0.8908939258356009,
                -0.9454601566232544,
                -0.9067782636290624
            ]
        },
        {
            "positions": [
                1.165503171133953,
                -2.772731338106953,
                2.0561285367180844,
                -0.8880957650961773,
                -0.8783683728889783,
                -1.000235846810677
            ]
        },
        {
            "positions": [
                1.0072054354046294,
                -2.7027711595097546,
                2.054049538457818,
                -0.8852976043567538,
                -0.8112765891547021,
                -1.0936934299922914
            ]
        },
        {
            "positions": [
                0.8489076996753062,
                -2.6328109809125566,
                2.0519705401975514,
                -0.8824994436173301,
                -0.744184805420426,
                -1.1871510131739058
            ]
        },
        {
            "positions": [
                0.6906099639459828,
                -2.5628508023153587,
                2.049891541937285,
                -0.8797012828779066,
                -0.6770930216861498,
                -1.2806085963555205
            ]
        },
        {
            "positions": [
                0.5323122282166595,
                -2.4928906237181607,
                2.047812543677018,
                -0.876903122138483,
                -0.6100012379518736,
                -1.374066179537135
            ]
        },
        {
            "positions": [
                0.3740144924873363,
                -2.4229304451209623,
                2.0457335454167516,
                -0.8741049613990595,
                -0.5429094542175975,
                -1.4675237627187492
            ]
        },
        {
            "positions": [
                0.21571675675801294,
                -2.3529702665237644,
                2.043654547156485,
                -0.8713068006596358,
                -0.47581767048332124,
                -1.5609813459003639
            ]
        },
        {
            "positions": [
                0.05741902102868934,
                -2.2830100879265665,
                2.041575548896218,
                -0.8685086399202123,
                -0.4087258867490451,
                -1.6544389290819783
            ]
        },
        {
            "positions": [
                -0.10087871470063403,
                -2.213049909329368,
                2.0394965506359517,
                -0.8657104791807887,
                -0.34163410301476893,
                -1.7478965122635928
            ]
        },
        {
            "positions": [
                -0.2591764504299574,
                -2.14308973073217,
                2.0374175523756852,
                -0.8629123184413652,
                -0.2745423192804928,
                -1.8413540954452072
            ]
        },
        {
            "positions": [
                -0.41747418615928034,
                -2.073129552134972,
                2.0353385541154188,
                -0.8601141577019416,
                -0.20745053554621662,
                -1.9348116786268217
            ]
        },
        {
            "positions": [
                -0.5757719218886037,
                -2.0031693735377742,
                2.033259555855152,
                -0.857315996962518,
                -0.14035875181194046,
                -2.028269261808436
            ]
        },
        {
            "positions": [
                -0.7340696576179271,
                -1.933209194940576,
                2.0311805575948854,
                -0.8545178362230944,
                -0.07326696807766431,
                -2.121726844990051
            ]
        },
        {
            "positions": [
                -0.8923673933472505,
                -1.8632490163433781,
                2.029101559334619,
                -0.8517196754836709,
                -0.0061751843433881515,
                -2.215184428171665
            ]
        },
        {
            "positions": [
                -1.0506651290765738,
                -1.79328883774618,
                2.027022561074352,
                -0.8489215147442473,
                0.060916599390888226,
                -2.30864201135328
            ]
        },
        {
            "positions": [
                -1.2089628648058972,
                -1.723328659148982,
                2.0249435628140855,
                -0.8461233540048237,
                0.12800838312516416,
                -2.402099594534894
            ]
        },
        {
            "positions": [
                -1.3672606005352201,
                -1.653368480551784,
                2.022864564553819,
                -0.8433251932654001,
                0.19510016685944032,
                -2.4955571777165084
            ]
        },
        {
            "positions": [
                -1.525558336264544,
                -1.583408301954586,
                2.0207855662935525,
                -0.8405270325259766,
                0.2621919505937167,
                -2.5890147608981233
            ]
        },
        {
            "positions": [
                -1.6838560719938669,
                -1.513448123357388,
                2.0187065680332856,
                -0.837728871786553,
                0.32928373432799285,
                -2.682472344079738
            ]
        },
        {
            "positions": [
                -1.8421538077231903,
                -1.4434879447601898,
                2.016627569773019,
                -0.8349307110471295,
                0.3963755180622688,
                -2.775929927261352
            ]
        },
        {
            "positions": [
                -2.000451543452514,
                -1.3735277661629917,
                2.0145485715127527,
                -0.8321325503077058,
                0.46346730179654516,
                -2.8693875104429667
            ]
        },
        {
            "positions": [
                -2.158749279181837,
                -1.3035675875657937,
                2.012469573252486,
                -0.8293343895682823,
                0.5305590855308213,
                -2.962845093624581
            ]
        },
        {
            "positions": [
                -2.317047014911161,
                -1.2336074089685956,
                2.0103905749922193,
                -0.8265362288288587,
                0.5976508692650975,
                -3.0563026768061956
            ]
        },
        {
            "positions": [
                -2.4753447506404833,
                -1.1636472303713974,
                2.008311576731953,
                -0.8237380680894352,
                0.6647426529993737,
                -3.14976025998781
            ]
        }
    ]
}