{
    "goal": {
        "global_pose": {
            "orientation": {
                "w": 0.7047431468963623,
                "x": -0.7094548344612122,
                "y": 0.0024358443915843964,
                "z": -0.0022348060738295317
            },
            "position": {
                "x": 0.6094750761985779,
                "y": 0.3671506643295288,
                "z": 0.19426114857196808
            }
        },
        "name": "move_to_magneteinheit_A"
    },
    "id": "PRMstar_move_to_magneteinheit_A_136",
    "joint_names": [
        "shoulder_pan_joint",
        "shoulder_lift_joint",
        "elbow_joint",
        "wrist_1_joint",
        "wrist_2_joint",
        "wrist_3_joint"
    ],
    "metrics": {
        "cart_traj_len": 3.6470022844624377,
        "distance_elbow_joint": 3.909336594316371,
        "distance_shoulder_lift_joint": 0.29664524763704914,
        "distance_shoulder_pan_joint": 2.7305119099806534,
        "distance_wrist_1_joint": 0.681652084190049,
        "distance_wrist_2_joint": 1.7005690469429504,
        "distance_wrist_3_joint": 3.5524152683105337,
        "smoothness": 0.1442849879063551,
        "time": 5.02967906,
        "traj_len": 3.587635732815918,
        "weighted_distance": 4.72844391096391
    },
    "planner": "PRMstar",
    "start": {
        "state": {
            "elbow_joint": -1.9196185241190666,
            "shoulder_lift_joint": -1.2443396400964142,
            "shoulder_pan_joint": 2.6996025414629847,
            "wrist_1_joint": -1.5485510000780065,
            "wrist_2_joint": -1.5709468930060704,
            "wrist_3_joint": 0.4420197071253992
        }
    },
    "waypoints": [
        {
            "positions": [
                2.6996025414629847,
                -1.2443396400964142,
                -1.9196185241190666,
                -1.5485510000780065,
                -1.5709468930060704,
                0.4420197071253992
            ]
        },
        {
            "positions": [
                2.6081077425145516,
                -1.240498677585206,
                -1.8079481853486665,
                -1.5322099429084581,
                -1.515184496186337,
                0.3335761834977449
            ]
        },
        {
            "positions": [
                2.5166129435661184,
                -1.236657715073998,
                -1.6962778465782664,
                -1.5158688857389095,
                -1.4594220993666036,
                0.22513265987009065
            ]
        },
        {
            "positions": [
                2.4251181446176853,
                -1.2328167525627898,
                -1.5846075078078665,
                -1.4995278285693612,
                -1.4036597025468702,
                0.11668913624243638
            ]
        },
        {
            "positions": [
                2.3336233456692526,
                -1.2289757900515816,
                -1.4729371690374664,
                -1.4831867713998128,
                -1.3478973057271366,
                0.008245612614782127
            ]
        },
        {
            "positions": [
                2.2421285467208194,
                -1.2251348275403735,
                -1.3612668302670663,
                -1.4668457142302642,
                -1.2921349089074032,
                -0.10019791101287212
            ]
        },
        {
            "positions": [
                2.1506337477723863,
                -1.2212938650291654,
                -1.2495964914966662,
                -1.4505046570607159,
                -1.2363725120876699,
                -0.20864143464052642
            ]
        },
        {
            "positions": [
                2.059138948823953,
                -1.2174529025179572,
                -1.137926152726266,
                -1.4341635998911675,
                -1.1806101152679365,
                -0.31708495826818073
            ]
        },
        {
            "positions": [
                1.96764414987552,
                -1.213611940006749,
                -1.0262558139558662,
                -1.417822542721619,
                -1.124847718448203,
                -0.4255284818958349
            ]
        },
        {
            "positions": [
                1.8761493509270868,
                -1.209770977495541,
                -0.9145854751854658,
                -1.4014814855520705,
                -1.0690853216284695,
                -0.5339720055234892
            ]
        },
        {
            "positions": [
                1.7846545519786536,
                -1.2059300149843328,
                -0.8029151364150657,
                -1.3851404283825222,
                -1.013322924808736,
                -0.6424155291511434
            ]
        },
        {
            "positions": [
                1.6931597530302207,
                -1.2020890524731247,
                -0.6912447976446658,
                -1.3687993712129738,
                -0.9575605279890027,
                -0.7508590527787976
            ]
        },
        {
            "positions": [
                1.6016649540817876,
                -1.1982480899619166,
                -0.5795744588742657,
                -1.3524583140434252,
                -0.9017981311692693,
                -0.859302576406452
            ]
        },
        {
            "positions": [
                1.5101701551333544,
                -1.1944071274507084,
                -0.4679041201038656,
                -1.3361172568738768,
                -0.8460357343495358,
                -0.9677461000341062
            ]
        },
        {
            "positions": [
                1.4186753561849215,
                -1.1905661649395003,
                -0.3562337813334655,
                -1.3197761997043285,
                -0.7902733375298024,
                -1.0761896236617607
            ]
        },
        {
            "positions": [
                1.3271805572364883,
                -1.186725202428292,
                -0.2445634425630654,
                -1.3034351425347799,
                -0.734510940710069,
                -1.1846331472894147
            ]
        },
        {
            "positions": [
                1.2356857582880554,
                -1.1828842399170838,
                -0.1328931037926655,
                -1.2870940853652315,
                -0.6787485438903357,
                -1.2930766709170691
            ]
        },
        {
            "positions": [
                1.1441909593396222,
                -1.1790432774058757,
                -0.02122276502226561,
                -1.2707530281956831,
                -0.6229861470706023,
                -1.401520194544723
            ]
        },
        {
            "positions": [
                1.052696160391189,
                -1.1752023148946675,
                0.09044757374813495,
                -1.2544119710261346,
                -0.5672237502508688,
                -1.5099637181723775
            ]
        },
        {
            "positions": [
                0.9612013614427561,
                -1.1713613523834594,
                0.20211791251853484,
                -1.2380709138565862,
                -0.5114613534311354,
                -1.6184072418000315
            ]
        },
        {
            "positions": [
                0.8697065624943228,
                -1.1675203898722513,
                0.31378825128893517,
                -1.2217298566870378,
                -0.4556989566114018,
                -1.726850765427686
            ]
        },
        {
            "positions": [
                0.7782117635458898,
                -1.1636794273610431,
                0.42545859005933506,
                -1.2053887995174892,
                -0.3999365597916684,
                -1.8352942890553403
            ]
        },
        {
            "positions": [
                0.6867169645974567,
                -1.159838464849835,
                0.537128928829735,
                -1.1890477423479409,
                -0.34417416297193504,
                -1.9437378126829943
            ]
        },
        {
            "positions": [
                0.5952221656490235,
                -1.1559975023386269,
                0.6487992676001353,
                -1.1727066851783925,
                -0.28841176615220165,
                -2.0521813363106487
            ]
        },
        {
            "positions": [
                0.5037273667005904,
                -1.1521565398274187,
                0.7604696063705352,
                -1.1563656280088441,
                -0.23264936933246827,
                -2.160624859938303
            ]
        },
        {
            "positions": [
                0.41223256775215766,
                -1.1483155773162106,
                0.8721399451409351,
                -1.1400245708392955,
                -0.17688697251273489,
                -2.269068383565957
            ]
        },
        {
            "positions": [
                0.32073776880372407,
                -1.1444746148050025,
                0.9838102839113354,
                -1.1236835136697472,
                -0.12112457569300128,
                -2.3775119071936115
            ]
        },
        {
            "positions": [
                0.22924296985529136,
                -1.1406336522937943,
                1.0954806226817353,
                -1.1073424565001988,
                -0.06536217887326812,
                -2.4859554308212655
            ]
        },
        {
            "positions": [
                0.1377481709068582,
                -1.1367926897825862,
                1.2071509614521356,
                -1.0910013993306502,
                -0.009599782053534511,
                -2.5943989544489203
            ]
        },
        {
            "positions": [
                0.04625337195842509,
                -1.132951727271378,
                1.3188213002225355,
                -1.0746603421611018,
                0.04616261476619889,
                -2.7028424780765743
            ]
        },
        {
            "positions": [
                0.07018206100623738,
                -1.10468777525925,
                1.4870690486561018,
                -1.057259449214484,
                0.05250254404341655,
                -2.8286135819601763
            ]
        },
        {
            "positions": [
                0.09411075005404967,
                -1.0764238232471224,
                1.6553167970896678,
                -1.039858556267866,
                0.05884247332063421,
                -2.9543846858437783
            ]
        },
        {
            "positions": [
                0.11803943910186196,
                -1.0481598712349944,
                1.823564545523234,
                -1.022457663321248,
                0.06518240259785188,
                -3.0801557897273804
            ]
        },
        {
            "positions": [
                0.12072777576819035,
                -1.0983926106228092,
                1.9066413078602693,
                -0.9446782896046029,
                0.09740227826736583,
                -3.095275675456257
            ]
        },
        {
            "positions": [
                0.12341611243451875,
                -1.1486253500106238,
                1.9897180701973047,
                -0.8668989158879575,
                0.12962215393687979,
                -3.1103955611851344
            ]
        }
    ]
}