{
    "goal": {
        "global_pose": {
            "orientation": {
                "w": 0.005598929693374612,
                "x": 0.007748599140229565,
                "y": 0.7110244013736278,
                "z": -0.7031023480610252
            },
            "position": {
                "x": -0.8858502320852131,
                "y": -0.7141253447532654,
                "z": 0.3711530566215515
            }
        },
        "name": "move_to_auspresseinheit_C"
    },
    "id": "PRMstar_move_to_auspresseinheit_C_123",
    "joint_names": [
        "shoulder_pan_joint",
        "shoulder_lift_joint",
        "elbow_joint",
        "wrist_1_joint",
        "wrist_2_joint",
        "wrist_3_joint"
    ],
    "metrics": {
        "cart_traj_len": 0.49179983556457035,
        "distance_elbow_joint": 0.9864111267661081,
        "distance_shoulder_lift_joint": 0.31790933366300334,
        "distance_shoulder_pan_joint": 0.25608415778437843,
        "distance_wrist_1_joint": 0.6575897516549741,
        "distance_wrist_2_joint": 1.304567295585499,
        "distance_wrist_3_joint": 0.055212849534421515,
        "smoothness": 1.6148698667872622e-16,
        "time": 5.001538279,
        "traj_len": 1.8915005987280005,
        "weighted_distance": 2.3770480140917853
    },
    "planner": "PRMstar",
    "start": {
        "state": {
            "elbow_joint": 1.7527959577737207,
            "shoulder_lift_joint": -0.9740617694225068,
            "shoulder_pan_joint": -2.967991417825858,
            "wrist_1_joint": -0.759517768980727,
            "wrist_2_joint": 1.7443932448377408,
            "wrist_3_joint": -3.0840537646736568
        }
    },
    "waypoints": [
        {
            "positions": [
                -2.967991417825858,
                -0.9740617694225068,
                1.7527959577737207,
                -0.759517768980727,
                1.7443932448377408,
                -3.0840537646736568
            ]
        },
        {
            "positions": [
                -2.94238300204742,
                -0.9422708360562064,
                1.6541548450971097,
                -0.6937587938152295,
                1.613936515279191,
                -3.089575049627099
            ]
        },
        {
            "positions": [
                -2.9167745862689824,
                -0.9104799026899061,
                1.555513732420499,
                -0.6279998186497322,
                1.483479785720641,
                -3.095096334580541
            ]
        },
        {
            "positions": [
                -2.8911661704905445,
                -0.8786889693236057,
                1.4568726197438884,
                -0.5622408434842348,
                1.353023056162091,
                -3.1006176195339834
            ]
        },
        {
            "positions": [
                -2.8655577547121065,
                -0.8468980359573054,
                1.3582315070672775,
                -0.4964818683187373,
                1.2225663266035411,
                -3.1061389044874255
            ]
        },
        {
            "positions": [
                -2.8399493389336685,
                -0.815107102591005,
                1.2595903943906666,
                -0.4307228931532399,
                1.0921095970449914,
                -3.1116601894408675
            ]
        },
        {
            "positions": [
                -2.814340923155231,
                -0.7833161692247048,
                1.1609492817140559,
                -0.3649639179877425,
                0.9616528674864414,
                -3.1171814743943096
            ]
        },
        {
            "positions": [
                -2.788732507376793,
                -0.7515252358584045,
                1.0623081690374452,
                -0.29920494282224513,
                0.8311961379278916,
                -3.1227027593477517
            ]
        },
        {
            "positions": [
                -2.763124091598355,
                -0.7197343024921041,
                0.9636670563608342,
                -0.23344596765674763,
                0.7007394083693417,
                -3.128224044301194
            ]
        },
        {
            "positions": [
                -2.7375156758199175,
                -0.6879433691258038,
                0.8650259436842234,
                -0.1676869924912503,
                0.5702826788107918,
                -3.1337453292546362
            ]
        },
        {
            "positions": [
                -2.7119072600414795,
                -0.6561524357595034,
                0.7663848310076126,
                -0.10192801732575285,
                0.43982594925224183,
                -3.1392666142080783
            ]
        }
    ]
}