{
    "goal": {
        "global_pose": {
            "orientation": {
                "w": -0.4816463035849501,
                "x": 0.5182115481033762,
                "y": 0.4908360881923453,
                "z": -0.5084816262002911
            },
            "position": {
                "x": -0.8240239810943604,
                "y": 0.19912469901144506,
                "z": 0.16403168439865112
            }
        },
        "name": "move_to_storage_D"
    },
    "id": "ProjEST_move_to_storage_D_4",
    "joint_names": [
        "shoulder_pan_joint",
        "shoulder_lift_joint",
        "elbow_joint",
        "wrist_1_joint",
        "wrist_2_joint",
        "wrist_3_joint"
    ],
    "metrics": {
        "cart_traj_len": 2.2408576642866245,
        "distance_elbow_joint": 2.3602327381272614,
        "distance_shoulder_lift_joint": 0.3500686288844741,
        "distance_shoulder_pan_joint": 1.1977432369659127,
        "distance_wrist_1_joint": 3.835385779718054,
        "distance_wrist_2_joint": 1.7811937433965395,
        "distance_wrist_3_joint": 3.1271822804302767,
        "smoothness": 0.22794843237230053,
        "time": 0.076552619,
        "traj_len": 3.556937785163316,
        "weighted_distance": 4.95204508173115
    },
    "planner": "ProjEST",
    "start": {
        "state": {
            "elbow_joint": -2.384821988534728,
            "shoulder_lift_joint": -2.2788054721415256,
            "shoulder_pan_joint": -0.1854694642142757,
            "wrist_1_joint": 1.4845938289331202,
            "wrist_2_joint": 0.17898776772866878,
            "wrist_3_joint": 0.037105688729662994
        }
    },
    "waypoints": [
        {
            "positions": [
                -0.1854694642142757,
                -2.2788054721415256,
                -2.384821988534728,
                1.4845938289331202,
                0.17898776772866878,
                0.037105688729662994
            ]
        },
        {
            "positions": [
                -0.10911190364123582,
                -2.2671348878870985,
                -2.372933548287242,
                1.455416025189833,
                0.11746667778320952,
                0.009831282603554377
            ]
        },
        {
            "positions": [
                -0.03275434306819594,
                -2.255464303632672,
                -2.3610451080397565,
                1.4262382214465457,
                0.05594558783775025,
                -0.01744312352255424
            ]
        },
        {
            "positions": [
                -0.011879834447066133,
                -2.246355068715688,
                -2.303614530550073,
                1.2924548046656261,
                -0.009694191685830786,
                -0.1233970820039812
            ]
        },
        {
            "positions": [
                0.008994674174063674,
                -2.2372458337987045,
                -2.2461839530603895,
                1.1586713878847066,
                -0.07533397120941182,
                -0.22935104048540816
            ]
        },
        {
            "positions": [
                0.029869182795193475,
                -2.2281365988817203,
                -2.188753375570706,
                1.024887971103787,
                -0.14097375073299287,
                -0.3353049989668351
            ]
        },
        {
            "positions": [
                0.05074369141632329,
                -2.2190273639647367,
                -2.1313227980810225,
                0.8911045543228675,
                -0.2066135302565739,
                -0.44125895744826205
            ]
        },
        {
            "positions": [
                0.07161820003745309,
                -2.209918129047753,
                -2.073892220591339,
                0.757321137541948,
                -0.27225330978015494,
                -0.5472129159296891
            ]
        },
        {
            "positions": [
                0.09249270865858289,
                -2.2008088941307693,
                -2.0164616431016555,
                0.6235377207610285,
                -0.33789308930373596,
                -0.653166874411116
            ]
        },
        {
            "positions": [
                0.11336721727971272,
                -2.1916996592137856,
                -1.9590310656119718,
                0.4897543039801089,
                -0.4035328688273171,
                -0.7591208328925431
            ]
        },
        {
            "positions": [
                0.13424172590084252,
                -2.1825904242968015,
                -1.9016004881222885,
                0.35597088719918935,
                -0.469172648350898,
                -0.8650747913739699
            ]
        },
        {
            "positions": [
                0.15511623452197232,
                -2.173481189379818,
                -1.8441699106326048,
                0.22218747041827003,
                -0.534812427874479,
                -0.9710287498553969
            ]
        },
        {
            "positions": [
                0.17599074314310212,
                -2.164371954462834,
                -1.7867393331429215,
                0.08840405363735027,
                -0.6004522073980602,
                -1.076982708336824
            ]
        },
        {
            "positions": [
                0.19686525176423192,
                -2.1552627195458505,
                -1.7293087556532378,
                -0.045379363143569273,
                -0.6660919869216412,
                -1.1829366668182508
            ]
        },
        {
            "positions": [
                0.21773976038536172,
                -2.146153484628867,
                -1.6718781781635546,
                -0.1791627799244886,
                -0.7317317664452222,
                -1.2888906252996777
            ]
        },
        {
            "positions": [
                0.23861426900649155,
                -2.1370442497118827,
                -1.6144476006738708,
                -0.31294619670540835,
                -0.7973715459688032,
                -1.3948445837811048
            ]
        },
        {
            "positions": [
                0.25948877762762135,
                -2.127935014794899,
                -1.5570170231841873,
                -0.4467296134863279,
                -0.8630113254923844,
                -1.5007985422625318
            ]
        },
        {
            "positions": [
                0.2803632862487512,
                -2.1188257798779153,
                -1.4995864456945038,
                -0.5805130302672472,
                -0.9286511050159653,
                -1.6067525007439585
            ]
        },
        {
            "positions": [
                0.301237794869881,
                -2.1097165449609316,
                -1.4421558682048206,
                -0.714296447048167,
                -0.9942908845395463,
                -1.7127064592253856
            ]
        },
        {
            "positions": [
                0.32211230349101083,
                -2.100607310043948,
                -1.3847252907151368,
                -0.8480798638290867,
                -1.0599306640631276,
                -1.8186604177068126
            ]
        },
        {
            "positions": [
                0.34298681211214055,
                -2.091498075126964,
                -1.3272947132254533,
                -0.9818632806100056,
                -1.1255704435867084,
                -1.9246143761882395
            ]
        },
        {
            "positions": [
                0.3638613207332704,
                -2.08238884020998,
                -1.2698641357357698,
                -1.1156466973909254,
                -1.1912102231102897,
                -2.0305683346696664
            ]
        },
        {
            "positions": [
                0.3847358293544002,
                -2.0732796052929965,
                -1.2124335582460863,
                -1.2494301141718451,
                -1.2568500026338707,
                -2.1365222931510934
            ]
        },
        {
            "positions": [
                0.4056103379755299,
                -2.064170370376013,
                -1.1550029807564028,
                -1.3832135309527644,
                -1.3224897821574515,
                -2.24247625163252
            ]
        },
        {
            "positions": [
                0.42648484659665975,
                -2.055061135459029,
                -1.0975724032667193,
                -1.5169969477336842,
                -1.3881295616810327,
                -2.348430210113947
            ]
        },
        {
            "positions": [
                0.4473593552177896,
                -2.045951900542045,
                -1.0401418257770358,
                -1.6507803645146035,
                -1.4537693412046138,
                -2.4543841685953742
            ]
        },
        {
            "positions": [
                0.4682338638389194,
                -2.0368426656250613,
                -0.9827112482873523,
                -1.7845637812955228,
                -1.5194091207281948,
                -2.560338127076801
            ]
        },
        {
            "positions": [
                0.48910837246004923,
                -2.0277334307080777,
                -0.9252806707976687,
                -1.9183471980764424,
                -1.5850489002517758,
                -2.666292085558228
            ]
        },
        {
            "positions": [
                0.41437045813267953,
                -2.0418758003439383,
                -1.0539508737105547,
                -1.9801250198919411,
                -1.5874999110255037,
                -2.7268327292928545
            ]
        },
        {
            "positions": [
                0.33963254380530983,
                -2.0560181699797995,
                -1.1826210766234408,
                -2.04190284170744,
                -1.5899509217992314,
                -2.787373373027481
            ]
        },
        {
            "positions": [
                0.2648946294779402,
                -2.07016053961566,
                -1.311291279536327,
                -2.1036806635229386,
                -1.5924019325729593,
                -2.8479140167621075
            ]
        },
        {
            "positions": [
                0.19015671515057048,
                -2.0843029092515213,
                -1.4399614824492128,
                -2.1654584853384375,
                -1.5948529433466871,
                -2.908454660496734
            ]
        },
        {
            "positions": [
                0.11541880082320077,
                -2.098445278887382,
                -1.568631685362099,
                -2.2272363071539365,
                -1.597303954120415,
                -2.9689953042313606
            ]
        },
        {
            "positions": [
                0.04068088649583107,
                -2.112587648523243,
                -1.697301888274985,
                -2.289014128969435,
                -1.5997549648941427,
                -3.029535947965987
            ]
        },
        {
            "positions": [
                -0.0340570278315386,
                -2.126730018159104,
                -1.8259720911878712,
                -2.350791950784934,
                -1.6022059756678706,
                -3.0900765917006137
            ]
        }
    ]
}