{
    "goal": {
        "global_pose": {
            "orientation": {
                "w": 0.5084816262002911,
                "x": -0.4908360881923452,
                "y": 0.5182115481033761,
                "z": -0.48164630358495003
            },
            "position": {
                "x": 0.5540239810943604,
                "y": -0.46912469901144505,
                "z": 0.16403168439865112
            }
        },
        "name": "move_to_storage_B"
    },
    "id": "ProjEST_move_to_storage_B_50",
    "joint_names": [
        "shoulder_pan_joint",
        "shoulder_lift_joint",
        "elbow_joint",
        "wrist_1_joint",
        "wrist_2_joint",
        "wrist_3_joint"
    ],
    "metrics": {
        "cart_traj_len": 3.160826623568771,
        "distance_elbow_joint": 2.1009450062989243,
        "distance_shoulder_lift_joint": 0.459210777803688,
        "distance_shoulder_pan_joint": 2.9723809701767516,
        "distance_wrist_1_joint": 4.9352238060778015,
        "distance_wrist_2_joint": 2.710813087365581,
        "distance_wrist_3_joint": 3.1292559598770553,
        "smoothness": 0.3502242099473682,
        "time": 0.085167297,
        "traj_len": 4.038295383896503,
        "weighted_distance": 5.4965787923759715
    },
    "planner": "ProjEST",
    "start": {
        "state": {
            "elbow_joint": 1.664937868594044,
            "shoulder_lift_joint": -0.661644460510453,
            "shoulder_pan_joint": -0.9139846352900073,
            "wrist_1_joint": 2.146753192139373,
            "wrist_2_joint": -2.2341966793290973,
            "wrist_3_joint": 0.005466555786416001
        }
    },
    "waypoints": [
        {
            "positions": [
                -0.9139846352900073,
                -0.661644460510453,
                1.664937868594044,
                2.146753192139373,
                -2.2341966793290973,
                0.005466555786416001
            ]
        },
        {
            "positions": [
                -0.8143382826990162,
                -0.6778230859862551,
                1.602501637076408,
                2.216157388551622,
                -2.1387778009327696,
                -0.046672844197888724
            ]
        },
        {
            "positions": [
                -0.7146919301080252,
                -0.694001711462057,
                1.5400654055587721,
                2.285561584963871,
                -2.043358922536442,
                -0.09881224418219345
            ]
        },
        {
            "positions": [
                -0.6150455775170343,
                -0.7101803369378591,
                1.477629174041136,
                2.35496578137612,
                -1.9479400441401142,
                -0.15095164416649817
            ]
        },
        {
            "positions": [
                -0.5153992249260432,
                -0.7263589624136612,
                1.4151929425235001,
                2.4243699777883685,
                -1.8525211657437866,
                -0.2030910441508029
            ]
        },
        {
            "positions": [
                -0.4157528723350521,
                -0.7425375878894632,
                1.3527567110058643,
                2.4937741742006176,
                -1.7571022873474587,
                -0.2552304441351076
            ]
        },
        {
            "positions": [
                -0.3161065197440611,
                -0.7587162133652652,
                1.2903204794882281,
                2.5631783706128664,
                -1.6616834089511312,
                -0.3073698441194123
            ]
        },
        {
            "positions": [
                -0.21646016715307004,
                -0.7748948388410672,
                1.2278842479705923,
                2.632582567025115,
                -1.5662645305548033,
                -0.35950924410371704
            ]
        },
        {
            "positions": [
                -0.11681381456207907,
                -0.7910734643168693,
                1.1654480164529564,
                2.701986763437364,
                -1.4708456521584756,
                -0.41164864408802176
            ]
        },
        {
            "positions": [
                -0.017167461971087872,
                -0.8072520897926714,
                1.1030117849353203,
                2.771390959849613,
                -1.3754267737621477,
                -0.46378804407232654
            ]
        },
        {
            "positions": [
                0.0824788906199031,
                -0.8234307152684733,
                1.0405755534176846,
                2.840795156261862,
                -1.28000789536582,
                -0.5159274440566313
            ]
        },
        {
            "positions": [
                0.18212524321089407,
                -0.8396093407442754,
                0.9781393219000486,
                2.910199352674111,
                -1.1845890169694926,
                -0.568066844040936
            ]
        },
        {
            "positions": [
                0.28177159580188504,
                -0.8557879662200774,
                0.9157030903824126,
                2.9796035490863595,
                -1.089170138573165,
                -0.6202062440252407
            ]
        },
        {
            "positions": [
                0.38141794839287624,
                -0.8719665916958794,
                0.8532668588647766,
                3.0490077454986086,
                -0.993751260176837,
                -0.6723456440095454
            ]
        },
        {
            "positions": [
                0.4810643009838671,
                -0.8881452171716815,
                0.7908306273471407,
                3.1184119419108574,
                -0.8983323817805093,
                -0.7244850439938502
            ]
        },
        {
            "positions": [
                0.4247310140587644,
                -0.8964562893553407,
                0.8346462618132844,
                2.9768560470427747,
                -0.8492270678584739,
                -0.8101744854258783
            ]
        },
        {
            "positions": [
                0.36839772713366165,
                -0.9047673615390001,
                0.878461896279428,
                2.8353001521746917,
                -0.8001217539364385,
                -0.8958639268579065
            ]
        },
        {
            "positions": [
                0.31206444020855895,
                -0.9130784337226593,
                0.9222775307455716,
                2.693744257306609,
                -0.7510164400144029,
                -0.9815533682899347
            ]
        },
        {
            "positions": [
                0.2557311532834562,
                -0.9213895059063185,
                0.9660931652117152,
                2.5521883624385264,
                -0.7019111260923675,
                -1.0672428097219628
            ]
        },
        {
            "positions": [
                0.1993978663583535,
                -0.9297005780899779,
                1.0099087996778588,
                2.4106324675704434,
                -0.652805812170332,
                -1.152932251153991
            ]
        },
        {
            "positions": [
                0.1430645794332508,
                -0.9380116502736371,
                1.0537244341440024,
                2.2690765727023607,
                -0.6037004982482965,
                -1.2386216925860192
            ]
        },
        {
            "positions": [
                0.08673129250814804,
                -0.9463227224572963,
                1.097540068610146,
                2.127520677834278,
                -0.5545951843262611,
                -1.3243111340180473
            ]
        },
        {
            "positions": [
                0.03039800558304534,
                -0.9546337946409557,
                1.1413557030762898,
                1.9859647829661953,
                -0.5054898704042257,
                -1.4100005754500755
            ]
        },
        {
            "positions": [
                -0.02593528134205747,
                -0.9629448668246149,
                1.1851713375424333,
                1.8444088880981122,
                -0.4563845564821901,
                -1.495690016882104
            ]
        },
        {
            "positions": [
                -0.08226856826716011,
                -0.9712559390082742,
                1.228986972008577,
                1.7028529932300296,
                -0.4072792425601547,
                -1.5813794583141318
            ]
        },
        {
            "positions": [
                -0.13860185519226287,
                -0.9795670111919335,
                1.2728026064747207,
                1.5612970983619467,
                -0.35817392863811925,
                -1.66706889974616
            ]
        },
        {
            "positions": [
                -0.1949351421173655,
                -0.9878780833755927,
                1.3166182409408642,
                1.4197412034938641,
                -0.3090686147160838,
                -1.7527583411781882
            ]
        },
        {
            "positions": [
                -0.2512684290424684,
                -0.996189155559252,
                1.3604338754070078,
                1.278185308625781,
                -0.2599633007940483,
                -1.8384477826102164
            ]
        },
        {
            "positions": [
                -0.307601715967571,
                -1.0045002277429114,
                1.4042495098731513,
                1.1366294137576984,
                -0.21085798687201285,
                -1.9241372240422445
            ]
        },
        {
            "positions": [
                -0.36393500289267366,
                -1.0128112999265706,
                1.448065144339295,
                0.9950735188896158,
                -0.16175267294997742,
                -2.0098266654742725
            ]
        },
        {
            "positions": [
                -0.4202682898177764,
                -1.0211223721102298,
                1.4918807788054387,
                0.8535176240215332,
                -0.11264735902794198,
                -2.0955161069063006
            ]
        },
        {
            "positions": [
                -0.47660157674287906,
                -1.029433444293889,
                1.5356964132715822,
                0.7119617291534501,
                -0.06354204510590655,
                -2.181205548338329
            ]
        },
        {
            "positions": [
                -0.532934863667982,
                -1.0377445164775483,
                1.579512047737726,
                0.5704058342853671,
                -0.014436731183870899,
                -2.2668949897703574
            ]
        },
        {
            "positions": [
                -0.5892681505930848,
                -1.0460555886612075,
                1.6233276822038696,
                0.42884993941728444,
                0.03466858273816453,
                -2.352584431202385
            ]
        },
        {
            "positions": [
                -0.6456014375181873,
                -1.054366660844867,
                1.6671433166700131,
                0.2872940445492018,
                0.08377389666019996,
                -2.4382738726344133
            ]
        },
        {
            "positions": [
                -0.7019347244432901,
                -1.0626777330285262,
                1.7109589511361567,
                0.1457381496811192,
                0.1328792105822354,
                -2.5239633140664415
            ]
        },
        {
            "positions": [
                -0.7582680113683928,
                -1.0709888052121854,
                1.7547745856023003,
                0.004182254813036135,
                0.18198452450427083,
                -2.6096527554984696
            ]
        },
        {
            "positions": [
                -0.8146012982934954,
                -1.0792998773958447,
                1.7985902200684438,
                -0.1373736400550465,
                0.23108983842630626,
                -2.695342196930498
            ]
        },
        {
            "positions": [
                -0.8709345852185981,
                -1.0876109495795039,
                1.8424058545345878,
                -0.2789295349231291,
                0.2801951523483417,
                -2.781031638362526
            ]
        },
        {
            "positions": [
                -0.9272678721437011,
                -1.0959220217631631,
                1.8862214890007314,
                -0.4204854297912122,
                0.32930046627037735,
                -2.866721079794554
            ]
        },
        {
            "positions": [
                -0.9836011590688039,
                -1.1042330939468226,
                1.930037123466875,
                -0.5620413246592952,
                0.3784057801924128,
                -2.9524105212265823
            ]
        },
        {
            "positions": [
                -1.0399344459939064,
                -1.1125441661304818,
                1.9738527579330185,
                -0.7035972195273779,
                0.4275110941144482,
                -3.0380999626586105
            ]
        },
        {
            "positions": [
                -1.0962677329190091,
                -1.120855238314141,
                2.017668392399162,
                -0.8451531143954606,
                0.4766164080364837,
                -3.123789404090639
            ]
        }
    ]
}