{
    "goal": {
        "global_pose": {
            "orientation": {
                "w": 0.7031023502349854,
                "x": -0.7110244035720825,
                "y": 0.007748599164187908,
                "z": 0.005598929710686207
            },
            "position": {
                "x": 0.11585023208521307,
                "y": 0.44412534475326537,
                "z": 0.3711530566215515
            }
        },
        "name": "move_to_auspresseinheit_A"
    },
    "id": "ProjEST_move_to_auspresseinheit_A_38",
    "joint_names": [
        "shoulder_pan_joint",
        "shoulder_lift_joint",
        "elbow_joint",
        "wrist_1_joint",
        "wrist_2_joint",
        "wrist_3_joint"
    ],
    "metrics": {
        "cart_traj_len": 0.8090204619848751,
        "distance_elbow_joint": 0.3562364941459384,
        "distance_shoulder_lift_joint": 0.5338853109221244,
        "distance_shoulder_pan_joint": 1.0428645075325558,
        "distance_wrist_1_joint": 0.5542389151311764,
        "distance_wrist_2_joint": 0.5518465501403016,
        "distance_wrist_3_joint": 1.2944739852046525,
        "smoothness": 0.9631742536886378,
        "time": 0.332889651,
        "traj_len": 2.08171702281476,
        "weighted_distance": 2.8334747570355256
    },
    "planner": "ProjEST",
    "start": {
        "state": {
            "elbow_joint": 2.4225746658250005,
            "shoulder_lift_joint": -1.3736534386056498,
            "shoulder_pan_joint": -0.3378633547517467,
            "wrist_1_joint": -1.0288598680537169,
            "wrist_2_joint": 1.233022673432363,
            "wrist_3_joint": -3.0940220416140027
        }
    },
    "waypoints": [
        {
            "positions": [
                -0.3378633547517467,
                -1.3736534386056498,
                2.4225746658250005,
                -1.0288598680537169,
                1.233022673432363,
                -3.0940220416140027
            ]
        },
        {
            "positions": [
                -0.26799793914161407,
                -1.4408971389667309,
                2.3904850824486603,
                -0.9682430796593964,
                1.2349376263100842,
                -2.9897831022793175
            ]
        },
        {
            "positions": [
                -0.1981325235314814,
                -1.508140839327812,
                2.35839549907232,
                -0.907626291265076,
                1.2368525791878053,
                -2.8855441629446323
            ]
        },
        {
            "positions": [
                -0.1282671079213487,
                -1.5753845396888932,
                2.32630591569598,
                -0.8470095028707555,
                1.2387675320655265,
                -2.781305223609947
            ]
        },
        {
            "positions": [
                -0.05840169231121606,
                -1.6426282400499743,
                2.29421633231964,
                -0.7863927144764351,
                1.2406824849432478,
                -2.677066284275262
            ]
        },
        {
            "positions": [
                0.01146372329891665,
                -1.7098719404110554,
                2.2621267489432997,
                -0.7257759260821146,
                1.242597437820969,
                -2.5728273449405767
            ]
        },
        {
            "positions": [
                0.0813291389090493,
                -1.7771156407721365,
                2.2300371655669595,
                -0.6651591376877941,
                1.2445123906986901,
                -2.4685884056058915
            ]
        },
        {
            "positions": [
                0.17698088928189498,
                -1.7994117996002803,
                2.26192753517857,
                -0.6345068151031374,
                1.160345691059851,
                -2.573254719476892
            ]
        },
        {
            "positions": [
                0.27263263965474066,
                -1.8217079584284241,
                2.2938179047901803,
                -0.6038544925184807,
                1.0761789914210123,
                -2.677921033347893
            ]
        },
        {
            "positions": [
                0.3682843900275863,
                -1.844004117256568,
                2.3257082744017907,
                -0.573202169933824,
                0.9920122917821732,
                -2.782587347218894
            ]
        },
        {
            "positions": [
                0.463936140400432,
                -1.8663002760847118,
                2.357598644013401,
                -0.5425498473491672,
                0.9078455921433343,
                -2.8872536610898947
            ]
        },
        {
            "positions": [
                0.5595878907732776,
                -1.8885964349128557,
                2.3894890136250115,
                -0.5118975247645106,
                0.8236788925044953,
                -2.9919199749608953
            ]
        },
        {
            "positions": [
                0.6322945217770434,
                -1.898067592220315,
                2.3916125865399342,
                -0.49325923884352557,
                0.7639172251646055,
                -3.0647743648816643
            ]
        },
        {
            "positions": [
                0.7050011527808091,
                -1.9075387495277742,
                2.393736159454857,
                -0.4746209529225406,
                0.7041555578247156,
                -3.137628754802433
            ]
        }
    ]
}