{
    "goal": {
        "global_pose": {
            "orientation": {
                "w": 0.005598929693374612,
                "x": 0.007748599140229565,
                "y": 0.7110244013736278,
                "z": -0.7031023480610252
            },
            "position": {
                "x": -0.8858502320852131,
                "y": -0.7141253447532654,
                "z": 0.3711530566215515
            }
        },
        "name": "move_to_auspresseinheit_C"
    },
    "id": "ProjEST_move_to_auspresseinheit_C_104",
    "joint_names": [
        "shoulder_pan_joint",
        "shoulder_lift_joint",
        "elbow_joint",
        "wrist_1_joint",
        "wrist_2_joint",
        "wrist_3_joint"
    ],
    "metrics": {
        "cart_traj_len": 0.4938178988762861,
        "distance_elbow_joint": 0.9996670343271488,
        "distance_shoulder_lift_joint": 0.32544383204225447,
        "distance_shoulder_pan_joint": 0.256374861295833,
        "distance_wrist_1_joint": 0.6636278628673409,
        "distance_wrist_2_joint": 1.3195736064581771,
        "distance_wrist_3_joint": 0.040107754186210265,
        "smoothness": 9.689219149575435e-16,
        "time": 1.517129376,
        "traj_len": 1.8986297562128758,
        "weighted_distance": 2.3808006907078347
    },
    "planner": "ProjEST",
    "start": {
        "state": {
            "elbow_joint": 1.7527959577737207,
            "shoulder_lift_joint": -0.9740617694225068,
            "shoulder_pan_joint": -2.967991417825858,
            "wrist_1_joint": -0.759517768980727,
            "wrist_2_joint": 1.7443932448377408,
            "wrist_3_joint": -3.0840537646736568
        }
    },
    "waypoints": [
        {
            "positions": [
                -2.967991417825858,
                -0.9740617694225068,
                1.7527959577737207,
                -0.759517768980727,
                1.7443932448377408,
                -3.0840537646736568
            ]
        },
        {
            "positions": [
                -2.9423539316962746,
                -0.9415173862182813,
                1.6528292543410057,
                -0.6931549826939929,
                1.612435884191923,
                -3.0880645400922777
            ]
        },
        {
            "positions": [
                -2.916716445566691,
                -0.9089730030140559,
                1.552862550908291,
                -0.6267921964072588,
                1.4804785235461053,
                -3.0920753155108986
            ]
        },
        {
            "positions": [
                -2.8910789594371082,
                -0.8764286198098304,
                1.452895847475576,
                -0.5604294101205247,
                1.3485211629002878,
                -3.09608609092952
            ]
        },
        {
            "positions": [
                -2.865441473307525,
                -0.843884236605605,
                1.3529291440428612,
                -0.49406662383379063,
                1.2165638022544698,
                -3.100096866348141
            ]
        },
        {
            "positions": [
                -2.8398039871779415,
                -0.8113398534013796,
                1.2529624406101463,
                -0.42770383754705654,
                1.0846064416086523,
                -3.104107641766762
            ]
        },
        {
            "positions": [
                -2.814166501048358,
                -0.7787954701971541,
                1.1529957371774313,
                -0.36134105126032245,
                0.9526490809628346,
                -3.108118417185383
            ]
        },
        {
            "positions": [
                -2.7885290149187747,
                -0.7462510869929286,
                1.0530290337447166,
                -0.2949782649735884,
                0.8206917203170169,
                -3.112129192604004
            ]
        },
        {
            "positions": [
                -2.7628915287891918,
                -0.7137067037887033,
                0.9530623303120016,
                -0.22861547868685428,
                0.688734359671199,
                -3.116139968022625
            ]
        },
        {
            "positions": [
                -2.7372540426596084,
                -0.6811623205844777,
                0.8530956268792868,
                -0.1622526924001202,
                0.5567769990253815,
                -3.120150743441246
            ]
        },
        {
            "positions": [
                -2.711616556530025,
                -0.6486179373802523,
                0.7531289234465719,
                -0.09588990611338605,
                0.4248196383795636,
                -3.124161518859867
            ]
        }
    ]
}