{
    "goal": {
        "global_pose": {
            "orientation": {
                "w": 0.005598929693374612,
                "x": 0.007748599140229565,
                "y": 0.7110244013736278,
                "z": -0.7031023480610252
            },
            "position": {
                "x": 0.1141497679147869,
                "y": -0.7141253447532654,
                "z": 0.3711530566215515
            }
        },
        "name": "move_to_auspresseinheit_B"
    },
    "id": "ProjEST_move_to_auspresseinheit_B_16",
    "joint_names": [
        "shoulder_pan_joint",
        "shoulder_lift_joint",
        "elbow_joint",
        "wrist_1_joint",
        "wrist_2_joint",
        "wrist_3_joint"
    ],
    "metrics": {
        "cart_traj_len": 0.5642165673276888,
        "distance_elbow_joint": 0.06019800942997566,
        "distance_shoulder_lift_joint": 0.29641625519491943,
        "distance_shoulder_pan_joint": 0.5770129507553441,
        "distance_wrist_1_joint": 0.3212744889897742,
        "distance_wrist_2_joint": 0.9919393101080514,
        "distance_wrist_3_joint": 0.009903899858630716,
        "smoothness": 2.5376526478085547e-16,
        "time": 0.254397555,
        "traj_len": 1.5022466223415833,
        "weighted_distance": 1.8946679163251228
    },
    "planner": "ProjEST",
    "start": {
        "state": {
            "elbow_joint": 2.0193083361928714,
            "shoulder_lift_joint": -1.1220246554650708,
            "shoulder_pan_joint": -1.0952077554168747,
            "wrist_1_joint": -0.8559753972642168,
            "wrist_2_joint": 0.4759566250798843,
            "wrist_3_joint": -3.1240929996934557
        }
    },
    "waypoints": [
        {
            "positions": [
                -1.0952077554168747,
                -1.1220246554650708,
                2.0193083361928714,
                -0.8559753972642168,
                0.4759566250798843,
                -3.1240929996934557
            ]
        },
        {
            "positions": [
                -1.1913765805427654,
                -1.1714273646642241,
                2.0092753346212087,
                -0.8024296490992544,
                0.6412798434312261,
                -3.122442349717017
            ]
        },
        {
            "positions": [
                -1.287545405668656,
                -1.2208300738633773,
                1.9992423330495461,
                -0.748883900934292,
                0.8066030617825681,
                -3.120791699740579
            ]
        },
        {
            "positions": [
                -1.3837142307945467,
                -1.2702327830625304,
                1.9892093314778836,
                -0.6953381527693296,
                0.9719262801339099,
                -3.1191410497641403
            ]
        },
        {
            "positions": [
                -1.4798830559204372,
                -1.3196354922616838,
                1.979176329906221,
                -0.6417924046043674,
                1.137249498485252,
                -3.1174903997877017
            ]
        },
        {
            "positions": [
                -1.576051881046328,
                -1.369038201460837,
                1.9691433283345583,
                -0.5882466564394049,
                1.3025727168365937,
                -3.1158397498112635
            ]
        },
        {
            "positions": [
                -1.6722207061722187,
                -1.4184409106599902,
                1.9591103267628958,
                -0.5347009082744426,
                1.4678959351879357,
                -3.114189099834825
            ]
        }
    ]
}