{
    "goal": {
        "global_pose": {
            "orientation": {
                "w": 0.7047431468963623,
                "x": -0.7094548344612122,
                "y": 0.0024358443915843964,
                "z": -0.0022348060738295317
            },
            "position": {
                "x": 0.6094750761985779,
                "y": 0.3671506643295288,
                "z": 0.19426114857196808
            }
        },
        "name": "move_to_magneteinheit_A"
    },
    "id": "ProjEST_move_to_magneteinheit_A_72",
    "joint_names": [
        "shoulder_pan_joint",
        "shoulder_lift_joint",
        "elbow_joint",
        "wrist_1_joint",
        "wrist_2_joint",
        "wrist_3_joint"
    ],
    "metrics": {
        "cart_traj_len": 3.7294476959946237,
        "distance_elbow_joint": 3.8887164505842526,
        "distance_shoulder_lift_joint": 0.3257195473396597,
        "distance_shoulder_pan_joint": 4.2956298961248836,
        "distance_wrist_1_joint": 0.9081944828707063,
        "distance_wrist_2_joint": 1.708396657117038,
        "distance_wrist_3_joint": 2.6260026149421036,
        "smoothness": 0.17799799044215,
        "time": 0.209614505,
        "traj_len": 3.708457853202413,
        "weighted_distance": 4.649866236662147
    },
    "planner": "ProjEST",
    "start": {
        "state": {
            "elbow_joint": -1.9196185241190666,
            "shoulder_lift_joint": -1.2443396400964142,
            "shoulder_pan_joint": 2.6996025414629847,
            "wrist_1_joint": -1.5485510000780065,
            "wrist_2_joint": -1.5709468930060704,
            "wrist_3_joint": 0.4420197071253992
        }
    },
    "waypoints": [
        {
            "positions": [
                2.6996025414629847,
                -1.2443396400964142,
                -1.9196185241190666,
                -1.5485510000780065,
                -1.5709468930060704,
                0.4420197071253992
            ]
        },
        {
            "positions": [
                2.5501944159029573,
                -1.2491224899479256,
                -1.825149141024756,
                -1.5115848630485211,
                -1.5183437359645837,
                0.49317938578100984
            ]
        },
        {
            "positions": [
                2.4007862903429302,
                -1.253905339799437,
                -1.7306797579304454,
                -1.474618726019036,
                -1.4657405789230968,
                0.5443390644366205
            ]
        },
        {
            "positions": [
                2.2513781647829028,
                -1.2586881896509488,
                -1.636210374836135,
                -1.4376525889895506,
                -1.4131374218816102,
                0.5954987430922312
            ]
        },
        {
            "positions": [
                2.1019700392228757,
                -1.2634710395024602,
                -1.5417409917418243,
                -1.4006864519600652,
                -1.3605342648401235,
                0.6466584217478418
            ]
        },
        {
            "positions": [
                1.9525619136628483,
                -1.2682538893539717,
                -1.4472716086475137,
                -1.36372031493058,
                -1.3079311077986366,
                0.6978181004034525
            ]
        },
        {
            "positions": [
                1.8031537881028212,
                -1.273036739205483,
                -1.3528022255532033,
                -1.3267541779010947,
                -1.25532795075715,
                0.7489777790590632
            ]
        },
        {
            "positions": [
                1.6537456625427938,
                -1.2778195890569948,
                -1.2583328424588927,
                -1.2897880408716094,
                -1.2027247937156633,
                0.8001374577146738
            ]
        },
        {
            "positions": [
                1.5043375369827665,
                -1.2826024389085062,
                -1.163863459364582,
                -1.2528219038421242,
                -1.1501216366741764,
                0.8512971363702845
            ]
        },
        {
            "positions": [
                1.3549294114227393,
                -1.2873852887600177,
                -1.0693940762702714,
                -1.2158557668126388,
                -1.0975184796326898,
                0.9024568150258951
            ]
        },
        {
            "positions": [
                1.205521285862712,
                -1.2921681386115291,
                -0.9749246931759609,
                -1.1788896297831535,
                -1.0449153225912031,
                0.9536164936815058
            ]
        },
        {
            "positions": [
                1.0561131603026845,
                -1.2969509884630406,
                -0.8804553100816503,
                -1.1419234927536681,
                -0.9923121655497164,
                1.0047761723371167
            ]
        },
        {
            "positions": [
                0.9067050347426575,
                -1.3017338383145522,
                -0.7859859269873397,
                -1.104957355724183,
                -0.9397090085082297,
                1.0559358509927272
            ]
        },
        {
            "positions": [
                0.7572969091826303,
                -1.3065166881660637,
                -0.6915165438930293,
                -1.0679912186946976,
                -0.887105851466743,
                1.1070955296483378
            ]
        },
        {
            "positions": [
                0.6078887836226028,
                -1.3112995380175752,
                -0.5970471607987184,
                -1.0310250816652122,
                -0.8345026944252562,
                1.1582552083039486
            ]
        },
        {
            "positions": [
                0.4584806580625753,
                -1.3160823878690866,
                -0.502577777704408,
                -0.994058944635727,
                -0.7818995373837695,
                1.2094148869595593
            ]
        },
        {
            "positions": [
                0.3090725325025483,
                -1.320865237720598,
                -0.4081083946100974,
                -0.9570928076062417,
                -0.7292963803422827,
                1.26057456561517
            ]
        },
        {
            "positions": [
                0.15966440694252126,
                -1.3256480875721097,
                -0.313639011515787,
                -0.9201266705767565,
                -0.6766932233007961,
                1.3117342442707804
            ]
        },
        {
            "positions": [
                0.010256281382493793,
                -1.3304309374236212,
                -0.21916962842147614,
                -0.8831605335472711,
                -0.6240900662593093,
                1.3628939229263912
            ]
        },
        {
            "positions": [
                -0.13915184417753368,
                -1.3352137872751326,
                -0.12470024532716573,
                -0.8461943965177858,
                -0.5714869092178225,
                1.414053601582002
            ]
        },
        {
            "positions": [
                -0.2885599697375607,
                -1.339996637126644,
                -0.030230862232855094,
                -0.8092282594883005,
                -0.5188837521763359,
                1.4652132802376125
            ]
        },
        {
            "positions": [
                -0.43796809529758773,
                -1.3447794869781557,
                0.06423852086145532,
                -0.7722621224588152,
                -0.4662805951348492,
                1.516372958893223
            ]
        },
        {
            "positions": [
                -0.5873762208576156,
                -1.3495623368296672,
                0.15870790395576595,
                -0.7352959854293298,
                -0.4136774380933623,
                1.567532637548834
            ]
        },
        {
            "positions": [
                -0.7367843464176429,
                -1.3543451866811786,
                0.25317728705007675,
                -0.6983298483998446,
                -0.36107428105187556,
                1.6186923162044444
            ]
        },
        {
            "positions": [
                -0.670688730398854,
                -1.3377518020077253,
                0.3851711823897006,
                -0.7027893354146557,
                -0.32272627757781064,
                1.730179239732372
            ]
        },
        {
            "positions": [
                -0.604593114380065,
                -1.3211584173342716,
                0.5171650777293245,
                -0.7072488224294667,
                -0.2843782741037457,
                1.8416661632602995
            ]
        },
        {
            "positions": [
                -0.5384974983612761,
                -1.3045650326608182,
                0.6491589730689484,
                -0.7117083094442779,
                -0.2460302706296808,
                1.9531530867882272
            ]
        },
        {
            "positions": [
                -0.4724018823424872,
                -1.2879716479873646,
                0.7811528684085722,
                -0.716167796459089,
                -0.20768226715561586,
                2.064640010316155
            ]
        },
        {
            "positions": [
                -0.40630626632369826,
                -1.2713782633139112,
                0.913146763748196,
                -0.7206272834739,
                -0.16933426368155094,
                2.176126933844082
            ]
        },
        {
            "positions": [
                -0.3402106503049093,
                -1.2547848786404578,
                1.04514065908782,
                -0.7250867704887112,
                -0.13098626020748602,
                2.28761385737201
            ]
        },
        {
            "positions": [
                -0.27411503428612044,
                -1.2381914939670042,
                1.1771345544274439,
                -0.7295462575035223,
                -0.09263825673342113,
                2.3991007808999374
            ]
        },
        {
            "positions": [
                -0.2080194182673315,
                -1.2215981092935508,
                1.3091284497670679,
                -0.7340057445183334,
                -0.05429025325935616,
                2.510587704427865
            ]
        },
        {
            "positions": [
                -0.14192380224854262,
                -1.2050047246200974,
                1.4411223451066917,
                -0.7384652315331445,
                -0.01594224978529124,
                2.6220746279557927
            ]
        },
        {
            "positions": [
                -0.07582818622975362,
                -1.1884113399466438,
                1.5731162404463155,
                -0.7429247185479556,
                0.022405753688773677,
                2.73356155148372
            ]
        },
        {
            "positions": [
                -0.009732570210964742,
                -1.1718179552731904,
                1.7051101357859393,
                -0.7473842055627667,
                0.060753757162838595,
                2.845048475011648
            ]
        },
        {
            "positions": [
                0.05636304580782425,
                -1.1552245705997368,
                1.8371040311255633,
                -0.7518436925775778,
                0.09910176063690351,
                2.9565353985395753
            ]
        },
        {
            "positions": [
                0.12245866182661315,
                -1.1386311859262834,
                1.969097926465187,
                -0.7563031795923889,
                0.13744976411096843,
                3.068022322067503
            ]
        }
    ]
}