{
    "goal": {
        "global_pose": {
            "orientation": {
                "w": 0.5084816217422485,
                "x": -0.49083608388900757,
                "y": 0.5182115435600281,
                "z": -0.4816462993621826
            },
            "position": {
                "x": 0.5540239810943604,
                "y": 0.030875300988554955,
                "z": 0.16403168439865112
            }
        },
        "name": "move_to_storage_A"
    },
    "id": "ProjEST_move_to_storage_A_26",
    "joint_names": [
        "shoulder_pan_joint",
        "shoulder_lift_joint",
        "elbow_joint",
        "wrist_1_joint",
        "wrist_2_joint",
        "wrist_3_joint"
    ],
    "metrics": {
        "cart_traj_len": 0.3539502740100983,
        "distance_elbow_joint": 0.44966599826851694,
        "distance_shoulder_lift_joint": 0.2351880214080222,
        "distance_shoulder_pan_joint": 0.4631777232832589,
        "distance_wrist_1_joint": 0.2397341322219083,
        "distance_wrist_2_joint": 1.0994193257950122,
        "distance_wrist_3_joint": 0.10300475843881696,
        "smoothness": 1.5543122362334363e-15,
        "time": 0.037676496000000004,
        "traj_len": 1.609406710379802,
        "weighted_distance": 2.033556720209714
    },
    "planner": "ProjEST",
    "start": {
        "state": {
            "elbow_joint": 1.971548259319323,
            "shoulder_lift_joint": -1.1394851275133948,
            "shoulder_pan_joint": 0.1228115487234821,
            "wrist_1_joint": -0.7804723859257726,
            "wrist_2_joint": 0.12958671773740124,
            "wrist_3_joint": -3.192489227718131
        }
    },
    "waypoints": [
        {
            "positions": [
                0.1228115487234821,
                -1.1394851275133948,
                1.971548259319323,
                -0.7804723859257726,
                0.12958671773740124,
                -3.192489227718131
            ]
        },
        {
            "positions": [
                0.05664330254015941,
                -1.1730834162859693,
                2.035786259071968,
                -0.8147201191003309,
                0.286646621422403,
                -3.1777742622268716
            ]
        },
        {
            "positions": [
                -0.00952494364316328,
                -1.206681705058544,
                2.1000242588246136,
                -0.8489678522748892,
                0.4437065251074047,
                -3.163059296735612
            ]
        },
        {
            "positions": [
                -0.07569318982648598,
                -1.2402799938311186,
                2.1642622585772586,
                -0.8832155854494476,
                0.6007664287924065,
                -3.1483443312443526
            ]
        },
        {
            "positions": [
                -0.14186143600980866,
                -1.2738782826036932,
                2.228500258329904,
                -0.917463318624006,
                0.7578263324774083,
                -3.1336293657530927
            ]
        },
        {
            "positions": [
                -0.2080296821931314,
                -1.307476571376268,
                2.2927382580825495,
                -0.9517110517985643,
                0.91488623616241,
                -3.118914400261833
            ]
        },
        {
            "positions": [
                -0.27419792837645407,
                -1.3410748601488425,
                2.3569762578351945,
                -0.9859587849731226,
                1.0719461398474117,
                -3.1041994347705737
            ]
        },
        {
            "positions": [
                -0.3403661745597768,
                -1.374673148921417,
                2.42121425758784,
                -1.020206518147681,
                1.2290060435324135,
                -3.089484469279314
            ]
        }
    ]
}{
    "goal": {
        "global_pose": {
            "orientation": {
                "w": 0.5084816217422485,
                "x": -0.49083608388900757,
                "y": 0.5182115435600281,
                "z": -0.4816462993621826
            },
            "position": {
                "x": 0.5540239810943604,
                "y": 0.030875300988554955,
                "z": 0.16403168439865112
            }
        },
        "name": "move_to_storage_A"
    },
    "id": "ProjEST_move_to_storage_A_26",
    "joint_names": [
        "shoulder_pan_joint",
        "shoulder_lift_joint",
        "elbow_joint",
        "wrist_1_joint",
        "wrist_2_joint",
        "wrist_3_joint"
    ],
    "metrics": {
        "cart_traj_len": 0.3526716373792661,
        "distance_elbow_joint": 0.44924468512742965,
        "distance_shoulder_lift_joint": 0.23291172513598424,
        "distance_shoulder_pan_joint": 0.4571198268039458,
        "distance_wrist_1_joint": 0.24474483923522494,
        "distance_wrist_2_joint": 1.1144579274577524,
        "distance_wrist_3_joint": 0.08761208977562118,
        "smoothness": 0.0,
        "time": 0.083018864,
        "traj_len": 1.6081327972328523,
        "weighted_distance": 2.0299059189480135
    },
    "planner": "ProjEST",
    "start": {
        "state": {
            "elbow_joint": 1.97154746011099,
            "shoulder_lift_joint": -1.13948474672311,
            "shoulder_pan_joint": 0.12281154466712228,
            "wrist_1_joint": -0.7804688027058302,
            "wrist_2_joint": 0.12958655903071145,
            "wrist_3_joint": 3.0906928834467795
        }
    },
    "waypoints": [
        {
            "positions": [
                0.12281154466712228,
                -1.13948474672311,
                1.97154746011099,
                -0.7804688027058302,
                0.12958655903071145,
                3.0906928834467795
            ]
        },
        {
            "positions": [
                0.0575087122665586,
                -1.1727578503139648,
                2.0357252722720514,
                -0.8154323511680052,
                0.28879483438181897,
                3.1032088962718682
            ]
        },
        {
            "positions": [
                -0.007794120134005086,
                -1.2060309539048197,
                2.099903084433113,
                -0.8503958996301801,
                0.44800310973292645,
                3.115724909096957
            ]
        },
        {
            "positions": [
                -0.07309695253456876,
                -1.2393040574956746,
                2.1640808965941742,
                -0.8853594480923551,
                0.6072113850840339,
                3.1282409219220457
            ]
        },
        {
            "positions": [
                -0.13839978493513244,
                -1.2725771610865295,
                2.2282587087552352,
                -0.9203229965545301,
                0.7664196604351414,
                3.1407569347471345
            ]
        },
        {
            "positions": [
                -0.20370261733569617,
                -1.3058502646773844,
                2.2924365209162967,
                -0.9552865450167052,
                0.9256279357862489,
                3.153272947572223
            ]
        },
        {
            "positions": [
                -0.2690054497362598,
                -1.3391233682682393,
                2.356614333077358,
                -0.9902500934788802,
                1.0848362111373564,
                3.165788960397312
            ]
        },
        {
            "positions": [
                -0.3343082821368235,
                -1.3723964718590942,
                2.4207921452384196,
                -1.0252136419410551,
                1.2440444864884639,
                3.1783049732224007
            ]
        }
    ]
}{
    "goal": {
        "global_pose": {
            "orientation": {
                "w": 0.5084816217422485,
                "x": -0.49083608388900757,
                "y": 0.5182115435600281,
                "z": -0.4816462993621826
            },
            "position": {
                "x": 0.5540239810943604,
                "y": 0.030875300988554955,
                "z": 0.16403168439865112
            }
        },
        "name": "move_to_storage_A"
    },
    "id": "ProjEST_move_to_storage_A_26",
    "joint_names": [
        "shoulder_pan_joint",
        "shoulder_lift_joint",
        "elbow_joint",
        "wrist_1_joint",
        "wrist_2_joint",
        "wrist_3_joint"
    ],
    "metrics": {
        "cart_traj_len": 0.35334409130652933,
        "distance_elbow_joint": 0.44849727712366283,
        "distance_shoulder_lift_joint": 0.23346162257056724,
        "distance_shoulder_pan_joint": 0.45967032300660543,
        "distance_wrist_1_joint": 0.2386592474923106,
        "distance_wrist_2_joint": 1.1089101709470357,
        "distance_wrist_3_joint": 0.0866837382283201,
        "smoothness": 2.2204460668324854e-16,
        "time": 0.06911205299999999,
        "traj_len": 1.6049555692817488,
        "weighted_distance": 2.0240600965051625
    },
    "planner": "ProjEST",
    "start": {
        "state": {
            "elbow_joint": 1.9715472970024885,
            "shoulder_lift_joint": -1.1394870060712896,
            "shoulder_pan_joint": 0.12281152778156021,
            "wrist_1_joint": -0.780463741449964,
            "wrist_2_joint": 0.12958659822042276,
            "wrist_3_joint": 3.090690232415272
        }
    },
    "waypoints": [
        {
            "positions": [
                0.12281152778156021,
                -1.1394870060712896,
                1.9715472970024885,
                -0.780463741449964,
                0.12958659822042276,
                3.090690232415272
            ]
        },
        {
            "positions": [
                0.05714433878061659,
                -1.1728386664385135,
                2.0356183365915834,
                -0.8145579196631513,
                0.28800233692714217,
                3.1030736235907463
            ]
        },
        {
            "positions": [
                -0.008522850220327033,
                -1.2061903268057375,
                2.099689376180678,
                -0.8486520978763384,
                0.4464180756338615,
                3.1154570147662204
            ]
        },
        {
            "positions": [
                -0.07419003922127065,
                -1.2395419871729614,
                2.1637604157697727,
                -0.8827462760895257,
                0.6048338143405809,
                3.127840405941695
            ]
        },
        {
            "positions": [
                -0.13985722822221427,
                -1.272893647540185,
                2.227831455358867,
                -0.9168404543027129,
                0.7632495530473002,
                3.140223797117169
            ]
        },
        {
            "positions": [
                -0.20552441722315792,
                -1.306245307907409,
                2.291902494947962,
                -0.9509346325159002,
                0.9216652917540197,
                3.1526071882926434
            ]
        },
        {
            "positions": [
                -0.27119160622410154,
                -1.339596968274633,
                2.3559735345370565,
                -0.9850288107290873,
                1.0800810304607391,
                3.1649905794681175
            ]
        },
        {
            "positions": [
                -0.3368587952250452,
                -1.3729486286418568,
                2.4200445741261514,
                -1.0191229889422746,
                1.2384967691674584,
                3.177373970643592
            ]
        }
    ]
}