{
    "goal": {
        "global_pose": {
            "orientation": {
                "w": 0.005598929693374612,
                "x": 0.007748599140229565,
                "y": 0.7110244013736278,
                "z": -0.7031023480610252
            },
            "position": {
                "x": 0.1141497679147869,
                "y": -0.7141253447532654,
                "z": 0.3711530566215515
            }
        },
        "name": "move_to_auspresseinheit_B"
    },
    "id": "ProjEST_move_to_auspresseinheit_B_136",
    "joint_names": [
        "shoulder_pan_joint",
        "shoulder_lift_joint",
        "elbow_joint",
        "wrist_1_joint",
        "wrist_2_joint",
        "wrist_3_joint"
    ],
    "metrics": {
        "cart_traj_len": 0.5654216021068831,
        "distance_elbow_joint": 0.06015525316541548,
        "distance_shoulder_lift_joint": 0.2946557271050374,
        "distance_shoulder_pan_joint": 0.5760176744930994,
        "distance_wrist_1_joint": 0.31561867797497045,
        "distance_wrist_2_joint": 1.0056080037450097,
        "distance_wrist_3_joint": 0.003645109069098762,
        "smoothness": 5.075305255429287e-16,
        "time": 0.036137596,
        "traj_len": 1.5018989465182506,
        "weighted_distance": 1.8932029329712143
    },
    "planner": "ProjEST",
    "start": {
        "state": {
            "elbow_joint": 2.0193083361928714,
            "shoulder_lift_joint": -1.1220246554650708,
            "shoulder_pan_joint": -1.0952077554168747,
            "wrist_1_joint": -0.8559753972642168,
            "wrist_2_joint": 0.4759566250798843,
            "wrist_3_joint": -3.1240929996934557
        }
    },
    "waypoints": [
        {
            "positions": [
                -1.0952077554168747,
                -1.1220246554650708,
                2.0193083361928714,
                -0.8559753972642168,
                0.4759566250798843,
                -3.1240929996934557
            ]
        },
        {
            "positions": [
                -1.1912107011657245,
                -1.1711339433159105,
                2.009282460665302,
                -0.8033722842683884,
                0.6435579590373859,
                -3.1247005178716387
            ]
        },
        {
            "positions": [
                -1.2872136469145745,
                -1.22024323116675,
                1.9992565851377329,
                -0.7507691712725599,
                0.8111592929948874,
                -3.1253080360498218
            ]
        },
        {
            "positions": [
                -1.3832165926634243,
                -1.2693525190175894,
                1.9892307096101636,
                -0.6981660582767315,
                0.9787606269523892,
                -3.125915554228005
            ]
        },
        {
            "positions": [
                -1.4792195384122742,
                -1.318461806868429,
                1.9792048340825945,
                -0.6455629452809032,
                1.1463619609098907,
                -3.1265230724061883
            ]
        },
        {
            "positions": [
                -1.5752224841611242,
                -1.3675710947192687,
                1.9691789585550252,
                -0.5929598322850747,
                1.3139632948673925,
                -3.1271305905843714
            ]
        },
        {
            "positions": [
                -1.671225429909974,
                -1.4166803825701082,
                1.959153083027456,
                -0.5403567192892463,
                1.481564628824894,
                -3.1277381087625544
            ]
        }
    ]
}