{
    "goal": {
        "global_pose": {
            "orientation": {
                "w": -0.4816463035849501,
                "x": 0.5182115481033762,
                "y": 0.4908360881923453,
                "z": -0.5084816262002911
            },
            "position": {
                "x": -0.8240239810943604,
                "y": -0.300875300988555,
                "z": 0.16403168439865112
            }
        },
        "name": "move_to_storage_C"
    },
    "id": "ProjEST_move_to_storage_C_85",
    "joint_names": [
        "shoulder_pan_joint",
        "shoulder_lift_joint",
        "elbow_joint",
        "wrist_1_joint",
        "wrist_2_joint",
        "wrist_3_joint"
    ],
    "metrics": {
        "cart_traj_len": 0.576065120074663,
        "distance_elbow_joint": 0.25883042667585077,
        "distance_shoulder_lift_joint": 0.1891381517227353,
        "distance_shoulder_pan_joint": 0.49539093547485136,
        "distance_wrist_1_joint": 0.08775000871388794,
        "distance_wrist_2_joint": 1.0607489192512651,
        "distance_wrist_3_joint": 0.0594161988461428,
        "smoothness": 5.075305295617109e-16,
        "time": 0.23476995,
        "traj_len": 1.4667224143254691,
        "weighted_distance": 1.848947258940117
    },
    "planner": "ProjEST",
    "start": {
        "state": {
            "elbow_joint": 2.010868314990456,
            "shoulder_lift_joint": -1.1634956873337592,
            "shoulder_pan_joint": -2.4736205022346125,
            "wrist_1_joint": -0.8367026794202681,
            "wrist_2_joint": 0.6746043897044499,
            "wrist_3_joint": -3.1496632123970403
        }
    },
    "waypoints": [
        {
            "positions": [
                -2.4736205022346125,
                -1.1634956873337592,
                2.010868314990456,
                -0.8367026794202681,
                0.6746043897044499,
                -3.1496632123970403
            ]
        },
        {
            "positions": [
                -2.5561856581470876,
                -1.1319726620466366,
                1.9677299105444808,
                -0.8220776779679535,
                0.8513958762463274,
                -3.13976051258935
            ]
        },
        {
            "positions": [
                -2.638750814059563,
                -1.100449636759514,
                1.9245915060985055,
                -0.8074526765156388,
                1.028187362788205,
                -3.129857812781659
            ]
        },
        {
            "positions": [
                -2.7213159699720384,
                -1.0689266114723917,
                1.8814531016525304,
                -0.7928276750633241,
                1.2049788493300824,
                -3.119955112973969
            ]
        },
        {
            "positions": [
                -2.8038811258845135,
                -1.037403586185269,
                1.8383146972065554,
                -0.7782026736110095,
                1.38177033587196,
                -3.1100524131662786
            ]
        },
        {
            "positions": [
                -2.8864462817969887,
                -1.0058805608981465,
                1.79517629276058,
                -0.7635776721586949,
                1.5585618224138376,
                -3.100149713358588
            ]
        },
        {
            "positions": [
                -2.969011437709464,
                -0.9743575356110239,
                1.752037888314605,
                -0.7489526707063802,
                1.735353308955715,
                -3.0902470135508975
            ]
        }
    ]
}