{
    "goal": {
        "global_pose": {
            "orientation": {
                "w": 0.7031023502349854,
                "x": -0.7110244035720825,
                "y": 0.007748599164187908,
                "z": 0.005598929710686207
            },
            "position": {
                "x": 0.11585023208521307,
                "y": 0.44412534475326537,
                "z": 0.3711530566215515
            }
        },
        "name": "move_to_auspresseinheit_A"
    },
    "id": "ProjEST_move_to_auspresseinheit_A_121",
    "joint_names": [
        "shoulder_pan_joint",
        "shoulder_lift_joint",
        "elbow_joint",
        "wrist_1_joint",
        "wrist_2_joint",
        "wrist_3_joint"
    ],
    "metrics": {
        "cart_traj_len": 0.6840878800934372,
        "distance_elbow_joint": 0.4386679300967593,
        "distance_shoulder_lift_joint": 0.5321663484854535,
        "distance_shoulder_pan_joint": 1.0469026350386974,
        "distance_wrist_1_joint": 2.2221462193494927,
        "distance_wrist_2_joint": 0.5152117680174816,
        "distance_wrist_3_joint": 1.9024372031856198,
        "smoothness": 1.1188795293518539,
        "time": 0.106609349,
        "traj_len": 2.5802193907056634,
        "weighted_distance": 3.633148014864206
    },
    "planner": "ProjEST",
    "start": {
        "state": {
            "elbow_joint": 2.4225746658250005,
            "shoulder_lift_joint": -1.3736534386056498,
            "shoulder_pan_joint": -0.3378633547517467,
            "wrist_1_joint": -1.0288598680537169,
            "wrist_2_joint": 1.233022673432363,
            "wrist_3_joint": -3.0940220416140027
        }
    },
    "waypoints": [
        {
            "positions": [
                -0.3378633547517467,
                -1.3736534386056498,
                2.4225746658250005,
                -1.0288598680537169,
                1.233022673432363,
                -3.0940220416140027
            ]
        },
        {
            "positions": [
                -0.2830980838460049,
                -1.397641248235285,
                2.3990827753614683,
                -0.8893803717165063,
                1.197347774021934,
                -3.0012708899510807
            ]
        },
        {
            "positions": [
                -0.22833281294026303,
                -1.4216290578649202,
                2.3755908848979366,
                -0.7499008753792957,
                1.1616728746115053,
                -2.9085197382881587
            ]
        },
        {
            "positions": [
                -0.1735675420345212,
                -1.4456168674945553,
                2.3520989944344044,
                -0.6104213790420852,
                1.1259979752010763,
                -2.815768586625237
            ]
        },
        {
            "positions": [
                -0.11880227112877936,
                -1.4696046771241904,
                2.3286071039708722,
                -0.4709418827048746,
                1.0903230757906472,
                -2.723017434962315
            ]
        },
        {
            "positions": [
                -0.06403700022303754,
                -1.4935924867538257,
                2.3051152135073405,
                -0.331462386367664,
                1.0546481763802182,
                -2.630266283299393
            ]
        },
        {
            "positions": [
                -0.009271729317295696,
                -1.5175802963834608,
                2.2816233230438083,
                -0.19198289003045343,
                1.0189732769697895,
                -2.537515131636471
            ]
        },
        {
            "positions": [
                0.045493541588446096,
                -1.541568106013096,
                2.258131432580276,
                -0.05250339369324297,
                0.9832983775593604,
                -2.4447639799735494
            ]
        },
        {
            "positions": [
                0.100258812494188,
                -1.5655559156427312,
                2.234639542116744,
                0.08697610264396771,
                0.9476234781489314,
                -2.3520128283106274
            ]
        },
        {
            "positions": [
                0.1550240833999298,
                -1.5895437252723663,
                2.2111476516532123,
                0.22645559898117829,
                0.9119485787385027,
                -2.2592616766477054
            ]
        },
        {
            "positions": [
                0.20978935430567167,
                -1.6135315349020014,
                2.18765576118968,
                0.36593509531838875,
                0.8762736793280737,
                -2.1665105249847834
            ]
        },
        {
            "positions": [
                0.2721955950533316,
                -1.6500675664256392,
                2.21312438937236,
                0.2625161883212154,
                0.8564658325889246,
                -2.2883762358043334
            ]
        },
        {
            "positions": [
                0.33460183580099145,
                -1.6866035979492768,
                2.23859301755504,
                0.1590972813240421,
                0.8366579858497756,
                -2.4102419466238834
            ]
        },
        {
            "positions": [
                0.39700807654865133,
                -1.7231396294729147,
                2.2640616457377196,
                0.055678374326868785,
                0.8168501391106265,
                -2.5321076574434334
            ]
        },
        {
            "positions": [
                0.4594143172963112,
                -1.7596756609965523,
                2.2895302739203993,
                -0.047740532670304536,
                0.7970422923714775,
                -2.6539733682629834
            ]
        },
        {
            "positions": [
                0.5218205580439711,
                -1.79621169252019,
                2.3149989021030795,
                -0.1511594396674779,
                0.7772344456323286,
                -2.775839079082534
            ]
        },
        {
            "positions": [
                0.5842267987916311,
                -1.832747724043828,
                2.340467530285759,
                -0.2545783466646512,
                0.7574265988931795,
                -2.897704789902084
            ]
        },
        {
            "positions": [
                0.646633039539291,
                -1.8692837555674657,
                2.3659361584684393,
                -0.35799725366182444,
                0.7376187521540305,
                -3.019570500721634
            ]
        },
        {
            "positions": [
                0.7090392802869508,
                -1.9058197870911033,
                2.391404786651119,
                -0.4614161606589978,
                0.7178109054148815,
                -3.141436211541184
            ]
        }
    ]
}