{
    "goal": {
        "global_pose": {
            "orientation": {
                "w": 0.7031023480610252,
                "x": -0.7110244013736278,
                "y": 0.0077485991402295624,
                "z": 0.005598929693374583
            },
            "position": {
                "x": -0.8841497679147869,
                "y": 0.44412534475326537,
                "z": 0.3711530566215515
            }
        },
        "name": "move_to_auspresseinheit_D"
    },
    "id": "ProjEST_move_to_auspresseinheit_D_22",
    "joint_names": [
        "shoulder_pan_joint",
        "shoulder_lift_joint",
        "elbow_joint",
        "wrist_1_joint",
        "wrist_2_joint",
        "wrist_3_joint"
    ],
    "metrics": {
        "cart_traj_len": 0.3439593398319477,
        "distance_elbow_joint": 0.6408732620833562,
        "distance_shoulder_lift_joint": 0.12227936442815635,
        "distance_shoulder_pan_joint": 0.13428525451050108,
        "distance_wrist_1_joint": 0.5320328660376799,
        "distance_wrist_2_joint": 1.4462721664078104,
        "distance_wrist_3_joint": 0.0017142387725166408,
        "smoothness": 0.0,
        "time": 0.028415541,
        "traj_len": 1.6963069156965729,
        "weighted_distance": 2.2043571993283084
    },
    "planner": "ProjEST",
    "start": {
        "state": {
            "elbow_joint": -1.8275523626775212,
            "shoulder_lift_joint": -2.126789852344167,
            "shoulder_pan_joint": -0.03513704404078235,
            "wrist_1_joint": -2.347782403156801,
            "wrist_2_joint": -1.6058999987535132,
            "wrist_3_joint": -3.0880379163319196
        }
    },
    "waypoints": [
        {
            "positions": [
                -0.03513704404078235,
                -2.126789852344167,
                -1.8275523626775212,
                -2.347782403156801,
                -1.6058999987535132,
                -3.0880379163319196
            ]
        },
        {
            "positions": [
                -0.05192270085459498,
                -2.1420747728976863,
                -1.7474432049171016,
                -2.414286511411511,
                -1.4251159779525369,
                -3.087823636485355
            ]
        },
        {
            "positions": [
                -0.06870835766840762,
                -2.157359693451206,
                -1.6673340471566822,
                -2.480790619666221,
                -1.2443319571515605,
                -3.0876093566387905
            ]
        },
        {
            "positions": [
                -0.08549401448222024,
                -2.1726446140047253,
                -1.5872248893962626,
                -2.5472947279209306,
                -1.0635479363505844,
                -3.087395076792226
            ]
        },
        {
            "positions": [
                -0.10227967129603288,
                -2.1879295345582452,
                -1.5071157316358432,
                -2.613798836175641,
                -0.882763915549608,
                -3.0871807969456615
            ]
        },
        {
            "positions": [
                -0.11906532810984552,
                -2.2032144551117647,
                -1.4270065738754236,
                -2.680302944430351,
                -0.7019798947486316,
                -3.0869665170990968
            ]
        },
        {
            "positions": [
                -0.13585098492365816,
                -2.218499375665284,
                -1.346897416115004,
                -2.7468070526850608,
                -0.5211958739476554,
                -3.086752237252532
            ]
        },
        {
            "positions": [
                -0.1526366417374708,
                -2.2337842962188037,
                -1.2667882583545844,
                -2.8133111609397705,
                -0.3404118531466791,
                -3.0865379574059677
            ]
        },
        {
            "positions": [
                -0.16942229855128343,
                -2.249069216772323,
                -1.186679100594165,
                -2.8798152691944807,
                -0.1596278323457027,
                -3.086323677559403
            ]
        }
    ]
}