{
    "goal": {
        "global_pose": {
            "orientation": {
                "w": -0.4816463035849501,
                "x": 0.5182115481033762,
                "y": 0.4908360881923453,
                "z": -0.5084816262002911
            },
            "position": {
                "x": -0.8240239810943604,
                "y": 0.19912469901144506,
                "z": 0.16403168439865112
            }
        },
        "name": "move_to_storage_D"
    },
    "id": "ProjEST_move_to_storage_D_100",
    "joint_names": [
        "shoulder_pan_joint",
        "shoulder_lift_joint",
        "elbow_joint",
        "wrist_1_joint",
        "wrist_2_joint",
        "wrist_3_joint"
    ],
    "metrics": {
        "cart_traj_len": 4.449683572182186,
        "distance_elbow_joint": 4.213058411283833,
        "distance_shoulder_lift_joint": 2.687129633523349,
        "distance_shoulder_pan_joint": 2.8124074832658152,
        "distance_wrist_1_joint": 3.934208101017056,
        "distance_wrist_2_joint": 1.2903056565207034,
        "distance_wrist_3_joint": 3.1247666885690357,
        "smoothness": 0.2588929061070514,
        "time": 0.302547419,
        "traj_len": 4.249926584563524,
        "weighted_distance": 5.4346962296761
    },
    "planner": "ProjEST",
    "start": {
        "state": {
            "elbow_joint": -2.384821988534728,
            "shoulder_lift_joint": -2.2788054721415256,
            "shoulder_pan_joint": -0.1854694642142757,
            "wrist_1_joint": 1.4845938289331202,
            "wrist_2_joint": 0.17898776772866878,
            "wrist_3_joint": 0.037105688729662994
        }
    },
    "waypoints": [
        {
            "positions": [
                -0.1854694642142757,
                -2.2788054721415256,
                -2.384821988534728,
                1.4845938289331202,
                0.17898776772866878,
                0.037105688729662994
            ]
        },
        {
            "positions": [
                -0.10868656487352993,
                -2.1647207615251522,
                -2.3504248990093237,
                1.4781866859570039,
                0.12718857739462194,
                -0.00971750803618298
            ]
        },
        {
            "positions": [
                -0.03190366553278415,
                -2.0506360509087784,
                -2.316027809483919,
                1.4717795429808875,
                0.0753893870605751,
                -0.056540704802028954
            ]
        },
        {
            "positions": [
                0.04487923380796163,
                -1.9365513402924048,
                -2.281630719958515,
                1.4653724000047714,
                0.023590196726528262,
                -0.10336390156787492
            ]
        },
        {
            "positions": [
                0.1216621331487074,
                -1.8224666296760312,
                -2.2472336304331106,
                1.458965257028655,
                -0.028208993607518586,
                -0.1501870983337209
            ]
        },
        {
            "positions": [
                0.16011086436614572,
                -1.8498234957001405,
                -2.141763677865748,
                1.3403360594191525,
                0.00921293968425025,
                -0.2165632524657155
            ]
        },
        {
            "positions": [
                0.19855959558358405,
                -1.8771803617242497,
                -2.036293725298385,
                1.2217068618096498,
                0.046634872976019086,
                -0.2829394065977101
            ]
        },
        {
            "positions": [
                0.23700832680102238,
                -1.9045372277483588,
                -1.9308237727310225,
                1.1030776642001472,
                0.08405680626778791,
                -0.3493155607297047
            ]
        },
        {
            "positions": [
                0.2754570580184607,
                -1.931894093772468,
                -1.8253538201636594,
                0.9844484665906444,
                0.12147873955955676,
                -0.41569171486169937
            ]
        },
        {
            "positions": [
                0.313905789235899,
                -1.9592509597965773,
                -1.7198838675962969,
                0.8658192689811418,
                0.1589006728513256,
                -0.48206786899369397
            ]
        },
        {
            "positions": [
                0.35235452045333737,
                -1.9866078258206865,
                -1.614413915028934,
                0.7471900713716392,
                0.19632260614309444,
                -0.5484440231256886
            ]
        },
        {
            "positions": [
                0.3908032516707756,
                -2.0139646918447958,
                -1.5089439624615713,
                0.6285608737621365,
                0.23374453943486326,
                -0.6148201772576831
            ]
        },
        {
            "positions": [
                0.429251982888214,
                -2.041321557868905,
                -1.4034740098942085,
                0.5099316761526338,
                0.2711664727266321,
                -0.6811963313896778
            ]
        },
        {
            "positions": [
                0.4677007141056523,
                -2.068678423893014,
                -1.2980040573268457,
                0.39130247854313116,
                0.3085884060184009,
                -0.7475724855216724
            ]
        },
        {
            "positions": [
                0.5061494453230907,
                -2.0960352899171233,
                -1.1925341047594828,
                0.2726732809336285,
                0.3460103393101697,
                -0.813948639653667
            ]
        },
        {
            "positions": [
                0.544598176540529,
                -2.1233921559412323,
                -1.0870641521921203,
                0.1540440833241259,
                0.3834322726019386,
                -0.8803247937856616
            ]
        },
        {
            "positions": [
                0.5830469077579673,
                -2.150749021965342,
                -0.9815941996247575,
                0.035414885714623257,
                0.4208542058937074,
                -0.9467009479176562
            ]
        },
        {
            "positions": [
                0.6214956389754056,
                -2.178105887989451,
                -0.8761242470573947,
                -0.08321431189487938,
                0.4582761391854762,
                -1.013077102049651
            ]
        },
        {
            "positions": [
                0.6599443701928439,
                -2.20546275401356,
                -0.7706542944900319,
                -0.201843509504382,
                0.49569807247724507,
                -1.0794532561816454
            ]
        },
        {
            "positions": [
                0.6983931014102822,
                -2.2328196200376693,
                -0.6651843419226693,
                -0.3204727071138844,
                0.5331200057690139,
                -1.14582941031364
            ]
        },
        {
            "positions": [
                0.7368418326277206,
                -2.2601764860617783,
                -0.5597143893553063,
                -0.4391019047233875,
                0.5705419390607828,
                -1.2122055644456347
            ]
        },
        {
            "positions": [
                0.7752905638451589,
                -2.2875333520858874,
                -0.4542444367879437,
                -0.5577311023328899,
                0.6079638723525516,
                -1.2785817185776294
            ]
        },
        {
            "positions": [
                0.8137392950625972,
                -2.314890218109997,
                -0.3487744842205809,
                -0.6763602999423928,
                0.6453858056443204,
                -1.344957872709624
            ]
        },
        {
            "positions": [
                0.8521880262800355,
                -2.342247084134106,
                -0.24330453165321808,
                -0.7949894975518952,
                0.6828077389360891,
                -1.4113340268416183
            ]
        },
        {
            "positions": [
                0.890636757497474,
                -2.3696039501582153,
                -0.13783457908585506,
                -0.913618695161398,
                0.720229672227858,
                -1.477710180973613
            ]
        },
        {
            "positions": [
                0.9290854887149123,
                -2.3969608161823244,
                -0.03236462651849248,
                -1.0322478927709005,
                0.7576516055196268,
                -1.5440863351056078
            ]
        },
        {
            "positions": [
                0.9675342199323506,
                -2.424317682206434,
                0.0731053260488701,
                -1.1508770903804033,
                0.7950735388113958,
                -1.6104624892376025
            ]
        },
        {
            "positions": [
                1.0059829511497889,
                -2.451674548230543,
                0.17857527861623312,
                -1.2695062879899057,
                0.8324954721031645,
                -1.6768386433695968
            ]
        },
        {
            "positions": [
                1.0444316823672273,
                -2.479031414254652,
                0.2840452311835957,
                -1.3881354855994086,
                0.8699174053949335,
                -1.7432147975015915
            ]
        },
        {
            "positions": [
                1.0828804135846655,
                -2.5063882802787614,
                0.3895151837509587,
                -1.5067646832089114,
                0.9073393386867022,
                -1.8095909516335862
            ]
        },
        {
            "positions": [
                1.1213291448021039,
                -2.5337451463028704,
                0.4949851363183213,
                -1.6253938808184136,
                0.944761271978471,
                -1.8759671057655807
            ]
        },
        {
            "positions": [
                1.2098943726991296,
                -2.4443620713363403,
                0.5734116825789555,
                -1.57691032839103,
                0.9512400148960314,
                -1.947243217181686
            ]
        },
        {
            "positions": [
                1.298459600596155,
                -2.35497899636981,
                0.6518382288395898,
                -1.5284267759636463,
                0.9577187578135917,
                -2.0185193285977916
            ]
        },
        {
            "positions": [
                1.3870248284931808,
                -2.2655959214032793,
                0.730264775100224,
                -1.4799432235362628,
                0.9641975007311522,
                -2.089795440013897
            ]
        },
        {
            "positions": [
                1.4755900563902062,
                -2.176212846436749,
                0.8086913213608582,
                -1.4314596711088792,
                0.9706762436487125,
                -2.1610715514300023
            ]
        },
        {
            "positions": [
                1.564155284287232,
                -2.086829771470219,
                0.8871178676214924,
                -1.3829761186814955,
                0.9771549865662729,
                -2.2323476628461076
            ]
        },
        {
            "positions": [
                1.6527205121842576,
                -1.9974466965036886,
                0.9655444138821266,
                -1.3344925662541118,
                0.9836337294838332,
                -2.3036237742622134
            ]
        },
        {
            "positions": [
                1.741285740081283,
                -1.9080636215371585,
                1.0439709601427607,
                -1.2860090138267282,
                0.9901124724013937,
                -2.3748998856783183
            ]
        },
        {
            "positions": [
                1.8298509679783086,
                -1.818680546570628,
                1.122397506403395,
                -1.2375254613993447,
                0.996591215318954,
                -2.446175997094424
            ]
        },
        {
            "positions": [
                1.9184161958753343,
                -1.7292974716040979,
                1.2008240526640293,
                -1.1890419089719608,
                1.0030699582365143,
                -2.5174521085105295
            ]
        },
        {
            "positions": [
                2.00698142377236,
                -1.6399143966375673,
                1.2792505989246634,
                -1.1405583565445774,
                1.0095487011540747,
                -2.588728219926635
            ]
        },
        {
            "positions": [
                2.0955466516693857,
                -1.5505313216710372,
                1.3576771451852978,
                -1.0920748041171937,
                1.016027444071635,
                -2.66000433134274
            ]
        },
        {
            "positions": [
                2.1841118795664114,
                -1.4611482467045067,
                1.436103691445932,
                -1.04359125168981,
                1.0225061869891954,
                -2.7312804427588455
            ]
        },
        {
            "positions": [
                2.2726771074634367,
                -1.3717651717379766,
                1.5145302377065661,
                -0.9951076992624265,
                1.028984929906756,
                -2.802556554174951
            ]
        },
        {
            "positions": [
                2.361242335360462,
                -1.2823820967714463,
                1.5929567839672003,
                -0.9466241468350428,
                1.0354636728243163,
                -2.873832665591056
            ]
        },
        {
            "positions": [
                2.4498075632574876,
                -1.192999021804916,
                1.6713833302278345,
                -0.8981405944076591,
                1.0419424157418766,
                -2.945108777007162
            ]
        },
        {
            "positions": [
                2.5383727911545133,
                -1.1036159468383857,
                1.7498098764884689,
                -0.8496570419802756,
                1.048421158659437,
                -3.0163848884232674
            ]
        },
        {
            "positions": [
                2.626938019051539,
                -1.0142328718718554,
                1.828236422749103,
                -0.8011734895528919,
                1.0548999015769973,
                -3.0876609998393727
            ]
        }
    ]
}