{
    "goal": {
        "global_pose": {
            "orientation": {
                "w": 0.5084816217422485,
                "x": -0.49083608388900757,
                "y": 0.5182115435600281,
                "z": -0.4816462993621826
            },
            "position": {
                "x": 0.5540239810943604,
                "y": 0.030875300988554955,
                "z": 0.16403168439865112
            }
        },
        "name": "move_to_storage_A"
    },
    "id": "ProjEST_move_to_storage_A_60",
    "joint_names": [
        "shoulder_pan_joint",
        "shoulder_lift_joint",
        "elbow_joint",
        "wrist_1_joint",
        "wrist_2_joint",
        "wrist_3_joint"
    ],
    "metrics": {
        "cart_traj_len": 0.35346726919161836,
        "distance_elbow_joint": 0.44832099452039365,
        "distance_shoulder_lift_joint": 0.23635899900592294,
        "distance_shoulder_pan_joint": 0.46258298645648366,
        "distance_wrist_1_joint": 0.233943482600948,
        "distance_wrist_2_joint": 1.0986237823504181,
        "distance_wrist_3_joint": 0.09801176527736244,
        "smoothness": 8.881784197001252e-16,
        "time": 0.086160234,
        "traj_len": 1.6055659470141763,
        "weighted_distance": 2.026433518701667
    },
    "planner": "ProjEST",
    "start": {
        "state": {
            "elbow_joint": 1.971548259319323,
            "shoulder_lift_joint": -1.1394851275133948,
            "shoulder_pan_joint": 0.1228115487234821,
            "wrist_1_joint": -0.7804723859257726,
            "wrist_2_joint": 0.12958671773740124,
            "wrist_3_joint": -3.192489227718131
        }
    },
    "waypoints": [
        {
            "positions": [
                0.1228115487234821,
                -1.1394851275133948,
                1.971548259319323,
                -0.7804723859257726,
                0.12958671773740124,
                -3.192489227718131
            ]
        },
        {
            "positions": [
                0.05672826494398443,
                -1.1732506987999551,
                2.035594115679379,
                -0.8138928834401937,
                0.2865329723588895,
                -3.1784875469642224
            ]
        },
        {
            "positions": [
                -0.009355018835513235,
                -1.2070162700865157,
                2.0996399720394354,
                -0.847313380954615,
                0.4434792269803778,
                -3.1644858662103132
            ]
        },
        {
            "positions": [
                -0.07543830261501089,
                -1.240781841373076,
                2.1636858283994918,
                -0.8807338784690361,
                0.6004254816018662,
                -3.1504841854564045
            ]
        },
        {
            "positions": [
                -0.14152158639450857,
                -1.2745474126596366,
                2.227731684759548,
                -0.9141543759834572,
                0.7573717362233544,
                -3.1364825047024953
            ]
        },
        {
            "positions": [
                -0.20760487017400625,
                -1.3083129839461969,
                2.291777541119604,
                -0.9475748734978784,
                0.9143179908448428,
                -3.1224808239485866
            ]
        },
        {
            "positions": [
                -0.2736881539535039,
                -1.3420785552327574,
                2.3558233974796603,
                -0.9809953710122994,
                1.071264245466331,
                -3.1084791431946774
            ]
        },
        {
            "positions": [
                -0.33977143773300156,
                -1.3758441265193178,
                2.4198692538397166,
                -1.0144158685267206,
                1.2282105000878194,
                -3.0944774624407687
            ]
        }
    ]
}{
    "goal": {
        "global_pose": {
            "orientation": {
                "w": 0.5084816217422485,
                "x": -0.49083608388900757,
                "y": 0.5182115435600281,
                "z": -0.4816462993621826
            },
            "position": {
                "x": 0.5540239810943604,
                "y": 0.030875300988554955,
                "z": 0.16403168439865112
            }
        },
        "name": "move_to_storage_A"
    },
    "id": "ProjEST_move_to_storage_A_60",
    "joint_names": [
        "shoulder_pan_joint",
        "shoulder_lift_joint",
        "elbow_joint",
        "wrist_1_joint",
        "wrist_2_joint",
        "wrist_3_joint"
    ],
    "metrics": {
        "cart_traj_len": 0.3526711000810949,
        "distance_elbow_joint": 0.4530261876710453,
        "distance_shoulder_lift_joint": 0.23523190530396443,
        "distance_shoulder_pan_joint": 0.4602682047261561,
        "distance_wrist_1_joint": 0.2531240380164528,
        "distance_wrist_2_joint": 1.1027866906068056,
        "distance_wrist_3_joint": 0.09125450793907186,
        "smoothness": 6.661338165333112e-16,
        "time": 0.145813673,
        "traj_len": 1.6111149972188503,
        "weighted_distance": 2.033251405696034
    },
    "planner": "ProjEST",
    "start": {
        "state": {
            "elbow_joint": 1.97154746011099,
            "shoulder_lift_joint": -1.13948474672311,
            "shoulder_pan_joint": 0.12281154466712228,
            "wrist_1_joint": -0.7804688027058302,
            "wrist_2_joint": 0.12958655903071145,
            "wrist_3_joint": 3.0906928834467795
        }
    },
    "waypoints": [
        {
            "positions": [
                0.12281154466712228,
                -1.13948474672311,
                1.97154746011099,
                -0.7804688027058302,
                0.12958655903071145,
                3.0906928834467795
            ]
        },
        {
            "positions": [
                0.05705894399195713,
                -1.1730893046236763,
                2.036265486921139,
                -0.8166293795653234,
                0.28712751483168364,
                3.10372924172379
            ]
        },
        {
            "positions": [
                -0.008693656683208026,
                -1.2066938625242427,
                2.1009835137312884,
                -0.8527899564248167,
                0.4446684706326559,
                3.1167656000008
            ]
        },
        {
            "positions": [
                -0.07444625735837317,
                -1.240298420424809,
                2.1657015405414377,
                -0.88895053328431,
                0.6022094264336281,
                3.1298019582778105
            ]
        },
        {
            "positions": [
                -0.14019885803353832,
                -1.2739029783253752,
                2.2304195673515874,
                -0.9251111101438032,
                0.7597503822346003,
                3.1428383165548204
            ]
        },
        {
            "positions": [
                -0.20595145870870352,
                -1.3075075362259416,
                2.2951375941617367,
                -0.9612716870032965,
                0.9172913380355726,
                3.1558746748318307
            ]
        },
        {
            "positions": [
                -0.2717040593838686,
                -1.341112094126508,
                2.359855620971886,
                -0.9974322638627897,
                1.0748322938365447,
                3.168911033108841
            ]
        },
        {
            "positions": [
                -0.3374566600590338,
                -1.3747166520270744,
                2.424573647782035,
                -1.033592840722283,
                1.232373249637517,
                3.1819473913858514
            ]
        }
    ]
}{
    "goal": {
        "global_pose": {
            "orientation": {
                "w": 0.5084816217422485,
                "x": -0.49083608388900757,
                "y": 0.5182115435600281,
                "z": -0.4816462993621826
            },
            "position": {
                "x": 0.5540239810943604,
                "y": 0.030875300988554955,
                "z": 0.16403168439865112
            }
        },
        "name": "move_to_storage_A"
    },
    "id": "ProjEST_move_to_storage_A_60",
    "joint_names": [
        "shoulder_pan_joint",
        "shoulder_lift_joint",
        "elbow_joint",
        "wrist_1_joint",
        "wrist_2_joint",
        "wrist_3_joint"
    ],
    "metrics": {
        "cart_traj_len": 0.3526448920553163,
        "distance_elbow_joint": 0.4528125534806855,
        "distance_shoulder_lift_joint": 0.23177421602206771,
        "distance_shoulder_pan_joint": 0.459190581308177,
        "distance_wrist_1_joint": 0.26262185462362053,
        "distance_wrist_2_joint": 1.1050102241052433,
        "distance_wrist_3_joint": 0.09352570072990085,
        "smoothness": 2.2204460668324854e-16,
        "time": 0.07418291099999999,
        "traj_len": 1.6139811430960695,
        "weighted_distance": 2.039514307490477
    },
    "planner": "ProjEST",
    "start": {
        "state": {
            "elbow_joint": 1.9715472970024885,
            "shoulder_lift_joint": -1.1394870060712896,
            "shoulder_pan_joint": 0.12281152778156021,
            "wrist_1_joint": -0.780463741449964,
            "wrist_2_joint": 0.12958659822042276,
            "wrist_3_joint": 3.090690232415272
        }
    },
    "waypoints": [
        {
            "positions": [
                0.12281152778156021,
                -1.1394870060712896,
                1.9715472970024885,
                -0.780463741449964,
                0.12958659822042276,
                3.090690232415272
            ]
        },
        {
            "positions": [
                0.05721287330896349,
                -1.1725976083601564,
                2.0362348046425867,
                -0.8179811492533383,
                0.2874452016640289,
                3.1040510468052576
            ]
        },
        {
            "positions": [
                -0.008385781163633227,
                -1.2057082106490233,
                2.1009223122826843,
                -0.8554985570567127,
                0.4453038051076351,
                3.1174118611952437
            ]
        },
        {
            "positions": [
                -0.07398443563622994,
                -1.23881881293789,
                2.1656098199227825,
                -0.893015964860087,
                0.6031624085512413,
                3.1307726755852294
            ]
        },
        {
            "positions": [
                -0.13958309010882666,
                -1.2719294152267568,
                2.23029732756288,
                -0.9305333726634615,
                0.7610210119948474,
                3.144133489975215
            ]
        },
        {
            "positions": [
                -0.20518174458142338,
                -1.3050400175156236,
                2.2949848352029782,
                -0.9680507804668358,
                0.9188796154384536,
                3.157494304365201
            ]
        },
        {
            "positions": [
                -0.27078039905402007,
                -1.3381506198044906,
                2.359672342843076,
                -1.00556818827021,
                1.0767382188820598,
                3.170855118755187
            ]
        },
        {
            "positions": [
                -0.3363790535266168,
                -1.3712612220933573,
                2.424359850483174,
                -1.0430855960735845,
                1.234596822325666,
                3.1842159331451727
            ]
        }
    ]
}