{
    "goal": {
        "global_pose": {
            "orientation": {
                "w": 0.7047431468963623,
                "x": -0.7094548344612122,
                "y": 0.0024358443915843964,
                "z": -0.0022348060738295317
            },
            "position": {
                "x": 0.6094750761985779,
                "y": 0.3671506643295288,
                "z": 0.19426114857196808
            }
        },
        "name": "move_to_magneteinheit_A"
    },
    "id": "ProjEST_move_to_magneteinheit_A_60",
    "joint_names": [
        "shoulder_pan_joint",
        "shoulder_lift_joint",
        "elbow_joint",
        "wrist_1_joint",
        "wrist_2_joint",
        "wrist_3_joint"
    ],
    "metrics": {
        "cart_traj_len": 3.5007728471624127,
        "distance_elbow_joint": 3.871443303436455,
        "distance_shoulder_lift_joint": 0.20603025605918468,
        "distance_shoulder_pan_joint": 2.6386532152588225,
        "distance_wrist_1_joint": 2.24308948242732,
        "distance_wrist_2_joint": 2.8460983652530945,
        "distance_wrist_3_joint": 2.5657858001095684,
        "smoothness": 0.29736157125719903,
        "time": 0.301619,
        "traj_len": 3.7909234260987716,
        "weighted_distance": 4.959018034898038
    },
    "planner": "ProjEST",
    "start": {
        "state": {
            "elbow_joint": -1.9196185241190666,
            "shoulder_lift_joint": -1.2443396400964142,
            "shoulder_pan_joint": 2.6996025414629847,
            "wrist_1_joint": -1.5485510000780065,
            "wrist_2_joint": -1.5709468930060704,
            "wrist_3_joint": 0.4420197071253992
        }
    },
    "waypoints": [
        {
            "positions": [
                2.6996025414629847,
                -1.2443396400964142,
                -1.9196185241190666,
                -1.5485510000780065,
                -1.5709468930060704,
                0.4420197071253992
            ]
        },
        {
            "positions": [
                2.611270487953367,
                -1.2398094932922656,
                -1.817335122859464,
                -1.4911448515404395,
                -1.4868174847958484,
                0.4944595683700443
            ]
        },
        {
            "positions": [
                2.5229384344437484,
                -1.235279346488117,
                -1.7150517215998615,
                -1.4337387030028725,
                -1.4026880765856267,
                0.5468994296146894
            ]
        },
        {
            "positions": [
                2.4346063809341305,
                -1.2307491996839683,
                -1.612768320340259,
                -1.3763325544653056,
                -1.3185586683754047,
                0.5993392908593346
            ]
        },
        {
            "positions": [
                2.3462743274245126,
                -1.2262190528798198,
                -1.5104849190806564,
                -1.3189264059277386,
                -1.2344292601651827,
                0.6517791521039796
            ]
        },
        {
            "positions": [
                2.2579422739148947,
                -1.2216889060756713,
                -1.4082015178210538,
                -1.2615202573901718,
                -1.1502998519549608,
                0.7042190133486248
            ]
        },
        {
            "positions": [
                2.1696102204052767,
                -1.2171587592715227,
                -1.3059181165614513,
                -1.2041141088526048,
                -1.0661704437447388,
                0.7566588745932699
            ]
        },
        {
            "positions": [
                2.0812781668956584,
                -1.2126286124673742,
                -1.2036347153018487,
                -1.1467079603150379,
                -0.9820410355345169,
                0.809098735837915
            ]
        },
        {
            "positions": [
                1.9929461133860404,
                -1.2080984656632257,
                -1.1013513140422462,
                -1.0893018117774709,
                -0.8979116273242951,
                0.8615385970825602
            ]
        },
        {
            "positions": [
                1.9046140598764225,
                -1.203568318859077,
                -0.9990679127826436,
                -1.031895663239904,
                -0.8137822191140731,
                0.9139784583272053
            ]
        },
        {
            "positions": [
                1.8162820063668044,
                -1.1990381720549284,
                -0.8967845115230411,
                -0.9744895147023369,
                -0.7296528109038513,
                0.9664183195718504
            ]
        },
        {
            "positions": [
                1.7279499528571862,
                -1.1945080252507798,
                -0.7945011102634385,
                -0.9170833661647699,
                -0.6455234026936293,
                1.0188581808164954
            ]
        },
        {
            "positions": [
                1.6396178993475683,
                -1.1899778784466313,
                -0.692217709003836,
                -0.859677217627203,
                -0.5613939944834074,
                1.0712980420611407
            ]
        },
        {
            "positions": [
                1.5512858458379504,
                -1.1854477316424827,
                -0.5899343077442334,
                -0.802271069089636,
                -0.47726458627318546,
                1.1237379033057857
            ]
        },
        {
            "positions": [
                1.4629537923283322,
                -1.180917584838334,
                -0.48765090648463083,
                -0.744864920552069,
                -0.3931351780629635,
                1.176177764550431
            ]
        },
        {
            "positions": [
                1.374621738818714,
                -1.1763874380341854,
                -0.38536750522502805,
                -0.687458772014502,
                -0.30900576985274153,
                1.228617625795076
            ]
        },
        {
            "positions": [
                1.2862896853090962,
                -1.171857291230037,
                -0.2830841039654257,
                -0.6300526234769351,
                -0.22487636164251978,
                1.281057487039721
            ]
        },
        {
            "positions": [
                1.197957631799478,
                -1.1673271444258884,
                -0.18080070270582294,
                -0.572646474939368,
                -0.14074695343229782,
                1.3334973482843662
            ]
        },
        {
            "positions": [
                1.10962557828986,
                -1.1627969976217398,
                -0.0785173014462206,
                -0.5152403264018013,
                -0.05661754522207585,
                1.3859372095290112
            ]
        },
        {
            "positions": [
                1.021293524780242,
                -1.1582668508175913,
                0.02376609981338218,
                -0.4578341778642341,
                0.02751186298814612,
                1.4383770707736565
            ]
        },
        {
            "positions": [
                0.932961471270624,
                -1.1537367040134425,
                0.12604950107298452,
                -0.4004280293266673,
                0.11164127119836786,
                1.4908169320183018
            ]
        },
        {
            "positions": [
                0.8446294177610059,
                -1.149206557209294,
                0.2283329023325873,
                -0.3430218807891001,
                0.19577067940858983,
                1.5432567932629468
            ]
        },
        {
            "positions": [
                0.7562973642513879,
                -1.1446764104051455,
                0.33061630359218963,
                -0.28561573225153336,
                0.2799000876188118,
                1.595696654507592
            ]
        },
        {
            "positions": [
                0.6679653107417698,
                -1.140146263600997,
                0.4328997048517924,
                -0.22820958371396638,
                0.36402949582903377,
                1.648136515752237
            ]
        },
        {
            "positions": [
                0.5796332572321519,
                -1.1356161167968484,
                0.5351831061113947,
                -0.1708034351763994,
                0.4481589040392555,
                1.700576376996882
            ]
        },
        {
            "positions": [
                0.4913012037225335,
                -1.1310859699926996,
                0.6374665073709975,
                -0.11339728663883242,
                0.5322883122494775,
                1.753016238241527
            ]
        },
        {
            "positions": [
                0.402969150212916,
                -1.126555823188551,
                0.7397499086305999,
                -0.055991138101265436,
                0.6164177204596994,
                1.8054560994861721
            ]
        },
        {
            "positions": [
                0.31463709670329765,
                -1.1220256763844025,
                0.8420333098902029,
                0.0014150104363016489,
                0.7005471286699213,
                1.8578959607308176
            ]
        },
        {
            "positions": [
                0.28980710160641276,
                -1.1176902707623557,
                0.9397852360046834,
                -0.07214488458975873,
                0.6499709021490516,
                1.9704560377238343
            ]
        },
        {
            "positions": [
                0.26497710650952794,
                -1.113354865140309,
                1.037537162119164,
                -0.1457047796158191,
                0.5993946756281819,
                2.083016114716851
            ]
        },
        {
            "positions": [
                0.24014711141264306,
                -1.109019459518262,
                1.1352890882336446,
                -0.2192646746418795,
                0.5488184491073123,
                2.195576191709868
            ]
        },
        {
            "positions": [
                0.2153171163157582,
                -1.1046840538962153,
                1.233041014348125,
                -0.29282456966793985,
                0.49824222258644246,
                2.3081362687028846
            ]
        },
        {
            "positions": [
                0.19048712121887332,
                -1.1003486482741685,
                1.3307929404626058,
                -0.36638446469400027,
                0.4476659960655728,
                2.420696345695901
            ]
        },
        {
            "positions": [
                0.16565712612198846,
                -1.0960132426521216,
                1.4285448665770861,
                -0.43994435972006063,
                0.3970897695447031,
                2.533256422688918
            ]
        },
        {
            "positions": [
                0.1408271310251036,
                -1.0916778370300748,
                1.526296792691567,
                -0.513504254746121,
                0.34651354302383336,
                2.645816499681935
            ]
        },
        {
            "positions": [
                0.11599713592821875,
                -1.087342431408028,
                1.6240487188060473,
                -0.5870641497721814,
                0.2959373165029637,
                2.7583765766749515
            ]
        },
        {
            "positions": [
                0.09116714083133386,
                -1.0830070257859812,
                1.7218006449205279,
                -0.6606240447982418,
                0.24536108998209397,
                2.870936653667968
            ]
        },
        {
            "positions": [
                0.10627604814491963,
                -1.105355846660357,
                1.8368127121189581,
                -0.6761662531374766,
                0.18565193753745585,
                2.939371080451468
            ]
        },
        {
            "positions": [
                0.1213849554585054,
                -1.1277046675347329,
                1.9518247793173884,
                -0.6917084614767114,
                0.1259427850928177,
                3.0078055072349676
            ]
        }
    ]
}