{
    "goal": {
        "global_pose": {
            "orientation": {
                "w": -0.00223480608172531,
                "x": 0.0024358444001904467,
                "y": 0.7094548369677653,
                "z": -0.704743149386269
            },
            "position": {
                "x": -0.37947507619857795,
                "y": -0.6371506643295288,
                "z": 0.19426114857196808
            }
        },
        "name": "move_to_magneteinheit_C"
    },
    "id": "ProjEST_move_to_magneteinheit_C_24",
    "joint_names": [
        "shoulder_pan_joint",
        "shoulder_lift_joint",
        "elbow_joint",
        "wrist_1_joint",
        "wrist_2_joint",
        "wrist_3_joint"
    ],
    "metrics": {
        "cart_traj_len": 2.3314904005473114,
        "distance_elbow_joint": 0.5027085966757485,
        "distance_shoulder_lift_joint": 1.1518318571263582,
        "distance_shoulder_pan_joint": 2.9542938440973865,
        "distance_wrist_1_joint": 2.500817032966074,
        "distance_wrist_2_joint": 1.227887757985859,
        "distance_wrist_3_joint": 3.200229504185356,
        "smoothness": 0.946130080141161,
        "time": 2.92055888,
        "traj_len": 3.3967291020976016,
        "weighted_distance": 4.654775224686948
    },
    "planner": "ProjEST",
    "start": {
        "state": {
            "elbow_joint": 1.9565354010623817,
            "shoulder_lift_joint": -1.4165861575791021,
            "shoulder_pan_joint": -1.6717766225146293,
            "wrist_1_joint": -0.5286633292919765,
            "wrist_2_joint": 1.472756589071564,
            "wrist_3_joint": -3.1238370188695823
        }
    },
    "waypoints": [
        {
            "positions": [
                -1.6717766225146293,
                -1.4165861575791021,
                1.9565354010623817,
                -0.5286633292919765,
                1.472756589071564,
                -3.1238370188695823
            ]
        },
        {
            "positions": [
                -1.5978979267071913,
                -1.4486121009380337,
                1.9466735132300164,
                -0.44976348691192947,
                1.4000915684098172,
                -3.0110685519822007
            ]
        },
        {
            "positions": [
                -1.5240192308997533,
                -1.4806380442969655,
                1.9368116253976513,
                -0.3708636445318825,
                1.3274265477480707,
                -2.898300085094819
            ]
        },
        {
            "positions": [
                -1.4501405350923153,
                -1.5126639876558972,
                1.9269497375652862,
                -0.2919638021518355,
                1.254761527086324,
                -2.785531618207438
            ]
        },
        {
            "positions": [
                -1.3762618392848773,
                -1.5446899310148288,
                1.917087849732921,
                -0.21306395977178844,
                1.1820965064245772,
                -2.6727631513200563
            ]
        },
        {
            "positions": [
                -1.3023831434774393,
                -1.5767158743737606,
                1.9072259619005556,
                -0.1341641173917414,
                1.1094314857628307,
                -2.5599946844326746
            ]
        },
        {
            "positions": [
                -1.2285044476700013,
                -1.6087418177326922,
                1.8973640740681905,
                -0.05526427501169445,
                1.036766465101084,
                -2.447226217545293
            ]
        },
        {
            "positions": [
                -1.1546257518625633,
                -1.6407677610916238,
                1.8875021862358254,
                0.023635567368352595,
                0.9641014444393372,
                -2.3344577506579114
            ]
        },
        {
            "positions": [
                -1.0807470560551253,
                -1.6727937044505554,
                1.8776402984034601,
                0.10253540974839959,
                0.8914364237775906,
                -2.22168928377053
            ]
        },
        {
            "positions": [
                -1.0068683602476873,
                -1.7048196478094872,
                1.8677784105710948,
                0.1814352521284467,
                0.8187714031158438,
                -2.1089208168831486
            ]
        },
        {
            "positions": [
                -0.9329896644402493,
                -1.7368455911684189,
                1.8579165227387298,
                0.2603350945084937,
                0.7461063824540972,
                -1.996152349995767
            ]
        },
        {
            "positions": [
                -0.8591109686328113,
                -1.7688715345273505,
                1.8480546349063647,
                0.33923493688854056,
                0.6734413617923505,
                -1.8833838831083856
            ]
        },
        {
            "positions": [
                -0.7852322728253733,
                -1.800897477886282,
                1.8381927470739994,
                0.41813477926858755,
                0.6007763411306039,
                -1.770615416221004
            ]
        },
        {
            "positions": [
                -0.7113535770179353,
                -1.832923421245214,
                1.828330859241634,
                0.49703462164863477,
                0.5281113204688571,
                -1.6578469493336223
            ]
        },
        {
            "positions": [
                -0.6374748812104972,
                -1.8649493646041455,
                1.818468971409269,
                0.5759344640286818,
                0.45544629980711043,
                -1.545078482446241
            ]
        },
        {
            "positions": [
                -0.7940145090856253,
                -1.8366521859466165,
                1.8414964763369437,
                0.4989372827589056,
                0.4650327864982641,
                -1.633167651885723
            ]
        },
        {
            "positions": [
                -0.9505541369607535,
                -1.8083550072890873,
                1.8645239812646182,
                0.4219401014891294,
                0.47461927318941777,
                -1.721256821325205
            ]
        },
        {
            "positions": [
                -1.1070937648358816,
                -1.7800578286315583,
                1.8875514861922928,
                0.34494292021935324,
                0.4842057598805714,
                -1.8093459907646872
            ]
        },
        {
            "positions": [
                -1.2636333927110097,
                -1.751760649974029,
                1.9105789911199675,
                0.26794573894957713,
                0.4937922465717251,
                -1.8974351602041692
            ]
        },
        {
            "positions": [
                -1.4201730205861378,
                -1.7234634713165,
                1.9336064960476422,
                0.19094855767980096,
                0.5033787332628787,
                -1.9855243296436513
            ]
        },
        {
            "positions": [
                -1.5767126484612661,
                -1.6951662926589708,
                1.956634000975317,
                0.11395137641002479,
                0.5129652199540324,
                -2.0736134990831334
            ]
        },
        {
            "positions": [
                -1.733252276336394,
                -1.6668691140014418,
                1.9796615059029914,
                0.03695419514024856,
                0.5225517066451861,
                -2.1617026685226155
            ]
        },
        {
            "positions": [
                -1.8897919042115223,
                -1.6385719353439128,
                2.0026890108306663,
                -0.0400429861295275,
                0.5321381933363397,
                -2.2497918379620976
            ]
        },
        {
            "positions": [
                -2.04633153208665,
                -1.6102747566863835,
                2.0257165157583406,
                -0.11704016739930367,
                0.5417246800274934,
                -2.3378810074015797
            ]
        },
        {
            "positions": [
                -2.2028711599617785,
                -1.5819775780288545,
                2.0487440206860152,
                -0.19403734866907985,
                0.5513111667186471,
                -2.4259701768410618
            ]
        },
        {
            "positions": [
                -2.359410787836907,
                -1.5536803993713253,
                2.07177152561369,
                -0.271034529938856,
                0.5608976534098007,
                -2.514059346280544
            ]
        },
        {
            "positions": [
                -2.5159504157120347,
                -1.5253832207137963,
                2.0947990305413646,
                -0.3480317112086322,
                0.5704841401009544,
                -2.602148515720026
            ]
        },
        {
            "positions": [
                -2.5076471020536912,
                -1.4526027194716031,
                2.0771366089632566,
                -0.4424823240902527,
                0.5895920657864665,
                -2.715028702617672
            ]
        },
        {
            "positions": [
                -2.4993437883953478,
                -1.37982221822941,
                2.0594741873851485,
                -0.5369329369718732,
                0.6086999914719786,
                -2.8279088895153177
            ]
        },
        {
            "positions": [
                -2.4910404747370043,
                -1.307041716987217,
                2.0418117658070405,
                -0.6313835498534937,
                0.6278079171574907,
                -2.9407890764129636
            ]
        },
        {
            "positions": [
                -2.482737161078661,
                -1.234261215745024,
                2.0241493442289324,
                -0.7258341627351143,
                0.6469158428430029,
                -3.0536692633106095
            ]
        },
        {
            "positions": [
                -2.4744338474203174,
                -1.1614807145028307,
                2.0064869226508244,
                -0.8202847756167347,
                0.666023768528515,
                -3.1665494502082554
            ]
        }
    ]
}