{
    "goal": {
        "global_pose": {
            "orientation": {
                "w": 0.5084816262002911,
                "x": -0.4908360881923452,
                "y": 0.5182115481033761,
                "z": -0.48164630358495003
            },
            "position": {
                "x": 0.5540239810943604,
                "y": -0.46912469901144505,
                "z": 0.16403168439865112
            }
        },
        "name": "move_to_storage_B"
    },
    "id": "ProjEST_move_to_storage_B_46",
    "joint_names": [
        "shoulder_pan_joint",
        "shoulder_lift_joint",
        "elbow_joint",
        "wrist_1_joint",
        "wrist_2_joint",
        "wrist_3_joint"
    ],
    "metrics": {
        "cart_traj_len": 1.1145332782420712,
        "distance_elbow_joint": 0.781784502048541,
        "distance_shoulder_lift_joint": 0.4589278117821902,
        "distance_shoulder_pan_joint": 0.8150691519587986,
        "distance_wrist_1_joint": 2.9883152475579173,
        "distance_wrist_2_joint": 2.7187418479046586,
        "distance_wrist_3_joint": 3.196111504100627,
        "smoothness": 0.14763681027010953,
        "time": 0.229415225,
        "traj_len": 3.3104304954722625,
        "weighted_distance": 4.801898600451342
    },
    "planner": "ProjEST",
    "start": {
        "state": {
            "elbow_joint": 1.664937868594044,
            "shoulder_lift_joint": -0.661644460510453,
            "shoulder_pan_joint": -0.9139846352900073,
            "wrist_1_joint": 2.146753192139373,
            "wrist_2_joint": -2.2341966793290973,
            "wrist_3_joint": 0.005466555786416001
        }
    },
    "waypoints": [
        {
            "positions": [
                -0.9139846352900073,
                -0.661644460510453,
                1.664937868594044,
                2.146753192139373,
                -2.2341966793290973,
                0.005466555786416001
            ]
        },
        {
            "positions": [
                -0.8345627293852517,
                -0.7211555643758519,
                1.6111878601762535,
                2.136246285260323,
                -2.0893063535125425,
                0.012655281500567078
            ]
        },
        {
            "positions": [
                -0.7551408234804959,
                -0.7806666682412509,
                1.5574378517584628,
                2.1257393783812724,
                -1.9444160276959876,
                0.019844007214718157
            ]
        },
        {
            "positions": [
                -0.6757189175757403,
                -0.8401777721066498,
                1.5036878433406722,
                2.115232471502222,
                -1.7995257018794326,
                0.027032732928869235
            ]
        },
        {
            "positions": [
                -0.5962970116709847,
                -0.8996888759720487,
                1.4499378349228818,
                2.1047255646231715,
                -1.6546353760628778,
                0.034221458643020314
            ]
        },
        {
            "positions": [
                -0.6161922728045758,
                -0.9085242118248725,
                1.472609213657977,
                1.986874059821503,
                -1.5690681542773404,
                -0.0924728054067406
            ]
        },
        {
            "positions": [
                -0.6360875339381667,
                -0.9173595476776962,
                1.495280592393072,
                1.8690225550198343,
                -1.4835009324918027,
                -0.21916706945650152
            ]
        },
        {
            "positions": [
                -0.6559827950717578,
                -0.92619488353052,
                1.5179519711281673,
                1.7511710502181657,
                -1.3979337107062653,
                -0.34586133350626247
            ]
        },
        {
            "positions": [
                -0.6758780562053489,
                -0.9350302193833439,
                1.5406233498632624,
                1.633319545416497,
                -1.3123664889207276,
                -0.4725555975560234
            ]
        },
        {
            "positions": [
                -0.6957733173389399,
                -0.9438655552361677,
                1.5632947285983576,
                1.5154680406148282,
                -1.2267992671351902,
                -0.5992498616057843
            ]
        },
        {
            "positions": [
                -0.715668578472531,
                -0.9527008910889914,
                1.5859661073334528,
                1.3976165358131598,
                -1.1412320453496525,
                -0.7259441256555452
            ]
        },
        {
            "positions": [
                -0.7355638396061219,
                -0.9615362269418152,
                1.608637486068548,
                1.279765031011491,
                -1.0556648235641148,
                -0.8526383897053061
            ]
        },
        {
            "positions": [
                -0.755459100739713,
                -0.970371562794639,
                1.631308864803643,
                1.1619135262098226,
                -0.9700976017785775,
                -0.9793326537550671
            ]
        },
        {
            "positions": [
                -0.7753543618733041,
                -0.9792068986474627,
                1.653980243538738,
                1.044062021408154,
                -0.88453037999304,
                -1.1060269178048279
            ]
        },
        {
            "positions": [
                -0.7952496230068951,
                -0.9880422345002865,
                1.6766516222738332,
                0.9262105166064851,
                -0.7989631582075024,
                -1.232721181854589
            ]
        },
        {
            "positions": [
                -0.8151448841404861,
                -0.9968775703531103,
                1.6993230010089284,
                0.8083590118048167,
                -0.7133959364219649,
                -1.3594154459043497
            ]
        },
        {
            "positions": [
                -0.8350401452740772,
                -1.005712906205934,
                1.7219943797440236,
                0.6905075070031481,
                -0.6278287146364274,
                -1.4861097099541107
            ]
        },
        {
            "positions": [
                -0.8549354064076682,
                -1.014548242058758,
                1.7446657584791188,
                0.5726560022014793,
                -0.5422614928508898,
                -1.6128039740038715
            ]
        },
        {
            "positions": [
                -0.8748306675412593,
                -1.0233835779115816,
                1.767337137214214,
                0.45480449739981066,
                -0.4566942710653521,
                -1.7394982380536326
            ]
        },
        {
            "positions": [
                -0.8947259286748503,
                -1.0322189137644053,
                1.790008515949309,
                0.33695299259814226,
                -0.3711270492798149,
                -1.8661925021033934
            ]
        },
        {
            "positions": [
                -0.9146211898084413,
                -1.0410542496172293,
                1.8126798946844043,
                0.21910148779647343,
                -0.2855598274942772,
                -1.9928867661531544
            ]
        },
        {
            "positions": [
                -0.9345164509420324,
                -1.049889585470053,
                1.8353512734194994,
                0.10124998299480481,
                -0.19999260570873956,
                -2.119581030202915
            ]
        },
        {
            "positions": [
                -0.9544117120756235,
                -1.0587249213228769,
                1.8580226521545944,
                -0.016601521806863584,
                -0.11442538392320212,
                -2.246275294252676
            ]
        },
        {
            "positions": [
                -0.9743069732092144,
                -1.0675602571757006,
                1.8806940308896896,
                -0.13445302660853242,
                -0.028858162137664678,
                -2.372969558302437
            ]
        },
        {
            "positions": [
                -0.9942022343428055,
                -1.0763955930285243,
                1.9033654096247847,
                -0.25230453141020126,
                0.056709059647872984,
                -2.499663822352198
            ]
        },
        {
            "positions": [
                -1.0140974954763966,
                -1.085230928881348,
                1.92603678835988,
                -0.37015603621186965,
                0.14227628143341042,
                -2.6263580864019587
            ]
        },
        {
            "positions": [
                -1.0339927566099876,
                -1.094066264734172,
                1.948708167094975,
                -0.48800754101353805,
                0.22784350321894808,
                -2.7530523504517195
            ]
        },
        {
            "positions": [
                -1.0538880177435788,
                -1.1029016005869956,
                1.9713795458300702,
                -0.6058590458152069,
                0.31341072500448575,
                -2.8797466145014807
            ]
        },
        {
            "positions": [
                -1.0737832788771695,
                -1.1117369364398195,
                1.9940509245651654,
                -0.7237105506168753,
                0.39897794679002296,
                -3.0064408785512415
            ]
        },
        {
            "positions": [
                -1.0936785400107607,
                -1.1205722722926432,
                2.0167223033002606,
                -0.8415620554185441,
                0.4845451685755606,
                -3.1331351426010023
            ]
        }
    ]
}