{
    "goal": {
        "global_pose": {
            "orientation": {
                "w": 0.5084816217422485,
                "x": -0.49083608388900757,
                "y": 0.5182115435600281,
                "z": -0.4816462993621826
            },
            "position": {
                "x": 0.5540239810943604,
                "y": 0.030875300988554955,
                "z": 0.16403168439865112
            }
        },
        "name": "move_to_storage_A"
    },
    "id": "ProjEST_move_to_storage_A_59",
    "joint_names": [
        "shoulder_pan_joint",
        "shoulder_lift_joint",
        "elbow_joint",
        "wrist_1_joint",
        "wrist_2_joint",
        "wrist_3_joint"
    ],
    "metrics": {
        "cart_traj_len": 0.35306641203145367,
        "distance_elbow_joint": 0.4518711950107812,
        "distance_shoulder_lift_joint": 0.23365747418378735,
        "distance_shoulder_pan_joint": 0.4631087488910091,
        "distance_wrist_1_joint": 0.25641481477208783,
        "distance_wrist_2_joint": 1.0920066442794185,
        "distance_wrist_3_joint": 0.10510064855963641,
        "smoothness": 4.440892133664971e-16,
        "time": 0.056370958,
        "traj_len": 1.6131210511603649,
        "weighted_distance": 2.0397995690428754
    },
    "planner": "ProjEST",
    "start": {
        "state": {
            "elbow_joint": 1.971548259319323,
            "shoulder_lift_joint": -1.1394851275133948,
            "shoulder_pan_joint": 0.1228115487234821,
            "wrist_1_joint": -0.7804723859257726,
            "wrist_2_joint": 0.12958671773740124,
            "wrist_3_joint": -3.192489227718131
        }
    },
    "waypoints": [
        {
            "positions": [
                0.1228115487234821,
                -1.1394851275133948,
                1.971548259319323,
                -0.7804723859257726,
                0.12958671773740124,
                -3.192489227718131
            ]
        },
        {
            "positions": [
                0.05665315602476652,
                -1.1728647666825074,
                2.036101287178006,
                -0.8171030737503566,
                0.28558766692017534,
                -3.177474849352469
            ]
        },
        {
            "positions": [
                -0.009505236673949063,
                -1.2062444058516197,
                2.100654315036689,
                -0.8537337615749405,
                0.4415886161029494,
                -3.1624604709868063
            ]
        },
        {
            "positions": [
                -0.07566362937266466,
                -1.2396240450207323,
                2.165207342895372,
                -0.8903644493995245,
                0.5975895652857235,
                -3.147446092621144
            ]
        },
        {
            "positions": [
                -0.14182202207138023,
                -1.2730036841898447,
                2.229760370754055,
                -0.9269951372241085,
                0.7535905144684976,
                -3.132431714255482
            ]
        },
        {
            "positions": [
                -0.20798041477009582,
                -1.3063833233589572,
                2.294313398612738,
                -0.9636258250486924,
                0.9095914636512716,
                -3.1174173358898196
            ]
        },
        {
            "positions": [
                -0.2741388074688114,
                -1.3397629625280696,
                2.358866426471421,
                -1.0002565128732765,
                1.0655924128340457,
                -3.102402957524157
            ]
        },
        {
            "positions": [
                -0.340297200167527,
                -1.3731426016971822,
                2.423419454330104,
                -1.0368872006978604,
                1.2215933620168198,
                -3.0873885791584947
            ]
        }
    ]
}{
    "goal": {
        "global_pose": {
            "orientation": {
                "w": 0.5084816217422485,
                "x": -0.49083608388900757,
                "y": 0.5182115435600281,
                "z": -0.4816462993621826
            },
            "position": {
                "x": 0.5540239810943604,
                "y": 0.030875300988554955,
                "z": 0.16403168439865112
            }
        },
        "name": "move_to_storage_A"
    },
    "id": "ProjEST_move_to_storage_A_59",
    "joint_names": [
        "shoulder_pan_joint",
        "shoulder_lift_joint",
        "elbow_joint",
        "wrist_1_joint",
        "wrist_2_joint",
        "wrist_3_joint"
    ],
    "metrics": {
        "cart_traj_len": 0.35363655894748786,
        "distance_elbow_joint": 0.45020324448371163,
        "distance_shoulder_lift_joint": 0.23479634004853445,
        "distance_shoulder_pan_joint": 0.462642778911388,
        "distance_wrist_1_joint": 0.24474734466409243,
        "distance_wrist_2_joint": 1.09901163891425,
        "distance_wrist_3_joint": 0.10140057288649063,
        "smoothness": 0.0,
        "time": 0.049201737,
        "traj_len": 1.6102179727938908,
        "weighted_distance": 2.0345422210560757
    },
    "planner": "ProjEST",
    "start": {
        "state": {
            "elbow_joint": 1.97154746011099,
            "shoulder_lift_joint": -1.13948474672311,
            "shoulder_pan_joint": 0.12281154466712228,
            "wrist_1_joint": -0.7804688027058302,
            "wrist_2_joint": 0.12958655903071145,
            "wrist_3_joint": 3.0906928834467795
        }
    },
    "waypoints": [
        {
            "positions": [
                0.12281154466712228,
                -1.13948474672311,
                1.97154746011099,
                -0.7804688027058302,
                0.12958655903071145,
                3.0906928834467795
            ]
        },
        {
            "positions": [
                0.05671971910835258,
                -1.1730270810157577,
                2.0358622093229486,
                -0.8154327090864149,
                0.2865882217327471,
                3.105178679573421
            ]
        },
        {
            "positions": [
                -0.009372106450417125,
                -1.2065694153084054,
                2.1001769585349077,
                -0.8503966154669994,
                0.44358988443478287,
                3.1196644757000627
            ]
        },
        {
            "positions": [
                -0.07546393200918684,
                -1.2401117496010532,
                2.1644917077468664,
                -0.8853605218475841,
                0.6005915471368185,
                3.1341502718267042
            ]
        },
        {
            "positions": [
                -0.14155575756795652,
                -1.273654083893701,
                2.228806456958825,
                -0.9203244282281687,
                0.7575932098388543,
                3.1486360679533454
            ]
        },
        {
            "positions": [
                -0.20764758312672627,
                -1.307196418186349,
                2.2931212061707837,
                -0.9552883346087533,
                0.91459487254089,
                3.163121864079987
            ]
        },
        {
            "positions": [
                -0.27373940868549596,
                -1.3407387524789967,
                2.357435955382743,
                -0.990252240989338,
                1.0715965352429255,
                3.1776076602066285
            ]
        },
        {
            "positions": [
                -0.3398312342442657,
                -1.3742810867716444,
                2.4217507045947015,
                -1.0252161473699226,
                1.2285981979449614,
                3.19209345633327
            ]
        }
    ]
}{
    "goal": {
        "global_pose": {
            "orientation": {
                "w": 0.5084816217422485,
                "x": -0.49083608388900757,
                "y": 0.5182115435600281,
                "z": -0.4816462993621826
            },
            "position": {
                "x": 0.5540239810943604,
                "y": 0.030875300988554955,
                "z": 0.16403168439865112
            }
        },
        "name": "move_to_storage_A"
    },
    "id": "ProjEST_move_to_storage_A_59",
    "joint_names": [
        "shoulder_pan_joint",
        "shoulder_lift_joint",
        "elbow_joint",
        "wrist_1_joint",
        "wrist_2_joint",
        "wrist_3_joint"
    ],
    "metrics": {
        "cart_traj_len": 0.35313635438840496,
        "distance_elbow_joint": 0.44998887925895525,
        "distance_shoulder_lift_joint": 0.23479032318328308,
        "distance_shoulder_pan_joint": 0.4587961197856652,
        "distance_wrist_1_joint": 0.24814139443131378,
        "distance_wrist_2_joint": 1.1114053852646912,
        "distance_wrist_3_joint": 0.09674588751964608,
        "smoothness": 6.661338165333112e-16,
        "time": 0.032523658,
        "traj_len": 1.6124106144042698,
        "weighted_distance": 2.0378681370929894
    },
    "planner": "ProjEST",
    "start": {
        "state": {
            "elbow_joint": 1.9715472970024885,
            "shoulder_lift_joint": -1.1394870060712896,
            "shoulder_pan_joint": 0.12281152778156021,
            "wrist_1_joint": -0.780463741449964,
            "wrist_2_joint": 0.12958659822042276,
            "wrist_3_joint": 3.090690232415272
        }
    },
    "waypoints": [
        {
            "positions": [
                0.12281152778156021,
                -1.1394870060712896,
                1.9715472970024885,
                -0.780463741449964,
                0.12958659822042276,
                3.090690232415272
            ]
        },
        {
            "positions": [
                0.05726922495503663,
                -1.1730284808117586,
                2.0358314226109107,
                -0.8159125120830089,
                0.2883587961153786,
                3.104511073489507
            ]
        },
        {
            "positions": [
                -0.008273077871486956,
                -1.2065699555522276,
                2.1001155482193328,
                -0.8513612827160536,
                0.4471309940103345,
                3.118331914563742
            ]
        },
        {
            "positions": [
                -0.07381538069801055,
                -1.2401114302926965,
                2.164399673827755,
                -0.8868100533490985,
                0.6059031919052904,
                3.132152755637977
            ]
        },
        {
            "positions": [
                -0.13935768352453412,
                -1.2736529050331655,
                2.228683799436177,
                -0.9222588239821433,
                0.7646753898002463,
                3.1459735967122127
            ]
        },
        {
            "positions": [
                -0.20489998635105774,
                -1.3071943797736347,
                2.2929679250445996,
                -0.9577075946151881,
                0.9234475876952022,
                3.1597944377864478
            ]
        },
        {
            "positions": [
                -0.2704422891775813,
                -1.3407358545141037,
                2.3572520506530217,
                -0.9931563652482329,
                1.082219785590158,
                3.173615278860683
            ]
        },
        {
            "positions": [
                -0.33598459200410496,
                -1.3742773292545727,
                2.421536176261444,
                -1.0286051358812778,
                1.240991983485114,
                3.187436119934918
            ]
        }
    ]
}