{
    "goal": {
        "global_pose": {
            "orientation": {
                "w": 0.5084816262002911,
                "x": -0.4908360881923452,
                "y": 0.5182115481033761,
                "z": -0.48164630358495003
            },
            "position": {
                "x": 0.5540239810943604,
                "y": -0.46912469901144505,
                "z": 0.16403168439865112
            }
        },
        "name": "move_to_storage_B"
    },
    "id": "ProjEST_move_to_storage_B_103",
    "joint_names": [
        "shoulder_pan_joint",
        "shoulder_lift_joint",
        "elbow_joint",
        "wrist_1_joint",
        "wrist_2_joint",
        "wrist_3_joint"
    ],
    "metrics": {
        "cart_traj_len": 0.787577632579281,
        "distance_elbow_joint": 0.6142122690481258,
        "distance_shoulder_lift_joint": 0.45850873896284483,
        "distance_shoulder_pan_joint": 0.5202980956565842,
        "distance_wrist_1_joint": 3.0333983254159653,
        "distance_wrist_2_joint": 2.7114169512459156,
        "distance_wrist_3_joint": 3.1935671514376303,
        "smoothness": 0.20758126359054838,
        "time": 0.177500561,
        "traj_len": 3.245212093495133,
        "weighted_distance": 4.760604070000382
    },
    "planner": "ProjEST",
    "start": {
        "state": {
            "elbow_joint": 1.664937868594044,
            "shoulder_lift_joint": -0.661644460510453,
            "shoulder_pan_joint": -0.9139846352900073,
            "wrist_1_joint": 2.146753192139373,
            "wrist_2_joint": -2.2341966793290973,
            "wrist_3_joint": 0.005466555786416001
        }
    },
    "waypoints": [
        {
            "positions": [
                -0.9139846352900073,
                -0.661644460510453,
                1.664937868594044,
                2.146753192139373,
                -2.2341966793290973,
                0.005466555786416001
            ]
        },
        {
            "positions": [
                -0.8290899833490856,
                -0.6888621849849264,
                1.5986155331069067,
                2.158748290179105,
                -2.159615069493827,
                0.020296275634344295
            ]
        },
        {
            "positions": [
                -0.7441953314081639,
                -0.7160799094593997,
                1.5322931976197696,
                2.1707433882188365,
                -2.0850334596585567,
                0.03512599548227259
            ]
        },
        {
            "positions": [
                -0.7576764387841154,
                -0.7316211898445496,
                1.5508150283149178,
                2.0549969217058943,
                -1.9864852392133499,
                -0.08656276266164178
            ]
        },
        {
            "positions": [
                -0.771157546160067,
                -0.7471624702296995,
                1.5693368590100658,
                1.9392504551929517,
                -1.8879370187681432,
                -0.20825152080555615
            ]
        },
        {
            "positions": [
                -0.7846386535360186,
                -0.7627037506148495,
                1.587858689705214,
                1.8235039886800093,
                -1.7893887983229364,
                -0.32994027894947053
            ]
        },
        {
            "positions": [
                -0.7981197609119701,
                -0.7782450309999994,
                1.606380520400362,
                1.7077575221670669,
                -1.6908405778777298,
                -0.4516290370933849
            ]
        },
        {
            "positions": [
                -0.8116008682879217,
                -0.7937863113851493,
                1.6249023510955103,
                1.5920110556541245,
                -1.592292357432523,
                -0.5733177952372993
            ]
        },
        {
            "positions": [
                -0.8250819756638733,
                -0.8093275917702992,
                1.6434241817906583,
                1.476264589141182,
                -1.4937441369873161,
                -0.6950065533812136
            ]
        },
        {
            "positions": [
                -0.8385630830398249,
                -0.8248688721554492,
                1.6619460124858065,
                1.36051812262824,
                -1.3951959165421095,
                -0.816695311525128
            ]
        },
        {
            "positions": [
                -0.8520441904157764,
                -0.8404101525405991,
                1.6804678431809545,
                1.2447716561152973,
                -1.296647696096903,
                -0.9383840696690424
            ]
        },
        {
            "positions": [
                -0.8655252977917279,
                -0.855951432925749,
                1.6989896738761028,
                1.129025189602355,
                -1.1980994756516963,
                -1.0600728278129565
            ]
        },
        {
            "positions": [
                -0.8790064051676796,
                -0.871492713310899,
                1.7175115045712508,
                1.0132787230894125,
                -1.0995512552064892,
                -1.181761585956871
            ]
        },
        {
            "positions": [
                -0.8924875125436311,
                -0.887033993696049,
                1.736033335266399,
                0.8975322565764703,
                -1.0010030347612826,
                -1.3034503441007854
            ]
        },
        {
            "positions": [
                -0.9059686199195827,
                -0.9025752740811989,
                1.754555165961547,
                0.7817857900635279,
                -0.9024548143160758,
                -1.4251391022446998
            ]
        },
        {
            "positions": [
                -0.9194497272955342,
                -0.9181165544663488,
                1.7730769966566953,
                0.6660393235505855,
                -0.8039065938708692,
                -1.546827860388614
            ]
        },
        {
            "positions": [
                -0.9329308346714859,
                -0.9336578348514987,
                1.7915988273518435,
                0.5502928570376431,
                -0.7053583734256625,
                -1.6685166185325284
            ]
        },
        {
            "positions": [
                -0.9464119420474374,
                -0.9491991152366486,
                1.8101206580469915,
                0.4345463905247009,
                -0.6068101529804559,
                -1.7902053766764428
            ]
        },
        {
            "positions": [
                -0.959893049423389,
                -0.9647403956217986,
                1.8286424887421397,
                0.3187999240117583,
                -0.5082619325352489,
                -1.9118941348203573
            ]
        },
        {
            "positions": [
                -0.9733741567993406,
                -0.9802816760069485,
                1.8471643194372878,
                0.20305345749881587,
                -0.40971371209004226,
                -2.033582892964272
            ]
        },
        {
            "positions": [
                -0.9868552641752921,
                -0.9958229563920984,
                1.865686150132436,
                0.08730699098587369,
                -0.31116549164483565,
                -2.155271651108186
            ]
        },
        {
            "positions": [
                -1.0003363715512437,
                -1.0113642367772484,
                1.884207980827584,
                -0.028439475527068492,
                -0.2126172711996288,
                -2.2769604092521005
            ]
        },
        {
            "positions": [
                -1.0138174789271952,
                -1.0269055171623984,
                1.9027298115227322,
                -0.14418594204001156,
                -0.11406905075442197,
                -2.398649167396015
            ]
        },
        {
            "positions": [
                -1.0272985863031467,
                -1.0424467975475482,
                1.9212516422178803,
                -0.25993240855295374,
                -0.015520830309215139,
                -2.520337925539929
            ]
        },
        {
            "positions": [
                -1.0407796936790983,
                -1.057988077932698,
                1.9397734729130285,
                -0.3756788750658959,
                0.08302739013599147,
                -2.6420266836838437
            ]
        },
        {
            "positions": [
                -1.05426080105505,
                -1.073529358317848,
                1.9582953036081765,
                -0.4914253415788381,
                0.1815756105811981,
                -2.763715441827758
            ]
        },
        {
            "positions": [
                -1.0677419084310016,
                -1.089070638702998,
                1.9768171343033247,
                -0.6071718080917807,
                0.28012383102640515,
                -2.8854041999716724
            ]
        },
        {
            "positions": [
                -1.0812230158069531,
                -1.104611919088148,
                1.995338964998473,
                -0.7229182746047234,
                0.37867205147161176,
                -3.007092958115587
            ]
        },
        {
            "positions": [
                -1.0947041231829047,
                -1.1201531994732978,
                2.013860795693621,
                -0.8386647411176653,
                0.4772202719168184,
                -3.128781716259501
            ]
        }
    ]
}