{
    "goal": {
        "global_pose": {
            "orientation": {
                "w": 0.7031023502349854,
                "x": -0.7110244035720825,
                "y": 0.007748599164187908,
                "z": 0.005598929710686207
            },
            "position": {
                "x": 0.11585023208521307,
                "y": 0.44412534475326537,
                "z": 0.3711530566215515
            }
        },
        "name": "move_to_auspresseinheit_A"
    },
    "id": "ProjEST_move_to_auspresseinheit_A_52",
    "joint_names": [
        "shoulder_pan_joint",
        "shoulder_lift_joint",
        "elbow_joint",
        "wrist_1_joint",
        "wrist_2_joint",
        "wrist_3_joint"
    ],
    "metrics": {
        "cart_traj_len": 0.6860937371090667,
        "distance_elbow_joint": 0.07812705721748259,
        "distance_shoulder_lift_joint": 0.5325350119077807,
        "distance_shoulder_pan_joint": 1.040645987590792,
        "distance_wrist_1_joint": 0.891461736399664,
        "distance_wrist_2_joint": 0.745044554091452,
        "distance_wrist_3_joint": 0.3407537576188009,
        "smoothness": 1.5604930886326793,
        "time": 0.14197854799999998,
        "traj_len": 1.9048800762320897,
        "weighted_distance": 2.4385614428500033
    },
    "planner": "ProjEST",
    "start": {
        "state": {
            "elbow_joint": 2.4225746658250005,
            "shoulder_lift_joint": -1.3736534386056498,
            "shoulder_pan_joint": -0.3378633547517467,
            "wrist_1_joint": -1.0288598680537169,
            "wrist_2_joint": 1.233022673432363,
            "wrist_3_joint": -3.0940220416140027
        }
    },
    "waypoints": [
        {
            "positions": [
                -0.3378633547517467,
                -1.3736534386056498,
                2.4225746658250005,
                -1.0288598680537169,
                1.233022673432363,
                -3.0940220416140027
            ]
        },
        {
            "positions": [
                -0.21584335497878573,
                -1.4384200798058908,
                2.415734509750276,
                -0.937334143599346,
                1.1532400135120333,
                -3.076100198577519
            ]
        },
        {
            "positions": [
                -0.09382335520582474,
                -1.503186721006132,
                2.408894353675551,
                -0.8458084191449752,
                1.0734573535917038,
                -3.0581783555410356
            ]
        },
        {
            "positions": [
                0.028196644567136275,
                -1.567953362206373,
                2.402054197600827,
                -0.7542826946906043,
                0.9936746936713741,
                -3.040256512504552
            ]
        },
        {
            "positions": [
                0.15021664434009724,
                -1.632720003406614,
                2.3952140415261023,
                -0.6627569702362335,
                0.9138920337510443,
                -3.0223346694680684
            ]
        },
        {
            "positions": [
                0.2722366441130582,
                -1.6974866446068553,
                2.3883738854513776,
                -0.5712312457818626,
                0.8341093738307146,
                -3.004412826431585
            ]
        },
        {
            "positions": [
                0.3942566438860193,
                -1.7622532858070963,
                2.3815337293766534,
                -0.47970552132749167,
                0.754326713910385,
                -2.986490983395101
            ]
        },
        {
            "positions": [
                0.5162766436589803,
                -1.8270199270073375,
                2.3746935733019288,
                -0.3881797968731209,
                0.6745440539900553,
                -2.9685691403586176
            ]
        },
        {
            "positions": [
                0.6382966434319413,
                -1.8917865682075785,
                2.367853417227204,
                -0.29665407241874997,
                0.5947613940697256,
                -2.950647297322134
            ]
        },
        {
            "positions": [
                0.6705396381354933,
                -1.8989875093605044,
                2.379556321537047,
                -0.37628204280109845,
                0.6481530314341328,
                -3.0493368039856
            ]
        },
        {
            "positions": [
                0.7027826328390454,
                -1.9061884505134306,
                2.3912592258468903,
                -0.455910013183447,
                0.7015446687985402,
                -3.1480263106490662
            ]
        }
    ]
}