{
    "goal": {
        "global_pose": {
            "orientation": {
                "w": -0.00223480608172531,
                "x": 0.0024358444001904467,
                "y": 0.7094548369677653,
                "z": -0.704743149386269
            },
            "position": {
                "x": -0.37947507619857795,
                "y": -0.6371506643295288,
                "z": 0.19426114857196808
            }
        },
        "name": "move_to_magneteinheit_C"
    },
    "id": "ProjEST_move_to_magneteinheit_C_146",
    "joint_names": [
        "shoulder_pan_joint",
        "shoulder_lift_joint",
        "elbow_joint",
        "wrist_1_joint",
        "wrist_2_joint",
        "wrist_3_joint"
    ],
    "metrics": {
        "cart_traj_len": 2.3274542158975025,
        "distance_elbow_joint": 0.057367111725312725,
        "distance_shoulder_lift_joint": 0.8609547980868735,
        "distance_shoulder_pan_joint": 3.260604799516245,
        "distance_wrist_1_joint": 0.8698675519939965,
        "distance_wrist_2_joint": 4.77670396682371,
        "distance_wrist_3_joint": 0.16828697448954033,
        "smoothness": 1.0717862084851988,
        "time": 2.59627319,
        "traj_len": 3.161294861703931,
        "weighted_distance": 3.997115293612691
    },
    "planner": "ProjEST",
    "start": {
        "state": {
            "elbow_joint": 1.9565354010623817,
            "shoulder_lift_joint": -1.4165861575791021,
            "shoulder_pan_joint": -1.6717766225146293,
            "wrist_1_joint": -0.5286633292919765,
            "wrist_2_joint": 1.472756589071564,
            "wrist_3_joint": -3.1238370188695823
        }
    },
    "waypoints": [
        {
            "positions": [
                -1.6717766225146293,
                -1.4165861575791021,
                1.9565354010623817,
                -0.5286633292919765,
                1.472756589071564,
                -3.1238370188695823
            ]
        },
        {
            "positions": [
                -1.5771825483847828,
                -1.4399631282466605,
                1.9603120145350144,
                -0.5744071104454564,
                1.258717026604145,
                -3.118153324279379
            ]
        },
        {
            "positions": [
                -1.4825884742549362,
                -1.4633400989142187,
                1.9640886280076473,
                -0.6201508915989363,
                1.0446774641367262,
                -3.1124696296891754
            ]
        },
        {
            "positions": [
                -1.3879944001250897,
                -1.486717069581777,
                1.96786524148028,
                -0.6658946727524163,
                0.8306379016693073,
                -3.106785935098972
            ]
        },
        {
            "positions": [
                -1.2934003259952431,
                -1.5100940402493355,
                1.9716418549529129,
                -0.7116384539058962,
                0.6165983392018884,
                -3.101102240508769
            ]
        },
        {
            "positions": [
                -1.1988062518653966,
                -1.5334710109168936,
                1.9754184684255456,
                -0.7573822350593762,
                0.4025587767344696,
                -3.0954185459185655
            ]
        },
        {
            "positions": [
                -1.1042121777355502,
                -1.556847981584452,
                1.9791950818981783,
                -0.8031260162128562,
                0.18851921426705065,
                -3.089734851328362
            ]
        },
        {
            "positions": [
                -1.0096181036057037,
                -1.5802249522520104,
                1.9829716953708112,
                -0.8488697973663359,
                -0.02552034820036786,
                -3.0840511567381586
            ]
        },
        {
            "positions": [
                -0.915024029475857,
                -1.6036019229195688,
                1.9867483088434439,
                -0.8946135785198159,
                -0.23955991066778703,
                -3.078367462147955
            ]
        },
        {
            "positions": [
                -0.8204299553460106,
                -1.626978893587127,
                1.9905249223160766,
                -0.9403573596732959,
                -0.45359947313520577,
                -3.0726837675577516
            ]
        },
        {
            "positions": [
                -0.7258358812161639,
                -1.6503558642546854,
                1.9943015357887095,
                -0.9861011408267759,
                -0.6676390356026247,
                -3.0670000729675486
            ]
        },
        {
            "positions": [
                -0.6312418070863175,
                -1.6737328349222436,
                1.9980781492613422,
                -1.0318449219802557,
                -0.8816785980700432,
                -3.061316378377345
            ]
        },
        {
            "positions": [
                -0.536647732956471,
                -1.6971098055898022,
                2.001854762733975,
                -1.0775887031337357,
                -1.0957181605374626,
                -3.0556326837871417
            ]
        },
        {
            "positions": [
                -0.4420536588266244,
                -1.7204867762573604,
                2.005631376206608,
                -1.1233324842872157,
                -1.3097577230048811,
                -3.0499489891969382
            ]
        },
        {
            "positions": [
                -0.5982753385057198,
                -1.67763645476439,
                2.006267617482076,
                -1.1021633768257728,
                -1.156358518793553,
                -3.057210446490546
            ]
        },
        {
            "positions": [
                -0.7544970181848152,
                -1.6347861332714195,
                2.006903858757544,
                -1.08099426936433,
                -1.0029593145822249,
                -3.064471903784153
            ]
        },
        {
            "positions": [
                -0.9107186978639106,
                -1.5919358117784492,
                2.007540100033012,
                -1.0598251619028871,
                -0.8495601103708967,
                -3.0717333610777606
            ]
        },
        {
            "positions": [
                -1.066940377543006,
                -1.5490854902854787,
                2.0081763413084808,
                -1.0386560544414443,
                -0.6961609061595686,
                -3.078994818371368
            ]
        },
        {
            "positions": [
                -1.2231620572221014,
                -1.5062351687925084,
                2.008812582583949,
                -1.0174869469800014,
                -0.5427617019482405,
                -3.0862562756649754
            ]
        },
        {
            "positions": [
                -1.3793837369011968,
                -1.4633848472995379,
                2.009448823859417,
                -0.9963178395185585,
                -0.38936249773691234,
                -3.0935177329585826
            ]
        },
        {
            "positions": [
                -1.535605416580292,
                -1.4205345258065676,
                2.010085065134885,
                -0.9751487320571156,
                -0.23596329352558443,
                -3.10077919025219
            ]
        },
        {
            "positions": [
                -1.6918270962593875,
                -1.377684204313597,
                2.0107213064103533,
                -0.9539796245956728,
                -0.08256408931425607,
                -3.1080406475457973
            ]
        },
        {
            "positions": [
                -1.8480487759384827,
                -1.3348338828206268,
                2.0113575476858214,
                -0.9328105171342299,
                0.07083511489707184,
                -3.115302104839405
            ]
        },
        {
            "positions": [
                -2.0042704556175783,
                -1.2919835613276562,
                2.01199378896129,
                -0.911641409672787,
                0.2242343191084002,
                -3.122563562133012
            ]
        },
        {
            "positions": [
                -2.1604921352966735,
                -1.249133239834686,
                2.012630030236758,
                -0.8904723022113441,
                0.3776335233197281,
                -3.1298250194266197
            ]
        },
        {
            "positions": [
                -2.316713814975769,
                -1.2062829183417154,
                2.0132662715122263,
                -0.8693031947499013,
                0.5310327275310565,
                -3.137086476720227
            ]
        },
        {
            "positions": [
                -2.4729354946548643,
                -1.1634325968487451,
                2.0139025127876944,
                -0.8481340872884584,
                0.6844319317423844,
                -3.1443479340138345
            ]
        }
    ]
}