{
    "goal": {
        "global_pose": {
            "orientation": {
                "w": -0.00223480608172531,
                "x": 0.0024358444001904467,
                "y": 0.7094548369677653,
                "z": -0.704743149386269
            },
            "position": {
                "x": -0.37947507619857795,
                "y": -0.6371506643295288,
                "z": 0.19426114857196808
            }
        },
        "name": "move_to_magneteinheit_C"
    },
    "id": "ProjEST_move_to_magneteinheit_C_85",
    "joint_names": [
        "shoulder_pan_joint",
        "shoulder_lift_joint",
        "elbow_joint",
        "wrist_1_joint",
        "wrist_2_joint",
        "wrist_3_joint"
    ],
    "metrics": {
        "cart_traj_len": 0.8293399304780523,
        "distance_elbow_joint": 0.38393319597411457,
        "distance_shoulder_lift_joint": 0.25258155742049593,
        "distance_shoulder_pan_joint": 1.47644314055699,
        "distance_wrist_1_joint": 0.5546615111506132,
        "distance_wrist_2_joint": 2.6631509604767465,
        "distance_wrist_3_joint": 3.3603429348056264,
        "smoothness": 0.9612448914712002,
        "time": 1.219272262,
        "traj_len": 2.9480694191936165,
        "weighted_distance": 4.316203382791779
    },
    "planner": "ProjEST",
    "start": {
        "state": {
            "elbow_joint": 1.9565354010623817,
            "shoulder_lift_joint": -1.4165861575791021,
            "shoulder_pan_joint": -1.6717766225146293,
            "wrist_1_joint": -0.5286633292919765,
            "wrist_2_joint": 1.472756589071564,
            "wrist_3_joint": -3.1238370188695823
        }
    },
    "waypoints": [
        {
            "positions": [
                -1.6717766225146293,
                -1.4165861575791021,
                1.9565354010623817,
                -0.5286633292919765,
                1.472756589071564,
                -3.1238370188695823
            ]
        },
        {
            "positions": [
                -1.7417280926608925,
                -1.4133915257426097,
                1.9736477693900603,
                -0.5551705717401453,
                1.3511282340044934,
                -2.9776580454237442
            ]
        },
        {
            "positions": [
                -1.8116795628071554,
                -1.4101968939061174,
                1.9907601377177389,
                -0.5816778141883141,
                1.2294998789374227,
                -2.831479071977906
            ]
        },
        {
            "positions": [
                -1.8816310329534185,
                -1.407002262069625,
                2.0078725060454174,
                -0.6081850566364829,
                1.1078715238703523,
                -2.6853000985320685
            ]
        },
        {
            "positions": [
                -1.9515825030996816,
                -1.4038076302331326,
                2.024984874373096,
                -0.6346922990846517,
                0.9862431688032818,
                -2.5391211250862304
            ]
        },
        {
            "positions": [
                -2.021533973245945,
                -1.4006129983966402,
                2.042097242700774,
                -0.6611995415328206,
                0.8646148137362111,
                -2.3929421516403924
            ]
        },
        {
            "positions": [
                -2.091485443392208,
                -1.3974183665601478,
                2.059209611028453,
                -0.6877067839809894,
                0.7429864586691406,
                -2.2467631781945543
            ]
        },
        {
            "positions": [
                -2.161436913538471,
                -1.3942237347236555,
                2.0763219793561314,
                -0.7142140264291582,
                0.62135810360207,
                -2.100584204748716
            ]
        },
        {
            "positions": [
                -2.2313883836847337,
                -1.391029102887163,
                2.09343434768381,
                -0.740721268877327,
                0.4997297485349995,
                -1.9544052313028784
            ]
        },
        {
            "positions": [
                -2.301339853830997,
                -1.3878344710506707,
                2.1105467160114886,
                -0.7672285113254959,
                0.3781013934679288,
                -1.8082262578570403
            ]
        },
        {
            "positions": [
                -2.403263834949864,
                -1.3651289992203117,
                2.123816309236938,
                -0.807081414847198,
                0.25068815663994337,
                -1.736521727107133
            ]
        },
        {
            "positions": [
                -2.50518781606873,
                -1.3424235273899527,
                2.137085902462388,
                -0.8469343183689001,
                0.12327491981195793,
                -1.6648171963572258
            ]
        },
        {
            "positions": [
                -2.607111797187597,
                -1.3197180555595938,
                2.1503554956878372,
                -0.8867872218906021,
                -0.004138317016027515,
                -1.5931126656073185
            ]
        },
        {
            "positions": [
                -2.709035778306464,
                -1.2970125837292348,
                2.163625088913287,
                -0.9266401254123042,
                -0.13155155384401296,
                -1.521408134857411
            ]
        },
        {
            "positions": [
                -2.81095975942533,
                -1.2743071118988758,
                2.1768946821387365,
                -0.9664930289340063,
                -0.25896479067199846,
                -1.449703604107504
            ]
        },
        {
            "positions": [
                -2.7734864256868534,
                -1.2620512772610681,
                2.1587198027056522,
                -0.9535117165441638,
                -0.15547261503497806,
                -1.637060217445676
            ]
        },
        {
            "positions": [
                -2.736013091948377,
                -1.2497954426232603,
                2.1405449232725675,
                -0.9405304041543212,
                -0.051980439397957656,
                -1.824416830783848
            ]
        },
        {
            "positions": [
                -2.6985397582099004,
                -1.2375396079854526,
                2.1223700438394832,
                -0.9275490917644785,
                0.051511736239062744,
                -2.01177344412202
            ]
        },
        {
            "positions": [
                -2.6610664244714237,
                -1.225283773347645,
                2.104195164406399,
                -0.914567779374636,
                0.15500391187608314,
                -2.199130057460192
            ]
        },
        {
            "positions": [
                -2.6235930907329474,
                -1.213027938709837,
                2.0860202849733143,
                -0.9015864669847934,
                0.25849608751310355,
                -2.386486670798364
            ]
        },
        {
            "positions": [
                -2.5861197569944707,
                -1.2007721040720294,
                2.06784540554023,
                -0.8886051545949508,
                0.36198826315012395,
                -2.5738432841365357
            ]
        },
        {
            "positions": [
                -2.548646423255994,
                -1.1885162694342217,
                2.0496705261071457,
                -0.8756238422051081,
                0.46548043878714435,
                -2.7611998974747083
            ]
        },
        {
            "positions": [
                -2.5111730895175177,
                -1.1762604347964138,
                2.031495646674061,
                -0.8626425298152656,
                0.5689726144241647,
                -2.94855651081288
            ]
        },
        {
            "positions": [
                -2.473699755779041,
                -1.1640046001586062,
                2.0133207672409767,
                -0.849661217425423,
                0.6724647900611852,
                -3.135913124151052
            ]
        }
    ]
}