{
    "goal": {
        "global_pose": {
            "orientation": {
                "w": 0.7031023502349854,
                "x": -0.7110244035720825,
                "y": 0.007748599164187908,
                "z": 0.005598929710686207
            },
            "position": {
                "x": 0.11585023208521307,
                "y": 0.44412534475326537,
                "z": 0.3711530566215515
            }
        },
        "name": "move_to_auspresseinheit_A"
    },
    "id": "ProjEST_move_to_auspresseinheit_A_122",
    "joint_names": [
        "shoulder_pan_joint",
        "shoulder_lift_joint",
        "elbow_joint",
        "wrist_1_joint",
        "wrist_2_joint",
        "wrist_3_joint"
    ],
    "metrics": {
        "cart_traj_len": 2.1866223435001433,
        "distance_elbow_joint": 1.992424455413086,
        "distance_shoulder_lift_joint": 0.8757383836169295,
        "distance_shoulder_pan_joint": 1.6991410103161049,
        "distance_wrist_1_joint": 1.8026855020619343,
        "distance_wrist_2_joint": 1.17415786082801,
        "distance_wrist_3_joint": 2.4755810272162644,
        "smoothness": 0.5394567610748909,
        "time": 0.20401511500000002,
        "traj_len": 3.1653954317671484,
        "weighted_distance": 4.2364765615750555
    },
    "planner": "ProjEST",
    "start": {
        "state": {
            "elbow_joint": 2.4225746658250005,
            "shoulder_lift_joint": -1.3736534386056498,
            "shoulder_pan_joint": -0.3378633547517467,
            "wrist_1_joint": -1.0288598680537169,
            "wrist_2_joint": 1.233022673432363,
            "wrist_3_joint": -3.0940220416140027
        }
    },
    "waypoints": [
        {
            "positions": [
                -0.3378633547517467,
                -1.3736534386056498,
                2.4225746658250005,
                -1.0288598680537169,
                1.233022673432363,
                -3.0940220416140027
            ]
        },
        {
            "positions": [
                -0.2841470232266414,
                -1.366238224740208,
                2.283633896371257,
                -0.9938360071428222,
                1.154085575107265,
                -3.050601739947446
            ]
        },
        {
            "positions": [
                -0.23043069170153616,
                -1.3588230108747665,
                2.144693126917513,
                -0.9588121462319275,
                1.0751484767821666,
                -3.007181438280889
            ]
        },
        {
            "positions": [
                -0.17671436017643086,
                -1.3514077970093248,
                2.0057523574637695,
                -0.9237882853210327,
                0.9962113784570685,
                -2.963761136614332
            ]
        },
        {
            "positions": [
                -0.12299802865132559,
                -1.343992583143883,
                1.8668115880100258,
                -0.888764424410138,
                0.9172742801319704,
                -2.920340834947775
            ]
        },
        {
            "positions": [
                -0.06928169712622029,
                -1.3365773692784413,
                1.727870818556282,
                -0.8537405634992433,
                0.8383371818068722,
                -2.876920533281218
            ]
        },
        {
            "positions": [
                -0.015565365601114989,
                -1.3291621554129998,
                1.5889300491025384,
                -0.8187167025883486,
                0.7594000834817741,
                -2.833500231614661
            ]
        },
        {
            "positions": [
                0.038150965923990324,
                -1.321746941547558,
                1.4499892796487948,
                -0.7836928416774539,
                0.6804629851566759,
                -2.7900799299481043
            ]
        },
        {
            "positions": [
                0.15647526666203587,
                -1.37825631235352,
                1.4451014438481993,
                -0.6947582948814879,
                0.6946011061539059,
                -2.694081394378775
            ]
        },
        {
            "positions": [
                0.27479956740008143,
                -1.4347656831594822,
                1.4402136080476036,
                -0.605823748085522,
                0.7087392271511358,
                -2.598082858809446
            ]
        },
        {
            "positions": [
                0.39312386813812694,
                -1.4912750539654442,
                1.4353257722470079,
                -0.516889201289556,
                0.7228773481483657,
                -2.502084323240117
            ]
        },
        {
            "positions": [
                0.5114481688761725,
                -1.547784424771406,
                1.4304379364464124,
                -0.42795465449359,
                0.7370154691455957,
                -2.4060857876707873
            ]
        },
        {
            "positions": [
                0.6297724696142181,
                -1.6042937955773682,
                1.4255501006458169,
                -0.33902010769762403,
                0.7511535901428257,
                -2.310087252101458
            ]
        },
        {
            "positions": [
                0.7480967703522636,
                -1.6608031663833303,
                1.4206622648452212,
                -0.250085560901658,
                0.7652917111400556,
                -2.214088716532129
            ]
        },
        {
            "positions": [
                0.8664210710903092,
                -1.7173125371892923,
                1.4157744290446255,
                -0.1611510141056921,
                0.7794298321372854,
                -2.1180901809628
            ]
        },
        {
            "positions": [
                0.9847453718283548,
                -1.7738219079952544,
                1.41088659324403,
                -0.07221646730972611,
                0.7935679531345154,
                -2.0220916453934707
            ]
        },
        {
            "positions": [
                1.0000407019077642,
                -1.8054659475029076,
                1.4869853599291591,
                -0.04247910472051768,
                0.8228357982149141,
                -1.9965792752850637
            ]
        },
        {
            "positions": [
                1.0153360319871734,
                -1.8371099870105605,
                1.563084126614288,
                -0.012741742131309242,
                0.8521036432953129,
                -1.971066905176657
            ]
        },
        {
            "positions": [
                1.0218641371388737,
                -1.9003441760296433,
                1.743530738293313,
                0.04399602326879641,
                0.9053044864180708,
                -1.9391543182303634
            ]
        },
        {
            "positions": [
                1.0283922422905742,
                -1.9635783650487262,
                1.9239773499723378,
                0.10073378866890206,
                0.9585053295408288,
                -1.9072417312840702
            ]
        },
        {
            "positions": [
                1.0349203474422746,
                -2.026812554067809,
                2.1044239616513627,
                0.15747155406900773,
                1.0117061726635868,
                -1.8753291443377766
            ]
        },
        {
            "positions": [
                0.9926650900683499,
                -2.0120801696705812,
                2.1433657220807514,
                0.07843993230512654,
                0.9746915861301443,
                -2.0371829092940765
            ]
        },
        {
            "positions": [
                0.9504098326944251,
                -1.9973477852733532,
                2.18230748251014,
                -0.0005916894587546517,
                0.9376769995967018,
                -2.1990366742503764
            ]
        },
        {
            "positions": [
                0.9081545753205005,
                -1.9826154008761254,
                2.2212492429395283,
                -0.07962331122263586,
                0.9006624130632594,
                -2.360890439206676
            ]
        },
        {
            "positions": [
                0.8658993179465758,
                -1.9678830164788976,
                2.260191003368917,
                -0.15865493298651703,
                0.863647826529817,
                -2.5227442041629757
            ]
        },
        {
            "positions": [
                0.823644060572651,
                -1.9531506320816696,
                2.2991327637983057,
                -0.23768655475039827,
                0.8266332399963745,
                -2.6845979691192756
            ]
        },
        {
            "positions": [
                0.7813888031987264,
                -1.9384182476844418,
                2.3380745242276944,
                -0.31671817651427947,
                0.789618653462932,
                -2.8464517340755755
            ]
        },
        {
            "positions": [
                0.7449759212594586,
                -1.923232263856832,
                2.36484875015192,
                -0.38780035119224104,
                0.7554849205405532,
                -2.9893345041766954
            ]
        },
        {
            "positions": [
                0.7085630393201907,
                -1.9080462800292224,
                2.3916229760761456,
                -0.4588825258702026,
                0.7213511876181744,
                -3.132217274277815
            ]
        }
    ]
}