{
    "goal": {
        "global_pose": {
            "orientation": {
                "w": -0.4816463035849501,
                "x": 0.5182115481033762,
                "y": 0.4908360881923453,
                "z": -0.5084816262002911
            },
            "position": {
                "x": -0.8240239810943604,
                "y": -0.300875300988555,
                "z": 0.16403168439865112
            }
        },
        "name": "move_to_storage_C"
    },
    "id": "ProjEST_move_to_storage_C_146",
    "joint_names": [
        "shoulder_pan_joint",
        "shoulder_lift_joint",
        "elbow_joint",
        "wrist_1_joint",
        "wrist_2_joint",
        "wrist_3_joint"
    ],
    "metrics": {
        "cart_traj_len": 0.5762322734342797,
        "distance_elbow_joint": 0.2594720297495745,
        "distance_shoulder_lift_joint": 0.1890744624941748,
        "distance_shoulder_pan_joint": 0.49369948069345115,
        "distance_wrist_1_joint": 0.0862610171721735,
        "distance_wrist_2_joint": 1.0737464018796805,
        "distance_wrist_3_joint": 0.07547602624430194,
        "smoothness": 0.0,
        "time": 0.059926639999999996,
        "traj_len": 1.4757131896928197,
        "weighted_distance": 1.8678032256567645
    },
    "planner": "ProjEST",
    "start": {
        "state": {
            "elbow_joint": 2.010868314990456,
            "shoulder_lift_joint": -1.1634956873337592,
            "shoulder_pan_joint": -2.4736205022346125,
            "wrist_1_joint": -0.8367026794202681,
            "wrist_2_joint": 0.6746043897044499,
            "wrist_3_joint": -3.1496632123970403
        }
    },
    "waypoints": [
        {
            "positions": [
                -2.4736205022346125,
                -1.1634956873337592,
                2.010868314990456,
                -0.8367026794202681,
                0.6746043897044499,
                -3.1496632123970403
            ]
        },
        {
            "positions": [
                -2.5559037490168546,
                -1.1319832769180633,
                1.96762297669886,
                -0.8223258432249059,
                0.8535621233510633,
                -3.1370838746896568
            ]
        },
        {
            "positions": [
                -2.638186995799096,
                -1.1004708665023677,
                1.9243776384072644,
                -0.8079490070295436,
                1.0325198569976768,
                -3.124504536982273
            ]
        },
        {
            "positions": [
                -2.720470242581338,
                -1.0689584560866718,
                1.8811323001156686,
                -0.7935721708341814,
                1.2114775906442903,
                -3.1119251992748893
            ]
        },
        {
            "positions": [
                -2.80275348936358,
                -1.037446045670976,
                1.8378869618240727,
                -0.7791953346388191,
                1.3904353242909036,
                -3.099345861567506
            ]
        },
        {
            "positions": [
                -2.885036736145822,
                -1.0059336352552801,
                1.7946416235324771,
                -0.7648184984434568,
                1.569393057937517,
                -3.086766523860122
            ]
        },
        {
            "positions": [
                -2.9673199829280636,
                -0.9744212248395844,
                1.7513962852408813,
                -0.7504416622480946,
                1.7483507915841305,
                -3.0741871861527383
            ]
        }
    ]
}