{
    "goal": {
        "global_pose": {
            "orientation": {
                "w": -0.00223480608172531,
                "x": 0.0024358444001904467,
                "y": 0.7094548369677653,
                "z": -0.704743149386269
            },
            "position": {
                "x": 0.6205249238014221,
                "y": -0.6371506643295288,
                "z": 0.19426114857196808
            }
        },
        "name": "move_to_magneteinheit_B"
    },
    "id": "ProjEST_move_to_magneteinheit_B_12",
    "joint_names": [
        "shoulder_pan_joint",
        "shoulder_lift_joint",
        "elbow_joint",
        "wrist_1_joint",
        "wrist_2_joint",
        "wrist_3_joint"
    ],
    "metrics": {
        "cart_traj_len": 1.5003529447685828,
        "distance_elbow_joint": 0.9564271891297367,
        "distance_shoulder_lift_joint": 0.7869847551687618,
        "distance_shoulder_pan_joint": 1.621680427765429,
        "distance_wrist_1_joint": 0.3396795241705548,
        "distance_wrist_2_joint": 1.7299751357205886,
        "distance_wrist_3_joint": 0.14204887413961295,
        "smoothness": 0.6784697755440654,
        "time": 0.257227855,
        "traj_len": 2.3615240642633064,
        "weighted_distance": 2.8161229224352144
    },
    "planner": "ProjEST",
    "start": {
        "state": {
            "elbow_joint": 2.6216224122426386,
            "shoulder_lift_joint": -1.4174107377796124,
            "shoulder_pan_joint": 0.7066234856936794,
            "wrist_1_joint": 1.9546482284002225,
            "wrist_2_joint": -0.7096286983471962,
            "wrist_3_joint": 0.005740856962016249
        }
    },
    "waypoints": [
        {
            "positions": [
                0.7066234856936794,
                -1.4174107377796124,
                2.6216224122426386,
                1.9546482284002225,
                -0.7096286983471962,
                0.005740856962016249
            ]
        },
        {
            "positions": [
                0.6336221300160114,
                -1.4250941314220165,
                2.611011639898048,
                1.9160237653552918,
                -0.6555873382617174,
                0.03798806446549508
            ]
        },
        {
            "positions": [
                0.5606207743383433,
                -1.4327775250644208,
                2.6004008675534576,
                1.8773993023103612,
                -0.6015459781762386,
                0.07023527196897392
            ]
        },
        {
            "positions": [
                0.44710710384525926,
                -1.373422296765655,
                2.528461971827261,
                1.8975862713934915,
                -0.7263069332185179,
                0.06426954434338505
            ]
        },
        {
            "positions": [
                0.3335934333521752,
                -1.3140670684668896,
                2.4565230761010644,
                1.9177732404766217,
                -0.8510678882607972,
                0.058303816717796185
            ]
        },
        {
            "positions": [
                0.22007976285909103,
                -1.2547118401681239,
                2.3845841803748677,
                1.9379602095597521,
                -0.9758288433030765,
                0.052338089092207316
            ]
        },
        {
            "positions": [
                0.10656609236600695,
                -1.1953566118693582,
                2.312645284648671,
                1.9581471786428823,
                -1.1005897983453559,
                0.04637236146661845
            ]
        },
        {
            "positions": [
                -0.006947578127077136,
                -1.1360013835705927,
                2.2407063889224745,
                1.9783341477260126,
                -1.225350753387635,
                0.04040663384102958
            ]
        },
        {
            "positions": [
                -0.12046124862016128,
                -1.076646155271827,
                2.168767493196278,
                1.9985211168091428,
                -1.3501117084299143,
                0.034440906215440714
            ]
        },
        {
            "positions": [
                -0.2339749191132452,
                -1.0172909269730614,
                2.0968285974700813,
                2.018708085892273,
                -1.4748726634721936,
                0.02847517858985185
            ]
        },
        {
            "positions": [
                -0.34748858960632945,
                -0.9579356986742957,
                2.0248897017438847,
                2.0388950549754035,
                -1.599633618514473,
                0.022509450964262982
            ]
        },
        {
            "positions": [
                -0.4610022600994135,
                -0.89858047037553,
                1.9529508060176883,
                2.059082024058534,
                -1.7243945735567525,
                0.01654372333867412
            ]
        },
        {
            "positions": [
                -0.5745159305924976,
                -0.8392252420767644,
                1.8810119102914915,
                2.079268993141664,
                -1.8491555285990318,
                0.010577995713085243
            ]
        },
        {
            "positions": [
                -0.6880296010855815,
                -0.7798700137779988,
                1.8090730145652951,
                2.0994559622247944,
                -1.973916483641311,
                0.004612268087496388
            ]
        },
        {
            "positions": [
                -0.8015432715786659,
                -0.7205147854792331,
                1.7371341188390983,
                2.1196429313079244,
                -2.0986774386835902,
                -0.0013534595380924885
            ]
        },
        {
            "positions": [
                -0.9150569420717498,
                -0.6611595571804675,
                1.665195223112902,
                2.139829900391055,
                -2.2234383937258695,
                -0.007319187163681358
            ]
        }
    ]
}