{
    "goal": {
        "global_pose": {
            "orientation": {
                "w": 0.005598929693374612,
                "x": 0.007748599140229565,
                "y": 0.7110244013736278,
                "z": -0.7031023480610252
            },
            "position": {
                "x": -0.8858502320852131,
                "y": -0.7141253447532654,
                "z": 0.3711530566215515
            }
        },
        "name": "move_to_auspresseinheit_C"
    },
    "id": "ProjEST_move_to_auspresseinheit_C_58",
    "joint_names": [
        "shoulder_pan_joint",
        "shoulder_lift_joint",
        "elbow_joint",
        "wrist_1_joint",
        "wrist_2_joint",
        "wrist_3_joint"
    ],
    "metrics": {
        "cart_traj_len": 0.49381668350537056,
        "distance_elbow_joint": 1.0111187382810711,
        "distance_shoulder_lift_joint": 0.33008387939648287,
        "distance_shoulder_pan_joint": 0.2559553899497078,
        "distance_wrist_1_joint": 0.6973723657934443,
        "distance_wrist_2_joint": 1.3121213387839135,
        "distance_wrist_3_joint": 0.07742819128172451,
        "smoothness": 1.1304088990788627e-15,
        "time": 0.048504346,
        "traj_len": 1.9193957131051282,
        "weighted_distance": 2.418352743217406
    },
    "planner": "ProjEST",
    "start": {
        "state": {
            "elbow_joint": 1.7527959577737207,
            "shoulder_lift_joint": -0.9740617694225068,
            "shoulder_pan_joint": -2.967991417825858,
            "wrist_1_joint": -0.759517768980727,
            "wrist_2_joint": 1.7443932448377408,
            "wrist_3_joint": -3.0840537646736568
        }
    },
    "waypoints": [
        {
            "positions": [
                -2.967991417825858,
                -0.9740617694225068,
                1.7527959577737207,
                -0.759517768980727,
                1.7443932448377408,
                -3.0840537646736568
            ]
        },
        {
            "positions": [
                -2.942395878830887,
                -0.9410533814828584,
                1.6516840839456135,
                -0.6897805324013826,
                1.6131811109593495,
                -3.091796583801829
            ]
        },
        {
            "positions": [
                -2.9168003398359166,
                -0.9080449935432102,
                1.5505722101175063,
                -0.6200432958220381,
                1.481968977080958,
                -3.099539402930002
            ]
        },
        {
            "positions": [
                -2.8912048008409457,
                -0.8750366056035619,
                1.4494603362893994,
                -0.5503060592426937,
                1.3507568432025667,
                -3.107282222058174
            ]
        },
        {
            "positions": [
                -2.8656092618459748,
                -0.8420282176639136,
                1.3483484624612923,
                -0.48056882266334927,
                1.2195447093241754,
                -3.1150250411863465
            ]
        },
        {
            "positions": [
                -2.840013722851004,
                -0.8090198297242653,
                1.247236588633185,
                -0.41083158608400483,
                1.0883325754457842,
                -3.122767860314519
            ]
        },
        {
            "positions": [
                -2.8144181838560334,
                -0.7760114417846171,
                1.1461247148050782,
                -0.3410943495046604,
                0.9571204415673927,
                -3.1305106794426916
            ]
        },
        {
            "positions": [
                -2.7888226448610625,
                -0.7430030538449688,
                1.045012840976971,
                -0.271357112925316,
                0.8259083076890015,
                -3.138253498570864
            ]
        },
        {
            "positions": [
                -2.7632271058660915,
                -0.7099946659053205,
                0.9439009671488637,
                -0.20161987634597156,
                0.6946961738106101,
                -3.145996317699036
            ]
        },
        {
            "positions": [
                -2.737631566871121,
                -0.6769862779656721,
                0.8427890933207566,
                -0.13188263976662706,
                0.5634840399322187,
                -3.153739136827209
            ]
        },
        {
            "positions": [
                -2.71203602787615,
                -0.6439778900260239,
                0.7416772194926494,
                -0.06214540318728271,
                0.43227190605382737,
                -3.1614819559553813
            ]
        }
    ]
}