{
    "goal": {
        "global_pose": {
            "orientation": {
                "w": 0.005598929693374612,
                "x": 0.007748599140229565,
                "y": 0.7110244013736278,
                "z": -0.7031023480610252
            },
            "position": {
                "x": -0.8858502320852131,
                "y": -0.7141253447532654,
                "z": 0.3711530566215515
            }
        },
        "name": "move_to_auspresseinheit_C"
    },
    "id": "ProjEST_move_to_auspresseinheit_C_109",
    "joint_names": [
        "shoulder_pan_joint",
        "shoulder_lift_joint",
        "elbow_joint",
        "wrist_1_joint",
        "wrist_2_joint",
        "wrist_3_joint"
    ],
    "metrics": {
        "cart_traj_len": 0.4931678706628159,
        "distance_elbow_joint": 1.0080115940948646,
        "distance_shoulder_lift_joint": 0.329517895360412,
        "distance_shoulder_pan_joint": 0.2558688267978071,
        "distance_wrist_1_joint": 0.691421225013908,
        "distance_wrist_2_joint": 1.3193601388043321,
        "distance_wrist_3_joint": 0.06880189482356602,
        "smoothness": 1.6148698667872622e-16,
        "time": 0.039101929,
        "traj_len": 1.9165024327912787,
        "weighted_distance": 2.412750863301112
    },
    "planner": "ProjEST",
    "start": {
        "state": {
            "elbow_joint": 1.7527959577737207,
            "shoulder_lift_joint": -0.9740617694225068,
            "shoulder_pan_joint": -2.967991417825858,
            "wrist_1_joint": -0.759517768980727,
            "wrist_2_joint": 1.7443932448377408,
            "wrist_3_joint": -3.0840537646736568
        }
    },
    "waypoints": [
        {
            "positions": [
                -2.967991417825858,
                -0.9740617694225068,
                1.7527959577737207,
                -0.759517768980727,
                1.7443932448377408,
                -3.0840537646736568
            ]
        },
        {
            "positions": [
                -2.9424045351460775,
                -0.9411099798864656,
                1.6519947983642342,
                -0.6903756464793361,
                1.6124572309573075,
                -3.0909339541560135
            ]
        },
        {
            "positions": [
                -2.9168176524662965,
                -0.9081581903504243,
                1.5511936389547478,
                -0.6212335239779454,
                1.4805212170768745,
                -3.09781414363837
            ]
        },
        {
            "positions": [
                -2.8912307697865156,
                -0.8752064008143832,
                1.4503924795452612,
                -0.5520914014765546,
                1.3485852031964412,
                -3.1046943331207264
            ]
        },
        {
            "positions": [
                -2.865643887106735,
                -0.842254611278342,
                1.3495913201357748,
                -0.48294927897516376,
                1.216649189316008,
                -3.111574522603083
            ]
        },
        {
            "positions": [
                -2.8400570044269546,
                -0.8093028217423008,
                1.2487901607262883,
                -0.413807156473773,
                1.0847131754355748,
                -3.11845471208544
            ]
        },
        {
            "positions": [
                -2.8144701217471737,
                -0.7763510322062596,
                1.147989001316802,
                -0.3446650339723822,
                0.9527771615551416,
                -3.1253349015677965
            ]
        },
        {
            "positions": [
                -2.7888832390673928,
                -0.7433992426702184,
                1.0471878419073155,
                -0.2755229114709914,
                0.8208411476747084,
                -3.132215091050153
            ]
        },
        {
            "positions": [
                -2.7632963563876123,
                -0.7104474531341771,
                0.9463866824978289,
                -0.20638078896960055,
                0.6889051337942751,
                -3.1390952805325094
            ]
        },
        {
            "positions": [
                -2.737709473707832,
                -0.677495663598136,
                0.8455855230883425,
                -0.1372386664682097,
                0.5569691199138418,
                -3.145975470014866
            ]
        },
        {
            "positions": [
                -2.712122591028051,
                -0.6445438740620948,
                0.744784363678856,
                -0.06809654396681898,
                0.4250331060334087,
                -3.152855659497223
            ]
        }
    ]
}