{
    "goal": {
        "global_pose": {
            "orientation": {
                "w": -0.4816463035849501,
                "x": 0.5182115481033762,
                "y": 0.4908360881923453,
                "z": -0.5084816262002911
            },
            "position": {
                "x": -0.8240239810943604,
                "y": 0.19912469901144506,
                "z": 0.16403168439865112
            }
        },
        "name": "move_to_storage_D"
    },
    "id": "ProjEST_move_to_storage_D_99",
    "joint_names": [
        "shoulder_pan_joint",
        "shoulder_lift_joint",
        "elbow_joint",
        "wrist_1_joint",
        "wrist_2_joint",
        "wrist_3_joint"
    ],
    "metrics": {
        "cart_traj_len": 3.6978117163098405,
        "distance_elbow_joint": 4.2080204266622365,
        "distance_shoulder_lift_joint": 1.2647549388878037,
        "distance_shoulder_pan_joint": 2.8120701668174464,
        "distance_wrist_1_joint": 2.263307029834239,
        "distance_wrist_2_joint": 0.8684383686216733,
        "distance_wrist_3_joint": 3.148233777784156,
        "smoothness": 3.871546982390842e-16,
        "time": 0.128189573,
        "traj_len": 3.816388961912498,
        "weighted_distance": 4.89826884344171
    },
    "planner": "ProjEST",
    "start": {
        "state": {
            "elbow_joint": -2.384821988534728,
            "shoulder_lift_joint": -2.2788054721415256,
            "shoulder_pan_joint": -0.1854694642142757,
            "wrist_1_joint": 1.4845938289331202,
            "wrist_2_joint": 0.17898776772866878,
            "wrist_3_joint": 0.037105688729662994
        }
    },
    "waypoints": [
        {
            "positions": [
                -0.1854694642142757,
                -2.2788054721415256,
                -2.384821988534728,
                1.4845938289331202,
                0.17898776772866878,
                0.037105688729662994
            ]
        },
        {
            "positions": [
                -0.10525995443995438,
                -2.250801619516435,
                -2.2563196206804883,
                1.4269340289103336,
                0.2019294975539642,
                -0.03468517496440969
            ]
        },
        {
            "positions": [
                -0.025050444665633054,
                -2.222797766891345,
                -2.1278172528262487,
                1.369274228887547,
                0.22487122737925958,
                -0.10647603865848237
            ]
        },
        {
            "positions": [
                0.05515906510868826,
                -2.1947939142662545,
                -1.999314884972009,
                1.3116144288647604,
                0.24781295720455498,
                -0.17826690235255505
            ]
        },
        {
            "positions": [
                0.1353685748830096,
                -2.1667900616411644,
                -1.8708125171177694,
                1.2539546288419738,
                0.2707546870298504,
                -0.25005776604662777
            ]
        },
        {
            "positions": [
                0.2155780846573309,
                -2.138786209016074,
                -1.7423101492635298,
                1.1962948288191873,
                0.2936964168551458,
                -0.3218486297407004
            ]
        },
        {
            "positions": [
                0.29578759443165226,
                -2.1107823563909838,
                -1.6138077814092902,
                1.1386350287964007,
                0.3166381466804412,
                -0.3936394934347731
            ]
        },
        {
            "positions": [
                0.37599710420597354,
                -2.0827785037658932,
                -1.4853054135550503,
                1.080975228773614,
                0.33957987650573657,
                -0.46543035712884573
            ]
        },
        {
            "positions": [
                0.45620661398029494,
                -2.054774651140803,
                -1.3568030457008107,
                1.0233154287508275,
                0.362521606331032,
                -0.5372212208229185
            ]
        },
        {
            "positions": [
                0.5364161237546163,
                -2.0267707985157126,
                -1.2283006778465708,
                0.9656556287280409,
                0.3854633361563274,
                -0.6090120845169912
            ]
        },
        {
            "positions": [
                0.6166256335289375,
                -1.9987669458906225,
                -1.0997983099923314,
                0.9079958287052544,
                0.40840506598162274,
                -0.6808029482110638
            ]
        },
        {
            "positions": [
                0.6968351433032589,
                -1.970763093265532,
                -0.9712959421380916,
                0.8503360286824677,
                0.43134679580691815,
                -0.7525938119051365
            ]
        },
        {
            "positions": [
                0.7770446530775802,
                -1.942759240640442,
                -0.8427935742838522,
                0.7926762286596812,
                0.45428852563221356,
                -0.8243846755992091
            ]
        },
        {
            "positions": [
                0.8572541628519016,
                -1.9147553880153514,
                -0.7142912064296123,
                0.7350164286368946,
                0.47723025545750897,
                -0.8961755392932819
            ]
        },
        {
            "positions": [
                0.9374636726262228,
                -1.8867515353902613,
                -0.5857888385753727,
                0.6773566286141081,
                0.5001719852828044,
                -0.9679664029873545
            ]
        },
        {
            "positions": [
                1.017673182400544,
                -1.8587476827651708,
                -0.45728647072113304,
                0.6196968285913215,
                0.5231137151080998,
                -1.0397572666814272
            ]
        },
        {
            "positions": [
                1.0978826921748654,
                -1.8307438301400807,
                -0.3287841028668934,
                0.5620370285685349,
                0.5460554449333952,
                -1.1115481303755
            ]
        },
        {
            "positions": [
                1.1780922019491866,
                -1.8027399775149902,
                -0.20028173501265378,
                0.5043772285457484,
                0.5689971747586905,
                -1.1833389940695724
            ]
        },
        {
            "positions": [
                1.2583017117235082,
                -1.7747361248899,
                -0.07177936715841371,
                0.4467174285229616,
                0.591938904583986,
                -1.2551298577636454
            ]
        },
        {
            "positions": [
                1.3385112214978294,
                -1.7467322722648095,
                0.056723000695825476,
                0.3890576285001752,
                0.6148806344092813,
                -1.3269207214577179
            ]
        },
        {
            "positions": [
                1.4187207312721506,
                -1.7187284196397195,
                0.1852253685500651,
                0.33139782847738863,
                0.6378223642345767,
                -1.3987115851517906
            ]
        },
        {
            "positions": [
                1.498930241046472,
                -1.690724567014629,
                0.31372773640430474,
                0.27373802845460204,
                0.6607640940598721,
                -1.4705024488458631
            ]
        },
        {
            "positions": [
                1.5791397508207934,
                -1.6627207143895386,
                0.4422301042585448,
                0.21607822843181523,
                0.6837058238851675,
                -1.542293312539936
            ]
        },
        {
            "positions": [
                1.6593492605951148,
                -1.6347168617644483,
                0.5707324721127844,
                0.15841842840902887,
                0.706647553710463,
                -1.6140841762340088
            ]
        },
        {
            "positions": [
                1.739558770369436,
                -1.6067130091393582,
                0.6992348399670236,
                0.10075862838624228,
                0.7295892835357584,
                -1.6858750399280813
            ]
        },
        {
            "positions": [
                1.8197682801437574,
                -1.5787091565142677,
                0.8277372078212633,
                0.04309882836345569,
                0.7525310133610537,
                -1.757665903622154
            ]
        },
        {
            "positions": [
                1.8999777899180788,
                -1.5507053038891774,
                0.9562395756755033,
                -0.014560971659330901,
                0.7754727431863492,
                -1.8294567673162268
            ]
        },
        {
            "positions": [
                1.9801872996924001,
                -1.522701451264087,
                1.084741943529743,
                -0.07222077168211749,
                0.7984144730116445,
                -1.9012476310102995
            ]
        },
        {
            "positions": [
                2.060396809466721,
                -1.4946975986389968,
                1.2132443113839826,
                -0.12988057170490408,
                0.8213562028369399,
                -1.973038494704372
            ]
        },
        {
            "positions": [
                2.1406063192410425,
                -1.4666937460139065,
                1.3417466792382218,
                -0.18754037172769067,
                0.8442979326622353,
                -2.0448293583984447
            ]
        },
        {
            "positions": [
                2.220815829015364,
                -1.4386898933888161,
                1.4702490470924618,
                -0.24520017175047726,
                0.8672396624875307,
                -2.1166202220925174
            ]
        },
        {
            "positions": [
                2.3010253387896853,
                -1.4106860407637258,
                1.5987514149467013,
                -0.30285997177326396,
                0.8901813923128261,
                -2.18841108578659
            ]
        },
        {
            "positions": [
                2.3475361050487544,
                -1.3540238254051538,
                1.6308152754011023,
                -0.3708390045058147,
                0.9126449271753284,
                -2.320227800539148
            ]
        },
        {
            "positions": [
                2.394046871307824,
                -1.297361610046582,
                1.6628791358555033,
                -0.43881803723836543,
                0.9351084620378307,
                -2.452044515291705
            ]
        },
        {
            "positions": [
                2.440557637566893,
                -1.2406993946880098,
                1.6949429963099043,
                -0.5067970699709161,
                0.9575719969003329,
                -2.583861230044263
            ]
        },
        {
            "positions": [
                2.4870684038259627,
                -1.184037179329438,
                1.7270068567643053,
                -0.5747761027034668,
                0.9800355317628352,
                -2.7156779447968202
            ]
        },
        {
            "positions": [
                2.533579170085032,
                -1.127374963970866,
                1.7590707172187063,
                -0.6427551354360176,
                1.0024990666253375,
                -2.847494659549378
            ]
        },
        {
            "positions": [
                2.580089936344101,
                -1.070712748612294,
                1.7911345776731074,
                -0.7107341681685684,
                1.02496260148784,
                -2.9793113743019353
            ]
        },
        {
            "positions": [
                2.6266007026031706,
                -1.014050533253722,
                1.8231984381275084,
                -0.7787132009011191,
                1.047426136350342,
                -3.111128089054493
            ]
        }
    ]
}