{
    "goal": {
        "global_pose": {
            "orientation": {
                "w": 0.005598929693374612,
                "x": 0.007748599140229565,
                "y": 0.7110244013736278,
                "z": -0.7031023480610252
            },
            "position": {
                "x": 0.1141497679147869,
                "y": -0.7141253447532654,
                "z": 0.3711530566215515
            }
        },
        "name": "move_to_auspresseinheit_B"
    },
    "id": "ProjEST_move_to_auspresseinheit_B_128",
    "joint_names": [
        "shoulder_pan_joint",
        "shoulder_lift_joint",
        "elbow_joint",
        "wrist_1_joint",
        "wrist_2_joint",
        "wrist_3_joint"
    ],
    "metrics": {
        "cart_traj_len": 0.5646666891521274,
        "distance_elbow_joint": 0.06285420983317924,
        "distance_shoulder_lift_joint": 0.2954833072463854,
        "distance_shoulder_pan_joint": 0.5775979288730431,
        "distance_wrist_1_joint": 0.3342795619169552,
        "distance_wrist_2_joint": 0.9951482162619893,
        "distance_wrist_3_joint": 0.006727115748095258,
        "smoothness": 2.5376526478085547e-16,
        "time": 0.102597377,
        "traj_len": 1.5073454613590236,
        "weighted_distance": 1.9013080627701504
    },
    "planner": "ProjEST",
    "start": {
        "state": {
            "elbow_joint": 2.0193083361928714,
            "shoulder_lift_joint": -1.1220246554650708,
            "shoulder_pan_joint": -1.0952077554168747,
            "wrist_1_joint": -0.8559753972642168,
            "wrist_2_joint": 0.4759566250798843,
            "wrist_3_joint": -3.1240929996934557
        }
    },
    "waypoints": [
        {
            "positions": [
                -1.0952077554168747,
                -1.1220246554650708,
                2.0193083361928714,
                -0.8559753972642168,
                0.4759566250798843,
                -3.1240929996934557
            ]
        },
        {
            "positions": [
                -1.191474076895715,
                -1.1712718733394683,
                2.0088326345540084,
                -0.8002621369447243,
                0.6418146611235491,
                -3.1229718137354396
            ]
        },
        {
            "positions": [
                -1.2877403983745557,
                -1.220519091213866,
                1.998356932915145,
                -0.7445488766252317,
                0.8076726971672141,
                -3.121850627777424
            ]
        },
        {
            "positions": [
                -1.3840067198533963,
                -1.2697663090882636,
                1.987881231276282,
                -0.6888356163057392,
                0.9735307332108789,
                -3.120729441819408
            ]
        },
        {
            "positions": [
                -1.4802730413322367,
                -1.319013526962661,
                1.9774055296374187,
                -0.6331223559862467,
                1.139388769254544,
                -3.119608255861392
            ]
        },
        {
            "positions": [
                -1.576539362811077,
                -1.3682607448370585,
                1.9669298279985554,
                -0.5774090956667541,
                1.3052468052982087,
                -3.1184870699033764
            ]
        },
        {
            "positions": [
                -1.6728056842899177,
                -1.4175079627114562,
                1.9564541263596922,
                -0.5216958353472616,
                1.4711048413418737,
                -3.1173658839453604
            ]
        }
    ]
}