{
    "goal": {
        "global_pose": {
            "orientation": {
                "w": 0.5084816262002911,
                "x": -0.4908360881923452,
                "y": 0.5182115481033761,
                "z": -0.48164630358495003
            },
            "position": {
                "x": 0.5540239810943604,
                "y": -0.46912469901144505,
                "z": 0.16403168439865112
            }
        },
        "name": "move_to_storage_B"
    },
    "id": "ProjEST_move_to_storage_B_75",
    "joint_names": [
        "shoulder_pan_joint",
        "shoulder_lift_joint",
        "elbow_joint",
        "wrist_1_joint",
        "wrist_2_joint",
        "wrist_3_joint"
    ],
    "metrics": {
        "cart_traj_len": 0.8374827840450857,
        "distance_elbow_joint": 0.4955057381062824,
        "distance_shoulder_lift_joint": 0.45983482331221115,
        "distance_shoulder_pan_joint": 0.6400694894540003,
        "distance_wrist_1_joint": 2.980851269474219,
        "distance_wrist_2_joint": 2.716602734845807,
        "distance_wrist_3_joint": 3.148058450275604,
        "smoothness": 0.11604334072305252,
        "time": 0.11177573099999999,
        "traj_len": 3.2312416352647046,
        "weighted_distance": 4.736506456275485
    },
    "planner": "ProjEST",
    "start": {
        "state": {
            "elbow_joint": 1.664937868594044,
            "shoulder_lift_joint": -0.661644460510453,
            "shoulder_pan_joint": -0.9139846352900073,
            "wrist_1_joint": 2.146753192139373,
            "wrist_2_joint": -2.2341966793290973,
            "wrist_3_joint": 0.005466555786416001
        }
    },
    "waypoints": [
        {
            "positions": [
                -0.9139846352900073,
                -0.661644460510453,
                1.664937868594044,
                2.146753192139373,
                -2.2341966793290973,
                0.005466555786416001
            ]
        },
        {
            "positions": [
                -0.799382700475227,
                -0.734450956214779,
                1.6288300503544877,
                2.0973718919415134,
                -2.2279469520724398,
                -0.006017174507360597
            ]
        },
        {
            "positions": [
                -0.6847807656604468,
                -0.8072574519191049,
                1.5927222321149315,
                2.0479905917436536,
                -2.221697224815782,
                -0.017500904801137196
            ]
        },
        {
            "positions": [
                -0.7012153904534244,
                -0.8198263251952473,
                1.6096538361800183,
                1.9327070449805137,
                -2.113533093602482,
                -0.14250454438865925
            ]
        },
        {
            "positions": [
                -0.7176500152464019,
                -0.8323951984713897,
                1.626585440245105,
                1.8174234982173736,
                -2.0053689623891824,
                -0.2675081839761813
            ]
        },
        {
            "positions": [
                -0.7340846400393796,
                -0.8449640717475321,
                1.6435170443101919,
                1.7021399514542337,
                -1.897204831175883,
                -0.39251182356370334
            ]
        },
        {
            "positions": [
                -0.7505192648323571,
                -0.8575329450236744,
                1.6604486483752787,
                1.5868564046910938,
                -1.7890406999625832,
                -0.5175154631512254
            ]
        },
        {
            "positions": [
                -0.7669538896253347,
                -0.8701018182998168,
                1.6773802524403654,
                1.4715728579279537,
                -1.6808765687492835,
                -0.6425191027387475
            ]
        },
        {
            "positions": [
                -0.7833885144183124,
                -0.8826706915759591,
                1.6943118565054522,
                1.3562893111648138,
                -1.572712437535984,
                -0.7675227423262695
            ]
        },
        {
            "positions": [
                -0.7998231392112899,
                -0.8952395648521015,
                1.711243460570539,
                1.2410057644016739,
                -1.4645483063226843,
                -0.8925263819137916
            ]
        },
        {
            "positions": [
                -0.8162577640042675,
                -0.9078084381282439,
                1.728175064635626,
                1.125722217638534,
                -1.3563841751093846,
                -1.0175300215013137
            ]
        },
        {
            "positions": [
                -0.832692388797245,
                -0.9203773114043863,
                1.7451066687007126,
                1.0104386708753939,
                -1.2482200438960849,
                -1.1425336610888357
            ]
        },
        {
            "positions": [
                -0.8491270135902227,
                -0.9329461846805286,
                1.7620382727657995,
                0.895155124112254,
                -1.1400559126827852,
                -1.2675373006763577
            ]
        },
        {
            "positions": [
                -0.8655616383832003,
                -0.945515057956671,
                1.7789698768308861,
                0.7798715773491138,
                -1.0318917814694857,
                -1.3925409402638798
            ]
        },
        {
            "positions": [
                -0.8819962631761779,
                -0.9580839312328133,
                1.795901480895973,
                0.6645880305859739,
                -0.923727650256186,
                -1.5175445798514018
            ]
        },
        {
            "positions": [
                -0.8984308879691555,
                -0.9706528045089557,
                1.8128330849610599,
                0.549304483822834,
                -0.8155635190428863,
                -1.6425482194389238
            ]
        },
        {
            "positions": [
                -0.914865512762133,
                -0.9832216777850982,
                1.8297646890261468,
                0.4340209370596939,
                -0.7073993878295866,
                -1.767551859026446
            ]
        },
        {
            "positions": [
                -0.9313001375551107,
                -0.9957905510612405,
                1.8466962930912334,
                0.318737390296554,
                -0.5992352566162871,
                -1.8925554986139679
            ]
        },
        {
            "positions": [
                -0.9477347623480883,
                -1.0083594243373828,
                1.8636278971563203,
                0.2034538435334141,
                -0.49107112540298736,
                -2.01755913820149
            ]
        },
        {
            "positions": [
                -0.9641693871410659,
                -1.0209282976135252,
                1.8805595012214071,
                0.08817029677027399,
                -0.38290699418968743,
                -2.142562777789012
            ]
        },
        {
            "positions": [
                -0.9806040119340433,
                -1.0334971708896676,
                1.8974911052864938,
                -0.027113249992865907,
                -0.27474286297638817,
                -2.267566417376534
            ]
        },
        {
            "positions": [
                -0.997038636727021,
                -1.0460660441658098,
                1.9144227093515807,
                -0.1423967967560058,
                -0.16657873176308824,
                -2.3925700569640562
            ]
        },
        {
            "positions": [
                -1.0134732615199986,
                -1.0586349174419523,
                1.9313543134166675,
                -0.2576803435191457,
                -0.05841460054978853,
                -2.5175736965515783
            ]
        },
        {
            "positions": [
                -1.0299078863129763,
                -1.0712037907180947,
                1.9482859174817542,
                -0.3729638902822856,
                0.04974953066351073,
                -2.6425773361391003
            ]
        },
        {
            "positions": [
                -1.0463425111059537,
                -1.083772663994237,
                1.965217521546841,
                -0.48824743704542595,
                0.15791366187681044,
                -2.7675809757266223
            ]
        },
        {
            "positions": [
                -1.0627771358989313,
                -1.0963415372703795,
                1.982149125611928,
                -0.6035309838085658,
                0.26607779309011015,
                -2.8925846153141443
            ]
        },
        {
            "positions": [
                -1.079211760691909,
                -1.1089104105465217,
                1.9990807296770146,
                -0.7188145305717057,
                0.37424192430340986,
                -3.0175882549016664
            ]
        },
        {
            "positions": [
                -1.0956463854848866,
                -1.1214792838226642,
                2.0160123337421014,
                -0.8340980773348455,
                0.4824060555167096,
                -3.1425918944891884
            ]
        }
    ]
}