{
    "goal": {
        "global_pose": {
            "orientation": {
                "w": 0.5084816217422485,
                "x": -0.49083608388900757,
                "y": 0.5182115435600281,
                "z": -0.4816462993621826
            },
            "position": {
                "x": 0.5540239810943604,
                "y": 0.030875300988554955,
                "z": 0.16403168439865112
            }
        },
        "name": "move_to_storage_A"
    },
    "id": "ProjEST_move_to_storage_A_94",
    "joint_names": [
        "shoulder_pan_joint",
        "shoulder_lift_joint",
        "elbow_joint",
        "wrist_1_joint",
        "wrist_2_joint",
        "wrist_3_joint"
    ],
    "metrics": {
        "cart_traj_len": 0.35309270019136957,
        "distance_elbow_joint": 0.4499151249345841,
        "distance_shoulder_lift_joint": 0.23654616679557505,
        "distance_shoulder_pan_joint": 0.45821909008188433,
        "distance_wrist_1_joint": 0.24228620856838468,
        "distance_wrist_2_joint": 1.114693337081978,
        "distance_wrist_3_joint": 0.09276161499039404,
        "smoothness": 0.0,
        "time": 0.031347059999999996,
        "traj_len": 1.610720814558749,
        "weighted_distance": 2.033943046912561
    },
    "planner": "ProjEST",
    "start": {
        "state": {
            "elbow_joint": 1.971548259319323,
            "shoulder_lift_joint": -1.1394851275133948,
            "shoulder_pan_joint": 0.1228115487234821,
            "wrist_1_joint": -0.7804723859257726,
            "wrist_2_joint": 0.12958671773740124,
            "wrist_3_joint": -3.192489227718131
        }
    },
    "waypoints": [
        {
            "positions": [
                0.1228115487234821,
                -1.1394851275133948,
                1.971548259319323,
                -0.7804723859257726,
                0.12958671773740124,
                -3.192489227718131
            ]
        },
        {
            "positions": [
                0.05735167871178434,
                -1.1732774370556198,
                2.0358218485956923,
                -0.8150847014355419,
                0.2888286230348267,
                -3.179237568433789
            ]
        },
        {
            "positions": [
                -0.008108191299913414,
                -1.2070697465978448,
                2.1000954378720613,
                -0.8496970169453111,
                0.44807052833225214,
                -3.1659859091494473
            ]
        },
        {
            "positions": [
                -0.07356806131161117,
                -1.2408620561400698,
                2.1643690271484304,
                -0.8843093324550804,
                0.6073124336296776,
                -3.152734249865105
            ]
        },
        {
            "positions": [
                -0.13902793132330893,
                -1.2746543656822948,
                2.2286426164247994,
                -0.9189216479648495,
                0.766554338927103,
                -3.139482590580763
            ]
        },
        {
            "positions": [
                -0.2044878013350067,
                -1.3084466752245199,
                2.292916205701169,
                -0.9535339634746188,
                0.9257962442245284,
                -3.126230931296421
            ]
        },
        {
            "positions": [
                -0.26994767134670444,
                -1.3422389847667449,
                2.357189794977538,
                -0.988146278984388,
                1.0850381495219539,
                -3.1129792720120792
            ]
        },
        {
            "positions": [
                -0.33540754135840223,
                -1.3760312943089699,
                2.421463384253907,
                -1.0227585944941573,
                1.2442800548193793,
                -3.099727612727737
            ]
        }
    ]
}{
    "goal": {
        "global_pose": {
            "orientation": {
                "w": 0.5084816217422485,
                "x": -0.49083608388900757,
                "y": 0.5182115435600281,
                "z": -0.4816462993621826
            },
            "position": {
                "x": 0.5540239810943604,
                "y": 0.030875300988554955,
                "z": 0.16403168439865112
            }
        },
        "name": "move_to_storage_A"
    },
    "id": "ProjEST_move_to_storage_A_94",
    "joint_names": [
        "shoulder_pan_joint",
        "shoulder_lift_joint",
        "elbow_joint",
        "wrist_1_joint",
        "wrist_2_joint",
        "wrist_3_joint"
    ],
    "metrics": {
        "cart_traj_len": 0.35281086480381457,
        "distance_elbow_joint": 0.45248960883243194,
        "distance_shoulder_lift_joint": 0.23302005647431878,
        "distance_shoulder_pan_joint": 0.4615370564178163,
        "distance_wrist_1_joint": 0.25521044858209785,
        "distance_wrist_2_joint": 1.0971153775796083,
        "distance_wrist_3_joint": 0.09321712227025891,
        "smoothness": 6.661338165333112e-16,
        "time": 0.055294441,
        "traj_len": 1.6101520642959573,
        "weighted_distance": 2.0325721981909415
    },
    "planner": "ProjEST",
    "start": {
        "state": {
            "elbow_joint": 1.97154746011099,
            "shoulder_lift_joint": -1.13948474672311,
            "shoulder_pan_joint": 0.12281154466712228,
            "wrist_1_joint": -0.7804688027058302,
            "wrist_2_joint": 0.12958655903071145,
            "wrist_3_joint": 3.0906928834467795
        }
    },
    "waypoints": [
        {
            "positions": [
                0.12281154466712228,
                -1.13948474672311,
                1.97154746011099,
                -0.7804688027058302,
                0.12958655903071145,
                3.0906928834467795
            ]
        },
        {
            "positions": [
                0.0568776794645771,
                -1.1727733262194413,
                2.0361888328013373,
                -0.8169274382175584,
                0.28631732725636977,
                3.1040096151996734
            ]
        },
        {
            "positions": [
                -0.009056185737968084,
                -1.2060619057157724,
                2.1008302054916848,
                -0.8533860737292867,
                0.44304809548202806,
                3.117326346952568
            ]
        },
        {
            "positions": [
                -0.07499005094051327,
                -1.2393504852121038,
                2.165471578182032,
                -0.889844709241015,
                0.5997788637076864,
                3.1306430787054618
            ]
        },
        {
            "positions": [
                -0.14092391614305844,
                -1.272639064708435,
                2.2301129508723796,
                -0.9263033447527432,
                0.7565096319333448,
                3.143959810458356
            ]
        },
        {
            "positions": [
                -0.20685778134560362,
                -1.3059276442047663,
                2.294754323562727,
                -0.9627619802644716,
                0.9132404001590031,
                3.15727654221125
            ]
        },
        {
            "positions": [
                -0.2727916465481488,
                -1.3392162237010974,
                2.3593956962530744,
                -0.9992206157761998,
                1.0699711683846613,
                3.1705932739641445
            ]
        },
        {
            "positions": [
                -0.338725511750694,
                -1.3725048031974287,
                2.424037068943422,
                -1.035679251287928,
                1.2267019366103198,
                3.1839100057170384
            ]
        }
    ]
}{
    "goal": {
        "global_pose": {
            "orientation": {
                "w": 0.5084816217422485,
                "x": -0.49083608388900757,
                "y": 0.5182115435600281,
                "z": -0.4816462993621826
            },
            "position": {
                "x": 0.5540239810943604,
                "y": 0.030875300988554955,
                "z": 0.16403168439865112
            }
        },
        "name": "move_to_storage_A"
    },
    "id": "ProjEST_move_to_storage_A_94",
    "joint_names": [
        "shoulder_pan_joint",
        "shoulder_lift_joint",
        "elbow_joint",
        "wrist_1_joint",
        "wrist_2_joint",
        "wrist_3_joint"
    ],
    "metrics": {
        "cart_traj_len": 0.35317324108541337,
        "distance_elbow_joint": 0.44863497077931935,
        "distance_shoulder_lift_joint": 0.23275873902733935,
        "distance_shoulder_pan_joint": 0.46293912805742055,
        "distance_wrist_1_joint": 0.2409492691846331,
        "distance_wrist_2_joint": 1.0930907233641343,
        "distance_wrist_3_joint": 0.09303514770832777,
        "smoothness": 0.0,
        "time": 0.039727377,
        "traj_len": 1.603561030369962,
        "weighted_distance": 2.022750173918321
    },
    "planner": "ProjEST",
    "start": {
        "state": {
            "elbow_joint": 1.9715472970024885,
            "shoulder_lift_joint": -1.1394870060712896,
            "shoulder_pan_joint": 0.12281152778156021,
            "wrist_1_joint": -0.780463741449964,
            "wrist_2_joint": 0.12958659822042276,
            "wrist_3_joint": 3.090690232415272
        }
    },
    "waypoints": [
        {
            "positions": [
                0.12281152778156021,
                -1.1394870060712896,
                1.9715472970024885,
                -0.780463741449964,
                0.12958659822042276,
                3.090690232415272
            ]
        },
        {
            "positions": [
                0.05667736663050013,
                -1.1727382545037666,
                2.03563800711382,
                -0.8148850656191973,
                0.2857424158438705,
                3.1039809678021757
            ]
        },
        {
            "positions": [
                -0.009456794520559947,
                -1.2059895029362437,
                2.099728717225151,
                -0.8493063897884305,
                0.44189823346731827,
                3.11727170318908
            ]
        },
        {
            "positions": [
                -0.07559095567162002,
                -1.2392407513687207,
                2.1638194273364824,
                -0.8837277139576639,
                0.598054051090766,
                3.130562438575984
            ]
        },
        {
            "positions": [
                -0.1417251168226801,
                -1.2724919998011979,
                2.2279101374478136,
                -0.9181490381268972,
                0.7542098687142137,
                3.1438531739628877
            ]
        },
        {
            "positions": [
                -0.20785927797374018,
                -1.3057432482336748,
                2.2920008475591453,
                -0.9525703622961306,
                0.9103656863376615,
                3.1571439093497915
            ]
        },
        {
            "positions": [
                -0.27399343912480023,
                -1.3389944966661518,
                2.3560915576704766,
                -0.9869916864653638,
                1.0665215039611093,
                3.170434644736696
            ]
        },
        {
            "positions": [
                -0.3401276002758603,
                -1.372245745098629,
                2.420182267781808,
                -1.021413010634597,
                1.222677321584557,
                3.1837253801235996
            ]
        }
    ]
}