{
    "goal": {
        "global_pose": {
            "orientation": {
                "w": 0.7047431493862688,
                "x": -0.7094548369677653,
                "y": 0.0024358444001904,
                "z": -0.0022348060817251984
            },
            "position": {
                "x": -0.39052492380142206,
                "y": 0.3671506643295288,
                "z": 0.19426114857196808
            }
        },
        "name": "move_to_magneteinheit_D"
    },
    "id": "ProjEST_move_to_magneteinheit_D_72",
    "joint_names": [
        "shoulder_pan_joint",
        "shoulder_lift_joint",
        "elbow_joint",
        "wrist_1_joint",
        "wrist_2_joint",
        "wrist_3_joint"
    ],
    "metrics": {
        "cart_traj_len": 4.718128909575605,
        "distance_elbow_joint": 3.1016194792816116,
        "distance_shoulder_lift_joint": 1.1041252933936236,
        "distance_shoulder_pan_joint": 4.1775660240388115,
        "distance_wrist_1_joint": 2.6253112452765377,
        "distance_wrist_2_joint": 2.3414492601038517,
        "distance_wrist_3_joint": 0.5807439904137479,
        "smoothness": 0.8854197536773679,
        "time": 0.14758365,
        "traj_len": 3.73240074114613,
        "weighted_distance": 4.478734618027292
    },
    "planner": "ProjEST",
    "start": {
        "state": {
            "elbow_joint": 0.749534889911806,
            "shoulder_lift_joint": -0.6476975780787326,
            "shoulder_pan_joint": -2.711696901376241,
            "wrist_1_joint": -0.07506478083263063,
            "wrist_2_joint": 0.43296659715538205,
            "wrist_3_joint": -3.14703540197715
        }
    },
    "waypoints": [
        {
            "positions": [
                -2.711696901376241,
                -0.6476975780787326,
                0.749534889911806,
                -0.07506478083263063,
                0.43296659715538205,
                -3.14703540197715
            ]
        },
        {
            "positions": [
                -2.7768835559543272,
                -0.7207829352805968,
                0.7349671829694263,
                -0.16383758071477722,
                0.49198245727108286,
                -3.1288918369612078
            ]
        },
        {
            "positions": [
                -2.8420702105324134,
                -0.7938682924824609,
                0.7203994760270467,
                -0.2526103805969238,
                0.5509983173867837,
                -3.1107482719452655
            ]
        },
        {
            "positions": [
                -2.907256865110499,
                -0.8669536496843251,
                0.7058317690846672,
                -0.34138318047907035,
                0.6100141775024845,
                -3.0926047069293228
            ]
        },
        {
            "positions": [
                -2.9724435196885852,
                -0.9400390068861892,
                0.6912640621422875,
                -0.430155980361217,
                0.6690300376181854,
                -3.0744611419133805
            ]
        },
        {
            "positions": [
                -3.0376301742666714,
                -1.0131243640880534,
                0.6766963551999079,
                -0.5189287802433635,
                0.7280458977338862,
                -3.056317576897438
            ]
        },
        {
            "positions": [
                -2.9087295696630884,
                -1.024413138675926,
                0.5743361901415281,
                -0.5934007064841119,
                0.6711302392459269,
                -3.0472684300970454
            ]
        },
        {
            "positions": [
                -2.7798289650595054,
                -1.0357019132637988,
                0.4719760250831484,
                -0.6678726327248603,
                0.6142145807579674,
                -3.0382192832966526
            ]
        },
        {
            "positions": [
                -2.6509283604559224,
                -1.0469906878516713,
                0.3696158600247686,
                -0.7423445589656088,
                0.557298922270008,
                -3.02917013649626
            ]
        },
        {
            "positions": [
                -2.5220277558523394,
                -1.058279462439544,
                0.26725569496638885,
                -0.8168164852063572,
                0.5003832637820487,
                -3.0201209896958674
            ]
        },
        {
            "positions": [
                -2.3931271512487564,
                -1.0695682370274167,
                0.16489552990800904,
                -0.8912884114471056,
                0.4434676052940893,
                -3.0110718428954746
            ]
        },
        {
            "positions": [
                -2.2642265466451734,
                -1.0808570116152894,
                0.0625353648496293,
                -0.9657603376878541,
                0.3865519468061299,
                -3.0020226960950818
            ]
        },
        {
            "positions": [
                -2.135325942041591,
                -1.092145786203162,
                -0.039824800208750344,
                -1.0402322639286024,
                0.3296362883181706,
                -2.9929735492946894
            ]
        },
        {
            "positions": [
                -2.0064253374380074,
                -1.1034345607910345,
                -0.1421849652671302,
                -1.1147041901693509,
                0.27272062983021117,
                -2.9839244024942966
            ]
        },
        {
            "positions": [
                -1.877524732834425,
                -1.1147233353789072,
                -0.24454513032550984,
                -1.1891761164100991,
                0.21580497134225185,
                -2.9748752556939038
            ]
        },
        {
            "positions": [
                -1.7486241282308417,
                -1.12601210996678,
                -0.3469052953838898,
                -1.2636480426508476,
                0.15888931285429242,
                -2.965826108893511
            ]
        },
        {
            "positions": [
                -1.619723523627259,
                -1.1373008845546526,
                -0.44926546044226945,
                -1.3381199688915961,
                0.1019736543663331,
                -2.9567769620931186
            ]
        },
        {
            "positions": [
                -1.4908229190236757,
                -1.1485896591425253,
                -0.5516256255006493,
                -1.4125918951323446,
                0.04505799587837367,
                -2.9477278152927258
            ]
        },
        {
            "positions": [
                -1.361922314420093,
                -1.1598784337303978,
                -0.653985790559029,
                -1.487063821373093,
                -0.01185766260958565,
                -2.938678668492333
            ]
        },
        {
            "positions": [
                -1.2330217098165102,
                -1.1711672083182705,
                -0.7563459556174086,
                -1.5615357476138412,
                -0.06877332109754497,
                -2.92962952169194
            ]
        },
        {
            "positions": [
                -1.1041211052129272,
                -1.1824559829061432,
                -0.8587061206757882,
                -1.6360076738545897,
                -0.1256889795855043,
                -2.9205803748915473
            ]
        },
        {
            "positions": [
                -0.975220500609344,
                -1.1937447574940159,
                -0.9610662857341683,
                -1.7104796000953382,
                -0.18260463807346383,
                -2.911531228091155
            ]
        },
        {
            "positions": [
                -0.846319896005761,
                -1.2050335320818886,
                -1.063426450792548,
                -1.7849515263360867,
                -0.23952029656142315,
                -2.902482081290762
            ]
        },
        {
            "positions": [
                -0.7174192914021784,
                -1.216322306669761,
                -1.1657866158509276,
                -1.859423452576835,
                -0.29643595504938247,
                -2.8934329344903693
            ]
        },
        {
            "positions": [
                -0.5885186867985954,
                -1.2276110812576337,
                -1.2681467809093074,
                -1.9338953788175832,
                -0.3533516135373418,
                -2.8843837876899765
            ]
        },
        {
            "positions": [
                -0.459618082195012,
                -1.2388998558455064,
                -1.3705069459676875,
                -2.008367305058332,
                -0.41026727202530133,
                -2.875334640889584
            ]
        },
        {
            "positions": [
                -0.330717477591429,
                -1.2501886304333791,
                -1.472867111026067,
                -2.08283923129908,
                -0.46718293051326065,
                -2.8662854940891913
            ]
        },
        {
            "positions": [
                -0.20181687298784645,
                -1.2614774050212518,
                -1.5752272760844468,
                -2.1573111575398283,
                -0.52409858900122,
                -2.8572363472887985
            ]
        },
        {
            "positions": [
                -0.07291626838426346,
                -1.2727661796091243,
                -1.6775874411428262,
                -2.231783083780577,
                -0.5810142474891793,
                -2.8481872004884057
            ]
        },
        {
            "positions": [
                0.055984336219319975,
                -1.2840549541969972,
                -1.7799476062012065,
                -2.3062550100213253,
                -0.6379299059771388,
                -2.8391380536880133
            ]
        },
        {
            "positions": [
                0.18488494082290252,
                -1.2953437287848697,
                -1.882307771259586,
                -2.380726936262074,
                -0.6948455644650982,
                -2.8300889068876205
            ]
        },
        {
            "positions": [
                0.3137855454264855,
                -1.3066325033727424,
                -1.9846679363179656,
                -2.4551988625028223,
                -0.7517612229530574,
                -2.8210397600872277
            ]
        },
        {
            "positions": [
                0.23254362372515144,
                -1.38045722384076,
                -2.0451142852673074,
                -2.416625603731793,
                -0.6582109904251667,
                -2.8620998382120884
            ]
        },
        {
            "positions": [
                0.15130170202381737,
                -1.4542819443087778,
                -2.1055606342166495,
                -2.3780523449607633,
                -0.5646607578972761,
                -2.903159916336949
            ]
        },
        {
            "positions": [
                0.07005978032248328,
                -1.5281066647767956,
                -2.166006983165991,
                -2.3394790861897343,
                -0.4711105253693854,
                -2.9442199944618097
            ]
        },
        {
            "positions": [
                -0.011182141378850763,
                -1.6019313852448132,
                -2.2264533321153333,
                -2.300905827418705,
                -0.3775602928414948,
                -2.9852800725866704
            ]
        },
        {
            "positions": [
                -0.09242406308018492,
                -1.6757561057128307,
                -2.286899681064675,
                -2.2623325686476754,
                -0.2840100603136041,
                -3.026340150711531
            ]
        },
        {
            "positions": [
                -0.17366598478151896,
                -1.7495808261808485,
                -2.347346030014017,
                -2.223759309876646,
                -0.19045982778571346,
                -3.0674002288363917
            ]
        },
        {
            "positions": [
                -0.18643148602873863,
                -1.7518228714723563,
                -2.3520845893698055,
                -2.237496920856816,
                -0.1851983841146538,
                -3.0757881086110532
            ]
        }
    ]
}