{
    "goal": {
        "global_pose": {
            "orientation": {
                "w": 0.005598929693374612,
                "x": 0.007748599140229565,
                "y": 0.7110244013736278,
                "z": -0.7031023480610252
            },
            "position": {
                "x": -0.8858502320852131,
                "y": -0.7141253447532654,
                "z": 0.3711530566215515
            }
        },
        "name": "move_to_auspresseinheit_C"
    },
    "id": "ProjEST_move_to_auspresseinheit_C_50",
    "joint_names": [
        "shoulder_pan_joint",
        "shoulder_lift_joint",
        "elbow_joint",
        "wrist_1_joint",
        "wrist_2_joint",
        "wrist_3_joint"
    ],
    "metrics": {
        "cart_traj_len": 0.49346009982523986,
        "distance_elbow_joint": 0.9916251682683235,
        "distance_shoulder_lift_joint": 0.32074432631034133,
        "distance_shoulder_pan_joint": 0.256988930749257,
        "distance_wrist_1_joint": 0.6569021214256874,
        "distance_wrist_2_joint": 1.3115354696063053,
        "distance_wrist_3_joint": 0.035243750790342254,
        "smoothness": 1.1304088990788627e-15,
        "time": 0.317278932,
        "traj_len": 1.8902485992985834,
        "weighted_distance": 2.3689586023742444
    },
    "planner": "ProjEST",
    "start": {
        "state": {
            "elbow_joint": 1.7527959577737207,
            "shoulder_lift_joint": -0.9740617694225068,
            "shoulder_pan_joint": -2.967991417825858,
            "wrist_1_joint": -0.759517768980727,
            "wrist_2_joint": 1.7443932448377408,
            "wrist_3_joint": -3.0840537646736568
        }
    },
    "waypoints": [
        {
            "positions": [
                -2.967991417825858,
                -0.9740617694225068,
                1.7527959577737207,
                -0.759517768980727,
                1.7443932448377408,
                -3.0840537646736568
            ]
        },
        {
            "positions": [
                -2.942292524750932,
                -0.9419873367914726,
                1.6536334409468882,
                -0.6938275568381582,
                1.6132396978771104,
                -3.087578139752691
            ]
        },
        {
            "positions": [
                -2.9165936316760064,
                -0.9099129041604385,
                1.5544709241200558,
                -0.6281373446955895,
                1.4820861509164798,
                -3.091102514831725
            ]
        },
        {
            "positions": [
                -2.890894738601081,
                -0.8778384715294044,
                1.4553084072932236,
                -0.5624471325530208,
                1.3509326039558491,
                -3.0946268899107596
            ]
        },
        {
            "positions": [
                -2.8651958455261552,
                -0.8457640388983703,
                1.3561458904663912,
                -0.496756920410452,
                1.2197790569952187,
                -3.0981512649897938
            ]
        },
        {
            "positions": [
                -2.8394969524512295,
                -0.8136896062673361,
                1.2569833736395588,
                -0.4310667082678833,
                1.0886255100345883,
                -3.101675640068828
            ]
        },
        {
            "positions": [
                -2.8137980593763037,
                -0.781615173636302,
                1.1578208568127266,
                -0.3653764961253146,
                0.9574719630739577,
                -3.105200015147862
            ]
        },
        {
            "positions": [
                -2.788099166301378,
                -0.7495407410052679,
                1.0586583399858944,
                -0.2996862839827458,
                0.8263184161133272,
                -3.108724390226896
            ]
        },
        {
            "positions": [
                -2.7624002732264525,
                -0.7174663083742336,
                0.9594958231590618,
                -0.233996071840177,
                0.6951648691526966,
                -3.1122487653059308
            ]
        },
        {
            "positions": [
                -2.7367013801515268,
                -0.6853918757431996,
                0.8603333063322295,
                -0.16830585969760836,
                0.564011322192066,
                -3.115773140384965
            ]
        },
        {
            "positions": [
                -2.711002487076601,
                -0.6533174431121654,
                0.7611707895053972,
                -0.10261564755503957,
                0.43285777523143554,
                -3.119297515463999
            ]
        }
    ]
}